<?xml version="1.0"?>
<svg
    xmlns:rdf="http://www.w3.org/1999/02/22-rdf-syntax-ns#"
    xmlns="http://www.w3.org/2000/svg"
    xmlns:cc="http://creativecommons.org/ns#"
    xmlns:xlink="http://www.w3.org/1999/xlink"
    xmlns:dc="http://purl.org/dc/elements/1.1/"
    xmlns:svg="http://www.w3.org/2000/svg"
    xmlns:inkscape="http://www.inkscape.org/namespaces/inkscape"
    xmlns:sodipodi="http://sodipodi.sourceforge.net/DTD/sodipodi-0.dtd"
    xmlns:ns1="http://sozi.baierouge.fr"
    id="svg13484"
    viewBox="0 0 580.55 539.99"
    version="1.1"
  >
  <defs
      id="defs13486"
    >
    <linearGradient
        id="linearGradient15286"
      >
      <stop
          id="stop15288"
          stop-color="#ff0"
          offset="0"
      />
      <stop
          id="stop15290"
          stop-color="#ff0"
          stop-opacity="0"
          offset="1"
      />
    </linearGradient
    >
    <linearGradient
        id="linearGradient13351"
      >
      <stop
          id="stop13353"
          stop-color="#fff"
          offset="0"
      />
      <stop
          id="stop13355"
          stop-color="#fff"
          stop-opacity="0"
          offset="1"
      />
    </linearGradient
    >
    <clipPath
        id="clipPath13347"
      >
      <path
          id="path13349"
          stroke="#000"
          stroke-width="1px"
          fill="none"
          d="m7393.8-2803.9s118.75 134.38 43.75 262.5-134.38 78.125-112.5 268.75c21.875 190.62 143.75 231.25 109.38 343.75-34.375 112.5-243.75 259.38-243.75 259.38l-365.62 40.625-109.38-762.5 559.38-443.75z"
      />
    </clipPath
    >
    <filter
        id="filter14141"
        width="1.1171"
        y="-.10356"
        x="-.058534"
        height="1.2071"
        color-interpolation-filters="sRGB"
      >
      <feGaussianBlur
          id="feGaussianBlur14143"
          stdDeviation="46.82553"
      />
    </filter
    >
    <filter
        id="filter10111"
        color-interpolation-filters="sRGB"
      >
      <feGaussianBlur
          id="feGaussianBlur10113"
          stdDeviation="3.8482547"
      />
    </filter
    >
    <linearGradient
        id="linearGradient9700"
      >
      <stop
          id="stop9702"
          stop-color="#f3d89e"
          offset="0"
      />
      <stop
          id="stop9704"
          stop-color="#f3d89e"
          stop-opacity="0"
          offset="1"
      />
    </linearGradient
    >
    <linearGradient
        id="linearGradient9722"
      >
      <stop
          id="stop9724"
          stop-color="#6e4115"
          offset="0"
      />
      <stop
          id="stop9726"
          stop-color="#6e4115"
          stop-opacity="0"
          offset="1"
      />
    </linearGradient
    >
    <filter
        id="filter9832"
        width="1.357"
        y="-.054924"
        x="-.17849"
        height="1.1098"
        color-interpolation-filters="sRGB"
      >
      <feGaussianBlur
          id="feGaussianBlur9834"
          stdDeviation="3.7871225"
      />
    </filter
    >
    <filter
        id="filter10086"
        color-interpolation-filters="sRGB"
      >
      <feGaussianBlur
          id="feGaussianBlur10088"
          stdDeviation="0.52629525"
      />
    </filter
    >
    <filter
        id="filter9854"
        width="1.752"
        y="-.025636"
        x="-.376"
        height="1.0513"
        color-interpolation-filters="sRGB"
      >
      <feGaussianBlur
          id="feGaussianBlur9856"
          stdDeviation="0.734375"
      />
    </filter
    >
    <filter
        id="filter9884"
        width="2.5533"
        y="-.052954"
        x="-.77665"
        height="1.1059"
        color-interpolation-filters="sRGB"
      >
      <feGaussianBlur
          id="feGaussianBlur9886"
          stdDeviation="1.5169032"
      />
    </filter
    >
    <filter
        id="filter9936"
        color-interpolation-filters="sRGB"
      >
      <feGaussianBlur
          id="feGaussianBlur9938"
          stdDeviation="0.90197799"
      />
    </filter
    >
    <filter
        id="filter10294"
        color-interpolation-filters="sRGB"
      >
      <feGaussianBlur
          id="feGaussianBlur10296"
          stdDeviation="0.47014145"
      />
    </filter
    >
    <filter
        id="filter14706"
        color-interpolation-filters="sRGB"
      >
      <feGaussianBlur
          id="feGaussianBlur14708"
          stdDeviation="8.6785063"
      />
    </filter
    >
    <filter
        id="filter14833"
        color-interpolation-filters="sRGB"
      >
      <feGaussianBlur
          id="feGaussianBlur14835"
          stdDeviation="5.1434013"
      />
    </filter
    >
    <filter
        id="filter15169"
        color-interpolation-filters="sRGB"
      >
      <feGaussianBlur
          id="feGaussianBlur15171"
          stdDeviation="1.4328371"
      />
    </filter
    >
    <clipPath
        id="clipPath15180"
      >
      <rect
          id="rect15182"
          height="96.748"
          width="288.42"
          y="-373.02"
          x="-1013.1"
          fill="#b3b3b3"
      />
    </clipPath
    >
    <filter
        id="filter15206"
        color-interpolation-filters="sRGB"
      >
      <feGaussianBlur
          id="feGaussianBlur15208"
          stdDeviation="1.4170989"
      />
    </filter
    >
    <linearGradient
        id="linearGradient15800"
        x1="54.444"
        gradientUnits="userSpaceOnUse"
        y1="558.47"
        gradientTransform="translate(153.34 -186.19)"
        x2="125.64"
        y2="569.42"
      >
      <stop
          id="stop15667"
          stop-color="#999"
          offset="0"
      />
      <stop
          id="stop15669"
          stop-color="#999"
          stop-opacity="0"
          offset="1"
      />
    </linearGradient
    >
    <radialGradient
        id="radialGradient15802"
        xlink:href="#linearGradient15286"
        gradientUnits="userSpaceOnUse"
        cy="199.24"
        cx="-152.42"
        gradientTransform="matrix(.46136 .19204 -.090186 .31305 410.31 287.89)"
        r="637.22"
    />
    <radialGradient
        id="radialGradient15804"
        xlink:href="#linearGradient15286"
        gradientUnits="userSpaceOnUse"
        cy="199.24"
        cx="-152.42"
        gradientTransform="matrix(.32893 .13175 -.089960 .28414 390.08 284.46)"
        r="637.22"
    />
    <linearGradient
        id="linearGradient15806"
        x1="8688.9"
        gradientUnits="userSpaceOnUse"
        x2="8621.9"
        y1="-1881.4"
        y2="-3028.7"
      >
      <stop
          id="stop14147"
          stop-color="#666"
          offset="0"
      />
      <stop
          id="stop14149"
          stop-color="#666"
          stop-opacity="0"
          offset="1"
      />
    </linearGradient
    >
    <linearGradient
        id="linearGradient15812"
        x1="7056.2"
        xlink:href="#linearGradient13351"
        gradientUnits="userSpaceOnUse"
        x2="7528.1"
        y1="-2332"
        y2="-2253.9"
    />
    <linearGradient
        id="linearGradient15814"
        x1="6962.5"
        xlink:href="#linearGradient13351"
        gradientUnits="userSpaceOnUse"
        x2="7559.4"
        y1="-2247.6"
        y2="-2238.3"
    />
    <linearGradient
        id="linearGradient15816"
        x1="-687.78"
        gradientUnits="userSpaceOnUse"
        x2="-555.93"
        y1="-3955.4"
        y2="-4232.9"
      >
      <stop
          id="stop14712"
          offset="0"
      />
      <stop
          id="stop14714"
          stop-opacity="0"
          offset="1"
      />
    </linearGradient
    >
    <radialGradient
        id="radialGradient15834"
        xlink:href="#linearGradient9700"
        gradientUnits="userSpaceOnUse"
        cy="-4051.7"
        cx="-239.39"
        gradientTransform="matrix(.49827 -.045077 .14477 1.6628 473.85 2677.3)"
        r="123.44"
    />
    <radialGradient
        id="radialGradient15836"
        xlink:href="#linearGradient9700"
        gradientUnits="userSpaceOnUse"
        cy="-4051.7"
        cx="-239.39"
        gradientTransform="matrix(.33754 -.045077 .098071 1.6628 243.53 2677.3)"
        r="123.44"
    />
    <radialGradient
        id="radialGradient15838"
        xlink:href="#linearGradient9700"
        gradientUnits="userSpaceOnUse"
        cy="-4051.7"
        cx="-239.39"
        gradientTransform="matrix(.20574 -.045077 .059777 1.6628 58.004 2677.3)"
        r="123.44"
    />
    <radialGradient
        id="radialGradient15840"
        xlink:href="#linearGradient9700"
        gradientUnits="userSpaceOnUse"
        cy="-4051.7"
        cx="-239.39"
        gradientTransform="matrix(.11573 -.045077 .033624 1.6628 -70.791 2677.3)"
        r="123.44"
    />
    <radialGradient
        id="radialGradient15842"
        xlink:href="#linearGradient9722"
        gradientUnits="userSpaceOnUse"
        cy="-3865.3"
        cx="-230.54"
        gradientTransform="matrix(1.4758 -.072579 .016230 .33001 173.27 -2651.3)"
        r="129.17"
    />
    <radialGradient
        id="radialGradient15844"
        xlink:href="#linearGradient9722"
        gradientUnits="userSpaceOnUse"
        cy="-3865.3"
        cx="-230.54"
        gradientTransform="matrix(1.4758 -.076566 .016230 .34813 173.27 -2583.2)"
        r="129.17"
    />
    <radialGradient
        id="radialGradient15846"
        xlink:href="#linearGradient9722"
        gradientUnits="userSpaceOnUse"
        cy="-3884.4"
        cx="-235.62"
        gradientTransform="matrix(1.4947 -.068490 .016437 .31141 176.97 -2727.4)"
        r="129.17"
    />
    <radialGradient
        id="radialGradient15848"
        xlink:href="#linearGradient13351"
        gradientUnits="userSpaceOnUse"
        cy="-4081.4"
        cx="-234.38"
        gradientTransform="matrix(.76122 .14346 -.24592 1.3049 -1059.7 1278.9)"
        r="28.125"
    />
    <linearGradient
        id="linearGradient15850"
        x1="-81.25"
        xlink:href="#linearGradient13351"
        gradientUnits="userSpaceOnUse"
        x2="-232.81"
        y1="-4049.2"
        y2="-4043"
    />
    <linearGradient
        id="linearGradient15852"
        x1="-199.22"
        gradientUnits="userSpaceOnUse"
        y1="-3782.8"
        gradientTransform="translate(-21.875,-125)"
        x2="-207.03"
        y2="-3754.7"
      >
      <stop
          id="stop9894"
          stop-color="#edd298"
          offset="0"
      />
      <stop
          id="stop9896"
          stop-color="#edd298"
          stop-opacity="0"
          offset="1"
      />
    </linearGradient
    >
    <linearGradient
        id="linearGradient15854"
        x1="-196.09"
        xlink:href="#linearGradient13351"
        gradientUnits="userSpaceOnUse"
        y1="-3779.7"
        gradientTransform="translate(-21.875,-125)"
        x2="-206.25"
        y2="-3762.5"
    />
    <linearGradient
        id="linearGradient15856"
        y2="32.662"
        gradientUnits="userSpaceOnUse"
        y1="89.457"
        x2="-197.49"
        x1="-73.574"
      >
      <stop
          id="stop14871"
          stop-color="#800000"
          offset="0"
      />
      <stop
          id="stop14873"
          stop-color="#800000"
          stop-opacity="0"
          offset="1"
      />
    </linearGradient
    >
    <linearGradient
        id="linearGradient15858"
        x1="-222.01"
        gradientUnits="userSpaceOnUse"
        y1="-29.295"
        gradientTransform="matrix(.94571 0 0 .89336 138.96 12.136)"
        x2="-101.97"
        y2="48.152"
      >
      <stop
          id="stop14884"
          stop-color="#fff"
          offset="0"
      />
      <stop
          id="stop14886"
          stop-color="#fff"
          stop-opacity="0"
          offset="1"
      />
    </linearGradient
    >
    <radialGradient
        id="radialGradient15860"
        gradientUnits="userSpaceOnUse"
        cy="-59.709"
        cx="36.756"
        gradientTransform="matrix(.73230 .0045312 -.010707 1.7304 9.2001 41.443)"
        r="30.011"
      >
      <stop
          id="stop15117"
          stop-color="#ff0"
          offset="0"
      />
      <stop
          id="stop15119"
          stop-color="#ff0"
          stop-opacity="0"
          offset="1"
      />
    </radialGradient
    >
    <radialGradient
        id="radialGradient15862"
        gradientUnits="userSpaceOnUse"
        cy="-105.13"
        cx="-104.96"
        gradientTransform="matrix(1.5936 -.055264 .0055248 .26586 62.65 -75.482)"
        r="30.333"
      >
      <stop
          id="stop15129"
          stop-color="#808000"
          offset="0"
      />
      <stop
          id="stop15131"
          stop-color="#808000"
          stop-opacity="0"
          offset="1"
      />
    </radialGradient
    >
    <linearGradient
        id="linearGradient15864"
        y2="-18.472"
        gradientUnits="userSpaceOnUse"
        y1="-99.146"
        x2="39.983"
        x1="36.11"
      >
      <stop
          id="stop15139"
          offset="0"
      />
      <stop
          id="stop15141"
          stop-opacity="0"
          offset="1"
      />
    </linearGradient
    >
    <linearGradient
        id="linearGradient15866"
        x1="-388.6"
        gradientUnits="userSpaceOnUse"
        x2="-436.7"
        y1="-3698.2"
        y2="-4082.4"
      >
      <stop
          id="stop14797"
          stop-color="#4d4d4d"
          offset="0"
      />
      <stop
          id="stop14799"
          stop-color="#4d4d4d"
          stop-opacity="0"
          offset="1"
      />
    </linearGradient
    >
  </defs
  >
  <g
      id="layer1"
      transform="translate(-6.4571 -23.683)"
    >
    <g
        id="g15681"
      >
      <path
          id="path15634"
          opacity=".45575"
          d="m554.34 355.87s-31.167 31.71-74.704 18.233c-33.956-10.511-72.44-11.369-82.627-4.2902s11.319 10.94-7.3572 16.088c-18.676 5.1482-63.385 4.5047-91.116-4.9337s-58.291-9.8674-80.929-4.5047c-22.637 5.3628-26.599-4.0757-26.599-4.0757"
          filter="url(#filter14833)"
          stroke="#1a1a1a"
          stroke-width="10"
          fill="url(#linearGradient15800)"
      />
      <path
          id="path15277"
          d="m6.6965 267.97c32.278-13.829 64.294-48.525 61.943-92.96 4.2314-36.047-16.919-75.891 3.2394-108.66 24.727-26.572 50.78 15.847 77.22 11.919 27.052-9.8271 48.028-36.202 76.13-44.166 41.17-14.964 85.709-12.126 127.31-2.0761 34.966 20.551 8.2816 73.235 23.863 104.8 22.652 29.451 59.66 18.609 89.271 19.562 31.24 2.0237 72.374-15.4 93.317 22.476 23.388 40.699 27.05 92.507 27.958 140.62 1.5289 60.332-26.772 113.9-57.539 158.61-42.688 51.945-105.26 68.418-163.34 78.415-65.697 9.7978-132.01 6.2801-198.03 7.1566-67.86-11.2-113.27-87.15-130.75-161.63-10.653-43.16-20.113-86.93-30.833-129.95 0.079787-1.371 0.15958-2.742 0.23937-4.113z"
          fill="url(#radialGradient15802)"
      />
      <path
          id="path15677"
          d="m6.6965 267.97c32.278-13.829 64.294-48.525 61.943-92.96 4.2314-36.047-16.919-75.891 3.2394-108.66 24.727-26.572 50.78 15.847 77.22 11.919 27.052-9.8271 48.028-36.202 76.13-44.166 41.17-14.964 85.709-12.126 127.31-2.0761 34.966 20.551 8.2816 73.235 23.863 104.8 22.652 29.451 59.66 18.609 89.271 19.562 31.24 2.0237 72.374-15.4 93.317 22.476 23.388 40.699 27.05 92.507 27.958 140.62 1.5289 60.332-26.772 113.9-57.539 158.61-42.688 51.945-105.26 68.418-163.34 78.415-65.697 9.7978-132.01 6.2801-198.03 7.1566-67.86-11.2-113.27-87.15-130.75-161.63-10.653-43.16-20.113-86.93-30.833-129.95 0.079787-1.371 0.15958-2.742 0.23937-4.113z"
          fill="url(#radialGradient15804)"
      />
      <g
          id="g15237"
          transform="matrix(.57747 0 0 .57747 504.32 138.5)"
        >
        <g
            id="g13556"
            filter="url(#filter14141)"
            fill="url(#linearGradient15806)"
            transform="matrix(.41813 0 -.26968 .14401 -4438 600.34)"
          >
          <path
              id="path13567"
              d="m8639.4-1842.5c-165.22 3.0038-315.41-60.079-315.41-60.079s114.15-15.02 174.23-144.19c56.229-120.89 39.051-159.21 39.051-159.21-75.923 38.965-156.39 40.952-252.33 21.028 0 0 186.24-84.11 237.31-204.27 39.409-92.728 42.055-90.118 42.055-90.118s-57.075 24.032-96.126 24.032-48.063-3.004-48.063-3.004 117.15-75.098 174.23-204.27c57.075-129.17 45.059-153.2 45.059-153.2 28.434 151.57 59.128 196.45 216.28 342.45 0 0-108.14 24.032-135.18 6.0079-27.036-18.024-18.024-18.024-18.024-18.024 53.244 137.36 93.891 188.99 279.37 282.37 0 0-140.76 35.044-237.31 3.004 37.229 194.73 251.23 298.41 251.23 298.41-162.21 42.055-141.16 56.132-356.37 59.062z"
          />
          <path
              id="path13558"
              d="m8573.3-1908.6h157.02v178.03h-157.02z"
          />
        </g
        >
        <g
            id="g13325"
            stroke="#000"
            stroke-width="15.38"
            transform="matrix(.41388 0 0 .41388 -3374.8 1022.1)"
          >
          <rect
              id="rect13321"
              height="178.03"
              width="157.02"
              y="-1805.5"
              x="7279.6"
              fill="#502d16"
          />
          <path
              id="path13323"
              fill="#008000"
              d="m7345.7-1739.4c-165.22 3.0038-315.41-60.079-315.41-60.079s114.15-15.02 174.23-144.19c56.229-120.89 39.051-159.21 39.051-159.21-75.923 38.965-156.39 40.952-252.33 21.028 0 0 186.24-84.11 237.31-204.27 39.409-92.728 42.055-90.118 42.055-90.118s-57.075 24.032-96.126 24.032-48.063-3.004-48.063-3.004 117.15-75.098 174.23-204.27c57.075-129.17 45.059-153.2 45.059-153.2 28.434 151.57 59.128 196.45 216.28 342.45 0 0-108.14 24.032-135.18 6.0079-27.036-18.024-18.024-18.024-18.024-18.024 53.244 137.36 93.891 188.99 279.37 282.37 0 0-140.76 35.044-237.31 3.004 37.229 194.73 251.23 298.41 251.23 298.41-162.21 42.055-141.16 56.132-356.37 59.062z"
          />
        </g
        >
        <g
            id="g13337"
            transform="matrix(.41388 0 0 .41388 -3374.8 1022.1)"
            fill="url(#linearGradient15814)"
            clip-path="url(#clipPath13347)"
          >
          <path
              id="path13341"
              d="m7346.6-2614.6c-22.857 64.016-53.598 126.33-98.241 177.8-18.649 22.111-39.104 42.678-60.915 61.702 29.075-3.2844 56.214-14.995 84-23.656 11.674-2.426 24.228 6.6522 24.094 18.906 0.6428 8.7266-5.496 15.493-10.316 21.958-19.541 34.512-30.174 73.609-50.774 107.68-19.42 34.126-47.612 62.029-76.795 87.853-30.49 26.196-63.957 48.801-98.646 69.069 64.063 6.4577 131.38-2.3006 187.12-35.938 5.3956-2.7891 12.703 0.2084 13.5 6.5626 14.11 30.82 7.6948 66.304-1.3125 97.625-16.195 56.956-39.604 113.07-77.406 159.03-23.389 27.398-52.024 50.428-84.156 66.531 66.474 20.53 135.22 33.508 204.69 37.594v112.53h113.28v-113.69c66.611-0.7502 133.3-10.531 196.15-32.551 11.73-3.4965 23.483-6.929 35.261-10.262-79.286-50.985-149.3-119.69-190.24-205.56-17.551-37.373-28.2-77.87-32.609-118.91 61.48 28.516 131.79 28.937 197.88 19.938-65.929-36.028-131.14-79.339-173.31-142.87-28.628-42.719-49.409-90.483-64.968-139.38-0.4781-14.787 21.294-21.364 30.094-10.188 12.404 9.9339 24.936 24.905 42.53 23.138 20.096 0.7769 40.091-1.312 59.907-4.451-55.034-52.148-110.83-106.17-145.87-174.31-9.0449-17.995-16.704-37.556-22.944-56.16z"
              fill="url(#linearGradient15812)"
          />
        </g
        >
      </g
      >
      <g
          id="g14559"
          transform="matrix(.39867 -.058055 -.15599 .099461 -76.206 809.83)"
          fill="url(#linearGradient15832)"
        >
        <g
            id="g14561"
            transform="translate(-411.01 -141.42)"
        />
        <path
            id="path14629"
            filter="url(#filter14706)"
            fill="url(#linearGradient15830)"
            d="m-644.54-4312.2c-10.933-0.2137-20.851 11.351-17.125 22.094-0.008 1.3067 2.1608 4.1917 2.9688 1.9063 0.68074-4.0904 0.51628-8.4354 2.9062-12.062 3.4401-6.5692 12.47-10.402 19.062-5.9688 6.268 3.8179 8.6608 11.703 8.3125 18.594 1.5839 1.3709 4.2694-1.302 2.9375-2.9688 3.5731-10.668-6.5792-22.025-17.406-21.594-0.55255-0.044-1.1036-0.033-1.6562 0zm0.42299 0.4973c-10.984 0-19.906 7.1834-19.906 16.031 0 1.3342 0.20374 2.6291 0.58721 3.8666 0.22478 3.5725 5.1974 6.9961 5.6628 0.6334 0-8.2546 6.1851-14.938 13.812-14.938 7.6274 0 13.812 6.683 13.812 14.938-1.6231 6.0511 7.3759 2.9822 5.1701-0.1905 0.4793-1.3694 0.73612-2.8142 0.73612-4.3095 0-8.8479-8.8915-16.031-19.875-16.031zm3.0732 203.46c111.2-3.0216 153.97 32.38 112.52 50.937-33.839 15.15-92.187 22.788-120.17 23.072-71.187 0.7204-144.42-30.879-113.86-51.679 21.061-14.331 72.802-21.006 121.51-22.33zm0.35181 34.708c-2.708-0.05-5.3319 0.8239-7.5938 2.2813-0.53586 2.8593-0.10476 5.8351 1.6562 8.5 4.3757 7.6399 15.603 8.9988 23.062 4.875 0.95152-8.6668-7.738-16.319-16.156-15.594-0.3255-0.032-0.64541-0.056-0.96875-0.062zm0.1875-0.7187c-10.416-1.0394-19.955 11.77-13.938 20.875 6.5181 11.381 28.263 8.8317 30.062-5.0313 1.1509-8.7703-7.6249-16.576-16.125-15.844zm19.344 14.112c0 9.4924-8.5696 17.188-19.141 17.188s-19.141-7.6951-19.141-17.188c0-9.4924 8.5696-17.188 19.141-17.188s19.141 7.6951 19.141 17.188zm-19.531-42.344h1.1459v31.984h-1.1459zm-0.78125-7.4466h4.6875v45.884h-4.6875zm-3.125 0h10.938v45.884h-10.938zm-0.14576-0.014h11.37v47.46h-11.37zm3.2486 0h4.8729v47.46h-4.8729zm0.81215 7.7025h1.1913v33.082h-1.1913zm20.304 43.798c0 9.8185-8.9085 17.778-19.898 17.778-10.989 0-19.898-7.9595-19.898-17.778 0-9.8186 8.9085-17.778 19.898-17.778 10.989 0 19.898 7.9595 19.898 17.778zm-20.109-14.597c-10.828-1.0751-20.744 12.174-14.489 21.592 6.7759 11.772 29.381 9.1351 31.252-5.2042 1.1964-9.0716-7.9265-17.146-16.763-16.388zm-0.19492 0.7434c-2.8151-0.052-5.5428 0.8522-7.8941 2.3597-0.55706 2.9575-0.10891 6.0356 1.7218 8.792 4.5488 7.9024 16.221 9.308 23.975 5.0425 0.98915-8.9646-8.044-16.88-16.795-16.13-0.33838-0.033-0.67094-0.058-1.0071-0.064zm-48.852-206.92c-13.781 3.3608-21.489 18.587-20.625 32.062-0.98615 11.689 6.6542 21.945 6.5938 33.469 2.2543 15.605 1.1489 31.752 1.0938 47.563-1.6861 16.183-12.217 28.865-19.375 42.844-4.4165 4.7638-2.3707 6.3746 3.7717 5.6147 6.2461-9.5482 11.802-20.114 17.385-30.115 5.6329-10.063 6.6303-21.545 5.9788-32.906 0.0689-15.349 0.47075-30.825-3.5413-45.562-6.1925-14.694-6.9758-34.022 4.5625-46.344 2.8341-2.9044 5.7795-5.8433 9.875-6.875-1.9593-0.1911-3.8933-0.825-5.7188 0.25zm103.12 20.25c-18.028 1.5679-37.354 5.1-50.938 18.094-4.6514 12.448 0.84815 25.714 2.625 38.25 4.3654 15.206 6.3407 31.284 3.4447 46.989-1.4811 13.342-4.1854 26.756-9.5384 39.105 29.117-0.6382 58.35 2.5454 86.469 9.9688-26.686-27.797-43.039-67.05-38.406-105.94 3.3002-15.292 9.2084-30.571 6.9062-46.5l-0.5625 0.031zm-70.806-2.1886c6.4338-4.8077 18.594-5.2774 24.738 0 3.8336 3.3169 14.103 6.5149 10.873 22.241-0.58309 12.738-3.3929 23.515 5.9135 29.269-23.349 35.269-34.453 29.984-56.25 0.291 12.622-9.7669 6.0762-18.262 6.4274-30.648-3.4261-16.748 5.4701-19.107 8.2977-21.153zm14.71 142.79c112.57 4.7676 154.97 39.022 115.87 55.554-47.429 20.057-94.717 23.141-123.06 23.439-72.098 0.7575-150.6-28.084-115.87-52.604 43-30.364 45.249-29.683 123.06-26.388zm1.4635-3.0652c111.15 5.3298 153.01 43.623 114.41 62.104-46.83 22.422-93.52 25.869-121.51 26.202-71.187 0.8469-148.7-31.396-114.41-58.807 42.457-33.944 44.677-33.183 121.51-29.499zm0 4.5978c111.15 5.0523 153.01 41.352 114.41 58.87-46.83 21.254-93.52 24.522-121.51 24.838-71.187 0.8028-148.7-29.761-114.41-55.745 42.457-32.176 44.677-31.455 121.51-27.963zm-17.736-159.95c6.4338-17.569 18.594-19.286 24.738 0 3.8336 12.121 4.7281 12.388 1.4981 69.856-0.58309 46.55 5.9821 97.355 15.289 118.38-17.099-30.991-36.016-27.465-56.25 1.0635 12.622-35.692 13.889-72.448 14.24-117.71-3.4261-61.204-2.3424-64.115 0.48522-71.59zm-8.8596 0c11.438-17.569 33.057-19.286 43.979 0 6.8153 12.121 8.4055 12.388 2.6634 69.856-1.0366 46.55 10.635 97.355 27.18 118.38-30.398-30.991-64.028-27.465-100 1.0635 22.439-35.692 24.691-72.448 25.315-117.71-6.0908-61.204-4.1643-64.115 0.86261-71.59zm-16.042 0c18.765-17.569 54.234-19.286 72.153 0 11.181 12.121 13.79 12.388 4.3696 69.856-1.7007 46.55 17.448 97.355 44.591 118.38-49.871-30.991-105.05-27.465-164.06 1.0635 36.815-35.692 40.509-72.448 41.533-117.71-9.9928-61.204-6.8321-64.115 1.4152-71.59zm-15.486 0c27.701-17.569 80.059-19.286 106.51 0 16.506 12.121 20.357 12.388 6.4503 69.856-2.5106 46.55 25.756 97.355 65.826 118.38-73.62-30.991-155.07-27.465-242.19 1.0635 54.345-35.692 59.798-72.448 61.311-117.71-14.751-61.204-10.085-64.115 2.0892-71.59zm-1.7302 0c27.969-17.569 80.834-19.286 107.54 0 16.666 12.121 20.554 12.388 6.5128 69.856-2.5348 46.55 26.005 97.355 66.463 118.38-74.332-30.991-156.57-27.465-244.53 1.0635 54.871-35.692 60.377-72.448 61.904-117.71-14.894-61.204-10.183-64.115 2.1094-71.59zm59.854 159.95c111.15 5.0523 153.01 41.352 114.41 58.87-46.83 21.254-93.52 24.522-121.51 24.838-71.187 0.8028-148.7-29.761-114.41-55.745 42.457-32.176 44.677-31.455 121.51-27.963zm-2.1516 9.9387c110.82-2.9987 153.44 32.134 112.14 50.55-33.722 15.035-91.869 22.616-119.76 22.897-70.942 0.715-143.93-30.645-113.47-51.287 20.989-14.222 72.552-20.847 121.09-22.16zm-57.145-167.26c27.606-17.436 79.784-19.14 106.15 0 16.449 12.029 20.287 12.294 6.4282 69.326-2.5019 46.197 25.668 96.616 65.599 117.48-73.366-30.756-154.53-27.257-241.35 1.0554 54.158-35.421 59.593-71.898 61.1-116.82-14.7-60.74-10.051-63.628 2.082-71.047z"
        />
      </g
      >
      <g
          id="g15273"
          fill="none"
          transform="matrix(.42832 0 0 .42832 362.07 184.87)"
        >
        <path
            id="path14819"
            stroke-width="30"
            stroke="#000"
            transform="translate(143.89 11.468)"
            d="m256.87 228.86s-71.085 190.81-170.38 109.72c-77.454-63.25-165.23-68.41-188.46-25.82-23.234 42.596 25.816 65.83-16.78 96.809s-144.57 27.106-207.82-29.688c-63.248-56.794-132.95-59.376-184.58-27.106-51.631 32.27-60.667-24.525-60.667-24.525"
        />
        <path
            id="path14821"
            filter="url(#filter14833)"
            stroke="#f00"
            stroke-width="20"
            d="m400.76 242.15s-71.085 190.81-170.38 109.72c-77.447-63.248-165.22-68.411-188.45-25.816-23.234 42.596 25.816 65.83-16.78 96.809s-144.57 27.106-207.82-29.688c-63.248-56.794-132.95-59.376-184.58-27.106-51.631 32.27-60.667-24.525-60.667-24.525"
        />
      </g
      >
      <g
          id="g10298"
          transform="matrix(.38430 -.22431 .22431 .38430 1428.3 1842)"
        >
        <g
            id="g10115"
            transform="translate(-411.01 -141.42)"
          >
          <path
              id="path10100"
              d="m-229.26-3966.1c111.2-3.0216 153.97 32.38 112.52 50.937-33.839 15.15-92.187 22.788-120.17 23.072-71.187 0.7204-144.42-30.879-113.86-51.679 21.061-14.331 72.802-21.006 121.51-22.33zm-57.342-168.54c27.701-17.569 80.059-19.286 106.51 0 16.506 12.121 20.357 12.388 6.4503 69.856-2.5106 46.55 25.756 97.355 65.826 118.38-73.62-30.991-155.07-27.465-242.19 1.0635 54.345-35.692 59.798-72.448 61.311-117.71-14.751-61.204-10.085-64.115 2.0892-71.59z"
              transform="matrix(.99656 0 0 .99241 -3.7218 -29.522)"
              filter="url(#filter10111)"
              stroke="#000"
              stroke-width="3.931"
          />
          <path
              id="path9688"
              d="m-230.04-3975.4c111.15 5.0523 153.01 41.352 114.41 58.87-46.83 21.254-93.52 24.522-121.51 24.838-71.187 0.8028-148.7-29.761-114.41-55.745 42.457-32.176 44.677-31.455 121.51-27.963z"
          />
          <path
              id="rect9694"
              d="m-289.89-4135.4c27.969-17.569 80.834-19.286 107.54 0 16.666 12.121 20.554 12.388 6.5128 69.856-2.5348 46.55 26.005 97.355 66.463 118.38-74.332-30.991-156.57-27.465-244.53 1.0635 54.871-35.692 60.377-72.448 61.904-117.71-14.894-61.204-10.183-64.115 2.1094-71.59z"
              fill="#a07237"
          />
          <path
              id="path9698"
              d="m-288.16-4135.4c27.701-17.569 80.059-19.286 106.51 0 16.506 12.121 20.357 12.388 6.4503 69.856-2.5106 46.55 25.756 97.355 65.826 118.38-73.62-30.991-155.07-27.465-242.19 1.0635 54.345-35.692 59.798-72.448 61.311-117.71-14.751-61.204-10.085-64.115 2.0892-71.59z"
              fill="url(#radialGradient15834)"
          />
          <path
              id="path9708"
              d="m-272.68-4135.4c18.765-17.569 54.234-19.286 72.153 0 11.181 12.121 13.79 12.388 4.3696 69.856-1.7007 46.55 17.448 97.355 44.591 118.38-49.871-30.991-105.05-27.465-164.06 1.0635 36.815-35.692 40.509-72.448 41.533-117.71-9.9928-61.204-6.8321-64.115 1.4152-71.59z"
              fill="url(#radialGradient15836)"
          />
          <path
              id="path9712"
              d="m-256.63-4135.4c11.438-17.569 33.057-19.286 43.979 0 6.8153 12.121 8.4055 12.388 2.6634 69.856-1.0366 46.55 10.635 97.355 27.18 118.38-30.398-30.991-64.028-27.465-100 1.0635 22.439-35.692 24.691-72.448 25.315-117.71-6.0908-61.204-4.1643-64.115 0.86261-71.59z"
              fill="url(#radialGradient15838)"
          />
          <path
              id="path9716"
              d="m-247.77-4135.4c6.4338-17.569 18.594-19.286 24.738 0 3.8336 12.121 4.7281 12.388 1.4981 69.856-0.58309 46.55 5.9821 97.355 15.289 118.38-17.099-30.991-36.016-27.465-56.25 1.0635 12.622-35.692 13.889-72.448 14.24-117.71-3.4261-61.204-2.3424-64.115 0.48522-71.59z"
              fill="url(#radialGradient15840)"
          />
          <path
              id="path9720"
              d="m-230.04-3975.4c111.15 5.0523 153.01 41.352 114.41 58.87-46.83 21.254-93.52 24.522-121.51 24.838-71.187 0.8028-148.7-29.761-114.41-55.745 42.457-32.176 44.677-31.455 121.51-27.963z"
              fill="url(#radialGradient15842)"
          />
          <path
              id="path9730"
              d="m-230.04-3980c111.15 5.3298 153.01 43.623 114.41 62.104-46.83 22.422-93.52 25.869-121.51 26.202-71.187 0.8469-148.7-31.396-114.41-58.807 42.457-33.944 44.677-33.183 121.51-29.499z"
              fill="url(#radialGradient15844)"
          />
          <path
              id="path9734"
              d="m-231.5-3977c112.57 4.7676 154.97 39.022 115.87 55.554-47.429 20.057-94.717 23.141-123.06 23.439-72.098 0.7575-150.6-28.084-115.87-52.604 43-30.364 45.249-29.683 123.06-26.388z"
              fill="url(#radialGradient15846)"
          />
          <path
              id="path9738"
              d="m-246.21-4119.8c6.4338-4.8077 18.594-5.2774 24.738 0 3.8336 3.3169 14.103 6.5149 10.873 22.241-0.58309 12.738-3.3929 23.515 5.9135 29.269-23.349 35.269-34.453 29.984-56.25 0.291 12.622-9.7669 6.0762-18.262 6.4274-30.648-3.4261-16.748 5.4701-19.107 8.2977-21.153z"
              fill="url(#radialGradient15848)"
          />
          <path
              id="path9761"
              d="m-175.41-4117.6c-18.028 1.5679-37.354 5.1-50.938 18.094-4.6514 12.448 0.84815 25.714 2.625 38.25 4.3654 15.206 6.3407 31.284 3.4447 46.989-1.4811 13.342-4.1854 26.756-9.5384 39.105 29.117-0.6382 58.35 2.5454 86.469 9.9688-26.686-27.797-43.039-67.05-38.406-105.94 3.3002-15.292 9.2084-30.571 6.9062-46.5l-0.5625 0.031z"
              fill="url(#linearGradient15850)"
          />
          <path
              id="path9794"
              filter="url(#filter9832)"
              fill="#44250c"
              d="m-278.53-4137.8c-13.781 3.3608-21.489 18.587-20.625 32.062-0.98615 11.689 6.6542 21.945 6.5938 33.469 2.2543 15.605 1.1489 31.752 1.0938 47.563-1.6861 16.183-12.217 28.865-19.375 42.844-4.4165 4.7638-2.3707 6.3746 3.7717 5.6147 6.2461-9.5482 11.802-20.114 17.385-30.115 5.6329-10.063 6.6303-21.545 5.9788-32.906 0.0689-15.349 0.47075-30.825-3.5413-45.562-6.1925-14.694-6.9758-34.022 4.5625-46.344 2.8341-2.9044 5.7795-5.8433 9.875-6.875-1.9593-0.1911-3.8933-0.825-5.7188 0.25z"
          />
          <g
              id="g10043"
              filter="url(#filter10086)"
              transform="matrix(1.0396 0 0 1.0344 9.0935 136.33)"
            >
            <g
                id="g10053"
                transform="translate(-.78125 -25.781)"
              >
              <path
                  id="path10080"
                  d="m-228.91-3906.3c-2.708-0.05-5.3319 0.8239-7.5938 2.2813-0.53586 2.8593-0.10476 5.8351 1.6562 8.5 4.3757 7.6399 15.603 8.9988 23.062 4.875 0.95152-8.6668-7.738-16.319-16.156-15.594-0.3255-0.032-0.64541-0.056-0.96875-0.062z"
              />
              <path
                  id="path10078"
                  d="m-228.72-3907.1c-10.416-1.0394-19.955 11.77-13.938 20.875 6.5181 11.381 28.263 8.8317 30.062-5.0313 1.1509-8.7703-7.6249-16.576-16.125-15.844z"
              />
              <path
                  id="path10076"
                  d="m-209.38-3893c0 9.4924-8.5696 17.188-19.141 17.188s-19.141-7.6951-19.141-17.188c0-9.4924 8.5696-17.188 19.141-17.188s19.141 7.6951 19.141 17.188z"
              />
              <path
                  id="path10074"
                  d="m-228.91-3935.3h1.1459v31.984h-1.1459z"
              />
              <path
                  id="path10072"
                  d="m-229.69-3942.7h4.6875v45.884h-4.6875z"
              />
              <path
                  id="path10059"
                  d="m-232.81-3942.7h10.938v45.884h-10.938z"
              />
            </g
            >
          </g
          >
          <g
              id="g10013"
            >
            <g
                id="g9999"
                transform="matrix(1 0 0 .66740 -.78125 -1320.3)"
              >
              <rect
                  id="rect9838"
                  height="68.75"
                  width="10.938"
                  y="-3968"
                  x="-232.81"
                  fill="#44250c"
              />
              <rect
                  id="rect9840"
                  height="68.75"
                  filter="url(#filter9854)"
                  width="4.6875"
                  y="-3968"
                  x="-229.69"
                  fill="#9f703a"
              />
              <rect
                  id="rect9858"
                  transform="matrix(.24447 0 0 .69705 -178.1 -1278.1)"
                  height="68.75"
                  filter="url(#filter9884)"
                  width="4.6875"
                  y="-3843"
                  x="-207.81"
                  fill="#ff0"
              />
            </g
            >
            <g
                id="g10004"
                transform="translate(-.78125 -25.781)"
              >
              <path
                  id="path9888"
                  transform="translate(-21.875,-125)"
                  fill="#603812"
                  d="m-187.5-3768a19.141 17.188 0 1 1 -38.281 0 19.141 17.188 0 1 1 38.281 0z"
              />
              <path
                  id="path9890"
                  filter="url(#filter9936)"
                  fill="url(#linearGradient15852)"
                  d="m-228.72-3907.1c-10.416-1.0394-19.955 11.77-13.938 20.875 6.5181 11.381 28.263 8.8317 30.062-5.0313 1.1509-8.7703-7.6249-16.576-16.125-15.844z"
              />
              <path
                  id="path9940"
                  d="m-228.91-3906.3c-2.708-0.05-5.3319 0.8239-7.5938 2.2813-0.53586 2.8593-0.10476 5.8351 1.6562 8.5 4.3757 7.6399 15.603 8.9988 23.062 4.875 0.95152-8.6668-7.738-16.319-16.156-15.594-0.3255-0.032-0.64541-0.056-0.96875-0.062z"
                  fill="url(#linearGradient15854)"
              />
            </g
            >
          </g
          >
          <path
              id="path10023"
              stroke="#986c3e"
              stroke-width="3.931"
              fill="none"
              d="m-230.04-3966.8c111.2-3.0216 153.97 32.38 112.52 50.937-33.839 15.15-92.187 22.788-120.17 23.072-71.187 0.7204-144.42-30.879-113.86-51.679 21.061-14.331 72.802-21.006 121.51-22.33z"
          />
        </g
        >
        <path
            id="path10275"
            d="m-644.12-4311.7c-10.984 0-19.906 7.1834-19.906 16.031 0 1.3342 0.20374 2.6291 0.58721 3.8666 0.22478 3.5725 5.1974 6.9961 5.6628 0.6334 0-8.2546 6.1851-14.938 13.812-14.938 7.6274 0 13.812 6.683 13.812 14.938-1.6231 6.0511 7.3759 2.9822 5.1701-0.1905 0.4793-1.3694 0.73612-2.8142 0.73612-4.3095 0-8.8479-8.8915-16.031-19.875-16.031z"
            fill="#482b0e"
        />
        <path
            id="path10280"
            filter="url(#filter10294)"
            fill="#f1dcb0"
            d="m-644.54-4312.2c-10.933-0.2137-20.851 11.351-17.125 22.094-0.008 1.3067 2.1608 4.1917 2.9688 1.9063 0.68074-4.0904 0.51628-8.4354 2.9062-12.062 3.4401-6.5692 12.47-10.402 19.062-5.9688 6.268 3.8179 8.6608 11.703 8.3125 18.594 1.5839 1.3709 4.2694-1.302 2.9375-2.9688 3.5731-10.668-6.5792-22.025-17.406-21.594-0.55255-0.044-1.1036-0.033-1.6562 0z"
        />
      </g
      >
      <g
          id="g15214"
          transform="matrix(.58930 -.30271 .30271 .58930 112.29 250.28)"
        >
        <path
            id="path14865"
            transform="translate(143.89 11.468)"
            fill="#f00"
            d="m9.0355 46.216a123.91 114.23 0 1 1 -247.83 0 123.91 114.23 0 1 1 247.83 0z"
        />
        <path
            id="path14867"
            transform="translate(145.18 11.468)"
            fill="url(#linearGradient15856)"
            d="m9.0355 46.216a123.91 114.23 0 1 1 -247.83 0 123.91 114.23 0 1 1 247.83 0z"
        />
        <path
            id="path14877"
            d="m30.28-47.076c-53.789 0.23703-105.17 40.728-111.54 91.705-3.4461 30.163 10.364 60.636 33.253 81.245 50.056-36.183 90.108-87.978 101.13-147.46 4.108-13.084-8.221-27.491-22.843-25.486z"
            fill="url(#linearGradient15858)"
        />
        <path
            id="rect15110"
            d="m7.0678-82.366c18.308 6.8343 37.078 11.807 60.021 0v30.979c-17.154 4.8679-35.858 7.0905-60.021 0z"
            fill="#808000"
        />
        <path
            id="path15113"
            d="m7.0678-82.366c18.308 6.8343 37.078 11.807 60.021 0v30.979c-17.154 4.8679-35.858 7.0905-60.021 0z"
            fill="url(#radialGradient15860)"
        />
        <path
            id="path15123"
            transform="matrix(.99468 0 0 .77 143 -8.4809)"
            fill="#ff0"
            d="m-76.156-94.802a30.333 8.0674 0 1 1 -60.667 0 30.333 8.0674 0 1 1 60.667 0z"
        />
        <path
            id="path15125"
            transform="matrix(.99468 0 0 .77 143 -8.4809)"
            fill="url(#radialGradient15862)"
            d="m-76.156-94.802a30.333 8.0674 0 1 1 -60.667 0 30.333 8.0674 0 1 1 60.667 0z"
        />
        <path
            id="path15135"
            filter="url(#filter15169)"
            transform="matrix(1 0 0 .56841 -.83442 -24.728)"
            fill="url(#linearGradient15864)"
            d="m7.7132-52.033c15.834 4.9316 19.456-1.749 60.021 0v19.362c-19.09 11.322-43.603 11.608-58.73-0.64539z"
        />
        <g
            id="g15210"
            transform="matrix(.52315 0 0 .52315 347.93 24.931)"
          >
          <path
              id="path15173"
              clip-path="url(#clipPath15180)"
              fill="#808000"
              transform="translate(246.12 75.358)"
              d="m-841.53-331.03c-23.188 0-41.969 17.575-41.969 39.25 0 20.2 16.322 36.829 37.312 39-12.805-1.8747-22.719-14.93-22.719-30.781 0-17.139 11.604-31.062 25.906-31.062s25.875 13.924 25.875 31.062c0 16.909-11.275 30.635-25.312 31 0.30305 0.006 0.60165 0.0312 0.90625 0.0312 23.188 0 42-17.575 42-39.25s-18.812-39.25-42-39.25z"
          />
          <path
              id="path15184"
              filter="url(#filter15206)"
              fill="#ff0"
              d="m-596.62-252.03c-21.617-0.44804-42.017 21.34-36.312 43.156 1.454 6.4982 3.477 2.4996 8.1433 7.1476-8.454-17.874 0.54954-33.572 20.325-40.054 16.089-5.3274 32.803 7.9764 35.906 23.625 2.8262 10.325 6.0284 9.9536 0.75757 18.191 15.392-9.7164 6.9461-32.104 5.3674-34.628-7.2041-11.347-20.755-17.906-34.188-17.438z"
          />
        </g
        >
      </g
      >
      <g
          id="g14718"
          transform="matrix(.20129 .043015 -.090237 .095954 172.1 829.79)"
          fill="url(#linearGradient15882)"
        >
        <path
            id="path14788"
            filter="url(#filter10294)"
            fill="url(#linearGradient15866)"
            d="m-464.81-4098.7c-10.933-0.2137-20.851 11.351-17.125 22.094-0.008 1.3067 2.1608 4.1917 2.9688 1.9063 0.68074-4.0904 0.51628-8.4354 2.9062-12.062 3.4401-6.5692 12.47-10.402 19.062-5.9688 6.268 3.8179 8.6608 11.703 8.3125 18.594 1.5839 1.3709 4.2694-1.302 2.9375-2.9688 3.5731-10.668-6.5792-22.025-17.406-21.594-0.55255-0.044-1.1036-0.033-1.6562 0zm0.42299 0.4973c-10.984 0-19.906 7.1834-19.906 16.031 0 1.3342 0.20374 2.6291 0.58721 3.8666 0.22478 3.5725 5.1974 6.9961 5.6628 0.6334 0-8.2546 6.1851-14.938 13.812-14.938 7.6274 0 13.812 6.683 13.812 14.938-1.6231 6.0511 7.3759 2.9822 5.1701-0.1905 0.4793-1.3694 0.73612-2.8142 0.73612-4.3095 0-8.8479-8.8915-16.031-19.875-16.031zm3.0732 203.46c111.2-3.0216 153.97 32.38 112.52 50.937-33.839 15.15-92.187 22.788-120.17 23.072-71.187 0.7204-144.42-30.879-113.86-51.679 21.061-14.331 72.802-21.006 121.51-22.33zm0.35181 34.708c-2.708-0.05-5.3319 0.8239-7.5938 2.2813-0.53586 2.8593-0.10476 5.8351 1.6562 8.5 4.3757 7.6399 15.603 8.9988 23.062 4.875 0.95152-8.6668-7.738-16.319-16.156-15.594-0.3255-0.032-0.64541-0.056-0.96875-0.062zm0.1875-0.7187c-10.416-1.0394-19.955 11.77-13.938 20.875 6.5181 11.381 28.263 8.8317 30.062-5.0313 1.1509-8.7703-7.6249-16.576-16.125-15.844zm19.344 14.112c0 9.4924-8.5696 17.188-19.141 17.188s-19.141-7.6951-19.141-17.188c0-9.4924 8.5696-17.188 19.141-17.188s19.141 7.6951 19.141 17.188zm-19.531-42.344h1.1459v31.984h-1.1459zm-0.78125-7.4466h4.6875v45.884h-4.6875zm-3.125 0h10.938v45.884h-10.938zm-0.14576-0.014h11.37v47.46h-11.37zm3.2486 0h4.8729v47.46h-4.8729zm0.81215 7.7025h1.1913v33.082h-1.1913zm20.304 43.798c0 9.8185-8.9085 17.778-19.898 17.778-10.989 0-19.898-7.9595-19.898-17.778 0-9.8186 8.9085-17.778 19.898-17.778 10.989 0 19.898 7.9595 19.898 17.778zm-20.109-14.597c-10.828-1.0751-20.744 12.174-14.489 21.592 6.7759 11.772 29.381 9.1351 31.252-5.2042 1.1964-9.0716-7.9265-17.146-16.763-16.388zm-0.19492 0.7434c-2.8151-0.052-5.5428 0.8522-7.8941 2.3597-0.55706 2.9575-0.10891 6.0356 1.7218 8.792 4.5488 7.9024 16.221 9.308 23.975 5.0425 0.98915-8.9646-8.044-16.88-16.795-16.13-0.33838-0.033-0.67094-0.058-1.0071-0.064zm-48.852-206.92c-13.781 3.3608-21.489 18.587-20.625 32.062-0.98615 11.689 6.6542 21.945 6.5938 33.469 2.2543 15.605 1.1489 31.752 1.0938 47.563-1.6861 16.183-12.217 28.865-19.375 42.844-4.4165 4.7638-2.3707 6.3746 3.7717 5.6147 6.2461-9.5482 11.802-20.114 17.385-30.115 5.6329-10.063 6.6303-21.545 5.9788-32.906 0.0689-15.349 0.47075-30.825-3.5413-45.562-6.1925-14.694-6.9758-34.022 4.5625-46.344 2.8341-2.9044 5.7795-5.8433 9.875-6.875-1.9593-0.1911-3.8933-0.825-5.7188 0.25zm103.12 20.25c-18.028 1.5679-37.354 5.1-50.938 18.094-4.6514 12.448 0.84815 25.714 2.625 38.25 4.3654 15.206 6.3407 31.284 3.4447 46.989-1.4811 13.342-4.1854 26.756-9.5384 39.105 29.117-0.6382 58.35 2.5454 86.469 9.9688-26.686-27.797-43.039-67.05-38.406-105.94 3.3002-15.292 9.2084-30.571 6.9062-46.5l-0.5625 0.031zm-70.806-2.1886c6.4338-4.8077 18.594-5.2774 24.738 0 3.8336 3.3169 14.103 6.5149 10.873 22.241-0.58309 12.738-3.3929 23.515 5.9135 29.269-23.349 35.269-34.453 29.984-56.25 0.291 12.622-9.7669 6.0762-18.262 6.4274-30.648-3.4261-16.748 5.4701-19.107 8.2977-21.153zm14.71 142.79c112.57 4.7676 154.97 39.022 115.87 55.554-47.429 20.057-94.717 23.141-123.06 23.439-72.098 0.7575-150.6-28.084-115.87-52.604 43-30.364 45.249-29.683 123.06-26.388zm1.4635-3.0652c111.15 5.3298 153.01 43.623 114.41 62.104-46.83 22.422-93.52 25.869-121.51 26.202-71.187 0.8469-148.7-31.396-114.41-58.807 42.457-33.944 44.677-33.183 121.51-29.499zm0 4.5978c111.15 5.0523 153.01 41.352 114.41 58.87-46.83 21.254-93.52 24.522-121.51 24.838-71.187 0.8028-148.7-29.761-114.41-55.745 42.457-32.176 44.677-31.455 121.51-27.963zm-17.736-159.95c6.4338-17.569 18.594-19.286 24.738 0 3.8336 12.121 4.7281 12.388 1.4981 69.856-0.58309 46.55 5.9821 97.355 15.289 118.38-17.099-30.991-36.016-27.465-56.25 1.0635 12.622-35.692 13.889-72.448 14.24-117.71-3.4261-61.204-2.3424-64.115 0.48522-71.59zm-8.8596 0c11.438-17.569 33.057-19.286 43.979 0 6.8153 12.121 8.4055 12.388 2.6634 69.856-1.0366 46.55 10.635 97.355 27.18 118.38-30.398-30.991-64.028-27.465-100 1.0635 22.439-35.692 24.691-72.448 25.315-117.71-6.0908-61.204-4.1643-64.115 0.86261-71.59zm-16.042 0c18.765-17.569 54.234-19.286 72.153 0 11.181 12.121 13.79 12.388 4.3696 69.856-1.7007 46.55 17.448 97.355 44.591 118.38-49.871-30.991-105.05-27.465-164.06 1.0635 36.815-35.692 40.509-72.448 41.533-117.71-9.9928-61.204-6.8321-64.115 1.4152-71.59zm-15.486 0c27.701-17.569 80.059-19.286 106.51 0 16.506 12.121 20.357 12.388 6.4503 69.856-2.5106 46.55 25.756 97.355 65.826 118.38-73.62-30.991-155.07-27.465-242.19 1.0635 54.345-35.692 59.798-72.448 61.311-117.71-14.751-61.204-10.085-64.115 2.0892-71.59zm-1.7302 0c27.969-17.569 80.834-19.286 107.54 0 16.666 12.121 20.554 12.388 6.5128 69.856-2.5348 46.55 26.005 97.355 66.463 118.38-74.332-30.991-156.57-27.465-244.53 1.0635 54.871-35.692 60.377-72.448 61.904-117.71-14.894-61.204-10.183-64.115 2.1094-71.59zm59.854 159.95c111.15 5.0523 153.01 41.352 114.41 58.87-46.83 21.254-93.52 24.522-121.51 24.838-71.187 0.8028-148.7-29.761-114.41-55.745 42.457-32.176 44.677-31.455 121.51-27.963zm-2.1516 9.9387c110.82-2.9987 153.44 32.134 112.14 50.55-33.722 15.035-91.869 22.616-119.76 22.897-70.942 0.715-143.93-30.645-113.47-51.287 20.989-14.222 72.552-20.847 121.09-22.16zm-57.145-167.26c27.606-17.436 79.784-19.14 106.15 0 16.449 12.029 20.287 12.294 6.4282 69.326-2.5019 46.197 25.668 96.616 65.599 117.48-73.366-30.756-154.53-27.257-241.35 1.0554 54.158-35.421 59.593-71.898 61.1-116.82-14.7-60.74-10.051-63.628 2.082-71.047z"
        />
        <g
            id="g14720"
            transform="translate(-411.01 -141.42)"
        />
      </g
      >
      <g
          id="g14465"
          transform="matrix(.43845 .19655 -.19655 .43845 -135.12 2324.9)"
        >
        <g
            id="g14467"
            transform="translate(-411.01 -141.42)"
          >
          <path
              id="path14469"
              d="m-229.26-3966.1c111.2-3.0216 153.97 32.38 112.52 50.937-33.839 15.15-92.187 22.788-120.17 23.072-71.187 0.7204-144.42-30.879-113.86-51.679 21.061-14.331 72.802-21.006 121.51-22.33zm-57.342-168.54c27.701-17.569 80.059-19.286 106.51 0 16.506 12.121 20.357 12.388 6.4503 69.856-2.5106 46.55 25.756 97.355 65.826 118.38-73.62-30.991-155.07-27.465-242.19 1.0635 54.345-35.692 59.798-72.448 61.311-117.71-14.751-61.204-10.085-64.115 2.0892-71.59z"
              transform="matrix(.99656 0 0 .99241 -3.7218 -29.522)"
              filter="url(#filter10111)"
              stroke="#000"
              stroke-width="3.931"
          />
          <path
              id="path14471"
              d="m-230.04-3975.4c111.15 5.0523 153.01 41.352 114.41 58.87-46.83 21.254-93.52 24.522-121.51 24.838-71.187 0.8028-148.7-29.761-114.41-55.745 42.457-32.176 44.677-31.455 121.51-27.963z"
          />
          <path
              id="path14473"
              d="m-289.89-4135.4c27.969-17.569 80.834-19.286 107.54 0 16.666 12.121 20.554 12.388 6.5128 69.856-2.5348 46.55 26.005 97.355 66.463 118.38-74.332-30.991-156.57-27.465-244.53 1.0635 54.871-35.692 60.377-72.448 61.904-117.71-14.894-61.204-10.183-64.115 2.1094-71.59z"
              fill="#a07237"
          />
          <path
              id="path14475"
              d="m-288.16-4135.4c27.701-17.569 80.059-19.286 106.51 0 16.506 12.121 20.357 12.388 6.4503 69.856-2.5106 46.55 25.756 97.355 65.826 118.38-73.62-30.991-155.07-27.465-242.19 1.0635 54.345-35.692 59.798-72.448 61.311-117.71-14.751-61.204-10.085-64.115 2.0892-71.59z"
              fill="url(#radialGradient15834)"
          />
          <path
              id="path14477"
              d="m-272.68-4135.4c18.765-17.569 54.234-19.286 72.153 0 11.181 12.121 13.79 12.388 4.3696 69.856-1.7007 46.55 17.448 97.355 44.591 118.38-49.871-30.991-105.05-27.465-164.06 1.0635 36.815-35.692 40.509-72.448 41.533-117.71-9.9928-61.204-6.8321-64.115 1.4152-71.59z"
              fill="url(#radialGradient15836)"
          />
          <path
              id="path14479"
              d="m-256.63-4135.4c11.438-17.569 33.057-19.286 43.979 0 6.8153 12.121 8.4055 12.388 2.6634 69.856-1.0366 46.55 10.635 97.355 27.18 118.38-30.398-30.991-64.028-27.465-100 1.0635 22.439-35.692 24.691-72.448 25.315-117.71-6.0908-61.204-4.1643-64.115 0.86261-71.59z"
              fill="url(#radialGradient15838)"
          />
          <path
              id="path14481"
              d="m-247.77-4135.4c6.4338-17.569 18.594-19.286 24.738 0 3.8336 12.121 4.7281 12.388 1.4981 69.856-0.58309 46.55 5.9821 97.355 15.289 118.38-17.099-30.991-36.016-27.465-56.25 1.0635 12.622-35.692 13.889-72.448 14.24-117.71-3.4261-61.204-2.3424-64.115 0.48522-71.59z"
              fill="url(#radialGradient15840)"
          />
          <path
              id="path14483"
              d="m-230.04-3975.4c111.15 5.0523 153.01 41.352 114.41 58.87-46.83 21.254-93.52 24.522-121.51 24.838-71.187 0.8028-148.7-29.761-114.41-55.745 42.457-32.176 44.677-31.455 121.51-27.963z"
              fill="url(#radialGradient15842)"
          />
          <path
              id="path14485"
              d="m-230.04-3980c111.15 5.3298 153.01 43.623 114.41 62.104-46.83 22.422-93.52 25.869-121.51 26.202-71.187 0.8469-148.7-31.396-114.41-58.807 42.457-33.944 44.677-33.183 121.51-29.499z"
              fill="url(#radialGradient15844)"
          />
          <path
              id="path14487"
              d="m-231.5-3977c112.57 4.7676 154.97 39.022 115.87 55.554-47.429 20.057-94.717 23.141-123.06 23.439-72.098 0.7575-150.6-28.084-115.87-52.604 43-30.364 45.249-29.683 123.06-26.388z"
              fill="url(#radialGradient15846)"
          />
          <path
              id="path14489"
              d="m-246.21-4119.8c6.4338-4.8077 18.594-5.2774 24.738 0 3.8336 3.3169 14.103 6.5149 10.873 22.241-0.58309 12.738-3.3929 23.515 5.9135 29.269-23.349 35.269-34.453 29.984-56.25 0.291 12.622-9.7669 6.0762-18.262 6.4274-30.648-3.4261-16.748 5.4701-19.107 8.2977-21.153z"
              fill="url(#radialGradient15848)"
          />
          <path
              id="path14491"
              d="m-175.41-4117.6c-18.028 1.5679-37.354 5.1-50.938 18.094-4.6514 12.448 0.84815 25.714 2.625 38.25 4.3654 15.206 6.3407 31.284 3.4447 46.989-1.4811 13.342-4.1854 26.756-9.5384 39.105 29.117-0.6382 58.35 2.5454 86.469 9.9688-26.686-27.797-43.039-67.05-38.406-105.94 3.3002-15.292 9.2084-30.571 6.9062-46.5l-0.5625 0.031z"
              fill="url(#linearGradient15850)"
          />
          <path
              id="path14493"
              filter="url(#filter9832)"
              fill="#44250c"
              d="m-278.53-4137.8c-13.781 3.3608-21.489 18.587-20.625 32.062-0.98615 11.689 6.6542 21.945 6.5938 33.469 2.2543 15.605 1.1489 31.752 1.0938 47.563-1.6861 16.183-12.217 28.865-19.375 42.844-4.4165 4.7638-2.3707 6.3746 3.7717 5.6147 6.2461-9.5482 11.802-20.114 17.385-30.115 5.6329-10.063 6.6303-21.545 5.9788-32.906 0.0689-15.349 0.47075-30.825-3.5413-45.562-6.1925-14.694-6.9758-34.022 4.5625-46.344 2.8341-2.9044 5.7795-5.8433 9.875-6.875-1.9593-0.1911-3.8933-0.825-5.7188 0.25z"
          />
          <g
              id="g14495"
              filter="url(#filter10086)"
              transform="matrix(1.0396 0 0 1.0344 9.0935 136.33)"
            >
            <g
                id="g14499"
                transform="translate(-.78125 -25.781)"
              >
              <path
                  id="path14501"
                  d="m-228.91-3906.3c-2.708-0.05-5.3319 0.8239-7.5938 2.2813-0.53586 2.8593-0.10476 5.8351 1.6562 8.5 4.3757 7.6399 15.603 8.9988 23.062 4.875 0.95152-8.6668-7.738-16.319-16.156-15.594-0.3255-0.032-0.64541-0.056-0.96875-0.062z"
              />
              <path
                  id="path14503"
                  d="m-228.72-3907.1c-10.416-1.0394-19.955 11.77-13.938 20.875 6.5181 11.381 28.263 8.8317 30.062-5.0313 1.1509-8.7703-7.6249-16.576-16.125-15.844z"
              />
              <path
                  id="path14505"
                  d="m-209.38-3893c0 9.4924-8.5696 17.188-19.141 17.188s-19.141-7.6951-19.141-17.188c0-9.4924 8.5696-17.188 19.141-17.188s19.141 7.6951 19.141 17.188z"
              />
              <path
                  id="path14507"
                  d="m-228.91-3935.3h1.1459v31.984h-1.1459z"
              />
              <path
                  id="path14509"
                  d="m-229.69-3942.7h4.6875v45.884h-4.6875z"
              />
              <path
                  id="path14511"
                  d="m-232.81-3942.7h10.938v45.884h-10.938z"
              />
            </g
            >
          </g
          >
          <g
              id="g14513"
            >
            <g
                id="g14515"
                transform="matrix(1 0 0 .66740 -.78125 -1320.3)"
              >
              <rect
                  id="rect14517"
                  height="68.75"
                  width="10.938"
                  y="-3968"
                  x="-232.81"
                  fill="#44250c"
              />
              <rect
                  id="rect14519"
                  height="68.75"
                  filter="url(#filter9854)"
                  width="4.6875"
                  y="-3968"
                  x="-229.69"
                  fill="#9f703a"
              />
              <rect
                  id="rect14521"
                  transform="matrix(.24447 0 0 .69705 -178.1 -1278.1)"
                  height="68.75"
                  filter="url(#filter9884)"
                  width="4.6875"
                  y="-3843"
                  x="-207.81"
                  fill="#ff0"
              />
            </g
            >
            <g
                id="g14523"
                transform="translate(-.78125 -25.781)"
              >
              <path
                  id="path14525"
                  transform="translate(-21.875,-125)"
                  fill="#603812"
                  d="m-187.5-3768a19.141 17.188 0 1 1 -38.281 0 19.141 17.188 0 1 1 38.281 0z"
              />
              <path
                  id="path14527"
                  filter="url(#filter9936)"
                  fill="url(#linearGradient15852)"
                  d="m-228.72-3907.1c-10.416-1.0394-19.955 11.77-13.938 20.875 6.5181 11.381 28.263 8.8317 30.062-5.0313 1.1509-8.7703-7.6249-16.576-16.125-15.844z"
              />
              <path
                  id="path14529"
                  d="m-228.91-3906.3c-2.708-0.05-5.3319 0.8239-7.5938 2.2813-0.53586 2.8593-0.10476 5.8351 1.6562 8.5 4.3757 7.6399 15.603 8.9988 23.062 4.875 0.95152-8.6668-7.738-16.319-16.156-15.594-0.3255-0.032-0.64541-0.056-0.96875-0.062z"
                  fill="url(#linearGradient15854)"
              />
            </g
            >
          </g
          >
          <path
              id="path14531"
              stroke="#986c3e"
              stroke-width="3.931"
              fill="none"
              d="m-230.04-3966.8c111.2-3.0216 153.97 32.38 112.52 50.937-33.839 15.15-92.187 22.788-120.17 23.072-71.187 0.7204-144.42-30.879-113.86-51.679 21.061-14.331 72.802-21.006 121.51-22.33z"
          />
        </g
        >
        <path
            id="path14533"
            d="m-644.12-4311.7c-10.984 0-19.906 7.1834-19.906 16.031 0 1.3342 0.20374 2.6291 0.58721 3.8666 0.22478 3.5725 5.1974 6.9961 5.6628 0.6334 0-8.2546 6.1851-14.938 13.812-14.938 7.6274 0 13.812 6.683 13.812 14.938-1.6231 6.0511 7.3759 2.9822 5.1701-0.1905 0.4793-1.3694 0.73612-2.8142 0.73612-4.3095 0-8.8479-8.8915-16.031-19.875-16.031z"
            fill="#482b0e"
        />
        <path
            id="path14535"
            filter="url(#filter10294)"
            fill="#f1dcb0"
            d="m-644.54-4312.2c-10.933-0.2137-20.851 11.351-17.125 22.094-0.008 1.3067 2.1608 4.1917 2.9688 1.9063 0.68074-4.0904 0.51628-8.4354 2.9062-12.062 3.4401-6.5692 12.47-10.402 19.062-5.9688 6.268 3.8179 8.6608 11.703 8.3125 18.594 1.5839 1.3709 4.2694-1.302 2.9375-2.9688 3.5731-10.668-6.5792-22.025-17.406-21.594-0.55255-0.044-1.1036-0.033-1.6562 0z"
        />
      </g
      >
    </g
    >
  </g
  >
  <metadata
    >
    <rdf:RDF
      >
      <cc:Work
        >
        <dc:format
          >image/svg+xml</dc:format
        >
        <dc:type
            rdf:resource="http://purl.org/dc/dcmitype/StillImage"
        />
        <cc:license
            rdf:resource="http://creativecommons.org/licenses/publicdomain/"
        />
        <dc:publisher
          >
          <cc:Agent
              rdf:about="http://openclipart.org/"
            >
            <dc:title
              >Openclipart</dc:title
            >
          </cc:Agent
          >
        </dc:publisher
        >
        <dc:title
          >Christmas</dc:title
        >
        <dc:date
          >2010-11-05T14:17:42</dc:date
        >
        <dc:description
        />
        <dc:source
          >https://openclipart.org/detail/94453/christmas-by-inky2010-94453</dc:source
        >
        <dc:creator
          >
          <cc:Agent
            >
            <dc:title
              >inky2010</dc:title
            >
          </cc:Agent
          >
        </dc:creator
        >
        <dc:subject
          >
          <rdf:Bag
            >
            <rdf:li
              >2010</rdf:li
            >
            <rdf:li
              >3D</rdf:li
            >
            <rdf:li
              >Christmas</rdf:li
            >
            <rdf:li
              >Glossy</rdf:li
            >
            <rdf:li
              >ball</rdf:li
            >
            <rdf:li
              >bell</rdf:li
            >
            <rdf:li
              >bells</rdf:li
            >
            <rdf:li
              >birthday</rdf:li
            >
            <rdf:li
              >christmas2010</rdf:li
            >
            <rdf:li
              >free</rdf:li
            >
            <rdf:li
              >gift</rdf:li
            >
            <rdf:li
              >gloss</rdf:li
            >
            <rdf:li
              >green</rdf:li
            >
            <rdf:li
              >happy</rdf:li
            >
            <rdf:li
              >holidays2010</rdf:li
            >
            <rdf:li
              >icon</rdf:li
            >
            <rdf:li
              >icons</rdf:li
            >
            <rdf:li
              >inkscape</rdf:li
            >
            <rdf:li
              >inky2010</rdf:li
            >
            <rdf:li
              >plant</rdf:li
            >
            <rdf:li
              >present</rdf:li
            >
            <rdf:li
              >red</rdf:li
            >
            <rdf:li
              >tree</rdf:li
            >
            <rdf:li
              >vector</rdf:li
            >
            <rdf:li
              >wrap</rdf:li
            >
            <rdf:li
              >wrapping</rdf:li
            >
            <rdf:li
              >x-mas</rdf:li
            >
            <rdf:li
              >xmas</rdf:li
            >
          </rdf:Bag
          >
        </dc:subject
        >
      </cc:Work
      >
      <cc:License
          rdf:about="http://creativecommons.org/licenses/publicdomain/"
        >
        <cc:permits
            rdf:resource="http://creativecommons.org/ns#Reproduction"
        />
        <cc:permits
            rdf:resource="http://creativecommons.org/ns#Distribution"
        />
        <cc:permits
            rdf:resource="http://creativecommons.org/ns#DerivativeWorks"
        />
      </cc:License
      >
    </rdf:RDF
    >
  </metadata
  >
</svg
>
