<?xml version="1.0" encoding="UTF-8" standalone="no"?>
<!-- Created with Inkscape (http://www.inkscape.org/) -->
<svg
    xmlns:inkscape="http://www.inkscape.org/namespaces/inkscape"
    xmlns:rdf="http://www.w3.org/1999/02/22-rdf-syntax-ns#"
    xmlns="http://www.w3.org/2000/svg"
    xmlns:sodipodi="http://sodipodi.sourceforge.net/DTD/sodipodi-0.dtd"
    xmlns:cc="http://creativecommons.org/ns#"
    xmlns:xlink="http://www.w3.org/1999/xlink"
    xmlns:dc="http://purl.org/dc/elements/1.1/"
    xmlns:svg="http://www.w3.org/2000/svg"
    xmlns:ns1="http://sozi.baierouge.fr"
    id="svg2"
    sodipodi:docname="Pens in color.svg"
    viewBox="0 0 57.395 176.44"
    version="1.1"
    inkscape:version="0.48.1 r9760"
  >
  <defs
      id="defs4"
    >
    <pattern
        id="pattern3518"
        xlink:href="#pattern5733"
        patternTransform="matrix(.32809 0 0 .32809 -10.497 32.245)"
        inkscape:collect="always"
    />
    <pattern
        id="pattern3491"
        xlink:href="#pattern5764"
        patternTransform="matrix(.32809 0 0 .32809 -26.065 32.158)"
        inkscape:collect="always"
    />
    <pattern
        id="pattern3453"
        xlink:href="#pattern5651"
        patternTransform="matrix(.32809 0 0 .32809 -41.573 32.24)"
        inkscape:collect="always"
    />
    <pattern
        id="pattern5764"
        xlink:href="#pattern5687"
        patternTransform="translate(-186.15 854.48)"
        inkscape:collect="always"
    />
    <pattern
        id="pattern5733"
        xlink:href="#pattern5687"
        patternTransform="translate(-135.13 854.64)"
        inkscape:collect="always"
    />
    <pattern
        id="pattern5687"
        xlink:href="#pattern5651"
        patternTransform="translate(-185.4 854.49)"
        inkscape:collect="always"
    />
    <pattern
        id="pattern5651"
        xlink:href="#pattern5209"
        patternTransform="translate(-236.23 850.5)"
        inkscape:collect="always"
    />
    <linearGradient
        id="linearGradient5268"
        inkscape:collect="always"
      >
      <stop
          id="stop5270"
          style="stop-color:#000000"
          offset="0"
      />
      <stop
          id="stop5272"
          style="stop-color:#000000;stop-opacity:0"
          offset="1"
      />
    </linearGradient
    >
    <linearGradient
        id="linearGradient5242"
        inkscape:collect="always"
      >
      <stop
          id="stop5244"
          style="stop-color:#ffffff"
          offset="0"
      />
      <stop
          id="stop5246"
          style="stop-color:#ffffff;stop-opacity:0"
          offset="1"
      />
    </linearGradient
    >
    <pattern
        id="pattern5209"
        xlink:href="#Wavy"
        patternTransform="translate(.39553 8.1323)"
        inkscape:collect="always"
    />
    <pattern
        id="Wavy"
        height="5.1805778"
        width="30.066020"
        patternUnits="userSpaceOnUse"
        inkscape:stockid="Wavy"
        inkscape:collect="always"
      >
      <path
          id="path5119"
          style="fill:black"
          d="m7.597 0.061c-2.518-0.248-4.941 0.241-7.607 1.727v1.273c2.783-1.63 5.183-2.009 7.482-1.781 2.298 0.228 4.497 1.081 6.781 1.938 4.567 1.713 9.551 3.458 15.813-0.157l-0.004-1.273c-6.44 3.709-10.816 1.982-15.371 0.273-2.278-0.854-4.576-1.75-7.094-2z"
      />
    </pattern
    >
    <linearGradient
        id="linearGradient3585"
        y2="513.44"
        xlink:href="#linearGradient5242"
        gradientUnits="userSpaceOnUse"
        x2="85.838"
        y1="483.35"
        x1="85.838"
        inkscape:collect="always"
    />
    <linearGradient
        id="linearGradient3587"
        y2="509.69"
        xlink:href="#linearGradient5268"
        gradientUnits="userSpaceOnUse"
        x2="490.53"
        gradientTransform="translate(.89259 .78522)"
        y1="483.17"
        x1="493.18"
        inkscape:collect="always"
    />
    <linearGradient
        id="linearGradient3589"
        y2="509.69"
        xlink:href="#linearGradient5268"
        gradientUnits="userSpaceOnUse"
        x2="490.53"
        gradientTransform="matrix(1 0 0 -1 .89259 1016.6)"
        y1="483.17"
        x1="493.18"
        inkscape:collect="always"
    />
    <linearGradient
        id="linearGradient3591"
        y2="513.44"
        xlink:href="#linearGradient5242"
        gradientUnits="userSpaceOnUse"
        x2="85.838"
        gradientTransform="matrix(.32808 -.0023021 .0023021 .32808 -30.628 -41.523)"
        y1="483.35"
        x1="85.838"
        inkscape:collect="always"
    />
    <linearGradient
        id="linearGradient3593"
        y2="509.69"
        xlink:href="#linearGradient5268"
        gradientUnits="userSpaceOnUse"
        x2="490.53"
        gradientTransform="matrix(.32808 -.0023021 .0023021 .32808 -30.499 -41.197)"
        y1="483.17"
        x1="493.18"
        inkscape:collect="always"
    />
    <linearGradient
        id="linearGradient3595"
        y2="509.69"
        xlink:href="#linearGradient5268"
        gradientUnits="userSpaceOnUse"
        x2="490.53"
        gradientTransform="matrix(.32808 -.0023021 -.0023021 -.32808 -28.157 292.09)"
        y1="483.17"
        x1="493.18"
        inkscape:collect="always"
    />
    <linearGradient
        id="linearGradient3597"
        y2="513.44"
        xlink:href="#linearGradient5242"
        gradientUnits="userSpaceOnUse"
        x2="85.838"
        gradientTransform="matrix(-.0070167 -.99998 .99998 -.0070167 -180.92 849.48)"
        y1="483.35"
        x1="85.838"
        inkscape:collect="always"
    />
    <linearGradient
        id="linearGradient3599"
        y2="509.69"
        xlink:href="#linearGradient5268"
        gradientUnits="userSpaceOnUse"
        x2="490.53"
        gradientTransform="matrix(.32808 -.0023021 .0023021 .32808 -30.801 -25.69)"
        y1="483.17"
        x1="493.18"
        inkscape:collect="always"
    />
    <linearGradient
        id="linearGradient3601"
        y2="509.69"
        xlink:href="#linearGradient5268"
        gradientUnits="userSpaceOnUse"
        x2="490.53"
        gradientTransform="matrix(.32808 -.0023021 -.0023021 -.32808 -28.213 307.59)"
        y1="483.17"
        x1="493.18"
        inkscape:collect="always"
    />
    <linearGradient
        id="linearGradient3603"
        y2="513.44"
        xlink:href="#linearGradient5242"
        gradientUnits="userSpaceOnUse"
        x2="85.838"
        gradientTransform="matrix(.32808 -.0023021 .0023021 .32808 -30.523 -10.17)"
        y1="483.35"
        x1="85.838"
        inkscape:collect="always"
    />
    <linearGradient
        id="linearGradient3605"
        y2="509.69"
        xlink:href="#linearGradient5268"
        gradientUnits="userSpaceOnUse"
        x2="490.53"
        gradientTransform="matrix(.32808 -.0023021 .0023021 .32808 -30.285 -10.121)"
        y1="483.17"
        x1="493.18"
        inkscape:collect="always"
    />
    <linearGradient
        id="linearGradient3607"
        y2="509.69"
        xlink:href="#linearGradient5268"
        gradientUnits="userSpaceOnUse"
        x2="490.53"
        gradientTransform="matrix(.32808 -.0023021 -.0023021 -.32808 -27.944 323.16)"
        y1="483.17"
        x1="493.18"
        inkscape:collect="always"
    />
  </defs
  >
  <sodipodi:namedview
      id="base"
      bordercolor="#666666"
      inkscape:pageshadow="2"
      inkscape:window-y="24"
      fit-margin-left="0"
      pagecolor="#ffffff"
      inkscape:window-height="776"
      inkscape:window-maximized="1"
      inkscape:zoom="3.4064713"
      inkscape:window-x="50"
      showgrid="false"
      borderopacity="1.0"
      inkscape:current-layer="layer1"
      inkscape:cx="19.234042"
      inkscape:cy="89.137573"
      fit-margin-top="0"
      fit-margin-right="0"
      fit-margin-bottom="0"
      inkscape:window-width="1230"
      inkscape:pageopacity="0.0"
      inkscape:document-units="px"
  />
  <g
      id="layer1"
      inkscape:label="Layer 1"
      inkscape:groupmode="layer"
      transform="translate(-48.962 -44.36)"
    >
    <g
        id="g3528"
        transform="matrix(0 -1 1 0 -54.921 210.24)"
      >
      <g
          id="g5319"
          transform="matrix(.32808 -.0023021 .0023021 .32808 -30.56 -56.91)"
        >
        <rect
            id="rect2985"
            style="fill-rule:evenodd;fill:#cccccc"
            transform="rotate(90)"
            ry="0"
            height="431.95"
            width="28.796"
            y="-544.54"
            x="494.16"
        />
        <rect
            id="rect5276"
            style="fill-rule:evenodd;fill:#000080"
            height="4.4192"
            width="462.14"
            y="507.04"
            x="113.23"
        />
        <path
            id="rect2987"
            sodipodi:nodetypes="ccccc"
            style="fill-rule:evenodd;fill:#000080"
            inkscape:connector-curvature="0"
            d="m113.17 494.57v28.796l-53.526-3.6906c-2.0594-6.043-3.342-12.241 0-19.365z"
        />
        <path
            id="path5222"
            sodipodi:nodetypes="ccscsc"
            style="fill-rule:evenodd;fill:#808080"
            inkscape:connector-curvature="0"
            d="m579.07 505.12v6.6473s3.2239-0.97023 7.1523-1.5683c3.1078-0.47317 6.8106-0.35381 8.629-1.8517-2.1515-1.39-5.7802-1.0833-8.8439-1.5342-3.8333-0.56417-6.9374-1.6931-6.9374-1.6931z"
        />
        <path
            id="path2990"
            sodipodi:nodetypes="ccccc"
            style="fill-rule:evenodd;fill:#000080"
            inkscape:connector-curvature="0"
            d="m543.36 493.91c-2.3844 10.139-3.8676 20.111 0 29.193l36.938-10.555c0.72725-3.1164 0.82028-6.0489 0-8.7168z"
        />
        <rect
            id="rect5228"
            style="opacity:.29108;fill-rule:evenodd;fill:#808080"
            ry="5.6866"
            height="11.373"
            width="349.22"
            y="503.1"
            x="120.75"
        />
        <path
            id="path5238"
            style="opacity:.29108;fill-rule:evenodd;fill:#808080"
            inkscape:connector-curvature="0"
            d="m121.12 522.96c0.99139-3.1015 3.8737-5.3438 7.3125-5.3438h333.84c3.4388 0 6.3211 2.2422 7.3125 5.3438h-348.47z"
        />
        <path
            id="rect5230"
            style="opacity:.29108;fill-rule:evenodd;fill:#808080"
            inkscape:connector-curvature="0"
            d="m121.12 494.19c0.99138 3.1015 3.8737 5.3438 7.3125 5.3438h333.84c3.4388 0 6.3211-2.2422 7.3125-5.3438h-348.47z"
        />
        <g
            id="g5211"
            transform="translate(2.7775 -.09861)"
          >
          <rect
              id="rect3002"
              ry="0"
              style="fill-rule:evenodd;fill:url(#pattern5209)"
              transform="rotate(90)"
              height="81.623"
              width="29.389"
              y="-533.04"
              x="494.12"
          />
          <path
              id="rect3000"
              d="m535.62 494.12c-2.6193 10.221-3.8377 20.215 0 29.389h-83.918c-4.4773-9.7963-3.0558-19.593 0-29.389z"
              sodipodi:nodetypes="ccccc"
              style="opacity:.76995;fill-rule:evenodd;fill:#0000ff"
              inkscape:connector-curvature="0"
          />
        </g
        >
        <path
            id="path5240"
            d="m113.17 494.57v28.796l-53.526-3.6906c-2.0594-6.043-3.342-12.241 0-19.365z"
            sodipodi:nodetypes="ccccc"
            style="opacity:.56338;fill-rule:evenodd;fill:url(#linearGradient3585)"
            inkscape:connector-curvature="0"
        />
        <path
            id="path5256"
            d="m538.39 494.02c-2.6193 10.221-3.8377 20.215 0 29.389h-83.918c-4.4774-9.7963-3.0558-19.593 0-29.389z"
            sodipodi:nodetypes="ccccc"
            style="fill-rule:evenodd;fill:url(#linearGradient3587)"
            inkscape:connector-curvature="0"
        />
        <path
            id="path5278"
            sodipodi:nodetypes="ccccc"
            style="fill-rule:evenodd;fill:url(#linearGradient3589)"
            inkscape:connector-curvature="0"
            d="m538.39 523.41c-2.6193-10.221-3.8377-20.215 0-29.389h-83.918c-4.4774 9.7963-3.0558 19.593 0 29.389z"
        />
      </g
      >
      <rect
          id="rect5535"
          style="fill-rule:evenodd;fill:#cccccc"
          transform="rotate(89.638)"
          ry="0"
          height="141.72"
          width="9.4479"
          y="-148.31"
          x="120.54"
      />
      <rect
          id="rect5537"
          style="fill-rule:evenodd;fill:#550000"
          transform="rotate(-.40203)"
          height="1.4499"
          width="151.62"
          y="124.76"
          x="6.8006"
      />
      <path
          id="path5539"
          sodipodi:nodetypes="ccccc"
          style="fill-rule:evenodd;fill:#800000"
          inkscape:connector-curvature="0"
          d="m7.6393 120.48 0.066291 9.4476-17.569-1.0876c-0.68956-1.9779-1.1246-4.0085-0.044584-6.3532z"
      />
      <path
          id="path5541"
          sodipodi:nodetypes="ccscsc"
          style="fill-rule:evenodd;fill:#808080"
          inkscape:connector-curvature="0"
          d="m160.5 123.01 0.0153 2.1809s1.0555-0.32574 2.3429-0.531c1.0185-0.1624 2.2336-0.13176 2.8268-0.62737-0.70907-0.45108-1.8989-0.34213-2.9051-0.48301-1.2589-0.17627-2.2799-0.5395-2.2799-0.5395z"
      />
      <path
          id="path5543"
          sodipodi:nodetypes="ccccc"
          style="fill-rule:evenodd;fill:#550000"
          inkscape:connector-curvature="0"
          d="m148.76 119.42c-0.75895 3.332-1.2226 6.6069 0.0672 9.5778l12.094-3.548c0.23142-1.0241 0.25519-1.9864-0.0201-2.8598z"
      />
      <rect
          id="rect5545"
          ry="1.8657"
          style="opacity:.29108;fill-rule:evenodd;fill:#808080"
          transform="rotate(-.40203)"
          height="3.7314"
          width="114.58"
          y="123.47"
          x="9.2659"
      />
      <path
          id="path5547"
          style="opacity:.29108;fill-rule:evenodd;fill:#808080"
          inkscape:connector-curvature="0"
          d="m10.302 129.92c0.31812-1.0198 1.2586-1.7621 2.3868-1.77l109.53-0.76855c1.1282-0.008 2.079 0.72109 2.4114 1.7364l-114.33 0.80221z"
      />
      <path
          id="path5549"
          style="opacity:.29108;fill-rule:evenodd;fill:#808080"
          inkscape:connector-curvature="0"
          d="m10.235 120.48c0.3324 1.0153 1.2832 1.7443 2.4114 1.7364l109.53-0.77c1.1282-0.008 2.0687-0.75019 2.3868-1.77l-114.33 0.80222z"
      />
      <rect
          id="rect5553"
          style="fill-rule:evenodd;fill:url(#pattern3453)"
          transform="rotate(89.638)"
          ry="0"
          height="26.78"
          width="9.6423"
          y="-145.32"
          x="120.41"
      />
      <path
          id="path5555"
          sodipodi:nodetypes="ccccc"
          style="opacity:.76995;fill-rule:evenodd;fill:#550000"
          inkscape:connector-curvature="0"
          d="m146.98 119.39c-0.83582 3.3594-1.2126 6.641 0.0676 9.642l-27.532 0.19319c-1.4915-3.2037-1.0477-6.421-0.0677-9.642z"
      />
      <path
          id="path5557"
          d="m7.6393 120.48 0.066291 9.4476-17.569-1.0876c-0.68956-1.9779-1.1246-4.0085-0.044584-6.3532z"
          sodipodi:nodetypes="ccccc"
          style="opacity:.56338;fill-rule:evenodd;fill:url(#linearGradient3591)"
          inkscape:connector-curvature="0"
      />
      <path
          id="path5559"
          d="m146.98 119.39c-0.83582 3.3594-1.2126 6.641 0.0676 9.642l-27.532 0.19319c-1.4915-3.2037-1.0477-6.421-0.0677-9.642z"
          sodipodi:nodetypes="ccccc"
          style="fill-rule:evenodd;fill:url(#linearGradient3593)"
          inkscape:connector-curvature="0"
      />
      <path
          id="path5561"
          sodipodi:nodetypes="ccccc"
          style="fill-rule:evenodd;fill:url(#linearGradient3595)"
          inkscape:connector-curvature="0"
          d="m147.05 129.03c-0.88287-3.3473-1.3056-6.6233-0.0677-9.642l-27.532 0.1932c-1.4464 3.2243-0.95746 6.435 0.0677 9.642z"
      />
      <rect
          id="rect5653"
          ry="0"
          style="fill-rule:evenodd;fill:#cccccc"
          transform="rotate(89.638)"
          height="141.72"
          width="9.4479"
          y="-148.39"
          x="136.29"
      />
      <rect
          id="rect5655"
          style="fill-rule:evenodd;fill:#002b11"
          transform="rotate(-.40203)"
          height="1.4499"
          width="151.62"
          y="140.52"
          x="6.8808"
      />
      <path
          id="path5659"
          d="m160.7 138.76 0.0153 2.1809s1.0555-0.32574 2.3429-0.53101c1.0185-0.16239 2.2336-0.13176 2.8268-0.62737-0.70907-0.45108-1.8989-0.34212-2.9051-0.483-1.2589-0.17627-2.2799-0.5395-2.2799-0.5395z"
          sodipodi:nodetypes="ccscsc"
          style="fill-rule:evenodd;fill:#808080"
          inkscape:connector-curvature="0"
      />
      <path
          id="path5661"
          d="m148.95 135.17c-0.75895 3.332-1.2226 6.6069 0.0672 9.5778l12.094-3.548c0.23142-1.0241 0.2552-1.9864-0.0201-2.8598z"
          sodipodi:nodetypes="ccccc"
          style="fill-rule:evenodd;fill:#165016"
          inkscape:connector-curvature="0"
      />
      <rect
          id="rect5663"
          style="opacity:.29108;fill-rule:evenodd;fill:#808080"
          transform="rotate(-.40203)"
          ry="1.8657"
          height="3.7314"
          width="114.58"
          y="139.23"
          x="9.346"
      />
      <path
          id="path5665"
          style="opacity:.29108;fill-rule:evenodd;fill:#808080"
          inkscape:connector-curvature="0"
          d="m10.492 145.67c0.31812-1.0198 1.2586-1.7621 2.3868-1.77l109.53-0.76855c1.1282-0.008 2.079 0.7211 2.4114 1.7364l-114.33 0.80222z"
      />
      <path
          id="path5667"
          d="m10.426 136.23c0.3324 1.0153 1.2832 1.7443 2.4114 1.7364l109.53-0.76855c1.1282-0.008 2.0687-0.7502 2.3868-1.77l-114.33 0.80222z"
          style="opacity:.29108;fill-rule:evenodd;fill:#808080"
          inkscape:connector-curvature="0"
      />
      <rect
          id="rect5669"
          ry="0"
          style="fill-rule:evenodd;fill:url(#pattern3491)"
          transform="rotate(89.638)"
          height="26.78"
          width="9.6423"
          y="-145.4"
          x="135.92"
      />
      <path
          id="path5671"
          d="m147.17 134.89c-0.83581 3.3594-1.2126 6.641 0.0677 9.642l-27.532 0.19319c-1.4915-3.2037-1.0477-6.421-0.0677-9.642z"
          sodipodi:nodetypes="ccccc"
          style="opacity:.76995;fill-rule:evenodd;fill:#0b280b"
          inkscape:connector-curvature="0"
      />
      <g
          id="g5806"
          transform="matrix(0 .32809 -.32809 0 248.43 33.715)"
        >
        <path
            id="path5657"
            sodipodi:nodetypes="ccccc"
            style="fill-rule:evenodd;fill:#005522"
            inkscape:connector-curvature="0"
            d="m312.85 732.84 28.796-0.20206-3.315 53.551c-6.0284 2.1017-12.218 3.4278-19.364 0.13588z"
        />
        <path
            id="path5673"
            d="m312.85 732.84 28.796-0.20205-3.315 53.551c-6.0284 2.1017-12.218 3.4278-19.364 0.13589z"
            sodipodi:nodetypes="ccccc"
            style="opacity:.56338;fill-rule:evenodd;fill:url(#linearGradient3597)"
            inkscape:connector-curvature="0"
        />
      </g
      >
      <path
          id="path5675"
          sodipodi:nodetypes="ccccc"
          style="fill-rule:evenodd;fill:url(#linearGradient3599)"
          inkscape:connector-curvature="0"
          d="m146.68 134.89c-0.83582 3.3594-1.2126 6.641 0.0677 9.642l-27.532 0.19319c-1.4915-3.2037-1.0477-6.421-0.0677-9.642z"
      />
      <path
          id="path5677"
          d="m147 144.54c-0.88287-3.3473-1.3056-6.6233-0.0677-9.642l-27.532 0.19319c-1.4464 3.2243-0.95745 6.435 0.0677 9.642z"
          sodipodi:nodetypes="ccccc"
          style="fill-rule:evenodd;fill:url(#linearGradient3601)"
          inkscape:connector-curvature="0"
      />
      <rect
          id="rect5699"
          style="fill-rule:evenodd;fill:#cccccc"
          transform="rotate(89.638)"
          ry="0"
          height="141.72"
          width="9.4479"
          y="-148.24"
          x="151.8"
      />
      <rect
          id="rect5701"
          style="fill-rule:evenodd;fill:#000000"
          transform="rotate(-.40203)"
          height="1.4499"
          width="151.62"
          y="156.03"
          x="6.7296"
      />
      <path
          id="path5703"
          sodipodi:nodetypes="ccccc"
          style="fill-rule:evenodd;fill:#000000"
          inkscape:connector-curvature="0"
          d="m7.7441 151.83 0.066294 9.4476-17.569-1.0876c-0.68956-1.9779-1.1246-4.0085-0.044581-6.3532z"
      />
      <path
          id="path5705"
          sodipodi:nodetypes="ccscsc"
          style="fill-rule:evenodd;fill:#808080"
          inkscape:connector-curvature="0"
          d="m160.65 154.28 0.0153 2.1809s1.0555-0.32574 2.3429-0.53101c1.0185-0.16239 2.2336-0.13175 2.8268-0.62737-0.70907-0.45108-1.8989-0.34212-2.9051-0.483-1.2589-0.17627-2.2799-0.5395-2.2799-0.5395z"
      />
      <path
          id="path5707"
          sodipodi:nodetypes="ccccc"
          style="fill-rule:evenodd;fill:#000000"
          inkscape:connector-curvature="0"
          d="m148.91 150.68c-0.75895 3.332-1.2226 6.6069 0.0672 9.5778l12.094-3.548c0.23142-1.0241 0.2552-1.9864-0.0201-2.8598z"
      />
      <rect
          id="rect5709"
          ry="1.8657"
          style="opacity:.29108;fill-rule:evenodd;fill:#808080"
          transform="rotate(-.40203)"
          height="3.7314"
          width="114.58"
          y="154.74"
          x="9.1948"
      />
      <path
          id="path5711"
          style="opacity:.29108;fill-rule:evenodd;fill:#808080"
          inkscape:connector-curvature="0"
          d="m10.45 161.18c0.31812-1.0198 1.2586-1.7621 2.3868-1.77l109.53-0.76856c1.1282-0.008 2.079 0.7211 2.4114 1.7364l-114.33 0.80221z"
      />
      <path
          id="path5713"
          style="opacity:.29108;fill-rule:evenodd;fill:#808080"
          inkscape:connector-curvature="0"
          d="m10.384 151.74c0.3324 1.0153 1.2832 1.7443 2.4114 1.7364l109.53-0.76855c1.1282-0.008 2.0687-0.75019 2.3868-1.77l-114.33 0.80222z"
      />
      <rect
          id="rect5715"
          style="fill-rule:evenodd;fill:url(#pattern3518)"
          transform="rotate(89.638)"
          ry="0"
          height="26.78"
          width="9.6423"
          y="-145.31"
          x="151.49"
      />
      <path
          id="path5717"
          sodipodi:nodetypes="ccccc"
          style="opacity:.76995;fill-rule:evenodd;fill:#000000"
          inkscape:connector-curvature="0"
          d="m147.2 150.46c-0.83581 3.3594-1.2126 6.641 0.0677 9.642l-27.532 0.19319c-1.4915-3.2037-1.0477-6.421-0.0677-9.642z"
      />
      <path
          id="path5719"
          d="m7.7441 151.83 0.066294 9.4476-17.569-1.0876c-0.68956-1.9779-1.1246-4.0085-0.044581-6.3532z"
          sodipodi:nodetypes="ccccc"
          style="opacity:.56338;fill-rule:evenodd;fill:url(#linearGradient3603)"
          inkscape:connector-curvature="0"
      />
      <path
          id="path5721"
          d="m147.2 150.46c-0.83581 3.3594-1.2126 6.641 0.0677 9.642l-27.532 0.19319c-1.4915-3.2037-1.0477-6.421-0.0677-9.642z"
          sodipodi:nodetypes="ccccc"
          style="fill-rule:evenodd;fill:url(#linearGradient3605)"
          inkscape:connector-curvature="0"
      />
      <path
          id="path5723"
          sodipodi:nodetypes="ccccc"
          style="fill-rule:evenodd;fill:url(#linearGradient3607)"
          inkscape:connector-curvature="0"
          d="m147.27 160.1c-0.88288-3.3473-1.3056-6.6233-0.0677-9.642l-27.532 0.19319c-1.4464 3.2243-0.95746 6.435 0.0677 9.642z"
      />
    </g
    >
  </g
  >
  <metadata
    >
    <rdf:RDF
      >
      <cc:Work
        >
        <dc:format
          >image/svg+xml</dc:format
        >
        <dc:type
            rdf:resource="http://purl.org/dc/dcmitype/StillImage"
        />
        <cc:license
            rdf:resource="http://creativecommons.org/licenses/publicdomain/"
        />
        <dc:publisher
          >
          <cc:Agent
              rdf:about="http://openclipart.org/"
            >
            <dc:title
              >Openclipart</dc:title
            >
          </cc:Agent
          >
        </dc:publisher
        >
        <dc:title
          >Color ballpoint pens</dc:title
        >
        <dc:date
          >2011-07-23T16:03:14</dc:date
        >
        <dc:description
          >Color ballpoint pens</dc:description
        >
        <dc:source
          >https://openclipart.org/detail/151333/color-ballpoint-pens-by-gsagri04</dc:source
        >
        <dc:creator
          >
          <cc:Agent
            >
            <dc:title
              >gsagri04</dc:title
            >
          </cc:Agent
          >
        </dc:creator
        >
        <dc:subject
          >
          <rdf:Bag
            >
            <rdf:li
              >Color</rdf:li
            >
            <rdf:li
              >ballpoint</rdf:li
            >
            <rdf:li
              >gel</rdf:li
            >
            <rdf:li
              >illustration</rdf:li
            >
            <rdf:li
              >paper</rdf:li
            >
            <rdf:li
              >pen</rdf:li
            >
            <rdf:li
              >write</rdf:li
            >
          </rdf:Bag
          >
        </dc:subject
        >
      </cc:Work
      >
      <cc:License
          rdf:about="http://creativecommons.org/licenses/publicdomain/"
        >
        <cc:permits
            rdf:resource="http://creativecommons.org/ns#Reproduction"
        />
        <cc:permits
            rdf:resource="http://creativecommons.org/ns#Distribution"
        />
        <cc:permits
            rdf:resource="http://creativecommons.org/ns#DerivativeWorks"
        />
      </cc:License
      >
    </rdf:RDF
    >
  </metadata
  >
</svg
>
