<?xml version="1.0" encoding="UTF-8" standalone="no"?>
<!-- Created with Inkscape (http://www.inkscape.org/) -->
<svg
    xmlns:inkscape="http://www.inkscape.org/namespaces/inkscape"
    xmlns:rdf="http://www.w3.org/1999/02/22-rdf-syntax-ns#"
    xmlns="http://www.w3.org/2000/svg"
    xmlns:sodipodi="http://sodipodi.sourceforge.net/DTD/sodipodi-0.dtd"
    xmlns:cc="http://creativecommons.org/ns#"
    xmlns:xlink="http://www.w3.org/1999/xlink"
    xmlns:dc="http://purl.org/dc/elements/1.1/"
    xmlns:svg="http://www.w3.org/2000/svg"
    xmlns:ns1="http://sozi.baierouge.fr"
    id="svg3981"
    sodipodi:docname="pig.svg"
    viewBox="0 0 744.09 1052.4"
    version="1.1"
    inkscape:version="0.48.2 r9819"
  >
  <defs
      id="defs3983"
    >
    <linearGradient
        id="linearGradient5201"
        y2="345.4"
        xlink:href="#linearGradient3812"
        gradientUnits="userSpaceOnUse"
        x2="817.71"
        gradientTransform="translate(1338.1 -53.55)"
        y1="321.66"
        x1="775.28"
        inkscape:collect="always"
    />
    <linearGradient
        id="linearGradient3812"
      >
      <stop
          id="stop3814"
          style="stop-color:#eeb2b2"
          offset="0"
      />
      <stop
          id="stop3816"
          style="stop-color:#c17d7d"
          offset="1"
      />
    </linearGradient
    >
    <linearGradient
        id="linearGradient5203"
        y2="605.12"
        xlink:href="#linearGradient4671"
        gradientUnits="userSpaceOnUse"
        x2="1027.9"
        y1="743"
        x1="1025.5"
        inkscape:collect="always"
    />
    <linearGradient
        id="linearGradient4671"
      >
      <stop
          id="stop4673"
          style="stop-color:#894c4c"
          offset="0"
      />
      <stop
          id="stop4675"
          style="stop-color:#131313"
          offset="1"
      />
    </linearGradient
    >
    <filter
        id="filter4655"
        width="1.36"
        y="-0.36"
        x="-0.18"
        height="1.72"
        color-interpolation-filters="sRGB"
        inkscape:collect="always"
      >
      <feGaussianBlur
          id="feGaussianBlur4657"
          stdDeviation="20.142858"
          inkscape:collect="always"
      />
    </filter
    >
    <filter
        id="filter4745"
        width="1.4721"
        y="-.38964"
        x="-.23606"
        height="1.7793"
        color-interpolation-filters="sRGB"
        inkscape:collect="always"
      >
      <feGaussianBlur
          id="feGaussianBlur4747"
          stdDeviation="25.263543"
          inkscape:collect="always"
      />
    </filter
    >
    <filter
        id="filter4721"
        width="1.5299"
        y="-.43736"
        x="-.26496"
        height="1.8747"
        color-interpolation-filters="sRGB"
        inkscape:collect="always"
      >
      <feGaussianBlur
          id="feGaussianBlur4723"
          stdDeviation="28.357038"
          inkscape:collect="always"
      />
    </filter
    >
    <linearGradient
        id="linearGradient5209"
        y2="646.3"
        xlink:href="#linearGradient3820"
        gradientUnits="userSpaceOnUse"
        x2="1020.9"
        gradientTransform="translate(1335 -53.55)"
        y1="671.56"
        x1="1054.8"
        inkscape:collect="always"
    />
    <linearGradient
        id="linearGradient3820"
      >
      <stop
          id="stop3822"
          style="stop-color:#cd7f7f"
          offset="0"
      />
      <stop
          id="stop3824"
          style="stop-color:#894c4c"
          offset="1"
      />
    </linearGradient
    >
    <filter
        id="filter4777"
        width="1.5107"
        y="-.42145"
        x="-.25533"
        height="1.8429"
        color-interpolation-filters="sRGB"
        inkscape:collect="always"
      >
      <feGaussianBlur
          id="feGaussianBlur4779"
          stdDeviation="27.325873"
          inkscape:collect="always"
      />
    </filter
    >
    <linearGradient
        id="linearGradient5213"
        y2="646.69"
        xlink:href="#linearGradient3820"
        gradientUnits="userSpaceOnUse"
        x2="808.49"
        gradientTransform="translate(1335 -53.55)"
        y1="709.32"
        x1="782.8"
        inkscape:collect="always"
    />
    <radialGradient
        id="radialGradient5215"
        xlink:href="#linearGradient3852"
        gradientUnits="userSpaceOnUse"
        cy="414.74"
        cx="15.905"
        r="47.477"
        inkscape:collect="always"
    />
    <linearGradient
        id="linearGradient3852"
      >
      <stop
          id="stop3854"
          style="stop-color:#ffffff"
          offset="0"
      />
      <stop
          id="stop3856"
          style="stop-color:#e4c5bc"
          offset="1"
      />
    </linearGradient
    >
    <linearGradient
        id="linearGradient5217"
        y2="238.26"
        xlink:href="#linearGradient3812"
        gradientUnits="userSpaceOnUse"
        x2="1006.3"
        y1="351.9"
        x1="1046.4"
        inkscape:collect="always"
    />
    <linearGradient
        id="linearGradient5219"
        y2="217.85"
        gradientUnits="userSpaceOnUse"
        x2="980.16"
        gradientTransform="translate(1182.2 37.878)"
        y1="263.06"
        x1="975.31"
        inkscape:collect="always"
      >
      <stop
          id="stop3949"
          style="stop-color:#ffffff"
          offset="0"
      />
      <stop
          id="stop3951"
          style="stop-color:#ffffff;stop-opacity:0"
          offset="1"
      />
    </linearGradient
    >
    <filter
        id="filter3983"
        color-interpolation-filters="sRGB"
        inkscape:collect="always"
      >
      <feGaussianBlur
          id="feGaussianBlur3985"
          stdDeviation="1.4705773"
          inkscape:collect="always"
      />
    </filter
    >
    <radialGradient
        id="radialGradient5221"
        xlink:href="#linearGradient3812"
        gradientUnits="userSpaceOnUse"
        cy="449.48"
        cx="848.96"
        gradientTransform="matrix(1.1249 .0000088508 -.0000097902 1.2443 1229 -176.03)"
        r="194.82"
        inkscape:collect="always"
    />
    <radialGradient
        id="radialGradient5223"
        xlink:href="#linearGradient3852"
        gradientUnits="userSpaceOnUse"
        cy="428.55"
        cx="28.854"
        r="47.477"
        inkscape:collect="always"
    />
    <linearGradient
        id="linearGradient5225"
        y2="542.74"
        xlink:href="#linearGradient3820"
        gradientUnits="userSpaceOnUse"
        x2="223.17"
        y1="563.87"
        x1="189.32"
        inkscape:collect="always"
    />
    <linearGradient
        id="linearGradient5227"
        y2="369.27"
        xlink:href="#linearGradient3812"
        gradientUnits="userSpaceOnUse"
        x2="914.35"
        gradientTransform="translate(1335 -53.55)"
        y1="314.73"
        x1="891.82"
        inkscape:collect="always"
    />
    <linearGradient
        id="linearGradient5229"
        y2="547.78"
        xlink:href="#linearGradient3820"
        gradientUnits="userSpaceOnUse"
        x2="214.64"
        y1="581.34"
        x1="173.7"
        inkscape:collect="always"
    />
    <linearGradient
        id="linearGradient5231"
        y2="375.17"
        gradientUnits="userSpaceOnUse"
        x2="1043.8"
        gradientTransform="translate(1182.2 37.878)"
        y1="621.6"
        x1="754.54"
        inkscape:collect="always"
      >
      <stop
          id="stop3846"
          style="stop-color:#ffffff"
          offset="0"
      />
      <stop
          id="stop3848"
          style="stop-color:#ffffff;stop-opacity:0"
          offset="1"
      />
    </linearGradient
    >
    <filter
        id="filter3877"
        color-interpolation-filters="sRGB"
        inkscape:collect="always"
      >
      <feGaussianBlur
          id="feGaussianBlur3879"
          stdDeviation="7.993671"
          inkscape:collect="always"
      />
    </filter
    >
    <linearGradient
        id="linearGradient5233"
        y2="246.62"
        gradientUnits="userSpaceOnUse"
        x2="1087.9"
        gradientTransform="translate(1182.2 37.878)"
        y1="272.12"
        x1="1054"
        inkscape:collect="always"
      >
      <stop
          id="stop3891"
          style="stop-color:#ffffff"
          offset="0"
      />
      <stop
          id="stop3893"
          style="stop-color:#ffffff;stop-opacity:0"
          offset="1"
      />
    </linearGradient
    >
    <filter
        id="filter3933"
        width="1.28"
        y="-.073050"
        x="-.13998"
        height="1.1461"
        color-interpolation-filters="sRGB"
        inkscape:collect="always"
      >
      <feGaussianBlur
          id="feGaussianBlur3935"
          stdDeviation="2.4058285"
          inkscape:collect="always"
      />
    </filter
    >
    <linearGradient
        id="linearGradient5235"
        y2="456.25"
        xlink:href="#linearGradient4015"
        gradientUnits="userSpaceOnUse"
        x2="50.744"
        y1="563.26"
        x1="-47.851"
        inkscape:collect="always"
    />
    <linearGradient
        id="linearGradient4015"
        inkscape:collect="always"
      >
      <stop
          id="stop4017"
          style="stop-color:#ffffff"
          offset="0"
      />
      <stop
          id="stop4019"
          style="stop-color:#ffffff;stop-opacity:0"
          offset="1"
      />
    </linearGradient
    >
    <filter
        id="filter4112"
        width="1.432"
        y="-0.216"
        x="-0.216"
        height="1.432"
        color-interpolation-filters="sRGB"
        inkscape:collect="always"
      >
      <feGaussianBlur
          id="feGaussianBlur4114"
          stdDeviation="0.59093916"
          inkscape:collect="always"
      />
    </filter
    >
    <linearGradient
        id="linearGradient5241"
        y2="337.99"
        xlink:href="#linearGradient3812"
        gradientUnits="userSpaceOnUse"
        x2="928.54"
        gradientTransform="translate(1182.2 37.878)"
        y1="316.52"
        x1="890.05"
        inkscape:collect="always"
    />
    <linearGradient
        id="linearGradient4186"
        y2="337.99"
        xlink:href="#linearGradient3812"
        gradientUnits="userSpaceOnUse"
        y1="316.52"
        gradientTransform="matrix(2.2929 0 0 2.2929 117.19 -362.63)"
        x2="928.54"
        x1="890.05"
        inkscape:collect="always"
    />
  </defs
  >
  <sodipodi:namedview
      id="base"
      bordercolor="#ffffff"
      inkscape:pageshadow="0"
      inkscape:window-y="-8"
      pagecolor="#ffffff"
      inkscape:window-height="578"
      inkscape:window-maximized="1"
      inkscape:zoom="0.24748737"
      inkscape:window-x="-8"
      showgrid="false"
      borderopacity="0.0"
      inkscape:current-layer="layer1"
      inkscape:cx="-201.0573"
      inkscape:cy="564.48909"
      inkscape:window-width="1024"
      inkscape:pageopacity="0.0"
      inkscape:document-units="px"
  />
  <g
      id="layer1"
      inkscape:label="Layer 1"
      inkscape:groupmode="layer"
    >
    <g
        id="g5164"
        inkscape:export-ydpi="300"
        inkscape:export-xdpi="300"
        inkscape:export-filename="C:\Documents and Settings\Mikael\My Documents\Buisness\Vect Books\Png\MrPig.png"
        transform="matrix(.98792 0 0 .98792 -1715 27.329)"
      >
      <path
          id="path3809"
          sodipodi:nodetypes="sssss"
          style="fill:url(#linearGradient5201)"
          inkscape:connector-curvature="0"
          d="m2104.3 320.24c0 14.954 35.202-19.425 48.856-19.425s25.9 9.0679 25.9-5.8863-22.843-38.495-36.495-38.261c-34.256 0.58863-38.261 48.618-38.261 63.572z"
      />
      <path
          id="path4273"
          sodipodi:rx="134.28572"
          sodipodi:ry="67.14286"
          style="opacity:0.43;filter:url(#filter4655);fill:url(#linearGradient5203)"
          sodipodi:type="arc"
          d="m1158.6 619.51c0 37.082-60.122 67.143-134.29 67.143-74.164 0-134.29-30.061-134.29-67.143s60.122-67.143 134.29-67.143c74.164 0 134.29 30.061 134.29 67.143z"
          transform="matrix(1.2272 0 0 1.2272 1036.2 -140.18)"
          sodipodi:cy="619.50507"
          sodipodi:cx="1024.2858"
      />
      <path
          id="path4663"
          sodipodi:rx="134.28572"
          sodipodi:ry="67.14286"
          style="opacity:0.32;filter:url(#filter4745);fill:url(#linearGradient5203)"
          sodipodi:type="arc"
          d="m1158.6 619.51c0 37.082-60.122 67.143-134.29 67.143-74.164 0-134.29-30.061-134.29-67.143s60.122-67.143 134.29-67.143c74.164 0 134.29 30.061 134.29 67.143z"
          transform="matrix(.33767 -.12124 .12124 .33767 1885 604.34)"
          sodipodi:cy="619.50507"
          sodipodi:cx="1024.2858"
      />
      <path
          id="path4681"
          sodipodi:rx="134.28572"
          sodipodi:ry="67.14286"
          style="opacity:0.32;filter:url(#filter4721);fill:url(#linearGradient5203)"
          sodipodi:type="arc"
          d="m1158.6 619.51c0 37.082-60.122 67.143-134.29 67.143-74.164 0-134.29-30.061-134.29-67.143s60.122-67.143 134.29-67.143c74.164 0 134.29 30.061 134.29 67.143z"
          transform="matrix(.33767 -.12124 .12124 .33767 1961.5 556.48)"
          sodipodi:cy="619.50507"
          sodipodi:cx="1024.2858"
      />
      <path
          id="path3794"
          sodipodi:nodetypes="sssss"
          style="fill:url(#linearGradient5209)"
          inkscape:connector-curvature="0"
          d="m2400.4 549.06c0 21.142-1.0523 117.46-42.857 119.75-31.09 1.7035-48.571-92.72-66.428-117.79-10.762-15.108 51.043-34.355 66.428-34.355s42.857 11.25 42.857 32.392z"
      />
      <path
          id="path4677"
          sodipodi:rx="134.28572"
          sodipodi:ry="67.14286"
          style="opacity:0.37;filter:url(#filter4777);fill:url(#linearGradient5203)"
          sodipodi:type="arc"
          d="m1158.6 619.51c0 37.082-60.122 67.143-134.29 67.143-74.164 0-134.29-30.061-134.29-67.143s60.122-67.143 134.29-67.143c74.164 0 134.29 30.061 134.29 67.143z"
          transform="matrix(.33767 -.12124 .12124 .33767 1739.4 556.18)"
          sodipodi:cy="619.50507"
          sodipodi:cx="1024.2858"
      />
      <path
          id="path3792"
          sodipodi:nodetypes="sssss"
          style="fill:url(#linearGradient5213)"
          inkscape:connector-curvature="0"
          d="m2090.6 579.53c0 15.385 1.0523 85.476 42.857 87.143 31.09 1.2396 48.571-67.472 66.428-85.714 10.762-10.994-51.044-25-66.428-25-15.385 0-42.857 8.1864-42.857 23.571z"
      />
      <path
          id="path3783"
          d="m2095 350.29c-4.4719 0.1744-9.0156 1.5555-11.64 1.8487-13.593 19.043-23.979 40.393-30.059 63.2-4.9172 16.563-7.4642 33.646-7.8401 50.772 10.81-10.754 23.141-20.042 34.065-30.641 21.763-17.347 31.9-46.122 28.21-73.402-0.6983-10.01-6.6444-12.015-12.736-11.777z"
          sodipodi:nodetypes="scccccs"
          style="fill:#cd7f7f"
          inkscape:connector-curvature="0"
      />
      <path
          id="path3779"
          sodipodi:rx="47.477169"
          sodipodi:ry="47.477169"
          style="fill:url(#radialGradient5215)"
          sodipodi:type="arc"
          d="m73.741 437.18c0 26.221-21.256 47.477-47.477 47.477s-47.477-21.256-47.477-47.477 21.256-47.477 47.477-47.477 47.477 21.256 47.477 47.477z"
          transform="matrix(1.1702 0 0 1.1702 2070 -107.76)"
          sodipodi:cy="437.17929"
          sodipodi:cx="26.263966"
      />
      <path
          id="path3882"
          style="stroke:url(#linearGradient5217);stroke-linecap:round;stroke-width:9.3277;fill:none"
          sodipodi:revolution="1.6"
          sodipodi:radius="85.761894"
          d="m1068.7 296.77c5.701 5.701-4.8721 10.498-9.4754 9.4754-12.475-2.7698-14.48-18.748-9.4754-28.426 8.9519-17.312 32.198-19.34 47.377-9.4754 22.276 14.477 24.344 45.831 9.4754 66.328-19.818 27.32-59.528 29.41-85.279 9.4754-32.405-25.085-34.507-73.256-9.4754-104.23 11.035-13.655 26.477-23.41 43.437-27.853"
          transform="matrix(-.48501 0 0 -1 2856 546.21)"
          sodipodi:argument="-18.064157"
          sodipodi:cy="296.76807"
          sodipodi:cx="1068.7413"
          sodipodi:expansion="1"
          sodipodi:type="spiral"
          sodipodi:t0="0"
      />
      <path
          id="path3937"
          d="m2141 257.94c-0.4925 0.008-0.9574 0.0347-1.4375 0.0625 14.274 1.4108 36.312 24.66 36.312 39.625 0 2.9783-0.4869 5.0219-1.3437 6.4062 1.8863-1.0662 2.9687-3.3897 2.9687-7.8438 0-14.954-22.848-38.485-36.5-38.25z"
          style="filter:url(#filter3983);fill:url(#linearGradient5219)"
          inkscape:connector-curvature="0"
      />
      <path
          id="path2996"
          d="m2233.6 272.51c-58.471-0.4861-116.06 28.417-150.91 75.312-9.7191 12.555 20.837-9.2731 22.406 13.219 3.3677 24.9-5.885 51.166-25.75 67-12.349 11.982-26.704 22.111-37.906 35.25-16.13 26.531-8.794 66.503 17.281 84.031 17.464 8.0004 21.956 31.842 37.656 43.906 34.875 37.938 85.922 58.767 137 59.094 13.699 26.852 29.214 63.692 52.062 62.781 41.805-1.6668 42.844-71.771 42.844-87.156 0-0.27798-0.045-0.53923-0.062-0.8125 56.358-32.642 94.363-95.675 94.281-161.28 1.9915-74.316-44.888-146.6-113.25-175.59-23.761-10.422-49.715-15.777-75.656-15.75z"
          style="fill:url(#radialGradient5221)"
          inkscape:connector-curvature="0"
      />
      <path
          id="path3781"
          sodipodi:rx="47.477169"
          sodipodi:ry="47.477169"
          style="fill:url(#radialGradient5223)"
          sodipodi:type="arc"
          d="m73.741 437.18c0 26.221-21.256 47.477-47.477 47.477s-47.477-21.256-47.477-47.477 21.256-47.477 47.477-47.477 47.477 21.256 47.477 47.477z"
          transform="matrix(1.1702 0 0 1.1702 2152.1 -104.14)"
          sodipodi:cy="437.17929"
          sodipodi:cx="26.263966"
      />
      <path
          id="path3796"
          sodipodi:rx="18.928572"
          sodipodi:ry="32.142857"
          style="fill:url(#linearGradient5225)"
          sodipodi:type="arc"
          d="m216.43 564.51c0 17.752-8.4746 32.143-18.929 32.143s-18.929-14.391-18.929-32.143 8.4746-32.143 18.929-32.143 18.929 14.391 18.929 32.143z"
          transform="matrix(1.1403 -.21418 .21418 1.1403 1714 -100.46)"
          sodipodi:cy="564.50507"
          sodipodi:cx="197.5"
      />
      <path
          id="path3806"
          d="m2271.1 325.24c0 18.146-42.717-23.571-59.286-23.571-16.568 0-31.428 11.004-31.428-7.1428 0-18.146 27.72-46.713 44.286-46.429 41.568 0.71429 46.428 58.996 46.428 77.143z"
          sodipodi:nodetypes="sssss"
          style="fill:url(#linearGradient5227)"
          inkscape:connector-curvature="0"
      />
      <path
          id="path3876"
          sodipodi:rx="21.970818"
          sodipodi:ry="24.496199"
          style="fill:#000000"
          sodipodi:type="arc"
          d="m859.13 458.65c0 13.529-9.8367 24.496-21.971 24.496s-21.971-10.967-21.971-24.496 9.8367-24.496 21.971-24.496 21.971 10.967 21.971 24.496z"
          transform="matrix(.86677 .10871 -.12444 .99223 1499.2 -132.34)"
          sodipodi:cy="458.64502"
          sodipodi:cx="837.16394"
      />
      <path
          id="path3029"
          sodipodi:rx="18.928572"
          sodipodi:ry="32.142857"
          style="fill:url(#linearGradient5229)"
          sodipodi:type="arc"
          d="m216.43 564.51c0 17.752-8.4746 32.143-18.929 32.143s-18.929-14.391-18.929-32.143 8.4746-32.143 18.929-32.143 18.929 14.391 18.929 32.143z"
          transform="matrix(.49916 -.093760 .093760 .49916 1919.1 244.77)"
          sodipodi:cy="564.50507"
          sodipodi:cx="197.5"
      />
      <path
          id="path3803"
          d="m2275.1 277.13c3.1687 10.439 4.7446 21.128 5.5 29.844 2.8903-8.6483 5.3915-17.485 7.5-26.469-4.2909-1.2889-8.6274-2.3955-13-3.375zm-92.156 2.25c-20.353 5.722-39.738 14.897-57.125 26.938v0.65625c0 61.252-28.366 115.83-72.656 151.44 13.568-1.5545 27.779 15.155 32.094 38.125 0.1523 0.81072 0.2823 1.633 0.4063 2.4375 25.728-8.1715 49.959-19.698 72.188-34.062-20.269-9.8803-34.219-30.684-34.219-54.75 0-33.619 27.256-60.844 60.875-60.844 25.039 0 46.528 15.112 55.875 36.719 13.496-18.969 24.818-39.596 33.688-61.469-0.9191-0.27013-1.9147-0.64182-2.9688-1.0938 0.01 0.58518 0.031 1.26 0.031 1.7812 0 18.146-42.744-23.594-59.312-23.594s-31.406 11.021-31.406-7.125c0-2.4629 0.5134-5.1264 1.4375-7.875-0.0005-0.0753 0-0.14254 0-0.21875 0-2.2291 0.389-4.608 1.0937-7.0625z"
          style="filter:url(#filter3877);fill:url(#linearGradient5231)"
          inkscape:connector-curvature="0"
      />
      <path
          id="path3881"
          d="m2227.3 250.78c33.767 9.2061 38.612 60.221 38.813 78.938 0.7874 0.12764 1.5079 0.13729 2.125 0.0312 0.1982-0.6179 0.3124-1.3594 0.3124-2.25 0-17.36-4.4724-71.435-41.25-76.719z"
          style="filter:url(#filter3933);fill:url(#linearGradient5233)"
          inkscape:connector-curvature="0"
      />
      <path
          id="path4013"
          sodipodi:rx="47.477169"
          sodipodi:ry="47.477169"
          style="fill:url(#linearGradient5235)"
          sodipodi:type="arc"
          d="m73.741 437.18c0 26.221-21.256 47.477-47.477 47.477s-47.477-21.256-47.477-47.477 21.256-47.477 47.477-47.477 47.477 21.256 47.477 47.477z"
          transform="matrix(.49881 -.35929 .28601 .39708 2035.9 224.92)"
          sodipodi:cy="437.17929"
          sodipodi:cx="26.263966"
      />
      <path
          id="path4116"
          sodipodi:rx="3.2829957"
          sodipodi:ry="3.2829957"
          style="filter:url(#filter4112);fill:#ffffff"
          sodipodi:type="arc"
          d="m823.78 288.43c0 1.8131-1.4698 3.283-3.283 3.283s-3.283-1.4698-3.283-3.283 1.4698-3.283 3.283-3.283 3.283 1.4698 3.283 3.283z"
          transform="matrix(.99494 -.10045 .10045 .99494 1321.4 185.44)"
          sodipodi:cy="288.43433"
          sodipodi:cx="820.4964"
      />
      <path
          id="path4118"
          sodipodi:rx="21.970818"
          sodipodi:ry="24.496199"
          style="fill:#000000"
          sodipodi:type="arc"
          d="m859.13 458.65c0 13.529-9.8367 24.496-21.971 24.496s-21.971-10.967-21.971-24.496 9.8367-24.496 21.971-24.496 21.971 10.967 21.971 24.496z"
          transform="matrix(.62073 .19523 -.16292 .97471 1621.4 -212.53)"
          sodipodi:cy="458.64502"
          sodipodi:cx="837.16394"
      />
      <path
          id="path4120"
          sodipodi:rx="47.477169"
          sodipodi:ry="47.477169"
          style="fill:url(#linearGradient5235)"
          sodipodi:type="arc"
          d="m73.741 437.18c0 26.221-21.256 47.477-47.477 47.477s-47.477-21.256-47.477-47.477 21.256-47.477 47.477-47.477 47.477 21.256 47.477 47.477z"
          transform="matrix(.38811 -.30737 .17837 .42380 1984.6 196.84)"
          sodipodi:cy="437.17929"
          sodipodi:cx="26.263966"
      />
      <path
          id="path4122"
          sodipodi:rx="3.2829957"
          sodipodi:ry="3.2829957"
          style="filter:url(#filter4112);fill:#ffffff"
          sodipodi:type="arc"
          d="m823.78 288.43c0 1.8131-1.4698 3.283-3.283 3.283s-3.283-1.4698-3.283-3.283 1.4698-3.283 3.283-3.283 3.283 1.4698 3.283 3.283z"
          transform="matrix(.72901 0 0 1 1469.3 85.789)"
          sodipodi:cy="288.43433"
          sodipodi:cx="820.4964"
      />
      <path
          id="path4126"
          sodipodi:rx="18.928572"
          sodipodi:ry="32.142857"
          style="fill:url(#linearGradient5229)"
          sodipodi:type="arc"
          d="m216.43 564.51c0 17.752-8.4746 32.143-18.929 32.143s-18.929-14.391-18.929-32.143 8.4746-32.143 18.929-32.143 18.929 14.391 18.929 32.143z"
          transform="matrix(.49916 -.093760 .093760 .49916 1898.2 231.98)"
          sodipodi:cy="564.50507"
          sodipodi:cx="197.5"
      />
      <path
          id="path4130"
          d="m2107.7 372.13c-1.3987 3.9364-4.296-4.3983-20.042-9.993-15.745-5.5948-26.76 3.5179-25.361-0.41848 1.3987-3.9364 19.479-20.946 35.225-15.352 15.746 5.5948 11.577 21.827 10.178 25.763z"
          sodipodi:nodetypes="sssss"
          style="fill:url(#linearGradient5241)"
          inkscape:connector-curvature="0"
      />
      <path
          id="path4141"
          sodipodi:nodetypes="sssss"
          style="fill:url(#linearGradient4186)"
          inkscape:connector-curvature="0"
          d="m2239.9 400.57c-3.2071 9.0258-14.493-12.228-50.596-25.056s-58.858 10.566-55.651 1.5405c3.2072-9.0258 30.378-36.243 66.482-23.414 36.103 12.828 42.973 37.904 39.766 46.93z"
      />
    </g
    >
    <g
        id="g4463"
        inkscape:export-ydpi="300"
        inkscape:export-xdpi="300"
        inkscape:export-filename="C:\Documents and Settings\Mikael\My Documents\Buisness\Vect Books\Png\MrPig.png"
        transform="translate(-1785.4 20.848)"
      >
      <rect
          id="rect4280"
          style="fill-opacity:0"
          inkscape:export-ydpi="89.981552"
          inkscape:export-filename="D:\Redbask\Openclipart\pig.png"
          height="717.14"
          width="697.14"
          inkscape:export-xdpi="89.981552"
          y="122.94"
          x="1400"
      />
    </g
    >
  </g
  >
  <metadata
    >
    <rdf:RDF
      >
      <cc:Work
        >
        <dc:format
          >image/svg+xml</dc:format
        >
        <dc:type
            rdf:resource="http://purl.org/dc/dcmitype/StillImage"
        />
        <cc:license
            rdf:resource="http://creativecommons.org/licenses/publicdomain/"
        />
        <dc:publisher
          >
          <cc:Agent
              rdf:about="http://openclipart.org/"
            >
            <dc:title
              >Openclipart</dc:title
            >
          </cc:Agent
          >
        </dc:publisher
        >
        <dc:title
          >Pig</dc:title
        >
        <dc:date
          >2011-10-26T01:44:43</dc:date
        >
        <dc:description
          >created in inkscape ( not really IE compatible )</dc:description
        >
        <dc:source
          >https://openclipart.org/detail/164809/pig-by-redbask</dc:source
        >
        <dc:creator
          >
          <cc:Agent
            >
            <dc:title
              >redbask</dc:title
            >
          </cc:Agent
          >
        </dc:creator
        >
        <dc:subject
          >
          <rdf:Bag
            >
            <rdf:li
              >animal</rdf:li
            >
            <rdf:li
              >ball</rdf:li
            >
            <rdf:li
              >pig</rdf:li
            >
          </rdf:Bag
          >
        </dc:subject
        >
      </cc:Work
      >
      <cc:License
          rdf:about="http://creativecommons.org/licenses/publicdomain/"
        >
        <cc:permits
            rdf:resource="http://creativecommons.org/ns#Reproduction"
        />
        <cc:permits
            rdf:resource="http://creativecommons.org/ns#Distribution"
        />
        <cc:permits
            rdf:resource="http://creativecommons.org/ns#DerivativeWorks"
        />
      </cc:License
      >
    </rdf:RDF
    >
  </metadata
  >
</svg
>
