<?xml version="1.0" encoding="UTF-8" standalone="no"?>
<!-- Created with Inkscape (http://www.inkscape.org/) -->
<svg xmlns:dc="http://purl.org/dc/elements/1.1/" xmlns:cc="http://creativecommons.org/ns#" xmlns:rdf="http://www.w3.org/1999/02/22-rdf-syntax-ns#" xmlns:svg="http://www.w3.org/2000/svg" xmlns="http://www.w3.org/2000/svg" xmlns:xlink="http://www.w3.org/1999/xlink" xmlns:sodipodi="http://sodipodi.sourceforge.net/DTD/sodipodi-0.dtd" xmlns:inkscape="http://www.inkscape.org/namespaces/inkscape" width="2474.8572" height="2280.5715" id="svg2" version="1.1" inkscape:version="0.48.4 r9939" sodipodi:docname="octopus.svg">
  <title id="title4894">octopus</title>
  <defs id="defs4">
    <linearGradient id="linearGradient4837">
      <stop style="stop-color:#2c342e;stop-opacity:1" offset="0" id="stop4839"/>
      <stop id="stop4845" offset="0.37043357" style="stop-color:#656ba5;stop-opacity:1"/>
      <stop style="stop-color:#20e72c;stop-opacity:0.51004016;" offset="1" id="stop4841"/>
    </linearGradient>
    <linearGradient id="linearGradient4603">
      <stop style="stop-color:#a41b1b;stop-opacity:1;" offset="0" id="stop4605"/>
      <stop style="stop-color:#942525;stop-opacity:0;" offset="1" id="stop4607"/>
    </linearGradient>
    <linearGradient id="linearGradient3893">
      <stop style="stop-color:#ffaaaa;stop-opacity:1;" offset="0" id="stop3895"/>
      <stop style="stop-color:#fb7d7d;stop-opacity:0.12169312" offset="1" id="stop3897"/>
    </linearGradient>
    <linearGradient id="linearGradient3780">
      <stop style="stop-color:#4d4d4d;stop-opacity:1;" offset="0" id="stop3782"/>
      <stop style="stop-color:#4d4d4d;stop-opacity:0;" offset="1" id="stop3784"/>
    </linearGradient>
    <linearGradient id="linearGradient3766">
      <stop style="stop-color:#000000;stop-opacity:1;" offset="0" id="stop3768"/>
      <stop style="stop-color:#777777;stop-opacity:0.52252251;" offset="1" id="stop3770"/>
    </linearGradient>
    <radialGradient inkscape:collect="always" xlink:href="#linearGradient3893-2" id="radialGradient3917-5" cx="-76.113815" cy="525.02972" fx="-76.113815" fy="525.02972" r="454.60083" gradientTransform="matrix(0.35624001,-0.59970322,0.62718121,0.37256274,-441.98913,-30.670709)" gradientUnits="userSpaceOnUse"/>
    <linearGradient id="linearGradient3893-2">
      <stop style="stop-color:#ffaaaa;stop-opacity:1;" offset="0" id="stop3895-3"/>
      <stop style="stop-color:#fb7d7d;stop-opacity:0.12169312" offset="1" id="stop3897-1"/>
    </linearGradient>
    <radialGradient inkscape:collect="always" xlink:href="#linearGradient3893" id="radialGradient4831" gradientUnits="userSpaceOnUse" gradientTransform="matrix(0.35624001,-0.59970322,0.62718121,0.37256274,-441.98913,-30.670709)" cx="-76.113815" cy="525.02972" fx="-76.113815" fy="525.02972" r="454.60083"/>
    <radialGradient inkscape:collect="always" xlink:href="#linearGradient3893-2" id="radialGradient4833" gradientUnits="userSpaceOnUse" gradientTransform="matrix(0.35624001,-0.59970322,0.62718121,0.37256274,-439.31686,-34.604325)" cx="-76.113815" cy="525.02972" fx="-76.113815" fy="525.02972" r="454.60083"/>
    <linearGradient inkscape:collect="always" xlink:href="#linearGradient4837" id="linearGradient4847" x1="-377.14279" y1="1312.3622" x2="182.85719" y2="-1001.9234" gradientUnits="userSpaceOnUse"/>
  </defs>
  <sodipodi:namedview id="base" pagecolor="#ffffff" bordercolor="#666666" borderopacity="1.0" inkscape:pageopacity="0.0" inkscape:pageshadow="2" inkscape:zoom="0.175" inkscape:cx="1935.6634" inkscape:cy="710.31776" inkscape:document-units="px" inkscape:current-layer="layer3" showgrid="false" inkscape:window-width="1366" inkscape:window-height="706" inkscape:window-x="-8" inkscape:window-y="-8" inkscape:window-maximized="1" fit-margin-top="0" fit-margin-left="0" fit-margin-right="0" fit-margin-bottom="0"/>
  <g inkscape:label="Layer 1" inkscape:groupmode="layer" id="layer1" transform="translate(1091.7142,616.49493)"/>
  <g inkscape:groupmode="layer" id="layer3" inkscape:label="Layer3" transform="translate(1091.7142,616.49493)">
    <rect style="fill:url(#linearGradient4847);fill-opacity:1;fill-rule:evenodd;stroke:#00076a;stroke-width:12;stroke-miterlimit:4;stroke-opacity:1;stroke-dasharray:none" id="rect4835" width="2462.8572" height="2268.5715" x="-1085.7142" y="-610.49493" rx="0.065289535" ry="15.118731"/>
    <g id="g4749" transform="translate(-102.85714,17.142857)">
      <path sodipodi:nodetypes="ccccccccccccc" inkscape:connector-curvature="0" id="path3829" d="m 425.71429,192.36218 c -43.23183,32.7974 -83.3449,139.52551 -120.26063,177.59736 -41.87333,52.79686 -87.78673,114.09601 -80.45452,185.45803 38.98304,126.4127 56.06777,110.60875 54.99354,152.25535 37.50917,182.37879 112.48069,188.90065 127.40589,285.36371 15.42909,30.73487 0.81589,68.48767 -31.72731,80.50747 -13.61235,8.1983 -44.09186,12.6483 -49.44641,13.9039 48.6434,16.5281 93.24565,-27.433 106.97485,-70.7893 C 473.92015,907.87113 353.76111,824.18786 341.70506,754.61257 374.36542,635.6241 249.91382,603.37855 327.27112,446.23984 c 20.42091,-32.79523 56.25008,-56.27184 86.87194,-34.18205 33.23408,20.15369 68.10248,52.08655 110.20195,40.00725 9.36309,-1.44295 92.77955,-75.71949 101.36927,-79.70286" style="fill:#ff8080;stroke:none"/>
      <path sodipodi:nodetypes="ccccccccc" inkscape:connector-curvature="0" id="path3813" d="m 497.14285,152.36219 c -82.61585,49.84217 -169.3614,24.37108 -261.39875,-3.84591 -224.409294,5.88345 -268.322616,234.42938 -343.31712,432.23576 31.662371,295.90305 -95.88897,482.63726 -169.35508,432.35956 15.54567,11.8697 53.39368,32.2282 83.10245,13.9475 75.55837,-86.31816 111.258916,-201.33544 123.302422,-313.66738 4.406358,-181.42575 134.611273,-586.27147 354.914078,-447.82789 43.59576,79.68796 168.40858,21.5484 244.99734,-9.28175 30.65667,-10.39796 39.82283,40.92724 67.75466,24.65153" style="fill:#ff8080;stroke:none"/>
      <path sodipodi:nodetypes="cccccccccc" inkscape:connector-curvature="0" id="path3805" d="M 514.28571,32.362183 C 502.38307,185.26652 299.47261,150.96486 188.90855,122.31663 58.478335,72.519206 -72.684859,228.26721 -223.16374,126.99053 -324.42134,-2.6480703 -244.87648,-167.63876 -131.34571,-41.001211 -20.837403,-0.57975329 81.1626,-261.48503 -21.887978,-108.7129 -179.35131,23.340353 -109.56469,-219.88006 -278.76781,-106.93 c -57.88386,108.0632007 -50.97427,280.57011 71.50458,328.42759 131.099409,50.62838 262.840525,-90.87169 386.54585,4.39333 101.36806,80.73486 223.09479,41.95421 337.82068,27.70983 25.9883,-3.70641 51.89909,-8.37035 77.18241,-15.52428" style="fill:#ff5555;fill-opacity:1;stroke:url(#radialGradient4831)"/>
      <path sodipodi:nodetypes="cccccccccc" inkscape:connector-curvature="0" id="path3821" d="M 348.57143,312.36218 C 273.17514,393.73374 170.32839,415.94748 42.084958,485.4072 -74.943059,524.17965 -176.00206,502.16143 -310.45193,585.46996 c -89.47754,119.81801 -277.32986,193.30993 -346.12424,82.68394 26.89786,69.12161 84.88665,95.18565 149.79811,81.50878 76.45449,-9.56688 138.57875,-58.04411 201.82468,-97.47925 77.72576,-42.99162 170.82474,-77.22391 260.030045,-66.11745 C 82.311089,560.23609 179.23656,464.10607 312.49171,459.32973 c 90.8283,-11.69893 170.07094,-60.89617 250.3114,-100.81066 5.66488,-1.43414 11.45113,-2.27594 17.19689,-3.29975" style="fill:#ff5555;stroke:none"/>
      <path sodipodi:nodetypes="ccccccccccc" inkscape:connector-curvature="0" id="path3857" d="M 771.42857,349.50505 C 755.12949,460.796 718.96191,518.01529 631.07889,601.31137 c -74.71114,73.52407 -289.3313,304.5685 -186.59674,358.58443 39.82996,26.82211 99.1644,59.5432 154.40389,78.0198 87.48762,67.6431 2.52463,166.0449 -43.41653,222.3428 -17.31561,13.7925 -46.41287,51.9251 -64.8444,41.0091 47.9584,-55.7828 93.89329,-107.3823 106.89526,-171.4335 12.98625,-41.3947 -40.32187,-81.0287 -81.38023,-84.1095 C 459.80696,1027.4073 394.48075,1006.542 378.18571,934.73537 365.09918,728.7486 499.70589,659.15947 571.16612,565.09458 c 40.23612,-42.22644 67.30106,-96.05787 80.26245,-152.73239" style="fill:#ff2a2a;stroke:none"/>
      <path sodipodi:nodetypes="cccccccccccccccc" inkscape:connector-curvature="0" id="path3835" d="m 480,332.36218 c 17.54176,77.69902 -31.48589,136.65324 -99.36011,193.99246 -123.22107,82.03281 -235.79358,85.92214 -173.64222,330.46523 25.52349,47.26555 70.24424,175.18163 40.52904,236.63363 -19.94303,58.7023 -42.96265,106.1572 -41.41225,191.1888 33.60166,204.4895 -25.7783,-34.2671 71.98662,-178.6466 55.36248,-211.37023 -81.9005,-286.9048 -25.41162,-379.429 7.97541,-63.70484 102.47168,-104.47302 167.78214,-152.2144 44.33091,-24.53813 106.59026,-143.14439 151.12776,-67.45513 -9.40607,92.72709 11.60696,210.68531 67.06896,280.92787 125.55462,196.1182 -163.31594,245.12496 -213.66124,380.32806 -24.72771,47.6002 -53.57309,111.0371 -36.60642,151.1066 3.96077,-96.5905 87.77421,-161.0454 157.35033,-216.3343 130.62233,-80.05 204.22565,-208.11324 162.07097,-343.85463 -28.21695,-64.56626 -83.75139,-128.14752 -71.32521,-207.37452 13.80761,-49.07273 60.65482,-85.71466 60.64611,-139.33407" style="fill:#ff5555;fill-opacity:1;stroke:none"/>
      <path sodipodi:nodetypes="cccccccccc" inkscape:connector-curvature="0" id="path3864" d="m 774.28572,386.6479 c 26.83698,155.52984 127.0632,286.51893 243.88358,387.27964 90.9985,128.11302 53.1436,180.92869 33.1987,272.69396 -47.6258,111.1047 -121.5085,190.8845 -138.97509,331.2723 -14.7086,35.8472 -11.39898,119.8357 -16.6734,32.8779 3.38485,-206.3381 34.43543,-181.0067 66.27642,-267.0634 41.72417,-87.1221 80.95077,-190.77897 43.97087,-284.36943 C 953.066,769.42684 841.99217,724.76144 795.36811,614.9098 725.59648,556.6494 668.56978,477.73456 676.61061,382.17769 c -0.20795,-12.79753 0.0287,-25.59891 0.53228,-38.38693" style="fill:#ff2a2a;stroke:none"/>
      <path sodipodi:nodetypes="cccccccc" inkscape:connector-curvature="0" id="path3843" d="m 914.28572,343.79076 c -127.7685,34.08003 -93.79682,180.9918 -40.3165,261.63047 74.68408,277.25371 -78.21533,198.00915 -75.74726,613.30857 25.37806,168.8451 -31.90491,269.1698 -166.75337,233.8905 -148.52431,-26.9484 170.20645,57.1045 141.95527,-125.1138 1.17671,-138.718 -57.1006,-249.5805 2.34764,-424.6451 C 841.32441,800.0117 841.72172,675.24765 790.0233,569.41108 754.06232,498.66676 690.18481,457.35675 660,383.79076" style="fill:#ff5555;stroke:none"/>
      <path sodipodi:nodetypes="cccccccc" inkscape:connector-curvature="0" id="path3845" d="m 582.85714,383.79075 c 62.82975,37.07633 62.00142,119.79104 103.29096,173.52196 87.82477,99.13924 255.08895,139.19902 369.4777,133.2468 99.9047,7.4368 157.6631,112.86654 69.3561,178.02342 151.4954,-81.70454 9.3039,-249.24249 -117.7367,-238.46204 -68.5556,-5.96076 -136.97527,-22.68948 -199.50817,-51.257 -69.63199,-40.98413 -137.39813,-113.22498 -126.37312,-200.1659 2.19367,-10.77555 2.63429,-23.27375 10.06466,-32.0501" style="fill:#ff5555;stroke:none"/>
      <path sodipodi:nodetypes="ccccccccccccccc" inkscape:connector-curvature="0" id="path3870" d="m 511.42857,255.21932 -48.57143,-8.57143 c 7.61905,12.18074 15.23809,16.83239 22.85714,42.85715 -4.77777,-19.02222 -34.78836,2.32804 -57.14285,11.42857 19.04762,9.43452 38.09523,31.94973 57.14285,17.14286 -9.61441,11.98188 -17.68635,24.27225 -8.57142,40 10.47619,-0.14359 20.95238,17.64338 31.42857,-2.85715 l 2.85714,37.14286 c 23.90821,2.74561 35.08782,-4.69165 40,-17.14286 15.87426,3.80766 22.19786,21.9413 22.85714,48.57143 9.53171,-12.36516 22.75899,-17.33916 28.57143,-37.14286 8.45909,22.80343 19.16278,27.65014 31.42857,20 11.76832,-11.84814 19.43865,-24.37927 8.57143,-40 l -37.14286,-74.28571 z" style="fill:#773737;fill-opacity:1;stroke:none"/>
      <path sodipodi:nodetypes="ccccc" inkscape:connector-curvature="0" id="path2996" d="M 511.42859,28.647903 C 461.30751,-259.45656 743.39937,-577.10553 1108.5715,-428.49497 c 338.2179,150.73896 264.3893,384.357843 240,534.28572 -197.8959,444.51133 -477.08943,248.42393 -477.14291,251.42856 -214.04479,36.13317 -414.18184,52.53682 -360,-328.571407 z" style="fill:#ff5555;fill-opacity:1;stroke:none"/>
      <path sodipodi:nodetypes="cccc" inkscape:connector-curvature="0" id="path4005" d="m 1054.2857,169.50504 c -4.1629,-7.62546 18.1777,-31.02144 12.5406,-38.25096 -49.3101,-43.947966 -111.69005,-14.5011 -150.39703,17.61494 -11.66316,84.32553 101.38773,51.42616 137.85643,20.63602 z" style="fill:#ff2a2a;stroke:none"/>
      <g transform="translate(15.428573,-46.285714)" id="g3872">
        <path style="fill:#000000;stroke:#000000;stroke-width:1px;stroke-linecap:butt;stroke-linejoin:miter;stroke-opacity:1" d="m 928.57143,242.36218 c 7.93663,-14.15928 -10.34228,-16.03003 53.57143,-56.42857 23.28084,1.78289 30.54264,9.97344 35.00004,19.28571 -6.0874,23.40987 -52.0582,28.05106 -88.57147,37.14286 z" id="path3788" inkscape:connector-curvature="0" sodipodi:nodetypes="cccc"/>
        <path sodipodi:type="arc" style="fill:#ffffff;fill-opacity:1;stroke:#ffffff;stroke-width:6;stroke-linejoin:round;stroke-miterlimit:4;stroke-opacity:1;stroke-dasharray:none;stroke-dashoffset:0" id="path3790" sodipodi:cx="920" sodipodi:cy="149.86218" sodipodi:rx="2.1428571" sodipodi:ry="2.5" d="m 922.14286,149.86218 c 0,1.38071 -0.95939,2.5 -2.14286,2.5 -1.18347,0 -2.14286,-1.11929 -2.14286,-2.5 0,-1.38071 0.95939,-2.5 2.14286,-2.5 1.18347,0 2.14286,1.11929 2.14286,2.5 z" transform="translate(75.714286,50)"/>
      </g>
      <path sodipodi:nodetypes="ccccc" inkscape:connector-curvature="0" id="path3805-6" d="m 542.67227,179.85714 c -108.34244,83.25516 -349.89593,88.44935 -396.80574,1.38303 -70.294727,7.07909 -160.112893,-58.62464 36.08836,40.71714 101.36806,80.73486 223.09479,41.95421 337.82068,27.70983 25.9883,-3.70641 -28.10091,-31.22749 -2.81759,-38.38142" style="fill:#ff2a2a;fill-opacity:1;stroke:url(#radialGradient4833)"/>
      <path sodipodi:nodetypes="ccccc" inkscape:connector-curvature="0" id="path2996-8" d="m 1363.7456,-133.84821 c -68.113,315.52829 -94.1669,464.75726 -423.59828,502.60714 -36.15722,-10.83447 -74.3367,-15.58038 -13.1116,15.54018 C 1145.7076,485.02216 1381.8362,176.75072 1374,-38.772323 c 0.8095,-70.287237 -0.9503,-88.477697 -10.2544,-95.075887 z" style="fill:#d40000;fill-opacity:1;stroke:none"/>
      <path inkscape:connector-curvature="0" id="path4072" d="m 1155.7723,15.691964 c -7.9883,8.74548 -12.9062,20.66292 -12.9062,33.8125 0,26.82526 20.4714,48.5625 45.7187,48.5625 25.2473,0 45.6875,-21.73724 45.6875,-48.5625 0,-10.04972 -2.8609,-19.37738 -7.7812,-27.125 1.3363,4.92681 2.0937,10.19077 2.0937,15.6875 0,26.82526 -17.2913,48.59375 -38.5937,48.59375 -21.3024,0 -38.5625,-21.76849 -38.5625,-48.59375 0,-8.07042 1.578,-15.67787 4.3437,-22.375 z" style="fill:#ffaaaa;fill-opacity:1;fill-rule:evenodd;stroke:none"/>
      <path inkscape:connector-curvature="0" id="path4103" d="m 710.00447,-36.196429 c -21.30364,0 -38.58036,15.339446 -38.58036,34.2723214 0,18.9328756 17.27672,34.2723216 38.58036,34.2723216 21.30364,0 38.58035,-15.339446 38.58035,-34.2723216 0,-18.9328754 -17.27671,-34.2723214 -38.58035,-34.2723214 z m 1.07818,7.397633 c 14.79421,0 26.76718,11.614801 26.76718,25.942384 0,14.327583 -11.97297,25.942384 -26.76718,25.942384 -14.7942,0 -26.79061,-11.614801 -26.79061,-25.942384 0,-14.327583 11.99641,-25.942384 26.79061,-25.942384 z" style="fill:#ffaaaa;fill-opacity:1;fill-rule:evenodd;stroke:none"/>
      <path inkscape:connector-curvature="0" id="path4103-7" d="m 584.28572,29.518436 c -14.20407,0 -25.72322,12.781868 -25.72322,28.558034 0,15.776159 11.51915,28.558035 25.72322,28.558035 14.20407,0 25.7232,-12.781876 25.7232,-28.558035 0,-15.776166 -11.51913,-28.558034 -25.7232,-28.558034 z m 0.71887,6.16421 c 9.86394,0 17.84685,9.678243 17.84685,21.61696 0,11.938725 -7.98291,21.616969 -17.84685,21.616969 -9.86395,0 -17.86248,-9.678244 -17.86248,-21.616969 0,-11.938717 7.99853,-21.61696 17.86248,-21.61696 z" style="fill:#ffd5d5;fill-opacity:1;fill-rule:evenodd;stroke:none"/>
      <path inkscape:connector-curvature="0" id="path4103-1" d="m 674.28572,66.66129 c -13.41522,0 -24.29464,9.584906 -24.29464,21.415183 0,11.83027 10.87942,21.415167 24.29464,21.415167 13.41523,0 24.29464,-9.584897 24.29464,-21.415167 0,-11.830277 -10.87941,-21.415183 -24.29464,-21.415183 z m 0.67895,4.622437 c 9.31614,0 16.8557,7.257548 16.8557,16.210186 0,8.95264 -7.53956,16.210187 -16.8557,16.210187 -9.31613,0 -16.87046,-7.257547 -16.87046,-16.210187 0,-8.952638 7.55433,-16.210186 16.87046,-16.210186 z" style="fill:#ffaaaa;fill-opacity:1;fill-rule:evenodd;stroke:none"/>
      <path inkscape:connector-curvature="0" id="path4103-2" d="m 591.42858,-104.76728 c -21.30364,0 -38.58036,15.339437 -38.58036,34.272317 0,18.93288 17.27672,34.272323 38.58036,34.272323 21.30364,0 38.58035,-15.339443 38.58035,-34.272323 0,-18.93288 -17.27671,-34.272317 -38.58035,-34.272317 z m 1.07818,7.397627 c 14.79421,0 26.76718,11.6148 26.76718,25.94239 0,14.32758 -11.97297,25.94238 -26.76718,25.94238 -14.7942,0 -26.79061,-11.6148 -26.79061,-25.94238 0,-14.32759 11.99641,-25.94239 26.79061,-25.94239 z" style="fill:#ffd5d5;fill-opacity:1;fill-rule:evenodd;stroke:none"/>
      <path inkscape:connector-curvature="0" id="path4103-6" d="m 742.85715,126.66129 c -10.25987,0 -18.58036,7.66672 -18.58036,17.12945 0,9.46274 8.32049,17.12947 18.58036,17.12947 10.25986,0 18.58035,-7.66673 18.58035,-17.12947 0,-9.46273 -8.32049,-17.12945 -18.58035,-17.12945 z m 0.51925,3.69737 c 7.12491,0 12.89111,5.80513 12.89111,12.96612 0,7.16099 -5.7662,12.96612 -12.89111,12.96612 -7.12491,0 -12.9024,-5.80513 -12.9024,-12.96612 0,-7.16099 5.77749,-12.96612 12.9024,-12.96612 z" style="fill:#ffd5d5;fill-opacity:1;fill-rule:evenodd;stroke:none"/>
      <path inkscape:connector-curvature="0" id="path4103-0" d="m 571.42857,115.23271 c -8.68218,0 -15.72321,6.38794 -15.72321,14.27232 0,7.88439 7.04103,14.27233 15.72321,14.27233 8.68219,0 15.72321,-6.38794 15.72321,-14.27233 0,-7.88438 -7.04102,-14.27232 -15.72321,-14.27232 z m 0.43941,3.08066 c 6.0293,0 10.90882,4.83686 10.90882,10.80342 0,5.96656 -4.87952,10.80341 -10.90882,10.80341 -6.02929,0 -10.91837,-4.83685 -10.91837,-10.80341 0,-5.96656 4.88908,-10.80342 10.91837,-10.80342 z" style="fill:#ffd5d5;fill-opacity:1;fill-rule:evenodd;stroke:none"/>
      <path inkscape:connector-curvature="0" id="path4103-0-4" d="m 617.14286,158.08985 c -8.68218,0 -15.72321,6.38794 -15.72321,14.27232 0,7.88439 7.04103,14.27233 15.72321,14.27233 8.68219,0 15.72321,-6.38794 15.72321,-14.27233 0,-7.88438 -7.04102,-14.27232 -15.72321,-14.27232 z m 0.43941,3.08066 c 6.0293,0 10.90882,4.83686 10.90882,10.80342 0,5.96656 -4.87952,10.80341 -10.90882,10.80341 -6.02929,0 -10.91837,-4.83685 -10.91837,-10.80341 0,-5.96656 4.88908,-10.80342 10.91837,-10.80342 z" style="fill:#ffd5d5;fill-opacity:1;fill-rule:evenodd;stroke:none"/>
      <path inkscape:connector-curvature="0" id="path4103-0-9" d="m 1020.0001,255.23271 c -8.6822,0 -15.7233,6.38794 -15.7233,14.27232 0,7.88439 7.0411,14.27233 15.7233,14.27233 8.6821,0 15.7232,-6.38794 15.7232,-14.27233 0,-7.88438 -7.0411,-14.27232 -15.7232,-14.27232 z m 0.4394,3.08066 c 6.0293,0 10.9088,4.83686 10.9088,10.80342 0,5.96656 -4.8795,10.80341 -10.9088,10.80341 -6.0293,0 -10.9184,-4.83685 -10.9184,-10.80341 0,-5.96656 4.8891,-10.80342 10.9184,-10.80342 z" style="fill:#ffd5d5;fill-opacity:1;fill-rule:evenodd;stroke:none"/>
      <path inkscape:connector-curvature="0" id="path4103-0-46" d="m 1108.5715,235.23272 c -8.6822,0 -15.7232,6.38794 -15.7232,14.27232 0,7.88439 7.041,14.27233 15.7232,14.27233 8.6822,0 15.7232,-6.38794 15.7232,-14.27233 0,-7.88438 -7.041,-14.27232 -15.7232,-14.27232 z m 0.4394,3.08066 c 6.0293,0 10.9088,4.83686 10.9088,10.80342 0,5.96656 -4.8795,10.80341 -10.9088,10.80341 -6.0293,0 -10.9184,-4.83685 -10.9184,-10.80341 0,-5.96656 4.8891,-10.80342 10.9184,-10.80342 z" style="fill:#ffd5d5;fill-opacity:1;fill-rule:evenodd;stroke:none"/>
      <path inkscape:connector-curvature="0" id="path4103-0-0" d="m 1191.4286,140.947 c -8.6822,0 -15.7232,6.38794 -15.7232,14.27232 0,7.88439 7.041,14.27233 15.7232,14.27233 8.6822,0 15.7232,-6.38794 15.7232,-14.27233 0,-7.88438 -7.041,-14.27232 -15.7232,-14.27232 z m 0.4394,3.08066 c 6.0293,0 10.9088,4.83686 10.9088,10.80342 0,5.96656 -4.8795,10.80341 -10.9088,10.80341 -6.0293,0 -10.9184,-4.83685 -10.9184,-10.80341 0,-5.96656 4.8891,-10.80342 10.9184,-10.80342 z" style="fill:#ffd5d5;fill-opacity:1;fill-rule:evenodd;stroke:none"/>
      <path inkscape:connector-curvature="0" id="path4103-0-3" d="m 1282.8571,-59.053 c -8.6821,0 -15.7232,6.38794 -15.7232,14.27232 0,7.88439 7.0411,14.27233 15.7232,14.27233 8.6822,0 15.7233,-6.38794 15.7233,-14.27233 0,-7.88438 -7.0411,-14.27232 -15.7233,-14.27232 z m 0.4395,3.08066 c 6.0293,0 10.9088,4.83686 10.9088,10.80342 0,5.96656 -4.8795,10.80341 -10.9088,10.80341 -6.0293,0 -10.9184,-4.83685 -10.9184,-10.80341 0,-5.96656 4.8891,-10.80342 10.9184,-10.80342 z" style="fill:#ffd5d5;fill-opacity:1;fill-rule:evenodd;stroke:none"/>
      <path inkscape:connector-curvature="0" id="path4103-0-6" d="m 1285.7143,-187.62443 c -8.6822,0 -15.7232,6.38794 -15.7232,14.27232 0,7.88439 7.041,14.27233 15.7232,14.27233 8.6822,0 15.7232,-6.38794 15.7232,-14.27233 0,-7.88438 -7.041,-14.27232 -15.7232,-14.27232 z m 0.4394,3.08066 c 6.0293,0 10.9088,4.83686 10.9088,10.80342 0,5.96656 -4.8795,10.80341 -10.9088,10.80341 -6.0293,0 -10.9184,-4.83685 -10.9184,-10.80341 0,-5.96656 4.8891,-10.80342 10.9184,-10.80342 z" style="fill:#ffd5d5;fill-opacity:1;fill-rule:evenodd;stroke:none"/>
      <path inkscape:connector-curvature="0" id="path4103-0-2" d="m 1268.5714,92.375572 c -8.6822,0 -15.7232,6.38794 -15.7232,14.272318 0,7.88439 7.041,14.27233 15.7232,14.27233 8.6822,0 15.7232,-6.38794 15.7232,-14.27233 0,-7.884378 -7.041,-14.272318 -15.7232,-14.272318 z m 0.4394,3.08066 c 6.0293,0 10.9089,4.836858 10.9089,10.803418 0,5.96656 -4.8796,10.80341 -10.9089,10.80341 -6.0293,0 -10.9183,-4.83685 -10.9183,-10.80341 0,-5.96656 4.889,-10.803418 10.9183,-10.803418 z" style="fill:#ffd5d5;fill-opacity:1;fill-rule:evenodd;stroke:none"/>
      <path inkscape:connector-curvature="0" id="path4103-0-45" d="m 1211.4286,-99.053 c -8.6822,0 -15.7232,6.38794 -15.7232,14.27232 0,7.88439 7.041,14.27233 15.7232,14.27233 8.6822,0 15.7232,-6.38794 15.7232,-14.27233 0,-7.88438 -7.041,-14.27232 -15.7232,-14.27232 z m 0.4394,3.08066 c 6.0293,0 10.9088,4.83686 10.9088,10.80342 0,5.96656 -4.8795,10.80341 -10.9088,10.80341 -6.0293,0 -10.9184,-4.83685 -10.9184,-10.80341 0,-5.96656 4.8891,-10.80342 10.9184,-10.80342 z" style="fill:#ffd5d5;fill-opacity:1;fill-rule:evenodd;stroke:none"/>
      <path inkscape:connector-curvature="0" id="path4103-8" d="m 914.28572,246.66129 c -21.30364,0 -38.58036,15.33945 -38.58036,34.27232 0,18.93288 17.27672,34.27232 38.58036,34.27232 21.30364,0 38.58035,-15.33944 38.58035,-34.27232 0,-18.93287 -17.27671,-34.27232 -38.58035,-34.27232 z m 1.07818,7.39763 c 14.79421,0 26.76718,11.6148 26.76718,25.94239 0,14.32758 -11.97297,25.94238 -26.76718,25.94238 -14.7942,0 -26.79061,-11.6148 -26.79061,-25.94238 0,-14.32759 11.99641,-25.94239 26.79061,-25.94239 z" style="fill:#ffaaaa;fill-opacity:1;fill-rule:evenodd;stroke:none"/>
      <path inkscape:connector-curvature="0" id="path4103-1-8" d="m 785.71429,59.518436 c -13.41522,0 -24.29464,9.584906 -24.29464,21.415183 0,11.83027 10.87942,21.415171 24.29464,21.415171 13.41523,0 24.29464,-9.584901 24.29464,-21.415171 0,-11.830277 -10.87941,-21.415183 -24.29464,-21.415183 z m 0.67895,4.622437 c 9.31614,0 16.8557,7.257548 16.8557,16.210186 0,8.95264 -7.53956,16.210187 -16.8557,16.210187 -9.31613,0 -16.87046,-7.257547 -16.87046,-16.210187 0,-8.952638 7.55433,-16.210186 16.87046,-16.210186 z" style="fill:#ffd5d5;fill-opacity:1;fill-rule:evenodd;stroke:none"/>
      <path inkscape:connector-curvature="0" id="path4103-1-2" d="m 521.42857,-31.910135 c -4.73797,0 -8.58035,9.584906 -8.58035,21.415183 0,11.8302698 3.84238,21.415167 8.58035,21.415167 4.73798,0 8.58036,-9.5848972 8.58036,-21.415167 0,-11.830277 -3.84238,-21.415183 -8.58036,-21.415183 z m 0.2398,4.622437 c 3.29026,0 5.95307,7.257548 5.95307,16.210186 0,8.9526398 -2.66281,16.2101868 -5.95307,16.2101868 -3.29027,0 -5.9583,-7.257547 -5.9583,-16.2101868 0,-8.952638 2.66803,-16.210186 5.9583,-16.210186 z" style="fill:#ffd5d5;fill-opacity:1;fill-rule:evenodd;stroke:none"/>
      <path inkscape:connector-curvature="0" id="path4103-1-1" d="m 841.42857,333.80415 c -9.47102,0 -17.15179,5.10915 -17.15179,11.41518 0,6.30602 7.68077,11.41517 17.15179,11.41517 9.47102,0 17.15178,-5.10915 17.15178,-11.41517 0,-6.30603 -7.68076,-11.41518 -17.15178,-11.41518 z m 0.47933,2.46395 c 6.5771,0 11.89996,3.86858 11.89996,8.6407 0,4.77213 -5.32286,8.6407 -11.89996,8.6407 -6.5771,0 -11.91038,-3.86857 -11.91038,-8.6407 0,-4.77212 5.33328,-8.6407 11.91038,-8.6407 z" style="fill:#ffd5d5;fill-opacity:1;fill-rule:evenodd;stroke:none"/>
      <path inkscape:connector-curvature="0" id="path4103-0-0-4" d="m 1118.5715,169.51843 c -12.6265,0 -22.8661,9.58491 -22.8661,21.41517 0,11.83029 10.2396,21.41519 22.8661,21.41519 12.6264,0 22.866,-9.5849 22.866,-21.41519 0,-11.83026 -10.2396,-21.41517 -22.866,-21.41517 z m 0.639,4.62244 c 8.7683,0 15.8645,7.25755 15.8645,16.21019 0,8.95264 -7.0962,16.21019 -15.8645,16.21019 -8.7684,0 -15.8785,-7.25755 -15.8785,-16.21019 0,-8.95264 7.1101,-16.21019 15.8785,-16.21019 z" style="fill:#ffd5d5;fill-opacity:1;fill-rule:evenodd;stroke:none"/>
      <path inkscape:connector-curvature="0" id="path4103-0-0-9" d="m -291.42857,69.518429 c -8.6822,0 -15.7232,6.38794 -15.7232,14.27232 0,7.88439 7.041,14.27233 15.7232,14.27233 8.6822,0 15.7232,-6.38794 15.7232,-14.27233 0,-7.88438 -7.041,-14.27232 -15.7232,-14.27232 z m 0.4394,3.08066 c 6.0293,0 10.9088,4.83686 10.9088,10.80342 0,5.96656 -4.8795,10.80341 -10.9088,10.80341 -6.0293,0 -10.9184,-4.83685 -10.9184,-10.80341 0,-5.96656 4.8891,-10.80342 10.9184,-10.80342 z" style="fill:#ffd5d5;fill-opacity:1;fill-rule:evenodd;stroke:none"/>
      <path inkscape:connector-curvature="0" id="path4103-0-0-8" d="m -269.42857,129.51843 c -8.6822,0 -15.7232,6.38794 -15.7232,14.27232 0,7.88439 7.041,14.27233 15.7232,14.27233 8.6822,0 15.7232,-6.38794 15.7232,-14.27233 0,-7.88438 -7.041,-14.27232 -15.7232,-14.27232 z m 0.4394,3.08066 c 6.0293,0 10.9088,4.83686 10.9088,10.80342 0,5.96656 -4.8795,10.80341 -10.9088,10.80341 -6.0293,0 -10.9184,-4.83685 -10.9184,-10.80341 0,-5.96656 4.8891,-10.80342 10.9184,-10.80342 z" style="fill:#ffd5d5;fill-opacity:1;fill-rule:evenodd;stroke:none"/>
      <path inkscape:connector-curvature="0" id="path4103-0-0-2" d="m -234.28571,169.51843 c -8.6822,0 -15.7232,6.38794 -15.7232,14.27232 0,7.88439 7.041,14.27233 15.7232,14.27233 8.6822,0 15.7232,-6.38794 15.7232,-14.27233 0,-7.88438 -7.041,-14.27232 -15.7232,-14.27232 z m 0.4394,3.08066 c 6.0293,0 10.9088,4.83686 10.9088,10.80342 0,5.96656 -4.8795,10.80341 -10.9088,10.80341 -6.0293,0 -10.9184,-4.83685 -10.9184,-10.80341 0,-5.96656 4.8891,-10.80342 10.9184,-10.80342 z" style="fill:#ffd5d5;fill-opacity:1;fill-rule:evenodd;stroke:none"/>
      <path inkscape:connector-curvature="0" id="path4103-0-0-45" d="m -194.28571,183.80414 c -8.6822,0 -15.7232,6.38794 -15.7232,14.27232 0,7.88439 7.041,14.27233 15.7232,14.27233 8.6822,0 15.7232,-6.38794 15.7232,-14.27233 0,-7.88438 -7.041,-14.27232 -15.7232,-14.27232 z m 0.4394,3.08066 c 6.0293,0 10.9088,4.83686 10.9088,10.80342 0,5.96656 -4.8795,10.80341 -10.9088,10.80341 -6.0293,0 -10.9184,-4.83685 -10.9184,-10.80341 0,-5.96656 4.8891,-10.80342 10.9184,-10.80342 z" style="fill:#ffaaaa;fill-opacity:1;fill-rule:evenodd;stroke:none"/>
      <path inkscape:connector-curvature="0" id="path4103-0-0-9-2" d="m 394.28571,398.08986 c -8.6822,0 -15.7232,6.38794 -15.7232,14.27232 0,7.88439 7.041,14.27233 15.7232,14.27233 8.6822,0 15.7232,-6.38794 15.7232,-14.27233 0,-7.88438 -7.041,-14.27232 -15.7232,-14.27232 z m 0.4394,3.08066 c 6.0293,0 10.9088,4.83686 10.9088,10.80342 0,5.96656 -4.8795,10.80341 -10.9088,10.80341 -6.0293,0 -10.9184,-4.83685 -10.9184,-10.80341 0,-5.96656 4.8891,-10.80342 10.9184,-10.80342 z" style="fill:#ffd5d5;fill-opacity:1;fill-rule:evenodd;stroke:none"/>
      <path inkscape:connector-curvature="0" id="path4103-0-0-9-9" d="m 334.28571,406.66129 c -8.6822,0 -15.7232,6.38794 -15.7232,14.27232 0,7.88439 7.041,14.27233 15.7232,14.27233 8.6822,0 15.7232,-6.38794 15.7232,-14.27233 0,-7.88438 -7.041,-14.27232 -15.7232,-14.27232 z m 0.4394,3.08066 c 6.0293,0 10.9088,4.83686 10.9088,10.80342 0,5.96656 -4.8795,10.80341 -10.9088,10.80341 -6.0293,0 -10.9184,-4.83685 -10.9184,-10.80341 0,-5.96656 4.8891,-10.80342 10.9184,-10.80342 z" style="fill:#ffd5d5;fill-opacity:1;fill-rule:evenodd;stroke:none"/>
      <path inkscape:connector-curvature="0" id="path4103-0-0-9-98" d="m 440,369.51843 c -8.6822,0 -15.7232,6.38794 -15.7232,14.27232 0,7.88439 7.041,14.27233 15.7232,14.27233 8.6822,0 15.7232,-6.38794 15.7232,-14.27233 0,-7.88438 -7.041,-14.27232 -15.7232,-14.27232 z m 0.4394,3.08066 c 6.0293,0 10.9088,4.83686 10.9088,10.80342 0,5.96656 -4.8795,10.80341 -10.9088,10.80341 -6.0293,0 -10.9184,-4.83685 -10.9184,-10.80341 0,-5.96656 4.8891,-10.80342 10.9184,-10.80342 z" style="fill:#ffd5d5;fill-opacity:1;fill-rule:evenodd;stroke:none"/>
      <path inkscape:connector-curvature="0" id="path4103-0-0-9-3" d="m 271.42857,432.37557 c -8.6822,0 -15.7232,6.38794 -15.7232,14.27232 0,7.88439 7.041,14.27233 15.7232,14.27233 8.6822,0 15.7232,-6.38794 15.7232,-14.27233 0,-7.88438 -7.041,-14.27232 -15.7232,-14.27232 z m 0.4394,3.08066 c 6.0293,0 10.9088,4.83686 10.9088,10.80342 0,5.96656 -4.8795,10.80341 -10.9088,10.80341 -6.0293,0 -10.9184,-4.83685 -10.9184,-10.80341 0,-5.96656 4.8891,-10.80342 10.9184,-10.80342 z" style="fill:#ffd5d5;fill-opacity:1;fill-rule:evenodd;stroke:none"/>
      <path inkscape:connector-curvature="0" id="path4103-0-0-9-8" d="m 188.57143,446.66129 c -8.6822,0 -15.7232,6.38794 -15.7232,14.27232 0,7.88439 7.041,14.27233 15.7232,14.27233 8.6822,0 15.7232,-6.38794 15.7232,-14.27233 0,-7.88438 -7.041,-14.27232 -15.7232,-14.27232 z m 0.4394,3.08066 c 6.0293,0 10.9088,4.83686 10.9088,10.80342 0,5.96656 -4.8795,10.80341 -10.9088,10.80341 -6.0293,0 -10.9184,-4.83685 -10.9184,-10.80341 0,-5.96656 4.8891,-10.80342 10.9184,-10.80342 z" style="fill:#ffd5d5;fill-opacity:1;fill-rule:evenodd;stroke:none"/>
      <path inkscape:connector-curvature="0" id="path4103-0-0-9-6" d="m 99.999997,489.51843 c -7.10451,0 -12.866054,5.10915 -12.866054,11.41518 0,6.30603 5.761544,11.41518 12.866054,11.41518 7.104513,0 12.866053,-5.10915 12.866053,-11.41518 0,-6.30603 -5.76154,-11.41518 -12.866053,-11.41518 z m 0.359553,2.46395 c 4.93369,0 8.92651,3.86858 8.92651,8.64071 0,4.77213 -3.99282,8.6407 -8.92651,8.6407 -4.933681,0 -8.934357,-3.86857 -8.934357,-8.6407 0,-4.77213 4.000676,-8.64071 8.934357,-8.64071 z" style="fill:#ffd5d5;fill-opacity:1;fill-rule:evenodd;stroke:none"/>
      <path inkscape:connector-curvature="0" id="path4103-0-0-9-986" d="m 228.57143,432.37557 c -8.6822,0 -15.7232,6.38794 -15.7232,14.27232 0,7.88439 7.041,14.27233 15.7232,14.27233 8.6822,0 15.7232,-6.38794 15.7232,-14.27233 0,-7.88438 -7.041,-14.27232 -15.7232,-14.27232 z m 0.4394,3.08066 c 6.0293,0 10.9088,4.83686 10.9088,10.80342 0,5.96656 -4.8795,10.80341 -10.9088,10.80341 -6.0293,0 -10.9184,-4.83685 -10.9184,-10.80341 0,-5.96656 4.8891,-10.80342 10.9184,-10.80342 z" style="fill:#ffd5d5;fill-opacity:1;fill-rule:evenodd;stroke:none"/>
      <path inkscape:connector-curvature="0" id="path4103-0-0-9-62" d="m 30,529.51843 c -6.31567,0 -11.437486,5.74855 -11.437486,12.84375 0,7.09521 5.121816,12.84376 11.437486,12.84376 6.315669,0 11.437485,-5.74855 11.437485,-12.84376 0,-7.0952 -5.121816,-12.84375 -11.437485,-12.84375 z m 0.319631,2.7723 c 4.385878,0 7.93536,4.35273 7.93536,9.72207 0,5.36934 -3.549482,9.72205 -7.93536,9.72205 -4.385877,0 -7.942342,-4.35271 -7.942342,-9.72205 0,-5.36934 3.556465,-9.72207 7.942342,-9.72207 z" style="fill:#ffd5d5;fill-opacity:1;fill-rule:evenodd;stroke:none"/>
      <path inkscape:connector-curvature="0" id="path4103-0-0-9-38" d="m -42.857143,540.947 c -8.6822,0 -15.7232,6.38794 -15.7232,14.27232 0,7.88439 7.041,14.27233 15.7232,14.27233 8.6822,0 15.7232,-6.38794 15.7232,-14.27233 0,-7.88438 -7.041,-14.27232 -15.7232,-14.27232 z m 0.4394,3.08066 c 6.0293,0 10.9088,4.83686 10.9088,10.80342 0,5.96656 -4.8795,10.80341 -10.9088,10.80341 -6.0293,0 -10.9184,-4.83685 -10.9184,-10.80341 0,-5.96656 4.8891,-10.80342 10.9184,-10.80342 z" style="fill:#ffd5d5;fill-opacity:1;fill-rule:evenodd;stroke:none"/>
      <path inkscape:connector-curvature="0" id="path4103-0-0-9-26" d="m -140,563.80414 c -7.10452,0 -12.86606,4.46976 -12.86606,9.98661 0,5.51685 5.76154,9.98661 12.86606,9.98661 7.10451,0 12.86605,-4.46976 12.86605,-9.98661 0,-5.51685 -5.76154,-9.98661 -12.86605,-9.98661 z m 0.35955,2.15559 c 4.93369,0 8.92651,3.38445 8.92651,7.55936 0,4.17491 -3.99282,7.55934 -8.92651,7.55934 -4.93368,0 -8.93436,-3.38443 -8.93436,-7.55934 0,-4.17491 4.00068,-7.55936 8.93436,-7.55936 z" style="fill:#ffd5d5;fill-opacity:1;fill-rule:evenodd;stroke:none"/>
      <path inkscape:connector-curvature="0" id="path4103-0-0-9-27" d="m -222.85714,586.66129 c -8.6822,0 -15.7232,6.38794 -15.7232,14.27232 0,7.88439 7.041,14.27233 15.7232,14.27233 8.6822,0 15.7232,-6.38794 15.7232,-14.27233 0,-7.88438 -7.041,-14.27232 -15.7232,-14.27232 z m 0.4394,3.08066 c 6.0293,0 10.9088,4.83686 10.9088,10.80342 0,5.96656 -4.8795,10.80341 -10.9088,10.80341 -6.0293,0 -10.9184,-4.83685 -10.9184,-10.80341 0,-5.96656 4.8891,-10.80342 10.9184,-10.80342 z" style="fill:#ffd5d5;fill-opacity:1;fill-rule:evenodd;stroke:none"/>
      <path inkscape:connector-curvature="0" id="path4103-0-0-9-5" d="m 691.42857,500.947 c -8.6822,0 -15.7232,6.38794 -15.7232,14.27232 0,7.88439 7.041,14.27233 15.7232,14.27233 8.6822,0 15.7232,-6.38794 15.7232,-14.27233 0,-7.88438 -7.041,-14.27232 -15.7232,-14.27232 z m 0.4394,3.08066 c 6.0293,0 10.9088,4.83686 10.9088,10.80342 0,5.96656 -4.8795,10.80341 -10.9088,10.80341 -6.0293,0 -10.9184,-4.83685 -10.9184,-10.80341 0,-5.96656 4.8891,-10.80342 10.9184,-10.80342 z" style="fill:#ffd5d5;fill-opacity:1;fill-rule:evenodd;stroke:none"/>
      <path inkscape:connector-curvature="0" id="path4103-0-0-9-7" d="m 725.71429,558.08986 c -8.6822,0 -15.7232,6.38794 -15.7232,14.27232 0,7.88439 7.041,14.27233 15.7232,14.27233 8.6822,0 15.7232,-6.38794 15.7232,-14.27233 0,-7.88438 -7.041,-14.27232 -15.7232,-14.27232 z m 0.4394,3.08066 c 6.0293,0 10.9088,4.83686 10.9088,10.80342 0,5.96656 -4.8795,10.80341 -10.9088,10.80341 -6.0293,0 -10.9184,-4.83685 -10.9184,-10.80341 0,-5.96656 4.8891,-10.80342 10.9184,-10.80342 z" style="fill:#ffd5d5;fill-opacity:1;fill-rule:evenodd;stroke:none"/>
      <path inkscape:connector-curvature="0" id="path4103-0-0-9-82" d="m -128.57143,200.947 c -8.6822,0 -15.7232,6.38794 -15.7232,14.27232 0,7.88439 7.041,14.27233 15.7232,14.27233 8.6822,0 15.7232,-6.38794 15.7232,-14.27233 0,-7.88438 -7.041,-14.27232 -15.7232,-14.27232 z m 0.4394,3.08066 c 6.0293,0 10.9088,4.83686 10.9088,10.80342 0,5.96656 -4.8795,10.80341 -10.9088,10.80341 -6.0293,0 -10.9184,-4.83685 -10.9184,-10.80341 0,-5.96656 4.8891,-10.80342 10.9184,-10.80342 z" style="fill:#ffd5d5;fill-opacity:1;fill-rule:evenodd;stroke:none"/>
      <path inkscape:connector-curvature="0" id="path4103-0-0-9-78" d="m 962.85714,655.23271 c -8.6822,0 -15.7232,6.38794 -15.7232,14.27232 0,7.88439 7.041,14.27233 15.7232,14.27233 8.6822,0 15.7232,-6.38794 15.7232,-14.27233 0,-7.88438 -7.041,-14.27232 -15.7232,-14.27232 z m 0.4394,3.08066 c 6.0293,0 10.9088,4.83686 10.9088,10.80342 0,5.96656 -4.8795,10.80341 -10.9088,10.80341 -6.0293,0 -10.9184,-4.83685 -10.9184,-10.80341 0,-5.96656 4.8891,-10.80342 10.9184,-10.80342 z" style="fill:#ffd5d5;fill-opacity:1;fill-rule:evenodd;stroke:none"/>
      <path inkscape:connector-curvature="0" id="path4103-0-0-9-0" d="m 1014.2857,660.947 c -8.6822,0 -15.72319,6.38794 -15.72319,14.27232 0,7.88439 7.04099,14.27233 15.72319,14.27233 8.6822,0 15.7232,-6.38794 15.7232,-14.27233 0,-7.88438 -7.041,-14.27232 -15.7232,-14.27232 z m 0.4394,3.08066 c 6.0293,0 10.9088,4.83686 10.9088,10.80342 0,5.96656 -4.8795,10.80341 -10.9088,10.80341 -6.0293,0 -10.9184,-4.83685 -10.9184,-10.80341 0,-5.96656 4.8891,-10.80342 10.9184,-10.80342 z" style="fill:#ffd5d5;fill-opacity:1;fill-rule:evenodd;stroke:none"/>
      <path inkscape:connector-curvature="0" id="path4103-0-0-9-20" d="m 1060,658.08986 c -8.6822,0 -15.7232,6.38794 -15.7232,14.27232 0,7.88439 7.041,14.27233 15.7232,14.27233 8.6822,0 15.7232,-6.38794 15.7232,-14.27233 0,-7.88438 -7.041,-14.27232 -15.7232,-14.27232 z m 0.4394,3.08066 c 6.0293,0 10.9088,4.83686 10.9088,10.80342 0,5.96656 -4.8795,10.80341 -10.9088,10.80341 -6.0293,0 -10.9184,-4.83685 -10.9184,-10.80341 0,-5.96656 4.8891,-10.80342 10.9184,-10.80342 z" style="fill:#ffd5d5;fill-opacity:1;fill-rule:evenodd;stroke:none"/>
      <path inkscape:connector-curvature="0" id="path4103-0-0-9-89" d="m 1091.4286,675.23271 c -5.5268,0 -10.0089,4.46976 -10.0089,9.98661 0,5.51685 4.4821,9.98661 10.0089,9.98661 5.5268,0 10.0089,-4.46976 10.0089,-9.98661 0,-5.51685 -4.4821,-9.98661 -10.0089,-9.98661 z m 0.2797,2.15559 c 3.8381,0 6.9442,3.38445 6.9442,7.55936 0,4.17491 -3.1061,7.55934 -6.9442,7.55934 -3.838,0 -6.9503,-3.38443 -6.9503,-7.55934 0,-4.17491 3.1123,-7.55936 6.9503,-7.55936 z" style="fill:#ffd5d5;fill-opacity:1;fill-rule:evenodd;stroke:none"/>
      <path inkscape:connector-curvature="0" id="path4103-0-0-9-26-2" d="m -82.857138,550.947 c -7.10452,0 -12.86606,4.46976 -12.86606,9.98661 0,5.51685 5.76154,9.98661 12.86606,9.98661 7.10451,0 12.86605,-4.46976 12.86605,-9.98661 0,-5.51685 -5.76154,-9.98661 -12.86605,-9.98661 z m 0.35955,2.15559 c 4.93369,0 8.92651,3.38445 8.92651,7.55936 0,4.17491 -3.99282,7.55934 -8.92651,7.55934 -4.93368,0 -8.93436,-3.38443 -8.93436,-7.55934 0,-4.17491 4.00068,-7.55936 8.93436,-7.55936 z" style="fill:#ffd5d5;fill-opacity:1;fill-rule:evenodd;stroke:none"/>
      <path inkscape:connector-curvature="0" id="path4103-0-0-9-26-8" d="m -191.42857,556.66129 c -7.10452,0 -12.86606,4.46976 -12.86606,9.98661 0,5.51685 5.76154,9.98661 12.86606,9.98661 7.10451,0 12.86605,-4.46976 12.86605,-9.98661 0,-5.51685 -5.76154,-9.98661 -12.86605,-9.98661 z m 0.35955,2.15559 c 4.93369,0 8.92651,3.38445 8.92651,7.55936 0,4.17491 -3.99282,7.55934 -8.92651,7.55934 -4.93368,0 -8.93436,-3.38443 -8.93436,-7.55934 0,-4.17491 4.00068,-7.55936 8.93436,-7.55936 z" style="fill:#ffd5d5;fill-opacity:1;fill-rule:evenodd;stroke:none"/>
      <path inkscape:connector-curvature="0" id="path4103-0-0-9-26-20" d="m -111.42857,550.947 c -7.10452,0 -12.86606,4.46976 -12.86606,9.98661 0,5.51685 5.76154,9.98661 12.86606,9.98661 7.10451,0 12.866054,-4.46976 12.866054,-9.98661 0,-5.51685 -5.761544,-9.98661 -12.866054,-9.98661 z m 0.35955,2.15559 c 4.93369,0 8.92651,3.38445 8.92651,7.55936 0,4.17491 -3.99282,7.55934 -8.92651,7.55934 -4.93368,0 -8.93436,-3.38443 -8.93436,-7.55934 0,-4.17491 4.00068,-7.55936 8.93436,-7.55936 z" style="fill:#ffd5d5;fill-opacity:1;fill-rule:evenodd;stroke:none"/>
      <path inkscape:connector-curvature="0" id="path4103-0-0-9-26-5" d="m 65.714291,499.51843 c -7.10452,0 -12.86606,4.46976 -12.86606,9.98661 0,5.51685 5.76154,9.98661 12.86606,9.98661 7.10451,0 12.86605,-4.46976 12.86605,-9.98661 0,-5.51685 -5.76154,-9.98661 -12.86605,-9.98661 z m 0.35955,2.15559 c 4.93369,0 8.92651,3.38445 8.92651,7.55936 0,4.17491 -3.99282,7.55934 -8.92651,7.55934 -4.93368,0 -8.93436,-3.38443 -8.93436,-7.55934 0,-4.17491 4.00068,-7.55936 8.93436,-7.55936 z" style="fill:#ffd5d5;fill-opacity:1;fill-rule:evenodd;stroke:none"/>
      <path inkscape:connector-curvature="0" id="path4103-0-0-9-26-52" d="m 154.28572,473.80414 c -7.10452,0 -12.86606,4.46976 -12.86606,9.98661 0,5.51685 5.76154,9.98661 12.86606,9.98661 7.10451,0 12.86605,-4.46976 12.86605,-9.98661 0,-5.51685 -5.76154,-9.98661 -12.86605,-9.98661 z m 0.35955,2.15559 c 4.93369,0 8.92651,3.38445 8.92651,7.55936 0,4.17491 -3.99282,7.55934 -8.92651,7.55934 -4.93368,0 -8.93436,-3.38443 -8.93436,-7.55934 0,-4.17491 4.00068,-7.55936 8.93436,-7.55936 z" style="fill:#ffd5d5;fill-opacity:1;fill-rule:evenodd;stroke:none"/>
      <path inkscape:connector-curvature="0" id="path4103-0-0-9-26-7" d="m -5.7142807,539.51843 c -7.1045203,0 -12.8660603,4.46976 -12.8660603,9.98661 0,5.51685 5.76154,9.98661 12.8660603,9.98661 7.10451,0 12.86605,-4.46976 12.86605,-9.98661 0,-5.51685 -5.76154,-9.98661 -12.86605,-9.98661 z m 0.35955,2.15559 c 4.93368999,0 8.92651,3.38445 8.92651,7.55936 0,4.17491 -3.99282001,7.55934 -8.92651,7.55934 -4.9336803,0 -8.9343603,-3.38443 -8.9343603,-7.55934 0,-4.17491 4.00068,-7.55936 8.9343603,-7.55936 z" style="fill:#ffd5d5;fill-opacity:1;fill-rule:evenodd;stroke:none"/>
      <path inkscape:connector-curvature="0" id="path4103-0-0-9-26-6" d="m 291.42858,399.51843 c -7.10452,0 -12.86606,4.46976 -12.86606,9.98661 0,5.51685 5.76154,9.98661 12.86606,9.98661 7.10451,0 12.86605,-4.46976 12.86605,-9.98661 0,-5.51685 -5.76154,-9.98661 -12.86605,-9.98661 z m 0.35955,2.15559 c 4.93369,0 8.92651,3.38445 8.92651,7.55936 0,4.17491 -3.99282,7.55934 -8.92651,7.55934 -4.93368,0 -8.93436,-3.38443 -8.93436,-7.55934 0,-4.17491 4.00068,-7.55936 8.93436,-7.55936 z" style="fill:#ffd5d5;fill-opacity:1;fill-rule:evenodd;stroke:none"/>
      <path inkscape:connector-curvature="0" id="path4103-0-0-9-26-78" d="m 291.42858,499.51843 c -7.10452,0 -12.86606,4.46976 -12.86606,9.98661 0,5.51685 5.76154,9.98661 12.86606,9.98661 7.10451,0 12.86605,-4.46976 12.86605,-9.98661 0,-5.51685 -5.76154,-9.98661 -12.86605,-9.98661 z m 0.35955,2.15559 c 4.93369,0 8.92651,3.38445 8.92651,7.55936 0,4.17491 -3.99282,7.55934 -8.92651,7.55934 -4.93368,0 -8.93436,-3.38443 -8.93436,-7.55934 0,-4.17491 4.00068,-7.55936 8.93436,-7.55936 z" style="fill:#ffd5d5;fill-opacity:1;fill-rule:evenodd;stroke:none"/>
      <path inkscape:connector-curvature="0" id="path4103-0-0-9-26-781" d="m 285.71429,548.08986 c -7.10452,0 -12.86606,4.46976 -12.86606,9.98661 0,5.51685 5.76154,9.98661 12.86606,9.98661 7.10451,0 12.86605,-4.46976 12.86605,-9.98661 0,-5.51685 -5.76154,-9.98661 -12.86605,-9.98661 z m 0.35955,2.15559 c 4.93369,0 8.92651,3.38445 8.92651,7.55936 0,4.17491 -3.99282,7.55934 -8.92651,7.55934 -4.93368,0 -8.93436,-3.38443 -8.93436,-7.55934 0,-4.17491 4.00068,-7.55936 8.93436,-7.55936 z" style="fill:#ffd5d5;fill-opacity:1;fill-rule:evenodd;stroke:none"/>
      <path inkscape:connector-curvature="0" id="path4103-0-0-9-26-60" d="m 317.14286,656.66129 c -7.10452,0 -12.86606,4.46976 -12.86606,9.98661 0,5.51685 5.76154,9.98661 12.86606,9.98661 7.10451,0 12.86605,-4.46976 12.86605,-9.98661 0,-5.51685 -5.76154,-9.98661 -12.86605,-9.98661 z m 0.35955,2.15559 c 4.93369,0 8.92651,3.38445 8.92651,7.55936 0,4.17491 -3.99282,7.55934 -8.92651,7.55934 -4.93368,0 -8.93436,-3.38443 -8.93436,-7.55934 0,-4.17491 4.00068,-7.55936 8.93436,-7.55936 z" style="fill:#ffd5d5;fill-opacity:1;fill-rule:evenodd;stroke:none"/>
      <path inkscape:connector-curvature="0" id="path4103-0-0-9-26-9" d="m 325.71429,688.08986 c -7.10452,0 -12.86606,4.46976 -12.86606,9.98661 0,5.51685 5.76154,9.98661 12.86606,9.98661 7.10451,0 12.86605,-4.46976 12.86605,-9.98661 0,-5.51685 -5.76154,-9.98661 -12.86605,-9.98661 z m 0.35955,2.15559 c 4.93369,0 8.92651,3.38445 8.92651,7.55936 0,4.17491 -3.99282,7.55934 -8.92651,7.55934 -4.93368,0 -8.93436,-3.38443 -8.93436,-7.55934 0,-4.17491 4.00068,-7.55936 8.93436,-7.55936 z" style="fill:#ffd5d5;fill-opacity:1;fill-rule:evenodd;stroke:none"/>
      <path inkscape:connector-curvature="0" id="path4103-0-0-9-26-58" d="m 148.57143,219.51843 c -7.10452,0 -12.86606,4.46976 -12.86606,9.98661 0,5.51685 5.76154,9.98661 12.86606,9.98661 7.10451,0 12.86605,-4.46976 12.86605,-9.98661 0,-5.51685 -5.76154,-9.98661 -12.86605,-9.98661 z m 0.35955,2.15559 c 4.93369,0 8.92651,3.38445 8.92651,7.55936 0,4.17491 -3.99282,7.55934 -8.92651,7.55934 -4.93368,0 -8.93436,-3.38443 -8.93436,-7.55934 0,-4.17491 4.00068,-7.55936 8.93436,-7.55936 z" style="fill:#ffd5d5;fill-opacity:1;fill-rule:evenodd;stroke:none"/>
      <path inkscape:connector-curvature="0" id="path4103-0-0-9-26-90" d="m 100.00001,233.80414 c -7.104525,0 -12.866065,4.46976 -12.866065,9.98661 0,5.51685 5.76154,9.98661 12.866065,9.98661 7.10451,0 12.86605,-4.46976 12.86605,-9.98661 0,-5.51685 -5.76154,-9.98661 -12.86605,-9.98661 z m 0.35955,2.15559 c 4.93369,0 8.92651,3.38445 8.92651,7.55936 0,4.17491 -3.99282,7.55934 -8.92651,7.55934 -4.933685,0 -8.934365,-3.38443 -8.934365,-7.55934 0,-4.17491 4.00068,-7.55936 8.934365,-7.55936 z" style="fill:#ffd5d5;fill-opacity:1;fill-rule:evenodd;stroke:none"/>
      <path inkscape:connector-curvature="0" id="path4103-0-0-9-26-0" d="m 68.571434,268.08986 c -7.10452,0 -12.86606,4.46976 -12.86606,9.98661 0,5.51685 5.76154,9.98661 12.86606,9.98661 7.10451,0 12.86605,-4.46976 12.86605,-9.98661 0,-5.51685 -5.76154,-9.98661 -12.86605,-9.98661 z m 0.35955,2.15559 c 4.93369,0 8.92651,3.38445 8.92651,7.55936 0,4.17491 -3.99282,7.55934 -8.92651,7.55934 -4.93368,0 -8.93436,-3.38443 -8.93436,-7.55934 0,-4.17491 4.00068,-7.55936 8.93436,-7.55936 z" style="fill:#ffd5d5;fill-opacity:1;fill-rule:evenodd;stroke:none"/>
      <path inkscape:connector-curvature="0" id="path4103-0-0-9-26-07" d="m 354.28572,279.51843 c -7.10452,0 -12.86606,4.46976 -12.86606,9.98661 0,5.51685 5.76154,9.98661 12.86606,9.98661 7.10451,0 12.86605,-4.46976 12.86605,-9.98661 0,-5.51685 -5.76154,-9.98661 -12.86605,-9.98661 z m 0.35955,2.15559 c 4.93369,0 8.92651,3.38445 8.92651,7.55936 0,4.17491 -3.99282,7.55934 -8.92651,7.55934 -4.93368,0 -8.93436,-3.38443 -8.93436,-7.55934 0,-4.17491 4.00068,-7.55936 8.93436,-7.55936 z" style="fill:#ffd5d5;fill-opacity:1;fill-rule:evenodd;stroke:none"/>
      <path inkscape:transform-center-y="9.98661" inkscape:transform-center-x="12.866055" inkscape:connector-curvature="0" id="path4103-0-0-9-26-25" d="m 405.71429,270.37557 c -7.10452,0 -12.86606,4.46976 -12.86606,9.98661 0,5.51685 5.76154,9.98661 12.86606,9.98661 7.10451,0 12.86605,-4.46976 12.86605,-9.98661 0,-5.51685 -5.76154,-9.98661 -12.86605,-9.98661 z m 0.35955,2.15559 c 4.93369,0 8.92651,3.38445 8.92651,7.55936 0,4.17491 -3.99282,7.55934 -8.92651,7.55934 -4.93368,0 -8.93436,-3.38443 -8.93436,-7.55934 0,-4.17491 4.00068,-7.55936 8.93436,-7.55936 z" style="fill:#ffd5d5;fill-opacity:1;fill-rule:evenodd;stroke:none"/>
      <path sodipodi:nodetypes="ccc" inkscape:connector-curvature="0" id="path4625" d="m 1131.4286,-381.92354 c -16.0301,-119.69637 -383.78128,-124.34249 -525.71432,71.42858 159.76907,-56.73 335.48493,-83.29937 525.71432,-71.42858 z" style="fill:#ff8080;fill-opacity:1;stroke:none"/>
      <path inkscape:connector-curvature="0" id="path4103-0-0-9-898" d="m -288.57142,-53.338714 c -6.31567,0 -11.43749,4.46976 -11.43749,9.986607 0,5.516854 5.12182,9.986614 11.43749,9.986614 6.31567,0 11.43748,-4.46976 11.43748,-9.986614 0,-5.516847 -5.12181,-9.986607 -11.43748,-9.986607 z m 0.31963,2.155595 c 4.38588,0 7.93536,3.384441 7.93536,7.559353 0,4.174913 -3.54948,7.559347 -7.93536,7.559347 -4.38588,0 -7.94235,-3.384434 -7.94235,-7.559347 0,-4.174912 3.55647,-7.559353 7.94235,-7.559353 z" style="fill:#ffd5d5;fill-opacity:1;fill-rule:evenodd;stroke:none"/>
      <path inkscape:connector-curvature="0" id="path4103-0-0-9-898-3" d="m -260,-114.76729 c -6.31567,0 -11.43749,4.46976 -11.43749,9.98661 0,5.516856 5.12182,9.986616 11.43749,9.986616 6.31567,0 11.43748,-4.46976 11.43748,-9.986616 0,-5.51685 -5.12181,-9.98661 -11.43748,-9.98661 z m 0.31963,2.1556 c 4.38588,0 7.93536,3.38444 7.93536,7.55935 0,4.17492 -3.54948,7.55935 -7.93536,7.55935 -4.38588,0 -7.94235,-3.38443 -7.94235,-7.55935 0,-4.17491 3.55647,-7.55935 7.94235,-7.55935 z" style="fill:#ffd5d5;fill-opacity:1;fill-rule:evenodd;stroke:none"/>
      <path inkscape:connector-curvature="0" id="path4103-0-0-9-898-5" d="m -297.14285,8.0898578 c -6.31567,0 -11.43749,4.4697602 -11.43749,9.9866072 0,5.516854 5.12182,9.986614 11.43749,9.986614 6.31567,0 11.43748,-4.46976 11.43748,-9.986614 0,-5.516847 -5.12181,-9.9866072 -11.43748,-9.9866072 z m 0.31963,2.1555952 c 4.38588,0 7.93536,3.384441 7.93536,7.559353 0,4.174913 -3.54948,7.559347 -7.93536,7.559347 -4.38588,0 -7.94235,-3.384434 -7.94235,-7.559347 0,-4.174912 3.55647,-7.559353 7.94235,-7.559353 z" style="fill:#ffd5d5;fill-opacity:1;fill-rule:evenodd;stroke:none"/>
      <path sodipodi:nodetypes="ccccccc" inkscape:connector-curvature="0" id="path3919" d="m 674.28571,203.79075 c 23.78009,7.21249 47.45036,-9.94697 71.22983,-2.727 54.89547,21.77856 42.26832,103.9235 -0.94672,179.10398 -17.23392,33.83238 -31.41863,69.53606 -53.83397,100.45327 -4.17745,18.20272 -25.57637,-8.82895 -7.98987,-11.9714 52.79169,-110.76584 146.65911,-254.0516 0.0703,-260.40209 -3.01219,-1.12225 -5.92644,-2.55825 -8.52962,-4.45676 z" style="fill:#ff2a2a;stroke:none"/>
    </g>
  </g>
  <g inkscape:groupmode="layer" id="layer2" inkscape:label="Layer2" transform="translate(1091.7142,616.49493)"/>
  <metadata>
    <rdf:RDF>
      <cc:Work>
        <dc:format>image/svg+xml</dc:format>
        <dc:type rdf:resource="http://purl.org/dc/dcmitype/StillImage"/>
        <cc:license rdf:resource="http://creativecommons.org/licenses/publicdomain/"/>
        <dc:publisher>
          <cc:Agent rdf:about="http://openclipart.org/">
            <dc:title>Openclipart</dc:title>
          </cc:Agent>
        </dc:publisher>
        <dc:title>Octopus</dc:title>
        <dc:date>2013-11-23T16:23:24</dc:date>
        <dc:description>Krake, Octopus, el pulpo, polipo, ÐºÐ°Ñ€Ð°ÐºÐ°ÌÑ‚Ð¸Ñ†Ð°, Ð¾ÑÑŒÐ¼Ð¸Ð½Ð¾ÌÐ³, polvo, å…«çˆªé±¼ [å…«çˆªé­š]</dc:description>
        <dc:source>http://openclipart.org/detail/189058/octopus-by-arking-189058</dc:source>
        <dc:creator>
          <cc:Agent>
            <dc:title>arking</dc:title>
          </cc:Agent>
        </dc:creator>
        <dc:subject>
          <rdf:Bag>
            <rdf:li>Krake</rdf:li>
            <rdf:li>Octopus</rdf:li>
            <rdf:li>ocean</rdf:li>
            <rdf:li>sea</rdf:li>
            <rdf:li>animal</rdf:li>
            <rdf:li>underwater</rdf:li>
          </rdf:Bag>
        </dc:subject>
      </cc:Work>
      <cc:License rdf:about="http://creativecommons.org/licenses/publicdomain/">
        <cc:permits rdf:resource="http://creativecommons.org/ns#Reproduction"/>
        <cc:permits rdf:resource="http://creativecommons.org/ns#Distribution"/>
        <cc:permits rdf:resource="http://creativecommons.org/ns#DerivativeWorks"/>
      </cc:License>
    </rdf:RDF>
  </metadata>
</svg>
