<?xml version="1.0" encoding="UTF-8" standalone="no"?>
<!-- Created with Inkscape (http://www.inkscape.org/) -->

<svg
   xmlns:dc="http://purl.org/dc/elements/1.1/"
   xmlns:cc="http://creativecommons.org/ns#"
   xmlns:rdf="http://www.w3.org/1999/02/22-rdf-syntax-ns#"
   xmlns:svg="http://www.w3.org/2000/svg"
   xmlns="http://www.w3.org/2000/svg"
   xmlns:xlink="http://www.w3.org/1999/xlink"
   xmlns:sodipodi="http://sodipodi.sourceforge.net/DTD/sodipodi-0.dtd"
   xmlns:inkscape="http://www.inkscape.org/namespaces/inkscape"
   width="98"
   height="75"
   id="svg2"
   version="1.1"
   inkscape:version="0.48.4 r9939"
   sodipodi:docname="Nouveau document 1">
  <defs
     id="defs4">
    <linearGradient
       inkscape:collect="always"
       id="linearGradient3294">
      <stop
         style="stop-color:#000000;stop-opacity:1;"
         offset="0"
         id="stop3296" />
      <stop
         style="stop-color:#000000;stop-opacity:0;"
         offset="1"
         id="stop3298" />
    </linearGradient>
    <linearGradient
       inkscape:collect="always"
       xlink:href="#linearGradient3294"
       id="linearGradient3300"
       x1="336.63333"
       y1="503.59683"
       x2="337.39096"
       y2="669.51434"
       gradientUnits="userSpaceOnUse" />
  </defs>
  <sodipodi:namedview
     id="base"
     pagecolor="#ffffff"
     bordercolor="#666666"
     borderopacity="1.0"
     inkscape:pageopacity="0.0"
     inkscape:pageshadow="2"
     inkscape:zoom="1.979899"
     inkscape:cx="294.28324"
     inkscape:cy="68.990914"
     inkscape:document-units="px"
     inkscape:current-layer="layer1"
     showgrid="false"
     inkscape:window-width="1600"
     inkscape:window-height="837"
     inkscape:window-x="-8"
     inkscape:window-y="-8"
     inkscape:window-maximized="1" />
  <metadata
     id="metadata7">
    <rdf:RDF>
      <cc:Work
         rdf:about="">
        <dc:format>image/svg+xml</dc:format>
        <dc:type
           rdf:resource="http://purl.org/dc/dcmitype/StillImage" />
        <dc:title></dc:title>
      </cc:Work>
    </rdf:RDF>
  </metadata>
  <g
     inkscape:label="Calque 1"
     inkscape:groupmode="layer"
     id="layer1"
     transform="translate(0,-977.36218)">
    <g
       id="g3302"
       transform="matrix(0.99659351,0,0,0.99659351,-285.05238,465.11275)">
      <g
         id="g3266">
        <path
           style="fill:#000000;fill-opacity:1;stroke:none"
           d="m 362.79834,542.15837 c 0,15.55124 -12.43717,28.158 -27.77919,28.158 -15.34203,0 -27.7792,-12.60676 -27.7792,-28.158 0,-15.55123 12.43717,-28.158 27.7792,-28.158 15.34202,0 27.77919,12.60677 27.77919,28.158 z"
           id="path3192"
           inkscape:connector-curvature="0" />
        <path
           style="fill:#000000;stroke:none"
           d="m 314.81608,528.1425 -4.04061,0.25254 -14.64721,-4.29315 -7.32361,11.36421 8.08122,-6.81853 15.65737,2.27285 -3.03046,9.09137 -14.89975,-1.26269 -8.5863,18.68782 11.8693,-14.89975 13.13198,0.25254 0,7.32361 -12.12183,4.29314 -9.84899,11.61676 0.25254,14.64721 4.29315,-9.09137 0,-5.3033 8.08122,-9.09138 9.34391,-3.53553 3.78807,5.80838 -14.14213,9.34391 6.06091,8.08122 0.25254,12.37437 3.03046,-2.02031 0,-10.6066 -2.27285,-4.54569 0,-4.54568 10.35407,-6.31346 21.71828,0 -4.29315,-34.34518 z"
           id="path3199"
           inkscape:connector-curvature="0" />
        <path
           sodipodi:type="arc"
           style="fill:#ffffff;fill-opacity:1;stroke:none"
           id="path3246"
           sodipodi:cx="365.54895"
           sodipodi:cy="548.29608"
           sodipodi:rx="6.1871843"
           sodipodi:ry="8.3337584"
           d="m 371.73613,548.29608 c 0,4.60261 -2.77009,8.33376 -6.18718,8.33376 -3.41709,0 -6.18718,-3.73115 -6.18718,-8.33376 0,-4.60261 2.77009,-8.33376 6.18718,-8.33376 3.41709,0 6.18718,3.73115 6.18718,8.33376 z"
           transform="translate(-38.484771,21.515229)" />
        <path
           sodipodi:type="arc"
           style="fill:#4d4d4d;fill-opacity:1;stroke:#000000;stroke-width:2.20000005;stroke-miterlimit:4;stroke-opacity:1;stroke-dasharray:none"
           id="path3254"
           sodipodi:cx="326.91061"
           sodipodi:cy="571.65582"
           sodipodi:rx="1.8940361"
           sodipodi:ry="2.1465743"
           d="m 328.80465,571.65582 c 0,1.18552 -0.84799,2.14658 -1.89404,2.14658 -1.04604,0 -1.89403,-0.96106 -1.89403,-2.14658 0,-1.18552 0.84799,-2.14657 1.89403,-2.14657 1.04605,0 1.89404,0.96105 1.89404,2.14657 z" />
        <path
           inkscape:connector-curvature="0"
           id="path3258"
           d="m 362.79834,542.15837 c 0,15.55124 -12.43717,28.158 -27.77919,28.158 -15.34203,0 -27.7792,-12.60676 -27.7792,-28.158 0,-15.55123 12.43717,-28.158 27.7792,-28.158 15.34202,0 27.77919,12.60677 27.77919,28.158 z"
           style="fill:#000000;fill-opacity:1;stroke:none" />
        <path
           inkscape:connector-curvature="0"
           id="path3260"
           d="m 314.81608,528.1425 -4.04061,0.25254 -14.64721,-4.29315 -7.32361,11.36421 8.08122,-6.81853 15.65737,2.27285 -3.03046,9.09137 -14.89975,-1.26269 -8.5863,18.68782 11.8693,-14.89975 13.13198,0.25254 0,7.32361 -12.12183,4.29314 -9.84899,11.61676 0.25254,14.64721 4.29315,-9.09137 0,-5.3033 8.08122,-9.09138 9.34391,-3.53553 3.78807,5.80838 -14.14213,9.34391 6.06091,8.08122 0.25254,12.37437 3.03046,-2.02031 0,-10.6066 -2.27285,-4.54569 0,-4.54568 10.35407,-6.31346 21.71828,0 -4.29315,-34.34518 z"
           style="fill:#000000;stroke:none" />
        <path
           transform="translate(-38.484771,21.515229)"
           d="m 371.73613,548.29608 c 0,4.60261 -2.77009,8.33376 -6.18718,8.33376 -3.41709,0 -6.18718,-3.73115 -6.18718,-8.33376 0,-4.60261 2.77009,-8.33376 6.18718,-8.33376 3.41709,0 6.18718,3.73115 6.18718,8.33376 z"
           sodipodi:ry="8.3337584"
           sodipodi:rx="6.1871843"
           sodipodi:cy="548.29608"
           sodipodi:cx="365.54895"
           id="path3262"
           style="fill:#ffffff;fill-opacity:1;stroke:none"
           sodipodi:type="arc" />
        <path
           d="m 328.80465,571.65582 c 0,1.18552 -0.84799,2.14658 -1.89404,2.14658 -1.04604,0 -1.89403,-0.96106 -1.89403,-2.14658 0,-1.18552 0.84799,-2.14657 1.89403,-2.14657 1.04605,0 1.89404,0.96105 1.89404,2.14657 z"
           sodipodi:ry="2.1465743"
           sodipodi:rx="1.8940361"
           sodipodi:cy="571.65582"
           sodipodi:cx="326.91061"
           id="path3264"
           style="fill:#4d4d4d;fill-opacity:1;stroke:#000000;stroke-width:2.20000005;stroke-miterlimit:4;stroke-opacity:1;stroke-dasharray:none"
           sodipodi:type="arc" />
      </g>
      <g
         transform="matrix(-1,0,0,1,670.02155,0)"
         id="g3276">
        <path
           inkscape:connector-curvature="0"
           id="path3280"
           d="m 314.81608,528.1425 -4.04061,0.25254 -14.64721,-4.29315 -7.32361,11.36421 8.08122,-6.81853 15.65737,2.27285 -3.03046,9.09137 -14.89975,-1.26269 -8.5863,18.68782 11.8693,-14.89975 13.13198,0.25254 0,7.32361 -12.12183,4.29314 -9.84899,11.61676 0.25254,14.64721 4.29315,-9.09137 0,-5.3033 8.08122,-9.09138 9.34391,-3.53553 3.78807,5.80838 -14.14213,9.34391 6.06091,8.08122 0.25254,12.37437 3.03046,-2.02031 0,-10.6066 -2.27285,-4.54569 0,-4.54568 10.35407,-6.31346 21.71828,0 -4.29315,-34.34518 z"
           style="fill:#000000;stroke:none" />
        <path
           transform="translate(-38.484771,21.515229)"
           d="m 371.73613,548.29608 c 0,4.60261 -2.77009,8.33376 -6.18718,8.33376 -3.41709,0 -6.18718,-3.73115 -6.18718,-8.33376 0,-4.60261 2.77009,-8.33376 6.18718,-8.33376 3.41709,0 6.18718,3.73115 6.18718,8.33376 z"
           sodipodi:ry="8.3337584"
           sodipodi:rx="6.1871843"
           sodipodi:cy="548.29608"
           sodipodi:cx="365.54895"
           id="path3282"
           style="fill:#ffffff;fill-opacity:1;stroke:none"
           sodipodi:type="arc" />
        <path
           d="m 328.80465,571.65582 c 0,1.18552 -0.84799,2.14658 -1.89404,2.14658 -1.04604,0 -1.89403,-0.96106 -1.89403,-2.14658 0,-1.18552 0.84799,-2.14657 1.89403,-2.14657 1.04605,0 1.89404,0.96105 1.89404,2.14657 z"
           sodipodi:ry="2.1465743"
           sodipodi:rx="1.8940361"
           sodipodi:cy="571.65582"
           sodipodi:cx="326.91061"
           id="path3284"
           style="fill:#4d4d4d;fill-opacity:1;stroke:#000000;stroke-width:2.20000005;stroke-miterlimit:4;stroke-opacity:1;stroke-dasharray:none"
           sodipodi:type="arc" />
        <path
           style="fill:#000000;stroke:none"
           d="m 314.81608,528.1425 -4.04061,0.25254 -14.64721,-4.29315 -7.32361,11.36421 8.08122,-6.81853 15.65737,2.27285 -3.03046,9.09137 -14.89975,-1.26269 -8.5863,18.68782 11.8693,-14.89975 13.13198,0.25254 0,7.32361 -12.12183,4.29314 -9.84899,11.61676 0.25254,14.64721 4.29315,-9.09137 0,-5.3033 8.08122,-9.09138 9.34391,-3.53553 3.78807,5.80838 -14.14213,9.34391 6.06091,8.08122 0.25254,12.37437 3.03046,-2.02031 0,-10.6066 -2.27285,-4.54569 0,-4.54568 10.35407,-6.31346 21.71828,0 -4.29315,-34.34518 z"
           id="path3288"
           inkscape:connector-curvature="0" />
        <path
           sodipodi:type="arc"
           style="fill:#ffffff;fill-opacity:1;stroke:none"
           id="path3290"
           sodipodi:cx="365.54895"
           sodipodi:cy="548.29608"
           sodipodi:rx="6.1871843"
           sodipodi:ry="8.3337584"
           d="m 371.73613,548.29608 c 0,4.60261 -2.77009,8.33376 -6.18718,8.33376 -3.41709,0 -6.18718,-3.73115 -6.18718,-8.33376 0,-4.60261 2.77009,-8.33376 6.18718,-8.33376 3.41709,0 6.18718,3.73115 6.18718,8.33376 z"
           transform="translate(-38.484771,21.515229)" />
        <path
           sodipodi:type="arc"
           style="fill:#4d4d4d;fill-opacity:1;stroke:#000000;stroke-width:2.20000005;stroke-miterlimit:4;stroke-opacity:1;stroke-dasharray:none"
           id="path3292"
           sodipodi:cx="326.91061"
           sodipodi:cy="571.65582"
           sodipodi:rx="1.8940361"
           sodipodi:ry="2.1465743"
           d="m 328.80465,571.65582 c 0,1.18552 -0.84799,2.14658 -1.89404,2.14658 -1.04604,0 -1.89403,-0.96106 -1.89403,-2.14658 0,-1.18552 0.84799,-2.14657 1.89403,-2.14657 1.04605,0 1.89404,0.96105 1.89404,2.14657 z" />
      </g>
    </g>
  </g>
</svg>
