<?xml version="1.0" encoding="UTF-8" standalone="no"?>
<!-- Created with Inkscape (http://www.inkscape.org/) -->

<svg
   xmlns:dc="http://purl.org/dc/elements/1.1/"
   xmlns:cc="http://creativecommons.org/ns#"
   xmlns:rdf="http://www.w3.org/1999/02/22-rdf-syntax-ns#"
   xmlns:svg="http://www.w3.org/2000/svg"
   xmlns="http://www.w3.org/2000/svg"
   xmlns:xlink="http://www.w3.org/1999/xlink"
   xmlns:sodipodi="http://sodipodi.sourceforge.net/DTD/sodipodi-0.dtd"
   xmlns:inkscape="http://www.inkscape.org/namespaces/inkscape"
   width="300"
   height="500"
   id="svg2"
   version="1.1"
   inkscape:version="0.48.4 r9939"
   sodipodi:docname="honeystick.svg">
  <defs
     id="defs4">
    <linearGradient
       inkscape:collect="always"
       id="linearGradient4811">
      <stop
         style="stop-color:#ffccaa;stop-opacity:1;"
         offset="0"
         id="stop4813" />
      <stop
         style="stop-color:#d38d5f;stop-opacity:1"
         offset="1"
         id="stop4815" />
    </linearGradient>
    <linearGradient
       id="linearGradient4803">
      <stop
         style="stop-color:#5f5f5f;stop-opacity:1;"
         offset="0"
         id="stop4805" />
      <stop
         style="stop-color:#ff7f2a;stop-opacity:1"
         offset="1"
         id="stop4807" />
    </linearGradient>
    <linearGradient
       inkscape:collect="always"
       id="linearGradient4596">
      <stop
         style="stop-color:#4b342f;stop-opacity:0.4380531"
         offset="0"
         id="stop4598" />
      <stop
         id="stop4604"
         offset="0.25600004"
         style="stop-color:#47322d;stop-opacity:1;" />
      <stop
         style="stop-color:#1a1a1a;stop-opacity:1"
         offset="1"
         id="stop4600" />
    </linearGradient>
    <linearGradient
       id="linearGradient4455"
       inkscape:collect="always">
      <stop
         id="stop4457"
         offset="0"
         style="stop-color:#8e7158;stop-opacity:1" />
      <stop
         style="stop-color:#ab9274;stop-opacity:1"
         offset="0.06111565"
         id="stop4461" />
      <stop
         id="stop4463"
         offset="0.16736978"
         style="stop-color:#baa791;stop-opacity:1" />
      <stop
         style="stop-color:#ab9274;stop-opacity:1"
         offset="0.40340856"
         id="stop4465" />
      <stop
         id="stop4467"
         offset="0.59405529"
         style="stop-color:#89725d;stop-opacity:1;" />
      <stop
         style="stop-color:#5f473a;stop-opacity:1"
         offset="0.784702"
         id="stop4469" />
      <stop
         id="stop4459"
         offset="1"
         style="stop-color:#725c4e;stop-opacity:1" />
    </linearGradient>
    <linearGradient
       inkscape:collect="always"
       id="linearGradient4376">
      <stop
         style="stop-color:#ffffff;stop-opacity:1;"
         offset="0"
         id="stop4378" />
      <stop
         style="stop-color:#ffffff;stop-opacity:0;"
         offset="1"
         id="stop4380" />
    </linearGradient>
    <linearGradient
       inkscape:collect="always"
       id="linearGradient4368">
      <stop
         style="stop-color:#ffffff;stop-opacity:1;"
         offset="0"
         id="stop4370" />
      <stop
         style="stop-color:#ffffff;stop-opacity:0;"
         offset="1"
         id="stop4372" />
    </linearGradient>
    <linearGradient
       inkscape:collect="always"
       id="linearGradient4360">
      <stop
         style="stop-color:#ffffff;stop-opacity:1;"
         offset="0"
         id="stop4362" />
      <stop
         style="stop-color:#ffffff;stop-opacity:0;"
         offset="1"
         id="stop4364" />
    </linearGradient>
    <linearGradient
       inkscape:collect="always"
       id="linearGradient4352">
      <stop
         style="stop-color:#ffffff;stop-opacity:1;"
         offset="0"
         id="stop4354" />
      <stop
         style="stop-color:#ffffff;stop-opacity:0;"
         offset="1"
         id="stop4356" />
    </linearGradient>
    <linearGradient
       inkscape:collect="always"
       id="linearGradient4285">
      <stop
         style="stop-color:#ffffff;stop-opacity:1;"
         offset="0"
         id="stop4287" />
      <stop
         style="stop-color:#ffffff;stop-opacity:0;"
         offset="1"
         id="stop4289" />
    </linearGradient>
    <linearGradient
       inkscape:collect="always"
       id="linearGradient3787">
      <stop
         style="stop-color:#ab9274;stop-opacity:1;"
         offset="0"
         id="stop3789" />
      <stop
         style="stop-color:#725c4e;stop-opacity:1"
         offset="1"
         id="stop3791" />
    </linearGradient>
    <linearGradient
       inkscape:collect="always"
       xlink:href="#linearGradient3787"
       id="linearGradient3793"
       x1="352.54324"
       y1="30.845421"
       x2="356.07877"
       y2="46.250248"
       gradientUnits="userSpaceOnUse" />
    <linearGradient
       inkscape:collect="always"
       xlink:href="#linearGradient3787-7"
       id="linearGradient3793-1"
       x1="79.238411"
       y1="47.512936"
       x2="88.329781"
       y2="69.988831"
       gradientUnits="userSpaceOnUse" />
    <linearGradient
       inkscape:collect="always"
       id="linearGradient3787-7">
      <stop
         style="stop-color:#ab9274;stop-opacity:1;"
         offset="0"
         id="stop3789-4" />
      <stop
         style="stop-color:#725c4e;stop-opacity:1"
         offset="1"
         id="stop3791-0" />
    </linearGradient>
    <linearGradient
       gradientTransform="translate(-342.67224,-23.380038)"
       y2="45.745171"
       x2="355.82623"
       y1="30.845421"
       x1="352.54324"
       gradientUnits="userSpaceOnUse"
       id="linearGradient3810"
       xlink:href="#linearGradient3787-7"
       inkscape:collect="always" />
    <linearGradient
       inkscape:collect="always"
       id="linearGradient3787-8">
      <stop
         style="stop-color:#ab9274;stop-opacity:1;"
         offset="0"
         id="stop3789-8" />
      <stop
         style="stop-color:#725c4e;stop-opacity:1"
         offset="1"
         id="stop3791-2" />
    </linearGradient>
    <linearGradient
       gradientTransform="translate(-342.67224,-23.380038)"
       y2="45.745171"
       x2="355.82623"
       y1="30.845421"
       x1="352.54324"
       gradientUnits="userSpaceOnUse"
       id="linearGradient3810-4"
       xlink:href="#linearGradient3787-8"
       inkscape:collect="always" />
    <linearGradient
       inkscape:collect="always"
       id="linearGradient3787-1">
      <stop
         style="stop-color:#ab9274;stop-opacity:1;"
         offset="0"
         id="stop3789-7" />
      <stop
         style="stop-color:#725c4e;stop-opacity:1"
         offset="1"
         id="stop3791-1" />
    </linearGradient>
    <linearGradient
       gradientTransform="translate(-342.67224,-23.380038)"
       y2="45.745171"
       x2="355.82623"
       y1="30.845421"
       x1="352.54324"
       gradientUnits="userSpaceOnUse"
       id="linearGradient3810-1"
       xlink:href="#linearGradient3787-1"
       inkscape:collect="always" />
    <linearGradient
       inkscape:collect="always"
       xlink:href="#linearGradient3787-76"
       id="linearGradient3793-2"
       x1="71.518097"
       y1="47.470802"
       x2="75.81163"
       y2="71.404678"
       gradientUnits="userSpaceOnUse" />
    <linearGradient
       inkscape:collect="always"
       id="linearGradient3787-76">
      <stop
         style="stop-color:#ab9274;stop-opacity:1;"
         offset="0"
         id="stop3789-1" />
      <stop
         style="stop-color:#725c4e;stop-opacity:1"
         offset="1"
         id="stop3791-4" />
    </linearGradient>
    <linearGradient
       gradientTransform="translate(-342.67224,-23.380038)"
       y2="45.745171"
       x2="355.82623"
       y1="30.845421"
       x1="352.54324"
       gradientUnits="userSpaceOnUse"
       id="linearGradient3810-2"
       xlink:href="#linearGradient3787-76"
       inkscape:collect="always" />
    <linearGradient
       inkscape:collect="always"
       xlink:href="#linearGradient3787-16"
       id="linearGradient3793-22"
       x1="67.090355"
       y1="48.666965"
       x2="73.021698"
       y2="72.685272"
       gradientUnits="userSpaceOnUse" />
    <linearGradient
       inkscape:collect="always"
       id="linearGradient3787-16">
      <stop
         style="stop-color:#ab9274;stop-opacity:1;"
         offset="0"
         id="stop3789-85" />
      <stop
         style="stop-color:#725c4e;stop-opacity:1"
         offset="1"
         id="stop3791-7" />
    </linearGradient>
    <linearGradient
       gradientTransform="translate(-342.67224,-23.380038)"
       y2="45.745171"
       x2="355.82623"
       y1="30.845421"
       x1="352.54324"
       gradientUnits="userSpaceOnUse"
       id="linearGradient3810-6"
       xlink:href="#linearGradient3787-16"
       inkscape:collect="always" />
    <linearGradient
       inkscape:collect="always"
       xlink:href="#linearGradient3787-76"
       id="linearGradient3892"
       gradientUnits="userSpaceOnUse"
       x1="79.383514"
       y1="51.714603"
       x2="82.872223"
       y2="69.152634" />
    <linearGradient
       inkscape:collect="always"
       xlink:href="#linearGradient3787-76"
       id="linearGradient3894"
       gradientUnits="userSpaceOnUse"
       x1="77.360634"
       y1="52.365276"
       x2="79.857643"
       y2="68.622086" />
    <linearGradient
       inkscape:collect="always"
       xlink:href="#linearGradient4455"
       id="linearGradient3793-8"
       x1="362.95786"
       y1="166.96347"
       x2="382.62775"
       y2="166.96347"
       gradientUnits="userSpaceOnUse" />
    <linearGradient
       inkscape:collect="always"
       id="linearGradient3787-9">
      <stop
         style="stop-color:#ab9274;stop-opacity:1;"
         offset="0"
         id="stop3789-2" />
      <stop
         style="stop-color:#725c4e;stop-opacity:1"
         offset="1"
         id="stop3791-79" />
    </linearGradient>
    <linearGradient
       gradientTransform="translate(-342.67224,-23.380038)"
       y2="45.745171"
       x2="355.82623"
       y1="30.845421"
       x1="352.54324"
       gradientUnits="userSpaceOnUse"
       id="linearGradient3810-5"
       xlink:href="#linearGradient3787-9"
       inkscape:collect="always" />
    <linearGradient
       inkscape:collect="always"
       id="linearGradient3787-12">
      <stop
         style="stop-color:#ab9274;stop-opacity:1;"
         offset="0"
         id="stop3789-3" />
      <stop
         style="stop-color:#725c4e;stop-opacity:1"
         offset="1"
         id="stop3791-3" />
    </linearGradient>
    <linearGradient
       gradientTransform="translate(-342.67224,-23.380038)"
       y2="45.745171"
       x2="355.82623"
       y1="30.845421"
       x1="352.54324"
       gradientUnits="userSpaceOnUse"
       id="linearGradient3810-41"
       xlink:href="#linearGradient3787-12"
       inkscape:collect="always" />
    <linearGradient
       inkscape:collect="always"
       xlink:href="#linearGradient3787"
       id="linearGradient3930"
       gradientUnits="userSpaceOnUse"
       x1="368.18768"
       y1="40.996399"
       x2="356.25534"
       y2="27.708109"
       gradientTransform="matrix(0.93122366,0,0,0.93122366,25.588049,8.5785066)" />
    <linearGradient
       inkscape:collect="always"
       xlink:href="#linearGradient3787-7"
       id="linearGradient3934"
       gradientUnits="userSpaceOnUse"
       x1="82.273117"
       y1="62.194443"
       x2="62.749737"
       y2="48.968929" />
    <linearGradient
       inkscape:collect="always"
       xlink:href="#linearGradient3787-76"
       id="linearGradient3938"
       gradientUnits="userSpaceOnUse"
       x1="83.315811"
       y1="60.898838"
       x2="64.430252"
       y2="39.764977" />
    <linearGradient
       inkscape:collect="always"
       xlink:href="#linearGradient3787-76"
       id="linearGradient3942"
       gradientUnits="userSpaceOnUse"
       x1="91.984016"
       y1="60.429989"
       x2="65.293755"
       y2="34.518742" />
    <linearGradient
       inkscape:collect="always"
       xlink:href="#linearGradient3787-76"
       id="linearGradient3946"
       gradientUnits="userSpaceOnUse"
       x1="82.404785"
       y1="65.420662"
       x2="52.838207"
       y2="40.364208" />
    <filter
       inkscape:collect="always"
       id="filter3954"
       x="-0.13006087"
       width="1.2601217"
       y="-0.36657444"
       height="1.7331489"
       color-interpolation-filters="sRGB">
      <feGaussianBlur
         inkscape:collect="always"
         stdDeviation="1.1582991"
         id="feGaussianBlur3956" />
    </filter>
    <filter
       inkscape:collect="always"
       id="filter4080"
       color-interpolation-filters="sRGB">
      <feGaussianBlur
         inkscape:collect="always"
         stdDeviation="0.8415625"
         id="feGaussianBlur4082" />
    </filter>
    <clipPath
       clipPathUnits="userSpaceOnUse"
       id="clipPath4100">
      <path
         style="color:#000000;fill:url(#linearGradient4104);fill-opacity:1;fill-rule:nonzero;stroke:none;stroke-width:2.08874607;marker:none;visibility:visible;display:inline;overflow:visible;enable-background:accumulate"
         d="m 372.25,23.375 c -19.80441,0 -29.5625,8.71089 -29.5625,12.15625 0,1.174515 1.12574,2.356957 3.375,3.40625 -0.89825,1.05069 -1.375,2.00736 -1.375,2.71875 -6.72936,2.298535 -10.90625,5.409624 -10.90625,8.875 0,2.865115 2.87112,5.52704 7.65625,7.65625 -0.004,0.02051 0.004,0.04196 0,0.0625 -6.76101,2.201002 -10.9375,5.125299 -10.9375,8.34375 0,3.367977 4.54693,6.42502 11.875,8.65625 -0.003,0.04027 9.1e-4,0.0846 0,0.125 -5.62698,1.995364 -9.03125,4.568799 -9.03125,7.375 0,3.344352 4.85185,6.337659 12.53125,8.4375 -0.39001,0.540211 -0.625,1.112698 -0.625,1.6875 0,0.5368 0.18992,1.055516 0.53125,1.5625 -4.67453,1.70869 -7.5,3.883297 -7.5,6.25 0,3.22034 5.21176,6.05481 13.25,7.875 -0.26176,0.38986 -0.40625,0.77497 -0.40625,1.1875 0,0.45009 0.18979,0.8898 0.5,1.3125 -5.48302,1.55939 -8.90625,3.74187 -8.90625,6.15625 0,4.73965 13.14993,8.5625 29.34375,8.5625 16.19382,0 29.3125,-3.82285 29.3125,-8.5625 0,-2.41438 -3.42323,-4.59686 -8.90625,-6.15625 0.31021,-0.4227 0.5,-0.86241 0.5,-1.3125 0,-0.41253 -0.14449,-0.79764 -0.40625,-1.1875 8.03824,-1.82019 13.25,-4.65466 13.25,-7.875 0,-2.366703 -2.82547,-4.54131 -7.5,-6.25 0.34133,-0.506984 0.53125,-1.0257 0.53125,-1.5625 0,-0.574802 -0.23499,-1.147289 -0.625,-1.6875 7.6794,-2.099841 12.53125,-5.093148 12.53125,-8.4375 0,-2.806201 -3.40427,-5.379636 -9.03125,-7.375 -9.1e-4,-0.0404 0.003,-0.08473 0,-0.125 7.34342,-2.231921 11.875,-5.284283 11.875,-8.65625 0,-3.220876 -4.16742,-6.142191 -10.9375,-8.34375 -0.004,-0.02054 0.004,-0.04199 0,-0.0625 4.78513,-2.12921 7.65625,-4.791135 7.65625,-7.65625 0,-3.465376 -4.17689,-6.576465 -10.90625,-8.875 0,-0.717499 -0.46084,-1.688585 -1.34375,-2.75 2.22721,-1.044968 3.375,-2.206964 3.375,-3.375 0,-3.44536 -9.38308,-12.15625 -29.1875,-12.15625 z"
         id="path4102"
         inkscape:connector-curvature="0" />
    </clipPath>
    <linearGradient
       inkscape:collect="always"
       xlink:href="#linearGradient3787-16"
       id="linearGradient4104"
       gradientUnits="userSpaceOnUse"
       gradientTransform="matrix(0.76638426,0,0,0.6729217,303.14655,83.201716)"
       x1="67.090355"
       y1="48.666965"
       x2="73.021698"
       y2="72.685272" />
    <filter
       inkscape:collect="always"
       id="filter4154"
       x="-0.22760649"
       width="1.455213"
       y="-0.64150518"
       height="2.2830105"
       color-interpolation-filters="sRGB">
      <feGaussianBlur
         inkscape:collect="always"
         stdDeviation="2.0270232"
         id="feGaussianBlur4156" />
    </filter>
    <filter
       inkscape:collect="always"
       id="filter4189"
       x="-0.082608789"
       width="1.1652176"
       y="-0.56065112"
       height="2.1213021"
       color-interpolation-filters="sRGB">
      <feGaussianBlur
         inkscape:collect="always"
         stdDeviation="1.8834374"
         id="feGaussianBlur4191" />
    </filter>
    <filter
       inkscape:collect="always"
       id="filter4197"
       x="-0.06884066"
       width="1.1376812"
       y="-0.46720931"
       height="1.9344186"
       color-interpolation-filters="sRGB">
      <feGaussianBlur
         inkscape:collect="always"
         stdDeviation="1.5695312"
         id="feGaussianBlur4199" />
    </filter>
    <filter
       inkscape:collect="always"
       id="filter4207"
       x="-0.041304398"
       width="1.0826088"
       y="-0.28032559"
       height="1.5606512"
       color-interpolation-filters="sRGB">
      <feGaussianBlur
         inkscape:collect="always"
         stdDeviation="0.94171875"
         id="feGaussianBlur4209" />
    </filter>
    <clipPath
       clipPathUnits="userSpaceOnUse"
       id="clipPath4257">
      <path
         style="color:#000000;fill:url(#linearGradient4261);fill-opacity:1;fill-rule:nonzero;stroke:none;stroke-width:2.08874607;marker:none;visibility:visible;display:inline;overflow:visible;enable-background:accumulate"
         d="m 372.25,23.375 c -19.80441,0 -29.5625,8.71089 -29.5625,12.15625 0,1.174515 1.12574,2.356957 3.375,3.40625 -0.89825,1.05069 -1.375,2.00736 -1.375,2.71875 -6.72936,2.298535 -10.90625,5.409624 -10.90625,8.875 0,2.865115 2.87112,5.52704 7.65625,7.65625 -0.004,0.02051 0.004,0.04196 0,0.0625 -6.76101,2.201002 -10.9375,5.125299 -10.9375,8.34375 0,3.367977 4.54693,6.42502 11.875,8.65625 -0.003,0.04027 9.1e-4,0.0846 0,0.125 -5.62698,1.995364 -9.03125,4.568799 -9.03125,7.375 0,3.344352 4.85185,6.337659 12.53125,8.4375 -0.39001,0.540211 -0.625,1.112698 -0.625,1.6875 0,0.5368 0.18992,1.055516 0.53125,1.5625 -4.67453,1.70869 -7.5,3.883297 -7.5,6.25 0,3.22034 5.21176,6.05481 13.25,7.875 -0.26176,0.38986 -0.40625,0.77497 -0.40625,1.1875 0,0.45009 0.18979,0.8898 0.5,1.3125 -5.48302,1.55939 -8.90625,3.74187 -8.90625,6.15625 0,4.73965 13.14993,8.5625 29.34375,8.5625 16.19382,0 29.3125,-3.82285 29.3125,-8.5625 0,-2.41438 -3.42323,-4.59686 -8.90625,-6.15625 0.31021,-0.4227 0.5,-0.86241 0.5,-1.3125 0,-0.41253 -0.14449,-0.79764 -0.40625,-1.1875 8.03824,-1.82019 13.25,-4.65466 13.25,-7.875 0,-2.366703 -2.82547,-4.54131 -7.5,-6.25 0.34133,-0.506984 0.53125,-1.0257 0.53125,-1.5625 0,-0.574802 -0.23499,-1.147289 -0.625,-1.6875 7.6794,-2.099841 12.53125,-5.093148 12.53125,-8.4375 0,-2.806201 -3.40427,-5.379636 -9.03125,-7.375 -9.1e-4,-0.0404 0.003,-0.08473 0,-0.125 7.34342,-2.231921 11.875,-5.284283 11.875,-8.65625 0,-3.220876 -4.16742,-6.142191 -10.9375,-8.34375 -0.004,-0.02054 0.004,-0.04199 0,-0.0625 4.78513,-2.12921 7.65625,-4.791135 7.65625,-7.65625 0,-3.465376 -4.17689,-6.576465 -10.90625,-8.875 0,-0.717499 -0.46084,-1.688585 -1.34375,-2.75 2.22721,-1.044968 3.375,-2.206964 3.375,-3.375 0,-3.44536 -9.38308,-12.15625 -29.1875,-12.15625 z"
         id="path4259"
         inkscape:connector-curvature="0" />
    </clipPath>
    <linearGradient
       inkscape:collect="always"
       xlink:href="#linearGradient3787-16"
       id="linearGradient4261"
       gradientUnits="userSpaceOnUse"
       gradientTransform="matrix(0.76638426,0,0,0.6729217,303.14655,83.201716)"
       x1="67.090355"
       y1="48.666965"
       x2="73.021698"
       y2="72.685272" />
    <linearGradient
       inkscape:collect="always"
       xlink:href="#linearGradient4285"
       id="linearGradient4291"
       x1="352.14285"
       y1="24.505037"
       x2="351.42856"
       y2="38.612179"
       gradientUnits="userSpaceOnUse" />
    <linearGradient
       inkscape:collect="always"
       xlink:href="#linearGradient4285"
       id="linearGradient4291-7"
       x1="341.78571"
       y1="39.326466"
       x2="340.89288"
       y2="58.969322"
       gradientUnits="userSpaceOnUse" />
    <linearGradient
       inkscape:collect="always"
       id="linearGradient4285-7">
      <stop
         style="stop-color:#ffffff;stop-opacity:1;"
         offset="0"
         id="stop4287-9" />
      <stop
         style="stop-color:#ffffff;stop-opacity:0;"
         offset="1"
         id="stop4289-3" />
    </linearGradient>
    <linearGradient
       gradientTransform="translate(-343.91071,-30.102678)"
       y2="38.612179"
       x2="351.42856"
       y1="24.505037"
       x1="352.14285"
       gradientUnits="userSpaceOnUse"
       id="linearGradient4308"
       xlink:href="#linearGradient4285-7"
       inkscape:collect="always" />
    <linearGradient
       inkscape:collect="always"
       xlink:href="#linearGradient4352"
       id="linearGradient4358"
       x1="335.71429"
       y1="58.612179"
       x2="335.35715"
       y2="76.826469"
       gradientUnits="userSpaceOnUse" />
    <linearGradient
       inkscape:collect="always"
       xlink:href="#linearGradient4360"
       id="linearGradient4366"
       x1="336.96429"
       y1="75.040749"
       x2="335.89285"
       y2="91.826469"
       gradientUnits="userSpaceOnUse" />
    <linearGradient
       inkscape:collect="always"
       xlink:href="#linearGradient4368"
       id="linearGradient4374"
       x1="342.85715"
       y1="92.005035"
       x2="341.42856"
       y2="108.07647"
       gradientUnits="userSpaceOnUse" />
    <linearGradient
       inkscape:collect="always"
       xlink:href="#linearGradient4376"
       id="linearGradient4382"
       x1="347.32144"
       y1="111.11219"
       x2="346.25"
       y2="123.61217"
       gradientUnits="userSpaceOnUse" />
    <filter
       inkscape:collect="always"
       id="filter4408"
       color-interpolation-filters="sRGB">
      <feGaussianBlur
         inkscape:collect="always"
         stdDeviation="0.71481449"
         id="feGaussianBlur4410" />
    </filter>
    <clipPath
       clipPathUnits="userSpaceOnUse"
       id="clipPath4449">
      <path
         style="color:#000000;fill:url(#linearGradient4453);fill-opacity:1;fill-rule:nonzero;stroke:none;stroke-width:2.08874607;marker:none;visibility:visible;display:inline;overflow:visible;enable-background:accumulate"
         d="m 372.25,23.375 c -19.80441,0 -29.5625,8.71089 -29.5625,12.15625 0,1.174515 1.12574,2.356957 3.375,3.40625 -0.89825,1.05069 -1.375,2.00736 -1.375,2.71875 -6.72936,2.298535 -10.90625,5.409624 -10.90625,8.875 0,2.865115 2.87112,5.52704 7.65625,7.65625 -0.004,0.02051 0.004,0.04196 0,0.0625 -6.76101,2.201002 -10.9375,5.125299 -10.9375,8.34375 0,3.367977 4.54693,6.42502 11.875,8.65625 -0.003,0.04027 9.1e-4,0.0846 0,0.125 -5.62698,1.995364 -9.03125,4.568799 -9.03125,7.375 0,3.344352 4.85185,6.337659 12.53125,8.4375 -0.39001,0.540211 -0.625,1.112698 -0.625,1.6875 0,0.5368 0.18992,1.055516 0.53125,1.5625 -4.67453,1.70869 -7.5,3.883297 -7.5,6.25 0,3.22034 5.21176,6.05481 13.25,7.875 -0.26176,0.38986 -0.40625,0.77497 -0.40625,1.1875 0,0.45009 0.18979,0.8898 0.5,1.3125 -5.48302,1.55939 -8.90625,3.74187 -8.90625,6.15625 0,4.73965 13.14993,8.5625 29.34375,8.5625 16.19382,0 29.3125,-3.82285 29.3125,-8.5625 0,-2.41438 -3.42323,-4.59686 -8.90625,-6.15625 0.31021,-0.4227 0.5,-0.86241 0.5,-1.3125 0,-0.41253 -0.14449,-0.79764 -0.40625,-1.1875 8.03824,-1.82019 13.25,-4.65466 13.25,-7.875 0,-2.366703 -2.82547,-4.54131 -7.5,-6.25 0.34133,-0.506984 0.53125,-1.0257 0.53125,-1.5625 0,-0.574802 -0.23499,-1.147289 -0.625,-1.6875 7.6794,-2.099841 12.53125,-5.093148 12.53125,-8.4375 0,-2.806201 -3.40427,-5.379636 -9.03125,-7.375 -9.1e-4,-0.0404 0.003,-0.08473 0,-0.125 7.34342,-2.231921 11.875,-5.284283 11.875,-8.65625 0,-3.220876 -4.16742,-6.142191 -10.9375,-8.34375 -0.004,-0.02054 0.004,-0.04199 0,-0.0625 4.78513,-2.12921 7.65625,-4.791135 7.65625,-7.65625 0,-3.465376 -4.17689,-6.576465 -10.90625,-8.875 0,-0.717499 -0.46084,-1.688585 -1.34375,-2.75 2.22721,-1.044968 3.375,-2.206964 3.375,-3.375 0,-3.44536 -9.38308,-12.15625 -29.1875,-12.15625 z"
         id="path4451"
         inkscape:connector-curvature="0" />
    </clipPath>
    <linearGradient
       inkscape:collect="always"
       xlink:href="#linearGradient3787-16"
       id="linearGradient4453"
       gradientUnits="userSpaceOnUse"
       gradientTransform="matrix(0.76638426,0,0,0.6729217,303.14655,83.201716)"
       x1="67.090355"
       y1="48.666965"
       x2="73.021698"
       y2="72.685272" />
    <linearGradient
       inkscape:collect="always"
       xlink:href="#linearGradient4455-9"
       id="linearGradient3793-8-8"
       x1="362.95786"
       y1="166.96347"
       x2="382.62775"
       y2="166.96347"
       gradientUnits="userSpaceOnUse" />
    <linearGradient
       id="linearGradient4455-9"
       inkscape:collect="always">
      <stop
         id="stop4457-2"
         offset="0"
         style="stop-color:#8e7158;stop-opacity:1" />
      <stop
         style="stop-color:#ab9274;stop-opacity:1"
         offset="0.06111565"
         id="stop4461-8" />
      <stop
         id="stop4463-2"
         offset="0.16736978"
         style="stop-color:#baa791;stop-opacity:1" />
      <stop
         style="stop-color:#ab9274;stop-opacity:1"
         offset="0.40340856"
         id="stop4465-0" />
      <stop
         id="stop4467-5"
         offset="0.59405529"
         style="stop-color:#89725d;stop-opacity:1;" />
      <stop
         style="stop-color:#5f473a;stop-opacity:1"
         offset="0.784702"
         id="stop4469-5" />
      <stop
         id="stop4459-2"
         offset="1"
         style="stop-color:#725c4e;stop-opacity:1" />
    </linearGradient>
    <linearGradient
       inkscape:collect="always"
       xlink:href="#linearGradient4455-7"
       id="linearGradient3793-8-6"
       x1="355.70782"
       y1="460.95102"
       x2="392.5"
       y2="468.79074"
       gradientUnits="userSpaceOnUse" />
    <linearGradient
       id="linearGradient4455-7"
       inkscape:collect="always">
      <stop
         id="stop4457-8"
         offset="0"
         style="stop-color:#8e7158;stop-opacity:1" />
      <stop
         style="stop-color:#ab9274;stop-opacity:1"
         offset="0.06111565"
         id="stop4461-7" />
      <stop
         id="stop4463-8"
         offset="0.16736978"
         style="stop-color:#baa791;stop-opacity:1" />
      <stop
         style="stop-color:#ab9274;stop-opacity:1"
         offset="0.40340856"
         id="stop4465-1" />
      <stop
         id="stop4467-6"
         offset="0.59405529"
         style="stop-color:#89725d;stop-opacity:1;" />
      <stop
         style="stop-color:#5f473a;stop-opacity:1"
         offset="0.784702"
         id="stop4469-0" />
      <stop
         id="stop4459-9"
         offset="1"
         style="stop-color:#725c4e;stop-opacity:1" />
    </linearGradient>
    <linearGradient
       gradientTransform="translate(-362.96875,-118.96875)"
       y2="166.96347"
       x2="382.62775"
       y1="166.96347"
       x1="362.95786"
       gradientUnits="userSpaceOnUse"
       id="linearGradient4494-5"
       xlink:href="#linearGradient4455-7"
       inkscape:collect="always" />
    <clipPath
       clipPathUnits="userSpaceOnUse"
       id="clipPath4560">
      <path
         sodipodi:nodetypes="sssssssss"
         inkscape:connector-curvature="0"
         id="path4562"
         d="m 365.61867,444.68362 12.85714,0 c 5.83678,0 8.84729,4.81334 10,10.53572 l 5,24.82143 c 1.15276,5.72266 -7.41103,13.39285 -14.08163,13.39285 l -14.69388,0 c -6.67061,0 -15.2344,-7.67019 -14.08163,-13.39285 l 5,-24.82143 c 1.15271,-5.72238 4.16321,-10.53572 10,-10.53572 z"
         style="color:#000000;fill:url(#linearGradient4564);fill-opacity:1;fill-rule:nonzero;stroke:none;stroke-width:1.49999988;marker:none;visibility:visible;display:inline;overflow:visible;enable-background:accumulate" />
    </clipPath>
    <linearGradient
       inkscape:collect="always"
       xlink:href="#linearGradient4455-7"
       id="linearGradient4564"
       gradientUnits="userSpaceOnUse"
       x1="372.5"
       y1="465.57648"
       x2="392.5"
       y2="468.79074" />
    <filter
       inkscape:collect="always"
       id="filter4574"
       x="-0.28478745"
       width="1.569575"
       y="-0.091112651"
       height="1.1822253"
       color-interpolation-filters="sRGB">
      <feGaussianBlur
         inkscape:collect="always"
         stdDeviation="1.8725214"
         id="feGaussianBlur4576" />
    </filter>
    <filter
       inkscape:collect="always"
       id="filter4592"
       x="-0.094838783"
       width="1.1896776"
       y="-0.29898235"
       height="1.5979646"
       color-interpolation-filters="sRGB">
      <feGaussianBlur
         inkscape:collect="always"
         stdDeviation="0.7425973"
         id="feGaussianBlur4594" />
    </filter>
    <linearGradient
       inkscape:collect="always"
       xlink:href="#linearGradient4596"
       id="linearGradient4602"
       x1="381.75"
       y1="473.98718"
       x2="397.375"
       y2="473.98718"
       gradientUnits="userSpaceOnUse" />
    <linearGradient
       inkscape:collect="always"
       xlink:href="#linearGradient4596"
       id="linearGradient4649"
       gradientUnits="userSpaceOnUse"
       x1="381.75"
       y1="473.98718"
       x2="397.375"
       y2="473.98718" />
    <linearGradient
       inkscape:collect="always"
       xlink:href="#linearGradient4596"
       id="linearGradient4739"
       gradientUnits="userSpaceOnUse"
       x1="381.75"
       y1="473.98718"
       x2="397.375"
       y2="473.98718" />
    <filter
       inkscape:collect="always"
       id="filter4799"
       color-interpolation-filters="sRGB">
      <feGaussianBlur
         inkscape:collect="always"
         stdDeviation="2.7780021"
         id="feGaussianBlur4801" />
    </filter>
    <linearGradient
       inkscape:collect="always"
       xlink:href="#linearGradient4811"
       id="linearGradient4817"
       x1="0"
       y1="164.83139"
       x2="19.79899"
       y2="426.46091"
       gradientUnits="userSpaceOnUse"
       gradientTransform="matrix(3.3555556,0,0,1,0,552.36218)" />
  </defs>
  <sodipodi:namedview
     id="base"
     pagecolor="#ffffff"
     bordercolor="#666666"
     borderopacity="1.0"
     inkscape:pageopacity="0.0"
     inkscape:pageshadow="2"
     inkscape:zoom="1"
     inkscape:cx="183.97097"
     inkscape:cy="155.63239"
     inkscape:document-units="px"
     inkscape:current-layer="layer1"
     showgrid="false"
     inkscape:snap-page="true"
     inkscape:window-width="1680"
     inkscape:window-height="988"
     inkscape:window-x="-8"
     inkscape:window-y="-8"
     inkscape:window-maximized="1" />
  <metadata
     id="metadata7">
    <rdf:RDF>
      <cc:Work
         rdf:about="">
        <dc:format>image/svg+xml</dc:format>
        <dc:type
           rdf:resource="http://purl.org/dc/dcmitype/StillImage" />
        <dc:title></dc:title>
      </cc:Work>
    </rdf:RDF>
  </metadata>
  <g
     inkscape:label="Layer 1"
     inkscape:groupmode="layer"
     id="layer1"
     transform="translate(0,-552.36218)">
    <rect
       style="color:#000000;fill:url(#linearGradient4817);fill-opacity:1;stroke:none;stroke-width:1.5;marker:none;visibility:visible;display:inline;overflow:visible;enable-background:accumulate"
       id="rect4651"
       width="302"
       height="500"
       x="0"
       y="552.36218" />
    <g
       transform="matrix(1.0128982,0,0,1,13.437395,546.43757)"
       id="g4653"
       style="opacity:0.46902651;filter:url(#filter4799)">
      <path
         style="color:#000000;fill:#000000;fill-opacity:1;fill-rule:nonzero;stroke:none;stroke-width:1.49999988;marker:none;visibility:visible;display:inline;overflow:visible;enable-background:accumulate"
         d="m 139.83597,22.91269 c -11.68227,0.322825 -19.63246,3.730425 -23.9375,7.03125 l -2.03125,1.8125 c -1.1934,1.279152 -1.8125,2.431661 -1.8125,3.28125 0,1.159658 1.12012,2.335661 3.3125,3.375 0.0303,0.0144 0.063,0.01689 0.0937,0.03125 -0.90393,1.054627 -1.375,2.005117 -1.375,2.71875 -3.08255,1.052902 -5.65169,2.267989 -7.5,3.625 -0.0863,0.06348 -0.16648,0.123481 -0.25,0.1875 -0.0514,0.03939 -0.10601,0.08541 -0.15625,0.125 -0.12762,0.100564 -0.25459,0.210667 -0.375,0.3125 -0.16202,0.137939 -0.32088,0.266019 -0.46875,0.40625 -0.0789,0.07397 -0.17503,0.144184 -0.25,0.21875 -0.0671,0.06781 -0.12376,0.150442 -0.1875,0.21875 -0.34183,0.360633 -0.63253,0.720794 -0.875,1.09375 0.0106,0.01025 0.021,0.02067 0.0312,0.03125 -0.5617,0.869501 -0.875,1.762022 -0.875,2.6875 0,2.641269 2.40594,5.08958 6.53125,7.125 0.36074,0.17799 0.73834,0.359963 1.125,0.53125 -0.002,0.0099 0.002,0.02138 0,0.03125 -2.76634,0.898753 -5.12158,1.887271 -6.90625,3 -0.01,-0.02091 -0.0218,-0.04154 -0.0312,-0.0625 -0.17678,0.141988 -0.33445,0.293205 -0.5,0.4375 -2.24897,1.52305 -3.5,3.198145 -3.5,4.96875 0,3.372282 4.53037,6.424275 11.875,8.65625 -0.003,0.04314 0.001,0.08171 0,0.125 -5.62698,1.995364 -9.03125,4.568799 -9.03125,7.375 0,2.950816 3.78104,5.652673 9.9375,7.6875 0.0508,0.011 0.1053,0.0203 0.15625,0.0312 0.24223,0.0792 0.50053,0.17296 0.75,0.25 0.17107,0.0528 0.32559,0.10446 0.5,0.15625 0.38797,0.11543 0.75212,0.23343 1.15625,0.34375 -0.38717,0.53834 -0.59375,1.0836 -0.59375,1.65625 0.0197,1.14338 -2.97036,3.0345 -4.0625,3.78125 -0.0564,-0.0929 -0.10548,-0.18696 -0.15625,-0.28125 -0.99157,0.66679 -1.79342,1.36335 -2.3125,2.09375 0.0944,0.0699 0.17891,0.15446 0.25,0.25 -0.43897,0.64084 -0.6875,1.28973 -0.6875,1.96875 0,3.22211 5.20417,6.08621 13.25,7.90625 -0.25261,0.38329 -0.40625,0.78242 -0.40625,1.1875 0,0.32987 0.11225,0.65289 0.28125,0.96875 l -2.25,1.125 c -4.02553,1.46936 -6.4375,3.31383 -6.4375,5.34375 0,2.29653 3.10547,4.36609 8.125,5.90625 0.12002,0.0368 0.22152,0.0888 0.34375,0.125 0.70165,0.2079 1.41678,0.40759 2.1875,0.59375 0.41996,0.1012 0.87333,0.18696 1.3125,0.28125 0.32182,0.0694 0.63708,0.15317 0.96875,0.21875 0.18924,0.0373 0.37015,0.0578 0.5625,0.0937 2.09113,0.39379 4.3398,0.73953 6.75,0.96875 l 0,319.6875 c -4.11925,1.23622 -6.38096,5.34541 -7.34375,10.125 l -5,24.84375 c -1.15277,5.72266 7.39189,13.375 14.0625,13.375 l 14.6875,0 c 0.27457,0 0.56357,-0.0372 0.84375,-0.0625 0.39892,-0.036 0.81244,-0.10342 1.21875,-0.1875 0.37566,-0.0777 0.74688,-0.16563 1.125,-0.28125 0.0417,-0.0128 0.0833,-0.0181 0.125,-0.0312 0.0527,-0.0167 0.10353,-0.0451 0.15625,-0.0625 0.36676,-0.121 0.72898,-0.25319 1.09375,-0.40625 0.37471,-0.15723 0.75599,-0.31193 1.125,-0.5 0.0415,-0.0211 0.0836,-0.041 0.125,-0.0625 0.0325,-0.0169 0.0613,-0.0454 0.0937,-0.0625 0.38445,-0.20294 0.75169,-0.4236 1.125,-0.65625 0.39521,-0.24629 0.77836,-0.50566 1.15625,-0.78125 0.37114,-0.27067 0.74405,-0.54876 1.09375,-0.84375 0.3572,-0.30132 0.70139,-0.6149 1.03125,-0.9375 0.33101,-0.32372 0.63907,-0.65905 0.9375,-1 0.29754,-0.33993 0.58363,-0.67835 0.84375,-1.03125 0.20883,-0.2832 0.41196,-0.55458 0.59375,-0.84375 0.0463,-0.0734 0.0805,-0.14504 0.125,-0.21875 0.18078,-0.30023 0.35165,-0.60253 0.5,-0.90625 0.0312,-0.0638 0.0641,-0.1236 0.0937,-0.1875 0.14636,-0.31472 0.26712,-0.6534 0.375,-0.96875 0.0187,-0.0548 0.0451,-0.10153 0.0625,-0.15625 0.0406,-0.12616 0.0598,-0.2491 0.0937,-0.375 0.0646,-0.24222 0.11728,-0.47849 0.15625,-0.71875 0.0546,-0.33654 0.0928,-0.67014 0.0937,-1 6e-5,-0.0206 1.6e-4,-0.0419 0,-0.0625 -0.003,-0.32829 -0.0336,-0.65059 -0.0937,-0.96875 -0.004,-0.0204 0.004,-0.0421 0,-0.0625 l 0,-0.0312 -5,-24.8125 c -0.0724,-0.3595 -0.16255,-0.71152 -0.25,-1.0625 -0.0129,-0.052 -0.018,-0.10446 -0.0312,-0.15625 -0.0775,-0.30219 -0.16088,-0.58066 -0.25,-0.875 -0.0289,-0.0961 -0.0636,-0.18606 -0.0937,-0.28125 -0.12645,-0.39984 -0.25738,-0.77418 -0.40625,-1.15625 -0.14236,-0.36536 -0.30518,-0.71625 -0.46875,-1.0625 -0.16603,-0.35145 -0.34264,-0.7024 -0.53125,-1.03125 -0.36607,-0.63829 -0.76362,-1.24431 -1.21875,-1.78125 -0.01,-0.0114 -0.0215,-0.0199 -0.0312,-0.0312 -0.2394,-0.27998 -0.48503,-0.53367 -0.75,-0.78125 -0.40219,-0.3758 -0.81793,-0.70776 -1.28125,-1 -0.0624,-0.0394 -0.12396,-0.0873 -0.1875,-0.125 -0.71008,-0.53566 -1.30448,-0.91892 -1.84375,-1.21875 l 0,-319.25 c 2.61128,-0.24931 5.08105,-0.62127 7.3125,-1.0625 2.32743,-0.45867 4.4328,-1.02619 6.21875,-1.65625 1.79266,-0.63577 3.29344,-1.35496 4.40625,-2.125 0.36353,-0.25125 0.68722,-0.51832 0.96875,-0.78125 0.14279,-0.13436 0.28573,-0.26915 0.40625,-0.40625 0.60225,-0.68472 0.9375,-1.41568 0.9375,-2.15625 0,-0.29899 -0.0527,-0.58173 -0.15625,-0.875 -0.1001,-0.2885 -0.27346,-0.56442 -0.46875,-0.84375 -0.0967,-0.13939 -0.19363,-0.26965 -0.3125,-0.40625 -0.12052,-0.1371 -0.26346,-0.27189 -0.40625,-0.40625 -0.0709,-0.0673 -0.11125,-0.1523 -0.1875,-0.21875 -1.6e-4,0.0208 4.7e-4,0.0418 0,0.0625 -1.14649,-1.01031 -2.89515,-1.94559 -5.15625,-2.75 l -1.90625,-1.21875 c 0.10914,-0.25534 0.1875,-0.51717 0.1875,-0.78125 0,-0.40464 -0.15418,-0.80461 -0.40625,-1.1875 1.16857,-0.26495 2.30325,-0.56805 3.34375,-0.875 4.98211,-1.4659 8.40485,-3.3795 9.5,-5.53125 0.0854,-0.16482 0.16113,-0.30137 0.21875,-0.46875 0.1152,-0.3346 0.1875,-0.68753 0.1875,-1.03125 0,-0.16762 -0.0344,-0.3338 -0.0625,-0.5 -0.009,-0.0495 -0.0203,-0.10692 -0.0312,-0.15625 -0.0389,-0.17496 -0.0872,-0.32734 -0.15625,-0.5 -0.0151,-0.0388 -0.0147,-0.0863 -0.0312,-0.125 -0.0351,-0.0791 -0.0838,-0.17149 -0.125,-0.25 -0.0722,-0.13946 -0.15836,-0.26875 -0.25,-0.40625 -0.0156,-0.0235 -0.0463,-0.0391 -0.0625,-0.0625 -0.93241,-1.34418 -2.77688,-2.60014 -5.34375,-3.6875 l -1.0313,-1.46875 c 0.0601,-0.21753 0.0937,-0.43411 0.0937,-0.65625 0,-0.58048 -0.19621,-1.14236 -0.59375,-1.6875 3.56645,-0.97301 6.55389,-2.128737 8.6875,-3.4375 0.2717,-0.167445 0.5365,-0.359412 0.78125,-0.53125 0.23751,-0.166556 0.47613,-0.329508 0.6875,-0.5 0.006,-0.0049 0.0253,0.0049 0.0312,0 1.51847,-1.230301 2.34375,-2.580559 2.34375,-3.96875 0,-0.199432 -0.0286,-0.396215 -0.0625,-0.59375 -0.007,-0.04321 -0.0223,-0.08192 -0.0312,-0.125 -0.0321,-0.152787 -0.073,-0.286148 -0.125,-0.4375 -0.0446,-0.130425 -0.0971,-0.277152 -0.15625,-0.40625 -0.0276,-0.06015 -0.063,-0.12763 -0.0937,-0.1875 -0.0581,-0.112832 -0.11847,-0.232024 -0.1875,-0.34375 -0.27981,-0.455496 -0.64126,-0.878537 -1.09375,-1.3125 -0.0506,-0.0483 -0.10358,-0.108221 -0.15625,-0.15625 -0.17645,-0.160944 -0.36329,-0.342735 -0.5625,-0.5 0,0.02088 2.3e-4,0.04167 0,0.0625 -1.54907,-1.231946 -3.77056,-2.384958 -6.5625,-3.375 -0.001,-0.04329 0.003,-0.08186 0,-0.125 0.82208,-0.250324 1.62609,-0.510941 2.375,-0.78125 3.80819,-1.375172 6.65152,-3.001977 8.1875,-4.78125 0.17076,-0.197692 0.3304,-0.392365 0.46875,-0.59375 0.14402,-0.209763 0.23584,-0.411518 0.34375,-0.625 0.1007,-0.196303 0.21191,-0.394525 0.28125,-0.59375 0.003,-0.0098 -0.003,-0.02146 0,-0.03125 0.0676,-0.198207 0.12046,-0.39289 0.15625,-0.59375 0.002,-0.01 -0.002,-0.02129 0,-0.03125 0.0359,-0.210911 0.0625,-0.411432 0.0625,-0.625 0,-0.214081 -0.0258,-0.412839 -0.0625,-0.625 -0.0254,-0.149358 -0.0507,-0.320836 -0.0937,-0.46875 -0.0184,-0.06215 -0.041,-0.125579 -0.0625,-0.1875 -0.0408,-0.119526 -0.10416,-0.225254 -0.15625,-0.34375 -0.037,-0.08323 -0.0825,-0.167266 -0.125,-0.25 -0.13895,-0.270879 -0.30308,-0.547701 -0.5,-0.8125 -0.10272,-0.13834 -0.19471,-0.269811 -0.3125,-0.40625 -0.0277,-0.03204 -0.0652,-0.06182 -0.0937,-0.09375 -0.14365,-0.160561 -0.30473,-0.342402 -0.46875,-0.5 -0.0103,-0.0099 -0.0209,-0.02138 -0.0312,-0.03125 -0.17597,-0.167542 -0.36416,-0.336155 -0.5625,-0.5 -1.87897,-1.547102 -4.81305,-2.934911 -8.46875,-4.125 -0.004,-0.01959 0.004,-0.04294 0,-0.0625 0.36504,-0.162444 0.75182,-0.331684 1.09375,-0.5 1.39178,-0.686703 2.58806,-1.414432 3.5625,-2.1875 1.44099,-1.135931 2.38428,-2.348887 2.78125,-3.625 0.003,-0.0097 -0.003,-0.02158 0,-0.03125 0.0623,-0.204691 0.1233,-0.417558 0.15625,-0.625 0.002,-0.01026 -0.001,-0.02099 0,-0.03125 0.0315,-0.207104 0.061,-0.415399 0.0625,-0.625 0,-0.01039 7e-5,-0.02087 0,-0.03125 0,-0.215063 -0.0309,-0.412997 -0.0625,-0.625 -0.001,-0.0098 0.002,-0.02146 0,-0.03125 -0.0332,-0.212321 -0.0922,-0.415888 -0.15625,-0.625 -0.003,-0.0092 0.003,-0.02202 0,-0.03125 -0.19602,-0.624946 -0.54117,-1.249855 -1,-1.84375 -0.0221,-0.02857 -0.0399,-0.06525 -0.0625,-0.09375 -0.0366,-0.04594 -0.0869,-0.07926 -0.125,-0.125 -0.12905,-0.15558 -0.26014,-0.315618 -0.40625,-0.46875 -0.16621,-0.172765 -0.34363,-0.361555 -0.53125,-0.53125 -0.0319,-0.02901 -0.0613,-0.06484 -0.0937,-0.09375 -0.18261,-0.16143 -0.39219,-0.310212 -0.59375,-0.46875 -1.87412,-1.476971 -4.565,-2.806909 -7.875,-3.9375 0,-0.715659 -0.46539,-1.660566 -1.34375,-2.71875 2.23384,-1.046223 3.375,-2.237352 3.375,-3.40625 0,-0.429169 -0.16939,-0.933984 -0.46875,-1.5 -0.11617,-0.223855 -0.27504,-0.479511 -0.4375,-0.71875 -0.0393,-0.05663 -0.0832,-0.130148 -0.125,-0.1875 -2.88216,-4.001152 -12.06516,-9.71875 -28.15625,-9.71875 -0.61889,0 -1.21318,-0.01656 -1.8125,0 z"
         id="path4655"
         inkscape:connector-curvature="0"
         sodipodi:nodetypes="cccsccccccccccccsscccccsccsccccccccccscsccsccccccccccsssssccsccccsssscccccccccccccccccccsscccscccccccccsccccccccsccccscccccccccscccccsccccccccccccccccccccsccccccccccccccccccccccccccccccccccscccssc" />
    </g>
    <g
       id="g4606"
       transform="translate(-218.04687,544.43757)">
      <path
         sodipodi:nodetypes="sssssssss"
         inkscape:connector-curvature="0"
         id="rect3016"
         d="m 365.61867,444.68362 12.85714,0 c 5.83678,0 8.84729,4.81334 10,10.53572 l 5,24.82143 c 1.15276,5.72266 -7.41103,13.39285 -14.08163,13.39285 l -14.69388,0 c -6.67061,0 -15.2344,-7.67019 -14.08163,-13.39285 l 5,-24.82143 c 1.15271,-5.72238 4.16321,-10.53572 10,-10.53572 z"
         style="color:#000000;fill:url(#linearGradient3793-8-6);fill-opacity:1;fill-rule:nonzero;stroke:none;stroke-width:1.49999988;marker:none;visibility:visible;display:inline;overflow:visible;enable-background:accumulate" />
      <path
         sodipodi:nodetypes="cscccc"
         inkscape:connector-curvature="0"
         clip-path="url(#clipPath4560)"
         id="path4549"
         d="m 384.4375,447 c -8.35418,-6.83534 -6.85957,-2.43046 -5.83836,19.99619 0.36061,7.91953 1.03014,14.48417 1.61961,26.37881 6.52877,-0.58274 14.35592,-7.85361 13.25,-13.34375 l -5,-24.8125 C 387.80487,451.92304 386.51886,448.94679 384.4375,447 z"
         style="color:#000000;fill:url(#linearGradient4649);fill-opacity:1;fill-rule:nonzero;stroke:none;stroke-width:1.49999988;marker:none;visibility:visible;display:inline;overflow:visible;filter:url(#filter4574);enable-background:accumulate" />
      <path
         sodipodi:nodetypes="ccsccc"
         inkscape:connector-curvature="0"
         id="rect3012"
         d="m 362.96875,118.96875 0.005,328.42187 c 0,0 0.046,2.91934 7.36964,3.17188 6.86588,0.23676 10.18566,-0.86369 10.78125,-2.25 l 0,-329.34375 z"
         style="color:#000000;fill:url(#linearGradient3793-8);fill-opacity:1;fill-rule:nonzero;stroke:none;stroke-width:1.49999988;marker:none;visibility:visible;display:inline;overflow:visible;enable-background:accumulate" />
      <path
         d="m 128.16311,50.543396 c 0,7.043384 -17.12938,12.753176 -38.25953,12.753176 -21.130155,0 -38.259529,-5.709792 -38.259529,-12.753176 0,-7.043384 17.129374,-12.753176 38.259529,-12.753176 21.13015,0 38.25953,5.709792 38.25953,12.753176 z"
         sodipodi:ry="12.753176"
         sodipodi:rx="38.259529"
         sodipodi:cy="50.543396"
         sodipodi:cx="89.90358"
         id="path3010"
         style="color:#000000;fill:url(#linearGradient3793-22);fill-opacity:1;fill-rule:nonzero;stroke:none;stroke-width:2.08874607;marker:none;visibility:visible;display:inline;overflow:visible;enable-background:accumulate"
         sodipodi:type="arc"
         transform="matrix(0.76638426,0,0,0.6729217,303.14655,83.201716)" />
      <path
         style="color:#000000;fill:#ffffff;fill-opacity:1;stroke:none;stroke-width:1.5;marker:none;visibility:visible;display:inline;overflow:visible;filter:url(#filter4154);enable-background:accumulate"
         d="m 368.46973,110.88069 c 0,0 -4.82143,-1.51785 -12.14286,0.44643 -7.32143,1.96429 -9.10714,4.46429 -9.10714,4.46429 0,0 -0.17858,3.57143 7.94642,1.42857 8.125,-2.14286 12.14286,-4.10714 12.94643,-5.44643 0.80357,-1.33928 0.35715,-0.89286 0.35715,-0.89286 z"
         id="path4164"
         inkscape:connector-curvature="0" />
      <path
         d="m 128.16311,50.543396 c 0,7.043384 -17.12938,12.753176 -38.25953,12.753176 -21.130155,0 -38.259529,-5.709792 -38.259529,-12.753176 0,-7.043384 17.129374,-12.753176 38.259529,-12.753176 21.13015,0 38.25953,5.709792 38.25953,12.753176 z"
         sodipodi:ry="12.753176"
         sodipodi:rx="38.259529"
         sodipodi:cy="50.543396"
         sodipodi:cx="89.90358"
         id="path3944"
         style="color:#000000;fill:url(#linearGradient3946);fill-opacity:1;fill-rule:nonzero;stroke:none;stroke-width:1.80724466;marker:none;visibility:visible;display:inline;overflow:visible;enable-background:accumulate"
         sodipodi:type="arc"
         transform="matrix(0.54664562,0,0,0.48378077,322.90185,85.311666)" />
      <path
         transform="matrix(0.88227282,0,0,0.78081048,292.72776,61.207403)"
         sodipodi:type="arc"
         style="color:#000000;fill:url(#linearGradient3793-2);fill-opacity:1;fill-rule:nonzero;stroke:none;stroke-width:1.80724466;marker:none;visibility:visible;display:inline;overflow:visible;enable-background:accumulate"
         id="path3008"
         sodipodi:cx="89.90358"
         sodipodi:cy="50.543396"
         sodipodi:rx="38.259529"
         sodipodi:ry="12.753176"
         d="m 128.16311,50.543396 c 0,7.043384 -17.12938,12.753176 -38.25953,12.753176 -21.130155,0 -38.259529,-5.709792 -38.259529,-12.753176 0,-7.043384 17.129374,-12.753176 38.259529,-12.753176 21.13015,0 38.25953,5.709792 38.25953,12.753176 z" />
      <path
         inkscape:connector-curvature="0"
         id="path4162"
         d="m 364.19689,95.475868 c 0,0 -4.82143,-1.517857 -12.14286,0.446429 -7.32143,1.964285 -9.10714,4.464283 -9.10714,4.464283 0,0 -0.17858,3.57143 7.94642,1.42857 8.125,-2.142853 12.14286,-4.107139 12.94643,-5.446425 0.80357,-1.339286 0.35715,-0.892857 0.35715,-0.892857 z"
         style="color:#000000;fill:#ffffff;fill-opacity:1;stroke:none;stroke-width:1.5;marker:none;visibility:visible;display:inline;overflow:visible;filter:url(#filter4154);enable-background:accumulate" />
      <path
         transform="matrix(0.70017389,0,0,0.62376156,309.0991,61.336813)"
         sodipodi:type="arc"
         style="color:#000000;fill:url(#linearGradient3942);fill-opacity:1;fill-rule:nonzero;stroke:none;stroke-width:1.5713681;marker:none;visibility:visible;display:inline;overflow:visible;enable-background:accumulate"
         id="path3940"
         sodipodi:cx="89.90358"
         sodipodi:cy="50.543396"
         sodipodi:rx="38.259529"
         sodipodi:ry="12.753176"
         d="m 128.16311,50.543396 c 0,7.043384 -17.12938,12.753176 -38.25953,12.753176 -21.130155,0 -38.259529,-5.709792 -38.259529,-12.753176 0,-7.043384 17.129374,-12.753176 38.259529,-12.753176 21.13015,0 38.25953,5.709792 38.25953,12.753176 z" />
      <path
         d="m 128.16311,50.543396 c 0,7.043384 -17.12938,12.753176 -38.25953,12.753176 -21.130155,0 -38.259529,-5.709792 -38.259529,-12.753176 0,-7.043384 17.129374,-12.753176 38.259529,-12.753176 21.13015,0 38.25953,5.709792 38.25953,12.753176 z"
         sodipodi:ry="12.753176"
         sodipodi:rx="38.259529"
         sodipodi:cy="50.543396"
         sodipodi:cx="89.90358"
         id="path3006"
         style="color:#000000;fill:url(#linearGradient3894);fill-opacity:1;fill-rule:nonzero;stroke:none;stroke-width:1.5713681;marker:none;visibility:visible;display:inline;overflow:visible;enable-background:accumulate"
         sodipodi:type="arc"
         transform="matrix(1.0113627,0,0,0.90098929,281.12211,37.202951)" />
      <path
         style="color:#000000;fill:#e9c6af;stroke:none;stroke-width:1.5;marker:none;visibility:visible;display:inline;overflow:visible;filter:url(#filter4154);enable-background:accumulate"
         d="m 360.64105,77.54566 c 0,0 -4.82143,-1.517857 -12.14286,0.446429 -7.32143,1.964285 -9.10714,4.464285 -9.10714,4.464285 0,0 -0.17858,3.571429 7.94642,1.428572 8.125,-2.142857 12.14286,-4.107143 12.94643,-5.446429 0.80357,-1.339286 0.35715,-0.892857 0.35715,-0.892857 z"
         id="path4160"
         inkscape:connector-curvature="0" />
      <path
         d="m 128.16311,50.543396 c 0,7.043384 -17.12938,12.753176 -38.25953,12.753176 -21.130155,0 -38.259529,-5.709792 -38.259529,-12.753176 0,-7.043384 17.129374,-12.753176 38.259529,-12.753176 21.13015,0 38.25953,5.709792 38.25953,12.753176 z"
         sodipodi:ry="12.753176"
         sodipodi:rx="38.259529"
         sodipodi:cy="50.543396"
         sodipodi:cx="89.90358"
         id="path3936"
         style="color:#000000;fill:url(#linearGradient3938);fill-opacity:1;fill-rule:nonzero;stroke:none;stroke-width:1.4613775;marker:none;visibility:visible;display:inline;overflow:visible;enable-background:accumulate"
         sodipodi:type="arc"
         transform="matrix(0.77557731,0,0,0.69306849,302.32006,40.408673)" />
      <path
         transform="matrix(1.0858086,0,0,0.97029622,274.42916,17.537502)"
         sodipodi:type="arc"
         style="color:#000000;fill:url(#linearGradient3892);fill-opacity:1;fill-rule:nonzero;stroke:none;stroke-width:1.4613775;marker:none;visibility:visible;display:inline;overflow:visible;enable-background:accumulate"
         id="path3004"
         sodipodi:cx="89.90358"
         sodipodi:cy="50.543396"
         sodipodi:rx="38.259529"
         sodipodi:ry="12.753176"
         d="m 128.16311,50.543396 c 0,7.043384 -17.12938,12.753176 -38.25953,12.753176 -21.130155,0 -38.259529,-5.709792 -38.259529,-12.753176 0,-7.043384 17.129374,-12.753176 38.259529,-12.753176 21.13015,0 38.25953,5.709792 38.25953,12.753176 z" />
      <path
         inkscape:connector-curvature="0"
         id="path4158"
         d="m 357.61059,61.383219 c 0,0 -4.82143,-1.517857 -12.14286,0.446429 -7.32143,1.964285 -9.10714,4.464285 -9.10714,4.464285 0,0 -0.17858,3.571429 7.94642,1.428572 8.125,-2.142857 12.14286,-4.107143 12.94643,-5.446429 0.80357,-1.339286 0.35715,-0.892857 0.35715,-0.892857 z"
         style="color:#000000;fill:#e9c6af;stroke:none;stroke-width:1.5;marker:none;visibility:visible;display:inline;overflow:visible;filter:url(#filter4154);enable-background:accumulate" />
      <path
         sodipodi:type="arc"
         style="color:#000000;fill:url(#linearGradient3934);fill-opacity:1;fill-rule:nonzero;stroke:none;stroke-width:1.49999988;marker:none;visibility:visible;display:inline;overflow:visible;enable-background:accumulate"
         id="path3932"
         sodipodi:cx="89.90358"
         sodipodi:cy="50.543396"
         sodipodi:rx="38.259529"
         sodipodi:ry="12.753176"
         d="m 128.16311,50.543396 c 0,7.043384 -17.12938,12.753176 -38.25953,12.753176 -21.130155,0 -38.259529,-5.709792 -38.259529,-12.753176 0,-7.043384 17.129374,-12.753176 38.259529,-12.753176 21.13015,0 38.25953,5.709792 38.25953,12.753176 z"
         transform="matrix(0.8019802,0,0,0.8019802,299.94635,18.342352)" />
      <path
         transform="translate(282.14366,0)"
         d="m 128.16311,50.543396 c 0,7.043384 -17.12938,12.753176 -38.25953,12.753176 -21.130155,0 -38.259529,-5.709792 -38.259529,-12.753176 0,-7.043384 17.129374,-12.753176 38.259529,-12.753176 21.13015,0 38.25953,5.709792 38.25953,12.753176 z"
         sodipodi:ry="12.753176"
         sodipodi:rx="38.259529"
         sodipodi:cy="50.543396"
         sodipodi:cx="89.90358"
         id="path3002"
         style="color:#000000;fill:url(#linearGradient3793-1);fill-opacity:1;fill-rule:nonzero;stroke:none;stroke-width:1.49999988;marker:none;visibility:visible;display:inline;overflow:visible;enable-background:accumulate"
         sodipodi:type="arc" />
      <path
         style="color:#000000;fill:#e9c6af;stroke:none;stroke-width:1.5;marker:none;visibility:visible;display:inline;overflow:visible;filter:url(#filter4154);enable-background:accumulate"
         d="m 359.6512,44.695397 c 0,0 -4.82143,-1.517857 -12.14286,0.446429 -7.32143,1.964285 -9.10714,4.464285 -9.10714,4.464285 0,0 -0.17858,3.571429 7.94642,1.428572 8.125,-2.142857 12.14286,-4.107143 12.94643,-5.446429 0.80357,-1.339286 0.35715,-0.892857 0.35715,-0.892857 z"
         id="path4144"
         inkscape:connector-curvature="0" />
      <path
         style="color:#000000;fill:url(#linearGradient3930);fill-opacity:1;stroke:none;stroke-width:1.49999988;marker:none;visibility:visible;display:inline;overflow:visible;enable-background:accumulate"
         d="m 399.40193,41.658265 c 0,3.208402 -8.92106,6.485308 -27.36341,6.485308 -18.44234,0 -27.34597,-3.276906 -27.34597,-6.485308 0,-3.2084 9.11104,-11.307714 27.55338,-11.307714 18.44234,0 27.156,8.099314 27.156,11.307714 z"
         id="path3928"
         inkscape:connector-curvature="0"
         sodipodi:nodetypes="sssss" />
      <path
         sodipodi:nodetypes="sssss"
         inkscape:connector-curvature="0"
         id="path2999"
         d="m 401.42224,35.522894 c 0,3.445361 -9.57994,6.964286 -29.38436,6.964286 -19.80442,0 -29.36564,-3.518925 -29.36564,-6.964286 0,-3.44536 9.78395,-12.142856 29.58836,-12.142856 19.80442,0 29.16164,8.697496 29.16164,12.142856 z"
         style="color:#000000;fill:url(#linearGradient3793);fill-opacity:1;stroke:none;stroke-width:1.49999988;marker:none;visibility:visible;display:inline;overflow:visible;enable-background:accumulate" />
      <path
         inkscape:connector-curvature="0"
         id="path3948"
         d="m 373.03572,25.755037 c 0,0 -4.82143,-1.517857 -12.14286,0.446429 -7.32143,1.964285 -9.10714,4.464285 -9.10714,4.464285 0,0 -0.17858,3.571429 7.94642,1.428572 8.125,-2.142857 12.14286,-4.107143 12.94643,-5.446429 0.80357,-1.339286 0.35715,-0.892857 0.35715,-0.892857 z"
         style="color:#000000;fill:#e9c6af;stroke:none;stroke-width:1.5;marker:none;visibility:visible;display:inline;overflow:visible;filter:url(#filter3954);enable-background:accumulate" />
      <g
         clip-path="url(#clipPath4100)"
         style="filter:url(#filter4080)"
         id="g4045">
        <path
           style="color:#000000;fill:#4b342f;fill-opacity:1;stroke:none;stroke-width:1.49999988;marker:none;visibility:visible;display:inline;overflow:visible;enable-background:accumulate"
           d="m 399.84375,32.40625 c 0.022,0.167887 0.0312,0.329125 0.0312,0.5 0,1.465898 -1.00757,2.682823 -2.40625,3.625 -1.39868,0.942177 -3.31788,1.726859 -5.84375,2.40625 -5.05173,1.358782 -12.48935,2.25 -22.46875,2.25 -9.9794,0 -17.4006,-0.890851 -22.4375,-2.25 -0.52924,-0.14281 -1.0221,-0.284984 -1.5,-0.4375 4.02369,2.236414 12.86233,4 26.8125,4 19.80442,0 29.40625,-3.523389 29.40625,-6.96875 0,-0.810507 -0.54389,-1.914786 -1.59375,-3.125 z"
           id="path3962"
           inkscape:connector-curvature="0" />
        <path
           style="color:#000000;fill:#4b342f;fill-opacity:1;fill-rule:nonzero;stroke:none;stroke-width:1.49999988;marker:none;visibility:visible;display:inline;overflow:visible;enable-background:accumulate"
           d="M 407.15625,45.46875 C 407.55083,46.270842 407.75,47.116854 407.75,48 c 0,2.171505 -1.29881,4.113347 -3.375,5.75 -2.07619,1.636653 -4.96598,3.040745 -8.5,4.21875 -7.06803,2.35601 -16.71867,3.78125 -27.375,3.78125 -10.65634,0 -20.30697,-1.42524 -27.375,-3.78125 -0.28563,-0.09521 -0.53537,-0.183081 -0.8125,-0.28125 6.87551,3.392367 18.54365,5.59375 31.75,5.59375 21.13015,0 38.25,-5.706616 38.25,-12.75 0,-1.805716 -1.12579,-3.505827 -3.15625,-5.0625 z"
           id="path3975"
           inkscape:connector-curvature="0" />
        <path
           style="color:#000000;fill:#4b342f;fill-opacity:1;fill-rule:nonzero;stroke:none;stroke-width:1.4613775;marker:none;visibility:visible;display:inline;overflow:visible;enable-background:accumulate"
           d="m 411.125,62.375 c 0.13156,0.456332 0.21875,0.925128 0.21875,1.40625 0,2.272401 -1.52584,4.273432 -3.84375,5.90625 -2.31791,1.632818 -5.50466,3.003382 -9.375,4.15625 -7.7407,2.305736 -18.26313,3.71875 -29.875,3.71875 -11.49304,0 -21.8764,-1.39264 -29.59375,-3.65625 7.56619,3.049742 19.69831,5.0625 33.40625,5.0625 22.9433,0 41.53125,-5.540831 41.53125,-12.375 0,-1.473671 -0.88204,-2.907987 -2.46875,-4.21875 z"
           id="path3993"
           inkscape:connector-curvature="0" />
        <path
           style="color:#000000;fill:#4b342f;fill-opacity:1;fill-rule:nonzero;stroke:none;stroke-width:1.5713681;marker:none;visibility:visible;display:inline;overflow:visible;enable-background:accumulate"
           d="m 408.28125,78.6875 c 0,2.613437 -1.77196,4.816284 -4.125,6.46875 -2.35304,1.652466 -5.45027,2.961991 -9.15625,4.0625 -7.41194,2.201019 -17.30871,3.5 -28.25,3.5 -8.73769,0 -16.79566,-0.828772 -23.46875,-2.28125 7.0836,2.341265 17.34789,3.78125 28.78125,3.78125 21.37025,0 38.6875,-5.122736 38.6875,-11.46875 0,-1.423558 -0.87511,-2.804376 -2.46875,-4.0625 z"
           id="path4006"
           inkscape:connector-curvature="0" />
        <path
           style="color:#000000;fill:#4b342f;fill-opacity:1;fill-rule:nonzero;stroke:none;stroke-width:1.80724466;marker:none;visibility:visible;display:inline;overflow:visible;enable-background:accumulate"
           d="m 404.6875,98.125 c -0.29989,2.11718 -1.81318,3.88934 -3.71875,5.21875 -2.12569,1.48297 -4.88532,2.62883 -8.15625,3.59375 C 386.27064,108.86735 377.59197,110 368,110 c -4.69016,0 -9.13925,-0.2819 -13.25,-0.78125 5.06601,0.8959 10.97615,1.40625 17.3125,1.40625 18.64256,0 33.75,-4.43795 33.75,-9.9375 0,-0.882219 -0.39501,-1.747978 -1.125,-2.5625 z"
           id="path4019"
           inkscape:connector-curvature="0" />
        <path
           style="color:#000000;fill:#4b342f;fill-opacity:1;fill-rule:nonzero;stroke:none;stroke-width:2.08874607;marker:none;visibility:visible;display:inline;overflow:visible;enable-background:accumulate"
           d="m 399.84375,114.46875 c -0.0142,1.84327 -1.26396,3.39213 -3,4.59375 -1.74588,1.20843 -4.08607,2.18373 -6.875,3 -5.57787,1.63254 -13.07679,2.59375 -21.34375,2.59375 -7.44381,0 -14.23786,-0.77574 -19.59375,-2.125 5.36992,1.98933 13.69659,3.25 23.03125,3.25 16.19382,0 29.3125,-3.82285 29.3125,-8.5625 0,-0.95587 -0.5459,-1.89129 -1.53125,-2.75 z"
           id="path4032"
           inkscape:connector-curvature="0" />
      </g>
      <g
         style="opacity:0.78318583"
         clip-path="url(#clipPath4257)"
         id="g4213">
        <path
           inkscape:connector-curvature="0"
           id="path4201"
           d="m 345.04018,61.93012 c -0.34119,0.588314 -0.53125,1.123839 -0.53125,1.5625 0,3.208402 8.90141,6.5 27.34375,6.5 18.44235,0 27.375,-3.291598 27.375,-6.5 0,-0.438661 -0.17163,-0.974186 -0.5,-1.5625 -2.08001,2.742295 -10.90421,5.1875 -26.875,5.1875 -15.94089,0 -24.7147,-2.451409 -26.8125,-5.1875 z"
           style="opacity:0.77433627;color:#000000;fill:#4b342f;fill-opacity:1;fill-rule:nonzero;stroke:none;stroke-width:1.49999988;marker:none;visibility:visible;display:inline;overflow:visible;filter:url(#filter4207);enable-background:accumulate"
           transform="matrix(1.0225345,0,0,1.0225345,-8.3798837,29.575781)" />
        <path
           transform="matrix(1.0950594,0,0,1.0950594,-35.349574,8.6295026)"
           style="color:#000000;fill:#4b342f;fill-opacity:1;fill-rule:nonzero;stroke:none;stroke-width:1.49999988;marker:none;visibility:visible;display:inline;overflow:visible;filter:url(#filter4197);enable-background:accumulate"
           d="m 345.04018,61.93012 c -0.34119,0.588314 -0.53125,1.123839 -0.53125,1.5625 0,3.208402 8.90141,6.5 27.34375,6.5 18.44235,0 27.375,-3.291598 27.375,-6.5 0,-0.438661 -0.17163,-0.974186 -0.5,-1.5625 -2.08001,2.742295 -10.90421,5.1875 -26.875,5.1875 -15.94089,0 -24.7147,-2.451409 -26.8125,-5.1875 z"
           id="path4195"
           inkscape:connector-curvature="0" />
        <path
           inkscape:connector-curvature="0"
           id="path4193"
           d="m 345.04018,61.93012 c -0.34119,0.588314 -0.53125,1.123839 -0.53125,1.5625 0,3.208402 8.90141,6.5 27.34375,6.5 18.44235,0 27.375,-3.291598 27.375,-6.5 0,-0.438661 -0.17163,-0.974186 -0.5,-1.5625 -2.08001,2.742295 -10.90421,5.1875 -26.875,5.1875 -15.94089,0 -24.7147,-2.451409 -26.8125,-5.1875 z"
           style="color:#000000;fill:#4b342f;fill-opacity:1;fill-rule:nonzero;stroke:none;stroke-width:1.49999988;marker:none;visibility:visible;display:inline;overflow:visible;filter:url(#filter4189);enable-background:accumulate"
           transform="matrix(1.0950594,0,0,1.0950594,-35.349574,-6.2702475)" />
        <path
           style="color:#000000;fill:#4b342f;fill-opacity:1;fill-rule:nonzero;stroke:none;stroke-width:1.49999988;marker:none;visibility:visible;display:inline;overflow:visible;filter:url(#filter4189);enable-background:accumulate"
           d="m 345.04018,42.232145 c -0.34119,0.588314 -0.53125,1.123839 -0.53125,1.5625 0,3.208402 8.90141,6.5 27.34375,6.5 18.44235,0 27.375,-3.291598 27.375,-6.5 0,-0.438661 -0.17163,-0.974186 -0.5,-1.5625 -2.08001,2.742295 -10.90421,5.1875 -26.875,5.1875 -15.94089,0 -24.7147,-2.451409 -26.8125,-5.1875 z"
           id="path4166"
           inkscape:connector-curvature="0" />
        <path
           transform="matrix(0.86197301,0,0,0.86197301,51.327845,55.571463)"
           style="opacity:0.77433627;color:#000000;fill:#4b342f;fill-opacity:1;fill-rule:nonzero;stroke:none;stroke-width:1.49999988;marker:none;visibility:visible;display:inline;overflow:visible;filter:url(#filter4207);enable-background:accumulate"
           d="m 345.04018,61.93012 c -0.34119,0.588314 -0.53125,1.123839 -0.53125,1.5625 0,3.208402 8.90141,6.5 27.34375,6.5 18.44235,0 27.375,-3.291598 27.375,-6.5 0,-0.438661 -0.17163,-0.974186 -0.5,-1.5625 -2.08001,2.742295 -10.90421,5.1875 -26.875,5.1875 -15.94089,0 -24.7147,-2.451409 -26.8125,-5.1875 z"
           id="path4211"
           inkscape:connector-curvature="0" />
      </g>
      <g
         clip-path="url(#clipPath4449)"
         style="filter:url(#filter4408)"
         id="g4392">
        <path
           style="color:#000000;fill:url(#linearGradient4291-7);fill-opacity:1;fill-rule:nonzero;stroke:none;stroke-width:1.49999988;marker:none;visibility:visible;display:inline;overflow:visible;enable-background:accumulate"
           d="m 337.1875,45.28125 c -1.10634,0.813295 -1.98332,1.671627 -2.5625,2.5625 a 1.3890987,1.4485454 1.5174353 0 1 0.40625,0.46875 c 0.58741,1.007461 1.54288,1.976265 2.78125,2.8125 2.13321,1.4405 5.12641,2.660084 8.8125,3.625 7.36446,1.927817 17.44569,2.83876 28.46875,2.25 0.86936,-0.04643 1.70786,-0.124279 2.5625,-0.1875 -0.4392,0.0048 -0.86974,0.03125 -1.3125,0.03125 -10.70923,0 -20.40939,-1.428129 -27.5625,-3.8125 -3.57656,-1.192186 -6.52957,-2.611407 -8.6875,-4.3125 -1.27401,-1.004299 -2.2825,-2.17119 -2.90625,-3.4375 z"
           id="path4263"
           inkscape:connector-curvature="0" />
        <path
           id="path4275"
           d="m 334.5005,61.174107 c -1.1798,0.947588 -2.11501,1.94765 -2.73264,2.985626 a 1.4813601,1.687699 0.486175 0 1 0.43322,0.546151 c 0.62641,1.173816 1.64532,2.302591 2.96592,3.276907 2.27485,1.678359 5.46679,3.099323 9.39762,4.223569 7.85344,2.246142 18.60403,3.307502 30.35899,2.621525 0.92708,-0.0541 1.82125,-0.1448 2.73264,-0.21846 -0.46836,0.0056 -0.92749,0.03641 -1.39965,0.03641 -11.42029,0 -21.76451,-1.663945 -29.39256,-4.442029 -3.81403,-1.389043 -6.96311,-3.042609 -9.26432,-5.024591 -1.35861,-1.170131 -2.43406,-2.529702 -3.09922,-4.005108 z"
           style="color:#000000;fill:url(#linearGradient4358);fill-opacity:1;fill-rule:nonzero;stroke:none;stroke-width:1.49999988;marker:none;visibility:visible;display:inline;overflow:visible;enable-background:accumulate"
           inkscape:connector-curvature="0" />
        <path
           inkscape:connector-curvature="0"
           style="color:#000000;fill:url(#linearGradient4366);fill-opacity:1;fill-rule:nonzero;stroke:none;stroke-width:1.49999988;marker:none;visibility:visible;display:inline;overflow:visible;enable-background:accumulate"
           d="m 336.68369,78.138393 c -1.12012,0.788877 -2.00802,1.621441 -2.5944,2.485568 a 1.404012,1.4074388 57.222448 0 1 0.4113,0.454677 c 0.59472,0.977215 1.56209,1.916933 2.81588,2.728062 2.15977,1.397253 5.19023,2.580222 8.92221,3.51617 7.45614,1.869939 17.66288,2.753533 28.82317,2.18245 0.88018,-0.04504 1.72912,-0.120548 2.5944,-0.181871 -0.44467,0.0047 -0.88057,0.03031 -1.32884,0.03031 -10.84256,0 -20.66348,-1.385253 -27.90564,-3.69804 -3.62108,-1.156394 -6.61085,-2.533007 -8.79565,-4.18303 -1.28988,-0.974147 -2.31092,-2.106006 -2.94243,-3.334298 z"
           id="path4277" />
        <path
           id="path4279"
           d="m 341.0288,96.352677 c -0.99157,0.666793 -1.77757,1.370511 -2.29665,2.100909 a 1.1875482,1.2450555 88.655594 0 1 0.3641,0.384312 c 0.52646,0.825985 1.38281,1.620272 2.49271,2.305882 1.9119,1.18101 4.59457,2.18091 7.89824,2.97201 6.60043,1.58055 15.63579,2.3274 25.51526,1.8447 0.77916,-0.038 1.53067,-0.10189 2.29665,-0.15373 -0.39364,0.004 -0.77951,0.0256 -1.17633,0.0256 -9.59821,0 -18.29202,-1.17087 -24.70303,-3.12574 -3.2055,-0.97743 -5.85215,-2.141 -7.78621,-3.535672 -1.14184,-0.82339 -2.0457,-1.780086 -2.60474,-2.818291 z"
           style="color:#000000;fill:url(#linearGradient4374);fill-opacity:1;fill-rule:nonzero;stroke:none;stroke-width:1.49999988;marker:none;visibility:visible;display:inline;overflow:visible;enable-background:accumulate"
           inkscape:connector-curvature="0" />
        <path
           inkscape:connector-curvature="0"
           style="color:#000000;fill:url(#linearGradient4382);fill-opacity:1;fill-rule:nonzero;stroke:none;stroke-width:1.49999988;marker:none;visibility:visible;display:inline;overflow:visible;enable-background:accumulate"
           d="m 346.00533,113.31696 c -0.90434,0.54471 -1.6212,1.11958 -2.09461,1.71625 a 0.97013553,1.1355034 89.597723 0 1 0.33207,0.31394 c 0.48014,0.67476 1.26116,1.32362 2.27342,1.8837 1.7437,0.96478 4.19037,1.78161 7.2034,2.42786 6.01977,1.29117 14.26026,1.90128 23.27061,1.50695 0.71061,-0.031 1.39601,-0.0832 2.0946,-0.12558 -0.35901,0.003 -0.71093,0.0209 -1.07284,0.0209 -8.75383,0 -16.68281,-0.95649 -22.52983,-2.55344 -2.9235,-0.79847 -5.33732,-1.749 -7.10123,-2.88833 -1.04139,-0.67263 -1.86573,-1.45416 -2.37559,-2.30228 z"
           id="path4281" />
        <path
           id="path4283"
           d="m 346.27117,30.102679 c -1.01911,0.520292 -1.82695,1.069395 -2.36046,1.639316 a 0.92665142,1.279616 89.806386 0 1 0.37422,0.299875 c 0.54109,0.644506 1.42123,1.264282 2.56196,1.799249 1.96501,0.921535 4.72221,1.701744 8.11766,2.319032 6.7838,1.233288 16.07016,1.816049 26.2241,1.439399 0.80081,-0.0297 1.5732,-0.0795 2.36045,-0.119949 -0.40457,0.0031 -0.80116,0.01999 -1.20901,0.01999 -9.86485,0 -18.80019,-0.913621 -25.3893,-2.438982 -3.29456,-0.762681 -6.01474,-1.670603 -8.00252,-2.758849 -1.17356,-0.642483 -2.10253,-1.388982 -2.6771,-2.199082 z"
           style="color:#000000;fill:url(#linearGradient4291);fill-opacity:1;fill-rule:nonzero;stroke:none;stroke-width:1.49999988;marker:none;visibility:visible;display:inline;overflow:visible;enable-background:accumulate"
           inkscape:connector-curvature="0" />
      </g>
      <path
         sodipodi:nodetypes="csssssssc"
         inkscape:connector-curvature="0"
         id="path4578"
         d="m 362.9375,446.23718 c 0,0 0.75,3.5625 6.875,3.4375 6.125,-0.125 8.6875,-0.5 9.8125,-1.25 1.125,-0.75 0.625,-3.9375 1.3125,-3.125 0.6875,0.8125 0.9375,2.3125 0.5625,3.3125 -0.375,1 -1.625,1.9375 -3.5,2.1875 -1.875,0.25 -10.75,0.625 -12.125,-0.0625 -1.375,-0.6875 -2.8125,-0.9375 -2.9375,-2.125 -0.125,-1.1875 0,-2.375 0,-2.375 z"
         style="color:#000000;fill:#533c34;fill-opacity:1;stroke:none;stroke-width:1.5;marker:none;visibility:visible;display:inline;overflow:visible;filter:url(#filter4592);enable-background:accumulate" />
    </g>
  </g>
</svg>
