<?xml version="1.0" encoding="UTF-8" standalone="no"?>
<!-- Created with Inkscape (http://www.inkscape.org/) -->

<svg
   xmlns:dc="http://purl.org/dc/elements/1.1/"
   xmlns:cc="http://creativecommons.org/ns#"
   xmlns:rdf="http://www.w3.org/1999/02/22-rdf-syntax-ns#"
   xmlns:svg="http://www.w3.org/2000/svg"
   xmlns="http://www.w3.org/2000/svg"
   xmlns:sodipodi="http://sodipodi.sourceforge.net/DTD/sodipodi-0.dtd"
   xmlns:inkscape="http://www.inkscape.org/namespaces/inkscape"
   width="500.93698"
   height="504.05521"
   id="svg2"
   version="1.1"
   inkscape:version="0.48.4 r9939"
   sodipodi:docname="Awesome Cyborg.svg">
  <defs
     id="defs4">
    <style
       type="text/css"
       id="style3955">.str0 {stroke:black;stroke-width:0.238063}
    .fil0 {fill:black}
    .fil2 {fill:#050707}
    .fil3 {fill:#881846}
    .fil5 {fill:#F6BCD6}
    .fil1 {fill:#F9DD56}
    .fil4 {fill:#FDFCFD}</style>
    <style
       type="text/css"
       id="style3110">.str0 {stroke:black;stroke-width:0.238063}
    .fil0 {fill:black}
    .fil2 {fill:#050707}
    .fil3 {fill:#881846}
    .fil5 {fill:#F6BCD6}
    .fil1 {fill:#F9DD56}
    .fil4 {fill:#FDFCFD}</style>
  </defs>
  <sodipodi:namedview
     id="base"
     pagecolor="#ffffff"
     bordercolor="#666666"
     borderopacity="1.0"
     inkscape:pageopacity="0.0"
     inkscape:pageshadow="2"
     inkscape:zoom="0.0625"
     inkscape:cx="-4286.8048"
     inkscape:cy="-2575.9279"
     inkscape:document-units="px"
     inkscape:current-layer="layer1"
     showgrid="false"
     inkscape:window-width="1920"
     inkscape:window-height="1200"
     inkscape:window-x="0"
     inkscape:window-y="0"
     inkscape:window-maximized="0"
     fit-margin-top="0"
     fit-margin-left="0"
     fit-margin-right="0"
     fit-margin-bottom="0" />
  <metadata
     id="metadata7">
    <rdf:RDF>
      <cc:Work
         rdf:about="">
        <dc:format>image/svg+xml</dc:format>
        <dc:type
           rdf:resource="http://purl.org/dc/dcmitype/StillImage" />
        <dc:title></dc:title>
      </cc:Work>
    </rdf:RDF>
  </metadata>
  <g
     inkscape:label="Layer 1"
     inkscape:groupmode="layer"
     id="layer1"
     transform="translate(1127.3309,3141.7933)">
    <g
       id="g3216">
      <circle
         transform="matrix(1.5439,0,0,1.5439,-1127.3309,-3137.7205)"
         style="fill:#000000;stroke:#000000;stroke-width:0.23806299"
         sodipodi:ry="161.8"
         sodipodi:rx="161.8"
         sodipodi:cy="161.92"
         sodipodi:cx="161.92"
         id="circle3959"
         r="161.8"
         d="m 323.72,161.92 c 0,89.35967 -72.44033,161.8 -161.8,161.8 C 72.560324,323.72 0.11999512,251.27967 0.11999512,161.92 0.11999512,72.560324 72.560324,0.11999512 161.92,0.11999512 c 89.35967,0 161.8,72.44032888 161.8,161.80000488 z"
         cy="161.92"
         cx="161.92"
         class="fil0 str0" />
      <circle
         transform="matrix(1.5439,0,0,1.5439,-1127.3309,-3137.7205)"
         style="fill:#f9dd56;stroke:#000000;stroke-width:0.23806299"
         sodipodi:ry="147.48"
         sodipodi:rx="147.48"
         sodipodi:cy="161.92"
         sodipodi:cx="161.92"
         id="circle3961"
         r="147.48"
         d="m 309.39999,161.92 c 0,81.45095 -66.02904,147.47999 -147.47999,147.47999 -81.450954,0 -147.479998,-66.02904 -147.479998,-147.47999 0,-81.450954 66.029044,-147.479998 147.479998,-147.479998 81.45095,0 147.47999,66.029044 147.47999,147.479998 z"
         cy="161.92"
         cx="161.92"
         class="fil1 str0" />
      <path
         style="fill:#050707"
         inkscape:connector-curvature="0"
         id="path3963"
         d="m -1063.8411,-2850.6169 h 17.4368 c 17.3118,254.8053 384.40023,179.3703 308.33228,-14.1007 h -325.77838 v 14.1007 z"
         class="fil2" />
      <path
         id="path51"
         d="m -866.4375,-2864.7188 -18.25,176.7813 c 94.99816,1.2627 188.74063,-69.6645 146.625,-176.7813 l -128.375,0 z"
         style="fill:#7f7f7f"
         inkscape:connector-curvature="0" />
      <path
         style="fill:#881846"
         inkscape:connector-curvature="0"
         id="path3965"
         d="m -747.74765,-2850.2309 -283.69165,0.012 c 28.1592,231.9555 329.8697,159.315 283.69165,-0.012 z"
         class="fil3" />
      <path
         style="fill:#f6bcd6"
         inkscape:connector-curvature="0"
         id="path3973"
         d="m -782.73242,-2736.6462 c -37.49361,-65.2961 -134.29769,-47.7698 -147.59684,26.6061 45.37522,17.0832 111.51744,6.1356 147.59684,-26.6061 z"
         class="fil5" />
      <path
         inkscape:connector-curvature="0"
         id="path23"
         d="m -803.78125,-3024.0625 c -6.8604,0.1352 -13.67283,1.3145 -20.21875,3.4687 -29.31419,11.0809 -50.5,42.993 -50.5,80.6563 0,12.3873 2.31876,24.1399 6.4375,34.75 l 133.59375,0.031 c 4.12526,-10.6172 6.4375,-22.3834 6.4375,-34.7813 0,-32.2144 -15.51488,-60.2263 -38.34375,-74.5937 -0.0909,-0.057 -0.19012,-0.1 -0.28125,-0.1563 -11.69391,-6.4478 -24.48879,-9.624 -37.125,-9.375 z"
         style="fill:#666666;fill-opacity:1" />
      <path
         style="fill:#050707"
         inkscape:connector-curvature="0"
         id="path3969"
         d="m -1032.6821,-3023.282 c -47.654,14.4646 -50.6724,76.9017 -39.8759,118.1006 l 118.04509,-0.039 c 14.66921,-40.9488 4.93338,-81.6059 -29.06546,-109.3637 -10.29828,-8.4079 -30.66653,-14.2948 -49.10533,-8.6982 z"
         class="fil2" />
      <path
         style="fill:#fdfcfd"
         inkscape:connector-curvature="0"
         id="path3975"
         d="m -1061.3755,-2919.2895 96.88282,0.017 c 1.6211,-13.8548 5.3033,-32.5949 -1.58095,-47.6679 -16.8702,19.1613 -46.74777,9.7807 -46.67827,-17.9911 0,-12.4919 6.6897,-15.0919 14.10074,-21.8802 -53.52084,-24.1558 -75.28524,46.9825 -62.72404,87.5222 z"
         class="fil4" />
      <path
         sodipodi:nodetypes="ccccsc"
         inkscape:connector-curvature="0"
         id="path25"
         d="m -785.625,-3002.4474 -8.5863,-0.1953 8.5863,83.8302 41.60301,0 c 1.6629,-6.2854 2.57338,-12.9808 2.57338,-19.9496 0,-32.1404 -19.13291,-58.7812 -44.17639,-63.6853 z"
         style="fill:#666666;fill-opacity:1" />
      <path
         inkscape:connector-curvature="0"
         id="path27"
         d="m -798.6875,-3004.0652 c -29.00248,0 -52.50543,27.5262 -52.50543,61.4913 0,8.2422 1.40174,16.1096 3.91148,23.2927 l 97.1879,0 c 2.51014,-7.1837 3.91148,-15.0498 3.91148,-23.2927 0,-7.6877 -1.21899,-15.028 -3.41814,-21.8126 -3.25231,1.1794 -6.6935,1.8628 -10.28965,2.3256 -15.9837,2.1269 -29.0718,-12.771 -29.0718,-27.9441 l -0.14096,-1.1276 c 0.54922,-5.2406 1.22243,-8.6635 2.32575,-11.3469 -3.82019,-1.0364 -7.82152,-1.5857 -11.91063,-1.5857 z"
         style="fill:#ff0000" />
      <path
         inkscape:connector-curvature="0"
         id="path29"
         d="m -784.02827,-2974.042 0,54.7608 24.24412,0 c 3.63443,-7.233 5.74389,-15.6737 5.74389,-24.667 0,-6.575 -1.1518,-12.8216 -3.17147,-18.5356 -0.88997,0.1496 -1.76688,0.3056 -2.67813,0.4229 -10.03428,1.3352 -18.91175,-4.0355 -24.13841,-11.9811 z"
         style="fill:#ff5454" />
      <path
         inkscape:transform-center-y="-93.965475"
         inkscape:transform-center-x="-7.931101"
         style="fill:#7f7f7f"
         inkscape:connector-curvature="0"
         id="path31"
         d="m -983.48543,-3116.7763 c -6.97001,3.4172 -13.7559,7.1891 -20.28907,11.2661 l 99.5758,119.1285 30.4631,-14.3259 98.31519,-118.3706 c -6.87205,-3.2895 -14.05721,-6.3681 -21.60389,-9.0791 -25.13847,-9.0257 -47.29899,-13.0762 -74.70988,-13.5875 -33.39979,-0.6226 -62.39582,4.7209 -94.85777,17.4781 -5.75978,2.2616 -11.37304,4.7852 -16.89443,7.4921 z" />
      <path
         inkscape:transform-center-y="-111.86784"
         inkscape:transform-center-x="-49.8223"
         style="fill:#999999"
         inkscape:connector-curvature="0"
         id="path33"
         d="m -906.00961,-3132.4281 48.02731,102.1267 68.58115,-82.5367 c -6.30498,-3.0221 -12.89437,-5.8465 -19.81664,-8.3288 -23.06895,-8.2798 -43.40017,-11.9983 -68.5532,-12.4713 -9.74685,-0.1782 -19.08016,0.2388 -28.24033,1.2075 z" />
      <path
         inkscape:transform-center-y="-139.69311"
         inkscape:transform-center-x="-90.770975"
         style="fill:#666666"
         inkscape:connector-curvature="0"
         id="path35"
         d="m -812.53539,-3103.0489 -2.09276,-9.5501 8.43126,-4.9405 7.30993,6.4924 -3.91797,8.9563 z" />
      <path
         inkscape:transform-center-y="-110.92906"
         inkscape:transform-center-x="-68.09291"
         style="fill:#666666"
         inkscape:connector-curvature="0"
         id="path37"
         d="m -835.20759,-3074.2848 -2.09752,-9.5477 8.43611,-4.943 7.30287,6.4902 -3.9111,8.9586 z" />
      <path
         inkscape:transform-center-y="-78.798013"
         inkscape:transform-center-x="-43.387736"
         style="fill:#666666"
         inkscape:connector-curvature="0"
         id="path39"
         d="m -859.91274,-3042.1512 -2.09754,-9.5479 8.42905,-4.9453 7.30992,6.4925 -3.91795,8.9562 z" />
      <path
         inkscape:transform-center-y="-44.179513"
         inkscape:transform-center-x="-21.067701"
         style="fill:#666666"
         inkscape:connector-curvature="0"
         id="path41"
         d="m -882.23632,-3007.5352 -2.09754,-9.5478 8.43612,-4.9429 7.30994,6.4925 -3.91798,8.9562 z" />
      <path
         inkscape:transform-center-y="-52.020413"
         inkscape:transform-center-x="21.246964"
         style="fill:#666666"
         inkscape:connector-curvature="0"
         id="path43"
         d="m -924.551,-3015.3761 -2.09753,-9.5478 8.43614,-4.9429 7.30993,6.4925 -3.91798,8.9562 z" />
      <path
         inkscape:transform-center-y="-84.403613"
         inkscape:transform-center-x="47.330669"
         style="fill:#666666"
         inkscape:connector-curvature="0"
         id="path45"
         d="m -950.63117,-3047.757 -2.09752,-9.5479 8.43392,-4.9475 7.30506,6.4947 -3.91108,8.9588 z" />
      <path
         inkscape:transform-center-y="-115.26591"
         inkscape:transform-center-x="71.503748"
         style="fill:#666666"
         inkscape:connector-curvature="0"
         id="path47"
         d="m -974.80898,-3078.6217 -2.09279,-9.55 8.43129,-4.9406 7.30769,6.4878 -3.91576,8.9609 z" />
      <path
         style="fill:#7f7f7f"
         inkscape:connector-curvature="0"
         id="path49"
         d="m -626.39391,-2898.5161 c 0,53.2857 -12.38584,96.4771 -27.66653,96.4771 -15.274,0 -27.66654,-43.1944 -27.66654,-96.4771 0,-53.2769 12.39254,-96.4713 27.66654,-96.4713 15.28069,0 27.66653,43.1944 27.66653,96.4713 z" />
      <path
         id="path3206"
         d="m -867.9375,-2850.2188 -15.28125,147.9688 c 81.45661,0.7387 160.79965,-60.5702 135.46875,-147.9688 l -120.1875,0 z"
         style="fill:#999999;fill-opacity:1"
         inkscape:connector-curvature="0" />
      <path
         style="fill:#666666"
         inkscape:connector-curvature="0"
         id="path53"
         d="m -860.34409,-2835.4568 2.17033,-9.5327 9.73224,-0.8881 3.852,8.986 -7.35692,6.4426 z" />
      <path
         style="fill:#666666"
         inkscape:connector-curvature="0"
         id="path55"
         d="m -796.4285,-2835.5753 2.16505,-9.5327 9.73762,-0.8828 3.852,8.986 -7.35691,6.4375 z" />
      <path
         style="fill:#666666"
         inkscape:connector-curvature="0"
         id="path57"
         d="m -782.59939,-2757.3817 2.16508,-9.5327 9.73762,-0.8881 3.852,8.9861 -7.35691,6.4426 z" />
      <path
         style="fill:#666666"
         inkscape:connector-curvature="0"
         id="path61"
         d="m -768.44035,-2780.3508 2.16508,-9.5327 9.73762,-0.8881 3.852,8.986 -7.35691,6.4374 z" />
      <path
         style="fill:#666666"
         inkscape:connector-curvature="0"
         id="path63"
         d="m -762.99844,-2808.3792 2.17032,-9.5326 9.73224,-0.8829 3.852,8.9809 -7.35691,6.4426 z" />
      <path
         style="fill:#666666"
         inkscape:connector-curvature="0"
         id="path65"
         d="m -766.54915,-2835.4178 2.16508,-9.5327 9.73762,-0.8829 3.84662,8.9809 -7.35176,6.4426 z" />
      <path
         style="fill:#666666"
         inkscape:connector-curvature="0"
         id="path67"
         d="m -626.39391,-2901.4294 c 0,42.3525 -9.84579,76.6905 -21.98576,76.6905 -12.14666,0 -21.99246,-34.338 -21.99246,-76.6905 0,-42.3522 9.8458,-76.6846 21.99246,-76.6846 12.13997,0 21.98576,34.3294 21.98576,76.6846 z" />
      <path
         style="fill:#4c4c4c"
         inkscape:connector-curvature="0"
         id="path71"
         d="m -648.62176,-2961.3834 c -0.38236,0 -0.77838,0.096 -1.15389,0.1776 v 127.1269 c 0.3687,0.082 0.77838,0.088 1.15389,0.088 10.09167,0 18.26442,-28.4587 18.26442,-63.6479 0,-35.1976 -8.17303,-63.7441 -18.26442,-63.7441 z" />
      <path
         d="m -827.99844,-2834.8078 2.17032,-9.5326 9.73224,-0.8829 3.852,8.9809 -7.35691,6.4426 z"
         id="path3209"
         inkscape:connector-curvature="0"
         style="fill:#666666" />
      <path
         id="path3213"
         d="m -851.125,-2777 c -8.38668,-0.01 -16.74904,1.2928 -24.75,3.8438 l -7.34375,71.125 c 36.69702,0.1119 75.70246,-12.1215 100.5,-34.625 -15.81762,-27.5468 -42.1999,-40.3281 -68.40625,-40.3438 z"
         style="fill:#666666;fill-opacity:1"
         inkscape:connector-curvature="0" />
    </g>
  </g>
</svg>
