<?xml version="1.0" encoding="utf-8"?>
<!-- Generator: Adobe Illustrator 15.1.0, SVG Export Plug-In . SVG Version: 6.00 Build 0)  -->
<!DOCTYPE svg PUBLIC "-//W3C//DTD SVG 1.1//EN" "http://www.w3.org/Graphics/SVG/1.1/DTD/svg11.dtd">
<svg version="1.1" id="Capa_2" xmlns="http://www.w3.org/2000/svg" xmlns:xlink="http://www.w3.org/1999/xlink" x="0px" y="0px"
	 width="800px" height="800px" viewBox="0 0 800 800" enable-background="new 0 0 800 800" xml:space="preserve">
<g>
	<g>
		<g>
			<path fill="#FFFFFF" d="M119.608,799c-5.549,0-9.608-4.351-9.608-9.365V13.521C110,8.505,114.059,4,119.608,4h564.383
				C689.541,4,694,8.505,694,13.521v776.114c0,5.015-4.459,9.365-10.009,9.365H119.608z"/>
			<path d="M684.012,8.032c3.879,0,6.988,2.146,6.988,5.489v776.114c0,3.343-3.131,6.365-7.009,6.365H119.608
				c-3.877,0-7.608-3.022-7.608-6.365V13.521C112,10.177,115.731,8,119.608,8H684 M683.991,2H119.608
				C112.375,2,106,6.823,106,13.521v776.114c0,6.696,6.375,12.365,13.608,12.365h564.383c7.232,0,13.009-5.669,13.009-12.365V13.521
				C697,6.823,691.437,2,684.204,2H683.991z"/>
		</g>
		<g>
			<path d="M602.988,703h-408.44c-3.413,0-6.548-2.735-6.548-6.136V105.078c0-3.4,3.135-6.078,6.548-6.078h408.44
				c3.459,0,6.012,2.734,6.012,6.078v591.787C609,700.208,606.447,703,602.988,703z M194.548,101c-2.052,0-3.548,2.038-3.548,4.078
				v591.787c0,2.04,1.496,4.136,3.548,4.136h408.44c2.086,0,4.012-2.164,4.012-4.136V105.078c0-1.972-1.926-4.078-4.012-4.078
				H194.548z"/>
		</g>
		<g>
			<path d="M159.725,81.139c0,3.095-0.507,5.947-1.523,8.555c-1.016,2.607-2.419,4.851-4.209,6.728
				c-1.79,1.876-3.896,3.346-6.323,4.407c-2.427,1.06-5.05,1.59-7.871,1.59c-3.942,0-6.998-0.724-9.167-2.169
				c-2.167-1.447-3.252-3.416-3.252-5.908c0-0.544,0.107-1.096,0.319-1.654c0.212-0.559,0.532-1.068,0.956-1.525
				c0.424-0.459,0.94-0.838,1.547-1.139c0.606-0.301,1.319-0.451,2.139-0.451c0.727,0,1.387,0.114,1.978,0.344
				c0.592,0.229,1.1,0.529,1.524,0.901c0.425,0.372,0.75,0.802,0.978,1.289c0.228,0.487,0.341,0.988,0.341,1.504
				c0,0.516-0.212,1.059-0.636,1.632c-0.425,0.573-0.637,1.117-0.637,1.633c0,0.773,0.41,1.36,1.227,1.761
				c0.819,0.4,1.866,0.601,3.141,0.601c1.819,0,3.328-0.329,4.526-0.989c1.197-0.659,2.153-1.583,2.866-2.772
				c0.712-1.19,1.212-2.623,1.5-4.299c0.288-1.677,0.432-3.533,0.432-5.567V37.719c0-1.805-0.106-3.345-0.317-4.621
				c-0.213-1.275-0.637-2.329-1.274-3.16c-0.637-0.831-1.532-1.462-2.683-1.892c-1.154-0.429-2.685-0.702-4.595-0.817
				c-0.396,0-0.683-0.147-0.864-0.444c-0.183-0.296-0.274-0.628-0.274-0.995c0-0.367,0.091-0.706,0.274-1.017
				c0.181-0.311,0.469-0.466,0.864-0.466c2.001,0,4.275,0.086,6.824,0.258c2.546,0.172,4.928,0.258,7.141,0.258
				c1.305,0,2.532-0.028,3.686-0.085c1.152-0.058,2.275-0.114,3.366-0.172c1.092-0.057,2.199-0.114,3.322-0.172
				c1.122-0.057,2.32-0.086,3.594-0.086c0.363,0,0.621,0.128,0.772,0.381c0.151,0.254,0.229,0.551,0.229,0.889
				c0,0.396-0.098,0.77-0.296,1.123c-0.198,0.353-0.463,0.529-0.796,0.529c-1.941,0.115-3.496,0.358-4.663,0.731
				c-1.169,0.373-2.056,0.953-2.662,1.741c-0.606,0.788-1.009,1.827-1.206,3.117s-0.296,2.923-0.296,4.901V81.139z"/>
		</g>
		<g>
			<path d="M637.383,728.442c0-3.094,0.509-5.946,1.525-8.555c1.016-2.607,2.418-4.851,4.206-6.728
				c1.791-1.877,3.898-3.347,6.324-4.408c2.428-1.059,5.05-1.589,7.87-1.589c3.941,0,6.998,0.722,9.167,2.169
				c2.168,1.447,3.253,3.416,3.253,5.907c0,0.545-0.106,1.097-0.318,1.654c-0.214,0.56-0.531,1.067-0.955,1.525
				c-0.426,0.459-0.941,0.838-1.548,1.139c-0.607,0.301-1.319,0.452-2.138,0.452c-0.728,0-1.388-0.115-1.979-0.345
				c-0.59-0.229-1.1-0.529-1.523-0.901c-0.425-0.372-0.751-0.803-0.978-1.289c-0.228-0.487-0.342-0.989-0.342-1.505
				c0-0.515,0.214-1.06,0.638-1.633c0.424-0.572,0.637-1.116,0.637-1.632c0-0.774-0.409-1.36-1.229-1.762
				c-0.818-0.4-1.863-0.602-3.138-0.602c-1.82,0-3.328,0.329-4.526,0.989c-1.198,0.659-2.153,1.583-2.866,2.771
				c-0.713,1.191-1.212,2.624-1.501,4.3c-0.289,1.677-0.433,3.533-0.433,5.567v47.894c0,1.805,0.106,3.345,0.318,4.621
				c0.212,1.274,0.638,2.328,1.274,3.16c0.636,0.831,1.531,1.461,2.684,1.892c1.153,0.429,2.684,0.701,4.595,0.817
				c0.394,0,0.683,0.146,0.864,0.443s0.272,0.629,0.272,0.994c0,0.367-0.091,0.706-0.272,1.018
				c-0.182,0.311-0.471,0.466-0.864,0.466c-2.001,0-4.277-0.086-6.823-0.258c-2.549-0.171-4.93-0.258-7.144-0.258
				c-1.303,0-2.532,0.028-3.685,0.087c-1.152,0.057-2.274,0.113-3.367,0.171c-1.092,0.058-2.197,0.114-3.32,0.172
				c-1.121,0.057-2.32,0.086-3.593,0.086c-0.365,0-0.623-0.128-0.774-0.382c-0.151-0.253-0.228-0.55-0.228-0.888
				c0-0.396,0.1-0.771,0.296-1.123c0.198-0.353,0.462-0.528,0.796-0.528c1.942-0.116,3.496-0.36,4.664-0.731
				c1.167-0.372,2.055-0.952,2.661-1.741c0.607-0.789,1.007-1.827,1.205-3.117c0.197-1.289,0.295-2.923,0.295-4.9V728.442z"/>
		</g>
		<g>
			<polygon fill="#FF841F" points="356.304,539.17 385.189,487.634 427.797,517.818 431,516.756 431,507.42 433.889,503.939 
				453.031,505.387 450.097,473.347 444.39,400.888 443.539,377.488 446.819,365.929 448.855,361.854 463.568,354.609 
				473.001,350.358 470.3,335.963 471.347,323.694 447.988,265.195 434.76,263.749 407.268,310.877 348.563,260.854 
				340.915,265.195 340.709,283.386 349.391,374.129 350.011,403.895 347.118,425.393 343.19,434.486 336.161,441.929 
				321.692,448.544 326.86,467.974 337.608,511.589 			"/>
			<g>
				<g>
					<path fill="#FDCB45" d="M412.097,315.941c0.225-0.042,0.237-0.388,0.355-0.583c17.347-28.426,30.119-52.263,30.298-52.598
						l-8.677-4.636c-0.175,0.329-12.596,23.507-29.521,51.296c-0.17,0.281-0.58,0.521-0.514,0.844
						C404.844,314.218,407.591,316.804,412.097,315.941z"/>
					<path d="M410.426,317.32L410.426,317.32c-3.875,0-6.707-2.547-7.575-6.813c-0.171-0.83,0.364-1.399,0.592-1.643
						c0.032-0.034,0.065-0.066,0.091-0.101c16.891-27.731,29.349-50.982,29.47-51.209l0.571-1.071l10.816,5.779l-0.571,1.069
						c-0.124,0.235-13.025,24.299-30.332,52.659c-0.066,0.232-0.321,0.981-1.163,1.142
						C411.674,317.257,411.035,317.32,410.426,317.32z M405.314,310.412c0.454,1.834,1.702,4.482,5.111,4.482l0,0
						c0.3,0,0.611-0.021,0.933-0.063c0.018-0.035,0.037-0.07,0.059-0.105c15.21-24.923,27.004-46.511,29.688-51.471l-6.538-3.493
						c-2.642,4.88-14.093,25.846-28.979,50.288C405.502,310.193,405.402,310.313,405.314,310.412z"/>
				</g>
			</g>
			<g>
				<g>
					<path d="M360.819,552.448l-16.203-22.702c42.194-30.117,95.711-29.191,97.962-29.139l-0.642,27.883
						C441.49,528.482,395.29,527.844,360.819,552.448z"/>
				</g>
				<g>
					<path fill="#FDCB45" d="M358.001,548.5l-10.568-14.806c40.891-29.188,92.835-28.286,95.03-28.238l-0.437,18.185l0.218-9.092
						l-0.207,9.092C441.573,523.628,393.849,522.911,358.001,548.5z"/>
				</g>
				<g>
					<path fill="#C60101" d="M356.24,546.033l-7.046-9.872c40.083-28.609,91.043-27.724,93.197-27.674l-0.286,12.122
						C441.597,520.598,392.951,519.829,356.24,546.033z"/>
				</g>
			</g>
			<g>
				<g>
					<path fill="#FDCB45" d="M378.857,484.625c-0.224,0.042-0.237,0.388-0.355,0.582c-17.347,28.427-30.119,52.264-30.298,52.598
						l8.677,4.638c0.175-0.329,12.596-23.508,29.521-51.297c0.17-0.281,0.58-0.521,0.514-0.844
						C386.111,486.348,383.363,483.763,378.857,484.625z"/>
					<path d="M357.381,544.084l-10.818-5.782l0.572-1.07c0.527-0.982,13.095-24.41,30.332-52.656
						c0.066-0.232,0.321-0.98,1.163-1.142c4.786-0.917,8.469,1.689,9.474,6.627c0.17,0.829-0.365,1.399-0.593,1.643
						c-0.032,0.034-0.064,0.064-0.091,0.101c-17.057,28.009-29.348,50.984-29.468,51.208L357.381,544.084z M349.849,537.309
						l6.537,3.495c2.624-4.855,13.958-25.624,28.98-50.289c0.086-0.142,0.186-0.263,0.273-0.36
						c-0.455-1.835-1.703-4.482-5.112-4.482c-0.3,0-0.611,0.021-0.931,0.062c-0.018,0.035-0.038,0.07-0.059,0.105
						C364.182,511.002,352.544,532.323,349.849,537.309z"/>
				</g>
			</g>
			<g>
				<g>
					<path d="M349.77,299.973c-0.747,0-1.221-0.01-1.394-0.014l0.642-27.884c0.458,0.02,46.648,0.647,81.118-23.957l16.203,22.702
						C407.38,298.629,358.771,299.973,349.77,299.973z"/>
				</g>
				<g>
					<path fill="#FDCB45" d="M349.849,295.124c-0.727,0-1.189-0.009-1.357-0.013l0.425-18.186
						c0.467,0.008,48.188,0.729,84.036-24.858l10.568,14.806C405.769,293.82,358.595,295.124,349.849,295.124z"/>
				</g>
				<g>
					<path fill="#C60101" d="M349.897,292.092c-0.715,0-1.167-0.009-1.333-0.013l0.287-12.123
						c0.479,0.009,49.15,0.783,85.863-25.422l7.046,9.871C404.763,290.812,358.488,292.092,349.897,292.092z"/>
				</g>
			</g>
			<g>
				<g>
					<path fill="#FDCB45" d="M367.797,464.479c39.413,29.941,80.984,68.2,81.375,68.567l-1.776,11.668
						c-0.385-0.363-46.569-42.788-85.551-72.401L367.797,464.479z"/>
					<path d="M448.246,547.187l-1.683-1.589c-0.494-0.462-46.302-42.578-85.451-72.319l-0.966-0.733l7.419-9.766l0.965,0.734
						c39.229,29.802,81.096,68.297,81.472,68.649l0.464,0.436L448.246,547.187z M363.544,472.082
						c34.76,26.511,74.414,62.371,82.996,70.204l1.337-8.785c-4.65-4.263-43.136-39.329-79.849-67.322L363.544,472.082z"/>
				</g>
			</g>
			<g>
				<g>
					<path fill="#FDCB45" d="M393.344,434.196c38.441,31.18,78.777,70.739,79.156,71.119l-2.146,11.606
						c-0.375-0.377-45.187-44.246-83.208-75.084L393.344,434.196z"/>
					<path d="M471.126,519.418l-1.631-1.642v0.001c-0.403-0.403-44.918-44.02-83.112-74.998l-0.941-0.765l7.725-9.524l0.942,0.765
						c38.606,31.313,78.891,70.844,79.25,71.205l0.45,0.451L471.126,519.418z M388.853,441.66
						c33.852,27.564,72.388,64.701,80.723,72.806l1.615-8.735c-4.499-4.4-41.687-40.538-77.668-69.827L388.853,441.66z"/>
				</g>
			</g>
			<g>
				<g>
					<path fill="#C60101" d="M389.403,441.835c39.412,29.94,73.981,67.281,74.371,67.648l-11.764,26.892
						c-0.385-0.363-50.095-44.758-89.078-74.372L389.403,441.835z"/>
					<g>
						<path d="M452.432,538.44l-1.249-1.181c-0.544-0.497-50.145-44.786-88.983-74.291l-1.27-0.965l28.472-21.692l0.734,0.558
							c34.506,26.214,65.447,58.175,74.107,67.347c0.215,0.228,0.344,0.364,0.384,0.404l0.577,0.585l-0.319,0.765L452.432,538.44z
							 M364.934,462.003c35.197,26.866,78.693,65.284,86.636,72.354l10.771-24.622c-8.754-9.261-39.059-40.52-72.938-66.375
							L364.934,462.003z"/>
					</g>
				</g>
			</g>
			<g>
				<g>
					<path fill="#FDCB45" d="M423.157,336.087c-39.413-29.941-80.984-68.2-81.375-68.567l1.776-11.669
						c0.385,0.364,46.568,42.788,85.55,72.402L423.157,336.087z"/>
					<path d="M423.389,337.786l-0.965-0.733c-39.225-29.799-81.097-68.295-81.472-68.648l-0.464-0.437l2.221-14.59l1.684,1.593
						c0.413,0.388,46.809,42.962,85.45,72.317l0.967,0.734L423.389,337.786z M343.077,267.065
						c4.651,4.263,43.137,39.331,79.849,67.322l4.484-5.903c-34.401-26.239-74.371-62.345-82.995-70.205L343.077,267.065z"/>
				</g>
			</g>
			<g>
				<g>
					<path fill="#FDCB45" d="M397.61,366.37c-38.441-31.179-78.776-70.739-79.156-71.119l2.146-11.606
						c0.375,0.376,45.187,44.246,83.208,75.085L397.61,366.37z"/>
					<path d="M397.788,368.075l-0.941-0.764c-38.345-31.101-78.887-70.84-79.25-71.204l-0.45-0.45l2.683-14.507l1.632,1.639
						c0.404,0.404,45.066,44.14,83.111,74.998l0.941,0.765L397.788,368.075z M319.764,294.837
						c4.512,4.409,41.822,40.648,77.668,69.826l4.669-5.757c-33.629-27.386-72.364-64.688-80.722-72.808L319.764,294.837z"/>
				</g>
			</g>
			<g>
				<path fill="#C60101" d="M608.652,265.375c-78.7-45.91-158.53-23.511-162.57-21.74c43.736,106.793,80.629,158.441,80.629,158.441
					s-54.2,62.878-90.449,151.391c4.039,1.771,123.843-30.66,123.843-30.66l48.001-68.6
					C608.105,454.207,609.883,289.559,608.652,265.375z"/>
				<g>
					<path d="M436.825,554.749C436.825,554.749,436.825,554.749,436.825,554.749c-0.456,0-0.779-0.054-1.05-0.172l-1.084-0.475
						l0.447-1.096c33.852-82.655,83.957-143.743,90.044-151.002c-4.733-6.87-39.779-59.158-80.224-157.91L444.512,243l1.083-0.476
						c2.128-0.932,23.346-7.113,54.401-7.113c27.234,0,68.299,5.016,109.268,28.916l0.567,0.33l0.033,0.656
						c1.218,23.944-0.528,187.26-0.546,188.907l-0.004,0.375l-0.215,0.308l-48.254,68.959l-0.424,0.116
						C555.779,525.232,446.641,554.749,436.825,554.749z M447.688,244.355c42.962,104.622,79.644,156.503,80.01,157.017l0.554,0.775
						l-0.621,0.721c-0.538,0.624-53.795,62.937-89.547,149.359c14.973-1.801,113.921-28.489,121.28-30.477l47.533-67.932
						c0.094-8.729,1.702-162.29,0.577-187.728c-40.313-23.341-80.67-28.255-107.478-28.255
						C472.762,237.836,452.776,242.76,447.688,244.355z"/>
				</g>
			</g>
			<g>
				<g>
					<path fill="#C60101" d="M401.551,358.731c-39.412-29.941-73.981-67.282-74.371-67.648l11.764-26.892
						c0.385,0.364,50.095,44.757,89.078,74.372L401.551,358.731z"/>
					<g>
						<path d="M401.553,360.255l-0.734-0.558c-34.507-26.214-65.447-58.176-74.107-67.347c-0.214-0.228-0.343-0.364-0.384-0.405
							l-0.577-0.585l0.319-0.764l12.455-28.473l1.253,1.186c0.405,0.374,49.971,44.655,88.978,74.287l1.27,0.965L401.553,360.255z
							 M328.613,290.832c8.754,9.261,39.058,40.519,72.938,66.376l24.47-18.645c-35.38-27.004-78.712-65.297-86.637-72.353
							L328.613,290.832z"/>
					</g>
				</g>
			</g>
			<path fill="#FFFFFF" d="M341.772,291.224c0.151-1.29,0.031-2.643-0.313-3.842c-0.911,2.453-4.292,3.349-6.873,4.176
				c5.198,8.314,3.15,20.035-7.942,22.137c4.137,10.157,3.555,20.839-7.354,25.987c-2.586,1.22-4.775,2.259-7.736,1.915
				c6.632,8.978,0.247,19.375-8.453,24.237c-2.191,1.225-4.112,1.668-6.629,1.989c2.736,3.568,6.665,6.775,7.352,11.38
				c0.925,6.197-2.44,11.906,5.881,14.104c9.386,2.479,19.197-3.51,28.537-3.68c4.461-0.082,8.904,2.604,11.284-2.305
				c2.457-5.07-1.515-12.874-2.085-18.055c-0.585-5.301,0.127-10.655-0.384-15.986c-1.014-10.551-2.816-21.236-3.352-31.798
				c-0.564-11.133,1.291-23.36-1.629-34.199"/>
			<g>
				<path fill="#FDCB45" d="M423.729,358.621l48.057-49.293l-18.887-17.611L351.975,393.98l15.449,23.542
					c-6.156,6.02-8.37,16.159-0.198,24.424l-48.056,49.293l18.887,17.611l100.923-102.263l-15.448-23.542
					C429.687,377.025,431.901,366.886,423.729,358.621z M395.179,413.271l-10.956-14.128l11.552-11.85l10.956,14.128
					L395.179,413.271z"/>
				<path d="M338.092,510.541l-20.656-19.261l48.111-49.351c-3.211-3.596-4.883-7.757-4.846-12.102
					c0.038-4.451,1.911-8.939,5.174-12.456l-15.452-23.546l0.688-0.698l101.751-103.103l20.656,19.261l-48.111,49.35
					c3.211,3.596,4.882,7.757,4.846,12.102c-0.038,4.452-1.911,8.939-5.174,12.456l15.452,23.547l-0.688,0.697L338.092,510.541z
					 M320.903,491.197l17.117,15.961l99.408-100.726l-15.46-23.557l0.714-0.697c3.234-3.163,5.11-7.341,5.145-11.461
					c0.034-4.039-1.682-7.927-4.961-11.244l-0.837-0.847l48.021-49.258l-17.117-15.962l-99.408,100.727l15.459,23.557l-0.714,0.697
					c-3.234,3.163-5.11,7.341-5.145,11.461c-0.035,4.039,1.682,7.928,4.961,11.244l0.837,0.847L320.903,491.197z M395.075,415.116
					l-12.456-16.063l13.261-13.604l12.456,16.063L395.075,415.116z M385.828,399.234l9.455,12.193l9.844-10.096l-9.456-12.193
					L385.828,399.234z"/>
			</g>
			<g>
				<g>
					<path fill="#FFFFFF" d="M371.455,578.588c7.45-5.686,2.278-15.555-5.749-16.378c-2.35-3.195,4.109-18.011-6.944-19.204
						c7.772-7.948,7.342-20.568-3.806-21.689c9.585-10.605-1.824-24.722-13.898-20.277c8.671-11.656,1.54-25.116-14.205-22.509
						c5.681-9.974,2.057-17.451-9.123-16.629c4.443-5.039,3.176-25.698-17.728-26.096c10.257-13.721-11.664-20.314-14.432-18.514
						c26.594-16.347-1.69-23.396-1.69-23.396c23.056,2.25,24.11-15.75,12.801-25.862c11.208-0.386,24.232-17.156,14.857-26.785
						c21.408-2.348,21.195-18.878,15.168-27.703c10.473-0.828,15.637-16.177,8.105-21.505c11.374-3.781,14.187-16.455,7.735-23.664
						c5.386-2.066,6.835-4.082,4.919-9.197c0,0-4.73-3.03-4.966-6.388c-0.13-1.648-0.293-0.378-0.293-0.378l-2.486-3.197
						c0,0-53.386,118.72-86.737,152.449c21.519,27.668,94.073,139.345,94.073,139.345l20.023,50.924l5.46,1.439
						C377.22,590.017,378.994,579.268,371.455,578.588z"/>
					<path d="M372.783,594.691l-6.607-1.74l-20.204-51.383c-2.567-3.948-72.987-112.21-93.946-139.158l-0.653-0.841l0.748-0.756
						c32.816-33.188,85.96-150.908,86.494-152.093l0.827-1.838l2.997,3.855c1.121,0.066,1.217,1.293,1.271,1.96
						c0.159,2.255,3.238,4.708,4.411,5.463l0.339,0.217l0.142,0.378c2.121,5.662,0.198,8.186-4.107,10.128
						c2.51,3.569,3.311,8.162,2.13,12.6c-1.302,4.895-4.732,8.809-9.545,10.974c2.408,2.72,3.165,6.829,1.959,11.213
						c-1.274,4.631-4.909,9.486-10.351,10.788c2.499,4.506,4.074,11.173,1.268,17.275c-1.801,3.916-6.06,8.768-16.106,10.424
						c2.492,3.63,2.813,8.165,0.869,13.001c-2.707,6.734-9.147,12.332-15.43,13.749c4.954,5.403,6.883,12.279,4.803,17.724
						c-1.123,2.94-4.343,7.691-13.472,8.539c3.361,1.711,6.89,4.368,7.474,8.13c0.621,4.006-2.228,8.29-8.475,12.767
						c4.465,0.865,10.863,3.749,13.313,8.639c1.108,2.214,1.769,5.65-0.751,10.003c10.86,0.962,15.348,7.466,17.088,11.419
						c2.331,5.296,2.14,10.999,0.63,14.507c4.53,0.12,7.936,1.771,9.625,4.681c1.772,3.047,1.565,7.159-0.548,11.74
						c7.214-0.526,12.963,2.289,15.605,7.549c2.182,4.341,1.834,9.602-0.854,14.519c0.648-0.09,1.299-0.136,1.951-0.136
						c5.5,0,10.697,3.383,12.933,8.421c1.938,4.363,1.402,9.026-1.432,13.064c3.594,0.902,6.176,3.135,7.373,6.434
						c1.688,4.649,0.281,10.593-3.497,15.333c6.351,1.987,5.819,9.201,5.456,14.129c-0.131,1.779-0.277,3.764-0.007,4.728
						c4.415,0.721,8.226,4.002,9.403,8.178c0.892,3.162,0.165,6.229-1.996,8.684c1.773,0.766,3.01,2.229,3.567,4.274
						c1.125,4.122-0.813,9.676-4.232,12.129L372.783,594.691z M367.983,590.919l4.281,1.127c2.325-2.022,3.681-6.227,2.876-9.178
						c-0.507-1.857-1.784-2.891-3.795-3.072l-3.105-0.279l2.479-1.893c3.598-2.745,3.333-5.998,2.855-7.692
						c-0.973-3.454-4.26-6.133-7.991-6.517l-0.535-0.054l-0.319-0.434c-1.029-1.398-0.855-3.757-0.636-6.74
						c0.488-6.613,0.381-11.345-5.462-11.976l-2.482-0.268l1.746-1.786c4.128-4.224,5.929-10.155,4.379-14.427
						c-1.099-3.028-3.673-4.829-7.44-5.208l-2.387-0.24l1.608-1.78c3.29-3.64,4.142-8.053,2.341-12.111
						c-1.854-4.175-6.162-6.98-10.717-6.98c-1.408,0-2.822,0.257-4.203,0.767l-3.824,1.407l2.431-3.269
						c3.618-4.863,4.49-10.329,2.332-14.624c-2.432-4.84-8.268-7.14-15.366-5.965l-2.512,0.416l1.26-2.214
						c2.597-4.559,3.191-8.713,1.632-11.397c-1.491-2.563-4.843-3.776-9.611-3.422l-2.964,0.219l1.966-2.229
						c2.015-2.287,2.606-8.597,0.23-13.995c-1.977-4.491-6.543-9.887-17.072-10.086l-2.363-0.045l1.415-1.894
						c2.538-3.396,3.122-6.52,1.735-9.288c-2.458-4.903-10.333-7.579-13.69-7.579c-0.646,0-0.856,0.103-0.859,0.104l-1.307-2.041
						c0.008-0.006,0.017-0.011,0.026-0.017l0,0c0.003-0.003,0.008-0.005,0.013-0.007c7.604-4.69,11.299-9.025,10.75-12.578
						c-0.734-4.752-8.992-7.82-12.111-8.601l0.411-2.383c9.345,0.91,15.803-1.615,17.83-6.924
						c1.928-5.049-0.521-11.968-5.956-16.827l-2.25-2.013l3.018-0.104c6.025-0.207,13.127-5.845,15.83-12.568
						c1.095-2.725,2.319-7.929-1.8-12.158l-1.732-1.78l2.469-0.271c8.308-0.911,13.958-4.135,16.346-9.325
						c2.562-5.568,0.818-12.294-2.048-16.488l-1.179-1.728l2.085-0.165c5.317-0.42,8.898-4.979,10.09-9.312
						c0.91-3.303,0.706-7.664-2.589-9.995l-1.958-1.384l2.275-0.756c5.009-1.666,8.6-5.322,9.853-10.031
						c1.12-4.212,0.134-8.576-2.639-11.673l-1.173-1.311l1.643-0.63c4.889-1.875,5.773-3.276,4.351-7.278
						c-1.189-0.824-4.653-3.475-5.13-6.701l-1.338-1.722c-6.869,15.045-54.53,118.108-85.407,150.212
						c22.077,28.738,92.768,137.486,93.486,138.592l0.111,0.217L367.983,590.919z"/>
				</g>
				<g>
					<path d="M323.292,449.779l-0.9-2.253c31.268-12.495,29.627-31.064,20.528-134.122c-0.701-7.927-1.445-16.351-2.221-25.308
						l2.416-0.209c0.777,8.955,1.521,17.378,2.221,25.304C354.571,417.771,356.234,436.614,323.292,449.779z"/>
				</g>
				<g>
					<path d="M320.633,439.812l-1.099-2.163c0.749-0.38,1.479-0.745,2.193-1.1c17.547-8.745,24.113-12.017,10.905-124.841
						l2.409-0.282c13.407,114.518,6.426,117.996-12.231,127.293C322.102,439.072,321.376,439.434,320.633,439.812z"/>
				</g>
				<g>
					<path d="M318.145,429.283l-0.793-2.291c14.544-5.041,16.462-26.438,8.211-91.579l2.406-0.304
						C336.41,401.746,334.115,423.75,318.145,429.283z"/>
				</g>
				<g>
					<path d="M315.568,418.617l-0.888-2.257c8.932-3.516,5.644-47.027,1.254-75.415l2.397-0.371
						C319.479,348,329.155,413.27,315.568,418.617z"/>
				</g>
				<g>
					
						<rect x="264.56" y="414.046" transform="matrix(0.2373 0.9714 -0.9714 0.2373 642.7788 11.7996)" width="98.63" height="2.426"/>
				</g>
				<g>
					
						<rect x="280.571" y="413.807" transform="matrix(0.2425 0.9701 -0.9701 0.2425 633.0811 19.1944)" width="47.355" height="2.425"/>
				</g>
				<g>
					<rect x="290.78" y="413.812" transform="matrix(0.2307 0.973 -0.973 0.2307 630.3383 32.7444)" width="7.36" height="2.425"/>
				</g>
				<g>
					<path d="M311.734,401.501l-2.319-0.713c2.576-8.37-0.315-29.535-1.678-38.247l2.397-0.375
						C311.858,373.194,314.359,392.967,311.734,401.501z"/>
				</g>
			</g>
			<path fill="#FFFFFF" d="M424.618,229.326c-0.826-14.718-9.3-29.924-16.288-42.479c-6.858-12.322-14.839-26.443-25.798-35.68
				c-7.956-6.705-12.26-0.386-21.106-1.394c-5.833-0.665-12.022-2.571-13.77,3.824l0.014-2.178c-0.039,0.796-0.067,1.64-0.091,2.509
				c-0.06,0.25-0.128,0.487-0.175,0.762c-0.417,2.428-0.217,5.116-0.075,7.748c-0.262,5.098-0.894,10.266-2.779,14.131
				c-3.342,6.856-23.776,20.869-17.505,26.563c5.049,4.583,7.063,2.558,10.908,1.607l0.071,0.08
				c0.335,1.243,1.102,2.087,2.032,3.178c1.749,4.75-2.711,8.349-3.652,10.813c-0.68,1.78,0.925,3.04,3.709,3.987l-1.973-0.362
				c-5.109,7.458,1.368,6.513,4.203,12.02c2.538,4.928-7.319,17.184-2.313,19.152c31.331,12.317,63.704-3.636,76.536-12.321
				c0.445-0.06,0.918-0.152,1.43-0.358C423.587,238.676,424.979,235.707,424.618,229.326z M337.957,204.739
				c0.016-0.004,0.033-0.006,0.05-0.011c0.006,0.028,0.009,0.06,0.018,0.088C338,204.79,337.98,204.765,337.957,204.739z"/>
			<g>
				<path fill="#FFFFFF" d="M415.966,593.374l5.462-1.439l20.023-50.924c0,0,72.553-111.677,94.072-139.345
					c-33.351-33.729-86.738-152.449-86.738-152.449l-3.019,8.372l-4.726,1.592c-1.916,5.115-0.466,7.131,4.919,9.197
					c-6.452,7.209-3.637,19.883,7.735,23.664c-7.531,5.329-2.367,20.677,8.104,21.505c-6.026,8.824-6.239,25.354,15.17,27.703
					c-9.375,9.629,3.649,26.399,14.857,26.785c-11.31,10.112-10.257,28.112,12.8,25.862c0,0-28.283,7.048-1.69,23.396
					c-2.768-1.801-24.688,4.793-14.43,18.514c-20.906,0.397-22.173,21.057-17.729,26.096c-11.18-0.822-13.62,10.346-7.939,20.319
					c-15.746-2.607-19.99,12.597-11.319,24.253c-12.074-4.444-21.712,6.373-12.127,16.978c-11.148,1.122-14.643,7.816-6.871,15.766
					c-11.054,1.193-18.499,17.419-9.72,22.993c-8.027,0.823-13.2,10.692-5.749,16.378
					C409.513,579.268,411.288,590.017,415.966,593.374z"/>
				<path d="M415.724,594.691l-0.465-0.332c-3.419-2.454-5.356-8.009-4.232-12.13c0.558-2.044,1.794-3.508,3.568-4.273
					c-2.16-2.455-2.889-5.521-1.997-8.682c1.011-3.583,3.959-6.508,7.565-7.723c-2.205-2.471-2.972-6.033-2.053-9.974
					c1.253-5.372,5.803-11.397,12.087-13.146c-2.752-3.402-3.695-6.771-2.656-9.631c1.147-3.164,4.507-5.347,9.556-6.255
					c-2.877-3.972-3.603-8.219-1.97-11.897c1.757-3.955,5.937-6.413,10.907-6.413c0.906,0,1.822,0.081,2.744,0.241
					c-3.241-5.758-3.831-12.167-1.408-16.987c2.363-4.706,7.143-7.132,13.354-6.734c-2.558-5.565-2.767-11.236-0.464-15.196
					c1.69-2.911,4.639-4.62,8.368-4.88c-1.528-3.503-1.731-9.232,0.607-14.551c1.74-3.955,6.229-10.459,17.09-11.421
					c-2.521-4.353-1.86-7.789-0.751-10.003c2.449-4.89,8.849-7.774,13.313-8.64c-6.251-4.479-9.095-8.762-8.475-12.766
					c0.583-3.762,4.113-6.418,7.474-8.13c-9.129-0.848-12.348-5.599-13.471-8.539c-2.08-5.445-0.15-12.321,4.802-17.724
					c-6.282-1.417-12.722-7.014-15.43-13.749c-1.944-4.836-1.622-9.372,0.869-13.001c-10.047-1.656-14.306-6.509-16.106-10.424
					c-2.807-6.102-1.231-12.769,1.267-17.275c-5.441-1.301-9.076-6.156-10.349-10.787c-1.207-4.385-0.45-8.494,1.957-11.214
					c-4.812-2.166-8.243-6.079-9.545-10.975c-1.18-4.438-0.38-9.03,2.131-12.599c-4.304-1.943-6.227-4.466-4.106-10.128l0.203-0.54
					l4.716-1.588l3.838-10.641l1.229,2.734c0.532,1.186,53.679,118.906,86.494,152.093l0.749,0.756l-0.654,0.841
					c-20.96,26.948-91.378,135.21-93.945,139.158l-20.204,51.383L415.724,594.691z M446.034,506.661
					c-3.998,0-7.328,1.906-8.691,4.974c-1.465,3.3-0.39,7.31,2.95,11.004l1.608,1.779l-2.388,0.24
					c-5.203,0.523-8.736,2.334-9.693,4.971c-0.869,2.395,0.398,5.497,3.568,8.739l1.746,1.786l-2.482,0.268
					c-6.297,0.68-10.975,6.539-12.179,11.708c-0.925,3.966,0.159,7.267,2.978,9.057l2.95,1.874l-3.477,0.354
					c-3.731,0.384-7.02,3.063-7.993,6.517c-0.477,1.695-0.741,4.947,2.856,7.692l2.48,1.893l-3.106,0.279
					c-2.012,0.182-3.289,1.215-3.796,3.072c-0.805,2.95,0.552,7.154,2.876,9.178l4.282-1.127l19.909-50.569
					c0.719-1.105,71.408-109.854,93.486-138.592c-30.328-31.533-76.851-131.526-85.004-149.328l-2.207,6.121l-4.725,1.592
					c-1.335,3.868-0.406,5.255,4.41,7.103l1.643,0.63l-1.174,1.311c-2.772,3.097-3.758,7.461-2.639,11.672
					c1.253,4.71,4.844,8.366,9.854,10.032l2.274,0.756l-1.957,1.384c-3.295,2.332-3.497,6.692-2.589,9.997
					c1.191,4.331,4.773,8.89,10.09,9.31l2.085,0.165l-1.18,1.728c-2.865,4.194-4.608,10.919-2.047,16.488
					c2.387,5.189,8.04,8.414,16.347,9.325l2.47,0.271l-1.732,1.78c-4.119,4.229-2.896,9.433-1.801,12.158
					c2.703,6.723,9.805,12.361,15.83,12.568l3.018,0.104l-2.25,2.013c-5.435,4.857-7.882,11.777-5.954,16.826
					c2.027,5.309,8.481,7.833,17.827,6.924l0.411,2.383c-3.119,0.781-11.377,3.849-12.11,8.601
					c-0.55,3.559,3.157,7.902,10.722,12.56l-1.229,2.092c-0.015-0.01-0.225-0.112-0.87-0.112c-3.357,0-11.233,2.676-13.689,7.578
					c-1.387,2.769-0.803,5.894,1.735,9.289l1.416,1.894l-2.364,0.045c-10.531,0.199-15.098,5.596-17.074,10.087
					c-2.375,5.398-1.784,11.708,0.232,13.993l1.966,2.23l-2.964-0.219c-3.9-0.289-6.78,0.996-8.334,3.667
					c-2.122,3.652-1.52,9.479,1.537,14.843l1.261,2.213l-2.513-0.416c-6.162-1.019-10.949,0.876-13.104,5.16
					c-2.404,4.787-1.244,11.528,2.956,17.173l2.432,3.271l-3.824-1.408C449.388,506.98,447.684,506.661,446.034,506.661z"/>
			</g>
			<path fill="#FDCB45" d="M425.967,244.474c4.72,6.625,7.439,18.002,14.547,22.673c5.293,3.48,16.989,4.742,22.694,1.772
				c3.603-1.876,5.583-5.389,7.419-8.884c5.584,10.652,27.261,5.548,33.41-2.261c2.479-3.151,2.93-7.005,2.89-10.9
				c14.68-0.493,29.799-5.494,28.926-22.985c-0.61-12.229-11.646-28.658-25.616-26.883c-6.171,0.784-10.548,5.73-14.103,10.404
				c-1.533-2.579-2.615-5.426-3.694-8.258l-21.798-47.732l-98.069,0.307L425.967,244.474z"/>
			<g>
				<path d="M452.154,271.934c-11.097,0.001-18.132-9.836-22.65-17.773c-0.563-0.991-57.21-100.522-57.975-101.816
					c-0.341-0.576-0.15-1.32,0.425-1.661c0.578-0.342,1.321-0.151,1.662,0.426c0.771,1.302,57.433,100.861,57.997,101.852
					c5.261,9.243,12.931,19.39,25.635,15.806c10.336-2.917,13.278-9.968,13.927-15.371c1.18-9.83-4.515-21.583-12.693-26.199
					c-3.64-2.054-9.262-3.502-15.376,1.268c-5.095,3.975-5.768,10.58-4.174,15.363c1.824,5.471,6.217,8.801,11.753,8.908
					c4.046,0.086,6.529-1.33,6.909-3.965c0.385-2.665-1.484-5.999-3.702-6.606c-2.301-0.629-3.852,2.201-4.57,3.945
					c-0.256,0.621-0.966,0.914-1.584,0.658c-0.618-0.255-0.913-0.964-0.659-1.583c2.477-6.001,6.04-5.75,7.453-5.359
					c3.426,0.938,6.029,5.366,5.463,9.292c-0.268,1.866-1.678,6.189-9.356,6.044c-6.509-0.125-11.876-4.175-14.007-10.566
					c-2.238-6.72-0.236-13.97,4.982-18.042c5.595-4.362,12.008-4.884,18.06-1.467c8.956,5.055,15.195,17.885,13.909,28.601
					c-1.04,8.672-6.606,14.857-15.676,17.416C455.877,271.673,453.962,271.934,452.154,271.934z"/>
			</g>
			<g>
				<path d="M485.137,267.829c-4.452,0-8.943-1.271-12.883-3.927c-0.854-0.576-1.662-1.188-2.555-1.871
					c-0.531-0.407-0.633-1.168-0.225-1.7c0.408-0.531,1.168-0.632,1.7-0.226c0.859,0.659,1.637,1.249,2.434,1.786
					c9.393,6.326,22.273,3.878,28.717-5.463c3.478-5.044,4.605-12.743,2.944-20.094c-1.498-6.633-5.047-11.986-9.737-14.688
					c-4.473-2.577-9.622-2.701-14.122-0.338c-4.566,2.397-7.544,6.921-7.965,12.101c-0.388,4.747,2.308,11.72,6.364,13.597
					c2.296,1.064,4.747,0.315,7.285-2.221c2.259-2.258,1.483-4.624,1.047-5.537c-0.754-1.573-2.204-2.615-3.456-2.479
					c-1.271,0.14-2.271,1.515-2.82,3.873c-0.151,0.652-0.806,1.055-1.456,0.907c-0.652-0.152-1.059-0.804-0.905-1.456
					c1.078-4.638,3.544-5.584,4.917-5.735c2.29-0.251,4.702,1.33,5.907,3.84c1.377,2.87,0.81,5.974-1.519,8.301
					c-4.15,4.148-7.741,3.762-10.019,2.708c-5.149-2.383-8.225-10.343-7.765-15.995c0.49-6.014,3.95-11.267,9.257-14.052
					c5.251-2.756,11.251-2.617,16.46,0.384c5.274,3.039,9.245,8.963,10.893,16.255c1.806,7.99,0.536,16.422-3.313,22.005
					C499.831,264.317,492.536,267.829,485.137,267.829z"/>
			</g>
			<g>
				<path d="M511.886,228.958c-0.362,0-0.725-0.028-1.088-0.083c-2.506-0.382-4.953-2.087-6.887-4.8
					c-3.068-4.304-32.222-66.614-34.399-72.216c-0.242-0.625,0.066-1.327,0.69-1.57c0.623-0.243,1.327,0.065,1.569,0.691
					c2.055,5.284,31.258,67.68,34.115,71.687c1.55,2.175,3.424,3.528,5.277,3.811c1.413,0.213,2.814-0.195,4.162-1.217
					c3.892-2.954,2.578-9.34,0.746-12.912c-1.008-1.965-3.504-4.086-5.79-4.032c-1.354,0.02-2.428,0.843-3.192,2.446
					c-0.881,1.85,0.463,6.083,2.282,7.19c0.32,0.196,1.07,0.652,2.217-0.86c0.401-0.534,1.163-0.642,1.699-0.234
					c0.533,0.404,0.639,1.165,0.233,1.699c-1.544,2.039-3.565,2.59-5.41,1.468c-2.883-1.754-4.623-7.34-3.21-10.305
					c1.16-2.436,3.06-3.795,5.347-3.828c3.32-0.05,6.635,2.72,7.982,5.35c2.642,5.15,3.319,12.339-1.438,15.95
					C515.258,228.357,513.579,228.957,511.886,228.958z"/>
			</g>
			<g>
				<path d="M515.229,248.513c-1.862,0-3.733-0.122-5.583-0.241c-0.731-0.048-1.46-0.096-2.179-0.134
					c-0.669-0.036-1.183-0.608-1.146-1.276c0.036-0.669,0.623-1.192,1.276-1.146c0.729,0.039,1.465,0.087,2.206,0.135
					c4.937,0.32,10.045,0.653,14.365-1.521c5.295-2.663,8.881-8.479,9.838-15.957c1.146-8.95-1.742-18.177-7.188-22.959
					c-5.444-4.783-11.967-6.991-17.446-5.903c-4.298,0.851-7.746,3.684-9.974,8.193c-0.297,0.6-1.023,0.848-1.625,0.55
					c-0.601-0.296-0.847-1.023-0.55-1.624c2.574-5.211,6.611-8.495,11.677-9.499c6.21-1.232,13.51,1.183,19.519,6.46
					c6.024,5.292,9.237,15.375,7.994,25.09c-1.063,8.291-5.128,14.785-11.154,17.816
					C522.075,248.099,518.667,248.513,515.229,248.513z"/>
			</g>
			<g>
				<path d="M429.141,228.567c-0.44,0-0.864-0.24-1.08-0.658l-39.35-76.55c-0.306-0.596-0.071-1.326,0.524-1.632
					c0.597-0.309,1.327-0.071,1.633,0.524l39.351,76.55c0.306,0.596,0.07,1.326-0.524,1.632
					C429.517,228.524,429.327,228.567,429.141,228.567z"/>
			</g>
			<g>
				<path d="M442.564,227.85c-0.434,0-0.853-0.233-1.07-0.642l-40.477-75.832c-0.317-0.59-0.093-1.325,0.498-1.641
					c0.588-0.314,1.325-0.093,1.641,0.499l40.477,75.832c0.316,0.59,0.092,1.325-0.499,1.641
					C442.953,227.804,442.758,227.85,442.564,227.85z"/>
			</g>
			<g>
				<path d="M471.464,240.762c-0.425,0-0.837-0.224-1.059-0.62l-49.701-88.745c-0.328-0.584-0.119-1.323,0.466-1.651
					c0.585-0.328,1.323-0.119,1.649,0.465l49.701,88.745c0.327,0.584,0.119,1.323-0.466,1.651
					C471.867,240.712,471.664,240.762,471.464,240.762z"/>
			</g>
			<g>
				<path d="M477.406,223.34c-0.438,0-0.859-0.237-1.076-0.652l-37.199-71.323c-0.309-0.594-0.079-1.326,0.515-1.636
					c0.597-0.312,1.326-0.08,1.637,0.515l37.198,71.323c0.309,0.594,0.079,1.327-0.514,1.636
					C477.786,223.296,477.595,223.34,477.406,223.34z"/>
			</g>
			<g>
				<path d="M492.778,220.062c-0.438,0-0.861-0.238-1.078-0.654l-35.354-68.044c-0.308-0.594-0.077-1.327,0.518-1.635
					c0.593-0.311,1.325-0.078,1.635,0.517l35.355,68.044c0.308,0.594,0.077,1.327-0.518,1.635
					C493.157,220.018,492.966,220.062,492.778,220.062z"/>
			</g>
			<g>
				<polygon fill="#C60101" points="347.057,140 466.338,140 493.392,98 316.313,98 				"/>
				<g>
					<path d="M467.004,141H346.437l-0.362-0.067L313.938,97h181.665L467.004,141z M347.676,139h117.997l25.508-40H318.689
						L347.676,139z"/>
				</g>
			</g>
			<g>
				<path d="M332.775,207.226c-1.791,0-3.83-0.732-6.544-3.196c-1.019-0.923-1.551-2.072-1.584-3.411
					c-0.111-4.464,5.589-10.182,11.104-15.711c3.407-3.417,6.626-6.645,7.71-8.869c2.538-5.206,2.711-13.267,2.85-19.744
					c0.038-1.75,0.073-3.417,0.149-4.937c0.035-0.669,0.584-1.207,1.272-1.15c0.669,0.033,1.185,0.602,1.151,1.271
					c-0.075,1.498-0.11,3.142-0.147,4.868c-0.152,7.063-0.323,15.07-3.096,20.754c-1.261,2.588-4.619,5.955-8.172,9.519
					c-4.67,4.683-10.482,10.512-10.397,13.938c0.017,0.669,0.268,1.202,0.79,1.676c3.618,3.284,5.187,2.77,7.783,1.925
					c1.715-0.559,3.848-1.255,6.887-0.954c1.217,0.12,2.373,0.509,3.393,0.852c2.573,0.866,3.768,1.161,5.106-0.969
					c0.836-1.33,0.903-2.687,0.18-3.628c-0.719-0.936-2.02-1.223-3.486-0.768c-0.642,0.2-1.319-0.16-1.517-0.799
					c-0.199-0.64,0.16-1.319,0.799-1.518c2.438-0.755,4.786-0.14,6.127,1.607c1.348,1.753,1.329,4.204-0.05,6.396
					c-2.412,3.835-5.474,2.805-7.935,1.977c-0.94-0.316-1.912-0.644-2.855-0.737c-2.544-0.248-4.246,0.307-5.899,0.846
					C335.214,206.85,334.059,207.226,332.775,207.226z"/>
			</g>
			<g>
				<path d="M356.485,226.825c-0.05,0-0.099-0.003-0.15-0.01l-1.604-0.197c-10.422-1.277-17.392-2.345-19.239-5.413
					c-0.52-0.864-0.597-1.842-0.22-2.829c0.318-0.833,0.921-1.696,1.559-2.61c2.077-2.979,4.225-6.059,0.129-10.323
					c-0.464-0.483-0.449-1.25,0.034-1.715c0.481-0.463,1.25-0.447,1.714,0.035c5.476,5.699,2.119,10.514,0.112,13.39
					c-0.55,0.789-1.069,1.534-1.282,2.088c-0.127,0.334-0.078,0.526,0.033,0.712c1.375,2.285,11.052,3.471,17.457,4.256l1.606,0.198
					c0.666,0.083,1.137,0.688,1.054,1.353C357.612,226.375,357.088,226.825,356.485,226.825z"/>
			</g>
			<g>
				<path d="M370.024,182.89c-3.861-3.754-10.433-4.918-15.229-4.03c-0.047,0.009-0.095,0.026-0.142,0.027
					c-1.097,0.012-1.949-2.054-1.949-2.054C367.346,174.272,370.024,182.89,370.024,182.89z"/>
			</g>
			<g>
				<path d="M374.233,178.039c-5.341-5.192-14.432-6.802-21.063-5.573c-0.066,0.013-0.13,0.037-0.195,0.038
					c-1.518,0.017-2.696-2.841-2.696-2.841C370.528,166.121,374.233,178.039,374.233,178.039z"/>
			</g>
			<ellipse cx="358.451" cy="180.737" rx="2.479" ry="4.006"/>
			<g>
				<path fill="#FFFFFF" d="M474,146.159c0,3.226-2.615,5.841-5.841,5.841H347.841c-3.226,0-5.841-2.615-5.841-5.841v-0.317
					c0-3.226,2.615-5.841,5.841-5.841h120.318c3.226,0,5.841,2.615,5.841,5.841V146.159z"/>
				<path d="M476,146.946c0,3.896-3.158,7.054-7.054,7.054H348.054c-3.896,0-7.054-3.158-7.054-7.054v-0.892
					c0-3.896,3.158-7.054,7.054-7.054h120.893c3.896,0,7.054,3.158,7.054,7.054V146.946z M474,145.628
					c0-2.556-2.072-4.628-4.628-4.628H348.628c-2.556,0-4.628,2.072-4.628,4.628v0.743c0,2.556,2.072,4.628,4.628,4.628h120.744
					c2.556,0,4.628-2.072,4.628-4.628V145.628z"/>
			</g>
			<g>
				<path fill="#C60101" d="M258.504,397.581c0,0,45.936-63.954,82.186-152.466c-4.04-1.771-119.084,20.366-155.012,72.087
					c-0.4,16.949-1.348,189.998-0.118,214.181c78.701,45.91,159.37,26.411,163.411,24.639
					C305.233,449.229,258.504,397.581,258.504,397.581z"/>
				<g>
					<path d="M300.365,562c-0.001,0-0.003,0-0.005,0c-28.862,0-72.314-4.855-115.412-29.994l-0.567-0.118l-0.033-0.551
						c-1.253-24.662-0.228-199.629,0.117-214.217l0.009-0.337l0.208-0.286c18.455-26.569,57.117-44.688,86.3-55.215
						c33.563-12.107,63.213-17.481,68.817-17.481c0.646,0,1.058,0.062,1.377,0.202l1.083,0.476l-0.448,1.096
						c-33.747,82.399-76.412,144.297-81.767,151.926c5.79,6.694,49.49,59.035,90.047,158.062l0.448,1.095l-1.083,0.051
						C347.833,557.42,329.263,562,300.365,562z M186.739,530.666c42.442,24.583,85.185,29.758,113.621,29.758
						c24.914,0,42.359-3.833,46.993-5.148c-43.017-104.565-89.283-156.369-89.748-156.881l-0.657-0.726l0.571-0.795
						c0.456-0.634,45.713-64.083,81.389-150.613c-15.582,0.955-118.698,23.873-152.025,71.335
						C186.533,334.347,185.545,503.965,186.739,530.666z"/>
				</g>
			</g>
			<g>
				<circle cx="396.383" cy="461.648" r="4.072"/>
				<circle cx="402.446" cy="479.839" r="4.071"/>
				<circle cx="419.424" cy="481.052" r="4.071"/>
				<circle cx="423.062" cy="499.242" r="4.072"/>
				<circle cx="440.04" cy="500.454" r="4.072"/>
			</g>
			<g>
				<rect x="216" y="263" fill="#FDCB45" width="19" height="160"/>
				<path d="M236,424h-21V262h21V424z M218,422h15V264h-15V422z"/>
			</g>
			<path fill="#FFFFFF" d="M366.336,571.24c0.827,14.718,9.3,29.924,16.289,42.479c6.858,12.322,14.839,26.443,25.797,35.68
				c7.956,6.705,12.26,0.386,21.106,1.394c5.833,0.666,12.022,2.571,13.77-3.822l-0.015,2.177c0.039-0.796,0.067-1.64,0.091-2.509
				c0.06-0.251,0.128-0.486,0.176-0.763c0.417-2.428,0.217-5.116,0.074-7.747c0.262-5.097,0.895-10.266,2.779-14.132
				c3.343-6.855,23.776-20.868,17.505-26.562c-5.049-4.583-7.063-2.559-10.908-1.608l-0.071-0.08
				c-0.335-1.243-1.102-2.087-2.032-3.178c-1.749-4.75,2.711-8.349,3.652-10.813c0.68-1.779-0.925-3.04-3.709-3.987l1.973,0.362
				c5.109-7.458-1.367-6.514-4.202-12.02c-2.538-4.928,7.318-17.184,2.313-19.152c-31.331-12.316-63.704,3.637-76.536,12.321
				c-0.445,0.061-0.918,0.152-1.429,0.358C367.368,561.891,365.976,564.859,366.336,571.24z M452.998,595.826
				c-0.016,0.005-0.033,0.007-0.05,0.012c-0.006-0.028-0.01-0.061-0.019-0.088C452.954,595.776,452.974,595.8,452.998,595.826z"/>
			<path fill="#FDCB45" d="M364.987,556.092c-4.719-6.625-7.439-18.003-14.546-22.674c-5.293-3.479-16.989-4.741-22.695-1.771
				c-3.603,1.876-5.583,5.389-7.418,8.885c-5.585-10.651-27.261-5.549-33.41,2.261c-2.479,3.151-2.93,7.005-2.89,10.899
				c-14.68,0.494-29.799,5.494-28.926,22.985c0.611,12.229,11.646,28.658,25.616,26.883c6.171-0.783,10.548-5.729,14.103-10.402
				c1.533,2.579,2.616,5.426,3.695,8.256l21.797,47.733l98.069-0.307L364.987,556.092z"/>
			<g>
				<path d="M418.383,650.052c-0.414,0-0.818-0.212-1.044-0.596c-0.784-1.323-57.433-100.86-57.997-101.851
					c-5.26-9.242-12.93-19.391-25.634-15.805c-10.336,2.915-13.279,9.968-13.927,15.369c-1.18,9.83,4.514,21.584,12.693,26.199
					c3.64,2.055,9.262,3.502,15.376-1.269c5.095-3.974,5.767-10.579,4.173-15.362c-1.824-5.471-6.216-8.8-11.753-8.906
					c-4.085-0.092-6.529,1.33-6.909,3.964c-0.385,2.665,1.484,5.999,3.702,6.606c2.296,0.634,3.85-2.201,4.57-3.944
					c0.256-0.621,0.969-0.914,1.584-0.659c0.618,0.255,0.913,0.965,0.659,1.583c-2.477,6-6.038,5.746-7.454,5.359
					c-3.425-0.938-6.028-5.367-5.461-9.291c0.269-1.867,1.705-6.19,9.356-6.044c6.51,0.126,11.876,4.175,14.006,10.566
					c2.238,6.719,0.237,13.969-4.982,18.042c-5.595,4.364-12.008,4.884-18.06,1.466c-8.956-5.055-15.195-17.883-13.909-28.6
					c1.04-8.671,6.607-14.856,15.676-17.416c14.49-4.093,23.147,7.712,28.4,16.942c0.564,0.99,57.223,100.543,57.975,101.815
					c0.342,0.575,0.15,1.319-0.426,1.66C418.806,649.998,418.593,650.052,418.383,650.052z"/>
			</g>
			<g>
				<path d="M302.808,583.377c-2.935,0-5.874-0.787-8.597-2.356c-5.275-3.039-9.244-8.962-10.893-16.254
					c-1.806-7.99-0.537-16.422,3.313-22.006c7.193-10.429,21.58-13.163,32.068-6.097c0.86,0.579,1.665,1.19,2.554,1.873
					c0.532,0.407,0.633,1.167,0.225,1.699c-0.407,0.531-1.167,0.633-1.701,0.224c-0.857-0.656-1.632-1.243-2.434-1.783
					c-9.394-6.331-22.274-3.88-28.717,5.462c-3.477,5.043-4.605,12.742-2.944,20.094c1.498,6.632,5.047,11.984,9.737,14.688
					c4.474,2.577,9.623,2.701,14.122,0.337c4.566-2.396,7.544-6.92,7.965-12.101c0.387-4.747-2.308-11.721-6.364-13.598
					c-2.297-1.064-4.748-0.315-7.286,2.222c-2.258,2.259-1.484,4.625-1.047,5.537c0.754,1.572,2.205,2.618,3.456,2.478
					c1.271-0.139,2.271-1.514,2.821-3.873c0.151-0.653,0.805-1.058,1.456-0.907c0.652,0.153,1.059,0.805,0.906,1.457
					c-1.079,4.638-3.544,5.583-4.918,5.733c-2.27,0.249-4.701-1.328-5.906-3.839c-1.377-2.87-0.81-5.974,1.518-8.301
					c4.148-4.15,7.739-3.765,10.019-2.708c5.149,2.383,8.225,10.344,7.764,15.996c-0.49,6.014-3.95,11.266-9.256,14.051
					C308.166,582.721,305.488,583.377,302.808,583.377z"/>
			</g>
			<g>
				<path d="M320.313,650.358c-0.485,0-0.944-0.293-1.13-0.772c-2.056-5.286-31.258-67.681-34.115-71.688
					c-1.55-2.174-3.425-3.527-5.277-3.81c-1.417-0.218-2.815,0.194-4.163,1.217c-3.89,2.954-2.578,9.341-0.746,12.913
					c1.008,1.965,3.487,4.026,5.79,4.031c1.354-0.02,2.428-0.842,3.193-2.447c0.881-1.849-0.463-6.082-2.282-7.188
					c-0.322-0.195-1.071-0.649-2.217,0.86c-0.403,0.533-1.166,0.641-1.7,0.234c-0.533-0.405-0.638-1.165-0.233-1.698
					c1.545-2.04,3.568-2.59,5.41-1.469c2.883,1.754,4.623,7.503,3.21,10.467c-1.161,2.438-3.06,3.991-5.347,3.991
					c-0.028,0-0.058,0-0.087,0c-3.347,0-6.559-2.905-7.895-5.513c-2.642-5.152-3.318-12.421,1.438-16.032
					c1.863-1.413,3.937-2.04,5.993-1.724c2.507,0.381,4.953,2.066,6.888,4.779c3.067,4.303,32.221,66.603,34.399,72.207
					c0.243,0.622-0.066,1.321-0.69,1.564C320.607,650.338,320.459,650.358,320.313,650.358z"/>
			</g>
			<g>
				<path d="M278.763,603.751c-5.396,0-11.253-2.407-16.228-6.776c-6.024-5.292-9.237-15.375-7.994-25.09
					c1.063-8.292,5.128-14.785,11.155-17.816c4.91-2.47,10.352-2.116,15.616-1.773c0.731,0.048,1.458,0.095,2.175,0.133
					c0.669,0.037,1.182,0.609,1.146,1.277c-0.037,0.669-0.608,1.17-1.277,1.146c-0.727-0.04-1.462-0.087-2.203-0.135
					c-4.938-0.321-10.047-0.653-14.369,1.52c-5.295,2.663-8.881,8.479-9.837,15.958c-1.146,8.949,1.743,18.176,7.188,22.958
					c5.445,4.784,11.973,6.989,17.446,5.904c4.296-0.851,7.746-3.684,9.974-8.192c0.296-0.602,1.022-0.85,1.625-0.551
					c0.601,0.297,0.847,1.024,0.549,1.624c-2.574,5.21-6.611,8.495-11.677,9.499C280.986,603.647,279.884,603.751,278.763,603.751z"
					/>
			</g>
			<g>
				<path d="M401.166,650.975c-0.44,0-0.864-0.239-1.08-0.658l-39.351-76.551c-0.306-0.596-0.071-1.326,0.524-1.632
					c0.598-0.309,1.327-0.072,1.633,0.523l39.351,76.551c0.306,0.596,0.071,1.326-0.524,1.632
					C401.542,650.932,401.353,650.975,401.166,650.975z"/>
			</g>
			<g>
				<path d="M388.869,650.975c-0.434,0-0.853-0.232-1.071-0.642L347.322,574.5c-0.316-0.59-0.092-1.325,0.499-1.642
					c0.587-0.314,1.325-0.092,1.64,0.5l40.477,75.833c0.316,0.59,0.093,1.325-0.499,1.641
					C389.257,650.93,389.062,650.975,388.869,650.975z"/>
			</g>
			<g>
				<path d="M369.194,650.975c-0.425,0-0.837-0.223-1.059-0.62l-49.701-88.746c-0.328-0.584-0.12-1.323,0.465-1.651
					c0.585-0.326,1.324-0.118,1.65,0.467l49.701,88.746c0.328,0.584,0.12,1.322-0.465,1.65
					C369.598,650.925,369.394,650.975,369.194,650.975z"/>
			</g>
			<g>
				<path d="M350.749,650.975c-0.438,0-0.86-0.236-1.077-0.651L312.474,579c-0.309-0.594-0.079-1.326,0.514-1.637
					c0.597-0.313,1.326-0.078,1.637,0.515l37.199,71.322c0.309,0.595,0.079,1.327-0.514,1.637
					C351.129,650.931,350.938,650.975,350.749,650.975z"/>
			</g>
			<g>
				<path d="M333.534,650.975c-0.438,0-0.861-0.238-1.078-0.653l-35.354-68.045c-0.308-0.595-0.077-1.327,0.518-1.635
					c0.594-0.312,1.325-0.078,1.635,0.517l35.355,68.045c0.308,0.595,0.077,1.326-0.518,1.634
					C333.913,650.931,333.722,650.975,333.534,650.975z"/>
			</g>
			<g>
				<polygon fill="#C60101" points="443.897,660 324.616,660 297.563,703 474.641,703 				"/>
				<g>
					<path d="M477.017,704H295.352l28.599-45h120.567l0.362,0.567L477.017,704z M299.774,702h172.492l-28.987-40H325.282
						L299.774,702z"/>
				</g>
			</g>
			<g>
				<path d="M443.284,650.358c-0.02,0-0.041,0-0.062-0.002c-0.669-0.033-1.185-0.602-1.151-1.271
					c0.075-1.498,0.11-3.142,0.147-4.869c0.151-7.063,0.323-15.068,3.096-20.752c1.261-2.588,4.618-5.955,8.172-9.52
					c4.67-4.683,10.482-10.512,10.397-13.937c-0.017-0.67-0.269-1.203-0.79-1.677c-3.618-3.283-5.188-2.771-7.783-1.926
					c-1.715,0.56-3.847,1.251-6.888,0.953c-1.216-0.119-2.372-0.508-3.392-0.852c-2.571-0.864-3.768-1.158-5.106,0.971
					c-0.836,1.33-0.903,2.687-0.18,3.627c0.717,0.936,2.019,1.223,3.486,0.769c0.644-0.2,1.319,0.16,1.517,0.8
					c0.199,0.64-0.158,1.319-0.799,1.517c-2.436,0.757-4.785,0.142-6.128-1.606c-1.348-1.753-1.329-4.204,0.05-6.396
					c2.412-3.836,5.476-2.806,7.934-1.978c0.941,0.315,1.913,0.643,2.856,0.736c2.533,0.247,4.244-0.307,5.898-0.846
					c2.829-0.923,5.505-1.794,10.163,2.437c1.019,0.924,1.552,2.072,1.585,3.41c0.111,4.465-5.59,10.183-11.104,15.711
					c-3.407,3.417-6.626,6.646-7.711,8.869c-2.538,5.206-2.711,13.267-2.85,19.742c-0.037,1.75-0.073,3.418-0.148,4.938
					C444.462,649.854,443.926,650.358,443.284,650.358z"/>
			</g>
			<g>
				<path d="M453.121,597.174c-0.318,0-0.637-0.125-0.874-0.372c-5.477-5.698-2.119-10.514-0.112-13.389
					c0.55-0.79,1.069-1.535,1.281-2.089c0.128-0.334,0.079-0.527-0.032-0.713c-1.375-2.283-11.053-3.471-17.457-4.257l-1.606-0.197
					c-0.665-0.082-1.137-0.688-1.054-1.354c0.082-0.664,0.683-1.136,1.353-1.054l1.604,0.198
					c10.423,1.276,17.392,2.345,19.239,5.412c0.521,0.864,0.597,1.843,0.221,2.828c-0.318,0.834-0.922,1.697-1.559,2.611
					c-2.077,2.979-4.226,6.059-0.129,10.32c0.464,0.483,0.448,1.251-0.033,1.715C453.726,597.062,453.423,597.174,453.121,597.174z"
					/>
			</g>
			<g>
				<path d="M420.931,617.676c3.86,3.754,10.433,4.919,15.229,4.031c0.047-0.01,0.095-0.027,0.142-0.028
					c1.097-0.012,1.949,2.055,1.949,2.055C423.608,626.295,420.931,617.676,420.931,617.676z"/>
			</g>
			<g>
				<path d="M416.722,622.526c5.341,5.191,14.432,6.803,21.063,5.573c0.065-0.012,0.13-0.035,0.195-0.037
					c1.518-0.017,2.696,2.842,2.696,2.842C420.426,634.444,416.722,622.526,416.722,622.526z"/>
			</g>
			<ellipse cx="432.503" cy="619.829" rx="2.479" ry="4.006"/>
			<g>
				<path fill="#FFFFFF" d="M449,654.159c0,3.226-2.615,5.841-5.841,5.841H322.841c-3.226,0-5.841-2.615-5.841-5.841v-0.318
					c0-3.226,2.615-5.841,5.841-5.841h120.318c3.226,0,5.841,2.615,5.841,5.841V654.159z"/>
				<path d="M451,654.946c0,3.896-3.158,7.054-7.054,7.054H323.054c-3.896,0-7.054-3.158-7.054-7.054v-0.893
					c0-3.896,3.158-7.054,7.054-7.054h120.893c3.896,0,7.054,3.158,7.054,7.054V654.946z M448,654.628
					c0-2.556-2.072-4.628-4.628-4.628H322.628c-2.556,0-4.628,2.072-4.628,4.628v0.744c0,2.556,2.072,4.628,4.628,4.628h120.744
					c2.556,0,4.628-2.072,4.628-4.628V654.628z"/>
			</g>
			<g>
				<rect x="557" y="378" fill="#FDCB45" width="18" height="161"/>
				<path d="M577,540h-21V377h21V540z M558,538h16V379h-16V538z"/>
			</g>
			<g>
				<rect x="557" y="539" fill="#FFFFFF" width="18" height="9"/>
				<path d="M577,549h-21v-11h21V549z M558,546h16v-6h-16V546z"/>
			</g>
			<g>
				<rect x="557" y="548" fill="#FFFFFF" width="18" height="8"/>
				<path d="M577,557h-21v-11h21V557z M558,555h16v-6h-16V555z"/>
			</g>
			<g>
				<rect x="557" y="556" fill="#FFFFFF" width="18" height="9"/>
				<path d="M577,566h-21v-11h21V566z M558,563h16v-6h-16V563z"/>
			</g>
			<g>
				<g>
					<path fill="#FFFFFF" d="M581.719,514.752c3.858,5.322,3.333,11.037-0.776,15.476c-4.11,4.445-36.886-13.086-39.843-21.229
						c-1.387-3.816,0.552-10.738,3.945-13.006"/>
					<path d="M578.623,532.148c-0.782,0-1.682-0.102-2.702-0.308c-10.176-2.054-33.226-14.895-35.962-22.43
						c-1.631-4.488,0.637-11.904,4.412-14.427l1.348,2.016c-2.834,1.894-4.719,8.173-3.48,11.583
						c2.205,6.072,24.286,18.888,34.162,20.88c2.944,0.592,3.588,0.01,3.651-0.06c3.847-4.154,4.097-9.234,0.686-13.939l1.964-1.424
						c4.092,5.646,3.767,12.004-0.869,17.012C581.154,531.784,580.095,532.148,578.623,532.148z"/>
				</g>
				<g>
					<path fill="#FFFFFF" d="M581.688,497.907c6.354,4.036,5.5,13.696,2.26,16.044c-4.459,3.23-35.379-15.085-38.053-18.08
						c-3.174-3.553-3.647-9.257,0.653-13.238"/>
					<path d="M582.492,515.476c-9.015,0-35.402-16.445-37.502-18.797c-3.378-3.783-4.27-10.304,0.734-14.937l1.648,1.781
						c-3.911,3.619-3.249,8.545-0.573,11.54c3.464,3.879,33.233,20.24,36.437,17.906c1.053-0.764,2.071-3.089,1.981-6.057
						c-0.051-1.633-0.558-5.682-4.18-7.982l1.301-2.047c3.238,2.058,5.171,5.687,5.303,9.955c0.107,3.526-1.063,6.703-2.981,8.095
						C584.146,515.307,583.409,515.476,582.492,515.476z"/>
				</g>
				<g>
					<path fill="#FFFFFF" d="M586.064,481.967c3.916,4.958,2.859,9.311,0.407,13.629c-2.777,4.889-5.433,1.675-9.854-0.394
						c-5.918-2.769-11.326-5.024-17.252-7.769c-3.02-1.397-10.739-3.214-12.478-6.236c-2.212-3.849,1.412-9.666,4.037-12.332"/>
					<path d="M583.191,499c-0.036,0-0.072,0-0.108,0c-1.482,0-2.887-0.648-4.514-1.574c-0.78-0.445-1.589-0.81-2.466-1.22
						c-3.102-1.451-6.123-2.739-9.043-4.031c-2.691-1.191-5.39-2.361-8.205-3.664c-0.767-0.355-1.938-0.755-3.18-1.192
						c-3.72-1.309-8.349-2.932-9.84-5.522c-2.528-4.4,1.141-10.653,4.225-13.784l1.729,1.703c-2.648,2.689-5.594,7.843-3.85,10.877
						c1.042,1.812,5.556,3.4,8.542,4.451c1.353,0.476,2.521,0.887,3.393,1.289c2.803,1.298,5.488,2.487,8.167,3.672
						c2.934,1.296,5.965,2.638,9.09,4.1c0.966,0.452,1.854,0.957,2.638,1.403c1.343,0.764,2.504,1.425,3.376,1.446
						c0.347,0.009,1.144,0.03,2.273-1.957c2.04-3.593,3.416-7.567-0.306-12.277l1.904-1.504c4.649,5.887,2.714,10.908,0.509,14.791
						C586.31,498.146,584.891,499,583.191,499z"/>
				</g>
				<g>
					<path fill="#FFFFFF" d="M586.715,481.925c3.294-6.734,6.26-10.271-0.94-15.806c-7.233-5.559-15.701-8.681-24.4-10.662
						c-6.907-1.571-8.569,1.217-10.311,7.637c-2.109,7.772,5.03,6.732,11.226,8.604c8.081,2.443,17.372,5.75,24.454,10.659"/>
					<path d="M586.053,483.355c-7.349-5.096-17.282-8.431-24.114-10.496c-1.341-0.405-2.749-0.672-4.109-0.93
						c-3.171-0.601-6.166-1.167-7.585-3.433c-0.893-1.428-1.008-3.299-0.351-5.721c1.671-6.164,3.496-10.382,11.749-8.501
						c10.241,2.332,18.376,5.892,24.87,10.883c7.25,5.572,5.061,9.87,2.289,15.312c-0.321,0.633-0.658,1.294-0.998,1.987
						l-0.845-0.412L586.053,483.355z M558.048,456.225c-3.285,0-4.435,2.102-5.814,7.187c-0.47,1.733-0.448,2.977,0.066,3.798
						c0.856,1.368,3.23,1.817,5.98,2.338c1.424,0.27,2.896,0.548,4.359,0.991c6.586,1.99,15.999,5.143,23.447,9.925
						c0.187-0.374,0.373-0.737,0.554-1.093c2.778-5.455,4.047-7.945-1.605-12.289c-6.21-4.773-14.038-8.188-23.931-10.441
						C559.911,456.369,558.907,456.225,558.048,456.225z"/>
				</g>
			</g>
			<g>
				<path fill="#FFFFFF" d="M591,568.543c0,3.014-2.443,5.457-5.457,5.457h-42.086c-3.014,0-5.457-2.443-5.457-5.457v-0.086
					c0-3.014,2.443-5.457,5.457-5.457h42.086c3.014,0,5.457,2.443,5.457,5.457V568.543z"/>
				<path d="M585.614,576h-42.443c-3.678,0-6.67-3.321-6.67-7c0-3.678,2.992-7,6.67-7h42.443c3.677,0,6.67,3.322,6.67,7
					C592.284,572.679,589.291,576,585.614,576z M543.171,565c-2.341,0-4.245,1.66-4.245,4s1.904,4,4.245,4h42.443
					c2.34,0,4.244-1.66,4.244-4s-1.904-4-4.244-4H543.171z"/>
			</g>
			<g>
				<circle fill="#C60101" cx="565.946" cy="596.045" r="20.188"/>
				<g>
					<path d="M565.947,617.446c-11.801,0-21.402-9.6-21.402-21.401c0-11.801,9.602-21.4,21.402-21.4c11.8,0,21.399,9.6,21.399,21.4
						C587.347,607.847,577.747,617.446,565.947,617.446z M565.947,577.07c-10.464,0-18.977,8.512-18.977,18.975
						s8.513,18.976,18.977,18.976c10.463,0,18.975-8.513,18.975-18.976S576.41,577.07,565.947,577.07z"/>
				</g>
			</g>
			<g>
				<circle fill="#FB821F" cx="565.947" cy="381.376" r="15.631"/>
				<g>
					<path d="M565.947,398.221c-9.288,0-16.845-7.557-16.845-16.845c0-9.288,7.557-16.844,16.845-16.844s16.844,7.556,16.844,16.844
						C582.791,390.665,575.235,398.221,565.947,398.221z M565.947,366.958c-7.951,0-14.42,6.468-14.42,14.418
						c0,7.951,6.469,14.419,14.42,14.419c7.95,0,14.418-6.468,14.418-14.419C580.365,373.426,573.897,366.958,565.947,366.958z"/>
				</g>
			</g>
			<g>
				<path d="M453.813,578.815l-2.001-1.369c2.702-3.945,1.876-4.605-0.334-6.37c-1.268-1.013-2.846-2.272-3.946-4.411
					c-1.438-2.79,0.174-6.922,1.732-10.918c1.291-3.308,2.753-7.055,1.214-7.659c-36.402-14.313-74.075,10.237-79.982,15.664
					l-1.642-1.786c6.093-5.595,44.94-30.904,82.512-16.136c3.789,1.491,1.943,6.223,0.157,10.799
					c-1.299,3.331-2.773,7.108-1.837,8.927c0.864,1.678,2.104,2.668,3.305,3.626C455.801,571.425,457.504,573.429,453.813,578.815z"
					/>
			</g>
			<g>
				<polygon fill="#FDCB45" points="470.707,700.339 436.752,678.814 414.621,700.945 385.517,678.511 357.322,699.732 
					336.706,678.208 300.326,699.732 				"/>
				<path d="M414.725,702.556l-1.569-1.209l-55.699-0.197l-0.267,0.2l-0.193-0.203l-61.076-0.217l40.996-24.256l20.536,21.442
					l28.071-21.13l28.462,21.938l0.937,0.003l21.658-21.658l38.328,24.297l-58.984-0.209L414.725,702.556z M418.342,698.939
					l48.163,0.173l-29.582-18.754L418.342,698.939z M360.664,698.735l49.331,0.176l-24.486-18.876L360.664,698.735z M304.73,698.535
					l49.937,0.18l-18.171-18.974L304.73,698.535z"/>
			</g>
			<g>
				<rect x="216" y="254" fill="#FFFFFF" width="19" height="9"/>
				<path d="M236,264h-21v-11h21V264z M218,262h15v-7h-15V262z"/>
			</g>
			<g>
				<rect x="216" y="246" fill="#FFFFFF" width="19" height="8"/>
				<path d="M236,255h-21v-10h21V255z M218,253h15v-6h-15V253z"/>
			</g>
			<g>
				<rect x="216" y="237" fill="#FFFFFF" width="19" height="9"/>
				<path d="M236,247h-21v-11h21V247z M218,245h15v-7h-15V245z"/>
			</g>
			<g>
				<g>
					<path fill="#FFFFFF" d="M209.235,285.814c-3.858-5.323-3.333-11.037,0.777-15.476c4.11-4.445,36.886,13.085,39.843,21.229
						c1.387,3.815-0.552,10.737-3.946,13.005"/>
					<path d="M246.583,305.582l-1.348-2.017c2.833-1.894,4.719-8.172,3.48-11.583c-2.205-6.072-24.286-18.888-34.162-20.88
						c-2.945-0.592-3.587-0.008-3.651,0.059c-3.846,4.155-4.096,9.236-0.686,13.941l-1.963,1.423
						c-4.092-5.646-3.767-12.004,0.869-17.011c1.038-1.124,2.973-1.381,5.911-0.79c10.176,2.053,33.226,14.894,35.962,22.429
						C252.626,295.643,250.358,303.059,246.583,305.582z"/>
				</g>
				<g>
					<path fill="#FFFFFF" d="M209.266,302.658c-6.354-4.035-5.5-13.695-2.26-16.043c4.459-3.231,35.378,15.084,38.053,18.08
						c3.174,3.553,3.647,9.258-0.654,13.239"/>
					<path d="M245.229,318.823l-1.648-1.78c3.912-3.62,3.25-8.545,0.573-11.541c-3.463-3.879-33.226-20.236-36.436-17.906
						c-1.053,0.764-2.073,3.089-1.981,6.057c0.051,1.634,0.558,5.682,4.179,7.981l-1.3,2.047c-3.239-2.057-5.171-5.685-5.303-9.954
						c-0.107-3.526,1.063-6.704,2.982-8.095c5.564-4.037,37.355,15.663,39.669,18.254
						C249.344,307.67,250.234,314.19,245.229,318.823z"/>
				</g>
				<g>
					<path fill="#FFFFFF" d="M204.89,318.599c-3.917-4.958-2.86-9.31-0.407-13.628c2.777-4.889,5.432-1.676,9.854,0.393
						c5.918,2.769,11.326,5.024,17.252,7.768c3.02,1.398,10.739,3.214,12.477,6.236c2.212,3.85-1.412,9.666-4.037,12.332"/>
					<path d="M240.894,332.551l-1.729-1.702c2.649-2.689,5.594-7.842,3.85-10.877c-1.041-1.81-5.554-3.397-8.54-4.448
						c-1.354-0.476-2.522-0.887-3.395-1.292c-2.802-1.297-5.489-2.485-8.168-3.67c-2.932-1.297-5.964-2.638-9.089-4.1
						c-0.965-0.451-1.852-0.957-2.636-1.403c-1.343-0.765-2.504-1.425-3.378-1.447c-0.342-0.012-1.143-0.031-2.272,1.958
						c-2.041,3.593-3.416,7.566,0.306,12.277l-1.904,1.503c-4.649-5.886-2.714-11.097-0.509-14.979
						c1.242-2.188,2.743-3.223,4.443-3.184c1.483,0.038,2.887,0.838,4.514,1.764c0.781,0.443,1.587,0.903,2.465,1.313
						c3.102,1.451,6.121,2.787,9.042,4.079c2.692,1.19,5.391,2.384,8.206,3.688c0.769,0.355,1.941,0.768,3.182,1.205
						c3.719,1.308,8.347,2.936,9.838,5.527C247.646,323.164,243.977,329.42,240.894,332.551z"/>
				</g>
				<g>
					<path fill="#FFFFFF" d="M204.24,318.641c-3.294,6.734-6.26,10.271,0.94,15.805c7.233,5.56,15.701,8.681,24.4,10.662
						c6.907,1.572,8.569-1.215,10.31-7.636c2.109-7.773-5.031-6.733-11.226-8.605c-8.081-2.444-17.372-5.749-24.454-10.659"/>
					<path d="M232.868,346.742c-1.033,0-2.208-0.145-3.556-0.451c-10.243-2.333-18.377-5.893-24.871-10.883
						c-7.25-5.571-5.061-9.87-2.289-15.313c0.322-0.632,0.658-1.292,0.998-1.987l0.844,0.414l0.907-1.309
						c7.345,5.091,17.28,8.428,24.114,10.495c1.341,0.404,2.748,0.671,4.108,0.929c3.171,0.6,6.167,1.167,7.586,3.433
						c0.893,1.427,1.008,3.299,0.351,5.721C239.664,342.947,238.158,346.742,232.868,346.742z M204.868,320.104
						c-0.188,0.374-0.373,0.737-0.554,1.093c-2.778,5.455-4.047,7.945,1.606,12.288c6.209,4.773,14.037,8.188,23.93,10.442
						c5.755,1.31,7.13-0.355,8.871-6.771c0.47-1.734,0.449-2.978-0.066-3.799c-0.856-1.368-3.23-1.817-5.981-2.337
						c-1.422-0.27-2.895-0.548-4.358-0.991C221.727,328.036,212.312,324.884,204.868,320.104z"/>
				</g>
			</g>
			<g>
				<path fill="#FFFFFF" d="M254,233.543c0,3.014-2.443,5.457-5.457,5.457h-42.086c-3.014,0-5.457-2.443-5.457-5.457v-0.086
					c0-3.014,2.443-5.457,5.457-5.457h42.086c3.014,0,5.457,2.443,5.457,5.457V233.543z"/>
				<path d="M248.49,240h-42.444c-3.677,0-6.67-3.322-6.67-7s2.993-7,6.67-7h42.444c3.677,0,6.669,3.322,6.669,7
					S252.167,240,248.49,240z M206.046,229c-2.34,0-4.244,1.66-4.244,4s1.904,4,4.244,4h42.444c2.34,0,4.244-1.66,4.244-4
					s-1.904-4-4.244-4H206.046z"/>
			</g>
			<g>
				<circle fill="#C60101" cx="225.008" cy="205.733" r="20.188"/>
				<g>
					<path d="M225.007,227.135c-11.8,0-21.399-9.601-21.399-21.401c0-11.8,9.6-21.4,21.399-21.4c11.801,0,21.402,9.6,21.402,21.4
						C246.409,217.534,236.808,227.135,225.007,227.135z M225.007,186.759c-10.463,0-18.974,8.512-18.974,18.975
						c0,10.463,8.511,18.976,18.974,18.976c10.464,0,18.977-8.513,18.977-18.976C243.983,195.271,235.471,186.759,225.007,186.759z"
						/>
				</g>
			</g>
			<g>
				<circle fill="#FB821F" cx="225.008" cy="419.189" r="15.632"/>
				<g>
					<path d="M225.007,436.033c-9.288,0-16.843-7.556-16.843-16.844s7.555-16.844,16.843-16.844c9.289,0,16.845,7.556,16.845,16.844
						S234.295,436.033,225.007,436.033z M225.007,404.771c-7.95,0-14.418,6.469-14.418,14.419c0,7.951,6.468,14.419,14.418,14.419
						c7.951,0,14.42-6.468,14.42-14.419C239.427,411.239,232.958,404.771,225.007,404.771z"/>
				</g>
			</g>
			<g>
				<path d="M364.267,259.301c-8.047,0.001-16.392-1.307-24.68-4.566c-3.79-1.49-1.943-6.221-0.158-10.797
					c1.299-3.332,2.774-7.108,1.837-8.927c-0.864-1.678-2.104-2.668-3.304-3.626c-2.809-2.243-4.512-4.247-0.822-9.634l2.001,1.37
					c-2.703,3.945-1.876,4.605,0.334,6.369c1.269,1.012,2.846,2.272,3.946,4.41c1.438,2.792-0.174,6.923-1.732,10.919
					c-1.291,3.307-2.752,7.054-1.214,7.659c8.021,3.153,16.107,4.42,23.898,4.42c27.568,0.002,51.479-15.854,56.084-20.085
					l1.642,1.786C417.351,242.96,392.699,259.299,364.267,259.301z"/>
			</g>
			<g>
				<path d="M449.504,484.549c-0.769-8.866-1.493-17.077-2.165-24.686c-4.249-48.129-6.38-72.287-3.956-85.819
					c2.517-14.041,10.109-17.01,23.894-22.4c1.42-0.556,2.914-1.14,4.483-1.767l0.9,2.252c-1.575,0.629-3.074,1.216-4.5,1.773
					c-26.814,10.485-26.814,10.485-18.405,105.746c0.672,7.61,1.396,15.822,2.165,24.69L449.504,484.549z"/>
			</g>
			<g>
				<path d="M458.804,471.044c-5.86-50.059-7.629-76.089-6.104-89.846c1.591-14.342,7.059-16.105,13.981-18.339
					c2.318-0.748,4.947-1.596,7.736-3.014l1.1,2.163c-2.961,1.505-5.686,2.384-8.091,3.16c-13.026,4.202-17.899,5.774-6.213,105.594
					L458.804,471.044z"/>
			</g>
			<g>
				<path d="M466.92,461.967c-8.396-66.279-6.249-85.968,9.986-91.594l0.794,2.292c-14.6,5.06-16.478,25.022-8.374,88.998
					L466.92,461.967z"/>
			</g>
			<g>
				<path d="M474.071,439.422c-0.877-5.413-8.181-53.033,5.412-58.382l0.889,2.257c-9.979,3.926-6.203,41.564-3.906,55.736
					L474.071,439.422z"/>
			</g>
			<g>
				
					<rect x="438.534" y="379.344" transform="matrix(0.2376 0.9714 -0.9714 0.2376 735.8143 -176.3933)" width="83.491" height="2.426"/>
			</g>
			<g>
				<path d="M484.534,436.479c-1.027-6.575-4.155-28.771-1.216-38.325l2.318,0.713c-2.786,9.057,0.285,30.792,1.295,37.238
					L484.534,436.479z"/>
			</g>
			<g>
				<polygon fill="#FDCB45" points="320.247,100.227 354.202,121.752 376.333,99.621 405.438,122.055 433.633,100.833 
					454.248,122.358 490.629,100.833 				"/>
				<path d="M454.037,123.892l-20.536-21.442l-28.071,21.129l-28.461-21.938l-0.937-0.003l-21.659,21.658L316.045,99l58.984,0.209
					l1.2-1.2l1.569,1.21l55.699,0.198l0.266-0.201l0.193,0.202l61.076,0.217L454.037,123.892z M436.288,101.853l18.171,18.972
					l31.766-18.794L436.288,101.853z M380.96,101.656l24.486,18.875l24.845-18.7L380.96,101.656z M324.449,101.455l29.583,18.753
					l18.581-18.582L324.449,101.455z"/>
			</g>
			<g>
				<circle cx="394.571" cy="338.917" r="4.072"/>
				<circle cx="388.508" cy="320.727" r="4.071"/>
				<circle cx="371.53" cy="319.515" r="4.071"/>
				<circle cx="367.892" cy="301.324" r="4.072"/>
				<circle cx="350.915" cy="300.111" r="4.072"/>
			</g>
			<g>
				<circle fill="#FB821F" cx="381.361" cy="428.809" r="7.225"/>
				<g>
					<path d="M381.361,437.246c-4.653,0-8.438-3.785-8.438-8.438s3.785-8.438,8.438-8.438s8.438,3.786,8.438,8.438
						S386.014,437.246,381.361,437.246z M381.361,422.796c-3.315,0-6.013,2.697-6.013,6.013c0,3.314,2.698,6.012,6.013,6.012
						s6.012-2.697,6.012-6.012C387.373,425.493,384.676,422.796,381.361,422.796z"/>
				</g>
			</g>
			<g>
				<circle fill="#FB821F" cx="410.465" cy="373.025" r="7.225"/>
				<g>
					<path d="M410.465,381.463c-4.652,0-8.438-3.786-8.438-8.438s3.785-8.438,8.438-8.438c4.653,0,8.438,3.785,8.438,8.438
						S415.118,381.463,410.465,381.463z M410.465,367.013c-3.314,0-6.012,2.697-6.012,6.012s2.697,6.013,6.012,6.013
						c3.315,0,6.013-2.697,6.013-6.013S413.78,367.013,410.465,367.013z"/>
				</g>
			</g>
		</g>
	</g>
	<path fill-rule="evenodd" clip-rule="evenodd" d="M161.06,136.382c-1.516,0-2.976,0.24-4.346,0.681
		c2.291-2.521,3.684-5.869,3.684-9.542c0-7.841-6.356-14.197-14.197-14.197s-14.198,6.355-14.198,14.197
		c0,4.082,1.727,7.76,4.486,10.35c-1.154-0.302-2.363-0.465-3.61-0.465c-7.842,0-14.197,6.356-14.197,14.197
		c0,7.841,6.355,14.197,14.197,14.197c4.555,0,8.605-1.063,11.203-4.398c-0.649,8.7-1.338,16.599-1.338,16.599h8.507
		c0,0-1.006-8.662-1.849-18.237c2.564,3.685,6.828,5.554,11.657,5.554c7.842,0,14.197-6.627,14.197-14.468
		C175.256,143.009,168.902,136.382,161.06,136.382z M142.868,141.32c-0.022,0.045-0.044,0.089-0.066,0.134
		c-0.07-0.067-0.141-0.134-0.212-0.201C142.682,141.276,142.775,141.298,142.868,141.32z"/>
	<path fill-rule="evenodd" clip-rule="evenodd" d="M680.922,660.893c0-7.841-6.355-14.221-14.197-14.221
		c-4.829,0-9.092,2.628-11.657,6.313c0.843-9.575,1.85-16.984,1.85-16.984h-8.509c0,0,0.689,6.646,1.34,15.345
		c-2.599-3.335-6.648-5.52-11.205-5.52c-7.841,0-14.196,6.29-14.196,14.132c0,7.84,6.355,14.162,14.196,14.162
		c1.247,0,2.458-0.178,3.611-0.479c-2.76,2.59-4.486,6.259-4.486,10.341c0,7.841,6.357,14.194,14.197,14.194
		c7.841,0,14.196-6.357,14.196-14.199c0-3.673-1.394-7.021-3.683-9.542c1.369,0.439,2.83,0.679,4.346,0.679
		C674.566,675.112,680.922,668.732,680.922,660.893z M648.256,670.242c0.07-0.068,0.142-0.135,0.21-0.201
		c0.022,0.044,0.046,0.088,0.066,0.133C648.44,670.196,648.348,670.219,648.256,670.242z"/>
	<path fill-rule="evenodd" clip-rule="evenodd" d="M306,158.48c-2.249,0-4.415,0.356-6.447,1.01
		c3.397-3.741,5.465-8.706,5.465-14.156c0-11.633-9.429-21.061-21.062-21.061c-11.632,0-21.063,9.428-21.063,21.061
		c0,6.056,2.562,11.514,6.656,15.354c-1.711-0.449-3.505-0.689-5.355-0.689c-11.634,0-21.061,9.429-21.061,21.061
		c0,11.632,9.427,21.062,21.061,21.062c6.757,0,12.766-1.688,16.62-6.636c-0.963,12.907-1.985,24.514-1.985,24.514h12.622
		c0,0-1.494-12.741-2.743-26.945c3.803,5.465,10.128,8.294,17.292,8.294c11.634,0,21.062-9.803,21.062-21.436
		C327.063,168.284,317.635,158.48,306,158.48z M279.014,165.806c-0.033,0.066-0.066,0.133-0.098,0.198
		c-0.104-0.099-0.209-0.198-0.315-0.298C278.737,165.741,278.874,165.774,279.014,165.806z"/>
	<path fill-rule="evenodd" clip-rule="evenodd" d="M553.555,633.889c0-11.632-9.428-21.471-21.062-21.471
		c-7.165,0-13.49,2.98-17.292,8.445c1.249-14.204,2.742-26.863,2.742-26.863h-12.622c0,0,1.022,11.525,1.985,24.433
		c-3.854-4.948-9.862-6.606-16.62-6.606c-11.634,0-21.061,9.374-21.061,21.007c0,11.632,9.427,21.033,21.061,21.033
		c1.85,0,3.644-0.255,5.355-0.703c-4.094,3.84-6.655,9.291-6.655,15.346c0,11.634,9.431,21.061,21.063,21.061
		c11.633,0,21.063-9.432,21.063-21.064c0-5.448-2.068-10.415-5.466-14.156c2.032,0.653,4.198,1.01,6.447,1.01
		C544.127,655.358,553.555,645.52,553.555,633.889z M505.093,648.133c0.105-0.102,0.211-0.199,0.315-0.299
		c0.032,0.065,0.065,0.132,0.099,0.197C505.366,648.063,505.229,648.097,505.093,648.133z"/>
</g>
</svg>
