<?xml version="1.0" encoding="UTF-8" standalone="no"?>
<!-- Created with Inkscape (http://www.inkscape.org/) -->

<svg
   xmlns:dc="http://purl.org/dc/elements/1.1/"
   xmlns:cc="http://creativecommons.org/ns#"
   xmlns:rdf="http://www.w3.org/1999/02/22-rdf-syntax-ns#"
   xmlns:svg="http://www.w3.org/2000/svg"
   xmlns="http://www.w3.org/2000/svg"
   xmlns:xlink="http://www.w3.org/1999/xlink"
   xmlns:sodipodi="http://sodipodi.sourceforge.net/DTD/sodipodi-0.dtd"
   xmlns:inkscape="http://www.inkscape.org/namespaces/inkscape"
   width="82"
   height="218"
   id="svg2"
   version="1.1"
   inkscape:version="0.48.4 r9939"
   sodipodi:docname="Nouveau document 1">
  <defs
     id="defs4">
    <linearGradient
       inkscape:collect="always"
       id="linearGradient3112">
      <stop
         style="stop-color:#808080;stop-opacity:1;"
         offset="0"
         id="stop3114" />
      <stop
         style="stop-color:#333333;stop-opacity:1"
         offset="1"
         id="stop3116" />
    </linearGradient>
    <linearGradient
       inkscape:collect="always"
       id="linearGradient3075">
      <stop
         style="stop-color:#ffffff;stop-opacity:1;"
         offset="0"
         id="stop3077" />
      <stop
         style="stop-color:#ffffff;stop-opacity:0;"
         offset="1"
         id="stop3079" />
    </linearGradient>
    <linearGradient
       inkscape:collect="always"
       id="linearGradient3023">
      <stop
         style="stop-color:#55ddff;stop-opacity:1;"
         offset="0"
         id="stop3025" />
      <stop
         style="stop-color:#d5f6ff;stop-opacity:1"
         offset="1"
         id="stop3027" />
    </linearGradient>
    <linearGradient
       id="linearGradient3007">
      <stop
         style="stop-color:#ffff00;stop-opacity:1;"
         offset="0"
         id="stop3009" />
      <stop
         id="stop3015"
         offset="0.5"
         style="stop-color:#ff7f00;stop-opacity:0.49803922;" />
      <stop
         style="stop-color:#ff0000;stop-opacity:0;"
         offset="1"
         id="stop3011" />
    </linearGradient>
    <radialGradient
       inkscape:collect="always"
       xlink:href="#linearGradient3007"
       id="radialGradient3013"
       cx="219.70589"
       cy="523.72412"
       fx="219.70589"
       fy="523.72412"
       r="15"
       gradientUnits="userSpaceOnUse"
       gradientTransform="matrix(-2.0895618e-6,5.0112412,-0.99858486,-4.4184159e-7,564.09615,-76.825008)" />
    <radialGradient
       inkscape:collect="always"
       xlink:href="#linearGradient3023"
       id="radialGradient3029"
       cx="229.09091"
       cy="413.31808"
       fx="229.09091"
       fy="413.31808"
       r="6.5909133"
       gradientUnits="userSpaceOnUse"
       gradientTransform="matrix(1.4482749,0.9371171,-0.57150851,0.83205079,133.51908,-145.26856)" />
    <radialGradient
       inkscape:collect="always"
       xlink:href="#linearGradient3075"
       id="radialGradient3081"
       cx="249.00261"
       cy="463.2489"
       fx="249.00261"
       fy="463.2489"
       r="12.689452"
       gradientTransform="matrix(0.87442246,-0.35789408,0.85579642,2.0929789,-549.0989,95.351136)"
       gradientUnits="userSpaceOnUse" />
    <radialGradient
       inkscape:collect="always"
       xlink:href="#linearGradient3075"
       id="radialGradient3085"
       gradientUnits="userSpaceOnUse"
       gradientTransform="matrix(-0.87442246,-0.35789408,-0.85579642,2.0929789,631.35107,95.351136)"
       cx="249.00261"
       cy="463.2489"
       fx="249.00261"
       fy="463.2489"
       r="12.689452" />
    <linearGradient
       inkscape:collect="always"
       xlink:href="#linearGradient3112"
       id="linearGradient3118"
       x1="224.73215"
       y1="501.73718"
       x2="225.44643"
       y2="535.48718"
       gradientUnits="userSpaceOnUse"
       gradientTransform="matrix(0.99858486,0,0,0.99907659,-183.56891,512.28489)" />
  </defs>
  <sodipodi:namedview
     id="base"
     pagecolor="#ffffff"
     bordercolor="#666666"
     borderopacity="1.0"
     inkscape:pageopacity="0.0"
     inkscape:pageshadow="2"
     inkscape:zoom="0.98994949"
     inkscape:cx="204.11663"
     inkscape:cy="210.85783"
     inkscape:document-units="px"
     inkscape:current-layer="layer1"
     showgrid="false"
     inkscape:window-width="1600"
     inkscape:window-height="837"
     inkscape:window-x="-8"
     inkscape:window-y="-8"
     inkscape:window-maximized="1">
    <inkscape:grid
       type="xygrid"
       id="grid2996"
       empspacing="5"
       visible="true"
       enabled="true"
       snapvisiblegridlinesonly="true" />
  </sodipodi:namedview>
  <metadata
     id="metadata7">
    <rdf:RDF>
      <cc:Work
         rdf:about="">
        <dc:format>image/svg+xml</dc:format>
        <dc:type
           rdf:resource="http://purl.org/dc/dcmitype/StillImage" />
        <dc:title></dc:title>
      </cc:Work>
    </rdf:RDF>
  </metadata>
  <g
     inkscape:label="Calque 1"
     inkscape:groupmode="layer"
     id="layer1"
     transform="translate(0,-834.36217)">
    <path
       sodipodi:nodetypes="ccscc"
       inkscape:connector-curvature="0"
       id="path3068"
       d="m 25.342988,959.71693 c -26.3911694,27.83143 -21.3982451,43.53117 -21.3982451,43.53117 0,0 -11.7690315,-46.74249 5.3495689,-54.23557 17.1185902,-7.49307 15.6920422,0.71363 15.6920422,0.71363 z"
       style="fill:#ff0000;stroke:none" />
    <path
       style="fill:#ff0000;stroke:none"
       d="m 56.657012,959.71693 c 26.391169,27.83143 21.398245,43.53117 21.398245,43.53117 0,0 11.769032,-46.74249 -5.349569,-54.23557 -17.11859,-7.49307 -15.692042,0.71363 -15.692042,0.71363 z"
       id="path3066"
       inkscape:connector-curvature="0"
       sodipodi:nodetypes="ccscc" />
    <path
       style="fill:#999999;stroke:none"
       d="M 41.11269,834.3622 C -3.8236282,944.26062 31.126842,1014.196 31.126842,1014.196 l -4.992925,9.9907 9.268116,0 11.421314,0 9.268116,0 -4.992924,-9.9907 c 0,0 34.95047,-69.93538 -9.985849,-179.8338 z"
       id="path2998"
       inkscape:connector-curvature="0" />
    <path
       style="fill:url(#radialGradient3013);fill-opacity:1;stroke:none"
       d="m 26.133917,1024.174 c 0,0 0,28.1882 14.978773,28.1882 14.978773,-4.6981 14.978773,-28.1882 14.978773,-28.1882 -14.978773,0 -29.957546,0 -29.957546,0 z"
       id="path3005"
       inkscape:connector-curvature="0"
       sodipodi:nodetypes="cccc" />
    <path
       sodipodi:type="arc"
       style="fill:#00ffff;fill-opacity:1;stroke:none"
       id="path3019"
       sodipodi:cx="232.5"
       sodipodi:cy="414.86218"
       sodipodi:rx="6.5909133"
       sodipodi:ry="6.5909133"
       d="m 239.09091,414.86218 c 0,3.64006 -2.95085,6.59092 -6.59091,6.59092 -3.64006,0 -6.59091,-2.95086 -6.59091,-6.59092 0,-3.64006 2.95085,-6.59091 6.59091,-6.59091 3.64006,0 6.59091,2.95085 6.59091,6.59091 z"
       transform="matrix(1.5692048,0,0,1.6175526,-323.37079,249.70813)" />
    <path
       transform="matrix(1.5692048,0,0,1.6175526,-323.37079,249.70813)"
       d="m 239.09091,414.86218 c 0,3.64006 -2.95085,6.59092 -6.59091,6.59092 -3.64006,0 -6.59091,-2.95086 -6.59091,-6.59092 0,-3.64006 2.95085,-6.59091 6.59091,-6.59091 3.64006,0 6.59091,2.95085 6.59091,6.59091 z"
       sodipodi:ry="6.5909133"
       sodipodi:rx="6.5909133"
       sodipodi:cy="414.86218"
       sodipodi:cx="232.5"
       id="path3021"
       style="fill:url(#radialGradient3029);fill-opacity:1;stroke:none"
       sodipodi:type="arc" />
    <path
       sodipodi:nodetypes="ccscc"
       inkscape:connector-curvature="0"
       id="path3073"
       d="m 56.657012,959.71693 c 26.391169,27.83143 21.398245,43.53117 21.398245,43.53117 0,0 11.769032,-46.74249 -5.349569,-54.23557 -17.11859,-7.49307 -15.692042,0.71363 -15.692042,0.71363 z"
       style="fill:url(#radialGradient3081);fill-opacity:1;stroke:none" />
    <path
       style="fill:url(#radialGradient3085);fill-opacity:1;stroke:none"
       d="m 25.595171,959.71693 c -26.39116978,27.83143 -21.3982455,43.53117 -21.3982455,43.53117 0,0 -11.7690315,-46.74249 5.3495689,-54.23557 17.1185906,-7.49307 15.6920416,0.71363 15.6920416,0.71363 z"
       id="path3083"
       inkscape:connector-curvature="0"
       sodipodi:nodetypes="ccscc" />
    <path
       style="fill:#4d4d4d;stroke:none"
       d="m 18.20765,945.97779 c 0.08839,7.49447 0.542661,14.40599 1.217025,20.76206 10.871104,6.62576 32.504926,6.62576 43.37603,0 0.674364,-6.35607 1.128631,-13.26759 1.217025,-20.76206 -10.779513,7.68389 -35.030566,7.68389 -45.81008,0 z"
       id="path3056"
       inkscape:connector-curvature="0" />
    <path
       style="fill:#4d4d4d;stroke:none"
       d="m 24.792069,885.78342 c -0.441205,1.96306 -0.857105,3.91334 -1.248231,5.83836 10.066554,1.17581 25.07115,1.17581 35.137705,0 -0.391126,-1.92502 -0.807027,-3.8753 -1.248232,-5.83836 -9.614784,0.99679 -23.026458,0.99679 -32.641242,0 z"
       id="path3061"
       inkscape:connector-curvature="0" />
    <path
       style="fill:#4d4d4d;stroke:none"
       d="m 28.567968,1007.983 c 1.444782,3.883 2.471058,6.0364 2.527668,6.1505 6.41419,0.347 13.619918,0.347 20.034109,0 0.05661,-0.1141 1.082885,-2.2675 2.527668,-6.1505 -7.835566,0.5592 -17.253879,0.5592 -25.089445,0 z"
       id="path3070"
       inkscape:connector-curvature="0" />
    <path
       style="fill:#808080;stroke:none"
       d="m 30.752372,1014.9141 -1.185819,2.404 23.092275,0 -1.18582,-2.404 -20.720636,0 z m -1.997169,3.9963 -1.18582,2.404 27.086614,0 -1.185819,-2.404 -24.714975,0 z m -1.99717,3.9963 -0.624116,1.28 9.268116,0 11.421314,0 9.268116,0 -0.624115,-1.28 -28.709315,0 z"
       id="path3095"
       inkscape:connector-curvature="0" />
    <path
       id="path3110"
       d="m 30.752372,1014.9141 -1.185819,2.404 23.092275,0 -1.18582,-2.404 -20.720636,0 z m -1.997169,3.9963 -1.18582,2.404 27.086614,0 -1.185819,-2.404 -24.714975,0 z m -1.99717,3.9963 -0.624116,1.28 9.268116,0 11.421314,0 9.268116,0 -0.624115,-1.28 -28.709315,0 z"
       style="fill:url(#linearGradient3118);fill-opacity:1;stroke:none"
       inkscape:connector-curvature="0" />
  </g>
</svg>
