<?xml version="1.0" encoding="UTF-8" standalone="no"?>
<!-- Created with Inkscape (http://www.inkscape.org/) -->

<svg
   xmlns:dc="http://purl.org/dc/elements/1.1/"
   xmlns:cc="http://creativecommons.org/ns#"
   xmlns:rdf="http://www.w3.org/1999/02/22-rdf-syntax-ns#"
   xmlns:svg="http://www.w3.org/2000/svg"
   xmlns="http://www.w3.org/2000/svg"
   xmlns:sodipodi="http://sodipodi.sourceforge.net/DTD/sodipodi-0.dtd"
   xmlns:inkscape="http://www.inkscape.org/namespaces/inkscape"
   width="222.28238"
   height="402.71194"
   id="svg67384"
   version="1.1"
   inkscape:version="0.48.3.1 r9886"
   sodipodi:docname="New document 24">
  <defs
     id="defs67386" />
  <sodipodi:namedview
     id="base"
     pagecolor="#ffffff"
     bordercolor="#666666"
     borderopacity="1.0"
     inkscape:pageopacity="0.0"
     inkscape:pageshadow="2"
     inkscape:zoom="0.35"
     inkscape:cx="-67.143764"
     inkscape:cy="237.0725"
     inkscape:document-units="px"
     inkscape:current-layer="layer1"
     showgrid="false"
     fit-margin-top="0"
     fit-margin-left="0"
     fit-margin-right="0"
     fit-margin-bottom="0"
     inkscape:window-width="472"
     inkscape:window-height="415"
     inkscape:window-x="0"
     inkscape:window-y="24"
     inkscape:window-maximized="0" />
  <metadata
     id="metadata67389">
    <rdf:RDF>
      <cc:Work
         rdf:about="">
        <dc:format>image/svg+xml</dc:format>
        <dc:type
           rdf:resource="http://purl.org/dc/dcmitype/StillImage" />
        <dc:title></dc:title>
      </cc:Work>
    </rdf:RDF>
  </metadata>
  <g
     inkscape:label="Layer 1"
     inkscape:groupmode="layer"
     id="layer1"
     transform="translate(-442.14377,-366.72271)">
    <rect
       style="fill:#161622;fill-opacity:1;fill-rule:evenodd;stroke:#000000;stroke-width:3.58501935;stroke-linecap:round;stroke-linejoin:round;stroke-miterlimit:4;stroke-opacity:1;stroke-dasharray:none;stroke-dashoffset:0"
       id="rect3252-6-7-2-7-1-6-3-1-1-2-3-3-9-0"
       width="137.66689"
       height="103.3107"
       x="-624.22888"
       y="650.55524"
       ry="23.332029"
       rx="67.663071"
       transform="matrix(-1,-7.4215825e-5,-0.0014835,0.9999989,0,0)"
       inkscape:export-filename="/home/sarato/Documents/cowboy.png"
       inkscape:export-xdpi="100"
       inkscape:export-ydpi="100" />
    <path
       style="fill:#ffffff;fill-opacity:1;stroke:#000000;stroke-width:2.90148282;stroke-linecap:round;stroke-linejoin:round;stroke-miterlimit:4;stroke-opacity:1;stroke-dasharray:none"
       d="m 554.60223,754.24462 0.66203,-64.26634"
       id="path3928-9-81-8-0-49-3-2-5-9-4-8-1-3"
       inkscape:connector-curvature="0"
       sodipodi:nodetypes="cc"
       inkscape:export-filename="/home/sarato/Documents/cowboy.png"
       inkscape:export-xdpi="100"
       inkscape:export-ydpi="100" />
    <path
       style="fill:#8ec7bb;fill-opacity:1;stroke:#000000;stroke-width:4.25831318;stroke-linecap:butt;stroke-linejoin:miter;stroke-miterlimit:4;stroke-opacity:1;stroke-dasharray:none"
       d="m 614.72668,545.44692 c 10.09708,0.47342 19.54599,14.23869 27.0762,31.85943 -13.55363,2.29803 -28.99705,3.86068 -43.47574,4.44152 -0.13277,-19.03648 3.3692,-34.60298 14.17874,-36.21554 0.74831,-0.11149 1.4793,-0.12026 2.2208,-0.0853 z"
       id="path3352-0-2-4-5-6-7-3-7"
       inkscape:connector-curvature="0"
       inkscape:export-filename="/home/sarato/Documents/cowboy.png"
       inkscape:export-xdpi="100"
       inkscape:export-ydpi="100" />
    <path
       style="fill:#ffffff;fill-opacity:1;fill-rule:evenodd;stroke:#000000;stroke-width:4.81884289;stroke-linecap:round;stroke-linejoin:round;stroke-miterlimit:4;stroke-opacity:1;stroke-dasharray:none;stroke-dashoffset:0"
       d="m 556.44457,522.66661 c 0.25406,0 0.50895,0.023 0.76253,0.023 0.14412,0 0.28836,0 0.43236,0 0.22215,0 0.44884,-2.5e-4 0.67147,0 l 0,0.0572 c 17.01294,0.96437 32.7734,11.5411 43.33534,24.89341 22.63878,28.43062 31.2727,65.87483 32.03488,101.80598 -0.59476,9.21581 1.14314,20.27853 -2.60595,28.26981 -13.62307,8.65662 -37.64544,10.10561 -54.02132,12.12863 -4.34588,0.20144 -11.24859,0.25734 -18.74295,0.30061 l 0,0.023 c -0.78643,0 -1.53463,0 -2.31018,-0.023 -0.0765,-2.3e-4 -0.15129,4.9e-4 -0.22753,0 -7.49436,-0.0433 -14.39708,-0.0985 -18.74295,-0.30061 -16.37589,-2.02302 -40.39825,-3.47201 -54.0212,-12.12863 -3.74921,-7.99128 -2.01132,-19.054 -2.60607,-28.26981 0.76218,-35.93115 9.39609,-73.37536 32.03488,-101.80598 10.56194,-13.35252 26.3224,-23.92904 43.33534,-24.89341 l 0,-0.0801 c 0.22275,-2.2e-4 0.4492,0 0.67147,0 z"
       id="path3932-5-3-8-0-8-51-1-3-0-2-1-8-9-2"
       inkscape:connector-curvature="0"
       inkscape:export-filename="/home/sarato/Documents/cowboy.png"
       inkscape:export-xdpi="100"
       inkscape:export-ydpi="100" />
    <path
       style="fill:#28170b;fill-opacity:1;stroke:#000000;stroke-width:4.65105581;stroke-linecap:butt;stroke-linejoin:miter;stroke-miterlimit:4;stroke-opacity:1;stroke-dasharray:none"
       d="m 544.92878,761.98878 c 0,0 -0.62631,-24.59172 -28.4801,-25.92777 -37.46905,-1.79743 -42.33093,22.1562 -42.33093,22.1562 -3.3404,7.14292 71.10703,13.82786 70.81103,3.77157 z"
       id="path4010-7-1-8-9-8-8-6-7-4-9-6-5-9"
       inkscape:connector-curvature="0"
       sodipodi:nodetypes="cscc"
       inkscape:export-filename="/home/sarato/Documents/cowboy.png"
       inkscape:export-xdpi="100"
       inkscape:export-ydpi="100" />
    <path
       style="fill:#28170b;fill-opacity:1;stroke:#000000;stroke-width:3.58501768;stroke-linecap:butt;stroke-linejoin:miter;stroke-miterlimit:4;stroke-opacity:1;stroke-dasharray:none"
       d="m 529.46576,573.25703 c 0,0 -15.28341,37.11689 -16.92093,55.1295 -1.63751,18.01261 -4.36679,32.60765 -4.36679,32.60765 l -28.56147,-6.94735 c 0,0 -2.04275,-20.58525 4.90454,-48.37471 6.94741,-27.78946 21.34113,-51.20419 21.34113,-51.20419 l 33.19296,13.89473 z"
       id="path67316"
       inkscape:connector-curvature="0"
       sodipodi:nodetypes="csccsccc"
       inkscape:export-filename="/home/sarato/Documents/cowboy.png"
       inkscape:export-xdpi="100"
       inkscape:export-ydpi="100" />
    <path
       sodipodi:nodetypes="csccsccc"
       inkscape:connector-curvature="0"
       id="path67318"
       d="m 583.35562,573.25703 c 0,0 15.28341,37.11689 16.92093,55.1295 1.63752,18.01261 4.36679,34.92344 4.36679,34.92344 l 28.56148,-6.94735 c 0,0 2.04274,-22.90104 -4.90455,-50.6905 -6.9474,-27.78946 -21.34113,-51.20419 -21.34113,-51.20419 l -33.19296,13.89473 z"
       style="fill:#28170b;fill-opacity:1;stroke:#000000;stroke-width:3.58501768;stroke-linecap:butt;stroke-linejoin:miter;stroke-miterlimit:4;stroke-opacity:1;stroke-dasharray:none"
       inkscape:export-filename="/home/sarato/Documents/cowboy.png"
       inkscape:export-xdpi="100"
       inkscape:export-ydpi="100" />
    <g
       transform="matrix(1.1950059,0,0,1.1950059,-3163.8904,-178.19903)"
       id="g67312"
       inkscape:export-filename="/home/sarato/Documents/cowboy.png"
       inkscape:export-xdpi="100"
       inkscape:export-ydpi="100">
      <path
         inkscape:connector-curvature="0"
         id="path67308"
         d="m 3069.0024,618.43567 c 0,0 23.295,9.1353 31.9735,18.27059 8.6785,9.1353 26.9491,21.01118 26.9491,21.01118 l 18.2706,-26.49236 10.0488,-14.1597 -82.2176,-10.50559 z"
         style="fill:#ff0000;stroke:#000000;stroke-width:3;stroke-linecap:butt;stroke-linejoin:miter;stroke-miterlimit:4;stroke-opacity:1;stroke-dasharray:none" />
      <path
         sodipodi:nodetypes="cscc"
         style="fill:#ff0000;stroke:#000000;stroke-width:3;stroke-linecap:butt;stroke-linejoin:miter;stroke-miterlimit:4;stroke-opacity:1;stroke-dasharray:3, 3;stroke-dashoffset:0"
         d="m 3075.139,614.88287 c 0,0 23.295,9.1353 31.9735,18.27059 8.6785,9.1353 19.5205,15.19751 19.5205,15.19751 l 18.2706,-26.49236"
         id="path67310"
         inkscape:connector-curvature="0" />
    </g>
    <rect
       style="fill:#c2b38f;fill-opacity:1;fill-rule:evenodd;stroke:#000000;stroke-width:4.57599211;stroke-linecap:round;stroke-linejoin:bevel;stroke-miterlimit:4;stroke-opacity:1;stroke-dasharray:none;stroke-dashoffset:0"
       id="rect4240-8-9-5-1-5-0-6-1-9"
       width="160.15974"
       height="137.27977"
       x="-638.29059"
       y="429.14633"
       rx="76.647881"
       ry="66.351891"
       transform="scale(-1,1)"
       inkscape:export-filename="/home/sarato/Documents/cowboy.png"
       inkscape:export-xdpi="100"
       inkscape:export-ydpi="100" />
    <path
       style="fill:#28170b;fill-opacity:1;stroke:#000000;stroke-width:4.8427062;stroke-linecap:butt;stroke-linejoin:miter;stroke-miterlimit:4;stroke-opacity:1;stroke-dasharray:none"
       d="m 561.9496,760.19596 c 0,0 0.65738,-24.44047 29.89678,-25.76841 39.33314,-1.78635 44.43689,22.01982 44.43689,22.01982 3.50651,7.09886 -74.64437,13.74266 -74.33367,3.74859 z"
       id="path4010-1-9-1-1-1-9-9-3-8-3-5-6-6-7"
       inkscape:connector-curvature="0"
       sodipodi:nodetypes="cscc"
       inkscape:export-filename="/home/sarato/Documents/cowboy.png"
       inkscape:export-xdpi="100"
       inkscape:export-ydpi="100" />
    <path
       style="fill:#ffffff;stroke:#000000;stroke-width:3.58501768;stroke-linecap:butt;stroke-linejoin:miter;stroke-miterlimit:4;stroke-opacity:1;stroke-dasharray:none"
       d="m 578.36492,524.81002 c 0,0 6.00419,-4.91253 14.73765,-3.82086 8.73334,1.09167 9.82498,2.18335 9.82498,7.64172 0,5.45837 -6.00419,11.46256 -12.00837,11.46256 -6.00419,0 -15.82929,-5.45836 -24.56263,-1.09167 -8.73335,4.3667 -13.64589,3.27502 -10.91674,-1.6375 2.72915,-4.91254 22.92511,-12.55425 22.92511,-12.55425 z"
       id="path67289"
       inkscape:connector-curvature="0"
       inkscape:export-filename="/home/sarato/Documents/cowboy.png"
       inkscape:export-xdpi="100"
       inkscape:export-ydpi="100" />
    <path
       style="fill:#ffff00;fill-opacity:1;stroke:#000000;stroke-width:3.58501768;stroke-miterlimit:4;stroke-opacity:1;stroke-dashoffset:0"
       d="m 601.29003,535.9997 c 0,4.97405 -4.03218,9.00631 -9.00628,9.00631 -4.97397,0 -9.00628,-4.03226 -9.00628,-9.00631 0,-1.93643 -0.13456,-4.9757 1.65102,-5.19875 l 13.20494,-1.64941 c 2.52229,-0.31506 3.1566,4.107 3.1566,6.84816 z"
       id="path67291"
       inkscape:connector-curvature="0"
       sodipodi:nodetypes="ssssss"
       inkscape:export-filename="/home/sarato/Documents/cowboy.png"
       inkscape:export-xdpi="100"
       inkscape:export-ydpi="100" />
    <rect
       style="fill:#c2b38f;fill-opacity:1;fill-rule:evenodd;stroke:#060000;stroke-width:4.54699755;stroke-linecap:round;stroke-linejoin:round;stroke-miterlimit:4;stroke-opacity:1;stroke-dasharray:none"
       id="rect3449-0-4-6-4-68-2-1-0"
       width="38.877319"
       height="28.931948"
       x="-580.2049"
       y="579.37335"
       rx="17.178347"
       ry="14.013911"
       transform="matrix(-0.99705406,0.07670199,0.07670199,0.99705406,0,0)"
       inkscape:export-filename="/home/sarato/Documents/cowboy.png"
       inkscape:export-xdpi="100"
       inkscape:export-ydpi="100" />
    <g
       id="g8610-3-1-6-6"
       transform="matrix(2.8148195,0.37360781,-0.47575701,1.6263078,-195.25559,-220.04959)"
       style="fill:#2b1100;fill-opacity:1"
       inkscape:export-filename="/home/sarato/Documents/cowboy.png"
       inkscape:export-xdpi="100"
       inkscape:export-ydpi="100">
      <path
         sodipodi:nodetypes="ssssss"
         inkscape:connector-curvature="0"
         id="path8467-6-9-5-7-5-5-3"
         d="m 372.97307,435.97485 c -1.78963,2.53832 -5.13173,0.14282 -8.8604,-4.48823 -5.66615,-7.03741 -12.22499,-19.23722 -15.58529,-27.13087 -0.98468,-2.3131 9.29456,-14.90623 10.64562,-12.79542 4.33344,6.77026 11.44826,17.13905 14.6373,26.91263 2.12467,6.51157 2.50677,12.75894 -0.83723,17.50189 z"
         inkscape:transform-center-y="0.37926447"
         inkscape:transform-center-x="-0.17337431"
         style="fill:#28170b;fill-opacity:1;fill-rule:evenodd;stroke:#000000;stroke-width:1.55999994;stroke-linecap:round;stroke-linejoin:round;stroke-miterlimit:4;stroke-opacity:1;stroke-dasharray:none;stroke-dashoffset:0" />
    </g>
    <g
       id="g66868"
       transform="matrix(0.95180943,0.16000066,-0.16000066,0.95180943,-2636.9214,-384.07766)"
       style="stroke-width:3.71441317;stroke-miterlimit:4;stroke-dasharray:none"
       inkscape:export-filename="/home/sarato/Documents/cowboy.png"
       inkscape:export-xdpi="100"
       inkscape:export-ydpi="100">
      <g
         style="stroke:#000000;stroke-width:3.71441317;stroke-miterlimit:4;stroke-opacity:1;stroke-dasharray:none"
         transform="translate(3586.3962,185.39961)"
         id="g4088">
        <path
           d="m -251.13,115.45 c -7.616,3.0162 -15.287,6.8118 -21.122,12.561 -8.2743,8.1522 -16.627,18.182 -18.255,29.683 -1.0808,7.6352 1.0856,16.5 6.1734,22.295 5.9664,6.7954 16.033,9.3077 24.989,10.561 10.147,1.4199 20.487,-1.6056 30.509,-3.7343 4.8012,-1.0198 9.5541,-2.4096 14.081,-4.3063 25.852,-10.831 50.721,-24.349 73.926,-40.07 16.198,-10.973 31.49,-23.505 45.111,-37.55 6.5669,-6.7717 14.474,-13.337 17.428,-22.295 1.3658,-4.1426 -0.34686,-13.081 -0.34686,-13.081 0,0 -11.393,0.20865 -16.428,2.5203 -6.5545,3.0094 -9.8443,11.136 -16.428,14.081 -5.4032,2.4168 -11.773,1.3157 -17.601,2.3469 -41.025,7.2578 -83.302,11.649 -122.04,26.989 z"
           id="path4026"
           inkscape:connector-curvature="0"
           style="fill:#28170b;fill-opacity:1;stroke:#000000;stroke-width:3.71441317;stroke-miterlimit:4;stroke-opacity:1;stroke-dasharray:none" />
        <path
           d="m -247.79,154.23 c 7.495,7.2022 20.339,6.3006 30.7,5.4677 11.684,-0.93919 22.628,-6.5327 33.19,-11.616 23.245,-11.189 65.55,-41.147 65.55,-41.147 0,0 -11.916,-15.628 -16.914,-24.063 -3.4566,-5.8338 -5.6553,-12.343 -8.9784,-18.254 -4.6896,-8.3412 -8.7189,-17.385 -15.425,-24.211 -3.3026,-3.362 -7.1153,-7.1848 -11.787,-7.8082 -10.108,-1.3488 -19.676,5.5811 -29.041,9.6164 -3.7503,1.616 -6.9394,4.4388 -10.787,5.8082 -6.8988,2.4556 -14.764,1.4553 -21.573,4.1487 -5.7797,2.2861 -10.875,6.1201 -15.765,9.9569 -5.0151,3.9351 -11.742,7.2306 -13.765,13.276 -4.7984,14.342 4.3168,29.946 7.1272,44.806 2.1574,11.408 -0.90356,25.975 7.4677,34.019 z"
           id="path4024"
           inkscape:connector-curvature="0"
           style="fill:#28170b;fill-opacity:1;stroke:#000000;stroke-width:3.71441317;stroke-miterlimit:4;stroke-opacity:1;stroke-dasharray:none" />
        <path
           d="m -128.72,94.875 c 0,0 -12.761,12.177 -19.812,17.438 -11.078,8.2644 -22.756,15.864 -35.125,22.031 -7.8635,3.9208 -16.159,7.0542 -24.625,9.4062 -7.4635,2.0735 -15.149,4.6477 -22.875,4.0938 -4.3239,-0.31 -8.5767,-1.9487 -12.344,-4.0938 -3.3687,-1.9182 -8.7812,-7.625 -8.7812,-7.625 l -1.6562,1.0312 c 0.48229,6.5678 1.6699,12.751 6.1562,17.062 7.495,7.2022 20.326,6.3016 30.688,5.4688 11.684,-0.93919 22.626,-6.51 33.188,-11.594 23.245,-11.189 65.562,-41.156 65.562,-41.156 0,0 -4.8764,-4.0249 -10.375,-12.062 z"
           id="path4075"
           inkscape:connector-curvature="0"
           style="fill:#000000;fill-opacity:1;stroke:#000000;stroke-width:3.71441317;stroke-miterlimit:4;stroke-opacity:1;stroke-dasharray:none" />
        <path
           d="m -237.72,188.58 c 0,0 35.786,-18.68 52.318,-30.166 12.092,-8.4007 23.14,-18.252 34.03,-28.162 13.5,-12.287 25.735,-25.896 38.723,-38.723 6.9976,-6.9109 11.929,-17.107 21.122,-20.601 4.3921,-1.6697 11.299,-3.1337 14.081,0.65314 4.5495,6.1933 -1.82,15.762 -5.8672,22.295 -8.7589,14.138 -24.596,22.425 -37.55,32.856 -18.949,15.26 -36.982,32.395 -58.672,43.417 -23.1,11.738 -58.186,18.431 -58.186,18.431 z"
           id="path4028"
           inkscape:connector-curvature="0"
           style="fill:#472914;fill-opacity:1;stroke:#000000;stroke-width:3.71441317;stroke-miterlimit:4;stroke-opacity:1;stroke-dasharray:none" />
        <path
           d="m -173.84,32.438 -26.5,15.438 -17.594,17.594 c 0,0 13.802,14.635 22.875,18.188 7.3048,2.8604 16.143,4.5568 23.469,1.75 6.0707,-2.3261 10.846,-8.1276 13.5,-14.062 3.1224,-6.9836 1.75,-22.875 1.75,-22.875 l 1.7812,-1.8125 c -1.5402,-2.2123 -3.2027,-4.3249 -5.0938,-6.25 -3.3026,-3.362 -7.1411,-7.1891 -11.812,-7.8125 -0.80014,-0.10677 -1.5814,-0.14769 -2.375,-0.15625 z"
           id="path4030"
           inkscape:connector-curvature="0"
           style="fill:#140c06;fill-opacity:1;stroke:#000000;stroke-width:3.71441317;stroke-miterlimit:4;stroke-opacity:1;stroke-dasharray:none" />
      </g>
      <path
         sodipodi:nodetypes="cacscsscc"
         inkscape:connector-curvature="0"
         id="path66866"
         d="m 3411.3475,218.30975 c 0,0 -17.6525,10.34821 -25.6734,16.64896 -6.5508,5.14594 -18.176,17.15163 -18.176,17.15163 0,0 -27.6343,9.82044 -33.8006,9.82044 -6.1663,0 -8.5839,-3.37032 -8.5839,-3.37032 0,-4.09458 19.7747,-19.69267 28.2248,-21.52336 8.7535,-1.89643 15.3016,-1.37029 20.7828,-3.65411 5.4812,-2.28383 26.9214,-13.35226 28.5201,-14.03741 5.2163,-2.494 8.9086,-1.13701 8.7062,-1.03583 z"
         style="fill:#472914;fill-opacity:1;stroke:#000000;stroke-width:3.71441317;stroke-linecap:butt;stroke-linejoin:miter;stroke-miterlimit:4;stroke-opacity:1;stroke-dasharray:none" />
    </g>
    <g
       id="g67279"
       transform="matrix(-0.66351951,0,0,0.66351951,2490.1723,202.34899)"
       style="stroke-width:3;stroke-miterlimit:4;stroke-dasharray:none"
       inkscape:export-filename="/home/sarato/Documents/cowboy.png"
       inkscape:export-xdpi="100"
       inkscape:export-ydpi="100">
      <path
         d="m 2871.7018,438.40521 c 0.4002,5.15993 -0.7167,10.04042 -2.8326,13.69552 -1.9761,3.41357 -21.1027,0.0716 -21.8765,-9.90737 -0.7737,-9.97565 4.1306,-18.91682 10.9547,-19.96301 6.8259,-1.04663 12.9809,6.19942 13.7544,16.17486"
         style="fill:#000000;fill-opacity:1;fill-rule:nonzero;stroke:none"
         id="path8709-5-6"
         inkscape:connector-curvature="0"
         sodipodi:nodetypes="csccc" />
      <path
         sodipodi:type="arc"
         style="fill:#ffffff;fill-opacity:1;stroke:none"
         id="path8715-3-5"
         sodipodi:cx="-358.50229"
         sodipodi:cy="840.9519"
         sodipodi:rx="0.66307449"
         sodipodi:ry="0.55256206"
         d="m -357.83921,840.9519 c 0,0.30518 -0.29687,0.55257 -0.66308,0.55257 -0.3662,0 -0.66307,-0.24739 -0.66307,-0.55257 0,-0.30517 0.29687,-0.55256 0.66307,-0.55256 0.36621,0 0.66308,0.24739 0.66308,0.55256 z"
         transform="matrix(-8.0188508,0.08746387,0.08746387,8.0188508,-86.303589,-6281.2009)" />
    </g>
    <path
       style="fill:none;stroke:#000000;stroke-width:1.99055851;stroke-linecap:butt;stroke-linejoin:miter;stroke-miterlimit:4;stroke-opacity:1;stroke-dasharray:none"
       d="m 603.10059,478.01546 -20.00285,8.78909"
       id="path67285"
       inkscape:connector-curvature="0"
       inkscape:export-filename="/home/sarato/Documents/cowboy.png"
       inkscape:export-xdpi="100"
       inkscape:export-ydpi="100" />
    <path
       style="fill:none;stroke:#000000;stroke-width:1.99055851;stroke-linecap:butt;stroke-linejoin:miter;stroke-miterlimit:4;stroke-opacity:1;stroke-dasharray:none"
       d="m 608.36459,506.50587 c 0,0 -9.42943,-3.00028 -13.5013,-2.57167 -4.07174,0.42862 -8.57213,2.57167 -8.57213,2.57167"
       id="path67287"
       inkscape:connector-curvature="0"
       inkscape:export-filename="/home/sarato/Documents/cowboy.png"
       inkscape:export-xdpi="100"
       inkscape:export-ydpi="100" />
    <path
       style="fill:none;stroke:#000000;stroke-width:3.58501768;stroke-linecap:butt;stroke-linejoin:miter;stroke-miterlimit:4;stroke-opacity:1;stroke-dasharray:none"
       d="m 556.53145,537.63718 c 0,0 19.37726,-6.82296 21.83347,-6.82296 2.45634,0 24.83557,-2.45626 24.83557,-2.45626"
       id="path67305"
       inkscape:connector-curvature="0"
       inkscape:export-filename="/home/sarato/Documents/cowboy.png"
       inkscape:export-xdpi="100"
       inkscape:export-ydpi="100" />
    <path
       style="fill:#333333;fill-opacity:1;stroke:#000000;stroke-width:3.58501768;stroke-linecap:butt;stroke-linejoin:miter;stroke-miterlimit:4;stroke-opacity:1;stroke-dasharray:none"
       d="m 478.84459,653.2749 0.77198,22.38595 c 0,0 15.43864,16.21053 74.87715,15.43859 59.43852,-0.77192 78.73679,-13.89473 78.73679,-13.89473 l 0,-21.61402 c 0,0 -63.29815,11.57894 -84.14024,10.80701 -20.8421,-0.77192 -70.24568,-13.1228 -70.24568,-13.1228 z"
       id="path67320"
       inkscape:connector-curvature="0"
       inkscape:export-filename="/home/sarato/Documents/cowboy.png"
       inkscape:export-xdpi="100"
       inkscape:export-ydpi="100" />
    <rect
       style="fill:#333333;fill-opacity:1;stroke:#000000;stroke-width:3.59974337;stroke-miterlimit:4;stroke-opacity:1;stroke-dasharray:none"
       id="rect67325"
       width="13.255095"
       height="46.797527"
       x="472.86395"
       y="661.815"
       rx="4.0372295"
       ry="4.0372295"
       inkscape:export-filename="/home/sarato/Documents/cowboy.png"
       inkscape:export-xdpi="100"
       inkscape:export-ydpi="100" />
    <rect
       style="fill:#c2b38f;fill-opacity:1;fill-rule:evenodd;stroke:#060000;stroke-width:3.48804832;stroke-linecap:round;stroke-linejoin:round;stroke-miterlimit:4;stroke-opacity:1;stroke-dasharray:none"
       id="rect3449-0-4-6-4-6-3-7-6-4-7-1-7"
       width="33.33025"
       height="24.803898"
       x="330.13824"
       y="717.94635"
       rx="14.727317"
       ry="12.014387"
       transform="matrix(0.98145995,-0.19166732,0.19166732,0.98145995,0,0)"
       inkscape:export-filename="/home/sarato/Documents/cowboy.png"
       inkscape:export-xdpi="100"
       inkscape:export-ydpi="100" />
    <path
       style="fill:#28170b;fill-opacity:1;stroke:#000000;stroke-width:4.04760647;stroke-linecap:butt;stroke-linejoin:miter;stroke-miterlimit:4;stroke-opacity:1;stroke-dasharray:none"
       d="m 456.74607,645.10265 c -7.45445,-8.98581 -5.27321,-29.14025 1.43604,-48.16995 8.15675,-23.13511 29.75648,-39.17194 42.33834,-38.12201 22.77549,1.90056 -3.88843,20.80922 -5.84454,44.5499 -1.53833,18.6691 1.75415,18.82468 2.65913,30.72519 0.76038,10.00043 -28.50017,15.48944 -40.58897,11.01687 z"
       id="path3352-0-2-4-5-6-4-3"
       inkscape:connector-curvature="0"
       sodipodi:nodetypes="cssssc"
       inkscape:export-filename="/home/sarato/Documents/cowboy.png"
       inkscape:export-xdpi="100"
       inkscape:export-ydpi="100" />
    <path
       style="fill:none;stroke:#000000;stroke-width:3.58501768;stroke-linecap:butt;stroke-linejoin:miter;stroke-miterlimit:4;stroke-opacity:1;stroke-dasharray:none"
       d="m 510.95416,514.71205 c 0,0 1.63752,7.6417 7.64171,14.19174 6.00418,6.55004 11.18955,9.82507 11.18955,9.82507"
       id="path67327"
       inkscape:connector-curvature="0"
       sodipodi:nodetypes="csc"
       inkscape:export-filename="/home/sarato/Documents/cowboy.png"
       inkscape:export-xdpi="100"
       inkscape:export-ydpi="100" />
    <path
       style="fill:none;stroke:#000000;stroke-width:3.58501768;stroke-linecap:butt;stroke-linejoin:miter;stroke-miterlimit:4;stroke-opacity:1;stroke-dasharray:none"
       d="m 508.22501,525.35586 9.82498,-5.18545"
       id="path67329"
       inkscape:connector-curvature="0"
       inkscape:export-filename="/home/sarato/Documents/cowboy.png"
       inkscape:export-xdpi="100"
       inkscape:export-ydpi="100" />
    <path
       style="fill:none;stroke:#000000;stroke-width:3.58501768;stroke-linecap:butt;stroke-linejoin:miter;stroke-miterlimit:4;stroke-opacity:1;stroke-dasharray:none"
       d="m 515.59377,531.9059 6.00419,-6.82296"
       id="path67331"
       inkscape:connector-curvature="0"
       inkscape:export-filename="/home/sarato/Documents/cowboy.png"
       inkscape:export-xdpi="100"
       inkscape:export-ydpi="100" />
    <path
       style="fill:none;stroke:#000000;stroke-width:3.58501768;stroke-linecap:butt;stroke-linejoin:miter;stroke-miterlimit:4;stroke-opacity:1;stroke-dasharray:none"
       d="m 521.8709,538.18301 c 0,-1.36459 4.63961,-7.91463 4.63961,-7.91463"
       id="path67333"
       inkscape:connector-curvature="0"
       inkscape:export-filename="/home/sarato/Documents/cowboy.png"
       inkscape:export-xdpi="100"
       inkscape:export-ydpi="100" />
  </g>
</svg>
