<?xml version="1.0" encoding="utf-8"?>
<!-- Generator: Adobe Illustrator 15.0.0, SVG Export Plug-In . SVG Version: 6.00 Build 0)  -->
<!DOCTYPE svg PUBLIC "-//W3C//DTD SVG 1.1//EN" "http://www.w3.org/Graphics/SVG/1.1/DTD/svg11.dtd">
<svg version="1.1" xmlns="http://www.w3.org/2000/svg" xmlns:xlink="http://www.w3.org/1999/xlink" x="0px" y="0px" width="600px"
	 height="600px" viewBox="0 0 600 600" enable-background="new 0 0 600 600" xml:space="preserve">
<g id="TV">
	<polygon fill="#231F20" points="395.75,209.25 197.75,232.25 198.5,359.75 395.25,366 	"/>
</g>
<g id="Screen">
	<linearGradient id="SVGID_1_" gradientUnits="userSpaceOnUse" x1="207.25" y1="288.75" x2="379.5" y2="288.75">
		<stop  offset="0" style="stop-color:#FFFFFF"/>
		<stop  offset="1" style="stop-color:#414A51"/>
	</linearGradient>
	<polygon fill="url(#SVGID_1_)" points="379.5,224.75 207.25,241.75 207.75,349 379.25,352.75 	"/>
</g>
<g id="Layer_3">
	<line fill="#231F20" x1="379.5" y1="224.75" x2="379.25" y2="352.75"/>
</g>
</svg>
