<?xml version="1.0" encoding="UTF-8" standalone="no"?>
<!-- Created with Inkscape (http://www.inkscape.org/) -->
<svg
    xmlns:dc="http://purl.org/dc/elements/1.1/"
    xmlns:cc="http://creativecommons.org/ns#"
    xmlns:rdf="http://www.w3.org/1999/02/22-rdf-syntax-ns#"
    xmlns:svg="http://www.w3.org/2000/svg"
    xmlns="http://www.w3.org/2000/svg"
    xmlns:sodipodi="http://sodipodi.sourceforge.net/DTD/sodipodi-0.dtd"
    xmlns:inkscape="http://www.inkscape.org/namespaces/inkscape"
    xmlns:ns1="http://sozi.baierouge.fr"
    xmlns:xlink="http://www.w3.org/1999/xlink"
    width="744.09448819"
    height="1052.3622047"
    id="svg2"
    version="1.1"
    inkscape:version="0.48.3.1 r9886"
    sodipodi:docname="DOGE.svg"
  >
  <defs
      id="defs4"
  />
  <sodipodi:namedview
      id="base"
      pagecolor="#ffffff"
      bordercolor="#666666"
      borderopacity="1.0"
      inkscape:pageopacity="0.0"
      inkscape:pageshadow="2"
      inkscape:zoom="0.45254834"
      inkscape:cx="403.54939"
      inkscape:cy="539.38935"
      inkscape:document-units="px"
      inkscape:current-layer="layer2"
      showgrid="false"
      showguides="true"
      inkscape:guide-bbox="true"
      inkscape:window-width="1366"
      inkscape:window-height="706"
      inkscape:window-x="-8"
      inkscape:window-y="-8"
      inkscape:window-maximized="1"
  />
  <g
      inkscape:groupmode="layer"
      id="layer2"
      inkscape:label="Layer"
    >
    <rect
        style="fill:#ffe6d5;fill-opacity:1;stroke:none"
        id="rect3859"
        width="742.54718"
        height="1047.1283"
        x="5.2662306"
        y="0.25226244"
        inkscape:export-filename="C:\Users\iie\Pictures\DOGE_v2.png"
        inkscape:export-xdpi="150"
        inkscape:export-ydpi="150"
    />
    <path
        style="fill:#ffffff;fill-opacity:1;stroke:#000000;stroke-width:6.32434607;stroke-linecap:round;stroke-linejoin:round;stroke-miterlimit:4;stroke-opacity:1;stroke-dasharray:none;stroke-dashoffset:0"
        d="m 417.13054,931.7216 c 109.93674,-8.7909 206.67075,-72.749 254.89195,-168.52816 35.29077,-70.09623 43.77518,-149.68133 25.66965,-240.78554 -6.76338,-34.03234 -15.22692,-61.71503 -33.8249,-110.63511 -12.36159,-32.51593 -17.02065,-46.64036 -19.01522,-57.64671 -5.61857,-31.00392 1.00374,-55.10183 22.97818,-83.61521 8.5182,-11.05297 8.91312,-11.65284 8.16421,-12.40174 -1.03564,-1.03564 -25.08282,7.17857 -31.04249,10.60373 -34.89866,20.05705 -54.00099,50.44589 -65.4033,104.04649 -8.16336,38.37483 -9.89347,59.18933 -9.92206,119.36948 -0.0236,49.60663 0.47894,60.96014 5.23171,118.20489 7.61736,91.74697 8.13018,103.52455 5.22899,120.09035 -3.917,22.36618 -15.11067,46.99676 -31.26021,68.78521 -6.72714,9.07607 -30.93402,35.40592 -31.68891,34.65102 -0.24876,-0.2488 10.58052,-13.15179 12.856,-16.93058 8.07273,-13.40599 12.43362,-32.9892 9.97912,-44.81257 l -1.31603,-6.33923 -35.20361,-19.68944 C 461.61475,722.6879 445.48619,712.33996 433.82116,701.41299 l -8.6606,-8.11266 0.0348,-23.14118 c 0.054,-35.84467 3.0411,-55.22885 20.79478,-134.94086 15.89907,-71.38505 18.49597,-88.63261 18.58656,-123.4455 0.0708,-27.19848 -1.44939,-38.81226 -7.42548,-56.72843 -5.63191,-16.88441 -12.68284,-29.66743 -24.08709,-43.66875 -2.84355,-3.49112 -4.90725,-7.03252 -4.58595,-7.86976 0.37608,-0.98008 -0.11532,-1.33935 -1.3796,-1.00871 -1.13239,0.2961 -3.31482,-0.89669 -5.15508,-2.8175 l -3.1913,-3.33103 7.51619,-5.51875 c 7.11092,-5.22124 21.60145,-19.84232 21.60145,-21.79612 0,-0.49813 -4.58553,1.40971 -10.19006,4.23967 -11.12659,5.61823 -18.58769,7.4985 -26.30381,6.62878 l -5.00147,-0.56373 9.43251,-4.93398 c 10.0223,-5.24249 33.66633,-20.38158 32.95016,-21.09775 -0.23436,-0.23436 -4.32933,0.94901 -9.09993,2.62971 -11.43691,4.02928 -29.603,5.02787 -40.71431,2.2381 -20.56538,-5.16349 -40.73439,-20.12394 -54.33652,-40.30434 -1.94278,-2.88234 -6.33006,-10.48123 -9.74949,-16.88642 -8.00767,-14.99971 -12.7799,-21.42002 -23.3721,-31.44366 -7.18321,-6.79764 -32.0147,-25.03849 -34.08521,-25.03849 -0.93562,0 -2.66497,6.85315 -7.19995,28.53223 -4.22342,20.18963 -7.40008,32.03629 -8.58416,32.01289 -0.36342,-0.006 -4.58081,-7.73708 -9.37197,-17.17756 -7.36425,-14.51043 -9.9241,-18.37998 -16.55511,-25.02542 -4.31415,-4.32349 -8.58018,-7.8609 -9.48005,-7.8609 -1.22709,0 -1.97821,3.27548 -3.00442,13.10151 -2.10658,20.17091 -4.75346,37.77937 -6.38913,42.50391 -1.20114,3.46938 -3.00714,5.17087 -9.53237,8.98069 -10.04696,5.86607 -25.57955,21.23994 -30.05198,29.74488 -6.71576,12.77098 -7.34358,13.12858 -45.96423,26.18003 -48.075297,16.24655 -54.569217,18.80118 -66.250027,26.06216 -2.72105,1.69145 -4.94832,3.44582 -4.94946,3.8986 -0.004,1.5431 15.69737,13.38455 23.28951,17.56434 12.10864,6.66624 23.765627,10.01799 39.223297,11.27789 16.92549,1.37952 19.93446,0.75683 49.28481,-10.19942 27.58055,-10.29564 36.26424,-12.48239 49.49464,-12.46394 9.33891,0.0127 11.30623,0.41203 18.05099,3.66125 9.01848,4.34455 13.47765,8.37581 16.41198,14.83712 2.76045,6.0784 2.76239,9.70254 0.008,17.53518 -4.42428,12.58785 -16.54087,27.16804 -34.79835,41.87377 -4.66291,3.75579 -8.27357,7.03316 -8.02369,7.28305 0.24989,0.24988 8.17059,-1.17519 17.60158,-3.16679 9.43099,-1.9916 17.35841,-3.40994 17.61649,-3.15184 0.60749,0.60749 -5.85962,9.67155 -10.4724,14.67775 -4.13457,4.48719 -13.17741,9.28612 -32.11786,17.04464 -7.36596,3.0173 -13.91674,6.03792 -14.55725,6.71247 -0.79583,0.83812 -0.61146,1.03528 0.58228,0.6227 7.03908,-2.433 45.76457,-13.75624 46.05456,-13.46624 0.20049,0.20048 -7.06655,8.07602 -16.14877,17.5014 -17.33512,17.99011 -28.21255,26.57627 -44.21612,34.90225 -5.14764,2.67811 -8.87369,5.03117 -8.28006,5.22906 0.5936,0.19795 11.2544,-3.04199 23.69064,-7.19972 12.43626,-4.15771 22.79728,-7.37354 23.02452,-7.1463 0.6377,0.6377 -16.98762,16.8091 -22.30732,20.46714 -7.28447,5.00911 -20.86965,11.63526 -32.56389,15.88302 -5.82788,2.11689 -9.91992,3.87504 -9.09344,3.90702 0.82647,0.032 10.98023,-2.3219 22.56386,-5.23085 11.58365,-2.90894 21.22707,-5.12312 21.42981,-4.92036 0.2028,0.2028 -5.23443,6.16303 -12.08264,13.2451 -10.86061,11.23147 -13.7903,13.55128 -22.93252,18.15869 -5.76466,2.90524 -13.05413,6.24093 -16.19882,7.41264 -11.27005,4.19926 -3.1658,2.7388 19.63711,-3.53877 12.76047,-3.51292 23.35805,-6.22992 23.5502,-6.03779 0.19205,0.19205 -3.70543,4.52959 -8.66125,9.63877 -7.54392,7.77737 -10.81145,10.16401 -20.07411,14.66232 -6.08493,2.95507 -15.78007,7.00487 -21.54473,8.99955 -5.76468,1.99465 -11.21131,3.88799 -12.10364,4.20737 -0.89232,0.3194 -1.39192,0.81121 -1.11024,1.09291 0.28171,0.28169 15.42346,-2.34833 33.64837,-5.84449 18.22491,-3.49616 33.52924,-6.35926 34.00963,-6.36248 1.47727,-0.008 0.96636,10.32976 -0.70645,14.29768 -2.74786,6.51785 -10.96154,15.72972 -22.63673,25.38773 -6.21668,5.14262 -11.45811,9.78627 -11.64759,10.31923 -0.18952,0.53295 3.2169,0.1853 7.56976,-0.77271 4.35288,-0.95795 13.24432,-1.8161 19.75875,-1.907 10.36213,-0.14462 12.25688,0.14061 15.13956,2.27904 6.62456,4.91414 4.07199,14.51975 -8.16891,30.74054 -3.62285,4.80077 -6.58701,9.1131 -6.58701,9.58296 0,0.9438 16.53968,-8.88828 28.81871,-17.13145 l 7.86555,-5.2803 1.50992,17.7719 c 0.83045,9.77452 1.19338,19.50904 0.8065,21.63223 -1.26388,6.93635 -12.07058,26.29161 -22.26977,39.88613 -11.47022,15.28871 -20.9074,25.94557 -44.76524,50.55077 -9.33396,9.62635 -17.84996,18.79821 -18.92443,20.38189 -3.7274,5.49384 -1.60216,19.51742 4.90363,32.35715 16.94773,33.44775 72.8697,79.08945 135.11587,110.27705 26.71762,13.3864 45.04558,19.6937 66.48083,22.8782 29.77641,4.4238 48.62982,5.2893 72.91419,3.3475 l 1.2e-4,0 z"
        id="path3014"
        inkscape:connector-curvature="0"
        sodipodi:nodetypes="cssssssssssssssscsscsssssccscsssscssssssssscssssssssscssscsscscscssscssscsssscscsssscsssccscssccssssscssssssssccc"
        inkscape:export-filename="C:\Users\iie\Pictures\DOGE_v2.png"
        inkscape:export-xdpi="150"
        inkscape:export-ydpi="150"
    />
    <path
        style="fill:#d45500;stroke:none"
        d="m 277.06236,144.87859 c -6.41672,22.28227 -7.70482,43.36357 -15.15207,63.44109 -15.18077,-31.54765 -20.50457,-43.50631 -36.62851,-53.36167 -1.83366,7.90809 -3.26543,46.97043 -9.55239,61.20122 -16.98237,7.28164 -31.91348,19.59616 -42.42582,41.50352 -5.99997,12.50382 -74.221727,22.31826 -112.586537,47.89375 23.63404,22.05012 47.449587,29.30132 67.064417,28.26192 23.1946,6.96782 74.60806,-34.75205 110.47842,-20.22473 52.80597,22.86476 -13.20157,75.54123 -25.75854,83.13879 l 39.06602,-7.97131 c -18.43509,19.93896 -0.0744,16.7732 -61.79413,40.6471 l 52.04409,-15.61323 c -22.02449,19.88366 -27.9117,38.36401 -73.52052,60.21304 l 52.0441,-17.32607 c -16.52402,14.81733 -25.79534,30.21636 -69.37017,42.95285 l 49.54071,-12.38518 c -20.35227,14.58439 -13.94978,26.92839 -61.06947,43.7434 l 53.62519,-14.82269 c -20.37458,13.28298 -4.0474,20.15143 -69.30429,41.24001 l 69.30429,-13.17573 c -0.6271,11.04803 8.33152,17.09018 -36.29911,51.18768 72.80013,-16.5134 44.52099,19.38439 27.80077,39.7248 15.75091,-8.965 27.79976,-16.59096 37.28729,-23.84806 1.06714,12.17603 2.17479,24.91645 3.16217,38.60486 C 212.0541,698.67073 136.94054,758.36779 136.67506,765.58678 127.50596,829.6985 297.8179,927.0974 343.27036,927.5823 525.92582,960.7651 743.61263,812.42929 701.32057,544.82758 675.35299,380.51848 597.49635,350.8775 676.08906,258.71681 524.07262,284.7108 577.30683,590.06272 582.60732,702.21156 c 2.31084,48.89358 -24.23577,95.89659 -66.14211,133.33834 5.85655,-7.0852 10.60571,-14.1425 14.27948,-21.04401 9.5153,-17.87513 11.81662,-34.70426 7.46046,-48.26032 -59.53999,-34.19399 -93.90965,-48.99697 -112.71829,-72.33471 -15.62238,-120.82973 94.78693,-292.09257 1.25169,-388.81551 0.63321,-0.86728 1.20382,-1.72221 1.77872,-2.63515 -0.8374,0.68366 -1.64224,1.25867 -2.50338,1.8446 -2.68366,-2.73235 -5.54338,-5.36224 -8.56422,-7.97131 16.13627,-9.99936 22.83761,-18.65207 30.10652,-27.47137 -14.08786,7.84876 -26.24869,15.75986 -44.53394,10.07942 8.91467,0 42.02853,-23.15225 45.45624,-25.75853 -0.13007,0.0822 -0.24488,0.0725 -0.52703,0.26351 -49.8366,22.92845 -94.38656,-11.087 -113.04768,-51.05591 -14.18304,-32.09132 -42.13446,-47.00954 -57.84142,-57.51202 z"
        id="path3812"
        inkscape:connector-curvature="0"
        sodipodi:nodetypes="ccccscccccccccccccccccccccscscscccccccccccc"
        inkscape:export-filename="C:\Users\iie\Pictures\DOGE_v2.png"
        inkscape:export-xdpi="150"
        inkscape:export-ydpi="150"
    />
    <path
        style="fill:#241f1c;stroke:#000000;stroke-width:0.01619256px;stroke-linecap:butt;stroke-linejoin:miter;stroke-opacity:1"
        d="m 193.58231,262.19225 c 12.2048,4.38406 32.26683,7.60399 73.4738,7.69146 -38.55648,-1.01011 -12.73386,-31.90475 -26.31297,-48.37532 12.00732,25.83931 -27.71206,15.27515 -47.16083,40.68386 z"
        id="path3857"
        inkscape:connector-curvature="0"
        sodipodi:nodetypes="cccc"
        inkscape:export-filename="C:\Users\iie\Pictures\DOGE_v2.png"
        inkscape:export-xdpi="150"
        inkscape:export-ydpi="150"
    />
    <path
        style="fill:#ffffff;stroke:none"
        d="m 194.51799,261.48797 c 34.28983,8.51744 38.70226,-3.8269 45.06293,-18.63856 -9.17918,-0.31759 -24.39737,1.31681 -45.06293,18.63856 z"
        id="path3810"
        inkscape:connector-curvature="0"
        sodipodi:nodetypes="ccc"
        inkscape:export-filename="C:\Users\iie\Pictures\DOGE_v2.png"
        inkscape:export-xdpi="150"
        inkscape:export-ydpi="150"
    />
    <path
        style="fill:#483e37;stroke:none"
        d="m 60.398543,305.50734 c 9.66895,-6.71555 18.53316,-11.90567 30.36105,-15.38294 -0.10645,2.16427 3.02049,9.02119 -1.6193,16.79978 -2.0496,-3.50672 -4.72313,-2.02156 -7.28666,-1.41684 -2.51403,2.71677 -0.0871,4.4474 2.63127,6.67943 l -5.16143,7.38787 c -2.90313,-0.0888 -13.13084,-9.07562 -18.92493,-14.0673 z"
        id="path3820"
        inkscape:connector-curvature="0"
        sodipodi:nodetypes="ccccccc"
        inkscape:export-filename="C:\Users\iie\Pictures\DOGE_v2.png"
        inkscape:export-xdpi="150"
        inkscape:export-ydpi="150"
    />
    <path
        style="fill:#6c5d53;stroke:none"
        d="m 267.47525,209.25752 c 10.41862,6.95359 14.1904,-6.15243 25.18968,2.00374 3.64301,7.06849 14.7664,2.97255 18.31979,1.14496 -6.11532,-22.22498 -16.82364,-46.17759 -33.4908,-60.11188 -4.81703,19.97271 -9.66864,39.96846 -10.01867,56.96318 z"
        id="path3822"
        inkscape:connector-curvature="0"
        sodipodi:nodetypes="ccccc"
        inkscape:export-filename="C:\Users\iie\Pictures\DOGE_v2.png"
        inkscape:export-xdpi="150"
        inkscape:export-ydpi="150"
    />
    <path
        style="fill:#241f1c;stroke:none"
        d="m 127.75027,333.83341 c 37.13873,-12.96137 70.92322,-32.92512 107.37911,-31.54569 -36.16257,2.08631 -66.94988,18.66377 -103.11245,32.27644 -1.59186,-0.12016 -3.04522,-0.34109 -4.26666,-0.73075 z"
        id="path3844"
        inkscape:connector-curvature="0"
        sodipodi:nodetypes="cccc"
        inkscape:export-filename="C:\Users\iie\Pictures\DOGE_v2.png"
        inkscape:export-xdpi="150"
        inkscape:export-ydpi="150"
    />
    <path
        style="fill:#241f1c;fill-opacity:1;stroke:none"
        d="m 570.9692,437.36461 c 8.86764,-80.62269 19.44526,-157.99369 104.45509,-179.00791 -31.05779,39.04194 -33.51844,58.30046 -33.1502,78.17632 0.54752,29.5517 13.93622,60.08385 39.70734,127.14315 -7.55902,-5.54361 -8.56097,-14.83413 -23.1033,-16.38731 -4.97209,1.29719 -10.40203,4.97522 -18.09715,20.4323 -3.52256,-12.59298 -5.76608,-24.06682 -13.42695,-40.28082 -9.85512,5.94331 -17.05729,12.94777 -18.68096,22.18364 -4.52606,-5.70414 -8.84974,-11.5187 -19.26471,-14.0107 -7.20162,5.83779 -7.34383,11.67558 -8.17293,17.51337 -0.62076,-6.45043 -0.0169,-13.05631 -10.26623,-15.76204 z"
        id="path3009"
        inkscape:connector-curvature="0"
        sodipodi:nodetypes="ccscccccccc"
        inkscape:export-filename="C:\Users\iie\Pictures\DOGE_v2.png"
        inkscape:export-xdpi="150"
        inkscape:export-ydpi="150"
    />
  </g
  >
  <metadata
    >
    <rdf:RDF
      >
      <cc:Work
        >
        <dc:format
          >image/svg+xml</dc:format
        >
        <dc:type
            rdf:resource="http://purl.org/dc/dcmitype/StillImage"
        />
        <cc:license
            rdf:resource="http://creativecommons.org/licenses/publicdomain/"
        />
        <dc:publisher
          >
          <cc:Agent
              rdf:about="http://openclipart.org/"
            >
            <dc:title
              >Openclipart</dc:title
            >
          </cc:Agent
          >
        </dc:publisher
        >
        <dc:title
          >Fox</dc:title
        >
        <dc:date
          >2014-04-24T04:16:34</dc:date
        >
        <dc:description
          >A clip art of a fox.</dc:description
        >
        <dc:source
          >https://openclipart.org/detail/193024/fox-by-kolbasun-193024</dc:source
        >
        <dc:creator
          >
          <cc:Agent
            >
            <dc:title
              >kolbasun</dc:title
            >
          </cc:Agent
          >
        </dc:creator
        >
        <dc:subject
          >
          <rdf:Bag
            >
            <rdf:li
              >cartoon</rdf:li
            >
            <rdf:li
              >cats</rdf:li
            >
            <rdf:li
              >doge</rdf:li
            >
            <rdf:li
              >fox</rdf:li
            >
            <rdf:li
              >girls</rdf:li
            >
            <rdf:li
              >hot girls</rdf:li
            >
            <rdf:li
              >inkscape</rdf:li
            >
            <rdf:li
              >openclipart</rdf:li
            >
            <rdf:li
              >vector</rdf:li
            >
          </rdf:Bag
          >
        </dc:subject
        >
      </cc:Work
      >
      <cc:License
          rdf:about="http://creativecommons.org/licenses/publicdomain/"
        >
        <cc:permits
            rdf:resource="http://creativecommons.org/ns#Reproduction"
        />
        <cc:permits
            rdf:resource="http://creativecommons.org/ns#Distribution"
        />
        <cc:permits
            rdf:resource="http://creativecommons.org/ns#DerivativeWorks"
        />
      </cc:License
      >
    </rdf:RDF
    >
  </metadata
  >
</svg
>
