<?xml version="1.0" encoding="utf-8"?>
<!-- Generator: Adobe Illustrator 17.0.0, SVG Export Plug-In . SVG Version: 6.00 Build 0)  -->
<!DOCTYPE svg PUBLIC "-//W3C//DTD SVG 1.1//EN" "http://www.w3.org/Graphics/SVG/1.1/DTD/svg11.dtd">
<svg
    xmlns="http://www.w3.org/2000/svg"
    xmlns:xlink="http://www.w3.org/1999/xlink"
    xmlns:svg="http://www.w3.org/2000/svg"
    xmlns:inkscape="http://www.inkscape.org/namespaces/inkscape"
    xmlns:sodipodi="http://sodipodi.sourceforge.net/DTD/sodipodi-0.dtd"
    xmlns:ns1="http://sozi.baierouge.fr"
    xmlns:dc="http://purl.org/dc/elements/1.1/"
    xmlns:cc="http://web.resource.org/cc/"
    xmlns:rdf="http://www.w3.org/1999/02/22-rdf-syntax-ns#"
    version="1.1"
    id="Layer_1"
    x="0px"
    y="0px"
    width="620.767px"
    height="589.535px"
    viewBox="0 0 620.767 589.535"
    enable-background="new 0 0 620.767 589.535"
    xml:space="preserve"
  >
<g
    >
	<g
      >
		<g
          id="XMLID_26_"
        >
			<g
          >
				<path
              fill="#FFFCD5"
              d="M472.969,192.894c16.748-4.87,33.477-4.573,49.737,2.761c4.736,2.138,9.836,3.442,14.591,5.522      c17.784,7.794,30.831,20.382,37.686,38.75c2.349,6.308,4.209,12.856,5.589,19.452c1.783,8.542,2.895,17.237,4.228,25.885      c0.211,1.342,0.029,2.751,0.029,4.132c-11.456-25.079-30.074-41.847-54.741-52.92c-11.984-5.388-24.571-7.372-37.236-8.647      c-6.212-0.623-12.885,1.438-19.097,3.202c-9.673,2.732-19.433,5.551-28.579,9.635c-8.906,3.969-17.343,9.28-23.219,17.544      c-1.764,2.483-3.145,5.244-5.522,7.785c0.326-1.716,0.661-3.432,1.074-5.58c-4.458-2.473-8.427,0.086-12.405,2.061      c-3.586,1.774-6.404,4.496-11.111,4.698c-3.384,0.134-6.634,3.729-10.344,6.03c1.994-4.573,3.605-9.338,6.04-13.623      c6.826-12.051,13.949-24.178,24.725-33.017C431.985,212.154,450.804,199.336,472.969,192.894z"
          />
				<path
              fill="#686E2B"
              d="M550.393,394.065c-1.38,1.304-2.914,2.454-4.41,3.624c-0.153,0.125-0.546-0.048-0.767-0.077      c2.694-6.299,5.762-12.463,7.957-18.925c1.553-4.563,1.908-9.539,2.809-14.323c0.201-1.074,0.153-2.32,0.7-3.192      c10.9-17.602,11.638-36.842,9.06-56.582c-0.316-2.435-1.313-4.793-1.994-7.181c9.433,10.296,14.457,22.644,17.18,35.845      c1.716,8.331-2.416,15.799-5.57,23.219C569.385,370.549,561.59,383.453,550.393,394.065z"
          />
				<path
              fill="#FFFCD5"
              d="M474.666,286.721c-11.236-1.074-21.245,3.729-30.323,9.261c-2.454-1.649-4.602-3.106-7.622-5.139      c0.144-0.326,0.278-0.661,0.412-1.007c0.949-2.416,1.822-5.158,3.346-7.478c7.066-10.689,18.119-15.329,29.806-18.781      c15.339-4.535,30.918-4.295,46.008,0.22c6.318,1.889,12.53,4.237,18.33,7.257c7.459,3.892,14.237,8.916,19.711,15.569      c4.42,5.359,6.404,13.316,7.823,20.43c4.813,24.063-2.924,45.202-17.295,64.52c0.69-3.701,0.901-7.574,2.157-11.082      c3.566-9.98,0.69-19.634-1.438-29.135c-4.947-22.021-20.506-33.64-41.166-39.163c-5.465-1.457-11.035-2.703-16.633-3.681      C483.428,287.747,479.047,287.143,474.666,286.721z"
          />
				<path
              fill="#686E2B"
              d="M508.949,297.774c16.077,4.487,29.691,17.017,31.934,34.014c-5.273-4.218-10.565-8.83-16.269-12.856      c-2.703-1.917-4.659-3.979-6.289-6.845C515.554,307.198,512.189,302.654,508.949,297.774z"
          />
				<path
              d="M459.452,263.329c12.971-4.592,26.028-7.276,39.997-5.886c9.117,0.911,17.928,2.205,26.201,6.107      c3.442,1.63,6.855,3.317,10.239,5.071l-1.266,2.435c-5.8-3.02-12.012-5.369-18.33-7.257c-15.09-4.515-30.669-4.755-46.008-0.22      c-11.686,3.451-22.74,8.091-29.806,18.781c-1.524,2.32-2.397,5.062-3.346,7.478l-1.687-1.17      c-0.93-1.333-1.898-2.703-3.077-4.381l1.553-1.649c1.917-2.052,3.001-3.173,4.027-4.324      C443.93,271.602,450.852,266.368,459.452,263.329z"
          />
				<path
              fill="#FFFCD5"
              d="M462.951,292.157c9.29-2.023,17.352-2.569,24.408-1.342c13.201,2.291,22.846,10.795,30.295,27.476      c2.224,4.985,3.892,10.21,5.81,15.329c-6.816-7.439-14.294-13.441-24.006-15.646c-5.695-1.294-11.38-2.828-17.122-3.729      c-6.682-1.064-13.45-1.275-20.449,0.719c-7.104,2.032-14.582,2.771-21.868,4.209c-1.496,0.297-2.886,1.122-3.787,1.486      c0-3.816-0.249-7.785,0.134-11.706c0.134-1.486,1.4-3.403,2.703-4.151C446.912,300.305,454.466,294.007,462.951,292.157z"
          />
				<path
              fill="#686E2B"
              d="M481.895,317.044c8.484,2.646,17.074,4.985,25.405,8.043c4.247,1.553,5.647,5.196,6.145,9.002      c0.163,1.265,0.221,2.55,0.259,3.777c0.499,17.429-4.372,33.449-14.054,47.973c-0.115,0.163-0.585,0.086-1.093,0.153      c-1.227-11.811-2.09-23.66-3.787-35.385c-1.697-11.782-5.848-22.779-13.537-32.222      C481.453,317.936,481.674,317.495,481.895,317.044z"
          />
				<path
              fill="#686E2B"
              d="M438.993,294.927c-0.163,1.611,0.316,3.825-0.566,4.755c-14.793,15.598-28.914,31.924-46.794,44.253      c-1.496,1.035-3.183,1.783-4.966,2.761c-1.141-2.301-1.735-4.362-2.991-5.877c-0.997-1.198-1.726-2.368-2.234-3.518      c-1.774-4.046-0.805-7.88,1.15-11.83c0.556-1.141,1.198-2.282,1.879-3.451c9.759-16.643,21.916-31.014,37.82-42.048      c2.147-1.496,4.659-2.454,6.998-3.653c0.566,0.738,1.141,1.486,1.716,2.234c-4.985,6.251-9.97,12.511-15.713,19.72      c9.692-0.892,11.015-10.22,17.074-13.987c1.179,1.678,2.147,3.049,3.077,4.381c-4.621,6.471-9.127,12.779-13.633,19.078      c0.431,0.383,0.863,0.767,1.294,1.16c2.799-2.991,5.628-5.934,8.36-8.973c1.15-1.275,1.86-3.068,3.192-4.017      C435.781,295.128,437.526,295.224,438.993,294.927z M387.118,330.418c4.889-0.441,8.973-4.889,10.21-11.293      C393.628,323.218,390.665,326.497,387.118,330.418z"
          />
				<path
              fill="#FFFCD5"
              d="M486.506,232.018c1.975-0.479,4.142-1.035,6.078-0.7c9.357,1.62,18.992,2.531,27.927,5.522      c25.971,8.705,46.103,24.744,57.982,49.996c4.563,9.712,5.819,21.638,2.991,32.567c-1.218-2.627-2.186-5.417-3.71-7.852      c-4.736-7.574-9.577-15.099-14.62-22.472c-2.224-3.24-4.659-6.538-7.679-8.964c-3.835-3.068-8.274-5.436-12.616-7.804      c-2.31-1.265-4.63-2.493-6.97-3.691c-3.384-1.754-6.797-3.442-10.239-5.071c-8.273-3.902-17.084-5.196-26.201-6.107      c-13.968-1.39-27.025,1.294-39.997,5.886c-8.599,3.039-15.521,8.273-21.503,14.984c-1.026,1.15-2.109,2.272-4.027,4.324      c0.393-6.548-2.953-8.993-8.168-10.133c1.4-3.701,3.729-7.67-2.349-9.712c9.606-12.607,22.175-19.778,36.488-24.092      C468.636,236.073,477.609,234.156,486.506,232.018z"
          />
				<path
              fill="#686E2B"
              d="M433.04,311.944c1.208,4.113,0.182,7.67-2.704,10.747c-2.579,2.761-5.378,4.918-7.248,8.734      c-2.186,4.477-7.209,7.593-11.111,11.188c-4.851,4.458-10.105,7.104-15.569,2.886      C408.219,334.684,420.481,323.448,433.04,311.944z"
          />
				<path
              d="M380.072,324.436c8.111-16.739,18.829-31.541,34.139-42.393c5.848-4.151,6.289-10.411,9.558-15.492      c-0.508-0.499-1.007-0.997-1.515-1.496l1.15-2.263c6.078,2.042,3.749,6.011,2.349,9.712c5.215,1.141,8.561,3.586,8.168,10.133      l-1.553,1.649c-6.059,3.768-7.382,13.096-17.074,13.987c5.743-7.209,10.728-13.47,15.713-19.72      c-0.575-0.748-1.15-1.496-1.716-2.234c-2.339,1.198-4.851,2.157-6.998,3.653c-15.905,11.035-28.061,25.405-37.82,42.048      c-0.681,1.17-1.323,2.31-1.879,3.451L380.072,324.436z"
          />
				<path
              d="M565.742,304.591c2.579,19.739,1.841,38.98-9.06,56.582c-0.546,0.872-0.499,2.119-0.7,3.192      c-0.901,4.784-1.256,9.759-2.809,14.323c-2.195,6.462-5.263,12.626-7.957,18.925c0.22,0.029,0.614,0.201,0.767,0.077      c1.496-1.17,3.029-2.32,4.41-3.624c11.198-10.613,18.992-23.517,24.964-37.59c3.154-7.42,7.286-14.888,5.57-23.219      c-2.723-13.201-7.746-25.549-17.18-35.845C564.428,299.797,565.425,302.156,565.742,304.591z M508.949,297.774      c3.24,4.88,6.605,9.424,9.376,14.313c1.63,2.866,3.586,4.928,6.289,6.845c5.704,4.026,10.996,8.638,16.269,12.856      C538.639,314.791,525.026,302.261,508.949,297.774z M473.755,231.03c6.212-1.764,12.885-3.825,19.097-3.202      c12.664,1.275,25.252,3.26,37.236,8.647c24.667,11.073,43.285,27.84,54.741,52.92c0-1.38,0.182-2.79-0.029-4.132      c-1.333-8.647-2.445-17.343-4.228-25.885c-1.381-6.596-3.24-13.144-5.589-19.452c-6.855-18.369-19.902-30.956-37.686-38.75      c-4.755-2.08-9.855-3.384-14.591-5.522c-16.259-7.334-32.989-7.631-49.737-2.761c-22.165,6.442-40.984,19.26-58.557,33.669      c-10.776,8.839-17.899,20.967-24.725,33.017c-2.435,4.285-4.046,9.05-6.04,13.623c3.71-2.301,6.96-5.896,10.344-6.03      c4.707-0.201,7.526-2.924,11.111-4.698c3.979-1.975,7.948-4.535,12.405-2.061c-0.412,2.147-0.748,3.864-1.074,5.58      c2.378-2.541,3.758-5.302,5.522-7.785c5.877-8.264,14.313-13.575,23.219-17.544C454.323,236.581,464.082,233.763,473.755,231.03      z M377.579,328.261c0.604-0.757,1.333-1.39,1.716-2.195c0.259-0.546,0.518-1.083,0.777-1.63l2.521,1.035      c-1.956,3.95-2.924,7.785-1.15,11.83l-2.454,1.15c-7.593-16.336-19.538-28.55-37.715-34.216      c-4.956-1.543-10.296-1.869-15.732-2.809c0.786,4.122,1.448,7.948,2.128,11.6l-2.167,0.403      c-0.585-3.077-1.898-6.116-3.221-8.993c-1.927-4.17-4.362-8.091-6.577-12.127c0.029,0.019,0.048,0.038,0.077,0.058      c3.988,4.477,9.309,6.021,15.013,6.557c13.086,1.237,24.303,6.989,35.155,14.553c3.902-22.088,12.76-42.278,23.795-61.308      c6.241-10.747,13.805-21.561,23.21-29.432c14.879-12.444,31.062-23.545,49.775-30.285c10.565-3.806,21.293-6.5,32.375-6.625      c10.306-0.115,20.142,3.049,29.892,6.634c12.703,4.678,24.801,9.98,35.318,18.838c8.005,6.74,12.415,15.483,17.132,24.418      c6.184,11.734,7.037,24.638,9.213,37.168c1.821,10.421,1.812,21.216,2.042,31.857c0.105,4.861-1.39,9.731-1.764,14.63      c-1.419,18.963-4.592,37.303-15.147,53.783c-7.238,11.284-15.723,21.35-25.578,30.371c-3.854,3.528-7.296,7.516-11.063,11.15      c-1.735,1.678-3.748,2.56-5.244-0.872c9.529-12.022,17.477-25.07,21.062-41.07c-3.854,2.531-6.96,4.583-10.076,6.634      c-0.355-0.412-0.719-0.824-1.074-1.237c1.428-7.42,2.886-14.831,4.276-22.261c1.112-5.982,0.537-11.504-2.991-16.873      c-4.391-6.701-9.98-11.869-17.199-16.288c2.195,7.813,4.237,15.071,6.279,22.328c-0.489,0.221-0.978,0.431-1.467,0.652      c-3.959-3.662-7.909-7.334-12.923-11.984c0,0.038,0.01,0.067,0.01,0.105l-2.358,0.278c-0.499-3.806-1.898-7.449-6.145-9.002      c-8.331-3.058-16.921-5.397-25.405-8.043l0.441-2.799c5.743,0.901,11.428,2.435,17.122,3.729      c9.712,2.205,17.189,8.206,24.006,15.646c-1.917-5.119-3.586-10.344-5.81-15.329c-7.449-16.681-17.093-25.185-30.295-27.476      l0.422-2.301c5.599,0.978,11.169,2.224,16.633,3.681c20.66,5.522,36.219,17.141,41.166,39.163      c2.128,9.501,5.004,19.155,1.438,29.135c-1.256,3.509-1.467,7.382-2.157,11.082c14.371-19.318,22.107-40.457,17.295-64.52      c-1.419-7.113-3.403-15.071-7.823-20.43c-5.474-6.653-12.252-11.677-19.711-15.569l1.266-2.435      c2.339,1.198,4.659,2.425,6.97,3.691c4.343,2.368,8.782,4.736,12.616,7.804c3.02,2.426,5.455,5.723,7.679,8.964      c5.043,7.372,9.884,14.898,14.62,22.472c1.524,2.435,2.493,5.225,3.71,7.852c2.828-10.929,1.572-22.855-2.991-32.567      c-11.878-25.252-32.011-41.291-57.982-49.996c-8.935-2.991-18.57-3.902-27.927-5.522c-1.937-0.336-4.103,0.221-6.078,0.7      c-8.897,2.138-17.87,4.055-26.613,6.682c-14.313,4.314-26.882,11.485-36.488,24.092l-1.15,2.263      c-3.979,3.346-7.957,6.701-12.147,10.22c-0.863-4.42,4.132-8.024,0.288-11.667c-7.324,2.243-11.198,7.593-13.853,14.169      c-0.508,0.019-1.007,0.048-1.515,0.077c-1.083-2.061-2.176-4.113-3.739-7.075c-4.305,5.11-10.373,9.817-12.981,15.981      c-3.931,9.299-5.599,19.586-7.842,29.537c-0.383,1.668,0.93,3.969,1.984,5.647C373.84,324.158,375.748,326.056,377.579,328.261z      "
          />
				<path
              d="M378.893,309.959c-1.975-6.845,12.981-29.825,22.088-33.727C393.321,287.919,386.227,298.762,378.893,309.959z"
          />
				<path
              fill="#ED1C24"
              d="M383.868,395.312c1.323-0.336,1.956-3.336,3.595-6.423c0,4.755,0,8.312,0,12.818      c6.241-4.573,5.234-10.967,6.27-16.528c0.566-0.153,1.141-0.307,1.706-0.46c3.998,7.804,7.986,15.607,11.974,23.411      c-0.479,0.288-0.968,0.575-1.448,0.863c-2.387-2.742-4.611-5.647-7.219-8.158c-1.055-0.997-2.943-1.131-4.448-1.649      c0.115,1.457,0.441,2.934,0.316,4.372c-0.345,3.854-0.383,7.842-1.476,11.495c-1.448,4.813-3.787,9.366-6.481,13.527      c-0.307-6.634-0.297-13.316-1.055-19.893c-0.364-3.106-2.215-6.04-3.384-9.06C381.481,397.728,380.542,396.165,383.868,395.312z      "
          />
				<path
              fill="#ED1C24"
              d="M410.338,359.179c1.822,1.937,3.001,4.477,4.477,6.749c-0.316,0.153-0.623,0.316-0.94,0.47      c-7.018-2.723-14.16-5.187-20.995-8.331c-1.822-0.844-2.694-3.739-4.007-5.695c1.419-0.901,2.78-2.464,4.266-2.588      C400.828,349.132,405.659,354.222,410.338,359.179z"
          />
				<path
              d="M397.328,319.125c-1.237,6.404-5.321,10.852-10.21,11.293C390.665,326.497,393.628,323.218,397.328,319.125z"
          />
				<path
              fill="#ED1C24"
              d="M398.68,366.733c7.593,8.187,13.096,17.563,15.598,29.518c-6.931-6.586-13.796-12.137-19.298-18.8      c-2.224-2.694-1.486-7.833-2.291-13.172C395.526,365.391,397.616,365.592,398.68,366.733z"
          />
				<path
              fill="#686E2B"
              d="M400.981,276.233c-9.108,3.902-24.063,26.882-22.088,33.727      C386.227,298.762,393.321,287.919,400.981,276.233z M377.579,328.261c-1.831-2.205-3.739-4.103-5.129-6.318      c-1.055-1.678-2.368-3.979-1.984-5.647c2.243-9.951,3.911-20.238,7.842-29.537c2.608-6.164,8.676-10.872,12.981-15.981      c1.563,2.962,2.656,5.014,3.739,7.075c0.508-0.029,1.007-0.058,1.515-0.077c2.656-6.577,6.529-11.926,13.853-14.169      c3.844,3.643-1.15,7.248-0.288,11.667c4.189-3.518,8.168-6.874,12.147-10.22c0.508,0.499,1.007,0.997,1.515,1.496      c-3.269,5.081-3.71,11.341-9.558,15.492c-15.31,10.852-26.028,25.655-34.139,42.393c-0.259,0.546-0.518,1.083-0.777,1.63      C378.912,326.871,378.183,327.503,377.579,328.261z"
          />
				<path
              d="M367.829,334.579c1.294,4.391,2.579,8.782,3.873,13.172c-0.585,0.173-1.17,0.345-1.764,0.518      c-1.352-4.372-2.713-8.743-4.065-13.115C366.526,334.962,367.178,334.77,367.829,334.579z"
          />
				<path
              fill="#F15A22"
              d="M382.919,384.124c-1.438,4.007-2.723,7.564-4.122,11.447c-0.594-0.949-1.093-2.023-1.841-2.876      c-0.94-1.083-2.08-1.984-3.135-2.972c-0.431,1.543-1.102,3.058-1.256,4.63c-0.345,3.394-0.422,6.816-1.62,10.344      c-0.393-0.987-0.786-1.975-1.323-3.317c-3.394,5.369-6.586,10.411-9.779,15.454c-0.192-0.105-0.383-0.221-0.566-0.326      c1.879-6.864,3.758-13.728,5.637-20.602c-3.787,2.771-5.436,6.471-7.478,10.066c-3.605,6.347-8.935,11.715-14.093,17.132      c1.227-6.116,7.113-10.565,5.014-17.908c-4.793,7.516-10.795,13.45-19.308,16.585c7.66-7.526,15.061-15.214,18.589-25.357      c1.16-3.307,1.908-6.883,2.109-10.795c-3.643,4.094-7.286,8.187-10.929,12.281c8.964-20.823,8.964-20.823,6.404-23.037      c-3.403,4.976-6.826,9.97-10.239,14.975c-0.422-0.201-0.834-0.393-1.256-0.585c3.355-5.541,5.656-11.341,7.152-17.343      c1.381-5.455,2.09-11.082,2.349-16.806c-0.431-0.259-0.872-0.518-1.313-0.777c-0.786,1.361-1.927,2.636-2.301,4.103      c-1.879,7.334-6.442,12.904-12.032,18.052c1.476-7.622,2.838-15.262,4.458-22.855c2.272-10.622-0.096-20.804-2.435-31.052      c-0.719-3.125-1.333-6.279-1.937-9.558c-0.681-3.653-1.342-7.478-2.128-11.6c5.436,0.94,10.776,1.265,15.732,2.809      c18.177,5.666,30.122,17.88,37.715,34.216c0.882,1.889,1.706,3.844,2.473,5.838c3.307,8.638,6.088,17.544,8.216,26.537      c1.083,4.611,0.192,9.692,0.192,14.553c-0.345,0.096-0.69,0.192-1.026,0.288c-2.665-4.122-5.321-8.245-7.976-12.367      c-0.585,0.259-1.16,0.518-1.745,0.786C380.494,377.691,381.855,381.296,382.919,384.124z M371.703,347.751      c-1.294-4.391-2.579-8.782-3.873-13.172c-0.652,0.192-1.304,0.383-1.956,0.575c1.352,4.372,2.713,8.743,4.065,13.115      C370.533,348.096,371.118,347.924,371.703,347.751z M358.904,343.677c0.115-7.401-0.489-14.582-4.688-20.717      c-0.422,0.125-0.853,0.249-1.285,0.374C354.925,330.111,356.91,336.899,358.904,343.677z M350.966,339.497      c-0.796-4.122-1.601-8.245-2.397-12.377c-0.566,0.115-1.122,0.221-1.687,0.336c0.844,4.113,1.678,8.216,2.521,12.329      C349.921,339.688,350.448,339.593,350.966,339.497z"
          />
				<path
              fill="#ED1C24"
              d="M363.765,438.012c0.882-6.874,1.898-13.728,2.56-20.612c0.22-2.349,0.777-3.643,2.828-5.254      c2.809-2.195,4.573-5.723,6.682-8.532c4.18,5.359,1.39,11.226-1.064,16.566c-2.972,6.462-7.008,12.425-10.574,18.608      C364.052,438.529,363.908,438.271,363.765,438.012z"
          />
				<path
              d="M354.216,322.959c4.199,6.136,4.803,13.316,4.688,20.717c-1.994-6.778-3.979-13.565-5.973-20.343      C353.363,323.209,353.794,323.084,354.216,322.959z"
          />
				<path
              d="M348.569,327.12c0.796,4.132,1.601,8.254,2.397,12.377c-0.518,0.096-1.045,0.192-1.563,0.288      c-0.844-4.113-1.678-8.216-2.521-12.329C347.448,327.341,348.004,327.235,348.569,327.12z"
          />
				<path
              d="M413.875,366.398c0.316-0.153,0.623-0.316,0.94-0.47c-1.476-2.272-2.656-4.813-4.477-6.749      c-4.678-4.956-9.51-10.047-17.199-9.395c-1.486,0.125-2.847,1.687-4.266,2.588c1.313,1.956,2.186,4.851,4.007,5.695      C399.716,361.211,406.858,363.675,413.875,366.398z M414.278,396.251c-2.502-11.955-8.005-21.331-15.598-29.518      c-1.064-1.141-3.154-1.342-5.992-2.454c0.805,5.34,0.067,10.478,2.291,13.172C400.482,384.114,407.347,389.665,414.278,396.251z       M382.219,399.626c1.17,3.02,3.02,5.953,3.384,9.06c0.757,6.577,0.748,13.259,1.055,19.893      c2.694-4.161,5.033-8.715,6.481-13.527c1.093-3.653,1.131-7.641,1.476-11.495c0.125-1.438-0.201-2.914-0.316-4.372      c1.505,0.518,3.394,0.652,4.448,1.649c2.608,2.512,4.832,5.417,7.219,8.158c0.479-0.288,0.968-0.575,1.448-0.863      c-3.988-7.804-7.976-15.607-11.974-23.411c-0.566,0.153-1.141,0.307-1.706,0.46c-1.035,5.56-0.029,11.955-6.27,16.528      c0-4.506,0-8.063,0-12.818c-1.639,3.087-2.272,6.088-3.595,6.423C380.542,396.165,381.481,397.728,382.219,399.626z       M430.336,322.691c2.886-3.077,3.911-6.634,2.704-10.747c-12.559,11.504-24.82,22.74-36.632,33.554      c5.465,4.218,10.718,1.572,15.569-2.886c3.902-3.595,8.925-6.711,11.111-11.188      C424.958,327.609,427.757,325.452,430.336,322.691z M379.851,404.544c2.08,17.151-6.893,29.518-17.812,41.003      c-1.486,1.563-3.26,2.943-5.129,4.017c-1.007,0.575-2.493,0.316-3.758,0.441c0.288-1.102,0.288-2.397,0.892-3.26      c5.1-7.2,6.788-15.531,8.149-23.977c0.067-0.393-0.23-0.834-0.614-2.08c-3.365,3.509-6.279,6.797-9.491,9.74      c-1.055,0.968-2.924,1.045-4.42,1.524c0.355-1.476,0.383-3.164,1.131-4.41c1.994-3.298,4.305-6.404,5.723-10.105      c-4.448,4.017-8.782,8.187-13.422,11.984c-1.754,1.428-4.18,2.157-6.414,2.819c-0.709,0.211-1.965-0.671-2.598-1.381      c-0.211-0.24,0.556-1.639,1.131-2.272c2.387-2.636,4.87-5.187,6.998-8.197c-6.788,1.86-11.418,9.146-20.238,7.727      c7.612-12.012,20.478-18.694,25.511-32.423l2.147,0.729c-3.528,10.143-10.929,17.832-18.589,25.357      c8.513-3.135,14.515-9.069,19.308-16.585c2.1,7.344-3.787,11.792-5.014,17.908c5.158-5.417,10.488-10.785,14.093-17.132      c2.042-3.595,3.691-7.296,7.478-10.066c-1.879,6.874-3.758,13.738-5.637,20.602c0.182,0.105,0.374,0.22,0.566,0.326      c3.192-5.043,6.385-10.085,9.779-15.454c0.537,1.342,0.93,2.33,1.323,3.317c1.198-3.528,1.275-6.951,1.62-10.344      c0.153-1.572,0.824-3.087,1.256-4.63c1.055,0.987,2.195,1.889,3.135,2.972c0.748,0.853,1.246,1.927,1.841,2.876      c1.4-3.883,2.684-7.439,4.122-11.447c-1.064-2.828-2.426-6.433-3.796-10.038c0.585-0.268,1.16-0.527,1.745-0.786      c2.656,4.122,5.311,8.245,7.976,12.367c0.336-0.096,0.681-0.192,1.026-0.288c0-4.861,0.892-9.942-0.192-14.553      c-2.128-8.993-4.908-17.899-8.216-26.537c-0.767-1.994-1.591-3.95-2.473-5.838l2.454-1.15c0.508,1.15,1.237,2.32,2.234,3.518      c1.256,1.515,1.85,3.576,2.991,5.877c1.783-0.978,3.47-1.726,4.966-2.761c17.88-12.329,32.001-28.655,46.794-44.253      c0.882-0.93,0.403-3.145,0.566-4.755c-1.467,0.297-3.212,0.201-4.333,0.987c-1.333,0.949-2.042,2.742-3.192,4.017      c-2.732,3.039-5.56,5.982-8.36,8.973c-0.431-0.393-0.863-0.777-1.294-1.16c4.506-6.299,9.012-12.607,13.633-19.078l1.687,1.17      c-0.134,0.345-0.268,0.681-0.412,1.007c3.02,2.032,5.167,3.49,7.622,5.139c9.079-5.532,19.088-10.335,30.323-9.261      c4.381,0.422,8.762,1.026,13.115,1.793l-0.422,2.301c-7.056-1.227-15.119-0.681-24.408,1.342      c-8.484,1.85-16.039,8.149-23.881,12.645c-1.304,0.748-2.569,2.665-2.703,4.151c-0.383,3.921-0.134,7.89-0.134,11.706      c0.901-0.364,2.291-1.189,3.787-1.486c7.286-1.438,14.764-2.176,21.868-4.209c6.998-1.994,13.767-1.783,20.449-0.719      l-0.441,2.799c-0.22,0.451-0.441,0.892-0.661,1.342c7.689,9.443,11.84,20.439,13.537,32.222      c1.697,11.725,2.56,23.574,3.787,35.385c0.508-0.067,0.978,0.01,1.093-0.153c9.683-14.524,14.553-30.544,14.054-47.973      c-0.038-1.227-0.096-2.512-0.259-3.777l2.358-0.278c3.336,27.169-6.931,48.97-22.587,68.863      c-0.479,0.614-1.841,0.546-3.691,1.026c0.69-1.975,0.796-3.298,1.496-4.132c3.662-4.4,4.065-9.52,3.557-14.86      c-1.17-12.204-1.582-24.562-3.873-36.555c-1.505-7.9-5.445-15.406-8.877-22.817c-1.313-2.819-4.257-4.87-7.449-8.341      c-5.685,0.738-12.77,1.476-19.787,2.665c-4.506,0.757-8.983,1.908-13.307,3.384c-6.279,2.147-11.6,5.234-15.905,11.025      c-4.726,6.385-11.428,11.293-17.707,17.266c8.043,5.541,11.456,14.62,14.495,24.868c-5.733-3.48-11.111-6.74-16.499-10.009      c-0.278,0.422-0.556,0.844-0.834,1.265c8.657,11.6,15.205,23.9,13.048,39.709c-4.017-4.583-7.727-8.801-11.428-13.029      c3.183,9.903,7.593,19.327,5.378,29.71c-4.372-5.781-8.753-11.581-13.681-18.1c-1.102,5.158-1.457,9.395-2.934,13.201      c-2.119,5.493-5.004,10.699-7.698,15.962c-0.441,0.872-1.486,1.774-2.406,1.975c-1.361,0.316-3.029,0.364-4.228-0.201      c-0.489-0.23-0.546-2.579-0.029-3.566c5.254-10.066,2.301-19.979-0.757-30.026C380.005,403.576,379.794,404.074,379.851,404.544      z M363.765,438.012c0.144,0.259,0.288,0.518,0.431,0.777c3.566-6.184,7.602-12.147,10.574-18.608      c2.454-5.34,5.244-11.207,1.064-16.566c-2.109,2.809-3.873,6.337-6.682,8.532c-2.052,1.611-2.608,2.905-2.828,5.254      C365.663,424.283,364.647,431.138,363.765,438.012z"
          />
				<path
              d="M329.606,322.585c2.339,10.248,4.707,20.43,2.435,31.052c-1.62,7.593-2.982,15.234-4.458,22.855      c5.589-5.148,10.153-10.718,12.032-18.052c0.374-1.467,1.515-2.742,2.301-4.103c0.441,0.259,0.882,0.518,1.313,0.777      c-0.259,5.723-0.968,11.351-2.349,16.806l-2.569-0.633c-5.35,4.506-7.152,10.891-13.93,12.521c0-2.675,0-4.813,0-7.593      l-1.697-1.678c1.141-0.105,2.905-1.4,3.135-2.425c1.563-6.97,3.068-13.978,4.074-21.043c1.764-12.415-2.761-24.207-4.189-36.315      c-0.048-0.441-0.125-0.882-0.201-1.323l2.167-0.403C328.274,316.306,328.887,319.46,329.606,322.585z"
          />
				<path
              fill="#FFFFFF"
              d="M315.744,292.31c0.038,0.038,0.077,0.077,0.067,0.077c-0.01-0.01-0.019-0.01-0.029-0.019      c-0.038-0.029-0.067-0.067-0.096-0.105C315.705,292.281,315.725,292.291,315.744,292.31z"
          />
				<path
              fill="#FFFFFF"
              d="M315.782,292.367c-0.029-0.019-0.048-0.038-0.077-0.058c-0.01-0.019-0.029-0.048-0.038-0.067      c0,0,0.01,0.01,0.019,0.019C315.715,292.3,315.744,292.339,315.782,292.367z"
          />
				<path
              d="M324.113,396.309c7.919-6.155,10.498-15.128,14.198-25.022l2.569,0.633c-1.496,6.001-3.796,11.801-7.152,17.343      c0.422,0.192,0.834,0.383,1.256,0.585c3.413-5.004,6.835-9.999,10.239-14.975c2.56,2.215,2.56,2.215-6.404,23.037      c3.643-4.094,7.286-8.187,10.929-12.281c-0.201,3.911-0.949,7.487-2.109,10.795l-2.147-0.729      c-16.144,13.939-16.144,13.939-20.142,12.722c3.643-4.295,7.276-8.58,10.9-12.866c-0.431-0.403-0.863-0.815-1.294-1.227      c-5.455,5.071-10.967,10.095-16.346,15.243c-3.355,3.212-6.49,6.653-9.759,9.951c-5.56,5.599-5.215,12.597-5.302,19.768      c0,0.096,0,0.182,0,0.278l-2.205,0.01c-0.01-4.487-0.125-8.983-0.173-13.479c-0.038-2.876,1.007-4.592,3.029-6.816      c2.406-2.636,7.583-3.518,6.912-8.724c-0.048-0.383,1.505-0.872,2.176-1.467c2.32-2.061,6.816-4.774,6.452-6.174      C318.524,398.274,322.062,397.9,324.113,396.309z"
          />
				<path
              d="M297.759,332.393c3.586,0.048,5.33,2.531,6.155,5.349c0.451,1.524-0.153,3.768-1.093,5.119      c-0.594,0.872-2.684,0.7-3.116,0.786C298.957,339.334,298.382,336.026,297.759,332.393z"
          />
				<path
              fill="#FFDA3A"
              d="M292.812,465.967c-1.227,4.621-2.493,9.194-3.729,13.738l-2.128-0.575      c-11.888-1.946-2.819-9.242-5.177-14.064C285.574,465.373,288.814,465.641,292.812,465.967z"
          />
				<path
              d="M309.637,542.25c-0.978-6.759-0.978-6.759-9.97-9.942c-0.192,1.141-0.383,2.282-0.403,2.349      c-4.266-1.237-8.513-1.85-12.089-3.739c-2.234-1.179-3.883-4.094-4.985-6.586c-0.767-1.745-0.144-4.094-0.163-6.164      c-0.029-2.502,0.345-3.72,3.614-2.972c6.615,1.505,15.157-2.473,18.196-8.091c-3.403,0.997-6.481,2.32-9.664,2.694      c-2.819,0.326-7.43,0.585-8.283-0.872c-0.451-0.757-0.815-1.62-1.103-2.541l2.176-0.288c8.686,2.167,13.834,0.594,21.58-6.462      c0.479,1.668,1.361,3.058,1.16,4.266c-0.978,5.963-6.989,11.696-13,12.837c-2.493,0.479-4.937,1.496-7.439,1.63      c-2.502,0.125-3.969,0.834-3.911,3.423c0.058,2.483,0.489,4.918,3.557,5.388c3.288,0.508,6.826,0.249,9.875,1.381      c5.599,2.08,11.408,3.547,14.956,9.798c1.639,2.876,5.915,4.247,4.458,9.347c-7.344-1.994-15.109-1.524-21.954-6.049      c-0.661-0.431-1.419-0.738-2.224-0.968l0.575-2.138c1.524,0.412,3.058,0.825,4.592,1.218      C302.514,540.63,305.879,541.368,309.637,542.25z"
          />
				<path
              d="M248.923,553.131c5.704-4.583,11.313-9.28,17.007-13.891c4.535-3.672,9.05-7.545,15.473-3.758      c0.738,0.441,1.917,0.048,2.828,0.288c3.461,0.901,6.912,1.85,10.363,2.78l-0.575,2.138c-2.425-0.671-5.369-0.575-7.948-0.978      c-4.036-0.623-8.082-1.323-12.147-1.63c-1.218-0.096-2.694,0.786-3.768,1.591c-6.663,5.004-13.287,10.047-19.826,15.214      L248.923,553.131z"
          />
				<path
              d="M285.085,347.607c-0.863-1.735-1.572-3.586-2.656-5.167c-0.69-1.016-1.946-1.639-2.502-3.394      c2.943,0,6.212,0.738,8.647-0.364c0.997-0.451,0.163-4.909,0.163-8.082c2.224,1.63,5.119,3.518,4.563,6.711      c-0.422,2.378-2.982,4.372-5.148,6.327c0.307,1.812-2.291,5.925,2.378,5.963c4.698,0.048,4.583-3.729,3.796-7.468      c0.585,0.01,1.17,0.01,1.754,0.019c0.422,2.176,1.869,4.956,1.026,6.404c-1.256,2.176-4.065,4.698-6.318,4.803      c-4.774,0.24-9.625-0.949-14.438-1.659c-0.614-0.086-1.15-0.796-2.636-1.889c2.962,0,4.851,0.288,6.605-0.086      C281.988,349.381,283.503,348.345,285.085,347.607z"
          />
				<path
              d="M217.823,332.537c8.024,11.907,19.5,20.602,31.474,28.348c14.342,9.28,30.419,14.093,47.302,15.31      c8.619,0.623,17.4-0.882,26.086-1.659l1.697,1.678c-2.032,0.767-3.547,1.668-5.158,1.889      c-14.457,2.042-29.029,1.285-42.988-2.167c-10.066-2.483-19.807-7.315-28.885-12.53c-23.267-13.355-39.335-32.5-45.174-59.429      c-2.291-10.594,1.984-25.54,12.674-33.171c1.352-0.978,2.799-1.822,4.352-2.531c1.265-0.575,2.761-0.633,4.151-0.93      c0.173,0.412,0.345,0.834,0.518,1.256c-1.198,0.844-2.378,1.735-3.614,2.521c-8.427,5.359-14.208,12.54-14.869,22.836      C204.449,308.387,210.077,321.061,217.823,332.537z"
          />
				<path
              fill="#FFFFFF"
              d="M272.699,459.065c5.723,2.387,7.229,7.564,5.014,14.975c-0.489,1.659-1.16,3.317-1.38,5.014      c-0.815,6.375-2.31,7.478-10.057,6.241C268.423,476.542,270.542,467.865,272.699,459.065z"
          />
				<path
              fill="#FFFFFF"
              d="M268.797,497.892c1.17-0.709,2.406-1.323,4.707-2.579c-1.294,4.103-2.215,7.008-3.164,9.999      c-2.847-1.419-5.119-2.55-7.392-3.691C264.895,500.375,266.831,499.1,268.797,497.892z"
          />
				<path
              fill="#FFDA3A"
              d="M259.344,505.906c0.431,0.623,1.553,0.872,2.416,1.093c2.521,0.642,5.062,1.179,8.024,1.86      c-0.614,2.358-1.035,3.988-1.448,5.608c-0.019-0.489-0.038-0.978-0.048-1.476c-5.752-0.872-11.476-2.119-17.256-2.521      c-5.378-0.374-10.824,0.307-16.231,0.163c-1.313-0.038-2.588-1.476-3.883-2.263c0.173-0.451,0.336-0.911,0.508-1.361      c6.586-0.911,13.172-1.822,20.017-2.761c-0.374-0.546-0.661-1.256-1.179-1.687c-0.585-0.499-1.381-0.748-2.886-1.515      c4.324-4.554,7.804-8.216,11.418-12.022c-0.882-0.527-2.032-1.218-2.828-1.706c1.15-5.819,2.253-11.571,3.413-17.285      c0.556-2.828,1.141-5.647,1.735-8.456c0.192-0.911,1.419-1.601,2.167-2.397c1.333,1.86,3.988,3.921,3.748,5.56      c-0.911,6.184-2.588,12.29-4.314,18.33c-1.486,5.186-0.652,6.625,4.755,6.701c2.176,0.038,4.362,0.01,6.538,0.01      c0.23,0.451,0.451,0.901,0.681,1.352c-3.605,1.419-7.133,3.097-10.833,4.17C260.312,496.339,257.235,502.838,259.344,505.906z"
          />
				<path
              fill="#FFDA3A"
              d="M254.618,312.251c2.56-2.397,4.793-4.496,7.027-6.596c3.796,6.212,4.218,9.683,1.064,11.092      C258.309,318.703,256.161,315.865,254.618,312.251z"
          />
				<path
              fill="#FFDA3A"
              d="M256.209,528.263c1.563-1.189,3.423-2.598,6.241-4.736c-0.182,2.378-0.259,3.422-0.393,5.273      c6.788-4.439,8.849-10.804,10.594-16.921c1.984-0.959,3.777-1.822,5.57-2.684c-1.16-1.035-2.32-2.061-3.72-3.298      c-0.153-5.723,0.451-6.883,7.392-13.489c-4.803-1.841-5.196-3.49-2.656-10.613c2.349-0.47,4.611-0.92,6.874-1.371      c0.278-0.431,0.566-0.863,0.844-1.294l2.128,0.575c-1.706,6.289-3.346,12.53-4.717,18.829c-0.527,2.406-0.355,5.34,0.422,7.852      c0.288,0.92,0.652,1.783,1.103,2.541c0.853,1.457,5.465,1.198,8.283,0.872c3.183-0.374,6.26-1.697,9.664-2.694      c-3.039,5.618-11.581,9.597-18.196,8.091c-3.269-0.748-3.643,0.47-3.614,2.972c0.019,2.071-0.604,4.42,0.163,6.164      c1.103,2.493,2.751,5.407,4.985,6.586c3.576,1.889,7.823,2.502,12.089,3.739c0.019-0.067,0.211-1.208,0.403-2.349      c8.993,3.183,8.993,3.183,9.97,9.942c-3.758-0.882-7.123-1.62-10.45-2.483c-1.534-0.393-3.068-0.805-4.592-1.218      c-3.451-0.93-6.903-1.879-10.363-2.78c-0.911-0.24-2.09,0.153-2.828-0.288c-6.423-3.787-10.939,0.086-15.473,3.758      c-5.695,4.611-11.303,9.309-17.007,13.891c-1.659,1.352-3.336,2.684-5.014,3.998c-2.023,1.582-4.63,2.406-7.737,3.969      c0-3.633,0-6.481,0-9.338c2.694,0.575,4.928,1.045,7.161,1.524c0.201-0.479,0.403-0.959,0.614-1.438      c-1.543-1.141-3.087-2.282-4.88-3.614c3.135-5.206,8.063-2.032,12.616-3.739c-1.841-0.661-3.691-1.313-5.512-1.965      c3.269-4.458,6.672-4.976,10.747-0.22c-0.431-2.857-0.671-4.381-0.844-5.532c2.157-1.869,4.467-3.873,6.327-5.484      c-5.11,0.096-10.296,0-15.473,0.211l-0.038-0.94c0.24-2.186,0.355-3.279,0.623-5.752      C250.764,526.096,253.688,527.256,256.209,528.263z"
          />
				<path
              d="M262.45,523.527c-2.819,2.138-4.678,3.547-6.241,4.736c-2.521-1.007-5.445-2.167-8.695-3.451      c-0.268,2.473-0.383,3.566-0.623,5.752c-3.959-4.899-8.226-5.896-13.124-3.844c0.096,1.15,0.22,2.483,0.364,4.142      c-3.068-1.438-3.125-7.516-7.737-4.659c-2.32,1.438-3.873,4.122-5.771,6.241c0.422,0.757,0.844,1.505,1.265,2.253      c6.768-1.007,13.508-2.339,20.315-2.914c1.572-0.134,3.154-0.221,4.726-0.278c5.177-0.211,10.363-0.115,15.473-0.211      c-1.86,1.611-4.17,3.614-6.327,5.484c0.173,1.15,0.412,2.675,0.844,5.532c-4.074-4.755-7.478-4.237-10.747,0.22      c1.822,0.652,3.672,1.304,5.512,1.965c-4.554,1.706-9.481-1.467-12.616,3.739c1.793,1.333,3.336,2.473,4.88,3.614      c-0.211,0.479-0.412,0.959-0.614,1.438c-2.234-0.479-4.467-0.949-7.161-1.524c0,2.857,0,5.704,0,9.338      c3.106-1.563,5.714-2.387,7.737-3.969c1.678-1.313,3.355-2.646,5.014-3.998l1.409,1.754c-2.905,2.291-5.35,5.215-8.398,7.267      c-2.004,1.342-4.861,1.342-7.046,2.493c-1.735,0.92-3.001,2.713-4.554,4.036c-0.719,0.614-1.62,1.035-2.445,1.543      c-0.489-0.911-1.198-1.774-1.381-2.742c-0.163-0.872,0.029-1.975,0.46-2.761c5.589-10.153,7.813-22.644,19.941-28.703      c-12.118,0.508-24.044,0.575-35.692,7.133c0.029-5.129,2.013-8.235,4.678-11.073c1.007-1.064,2.339-1.975,2.943-3.24      c2.023-4.237,4.813-6.845,9.903-6.74c9.731,0.211,19.481,0.24,29.221,0.077c1.294-0.029,2.579-0.326,3.902-0.709L262.45,523.527      z"
          />
				<path
              d="M254.618,312.251c1.544,3.614,3.691,6.452,8.091,4.496c3.154-1.409,2.732-4.88-1.064-11.092      C259.411,307.754,257.177,309.854,254.618,312.251z M252.921,290.891c1.687,0.441,3.355,0.959,5.062,1.313      c1.438,0.297,3.691,1.045,4.189,0.441c0.94-1.122,1.352-3.164,1.103-4.688c-0.374-2.339-1.496-4.573-2.512-7.43      c8.312,5.378,8.273,12.252,0.614,16.978c0.815,6.442,2.378,8.436,6.404,8.178c2.943-0.192,2.943-0.192,2.962-9.088      c5.052,2.953,5.484,8.657,0.671,11.706c-2.128,1.352-2.828,2.732-2.905,5.225c-0.134,4.285-3.806,7.181-8.158,7.679      c-2.282,0.259-4.707,0.997-6.634,2.215c-4.209,2.656-10.814,2.004-15.349-1.956c-4.151-3.633-5.743-9.855-3.576-14.141      c0.182-0.336,0.748-0.479,2.253-1.409c0.086,6.567,0,12.866,7.113,14.869c2.598,0.729,5.503,0.383,8.264,0.527      c0.182-0.604,0.374-1.208,0.556-1.812c-3.288-3.288-6.577-6.567-10.881-10.862c6.193-0.642,11.993,1.927,14.946-3.806      c2.943-5.723-1.917-9.088-4.899-12.981C252.403,291.533,252.662,291.207,252.921,290.891z"
          />
				<path
              d="M287.472,271.085c-8.82-5.953-17.975-11.437-27.179-16.787c-7.449-4.333-15.224-8.101-22.779-12.242      c-1.994-1.093-3.94-2.454-5.532-4.055c-1.889-1.889-3.384-4.18-5.043-6.299c-0.278,0.201-0.556,0.403-0.824,0.594      c0.853,2.541,1.697,5.081,2.541,7.631l-1.783,0.594c-2.061-5.33-4.113-10.651-6.174-15.972c0.24-0.163,0.489-0.316,0.729-0.479      c3.288,2.771,6.577,5.541,9.865,8.302c0.24-0.211,0.479-0.431,0.709-0.642c-3.796-9.318-7.037-18.925-11.504-27.907      c-7.948-15.981-15.636-32.241-25.338-47.148c-7.919-12.166-19.222-22.088-27.888-33.842c-1.342-1.822-2.809-3.461-4.352-4.976      l1.649-1.697c12.875,12.636,25.434,25.683,35.107,40.917c8.724,13.748,15.818,28.607,22.798,43.362      c4.956,10.498,8.686,21.59,12.607,32.538c2.09,5.819,7.842,6.366,11.945,9.155c19.442,13.259,39.23,26,58.624,39.335      c3.969,2.732,6.768,7.181,10.095,10.843c-0.019-0.019-0.038-0.029-0.058-0.048c-0.01-0.01-0.019-0.019-0.019-0.019      c0.01,0.019,0.029,0.048,0.038,0.067c-2.569-1.86-5.186-3.681-7.708-5.608C301.152,281.486,294.585,275.888,287.472,271.085z"
          />
				<path
              d="M264.578,430.985c-5.915-7.842-12.664-15.051-18.896-22.663c-3.375-4.142-7.334-8.206-9.251-13.019      c-1.256-3.145-3.058-4.132-5.187-4.803l1.275-2.416c0.067,0.038,0.144,0.077,0.211,0.115c3.451,1.783,6.404,5.004,8.868,8.13      c8.705,11.044,17.161,22.28,25.578,33.545l-2.215,1.659C264.837,431.349,264.713,431.167,264.578,430.985z"
          />
				<path
              fill="#686E2B"
              d="M264.962,431.531c1.831,2.809,2.349,6.653,3.26,10.047c0.987,3.662,1.524,7.449,2.416,11.14      c0.796,3.317-0.882,4.496-3.729,4.333c-0.911-0.048-1.774-0.201-2.588-0.431c-3.547-1.035-6.174-3.768-7.171-7.765      c-1.256-5.033-2.032-10.181-3.125-15.262c-2.55-11.859-8.695-21.638-17.074-30.304c-3.528-3.653-6.136-8.197-9.156-12.329      c0.412-0.364,0.824-0.729,1.237-1.093c0.767,0.22,1.505,0.412,2.215,0.633c2.128,0.671,3.931,1.659,5.187,4.803      c1.917,4.813,5.877,8.877,9.251,13.019c6.231,7.612,12.981,14.821,18.896,22.663      C264.713,431.167,264.837,431.349,264.962,431.531z"
          />
				<path
              d="M257.149,448.855c0.997,3.998,3.624,6.73,7.171,7.765l-1.035,2.56c-0.748,0.796-1.975,1.486-2.167,2.397      c-0.594,2.809-1.179,5.628-1.735,8.456l-2.646-0.527c0.125-0.7,0.22-1.4,0.268-2.1c0.345-5.244,0.144-10.21-2.435-15.387      c-2.608-5.225-3.384-11.476-4.352-17.371c-2.042-12.463-9.203-21.868-17.065-31.157c-2.962-3.499-5.158-7.622-7.468-11.667      l2.109-0.863c3.02,4.132,5.628,8.676,9.156,12.329c8.379,8.667,14.524,18.445,17.074,30.304      C255.116,438.673,255.893,443.821,257.149,448.855z"
          />
				<path
              fill="#FFDA3A"
              d="M242.203,531.781c-6.807,0.575-13.546,1.908-20.315,2.914c-0.422-0.748-0.844-1.496-1.265-2.253      c1.898-2.119,3.451-4.803,5.771-6.241c4.611-2.857,4.669,3.221,7.737,4.659c-0.144-1.659-0.268-2.991-0.364-4.142      c4.899-2.052,9.165-1.055,13.124,3.844l0.038,0.94C245.357,531.561,243.775,531.647,242.203,531.781z"
          />
				<path
              d="M277.712,474.039c2.215-7.411,0.709-12.588-5.014-14.975c-2.157,8.801-4.276,17.477-6.423,26.23      c7.746,1.237,9.242,0.134,10.057-6.241C276.552,477.356,277.224,475.698,277.712,474.039z M219.712,508.322      c0.441,1.342,0.911,2.742,1.889,5.675c-3.538-1.889-5.886-3.145-8.743-4.678c-0.383,2.08-0.767,4.161-1.15,6.251      c2.425,0.326,5.043,1.39,7.229,0.815c3.432-0.901,6.567-2.914,10.287-4.669C226.586,508.274,224.141,505.35,219.712,508.322z       M251.032,510.47c5.781,0.403,11.504,1.649,17.256,2.521c0.01,0.498,0.029,0.987,0.048,1.476c0.412-1.62,0.834-3.25,1.448-5.608      c-2.962-0.681-5.503-1.218-8.024-1.86c-0.863-0.221-1.984-0.47-2.416-1.093c-2.109-3.068,0.968-9.568,4.515-10.603      c3.701-1.074,7.229-2.751,10.833-4.17c-0.23-0.451-0.451-0.901-0.681-1.352c-2.176,0-4.362,0.029-6.538-0.01      c-5.407-0.077-6.241-1.515-4.755-6.701c1.726-6.04,3.403-12.147,4.314-18.33c0.24-1.639-2.416-3.701-3.748-5.56l1.035-2.56      c0.815,0.23,1.678,0.383,2.588,0.431c2.847,0.163,4.525-1.016,3.729-4.333c-0.892-3.691-1.428-7.478-2.416-11.14      c-0.911-3.394-1.428-7.238-3.26-10.047l2.215-1.659c0.249,0.326,0.499,0.652,0.738,0.978c1.198,1.591,1.812,3.71,2.378,5.675      c1.649,5.743,2.406,11.878,4.966,17.161c1.505,3.116,5.445,5.79,8.878,7.037c3.576,1.313,7.871,0.681,13.326,0.978      c0.882-2.215,3.26-5.714,3.518-9.347c0.297-4.247,0.374-8.513,0.364-12.779l2.205-0.01c0,6.423,2.55,12.914-0.307,19.251      c-0.451,0.997-0.882,2.282-1.706,2.761c-6.289,3.681-7.535,10.124-8.916,16.336c-2.1,9.376-3.796,18.829-5.656,28.186      l-2.176,0.288c-0.777-2.512-0.949-5.445-0.422-7.852c1.371-6.299,3.01-12.54,4.717-18.829c1.237-4.544,2.502-9.117,3.729-13.738      c-3.998-0.326-7.238-0.594-11.035-0.901c2.358,4.822-6.711,12.118,5.177,14.064c-0.278,0.431-0.566,0.863-0.844,1.294      c-2.263,0.451-4.525,0.901-6.874,1.371c-2.541,7.123-2.147,8.772,2.656,10.613c-6.941,6.605-7.545,7.765-7.392,13.489      c1.4,1.237,2.56,2.263,3.72,3.298c-1.793,0.863-3.586,1.726-5.57,2.684c-1.745,6.116-3.806,12.482-10.594,16.921      c0.134-1.85,0.211-2.895,0.393-5.273l-0.585-2.061c1.189-0.336,2.397-0.738,3.662-1.035c-1.994-4.563-4.746-5.896-8.734-5.781      c-7.497,0.211-15.013-0.096-22.51,0.153c-2.253,0.067-4.899,0.7-6.615,2.032c-3.873,3.01-7.9,4.103-12.76,3.768      c-2.704-0.192-5.474,1.141-8.254,1.39c-1.908,0.163-3.873-0.364-5.819-0.575c0.652-1.735,0.901-3.816,2.042-5.139      c2.55-2.972,6.414-4.717,7.622-9.021c0.278-0.997,2.502-1.831,3.931-2.061c6.347-1.007,12.741-1.754,19.471-3.576      c-3.911-0.987-7.823-2.004-11.734-2.953c-1.505-0.364-3.001-0.786-4.496-1.16l0.652-2.627c1.285,0.201,2.656,0.153,3.921,0.47      c4.832,1.208,10.018,1.822,14.342,4.065c4.592,2.387,6.807,1.131,9.146-3.212c-3.375-1.687-6.749-3.154-9.894-5.004      c-3.499-2.042-6.586-3.327-9.52,1.639c-0.23-1.869-0.47-3.739-0.815-6.481l0.393-2.33c1.898,0.345,3.806,1.026,5.714,1.927      c5.551,2.617,11.207,4.995,18.11,8.043c1.812-6.145,3.653-12.195,5.378-18.273c0.585-2.052,1.265-4.132,1.639-6.222l2.646,0.527      c-1.16,5.714-2.263,11.466-3.413,17.285c0.796,0.489,1.946,1.179,2.828,1.706c-3.614,3.806-7.094,7.468-11.418,12.022      c1.505,0.767,2.301,1.016,2.886,1.515c0.518,0.431,0.805,1.141,1.179,1.687c-6.845,0.94-13.431,1.85-20.017,2.761      c-0.173,0.451-0.336,0.911-0.508,1.361c1.294,0.786,2.569,2.224,3.883,2.263C240.209,510.776,245.654,510.096,251.032,510.47z       M270.34,505.312c0.949-2.991,1.869-5.896,3.164-9.999c-2.301,1.256-3.538,1.869-4.707,2.579      c-1.965,1.208-3.902,2.483-5.848,3.729C265.221,502.762,267.493,503.893,270.34,505.312z"
          />
				<path
              d="M225.502,486.359c-2.157,1.774-3.892,3.192-5.455,4.487c-1.457-0.729-2.684-1.86-3.605-1.649      c-0.892,0.201-2.205,1.937-2.023,2.704c0.24,1.074,1.553,2.253,2.665,2.675c0.393,0.144,0.815,0.24,1.237,0.307l-0.652,2.627      c-1.687-0.422-3.384-0.786-5.1-0.94c-1.649-0.144-3.375,1.246-5.139,1.62c-1.486,0.326-3.077,0.192-4.621,0.259      c0.201-1.438-0.134-3.605,0.681-4.199c4.228-3.097,8.676-5.886,13.182-8.58c3.077-1.841,6.145-2.186,9.223-1.639      L225.502,486.359z"
          />
				<path
              fill="#FFDA3A"
              d="M229.222,511.716c-3.72,1.754-6.855,3.768-10.287,4.669c-2.186,0.575-4.803-0.489-7.229-0.815      c0.383-2.09,0.767-4.17,1.15-6.251c2.857,1.534,5.206,2.79,8.743,4.678c-0.978-2.934-1.448-4.333-1.889-5.675      C224.141,505.35,226.586,508.274,229.222,511.716z"
          />
				<path
              fill="#FFDA3A"
              d="M220.047,490.845c1.563-1.294,3.298-2.713,5.455-4.487c0.345,2.742,0.585,4.611,0.815,6.481      c2.934-4.966,6.021-3.681,9.52-1.639c3.145,1.85,6.519,3.317,9.894,5.004c-2.339,4.343-4.554,5.599-9.146,3.212      c-4.324-2.243-9.51-2.857-14.342-4.065c-1.265-0.316-2.636-0.268-3.921-0.47c-0.422-0.067-0.844-0.163-1.237-0.307      c-1.112-0.422-2.425-1.601-2.665-2.675c-0.182-0.767,1.131-2.502,2.023-2.704C217.363,488.985,218.59,490.117,220.047,490.845z"
          />
				<path
              fill="#FFDA3A"
              d="M297.759,332.393c0.623,3.633,1.198,6.941,1.946,11.255c0.431-0.086,2.521,0.086,3.116-0.786      c0.94-1.352,1.543-3.595,1.093-5.119C303.089,334.924,301.344,332.441,297.759,332.393z M282.429,342.44      c1.083,1.582,1.793,3.432,2.656,5.167c-1.582,0.738-3.097,1.774-4.765,2.119c-1.754,0.374-3.643,0.086-6.605,0.086      c1.486,1.093,2.023,1.802,2.636,1.889c4.813,0.709,9.664,1.898,14.438,1.659c2.253-0.105,5.062-2.627,6.318-4.803      c0.844-1.448-0.604-4.228-1.026-6.404c-0.585-0.01-1.17-0.01-1.754-0.019c0.786,3.739,0.901,7.516-3.796,7.468      c-4.669-0.038-2.071-4.151-2.378-5.963c2.167-1.956,4.726-3.95,5.148-6.327c0.556-3.192-2.339-5.081-4.563-6.711      c0,3.173,0.834,7.631-0.163,8.082c-2.435,1.103-5.704,0.364-8.647,0.364C280.483,340.801,281.739,341.424,282.429,342.44z       M262.172,292.645c-0.499,0.604-2.751-0.144-4.189-0.441c-1.706-0.355-3.375-0.872-5.062-1.313      c-0.259,0.316-0.518,0.642-0.777,0.959c2.982,3.892,7.842,7.257,4.899,12.981c-2.953,5.733-8.753,3.164-14.946,3.806      c4.305,4.295,7.593,7.574,10.881,10.862c-0.182,0.604-0.374,1.208-0.556,1.812c-2.761-0.144-5.666,0.201-8.264-0.527      c-7.113-2.004-7.027-8.302-7.113-14.869c-1.505,0.93-2.071,1.074-2.253,1.409c-2.167,4.285-0.575,10.507,3.576,14.141      c4.535,3.959,11.14,4.611,15.349,1.956c1.927-1.218,4.352-1.956,6.634-2.215c4.352-0.499,8.024-3.394,8.158-7.679      c0.077-2.493,0.777-3.873,2.905-5.225c4.813-3.049,4.381-8.753-0.671-11.706c-0.019,8.897-0.019,8.897-2.962,9.088      c-4.026,0.259-5.589-1.735-6.404-8.178c7.66-4.726,7.698-11.6-0.614-16.978c1.016,2.857,2.138,5.091,2.512,7.43      C263.524,289.482,263.112,291.524,262.172,292.645z M325.705,314.753c1.428,12.108,5.953,23.9,4.189,36.315      c-1.007,7.066-2.512,14.074-4.074,21.043c-0.23,1.026-1.994,2.32-3.135,2.425c-8.686,0.777-17.467,2.282-26.086,1.659      c-16.883-1.218-32.96-6.03-47.302-15.31c-11.974-7.746-23.45-16.442-31.474-28.348c-7.746-11.476-13.374-24.149-12.434-38.578      c0.661-10.296,6.442-17.477,14.869-22.836c1.237-0.786,2.416-1.678,3.614-2.521c-0.173-0.422-0.345-0.844-0.518-1.256      c-1.39,0.297-2.886,0.355-4.151,0.93c-1.553,0.709-3.001,1.553-4.352,2.531l-0.614-0.834c-0.403-2.253-0.805-4.496-1.285-7.19      c1.85,0.336,3.432,0.623,5.407,0.987c-0.499-4.074,1.285-5.388,6.049-3.806c-0.403-6.059-0.777-11.562-1.141-16.95      c2.253,1.812,4.678,3.768,7.113,5.723c0.288-0.345,0.585-0.681,0.872-1.016c-0.863-2.598-1.735-5.196-2.598-7.794      c-0.844-2.55-1.687-5.091-2.541-7.631c0.268-0.192,0.546-0.393,0.824-0.594c1.659,2.119,3.154,4.41,5.043,6.299      c1.591,1.601,3.538,2.962,5.532,4.055c7.554,4.142,15.329,7.909,22.779,12.242c9.203,5.349,18.359,10.833,27.179,16.787      c7.113,4.803,13.681,10.402,20.526,15.617c2.521,1.927,5.139,3.748,7.708,5.608c2.215,4.036,4.65,7.957,6.577,12.127      c1.323,2.876,2.636,5.915,3.221,8.993C325.58,313.871,325.657,314.312,325.705,314.753z"
          />
				<path
              fill="#858333"
              d="M338.311,371.287c-3.701,9.894-6.279,18.867-14.198,25.022c-2.052,1.591-5.589,1.965-4.372,6.605      c0.364,1.4-4.132,4.113-6.452,6.174c-0.671,0.594-2.224,1.083-2.176,1.467c0.671,5.206-4.506,6.088-6.912,8.724      c-2.023,2.224-3.068,3.94-3.029,6.816c0.048,4.496,0.163,8.993,0.173,13.479c0.01,4.266-0.067,8.532-0.364,12.779      c-0.259,3.633-2.636,7.133-3.518,9.347c-5.455-0.297-9.75,0.336-13.326-0.978c-3.432-1.246-7.372-3.921-8.878-7.037      c-2.56-5.282-3.317-11.418-4.966-17.161c-0.566-1.965-1.179-4.084-2.378-5.675c-0.24-0.326-0.489-0.652-0.738-0.978      c-8.417-11.265-16.873-22.5-25.578-33.545c-2.464-3.125-5.417-6.347-8.868-8.13c-0.067-0.038-0.144-0.077-0.211-0.115      c-13.192-6.826-24.638-15.713-34.34-26.91c-0.834-0.968-1.285-2.263-1.917-3.413c0.546-0.479,1.093-0.959,1.63-1.438      c-9.52-5.397-18.944-11.006-28.598-16.154c-17.151-9.136-29.355-22.884-37.322-40.294c-1.937-4.247-1.457-9.596-2.195-15.339      c5.263,6.567,9.827,12.271,14.4,17.966c0.671-0.364,1.342-0.738,2.013-1.102c-2.023-5.436-4.055-10.862-6.078-16.298      c0.345-0.182,0.681-0.374,1.026-0.566c4.448,4.774,8.897,9.558,13.326,14.304c1.438-0.46,2.684-0.853,4.333-1.361      c-2.732-5.052-5.33-9.875-8.475-15.713c5.944,4.659,10.948,8.599,17.046,13.383c-1.218-4.937-2.1-8.504-3.029-12.271      c2.109,0.834,4.122,1.62,6.059,2.378c2.656,1.055,5.187,2.052,7.727,3.049c0.307-0.431,0.614-0.872,0.92-1.304      c-1.352-2.282-2.704-4.573-4.448-7.526c4.707,3.001,8.782,5.608,14.093,8.992c-3.125-6.011-5.589-10.757-8.389-16.144      c4.63,3.202,8.628,5.963,12.626,8.734c0.249-0.288,0.499-0.575,0.748-0.863c-1.246-1.524-2.493-3.039-3.739-4.563      c0.221-0.23,0.441-0.46,0.661-0.7c1.975,1.534,3.959,3.058,5.867,4.525c3.173-2.253,3.595-4.515,1.285-7.468      c-0.767-0.987-0.575-2.723,0.125-4.448c1.524,1.409,3.058,2.819,4.583,4.218c0.288-0.182,0.575-0.364,0.872-0.556      c-0.853-2.33-1.697-4.669-2.541-6.998c0.383-0.268,0.767-0.546,1.141-0.824c2.032,2.656,4.065,5.302,6.097,7.957      c0.47-0.182,0.94-0.374,1.409-0.556c-0.901-2.799-1.802-5.599-2.694-8.408c0.307-0.144,0.604-0.297,0.911-0.451      c1.879,2.742,3.758,5.484,5.637,8.235c0.316-0.067,0.633-0.125,0.949-0.182l0.614,0.834      c-10.689,7.631-14.965,22.577-12.674,33.171c5.838,26.93,21.906,46.075,45.174,59.429c9.079,5.215,18.819,10.047,28.885,12.53      c13.959,3.451,28.531,4.209,42.988,2.167c1.611-0.22,3.125-1.122,5.158-1.889c0,2.78,0,4.918,0,7.593      C331.16,382.178,332.962,375.793,338.311,371.287z"
          />
				<path
              d="M222.703,238.221c1.15,0.767,2.09,1.85,3.116,2.79c0.355-0.163,0.7-0.326,1.055-0.489l1.783-0.594      c0.863,2.598,1.735,5.196,2.598,7.794c-0.288,0.336-0.585,0.671-0.872,1.016c-2.435-1.956-4.861-3.911-7.113-5.723      c0.364,5.388,0.738,10.891,1.141,16.95c-4.765-1.582-6.548-0.268-6.049,3.806c-1.975-0.364-3.557-0.652-5.407-0.987      c0.479,2.694,0.882,4.937,1.285,7.19c-0.316,0.058-0.633,0.115-0.949,0.182c-1.879-2.751-3.758-5.493-5.637-8.235      c-0.307,0.153-0.604,0.307-0.911,0.451c0.892,2.809,1.793,5.608,2.694,8.408c-0.47,0.182-0.94,0.374-1.409,0.556      c-2.032-2.656-4.065-5.302-6.097-7.957l-1.122-1.534c0.451-1.956,0.815-3.499,1.131-4.87c1.659,0.92,3.116,1.716,5.234,2.886      c-0.489-3.049-0.786-4.88-1.026-6.356c2.349,0.93,4.324,1.716,7.018,2.78c-0.959-4.074-1.611-6.845-2.262-9.616      c0.527-0.211,1.055-0.422,1.591-0.623c1.86,3.729,3.729,7.459,5.589,11.188c-3.346-13.709-3.346-13.709-2.234-16.164      c1.179,2.262,2.406,4.63,3.633,6.989c0.499-0.201,1.007-0.403,1.515-0.604c-0.652-2.32-1.448-4.611-1.879-6.97      c-0.211-1.112,0.268-2.349,0.441-3.528C220.613,237.367,221.782,237.607,222.703,238.221z"
          />
				<path
              d="M200.787,264.201c0.844,2.33,1.687,4.669,2.541,6.998c-0.297,0.192-0.585,0.374-0.872,0.556      c-1.524-1.4-3.058-2.809-4.583-4.218c-0.7,1.726-0.892,3.461-0.125,4.448c2.31,2.953,1.889,5.215-1.285,7.468      c-1.908-1.467-3.892-2.991-5.867-4.525c-0.22,0.24-0.441,0.47-0.661,0.7l-1.304-1.793c-0.336-2.406-0.604-4.295-0.892-6.375      c1.237,0,2.1,0,2.962,0c0.01-0.153,0.029-0.297,0.038-0.451c0.096-1.035,0.201-2.013,0.249-2.569      c5.196,2.023,3.883-3.212,5.781-4.909c1.179,0.681,2.425,1.39,4.036,2.31l1.122,1.534      C201.554,263.655,201.171,263.933,200.787,264.201z"
          />
				<path
              fill="#FFFFFF"
              d="M190.74,267.01c-0.01,0.153-0.029,0.297-0.038,0.451c-0.863,0-1.726,0-2.962,0c1.237,0,2.1,0,2.953-0.01      C190.711,267.307,190.721,267.154,190.74,267.01z"
          />
				<path
              d="M188.353,180.354c-0.47,0.288-0.94,0.585-1.409,0.882c-2.991-4.899-5.982-9.798-8.973-14.697      c0.556-0.326,1.112-0.652,1.659-0.987C182.543,170.489,185.448,175.417,188.353,180.354z"
          />
				<path
              d="M175.296,177.047c3.729,0.719,7.967,7.957,7.833,13.623C180.415,185.953,177.874,181.533,175.296,177.047z"
          />
				<path
              d="M180.3,272.321c2.799,5.388,5.263,10.133,8.389,16.144c-5.311-3.384-9.386-5.992-14.093-8.992      c1.745,2.953,3.097,5.244,4.448,7.526c-0.307,0.431-0.614,0.872-0.92,1.304c-2.541-0.997-5.071-1.994-7.727-3.049l0.987-2.493      c-1.553-4.467-4.621-8.609,1.371-12.473c0.892,1.246,1.812,2.646,2.857,3.95c1.007,1.256,2.147,2.406,4.017,4.477      c-1.237-4.237-2.109-7.2-3.202-10.929c4.554,2.263,8.053,3.998,12.204,6.049l1.304,1.793c1.246,1.524,2.493,3.039,3.739,4.563      c-0.249,0.288-0.499,0.575-0.748,0.863C188.928,278.284,184.93,275.523,180.3,272.321z"
          />
				<path
              d="M150.322,281.764c3.145,5.838,5.743,10.661,8.475,15.713c-1.649,0.508-2.895,0.901-4.333,1.361      c-4.429-4.746-8.877-9.529-13.326-14.304c-0.345,0.192-0.681,0.383-1.026,0.566c2.023,5.436,4.055,10.862,6.078,16.298      c-0.671,0.364-1.342,0.738-2.013,1.102c-4.573-5.695-9.136-11.399-14.4-17.966c0.738,5.743,0.259,11.092,2.195,15.339      c7.967,17.41,20.171,31.157,37.322,40.294c9.654,5.148,19.078,10.757,28.598,16.154c-0.537,0.479-1.083,0.959-1.63,1.438      c0.633,1.15,1.083,2.445,1.917,3.413c9.702,11.198,21.149,20.085,34.34,26.91l-1.275,2.416c-0.709-0.22-1.448-0.412-2.215-0.633      c-0.412,0.364-0.824,0.729-1.237,1.093l-2.109,0.863c-0.777-1.352-1.553-2.694-2.387-3.998      c-0.709-1.102-1.754-2.176-2.905-2.799c-8.609-4.717-16.029-10.948-22.04-18.599c-7.948-10.114-18.349-16.978-29.528-22.5      c-20.008-9.865-33.027-25.712-41.684-45.72c-1.505-3.461-3.135-6.883-4.659-10.344l2.512-1.361      c0.393-0.096,0.786-0.201,1.179-0.307c0.326-3.375,0.652-6.74,0.978-10.114c0.508-0.173,1.016-0.355,1.524-0.537      c2.387,3.355,4.774,6.711,7.238,10.162c0.307-2.301,0.594-4.41,0.892-6.653c3.221,1.15,5.867,2.109,8.513,3.058      c1.265-4.784,2.838-5.599,7.439-3.653c2.675,1.131,5.302,2.358,8.111,3.614c0.316-2.061,0.537-3.576,0.968-6.414      c3.643,2.713,6.596,4.909,9.549,7.104l-0.987,2.493c-1.937-0.757-3.95-1.543-6.059-2.378c0.93,3.768,1.812,7.334,3.029,12.271      C161.27,290.364,156.266,286.424,150.322,281.764z"
          />
				<path
              d="M135.855,167.584c6.385,8.149,10.891,16.432,10.363,26.824l-2.243-0.096c0.173-4.381-0.834-8.782-3.298-13.029      c-5.177-8.945-11.37-17.343-17.63-25.597c-4.841-6.375-4.611-15.339,1.697-20.085c4.381-3.288,6.96-7.526,8.273-12.645      c0.058-0.22,0.105-0.431,0.144-0.642l2.176,0.489c-1.39,6.5-4.084,12.607-9.616,17.237c-1.62,1.352-3.106,5.167-2.339,6.672      C127.054,153.932,130.879,161.247,135.855,167.584z"
          />
				<path
              d="M136.929,230.484c0.566,6.04,1.055,11.265,1.582,16.815C134.983,243.752,134.11,235.766,136.929,230.484z"
          />
				<path
              d="M132.864,150.462c9.338,0.824,13.834-6.212,19.548-12.712c-1.275,8.513-9.453,16.509-16.125,16.413      c-1.419-0.019-2.819-1.256-4.228-1.927C132.327,151.641,132.595,151.056,132.864,150.462z"
          />
				<path
              d="M143.918,70.498c3.125,7.238,0.508,14.62-2.646,21.523c-0.777,1.706-1.668,3.365-2.061,4.161      c6.874,4.985,14.122,9.06,19.883,14.649c1.831,1.774,3.653,3.547,5.474,5.33l-1.649,1.697      c-6.72-6.548-15.09-10.632-22.462-16.211c-0.719-0.537-1.706-0.824-2.617-1.026c-5.493-1.208-10.526-0.94-15.262,0.278      l-0.585-2.464c2.502-0.614,5.071-1.112,7.698-1.524c3.528-0.556,5.953-1.016,7.842-4.305c3.681-6.423,6.174-13.268,3.959-20.382      c-2.138-6.864-5.551-13.383-8.916-19.787c-0.844-1.611-1.668-3.269-2.541-4.861l1.898-1.016      C136.162,54.43,140.39,62.31,143.918,70.498z"
          />
				<path
              fill="#F4ECCE"
              d="M132.059,152.236c1.409,0.671,2.809,1.908,4.228,1.927c6.673,0.096,14.85-7.9,16.125-16.413      c-5.714,6.5-10.21,13.537-19.548,12.712C132.595,151.056,132.327,151.641,132.059,152.236z M160.867,282.071      c-2.809-1.256-5.436-2.483-8.111-3.614c-4.602-1.946-6.174-1.131-7.439,3.653c-2.646-0.949-5.292-1.908-8.513-3.058      c-0.297,2.243-0.585,4.352-0.892,6.653c-2.464-3.451-4.851-6.807-7.238-10.162c-0.508,0.182-1.016,0.364-1.524,0.537      c-0.326,3.375-0.652,6.74-0.978,10.114c-0.393,0.105-0.786,0.211-1.179,0.307c-1.956-6.251-4.717-12.377-5.666-18.771      c-1.86-12.549-2.723-25.242-3.969-37.878c-0.058-0.652-0.058-1.313-0.019-1.965c0.019-0.307,0.038-0.604,0.067-0.901      c0.719-7.631,0.94-7.9,8.456-7.995c12.453-0.163,20.765-11.265,22.127-21.887c0.115-0.911,0.201-1.812,0.23-2.694      c0.527-10.392-3.979-18.675-10.363-26.824c-4.976-6.337-8.801-13.652-12.473-20.871c-0.767-1.505,0.719-5.321,2.339-6.672      c5.532-4.63,8.226-10.737,9.616-17.237c0.134-0.623,0.259-1.256,0.374-1.898c0.47-2.704-1.889-6.442-3.911-8.916      c-2.56-3.125-6.088-4.084-10.641-3.298c-6.423,1.102-11.322,4.573-16.164,8.321c-1.611,1.246-3.212,2.521-4.87,3.758      c-2.56-3.221-1.764-6.586,0.585-8.245c6.922-4.889,13.968-9.587,21.868-11.629c4.736-1.218,9.769-1.486,15.262-0.278      c0.911,0.201,1.898,0.489,2.617,1.026c7.372,5.58,15.742,9.664,22.462,16.211c1.543,1.515,3.01,3.154,4.352,4.976      c8.667,11.754,19.97,21.676,27.888,33.842c9.702,14.908,17.391,31.167,25.338,47.148c4.468,8.983,7.708,18.589,11.504,27.907      c-0.23,0.211-0.47,0.431-0.709,0.642c-3.288-2.761-6.577-5.532-9.865-8.302c-0.24,0.163-0.489,0.316-0.729,0.479      c2.061,5.321,4.113,10.641,6.174,15.972c-0.355,0.163-0.7,0.326-1.055,0.489c-1.026-0.94-1.965-2.023-3.116-2.79      c-0.92-0.614-2.09-0.853-3.145-1.265c-0.173,1.179-0.652,2.416-0.441,3.528c0.431,2.358,1.227,4.65,1.879,6.97      c-0.508,0.201-1.016,0.403-1.515,0.604c-1.227-2.358-2.454-4.726-3.633-6.989c-1.112,2.454-1.112,2.454,2.234,16.164      c-1.86-3.729-3.729-7.459-5.589-11.188c-0.537,0.201-1.064,0.412-1.591,0.623c0.652,2.771,1.304,5.541,2.262,9.616      c-2.694-1.064-4.669-1.85-7.018-2.78c0.24,1.476,0.537,3.307,1.026,6.356c-2.119-1.17-3.576-1.965-5.234-2.886      c-0.316,1.371-0.681,2.914-1.131,4.87c-1.611-0.92-2.857-1.63-4.036-2.31c-1.898,1.697-0.585,6.931-5.781,4.909      c-0.048,0.556-0.153,1.534-0.249,2.569c-0.019,0.144-0.029,0.297-0.048,0.441c-0.853,0.01-1.716,0.01-2.953,0.01      c0.288,2.08,0.556,3.969,0.892,6.375c-4.151-2.052-7.65-3.787-12.204-6.049c1.093,3.729,1.965,6.692,3.202,10.929      c-1.869-2.071-3.01-3.221-4.017-4.477c-1.045-1.304-1.965-2.704-2.857-3.95c-5.992,3.864-2.924,8.005-1.371,12.473      c-2.953-2.195-5.906-4.391-9.549-7.104C161.404,278.495,161.184,280.01,160.867,282.071z M188.353,180.354      c-2.905-4.937-5.81-9.865-8.724-14.802c-0.546,0.336-1.102,0.661-1.659,0.987c2.991,4.899,5.982,9.798,8.973,14.697      C187.413,180.939,187.883,180.642,188.353,180.354z M183.128,190.67c0.134-5.666-4.103-12.904-7.833-13.623      C177.874,181.533,180.415,185.953,183.128,190.67z M138.511,247.299c-0.527-5.551-1.016-10.776-1.582-16.815      C134.11,235.766,134.983,243.752,138.511,247.299z"
          />
				<path
              d="M131.8,111.99c2.023,2.473,4.381,6.212,3.911,8.916c-0.115,0.642-0.24,1.275-0.374,1.898l-2.176-0.489      c1.227-6.394-3.969-11.293-10.584-9.817c4.391,1.63,6.855,4.573,5.838,9.165c-0.623,2.79-3.029,5.973-5.532,7.276      c-1.764,0.92-6.184-0.173-7.401-1.831c-4.305-5.886,0.288-9.98,4.027-14.294c-4.42,1.438-8.724,2.943-12.415,5.656l-2.1-1.457      c4.841-3.748,9.74-7.219,16.164-8.321C125.712,107.906,129.24,108.864,131.8,111.99z"
          />
				<path
              d="M119.327,267.729c0.949,6.394,3.71,12.521,5.666,18.771l-2.512,1.361c-1.524-3.461-2.943-6.96-4.007-10.555      c-2.406-8.149-4.381-16.633-4.956-25.079c-0.556-8.091-0.24-16.24-0.029-24.389l1.85,0.048      c-0.038,0.652-0.038,1.313,0.019,1.965C116.604,242.487,117.467,255.18,119.327,267.729z"
          />
				<path
              d="M146.218,194.408c-0.029,0.882-0.115,1.783-0.23,2.694c-1.361,10.622-9.673,21.724-22.127,21.887      c-7.516,0.096-7.737,0.364-8.456,7.995c-0.029,0.297-0.048,0.594-0.067,0.901l-1.85-0.048c0.067-2.953,0.125-5.906,0.125-8.858      c0-1.093-1.102-2.282-1.917-3.24c-1.63-1.927-3.26-3.854-4.947-5.743l1.994-1.102c2.646,3.413,6.279,5.704,10.757,6.481      c7.612,1.333,15.445,0.412,19.912-6.96c2.732-4.506,4.372-9.29,4.563-14.102L146.218,194.408z"
          />
				<path
              fill="#FFFFFF"
              d="M109.414,144.787c-0.01,0.029-0.029,0.058-0.029,0.096c-0.01,0-0.01,0-0.01,0      c-0.038,0.019-0.067,0.038-0.105,0.048L109.414,144.787z"
          />
				<path
              fill="#FFFFFF"
              d="M109.414,144.787l-0.144,0.144c0.019-0.048,0.038-0.086,0.067-0.134c0.01,0,0.01,0,0.01,0      C109.376,144.796,109.395,144.787,109.414,144.787z"
          />
				<path
              fill="#FFDA3A"
              d="M88.831,152.725c7.641-3.662,14.285-6.855,20.928-10.037l0.681,0.709      c-0.096,0.105-0.192,0.201-0.288,0.307c-0.278,0.297-0.518,0.604-0.709,0.911c-0.038,0.048-0.067,0.105-0.086,0.153      c-0.01,0.01-0.019,0.019-0.019,0.029c-0.719,0.125-1.745,0.048-2.052,0.47C103.049,151.229,96.779,152.418,88.831,152.725z"
          />
				<path
              fill="#F44E5B"
              d="M140.677,181.284c2.464,4.247,3.47,8.647,3.298,13.029c-0.192,4.813-1.831,9.596-4.563,14.102      c-4.467,7.372-12.3,8.293-19.912,6.96c-4.477-0.777-8.111-3.068-10.757-6.481c-1.208-1.553-2.205-3.336-2.991-5.321      c-1.457-3.691-1.917-7.401-1.917-11.13c0-5.263,0.911-10.565,1.198-15.838c0.307-5.877,1.208-11.888,0.336-17.611      c-0.719-4.765,0.345-8.206,3.029-11.696c0.518-0.661,0.671-1.601,0.978-2.416c0,0,0,0,0.01,0      c2.378-1.189,5.426-1.86,6.903-3.758c2.406-3.068-0.077-6.711-3.998-6.404c-2.684,0.211-5.445,1.486-7.976,1.064      c-4.036-0.681-8.082-2.032-11.734-3.873c-0.901-0.451-0.652-3.931-0.316-5.915c0.326-1.937,1.438-3.739,2.186-5.551      c2.128,1.994,4.055,3.787,6.088,5.685c1.783-3.365,4.027-5.79,6.557-7.66c3.691-2.713,7.995-4.218,12.415-5.656      c-3.739,4.314-8.331,8.408-4.027,14.294c1.218,1.659,5.637,2.751,7.401,1.831c2.502-1.304,4.909-4.487,5.532-7.276      c1.016-4.592-1.448-7.535-5.838-9.165c6.615-1.476,11.811,3.423,10.584,9.817c-0.038,0.211-0.086,0.422-0.144,0.642      c-1.313,5.119-3.892,9.357-8.273,12.645c-6.308,4.746-6.538,13.709-1.697,20.085C129.307,163.941,135.5,172.339,140.677,181.284      z"
          />
				<path
              d="M128.818,40.74c1.026,1.946,2.071,3.883,3.116,5.819l-1.898,1.016c-1.927-3.518-4.094-6.749-7.315-8.705      c-0.959,3.835-1.591,7.689-2.914,11.293c-1.122,3.087-3.183,5.81-4.544,8.82c-4.41,9.817-3.605,8.638-11.13,2.339      c-1.026-0.853-1.984-2.08-3.202-2.646l0.585-1.62c0.786,0.288,1.553,0.604,2.301,0.978c1.86,0.93,3.336,2.636,5.647,4.544      c3.221-6.366,6.481-12.54,9.434-18.857c0.499-1.064-0.566-2.761-0.47-4.142c0.115-1.735,0.681-3.442,1.055-5.158      c1.611,0.364,3.547,0.288,4.765,1.179C126.057,36.943,127.764,38.755,128.818,40.74z"
          />
				<path
              fill="#ED1C24"
              d="M99.981,153.952c0.604,2.032,1.716,4.065,1.735,6.107c0.125,10.785,0.105,21.571,0.096,32.385      c-0.01,2.761-0.01,5.532-0.01,8.302c-5.877-1.064-10.325-7.133-10.478-14.016c-0.096-4.554,0.297-9.012,1.122-13.383      c0.959-5.062,2.493-10.009,4.506-14.86c0.585-1.39,1.102-2.819,1.649-4.228C99.06,154.163,99.521,154.057,99.981,153.952z"
          />
				<path
              d="M97.153,59.233c1.093,6.625,2.176,13.249,3.307,20.161c-7.583-2.761-13.872-5.062-21.082-7.689l0.134-1.764      c6.251,0.46,11.734,3.327,17.784,4.583c-0.575-2.425-1.055-4.63-1.63-6.807c-0.278-1.064-1.131-2.119-1.055-3.125      c0.259-3.125,0.844-6.222,1.294-9.338c1.86,0.633,3.777,1.131,5.608,1.802l-0.585,1.62      C99.914,58.217,98.725,58.207,97.153,59.233z"
          />
				<path
              fill="#FFDA3A"
              d="M110.498,137.05c4.18,2.713,1.745,4.496-0.058,6.347l-0.681-0.709c-0.345-0.757-0.69-1.505-1.045-2.263      c-8.973,5.369-19.471,7.507-27.447,14.975c-0.393-0.24-0.786-0.479-1.17-0.719c1.361-3.202,2.464-6.557,4.189-9.549      c0.173-0.307,0.355-0.604,0.546-0.901c1.342-2.071,3.049-3.988,4.918-5.541c1.265-1.035,3.844-1.898,5.091-1.304      C100.173,139.936,105.196,139.571,110.498,137.05z"
          />
				<path
              d="M84.287,145.132c-1.726,2.991-2.828,6.347-4.189,9.549c0.383,0.24,0.777,0.479,1.17,0.719      c7.976-7.468,18.474-9.606,27.447-14.975c0.355,0.757,0.7,1.505,1.045,2.263c-6.644,3.183-13.287,6.375-20.928,10.037      c7.948-0.307,14.217-1.496,18.455-7.459c0.307-0.422,1.333-0.345,2.052-0.47c-0.029,0.048-0.048,0.086-0.067,0.134      c0.038-0.01,0.067-0.029,0.105-0.048c-0.307,0.815-0.46,1.754-0.978,2.416c-2.684,3.49-3.748,6.931-3.029,11.696      c0.872,5.723-0.029,11.734-0.336,17.611c-0.288,5.273-1.198,10.574-1.198,15.838h-2.023c0.01-10.814,0.029-21.599-0.096-32.385      c-0.019-2.042-1.131-4.074-1.735-6.107c-0.46,0.105-0.92,0.211-1.381,0.307c-0.546,1.409-1.064,2.838-1.649,4.228      c-2.013,4.851-3.547,9.798-4.506,14.86l-2.052-0.364c0.987-5.637,1.687-11.456,2.675-17.582      c-4.861,1.793-10.047,3.71-15.195,5.618c-1.975-4.42-1.39-7.833,4.535-17.669l2.425,0.882      C84.642,144.528,84.46,144.825,84.287,145.132z"
          />
				<path
              d="M105.752,203.574c0.786,1.984,1.783,3.768,2.991,5.321l-1.994,1.102c-1.007-1.131-2.042-2.243-3.106-3.317      c-1.572-1.591-3.557-2.79-5.417-4.084c-8.293-5.733-11.476-13.22-9.108-23.335c0.489-2.071,0.901-4.161,1.275-6.279l2.052,0.364      c-0.824,4.372-1.218,8.83-1.122,13.383c0.153,6.883,4.602,12.952,10.478,14.016c0-2.771,0-5.541,0.01-8.302h2.023      C103.835,196.172,104.295,199.883,105.752,203.574z"
          />
				<path
              d="M78.822,119.343c2.962-1.352,4.132-0.681,4.755,2.646c0.451,2.378,2.195,4.515,3.825,7.65      c1.045-3.413,1.361-5.33,2.186-6.989c6.941-14.026,18.656-20.842,32.404-24.217l0.585,2.464      c-7.9,2.042-14.946,6.74-21.868,11.629c-2.349,1.659-3.145,5.024-0.585,8.245c1.659-1.237,3.26-2.512,4.87-3.758l2.1,1.457      c-2.531,1.869-4.774,4.295-6.557,7.66c-2.032-1.898-3.959-3.691-6.088-5.685c-0.748,1.812-1.86,3.614-2.186,5.551      c-0.336,1.984-0.585,5.465,0.316,5.915c3.653,1.841,7.698,3.192,11.734,3.873c2.531,0.422,5.292-0.853,7.976-1.064      c3.921-0.307,6.404,3.336,3.998,6.404c-1.476,1.898-4.525,2.569-6.903,3.758c0-0.038,0.019-0.067,0.029-0.096      c-0.019,0-0.038,0.01-0.067,0.01c0-0.01,0-0.019,0.01-0.029c0.019-0.048,0.048-0.105,0.086-0.153      c0.192-0.307,0.431-0.614,0.709-0.911c0.096-0.105,0.192-0.201,0.288-0.307c1.802-1.85,4.237-3.633,0.058-6.347      c-5.302,2.521-10.325,2.886-15.655,0.336c-1.246-0.594-3.825,0.268-5.091,1.304c-1.869,1.553-3.576,3.47-4.918,5.541      l-2.425-0.882c1.553-2.588,3.48-5.618,5.829-9.232c-2.972-3.202-5.752-6.366-8.753-9.29c-0.652-0.642-2.272-0.872-3.183-0.537      c-1.908,0.69-3.566,2.08-5.474,2.79c-1.342,0.508-2.934,0.374-5.33,0.623c1.246-2.598,2.387-4.976,3.47-7.257l2.138,0.479      C74.182,121.04,76.579,120.359,78.822,119.343z"
          />
				<path
              fill="#F44E5B"
              d="M79.379,71.706c7.209,2.627,13.498,4.928,21.082,7.689c-1.131-6.912-2.215-13.537-3.307-20.161      c1.572-1.026,2.761-1.016,3.777-0.556c1.218,0.566,2.176,1.793,3.202,2.646c7.526,6.299,6.72,7.478,11.13-2.339      c1.361-3.01,3.423-5.733,4.544-8.82c1.323-3.605,1.956-7.459,2.914-11.293c3.221,1.956,5.388,5.187,7.315,8.705      c0.872,1.591,1.697,3.25,2.541,4.861c3.365,6.404,6.778,12.923,8.916,19.787c2.215,7.113-0.278,13.959-3.959,20.382      c-1.889,3.288-4.314,3.748-7.842,4.305c-2.627,0.412-5.196,0.911-7.698,1.524c-13.748,3.375-25.463,10.191-32.404,24.217      c-0.824,1.659-1.141,3.576-2.186,6.989c-1.63-3.135-3.375-5.273-3.825-7.65c-0.623-3.327-1.793-3.998-4.755-2.646      c-2.243,1.016-4.64,1.697-7.717,1.582c2.541-3.106,5.215-6.107,7.535-9.366c0.748-1.045,0.556-2.771,0.796-4.18      c-1.275-0.096-2.569-0.403-3.806-0.23c-1.975,0.268-3.921,0.853-5.877,1.304c-0.259-0.537-0.518-1.064-0.777-1.601      c3.116-1.802,6.222-3.605,10.105-5.838c-3.173-5.781-9.951-6.251-15.905-9.213c1.754-0.767,3.499-1.218,5.225-1.467      c4.305-0.614,8.513,0.048,12.664,0.115c1.745,0.029,3.48,0.508,5.225,0.575c1.304,0.058,2.617-0.23,3.931-0.364      c-0.288-1.285-0.259-2.771-0.911-3.825C86.339,82.069,83.165,77.429,79.379,71.706z"
          />
				<path
              d="M85.677,87.131c-2.109-7.392-7.612-11.514-13.853-16.422c2.732-0.777,5.273-0.949,7.689-0.767l-0.134,1.764      c3.787,5.723,6.96,10.363,9.932,15.128c0.652,1.055,0.623,2.541,0.911,3.825c-1.313,0.134-2.627,0.422-3.931,0.364      c-1.745-0.067-3.48-0.546-5.225-0.575c-4.151-0.067-8.36-0.729-12.664-0.115l-0.249-2.052c3.701-0.46,7.42-0.786,11.13-1.122      C81.305,86.978,83.347,87.131,85.677,87.131z"
          />
				<path
              d="M75.63,107.148c1.237-0.173,2.531,0.134,3.806,0.23c-0.24,1.409-0.048,3.135-0.796,4.18      c-2.32,3.26-4.995,6.26-7.535,9.366l-2.138-0.479c1.409-2.924,2.732-5.704,4.122-8.59c-3.586,0-6.903,0-10.22,0      c-0.326-0.364-0.652-0.729-0.978-1.093c3.595-3.701,7.19-7.401,11.198-11.523c-3.403-1.4-6.883-2.656-10.172-4.295      c-1.265-0.623-2.08-2.119-3.106-3.221c1.141-0.959,2.186-2.569,3.442-2.771c1.63-0.259,3.26-0.479,4.899-0.671l0.249,2.052      c-1.726,0.249-3.47,0.7-5.225,1.467c5.953,2.962,12.731,3.432,15.905,9.213c-3.883,2.234-6.989,4.036-10.105,5.838      c0.259,0.537,0.518,1.064,0.777,1.601C71.709,108.002,73.655,107.417,75.63,107.148z"
          />
			</g
        >
			<g
          >
			</g
        >
		</g
      >
		<circle
          fill="#FFDA3A"
          cx="121.34"
          cy="121.282"
          r="5.586"
      />
		<circle
          cx="121.34"
          cy="121.282"
          r="2.725"
      />
	</g
    >
</g
  >
<metadata
    ><rdf:RDF
      ><cc:Work
        ><dc:format
          >image/svg+xml</dc:format
        ><dc:type
            rdf:resource="http://purl.org/dc/dcmitype/StillImage"
        /><cc:license
            rdf:resource="http://creativecommons.org/licenses/publicdomain/"
        /><dc:publisher
          ><cc:Agent
              rdf:about="http://openclipart.org/"
            ><dc:title
              >Openclipart</dc:title
            ></cc:Agent
          ></dc:publisher
        ><dc:title
          >rooster ???</dc:title
        ><dc:date
          >2014-06-02T16:28:50</dc:date
        ><dc:description
          >A rooster.</dc:description
        ><dc:source
          >https://openclipart.org/detail/193968/rooster-???-by-osfor.org-193968</dc:source
        ><dc:creator
          ><cc:Agent
            ><dc:title
              >osfor.org</dc:title
            ></cc:Agent
          ></dc:creator
        ><dc:subject
          ><rdf:Bag
            ><rdf:li
              >Coq</rdf:li
            ><rdf:li
              >animal</rdf:li
            ><rdf:li
              >farm</rdf:li
            ><rdf:li
              >pet</rdf:li
            ><rdf:li
              >rooster</rdf:li
            ><rdf:li
              >???</rdf:li
            ></rdf:Bag
          ></dc:subject
        ></cc:Work
      ><cc:License
          rdf:about="http://creativecommons.org/licenses/publicdomain/"
        ><cc:permits
            rdf:resource="http://creativecommons.org/ns#Reproduction"
        /><cc:permits
            rdf:resource="http://creativecommons.org/ns#Distribution"
        /><cc:permits
            rdf:resource="http://creativecommons.org/ns#DerivativeWorks"
        /></cc:License
      ></rdf:RDF
    ></metadata
  ></svg
>
