<?xml version="1.0" encoding="UTF-8" standalone="no"?>
<!-- Creator: CorelDRAW X5 -->
<svg
    xmlns:inkscape="http://www.inkscape.org/namespaces/inkscape"
    xmlns:rdf="http://www.w3.org/1999/02/22-rdf-syntax-ns#"
    xmlns="http://www.w3.org/2000/svg"
    xmlns:dc="http://purl.org/dc/elements/1.1/"
    xmlns:ns1="http://sozi.baierouge.fr"
    xmlns:cc="http://web.resource.org/cc/"
    xmlns:xlink="http://www.w3.org/1999/xlink"
    xmlns:sodipodi="http://sodipodi.sourceforge.net/DTD/sodipodi-0.dtd"
    style="fill-rule:evenodd;text-rendering:geometricPrecision;image-rendering:optimizeQuality;clip-rule:evenodd;shape-rendering:geometricPrecision"
    xml:space="preserve"
    viewBox="0 0 2824 7853"
  >
 <defs
    >
  <style
        type="text/css"
      >
    .fil0 {fill:black}
  </style
    >
 </defs
  >
 <g
      id="Layer_x0020_1"
    >
  <path
        id="Untitled-1.emf"
        d="m1675 3105c358 263 384 614 595 968 305 509 402 865 325 1406l-165 1176-93 761c-81-383-253-724-526-871 39-507 41-1018-16-1523-41-361-121-781-285-1106l-3-5-9 5 2 4c149 332 227 729 268 1088 56 486 56 987 18 1474-2 25-3 44-5 69l30 8c301 284 375 338 522 971-7 97-16 203 0 312l-2199 10c420-943-336-2567 57-4068 47-183 106-329 166-448-108-42-184-117-202-238-117-1121-395-1899 299-2780 546-706 2055-99 2359 499l-80 132c27 220-67 441-114 661 75 164 292 410 168 459-66 48-189 28-160 194 44 65-55 84-93 125l-13 60c31 44 23 94-88 132 5 170-25 304-229 264-156-28-333-86-533-176-22 124-20 270 4 438zm-487 4115c-166-325-245-745-285-1105-18-152-29-305-37-459h27c7 157 19 315 37 471 42 359 119 757 268 1088l2 5-9 4-2-5z"
        class="fil0"
    />
 </g
  >
<metadata
    ><rdf:RDF
      ><cc:Work
        ><dc:format
          >image/svg+xml</dc:format
        ><dc:type
            rdf:resource="http://purl.org/dc/dcmitype/StillImage"
        /><cc:license
            rdf:resource="http://creativecommons.org/licenses/publicdomain/"
        /><dc:publisher
          ><cc:Agent
              rdf:about="http://openclipart.org/"
            ><dc:title
              >Openclipart</dc:title
            ></cc:Agent
          ></dc:publisher
        ></cc:Work
      ><cc:License
          rdf:about="http://creativecommons.org/licenses/publicdomain/"
        ><cc:permits
            rdf:resource="http://creativecommons.org/ns#Reproduction"
        /><cc:permits
            rdf:resource="http://creativecommons.org/ns#Distribution"
        /><cc:permits
            rdf:resource="http://creativecommons.org/ns#DerivativeWorks"
        /></cc:License
      ></rdf:RDF
    ></metadata
  ></svg
>
