<?xml version="1.0" encoding="UTF-8" standalone="no"?>
<!-- Created with Inkscape (http://www.inkscape.org/) -->

<svg
   xmlns:osb="http://www.openswatchbook.org/uri/2009/osb"
   xmlns:dc="http://purl.org/dc/elements/1.1/"
   xmlns:cc="http://creativecommons.org/ns#"
   xmlns:rdf="http://www.w3.org/1999/02/22-rdf-syntax-ns#"
   xmlns:svg="http://www.w3.org/2000/svg"
   xmlns="http://www.w3.org/2000/svg"
   xmlns:xlink="http://www.w3.org/1999/xlink"
   xmlns:sodipodi="http://sodipodi.sourceforge.net/DTD/sodipodi-0.dtd"
   xmlns:inkscape="http://www.inkscape.org/namespaces/inkscape"
   width="744.09448819"
   height="1052.3622047"
   id="svg2"
   version="1.1"
   inkscape:version="0.48.2 r9819"
   sodipodi:docname="personne-cheveux-bleu.svg"
   enable-background="new">
  <defs
     id="defs4">
    <inkscape:path-effect
       is_visible="true"
       id="path-effect3102"
       effect="spiro" />
    <linearGradient
       id="linearGradient5648">
      <stop
         style="stop-color:#1aa912;stop-opacity:0;"
         offset="0"
         id="stop5650" />
      <stop
         id="stop5698"
         offset="0.015625"
         style="stop-color:#6f7d20;stop-opacity:0.22352941;" />
      <stop
         id="stop5696"
         offset="0.03125"
         style="stop-color:#c4522f;stop-opacity:0.44705882;" />
      <stop
         id="stop5694"
         offset="0.0625"
         style="stop-color:#e06f4c;stop-opacity:0.78823529;" />
      <stop
         id="stop5692"
         offset="0.125"
         style="stop-color:#d57557;stop-opacity:0.64313725;" />
      <stop
         id="stop5682"
         offset="0.25"
         style="stop-color:#c0806c;stop-opacity:0.35686275;" />
      <stop
         id="stop5680"
         offset="0.5"
         style="stop-color:#969796;stop-opacity:0.35686275;" />
      <stop
         style="stop-color:#42c4eb;stop-opacity:0;"
         offset="1"
         id="stop5652" />
    </linearGradient>
    <linearGradient
       id="linearGradient5636">
      <stop
         style="stop-color:#eb4249;stop-opacity:1;"
         offset="0"
         id="stop5638" />
      <stop
         style="stop-color:#42c4eb;stop-opacity:0;"
         offset="1"
         id="stop5640" />
    </linearGradient>
    <linearGradient
       id="linearGradient5530">
      <stop
         style="stop-color:#036494;stop-opacity:1;"
         offset="0"
         id="stop5532" />
      <stop
         style="stop-color:#42c4eb;stop-opacity:0;"
         offset="1"
         id="stop5534" />
    </linearGradient>
    <inkscape:path-effect
       effect="spiro"
       id="path-effect5496"
       is_visible="true" />
    <inkscape:path-effect
       effect="spiro"
       id="path-effect5492"
       is_visible="true" />
    <inkscape:path-effect
       effect="spiro"
       id="path-effect5479"
       is_visible="true" />
    <inkscape:path-effect
       effect="spiro"
       id="path-effect5454"
       is_visible="true" />
    <inkscape:path-effect
       effect="spiro"
       id="path-effect5450"
       is_visible="true" />
    <linearGradient
       id="linearGradient5440"
       osb:paint="solid">
      <stop
         style="stop-color:#e6d06d;stop-opacity:1;"
         offset="0"
         id="stop5442" />
    </linearGradient>
    <inkscape:path-effect
       effect="skeletal"
       id="path-effect5426"
       is_visible="true"
       pattern="M 0,5 C 0,2.24 2.24,0 5,0 7.76,0 10,2.24 10,5 10,7.76 7.76,10 5,10 2.24,10 0,7.76 0,5 z"
       copytype="single_stretched"
       prop_scale="1"
       scale_y_rel="false"
       spacing="0"
       normal_offset="0"
       tang_offset="0"
       prop_units="false"
       vertical_pattern="false"
       fuse_tolerance="0" />
    <inkscape:path-effect
       effect="spiro"
       id="path-effect5424"
       is_visible="true" />
    <inkscape:path-effect
       effect="spiro"
       id="path-effect3083"
       is_visible="true" />
    <inkscape:path-effect
       effect="spiro"
       id="path-effect3077"
       is_visible="true" />
    <inkscape:path-effect
       effect="spiro"
       id="path-effect3073"
       is_visible="true" />
    <inkscape:path-effect
       effect="spiro"
       id="path-effect3069"
       is_visible="true" />
    <inkscape:path-effect
       effect="spiro"
       id="path-effect3065"
       is_visible="true" />
    <inkscape:path-effect
       effect="spiro"
       id="path-effect3061"
       is_visible="true" />
    <inkscape:path-effect
       effect="spiro"
       id="path-effect3057"
       is_visible="true" />
    <filter
       inkscape:collect="always"
       id="filter5628">
      <feGaussianBlur
         inkscape:collect="always"
         stdDeviation="1.885598"
         id="feGaussianBlur5630" />
    </filter>
    <linearGradient
       inkscape:collect="always"
       xlink:href="#linearGradient5530"
       id="linearGradient5632"
       x1="248.85448"
       y1="371.84512"
       x2="416.94434"
       y2="371.84512"
       gradientUnits="userSpaceOnUse"
       gradientTransform="translate(53.57443,32.478384)" />
    <filter
       inkscape:collect="always"
       id="filter5748">
      <feGaussianBlur
         inkscape:collect="always"
         stdDeviation="1.5713317"
         id="feGaussianBlur5750" />
    </filter>
  </defs>
  <sodipodi:namedview
     id="base"
     pagecolor="#ffffff"
     bordercolor="#666666"
     borderopacity="1.0"
     inkscape:pageopacity="0.0"
     inkscape:pageshadow="2"
     inkscape:zoom="1.4404297"
     inkscape:cx="502.74437"
     inkscape:cy="756.30336"
     inkscape:document-units="px"
     inkscape:current-layer="layer1"
     showgrid="false"
     inkscape:window-width="1440"
     inkscape:window-height="788"
     inkscape:window-x="0"
     inkscape:window-y="0"
     inkscape:window-maximized="1" />
  <metadata
     id="metadata7">
    <rdf:RDF>
      <cc:Work
         rdf:about="">
        <dc:format>image/svg+xml</dc:format>
        <dc:type
           rdf:resource="http://purl.org/dc/dcmitype/StillImage" />
        <dc:title />
      </cc:Work>
    </rdf:RDF>
  </metadata>
  <path
     sodipodi:nodetypes="cccccccc"
     inkscape:connector-curvature="0"
     id="path3227"
     d="m 570.6,295.88683 c 1.14077,-5.99874 2.80678,-10.12918 5.47013,-15.37705 1.76377,-3.90698 1.65145,-11.18728 3.98839,-15.56144 2.24829,-4.76156 2.09443,-8.16068 4.79307,-12.47118 4.28425,4.1731 1.21071,11.3409 0.5256,17.32165 -3.33072,7.65945 9.03511,11.3969 11.04352,15.66961 0.93417,5.17624 -0.52255,6.31857 -3.1255,11.62745 -3.28536,2.5091 -5.21617,5.3789 -7.74959,8.86631"
     style="opacity:0.98999999;color:#000000;fill:#ffccaa;fill-opacity:1;fill-rule:nonzero;stroke:none;stroke-width:1px;marker:none;visibility:visible;display:inline;overflow:visible;enable-background:accumulate" />
  <path
     sodipodi:nodetypes="csc"
     inkscape:connector-curvature="0"
     id="path3229"
     d="m 596.08074,292.76807 c -2.32513,-1.8721 3.59164,-10.68907 -7.6754,-0.48647 -5.73445,5.19267 2.54084,0.54641 5.02664,3.86567"
     style="opacity:0.98999999;color:#000000;fill:#ffb380;fill-opacity:1;fill-rule:nonzero;stroke:none;stroke-width:1px;marker:none;visibility:visible;display:inline;overflow:visible;enable-background:accumulate" />
  <path
     sodipodi:nodetypes="cssc"
     inkscape:connector-curvature="0"
     id="path3231"
     d="m 584.48468,280.68497 c 0,0 0.6762,5.91267 -1.02523,6.2614 -2.35832,0.48335 -7.91044,4.25226 -7.58937,2.89862 0.39753,-1.67601 4.50506,-3.89041 5.0081,-4.98915"
     style="opacity:0.98999999;color:#000000;fill:#ffb380;fill-opacity:1;fill-rule:nonzero;stroke:none;stroke-width:1px;marker:none;visibility:visible;display:inline;overflow:visible;enable-background:accumulate" />
  <path
     inkscape:connector-curvature="0"
     id="path3233"
     d="m 595.54689,285.29974 c -2.37307,0.27368 -4.38807,-1.07495 -6.52355,-1.85233 -0.30731,-0.11187 -0.89067,-0.46163 -1.04377,-0.71244 -0.0723,-0.11856 0,-0.56994 0,-0.42746 0,0.095 0,0.37996 0,0.28497 0,-0.1854 0.65892,-1.72417 0.78283,-1.99481 0.0583,-0.12745 0.26094,0 0.39141,0"
     style="opacity:0.98999999;color:#000000;fill:#f4e3d7;fill-opacity:1;fill-rule:nonzero;stroke:none;stroke-width:1px;marker:none;visibility:visible;display:inline;overflow:visible;enable-background:accumulate" />
  <g
     inkscape:groupmode="layer"
     id="layer12"
     inkscape:label="Cou"
     style="display:inline">
    <path
       sodipodi:nodetypes="ccccccccccccccccc"
       inkscape:connector-curvature="0"
       id="path5786"
       d="m 412.38468,468.43341 c -0.24723,8.50152 0.26635,13.79247 4.16899,21.41946 0.85113,3.00047 4.11812,10.99161 4.77164,12.63079 -4.24641,-0.44357 9.57795,28.69531 5.36922,29.21483 -6.60031,1.21555 -35.34261,28.29236 -42.06384,28.63348 -6.46178,0.80987 -19.05688,-32.7658 -25.598,-33.27968 -4.38554,-0.0567 1.46129,-20.25949 -2.91094,-20.06327 -10.27166,-2.08549 -12.26294,-0.20796 -8.71107,-7.8126 1.71651,-2.72342 4.49032,-4.65594 5.77283,-7.65541 0.61222,-3.73218 1.64147,-7.43937 2.0366,-11.2171 0.93939,-2.48269 -0.58554,-7.33365 1.84856,-8.36303 3.64577,1.70157 7.56332,2.90905 10.67372,5.56959 5.12178,3.38684 11.47675,4.2962 17.49126,4.64567 3.45452,-0.26929 7.74198,0.83645 10.4002,-1.95483 2.3431,-2.15916 3.99565,-5.16106 6.97628,-6.55595 1.99683,-3.15688 5.83285,-3.57117 8.94671,-4.05657 0.32952,-0.34373 0.56561,-0.76232 0.82784,-1.15538 z"
       style="opacity:0.98999999;color:#000000;fill:#ffccaa;fill-opacity:1;fill-rule:nonzero;stroke:none;stroke-width:1px;marker:none;visibility:visible;display:inline;overflow:visible;enable-background:accumulate" />
    <path
       style="opacity:0.98999999;color:#000000;fill:#eeb38b;fill-opacity:1;fill-rule:nonzero;stroke:none;stroke-width:1px;marker:none;visibility:visible;display:inline;overflow:visible;enable-background:accumulate"
       d="m 382.45772,489.96533 c -10.67571,-0.81338 -26.64279,-9.13643 -26.24766,-12.91416 0.93939,-2.48269 -1.43407,-2.3839 1.00003,-3.41328 3.64577,1.70157 7.56332,2.90905 10.67372,5.56959 5.12178,3.38684 11.47675,4.2962 17.49126,4.64567 3.45452,-0.26929 7.74198,0.83645 10.4002,-1.95483 2.3431,-2.15916 3.99565,-5.16106 6.97628,-6.55595 1.99683,-3.15688 15.4495,-9.93513 18.56336,-10.42053 -8.70074,16.00513 -4.7083,17.8751 -4.38813,26.94531 -16.16686,1.71873 -19.31745,-0.67563 -34.46906,-1.90182 z"
       id="path5780"
       inkscape:connector-curvature="0"
       sodipodi:nodetypes="cccccccccc" />
    <path
       style="opacity:0.98999999;color:#000000;fill:#42c4eb;fill-opacity:1;fill-rule:nonzero;stroke:none;stroke-width:1px;marker:none;visibility:visible;display:inline;overflow:visible;enable-background:accumulate"
       d="m 390.74721,495.86915 -9.33381,-1.83848"
       id="path5782"
       inkscape:connector-curvature="0" />
  </g>
  <g
     inkscape:label="Layer 1"
     inkscape:groupmode="layer"
     id="layer1"
     style="display:inline">
    <path
       style="opacity:0.98999999;color:#000000;fill:#42c4eb;fill-opacity:1;fill-rule:nonzero;stroke:none;stroke-width:1px;marker:none;visibility:visible;display:inline;overflow:visible;enable-background:accumulate"
       d="m 320.61232,408.24851 -9.34391,0.25254"
       id="path3059"
       inkscape:path-effect="#path-effect3061"
       inkscape:original-d="m 320.61232,408.24851 -9.34391,0.25254"
       inkscape:connector-curvature="0" />
    <path
       style="opacity:0.98999999;color:#000000;fill:#42c4eb;fill-opacity:1;fill-rule:nonzero;stroke:none;stroke-width:1px;marker:none;visibility:visible;display:inline;overflow:visible;enable-background:accumulate"
       d="m 307.2278,415.06704 2.0203,-1.76777"
       id="path3063"
       inkscape:path-effect="#path-effect3065"
       inkscape:original-d="m 307.2278,415.06704 2.0203,-1.76777"
       inkscape:connector-curvature="0" />
    <path
       style="opacity:0.98999999;color:#000000;fill:#42c4eb;fill-opacity:1;fill-rule:nonzero;stroke:none;stroke-width:1px;marker:none;visibility:visible;display:inline;overflow:visible;enable-background:accumulate"
       d="m 316.31917,410.01628 -9.59645,3.78807"
       id="path3067"
       inkscape:path-effect="#path-effect3069"
       inkscape:original-d="m 316.31917,410.01628 -9.59645,3.78807"
       inkscape:connector-curvature="0" />
    <path
       style="opacity:0.98999999;color:#000000;fill:#501616;fill-opacity:1;fill-rule:nonzero;stroke:none;stroke-width:1px;marker:none;visibility:visible;display:inline;overflow:visible;enable-background:accumulate"
       d="m 305.9651,416.32973 13.8896,-6.06092"
       id="path3071"
       inkscape:path-effect="#path-effect3073"
       inkscape:original-d="m 305.9651,416.32973 13.8896,-6.06092"
       inkscape:connector-curvature="0" />
    <path
       style="opacity:0.98999999;color:#000000;fill:#42c4eb;fill-opacity:1;fill-rule:nonzero;stroke:none;stroke-width:1px;marker:none;visibility:visible;display:inline;overflow:visible;enable-background:accumulate"
       d="m 307.2278,415.57212 16.66751,0"
       id="path3075"
       inkscape:path-effect="#path-effect3077"
       inkscape:original-d="m 307.2278,415.57212 c 5.55583,0 11.11167,0 16.66751,0"
       inkscape:connector-curvature="0" />
    <path
       sodipodi:type="arc"
       style="opacity:0.98999999;fill:#ffffff;fill-opacity:1;fill-rule:nonzero;stroke:none"
       id="path3027"
       sodipodi:cx="308.9375"
       sodipodi:cy="382.79968"
       sodipodi:rx="2.5625"
       sodipodi:ry="3.0625"
       d="m 311.5,382.79968 a 2.5625,3.0625 0 1 1 -5.125,0 2.5625,3.0625 0 1 1 5.125,0 z"
       transform="matrix(1,0,0,0.92925198,53.17443,58.97737)" />
    <path
       style="opacity:0.98999999;color:#000000;fill:#784421;fill-opacity:1;fill-rule:nonzero;stroke:none;stroke-width:1px;marker:none;visibility:visible;display:inline;overflow:visible;enable-background:accumulate"
       d="m 371.2317,413.79606 c -0.13518,-0.067 -0.19517,-0.21791 -0.30887,-0.30887 -0.0362,-0.029 -0.076,-0.0533 -0.11583,-0.0772 -0.0494,-0.0296 -0.10654,-0.0453 -0.15443,-0.0772 -0.0151,-0.0101 -0.0257,-0.0257 -0.0386,-0.0386 -0.0257,-0.0129 -0.0533,-0.0226 -0.0772,-0.0386 -0.0152,-0.0101 -0.0223,-0.0305 -0.0386,-0.0386 -0.0115,-0.006 -0.0264,0.004 -0.0386,0 -0.0273,-0.009 -0.0499,-0.0295 -0.0772,-0.0386 -0.0122,-0.004 -0.0295,0.009 -0.0386,0 -0.009,-0.009 0.009,-0.0295 0,-0.0386 -0.0182,-0.0182 -0.0542,0.0115 -0.0772,0 -0.0163,-0.008 -0.0223,-0.0305 -0.0386,-0.0386 -0.0115,-0.006 -0.0271,0.006 -0.0386,0 -0.0163,-0.008 -0.0257,-0.0257 -0.0386,-0.0386 -0.0257,-0.0257 -0.0469,-0.057 -0.0772,-0.0772 -0.0107,-0.007 -0.0283,0.008 -0.0386,0 -0.0728,-0.0546 -0.12869,-0.12869 -0.19304,-0.19304 -0.0129,-0.0129 -0.0223,-0.0305 -0.0386,-0.0386 -0.0115,-0.006 -0.0295,0.009 -0.0386,0 -0.009,-0.009 0.009,-0.0295 0,-0.0386 -0.009,-0.009 -0.0295,0.009 -0.0386,0 -0.0204,-0.0203 -0.0183,-0.0569 -0.0386,-0.0772 -0.009,-0.009 -0.0295,0.009 -0.0386,0 -0.009,-0.009 0,-0.0257 0,-0.0386 -0.0257,-0.0129 -0.0533,-0.0226 -0.0772,-0.0386 -0.0303,-0.0202 -0.0447,-0.0609 -0.0772,-0.0772 -0.0115,-0.006 -0.0271,0.006 -0.0386,0 -0.0163,-0.008 -0.0223,-0.0305 -0.0386,-0.0386 -0.0515,-0.0257 -0.0386,0.0386 -0.0386,-0.0386 0,-0.0129 0,-0.0257 0,-0.0386 0,-0.0129 0.006,-0.0271 0,-0.0386 -0.008,-0.0163 -0.0386,-0.0568 -0.0386,-0.0386 0,0.0288 0.0674,0.0772 0.0386,0.0772 -0.30262,0.13411 -0.067,-0.0914 -0.11583,-0.11583 -0.0233,-0.0116 -0.18149,0.0115 -0.19304,0 -0.009,-0.009 0.009,-0.0295 0,-0.0386 -0.0127,-0.0127 -0.1265,0.009 -0.15443,0 -0.0173,-0.006 -0.0235,-0.0285 -0.0386,-0.0386 -0.024,-0.016 -0.0499,-0.0295 -0.0772,-0.0386 -0.0266,-0.009 -0.0931,0.0114 -0.11583,0 -0.0163,-0.008 -0.0223,-0.0305 -0.0386,-0.0386 -0.0228,-0.0114 -0.0893,0.009 -0.11583,0 -0.0273,-0.009 -0.0493,-0.0316 -0.0772,-0.0386 -0.025,-0.006 -0.0528,0.008 -0.0772,0 -0.0345,-0.0115 -0.0447,-0.0609 -0.0772,-0.0772 -0.0115,-0.006 -0.0271,0.006 -0.0386,0 -0.0163,-0.008 -0.0213,-0.0328 -0.0386,-0.0386 -0.0244,-0.008 -0.0528,0.008 -0.0772,0 -0.0345,-0.0115 -0.0446,-0.0609 -0.0772,-0.0772 -0.0115,-0.006 -0.0271,0.006 -0.0386,0 -0.0163,-0.008 -0.0223,-0.0305 -0.0386,-0.0386 -0.023,-0.0115 -0.059,0.0182 -0.0772,0 -0.009,-0.009 0.009,-0.0295 0,-0.0386 -0.0106,-0.0106 -0.13349,0.0105 -0.15443,0 -0.0163,-0.008 -0.0213,-0.0329 -0.0386,-0.0386 -0.11583,-0.0386 -0.0386,0.0193 -0.11583,0 -0.0395,-0.01 -0.078,-0.0235 -0.11582,-0.0386 -0.09,-0.036 -0.0833,-0.0589 -0.19304,-0.0772 -0.0381,-0.006 -0.0777,0.006 -0.11583,0 -0.0401,-0.007 -0.0759,-0.0306 -0.11582,-0.0386 -0.0252,-0.005 -0.0518,0.004 -0.0772,0 -0.0523,-0.009 -0.10191,-0.0311 -0.15444,-0.0386 -0.0382,-0.005 -0.0777,0.006 -0.11582,0 -0.0786,0.0134 -0.12509,-0.0636 -0.19304,-0.0772 -0.0379,-0.008 -0.0778,0.006 -0.11583,0 -0.0401,-0.007 -0.0759,-0.0306 -0.11583,-0.0386 -0.0252,-0.005 -0.0522,0.006 -0.0772,0 -0.0558,-0.014 -0.0998,-0.059 -0.15444,-0.0772 -0.0244,-0.008 -0.0528,0.008 -0.0772,0 -0.21875,-0.10937 0.0575,0.0144 -0.15444,-0.0386 -0.0279,-0.007 -0.049,-0.033 -0.0772,-0.0386 -0.0559,-0.0112 -0.17573,0.014 -0.23165,0 -0.0279,-0.007 -0.0515,-0.0257 -0.0772,-0.0386 -0.0386,-0.0129 -0.0759,-0.0306 -0.11583,-0.0386 -0.0252,-0.005 -0.052,0.005 -0.0772,0 -0.0399,-0.008 -0.0759,-0.0306 -0.11582,-0.0386 -0.0252,-0.005 -0.0542,0.0115 -0.0772,0 -0.0326,-0.0163 -0.0447,-0.0609 -0.0772,-0.0772 -0.023,-0.0115 -0.0528,0.008 -0.0772,0 -0.0173,-0.006 -0.0213,-0.0328 -0.0386,-0.0386 -0.0177,-0.006 -0.13726,0.009 -0.15444,0 -0.0163,-0.008 -0.0213,-0.0329 -0.0386,-0.0386 -0.0366,-0.0122 -0.0792,0.0122 -0.11582,0 -0.0273,-0.009 -0.0499,-0.0295 -0.0772,-0.0386 -0.0122,-0.004 -0.0257,0 -0.0386,0 -0.0257,0 -0.0515,0 -0.0772,0 -0.0901,0 -0.18018,0 -0.27026,0 -0.28313,0 -0.56626,0 -0.84939,0 -0.0772,0 -0.15444,0 -0.23165,0 -0.0257,0 -0.0528,0.008 -0.0772,0 -0.0173,-0.006 -0.0213,-0.0328 -0.0386,-0.0386 -0.0244,-0.008 -0.0515,0 -0.0772,0 -0.0129,0 -0.0271,0.006 -0.0386,0 -0.0163,-0.008 -0.0213,-0.0328 -0.0386,-0.0386 -0.0348,-0.0116 -0.0811,0.0116 -0.11583,0 -0.0273,-0.009 -0.0499,-0.0295 -0.0772,-0.0386 -0.0262,-0.009 -0.22046,0 -0.27026,0 -0.19304,0 -0.38608,0 -0.57912,0 -0.14157,0 -0.28313,0 -0.4247,0 -0.0514,0 -0.15554,-0.0125 -0.19304,0 -0.0122,0.004 0.0115,0.0329 0,0.0386 -0.009,0.005 -0.12907,0 -0.15443,0 -0.16853,0 -0.10633,0 -0.27026,0 -0.0643,0 -0.12958,-0.0106 -0.19305,0 -0.0401,0.007 -0.0759,0.0306 -0.11582,0.0386 -0.0252,0.005 -0.0523,-0.006 -0.0772,0 -0.0279,0.007 -0.0493,0.0316 -0.0772,0.0386 -0.0304,0.008 -0.1915,0 -0.23165,0 -0.0129,0 -0.0271,-0.006 -0.0386,0 -0.0163,0.008 -0.0213,0.0328 -0.0386,0.0386 -0.0347,0.0116 -0.0811,-0.0116 -0.11582,0 -0.0273,0.009 -0.0499,0.0295 -0.0772,0.0386 -0.0122,0.004 -0.0264,-0.004 -0.0386,0 -0.0273,0.009 -0.0499,0.0295 -0.0772,0.0386 -0.041,0.0137 -0.11341,-0.0137 -0.15444,0 -0.0173,0.006 -0.0213,0.0329 -0.0386,0.0386 -0.0244,0.008 -0.0515,0 -0.0772,0 -0.0129,0 -0.0271,-0.006 -0.0386,0 -0.0326,0.0163 -0.0427,0.0657 -0.0772,0.0772 -0.041,0.0137 -0.11341,-0.0137 -0.15443,0 -0.0273,0.009 -0.0499,0.0295 -0.0772,0.0386 -0.0244,0.008 -0.0515,0 -0.0772,0 -0.0644,0 -0.12869,0 -0.19304,0 -0.0257,0 -0.0515,0 -0.0772,0 -0.0129,0 -0.0264,-0.004 -0.0386,0 -0.0273,0.009 -0.0493,0.0316 -0.0772,0.0386 -0.0294,0.007 -0.16072,0 -0.19305,0 -0.0129,0 -0.0264,-0.004 -0.0386,0 -0.23964,0.0799 0.12832,-0.003 -0.19304,0.0772 -0.025,0.006 -0.0528,-0.008 -0.0772,0 -0.0273,0.009 -0.0499,0.0295 -0.0772,0.0386 -0.0244,0.008 -0.0528,-0.008 -0.0772,0 -0.0273,0.009 -0.0493,0.0316 -0.0772,0.0386 -0.025,0.006 -0.0522,-0.006 -0.0772,0 -0.0558,0.014 -0.0986,0.0633 -0.15444,0.0772 -0.27501,0.0687 0.1956,-0.11685 -0.19304,0.0386 -0.0534,0.0214 -0.0986,0.0632 -0.15443,0.0772 -0.025,0.006 -0.0523,-0.006 -0.0772,0 -0.0279,0.007 -0.0493,0.0316 -0.0772,0.0386 -0.025,0.006 -0.0528,-0.008 -0.0772,0 -0.0173,0.006 -0.0223,0.0305 -0.0386,0.0386 -0.0152,0.008 -0.14402,-0.002 -0.15444,0 -0.0523,0.009 -0.10409,0.0218 -0.15443,0.0386 -0.0657,0.0219 -0.1273,0.0553 -0.19305,0.0772 -0.0503,0.0168 -0.10409,0.0218 -0.15443,0.0386 -0.0658,0.0219 -0.12729,0.0553 -0.19304,0.0772 -0.0503,0.0168 -0.10475,0.02 -0.15444,0.0386 -0.0539,0.0202 -0.10184,0.0538 -0.15443,0.0772 -0.24974,0.11099 -0.13635,0.0434 -0.38609,0.15443 -0.35151,0.17576 0.0138,0.002 -0.27026,0.11583 -0.0267,0.0107 -0.0499,0.0295 -0.0772,0.0386 -0.0324,0.0108 -0.12885,-0.0128 -0.15444,0 -0.0163,0.008 -0.0223,0.0305 -0.0386,0.0386 -0.0309,0.0154 -0.0849,-0.0154 -0.11582,0 -0.0163,0.008 -0.0213,0.0329 -0.0386,0.0386 -0.0244,0.008 -0.0515,0 -0.0772,0 -0.0515,0 -0.10295,0 -0.15443,0 -0.0257,0 -0.0522,-0.006 -0.0772,0 -0.0279,0.007 -0.0493,0.0316 -0.0772,0.0386 -0.025,0.006 -0.052,-0.005 -0.0772,0 -0.12805,0.0256 -0.0901,0.036 -0.19305,0.0772 -0.0378,0.0151 -0.078,0.0235 -0.11582,0.0386 -0.0789,0.0316 -0.15561,0.0778 -0.23165,0.11582 -0.0257,0.0129 -0.0493,0.0316 -0.0772,0.0386 -0.025,0.006 -0.0528,-0.008 -0.0772,0 -0.0345,0.0115 -0.0469,0.057 -0.0772,0.0772 -0.024,0.016 -0.0515,0.0257 -0.0772,0.0386 -0.0257,0.0257 -0.0481,0.0554 -0.0772,0.0772 -0.0445,0.0334 -0.20014,0.0843 -0.23165,0.11583 -0.0204,0.0204 -0.0183,0.0569 -0.0386,0.0772 -0.0204,0.0204 -0.0533,0.0226 -0.0772,0.0386 -0.0333,0.0222 -0.0857,0.0857 -0.11582,0.11582 -0.0386,0.0386 -0.0772,0.0772 -0.11583,0.11583 -0.0129,0.0129 -0.0285,0.0235 -0.0386,0.0386 -0.016,0.0239 -0.0183,0.0569 -0.0386,0.0772 -0.0182,0.0182 -0.059,-0.0182 -0.0772,0 -0.009,0.009 0.009,0.0295 0,0.0386 -0.15068,0.15068 -0.0207,-0.009 -0.11583,0.0386 -0.0163,0.008 -0.0213,0.0328 -0.0386,0.0386 -0.0244,0.008 -0.0542,-0.0115 -0.0772,0 -0.0115,0.006 0.006,0.0271 0,0.0386 -0.008,0.0163 -0.0257,0.0257 -0.0386,0.0386 -0.0386,0.0386 -0.0809,0.0739 -0.11583,0.11582 -0.0557,0.0669 -0.15537,0.25613 -0.19304,0.30887 -0.0212,0.0296 -0.0554,0.0481 -0.0772,0.0772 -0.0345,0.046 -0.0453,0.10654 -0.0772,0.15443 -0.0101,0.0151 -0.0329,0.0213 -0.0386,0.0386 -0.008,0.0244 0.0115,0.0542 0,0.0772 -0.0163,0.0326 -0.0469,0.057 -0.0772,0.0772 -0.0214,0.0143 -0.0657,-0.023 -0.0772,0 -0.0115,0.023 0.0143,0.0558 0,0.0772 -0.016,0.0239 -0.0569,0.0183 -0.0772,0.0386 -0.009,0.009 0.009,0.0295 0,0.0386 -0.0717,0.0717 -0.10299,5e-5 -0.15444,0.0772 -0.0851,0.0194 -0.0204,0.0794 -0.0386,0.11582 -0.0103,0.0206 -0.0955,0.0955 -0.11582,0.11583"
       id="path3033"
       inkscape:connector-curvature="0" />
    <path
       style="opacity:0.98999999;fill:#6c5d53;fill-opacity:1;fill-rule:nonzero;stroke:none"
       id="path3039"
       d="m 351.68216,414.237 c 0.0692,-0.0174 0.16619,-0.0408 0.22632,-0.0624 0.23802,-0.0854 0.54687,-0.22472 0.76133,-0.32832 0.45629,-0.22043 0.82187,-0.42291 1.27295,-0.66441 1.10638,-0.57194 2.18205,-1.20924 3.32279,-1.71293 0.16464,-0.0727 0.33259,-0.13762 0.49889,-0.20644 0.65098,-0.26338 1.33099,-0.43782 2.0238,-0.5444 0.31775,-0.0433 0.63843,-0.0574 0.95873,-0.0645 0.024,-2.3e-4 0.048,-4.6e-4 0.0719,-7e-4 0,0 -0.45619,0.3311 -0.45619,0.3311 l 0,0 c -0.0227,-4.6e-4 -0.0453,-9.3e-4 -0.068,-10e-4 -0.30929,-0.003 -0.61888,0.01 -0.92581,0.0498 -0.67305,0.0984 -1.3335,0.26535 -1.96708,0.51579 -0.16175,0.0661 -0.32508,0.12837 -0.48525,0.19819 -1.13053,0.49287 -2.19719,1.11888 -3.28887,1.68906 -0.49435,0.26776 -0.82352,0.45247 -1.31909,0.69798 -0.2539,0.12578 -0.55747,0.26897 -0.82906,0.37248 -0.0951,0.0363 -0.16309,0.0519 -0.25526,0.0754 0,0 0.45788,-0.34436 0.45788,-0.34436 z"
       inkscape:connector-curvature="0" />
    <path
       style="opacity:0.98999999;color:#000000;fill:#42c4eb;fill-opacity:1;fill-rule:nonzero;stroke:none;stroke-width:1px;marker:none;visibility:visible;display:inline;overflow:visible;enable-background:accumulate"
       d="m 357.10097,415.61066 -7.60589,-2.50955"
       id="path3043"
       inkscape:connector-curvature="0" />
    <path
       style="opacity:0.98999999;color:#000000;fill:#ff9955;fill-opacity:1;fill-rule:nonzero;stroke:none;stroke-width:1px;marker:none;visibility:visible;display:inline;overflow:visible;enable-background:accumulate"
       d="m 371.2317,413.84571 c -0.4028,-1.07109 -1.63428,-2.80516 -2.7026,-3.37244 -2.76771,-1.46965 -4.76182,-2.08087 -8.03058,-2.08087 -0.95234,0 -1.90469,0 -2.85703,0 -0.0998,0 -1.00382,0.14994 -1.00382,0.14351 0,-0.0986 0.20274,0.0717 0.30886,0.0717 0.41183,0 0.82365,0 1.23548,0 0.90645,0 1.76186,-0.1435 2.7026,-0.1435 0.28921,0 1.05344,-0.12046 1.31269,0 0.77971,0.36228 3.44324,0.83175 3.86085,1.21982 0.079,0.0734 0.97608,0.20237 1.15826,0.28702 0.11084,0.0515 0.29927,0.3289 0.4633,0.43052 0.31501,0.19515 0.63356,0.24898 0.92661,0.43052 0.15522,0.0962 0.0184,0.0513 0.0772,0.21526 0.0804,0.22419 0.44734,0.25735 0.54052,0.43053 0.19339,0.35941 0.47025,0.58695 0.69496,1.00456 0.08,0.14874 0.29279,0.15697 0.38608,0.28702 0.16227,0.22617 0.47809,0.90723 0.61774,1.00455 0.0849,0.0592 0.24257,-0.006 0.30887,0.0717 0.0643,0.0747 0,0.19134 0,0.28702"
       id="path3056"
       inkscape:connector-curvature="0" />
    <path
       style="opacity:0.98999999;color:#000000;fill:#42c4eb;fill-opacity:1;fill-rule:nonzero;stroke:none;stroke-width:1px;marker:none;visibility:visible;display:inline;overflow:visible;enable-background:accumulate"
       d="m 362.04286,408.10538 0.15444,2.36789"
       id="path3058"
       inkscape:connector-curvature="0" />
  </g>
  <g
     inkscape:groupmode="layer"
     id="layer4"
     inkscape:label="tête"
     style="display:inline">
    <path
       style="opacity:0.98999999;color:#000000;fill:#42c4eb;fill-opacity:1;fill-rule:nonzero;stroke:none;stroke-width:1px;marker:none;visibility:visible;display:inline;overflow:visible;enable-background:accumulate"
       d="m 312.30663,435.59366 22.43676,30.08005"
       id="path5448"
       inkscape:path-effect="#path-effect5450"
       inkscape:original-d="m 312.30663,435.59366 22.43676,30.08005"
       inkscape:connector-curvature="0" />
    <path
       style="opacity:0.98999999;color:#000000;fill:#ffccaa;fill-opacity:1;fill-rule:nonzero;stroke:none;stroke-width:1px;marker:none;visibility:visible;display:inline;overflow:visible;enable-background:accumulate"
       inkscape:path-effect="#path-effect5454"
       inkscape:original-d="m 454.91684,409.31612 c -5.30522,-4.67756 1.38658,-6.79696 0.031,-9.20869 -0.21784,-1.61552 1.35445,-5.94348 1.32263,-11.19197 -0.0318,-5.24848 0.0823,-7.16749 -0.55197,-9.46509 -1.58886,-10.12993 -1.46719,-13.34283 -3.42427,-17.81412 -2.05574,-4.3579 -3.03818,-10.64342 -6.45526,-13.82444 -14.21968,-13.54946 -21.61202,-11.75798 -32.88984,-20.15706 37.16744,65.56075 -15.95957,-0.0552 -24.67049,-0.0258 -11.13874,0.0301 -22.95601,-2.3696 -33.22441,1.99486 -17.17922,7.31056 -28.10993,22.29577 -30.35265,24.54549 -4.44683,4.79094 -3.00391,10.95235 -3.9024,17.88272 -0.82836,6.38945 4.09212,15.71603 3.84066,18.25549 -2.02027,1.33541 -343.17615,19.22822 -7.89655,23.67558 4.75923,0.0631 0.94458,7.90383 3.66045,10.36213 1.48006,1.33969 4.07682,3.30307 5.81721,1.42415 3.11587,-0.78247 4.21382,21.62521 6.96213,26.34714 2.42872,3.77331 4.96804,7.11139 7.88985,9.62608 5.55165,4.77809 3.48586,3.96819 7.86575,6.34854 3.29994,1.25439 5.04973,4.73469 8.65262,6.89673 2.76334,1.81997 -1.1726,0.66514 3.37201,2.13641 -1.03492,1.56434 19.69682,8.90518 21.53792,8.70525 2.96469,-0.26643 29.78592,-7.14013 19.96423,-6.97246 1.85778,-1.28762 3.93362,-2.7651 5.65306,-3.82257 2.32557,-0.96332 1.17224,-2.45553 4.10887,-2.8276 0.7166,-1.00216 1.75052,-1.68042 5.12639,-3.20028 1.27735,-1.68227 10.22437,-10.55766 12.91315,-11.66565 2.32818,-1.06707 13.73616,-17.26966 2.55513,-4.18262 -1.26467,1.48025 6.23522,-11.92779 1.32996,-2.86934 -15.30439,-6.04005 2.58144,-4.78234 3.2143,-7.16837 0.63286,-2.38603 -1.2372,-4.9158 2.24675,-5.40213 3.46022,-10.16248 0.27615,-2.47173 1.81132,-7.47995 1.53516,-5.00821 1.53956,-4.21537 1.12672,-5.17367 2.72185,-4.60584 1.25881,-14.54415 6.68804,-7.1605 1.66792,-8.05352 4.33798,-4.01204 5.67771,-8.58822 z"
       id="path5452"
       d="m 454.91684,409.31612 0.031,-9.20869 c 0.79596,-3.67718 1.23952,-7.43055 1.32263,-11.19197 0.0699,-3.16302 -0.1149,-6.33163 -0.55197,-9.46509 -0.40952,-6.048 -1.56234,-12.04531 -3.42427,-17.81412 -1.56694,-4.85483 -3.64557,-9.56648 -6.45526,-13.82444 -7.31324,-11.08289 -19.69491,-18.67119 -32.88984,-20.15706 -8.2222,0.18394 -16.4487,0.17534 -24.67049,-0.0258 -11.13287,-0.27236 -22.46472,-0.87638 -33.22441,1.99486 -12.98346,3.46466 -24.70157,12.35371 -30.35265,24.54549 -2.58581,5.57868 -3.88793,11.73391 -3.9024,17.88272 -0.0147,6.26417 1.30313,12.52827 3.84066,18.25549 -4.99327,6.82176 -7.7951,15.22225 -7.89655,23.67558 -0.0228,1.89983 0.0903,3.82132 0.62936,5.64321 0.53905,1.8219 1.53333,3.54991 3.03109,4.71892 1.62158,1.26565 3.79436,1.79758 5.81721,1.42415 -0.39838,9.21436 2.06387,18.5324 6.96213,26.34714 2.20887,3.52407 4.89468,6.7404 7.88985,9.62608 2.42956,2.34074 5.06493,4.46778 7.86575,6.34854 2.69526,2.52347 5.59164,4.83209 8.65262,6.89673 1.10328,0.74417 2.2279,1.45669 3.37201,2.13641 5.73848,5.47426 13.60727,8.65469 21.53792,8.70525 7.1884,0.0458 14.36731,-2.46139 19.96423,-6.97246 l 5.65306,-3.82257 4.10887,-2.8276 5.12639,-3.20028 c 5.09821,-2.8666 9.54509,-6.88388 12.91315,-11.66565 0.94151,-1.3367 1.80002,-2.73245 2.55513,-4.18262 0.48704,-0.93536 0.93099,-1.89316 1.32996,-2.86934 1.10885,-2.37244 2.18046,-4.76229 3.2143,-7.16837 0.76993,-1.79187 1.51892,-3.59275 2.24675,-5.40213 0.63793,-2.48488 1.24178,-4.97851 1.81132,-7.47995 0.39184,-1.72096 0.76743,-3.44562 1.12672,-5.17367 l 6.68804,-7.1605 5.67771,-8.58822 -2e-5,-4e-5"
       inkscape:connector-curvature="0"
       sodipodi:nodetypes="ccscccccccscsaccscccccccccscscscccc" />
    <path
       style="opacity:0.98999999;color:#000000;fill:#42c4eb;fill-opacity:1;fill-rule:nonzero;stroke:none;stroke-width:1px;marker:none;visibility:visible;display:inline;overflow:visible;enable-background:accumulate"
       d="m 369.1,474.76218 9.9,-13.8"
       id="path3106"
       inkscape:connector-curvature="0" />
    <path
       style="opacity:0.98999999;color:#000000;fill:#42c4eb;fill-opacity:1;fill-rule:nonzero;stroke:none;stroke-width:1px;marker:none;visibility:visible;display:inline;overflow:visible;enable-background:accumulate"
       d="m 385.5,464.66218 3.2,-4.7"
       id="path3108"
       inkscape:connector-curvature="0" />
    <path
       style="opacity:0.98999999;color:#000000;fill:#42c4eb;fill-opacity:1;fill-rule:nonzero;stroke:none;stroke-width:1px;marker:none;visibility:visible;display:inline;overflow:visible;enable-background:accumulate"
       d="m 387.5,468.66218 -8.2,-7.5"
       id="path3110"
       inkscape:connector-curvature="0" />
    <path
       style="opacity:0.98999999;color:#000000;fill:#42c4eb;fill-opacity:1;fill-rule:nonzero;stroke:none;stroke-width:1px;marker:none;visibility:visible;display:inline;overflow:visible;enable-background:accumulate"
       d="m 370.9,460.76218 5.3,-1.4"
       id="path3112"
       inkscape:connector-curvature="0" />
  </g>
  <g
     inkscape:groupmode="layer"
     id="layer3"
     inkscape:label="visage"
     style="display:inline" />
  <g
     inkscape:groupmode="layer"
     id="layer5"
     inkscape:label="bouche"
     style="display:none">
    <path
       style="opacity:0.98999999;color:#000000;fill:#ffb380;fill-opacity:1;fill-rule:nonzero;stroke:none;stroke-width:1px;marker:none;visibility:visible;display:inline;overflow:visible;enable-background:accumulate"
       inkscape:path-effect="#path-effect5496"
       inkscape:original-d="m 371.3993,461.52045 c 1.27397,1.04699 0.91221,0.49245 2.89645,1.27145 1.07814,0.5707 3.23625,0.21749 4.375,0.5 1.55734,0.13385 3.11688,0.35917 4.625,0.625 1.35205,-0.0343 2.72743,0.0736 4.0625,-0.0625 0.85068,-0.10614 1.72813,-0.0402 2.57231,-0.18335 0.73643,-0.2691 1.7433,0.0249 2.49153,-0.37453 0.78793,-0.18787 2.26406,-0.89496 2.45105,-1.13733 0.8791,-0.28664 1.81313,-0.83313 2.42914,-1.4207 0.11201,-0.18906 2.57058,-2.55346 1.90635,-2.55902 -0.83639,-0.0857 -4.80132,0.75408 -5.68953,0.64905 -0.68743,0.0625 -4.78752,0.21037 -2.84956,-0.19194 -7.68258,1.74998 -6.45417,0.26519 -11.88635,0.26516 -1.00218,-0.17486 -2.48496,-0.86567 -3.3353,-0.31066 -2.05092,0.36056 -0.95426,-0.43034 -1.68615,-0.10355 0,0 -1.94316,-0.64461 -4.2112,0.0511 -0.0979,0.15437 1.58918,2.64838 1.84876,2.98179 z"
       id="path5494"
       d="m 371.3993,461.52045 2.89645,1.27145 4.375,0.5 4.625,0.625 c 1.35435,0.0254 2.70957,0.005 4.0625,-0.0625 0.85863,-0.0425 1.71633,-0.10368 2.57231,-0.18335 l 2.49153,-0.37453 2.45105,-1.13733 2.42914,-1.4207 1.90635,-2.55902 -5.68953,0.64905 -2.84956,-0.19194 -11.88635,0.26516 -3.3353,-0.31066 -1.68615,-0.10355 -4.2112,0.0511 1.84876,2.98179 0,3e-5"
       inkscape:connector-curvature="0"
       sodipodi:nodetypes="ccccccccccccccccc" />
  </g>
  <g
     style="display:inline"
     inkscape:label="bouche ouverte"
     id="g3098"
     inkscape:groupmode="layer">
    <path
       sodipodi:nodetypes="ccccccccccccc"
       inkscape:connector-curvature="0"
       d="m 371.87798,460.49411 4.29645,3.67145 8,1.925 7.23481,-1.44585 4.34258,-2.41186 3.83549,-5.87972 -6.93909,0.45711 -7.88635,1.66516 -6.7353,-1.51066 -4.18615,0.0965 -5.3112,-0.6489 3.34876,4.08182 0,-5e-5"
       id="path3100"
       inkscape:original-d="m 371.87798,460.49411 c 1.27397,1.04699 2.31221,2.89245 4.29645,3.67145 2.98144,0.50736 5.21773,1.43816 8,1.925 2.43791,-0.2976 5.14848,-0.88521 7.23481,-1.44585 1.88867,-0.63967 2.75913,-1.9196 4.34258,-2.41186 -0.29967,-1.87561 3.30553,-4.9729 3.83549,-5.87972 -1.18548,0.77631 -10.22664,1.2023 -6.93909,0.45711 -3.48258,0.34998 -2.15417,0.46519 -7.88635,1.66516 -1.00218,-0.17486 -5.28496,-0.96567 -6.7353,-1.51066 -2.05092,0.36056 -3.45426,-0.23034 -4.18615,0.0965 0,0 -3.04316,-1.34461 -5.3112,-0.6489 0.47934,1.05952 2.68384,3.12514 3.34876,4.08182 z"
       inkscape:path-effect="#path-effect3102"
       style="opacity:0.98999999;color:#000000;fill:#ffb380;fill-opacity:1;fill-rule:nonzero;stroke:none;stroke-width:1px;marker:none;visibility:visible;display:inline;overflow:visible;enable-background:accumulate" />
    <path
       style="opacity:0.98999999;color:#000000;fill:#ffe6d5;fill-opacity:1;fill-rule:nonzero;stroke:none;stroke-width:1px;marker:none;visibility:visible;display:inline;overflow:visible;enable-background:accumulate"
       d="m 384.78953,460.65418 c 0.85686,0.0197 10.53627,-1.84867 10.8323,-1.88354 -0.49984,0.19229 -1.97489,2.10807 -3.45088,3.02815 -1.47598,0.92007 -2.94525,1.29277 -3.52717,1.43791 -1.20924,0.3016 -4.71784,0.5965 -6.04932,0.46784 -0.49075,-0.15211 -2.84204,-0.33645 -4.35835,-1.09579 -1.51631,-0.75934 -3.82399,-2.65936 -4.0861,-3.13156 3.90065,0.5264 9.7531,1.15664 10.63952,1.17699 z"
       id="path3117"
       inkscape:connector-curvature="0"
       sodipodi:nodetypes="scsscscs" />
  </g>
  <g
     inkscape:groupmode="layer"
     id="layer2"
     inkscape:label="noise"
     style="display:inline">
    <path
       style="opacity:0.98999999;color:#000000;fill:#d38d5f;fill-opacity:1;fill-rule:nonzero;stroke:none;stroke-width:1px;marker:none;visibility:visible;display:inline;overflow:visible;enable-background:accumulate"
       d="m 388.04,432.99725 c 0,4.3692 -0.21296,-0.0546 0.50508,3.53553 0.38525,1.92628 -0.71563,0.084 0.50507,2.52538 0.10648,0.21296 0.42979,0.2792 0.50508,0.50508 0,2.29925 -0.2381,0.0289 0.50507,1.51523 0.0753,0.15058 -0.11904,0.38603 0,0.50507 0.11905,0.11905 0.38603,-0.11904 0.50508,0 0.11905,0.11905 -0.0753,0.3545 0,0.50508 0.10648,0.21296 0.33672,0.33672 0.50508,0.50508 0.16836,0.16835 0.29211,0.39859 0.50507,0.50507 0.15059,0.0753 0.50508,-0.16836 0.50508,0 0,0.16836 -0.67344,0 -0.50508,0 1.17851,0 1.01016,0.33672 1.01016,-0.50507"
       id="path3013"
       inkscape:connector-curvature="0" />
    <path
       style="opacity:0.98999999;color:#000000;fill:#d38d5f;fill-opacity:1;fill-rule:nonzero;stroke:none;stroke-width:1px;marker:none;visibility:visible;display:inline;overflow:visible;enable-background:accumulate"
       d="m 385.00954,446.63431 c 3.66761,0.48651 1.66932,-0.21972 4.04061,-1.01016 0.15972,-0.0532 0.35449,0.0753 0.50508,0 0.21296,-0.10648 0.33672,-0.33671 0.50507,-0.50507 0.16836,-0.16836 0.37301,-0.30697 0.50508,-0.50508 0.20882,-0.31323 0.29625,-0.69692 0.50508,-1.01015 0.62412,-0.93619 0.50507,-0.0463 0.50507,-1.01015"
       id="path3015"
       inkscape:connector-curvature="0" />
    <path
       style="opacity:0.98999999;color:#000000;fill:#552200;fill-opacity:1;fill-rule:nonzero;stroke:none;stroke-width:1px;marker:none;visibility:visible;display:inline;overflow:visible;enable-background:accumulate"
       d="m 372.38263,445.62415 c 2.02031,0 4.04061,0 6.06092,0"
       id="path3018"
       inkscape:connector-curvature="0" />
    <path
       style="opacity:0.98999999;color:#000000;fill:#d38d5f;fill-opacity:1;fill-rule:nonzero;stroke:none;stroke-width:1px;marker:none;visibility:visible;display:inline;overflow:visible;enable-background:accumulate"
       d="m 378.94863,446.12923 c -1.34687,0 -2.69374,0 -4.04061,0 -0.16836,0 -0.38603,0.11905 -0.50508,0 -0.11905,-0.11905 0.11905,-0.38603 0,-0.50508 -0.11905,-0.11904 -0.34536,0.0532 -0.50508,0 -0.35714,-0.11904 -0.74395,-0.23887 -1.01015,-0.50507 -0.67343,-0.67344 0.84179,-0.50508 -0.50508,-0.50508"
       id="path3022"
       inkscape:connector-curvature="0" />
    <path
       style="opacity:0.98999999;color:#000000;fill:#a05a2c;fill-opacity:1;fill-rule:nonzero;stroke:none;stroke-width:1px;marker:none;visibility:visible;display:inline;overflow:visible;enable-background:accumulate"
       d="m 371.64342,404.86036 c -3.33783,0.26413 -6.45518,-1.41925 -9.78407,-1.31683 -3.87592,-0.1035 -8.246,0.36464 -11.51134,2.19081 -0.24291,-0.0306 -1.55482,0.0523 -0.96591,-0.35839 2.62404,-2.371 6.52257,-3.20912 9.58167,-4.13791 2.74599,-0.56787 5.64269,-1.00053 8.38775,-0.18421 1.85558,0.55027 4.50706,1.31826 5.18192,1.85912 -0.002,0.33991 -0.94691,1.61071 -0.89001,1.94745 z"
       id="path3073"
       inkscape:connector-curvature="0"
       sodipodi:nodetypes="ccccccccc" />
  </g>
  <g
     style="display:inline"
     inkscape:label="sourcil droit"
     id="g3149"
     inkscape:groupmode="layer">
    <path
       inkscape:connector-curvature="0"
       id="path3155"
       d="m 372.38263,445.62415 c 2.02031,0 4.04061,0 6.06092,0"
       style="opacity:0.98999999;color:#000000;fill:#552200;fill-opacity:1;fill-rule:nonzero;stroke:none;stroke-width:1px;marker:none;visibility:visible;display:inline;overflow:visible;enable-background:accumulate" />
    <path
       sodipodi:nodetypes="ccccccccc"
       inkscape:connector-curvature="0"
       id="path3159"
       d="m 394.2618,404.64095 c 3.33783,0.26413 6.45518,-1.41925 9.78407,-1.31683 3.87592,-0.1035 8.246,0.36464 11.51134,2.19081 0.24291,-0.0306 1.55482,0.0523 0.96591,-0.35839 -2.62404,-2.371 -6.52257,-3.20912 -9.58167,-4.13791 -2.74599,-0.56787 -5.64269,-1.00053 -8.38775,-0.18421 -1.85558,0.55027 -4.50706,1.31826 -5.18192,1.85912 0.002,0.33991 0.94691,1.61071 0.89001,1.94745 z"
       style="opacity:0.98999999;color:#000000;fill:#a05a2c;fill-opacity:1;fill-rule:nonzero;stroke:none;stroke-width:1px;marker:none;visibility:visible;display:inline;overflow:visible;enable-background:accumulate" />
  </g>
  <g
     inkscape:groupmode="layer"
     id="layer6"
     inkscape:label="oeil gauche"
     style="display:inline">
    <path
       style="opacity:0.98999999;color:#000000;fill:#ffffff;fill-opacity:1;fill-rule:nonzero;stroke:none;stroke-width:1px;marker:none;visibility:visible;display:inline;overflow:visible;enable-background:accumulate"
       d="m 362.35653,417.76914 c 3.76533,0.015 6.05551,0.0155 9.04891,-3.05972 -0.0189,-2.67748 -6.29332,-3.97233 -10.26596,-3.78904 -5.41357,0.79485 -9.77142,2.56876 -10.09634,4.40414 7.51966,2.60238 6.57401,2.01445 11.31339,2.44462 z"
       id="path3021"
       inkscape:connector-curvature="0"
       sodipodi:nodetypes="ccccc" />
    <path
       sodipodi:type="arc"
       style="opacity:0.98999999;fill:#0088aa;fill-opacity:1;fill-rule:nonzero;stroke:none"
       id="path3029"
       sodipodi:cx="271.8125"
       sodipodi:cy="380.04968"
       sodipodi:rx="3.5625"
       sodipodi:ry="2.8125"
       d="m 275.375,380.04968 a 3.5625,2.8125 0 1 1 -7.125,0 3.5625,2.8125 0 1 1 7.125,0 z"
       transform="matrix(1.0010194,0,0,1.0403959,89.900979,19.140548)" />
    <path
       sodipodi:type="arc"
       style="opacity:0.98999999;fill:#374845;fill-opacity:1;fill-rule:nonzero;stroke:none"
       id="path3031"
       sodipodi:cx="309.40341"
       sodipodi:cy="382.99722"
       sodipodi:rx="1.281631"
       sodipodi:ry="1.1490486"
       d="m 310.68504,382.99722 a 1.281631,1.1490486 0 1 1 -2.56326,0 1.281631,1.1490486 0 1 1 2.56326,0 z"
       transform="matrix(1.0834764,0,0,1.1819752,27.019223,-38.105311)" />
    <path
       style="opacity:0.98999999;color:#000000;fill:#42c4eb;fill-opacity:1;fill-rule:nonzero;stroke:none;stroke-width:1px;marker:none;visibility:visible;display:inline;overflow:visible;enable-background:accumulate"
       d="m 368.14301,409.10994 2.39373,2.00912"
       id="path3066"
       inkscape:connector-curvature="0" />
    <path
       style="opacity:0.98999999;color:#000000;fill:#ffb380;fill-opacity:1;fill-rule:nonzero;stroke:none;stroke-width:1px;marker:none;visibility:visible;display:inline;overflow:visible;enable-background:accumulate"
       d="m 370.07344,412.6259 c -1.12017,-1.08339 -2.26713,-1.83769 -3.48689,-2.62288 -1.84616,-0.95655 -2.63484,-1.36365 -4.67777,-1.41591 -0.97032,-0.13372 -3.32225,0.5519 -4.26729,0.73809 -0.71356,0.27888 -2.31917,0.69574 -2.16208,0.7893 0.77908,-0.31118 0.78578,0.22278 1.86484,-0.25272 5.24559,-1.57709 8.68288,0.65714 12.72919,2.76407 z"
       id="path3070"
       inkscape:connector-curvature="0"
       sodipodi:nodetypes="cccccccc" />
  </g>
  <g
     style="display:inline"
     inkscape:label="oeil droit"
     id="g3114"
     inkscape:groupmode="layer">
    <path
       sodipodi:nodetypes="ccccc"
       inkscape:connector-curvature="0"
       id="path3116"
       d="m 403.3591,417.60474 c -3.76533,0.015 -6.05551,0.0155 -9.04891,-3.05972 0.0189,-2.67748 6.29332,-3.97233 10.26596,-3.78904 5.41357,0.79485 9.77142,2.56876 10.09634,4.40414 -7.51966,2.60238 -6.57401,2.01445 -11.31339,2.44462 z"
       style="opacity:0.98999999;color:#000000;fill:#ffffff;fill-opacity:1;fill-rule:nonzero;stroke:none;stroke-width:1px;marker:none;visibility:visible;display:inline;overflow:visible;enable-background:accumulate" />
    <path
       transform="matrix(1.0010194,0,0,1.0403959,131.70091,19.130572)"
       d="m 275.375,380.04968 a 3.5625,2.8125 0 1 1 -7.125,0 3.5625,2.8125 0 1 1 7.125,0 z"
       sodipodi:ry="2.8125"
       sodipodi:rx="3.5625"
       sodipodi:cy="380.04968"
       sodipodi:cx="271.8125"
       id="path3118"
       style="opacity:0.98999999;fill:#0088aa;fill-opacity:1;fill-rule:nonzero;stroke:none"
       sodipodi:type="arc" />
    <path
       transform="matrix(1.0834764,0,0,1.1819752,68.344405,-38.179256)"
       d="m 310.68504,382.99722 a 1.281631,1.1490486 0 1 1 -2.56326,0 1.281631,1.1490486 0 1 1 2.56326,0 z"
       sodipodi:ry="1.1490486"
       sodipodi:rx="1.281631"
       sodipodi:cy="382.99722"
       sodipodi:cx="309.40341"
       id="path3120"
       style="opacity:0.98999999;fill:#374845;fill-opacity:1;fill-rule:nonzero;stroke:none"
       sodipodi:type="arc" />
    <path
       inkscape:connector-curvature="0"
       id="path3122"
       d="m 368.14301,409.10994 2.39373,2.00912"
       style="opacity:0.98999999;color:#000000;fill:#42c4eb;fill-opacity:1;fill-rule:nonzero;stroke:none;stroke-width:1px;marker:none;visibility:visible;display:inline;overflow:visible;enable-background:accumulate" />
    <path
       sodipodi:nodetypes="cccccccc"
       inkscape:connector-curvature="0"
       id="path3124"
       d="m 395.26094,412.61592 c 1.12017,-1.08339 2.26713,-1.83769 3.48689,-2.62288 1.84616,-0.95655 2.63484,-1.36365 4.67777,-1.41591 0.97032,-0.13372 3.32225,0.5519 4.26729,0.73809 0.71356,0.27888 2.31917,0.69574 2.16208,0.7893 -0.77908,-0.31118 -0.78578,0.22278 -1.86484,-0.25272 -5.24559,-1.57709 -8.68288,0.65714 -12.72919,2.76407 z"
       style="opacity:0.98999999;color:#000000;fill:#ffb380;fill-opacity:1;fill-rule:nonzero;stroke:none;stroke-width:1px;marker:none;visibility:visible;display:inline;overflow:visible;enable-background:accumulate" />
    <path
       sodipodi:type="arc"
       style="opacity:0.98999999;fill:#d5f6ff;fill-opacity:1;fill-rule:nonzero;stroke:none"
       id="path3196"
       sodipodi:cx="307.29297"
       sodipodi:cy="381.26447"
       sodipodi:rx="0.87361187"
       sodipodi:ry="0.76441038"
       d="m 308.16658,381.26447 a 0.87361187,0.76441038 0 1 1 -1.74722,0 0.87361187,0.76441038 0 1 1 1.74722,0 z"
       transform="translate(98.133899,31.737864)" />
    <path
       transform="translate(52.888344,31.710035)"
       d="m 308.16658,381.26447 a 0.87361187,0.76441038 0 1 1 -1.74722,0 0.87361187,0.76441038 0 1 1 1.74722,0 z"
       sodipodi:ry="0.76441038"
       sodipodi:rx="0.87361187"
       sodipodi:cy="381.26447"
       sodipodi:cx="307.29297"
       id="path3201"
       style="opacity:0.98999999;fill:#d5f6ff;fill-opacity:1;fill-rule:nonzero;stroke:none"
       sodipodi:type="arc" />
  </g>
  <g
     inkscape:groupmode="layer"
     id="layer9"
     inkscape:label="oreille">
    <path
       style="opacity:0.98999999;color:#000000;fill:#ffb380;fill-opacity:1;fill-rule:nonzero;stroke:none;stroke-width:1px;marker:none;visibility:visible;display:inline;overflow:visible;enable-background:accumulate"
       d="m 319.92443,415.39056 c 0.16861,0.47482 -0.25109,1.8207 0.35,2.75 0.33575,0.51908 1.81039,1.14481 2.3,0.9 0.21749,-0.10874 1.47725,1.17928 2.64351,0.61422 1.09724,4.28814 1.84227,0.58615 2.25563,0.17279 0.30201,-0.30201 -1.50903,-1.94579 -1.24559,-2.20919 0.23878,-0.23877 3.65583,-2.85688 2.4799,-2.13137 0.38571,-0.77142 -1.78218,-1.03356 -1.3,-1.99792 0.16076,-0.32151 -0.41852,-1.33281 -0.26066,-1.64853 1.02505,-0.0703 -0.97279,-0.46328 -0.97279,-0.4 0,0.37884 0.0131,-0.38694 0,-0.4 -0.0579,-0.79289 -0.95433,-1.33209 -1.15,-1.5 -1.17359,0.3912 -2.06654,1.68873 -2.6,2.4 -0.39731,0.52976 -0.79624,1.49624 -1.25,1.95 -0.40413,-0.0846 -0.49754,1.27823 -1.25,1.5 z"
       id="path3220"
       inkscape:connector-curvature="0"
       sodipodi:nodetypes="csccsccccsccccc" />
  </g>
  <g
     inkscape:groupmode="layer"
     id="layer8"
     inkscape:label="cheveu">
    <path
       style="opacity:0.98999999;color:#000000;fill:#42c4eb;fill-opacity:1;fill-rule:nonzero;stroke:none;stroke-width:1px;marker:none;visibility:visible;display:inline;overflow:visible;enable-background:accumulate"
       d="m 460.89221,456.69543 c -0.87961,-4.17103 -1.07259,-2.65755 4.30113,-8.01005 -1.4103,-5.83279 -6.33087,-7.56854 -6.42246,-10.94042 -0.28503,-10.49282 1.72747,-13.46682 2.26274,-19.79899 0.77107,-7.71071 0.75117,-17.15472 1.41421,-25.173 0.67659,-8.1822 0.0436,-14.45266 -1.41421,-22.06173 -0.58596,-4.84254 -1.17636,-9.57603 -5.9397,-13.57645 -1.20003,-0.25692 6.42516,-1.12932 6.78824,-3.67695 -4.14551,-5.64308 -8.0541,-8.14086 -12.16224,-12.02082 -10.28394,-7.88091 -14.29349,-10.3096 -26.83331,-12.95807 -6.00211,-1.20042 -8.33792,-0.82523 -14.60316,-1.60833 -3.88275,-0.48535 -8.36809,0.28284 -12.30365,0.28284 -22.72458,-0.0859 -7.97607,-0.074 -21.49605,-0.28284 -9.70719,-0.17994 -24.48998,0.20479 -31.34284,2.14559 5.75215,1.43126 -2.19755,3.93158 -7.12377,5.49116 -3.65326,2.01027 -7.46949,2.53724 -11.03086,3.67696 -0.29106,0.097 -3.39412,1.09324 -3.39412,1.69706 2.16201,0.21365 4.21136,1.00512 6.22254,1.13137 1.15231,0.3841 2.55118,0.84294 2.54559,0.84852 -3.70222,3.43324 -14.39085,15.84457 -15.83919,19.79899 12.7697,-0.93666 -1.05932,10.54529 -7.32443,20.56776 4.73798,2.39837 6.80014,-1.72819 7.89011,3.89814 -0.37101,7.77242 -12.44299,19.57159 -7.91959,21.07178 0.1401,0.14011 11.56004,-2.37227 11.59655,-2.26274 0.38033,1.14098 -0.12049,2.75492 0,3.9598 0.2086,2.08605 0.87245,4.15119 1.13137,6.22254 0.2162,1.72959 3.99447,-6.27371 5.46568,-5.30883 1.6,1.04934 2.41552,9.94723 3.16569,9.49705 4.95232,-5.91531 1.66731,-13.98772 4.66224,-19.17889 0.37885,-0.63142 1.02829,-1.06993 1.41421,-1.69705 1.79383,-2.91497 2.89818,-9.40357 5.09117,-11.59655 1.39832,-1.39832 2.97033,5.65685 4.80832,5.65685 1.66187,-3.75719 3.58125,-7.77575 5.09117,-11.31371 0.17762,-0.41443 0.52233,-2.56004 1.41422,-2.26274 1.62055,0.54018 6.81487,9.4619 7.63675,9.05097 0.3589,-0.17945 1.31444,-6.13947 1.9799,-7.63676 0.43956,-0.989 0.83157,-2.17904 1.41421,-3.11127 0.90924,-1.45477 0.58414,-1.23795 1.69706,-1.9799 1.39266,-0.92843 -0.15005,-1.01582 0.56568,1.13138 0.17966,0.53896 2.27482,4.09518 3.11127,3.67695 1.33194,-0.66597 1.78643,-6.20172 5.37402,-7.63675 -0.0801,2.26623 0.25684,4.62948 -0.28285,6.78822 -0.62484,2.49938 -0.28284,5.34292 -0.28284,7.9196 0,0.877 0.5771,2.01414 0.84853,2.82843 0.0667,0.2 0.28284,0.7765 0.28284,0.56568 0,-2.20523 3.78269,-14.47784 4.24264,-14.70782 0.9028,-0.4514 1.9799,5.63576 1.9799,6.22254 0,4.42967 1.7566,9.00631 2.82843,13.29361 0.006,0.0247 1.99306,3.67695 1.9799,3.67695 -0.38873,0 0.10899,-0.78368 0.28284,-1.13137 0.19563,-0.39127 -0.0705,-1.27405 0,-1.69705 0.28423,-1.70537 0.79178,-3.3932 1.13137,-5.09117 1.59984,-3.68144 2.17426,-7.88942 3.67696,-11.03087 1.03403,-1.80305 1.96939,-6.25687 3.39411,-7.07107 0.57424,-0.28712 0.20513,0.73196 0.84853,1.69706 2.16649,4.37485 3.02658,10.77898 3.95979,14.14213 3.42933,-4.79703 4.97101,-11.97352 7.9196,-15.2735 0.2647,-0.2647 1.36255,-2.26274 1.41421,-2.26274 0.53699,0 3.47584,11.5667 4.10122,11.87939 2.20336,1.10168 6.77057,-7.43345 9.75808,-5.9397 0.0284,1.86902 -2.25894,7.53879 -0.84853,9.75808 3.23283,-2.8144 5.81096,-4.2363 7.77817,-3.2527 0.79155,0.39578 -6.69731,12.08425 -2.26274,9.05097 7.06302,0.91359 4.67518,3.21152 6.08112,11.59655 8.2159,-3.56395 7.2,1.41422 7.2,1.41422 0,0 -4.07368,11.40814 -2.14903,25.03157 1.92465,13.62343 3.01421,26.28012 3.01421,26.28012 0,0 5.36366,-0.42707 5.65269,1.86274 0.30944,2.45138 -0.61341,11.47384 1.62682,12.143 2.32849,0.69553 3.11361,-1.54486 4.10465,0.4672 0.99104,2.01206 0.60202,6.85208 3.64308,5.61722 2.09073,-0.84896 2.86852,5.47443 5.19185,4.68283 1.73074,-0.58968 0.77651,-3.67695 2.26275,-5.65685 -2.86775,-11.16655 2.26275,-14.00072 2.26275,-14.00072"
       id="path3204"
       inkscape:connector-curvature="0"
       sodipodi:nodetypes="ccscscccccsccccccccccccssssccssccssssscscsscssscscsccccccssccsccczcscssscc" />
    <path
       sodipodi:nodetypes="ccscscccccscccccccccccccssssccssccssssscscsscssscscsccccccssccsccczcscssscc"
       inkscape:connector-curvature="0"
       id="path5528"
       d="m 461.69221,456.69543 c -0.87961,-4.17103 -1.07259,-2.65755 4.30113,-8.01005 -1.4103,-5.83279 -6.33087,-7.56854 -6.42246,-10.94042 -0.28503,-10.49282 1.72747,-13.46682 2.26274,-19.79899 0.77107,-7.71071 0.75117,-17.15472 1.41421,-25.173 0.67659,-8.1822 0.0436,-14.45266 -1.41421,-22.06173 -0.58596,-4.84254 -1.17636,-9.57603 -5.9397,-13.57645 -1.20003,-0.25692 6.42516,-1.12932 6.78824,-3.67695 -4.14551,-5.64308 -8.0541,-8.14086 -12.16224,-12.02082 -10.28394,-7.88091 -14.29349,-10.3096 -26.83331,-12.95807 -6.00211,-1.20042 -8.33792,-0.82523 -14.60316,-1.60833 -3.88275,-0.48535 -8.36809,0.28284 -12.30365,0.28284 -22.72458,-0.0859 -7.97607,-0.074 -21.49605,-0.28284 -9.70719,-0.17994 -24.48998,0.20479 -31.34284,2.14559 5.75215,1.43126 -2.19755,3.93158 -7.12377,5.49116 -3.65326,2.01027 -7.46949,2.53724 -11.03086,3.67696 -0.29106,0.097 -3.39412,1.09324 -3.39412,1.69706 2.16201,0.21365 4.21136,1.00512 6.22254,1.13137 1.15231,0.3841 2.55118,0.84294 2.54559,0.84852 -0.89485,0.89485 -3.27083,1.70915 -4.52548,2.54559 6.75527,1.28997 -8.71581,8.90565 -11.31371,17.2534 12.7697,-0.93666 -1.05932,10.54529 -7.32443,20.56776 4.73798,2.39837 6.80014,-1.72819 7.89011,3.89814 -0.37101,7.77242 -12.44299,19.57159 -7.91959,21.07178 0.1401,0.14011 11.56004,-2.37227 11.59655,-2.26274 0.38033,1.14098 -0.12049,2.75492 0,3.9598 0.2086,2.08605 0.87245,4.15119 1.13137,6.22254 0.2162,1.72959 3.99447,-6.27371 5.46568,-5.30883 1.6,1.04934 2.41552,9.94723 3.16569,9.49705 4.95232,-5.91531 1.66731,-13.98772 4.66224,-19.17889 0.37885,-0.63142 1.02829,-1.06993 1.41421,-1.69705 1.79383,-2.91497 2.89818,-9.40357 5.09117,-11.59655 1.39832,-1.39832 2.97033,5.65685 4.80832,5.65685 1.66187,-3.75719 3.58125,-7.77575 5.09117,-11.31371 0.17762,-0.41443 0.52233,-2.56004 1.41422,-2.26274 1.62055,0.54018 6.81487,9.4619 7.63675,9.05097 0.3589,-0.17945 1.31444,-6.13947 1.9799,-7.63676 0.43956,-0.989 0.83157,-2.17904 1.41421,-3.11127 0.90924,-1.45477 0.58414,-1.23795 1.69706,-1.9799 1.39266,-0.92843 -0.15005,-1.01582 0.56568,1.13138 0.17966,0.53896 2.27482,4.09518 3.11127,3.67695 1.33194,-0.66597 1.78643,-6.20172 5.37402,-7.63675 -0.0801,2.26623 0.25684,4.62948 -0.28285,6.78822 -0.62484,2.49938 -0.28284,5.34292 -0.28284,7.9196 0,0.877 0.5771,2.01414 0.84853,2.82843 0.0667,0.2 0.28284,0.7765 0.28284,0.56568 0,-2.20523 3.78269,-14.47784 4.24264,-14.70782 0.9028,-0.4514 1.9799,5.63576 1.9799,6.22254 0,4.42967 1.7566,9.00631 2.82843,13.29361 0.006,0.0247 1.99306,3.67695 1.9799,3.67695 -0.38873,0 0.10899,-0.78368 0.28284,-1.13137 0.19563,-0.39127 -0.0705,-1.27405 0,-1.69705 0.28423,-1.70537 0.79178,-3.3932 1.13137,-5.09117 1.59984,-3.68144 2.17426,-7.88942 3.67696,-11.03087 1.03403,-1.80305 1.96939,-6.25687 3.39411,-7.07107 0.57424,-0.28712 0.20513,0.73196 0.84853,1.69706 2.16649,4.37485 3.02658,10.77898 3.95979,14.14213 3.42933,-4.79703 4.97101,-11.97352 7.9196,-15.2735 0.2647,-0.2647 1.36255,-2.26274 1.41421,-2.26274 0.53699,0 3.47584,11.5667 4.10122,11.87939 2.20336,1.10168 6.77057,-7.43345 9.75808,-5.9397 0.0284,1.86902 -2.25894,7.53879 -0.84853,9.75808 3.23283,-2.8144 5.81096,-4.2363 7.77817,-3.2527 0.79155,0.39578 -6.69731,12.08425 -2.26274,9.05097 7.06302,0.91359 4.67518,3.21152 6.08112,11.59655 8.2159,-3.56395 7.2,1.41422 7.2,1.41422 0,0 -4.07368,11.40814 -2.14903,25.03157 1.92465,13.62343 3.01421,26.28012 3.01421,26.28012 0,0 5.36366,-0.42707 5.65269,1.86274 0.30944,2.45138 -0.61341,11.47384 1.62682,12.143 2.32849,0.69553 3.11361,-1.54486 4.10465,0.4672 0.99104,2.01206 0.60202,6.85208 3.64308,5.61722 2.09073,-0.84896 2.86852,5.47443 5.19185,4.68283 1.73074,-0.58968 0.77651,-3.67695 2.26275,-5.65685 -2.86775,-11.16655 2.26275,-14.00072 2.26275,-14.00072"
       style="opacity:0.90654207;color:#000000;fill:url(#linearGradient5632);fill-opacity:1;fill-rule:nonzero;stroke:none;stroke-width:1px;marker:none;visibility:visible;display:inline;overflow:visible;filter:url(#filter5628);enable-background:accumulate" />
  </g>
  <path
     style="opacity:0.98999999;color:#000000;fill:#42c4eb;fill-opacity:1;fill-rule:nonzero;stroke:none;stroke-width:1px;marker:none;visibility:visible;display:inline;overflow:visible;enable-background:accumulate"
     d="m 419.74781,412.84812 -4.01529,0.86105"
     id="path3049"
     inkscape:connector-curvature="0" />
  <path
     style="opacity:0.98999999;color:#000000;fill:#784421;fill-opacity:1;fill-rule:nonzero;stroke:none;stroke-width:1px;marker:none;visibility:visible;display:inline;overflow:visible;enable-background:accumulate"
     d="m 350.91424,415.12475 c 0.23783,-0.87816 0.29536,-1.39359 1.08002,-2.12634 0.92177,-0.52569 2.07119,-1.3554 3.29972,-1.70773 0.86474,-0.23909 1.92967,-0.6143 3.03114,-0.90038 1.35767,-0.18576 2.08801,-0.26707 3.31062,-0.0855 1.17218,0.007 2.52713,0.21357 3.65731,0.6017 1.46654,0.34362 2.8621,0.50872 4.30883,1.39932 0.65152,0.3411 1.834,1.05994 1.76228,1.57877 -0.43441,-0.69651 -1.04822,-0.79469 -1.72391,-1.24136 -0.87761,-0.64221 -2.10239,-0.77654 -3.08727,-1.14228 -1.11026,-0.42045 -2.38483,-0.49562 -3.9579,-0.52651 -1.68228,0.003 -3.12456,0.5239 -4.66377,0.93448 -1.61625,0.39749 -3.52424,0.72109 -4.69563,1.512 -0.92115,0.51976 -1.22297,0.97263 -1.91398,1.72374 -0.29043,0.31569 -0.2309,0.1271 -0.40746,-0.0199 z"
     id="path3051"
     inkscape:connector-curvature="0"
     sodipodi:nodetypes="cccccccccccccsc" />
  <path
     sodipodi:nodetypes="cccccccccccccsc"
     inkscape:connector-curvature="0"
     id="path3194"
     d="m 414.82375,415.20686 c -0.23783,-0.87816 -0.29536,-1.39359 -1.08002,-2.12634 -0.92177,-0.52569 -2.07119,-1.3554 -3.29972,-1.70773 -0.86474,-0.23909 -1.92967,-0.6143 -3.03114,-0.90038 -1.35767,-0.18576 -2.08801,-0.26707 -3.31062,-0.0855 -1.17218,0.007 -2.52713,0.21357 -3.65731,0.6017 -1.46654,0.34362 -2.8621,0.50872 -4.30883,1.39932 -0.65152,0.3411 -1.834,1.05994 -1.76228,1.57877 0.43441,-0.69651 1.04822,-0.79469 1.72391,-1.24136 0.87761,-0.64221 2.10239,-0.77654 3.08727,-1.14228 1.11026,-0.42045 2.38483,-0.49562 3.9579,-0.52651 2.60932,0.21694 4.63806,0.96041 7.08994,1.48651 0.5875,0.20845 1.39297,0.35316 2.26946,0.95997 0.92115,0.51976 1.22297,0.97263 1.91398,1.72374 0.29043,0.31569 0.2309,0.1271 0.40746,-0.0199 z"
     style="opacity:0.98999999;color:#000000;fill:#784421;fill-opacity:1;fill-rule:nonzero;stroke:none;stroke-width:1px;marker:none;visibility:visible;display:inline;overflow:visible;enable-background:accumulate" />
  <g
     inkscape:groupmode="layer"
     id="layer7"
     inkscape:label="corps"
     style="display:inline">
    <path
       style="opacity:0.98999999;color:#000000;fill:#214478;fill-opacity:1;fill-rule:nonzero;stroke:none;stroke-width:1px;marker:none;visibility:visible;display:inline;overflow:visible;enable-background:accumulate"
       d="m 348.57401,497.93375 c -2.58788,-10.90973 -9.22533,-10.22283 -17.78742,-18.24485 -8.56208,-8.02203 -18.6689,-16.83338 -25.65582,-22.98083 -13.97384,-12.2949 -26.49894,-24.68223 -35.33077,-42.34589 -5.9438,-11.8876 -13.96722,-15.56722 -22.4,-24 -3.49404,-3.49403 -0.33259,-2.59777 -1.6,-6.4 -1.69852,-5.09556 -8.49712,-11.69712 -12.8,-16 -9.97772,-9.97771 -19.06516,-25.33031 -25.6,-38.4 -0.94789,-1.89579 -9.94462,-8.51693 -12.8,-12.8 -6.28819,-9.43227 -14.74107,-22.4 -14.4,-22.4 0.87548,0 -13.23171,2.46343 -17.6,11.2 -5.29587,10.59174 17.30543,41.30543 24,48 11.71423,11.71423 15.34704,24.94705 24,33.6 1.32386,1.32386 -1.05584,6.41625 0,8 3.50581,5.25872 10.39598,9.99397 14.4,16 0.53678,0.80517 3.1289,7.92891 3.2,8 1.2846,1.28461 4.69261,0.74631 6.4,1.6 1.96684,0.98342 0.28061,4.64081 1.6,6.4 2.12844,2.83792 5.75955,7.35955 8,9.6 3.78672,3.78672 1.62147,14.42147 6.4,19.2 6.11057,6.11057 26.94191,29.28483 31.27351,37.94802 20.02553,23.57987 26.1586,29.50707 44.97746,48.53238 6.2848,6.28481 -9.78806,28.61969 6.65786,42.18234 8.57428,7.07105 -30.51895,108.66464 9.25888,110.04508 24.85542,0.86258 31.91075,17.81691 33.93624,17.62843 31.32476,-2.91485 48.59307,-18.17062 64.28427,-13.96872 4.75906,1.00079 -8.9675,-111.34927 -5.15979,-114.7862 13.78366,-12.44151 3.78403,-33.16468 5.46274,-37.69016 1.38445,-3.73222 14.6294,-20.8686 19.92649,-26.16569 4.71701,-4.71701 20.05231,-24.40495 23.37057,-29.38234 2.82922,-4.24382 5.3981,-8.12998 7.84034,-11.84262 2.44225,-3.71264 4.17912,-9.86808 7.08057,-10.80149 3.1518,-1.01395 4.65249,-7.1101 7.12306,-10.86522 2.47057,-3.75512 5.08193,-7.70501 7.9678,-12.03381 5.39613,-8.09419 8.99763,-20.81744 14.59411,-28.23431 5.71836,-7.5784 10.72345,-14.68325 17.40589,-21.36569 4.00708,-4.00708 7.47188,-13.34375 9.6,-17.6 2.31973,-4.63947 9.07227,-12.36932 13.26863,-24.48528 9.30519,-14.90725 14.36723,-26.68278 20.41177,-39.04609 8.35494,-16.70987 -21.86721,-19.87699 -22.77157,-18.16569 -4.46936,8.45722 -13.83678,16.88091 -17.30883,27.29706 -6.89954,12.71791 -8.46598,13.96529 -14.4,20.8 -9.33147,9.33147 -9.99463,25.99463 -19.2,35.2 -0.94422,0.94422 -3.32663,3.93693 -6.41655,7.98973 -3.08992,4.0528 -11.71578,11.71127 -9.53023,16.61298 0.64258,1.40825 -8.65669,8.17804 -11.65389,12.51751 -2.99721,4.33948 -5.24054,7.76221 -5.99933,9.27978 -1.42517,2.85033 -2.42246,7.22247 -4.8,9.6 -0.53333,0.53334 -4.26667,1.06667 -4.8,1.6 -4.05204,4.05204 -23.55093,38.97547 -25.6,40 -4.88008,2.44004 -22.86458,10.11358 -25.2,13.8 -3.1116,4.9116 -32.61458,31.5269 -36.6,31.1196"
       id="path3076"
       inkscape:connector-curvature="0"
       sodipodi:nodetypes="csssssssssssssscssssccssscsssssssssssccsccsscssssssc" />
    <path
       style="opacity:0.98999999;color:#000000;fill:#002255;fill-opacity:1;fill-rule:nonzero;stroke:none;stroke-width:1px;marker:none;visibility:visible;display:inline;overflow:visible;enable-background:accumulate"
       d="m 348.6,586.93802 c 2.22907,0.85943 -2.15122,-1.35401 -0.45185,-1.67758 5.40269,-1.02869 7.07783,-2.6659 12.33171,-3.91638 5.2893,-1.40086 15.73812,-4.00363 20.38356,-4.07154 9.37346,-0.73989 13.32351,0.28966 21.82802,0.28966 3.05518,0 7.03913,0.44391 10.16627,0.99396 1.80156,0.31689 9.77302,1.25231 10.54815,2.59396 0.52591,0.91028 -0.15637,1.6 -0.61728,1.6 -5.23922,0 -20.16984,-2.113 -23.6807,-2.2 -3.3502,-0.083 -14.48284,0.55517 -18.74899,0.55517"
       id="path3146"
       inkscape:connector-curvature="0"
       sodipodi:nodetypes="csccsssssc" />
    <path
       style="opacity:0.98999999;color:#000000;fill:#002255;fill-opacity:1;fill-rule:nonzero;stroke:none;stroke-width:1px;marker:none;visibility:visible;display:inline;overflow:visible;enable-background:accumulate"
       d="m 339,489.76218 c 1.75205,0.46206 4.22521,2.67564 4.8,4.4 0.13129,0.39386 0.98859,0.57718 1.2,1 0.25684,0.51368 0.19438,0.99438 0.6,1.4 0.2357,0.2357 -0.50186,-0.45093 -0.8,-0.6 -0.5658,-0.2829 -1.85217,-0.85217 -2.2,-1.2"
       id="path3150"
       inkscape:connector-curvature="0" />
    <path
       style="opacity:0.98999999;color:#000000;fill:#42c4eb;fill-opacity:1;fill-rule:nonzero;stroke:none;stroke-width:1px;marker:none;visibility:visible;display:inline;overflow:visible;enable-background:accumulate"
       d="m 295,511.56218 -95.4,-96.8"
       id="path3152"
       inkscape:connector-curvature="0" />
    <path
       style="opacity:0.98999999;color:#000000;fill:#42c4eb;fill-opacity:1;fill-rule:nonzero;stroke:none;stroke-width:1px;marker:none;visibility:visible;display:inline;overflow:visible;enable-background:accumulate"
       d="m 195.6,396.16218 16.6,10"
       id="path3154"
       inkscape:connector-curvature="0" />
    <path
       style="opacity:0.98999999;color:#000000;fill:#002255;fill-opacity:1;fill-rule:nonzero;stroke:none;stroke-width:1px;marker:none;visibility:visible;display:inline;overflow:visible;enable-background:accumulate"
       d="m 241.6,380.56218 c 0.85898,1.84268 2.19373,3.59373 3.4,4.8 0.0493,0.0493 0.0493,1.15066 0,1.2 -0.42945,0.42946 -0.9625,-0.88125 -1.2,-1 -0.95539,-0.47769 -1.8,-1.20904 -1.8,-1.8"
       id="path3156"
       inkscape:connector-curvature="0" />
    <path
       style="opacity:0.98999999;color:#000000;fill:#42c4eb;fill-opacity:1;fill-rule:nonzero;stroke:none;stroke-width:1px;marker:none;visibility:visible;display:inline;overflow:visible;enable-background:accumulate"
       d="m 243.4,461.16218 -9.2,-16.8"
       id="path3158"
       inkscape:connector-curvature="0" />
    <path
       style="opacity:0.98999999;color:#000000;fill:#002255;fill-opacity:1;fill-rule:nonzero;stroke:none;stroke-width:1px;marker:none;visibility:visible;display:inline;overflow:visible;enable-background:accumulate"
       d="m 212.2,388.16218 c 0.0269,1.4904 0.18382,3.16764 0.8,4.4 0.18481,0.36963 0.76358,0.72715 1,1.2 1.20349,2.40699 1.2,-0.57797 1.2,-2"
       id="path3160"
       inkscape:connector-curvature="0" />
    <path
       style="opacity:0.98999999;color:#000000;fill:#42c4eb;fill-opacity:1;fill-rule:nonzero;stroke:none;stroke-width:1px;marker:none;visibility:visible;display:inline;overflow:visible;enable-background:accumulate"
       d="m 220.6,446.36218 14.2,-12.6"
       id="path3162"
       inkscape:connector-curvature="0" />
    <path
       style="opacity:0.98999999;color:#000000;fill:#002255;fill-opacity:1;fill-rule:nonzero;stroke:none;stroke-width:1px;marker:none;visibility:visible;display:inline;overflow:visible;enable-background:accumulate"
       d="m 236.6,421.96218 c -0.0974,0.87824 -0.34485,6.94485 1.8,4.8"
       id="path3164"
       inkscape:connector-curvature="0" />
    <path
       style="opacity:0.98999999;color:#000000;fill:#42c4eb;fill-opacity:1;fill-rule:nonzero;stroke:none;stroke-width:1px;marker:none;visibility:visible;display:inline;overflow:visible;enable-background:accumulate"
       d="M 201.38401,622.44126 40.729351,535.3257"
       id="path3166"
       inkscape:connector-curvature="0" />
    <path
       style="opacity:0.98999999;color:#000000;fill:#002255;fill-opacity:1;fill-rule:nonzero;stroke:none;stroke-width:1px;marker:none;visibility:visible;display:inline;overflow:visible;enable-background:accumulate"
       d="m 475.8,437.36218 c -1.41207,-0.0817 -2.25361,0.45361 -3,1.2 -0.46552,0.46553 -0.39882,2.80118 -0.8,2.4"
       id="path3168"
       inkscape:connector-curvature="0" />
    <path
       style="opacity:0.98999999;color:#000000;fill:#002255;fill-opacity:1;fill-rule:nonzero;stroke:none;stroke-width:1px;marker:none;visibility:visible;display:inline;overflow:visible;enable-background:accumulate"
       d="m 502,401.96218 c 2.40045,-2.56061 5.84219,-4.68073 9.2,-5.8 0.42419,-0.14139 0.96487,0.10879 1.4,0 0.26993,-0.0675 1.79095,-0.60904 2,-0.4 0.14429,0.14429 0,0.9688 0,1.2"
       id="path3170"
       inkscape:connector-curvature="0" />
    <path
       style="opacity:0.98999999;color:#000000;fill:#42c4eb;fill-opacity:1;fill-rule:nonzero;stroke:none;stroke-width:1px;marker:none;visibility:visible;display:inline;overflow:visible;enable-background:accumulate"
       d="m 586.8,460.56218 -75.2,19"
       id="path3172"
       inkscape:connector-curvature="0" />
    <path
       style="opacity:0.98999999;color:#000000;fill:#00112b;fill-opacity:1;fill-rule:nonzero;stroke:none;stroke-width:1px;marker:none;visibility:visible;display:inline;overflow:visible;enable-background:accumulate"
       d="m 502.8,461.36218 c -0.48917,1.95667 0.22133,-0.30221 -0.8,1.4 -0.0557,0.0928 0.0963,0.70375 0,0.8 -1.48229,1.48229 -1.7519,1.8 -4.2,1.8"
       id="path3174"
       inkscape:connector-curvature="0" />
    <path
       style="opacity:0.98999999;color:#000000;fill:#002255;fill-opacity:1;fill-rule:nonzero;stroke:none;stroke-width:1px;marker:none;visibility:visible;display:inline;overflow:visible;enable-background:accumulate"
       d="m 439.08284,539.83081 c -3.06177,-3.1625 -0.803,-7.50815 0.51716,-11.46863 0.41014,-1.23042 1.99221,-4.19221 2.8,-5 4.42908,-3.08945 12.83769,-13.39581 11,-6.2 -1.22978,4.01663 0.94986,0.73888 -6.04436,8.15736"
       id="path3176"
       inkscape:connector-curvature="0"
       sodipodi:nodetypes="csccc" />
  </g>
  <path
     style="opacity:0.98999999;color:#000000;fill:#ffccaa;fill-opacity:1;fill-rule:nonzero;stroke:none;stroke-width:1px;marker:none;visibility:visible;display:inline;overflow:visible;enable-background:accumulate"
     d="m 180.2,293.96218 c -1.23651,-5.95388 -3.04235,-10.05343 -5.92923,-15.26205 -1.91181,-3.87776 -1.79006,-11.10361 -4.32314,-15.44506 -2.43698,-4.72595 -2.27021,-8.09965 -5.19535,-12.37791 -4.64382,4.14189 -1.31232,11.25608 -0.56971,17.19211 3.61027,7.60216 -9.79342,11.31166 -11.9704,15.55242 -1.01257,5.13753 0.56641,6.27131 3.38783,11.54049 3.56109,2.49033 5.65395,5.33867 8.4,8.8"
     id="path3218"
     inkscape:connector-curvature="0"
     sodipodi:nodetypes="cccccccc" />
  <g
     inkscape:label="corps copy"
     id="g3178"
     inkscape:groupmode="layer"
     style="display:inline">
    <path
       sodipodi:nodetypes="csssssssssssssscssssccssscsssssssssssccsccsscssssssc"
       inkscape:connector-curvature="0"
       id="path3180"
       d="m 348.57401,497.93375 c -2.58788,-10.90973 -9.22533,-10.22283 -17.78742,-18.24485 -8.56208,-8.02203 -18.6689,-16.83338 -25.65582,-22.98083 -13.97384,-12.2949 -26.49894,-24.68223 -35.33077,-42.34589 -5.9438,-11.8876 -13.96722,-15.56722 -22.4,-24 -3.49404,-3.49403 -0.33259,-2.59777 -1.6,-6.4 -1.69852,-5.09556 -8.49712,-11.69712 -12.8,-16 -9.97772,-9.97771 -19.06516,-25.33031 -25.6,-38.4 -0.94789,-1.89579 -9.94462,-8.51693 -12.8,-12.8 -6.28819,-9.43227 -14.74107,-22.4 -14.4,-22.4 0.87548,0 -13.23171,2.46343 -17.6,11.2 -5.29587,10.59174 17.30543,41.30543 24,48 11.71423,11.71423 15.34704,24.94705 24,33.6 1.32386,1.32386 -1.05584,6.41625 0,8 3.50581,5.25872 10.39598,9.99397 14.4,16 0.53678,0.80517 3.1289,7.92891 3.2,8 1.2846,1.28461 4.69261,0.74631 6.4,1.6 1.96684,0.98342 0.28061,4.64081 1.6,6.4 2.12844,2.83792 5.75955,7.35955 8,9.6 3.78672,3.78672 1.62147,14.42147 6.4,19.2 6.11057,6.11057 26.94191,29.28483 31.27351,37.94802 20.02553,23.57987 26.1586,29.50707 44.97746,48.53238 6.2848,6.28481 -9.78806,28.61969 6.65786,42.18234 8.57428,7.07105 -31.65032,122.24109 8.12751,123.62153 24.85542,0.86258 34.17349,11.02869 36.19898,10.84021 31.32476,-2.91485 47.4617,-24.95885 63.1529,-20.75695 4.75906,1.00079 -8.9675,-111.34927 -5.15979,-114.7862 13.78366,-12.44151 3.78403,-33.16468 5.46274,-37.69016 1.38445,-3.73222 14.6294,-20.8686 19.92649,-26.16569 4.71701,-4.71701 20.05231,-24.40495 23.37057,-29.38234 2.82922,-4.24382 5.3981,-8.12998 7.84034,-11.84262 2.44225,-3.71264 4.17912,-9.86808 7.08057,-10.80149 3.1518,-1.01395 4.65249,-7.1101 7.12306,-10.86522 2.47057,-3.75512 5.08193,-7.70501 7.9678,-12.03381 5.39613,-8.09419 8.99763,-20.81744 14.59411,-28.23431 5.71836,-7.5784 10.72345,-14.68325 17.40589,-21.36569 4.00708,-4.00708 7.47188,-13.34375 9.6,-17.6 2.31973,-4.63947 9.07227,-12.36932 13.26863,-24.48528 9.30519,-14.90725 14.36723,-26.68278 20.41177,-39.04609 8.35494,-16.70987 -21.86721,-19.87699 -22.77157,-18.16569 -4.46936,8.45722 -13.83678,16.88091 -17.30883,27.29706 -6.89954,12.71791 -8.46598,13.96529 -14.4,20.8 -9.33147,9.33147 -9.99463,25.99463 -19.2,35.2 -0.94422,0.94422 -3.32663,3.93693 -6.41655,7.98973 -3.08992,4.0528 -11.71578,11.71127 -9.53023,16.61298 0.64258,1.40825 -8.65669,8.17804 -11.65389,12.51751 -2.99721,4.33948 -5.24054,7.76221 -5.99933,9.27978 -1.42517,2.85033 -2.42246,7.22247 -4.8,9.6 -0.53333,0.53334 -4.26667,1.06667 -4.8,1.6 -4.05204,4.05204 -23.55093,38.97547 -25.6,40 -4.88008,2.44004 -22.86458,10.11358 -25.2,13.8 -3.1116,4.9116 -32.61458,31.5269 -36.6,31.1196"
       style="opacity:0.98999999;color:#000000;fill:#214478;fill-opacity:1;fill-rule:nonzero;stroke:none;stroke-width:1px;marker:none;visibility:visible;display:inline;overflow:visible;enable-background:accumulate" />
    <path
       sodipodi:nodetypes="csccsssssc"
       inkscape:connector-curvature="0"
       id="path3182"
       d="m 348.6,586.93802 c 2.22907,0.85943 -2.15122,-1.35401 -0.45185,-1.67758 5.40269,-1.02869 7.07783,-2.6659 12.33171,-3.91638 5.2893,-1.40086 15.73812,-4.00363 20.38356,-4.07154 9.37346,-0.73989 13.32351,0.28966 21.82802,0.28966 3.05518,0 7.03913,0.44391 10.16627,0.99396 1.80156,0.31689 9.77302,1.25231 10.54815,2.59396 0.52591,0.91028 -0.15637,1.6 -0.61728,1.6 -5.23922,0 -20.16984,-2.113 -23.6807,-2.2 -3.3502,-0.083 -14.48284,0.55517 -18.74899,0.55517"
       style="opacity:0.98999999;color:#000000;fill:#002255;fill-opacity:1;fill-rule:nonzero;stroke:none;stroke-width:1px;marker:none;visibility:visible;display:inline;overflow:visible;enable-background:accumulate" />
    <path
       inkscape:connector-curvature="0"
       id="path3184"
       d="m 339,489.76218 c 1.75205,0.46206 4.22521,2.67564 4.8,4.4 0.13129,0.39386 0.98859,0.57718 1.2,1 0.25684,0.51368 0.19438,0.99438 0.6,1.4 0.2357,0.2357 -0.50186,-0.45093 -0.8,-0.6 -0.5658,-0.2829 -1.85217,-0.85217 -2.2,-1.2"
       style="opacity:0.98999999;color:#000000;fill:#002255;fill-opacity:1;fill-rule:nonzero;stroke:none;stroke-width:1px;marker:none;visibility:visible;display:inline;overflow:visible;enable-background:accumulate" />
    <path
       inkscape:connector-curvature="0"
       id="path3186"
       d="m 295,511.56218 -95.4,-96.8"
       style="opacity:0.98999999;color:#000000;fill:#42c4eb;fill-opacity:1;fill-rule:nonzero;stroke:none;stroke-width:1px;marker:none;visibility:visible;display:inline;overflow:visible;enable-background:accumulate" />
    <path
       inkscape:connector-curvature="0"
       id="path3188"
       d="m 195.6,396.16218 16.6,10"
       style="opacity:0.98999999;color:#000000;fill:#42c4eb;fill-opacity:1;fill-rule:nonzero;stroke:none;stroke-width:1px;marker:none;visibility:visible;display:inline;overflow:visible;enable-background:accumulate" />
    <path
       inkscape:connector-curvature="0"
       id="path3190"
       d="m 241.6,380.56218 c 0.85898,1.84268 2.19373,3.59373 3.4,4.8 0.0493,0.0493 0.0493,1.15066 0,1.2 -0.42945,0.42946 -0.9625,-0.88125 -1.2,-1 -0.95539,-0.47769 -1.8,-1.20904 -1.8,-1.8"
       style="opacity:0.98999999;color:#000000;fill:#002255;fill-opacity:1;fill-rule:nonzero;stroke:none;stroke-width:1px;marker:none;visibility:visible;display:inline;overflow:visible;enable-background:accumulate" />
    <path
       inkscape:connector-curvature="0"
       id="path3192"
       d="m 243.4,461.16218 -9.2,-16.8"
       style="opacity:0.98999999;color:#000000;fill:#42c4eb;fill-opacity:1;fill-rule:nonzero;stroke:none;stroke-width:1px;marker:none;visibility:visible;display:inline;overflow:visible;enable-background:accumulate" />
    <path
       inkscape:connector-curvature="0"
       id="path3195"
       d="m 212.2,388.16218 c 0.0269,1.4904 0.18382,3.16764 0.8,4.4 0.18481,0.36963 0.76358,0.72715 1,1.2 1.20349,2.40699 1.2,-0.57797 1.2,-2"
       style="opacity:0.98999999;color:#000000;fill:#002255;fill-opacity:1;fill-rule:nonzero;stroke:none;stroke-width:1px;marker:none;visibility:visible;display:inline;overflow:visible;enable-background:accumulate" />
    <path
       inkscape:connector-curvature="0"
       id="path3197"
       d="m 220.6,446.36218 14.2,-12.6"
       style="opacity:0.98999999;color:#000000;fill:#42c4eb;fill-opacity:1;fill-rule:nonzero;stroke:none;stroke-width:1px;marker:none;visibility:visible;display:inline;overflow:visible;enable-background:accumulate" />
    <path
       inkscape:connector-curvature="0"
       id="path3199"
       d="m 236.6,421.96218 c -0.0974,0.87824 -0.34485,6.94485 1.8,4.8"
       style="opacity:0.98999999;color:#000000;fill:#002255;fill-opacity:1;fill-rule:nonzero;stroke:none;stroke-width:1px;marker:none;visibility:visible;display:inline;overflow:visible;enable-background:accumulate" />
    <path
       inkscape:connector-curvature="0"
       id="path3202"
       d="M 201.38401,622.44126 40.729351,535.3257"
       style="opacity:0.98999999;color:#000000;fill:#42c4eb;fill-opacity:1;fill-rule:nonzero;stroke:none;stroke-width:1px;marker:none;visibility:visible;display:inline;overflow:visible;enable-background:accumulate" />
    <path
       inkscape:connector-curvature="0"
       id="path3205"
       d="m 475.8,437.36218 c -1.41207,-0.0817 -2.25361,0.45361 -3,1.2 -0.46552,0.46553 -0.39882,2.80118 -0.8,2.4"
       style="opacity:0.98999999;color:#000000;fill:#002255;fill-opacity:1;fill-rule:nonzero;stroke:none;stroke-width:1px;marker:none;visibility:visible;display:inline;overflow:visible;enable-background:accumulate" />
    <path
       inkscape:connector-curvature="0"
       id="path3207"
       d="m 502,401.96218 c 2.40045,-2.56061 5.84219,-4.68073 9.2,-5.8 0.42419,-0.14139 0.96487,0.10879 1.4,0 0.26993,-0.0675 1.79095,-0.60904 2,-0.4 0.14429,0.14429 0,0.9688 0,1.2"
       style="opacity:0.98999999;color:#000000;fill:#002255;fill-opacity:1;fill-rule:nonzero;stroke:none;stroke-width:1px;marker:none;visibility:visible;display:inline;overflow:visible;enable-background:accumulate" />
    <path
       inkscape:connector-curvature="0"
       id="path3209"
       d="m 586.8,460.56218 -75.2,19"
       style="opacity:0.98999999;color:#000000;fill:#42c4eb;fill-opacity:1;fill-rule:nonzero;stroke:none;stroke-width:1px;marker:none;visibility:visible;display:inline;overflow:visible;enable-background:accumulate" />
    <path
       inkscape:connector-curvature="0"
       id="path3211"
       d="m 502.8,461.36218 c -0.48917,1.95667 0.22133,-0.30221 -0.8,1.4 -0.0557,0.0928 0.0963,0.70375 0,0.8 -1.48229,1.48229 -1.7519,1.8 -4.2,1.8"
       style="opacity:0.98999999;color:#000000;fill:#00112b;fill-opacity:1;fill-rule:nonzero;stroke:none;stroke-width:1px;marker:none;visibility:visible;display:inline;overflow:visible;enable-background:accumulate" />
    <path
       sodipodi:nodetypes="csccc"
       inkscape:connector-curvature="0"
       id="path3213"
       d="m 438.8,541.1036 c -3.06177,-3.1625 -0.803,-7.50815 0.51716,-11.46863 0.41014,-1.23042 1.99221,-4.19221 2.8,-5 4.42908,-3.08945 12.83769,-13.39581 11,-6.2 -1.22978,4.01663 0.94986,0.73888 -6.04436,8.15736"
       style="opacity:0.98999999;color:#000000;fill:#002255;fill-opacity:1;fill-rule:nonzero;stroke:none;stroke-width:1px;marker:none;visibility:visible;display:inline;overflow:visible;enable-background:accumulate" />
    <path
       style="opacity:0.98999999;color:#000000;fill:#002255;fill-opacity:1;fill-rule:nonzero;stroke:none;stroke-width:1px;marker:none;visibility:visible;display:inline;overflow:visible;enable-background:accumulate"
       d="m 336.68801,546.73497 c 3.33661,-2.78935 0.87508,-6.62225 -0.56358,-10.11543 -0.44696,-1.08524 -2.17104,-3.69757 -3.05133,-4.41004 -4.82666,-2.72493 -13.99006,-11.81523 -11.98741,-5.46846 1.34017,3.5427 -1.03512,0.6517 6.58693,7.19486"
       id="path3215"
       inkscape:connector-curvature="0"
       sodipodi:nodetypes="csccc" />
  </g>
  <g
     inkscape:groupmode="layer"
     id="layer11"
     inkscape:label="main"
     style="display:inline" />
  <path
     style="opacity:0.98999999;color:#000000;fill:#ffb380;fill-opacity:1;fill-rule:nonzero;stroke:none;stroke-width:1px;marker:none;visibility:visible;display:inline;overflow:visible;enable-background:accumulate"
     d="m 154.31496,290.86675 c 2.52028,-1.8581 -3.89308,-10.60913 8.3196,-0.48284 6.21573,5.15384 -2.7541,0.54233 -5.44853,3.83676"
     id="path3221"
     inkscape:connector-curvature="0"
     sodipodi:nodetypes="csc" />
  <path
     style="opacity:0.98999999;color:#000000;fill:#ffb380;fill-opacity:1;fill-rule:nonzero;stroke:none;stroke-width:1px;marker:none;visibility:visible;display:inline;overflow:visible;enable-background:accumulate"
     d="m 165.14999,278.87401 c 0,0 -0.73296,5.86845 1.11128,6.21457 2.55625,0.47974 8.57435,4.22046 8.22634,2.87695 -0.4309,-1.66348 -4.88317,-3.86132 -5.42843,-4.95184"
     id="path3223"
     inkscape:connector-curvature="0"
     sodipodi:nodetypes="cssc" />
  <path
     style="opacity:0.98999999000000005;color:#000000;fill:#f4e3d7;fill-opacity:1;fill-rule:nonzero;stroke:none;stroke-width:1px;marker:none;visibility:visible;display:inline;overflow:visible;enable-background:accumulate"
     d="m 153.15933,283.45427 c 2.57224,0.27163 4.75636,-1.06691 7.07107,-1.83848 0.3331,-0.11103 0.96542,-0.45818 1.13137,-0.70711 0.0784,-0.11767 0,-0.56568 0,-0.42426 0,0.0943 0,0.37712 0,0.28284 0,-0.18402 -0.71422,-1.71128 -0.84853,-1.9799 -0.0632,-0.12649 -0.28284,0 -0.42426,0"
     id="path3225"
     inkscape:connector-curvature="0" />
</svg>
