<?xml version="1.0" encoding="UTF-8" standalone="no"?>
<!-- Created with Inkscape (http://www.inkscape.org/) -->

<svg
   xmlns:dc="http://purl.org/dc/elements/1.1/"
   xmlns:cc="http://creativecommons.org/ns#"
   xmlns:rdf="http://www.w3.org/1999/02/22-rdf-syntax-ns#"
   xmlns:svg="http://www.w3.org/2000/svg"
   xmlns="http://www.w3.org/2000/svg"
   xmlns:sodipodi="http://sodipodi.sourceforge.net/DTD/sodipodi-0.dtd"
   xmlns:inkscape="http://www.inkscape.org/namespaces/inkscape"
   width="184.61897mm"
   height="219.46968mm"
   viewBox="0 0 654.16171 777.64847"
   id="svg2"
   version="1.1"
   inkscape:version="0.91 r13725"
   sodipodi:docname="cock.svg">
  <defs
     id="defs4">
    <inkscape:path-effect
       effect="skeletal"
       id="path-effect3351"
       is_visible="true"
       pattern="M 0,5 C 0,2.24 2.24,0 5,0 7.76,0 10,2.24 10,5 10,7.76 7.76,10 5,10 2.24,10 0,7.76 0,5 Z"
       copytype="single_stretched"
       prop_scale="1"
       scale_y_rel="false"
       spacing="0"
       normal_offset="0"
       tang_offset="0"
       prop_units="false"
       vertical_pattern="false"
       fuse_tolerance="0" />
    <inkscape:path-effect
       effect="skeletal"
       id="path-effect3347"
       is_visible="true"
       pattern="m 108.57143,-37.857143 c 0,-2.76 2.24,-5 5,-5 2.76,0 5,2.24 5,5 0,2.76 -2.24,5 -5,5 -2.76,0 -5,-2.24 -5,-5 z"
       copytype="single_stretched"
       prop_scale="1"
       scale_y_rel="false"
       spacing="0"
       normal_offset="0"
       tang_offset="0"
       prop_units="false"
       vertical_pattern="false"
       fuse_tolerance="0" />
    <inkscape:path-effect
       effect="spiro"
       id="path-effect3345"
       is_visible="true" />
    <inkscape:path-effect
       effect="powerstroke"
       id="path-effect3340"
       is_visible="true"
       offset_points="0,0.5"
       sort_points="true"
       interpolator_type="Linear"
       interpolator_beta="0.2"
       start_linecap_type="zerowidth"
       linejoin_type="round"
       miter_limit="4"
       end_linecap_type="zerowidth"
       cusp_linecap_type="round" />
    <inkscape:path-effect
       effect="spiro"
       id="path-effect3338"
       is_visible="true" />
  </defs>
  <sodipodi:namedview
     id="base"
     pagecolor="#ffffff"
     bordercolor="#666666"
     borderopacity="1.0"
     inkscape:pageopacity="0.0"
     inkscape:pageshadow="2"
     inkscape:zoom="0.49497475"
     inkscape:cx="236.89486"
     inkscape:cy="383.299"
     inkscape:document-units="px"
     inkscape:current-layer="layer2"
     showgrid="false"
     inkscape:window-width="1024"
     inkscape:window-height="547"
     inkscape:window-x="0"
     inkscape:window-y="24"
     inkscape:window-maximized="1"
     fit-margin-top="7"
     fit-margin-left="7"
     fit-margin-right="7"
     fit-margin-bottom="7" />
  <metadata
     id="metadata7">
    <rdf:RDF>
      <cc:Work
         rdf:about="">
        <dc:format>image/svg+xml</dc:format>
        <dc:type
           rdf:resource="http://purl.org/dc/dcmitype/StillImage" />
        <dc:title></dc:title>
      </cc:Work>
    </rdf:RDF>
  </metadata>
  <g
     inkscape:groupmode="layer"
     id="layer2"
     inkscape:label="Calque 2"
     style="display:inline"
     transform="translate(-53.117239,-119.51689)">
    <g
       id="g4977"
       transform="matrix(1.5184288,0,0,1.5184288,604.96422,-278.72296)">
      <g
         id="g4923">
        <g
           id="g4791">
          <g
             id="g4756">
            <path
               style="fill:#ef2929;fill-rule:evenodd;stroke:none;stroke-width:1px;stroke-linecap:butt;stroke-linejoin:miter;stroke-opacity:1"
               d="m -334.04061,343.04059 c 11.79916,-7.89426 26.25707,-15.12712 40.79361,-11.33692 27.96077,4.25138 53.8109,25.55671 59.53614,53.85544 3.49918,13.38467 4.81683,27.19156 6.65056,40.86754 -3.82052,9.3082 -10.49819,16.98808 -15.60288,25.56504 -2.42201,-9.3012 -3.89997,-18.80899 -5.90825,-28.20091 l -20,35.71428 0,-41.42857 c -10.60412,17.52063 -20.1494,33.05193 -39.63755,46.98453 -7.0997,1.91667 -15.31748,3.17851 -22.0348,-0.56253 34.39572,-34.60098 36.65252,-48.84862 40.33768,-74.83289 0.6079,-11.81313 -8.36453,-21.20223 -16.60825,-28.45164 -8.42767,-7.12231 -18.13667,-12.4642 -27.52626,-18.17337 z"
               id="path3421"
               inkscape:connector-curvature="0"
               sodipodi:nodetypes="ccccccccccccc" />
            <path
               style="fill:#ef2929;fill-rule:evenodd;stroke:none;stroke-width:1px;stroke-linecap:butt;stroke-linejoin:miter;stroke-opacity:1"
               d="m -328.41726,363.44251 -0.31727,7.31236 c 5.72814,13.75178 20.34704,20.40145 35.48418,16.45609 9.23955,-4.14527 8.09433,-20.59847 8.09433,-20.59847 0,0 -16.57133,5.98035 -22.04752,6.75909 -10.80713,1.90918 -10.93684,0.0441 -16.86028,-5.30221 z"
               id="path3450"
               inkscape:connector-curvature="0"
               sodipodi:nodetypes="ccccccc" />
            <path
               style="fill:#ef2929;fill-rule:evenodd;stroke:none;stroke-width:1px;stroke-linecap:butt;stroke-linejoin:miter;stroke-opacity:1"
               d="m -305.90793,382.8083 c 0,0 -2.01334,5.32431 -0.88136,7.61525 1.34837,2.72889 4.8005,4.76623 7.84317,4.67711 3.13019,-0.0917 6.14561,-2.60066 7.77327,-5.27599 1.43167,-2.3533 0.97792,-8.20562 0.97792,-8.20562 z"
               id="path3466"
               inkscape:connector-curvature="0"
               sodipodi:nodetypes="cssscc" />
            <path
               inkscape:connector-curvature="0"
               style="fill:#ef2929;fill-rule:evenodd;stroke:none;stroke-width:1px;stroke-linecap:butt;stroke-linejoin:miter;stroke-opacity:1"
               d="m -234.79652,278.60575 a 2.8690845,2.8690845 0 0 0 -2.86832,2.86832 2.8690845,2.8690845 0 0 0 2.86832,2.86964 2.8690845,2.8690845 0 0 0 2.80879,-2.28354 c 3.58711,0.53329 4.60126,6.05771 4.77348,9.25061 -18.59054,14.98925 -32.1966,10.82842 -57.79379,7.98315 -11.91377,0.0888 -24.88696,4.74822 -31.22344,15.42649 -3.95676,6.70603 -0.44606,14.8766 4.04714,20.3508 5.45948,8.37877 15.84674,10.32039 24.48923,13.8177 4.59111,2.16238 9.0467,4.75702 14.00689,6.00389 6.48408,1.01846 13.34961,2.86943 19.79116,0.67607 7.03654,-2.34339 8.704,-11.45486 6.10445,-17.65315 -1.31965,-3.41335 -5.69855,-10.54342 -9.67398,-6.53443 -1.0472,4.88834 -10.05941,7.33658 -9.89359,0.69591 1.3111,-5.64596 9.55955,-1.70498 11.94296,-6.9922 3.27472,-5.37604 -3.70171,-12.48893 -9.30484,-10.63978 -4.32865,2.42806 -8.82539,5.00876 -13.9037,5.38208 -5.24693,2.04621 -9.47439,-4.95488 -4.44008,-8.17632 5.38141,-2.65347 11.49962,-0.89188 17.20465,-0.82821 9.24701,0.68507 18.95023,0.97718 27.62481,-2.88816 7.05887,-3.11954 14.54003,-9.06897 14.7544,-17.43486 -1.44262,-6.31875 -5.79233,-9.50503 -8.92118,-10.60539 a 2.8690845,2.8690845 0 0 0 -2.39336,-1.28862 z"
               id="path3474" />
            <path
               style="fill:#ef2929;fill-rule:evenodd;stroke:none;stroke-width:1px;stroke-linecap:butt;stroke-linejoin:miter;stroke-opacity:1"
               d="m -275.71429,436.64792 -21.42857,27.14286 c 0,0 -21.14398,4.84214 -27.14285,12.85714 -16.46572,21.99959 -27.48104,54.75975 -20.85715,81.42857 10.69337,49.27435 35.7297,61.67974 99.42857,97.14286 8.85162,15.96106 -28.85714,54.28571 -28.85714,54.28571 l 7.14286,4.28572 c 0,0 27.73555,-50.06188 44.57143,-62.85715 8.41794,-6.39763 22.15441,-0.7918 31.42857,4.28572 10.9638,6.00258 24.28571,28.57143 24.28571,28.57143 l 0,31.42857 12.85715,4.28571 -7.14286,-62.85714 c 0,0 23.64877,-11.41629 31.42857,-21.42857 10.25951,-13.20357 3.84995,-34.81151 15.14286,-47.14286 10.64706,-11.6261 42.85714,-20 42.85714,-20 0,0 -26.661919,-1.74502 -40,-1.42857 -22.92992,0.54402 -45.70994,15.24715 -66.57143,5.71428 -19.83828,-9.0653 -30.73212,-32.50322 -38.57143,-52.85714 -9.8094,-25.46907 -8.57143,-81.42857 -8.57143,-81.42857 L -242.85714,452.3622 -250,433.79078 l -20,25.71428 z"
               id="path3491"
               inkscape:connector-curvature="0"
               sodipodi:nodetypes="ccsccccssccccsscsssccccc" />
            <path
               style="fill:#ef2929;fill-rule:evenodd;stroke:none;stroke-width:1px;stroke-linecap:butt;stroke-linejoin:miter;stroke-opacity:1"
               d="m -300.91836,704.97382 33.96059,-5.3368 37.21127,30.11158 -30.66974,-14.31993 -26.52155,15.76755 13.12324,-23.52183 z"
               id="path3521"
               inkscape:connector-curvature="0"
               sodipodi:nodetypes="ccccccc" />
            <path
               inkscape:connector-curvature="0"
               id="path3523"
               d="m -215.2782,727.77573 c 0,0 27.28181,-15.4031 41.95488,-13.98495 20.43137,1.97468 53.60904,30.30074 53.60904,30.30074 0,0 -27.77662,-14.76004 -41.9549,-11.65412 -12.92438,2.83124 -30.30076,25.63909 -30.30076,25.63909 l 11.65415,-32.63159 z"
               style="fill:#ef2929;fill-rule:evenodd;stroke:none;stroke-width:1px;stroke-linecap:butt;stroke-linejoin:miter;stroke-opacity:1"
               sodipodi:nodetypes="cscsccc" />
            <circle
               style="opacity:1;fill:#ffffff;fill-opacity:1;fill-rule:nonzero;stroke:none;stroke-width:3.5;stroke-miterlimit:4;stroke-dasharray:none;stroke-opacity:1"
               id="path4447"
               cx="-293.65674"
               cy="350.30472"
               r="4.9144988" />
            <g
               id="g4731">
              <path
                 sodipodi:nodetypes="cccccc"
                 inkscape:connector-curvature="0"
                 id="path3573"
                 d="m -97.104397,575.27148 c -12.315593,-27.16033 -24.868073,-55.1032 -27.676573,-85.12898 -1.58479,-37.12495 12.14794,-73.97339 34.366664,-103.3638 6.995751,-9.20984 18.804784,-12.31901 29.638694,-14.2843 -37.091496,35.71459 -40.940398,84.36131 -44.168988,130.44022 -0.072,24.32026 3.7475,48.43218 7.840203,72.33686 z"
                 style="fill:#ef2929;fill-rule:evenodd;stroke:none;stroke-width:1px;stroke-linecap:butt;stroke-linejoin:miter;stroke-opacity:1" />
              <path
                 style="fill:#f53725;fill-opacity:1;fill-rule:evenodd;stroke:none;stroke-width:1px;stroke-linecap:butt;stroke-linejoin:miter;stroke-opacity:1"
                 d="m -100.28218,575.07289 c -0.7123,-29.81358 -1.33658,-60.44003 7.821638,-89.17262 13.060913,-34.78773 40.111167,-63.33032 72.054665,-81.69007 10.040489,-5.74025 22.1249077,-3.98329 32.864507,-1.55492 -48.105016,18.3635 -70.672974,61.63017 -91.665757,102.77615 -9.577825,22.355 -15.492707,46.04017 -21.075053,69.64146 z"
                 id="path3578"
                 inkscape:connector-curvature="0"
                 sodipodi:nodetypes="cccccc" />
              <path
                 inkscape:transform-center-y="-52.820207"
                 inkscape:transform-center-x="-64.783821"
                 sodipodi:nodetypes="cccccc"
                 inkscape:connector-curvature="0"
                 id="path3580"
                 d="m -99.779335,574.34311 c 6.110973,-22.69455 12.469768,-45.98392 25.800635,-65.65993 17.631354,-23.38259 44.444191,-38.92448 72.6846832,-45.67794 8.8697307,-2.09963 17.6123298,1.92364 25.1886358,6.1545 -40.457585,3.15176 -67.166268,30.82309 -92.211309,57.24273 -12.225636,14.76168 -21.97918,31.34577 -31.462645,47.94064 z"
                 style="fill:#ef2929;fill-rule:evenodd;stroke:none;stroke-width:1px;stroke-linecap:butt;stroke-linejoin:miter;stroke-opacity:1" />
              <path
                 style="fill:#ef2929;fill-opacity:1;fill-rule:evenodd;stroke:none;stroke-width:1px;stroke-linecap:butt;stroke-linejoin:miter;stroke-opacity:1"
                 d="m -99.175447,573.86846 c 12.85625,-19.67493 26.132776,-39.83834 44.91463,-54.40195 24.020757,-16.75154 54.33429863,-23.19884 83.27583,-20.84886 9.083244,0.75851 16.144275,7.29774 22.032219,13.67212 -39.436203,-9.56743 -73.417323,8.44202 -105.428354,25.77826 -16.205211,10.23546 -30.626452,22.9709 -44.794325,35.80043 z"
                 id="path3590"
                 inkscape:connector-curvature="0"
                 sodipodi:nodetypes="cccccc"
                 inkscape:transform-center-x="-76.639661"
                 inkscape:transform-center-y="-34.86153" />
              <path
                 sodipodi:nodetypes="cccccc"
                 inkscape:connector-curvature="0"
                 id="path4497"
                 d="M -95.178243,576.98847 C -116.12273,555.75912 -137.56,533.87734 -150.57383,506.67302 c -14.31939,-34.2889 -14.1698,-73.61286 -3.47939,-108.87165 3.38116,-11.06027 13.38763,-18.05961 22.87447,-23.64851 -22.4605,46.33397 -9.25739,93.31263 3.64024,137.66734 8.3388,22.84612 20.25715,44.15166 32.360267,65.16827 z"
                 style="fill:#f53725;fill-opacity:1;fill-rule:evenodd;stroke:none;stroke-width:1px;stroke-linecap:butt;stroke-linejoin:miter;stroke-opacity:1" />
              <path
                 style="fill:#f53725;fill-opacity:1;fill-rule:evenodd;stroke:none;stroke-width:1px;stroke-linecap:butt;stroke-linejoin:miter;stroke-opacity:1"
                 d="m -89.326701,578.32644 c -27.412999,-11.74241 -55.528759,-23.90271 -77.856439,-44.17361 -26.21321,-26.33707 -40.93228,-62.80274 -44.35594,-99.48715 -1.04831,-11.51794 5.57193,-21.77916 12.24395,-30.53816 -3.28952,51.3857 26.68465,89.89369 55.38459,126.08765 16.35254,18.00208 35.43724,33.22534 54.583839,48.11127 z"
                 id="path4499"
                 inkscape:connector-curvature="0"
                 sodipodi:nodetypes="cccccc" />
              <path
                 inkscape:transform-center-y="-11.290361"
                 inkscape:transform-center-x="-57.459172"
                 sodipodi:nodetypes="cccccc"
                 inkscape:connector-curvature="0"
                 id="path4501"
                 d="m -100.32146,562.78523 c 13.343036,-9.81831 27.084089,-19.85545 43.078363,-24.83689 19.993143,-5.13338 41.598648,-1.91063 60.1276205,6.78204 5.8101076,2.74202 8.8586935,8.80183 11.1734175,14.46335 -23.6772945,-16.0475 -50.557202,-12.54121 -75.970238,-8.99331 -13.225097,2.75952 -25.889165,7.60984 -38.409163,12.58481 z"
                 style="fill:#ef2929;fill-opacity:1;fill-rule:evenodd;stroke:none;stroke-width:1px;stroke-linecap:butt;stroke-linejoin:miter;stroke-opacity:1" />
            </g>
            <circle
               style="opacity:1;fill:#2e3436;fill-opacity:1;fill-rule:nonzero;stroke:none;stroke-width:3.5;stroke-miterlimit:4;stroke-dasharray:none;stroke-opacity:1"
               id="path4650"
               cx="-294.34985"
               cy="350.42621"
               r="2.793" />
            <g
               id="g4740"
               transform="matrix(0.91432536,0.40498041,-0.40498041,0.91432536,188.50929,91.822356)">
              <path
                 style="fill:#ef2929;fill-rule:evenodd;stroke:none;stroke-width:1px;stroke-linecap:butt;stroke-linejoin:miter;stroke-opacity:1"
                 d="m -97.104397,575.27148 c -12.315593,-27.16033 -24.868073,-55.1032 -27.676573,-85.12898 -1.58479,-37.12495 12.14794,-73.97339 34.366664,-103.3638 6.995751,-9.20984 18.804784,-12.31901 29.638694,-14.2843 -37.091496,35.71459 -40.940398,84.36131 -44.168988,130.44022 -0.072,24.32026 3.7475,48.43218 7.840203,72.33686 z"
                 id="path4742"
                 inkscape:connector-curvature="0"
                 sodipodi:nodetypes="cccccc" />
              <path
                 sodipodi:nodetypes="cccccc"
                 inkscape:connector-curvature="0"
                 id="path4744"
                 d="m -100.28218,575.07289 c -0.7123,-29.81358 -1.33658,-60.44003 7.821638,-89.17262 13.060913,-34.78773 40.111167,-63.33032 72.054665,-81.69007 10.040489,-5.74025 22.1249077,-3.98329 32.864507,-1.55492 -48.105016,18.3635 -70.672974,61.63017 -91.665757,102.77615 -9.577825,22.355 -15.492707,46.04017 -21.075053,69.64146 z"
                 style="fill:#f53725;fill-opacity:1;fill-rule:evenodd;stroke:none;stroke-width:1px;stroke-linecap:butt;stroke-linejoin:miter;stroke-opacity:1" />
              <path
                 style="fill:#ef2929;fill-rule:evenodd;stroke:none;stroke-width:1px;stroke-linecap:butt;stroke-linejoin:miter;stroke-opacity:1"
                 d="m -99.779335,574.34311 c 6.110973,-22.69455 12.469768,-45.98392 25.800635,-65.65993 17.631354,-23.38259 44.444191,-38.92448 72.6846832,-45.67794 8.8697307,-2.09963 17.6123298,1.92364 25.1886358,6.1545 -40.457585,3.15176 -67.166268,30.82309 -92.211309,57.24273 -12.225636,14.76168 -21.97918,31.34577 -31.462645,47.94064 z"
                 id="path4746"
                 inkscape:connector-curvature="0"
                 sodipodi:nodetypes="cccccc"
                 inkscape:transform-center-x="-64.783821"
                 inkscape:transform-center-y="-52.820207" />
              <path
                 inkscape:transform-center-y="-34.86153"
                 inkscape:transform-center-x="-76.639661"
                 sodipodi:nodetypes="cccccc"
                 inkscape:connector-curvature="0"
                 id="path4748"
                 d="m -99.175447,573.86846 c 12.85625,-19.67493 26.132776,-39.83834 44.91463,-54.40195 24.020757,-16.75154 54.33429863,-23.19884 83.27583,-20.84886 9.083244,0.75851 16.144275,7.29774 22.032219,13.67212 -39.436203,-9.56743 -73.417323,8.44202 -105.428354,25.77826 -16.205211,10.23546 -30.626452,22.9709 -44.794325,35.80043 z"
                 style="fill:#ef2929;fill-opacity:1;fill-rule:evenodd;stroke:none;stroke-width:1px;stroke-linecap:butt;stroke-linejoin:miter;stroke-opacity:1" />
              <path
                 style="fill:#f53725;fill-opacity:1;fill-rule:evenodd;stroke:none;stroke-width:1px;stroke-linecap:butt;stroke-linejoin:miter;stroke-opacity:1"
                 d="M -95.178243,576.98847 C -116.12273,555.75912 -137.56,533.87734 -150.57383,506.67302 c -14.31939,-34.2889 -14.1698,-73.61286 -3.47939,-108.87165 3.38116,-11.06027 13.38763,-18.05961 22.87447,-23.64851 -22.4605,46.33397 -9.25739,93.31263 3.64024,137.66734 8.3388,22.84612 20.25715,44.15166 32.360267,65.16827 z"
                 id="path4750"
                 inkscape:connector-curvature="0"
                 sodipodi:nodetypes="cccccc" />
              <path
                 sodipodi:nodetypes="cccccc"
                 inkscape:connector-curvature="0"
                 id="path4752"
                 d="m -89.326701,578.32644 c -27.412999,-11.74241 -55.528759,-23.90271 -77.856439,-44.17361 -26.21321,-26.33707 -40.93228,-62.80274 -44.35594,-99.48715 -1.04831,-11.51794 5.57193,-21.77916 12.24395,-30.53816 -3.28952,51.3857 26.68465,89.89369 55.38459,126.08765 16.35254,18.00208 35.43724,33.22534 54.583839,48.11127 z"
                 style="fill:#f53725;fill-opacity:1;fill-rule:evenodd;stroke:none;stroke-width:1px;stroke-linecap:butt;stroke-linejoin:miter;stroke-opacity:1" />
              <path
                 style="fill:#ef2929;fill-opacity:1;fill-rule:evenodd;stroke:none;stroke-width:1px;stroke-linecap:butt;stroke-linejoin:miter;stroke-opacity:1"
                 d="m -100.32146,562.78523 c 13.343036,-9.81831 27.084089,-19.85545 43.078363,-24.83689 19.993143,-5.13338 41.598648,-1.91063 60.1276205,6.78204 5.8101076,2.74202 8.8586935,8.80183 11.1734175,14.46335 -23.6772945,-16.0475 -50.557202,-12.54121 -75.970238,-8.99331 -13.225097,2.75952 -25.889165,7.60984 -38.409163,12.58481 z"
                 id="path4754"
                 inkscape:connector-curvature="0"
                 sodipodi:nodetypes="cccccc"
                 inkscape:transform-center-x="-57.459172"
                 inkscape:transform-center-y="-11.290361" />
            </g>
          </g>
          <path
             inkscape:connector-curvature="0"
             id="path4785"
             d="m -291.42941,332.36133 a 18.571426,18.571426 0 0 0 -18.57031,18.57226 18.571426,18.571426 0 0 0 18.57031,18.57227 18.571426,18.571426 0 0 0 18.57227,-18.57227 18.571426,18.571426 0 0 0 -18.57227,-18.57226 z m -0.71289,5.71484 a 12.142854,12.142854 0 0 1 12.14258,12.14258 12.142854,12.142854 0 0 1 -12.14258,12.14258 12.142854,12.142854 0 0 1 -12.14257,-12.14258 12.142854,12.142854 0 0 1 12.14257,-12.14258 z"
             style="opacity:1;fill:#fcaf3e;fill-opacity:1;fill-rule:nonzero;stroke:none;stroke-width:3.5;stroke-miterlimit:4;stroke-dasharray:none;stroke-opacity:1" />
        </g>
        <g
           id="g4831"
           transform="matrix(-0.87593105,0.09738932,0.12445785,0.68542348,-905.16536,306.30737)"
           style="fill:#c4a000;fill-opacity:1">
          <path
             id="path4820"
             d="m -710,368.07649 -18.55769,-32.14286 37.11538,0 z"
             inkscape:transform-center-y="5.3571429"
             style="opacity:1;fill:#c4a000;fill-opacity:1;fill-rule:nonzero;stroke:none;stroke-width:3.5;stroke-miterlimit:4;stroke-dasharray:none;stroke-opacity:1"
             inkscape:connector-curvature="0" />
          <path
             inkscape:connector-curvature="0"
             style="opacity:1;fill:#c4a000;fill-opacity:1;fill-rule:nonzero;stroke:none;stroke-width:3.5;stroke-miterlimit:4;stroke-dasharray:none;stroke-opacity:1"
             inkscape:transform-center-y="5.3571429"
             d="m -681.42857,375.21935 -18.55769,-32.14286 37.11538,0 z"
             id="path4825" />
          <path
             id="path4827"
             d="m -652.85714,382.36221 -18.55769,-32.14286 37.11538,0 z"
             inkscape:transform-center-y="5.3571429"
             style="opacity:1;fill:#c4a000;fill-opacity:1;fill-rule:nonzero;stroke:none;stroke-width:3.5;stroke-miterlimit:4;stroke-dasharray:none;stroke-opacity:1"
             inkscape:connector-curvature="0" />
          <path
             inkscape:connector-curvature="0"
             style="opacity:1;fill:#c4a000;fill-opacity:1;fill-rule:nonzero;stroke:none;stroke-width:3.5;stroke-miterlimit:4;stroke-dasharray:none;stroke-opacity:1"
             inkscape:transform-center-y="5.3571429"
             d="m -625.71428,378.0765 -18.55769,-32.14286 37.11538,0 z"
             id="path4829" />
        </g>
      </g>
      <g
         transform="translate(411.42857,-35.714286)"
         id="text4958"
         style="font-style:normal;font-variant:normal;font-weight:normal;font-stretch:normal;font-size:70px;line-height:125%;font-family:MathJax_Caligraphic;-inkscape-font-specification:'MathJax_Caligraphic, Normal';text-align:start;letter-spacing:0px;word-spacing:0px;writing-mode:lr-tb;text-anchor:start;fill:#fce94f;fill-opacity:1;stroke:none;stroke-width:1px;stroke-linecap:butt;stroke-linejoin:miter;stroke-opacity:1">
        <path
           inkscape:connector-curvature="0"
           id="path4969"
           style="fill:#fce94f"
           d="m -725.55191,609.14016 c -0.40702,1.84565 0.67371,3.44594 2.45101,3.83789 1.77729,0.39194 3.34743,-0.55207 3.73938,-2.32937 0.25627,-1.16208 -0.10268,-2.45983 -0.95416,-3.14938 -0.31164,-0.21209 -0.31164,-0.21209 -0.14477,-0.31865 1.58521,-1.01237 3.80176,-1.31206 6.12591,-0.79952 5.81039,1.28136 9.27064,4.76836 8.29078,9.2116 -0.49747,2.2558 -2.16507,3.96682 -5.00983,5.48993 -3.61878,1.7825 -19.28822,7.50223 -19.53045,7.95058 -0.16687,0.10656 -0.27239,0.58507 -0.39299,1.13193 -0.1206,0.54686 -0.2412,1.09372 -0.13463,1.26058 0.11462,0.45537 -0.84238,0.24432 12.6924,3.22914 l 12.37271,2.72854 c 0.16687,-0.10657 0.47045,-0.18299 0.51567,-0.38806 0.16687,-0.10656 3.9421,-8.44931 3.97225,-8.58602 -0.15284,-0.60716 -0.0694,-0.66044 -1.23148,-0.91671 -1.23044,-0.27135 -1.23044,-0.27135 -1.90387,1.15714 -0.75687,1.48177 -0.9991,1.93013 -1.64343,2.57654 l -0.61522,-0.13568 c -0.35686,-0.007 -3.84309,-0.77583 -7.89126,-1.59688 -5.94711,-1.31151 -7.10918,-1.56778 -7.09411,-1.63614 0.0301,-0.13672 8.19561,-2.7086 8.80277,-2.86143 0.38701,-0.1297 1.73805,-0.40521 2.95237,-0.71087 4.74369,-1.03266 8.645,-1.82099 10.5447,-5.55961 0.22716,-0.37999 0.37791,-1.06357 0.54374,-1.8155 0.13567,-0.61522 0.27134,-1.23043 0.29343,-1.65565 -0.0325,-6.02846 -5.20169,-9.89233 -12.58431,-11.52041 -6.08382,-1.34165 -12.9154,-0.26766 -14.16661,5.40601 z" />
        <path
           inkscape:connector-curvature="0"
           id="path4971"
           style="fill:#fce94f"
           d="m -678.17453,610.39335 c -9.80061,-1.6588 -15.1205,4.18537 -16.80266,14.12401 -1.72889,10.21473 1.60296,16.95527 11.81769,18.68416 10.21472,1.72889 15.51016,-3.55145 17.23905,-13.76617 1.81066,-10.69785 -1.62525,-17.24302 -12.25408,-19.042 z m 5.96709,15.91903 -0.24532,1.44938 -0.14018,0.82822 c -1.34339,7.93712 -2.3926,13.29719 -10.12266,11.98884 -1.58742,-0.26868 -2.33494,-0.46619 -3.36915,-1.06721 -3.78004,-2.41468 -3.55273,-5.85499 -2.66492,-11.10039 l 0.56072,-3.31288 c 0.42054,-2.48466 0.85276,-5.03834 1.0386,-5.71684 0.56918,-2.10453 0.99819,-3.38083 1.64486,-4.26532 1.13195,-1.6543 3.80459,-2.76384 6.63434,-2.28489 0.27608,0.0467 0.60949,0.17415 1.09262,0.25592 7.17791,1.2149 6.80935,5.90922 5.57109,13.22517 z" />
        <path
           inkscape:connector-curvature="0"
           id="path4973"
           style="fill:#fce94f"
           d="m -657.97083,617.33402 -0.13426,2.23597 0.45974,0.51849 1.81673,0.1091 c 2.65941,0.0896 5.32302,0.10927 6.82814,-0.43149 l -0.65456,10.90037 c -0.54547,9.08363 -0.65876,10.97024 -0.73703,11.10579 -0.15653,0.2711 -0.52269,0.52962 -0.81057,0.65258 -0.71133,0.16767 -3.09545,0.16475 -5.68079,0.01 -2.23597,-0.13427 -2.23597,-0.13427 -2.33248,1.47283 -0.0839,1.39748 -0.0965,1.60711 0.95161,1.67004 3.07446,0.18463 5.87782,0.21271 10.62926,0.49804 4.75144,0.28532 7.60789,0.5971 10.68235,0.78172 1.04811,0.0629 1.0607,-0.14668 1.14462,-1.54416 0.0965,-1.60711 0.0965,-1.60711 -2.13947,-1.74138 -2.58534,-0.15525 -4.95267,-0.43766 -5.63882,-0.68924 -0.2753,-0.0867 -0.53802,-0.38294 -0.66098,-0.67083 -0.0657,-0.0741 0.0701,-3.50209 0.67426,-13.56397 l 0.80981,-13.48571 c -0.2669,-0.2264 -0.39407,-0.44442 -0.88318,-0.47379 -0.34937,-0.021 -0.42344,0.0447 -1.00342,0.3605 -1.80979,0.94322 -4.02204,1.58176 -6.55849,1.78008 -1.48414,0.19138 -2.60632,0.19412 -4.63687,0.14231 l -1.67698,-0.1007 -0.44862,0.46394 z" />
        <path
           inkscape:connector-curvature="0"
           id="path4975"
           style="fill:#fce94f"
           d="m -627.91148,629.21089 c 0.76214,-0.1097 0.90072,-0.12965 1.01934,-0.28816 0.24723,-0.24775 0.23726,-0.31704 0.31495,-1.74265 0.0767,-2.41555 0.39109,-4.65317 0.64829,-4.83163 0.2572,-0.17847 2.81081,-0.61673 10.83801,-1.84281 7.13646,-1.02716 8.4529,-1.21664 8.39358,-1.13738 0.0499,0.34643 -4.73355,7.89488 -7.56751,14.73842 -2.84341,7.26923 -3.92475,14.497 -3.13537,21.45552 0.18948,1.31643 0.23934,1.66286 0.35849,1.99932 0.64508,1.53374 2.12107,2.45284 3.99179,2.18359 1.66287,-0.23934 2.82972,-1.4681 3.00609,-3.1908 0.0987,-0.29709 0.0189,-0.85138 -0.26032,-2.79139 -0.35901,-2.49429 -0.76839,-5.83 -0.86916,-7.5128 -0.49229,-6.85984 0.13605,-11.83005 1.99263,-16.12839 0.158,-0.37634 2.11431,-3.98182 4.23858,-7.89436 l 3.9819,-7.22092 -0.32909,-2.28644 -0.54483,-0.34591 -8.4529,1.21663 c -8.59146,1.23658 -11.44216,1.57616 -13.26354,1.69687 -1.83135,0.0514 -2.64336,-0.18531 -2.74309,-0.87817 -0.0499,-0.34643 -0.35692,-0.5144 -0.59469,-0.69234 l -0.83144,0.11967 c -0.55428,0.0798 -0.89074,0.19893 -1.02931,0.21887 l -0.23726,0.31704 c -0.10865,0.2278 -0.45048,14.06766 -0.40061,14.41409 0.35692,0.5144 0.29761,0.59366 1.47547,0.42413 z" />
      </g>
    </g>
  </g>
</svg>
