<?xml version="1.0" encoding="UTF-8" standalone="no"?>
<!-- Created with Inkscape (http://www.inkscape.org/) -->

<svg
   xmlns:dc="http://purl.org/dc/elements/1.1/"
   xmlns:cc="http://creativecommons.org/ns#"
   xmlns:rdf="http://www.w3.org/1999/02/22-rdf-syntax-ns#"
   xmlns:svg="http://www.w3.org/2000/svg"
   xmlns="http://www.w3.org/2000/svg"
   xmlns:sodipodi="http://sodipodi.sourceforge.net/DTD/sodipodi-0.dtd"
   xmlns:inkscape="http://www.inkscape.org/namespaces/inkscape"
   width="45.37056mm"
   height="45.685844mm"
   viewBox="0 0 160.76183 161.87898"
   id="svg3406"
   version="1.1"
   inkscape:version="0.91 r13725"
   sodipodi:docname="mill.svg">
  <defs
     id="defs3408" />
  <sodipodi:namedview
     id="base"
     pagecolor="#ffffff"
     bordercolor="#666666"
     borderopacity="1.0"
     inkscape:pageopacity="0.0"
     inkscape:pageshadow="2"
     inkscape:zoom="0.35"
     inkscape:cx="-236.04765"
     inkscape:cy="98.082347"
     inkscape:document-units="px"
     inkscape:current-layer="layer1"
     showgrid="false"
     borderlayer="true"
     inkscape:showpageshadow="false"
     fit-margin-left="3"
     fit-margin-top="3"
     fit-margin-right="3"
     fit-margin-bottom="3"
     inkscape:window-width="1600"
     inkscape:window-height="836"
     inkscape:window-x="0"
     inkscape:window-y="27"
     inkscape:window-maximized="1" />
  <metadata
     id="metadata3411">
    <rdf:RDF>
      <cc:Work
         rdf:about="">
        <dc:format>image/svg+xml</dc:format>
        <dc:type
           rdf:resource="http://purl.org/dc/dcmitype/StillImage" />
        <dc:title></dc:title>
      </cc:Work>
    </rdf:RDF>
  </metadata>
  <g
     inkscape:label="Layer 1"
     inkscape:groupmode="layer"
     id="layer1"
     transform="translate(-96.761939,-468.56557)">
    <path
       style="fill:#4a120f;fill-opacity:1"
       d="m 133.33163,478.95528 a 8.0029181,8.0029181 0 0 0 -8.00195,8.00391 8.0029181,8.0029181 0 0 0 5.2539,7.50976 c 0,0.0141 -0.004,0.0268 -0.004,0.041 0,6.85964 3.22362,6.86133 10.28906,6.86133 l 30.86914,0 c 4.5731,-1e-5 4.57226,0.6705 4.57226,2.2871 0,0.0228 0.007,0.0437 0.008,0.0664 -0.33232,0.0177 -0.63889,0.10751 -0.96875,0.13281 l -1.72461,0 c -20.03646,1.5377 -35.80604,15.97334 -36.09961,36.35938 l -7.625,0 c -3.85556,0 -7.40295,2.596 -8.13281,6.38281 -0.97314,5.03497 2.49436,9.48438 7.7832,9.48438 l 0.26172,0 c 1.25346,0 2.21245,1.11523 2.02734,2.35546 l -4.23633,46.75391 -2.15039,0 c -3.59402,0 -6.90699,2.407 -7.60547,5.93164 -0.94371,4.73586 2.70197,8.92969 7.2793,8.92969 l 104.0293,0 c 4.57733,0 8.22442,-4.19383 7.2832,-8.92969 -0.70097,-3.52464 -4.0129,-5.93164 -7.60937,-5.93164 l -2.15039,0 -4.23243,-46.83789 c -0.17982,-1.19527 0.74463,-2.27148 1.95313,-2.27148 3.4827,0 6.81723,-2.06407 7.875,-5.38282 1.73474,-5.43163 -2.3344,-10.48437 -7.52539,-10.48437 l -7.99219,0 c -0.29357,-20.38588 -16.06146,-34.82152 -36.09766,-36.35938 l 1.1836,0 c -0.32987,-0.0253 -0.63446,-0.11521 -0.9668,-0.13281 0.001,-0.0227 0.006,-0.0435 0.006,-0.0664 0,-3.56473 -1.10502,-6.86132 -9.14453,-6.86132 l -30.86914,0 c -2.15164,0 -5.10149,-10e-5 -5.69141,-0.34766 0.0222,-0.0684 -0.0125,-0.78136 -0.0215,-1.70508 a 8.0029181,8.0029181 0 0 0 6.17969,-7.78515 8.0029181,8.0029181 0 0 0 -8.00391,-8.00391 z m 39.29687,30.12695 a 1.6688759,1.6688759 0 0 1 0.23633,3.32031 c -10.73462,1.76691 -19.8193,8.67331 -24.21875,18.38086 a 1.6688759,1.6688759 0 0 1 -1.71289,0.99219 1.6688759,1.6688759 0 0 1 -1.32617,-2.36914 c 4.86674,-10.73864 14.90223,-18.35254 26.71484,-20.29687 a 1.6688759,1.6688759 0 0 1 0.30664,-0.0273 z m -31.67382,67.97071 72.59961,0 1.71875,22.52148 -76.03516,0 1.7168,-22.52148 z"
       id="path5536"
       inkscape:connector-curvature="0" />
  </g>
</svg>
