<?xml version="1.0" encoding="UTF-8" standalone="no"?>
<svg
   xmlns:dc="http://purl.org/dc/elements/1.1/"
   xmlns:cc="http://creativecommons.org/ns#"
   xmlns:rdf="http://www.w3.org/1999/02/22-rdf-syntax-ns#"
   xmlns:svg="http://www.w3.org/2000/svg"
   xmlns="http://www.w3.org/2000/svg"
   xmlns:xlink="http://www.w3.org/1999/xlink"
   xmlns:sodipodi="http://sodipodi.sourceforge.net/DTD/sodipodi-0.dtd"
   xmlns:inkscape="http://www.inkscape.org/namespaces/inkscape"
   id="svg0"
   viewBox="-2256 0 0 48"
   version="1.0"
   inkscape:version="0.91 r13725"
   width="42"
   height="42"
   sodipodi:docname="Star.svg"
   inkscape:export-filename="/Users/jgillanders/Development/Games/Colibrium/Pictures/Star.png"
   inkscape:export-xdpi="1097.14"
   inkscape:export-ydpi="1097.14">
  <sodipodi:namedview
     pagecolor="#ffffff"
     bordercolor="#666666"
     borderopacity="1"
     objecttolerance="10"
     gridtolerance="10"
     guidetolerance="10"
     inkscape:pageopacity="0"
     inkscape:pageshadow="2"
     inkscape:window-width="1440"
     inkscape:window-height="815"
     id="namedview3021"
     showgrid="false"
     inkscape:zoom="4.0364014"
     inkscape:cx="-55.371194"
     inkscape:cy="24"
     inkscape:window-x="0"
     inkscape:window-y="1"
     inkscape:window-maximized="1"
     inkscape:current-layer="svg0" />
  <defs
     id="defs">
    <linearGradient
       id="G3"
       y2="34.826"
       gradientUnits="userSpaceOnUse"
       x2="24.031"
       y1="7.0243001"
       x1="14.66">
      <stop
         id="s3"
         stop-color="#fcf9fb"
         offset="0" />
      <stop
         id="s4"
         stop-color="#fcf9fb"
         stop-opacity="0"
         offset="1" />
    </linearGradient>
    <radialGradient
       id="R0"
       gradientUnits="userSpaceOnUse"
       cy="22"
       cx="24"
       gradientTransform="matrix(1,-0.2,0.2,1,-3.8,6.8)"
       r="22">
      <stop
         id="s1"
         stop-color="#e6cf00"
         offset="0" />
      <stop
         id="s2"
         stop-color="#fde94a"
         offset="1" />
    </radialGradient>
    <radialGradient
       id="R1"
       gradientUnits="userSpaceOnUse"
       cy="25.531"
       cx="17.312"
       gradientTransform="matrix(2.4,0,0,0.67,-17.1,22.4)"
       r="9.6875">
      <stop
         id="s5"
         stop-opacity=".63"
         offset="0" />
      <stop
         id="s6"
         stop-opacity="0"
         offset="1" />
    </radialGradient>
    <radialGradient
       inkscape:collect="always"
       xlink:href="#R0"
       id="radialGradient3774"
       gradientUnits="userSpaceOnUse"
       gradientTransform="matrix(1,-0.2,0.2,1,-3.8,6.8)"
       cx="24"
       cy="22"
       r="22" />
    <linearGradient
       inkscape:collect="always"
       xlink:href="#G3"
       id="linearGradient3776"
       gradientUnits="userSpaceOnUse"
       x1="14.66"
       y1="7.0243001"
       x2="24.031"
       y2="34.826" />
    <radialGradient
       inkscape:collect="always"
       xlink:href="#R0"
       id="radialGradient3784"
       gradientUnits="userSpaceOnUse"
       gradientTransform="matrix(1,-0.2,0.2,1,-3.8,6.8)"
       cx="24"
       cy="22"
       r="22" />
    <linearGradient
       inkscape:collect="always"
       xlink:href="#G3"
       id="linearGradient3786"
       gradientUnits="userSpaceOnUse"
       x1="14.66"
       y1="7.0243001"
       x2="24.031"
       y2="34.826" />
    <radialGradient
       inkscape:collect="always"
       xlink:href="#R0"
       id="radialGradient3792"
       gradientUnits="userSpaceOnUse"
       gradientTransform="matrix(1,-0.2,0.2,1,-3.8,6.8)"
       cx="24"
       cy="22"
       r="22" />
    <linearGradient
       inkscape:collect="always"
       xlink:href="#G3"
       id="linearGradient3794"
       gradientUnits="userSpaceOnUse"
       x1="14.66"
       y1="7.0243001"
       x2="24.031"
       y2="34.826" />
    <linearGradient
       inkscape:collect="always"
       xlink:href="#G3"
       id="linearGradient3798"
       gradientUnits="userSpaceOnUse"
       x1="14.66"
       y1="7.0243001"
       x2="24.031"
       y2="34.826"
       gradientTransform="matrix(0.84854015,0,0,0.84854015,3.3653884,6)" />
    <radialGradient
       inkscape:collect="always"
       xlink:href="#R0"
       id="radialGradient3801"
       gradientUnits="userSpaceOnUse"
       gradientTransform="matrix(0.84854015,-0.16970803,0.16970803,0.84854015,0.14093583,11.770073)"
       cx="24"
       cy="22"
       r="22" />
    <radialGradient
       spreadMethod="pad"
       gradientUnits="userSpaceOnUse"
       gradientTransform="matrix(1,0,0,0.9552522,0,1.0576716)"
       r="21.801805"
       fy="23.636286"
       fx="37.507408"
       cy="23.636286"
       cx="37.507408"
       id="radialGradient6274"
       xlink:href="#radialGradient6276"
       inkscape:collect="always" />
    <radialGradient
       r="132.35001"
       cy="144.61"
       cx="-152.88"
       spreadMethod="reflect"
       gradientTransform="matrix(0.12673827,-0.0124576,0.01498914,0.15249216,82.50289,-4.1587594)"
       gradientUnits="userSpaceOnUse"
       id="radialGradient6121"
       xlink:href="#radialGradient4788-7"
       inkscape:collect="always" />
    <radialGradient
       r="132.35001"
       cy="144.61"
       cx="-152.88"
       spreadMethod="reflect"
       gradientTransform="matrix(0.12673827,-0.0124576,0.01498914,0.15249216,89.651189,-3.5148194)"
       gradientUnits="userSpaceOnUse"
       id="radialGradient6092"
       xlink:href="#radialGradient4788-7"
       inkscape:collect="always" />
    <filter
       inkscape:label="Black outline"
       inkscape:menu="ABCs"
       inkscape:menu-tooltip="Draws a black outline around"
       id="filter5901"
       style="color-interpolation-filters:sRGB">
      <feGaussianBlur
         result="result0"
         in="SourceAlpha"
         stdDeviation="2"
         id="feGaussianBlur5903" />
      <feComposite
         k4="0"
         k1="0"
         k3="10"
         k2="1"
         in="SourceGraphic"
         operator="arithmetic"
         result="result3"
         id="feComposite5905"
         in2="result0" />
      <feComposite
         result="result4"
         in="result3"
         operator="in"
         id="feComposite5907"
         in2="result3" />
    </filter>
    <filter
       y="-0.25"
       x="-0.25"
       height="1.5"
       width="1.5"
       inkscape:label="Color outline"
       inkscape:menu="Morphology"
       inkscape:menu-tooltip="Draws a colored outline around"
       id="filter5845"
       style="color-interpolation-filters:sRGB">
      <feGaussianBlur
         result="result0"
         in="SourceAlpha"
         stdDeviation="2"
         id="feGaussianBlur5847" />
      <feComposite
         k4="0"
         k1="0"
         k3="10"
         k2="1"
         in="SourceGraphic"
         operator="arithmetic"
         result="result3"
         in2="result0"
         id="feComposite5849" />
      <feComposite
         result="fbSourceGraphic"
         in="result3"
         operator="in"
         in2="result3"
         id="feComposite5851" />
      <feColorMatrix
         id="feColorMatrix5853"
         values="0 0 0 -1 0 0 0 0 -1 0 0 0 0 -1 0 0 0 0 1 0"
         in="fbSourceGraphic"
         result="fbSourceGraphicAlpha" />
      <feGaussianBlur
         result="blur"
         stdDeviation="3"
         in="fbSourceGraphicAlpha"
         id="feGaussianBlur5855" />
      <feColorMatrix
         result="result4"
         values="1 0 0 0 0 0 1 0 0 0 0 0 1 0 0 0 0 0 10 -1 "
         id="feColorMatrix5857" />
      <feFlood
         in="blur"
         flood-color="rgb(154,27,74)"
         result="result1"
         id="feFlood5859" />
      <feComposite
         operator="atop"
         in="result1"
         result="result2"
         in2="result4"
         id="feComposite5861" />
      <feComposite
         operator="atop"
         result="result3"
         in="fbSourceGraphic"
         in2="result2"
         id="feComposite5863" />
    </filter>
    <linearGradient
       y2="34.826"
       x2="24.031"
       y1="7.0243001"
       x1="14.66"
       gradientTransform="matrix(0.99241997,-0.32615258,0.32615258,0.99241997,-0.86446687,9.2956025)"
       gradientUnits="userSpaceOnUse"
       id="linearGradient4270"
       xlink:href="#G3-8"
       inkscape:collect="always" />
    <radialGradient
       r="132.35001"
       cy="144.61"
       cx="-152.88"
       spreadMethod="reflect"
       gradientTransform="matrix(0.12673827,-0.0124576,0.01498914,0.15249216,89.651189,-3.5148194)"
       gradientUnits="userSpaceOnUse"
       id="radialGradient4253"
       xlink:href="#radialGradient4788-7"
       inkscape:collect="always" />
    <linearGradient
       y2="34.826"
       x2="24.031"
       y1="7.0243001"
       x1="14.66"
       gradientTransform="matrix(0.94094149,-0.31674318,0.31674318,0.94094149,0.26590413,9.2844339)"
       gradientUnits="userSpaceOnUse"
       id="linearGradient4223"
       xlink:href="#G3-0"
       inkscape:collect="always" />
    <linearGradient
       y2="34.826"
       x2="24.031"
       y1="7.0243001"
       x1="14.66"
       gradientTransform="matrix(1.7624568,-0.59328468,0.59328468,1.7624568,-34.727536,1.2659857)"
       gradientUnits="userSpaceOnUse"
       id="linearGradient4216"
       xlink:href="#G3-0"
       inkscape:collect="always" />
    <radialGradient
       r="132.35001"
       cy="144.61"
       cx="-152.88"
       spreadMethod="reflect"
       gradientTransform="matrix(0.23739067,-0.02333405,0.02807583,0.28562971,136.44423,-22.708014)"
       gradientUnits="userSpaceOnUse"
       id="radialGradient4214"
       xlink:href="#radialGradient4788-7"
       inkscape:collect="always" />
    <linearGradient
       y2="34.826"
       x2="24.031"
       y1="7.0243001"
       x1="14.66"
       gradientTransform="matrix(1.85888,-0.61090922,0.61090922,1.85888,-40.590966,1.2869053)"
       gradientUnits="userSpaceOnUse"
       id="linearGradient4212"
       xlink:href="#G3-8"
       inkscape:collect="always" />
    <radialGradient
       r="22"
       fy="32.797306"
       fx="28.935429"
       cy="32.797306"
       cx="28.935429"
       gradientTransform="matrix(1,-0.2,0.2,1,78.2,6.8)"
       gradientUnits="userSpaceOnUse"
       id="radialGradient4210"
       xlink:href="#R0-45-7-7"
       inkscape:collect="always" />
    <radialGradient
       r="132.35001"
       cy="144.61"
       cx="-152.88"
       spreadMethod="reflect"
       gradientTransform="matrix(0.23739067,-0.02333405,0.02807583,0.28562971,136.44423,-22.708014)"
       gradientUnits="userSpaceOnUse"
       id="radialGradient4139"
       xlink:href="#radialGradient4788-7"
       inkscape:collect="always" />
    <linearGradient
       y2="34.826"
       x2="24.031"
       y1="7.0243001"
       x1="14.66"
       gradientTransform="matrix(1.7624568,-0.59328468,0.59328468,1.7624568,-34.727536,1.2659857)"
       gradientUnits="userSpaceOnUse"
       id="linearGradient3339"
       xlink:href="#G3-0"
       inkscape:collect="always" />
    <radialGradient
       r="22"
       fy="32.797306"
       fx="28.935429"
       cy="32.797306"
       cx="28.935429"
       gradientTransform="matrix(1,-0.2,0.2,1,78.2,6.8)"
       gradientUnits="userSpaceOnUse"
       id="radialGradient3317"
       xlink:href="#R0-45-7-7"
       inkscape:collect="always" />
    <radialGradient
       r="132.35001"
       cy="144.61"
       cx="-152.88"
       spreadMethod="reflect"
       gradientTransform="matrix(0.58931019,-0.18294608,0.22012214,0.70906106,175.78936,-55.968366)"
       gradientUnits="userSpaceOnUse"
       id="radialGradient3476"
       xlink:href="#radialGradient4788-7"
       inkscape:collect="always" />
    <linearGradient
       y2="34.826"
       x2="24.031"
       y1="7.0243001"
       x1="14.66"
       gradientTransform="matrix(1.85888,-0.61090922,0.61090922,1.85888,-40.590966,1.2869053)"
       gradientUnits="userSpaceOnUse"
       id="linearGradient3474"
       xlink:href="#G3-8"
       inkscape:collect="always" />
    <radialGradient
       r="132.35001"
       cy="144.61"
       cx="-152.88"
       spreadMethod="reflect"
       gradientTransform="matrix(0.58931019,-0.18294608,0.22012214,0.70906106,175.78936,-55.968366)"
       gradientUnits="userSpaceOnUse"
       id="radialGradient3417"
       xlink:href="#radialGradient4788-7"
       inkscape:collect="always" />
    <clipPath
       id="clipPath4689-5"
       clipPathUnits="userSpaceOnUse">
      <path
         style="fill:#2b0000"
         inkscape:connector-curvature="0"
         id="path4351-2"
         d="m -242.99,334.54 c -0.62195,-0.005 -1.2558,0.0129 -1.8801,0.0283 -21.458,0.21899 -41.149,11.965 -55.072,27.366 -0.36758,0.41829 -0.77675,0.80014 -1.2148,1.1308 -2.6771,2.0209 -6.4699,2.2928 -8.9376,-0.50887 -0.42115,-0.31848 -0.84269,-0.62405 -1.2726,-0.93292 -13.209,-9.4885 -30.5,-14.352 -46.539,-9.5837 -2.1524,0.53875 -4.255,1.1968 -6.3055,1.9789 -10.159,3.8751 -19.02,10.609 -26.09,18.828 -4.1598,4.1647 -7.7942,8.7907 -10.847,13.739 -9.0515,14.675 -13.007,32.241 -10.528,49.388 0.72801,5.5296 2.3892,10.684 4.6857,15.577 6.643,14.155 18.652,25.985 29.185,37.373 3.0301,2.9749 6.1229,5.9003 9.2558,8.7638 26.269,24.011 55.86,44.409 83.678,66.577 2.288,1.4653 5.4212,5.5525 6.0162,0.59369 0.0111,-0.0286 0.0178,-0.0562 0.0289,-0.0848 1.0744,-2.7648 2.2237,-5.5064 3.4131,-8.2267 10.307,-23.574 24.894,-45.372 43.213,-63.722 1.4736,-1.6072 2.9628,-3.2062 4.4833,-4.7777 15.613,-16.136 33.324,-30.678 45.411,-49.615 1.3919,-2.3264 2.6065,-4.7237 3.6155,-7.1807 8.117,-19.765 4.1599,-43.204 -6.479,-61.432 -2.2951,-3.8617 -4.9701,-7.562 -7.9831,-10.997 -12.471,-14.218 -30.556,-24.125 -49.836,-24.284 z m -8.3012,18.63 c 16.665,0.13189 32.318,8.3319 43.097,20.1 2.6043,2.8434 4.9003,5.9066 6.884,9.1031 9.1957,15.087 12.598,34.471 5.5824,50.83 -0.87215,2.0337 -1.8918,4.0394 -3.0949,5.965 -10.448,15.674 -25.756,27.693 -39.25,41.049 -1.3142,1.3007 -2.6021,2.6276 -3.8758,3.9579 -15.834,15.188 -28.461,33.24 -37.37,52.753 -1.028,2.2516 -1.9927,4.5247 -2.9213,6.8132 -0.01,0.0236 -0.0193,0.0329 -0.0289,0.0565 -0.51434,4.1045 -3.2288,0.73225 -5.2064,-0.4806 -24.044,-18.349 -49.634,-35.253 -72.34,-55.127 -2.7079,-2.3702 -5.364,-4.7748 -7.9831,-7.2372 -9.1035,-9.4264 -19.48,-19.212 -25.222,-30.928 -1.985,-4.0504 -3.4202,-8.3426 -4.0494,-12.92 -2.1419,-14.193 1.2586,-28.732 9.0822,-40.879 2.6383,-4.0962 5.8049,-7.9176 9.4004,-11.365 6.1108,-6.8034 13.751,-12.369 22.532,-15.577 1.7724,-0.64739 3.6063,-1.1938 5.4667,-1.6397 13.863,-3.9469 28.787,0.0902 40.205,7.944 0.37165,0.25564 0.73512,0.49967 1.0991,0.76328 2.1329,2.319 5.4088,2.0968 7.7228,0.42407 0.37865,-0.27372 0.75251,-0.58671 1.0702,-0.93294 12.034,-12.748 29.033,-22.463 47.58,-22.645 0.5396,-0.0127 1.0822,-0.0325 1.6198,-0.0283 z" />
    </clipPath>
    <radialGradient
       id="radialGradient4788-7"
       spreadMethod="reflect"
       gradientUnits="userSpaceOnUse"
       cy="144.61"
       cx="-152.88"
       gradientTransform="matrix(0.86361,-0.2681,0.32258,1.0391,-62.62,-50.49)"
       r="132.35001">
      <stop
         id="stop2768-6"
         stop-color="#ff1200"
         offset="0" />
      <stop
         id="stop4694-1"
         stop-color="#e20a00"
         offset=".5" />
      <stop
         id="stop2770-4"
         stop-color="#8d0200"
         offset="1" />
    </radialGradient>
    <radialGradient
       inkscape:collect="always"
       xlink:href="#radialGradient4788-7"
       id="radialGradient4410"
       gradientUnits="userSpaceOnUse"
       gradientTransform="matrix(0.86361,-0.2681,0.32258,1.0391,-62.62,-50.49)"
       spreadMethod="reflect"
       cx="-152.88"
       cy="144.61"
       r="132.35001" />
    <linearGradient
       id="G3-0"
       y2="34.826"
       gradientUnits="userSpaceOnUse"
       x2="24.031"
       y1="7.0243001"
       x1="14.66">
      <stop
         id="s3-9"
         stop-color="#fcf9fb"
         offset="0" />
      <stop
         id="s4-4"
         stop-color="#fcf9fb"
         stop-opacity="0"
         offset="1" />
    </linearGradient>
    <radialGradient
       id="R0-8"
       gradientUnits="userSpaceOnUse"
       cy="22"
       cx="24"
       gradientTransform="matrix(1,-0.2,0.2,1,-3.8,6.8)"
       r="22">
      <stop
         id="s1-82"
         stop-color="#e6cf00"
         offset="0" />
      <stop
         id="s2-4"
         stop-color="#fde94a"
         offset="1" />
    </radialGradient>
    <radialGradient
       id="R1-5"
       gradientUnits="userSpaceOnUse"
       cy="25.531"
       cx="17.312"
       gradientTransform="matrix(2.4,0,0,0.67,-17.1,22.4)"
       r="9.6875">
      <stop
         id="s5-5"
         stop-opacity=".63"
         offset="0" />
      <stop
         id="s6-1"
         stop-opacity="0"
         offset="1" />
    </radialGradient>
    <radialGradient
       inkscape:collect="always"
       xlink:href="#R0-8"
       id="radialGradient3774-8"
       gradientUnits="userSpaceOnUse"
       gradientTransform="matrix(1,-0.2,0.2,1,-3.8,6.8)"
       cx="24"
       cy="22"
       r="22" />
    <linearGradient
       inkscape:collect="always"
       xlink:href="#G3-0"
       id="linearGradient3776-3"
       gradientUnits="userSpaceOnUse"
       x1="14.66"
       y1="7.0243001"
       x2="24.031"
       y2="34.826" />
    <radialGradient
       inkscape:collect="always"
       xlink:href="#R0-8"
       id="radialGradient3784-2"
       gradientUnits="userSpaceOnUse"
       gradientTransform="matrix(1,-0.2,0.2,1,-3.8,6.8)"
       cx="24"
       cy="22"
       r="22" />
    <linearGradient
       inkscape:collect="always"
       xlink:href="#G3-0"
       id="linearGradient3786-6"
       gradientUnits="userSpaceOnUse"
       x1="14.66"
       y1="7.0243001"
       x2="24.031"
       y2="34.826" />
    <radialGradient
       inkscape:collect="always"
       xlink:href="#R0-8"
       id="radialGradient3792-6"
       gradientUnits="userSpaceOnUse"
       gradientTransform="matrix(1,-0.2,0.2,1,-3.8,6.8)"
       cx="24"
       cy="22"
       r="22" />
    <linearGradient
       inkscape:collect="always"
       xlink:href="#G3-0"
       id="linearGradient3794-8"
       gradientUnits="userSpaceOnUse"
       x1="14.66"
       y1="7.0243001"
       x2="24.031"
       y2="34.826" />
    <linearGradient
       inkscape:collect="always"
       xlink:href="#G3-0"
       id="linearGradient3798-9"
       gradientUnits="userSpaceOnUse"
       x1="14.66"
       y1="7.0243001"
       x2="24.031"
       y2="34.826"
       gradientTransform="matrix(0.84854015,0,0,0.84854015,3.3653884,6)" />
    <radialGradient
       inkscape:collect="always"
       xlink:href="#R0-8"
       id="radialGradient3801-6"
       gradientUnits="userSpaceOnUse"
       gradientTransform="matrix(0.84854015,-0.16970803,0.16970803,0.84854015,0.14093583,11.770073)"
       cx="24"
       cy="22"
       r="22" />
    <linearGradient
       gradientTransform="matrix(1.85888,-0.61090922,0.61090922,1.85888,-40.590966,1.2869053)"
       y2="34.826"
       x2="24.031"
       y1="7.0243001"
       x1="14.66"
       gradientUnits="userSpaceOnUse"
       id="linearGradient5020"
       xlink:href="#G3-8"
       inkscape:collect="always" />
    <linearGradient
       id="G3-8"
       y2="34.826"
       gradientUnits="userSpaceOnUse"
       x2="24.031"
       y1="7.0243001"
       x1="14.66">
      <stop
         id="s3-8"
         stop-color="#fcf9fb"
         offset="0" />
      <stop
         id="s4-2"
         stop-color="#fcf9fb"
         stop-opacity="0"
         offset="1" />
    </linearGradient>
    <radialGradient
       id="R0-7"
       gradientUnits="userSpaceOnUse"
       cy="22"
       cx="24"
       gradientTransform="matrix(1,-0.2,0.2,1,-3.8,6.8)"
       r="22">
      <stop
         id="s1-7"
         stop-color="#e6cf00"
         offset="0" />
      <stop
         id="s2-12"
         stop-color="#fde94a"
         offset="1" />
    </radialGradient>
    <radialGradient
       id="R1-6"
       gradientUnits="userSpaceOnUse"
       cy="25.531"
       cx="17.312"
       gradientTransform="matrix(2.4,0,0,0.67,-17.1,22.4)"
       r="9.6875">
      <stop
         id="s5-0"
         stop-opacity=".63"
         offset="0" />
      <stop
         id="s6-4"
         stop-opacity="0"
         offset="1" />
    </radialGradient>
    <clipPath
       id="clipPath4689"
       clipPathUnits="userSpaceOnUse">
      <path
         style="fill:#2b0000"
         inkscape:connector-curvature="0"
         id="path4351"
         d="m -242.99,334.54 c -0.62195,-0.005 -1.2558,0.0129 -1.8801,0.0283 -21.458,0.21899 -41.149,11.965 -55.072,27.366 -0.36758,0.41829 -0.77675,0.80014 -1.2148,1.1308 -2.6771,2.0209 -6.4699,2.2928 -8.9376,-0.50887 -0.42115,-0.31848 -0.84269,-0.62405 -1.2726,-0.93292 -13.209,-9.4885 -30.5,-14.352 -46.539,-9.5837 -2.1524,0.53875 -4.255,1.1968 -6.3055,1.9789 -10.159,3.8751 -19.02,10.609 -26.09,18.828 -4.1598,4.1647 -7.7942,8.7907 -10.847,13.739 -9.0515,14.675 -13.007,32.241 -10.528,49.388 0.72801,5.5296 2.3892,10.684 4.6857,15.577 6.643,14.155 18.652,25.985 29.185,37.373 3.0301,2.9749 6.1229,5.9003 9.2558,8.7638 26.269,24.011 55.86,44.409 83.678,66.577 2.288,1.4653 5.4212,5.5525 6.0162,0.59369 0.0111,-0.0286 0.0178,-0.0562 0.0289,-0.0848 1.0744,-2.7648 2.2237,-5.5064 3.4131,-8.2267 10.307,-23.574 24.894,-45.372 43.213,-63.722 1.4736,-1.6072 2.9628,-3.2062 4.4833,-4.7777 15.613,-16.136 33.324,-30.678 45.411,-49.615 1.3919,-2.3264 2.6065,-4.7237 3.6155,-7.1807 8.117,-19.765 4.1599,-43.204 -6.479,-61.432 -2.2951,-3.8617 -4.9701,-7.562 -7.9831,-10.997 -12.471,-14.218 -30.556,-24.125 -49.836,-24.284 z m -8.3012,18.63 c 16.665,0.13189 32.318,8.3319 43.097,20.1 2.6043,2.8434 4.9003,5.9066 6.884,9.1031 9.1957,15.087 12.598,34.471 5.5824,50.83 -0.87215,2.0337 -1.8918,4.0394 -3.0949,5.965 -10.448,15.674 -25.756,27.693 -39.25,41.049 -1.3142,1.3007 -2.6021,2.6276 -3.8758,3.9579 -15.834,15.188 -28.461,33.24 -37.37,52.753 -1.028,2.2516 -1.9927,4.5247 -2.9213,6.8132 -0.01,0.0236 -0.0193,0.0329 -0.0289,0.0565 -0.51434,4.1045 -3.2288,0.73225 -5.2064,-0.4806 -24.044,-18.349 -49.634,-35.253 -72.34,-55.127 -2.7079,-2.3702 -5.364,-4.7748 -7.9831,-7.2372 -9.1035,-9.4264 -19.48,-19.212 -25.222,-30.928 -1.985,-4.0504 -3.4202,-8.3426 -4.0494,-12.92 -2.1419,-14.193 1.2586,-28.732 9.0822,-40.879 2.6383,-4.0962 5.8049,-7.9176 9.4004,-11.365 6.1108,-6.8034 13.751,-12.369 22.532,-15.577 1.7724,-0.64739 3.6063,-1.1938 5.4667,-1.6397 13.863,-3.9469 28.787,0.0902 40.205,7.944 0.37165,0.25564 0.73512,0.49967 1.0991,0.76328 2.1329,2.319 5.4088,2.0968 7.7228,0.42407 0.37865,-0.27372 0.75251,-0.58671 1.0702,-0.93294 12.034,-12.748 29.033,-22.463 47.58,-22.645 0.5396,-0.0127 1.0822,-0.0325 1.6198,-0.0283 z" />
    </clipPath>
    <radialGradient
       id="radialGradient4788"
       spreadMethod="reflect"
       gradientUnits="userSpaceOnUse"
       cy="144.61"
       cx="-152.88"
       gradientTransform="matrix(0.86361,-0.2681,0.32258,1.0391,-62.62,-50.49)"
       r="132.35001">
      <stop
         id="stop2768"
         stop-color="#ff1200"
         offset="0" />
      <stop
         id="stop4694"
         stop-color="#e20a00"
         offset=".5" />
      <stop
         id="stop2770"
         stop-color="#8d0200"
         offset="1" />
    </radialGradient>
    <filter
       x="-0.25"
       y="-0.25"
       width="1.5"
       height="1.5"
       inkscape:menu-tooltip="Draws a colored outline around"
       inkscape:menu="Morphology"
       inkscape:label="Color outline"
       id="filter4779"
       style="color-interpolation-filters:sRGB">
      <feColorMatrix
         result="result2"
         values="1"
         type="saturate"
         id="feColorMatrix4781" />
      <feColorMatrix
         in="result2"
         type="hueRotate"
         values="50"
         result="result1"
         id="feColorMatrix4783" />
      <feColorMatrix
         type="matrix"
         values="1 -1 1 0 0 0 1 0 0 0 1 -1 1 0 0 0 0 0 1 0 "
         id="feColorMatrix4785" />
      <feColorMatrix
         result="fbSourceGraphic"
         type="hueRotate"
         values="300"
         id="feColorMatrix4787" />
      <feColorMatrix
         id="feColorMatrix5501"
         values="0 0 0 -1 0 0 0 0 -1 0 0 0 0 -1 0 0 0 0 1 0"
         in="fbSourceGraphic"
         result="fbSourceGraphicAlpha" />
      <feGaussianBlur
         result="result0"
         in="fbSourceGraphicAlpha"
         stdDeviation="2"
         id="feGaussianBlur5503" />
      <feComposite
         k4="0"
         k1="0"
         k3="10"
         k2="1"
         in="fbSourceGraphic"
         operator="arithmetic"
         result="result3"
         in2="result0"
         id="feComposite5505" />
      <feComposite
         result="fbSourceGraphic"
         in="result3"
         operator="in"
         in2="result3"
         id="feComposite5507" />
      <feColorMatrix
         id="feColorMatrix5551"
         values="0 0 0 -1 0 0 0 0 -1 0 0 0 0 -1 0 0 0 0 1 0"
         in="fbSourceGraphic"
         result="fbSourceGraphicAlpha" />
      <feGaussianBlur
         result="blur"
         stdDeviation="3"
         in="fbSourceGraphicAlpha"
         id="feGaussianBlur5553" />
      <feColorMatrix
         result="result4"
         values="1 0 0 0 0 0 1 0 0 0 0 0 1 0 0 0 0 0 10 -1 "
         id="feColorMatrix5555" />
      <feFlood
         in="blur"
         flood-color="rgb(154,27,74)"
         result="result1"
         id="feFlood5557" />
      <feComposite
         operator="atop"
         in="result1"
         result="result2"
         in2="result4"
         id="feComposite5559" />
      <feComposite
         operator="atop"
         result="result3"
         in="fbSourceGraphic"
         in2="result2"
         id="feComposite5561" />
    </filter>
    <radialGradient
       r="22"
       fy="32.797306"
       fx="28.935429"
       cy="32.797306"
       cx="28.935429"
       gradientTransform="matrix(1,-0.2,0.2,1,78.2,6.8)"
       gradientUnits="userSpaceOnUse"
       id="radialGradient3037"
       xlink:href="#R0-45-7-7"
       inkscape:collect="always" />
    <radialGradient
       r="22"
       fy="32.797306"
       fx="28.935429"
       cy="32.797306"
       cx="28.935429"
       gradientTransform="matrix(1,-0.2,0.2,1,78.2,6.8)"
       gradientUnits="userSpaceOnUse"
       id="radialGradient3067"
       xlink:href="#R0-45-7-7"
       inkscape:collect="always" />
    <radialGradient
       r="22"
       fy="32.797306"
       fx="28.935429"
       cy="32.797306"
       cx="28.935429"
       gradientTransform="matrix(1,-0.2,0.2,1,78.2,6.8)"
       gradientUnits="userSpaceOnUse"
       id="radialGradient3059"
       xlink:href="#R0-45-7-7"
       inkscape:collect="always" />
    <radialGradient
       fy="32.797306"
       fx="28.935429"
       r="22"
       gradientTransform="matrix(1,-0.2,0.2,1,-3.8,6.8)"
       cx="28.935429"
       cy="32.797306"
       gradientUnits="userSpaceOnUse"
       id="R0-45-38-7">
      <stop
         offset="0"
         stop-color="#e6cf00"
         id="s1-5-7-7" />
      <stop
         offset="1"
         stop-color="#fde94a"
         id="s2-1-4-9" />
    </radialGradient>
    <radialGradient
       r="22"
       fy="32.797306"
       fx="28.935429"
       cy="32.797306"
       cx="28.935429"
       gradientTransform="matrix(1,-0.2,0.2,1,78.2,6.8)"
       gradientUnits="userSpaceOnUse"
       id="radialGradient4168"
       xlink:href="#R0-45-7-7"
       inkscape:collect="always" />
    <radialGradient
       fy="32.797306"
       fx="28.935429"
       r="22"
       gradientTransform="matrix(1,-0.2,0.2,1,-3.8,6.8)"
       cx="28.935429"
       cy="32.797306"
       gradientUnits="userSpaceOnUse"
       id="R0-45-38">
      <stop
         offset="0"
         stop-color="#e6cf00"
         id="s1-5-7" />
      <stop
         offset="1"
         stop-color="#fde94a"
         id="s2-1-4" />
    </radialGradient>
    <radialGradient
       fy="32.797306"
       fx="28.935429"
       r="22"
       gradientTransform="matrix(1,-0.2,0.2,1,-3.8,6.8)"
       cx="28.935429"
       cy="32.797306"
       gradientUnits="userSpaceOnUse"
       id="R0-45-3">
      <stop
         offset="0"
         stop-color="#e6cf00"
         id="s1-5-1" />
      <stop
         offset="1"
         stop-color="#fde94a"
         id="s2-1-2" />
    </radialGradient>
    <radialGradient
       r="22"
       fy="32.797306"
       fx="28.935429"
       cy="32.797306"
       cx="28.935429"
       gradientTransform="matrix(1,-0.2,0.2,1,78.2,6.8)"
       gradientUnits="userSpaceOnUse"
       id="radialGradient4065-4"
       xlink:href="#R0-45-3"
       inkscape:collect="always" />
    <radialGradient
       fy="32.797306"
       fx="28.935429"
       r="22"
       gradientTransform="matrix(1,-0.2,0.2,1,-3.8,6.8)"
       cx="28.935429"
       cy="32.797306"
       gradientUnits="userSpaceOnUse"
       id="R0-45-7-7">
      <stop
         style="stop-color:#e6d800;stop-opacity:1;"
         offset="0"
         stop-color="#e6cf00"
         id="s1-5-6-9" />
      <stop
         style="stop-color:#fdf24b;stop-opacity:1;"
         offset="1"
         stop-color="#fde94a"
         id="s2-1-1-5" />
    </radialGradient>
    <radialGradient
       r="22"
       fy="32.797306"
       fx="28.935429"
       cy="32.797306"
       cx="28.935429"
       gradientTransform="matrix(1,-0.2,0.2,1,78.2,6.8)"
       gradientUnits="userSpaceOnUse"
       id="radialGradient3986-5-2"
       xlink:href="#R0-45-7-7"
       inkscape:collect="always" />
    <radialGradient
       inkscape:collect="always"
       xlink:href="#R0-45-7"
       id="radialGradient4007"
       gradientUnits="userSpaceOnUse"
       gradientTransform="matrix(1,-0.2,0.2,1,78.2,6.8)"
       cx="28.935429"
       cy="32.797306"
       fx="28.935429"
       fy="32.797306"
       r="22" />
    <radialGradient
       fy="32.797306"
       fx="28.935429"
       r="22"
       gradientTransform="matrix(1,-0.2,0.2,1,-3.8,6.8)"
       cx="28.935429"
       cy="32.797306"
       gradientUnits="userSpaceOnUse"
       id="R0-45-7">
      <stop
         offset="0"
         stop-color="#e6cf00"
         id="s1-5-6" />
      <stop
         offset="1"
         stop-color="#fde94a"
         id="s2-1-1" />
    </radialGradient>
    <radialGradient
       fy="32.797306"
       fx="28.935429"
       r="22"
       gradientTransform="matrix(1,-0.2,0.2,1,-3.8,6.8)"
       cx="28.935429"
       cy="32.797306"
       gradientUnits="userSpaceOnUse"
       id="R0-45">
      <stop
         offset="0"
         stop-color="#e6cf00"
         id="s1-5" />
      <stop
         offset="1"
         stop-color="#fde94a"
         id="s2-1" />
    </radialGradient>
    <radialGradient
       fy="32.797306"
       fx="28.935429"
       r="22"
       gradientTransform="matrix(1,-0.2,0.2,1,-3.8,6.8)"
       cx="28.935429"
       cy="32.797306"
       gradientUnits="userSpaceOnUse"
       id="R0-4">
      <stop
         offset="0"
         stop-color="#e6cf00"
         id="s1-8" />
      <stop
         offset="1"
         stop-color="#fde94a"
         id="s2-8" />
    </radialGradient>
    <radialGradient
       r="22"
       fy="32.797306"
       fx="28.935429"
       cy="32.797306"
       cx="28.935429"
       gradientTransform="matrix(1,-0.2,0.2,1,78.2,6.8)"
       gradientUnits="userSpaceOnUse"
       id="radialGradient3011"
       xlink:href="#R0-2"
       inkscape:collect="always" />
    <linearGradient
       gradientTransform="matrix(0.31170768,-0.14537193,0.14537193,0.31170768,6.4885602,16.345336)"
       y2="34.826"
       x2="24.031"
       y1="7.0243001"
       x1="14.66"
       gradientUnits="userSpaceOnUse"
       id="linearGradient2995"
       xlink:href="#G3-2"
       inkscape:collect="always" />
    <radialGradient
       r="9.6875"
       gradientTransform="matrix(2.4,0,0,0.67,-17.1,22.4)"
       cx="17.312"
       cy="25.531"
       gradientUnits="userSpaceOnUse"
       id="R1-8">
      <stop
         offset="0"
         stop-opacity=".63"
         id="s5-3" />
      <stop
         offset="1"
         stop-opacity="0"
         id="s6-8" />
    </radialGradient>
    <radialGradient
       fy="32.797306"
       fx="28.935429"
       r="22"
       gradientTransform="matrix(1,-0.2,0.2,1,-3.8,6.8)"
       cx="28.935429"
       cy="32.797306"
       gradientUnits="userSpaceOnUse"
       id="R0-2">
      <stop
         offset="0"
         stop-color="#e6cf00"
         id="s1-9" />
      <stop
         offset="1"
         stop-color="#fde94a"
         id="s2-9" />
    </radialGradient>
    <linearGradient
       x1="14.66"
       y1="7.0243001"
       x2="24.031"
       gradientUnits="userSpaceOnUse"
       y2="34.826"
       id="G3-2">
      <stop
         offset="0"
         stop-color="#fcf9fb"
         id="s3-4" />
      <stop
         offset="1"
         stop-opacity="0"
         stop-color="#fcf9fb"
         id="s4-5" />
    </linearGradient>
    <radialGradient
       r="132.35001"
       gradientTransform="matrix(0.86361,-0.2681,0.32258,1.0391,-62.62,-50.49)"
       cx="-152.88"
       cy="144.61"
       gradientUnits="userSpaceOnUse"
       spreadMethod="reflect"
       id="radialGradient6276">
      <stop
         style="stop-color:#feef00;stop-opacity:1;"
         id="stop6284"
         stop-color="#ff1200"
         offset="0" />
      <stop
         style="stop-color:#feef00;stop-opacity:1;"
         offset="0.5"
         stop-color="#e20a00"
         id="stop6280" />
      <stop
         style="stop-color:#f8d800;stop-opacity:1;"
         offset="1"
         stop-color="#8d0200"
         id="stop6282" />
    </radialGradient>
    <radialGradient
       inkscape:collect="always"
       xlink:href="#radialGradient6276"
       id="radialGradient8516"
       gradientUnits="userSpaceOnUse"
       gradientTransform="matrix(1,0,0,0.9552522,0,1.0576716)"
       spreadMethod="pad"
       cx="37.507408"
       cy="23.636286"
       fx="37.507408"
       fy="23.636286"
       r="21.801805" />
    <radialGradient
       inkscape:collect="always"
       xlink:href="#radialGradient6276"
       id="radialGradient8545"
       gradientUnits="userSpaceOnUse"
       gradientTransform="matrix(0.88899691,0.13064599,-0.12479987,0.84921625,-7.4057696,0.37570722)"
       spreadMethod="pad"
       cx="37.507408"
       cy="23.636286"
       fx="37.507408"
       fy="23.636286"
       r="21.801805" />
    <radialGradient
       inkscape:collect="always"
       xlink:href="#radialGradient6276"
       id="radialGradient3961"
       gradientUnits="userSpaceOnUse"
       gradientTransform="matrix(0.88899691,0.13064599,-0.12479987,0.84921625,-10.111277,-4.0629697)"
       spreadMethod="pad"
       cx="37.507408"
       cy="23.636286"
       fx="37.507408"
       fy="23.636286"
       r="21.801805" />
  </defs>
  <metadata
     id="metadata3019">
    <rdf:RDF>
      <cc:Work>
        <dc:format>image/svg+xml</dc:format>
        <dc:type
           rdf:resource="http://purl.org/dc/dcmitype/StillImage" />
        <cc:license
           rdf:resource="http://creativecommons.org/publicdomain/zero/1.0/" />
        <dc:publisher>
          <cc:Agent
             rdf:about="http://openclipart.org/">
            <dc:title>Openclipart</dc:title>
          </cc:Agent>
        </dc:publisher>
        <dc:title></dc:title>
      </cc:Work>
      <cc:License
         rdf:about="http://creativecommons.org/publicdomain/zero/1.0/">
        <cc:permits
           rdf:resource="http://creativecommons.org/ns#Reproduction" />
        <cc:permits
           rdf:resource="http://creativecommons.org/ns#Distribution" />
        <cc:permits
           rdf:resource="http://creativecommons.org/ns#DerivativeWorks" />
      </cc:License>
    </rdf:RDF>
  </metadata>
  <g
     id="layer3"
     inkscape:label="Background"
     style="display:none"
     transform="translate(-82.596573,-6.8559359)">
    <rect
       style="color:#000000;display:inline;overflow:visible;visibility:visible;fill:#918eff;fill-opacity:1;fill-rule:nonzero;stroke:none;stroke-width:2;marker:none;enable-background:accumulate"
       id="rect5910"
       width="82.127609"
       height="45.956779"
       x="11.520163"
       y="0.11176769" />
  </g>
  <g
     id="g4337"
     transform="translate(1.2486968e-7,1)">
    <path
       inkscape:connector-curvature="0"
       id="star-7"
       d="M 32.970916,37.441124 21.085609,31.564033 9.2628912,37.568619 11.459876,24.973799 1.823033,16.114096 l 13.243598,-1.90737 5.86633,-11.4802173 5.986788,11.4160293 13.262893,1.764451 -9.542961,8.963257 2.331235,12.570878 z"
       style="fill:url(#radialGradient3961);fill-opacity:1;stroke:#000000;stroke-width:1.55799997;stroke-miterlimit:4;stroke-dasharray:none;stroke-opacity:1" />
    <g
       id="g5946"
       transform="matrix(0.05855474,-0.06476641,0.0943241,0.08671912,18.858664,8.0299871)"
       style="fill:#ffffff;stroke-width:12.65196037;stroke-miterlimit:4;stroke-dasharray:none">
      <g
         id="g5948"
         transform="translate(53.677,-18.379)"
         style="stroke-width:12.65196037;stroke-miterlimit:4;stroke-dasharray:none">
        <path
           id="path5950"
           d="m -140.97,130.12 c -2.5103,2.2259 -1.2305,7.3903 -2.375,10.656 -3.0561,20.468 -10.74,39.84 -18.781,58.875 12.291,-10.511 27.434,-20.839 31.094,-37.594 2.1948,-10.207 2.3639,-23.538 -7.1875,-30.125 -0.84944,-0.52186 -1.6485,-1.8414 -2.75,-1.8125 z"
           style="opacity:0.1;stroke-width:12.65196037;stroke-miterlimit:4;stroke-dasharray:none"
           inkscape:connector-curvature="0" />
        <path
           id="path5952"
           d="m -140.56,129 c -4.5778,0.19748 -2.254,7.1136 -3.6875,10.062 -2.843,22.148 -11.981,43.325 -20.156,63.5 9.9496,-7.4921 19.802,-15.426 27.625,-25.188 7.7666,-11.279 11.022,-27.049 5.125,-39.812 -2.2563,-3.308 -5.3863,-6.7956 -8.9062,-8.5625 z"
           style="opacity:0.1;stroke-width:12.65196037;stroke-miterlimit:4;stroke-dasharray:none"
           inkscape:connector-curvature="0" />
        <path
           id="path5954"
           d="m -141.06,127.91 c -5.2633,0.27828 -2.7797,7.7103 -4.2812,11 -2.8048,22.679 -12.515,43.691 -20.5,64.812 4.4898,0.1237 7.7731,-5.4263 11.469,-7.5938 11.087,-9.1503 22.776,-19.489 25.719,-34.312 2.1054,-10.848 1.9274,-24.405 -8.0312,-31.531 -1.2322,-0.8127 -2.6682,-2.6647 -4.375,-2.375 z"
           style="opacity:0.1;stroke-width:12.65196037;stroke-miterlimit:4;stroke-dasharray:none"
           inkscape:connector-curvature="0" />
        <path
           id="path5956"
           d="m -141.25,126.81 c -6.4731,0.49331 -3.6705,9.3681 -5.375,13.469 -3.1282,22.032 -12.404,42.522 -20.344,63.094 -0.116,3.2356 4.9197,0.97142 5.9375,-0.34375 12.335,-10.598 27.41,-20.621 32.281,-36.875 2.9473,-10.168 4.0512,-22.802 -2.4375,-31.812 -2.7643,-2.6639 -5.8272,-7.5823 -10.062,-7.5312 z"
           style="opacity:0.1;stroke-width:12.65196037;stroke-miterlimit:4;stroke-dasharray:none"
           inkscape:connector-curvature="0" />
        <path
           id="path5958"
           d="m -141.44,125.72 c -2.8579,0.0641 -5.0723,2.169 -5,5.0625 -1.9146,19.068 -7.6313,37.517 -14.831,55.235 -1.9836,6.0398 -5.7219,11.6 -6.8255,17.89 0.2879,3.3232 5.1658,2.3967 6.8438,0.59375 8.9754,-7.0213 17.86,-14.432 25.492,-22.911 8.4266,-10.631 12.096,-24.721 9.6147,-38.248 -0.98886,-7.5131 -6.7293,-13.782 -13.107,-17.465 -0.69954,-0.21019 -1.4614,-0.29342 -2.1875,-0.15625 z"
           style="opacity:0.1;stroke-width:12.65196037;stroke-miterlimit:4;stroke-dasharray:none"
           inkscape:connector-curvature="0" />
        <path
           id="path5960"
           d="m -141.59,124.59 c -3.0485,0.24727 -5.7857,2.2446 -5.8375,5.5115 -1.5329,11.7 -3.4873,23.439 -7.35,34.707 -3.9118,12.807 -9.4924,24.961 -14.197,37.414 -1.2094,2.7938 1.3117,5.5018 4.166,5.0235 5.3866,-1.2171 9.1159,-6.1154 13.431,-9.3239 9.1014,-7.9063 18.98,-15.802 23.364,-27.399 4.3035,-10.2 5.0764,-22.139 1.4859,-32.683 -2.5342,-5.5182 -7.1735,-10.325 -12.594,-13.094 -0.80032,-0.21197 -1.6343,-0.30137 -2.4688,-0.15625 z"
           style="opacity:0.1;stroke-width:12.65196037;stroke-miterlimit:4;stroke-dasharray:none"
           inkscape:connector-curvature="0" />
        <path
           id="path5962"
           d="m -141.72,123.5 c -5.679,0.0195 -7.3509,5.7979 -7.4568,10.458 -2.2861,23.94 -12.324,46.096 -20.949,68.292 -1.8673,5.5092 5.8766,7.9663 9.375,4.5938 10.396,-8.1968 21.372,-16.488 29.156,-27.25 8.3654,-12.575 11.381,-29.735 5.2188,-44 -3.3452,-5.0538 -7.7812,-10.894 -14.031,-12.156 -0.43808,0.009 -0.87915,-0.0317 -1.3125,0.0625 z"
           style="opacity:0.1;stroke-width:12.65196037;stroke-miterlimit:4;stroke-dasharray:none"
           inkscape:connector-curvature="0" />
        <path
           id="path5964"
           d="m -141.28,122.34 c -5.7382,-0.12 -9.0227,5.1934 -8.8438,10.469 -2.2278,24.251 -12.307,46.682 -21.094,69.156 -2.0194,5.982 5.8866,9.6631 10.344,6.2812 10.612,-7.9369 21.159,-16.462 29.43,-26.872 9.2236,-13.174 12.598,-31.354 6.0385,-46.346 -3.5728,-5.2718 -8.9154,-12.527 -15.875,-12.688 z"
           style="opacity:0.1;stroke-width:12.65196037;stroke-miterlimit:4;stroke-dasharray:none"
           inkscape:connector-curvature="0" />
        <path
           id="path5966"
           d="m -141.97,121.28 c -5.9785,0.21295 -9.3615,5.8394 -9.25,11.375 -2.2312,24.267 -12.363,46.676 -21.094,69.094 -2.1149,6.3729 5.8054,11.086 11.094,7.9062 10.566,-6.9134 19.863,-15.784 28.625,-24.875 11.01,-13.719 15.368,-33.779 8.1875,-50.25 -3.7286,-5.6962 -8.9109,-12.253 -16,-13.312 -0.52115,0.0135 -1.0464,-0.0399 -1.5625,0.0625 z"
           style="opacity:0.1;stroke-width:12.65196037;stroke-miterlimit:4;stroke-dasharray:none"
           inkscape:connector-curvature="0" />
        <path
           id="path5968"
           d="m -141.53,120.12 c -5.9914,0.0946 -10.565,5.095 -10.625,11 -2.1099,24.31 -11.951,47.071 -21,69.469 -2.8267,6.5498 4.2561,13.056 10.656,10.75 10.268,-4.9241 17.931,-13.99 26.531,-21.312 14.398,-13.825 20.532,-36.697 12.844,-55.406 -3.8023,-6.2499 -10.352,-14.629 -18.406,-14.5 z"
           style="opacity:0.1;stroke-width:12.65196037;stroke-miterlimit:4;stroke-dasharray:none"
           inkscape:connector-curvature="0" />
      </g>
      <path
         id="path5970"
         d="m -89.636,162.04 c 5.5569,-5.6533 6.914,-7.3354 8.5556,-10.604 2.6393,-5.2557 3.6421,-9.9642 3.3844,-15.892 -0.23427,-5.3882 -1.1771,-7.9866 -4.0465,-11.152 -2.4788,-2.7346 -3.3559,-3.1515 -5.1083,-2.428 -1.5943,0.65816 -1.6391,0.79978 -2.3624,7.4578 -0.97519,8.9773 -4.0188,20.078 -9.5874,34.968 -1.1534,3.0841 -0.79182,4.3501 1.2459,4.3619 1.0548,0.006 2.6179,-1.3187 7.9187,-6.7115 z"
         style="fill-opacity:0.93989001;stroke:#fffffe;stroke-width:12.65196037;stroke-linecap:round;stroke-linejoin:round;stroke-miterlimit:4;stroke-dasharray:none;stroke-opacity:0.37705"
         inkscape:connector-curvature="0" />
    </g>
    <g
       style="fill:#ffffff;stroke-width:12.65196037;stroke-miterlimit:4;stroke-dasharray:none"
       transform="matrix(0.09862212,0.08868546,0.00681638,-0.11732041,30.863835,39.259447)"
       id="g5972">
      <g
         style="stroke-width:12.65196037;stroke-miterlimit:4;stroke-dasharray:none"
         transform="translate(53.677,-18.379)"
         id="g5974">
        <path
           inkscape:connector-curvature="0"
           style="opacity:0.1;stroke-width:12.65196037;stroke-miterlimit:4;stroke-dasharray:none"
           d="m -140.97,130.12 c -2.5103,2.2259 -1.2305,7.3903 -2.375,10.656 -3.0561,20.468 -10.74,39.84 -18.781,58.875 12.291,-10.511 27.434,-20.839 31.094,-37.594 2.1948,-10.207 2.3639,-23.538 -7.1875,-30.125 -0.84944,-0.52186 -1.6485,-1.8414 -2.75,-1.8125 z"
           id="path5976" />
        <path
           inkscape:connector-curvature="0"
           style="opacity:0.1;stroke-width:12.65196037;stroke-miterlimit:4;stroke-dasharray:none"
           d="m -140.56,129 c -4.5778,0.19748 -2.254,7.1136 -3.6875,10.062 -2.843,22.148 -11.981,43.325 -20.156,63.5 9.9496,-7.4921 19.802,-15.426 27.625,-25.188 7.7666,-11.279 11.022,-27.049 5.125,-39.812 -2.2563,-3.308 -5.3863,-6.7956 -8.9062,-8.5625 z"
           id="path5978" />
        <path
           inkscape:connector-curvature="0"
           style="opacity:0.1;stroke-width:12.65196037;stroke-miterlimit:4;stroke-dasharray:none"
           d="m -141.06,127.91 c -5.2633,0.27828 -2.7797,7.7103 -4.2812,11 -2.8048,22.679 -12.515,43.691 -20.5,64.812 4.4898,0.1237 7.7731,-5.4263 11.469,-7.5938 11.087,-9.1503 22.776,-19.489 25.719,-34.312 2.1054,-10.848 1.9274,-24.405 -8.0312,-31.531 -1.2322,-0.8127 -2.6682,-2.6647 -4.375,-2.375 z"
           id="path5980" />
        <path
           inkscape:connector-curvature="0"
           style="opacity:0.1;stroke-width:12.65196037;stroke-miterlimit:4;stroke-dasharray:none"
           d="m -141.25,126.81 c -6.4731,0.49331 -3.6705,9.3681 -5.375,13.469 -3.1282,22.032 -12.404,42.522 -20.344,63.094 -0.116,3.2356 4.9197,0.97142 5.9375,-0.34375 12.335,-10.598 27.41,-20.621 32.281,-36.875 2.9473,-10.168 4.0512,-22.802 -2.4375,-31.812 -2.7643,-2.6639 -5.8272,-7.5823 -10.062,-7.5312 z"
           id="path5982" />
        <path
           inkscape:connector-curvature="0"
           style="opacity:0.1;stroke-width:12.65196037;stroke-miterlimit:4;stroke-dasharray:none"
           d="m -141.44,125.72 c -2.8579,0.0641 -5.0723,2.169 -5,5.0625 -1.9146,19.068 -7.6313,37.517 -14.831,55.235 -1.9836,6.0398 -5.7219,11.6 -6.8255,17.89 0.2879,3.3232 5.1658,2.3967 6.8438,0.59375 8.9754,-7.0213 17.86,-14.432 25.492,-22.911 8.4266,-10.631 12.096,-24.721 9.6147,-38.248 -0.98886,-7.5131 -6.7293,-13.782 -13.107,-17.465 -0.69954,-0.21019 -1.4614,-0.29342 -2.1875,-0.15625 z"
           id="path5984" />
        <path
           inkscape:connector-curvature="0"
           style="opacity:0.1;stroke-width:12.65196037;stroke-miterlimit:4;stroke-dasharray:none"
           d="m -141.59,124.59 c -3.0485,0.24727 -5.7857,2.2446 -5.8375,5.5115 -1.5329,11.7 -3.4873,23.439 -7.35,34.707 -3.9118,12.807 -9.4924,24.961 -14.197,37.414 -1.2094,2.7938 1.3117,5.5018 4.166,5.0235 5.3866,-1.2171 9.1159,-6.1154 13.431,-9.3239 9.1014,-7.9063 18.98,-15.802 23.364,-27.399 4.3035,-10.2 5.0764,-22.139 1.4859,-32.683 -2.5342,-5.5182 -7.1735,-10.325 -12.594,-13.094 -0.80032,-0.21197 -1.6343,-0.30137 -2.4688,-0.15625 z"
           id="path5986" />
        <path
           inkscape:connector-curvature="0"
           style="opacity:0.1;stroke-width:12.65196037;stroke-miterlimit:4;stroke-dasharray:none"
           d="m -141.72,123.5 c -5.679,0.0195 -7.3509,5.7979 -7.4568,10.458 -2.2861,23.94 -12.324,46.096 -20.949,68.292 -1.8673,5.5092 5.8766,7.9663 9.375,4.5938 10.396,-8.1968 21.372,-16.488 29.156,-27.25 8.3654,-12.575 11.381,-29.735 5.2188,-44 -3.3452,-5.0538 -7.7812,-10.894 -14.031,-12.156 -0.43808,0.009 -0.87915,-0.0317 -1.3125,0.0625 z"
           id="path5988" />
        <path
           inkscape:connector-curvature="0"
           style="opacity:0.1;stroke-width:12.65196037;stroke-miterlimit:4;stroke-dasharray:none"
           d="m -141.28,122.34 c -5.7382,-0.12 -9.0227,5.1934 -8.8438,10.469 -2.2278,24.251 -12.307,46.682 -21.094,69.156 -2.0194,5.982 5.8866,9.6631 10.344,6.2812 10.612,-7.9369 21.159,-16.462 29.43,-26.872 9.2236,-13.174 12.598,-31.354 6.0385,-46.346 -3.5728,-5.2718 -8.9154,-12.527 -15.875,-12.688 z"
           id="path5990" />
        <path
           inkscape:connector-curvature="0"
           style="opacity:0.1;stroke-width:12.65196037;stroke-miterlimit:4;stroke-dasharray:none"
           d="m -141.97,121.28 c -5.9785,0.21295 -9.3615,5.8394 -9.25,11.375 -2.2312,24.267 -12.363,46.676 -21.094,69.094 -2.1149,6.3729 5.8054,11.086 11.094,7.9062 10.566,-6.9134 19.863,-15.784 28.625,-24.875 11.01,-13.719 15.368,-33.779 8.1875,-50.25 -3.7286,-5.6962 -8.9109,-12.253 -16,-13.312 -0.52115,0.0135 -1.0464,-0.0399 -1.5625,0.0625 z"
           id="path5992" />
        <path
           inkscape:connector-curvature="0"
           style="opacity:0.1;stroke-width:12.65196037;stroke-miterlimit:4;stroke-dasharray:none"
           d="m -141.53,120.12 c -5.9914,0.0946 -10.565,5.095 -10.625,11 -2.1099,24.31 -11.951,47.071 -21,69.469 -2.8267,6.5498 4.2561,13.056 10.656,10.75 10.268,-4.9241 17.931,-13.99 26.531,-21.312 14.398,-13.825 20.532,-36.697 12.844,-55.406 -3.8023,-6.2499 -10.352,-14.629 -18.406,-14.5 z"
           id="path5994" />
      </g>
      <path
         inkscape:connector-curvature="0"
         style="fill-opacity:0.93989001;stroke:#fffffe;stroke-width:12.65196037;stroke-linecap:round;stroke-linejoin:round;stroke-miterlimit:4;stroke-dasharray:none;stroke-opacity:0.37705"
         d="m -89.636,162.04 c 5.5569,-5.6533 6.914,-7.3354 8.5556,-10.604 2.6393,-5.2557 3.6421,-9.9642 3.3844,-15.892 -0.23427,-5.3882 -1.1771,-7.9866 -4.0465,-11.152 -2.4788,-2.7346 -3.3559,-3.1515 -5.1083,-2.428 -1.5943,0.65816 -1.6391,0.79978 -2.3624,7.4578 -0.97519,8.9773 -4.0188,20.078 -9.5874,34.968 -1.1534,3.0841 -0.79182,4.3501 1.2459,4.3619 1.0548,0.006 2.6179,-1.3187 7.9187,-6.7115 z"
         id="path5996" />
    </g>
  </g>
</svg>
