<?xml version="1.0" encoding="UTF-8" standalone="no"?>
<svg
   xmlns:dc="http://purl.org/dc/elements/1.1/"
   xmlns:cc="http://creativecommons.org/ns#"
   xmlns:rdf="http://www.w3.org/1999/02/22-rdf-syntax-ns#"
   xmlns:svg="http://www.w3.org/2000/svg"
   xmlns="http://www.w3.org/2000/svg"
   xmlns:sodipodi="http://sodipodi.sourceforge.net/DTD/sodipodi-0.dtd"
   xmlns:inkscape="http://www.inkscape.org/namespaces/inkscape"
   id="svg2"
   sodipodi:docname="liftarn-Washing-machine.svg"
   sodipodi:version="0.32"
   version="1.0"
   inkscape:output_extension="org.inkscape.output.svg.inkscape"
   inkscape:version="0.91 r13725"
   viewBox="0 0 349.37759 503.91"
   width="349.37759"
   height="503.91">
  <defs
     id="defs22805" />
  <sodipodi:namedview
     id="base"
     bordercolor="#666666"
     inkscape:pageshadow="2"
     guidetolerance="10.0"
     pagecolor="#ffffff"
     gridtolerance="10.0"
     inkscape:zoom="0.94398755"
     objecttolerance="10.0"
     borderopacity="1.0"
     inkscape:current-layer="g2349"
     inkscape:cx="195.2054"
     inkscape:cy="422.58978"
     inkscape:window-y="1"
     inkscape:window-x="4"
     inkscape:window-height="1035"
     showgrid="false"
     inkscape:pageopacity="0.0"
     inkscape:window-width="1916"
     fit-margin-top="0"
     fit-margin-left="0"
     fit-margin-right="0"
     fit-margin-bottom="0"
     inkscape:window-maximized="1" />
  <g
     id="g2349"
     transform="scale(1.6797,1.6797)">
    <path
       id="path4"
       style="fill:#000000"
       d="m 166,300 0,-1 0,-2 -1,-1 0,-1 0,-2 1,-1 0,-1 1,-1 2,-8 1,0 1,-1 4,-13 1,-2 0,-1 0,-2 1,-2 0,-2 1,-2 0,-1 1,-2 1,-2 1,-2 0,-1 1,-2 1,-2 1,-2 0,-1 1,-2 0,-1 1,-1 0,-1 0,-1 1,0 0,-1 0,-1 1,-1 0,-1 1,-1 0,-1 1,-1 0,-1 1,-1 0,-1 1,-1 0,-1 1,-1 0,-1 1,-1 0,-1 1,-1 0,-1 1,-2 0,-2 1,-1 1,-2 0,-1 1,-2 1,-2 1,-1 1,-2 0,-1 1,-2 1,-1 1,-1 1,-2 1,-1 1,-2 -1,0 -1,0 -1,-2 -2,-1 -2,-2 -2,-1 -2,-2 -2,-1 -2,-2 -2,-1 -1,-1 -1,0 -1,-1 -1,-1 0,-1 -1,-1 -1,0 -1,-1 -12,-8 0,-6 1,-7 4,-31 0,-2 -1,0 0,-1 0,-1 -1,-2 0,-2 -1,-3 -1,-2 -1,-2 0,-3 -1,-2 -1,-2 -1,-3 0,-2 -1,-2 -1,-2 0,-3 -1,-2 0,-2 -1,-3 0,-2 -1,-2 0,-3 0,-2 -1,-3 0,-2 0,-2 0,-3 0,-2 0,-3 0,-2 0,-2 0,-3 0,-2 0,-2 0,-3 1,-1 1,0 0,-3 0,-1 1,-2 0,-2 0,-2 0,-2 1,-2 0,-2 1,-2 1,-1 0,-2 1,-2 1,-1 0,-2 1,-1 2,-1 1,-1 0,-1 0,-1 0,-1 -1,0 0,-1 -1,-10 -19,2 -10,0 -11,3 -1,0 -2,0 -1,0 -1,1 -1,0 -2,0 -1,1 -1,0 -1,0 -2,0 -1,1 -1,0 -1,0 -2,1 -1,0 -1,1 -3,0 -3,1 -2,1 -3,1 -3,0 -2,1 -3,1 -3,1 -3,1 -2,0 -3,1 -3,1 -2,1 -3,1 -3,1 -2,1 -3,0 -2,1 -3,1 -3,1 -2,1 -3,1 -2,1 -3,1 -2,1 -3,1 -3,1 -2,1 -3,1 -2,1 -2,1 -3,1 -1,0 -1,1 -1,0 -1,1 -1,0 -1,0 -1,0 -9,15 -1,1 0,1 0,1 2,1 4,4 2,2 1,1 1,1 1,1 1,1 0,1 1,2 1,1 -1,2 0,3 -1,2 -1,3 -1,2 0,3 -1,3 -1,2 -1,3 -1,2 -1,3 -1,2 -1,3 -1,2 -1,2 -1,3 -12,34 0,2 2,2 0,1 1,1 0,1 1,1 0,1 1,1 0,1 1,1 0,1 0,1 0,1 1,0 0,1 0,1 1,1 0,1 0,1 1,0 0,1 0,1 1,1 0,1 0,1 1,1 0,1 1,1 0,2 0,1 1,1 0,2 0,1 1,1 0,2 0,1 1,2 0,1 0,2 1,1 0,2 1,1 0,2 1,1 0,2 0,1 1,1 0,2 0,1 0,2 1,1 0,1 0,2 0,1 1,1 0,1 0,1 0,2 1,3 0,4 0,4 0,4 1,4 0,4 0,3 0,4 1,4 0,4 0,3 0,4 0,4 0,4 0,4 0,3 1,2 0,1 0,1 0,2 0,1 0,1 -1,2 0,1 0,1 0,1 0,2 0,1 0,1 1,1 0,1 1,1 3,1 6,-4 1,0 0,-1 1,-1 1,0 1,-1 1,0 1,-1 1,0 1,0 3,-1 3,-1 3,-2 3,0 3,-1 3,-1 3,-1 3,0 3,-1 3,-1 3,0 3,0 3,-1 3,0 3,0 3,0 3,0 3,0 3,0 3,0 3,0 3,0 3,0 3,1 3,0 3,0 3,1 3,1 3,0 3,1 3,0 3,1 1,0 1,1 1,0 1,0 1,-1 0,-1 0,-1 1,0 0,-1 0,-1 2,-8 -1,-1 0,-1 0,-1 0,-1 1,1 1,1 1,1 1,1 1,1 0,1 1,1 1,1 1,1 1,1 0,1 1,1 1,1 0,1 1,2 1,1 1,1 0,2 1,1 0,2 1,1 0,2 1,2 0,1 3,2 z"
       inkscape:connector-curvature="0" />
    <path
       id="path6"
       style="fill:#bab2ff"
       d="m 28,293 1,-1 1,-1 2,0 1,-1 2,0 2,-1 1,0 2,-1 2,-1 3,-1 2,-1 2,-1 3,-1 2,0 3,-1 2,-1 3,-1 2,-1 2,-1 3,0 2,-1 3,-1 2,-1 3,0 1,0 0,1 1,0 31,1 2,1 1,0 2,0 2,1 2,0 1,0 2,1 2,0 1,0 1,1 1,0 2,0 1,0 1,0 1,0 1,0 1,0 1,0 1,1 1,0 1,0 1,0 1,-1 0,-1 0,-1 0,-1 0,-1 0,-1 1,-1 1,-1 0,-1 1,-1 0,-1 0,-1 0,-1 1,0 0,-1 -13,-15 -11,-7 0,-1 -1,0 0,-1 0,-1 -1,0 -1,1 -1,1 -1,0 -1,1 -1,1 -2,0 -1,1 -1,1 -3,1 -3,0 -4,1 -3,1 -3,0 -4,0 -3,0 -3,0 -3,-1 -3,0 -3,-1 -3,-1 -3,-2 -2,-1 -3,-2 -2,-2 -1,-2 -2,-2 -1,-2 -2,-2 -1,-2 -2,-2 -1,-2 -1,-2 -2,-2 -1,-2 -1,-3 0,-2 -1,-2 -1,-3 0,-2 0,-3 -1,0 -1,0 0,-1 1,-1 0,-3 0,-2 0,-2 0,-2 0,-2 1,-3 0,-2 0,-2 0,-2 1,-3 0,-2 1,-2 1,-2 1,-2 1,-2 1,-2 1,-1 1,-2 1,-1 1,-1 1,-2 1,-1 1,-1 1,-2 2,-1 1,-1 1,-1 1,-1 2,-2 1,-1 1,-1 2,-1 1,0 1,-1 1,-1 1,0 1,-1 1,-1 1,0 1,-1 1,-1 1,-1 1,0 1,-1 1,0 1,-1 1,0 2,-1 1,0 2,-1 1,0 1,0 2,-1 1,0 1,0 2,0 1,0 1,0 2,0 1,0 1,0 2,1 1,0 1,0 0,1 1,0 7,4 1,-1 2,2 6,4 0,-3 1,-1 1,0 2,0 1,1 1,0 2,1 1,0 2,1 3,-6 1,1 1,5 1,1 1,1 2,0 1,1 2,0 1,1 2,0 1,1 15,10 0,-2 1,-2 0,-2 1,-2 0,-2 1,-2 0,-2 0,-3 0,-2 1,-2 0,-2 0,-2 0,-2 0,-3 1,-2 0,-2 -1,0 0,-1 -1,0 0,-1 -1,0 -1,0 -1,-1 -1,0 0,-1 0,-1 -1,0 -1,0 -1,-1 -2,0 -2,0 -2,-1 -1,0 -2,-1 -2,0 -2,-1 -1,0 -2,0 -2,-1 -1,0 -2,0 -2,0 -2,0 -1,0 -7,-1 -3,1 -3,0 -4,0 -3,0 -4,0 -3,1 -3,0 -4,0 -3,1 -3,1 -4,0 -3,1 -3,0 -4,1 -3,1 -3,0 -1,1 -2,0 -1,0 -1,0 -1,0 -1,1 -1,0 -1,0 -1,0 -2,1 -1,0 -1,1 -2,0 -1,0 -1,1 -2,0 -1,0 0,1 -1,0 -1,0 -1,0 -1,1 -1,0 -1,0 -1,0 -1,1 -1,0 -1,0 -1,0 -1,1 -1,0 -1,0 -1,0 -1,1 -1,0 -1,0 -2,1 -1,1 -2,0 -2,1 -1,0 -2,1 -2,0 -1,1 -2,0 -2,1 -1,1 -2,0 -1,1 -2,1 -1,1 -1,0 -2,1 -1,0 -1,1 -1,0 -1,1 -1,1 -1,0 7,15 0,1 0,1 2,6 2,10 1,0 0,1 1,1 0,1 0,1 0,1 0,1 1,1 0,1 0,1 0,1 0,1 1,1 0,1 0,1 0,1 1,1 0,1 0,3 1,3 0,3 0,2 1,3 0,3 0,3 0,3 0,3 1,3 0,3 0,3 0,3 0,3 1,3 0,2 0,3 0,3 0,3 0,3 0,3 1,3 0,3 0,3 0,3 0,3 0,2 0,3 0,3 0,3 0,3 0,3 0,1 1,0 z"
       inkscape:connector-curvature="0" />
    <path
       id="path8"
       style="fill:#9191b2"
       d="m 165,289 0,-2 1,-2 1,-2 1,-2 1,-2 0,-3 1,-2 1,-2 0,-2 1,-2 1,-3 0,-2 1,-2 0,-2 1,-3 0,-2 1,-1 0,-2 0,-2 1,-1 0,-2 1,-1 0,-2 1,-1 0,-1 1,-2 1,-1 0,-2 1,-1 1,-1 1,-2 0,-1 1,-1 1,-2 1,-1 1,-2 1,-1 0,-2 1,-2 1,-1 0,-2 1,-2 1,-2 0,-1 1,-2 1,-2 0,-1 1,-2 0,-1 1,-1 0,-1 1,-2 1,-1 1,-1 0,-1 1,-1 -11,-11 -19,-14 -1,0 0,1 -1,-1 -1,0 0,-1 0,-1 -1,-1 -1,-1 -2,-1 -1,-1 -2,-1 -2,0 -1,-1 -2,-1 -1,0 0,1 0,1 0,1 0,1 1,1 2,3 -1,1 0,1 0,1 0,1 1,1 -2,1 0,1 -1,1 -1,0 -1,0 -4,-13 0,-1 0,-1 1,0 0,-1 0,-1 0,-1 0,-1 -1,-1 -1,0 -1,1 -1,0 -1,0 -1,1 -1,0 -1,0 -2,-4 -2,-1 0,-1 0,-1 -1,0 0,-1 -1,-1 -5,-2 0,1 0,2 0,1 0,1 0,1 0,1 0,1 0,1 0,2 0,2 0,2 1,1 0,2 0,2 0,2 0,2 -1,3 0,3 0,2 0,3 0,3 0,3 0,3 -1,3 0,3 0,3 0,3 0,3 -1,3 0,2 -1,3 -1,3 0,2 0,1 0,2 0,1 -1,2 0,2 0,1 0,2 -1,1 0,2 0,1 0,2 0,1 0,2 0,2 0,1 1,0 -1,0 0,-1 1,0 1,-1 5,4 8,9 0,1 1,0 12,17 1,0 0,-1 1,0 6,12 1,1 3,4 z"
       inkscape:connector-curvature="0" />
    <path
       id="path10"
       style="fill:#ffd1a8"
       d="m 91,249 7,0 1,0 0,-1 -1,0 -1,1 -1,0 0,-1 0,-1 1,-1 1,-1 1,0 0,-1 0,-1 1,0 1,0 22,-21 1,-6 0,-1 0,-1 0,-1 0,-1 -3,3 -2,2 -2,1 -2,2 -2,2 -2,2 -1,1 -2,2 -2,2 -1,1 -2,1 -1,1 -2,1 -1,1 -1,2 -1,1 -2,1 -1,2 -1,1 -2,1 -1,1 -1,2 -1,1 -1,1 -1,1 5,1 z"
       inkscape:connector-curvature="0" />
    <path
       id="path12"
       style="fill:#ffd1a8;fill-opacity:1"
       d="m 83,248 14,-14 0,-1 0,-1 1,-1 1,-9 -1,-1 0,-1 -1,1 -1,1 -2,1 -1,1 -1,1 -1,1 -1,1 -2,1 0,1 -1,1 -1,1 -1,1 -1,1 -1,1 -1,1 -1,1 -1,1 -1,1 -1,1 -1,1 -1,1 -1,1 -1,1 0,1 0,1 1,0 1,1 1,1 2,0 1,0 1,1 2,0 z"
       inkscape:connector-curvature="0" />
    <path
       id="path14"
       style="fill:#ffd1a8;fill-opacity:1"
       d="m 71,243 1,0 1,-1 1,-1 0,-1 1,-1 1,-1 1,0 0,-1 1,-1 1,-1 2,-2 2,-2 2,-1 1,-2 2,-1 2,-2 2,-1 1,-2 2,-1 2,-2 2,-1 1,-2 2,-2 2,-1 1,-2 2,-1 1,-1 1,-1 2,-1 1,-1 1,-2 1,-1 2,-1 1,-1 1,-1 1,-2 1,-1 2,-1 1,-1 1,-1 2,-1 1,0 0,-1 0,-1 0,-1 1,-1 0,-1 0,-1 0,-1 0,-2 0,-1 0,-1 1,-1 0,-1 0,-1 0,-1 -1,-1 0,-2 0,-1 -1,1 -1,0 0,1 -1,1 -1,1 -1,0 -1,2 -2,2 -2,1 -1,2 -2,2 -2,1 -1,2 -2,1 -2,2 -1,1 -2,2 -2,1 -1,2 -2,1 -1,2 -2,1 -1,0 2,-3 0,-1 0,-2 0,-1 0,-1 0,-1 0,-2 0,-1 -1,-1 -1,0 -2,1 -2,1 -2,2 -2,2 -2,2 -2,1 -1,2 -2,1 -1,1 0,1 -1,0 0,1 -1,0 0,1 -1,0 -1,1 -1,1 -1,1 -1,1 -1,1 0,1 -1,0 -1,1 -1,1 -2,2 -2,1 -1,2 -2,2 -1,1 -2,2 -1,2 -1,1 5,6 1,-1 1,-1 1,-1 1,-1 1,-1 1,-1 2,-1 1,-1 1,-1 0,-1 2,0 0,-1 1,-1 1,-1 1,-1 1,-1 1,0 0,-1 1,0 0,-1 1,0 0,-1 1,0 0,-1 2,-1 1,-2 2,-1 1,-2 2,-1 2,-1 1,-1 2,-2 1,0 0,1 -21,19 -12,12 8,8 z"
       inkscape:connector-curvature="0" />
    <path
       id="path16"
       style="fill:#ffd1a8"
       d="m 57,224 2,-2 2,-3 2,-2 2,-2 2,-2 2,-2 3,-2 2,-2 2,-2 2,-2 2,-2 3,-2 2,-2 2,-2 2,-2 2,-2 3,-2 2,-2 2,-2 2,-2 3,-2 2,-2 2,-2 2,-2 2,-2 2,-3 3,-2 2,-2 2,-2 2,-2 2,-2 2,-3 0,-4 0,-1 -1,-1 -1,0 0,-1 -14,12 -1,1 -1,1 -1,0 -1,1 -1,1 -2,1 0,1 -2,1 -1,1 -1,1 0,1 -1,1 -1,1 -1,1 -1,1 0,1 -1,0 -1,0 -1,0 -13,12 -1,0 -26,25 4,10 1,0 z"
       inkscape:connector-curvature="0" />
    <path
       id="path18"
       style="fill:#ffd1a8"
       d="m 51,211 1,0 39,-35 -2,-4 -1,0 -3,-2 -1,1 -2,1 -1,1 -1,1 -2,1 -1,1 -1,1 -1,1 -2,2 -1,1 -2,2 -2,1 -1,2 -2,1 -1,2 -2,1 -2,2 -1,1 -2,2 -1,1 -2,2 -1,2 -2,1 -1,2 1,8 z"
       inkscape:connector-curvature="0" />
    <path
       id="path22"
       style="fill:#ffd1a8"
       d="m 50,200 22,-21 2,-2 2,-2 3,-2 2,-2 2,-2 2,-2 2,-2 2,-2 3,-2 2,-2 2,-1 2,-2 3,-2 2,-2 2,-2 3,-1 4,-5 -1,0 0,-1 -1,0 -1,-1 -1,0 -1,0 -1,0 -1,0 -1,0 -1,1 -1,0 -1,1 -1,1 -1,0 -1,1 0,1 -1,0 -1,0 0,1 -1,1 -1,0 0,1 -1,0 -14,11 -6,6 -15,15 -1,0 -1,0 -3,4 -1,0 -1,0 0,-1 1,0 0,-1 23,-22 2,-1 -1,0 -1,0 -1,-1 -2,0 -1,0 -1,1 -1,0 -2,0 -1,0 -1,0 -1,1 -2,1 -2,1 -1,2 -2,2 -1,1 -1,2 -1,2 -2,2 0,1 0,1 0,1 -1,1 0,1 0,1 -1,1 0,1 0,2 0,1 0,1 0,1 0,1 0,1 0,1 -1,2 0,1 0,1 0,1 0,1 1,1 0,1 0,1 z"
       inkscape:connector-curvature="0" />
    <path
       id="path26"
       style="fill:#ff0f59"
       d="m 8,144 0,-1 0,-1 7,-2 1,-1 1,0 1,0 1,-1 1,0 1,-1 1,0 1,-1 1,0 1,0 2,-1 1,0 1,-1 1,0 1,0 2,-1 2,0 2,-1 3,0 2,-1 3,-1 2,0 3,-1 2,-1 2,0 3,-1 2,-1 3,0 2,-1 3,-1 2,0 3,-1 2,0 2,-1 2,0 2,-1 2,0 2,0 2,-1 2,0 2,-1 2,0 2,0 2,0 2,-1 1,0 2,0 2,-1 2,0 2,0 2,0 2,0 2,-1 2,0 2,0 2,0 2,-1 2,0 2,0 2,0 2,0 2,-1 2,0 2,0 1,1 24,3 1,0 1,-1 1,1 3,1 0,1 1,0 5,2 0,-1 -1,-1 0,-1 -1,-1 0,-1 -1,-1 0,-1 0,-1 -1,-1 -1,-1 0,-1 -1,-2 0,-1 -1,-1 0,-1 0,-2 -1,-1 0,-1 0,-2 -1,-1 0,-1 0,-2 0,-1 -1,-1 -1,-5 0,-5 0,-1 -1,0 0,-7 0,-1 0,-1 0,-1 0,-1 0,-1 0,-1 -1,-1 0,-1 0,-2 0,-1 0,-2 0,-2 0,-2 0,-1 0,-2 0,-2 0,-2 1,-1 0,-2 0,-2 0,-1 0,-2 0,-2 0,-1 -7,-1 -2,0 -2,0 -2,0 -2,1 -2,0 -2,0 -3,1 -2,0 -2,1 -2,0 -2,1 -2,0 -2,0 -2,1 -2,0 -2,1 -2,0 -3,1 -2,0 -2,1 -2,0 -2,1 -2,0 -2,1 -2,0 -2,1 -2,0 -2,1 -2,1 -2,0 -3,1 -2,0 -2,1 -2,1 -2,1 -2,1 -3,1 -2,0 -2,1 -2,1 -2,1 -3,1 -2,0 -2,1 -2,1 -2,1 -2,1 -2,1 -2,1 -7,2 -13,7 -1,1 0,1 -1,1 0,1 -1,1 0,1 -1,2 0,1 -1,1 0,1 -1,1 0,2 -1,1 0,1 -1,1 0,2 -1,2 -1,3 -1,2 0,3 -1,2 -1,3 -1,2 -1,3 -1,2 -1,3 0,2 -1,3 -1,2 -1,3 0,2 -1,3 0,1 0,1 0,1 0,1 -1,0 0,1 -1,0 0,1 0,1 1,0 z"
       inkscape:connector-curvature="0" />
    <path
       id="path30"
       style="fill:#ffd1a8"
       d="m 29,71 0,-1 1,0 0,-1 1,0 1,0 0,1 1,0 0,1 1,-1 1,0 2,-1 1,0 1,-1 2,-1 1,0 1,-1 2,0 1,-1 1,0 2,-1 1,0 2,-1 1,0 2,0 1,0 1,-1 1,0 1,-1 1,0 1,-1 1,0 1,0 1,-1 1,0 1,-1 1,0 1,0 1,-1 1,0 1,-1 1,0 1,0 1,0 1,-1 1,0 1,-1 1,0 1,0 2,-1 2,-1 2,0 2,-1 2,-1 2,0 2,-1 2,-1 2,0 2,-1 2,-1 2,0 2,-1 2,0 2,-1 2,-1 4,0 3,-1 3,-1 3,0 3,-1 3,0 3,-1 3,-1 4,0 3,0 3,-1 3,0 3,0 3,0 3,0 3,0 8,-21 -2,0 -1,-1 -2,0 -1,0 -2,0 -1,0 -2,0 -1,0 -2,0 -1,0 -2,0 -1,0 -2,0 -2,0 -1,0 -2,0 -1,0 -1,1 -1,0 -1,0 -1,0 -1,0 -29,6 -15,4 -3,1 -3,0 -3,1 -3,1 -3,0 -2,1 -3,1 -3,1 -3,1 -3,1 -3,1 -3,1 -2,1 -3,1 -3,1 -2,1 -10,5 -1,0 0,1 0,1 -11,6 -9,3 5,8 1,0 1,1 0,1 0,1 1,0 0,1 1,0 0,1 1,0 0,1 1,1 z"
       inkscape:connector-curvature="0" />
    <path
       id="path32"
       style="fill:#c40000"
       d="m 17,53 3,-2 2,-1 3,-2 3,-1 2,-1 3,-2 3,-1 3,-1 2,-2 3,-1 3,-1 3,-1 3,-1 3,-1 3,-1 3,-1 2,-1 2,-1 1,0 2,-1 2,-1 2,0 2,-1 1,0 2,-1 1,0 1,0 1,-1 1,0 1,0 2,-1 1,0 1,-1 2,0 1,-1 1,0 2,0 1,-1 2,0 1,-1 1,0 2,0 1,-1 1,0 1,-1 2,0 3,-1 3,0 3,-1 3,0 4,-1 3,-1 3,0 3,-1 4,0 3,-1 3,0 3,-1 3,0 4,0 3,-1 3,1 1,0 1,0 1,0 1,-1 1,0 1,0 0,1 2,-1 1,0 1,0 1,0 1,0 1,0 1,1 1,0 1,-1 0,-1 0,-1 -1,-1 0,-1 0,-1 -1,-1 0,-1 -12,1 -2,-1 -2,0 -2,1 -2,0 -1,0 -2,0 -2,0 -2,1 -1,0 -2,1 -2,0 -2,0 -1,1 -2,0 -2,0 -2,1 -1,0 -1,0 -1,0 -1,1 -2,0 -1,0 -1,0 -1,1 -1,0 -2,0 -1,1 -1,0 -1,0 -1,1 -1,0 -2,0 -4,1 -3,1 -4,1 -4,1 -3,1 -4,1 -4,2 -3,1 -4,1 -3,2 -4,1 -3,2 -4,1 -3,1 -4,1 -3,2 -3,1 -1,0 -1,0 -1,0 0,1 -1,0 -1,0 -1,0 -1,1 -1,1 -1,0 -1,0 -1,0 -1,1 -1,0 -2,1 -2,0 -2,1 -2,0 -2,1 -2,1 -1,1 -2,1 -5,9 z"
       inkscape:connector-curvature="0" />
    <path
       style="fill:#000000;fill-opacity:1;fill-rule:evenodd;stroke:#000000;stroke-width:0.59534442px;stroke-linecap:butt;stroke-linejoin:miter;stroke-opacity:1"
       d="m 151.33948,18.813048 c -1.97635,0.03408 -5.60523,-0.432488 -6.60432,0.785552 0.66202,2.330537 -2.25513,0.785547 -3.58238,1.807653 -2.68563,-0.48377 -2.3003,2.750781 -4.63665,3.501523 -0.31546,0.496899 -0.5811,1.069268 -0.77385,1.675242 -0.19276,0.605975 -0.31263,1.245556 -0.33656,1.876878 -0.0239,0.631322 0.77369,1.345085 0.96472,1.918026 0.19103,0.572942 -0.22452,1.005061 0.22759,1.435892 1.81474,1.79505 4.27902,3.502939 6.76701,2.162247 2.18853,-1.593063 5.53367,1.309386 7.95555,0.06212 -0.55045,-1.4036 3.9429,-1.707723 3.78509,-4.227667 1.80792,-2.176494 4.38274,-5.495515 1.53957,-7.939576 0.11642,-2.513986 -3.21872,-3.472602 -5.30581,-3.057891 l 0,0 z"
       id="path23347"
       inkscape:connector-curvature="0"
       sodipodi:nodetypes="ccccssscccccccc" />
    <path
       style="fill:#bab2ff;fill-rule:evenodd;stroke:#000000;stroke-width:0.59534442px;stroke-linecap:butt;stroke-linejoin:miter;stroke-opacity:1;fill-opacity:1"
       d="m 147.5336,24.52186 c -1.95457,0.0523 -5.63028,-0.522326 -5.64456,2.306722 -1.15615,2.822935 3.11989,3.893568 4.97294,4.29759 2.69233,-0.03701 4.2015,-3.933681 3.06218,-5.967689 -0.7199,-0.481307 -1.59725,-0.388869 -2.39056,-0.636623 z"
       id="path23349"
       inkscape:connector-curvature="0" />
    <path
       style="fill:#000000;fill-opacity:1;fill-rule:evenodd;stroke:#000000;stroke-width:0.59534442px;stroke-linecap:butt;stroke-linejoin:miter;stroke-opacity:1"
       d="m 120.66861,23.62636 c -3.07114,-0.600216 -6.06749,0.45428 -8.98427,1.325056 -2.01099,0.526818 -4.18082,0.750199 -5.01565,2.667155 -0.57958,0.324267 -1.01853,0.830713 -1.3214,1.435516 -0.30287,0.604802 0.43733,1.761456 0.40204,2.479146 -0.0353,0.717691 -0.84604,0.996418 -0.62286,1.659349 0.22318,0.662931 2.38729,1.347269 2.8598,1.787793 1.78776,1.923717 2.8874,2.120813 5.40437,1.954032 3.19625,-0.966887 6.66058,0.894546 9.61834,-0.4555 2.08652,-0.821718 4.50562,-1.929258 2.54704,-4.275654 0.64974,-1.852542 3.8221,-3.244459 1.16432,-5.334407 2.33448,-2.923168 -2.08918,-4.375956 -4.44524,-3.234916 -0.53571,0.01937 -1.07074,-0.0176 -1.60649,-0.0076 z"
       id="path23351"
       inkscape:connector-curvature="0"
       sodipodi:nodetypes="cccssscccccccc" />
    <path
       style="fill:#bab2ff;fill-rule:evenodd;stroke:#000000;stroke-width:0.59534442px;stroke-linecap:butt;stroke-linejoin:miter;stroke-opacity:1;fill-opacity:1"
       d="m 116.52692,26.424797 c -1.92678,0.583588 -3.64903,1.100171 -4.04239,3.012701 -1.36516,2.095846 2.00898,3.998014 3.87586,3.81488 2.28188,0.155302 3.95582,-0.489849 4.8814,-2.822284 1.00902,-2.095373 -1.13429,-4.118714 -3.11217,-3.795855 -0.47037,-0.294268 -1.06966,-0.386873 -1.6027,-0.209442 z"
       id="path23353"
       inkscape:connector-curvature="0" />
  </g>
  <metadata
     id="metadata22803">
    <rdf:RDF>
      <cc:Work>
        <dc:format>image/svg+xml</dc:format>
        <dc:type
           rdf:resource="http://purl.org/dc/dcmitype/StillImage" />
        <cc:license
           rdf:resource="http://creativecommons.org/publicdomain/zero/1.0/" />
        <dc:publisher>
          <cc:Agent
             rdf:about="http://openclipart.org/">
            <dc:title>Openclipart</dc:title>
          </cc:Agent>
        </dc:publisher>
        <dc:title>Washing machine</dc:title>
        <dc:date>2006-12-29T11:28:30</dc:date>
        <dc:description>Converted to SVG from clipart on “PC för alla” CD 3-2003.</dc:description>
        <dc:source>https://openclipart.org/detail/2451/washing-machine-by-liftarn</dc:source>
        <dc:creator>
          <cc:Agent>
            <dc:title>liftarn</dc:title>
          </cc:Agent>
        </dc:creator>
        <dc:subject>
          <rdf:Bag>
            <rdf:li>electrical appliance</rdf:li>
            <rdf:li>externalsource</rdf:li>
            <rdf:li>household</rdf:li>
            <rdf:li>laundry</rdf:li>
            <rdf:li>machine</rdf:li>
            <rdf:li>pc for alla</rdf:li>
            <rdf:li>washing</rdf:li>
          </rdf:Bag>
        </dc:subject>
      </cc:Work>
      <cc:License
         rdf:about="http://creativecommons.org/publicdomain/zero/1.0/">
        <cc:permits
           rdf:resource="http://creativecommons.org/ns#Reproduction" />
        <cc:permits
           rdf:resource="http://creativecommons.org/ns#Distribution" />
        <cc:permits
           rdf:resource="http://creativecommons.org/ns#DerivativeWorks" />
      </cc:License>
    </rdf:RDF>
  </metadata>
</svg>
