<?xml version="1.0" encoding="utf-8"?>

<!DOCTYPE svg PUBLIC "-//W3C//DTD SVG 1.1//EN" "http://www.w3.org/Graphics/SVG/1.1/DTD/svg11.dtd">
<svg version="1.1" id="Layer_1" xmlns="http://www.w3.org/2000/svg" xmlns:xlink="http://www.w3.org/1999/xlink" x="0px" y="0px"
	 viewBox="0 0 1665.458 1665.458" enable-background="new 0 0 1665.458 1665.458" xml:space="preserve">
<g>
	<path d="M1216.634,448.825h-41.251c-13.621-15.578-26.525-31.734-38.579-48.421c52.373-12.142,100.746-41.44,135.349-82.632
		c21.496-25.583,38.318-58.578,32.305-91.447c-4.001-21.865-17.513-40.629-30.91-58.369c0.232,21.433-3.111,44.967-18.956,59.4
		c-5.199,4.735-11.886,8.299-18.914,8.103c-7.032-0.194-14.168-4.959-15.509-11.86c-1.341-6.904,4.962-14.658,11.888-13.447
		c-6.203-21.144-25.991-36.097-47.079-42.482c-17.05-5.159-35.02-5.641-52.912-5.152c-28.272-10.852-60.351-10.715-87.204,2.2
		c-23.315,11.224-40.206,30.361-46.356,52.477c-7.156,25.702,1.904,53.747,22.02,68.197c11.183,8.08,25.784,11.224,40.07,8.852
		c13.223-2.262,24.405-9.073,31.493-19.221c6.37-9.128,8.466-21.372,5.487-31.99c-1.155-4.118-3.041-7.758-5.512-10.817
		c1.272-3.059,1.981-6.412,1.981-9.932c0-14.297-11.589-25.885-25.886-25.885c-14.291,0-25.88,11.588-25.88,25.885
		c0,14.298,11.589,25.886,25.88,25.886c2.393,0,4.699-0.35,6.898-0.958c0.285,0.504,0.554,1.128,0.776,1.915
		c1.144,4.082,0.207,9.431-2.275,12.961c-3.586,5.157-9.543,8.659-16.754,9.9c-8.162,1.406-16.835-0.414-23.081-4.936
		c-12.382-8.88-18.035-27.301-13.457-43.791c4.344-15.636,17.208-29.921,34.388-38.194c32.513-15.663,76.69-6.784,102.75,20.6
		c25.384,26.694,34.181,69.438,21.882,106.39c-9.886,29.645-33.836,46.99-64.171,68.97c-4.988,3.627-10.114,7.338-15.332,11.213
		c-59.824,36.132-113.076,81.274-158.594,134.389c-18.872-16.294-36.539-33.966-52.835-52.83
		c31.163-39.074,72.064-70.381,118.537-89.022c3.006-1.213,5.349-3.64,6.439-6.674c1.075-3.061,0.814-6.424-0.759-9.265
		c-19.852-36.003-42.279-70.273-67.089-102.702l36.738-24.076C915.623,142.036,856.083,63.101,832.729,32.729
		c-23.354,30.372-82.893,109.307-149.492,209.334l36.738,24.076c-24.81,32.429-47.237,66.699-67.089,102.702
		c-1.572,2.841-1.834,6.204-0.759,9.265c1.09,3.034,3.433,5.46,6.439,6.674c46.473,18.641,87.374,49.948,118.537,89.022
		c-16.296,18.864-33.963,36.536-52.835,52.83c-45.518-53.114-98.769-98.257-158.594-134.389
		c-5.218-3.875-10.345-7.586-15.332-11.213c-30.334-21.979-54.285-39.324-64.171-68.97c-12.299-36.953-3.501-79.696,21.882-106.39
		c26.06-27.383,70.238-36.262,102.75-20.6c17.18,8.273,30.045,22.558,34.388,38.194c4.578,16.491-1.075,34.911-13.457,43.791
		c-6.246,4.522-14.92,6.342-23.081,4.936c-7.211-1.241-13.168-4.743-16.754-9.9c-2.482-3.53-3.419-8.879-2.275-12.961
		c0.222-0.788,0.491-1.411,0.776-1.915c2.199,0.607,4.505,0.958,6.898,0.958c14.291,0,25.88-11.588,25.88-25.886
		c0-14.297-11.589-25.885-25.88-25.885c-14.297,0-25.886,11.588-25.886,25.885c0,3.52,0.709,6.873,1.981,9.932
		c-2.471,3.06-4.357,6.7-5.512,10.817c-2.979,10.618-0.882,22.861,5.487,31.99c7.088,10.147,18.27,16.959,31.492,19.221
		c14.286,2.371,28.887-0.772,40.07-8.852c20.116-14.451,29.176-42.495,22.02-68.197c-6.149-22.116-23.041-41.254-46.356-52.477
		c-26.853-12.915-58.932-13.051-87.204-2.2c-17.892-0.489-35.862-0.007-52.912,5.152c-21.088,6.385-40.875,21.337-47.079,42.482
		c6.926-1.211,13.229,6.543,11.888,13.447c-1.341,6.901-8.477,11.666-15.509,11.86c-7.028,0.195-13.715-3.368-18.914-8.103
		c-15.844-14.434-19.188-37.968-18.956-59.4c-13.396,17.74-26.909,36.504-30.91,58.369c-6.013,32.87,10.81,65.864,32.305,91.447
		c34.603,41.191,82.976,70.49,135.349,82.632c-12.053,16.686-24.958,32.843-38.579,48.421h-41.251v41.251
		c-15.578,13.621-31.734,26.525-48.421,38.579c-12.142-52.373-41.44-100.746-82.632-135.349
		c-25.583-21.496-58.578-38.318-91.447-32.305c-21.865,4.001-40.629,17.513-58.369,30.91c21.433-0.232,44.967,3.111,59.4,18.956
		c4.735,5.199,8.299,11.886,8.103,18.914c-0.194,7.032-4.959,14.168-11.86,15.509c-6.904,1.341-14.658-4.962-13.447-11.888
		c-21.144,6.203-36.097,25.991-42.482,47.079c-5.159,17.05-5.641,35.02-5.152,52.912c-10.852,28.272-10.715,60.351,2.2,87.204
		c11.224,23.315,30.361,40.206,52.477,46.356c25.702,7.156,53.747-1.904,68.197-22.02c8.08-11.183,11.224-25.784,8.852-40.07
		c-2.262-13.223-9.073-24.405-19.221-31.492c-9.128-6.37-21.372-8.466-31.99-5.487c-4.118,1.155-7.758,3.041-10.817,5.512
		c-3.059-1.272-6.412-1.981-9.932-1.981c-14.297,0-25.885,11.589-25.885,25.886c0,14.291,11.588,25.88,25.885,25.88
		c14.298,0,25.886-11.589,25.886-25.88c0-2.393-0.35-4.699-0.958-6.898c0.504-0.285,1.128-0.554,1.915-0.776
		c4.082-1.144,9.431-0.207,12.961,2.275c5.157,3.586,8.659,9.543,9.9,16.754c1.406,8.162-0.414,16.836-4.936,23.081
		c-8.88,12.382-27.301,18.035-43.791,13.457c-15.636-4.344-29.921-17.208-38.194-34.388c-15.663-32.513-6.784-76.69,20.6-102.75
		c26.694-25.383,69.438-34.181,106.39-21.882c29.645,9.886,46.99,33.836,68.97,64.171c3.627,4.988,7.338,10.114,11.213,15.332
		c36.132,59.824,81.274,113.076,134.389,158.594c-16.294,18.872-33.966,36.539-52.83,52.835
		c-39.074-31.163-70.381-72.064-89.022-118.537c-1.213-3.006-3.64-5.349-6.674-6.439c-3.061-1.075-6.424-0.814-9.265,0.759
		c-36.003,19.852-70.273,42.279-102.702,67.089l-24.076-36.738C142.036,749.836,63.101,809.375,32.729,832.729
		c30.372,23.354,109.307,82.894,209.334,149.492l24.076-36.738c32.429,24.81,66.699,47.237,102.702,67.089
		c2.841,1.572,6.204,1.834,9.265,0.759c3.034-1.09,5.46-3.433,6.674-6.439c18.641-46.473,49.948-87.374,89.022-118.537
		c18.864,16.296,36.536,33.963,52.83,52.835c-53.114,45.518-98.257,98.769-134.389,158.594c-3.875,5.218-7.586,10.345-11.213,15.332
		c-21.979,30.334-39.324,54.285-68.97,64.171c-36.953,12.299-79.696,3.502-106.39-21.882c-27.383-26.06-36.262-70.238-20.6-102.75
		c8.273-17.18,22.558-30.045,38.194-34.388c16.491-4.578,34.911,1.075,43.791,13.457c4.522,6.246,6.342,14.92,4.936,23.081
		c-1.241,7.211-4.743,13.168-9.9,16.754c-3.53,2.482-8.879,3.419-12.961,2.275c-0.788-0.222-1.411-0.491-1.915-0.776
		c0.607-2.199,0.958-4.505,0.958-6.898c0-14.291-11.588-25.88-25.886-25.88c-14.297,0-25.885,11.589-25.885,25.88
		c0,14.297,11.588,25.886,25.885,25.886c3.52,0,6.873-0.709,9.932-1.981c3.06,2.471,6.7,4.357,10.817,5.512
		c10.618,2.979,22.861,0.882,31.99-5.487c10.147-7.088,16.959-18.27,19.221-31.493c2.371-14.286-0.772-28.886-8.852-40.07
		c-14.451-20.116-42.495-29.176-68.197-22.02c-22.116,6.149-41.254,23.041-52.477,46.356c-12.915,26.853-13.051,58.932-2.2,87.204
		c-0.489,17.892-0.007,35.862,5.152,52.912c6.385,21.088,21.337,40.875,42.482,47.079c-1.211-6.926,6.543-13.229,13.447-11.888
		c6.901,1.341,11.666,8.477,11.86,15.509c0.195,7.028-3.368,13.715-8.103,18.914c-14.434,15.844-37.968,19.188-59.4,18.956
		c17.74,13.396,36.504,26.909,58.369,30.91c32.87,6.013,65.864-10.809,91.447-32.305c41.191-34.603,70.49-82.976,82.632-135.349
		c16.686,12.053,32.843,24.958,48.421,38.579v41.251h41.251c13.621,15.578,26.525,31.734,38.579,48.421
		c-52.373,12.142-100.746,41.44-135.349,82.632c-21.496,25.583-38.318,58.578-32.305,91.447
		c4.001,21.865,17.513,40.629,30.91,58.369c-0.232-21.433,3.111-44.967,18.956-59.4c5.199-4.735,11.886-8.299,18.914-8.103
		c7.032,0.194,14.168,4.959,15.509,11.86c1.341,6.904-4.962,14.658-11.888,13.447c6.203,21.144,25.991,36.097,47.079,42.482
		c17.05,5.159,35.02,5.641,52.912,5.152c28.272,10.852,60.351,10.715,87.204-2.2c23.315-11.224,40.206-30.361,46.356-52.477
		c7.156-25.702-1.904-53.747-22.02-68.197c-11.183-8.08-25.784-11.224-40.07-8.852c-13.223,2.262-24.405,9.073-31.492,19.221
		c-6.37,9.128-8.466,21.372-5.487,31.99c1.155,4.118,3.041,7.758,5.512,10.817c-1.272,3.059-1.981,6.412-1.981,9.932
		c0,14.297,11.589,25.885,25.886,25.885c14.291,0,25.88-11.589,25.88-25.885c0-14.298-11.589-25.886-25.88-25.886
		c-2.393,0-4.699,0.35-6.898,0.958c-0.285-0.504-0.554-1.128-0.776-1.915c-1.144-4.082-0.207-9.431,2.275-12.961
		c3.586-5.157,9.543-8.659,16.754-9.9c8.162-1.406,16.836,0.414,23.081,4.936c12.382,8.88,18.035,27.301,13.457,43.792
		c-4.344,15.636-17.208,29.921-34.388,38.194c-32.513,15.663-76.69,6.784-102.75-20.6c-25.383-26.694-34.181-69.438-21.882-106.39
		c9.886-29.645,33.836-46.99,64.171-68.97c4.988-3.627,10.114-7.338,15.332-11.213c59.824-36.132,113.076-81.274,158.594-134.389
		c18.872,16.294,36.539,33.966,52.835,52.83c-31.163,39.074-72.064,70.381-118.537,89.022c-3.006,1.213-5.349,3.64-6.439,6.674
		c-1.075,3.061-0.814,6.424,0.759,9.265c19.852,36.003,42.279,70.273,67.089,102.702l-36.738,24.076
		c66.599,100.027,126.138,178.962,149.492,209.334c23.354-30.372,82.894-109.307,149.492-209.334l-36.738-24.076
		c24.81-32.429,47.237-66.699,67.089-102.702c1.572-2.841,1.834-6.204,0.759-9.265c-1.09-3.034-3.433-5.46-6.439-6.674
		c-46.473-18.641-87.374-49.948-118.537-89.022c16.296-18.864,33.963-36.536,52.835-52.83
		c45.518,53.114,98.769,98.257,158.594,134.389c5.218,3.875,10.345,7.586,15.332,11.213c30.334,21.979,54.285,39.324,64.171,68.97
		c12.299,36.953,3.502,79.696-21.882,106.39c-26.06,27.384-70.238,36.262-102.75,20.6c-17.18-8.273-30.045-22.558-34.388-38.194
		c-4.578-16.491,1.075-34.911,13.457-43.792c6.246-4.522,14.92-6.342,23.081-4.936c7.211,1.241,13.168,4.743,16.754,9.9
		c2.482,3.53,3.419,8.879,2.275,12.961c-0.222,0.788-0.491,1.411-0.776,1.915c-2.199-0.607-4.505-0.958-6.898-0.958
		c-14.291,0-25.88,11.588-25.88,25.886c0,14.297,11.589,25.885,25.88,25.885c14.297,0,25.886-11.589,25.886-25.885
		c0-3.52-0.709-6.873-1.981-9.932c2.471-3.06,4.357-6.7,5.512-10.817c2.979-10.618,0.882-22.861-5.487-31.99
		c-7.088-10.147-18.27-16.959-31.493-19.221c-14.286-2.371-28.886,0.772-40.07,8.852c-20.116,14.45-29.176,42.495-22.02,68.197
		c6.149,22.116,23.041,41.254,46.356,52.477c26.853,12.915,58.932,13.052,87.204,2.2c17.892,0.489,35.862,0.007,52.912-5.152
		c21.088-6.385,40.875-21.337,47.079-42.482c-6.926,1.211-13.229-6.543-11.888-13.447c1.341-6.901,8.477-11.666,15.509-11.86
		c7.028-0.195,13.715,3.368,18.914,8.103c15.844,14.434,19.188,37.968,18.956,59.4c13.396-17.74,26.909-36.504,30.91-58.369
		c6.013-32.87-10.809-65.864-32.305-91.447c-34.603-41.192-82.976-70.49-135.349-82.632c12.053-16.686,24.958-32.843,38.579-48.421
		h41.251v-41.251c15.578-13.621,31.734-26.525,48.421-38.579c12.142,52.373,41.44,100.746,82.632,135.349
		c25.583,21.496,58.578,38.318,91.447,32.305c21.865-4.001,40.629-17.513,58.369-30.91c-21.433,0.232-44.967-3.111-59.4-18.956
		c-4.735-5.199-8.299-11.886-8.103-18.914c0.194-7.032,4.959-14.168,11.86-15.509c6.904-1.341,14.658,4.962,13.447,11.888
		c21.144-6.203,36.097-25.991,42.482-47.079c5.159-17.05,5.641-35.02,5.152-52.912c10.852-28.272,10.715-60.351-2.2-87.204
		c-11.224-23.315-30.361-40.206-52.477-46.356c-25.702-7.156-53.747,1.904-68.197,22.02c-8.08,11.183-11.224,25.784-8.852,40.07
		c2.262,13.223,9.073,24.405,19.221,31.493c9.128,6.37,21.372,8.466,31.99,5.487c4.118-1.155,7.758-3.041,10.817-5.512
		c3.059,1.272,6.412,1.981,9.932,1.981c14.297,0,25.885-11.589,25.885-25.886c0-14.291-11.589-25.88-25.885-25.88
		c-14.298,0-25.886,11.589-25.886,25.88c0,2.393,0.35,4.699,0.958,6.898c-0.504,0.285-1.128,0.554-1.915,0.776
		c-4.082,1.144-9.431,0.207-12.961-2.275c-5.157-3.586-8.659-9.543-9.9-16.754c-1.406-8.162,0.414-16.835,4.936-23.081
		c8.88-12.382,27.301-18.035,43.792-13.457c15.636,4.344,29.921,17.208,38.194,34.388c15.663,32.513,6.784,76.69-20.6,102.75
		c-26.694,25.384-69.438,34.181-106.39,21.882c-29.645-9.886-46.99-33.836-68.97-64.171c-3.627-4.988-7.338-10.114-11.213-15.332
		c-36.132-59.824-81.274-113.076-134.389-158.594c16.294-18.872,33.966-36.539,52.83-52.835
		c39.074,31.163,70.381,72.064,89.022,118.537c1.213,3.006,3.64,5.349,6.674,6.439c3.061,1.075,6.424,0.814,9.265-0.759
		c36.003-19.852,70.273-42.279,102.702-67.089l24.076,36.738c100.027-66.599,178.962-126.138,209.334-149.492
		c-30.372-23.354-109.307-82.893-209.334-149.492l-24.076,36.738c-32.429-24.81-66.699-47.237-102.702-67.089
		c-2.841-1.572-6.204-1.834-9.265-0.759c-3.034,1.09-5.46,3.433-6.674,6.439c-18.641,46.473-49.948,87.374-89.022,118.537
		c-18.864-16.296-36.536-33.963-52.83-52.835c53.114-45.518,98.257-98.769,134.389-158.594c3.875-5.218,7.586-10.345,11.213-15.332
		c21.979-30.334,39.324-54.285,68.97-64.171c36.953-12.299,79.696-3.501,106.39,21.882c27.384,26.06,36.262,70.238,20.6,102.75
		c-8.273,17.18-22.558,30.045-38.194,34.388c-16.491,4.578-34.911-1.075-43.792-13.457c-4.522-6.246-6.342-14.92-4.936-23.081
		c1.241-7.211,4.743-13.168,9.9-16.754c3.53-2.482,8.879-3.419,12.961-2.275c0.788,0.222,1.411,0.491,1.915,0.776
		c-0.607,2.199-0.958,4.505-0.958,6.898c0,14.291,11.588,25.88,25.886,25.88c14.297,0,25.885-11.589,25.885-25.88
		c0-14.297-11.589-25.886-25.885-25.886c-3.52,0-6.873,0.709-9.932,1.981c-3.06-2.471-6.7-4.357-10.817-5.512
		c-10.618-2.979-22.861-0.882-31.99,5.487c-10.147,7.088-16.959,18.27-19.221,31.492c-2.371,14.286,0.772,28.887,8.852,40.07
		c14.45,20.116,42.495,29.176,68.197,22.02c22.116-6.149,41.254-23.041,52.477-46.356c12.915-26.853,13.052-58.932,2.2-87.204
		c0.489-17.892,0.007-35.862-5.152-52.912c-6.385-21.088-21.337-40.875-42.482-47.079c1.211,6.926-6.543,13.229-13.447,11.888
		c-6.901-1.341-11.666-8.477-11.86-15.509c-0.195-7.028,3.368-13.715,8.103-18.914c14.434-15.844,37.968-19.188,59.4-18.956
		c-17.74-13.396-36.504-26.909-58.369-30.91c-32.87-6.013-65.864,10.81-91.447,32.305c-41.192,34.603-70.49,82.976-82.632,135.349
		c-16.686-12.053-32.843-24.958-48.421-38.579V448.825z M1069.469,595.99v473.479H595.99V595.99H1069.469z M1139.743,525.716
		c-15.309-16.205-28.96-33.974-40.613-52.981c-34.727,27.799-64.192,62.134-86.455,100.643h-10.94
		c-0.878-1.698-2.191-3.198-3.916-4.302c-13.521-8.709-26.595-18.092-39.215-28.046c42.128-49.085,91.106-91.132,145.953-125.224
		c1.412-0.361,2.782-0.968,4.01-1.904c1.278-0.968,2.545-1.914,3.813-2.859c0.989-0.595,1.964-1.21,2.957-1.801
		c19.247,27.098,40.614,52.931,63.736,77.145c24.214,23.122,50.047,44.489,77.145,63.736c-0.59,0.993-1.205,1.968-1.801,2.957
		c-0.946,1.267-1.891,2.535-2.859,3.813c-0.936,1.228-1.543,2.598-1.904,4.01c-34.092,54.847-76.139,103.825-125.224,145.953
		c-9.954-12.62-19.337-25.694-28.046-39.215c-1.104-1.725-2.605-3.037-4.302-3.916v-10.94
		c38.509-22.263,72.844-51.727,100.643-86.455C1173.717,554.676,1155.948,541.025,1139.743,525.716z M1139.743,1139.743
		c16.205-15.309,33.974-28.96,52.981-40.613c-27.799-34.727-62.134-64.192-100.643-86.455v-10.94
		c1.698-0.878,3.198-2.191,4.302-3.916c8.709-13.521,18.092-26.595,28.046-39.215c49.085,42.128,91.132,91.106,125.224,145.953
		c0.361,1.412,0.968,2.782,1.904,4.01c0.968,1.278,1.914,2.545,2.859,3.813c0.595,0.989,1.21,1.964,1.801,2.957
		c-27.098,19.247-52.931,40.614-77.145,63.736c-23.122,24.214-44.489,50.047-63.736,77.145c-0.993-0.59-1.968-1.205-2.957-1.801
		c-1.267-0.946-2.535-1.891-3.813-2.859c-1.228-0.936-2.598-1.543-4.01-1.904c-54.847-34.092-103.825-76.139-145.953-125.224
		c12.62-9.954,25.694-19.337,39.215-28.046c1.725-1.104,3.037-2.605,3.916-4.302h10.94c22.263,38.509,51.727,72.844,86.455,100.643
		C1110.783,1173.717,1124.434,1155.948,1139.743,1139.743z M525.716,1139.743c15.309,16.205,28.96,33.974,40.613,52.981
		c34.727-27.799,64.192-62.134,86.455-100.643h10.94c0.878,1.698,2.191,3.198,3.916,4.302c13.521,8.709,26.595,18.092,39.215,28.046
		c-42.128,49.085-91.106,91.132-145.953,125.224c-1.412,0.361-2.782,0.968-4.01,1.904c-1.278,0.968-2.545,1.914-3.813,2.859
		c-0.989,0.595-1.964,1.21-2.957,1.801c-19.247-27.098-40.614-52.931-63.736-77.145c-24.214-23.122-50.047-44.489-77.145-63.736
		c0.59-0.993,1.205-1.968,1.801-2.957c0.946-1.267,1.891-2.535,2.859-3.813c0.936-1.228,1.543-2.598,1.904-4.01
		c34.092-54.847,76.139-103.825,125.224-145.953c9.954,12.62,19.337,25.694,28.046,39.215c1.104,1.725,2.605,3.037,4.302,3.916
		v10.94c-38.509,22.263-72.844,51.727-100.643,86.455C491.742,1110.783,509.51,1124.434,525.716,1139.743z M525.716,525.716
		c-16.205,15.309-33.974,28.96-52.981,40.613c27.799,34.727,62.134,64.192,100.643,86.455v10.94
		c-1.698,0.878-3.198,2.191-4.302,3.916c-8.709,13.521-18.092,26.595-28.046,39.215c-49.085-42.128-91.132-91.106-125.224-145.953
		c-0.361-1.412-0.968-2.782-1.904-4.01c-0.968-1.278-1.914-2.545-2.859-3.813c-0.595-0.989-1.21-1.964-1.801-2.957
		c27.098-19.247,52.931-40.614,77.145-63.736c23.122-24.214,44.489-50.047,63.736-77.145c0.993,0.59,1.968,1.205,2.957,1.801
		c1.267,0.946,2.535,1.891,3.813,2.859c1.228,0.936,2.598,1.543,4.01,1.904c54.847,34.092,103.825,76.139,145.953,125.224
		c-12.62,9.954-25.694,19.337-39.215,28.046c-1.725,1.104-3.037,2.605-3.916,4.302h-10.94
		c-22.263-38.509-51.727-72.844-86.455-100.643C554.676,491.742,541.025,509.51,525.716,525.716z M964.076,573.377h-127.75
		c8.417-28.797,21.465-56.114,38.27-80.906C901.231,522.707,931.303,549.9,964.076,573.377z M573.377,701.382v127.75
		c-28.797-8.417-56.114-21.465-80.906-38.27C522.707,764.228,549.9,734.155,573.377,701.382z M701.382,1092.081h127.75
		c-8.417,28.797-21.465,56.114-38.27,80.906C764.228,1142.751,734.155,1115.558,701.382,1092.081z M1092.081,964.076v-127.75
		c28.797,8.417,56.114,21.465,80.906,38.27C1142.751,901.231,1115.558,931.303,1092.081,964.076z M1172.987,790.862
		c-24.791,16.805-52.109,29.853-80.906,38.27v-127.75C1115.558,734.155,1142.751,764.228,1172.987,790.862z M790.862,492.472
		c16.805,24.791,29.853,52.109,38.27,80.906h-127.75C734.155,549.9,764.228,522.707,790.862,492.472z M492.472,874.596
		c24.791-16.805,52.109-29.853,80.906-38.27v127.75C549.9,931.303,522.707,901.231,492.472,874.596z M874.596,1172.987
		c-16.805-24.791-29.853-52.109-38.27-80.906h127.75C931.303,1115.558,901.231,1142.751,874.596,1172.987z M832.729,438.27
		c8.426,12.473,17.392,24.577,26.836,36.295c-10.176,14.382-19.178,29.594-26.836,45.459c-7.658-15.865-16.659-31.077-26.836-45.459
		C815.337,462.847,824.303,450.743,832.729,438.27z M1227.188,832.729c-12.473,8.426-24.577,17.392-36.295,26.836
		c-14.382-10.176-29.594-19.178-45.459-26.836c15.865-7.658,31.077-16.659,45.459-26.836
		C1202.611,815.337,1214.715,824.303,1227.188,832.729z M832.729,1227.188c-8.426-12.473-17.392-24.577-26.836-36.295
		c10.176-14.382,19.178-29.594,26.836-45.459c7.658,15.865,16.659,31.077,26.836,45.459
		C850.121,1202.611,841.155,1214.715,832.729,1227.188z M438.27,832.729c12.473-8.426,24.577-17.392,36.295-26.836
		c14.382,10.176,29.594,19.178,45.459,26.836c-15.865,7.658-31.077,16.659-45.459,26.836
		C462.847,850.121,450.743,841.155,438.27,832.729z M832.729,196.45l74.533,94.737l19.27-12.628
		c22.009,28.645,42.108,58.769,60.146,90.31c-43.782,19.794-82.513,50.106-112.999,87.204
		c-13.654-17.325-26.151-35.553-37.431-54.519c21.786-6.11,37.768-26.103,37.768-49.84c0-25-17.72-45.86-41.286-50.707
		c-23.565,4.847-41.286,25.708-41.286,50.707c0,23.737,15.982,43.731,37.768,49.84c-11.28,18.966-23.778,37.194-37.431,54.519
		c-30.487-37.098-69.217-67.41-112.999-87.204c18.037-31.54,38.136-61.665,60.146-90.31l19.27,12.628L832.729,196.45z
		 M1469.008,832.729l-94.737,74.533l12.629,19.27c-28.645,22.009-58.769,42.108-90.31,60.146
		c-19.794-43.782-50.106-82.513-87.204-112.999c17.325-13.654,35.553-26.151,54.519-37.431c6.11,21.786,26.104,37.768,49.841,37.768
		c25,0,45.86-17.72,50.707-41.286c-4.847-23.565-25.708-41.286-50.707-41.286c-23.737,0-43.731,15.982-49.841,37.768
		c-18.966-11.28-37.194-23.778-54.519-37.431c37.098-30.487,67.41-69.217,87.204-112.999c31.541,18.037,61.665,38.136,90.31,60.146
		l-12.629,19.27L1469.008,832.729z M832.729,1469.008l-74.533-94.737l-19.27,12.629c-22.009-28.645-42.108-58.769-60.146-90.31
		c43.782-19.794,82.512-50.106,112.999-87.204c13.654,17.325,26.151,35.553,37.431,54.519c-21.786,6.11-37.768,26.104-37.768,49.841
		c0,25,17.72,45.86,41.286,50.707c23.565-4.847,41.286-25.708,41.286-50.707c0-23.737-15.982-43.731-37.768-49.841
		c11.28-18.966,23.778-37.194,37.431-54.519c30.487,37.098,69.217,67.41,112.999,87.204c-18.037,31.541-38.136,61.665-60.146,90.31
		l-19.27-12.629L832.729,1469.008z M196.45,832.729l94.737-74.533l-12.628-19.27c28.645-22.009,58.769-42.108,90.31-60.146
		c19.794,43.782,50.106,82.512,87.204,112.999c-17.325,13.654-35.553,26.151-54.519,37.431c-6.11-21.786-26.103-37.768-49.84-37.768
		c-25,0-45.86,17.72-50.707,41.286c4.847,23.565,25.708,41.286,50.707,41.286c23.737,0,43.731-15.982,49.84-37.768
		c18.966,11.28,37.194,23.778,54.519,37.431c-37.098,30.487-67.41,69.217-87.204,112.999c-31.54-18.037-61.665-38.136-90.31-60.146
		l12.628-19.27L196.45,832.729z"/>
</g>
</svg>
