<?xml version="1.0" encoding="UTF-8" standalone="no"?>
<!-- Created with Inkscape (http://www.inkscape.org/) -->

<svg
   xmlns:dc="http://purl.org/dc/elements/1.1/"
   xmlns:cc="http://creativecommons.org/ns#"
   xmlns:rdf="http://www.w3.org/1999/02/22-rdf-syntax-ns#"
   xmlns:svg="http://www.w3.org/2000/svg"
   xmlns="http://www.w3.org/2000/svg"
   xmlns:sodipodi="http://sodipodi.sourceforge.net/DTD/sodipodi-0.dtd"
   xmlns:inkscape="http://www.inkscape.org/namespaces/inkscape"
   version="1.1"
   id="svg64"
   width="1056"
   height="816"
   viewBox="0 0 1056 816"
   sodipodi:docname="trumpet.svg"
   inkscape:version="0.92.2 (5c3e80d, 2017-08-06)">
  <metadata
     id="metadata70">
    <rdf:RDF>
      <cc:Work
         rdf:about="">
        <dc:format>image/svg+xml</dc:format>
        <dc:type
           rdf:resource="http://purl.org/dc/dcmitype/StillImage" />
        <dc:title></dc:title>
      </cc:Work>
    </rdf:RDF>
  </metadata>
  <defs
     id="defs68" />
  <sodipodi:namedview
     pagecolor="#ffffff"
     bordercolor="#666666"
     borderopacity="1"
     objecttolerance="10"
     gridtolerance="10"
     guidetolerance="10"
     inkscape:pageopacity="0"
     inkscape:pageshadow="2"
     inkscape:window-width="1280"
     inkscape:window-height="962"
     id="namedview66"
     showgrid="false"
     inkscape:zoom="0.97181373"
     inkscape:cx="528"
     inkscape:cy="408"
     inkscape:window-x="-8"
     inkscape:window-y="-8"
     inkscape:window-maximized="1"
     inkscape:current-layer="svg64" />
  <g
     id="g74"
     transform="translate(125.53846,7.2030265)">
    <path
       style="fill:#fdfdfd;stroke-width:1"
       d="M 0,408 V 0 h 528 528 V 408 816 H 528 0 Z"
       id="path84"
       inkscape:connector-curvature="0" />
    <path
       style="fill:#9f9ffa;stroke-width:1"
       d="m 639.1548,452.21572 c -6.97685,-3.61992 -13.27073,-7.16721 -13.98639,-7.88286 -1.97781,-1.97782 -3.03663,-7.75776 -3.49026,-19.05286 -0.4747,-11.81971 0.1255,-15.86609 2.98086,-20.09631 l 1.90099,-2.8163 v -22.51703 c 0,-12.38436 -0.17121,-22.68824 -0.38048,-22.89751 -0.20926,-0.20926 -1.28926,0.17367 -2.4,0.85095 -2.74042,1.67099 -5.32604,1.55095 -7.83641,-0.3638 -1.15374,-0.88 -2.63532,-1.6 -3.29241,-1.6 -2.2241,0 -2.7307,1.3298 -2.7307,7.168 v 5.632 h 1.77759 c 2.26876,0 4.32924,1.44829 5.74606,4.03885 0.99557,1.82031 1.13753,4.66669 1.31215,26.30813 0.22423,27.78986 -0.32393,36.20504 -2.50994,38.53194 -2.21332,2.35597 -5.46716,2.00281 -15.12338,-1.64143 -4.60887,-1.73937 -8.90688,-3.44025 -9.55113,-3.77974 -0.64424,-0.33947 -4.62735,-1.53091 -8.85135,-2.64763 -16.95982,-4.48375 -17.7348,-4.74709 -19.01462,-6.46126 -1.94447,-2.60441 -2.42882,-5.82454 -2.85848,-19.00401 l -0.40213,-12.33515 2.01762,-2.80948 c 1.8393,-2.56118 2.01761,-3.23858 2.01761,-7.66485 0,-2.67045 -0.15386,-4.85537 -0.3419,-4.85537 -0.18805,0 -2.13205,1.91682 -4.32,4.2596 -4.10869,4.39943 -8.85693,7.24242 -12.11558,7.25415 -1.00415,0.004 -1.98025,0.47897 -2.31268,1.12625 -0.31636,0.616 -0.7533,5.872 -0.97097,11.68 -0.69563,18.5607 -1.53347,19.46541 -16.00494,17.28221 -4.27566,-0.64504 -10.07793,-1.32425 -12.89393,-1.50936 -2.816,-0.18511 -6.04632,-0.66653 -7.17849,-1.06982 -1.13217,-0.40329 -3.14817,-0.58421 -4.48,-0.40204 -1.33183,0.18217 -5.44551,0.0774 -9.14151,-0.23275 -3.696,-0.31017 -9.10705,-0.72073 -12.02455,-0.91236 -4.86913,-0.3198 -6.85259,-0.93633 -9.88011,-3.07107 -0.89188,-0.62888 -1.46564,-0.56567 -2.97874,0.32814 -1.86053,1.09904 -7.12393,1.52638 -8.00072,0.6496 -0.2516,-0.25161 -5.16007,-0.36983 -10.90769,-0.26273 -12.96473,0.24158 -14.01877,-0.12289 -15.01415,-5.19156 -0.3638,-1.85255 -0.8999,-4.95226 -1.19133,-6.88826 l -0.52988,-3.52 -1.46637,2.79243 c -1.99548,3.8 -6.77578,8.31536 -10.64646,10.05639 -2.28613,1.0283 -5.02774,1.55696 -9.6,1.85115 -11.31884,0.7283 -20.00885,-1.71607 -25.6794,-7.22323 -2.52695,-2.45415 -3.079,-2.21634 -3.82309,1.64687 -0.23133,1.20107 -1.23946,2.78886 -2.38011,3.74865 l -1.97878,1.66505 -11.22931,-0.28637 c -6.17612,-0.15751 -11.6943,-0.49225 -12.26262,-0.74386 -1.97414,-0.87404 -3.0803,-5.50778 -3.8355,-16.06708 -0.0504,-0.704 -0.46276,2.12603 -0.91648,6.28895 -1.15646,10.61071 -0.29257,10.03128 -14.9539,10.03006 -14.02707,-0.001 -15.80884,-0.49769 -17.22169,-4.79901 -0.92346,-2.8114 -1.85556,-24.01427 -1.17492,-26.72618 0.22848,-0.91034 1.14294,-2.51977 2.03213,-3.57651 0.97298,-1.15632 1.3553,-2.08291 0.96019,-2.3271 -0.36108,-0.22316 -0.92468,-0.24001 -1.25244,-0.0374 -0.32775,0.20256 -2.06883,0.40148 -3.86905,0.44204 -2.53099,0.057 -3.60381,-0.23692 -4.73156,-1.29638 -0.80214,-0.75357 -1.65306,-1.17549 -1.89095,-0.9376 -0.86151,0.86151 -0.40021,2.30038 1.12115,3.49708 2.71678,2.13702 3.15267,4.88476 2.72506,17.17825 -0.4272,12.2817 -0.90259,14.82008 -3.12199,16.67022 -1.36918,1.14138 -2.64571,1.2326 -17.52518,1.25234 -15.83514,0.021 -16.06612,0.002 -17.37866,-1.41871 -1.99421,-2.1588 -2.67435,-5.59819 -3.13774,-15.86736 -0.488,-10.81438 -0.0865,-14.42993 1.93266,-17.40539 l 1.46154,-2.15369 -3.73013,0.26982 c -4.49815,0.32537 -6.46923,-0.72223 -7.93245,-4.21595 -1.49838,-3.57769 -2.33196,-15.13275 -2.09665,-29.06369 0.22829,-13.5148 0.48813,-14.56864 4.19036,-16.99482 1.46525,-0.96022 3.40055,-1.14222 12.95109,-1.21794 6.17563,-0.049 17.13242,-0.2668 24.34842,-0.48407 10.16372,-0.30602 13.76894,-0.19845 16,0.47742 2.40838,0.72959 3.54942,0.73389 6.96789,0.0263 2.56524,-0.53095 9.12088,-0.86852 17.6,-0.90625 15.99942,-0.0712 21.38721,0.74508 28.50396,4.31853 3.11847,1.56584 4.83821,2.12688 5.00311,1.6322 0.69445,-2.08337 3.31518,-5.09804 5.2978,-6.09414 1.91854,-0.9639 4.1344,-1.116 15.98724,-1.09732 10.32332,0.0163 14.14973,0.23755 15.32042,0.88597 1.3636,0.75527 1.86812,0.7039 4,-0.4073 L 419.2,317.95076 v -10.57374 c 0,-8.96322 -0.13573,-10.4611 -0.89114,-9.83417 -0.94797,0.78674 -1.96988,3.13417 -2.57131,5.90656 -0.45191,2.08312 -1.93521,2.7415 -3.23903,1.43768 -1.24849,-1.24849 -1.39104,-10.0036 -0.17852,-10.96404 1.2862,-1.01881 18.73727,-0.97898 19.58684,0.0447 0.43383,0.52274 0.76904,5.10611 0.87756,11.99904 l 0.1756,11.15318 2.24,0.35046 c 1.232,0.19275 3.33169,-0.0146 4.66597,-0.46078 1.53461,-0.51316 6.99224,-0.87708 14.8537,-0.99045 14.54515,-0.20976 14.07737,-0.40324 16.51794,6.83179 0.82251,2.43834 1.79426,4.53294 2.15943,4.65466 0.39318,0.13106 0.80341,-1.51612 1.00593,-4.03911 0.35703,-4.44785 1.3855,-6.4943 4.39179,-8.73883 1.69289,-1.26391 11.82125,-2.44133 22.96524,-2.6697 2.992,-0.0613 6.304,-0.4901 7.36,-0.95287 1.056,-0.46276 4.08,-1.0874 6.72,-1.38808 7.03971,-0.80179 17.77106,-2.43897 21.43556,-3.27023 6.24866,-1.41746 12.96368,-0.43329 18.71474,2.74286 1.84267,1.01765 3.48562,1.85028 3.65101,1.85028 0.16538,0 0.49491,-1.08 0.7323,-2.4 0.73641,-4.09488 2.2115,-5.84402 6.91113,-8.19515 2.42398,-1.21266 4.90786,-2.20485 5.51971,-2.20485 0.61187,0 4.67718,-1.11928 9.03402,-2.4873 4.35684,-1.36801 8.49753,-2.64506 9.20153,-2.8379 0.704,-0.19283 5.45373,-1.80955 10.55494,-3.5927 5.10123,-1.78316 9.81924,-3.2421 10.48446,-3.2421 0.66523,0 2.10751,-0.53767 3.20506,-1.19482 1.09754,-0.65716 4.15554,-1.96496 6.79554,-2.90623 2.64,-0.94127 6.528,-2.55329 8.64,-3.58228 5.10416,-2.48679 16.27789,-7.40811 18.06342,-7.95579 0.78285,-0.24014 5.02714,-2.14757 9.43168,-4.23874 8.54452,-4.05671 10.08768,-4.39918 12.43008,-2.7585 3.23226,2.26394 3.27565,2.78824 3.26343,39.4158 -0.0122,36.45275 -0.38823,43.6258 -2.50464,47.77439 -1.53696,3.01263 -2.93178,3.92617 -5.99463,3.92617 -2.08908,0 -5.56934,-2.45414 -5.56934,-3.92727 0,-0.304 -0.288,-0.55273 -0.64,-0.55273 -0.41805,0 -0.64,11.02228 -0.64,31.78685 v 31.78685 l 2.31981,4.21315 2.31974,4.21315 -0.34617,14.72 c -0.1904,8.096 -0.6562,15.74347 -1.03514,16.99438 -1.1623,3.83651 -2.81536,5.09173 -6.6432,5.04431 -2.94298,-0.0365 -4.82637,-0.81508 -16.02024,-6.62297 z m -131.78192,-88.4135 c 0.1856,-15.04196 0.01,-16.76938 -1.49859,-14.7199 -0.72438,0.98428 -0.91429,4.05284 -0.91429,14.77333 0,7.44207 0.198,13.72902 0.44,13.97102 1.48829,1.48829 1.80967,-0.79623 1.97288,-14.02445 z m -68.67515,11.17148 2.26227,-1.9863 v -8.52135 c 0,-9.37125 -0.21747,-10.54605 -1.95218,-10.54605 -2.62191,0 -3.16782,2.23038 -3.16782,12.94241 0,5.55367 0.13398,10.09759 0.29773,10.09759 0.16375,0 1.31575,-0.89384 2.56,-1.9863 z M 380.0929,367.2 c -0.067,-5.27206 -0.0684,-5.27615 -0.91082,-2.72 -0.91749,2.78387 -1.19706,6.89169 -0.51541,7.57333 1.14735,1.14735 1.48777,-0.0111 1.42623,-4.85333 z m 37.04892,3.61972 c 1.48105,-0.97043 1.52201,-1.21877 1.31345,-7.96438 -0.18758,-6.06726 -0.37988,-7.08695 -1.49527,-7.92868 -1.48094,-1.1176 -2.80118,-1.23865 -4.16,-0.38145 -0.7588,0.47869 -1.00428,2.44045 -1.17126,9.36045 l -0.21127,8.75485 2.09781,-0.41956 c 1.1538,-0.23077 2.78574,-0.87031 3.62654,-1.42123 z M 314.368,318.592 c -0.5351,-0.5351 -0.768,-3.9616 -0.768,-11.29919 0,-10.38827 -0.0169,-10.51592 -1.24372,-9.40564 -0.68406,0.61906 -1.42555,2.03169 -1.64779,3.13919 -0.69943,3.4857 -0.97256,4.12593 -1.91433,4.48732 -0.50441,0.19356 -1.35745,-0.0884 -1.89564,-0.62659 -1.24849,-1.24849 -1.39104,-10.0036 -0.17852,-10.96405 1.14616,-0.90788 18.37497,-0.98054 19.45757,-0.0821 1.07302,0.89052 1.24944,22.32002 0.19991,24.28109 -0.57297,1.07061 -1.37745,1.23793 -5.952,1.23793 -3.26071,0 -5.58405,-0.29457 -6.05748,-0.768 z m 52.48,0 c -0.53252,-0.53252 -0.768,-3.86844 -0.768,-10.88 0,-6.422 -0.23732,-10.112 -0.65036,-10.112 -0.71921,0 -2.275,3.22135 -2.82502,5.84941 -0.4356,2.08132 -1.92066,2.74312 -3.2261,1.43768 -1.24849,-1.24849 -1.39104,-10.0036 -0.17852,-10.96405 1.14616,-0.90788 18.37497,-0.98054 19.45757,-0.0821 1.17019,0.97117 1.25648,23.58897 0.0944,24.75102 -0.47091,0.47091 -2.77333,0.768 -5.952,0.768 -3.17867,0 -5.48109,-0.29709 -5.952,-0.768 z M 331.64056,304.16 c -0.37111,-0.968 -0.87854,-2.47443 -1.12763,-3.34762 -0.24909,-0.87319 -1.05139,-2.39714 -1.78289,-3.38654 -1.74644,-2.36219 -0.85183,-3.91044 2.41944,-4.18714 3.5835,-0.3031 4.21052,0.58851 4.21052,5.98732 0,2.56811 -0.17481,5.12485 -0.38847,5.68163 -0.62381,1.62563 -2.59035,1.18423 -3.33097,-0.74765 z m 52.39963,-0.32 c -0.41531,-1.144 -1.50964,-3.57257 -2.43184,-5.39683 -1.40422,-2.77774 -1.54143,-3.47987 -0.84418,-4.32 0.98795,-1.1904 5.19572,-1.34728 6.30783,-0.23517 0.79906,0.79906 1.08752,9.17466 0.37953,11.01965 -0.67673,1.76354 -2.60231,1.16089 -3.41134,-1.06765 z m 53.12,0 c -0.41531,-1.144 -1.50964,-3.57257 -2.43184,-5.39683 -1.40422,-2.77774 -1.54143,-3.47987 -0.84418,-4.32 0.98795,-1.1904 5.19572,-1.34728 6.30783,-0.23517 0.79906,0.79906 1.08752,9.17466 0.37953,11.01965 -0.67673,1.76354 -2.60231,1.16089 -3.41134,-1.06765 z"
       id="path82"
       inkscape:connector-curvature="0" />
    <path
       style="fill:#3d43f0;stroke-width:1"
       d="m 638.54372,442.19457 c -14.00344,-7.05597 -14.83837,-7.79394 -15.46871,-13.67237 -0.73786,-6.88121 -0.85854,-16.48276 -0.23553,-18.73915 0.35848,-1.2983 1.41425,-3.3599 2.34615,-4.58133 l 1.69437,-2.22077 0.17906,-29.14848 0.17906,-29.14847 -1.77906,1.6598 c -2.78782,2.60094 -4.22017,3.13272 -6.5998,2.45025 -1.15732,-0.33191 -2.7161,-1.17831 -3.46396,-1.88089 -1.06164,-0.99735 -1.88419,-1.1923 -3.75193,-0.8892 l -2.3922,0.3882 0.17441,11.27392 0.17442,11.27392 2.24,0.2077 c 2.82772,0.2622 4.94824,2.21765 5.78842,5.33783 0.77464,2.87681 0.76589,40.19994 -0.0111,47.1305 -0.9481,8.45738 -2.79418,9.0067 -15.14104,4.5054 -4.88198,-1.77982 -9.65402,-3.63776 -10.60454,-4.12874 -0.9505,-0.49098 -2.32551,-0.89269 -3.05557,-0.89269 -2.02614,0 -21.19634,-5.70945 -23.37619,-6.96211 -2.65757,-1.5272 -3.39043,-4.25223 -3.86444,-14.36938 l -0.40341,-8.61071 1.97392,-2.72492 1.97393,-2.72493 -0.003,-10.62398 -0.003,-10.62397 -3.66977,4.16 c -7.1474,8.10218 -9.03471,9.1367 -18.01783,9.87634 -2.25134,0.18537 -4.21868,0.46235 -4.37185,0.61553 -0.43647,0.43646 1.07757,2.94813 1.77713,2.94813 0.34479,0 1.2072,0.936 1.91646,2.08 1.17094,1.88864 1.25809,2.8267 0.9473,10.19625 -0.18826,4.46394 -0.51091,8.63994 -0.71702,9.28 -1.01079,3.13903 -1.88112,4.08667 -4.3696,4.75779 -2.75936,0.74417 -5.49705,0.48574 -22.44907,-2.11919 -4.576,-0.70316 -11.488,-1.3586 -15.36,-1.45653 -17.96197,-0.45428 -24.2541,-1.22485 -27.02743,-3.30993 -1.86582,-1.40278 -2.20909,-1.46611 -3.52,-0.64936 -2.43713,1.51843 -5.50871,1.78755 -7.66651,0.67171 -1.53155,-0.792 -2.30256,-0.86086 -3.50488,-0.31305 -0.87112,0.39691 -5.21585,0.70127 -9.99129,0.69992 -7.29458,-0.002 -8.73427,-0.17579 -10.52989,-1.2706 -1.144,-0.69751 -2.08109,-1.48843 -2.08243,-1.7576 -0.001,-0.26918 -0.41655,-3.04062 -0.92269,-6.15876 -0.90713,-5.58856 -1.53084,-7.27357 -2.10083,-5.67564 -0.84788,2.37699 -4.77132,7.09439 -7.99423,9.61197 -3.35713,2.62243 -4.0725,2.90242 -8.64,3.38158 -8.50766,0.89252 -15.10379,0.69165 -19.20519,-0.58484 -3.92223,-1.22074 -11.51314,-5.92609 -12.12264,-7.51442 -0.66431,-1.73115 -1.46072,-0.89386 -2.47789,2.60507 -1.5427,5.30673 -1.92036,5.44563 -14.80638,5.44563 -6.93263,0 -11.62593,-0.27267 -12.63909,-0.73429 -2.23871,-1.02003 -2.89558,-3.5318 -3.47077,-13.27171 -0.29503,-4.99599 -0.80528,-8.71742 -1.25722,-9.16936 -0.58752,-0.58752 -0.76469,0.17887 -0.77845,3.36736 -0.0336,7.79213 -0.69832,15.63258 -1.46006,17.22188 -1.06325,2.21842 -4.43686,2.71633 -16.31116,2.40739 -13.87406,-0.36098 -13.91012,-0.39698 -14.56579,-14.54127 l -0.37085,-8 1.96284,-2.19527 c 1.89302,-2.11718 1.96284,-2.40745 1.96284,-8.16 0,-3.2806 -0.216,-5.95452 -0.48,-5.94205 -0.264,0.0125 -1.2,0.43427 -2.08,0.93732 -0.88,0.50305 -2.81014,0.92485 -4.28919,0.93732 -2.26876,0.0191 -3.04422,-0.34288 -4.96,-2.3155 L 307.2,358.20365 v 7.16873 c 0,6.69594 0.0991,7.26169 1.50265,8.57818 2.83844,2.66237 3.12379,3.91444 2.7073,11.87906 -0.72948,13.94945 -0.34005,13.69678 -20.67667,13.41579 l -14.86671,-0.20541 -1.63984,-1.64109 c -1.40353,-1.40462 -1.71574,-2.46521 -2.16661,-7.36 -0.91738,-9.9596 -0.61859,-12.65054 1.729,-15.57181 1.9493,-2.42564 2.05088,-2.82335 2.05088,-8.02957 0,-3.01264 -0.216,-5.46732 -0.48,-5.45485 -0.264,0.0125 -1.2,0.43427 -2.08,0.93732 -3.22929,1.84603 -8.48429,0.40058 -10.20024,-2.8057 -1.07276,-2.00449 -1.79018,-11.61903 -1.71173,-22.94012 l 0.072,-10.38582 2.09274,-2.09418 2.09275,-2.09418 9.10725,-0.0984 c 15.28547,-0.16509 43.49529,-0.29779 46.54726,-0.21895 1.584,0.0409 9.36,-0.19041 17.28,-0.51406 19.21393,-0.78515 27.09816,0.33924 34.55608,4.92814 3.1901,1.9629 3.84392,1.95391 3.84392,-0.0529 0,-0.6505 0.98535,-2.2585 2.18966,-3.57334 l 2.18967,-2.3906 14.90808,-0.19442 c 11.14677,-0.14538 15.29146,0.0108 16.42763,0.61881 1.27868,0.68432 1.82305,0.63905 3.43412,-0.28558 1.05302,-0.60432 2.31701,-1.09878 2.80889,-1.09878 0.72876,0 0.92649,-2.28065 1.06813,-12.32 L 420.16,294.08 h 5.76 5.76 l 0.17421,11.6219 0.17422,11.6219 3.03919,0.41799 c 1.67155,0.2299 3.78019,0.13627 4.68585,-0.20806 0.90567,-0.34433 7.31729,-0.83541 14.24805,-1.0913 12.38094,-0.4571 12.62736,-0.44084 14.08553,0.92904 0.81628,0.76685 2.00917,3.18399 2.65088,5.3714 0.64171,2.18742 1.4424,4.34068 1.77932,4.78502 1.16482,1.53622 2.21052,-0.439 2.48097,-4.6863 0.23946,-3.76057 0.48722,-4.3857 2.55964,-6.45812 2.27575,-2.27575 2.35668,-2.29962 9.88834,-2.9164 4.17659,-0.34203 10.3873,-0.69275 13.80158,-0.77937 3.58275,-0.0909 6.5911,-0.47562 7.11426,-0.90981 0.49856,-0.41376 3.32106,-1.04101 6.27222,-1.39388 8.80648,-1.053 18.51116,-2.54498 23.36578,-3.59222 4.1089,-0.88638 5.08085,-0.88547 9.82445,0.009 4.77979,0.90151 10.22219,3.27177 11.2202,4.88659 0.83456,1.35035 1.43224,0.50384 1.79262,-2.5389 0.20657,-1.74422 0.82755,-3.8611 1.37996,-4.70418 1.35981,-2.07534 6.17917,-4.59445 11.22273,-5.8662 4.54364,-1.14569 15.09299,-4.36025 20.16,-6.14308 1.76,-0.61926 6.10876,-2.15851 9.6639,-3.42057 3.55515,-1.26206 7.25469,-2.29466 8.2212,-2.29466 0.96652,0 2.52177,-0.53238 3.4561,-1.18308 1.68443,-1.17307 11.77264,-5.21692 13.01468,-5.21692 0.35559,0 1.41099,-0.53933 2.34532,-1.19852 0.93434,-0.65919 3.4268,-1.9239 5.5388,-2.81047 12.74598,-5.35049 16.06285,-6.80382 22.52704,-9.87069 8.60768,-4.08378 10.832,-4.31203 13.31104,-1.36589 l 1.71187,2.03442 -0.31955,34.60558 c -0.17574,19.03306 -0.52192,35.54695 -0.76934,36.69753 -0.70202,3.26465 -3.54759,5.90804 -6.35994,5.90804 -3.29382,0 -4.58714,-0.87874 -6.39021,-4.34191 l -1.57133,-3.01809 -0.0301,37.98641 -0.0301,37.98641 2.32839,4.43092 2.32838,4.43093 -0.38579,10.70266 c -0.5399,14.97729 -1.10349,16.17361 -7.58893,16.10853 -3.00217,-0.0301 -4.8896,-0.78366 -16.05833,-6.41129 z m -40.47981,-52.40853 c 0.41618,-0.6734 -0.95892,-3.22604 -1.73786,-3.22604 -0.59861,0 -0.64776,2.82496 -0.0594,3.41333 0.6062,0.60621 1.35506,0.52817 1.79724,-0.18729 z M 439.02281,375.12981 441.6,372.67819 v -14.1669 -14.16691 l -1.53972,-0.38644 c -0.92537,-0.23225 -2.16182,0.0212 -3.09887,0.63515 l -1.55914,1.02159 -0.39157,16.74162 c -0.37753,16.14143 -0.18623,19.60751 0.9175,16.62383 0.28459,-0.76928 1.67716,-2.50193 3.09461,-3.85032 z m 68.98621,-17.55091 0.16902,-20.3411 -1.92902,0.99753 -1.92902,0.99754 v 18.49122 c 0,10.17018 0.18065,18.962 0.40146,19.5374 0.23679,0.61706 0.9587,0.96668 1.76,0.85235 1.34806,-0.19234 1.35985,-0.35069 1.52756,-20.53494 z m -127.16684,2.4384 c -0.0628,-7.03049 -0.2012,-12.86965 -0.30747,-12.97592 -0.10627,-0.10628 -0.69462,2.33148 -1.30745,5.41724 -0.61282,3.08575 -1.5313,6.417 -2.04106,7.40278 -0.75887,1.46749 -0.80391,2.67623 -0.24848,6.66957 0.70891,5.09691 1.50807,6.77125 3.08164,6.45648 0.78987,-0.158 0.91913,-2.19554 0.82282,-12.97015 z m 34.52354,12.06574 c 1.42539,-0.57033 2.87122,-1.5594 3.21295,-2.19793 0.34173,-0.63852 0.62133,-6.2984 0.62133,-12.57749 v -11.41654 l -2.21572,-1.19324 c -1.90677,-1.02687 -2.48681,-1.08096 -4.16,-0.3879 l -1.94428,0.80535 v 13.57569 c 0,7.46663 0.192,13.76769 0.42667,14.00235 0.62408,0.62409 1.18468,0.5398 4.05905,-0.61029 z M 314.5342,317.92355 c -0.17867,-0.46562 -0.24596,-6.0209 -0.14953,-12.34507 L 314.56,294.08 h 5.76 5.76 v 12.16 12.16 l -5.61046,0.18507 c -4.19747,0.13846 -5.69229,-0.0282 -5.93534,-0.66152 z m 52.48,0 c -0.17867,-0.46562 -0.24596,-6.0209 -0.14953,-12.34507 L 367.04,294.08 h 5.76 5.76 v 12.16 12.16 l -5.61046,0.18507 c -4.19747,0.13846 -5.69229,-0.0282 -5.93534,-0.66152 z m -59.75852,-13.53646 c -0.471,-0.56752 -0.6831,-2.67301 -0.56492,-5.60789 l 0.18924,-4.6992 2.72586,-0.19708 c 3.52422,-0.25481 3.89411,0.7138 1.78636,4.67793 -0.89772,1.68839 -1.63222,3.56764 -1.63222,4.1761 0,1.71733 -1.58293,2.76035 -2.50432,1.65014 z M 332.296,304.52 c -0.4268,-0.4268 -0.776,-1.25151 -0.776,-1.83268 0,-0.58117 -0.7345,-2.43808 -1.63222,-4.12647 -2.10775,-3.96413 -1.73786,-4.93274 1.78636,-4.67793 L 334.4,294.08 v 5.38667 c 0,5.34718 -0.53212,6.62521 -2.104,5.05333 z m 27.43968,-0.13291 c -0.471,-0.56752 -0.6831,-2.67301 -0.56492,-5.60789 l 0.18924,-4.6992 2.72586,-0.19708 c 3.52422,-0.25481 3.89411,0.7138 1.78636,4.67793 -0.89772,1.68839 -1.63222,3.56764 -1.63222,4.1761 0,1.71733 -1.58293,2.76035 -2.50432,1.65014 z M 384.776,304.52 c -0.4268,-0.4268 -0.776,-1.25151 -0.776,-1.83268 0,-0.58117 -0.7345,-2.43808 -1.63222,-4.12647 -2.10775,-3.96413 -1.73786,-4.93274 1.78636,-4.67793 L 386.88,294.08 v 5.38667 c 0,5.34718 -0.53212,6.62521 -2.104,5.05333 z m 28.07968,-0.13291 c -0.471,-0.56752 -0.6831,-2.67301 -0.56492,-5.60789 l 0.18924,-4.6992 2.72586,-0.19708 c 3.52422,-0.25481 3.89411,0.7138 1.78636,4.67793 -0.89772,1.68839 -1.63222,3.56764 -1.63222,4.1761 0,1.71733 -1.58293,2.76035 -2.50432,1.65014 z m 24.56374,-1.45072 c -0.52931,-1.35101 -1.59623,-3.67495 -2.37095,-5.16432 -1.70139,-3.27089 -1.11948,-4.18974 2.46719,-3.89571 L 440,294.08 v 5.38667 c 0,6.15864 -1.00021,7.50346 -2.58058,3.4697 z"
       id="path80"
       inkscape:connector-curvature="0" />
    <path
       style="fill:#23df10;stroke-width:1"
       d="m 640.13478,430.3067 c -6.58613,-3.39531 -12.68849,-6.72845 -13.5608,-7.40697 -5.11198,-3.97629 -5.74526,-11.98721 -1.39808,-17.68542 l 1.7041,-2.2337 0.17598,-34.77031 c 0.128,-25.29093 -0.0189,-34.7703 -0.53906,-34.7703 -0.39327,0 -1.44729,0.576 -2.34228,1.28 -2.28446,1.79696 -5.65769,1.64601 -8.5874,-0.38428 -1.98215,-1.37363 -2.71465,-1.55992 -4.1944,-1.06667 L 609.6,333.86667 V 351.41333 368.96 l 2.24,0.2077 c 2.77976,0.25775 4.9255,2.19008 5.7574,5.18477 0.72872,2.62323 0.86737,38.41564 0.1528,39.44462 -0.97666,1.40642 -3.69954,2.84291 -5.38875,2.84291 -1.82019,0 -17.15248,-5.2806 -19.40145,-6.68205 -0.704,-0.43871 -2.53463,-0.99501 -4.06806,-1.23624 -1.53344,-0.24123 -6.14144,-1.47025 -10.24,-2.73115 -4.09857,-1.2609 -8.31594,-2.51131 -9.37194,-2.77868 -5.51226,-1.39569 -8,-4.26062 -8,-9.21296 0,-2.28434 0.44326,-3.5819 1.92,-5.62049 l 1.92,-2.65048 v -16.22398 c 0,-13.99464 -0.13191,-16.22397 -0.96,-16.22397 -0.528,0 -0.96,0.30524 -0.96,0.67831 0,1.3692 -6.81124,7.82861 -9.91869,9.40636 -1.96971,1.00007 -5.29417,1.90329 -8.64131,2.34773 l -5.44,0.72234 -0.18182,6.87878 c -0.18151,6.86749 -0.17876,6.88165 1.67976,8.62263 3.68491,3.45188 4.33764,7.37787 1.84226,11.08076 -2.11087,3.13232 -3.89169,3.5415 -11.19264,2.57175 -3.42515,-0.45496 -9.7051,-1.18433 -13.95542,-1.62085 -4.25033,-0.43651 -8.13154,-1.04314 -8.62493,-1.34808 -0.49339,-0.30493 -4.35986,-0.48923 -8.59214,-0.40955 -11.1637,0.21016 -22.89192,-1.32036 -26.0297,-3.39684 l -2.45228,-1.62284 -2.39707,1.28475 c -2.87171,1.53914 -4.7174,1.61683 -7.25358,0.30533 -1.39132,-0.71948 -2.22102,-0.80441 -3.12615,-0.32 -1.74295,0.9328 -18.12311,0.84757 -20.21417,-0.10518 -1.91253,-0.8714 -3.50212,-3.54119 -3.50212,-5.88195 0,-2.62405 1.11907,-4.77164 3.83045,-7.35091 L 441.6,372.67819 v -15.06094 c 0,-11.7412 0.20551,-15.55278 0.93236,-17.29237 0.96074,-2.2994 0.44423,-6.13752 -1.07726,-8.00488 -0.88288,-1.08358 -3.11305,-1.00819 -4.78328,0.16168 -1.34422,0.94153 -1.37737,1.36722 -1.5824,20.32 L 434.88,372.16 l -1.86126,3.35916 c -2.83675,5.11971 -8.40901,10.10366 -12.60344,11.27278 -5.96441,1.66247 -11.88848,1.89011 -18.84512,0.72418 -6.9025,-1.15688 -9.67998,-2.43184 -14.44452,-6.63059 -1.62489,-1.43194 -3.13689,-2.42097 -3.36,-2.19786 -0.22311,0.22311 -0.40566,1.48406 -0.40566,2.8021 0,1.89031 -0.41588,2.74638 -1.96911,4.05334 -1.96311,1.65185 -2.00507,1.65689 -13.80923,1.65689 h -11.84012 l -1.87077,-1.87077 c -2.02708,-2.02708 -2.16104,-2.85239 -1.89387,-11.66761 0.15713,-5.18406 -0.32129,-7.83986 -1.30298,-7.23314 -0.32666,0.20188 -0.59833,4.31007 -0.60372,9.12929 -0.005,4.81923 -0.22139,9.07911 -0.48,9.46642 -1.2146,1.81904 -3.57997,2.17541 -14.34813,2.16176 -9.48721,-0.012 -11.46608,-0.18842 -13.75043,-1.2256 -3.11933,-1.41629 -4.05164,-2.86205 -4.05164,-6.28301 0,-1.86245 0.48547,-3.03057 1.93364,-4.65262 l 1.93364,-2.16582 -0.17364,-11.86945 c -0.16764,-11.45892 -0.21791,-11.86277 -1.45364,-11.67631 -6.49595,0.98017 -7.06523,0.93226 -9.08147,-0.7643 -1.09082,-0.91786 -2.30173,-1.66884 -2.69092,-1.66884 -0.49328,0 -0.70761,3.88621 -0.70761,12.83056 0,12.6374 0.0226,12.85178 1.50265,14.24 2.16692,2.03251 2.97735,3.86177 2.97735,6.72033 0,2.19023 -0.31439,2.7329 -2.4344,4.20207 l -2.4344,1.68704 h -14.87738 c -16.67899,0 -17.70049,-0.21835 -19.58329,-4.18605 -1.34931,-2.84347 -0.93893,-4.89339 1.62455,-8.1149 l 1.89461,-2.38094 -0.17484,-11.37906 c -0.19589,-12.74863 0.35227,-11.59272 -5.06721,-10.68532 -3.26012,0.54585 -6.54031,-1.13273 -8.01819,-4.10318 -0.96169,-1.93298 -1.16945,-3.91169 -1.16945,-11.13824 v -8.7877 l 2.09274,-2.0923 2.09275,-2.09231 9.10725,-0.0984 c 15.28547,-0.16509 43.49529,-0.29779 46.54726,-0.21895 1.584,0.0409 9.36,-0.19041 17.28,-0.51406 19.21393,-0.78515 27.09816,0.33924 34.55608,4.92814 3.1901,1.9629 3.84392,1.95391 3.84392,-0.0529 0,-0.6505 0.98535,-2.2585 2.18966,-3.57334 l 2.18967,-2.3906 14.90808,-0.19442 c 11.14677,-0.14538 15.29146,0.0108 16.42763,0.61881 1.27868,0.68432 1.82305,0.63905 3.43412,-0.28558 1.05302,-0.60432 2.31701,-1.09878 2.80889,-1.09878 0.72876,0 0.92649,-2.28065 1.06813,-12.32 L 420.16,294.08 h 5.76 5.76 l 0.17421,11.6219 0.17422,11.6219 3.03919,0.41799 c 1.67155,0.2299 3.78019,0.13627 4.68585,-0.20806 0.90567,-0.34433 7.31729,-0.83541 14.24805,-1.0913 12.38094,-0.4571 12.62736,-0.44084 14.08553,0.92904 0.81628,0.76685 2.00917,3.18399 2.65088,5.3714 0.64171,2.18742 1.4424,4.34068 1.77932,4.78502 1.16482,1.53622 2.21052,-0.439 2.48097,-4.6863 0.23946,-3.76057 0.48722,-4.3857 2.55964,-6.45812 2.27575,-2.27575 2.35668,-2.29962 9.88834,-2.9164 4.17659,-0.34203 10.3873,-0.69275 13.80158,-0.77937 3.58275,-0.0909 6.5911,-0.47562 7.11426,-0.90981 0.49856,-0.41376 3.32106,-1.04101 6.27222,-1.39388 8.80648,-1.053 18.51116,-2.54498 23.36578,-3.59222 4.1089,-0.88638 5.08085,-0.88547 9.82445,0.009 4.77979,0.90151 10.22219,3.27177 11.2202,4.88659 0.83456,1.35035 1.43224,0.50384 1.79262,-2.5389 0.20657,-1.74422 0.82755,-3.8611 1.37996,-4.70418 1.35981,-2.07534 6.17917,-4.59445 11.22273,-5.8662 4.54364,-1.14569 15.09299,-4.36025 20.16,-6.14308 1.76,-0.61926 6.10876,-2.15851 9.6639,-3.42057 3.55515,-1.26206 7.25469,-2.29466 8.2212,-2.29466 0.96652,0 2.52177,-0.53238 3.4561,-1.18308 1.68443,-1.17307 11.77264,-5.21692 13.01468,-5.21692 0.35559,0 1.41099,-0.53933 2.34532,-1.19852 0.93434,-0.65919 3.4268,-1.9239 5.5388,-2.81047 12.74598,-5.35049 16.06285,-6.80382 22.52704,-9.87069 8.55405,-4.05835 10.83802,-4.30494 13.25606,-1.43121 l 1.6569,1.9691 v 29.08361 29.08361 l -1.51296,2.39668 c -2.00602,3.17771 -3.04403,3.967 -5.80678,4.41533 -2.09332,0.3397 -2.55399,0.12317 -4.83149,-2.27097 -1.38464,-1.45556 -2.67303,-2.64647 -2.86311,-2.64647 -0.19014,0 -0.33913,19.368 -0.33113,43.04 l 0.0147,43.04 2.22547,4.13028 c 2.05318,3.81056 2.22547,4.56097 2.22547,9.69371 v 5.56341 l -2.26227,1.9863 c -3.93517,3.45512 -6.02931,3.01676 -20.00294,-4.187 z m -40.7534,-42.11784 c 1.43781,-1.88507 3.49862,-7.04358 3.49862,-8.75757 0,-0.2889 -1.152,-1.11298 -2.56,-1.83129 -1.408,-0.71831 -2.56,-1.58816 -2.56,-1.933 0,-0.34486 -0.432,-0.627 -0.96,-0.627 -0.79686,0 -0.96,1.2326 -0.96,7.25333 0,9.04066 0.50334,9.8786 3.54138,5.89553 z m -91.37401,-36.14949 c 0.10617,-16.41863 -0.0638,-26.11179 -0.46488,-26.51288 -0.41633,-0.41633 -1.07455,-0.23197 -1.92737,0.53983 -1.25717,1.13772 -1.29512,1.88955 -1.29512,25.66053 0,13.46865 0.18065,24.95924 0.40146,25.53464 0.23679,0.61706 0.9587,0.96668 1.76,0.85235 1.35595,-0.19347 1.35886,-0.2432 1.52591,-26.07447 z m -127.08736,5.88124 c -0.18431,-14.0083 -0.69124,-18.33157 -1.77615,-15.14763 -1.19677,3.51222 -3.21613,6.98637 -5.15582,8.87018 l -2.17276,2.11015 2.21853,3.92497 c 1.60421,2.83814 2.40734,5.28247 2.9004,8.82745 0.71495,5.14031 1.41535,6.61387 3.14415,6.61488 0.93857,5.4e-4 1.02185,-1.50343 0.84165,-15.2 z m 34.44571,14.16243 c 1.42539,-0.57033 2.87122,-1.5594 3.21295,-2.19793 0.35736,-0.66772 0.62133,-8.43479 0.62133,-18.28179 0,-16.69752 -0.0344,-17.15744 -1.39156,-18.60207 -1.61537,-1.71948 -4.4511,-1.94716 -5.92272,-0.47553 -0.86998,0.86997 -1.00572,3.61973 -1.00572,20.37333 0,10.65219 0.192,19.55962 0.42667,19.79428 0.62408,0.62409 1.18468,0.5398 4.05905,-0.61029 z M 380.8,334.43777 c 0,-1.01928 -1.16119,-1.96991 -1.72164,-1.40946 -0.52649,0.52649 0.29537,2.33169 1.06156,2.33169 0.36304,0 0.66008,-0.415 0.66008,-0.92223 z m 218.43189,-13.28396 c 1.19105,-1.59682 1.21833,-1.90857 0.36401,-4.16 -0.62927,-1.65836 -1.37474,-2.49897 -2.33971,-2.63832 -1.3485,-0.19474 -1.41619,0.014 -1.41619,4.36692 0,3.89874 0.15483,4.54099 1.05217,4.36451 0.5787,-0.1138 1.63157,-0.9837 2.33972,-1.93311 z M 314.5342,317.92355 c -0.17867,-0.46562 -0.24596,-6.0209 -0.14953,-12.34507 L 314.56,294.08 h 5.76 5.76 v 12.16 12.16 l -5.61046,0.18507 c -4.19747,0.13846 -5.69229,-0.0282 -5.93534,-0.66152 z m 52.48,0 c -0.17867,-0.46562 -0.24596,-6.0209 -0.14953,-12.34507 L 367.04,294.08 h 5.76 5.76 v 12.16 12.16 l -5.61046,0.18507 c -4.19747,0.13846 -5.69229,-0.0282 -5.93534,-0.66152 z m -59.75852,-13.53646 c -0.471,-0.56752 -0.6831,-2.67301 -0.56492,-5.60789 l 0.18924,-4.6992 2.72586,-0.19708 c 3.52422,-0.25481 3.89411,0.7138 1.78636,4.67793 -0.89772,1.68839 -1.63222,3.56764 -1.63222,4.1761 0,1.71733 -1.58293,2.76035 -2.50432,1.65014 z M 332.296,304.52 c -0.4268,-0.4268 -0.776,-1.25151 -0.776,-1.83268 0,-0.58117 -0.7345,-2.43808 -1.63222,-4.12647 -2.10775,-3.96413 -1.73786,-4.93274 1.78636,-4.67793 L 334.4,294.08 v 5.38667 c 0,5.34718 -0.53212,6.62521 -2.104,5.05333 z m 27.43968,-0.13291 c -0.471,-0.56752 -0.6831,-2.67301 -0.56492,-5.60789 l 0.18924,-4.6992 2.72586,-0.19708 c 3.52422,-0.25481 3.89411,0.7138 1.78636,4.67793 -0.89772,1.68839 -1.63222,3.56764 -1.63222,4.1761 0,1.71733 -1.58293,2.76035 -2.50432,1.65014 z M 384.776,304.52 c -0.4268,-0.4268 -0.776,-1.25151 -0.776,-1.83268 0,-0.58117 -0.7345,-2.43808 -1.63222,-4.12647 -2.10775,-3.96413 -1.73786,-4.93274 1.78636,-4.67793 L 386.88,294.08 v 5.38667 c 0,5.34718 -0.53212,6.62521 -2.104,5.05333 z m 28.07968,-0.13291 c -0.471,-0.56752 -0.6831,-2.67301 -0.56492,-5.60789 l 0.18924,-4.6992 2.72586,-0.19708 c 3.52422,-0.25481 3.89411,0.7138 1.78636,4.67793 -0.89772,1.68839 -1.63222,3.56764 -1.63222,4.1761 0,1.71733 -1.58293,2.76035 -2.50432,1.65014 z m 24.56374,-1.45072 c -0.52931,-1.35101 -1.59623,-3.67495 -2.37095,-5.16432 -1.70139,-3.27089 -1.11948,-4.18974 2.46719,-3.89571 L 440,294.08 v 5.38667 c 0,6.15864 -1.00021,7.50346 -2.58058,3.4697 z"
       id="path78"
       inkscape:connector-curvature="0" />
    <path
       style="fill:#e51102;stroke-width:1"
       d="m 640.79085,424.85981 c -13.23246,-6.94409 -13.1867,-6.90235 -13.22248,-12.05981 -0.0106,-1.53364 0.68564,-3.24908 2.20805,-5.44 l 2.22358,-3.2 0.1729,-59.80387 c 0.19186,-66.35938 -0.16788,-61.27925 4.44725,-62.80238 1.22396,-0.40395 4.65038,-1.85479 7.61422,-3.2241 2.96384,-1.3693 6.10361,-2.48965 6.97721,-2.48965 H 652.8 v 69.28223 69.28222 l 2.24,4.61744 c 3.31661,6.83668 3.04384,12.36496 -0.608,12.32306 -0.7216,-0.008 -6.86016,-2.92659 -13.64115,-6.48514 z m -37.24103,-16.32359 c -4.3836,-1.55956 -8.3436,-3.14548 -8.8,-3.52426 -1.05068,-0.87199 -1.05867,-4.84242 -0.0139,-6.90705 0.50382,-0.99562 1.57887,-1.73499 2.92219,-2.00973 4.18072,-0.85505 7.77091,-6.17697 10.31141,-15.2851 0.73481,-2.63445 1.77988,-5.22645 2.32237,-5.76 0.88221,-0.86767 1.08356,-0.83892 1.90723,0.27224 1.25928,1.69885 1.37093,34.39851 0.12088,35.40521 -0.56129,0.45202 -3.17825,-0.20185 -8.77018,-2.19131 z M 581.44,401.50661 c -2.816,-0.87604 -6.848,-2.03214 -8.96,-2.5691 -6.20273,-1.577 -7.77938,-4.85092 -4.16,-8.63826 l 1.92,-2.00909 v -36.69033 -36.69032 l -1.53528,-1.00596 c -0.8444,-0.55327 -1.88664,-1.85421 -2.31608,-2.89097 -0.64982,-1.5688 -0.61041,-2.14508 0.23491,-3.4352 0.90544,-1.38187 6.88092,-4.21738 8.88761,-4.21738 0.40872,0 3.52315,-0.91123 6.92095,-2.02494 3.39779,-1.11372 6.65429,-1.84211 7.23666,-1.61862 0.97487,0.37408 1.04586,4.48164 0.89504,51.78494 L 590.4,402.88 l -1.92,0.10971 c -1.056,0.0603 -4.224,-0.60705 -7.04,-1.4831 z m -51.52,-11.13812 c -1.584,-0.28122 -6.048,-0.82907 -9.92,-1.21744 -3.872,-0.38837 -7.70047,-0.85086 -8.50771,-1.02774 -3.03472,-0.66497 -2.85975,-4.94769 0.28635,-7.00909 l 1.50136,-0.98373 v -28.32273 -28.32272 l -1.92,-1.68478 c -3.89627,-3.41892 -1.86689,-5.87364 5.44,-6.58018 2.464,-0.23825 6.89766,-0.84492 9.85258,-1.34816 3.99888,-0.68102 5.59438,-0.7309 6.24,-0.19508 0.7101,0.58932 0.86742,6.92494 0.86742,34.93178 v 34.2119 l 2.56,2.61158 c 2.88941,2.94764 2.78607,2.70964 1.89748,4.36997 -0.7225,1.35 -3.00583,1.50587 -8.29748,0.56642 z m -45.66392,-4.11127 c -6.47343,-0.7351 -8.05076,-1.33049 -8.08628,-3.05229 -0.005,-0.26128 0.8542,-1.24489 1.9102,-2.18578 l 1.92,-1.71073 v -29.31945 -29.31946 l 1.44,-0.89989 c 1.28707,-0.80433 9.84431,-1.70776 18.32422,-1.93461 4.24494,-0.11355 4.80609,1.34438 1.79869,4.67322 L 499.2,325.12369 v 26.83923 26.83923 l 2.56,2.95785 c 2.80454,3.2404 2.92072,3.54328 1.792,4.672 -0.97452,0.97452 -9.8857,0.8938 -19.29592,-0.17478 z m -43.50941,-2.68389 c -1.0002,-1.0002 -0.2397,-2.5991 2.61333,-5.49439 l 3.04,-3.08503 0.17624,-13.89695 c 0.18462,-14.5579 0.39822,-16.65702 1.49603,-14.70156 1.71247,3.05035 2.6427,8.00893 3.10779,16.56603 0.59158,10.88429 1.2621,13.45287 4.35686,16.69005 1.91229,2.00028 2.13874,2.5262 1.44675,3.36 -0.6543,0.78839 -2.33783,0.98852 -8.31537,0.98852 -4.12223,0 -7.68697,-0.192 -7.92163,-0.42667 z m 22.83172,-1.9578 c -0.54796,-1.31147 -1.9809,-5.55947 -3.1843,-9.44 -2.77179,-8.93806 -8.46723,-26.13127 -11.59785,-35.01125 -2.34682,-6.65672 -4.2887,-9.72459 -6.62473,-10.46602 -0.63032,-0.20005 -1.33436,-0.95711 -1.56455,-1.68236 -0.83989,-2.64626 0.5942,-3.00799 12.7584,-3.21816 l 11.44535,-0.19774 3.4803,10.75812 c 2.18501,6.75419 3.76104,10.6714 4.23464,10.52514 0.41489,-0.12813 1.29303,-1.32021 1.9514,-2.64906 0.78401,-1.58242 1.41407,-2.19908 1.826,-1.78715 1.11107,1.11107 0.10762,11.58319 -1.6973,17.71295 -2.67921,9.09903 -4.1341,14.27027 -5.82,20.68653 -0.86224,3.28159 -1.73278,6.23359 -1.93451,6.56 -0.80455,1.30179 -2.32921,0.46745 -3.27285,-1.791 z m -62.01049,0.80929 c -6.98549,-1.26898 -11.31219,-4.03779 -13.91596,-8.90533 -1.35729,-2.53733 -1.41908,-3.41977 -1.5963,-22.79949 l -0.18438,-20.16 -2.05562,-1.72719 c -1.70961,-1.43646 -1.93627,-1.92126 -1.34648,-2.88 0.63949,-1.03954 1.98694,-1.16987 13.71382,-1.32642 12.89712,-0.17218 14.00867,-0.0175 14.04722,1.9552 0.005,0.27586 -0.9982,1.09631 -2.2302,1.82321 l -2.24,1.32163 v 22.73047 22.73047 l 2.24,2.05175 c 2.30188,2.10844 2.82266,4.00222 1.472,5.35288 -0.92405,0.92405 -2.02525,0.90076 -7.9041,-0.16718 z M 414.848,381.952 c -0.4224,-0.4224 -0.768,-1.43403 -0.768,-2.24807 0,-1.17039 0.70403,-1.79142 3.36484,-2.96816 2.01992,-0.89331 4.08019,-2.42597 5.15458,-3.83457 l 1.78974,-2.34648 -0.19457,-19.593 L 424,331.3687 l -2.72,-2.3418 c -4.9228,-4.23832 -3.49219,-5.6352 6.39062,-6.23989 5.73986,-0.3512 6.76546,-0.25951 7.71465,0.68969 1.60704,1.60703 1.41333,2.10935 -2.07687,5.38588 l -3.17159,2.97742 -0.18841,19.2 c -0.17706,18.04396 -0.27044,19.37341 -1.55104,22.08 -1.80778,3.82084 -6.31149,8.03244 -9.51736,8.90004 -3.17811,0.8601 -3.10259,0.86137 -4.032,-0.068 z m -91.168,-0.56326 c -1.60157,-0.93283 -1.39212,-2.00856 0.8,-4.10874 l 1.92,-1.83948 v -21.66184 -21.66185 l -2.24,-1.32163 c -2.58849,-1.52724 -2.84128,-2.74412 -0.8,-3.851 2.0964,-1.13677 19.37482,-1.59421 20.63739,-0.54636 0.82864,0.6877 0.96261,4.51126 0.96261,27.47252 0,19.89283 -0.19524,26.86888 -0.768,27.44164 -0.96584,0.96584 -18.8705,1.03283 -20.512,0.0767 z m 34.208,-0.0767 c -0.50209,-0.50209 -0.768,-3.15039 -0.768,-7.64877 0,-10.25856 -2.10659,-17.09375 -5.64884,-18.32858 -2.81928,-0.9828 -3.05551,-3.15105 -0.50714,-4.65462 2.97157,-1.75327 4.23768,-4.86274 4.22724,-10.38175 -0.0118,-6.26511 -0.31045,-7.0509 -3.56823,-9.39047 -3.00995,-2.16158 -3.32627,-2.93493 -1.96303,-4.79929 0.80076,-1.09509 1.23062,-1.1209 6.24,-0.37471 8.06913,1.20197 13.10044,3.08161 15.57225,5.81761 2.46397,2.72732 3.28587,6.50183 2.25191,10.34167 -1.06941,3.97152 -3.05379,6.14885 -7.56697,8.30279 l -4.10555,1.9594 3.25656,2.96236 c 4.22547,3.84375 5.781,7.15342 6.74521,14.35165 l 0.78605,5.86827 2.70027,1.81352 c 1.48515,0.99744 2.70027,2.16889 2.70027,2.60322 0,1.97582 -1.58864,2.3257 -10.56,2.3257 -6.16533,0 -9.26729,-0.24329 -9.792,-0.768 z m -80.78042,-1.17521 c -0.61259,-1.14464 -0.3957,-1.61655 1.57085,-3.41784 l 2.28157,-2.08984 v -23.39619 c 0,-17.93714 0.18666,-23.55069 0.8,-24.05834 0.93216,-0.77153 18.38634,-1.2541 19.54135,-0.54027 0.58938,0.36426 0.77865,6.37899 0.77865,24.7443 v 24.26307 l 1.9462,1.43889 c 1.25994,0.93151 1.88055,1.89739 1.76,2.73916 -0.17975,1.25522 -0.66744,1.30624 -14.07705,1.47267 -13.492,0.16745 -13.91125,0.13427 -14.60157,-1.15561 z M 601.6,372.35789 c 0,-0.11878 -0.576,-1.79183 -1.28,-3.71789 -0.704,-1.92606 -1.28,-4.3994 -1.28,-5.49632 0,-1.10154 -0.7041,-2.96794 -1.57279,-4.16904 -4.31121,-5.96098 -4.40302,-7.91241 -0.73461,-15.61464 1.17355,-2.464 2.49068,-6.208 2.92696,-8.32 1.36774,-6.62117 2.20838,-8.96 3.22044,-8.96 0.83555,0 0.96,2.98569 0.96,23.03123 0,21.42568 -0.0781,23.04627 -1.12,23.24693 -0.616,0.11863 -1.12,0.11851 -1.12,-2.7e-4 z m -63.84,-12.10396 c -1.52104,-1.57794 -0.89071,-3.78616 1.76,-6.16574 l 2.56,-2.29817 v -14.25334 c 0,-7.86666 -0.28418,-15.0008 -0.63421,-15.92146 -0.34882,-0.91746 -1.499,-2.16021 -2.55596,-2.76166 -1.41932,-0.80766 -1.9228,-1.5647 -1.92579,-2.89563 -0.01,-4.44528 3.18456,-5.64606 10.5026,-3.94779 7.56302,1.75513 10.34031,4.0029 12.69223,10.27232 1.23076,3.28078 1.42574,5.06034 1.43287,13.07754 0.007,8.19358 -0.16282,9.70311 -1.45308,12.89414 -1.94539,4.81127 -5.72633,8.99878 -9.64855,10.68607 -3.98183,1.71294 -11.58861,2.49795 -12.73011,1.31372 z M 267.21644,343.07178 c -1.22969,-2.37796 -1.39146,-14.72076 -0.20844,-15.90378 0.45311,-0.45311 2.63111,-0.768 5.312,-0.768 6.94556,0 7.78832,1.82746 3.44125,7.46207 -1.91935,2.48784 -2.72795,4.21168 -2.96593,6.32302 -0.22126,1.96305 -0.75981,3.20573 -1.66365,3.83881 -1.95761,1.37116 -2.8226,1.16081 -3.91523,-0.95212 z m 45.90711,1.08822 c -0.34824,-0.44 -1.27146,-2.74542 -2.05159,-5.12316 -0.78013,-2.37774 -2.40247,-5.50099 -3.60519,-6.94055 -3.84516,-4.60236 -2.77977,-6.33629 3.89323,-6.33629 2.68089,0 4.85889,0.31489 5.312,0.768 0.51606,0.51606 0.768,3.41333 0.768,8.832 0,8.25839 -0.3647,9.6 -2.60964,9.6 -0.59049,0 -1.35856,-0.36 -1.70681,-0.8 z M 618.60572,329.87428 C 617.73542,329.00399 617.6,326.24164 617.6,309.35907 v -19.50951 l 3.68,-1.63849 c 2.024,-0.90117 4.544,-1.67732 5.6,-1.72478 l 1.92,-0.0863 0.19146,5.12 c 0.15319,4.09647 -0.0632,5.63177 -1.08212,7.68 -2.11984,4.26104 -4.54934,16.90534 -4.54934,23.67702 0,6.41005 -2.16099,9.59056 -4.75428,6.99726 z m -9.89312,-2.42681 c -0.39828,-0.47989 -1.71972,-4.0166 -2.93654,-7.85935 -2.39879,-7.57544 -4.01922,-9.83131 -8.03422,-11.18482 -3.52352,-1.18783 -3.82184,-1.6596 -3.82184,-6.0439 0,-2.5368 0.29814,-4.23366 0.8,-4.55315 1.68183,-1.07067 13.04954,-4.82394 14.88,-4.91292 l 1.92,-0.0933 0.17078,16.88143 c 0.12058,11.91855 -0.0436,17.13972 -0.55836,17.76 -0.91885,1.10714 -1.50478,1.10861 -2.41982,0.006 z m 55.6154,-1.99779 c -0.45606,-0.54955 -1.14624,-5.22643 -1.63648,-11.08963 -1.0025,-11.98884 -2.40205,-19.49174 -4.61875,-24.76005 -1.22163,-2.90343 -1.69235,-5.36243 -1.92992,-10.08206 l -0.31418,-6.24207 4.92775,-2.27676 c 2.71027,-1.25222 5.4128,-2.1834 6.00569,-2.06929 0.98714,0.19001 1.09197,2.49138 1.24493,27.34044 0.14464,23.49956 0.0352,27.33362 -0.81478,28.63135 -1.14138,1.74199 -1.77306,1.86286 -2.86426,0.54807 z m -349.7938,-7.52613 c -0.17867,-0.46562 -0.24596,-6.0209 -0.14953,-12.34507 L 314.56,294.08 h 5.76 5.76 v 12.16 12.16 l -5.61046,0.18507 c -4.19747,0.13846 -5.69229,-0.0282 -5.93534,-0.66152 z m 52.48,0 c -0.17867,-0.46562 -0.24596,-6.0209 -0.14953,-12.34507 L 367.04,294.08 h 5.76 5.76 v 12.16 12.16 l -5.61046,0.18507 c -4.19747,0.13846 -5.69229,-0.0282 -5.93534,-0.66152 z m 53.11038,-0.0251 c -0.17338,-0.45183 -0.23634,-5.99583 -0.13991,-12.32 L 420.16,294.08 h 5.76 5.76 l 0.17487,11.79304 c 0.13356,9.00656 -0.0177,11.91523 -0.64,12.3102 -1.39603,0.886 -10.73302,0.64626 -11.09029,-0.28476 z m -112.8689,-13.51137 c -0.471,-0.56752 -0.6831,-2.67301 -0.56492,-5.60789 l 0.18924,-4.6992 2.72586,-0.19708 c 3.52422,-0.25481 3.89411,0.7138 1.78636,4.67793 -0.89772,1.68839 -1.63222,3.56764 -1.63222,4.1761 0,1.71733 -1.58293,2.76035 -2.50432,1.65014 z M 332.296,304.52 c -0.4268,-0.4268 -0.776,-1.25151 -0.776,-1.83268 0,-0.58117 -0.7345,-2.43808 -1.63222,-4.12647 -2.10775,-3.96413 -1.73786,-4.93274 1.78636,-4.67793 L 334.4,294.08 v 5.38667 c 0,5.34718 -0.53212,6.62521 -2.104,5.05333 z m 27.43968,-0.13291 c -0.471,-0.56752 -0.6831,-2.67301 -0.56492,-5.60789 l 0.18924,-4.6992 2.72586,-0.19708 c 3.52422,-0.25481 3.89411,0.7138 1.78636,4.67793 -0.89772,1.68839 -1.63222,3.56764 -1.63222,4.1761 0,1.71733 -1.58293,2.76035 -2.50432,1.65014 z M 384.776,304.52 c -0.4268,-0.4268 -0.776,-1.25151 -0.776,-1.83268 0,-0.58117 -0.7345,-2.43808 -1.63222,-4.12647 -2.10775,-3.96413 -1.73786,-4.93274 1.78636,-4.67793 L 386.88,294.08 v 5.38667 c 0,5.34718 -0.53212,6.62521 -2.104,5.05333 z m 28.07968,-0.13291 c -0.471,-0.56752 -0.6831,-2.67301 -0.56492,-5.60789 l 0.18924,-4.6992 2.72586,-0.19708 c 3.52422,-0.25481 3.89411,0.7138 1.78636,4.67793 -0.89772,1.68839 -1.63222,3.56764 -1.63222,4.1761 0,1.71733 -1.58293,2.76035 -2.50432,1.65014 z m 24.56374,-1.45072 c -0.52931,-1.35101 -1.59623,-3.67495 -2.37095,-5.16432 -1.70139,-3.27089 -1.11948,-4.18974 2.46719,-3.89571 L 440,294.08 v 5.38667 c 0,6.15864 -1.00021,7.50346 -2.58058,3.4697 z"
       id="path76"
       inkscape:connector-curvature="0" />
  </g>
</svg>
