<?xml version="1.0" encoding="UTF-8" standalone="no"?>
<!-- Created with Inkscape (http://www.inkscape.org/) -->

<svg
   xmlns:dc="http://purl.org/dc/elements/1.1/"
   xmlns:cc="http://creativecommons.org/ns#"
   xmlns:rdf="http://www.w3.org/1999/02/22-rdf-syntax-ns#"
   xmlns:svg="http://www.w3.org/2000/svg"
   xmlns="http://www.w3.org/2000/svg"
   xmlns:sodipodi="http://sodipodi.sourceforge.net/DTD/sodipodi-0.dtd"
   xmlns:inkscape="http://www.inkscape.org/namespaces/inkscape"
   width="1052.3622"
   height="744.09448"
   id="svg3906"
   version="1.1"
   inkscape:version="0.48+devel r9772"
   sodipodi:docname="New document 4">
  <defs
     id="defs3908" />
  <sodipodi:namedview
     id="base"
     pagecolor="#ffffff"
     bordercolor="#666666"
     borderopacity="1.0"
     inkscape:pageopacity="0.0"
     inkscape:pageshadow="2"
     inkscape:zoom="0.87354498"
     inkscape:cx="526.18109"
     inkscape:cy="372.04724"
     inkscape:document-units="px"
     inkscape:current-layer="layer1"
     showgrid="false"
     inkscape:window-width="1440"
     inkscape:window-height="805"
     inkscape:window-x="0"
     inkscape:window-y="1"
     inkscape:window-maximized="1" />
  <metadata
     id="metadata3911">
    <rdf:RDF>
      <cc:Work
         rdf:about="">
        <dc:format>image/svg+xml</dc:format>
        <dc:type
           rdf:resource="http://purl.org/dc/dcmitype/StillImage" />
        <dc:title></dc:title>
      </cc:Work>
    </rdf:RDF>
  </metadata>
  <g
     inkscape:label="Layer 1"
     inkscape:groupmode="layer"
     id="layer1"
     transform="translate(0,-308.2677)">
    <g
       id="g3953"
       transform="matrix(1.6336837,0,0,1.6336837,-202.36027,-402.22679)"
       style="fill:#4d4d4d">
      <path
         d="m 140.31602,633.90159 0,60.38656 12.69106,0 c 10.71454,10e-6 18.55109,-2.42724 23.50967,-7.28175 4.99314,-4.85449 7.48974,-12.51766 7.4898,-22.98955 -6e-5,-10.40246 -2.49666,-18.01362 -7.4898,-22.8335 -4.95858,-4.85444 -12.79513,-7.28169 -23.50967,-7.28176 l -12.69106,0 m -10.50653,-8.63408 21.5852,0 c 15.04891,8e-5 26.0929,3.13816 33.13199,9.41427 7.03896,6.24157 10.55847,16.01991 10.55854,29.33507 -7e-5,13.38459 -3.53692,23.21495 -10.61055,29.49111 -7.07377,6.27619 -18.10042,9.41427 -33.07998,9.41427 l -21.5852,0 0,-77.65472"
         style="font-size:106.52168274000000281px;font-style:normal;font-weight:normal;line-height:125%;letter-spacing:0px;word-spacing:0px;fill:#4d4d4d;fill-opacity:1;stroke:none;font-family:Sans"
         id="path3919"
         inkscape:connector-curvature="0" />
      <path
         d="m 237.30085,630.88486 c -7.62854,7e-5 -13.69666,2.84342 -18.20439,8.53005 -4.4731,5.68677 -6.70963,13.43663 -6.70962,23.24961 -1e-5,9.77839 2.23652,17.51091 6.70962,23.19759 4.50773,5.68672 10.57585,8.53007 18.20439,8.53006 7.62846,1e-5 13.6619,-2.84334 18.10036,-8.53006 4.47302,-5.68668 6.70955,-13.4192 6.70962,-23.19759 -7e-5,-9.81298 -2.2366,-17.56284 -6.70962,-23.24961 -4.43846,-5.68663 -10.4719,-8.52998 -18.10036,-8.53005 m 0,-8.53006 c 10.8879,8e-5 19.59133,3.65829 26.11029,10.97465 6.51883,7.28181 9.77828,17.06016 9.77836,29.33507 -8e-5,12.24031 -3.25953,22.01866 -9.77836,29.33507 -6.51896,7.28176 -15.22239,10.92263 -26.11029,10.92264 -10.92267,-10e-6 -19.66076,-3.64088 -26.21432,-10.92264 -6.51892,-7.28174 -9.77837,-17.06008 -9.77836,-29.33507 -1e-5,-12.27491 3.25944,-22.05326 9.77836,-29.33507 6.55356,-7.31636 15.29165,-10.97457 26.21432,-10.97465"
         style="font-size:106.52168274000000281px;font-style:normal;font-weight:normal;line-height:125%;letter-spacing:0px;word-spacing:0px;fill:#4d4d4d;fill-opacity:1;stroke:none;font-family:Sans"
         id="path3921"
         inkscape:connector-curvature="0" />
      <path
         d="m 281.62546,625.26751 15.65578,0 19.81678,52.84474 19.9208,-52.84474 15.65578,0 0,77.65472 -10.24648,0 0,-68.18844 -20.02482,53.26084 -10.55855,0 -20.02483,-53.26084 0,68.18844 -10.19446,0 0,-77.65472"
         style="font-size:106.52168274000000281px;font-style:normal;font-weight:normal;line-height:125%;letter-spacing:0px;word-spacing:0px;fill:#4d4d4d;fill-opacity:1;stroke:none;font-family:Sans"
         id="path3923"
         inkscape:connector-curvature="0" />
      <path
         d="m 363.58363,625.26751 10.50653,0 0,77.65472 -10.50653,0 0,-77.65472"
         style="font-size:106.52168274000000281px;font-style:normal;font-weight:normal;line-height:125%;letter-spacing:0px;word-spacing:0px;fill:#4d4d4d;fill-opacity:1;stroke:none;font-family:Sans"
         id="path3925"
         inkscape:connector-curvature="0" />
      <path
         d="m 622.99921,625.26751 14.14741,0 34.43231,64.96366 0,-64.96366 10.19445,0 0,77.65472 -14.14741,0 -34.4323,-64.96366 0,64.96366 -10.19446,0 0,-77.65472"
         style="font-size:106.52168274000000281px;font-style:normal;font-weight:normal;line-height:125%;letter-spacing:0px;word-spacing:0px;fill:#4d4d4d;fill-opacity:1;stroke:none;font-family:Sans"
         id="path3927"
         inkscape:connector-curvature="0" />
      <path
         d="m 726.20201,630.88486 c -7.62854,7e-5 -13.69666,2.84342 -18.20439,8.53005 -4.4731,5.68677 -6.70963,13.43663 -6.70962,23.24961 -10e-6,9.77839 2.23652,17.51091 6.70962,23.19759 4.50773,5.68672 10.57585,8.53007 18.20439,8.53006 7.62846,1e-5 13.66191,-2.84334 18.10036,-8.53006 4.47302,-5.68668 6.70956,-13.4192 6.70962,-23.19759 -6e-5,-9.81298 -2.2366,-17.56284 -6.70962,-23.24961 -4.43845,-5.68663 -10.4719,-8.52998 -18.10036,-8.53005 m 0,-8.53006 c 10.88791,8e-5 19.59133,3.65829 26.1103,10.97465 6.51883,7.28181 9.77828,17.06016 9.77835,29.33507 -7e-5,12.24031 -3.25952,22.01866 -9.77835,29.33507 -6.51897,7.28176 -15.22239,10.92263 -26.1103,10.92264 -10.92266,-10e-6 -19.66076,-3.64088 -26.21432,-10.92264 -6.51891,-7.28174 -9.77836,-17.06008 -9.77836,-29.33507 0,-12.27491 3.25945,-22.05326 9.77836,-29.33507 6.55356,-7.31636 15.29166,-10.97457 26.21432,-10.97465"
         style="font-size:106.52168274000000281px;font-style:normal;font-weight:normal;line-height:125%;letter-spacing:0px;word-spacing:0px;fill:#4d4d4d;fill-opacity:1;stroke:none;font-family:Sans"
         id="path3929"
         inkscape:connector-curvature="0" />
      <path
         inkscape:transform-center-y="-38.535983"
         inkscape:transform-center-x="-5.4465986"
         inkscape:connector-curvature="0"
         id="path3937"
         style="font-size:106.52168274000000281px;font-style:normal;font-weight:normal;line-height:125%;letter-spacing:0px;word-spacing:0px;fill:#4d4d4d;fill-opacity:1;stroke:none;font-family:Sans"
         d="m 390.06686,624.55997 10.41141,1.41055 -10.42548,76.95171 -10.41141,-1.41055 10.42548,-76.95171" />
      <path
         d="m 420.58335,625.96046 9.96045,3.34313 -24.70935,73.61864 -9.96046,-3.34313 24.70936,-73.61864"
         style="font-size:106.52168274000000281px;font-style:normal;font-weight:normal;line-height:125%;letter-spacing:0px;word-spacing:0px;fill:#4d4d4d;fill-opacity:1;stroke:none;font-family:Sans"
         id="path3939"
         inkscape:connector-curvature="0"
         inkscape:transform-center-x="-12.595669"
         inkscape:transform-center-y="-36.824398" />
      <path
         inkscape:transform-center-y="-33.256953"
         inkscape:transform-center-x="-20.215394"
         inkscape:connector-curvature="0"
         id="path3941"
         style="font-size:106.52168274000000281px;font-style:normal;font-weight:normal;line-height:125%;letter-spacing:0px;word-spacing:0px;fill:#4d4d4d;fill-opacity:1;stroke:none;font-family:Sans"
         d="m 454.30081,630.92855 9.00922,5.40564 -39.95358,66.58804 -9.00924,-5.40564 39.9536,-66.58804" />
      <path
         d="m 487.98428,640.54472 7.4352,7.42326 -54.86608,54.95425 -7.43521,-7.42327 54.86609,-54.95424"
         style="font-size:106.52168274000000281px;font-style:normal;font-weight:normal;line-height:125%;letter-spacing:0px;word-spacing:0px;fill:#4d4d4d;fill-opacity:1;stroke:none;font-family:Sans"
         id="path3943"
         inkscape:connector-curvature="0"
         inkscape:transform-center-x="-27.655609"
         inkscape:transform-center-y="-27.383468" />
      <path
         inkscape:transform-center-y="-19.771933"
         inkscape:transform-center-x="-33.522494"
         inkscape:connector-curvature="0"
         id="path3945"
         style="font-size:106.52168274000000281px;font-style:normal;font-weight:normal;line-height:125%;letter-spacing:0px;word-spacing:0px;fill:#4d4d4d;fill-opacity:1;stroke:none;font-family:Sans"
         d="m 522.77062,654.06881 5.38953,9.01887 -66.65932,39.83455 -5.38954,-9.01888 66.65933,-39.83454" />
      <path
         d="m 560.82717,668.51451 3.30599,9.97284 -73.7102,24.43488 -3.30599,-9.97285 73.7102,-24.43487"
         style="font-size:106.52168274000000281px;font-style:normal;font-weight:normal;line-height:125%;letter-spacing:0px;word-spacing:0px;fill:#4d4d4d;fill-opacity:1;stroke:none;font-family:Sans"
         id="path3947"
         inkscape:connector-curvature="0"
         inkscape:transform-center-x="-37.011839"
         inkscape:transform-center-y="-12.033743" />
      <path
         inkscape:connector-curvature="0"
         id="path3951"
         style="font-size:106.52168274000000281px;font-style:normal;font-weight:normal;line-height:125%;letter-spacing:0px;word-spacing:0px;fill:#4d4d4d;fill-opacity:1;stroke:none;font-family:Sans"
         d="m 613.66425,692.4157 0,10.50653 -77.65472,0 0,-10.50653 77.65472,0" />
    </g>
  </g>
</svg>
