<?xml version="1.0" encoding="utf-8"?>
<!-- Generator: Adobe Illustrator 19.0.0, SVG Export Plug-In . SVG Version: 6.00 Build 0)  -->
<svg version="1.1" id="Layer_1" xmlns="http://www.w3.org/2000/svg" xmlns:xlink="http://www.w3.org/1999/xlink" x="0px" y="0px"
	 viewBox="0 0 994.9 881.8" style="enable-background:new 0 0 994.9 881.8;" xml:space="preserve">
<style type="text/css">
	.st0{fill:#010101;}
	.st1{fill:#FFFFFF;}
</style>
<path class="st0" d="M711.2,308.1c-13.3-15-21.4-29.4-18.3-32.2s16.5,7.1,29.7,22.1c2.1,2.3,4,4.6,5.8,6.9v-44.7
	c-1.2-1.5-2.3-3-3.5-4.6c-15.3-21.1-22.4-42.1-15.8-47c3.7-2.7,10.9,0.3,19.3,7.1V190c-3.5-4.2-6.9-9-10.1-14.1
	c-15.8-25.2-21.1-50.2-11.9-55.9c4.9-3.1,13.1,0.1,22,7.6V0H0v112.9c14.4-15.8,27.6-25.3,31.5-22.1c4.6,3.8-5.7,24.2-23.1,45.6
	c-2.8,3.5-5.6,6.7-8.4,9.8v54.7c17.9-6.9,33.8-6.8,37.6,0.9c4.3,8.8-9.1,24.2-30,34.4c-2.6,1.3-5.1,2.4-7.6,3.4V269
	c16.6-19.8,32.8-32.6,37.2-29c4.8,3.8-5.7,25.1-23.5,47.4c-4.6,5.8-9.3,11.1-13.7,15.7v50.6h728.4v-29
	C723.3,320.7,717.2,314.9,711.2,308.1z"/>
<polygon class="st1" points="534.4,121.8 534.4,61.1 485.7,76.6 472.9,121.8 243.7,121.8 229.4,76.6 184.1,61.1 184.1,121.8 
	127,121.8 127,326.5 615.6,326.5 615.6,121.8 "/>
<path class="st0" d="M286.5,181.8l2.1,0.4l2.4-12.4l-103.9-20.4l-2.4,12.4l48,9.4c-27.6,2.8-48.6,16.7-48.6,33.5
	c0,15.3,17.4,28.2,41.3,32.5l18-51l15.5,1.7v49.6c24.8-4,43-17.2,43-32.8C301.9,195.9,296.1,187.8,286.5,181.8z"/>
<path class="st0" d="M533.5,166.7l54.1-17.1l-5-16l-136.4,43l5,16l0.9-0.3c-3.4,5.1-5.3,10.7-5.3,16.6c0,22.1,26.6,40.4,61,43.1
	l12.6-50.7l7.1-8.5l21.2,54.8c22.6-7.2,38-21.8,38-38.7C586.9,188.5,564.2,171.3,533.5,166.7z"/>
<polygon class="st0" points="266.6,252.1 243.4,300.5 261.9,305.6 279.6,268.1 307.7,266.8 292.1,300.5 333.9,300.5 347.7,268 
	364.2,268 385.3,300.4 433.5,299.7 415.4,265 446.2,265 466.1,300.5 476.4,300.5 457,250.5 "/>
<path class="st0" d="M372.5,196.5c-21.8,0-39.5,6.6-39.5,14.8c0,4.3,4.9,8.2,12.6,10.9c0.6-5.7,3.1-9.9,6.1-9.9
	c3.5,0,6.2,5.5,6.2,12.4c0,0.2,0,0.3,0,0.5c4.5,0.7,9.4,1,14.6,1c3.1,0,6.1-0.1,9-0.4c0.3-5,5.3-9,11.5-9c4,0,7.5,1.7,9.6,4.2
	c5.9-2.6,9.5-6,9.5-9.6C412,203.1,394.3,196.5,372.5,196.5z"/>
<path class="st0" d="M846.1,680.1c-7.7-11.1-25.4-13.4-47-8.2c0-4.9-0.3-9.9-1.1-15c-6.5,1.2-13,3-19.6,5.4
	c-4.4,1.6-8.6,3.4-12.6,5.3c-3.8,1.8-8.3,1.3-11.6-1.3c-10.2-7.8-18-18.2-22.3-30.6c-7-20.3-3.1-42,8.7-60.4
	c4.7-7.4-0.4-17.1-9.2-17.1H589.9l-19.8,9.6l38.4,79c6.1,21.3,19.3,42.6,39,60c16.6,14.8,35.4,24.7,54,29.5l15.5,6
	c16.7-6.6,33.1-6.8,42.9-0.9c2.1-7.1,11.3-16.1,24.2-22.7c16.9-8.7,33.5-10,37.2-2.9c3.7,7.1-7,19.9-23.9,28.7
	c-10.9,5.6-21.7,8.2-29,7.3c0.3,1,0.5,2.1,0.7,3.1c-1.6-0.2-3.2-0.3-4.9-0.3c-19.8,0-35.9,11.7-35.9,26.2s16.1,26.2,35.9,26.2
	c19.8,0,35.9-11.7,35.9-26.2c0-4.4-1.5-8.5-4.1-12.2C837.3,738.6,859.6,699.5,846.1,680.1z"/>
<path class="st0" d="M990.3,513.2c0.1-0.6,0.2-1.2,0.2-1.8V387.3c0-6.6-5.4-12-12-12H871.4c-18.5-13.6-41.3-21.6-65.9-21.6H131.9
	c-6.1,0-11.1,5-11.1,11.1v23.1c0,70.5,42.8,131,103.9,156.9l39.8,72.3h35.7l8.2,53.9h-79v31.5c-24.8,5-42.5,18.5-42.5,34.3
	c0,1.1,0.1,2.1,0.3,3.2c-8.1,6.9-17.1,17.7-25.1,30.7c-16.3,26.5-22.5,52.3-13.8,57.7c8.7,5.4,29-11.7,45.4-38.2
	c5.8-9.3,10.3-18.6,13.3-26.9c6.9,3.7,15.2,6.6,24.4,8.3c-6.3,8.6-12.8,24.9-17,44.1c-6.5,29.8-5,55.5,3.4,57.3
	c8.4,1.8,20.4-20.9,26.9-50.7c4.5-20.4,5.2-38.9,2.5-49.1c1.3,0,2.6,0.1,4,0.1c14.4,0,27.7-2.7,38.5-7.3c-0.2,2.4-0.3,4.8-0.3,7.3
	c0,28.1,11.6,50.9,25.9,50.9s25.9-22.8,25.9-50.9s-11.6-50.9-25.9-50.9c-1.6,0-3.1,0.3-4.6,0.8c-0.2-0.3-0.4-0.6-0.6-0.8h5.3h33.9
	v-15.3l15.2-2.3l-22.3-146.7h57.7l-15.7,151.3l33.9,3.5l-0.2,1.9l8.2,1.1c-11.7,7.7-18.7,17.6-18.7,28.5c0,8.8,4.7,17,12.7,23.9
	c-17.8,4-31.2,20.4-31.2,40.1c0,22.7,17.7,41.1,39.5,41.1c21.8,0,39.5-18.4,39.5-41.1c0-8.2-2.3-15.8-6.3-22.3
	c7.7,1.4,16,2.2,24.6,2.2c4.6,0,9.1-0.2,13.5-0.7c-5.4,11.3-5.5,30.2,0.8,49.9c9,28.6,28,48,42.4,43.5s18.6-31.4,9.6-59.9
	c-5.7-17.9-15.2-32.2-25-39.3c3.6-1.2,6.9-2.6,10.1-4.1c7.3,9.5,19.7,17.4,34.8,21c27.2,6.5,52.8-3.5,57.3-22.2
	c4.5-18.7-14-39.2-41.1-45.6c-9.7-2.3-19.3-2.5-27.7-1c-5.3-8.7-15.4-16.1-28.4-21.4l7.2-55.5l-76.8-9.9l8.8-85.1h260.4
	c8.8,0,13.9,9.7,9.2,17.1c-11.8,18.4-15.6,40.1-8.7,60.4c4.3,12.4,12.1,22.8,22.3,30.6c3.3,2.6,7.8,3.1,11.6,1.3
	c4-2,8.2-3.7,12.6-5.3c44.7-16.2,89.7-5.2,100.5,24.5c8.3,22.8-6.1,50.1-33.5,68.8c-5.1,3.5-5.9,9.8-3.4,14.4
	c-19,0.2-34.2,7.8-34.2,17.2c0,9.5,15.7,17.2,35,17.2c19.3,0,35-7.7,35-17.2c0-3.9-2.6-7.5-7-10.4c38.8-3.8,69.3-41.3,69.3-87
	c0-30.8-13.8-57.9-34.8-73.4c-3.1-2.3-4.8-6.1-4.4-10c1-9.2,0-18.6-3.1-27.7c-0.6-1.7-1.2-3.4-2-5c-3.2-7.3,2.2-15.5,10.1-15.5
	c6.1,0,11.1-5,11.1-11.1v-82c0-24.9-8.1-47.8-21.9-66.4h50.7c6.6,0,12,5.4,12,12v100.5c-3.3,6.5-5.3,14.3-5.3,22.6
	c0,19.4,10.5,35.7,24.7,40.6c10.2-4.7,17.7-20.1,17.7-38.3C994.9,527.7,993.2,519.7,990.3,513.2z"/>
<rect x="364.2" y="225.8" class="st0" width="7.1" height="26.3"/>
<polygon class="st1" points="314.9,261.5 340.4,261.5 324.9,288 "/>
<path class="st1" d="M375.4,261.5c1.5,1.5,30,0,30,0L394.9,288L375.4,261.5z"/>
<path class="st0" d="M243,237.5c0,0-4.4-12.7-4-22.8c0.4-10.1,8.4-26,8.4-26s2.9,16.5,2.5,24.4C249.5,221,243,237.5,243,237.5z"/>
<path class="st0" d="M528.1,250.9c0,0,5.1-13.5,4.8-22.9c-0.4-9.4-7.1-30.7-7.1-30.7s-2.4,20.5-2.2,29.4S528.1,250.9,528.1,250.9z"
	/>
</svg>
