<?xml version="1.0" encoding="UTF-8" standalone="no"?>
<!-- Created with Inkscape (http://www.inkscape.org/) -->

<svg
   xmlns:dc="http://purl.org/dc/elements/1.1/"
   xmlns:cc="http://creativecommons.org/ns#"
   xmlns:rdf="http://www.w3.org/1999/02/22-rdf-syntax-ns#"
   xmlns:svg="http://www.w3.org/2000/svg"
   xmlns="http://www.w3.org/2000/svg"
   xmlns:sodipodi="http://sodipodi.sourceforge.net/DTD/sodipodi-0.dtd"
   xmlns:inkscape="http://www.inkscape.org/namespaces/inkscape"
   width="100.44305mm"
   height="254mm"
   viewBox="0 0 355.90059 900"
   id="svg4127"
   version="1.1"
   inkscape:version="0.91 r13725"
   sodipodi:docname="cameraman2.svg"
   inkscape:export-filename="/home/algot/Documents/runeman.org/clipart/2018/cameraman2.png"
   inkscape:export-xdpi="40.000004"
   inkscape:export-ydpi="40.000004">
  <title
     id="title4182">Cameraman Full Body</title>
  <defs
     id="defs4129" />
  <sodipodi:namedview
     id="base"
     pagecolor="#ffffff"
     bordercolor="#666666"
     borderopacity="1.0"
     inkscape:pageopacity="0.0"
     inkscape:pageshadow="2"
     inkscape:zoom="1.6988159"
     inkscape:cx="-78.50863"
     inkscape:cy="653.68029"
     inkscape:document-units="px"
     inkscape:current-layer="layer1"
     showgrid="false"
     inkscape:window-width="1366"
     inkscape:window-height="712"
     inkscape:window-x="0"
     inkscape:window-y="0"
     inkscape:window-maximized="1"
     fit-margin-top="0"
     fit-margin-left="0"
     fit-margin-right="0"
     fit-margin-bottom="0" />
  <metadata
     id="metadata4132">
    <rdf:RDF>
      <cc:Work
         rdf:about="">
        <dc:format>image/svg+xml</dc:format>
        <dc:type
           rdf:resource="http://purl.org/dc/dcmitype/StillImage" />
        <dc:title>Cameraman Full Body</dc:title>
        <dc:date>2018-06-14</dc:date>
        <dc:creator>
          <cc:Agent>
            <dc:title>Algot Runeman</dc:title>
          </cc:Agent>
        </dc:creator>
        <dc:rights>
          <cc:Agent>
            <dc:title>Algot Runeman</dc:title>
          </cc:Agent>
        </dc:rights>
        <dc:publisher>
          <cc:Agent>
            <dc:title>runeman.org</dc:title>
          </cc:Agent>
        </dc:publisher>
        <dc:identifier>cameraman2.svg</dc:identifier>
        <cc:license
           rdf:resource="http://creativecommons.org/publicdomain/zero/1.0/" />
      </cc:Work>
      <cc:License
         rdf:about="http://creativecommons.org/publicdomain/zero/1.0/">
        <cc:permits
           rdf:resource="http://creativecommons.org/ns#Reproduction" />
        <cc:permits
           rdf:resource="http://creativecommons.org/ns#Distribution" />
        <cc:permits
           rdf:resource="http://creativecommons.org/ns#DerivativeWorks" />
      </cc:License>
    </rdf:RDF>
  </metadata>
  <g
     inkscape:label="Layer 1"
     inkscape:groupmode="layer"
     id="layer1"
     transform="translate(-363.4459,161.26836)">
    <g
       id="g4058"
       transform="matrix(-1.2912363,0,0,1.2912363,333.95864,-520.07303)">
      <path
         inkscape:connector-curvature="0"
         id="path3941"
         d="m -38.534572,431.04707 1.893457,3.78692 1.136077,4.92299 -1.514769,2.65085 -2.27215,1.89346 -2.650842,0.75738 -4.544305,-3.40823 6.059071,3.02954 -1.514766,2.65084 -2.272153,1.51477 -2.272152,-0.37869 -2.650843,-0.75739 -1.89346,0 -3.029535,5.30169 -3.029536,1.13607 -2.650843,3.02954 -1.89346,1.89346 -4.544303,-0.37869 -2.650843,-1.13608 -6.059072,6.81646 -10.224681,9.0886 -9.088607,16.28376 -198.055883,0 -1.51476,-6.43777 -4.54431,-21.96413 1.13608,-17.41982 0.75738,-12.49684 3.78692,-9.84599 7.19515,-12.87553 6.05907,-9.46729 3.78692,-8.33123 3.02953,-3.02953 0,-1.51477 -0.75738,0 2.27215,-14.39029 7.95253,-1.13608 15.14768,1.51477 9.84599,4.5443 9.84599,6.81646 8.70991,7.57384 4.923,4.16561 0,1.89346 -3.02954,7.95253 6.81646,3.78692 9.08861,6.43776 5.68037,7.19515 5.30169,8.70991 4.16561,10.60337 3.78692,5.68038 4.5443,5.68038 4.16562,1.89346 2.65084,6.81646 6.43776,2.65084 3.40823,6.05907 13.63291,5.30169 1.89346,3.02953 32.5675,-17.04113 20.070677,-18.17721 9.467298,-7.19515 1.514768,-2.27215 0.757384,-7.19515 6.059071,-6.05907 5.680379,-5.30169 3.786919,-4.92299 3.786919,-6.43777 1.89346,-2.65084 3.408227,-3.40823 3.408228,0 2.272151,1.51477 -1.514768,7.19515 -3.029535,5.68037 -2.650843,3.40823 -0.757384,5.30169 1.136076,3.02954 5.680378,3.40822 6.437763,2.27216 5.680379,4.16561 z"
         style="fill:#000000;fill-rule:evenodd;stroke:#000000;stroke-width:0.29200697px;stroke-linecap:butt;stroke-linejoin:miter;stroke-opacity:1" />
      <path
         sodipodi:nodetypes="cccccccccccccccccccccccsssssssssssssssssssssccccc"
         inkscape:connector-curvature="0"
         id="path3943"
         d="m -218.79193,395.45003 6.43776,-2.27215 8.70992,-1.13608 1.89346,-3.78692 0,-2.65084 -0.3787,-1.13608 0,-1.13607 3.78692,-1.13608 2.27215,-1.13608 0,-3.02953 -2.65084,-1.51477 3.02954,1.13608 3.02953,-0.75739 1.89346,-2.65084 0,-3.78692 7.57384,-1.13608 1.51477,-2.27215 0,-1.89346 -2.27215,-4.5443 -1.89346,-6.05907 1.13607,-6.05907 3.78692,-4.16561 1.13608,-4.16562 c 0,0 -3.76098,-16.66694 1.51476,-21.58544 0.9233,-0.86077 2.55838,0.29002 3.78693,0 1.92296,-0.45395 3.86029,-1.29944 5.30168,-2.65084 1.27931,-1.19943 2.40345,-2.80819 2.65085,-4.5443 0.22027,-1.54577 0.0325,-3.50879 -1.13608,-4.5443 -0.76169,-0.67495 -2.33886,0.36876 -3.02954,-0.3787 -1.88662,-2.04174 1.19295,-6.03818 -0.37869,-8.33122 -1.94917,-2.84387 -6.0702,-3.57688 -9.4673,-4.16561 -1.74571,-0.30254 -3.67847,1.08878 -5.30168,0.37869 -1.48103,-0.64789 -1.80877,-2.72723 -3.02954,-3.78692 -2.43594,-2.11452 -5.45722,-3.45837 -8.33122,-4.92299 -3.67722,-1.87396 -7.39865,-3.76744 -11.36076,-4.923 -3.06808,-0.89481 -6.31319,-0.9996 -9.4673,-1.51476 -2.27337,-0.37132 -4.52374,-1.35874 -6.81645,-1.13608 -3.2204,0.31275 -6.19179,1.96697 -9.08861,3.40823 -4.01324,1.99671 -7.94844,4.28841 -11.36076,7.19514 -3.33569,2.84146 -5.76308,6.60302 -8.70991,9.84599 -1.74182,1.91687 -4.35191,3.27077 -5.30169,5.68038 -0.37031,0.9395 0.10458,2.02512 0,3.02954 -0.25383,2.43778 -0.79705,4.85163 -1.51476,7.19514 -1.07769,3.5189 -3.78536,6.56416 -4.16562,10.22469 -0.29165,2.80749 1.51477,8.33122 1.51477,8.33122 l 2.65085,12.49683 -1.51477,12.49684 -2.65085,14.76898 z"
         style="fill:#000000;fill-rule:evenodd;stroke:#000000;stroke-width:0.29200697px;stroke-linecap:butt;stroke-linejoin:miter;stroke-opacity:1" />
      <path
         inkscape:connector-curvature="0"
         id="path3945"
         d="m -40.806726,432.18314 2.650846,-5.68038 1.514765,-9.46729 -1.136073,-13.63291 -1.514769,-4.16561 -2.272153,0 -0.378689,-1.51477 -1.893461,0 -1.89346,0.75738 -4.544303,-0.37869 -2.272152,-1.13608 -4.922995,0 -1.514767,1.89347 -6.059071,0.37869 -4.165611,0.75738 -2.272152,-1.89346 -9.467298,0 -2.650844,-2.65084 -1.893459,0.37869 -2.650844,-1.89346 -1.893459,-6.05907 -4.922995,-4.923 -1.514768,-1.51477 1.893459,-4.16561 10.982066,2.65085 4.544304,-19.31329 -9.467299,-4.5443 -38.247882,0 3.02953,17.04113 1.89346,4.54431 7.19515,0 0,4.16561 -6.81646,-2.27215 -6.05907,9.84599 2.65085,1.89346 1.51476,-2.27215 3.78693,1.89345 -2.27216,17.04114 -3.02953,17.79852 -2.27216,4.54431 0,10.22468 -3.02953,0 0.37869,4.5443 35.975735,1.51477 z"
         style="fill:#000000;fill-rule:evenodd;stroke:#000000;stroke-width:0.29200697px;stroke-linecap:butt;stroke-linejoin:miter;stroke-opacity:1" />
      <path
         sodipodi:nodetypes="sssssssss"
         inkscape:connector-curvature="0"
         id="path3947"
         d="m -89.657984,355.30868 c 1.29081,-2.28764 3.812696,-4.45201 6.437763,-4.5443 17.979068,-0.63209 39.683714,2.01557 56.046405,3.02953 2.484892,0.15399 3.132782,4.03558 3.786919,6.43777 0.530655,1.94873 0.547031,4.11487 0,6.05907 -0.721228,2.56331 -1.515829,6.55308 -4.165611,6.81645 -17.904378,1.77961 -37.512334,0.37952 -56.046405,-1.13607 -3.029922,-0.24777 -5.670732,-3.2432 -6.816454,-6.05907 -1.335453,-3.28218 -0.983948,-7.5173 0.757383,-10.60338 z"
         style="fill:#000000;fill-rule:evenodd;stroke:#000000;stroke-width:0.29200697px;stroke-linecap:butt;stroke-linejoin:miter;stroke-opacity:1" />
      <g
         transform="matrix(-0.99690666,-0.07859458,-0.07859458,0.99690666,0,0)"
         style="font-style:normal;font-variant:normal;font-weight:bold;font-stretch:normal;font-size:8.22398376px;line-height:125%;font-family:sans-serif;-inkscape-font-specification:'sans-serif Bold';text-align:center;letter-spacing:0px;word-spacing:0px;text-anchor:middle;fill:#b3b3b3;fill-opacity:1;stroke:none;stroke-width:1px;stroke-linecap:butt;stroke-linejoin:miter;stroke-opacity:1"
         id="text3949">
        <path
           d="m 8.7626594,366.74702 -2.4174015,0 -0.3814836,1.09224 -1.5540438,0 2.2206362,-5.99531 1.8431683,0 2.220636,5.99531 -1.5540436,0 -0.377468,-1.09224 z m -2.0319023,-1.11233 1.6423874,0 -0.8191859,-2.38528 -0.8232015,2.38528 z"
           style=""
           id="path4185" />
        <path
           d="m 11.228248,361.84395 1.546013,0 0,3.59397 q 0,0.74289 0.240937,1.06414 0.244952,0.31724 0.795092,0.31724 0.554155,0 0.795092,-0.31724 0.244953,-0.32125 0.244953,-1.06414 l 0,-3.59397 1.546012,0 0,3.59397 q 0,1.27296 -0.638483,1.89538 -0.638483,0.62242 -1.947574,0.62242 -1.305076,0 -1.943559,-0.62242 -0.638483,-0.62242 -0.638483,-1.89538 l 0,-3.59397 z"
           style=""
           id="path4187" />
        <path
           d="m 19.456248,363.01249 0,3.65823 0.554155,0 q 0.947685,0 1.445622,-0.46983 0.501952,-0.46983 0.501952,-1.36531 0,-0.89146 -0.497937,-1.35728 -0.497936,-0.46581 -1.449637,-0.46581 l -0.554155,0 z m -1.546013,-1.16854 1.63034,0 q 1.36531,0 2.031903,0.19676 0.670608,0.19275 1.148466,0.65856 0.42164,0.40558 0.626436,0.93564 0.204797,0.53006 0.204797,1.20067 0,0.67864 -0.204797,1.21272 -0.204796,0.53006 -0.626436,0.93564 -0.481874,0.46581 -1.156498,0.66257 -0.674623,0.19275 -2.023871,0.19275 l -1.63034,0 0,-5.99531 z"
           style=""
           id="path4189" />
        <path
           d="m 24.736784,361.84395 1.546013,0 0,5.99531 -1.546013,0 0,-5.99531 z"
           style=""
           id="path4191" />
        <path
           d="m 30.543366,362.85588 q -0.706749,0 -1.096264,0.52203 -0.389515,0.52203 -0.389515,1.46972 0,0.94367 0.389515,1.4657 0.389515,0.52203 1.096264,0.52203 0.710764,0 1.100279,-0.52203 0.389514,-0.52203 0.389514,-1.4657 0,-0.94769 -0.389514,-1.46972 -0.389515,-0.52203 -1.100279,-0.52203 z m 0,-1.12035 q 1.445622,0 2.264808,0.82721 0.819185,0.82722 0.819185,2.28489 0,1.45365 -0.819185,2.28087 -0.819186,0.82722 -2.264808,0.82722 -1.441607,0 -2.264808,-0.82722 -0.819186,-0.82722 -0.819186,-2.28087 0,-1.45767 0.819186,-2.28489 0.823201,-0.82721 2.264808,-0.82721 z"
           style=""
           id="path4193" />
        <path
           d="m 37.843758,364.77936 2.080089,3.0599 -1.610262,0 -1.401451,-2.04796 -1.389403,2.04796 -1.618294,0 2.08009,-3.0599 -1.999777,-2.93541 1.614278,0 1.313106,1.93151 1.309092,-1.93151 1.622309,0 -1.999777,2.93541 z"
           style=""
           id="path4195" />
      </g>
      <path
         inkscape:connector-curvature="0"
         id="path3953"
         d="m -120.33203,391.28442 -5.30169,6.43776 -1.51477,4.92299 -2.65084,-2.65084 -3.02953,1.13608 -13.63291,20.07067 3.02953,1.89346 7.19515,-0.37869 12.87552,-18.55591 3.02954,0 z"
         style="fill:#000000;fill-rule:evenodd;stroke:#000000;stroke-width:0.29200697px;stroke-linecap:butt;stroke-linejoin:miter;stroke-opacity:1" />
      <path
         inkscape:connector-curvature="0"
         id="path4000"
         d="m -291.79331,488.22847 10.37487,41.49949 10.37487,40.20263 -10.02202,45.92726 16.50632,29.29058 98.5613,-2.59372 1.29686,-38.90578 0,-37.60891 0,-19.45289 10.37487,-1.29686 25.93718,-14.26545 25.93719,-24.64033 9.07801,-18.15602 z"
         style="fill:#000000;fill-rule:evenodd;stroke:#000000;stroke-width:1px;stroke-linecap:butt;stroke-linejoin:miter;stroke-opacity:1"
         sodipodi:nodetypes="cccccccccccccc" />
      <path
         style="fill:#000000;fill-rule:evenodd;stroke:#000000;stroke-width:1.58289397px;stroke-linecap:butt;stroke-linejoin:miter;stroke-opacity:1"
         d="m -281.03483,614.39302 c 0,0 -7.20393,29.28079 -4.87353,43.77722 1.53976,9.57829 12.12337,26.45855 12.12337,26.45855 l 2.79789,12.3138 1.11915,22.38311 -1.11915,33.01818 c 0,0 1.53724,10.31476 0,15.11169 -0.48967,1.52801 -2.14997,2.44912 -2.79789,3.91704 -1.07843,2.44323 -1.54464,5.16682 -1.67874,7.83409 -0.16969,3.37489 0.6547,6.72843 1.11917,10.0755 0.15591,1.12383 0.90494,2.27671 0.55957,3.35747 -0.72383,2.26499 -3.63054,1.77765 -5.03596,5.05237 -1.17931,2.74787 -2.79813,11.73496 -2.79813,11.73496 l -3.91705,16.79042 -2.79789,21.26705 0,19.58521 0.93316,19.77545 -0.9327,8.39652 -2.23764,7.46186 2.23718,6.35616 c 0.74572,2.11867 -0.55957,16.2123 -0.55957,16.2123 l 4.47662,0 69.39383,-7.83409 0,-6.15537 0,-6.15535 -4.6e-4,-6.90117 4.6e-4,-2.61475 -0.55958,-6.15535 -1.67873,-4.47662 -1.49251,-11.5638 0.37312,-16.4173 3.91727,-24.6254 6.15845,-17.90648 0,-8.39677 c 0,0 4.89912,-8.18859 6.71494,-9.49736 0.95702,-0.68978 -0.62391,0.4043 -0.46374,0.59977 0.52929,0.64594 1.51339,-0.70939 2.2445,-1.11296 0.34782,-0.19201 0.74032,-0.3364 1.01712,-0.62141 2.09535,-2.15765 3.40282,-5.02466 4.47663,-7.83409 0.95383,-2.49558 1.7241,-5.16592 1.67874,-7.83718 -0.0261,-1.53791 -1.19273,-2.94026 -1.11917,-4.47663 0.74766,-15.61715 15.67128,-44.20974 15.67128,-44.20974 l 8.95323,-34.13733 1.67874,-23.50535 3.29508,-7.07035 -4.2269,-17.30519 1.07029,-36.94954 z m 29.07646,281.77781 1.11915,12.87337 -6.15535,0 z"
         id="path4019"
         inkscape:connector-curvature="0"
         sodipodi:nodetypes="csccccsssssscccccccsccccccccccccccsssssssccccccccccc" />
      <path
         style="fill:#000000;fill-rule:evenodd;stroke:#000000;stroke-width:1.58289397px;stroke-linecap:butt;stroke-linejoin:miter;stroke-opacity:1"
         d="m -285.7139,923.50568 -5.22174,7.46306 3.17006,17.16006 -2.39853,3.91839 1.65202,7.83493 8.95421,5.59637 1.67891,-3.91746 3.35783,7.27529 c 0,0 13.2651,4.28914 20.14694,5.03673 6.49357,0.70541 19.58732,-0.55963 19.58732,-0.55963 l 4.47711,-1.11928 0.55963,-9.51383 -3.35783,-6.15601 -8.95421,-7.83493 12.87167,2.23854 7.2753,-2.79817 19.5873,3.91745 27.42224,-1.67891 6.71565,-5.59637 1.11928,-6.15602 -1.67891,0 c 0,0 -0.6097,-6.13165 -2.79819,-7.83493 -3.10548,-2.41696 -11.75239,-1.11926 -11.75239,-1.11926 l -8.39456,-0.55965 -4.47711,0 -21.82586,-20.70658 z"
         id="path4021"
         inkscape:connector-curvature="0"
         sodipodi:nodetypes="ccccccccsccccccccccccsccccc" />
    </g>
  </g>
</svg>
