<?xml version="1.0" encoding="utf-8"?>
<!-- Generator: Adobe Illustrator 16.0.0, SVG Export Plug-In . SVG Version: 6.00 Build 0)  -->
<!DOCTYPE svg PUBLIC "-//W3C//DTD SVG 1.1//EN" "http://www.w3.org/Graphics/SVG/1.1/DTD/svg11.dtd">
<svg version="1.1" id="Layer_1" xmlns="http://www.w3.org/2000/svg" xmlns:xlink="http://www.w3.org/1999/xlink" x="0px" y="0px"
	 width="900px" height="600px" viewBox="0 0 900 600" enable-background="new 0 0 900 600" xml:space="preserve">
<g>
	<path fill="#D93802" d="M574.67,306.65c0,9.71-0.22,19.06-0.67,28.67c-0.88,18.699-9.67,37.189-22.65,50.85
		c-2.96,3.12-6.13,5.99-9.479,8.55c-5.19,3.98-10.66,7.601-16.351,10.87c-14.359,8.28-30.069,14.38-46,18.561
		c-29.43,7.72-58.649-0.87-86.339-11.95c-27.71-11.09-44.61-32.681-57.19-58.49c9.32,6.25,18.98,11.97,27.5,19.41
		c12.05,10.53,25.42,19.92,40.66,24.729c35.09,11.091,75.71,15.011,110.7,2.32c11.82-4.29,23.49-8.68,35.011-13.39
		c2.729-3.04,3.64-6.66-0.061-11.13c-4.66-5.641-6.59-1.391-10.13,2.02c-4.06,3.89-9.33,5.64-14.189,8.5
		c-10.431,6.14-25.82,8.811-38.58,9.5c-19.46,1.04-39.05-0.24-56.55-7.32c-8.2-3.319-16.13-9.05-24.52-11.5
		c-6.9-2.01-14.91-2.06-22.2-3.88c-13.46-3.37-20.33-14.88-25.3-27.3c-2.74-6.86-9.93-32.65-22.7-26.7
		c-4.76,2.221-6.29,7.75-6.74,13.931c-3.59-17.78-1.95-36.74,1.63-54.23c2.58-12.6,10.71-27.54,18.26-37.99
		c9.21-12.74,18.08-17.55,32.72-23.51c13.3-5.41,25.28-8.5,39.83-8.5c6.48,0,12.24-0.14,18,2.18c5.29,2.13,9.35,5.38,15.34,5.82
		l-2.67-1.34c12.08-10.66,39.84-6.84,54.13-1.83c10.851,3.81,20.57,9.54,29.71,15.97c8.83,6.21,15.22,14.86,21.99,23.21
		C568.65,266.02,574.66,289.67,574.67,306.65z"/>
	<g>
		<path fill="#B22606" d="M496.6,242.66c-0.29-0.54-0.6-1.08-0.899-1.62c-0.311-0.53-0.67-1.03-1.01-1.55
			c-0.351-0.51-0.74-0.98-1.12-1.48c-0.391-0.48-0.82-0.93-1.23-1.4c-0.43-0.45-0.89-0.88-1.33-1.32l-1.43-1.23l-1.5-1.14
			l-1.57-1.05l-1.62-0.96c-1.1-0.61-2.229-1.17-3.37-1.69c-0.92-0.41-1.85-0.8-2.789-1.15c-1.4-0.54-2.83-1.03-4.261-1.47
			c-3.359-1.04-6.739-1.87-10.109-2.64h-0.011c-0.317-0.073-0.637-0.146-0.956-0.219c-2.271-1.81-6.32-5.017-6.644-5.131
			c-0.13-0.04-0.27-0.09-0.42-0.14c-0.22-0.07-0.46-0.14-0.72-0.22c-0.53-0.16-1.08-0.26-1.7-0.36c-1.26-0.19-2.91-0.19-4.54,0.17
			c-1.64,0.34-3.1,0.97-4.48,1.5c-0.4,0.15-0.81,0.3-1.21,0.45c-0.27,0.1-0.55,0.19-0.82,0.27c-0.35,0.12-0.68,0.19-1.03,0.3h-0.01
			c0,0,0,0-0.01,0l-0.01,0.01l-0.16,0.03l-0.06,0.01l-0.26,0.05l-0.65,0.12c-0.93,0.2-1.62,0.23-2.42,0.34
			c-0.81,0.07-1.71,0.11-2.61,0.12c-3.63,0.04-7.67-0.44-11.77-0.92s-8.26-0.99-12.2-1.12c-1.96-0.09-3.88-0.04-5.68,0.06
			c-1.81,0.13-3.51,0.33-5.05,0.64c-1.55,0.29-2.95,0.66-4.15,1.05c-0.61,0.21-1.17,0.39-1.68,0.59c-0.51,0.21-0.97,0.4-1.39,0.57
			c-0.85,0.34-1.46,0.71-1.9,0.91c-0.32,0.16-0.53,0.27-0.62,0.32c0.09-0.03,0.32-0.11,0.66-0.24c0.46-0.14,1.1-0.43,1.97-0.66
			c0.44-0.12,0.91-0.26,1.43-0.4c0.53-0.14,1.1-0.24,1.71-0.37c1.22-0.24,2.61-0.44,4.13-0.54c1.51-0.11,3.16-0.1,4.9-0.02
			c1.73,0.12,3.55,0.29,5.43,0.61c3.76,0.58,7.72,1.56,11.73,2.53c4,0.98,8.09,1.99,12.19,2.45c1.03,0.11,2.02,0.19,3.07,0.23
			c0.65,0,1.33,0.01,1.95,0c0.003,0,0.006,0,0.009,0c-0.791,0.812-1.455,1.673-2.145,2.583c-0.364,0.541-0.734,1.09-1.109,1.646
			c-0.329,0.577-0.662,1.161-0.998,1.75c-0.619,1.198-1.223,2.42-1.705,3.687c-0.262,0.624-0.503,1.255-0.703,1.897
			c-0.203,0.64-0.448,1.261-0.604,1.906c-0.17,0.638-0.339,1.27-0.506,1.895c-0.132,0.632-0.263,1.256-0.392,1.87
			c-0.134,0.61-0.196,1.227-0.293,1.819c-0.101,0.592-0.167,1.176-0.207,1.748c-0.127,1.136-0.15,2.217-0.167,3.21
			c-0.007,0.993,0.06,1.905,0.105,2.705c0.104,0.8,0.17,1.496,0.268,2.063c0.239,1.123,0.375,1.765,0.375,1.765
			s-0.056-0.651-0.155-1.79c-0.027-0.569-0.006-1.263-0.012-2.051c0.053-0.79,0.098-1.68,0.224-2.641
			c0.135-0.961,0.286-1.997,0.545-3.076c0.106-0.542,0.238-1.094,0.406-1.651c0.165-0.557,0.294-1.133,0.496-1.702
			c0.194-0.568,0.392-1.145,0.592-1.729c0.231-0.571,0.466-1.149,0.702-1.732c0.22-0.587,0.526-1.145,0.79-1.719
			c0.26-0.577,0.558-1.136,0.874-1.685c0.59-1.118,1.287-2.169,1.979-3.182c0.365-0.49,0.728-0.976,1.086-1.456
			c0.39-0.446,0.774-0.888,1.153-1.321c0.79-0.811,1.591-1.617,2.337-2.158c0.184-0.148,0.365-0.295,0.544-0.44
			c0.192-0.146,0.446-0.292,0.66-0.435c0.223-0.143,0.442-0.283,0.657-0.421l0.319-0.205l0.079-0.05l0.02-0.013
			c0.026-0.018-0.188,0.129-0.095,0.066l0.004-0.001l0.019-0.006l0.071-0.025c0.426-0.172,1.298-0.344,2.085-0.503
			c0.209-0.043,0.42-0.089,0.632-0.138c0.003,0,0.005,0.001,0.008,0.001c0.84,0.15,1.69,0.27,2.52,0.38
			c0.59,0.08,1.17,0.16,1.75,0.22h0.01c0.971,0.12,1.931,0.23,2.891,0.32c1.12,0.12,2.24,0.22,3.35,0.33h0.01
			c0.12,0.01,0.24,0.02,0.36,0.03c0.81,0.07,1.61,0.14,2.41,0.22h0.04c4.03,0.36,8.01,0.74,11.91,1.41c2.35,0.4,4.67,0.9,6.93,1.58
			c1.13,0.34,2.25,0.73,3.35,1.16l1.631,0.69l1.59,0.78l1.54,0.88l1.489,0.98c0.471,0.36,0.95,0.7,1.42,1.08
			c0.45,0.39,0.91,0.77,1.351,1.17c0.42,0.43,0.86,0.84,1.26,1.28c0.39,0.46,0.8,0.9,1.18,1.38c0.351,0.48,0.73,0.96,1.08,1.45
			l0.98,1.54L496.6,242.66z"/>
		<path fill="#ABC086" d="M469.898,218.859c2.035-2.185,4.154-4.678,6.667-6.852c1.257-1.087,2.635-2.052,4.131-2.872l1.072-0.558
			l1.334-0.547c0.465-0.207,0.836-0.297,1.253-0.445c0.414-0.13,0.8-0.289,1.256-0.394c1.752-0.501,3.587-0.844,5.415-1.122
			c1.834-0.257,3.665-0.445,5.452-0.563c3.573-0.246,6.952-0.307,9.85-0.366c2.9-0.056,5.321-0.105,7.014-0.179
			c1.693-0.072,2.657-0.133,2.657-0.133s-0.966-0.063-2.648-0.21c-1.684-0.145-4.082-0.408-6.966-0.727
			c-2.884-0.315-6.255-0.694-9.918-0.917c-1.831-0.116-3.738-0.169-5.693-0.15c-1.956,0.042-3.962,0.149-5.986,0.451
			c-0.991,0.145-2.144,0.376-3.084,0.608l-1.393,0.37l-0.087,0.023l-0.022,0.006l-0.106,0.036l-0.046,0.017l-0.187,0.067
			l-0.371,0.133l-0.743,0.27c-1.958,0.756-3.803,1.728-5.442,2.809c-3.283,2.174-5.878,4.557-8.048,6.342
			c-1.084,0.894-2.061,1.665-2.923,2.262c-0.063,0.043-0.122,0.083-0.184,0.126c-0.001-0.002-0.001-0.004-0.001-0.006
			c-0.011-0.07-0.011-0.15-0.021-0.22c-0.08-0.79-0.17-1.62-0.18-2.26l-0.01-0.13v-0.11l0.01-0.23l0.04-0.66
			c0.04-0.42,0.029-0.94,0.1-1.29c0.11-0.75,0.18-1.53,0.391-2.39c0.34-1.69,0.899-3.42,1.609-5.15c0.69-1.74,1.561-3.47,2.5-5.18
			c0.96-1.77,1.95-3.42,2.97-5.13c1.011-1.68,2.021-3.35,2.971-4.99c0.939-1.64,1.83-3.26,2.59-4.83c0.39-0.78,0.729-1.56,1.07-2.31
			c0.3-0.77,0.619-1.49,0.869-2.21c0.521-1.44,0.9-2.78,1.19-3.98c0.12-0.6,0.24-1.17,0.35-1.69c0.07-0.52,0.141-1.01,0.21-1.45
			c0.141-0.86,0.131-1.56,0.181-2.03c0.02-0.35,0.04-0.58,0.04-0.67c-0.011,0.09-0.05,0.31-0.12,0.66
			c-0.101,0.46-0.16,1.15-0.4,1.99c-0.109,0.42-0.229,0.89-0.359,1.4c-0.16,0.5-0.341,1.03-0.521,1.61
			c-0.41,1.14-0.93,2.4-1.58,3.73c-0.31,0.67-0.7,1.34-1.069,2.04c-0.41,0.69-0.811,1.41-1.271,2.12c-0.91,1.44-1.94,2.91-3.04,4.41
			c-1.12,1.49-2.29,3.04-3.47,4.61c-1.181,1.56-2.44,3.22-3.58,4.86c-1.18,1.68-2.311,3.43-3.28,5.26
			c-0.99,1.82-1.85,3.72-2.47,5.66c-0.34,0.94-0.58,1.97-0.82,2.99c-0.14,0.53-0.17,0.91-0.26,1.36l-0.11,0.65l-0.06,0.33l-0.04,0.5
			c-0.09,1.07-0.08,1.92-0.1,2.75c-0.011,0.76-0.011,1.48-0.051,2.14v0.12c-0.01,0.18-0.02,0.35-0.029,0.52c0,0.001,0,0.002,0,0.004
			c-0.037-0.018-0.063-0.033-0.113-0.055c-0.198-0.088-0.415-0.185-0.65-0.29c-0.479-0.224-0.996-0.384-1.578-0.563
			c-0.316-0.089-0.664-0.167-1.029-0.235c-0.01-0.448-0.02-0.916-0.029-1.407c-0.112-0.934-0.233-1.943-0.362-3.021
			c-0.137-1.074-0.465-2.195-0.719-3.381c-0.292-1.179-0.77-2.372-1.183-3.63c-1.051-2.431-2.31-5.019-4.088-7.405
			c-0.818-1.249-1.841-2.366-2.822-3.556c-0.515-0.57-1.069-1.111-1.609-1.674l-0.822-0.839l-0.877-0.787
			c-2.306-2.161-4.924-4.047-7.625-5.837c-2.71-1.784-5.593-3.325-8.493-4.79c-2.928-1.405-5.886-2.713-8.848-3.849
			c-2.958-1.142-5.896-2.173-8.764-3.072c-2.86-0.924-5.655-1.7-8.303-2.425c-2.656-0.701-5.171-1.33-7.502-1.868
			c-4.66-1.082-8.562-1.866-11.294-2.406c-2.734-0.528-4.296-0.83-4.296-0.83s1.533,0.423,4.217,1.164
			c2.679,0.752,6.503,1.838,11.043,3.277c2.271,0.715,4.714,1.535,7.284,2.434c2.561,0.923,5.256,1.905,7.993,3.034
			c2.747,1.104,5.541,2.34,8.329,3.677c2.792,1.331,5.548,2.82,8.243,4.384c2.658,1.619,5.273,3.293,7.659,5.15
			c2.375,1.86,4.635,3.776,6.524,5.858l0.726,0.758l0.66,0.795c0.433,0.53,0.882,1.039,1.288,1.567
			c0.754,1.093,1.565,2.113,2.156,3.212c1.342,2.115,2.164,4.298,2.863,6.292c0.234,1.034,0.551,1.996,0.703,2.943
			c0.113,0.955,0.318,1.838,0.351,2.694c0.035,0.852,0.068,1.648,0.099,2.386c-0.04,0.647-0.077,1.239-0.111,1.791
			c-0.097,0.023-0.196,0.047-0.292,0.07c-0.711,0.164-1.435,0.339-2.146,0.449c-0.363,0.072-0.718,0.098-1.088,0.152l-0.035,0.004
			c0.045,0-0.125,0.004,0.096,0l-0.02,0.001l-0.081,0.004l-0.163,0.008l-0.326,0.016l-0.66,0.033
			c-0.941,0.074-1.653,0.011-2.477,0.006c-0.826-0.041-1.735-0.125-2.633-0.23c-3.628-0.457-7.571-1.475-11.573-2.509
			c-3.993-1.023-8.038-2.079-11.916-2.734c-1.931-0.353-3.831-0.556-5.625-0.705c-1.803-0.107-3.509-0.141-5.078-0.042
			c-1.568,0.081-2.997,0.264-4.245,0.491c-0.623,0.127-1.208,0.223-1.74,0.353c-0.529,0.141-1.015,0.271-1.453,0.388
			c-0.879,0.221-1.538,0.504-2,0.645c-0.458,0.157-0.701,0.24-0.701,0.24s0.251-0.058,0.724-0.165
			c0.475-0.091,1.152-0.301,2.044-0.427c0.443-0.069,0.934-0.146,1.468-0.229c0.535-0.071,1.12-0.104,1.739-0.164
			c1.24-0.092,2.644-0.122,4.167-0.039c1.522,0.066,3.161,0.273,4.877,0.56c1.713,0.329,3.506,0.714,5.335,1.253
			c3.667,1.028,7.488,2.47,11.356,3.913c3.854,1.442,7.784,2.933,11.763,3.877c1.002,0.227,1.976,0.425,2.996,0.585
			c1.03,0.129,2.128,0.289,2.96,0.307l0.496,0.028c-0.999,0.67-1.908,1.399-2.816,2.168c-0.38,0.32-0.76,0.64-1.14,0.97
			c-0.73,0.7-1.47,1.41-2.22,2.13c-0.68,0.77-1.38,1.54-2.08,2.32c-1.32,1.61-2.64,3.27-3.78,5.03l-0.88,1.3l-0.8,1.34
			c-0.52,0.9-1.09,1.76-1.54,2.68c-0.46,0.91-0.92,1.81-1.38,2.7c-0.41,0.92-0.81,1.82-1.2,2.71c-0.4,0.88-0.7,1.79-1.04,2.65
			c-0.16,0.44-0.32,0.87-0.48,1.29c-0.14,0.44-0.27,0.87-0.4,1.29c-0.25,0.85-0.54,1.66-0.74,2.47c-0.19,0.8-0.38,1.58-0.56,2.33
			c-0.34,1.5-0.53,2.9-0.72,4.13c-0.11,1.24-0.24,2.32-0.27,3.21c-0.01,1.77-0.01,2.79-0.01,2.79s0.13-1,0.35-2.76
			c0.14-0.87,0.4-1.91,0.65-3.11c0.34-1.17,0.7-2.51,1.2-3.92c0.27-0.7,0.54-1.43,0.82-2.19c0.29-0.75,0.67-1.5,1.01-2.28
			c0.17-0.39,0.35-0.79,0.53-1.19c0.21-0.39,0.41-0.78,0.62-1.18c0.43-0.79,0.82-1.62,1.31-2.41c0.48-0.8,0.96-1.61,1.46-2.43
			c0.53-0.79,1.08-1.58,1.62-2.39c0.53-0.81,1.17-1.56,1.76-2.34l0.9-1.16l0.97-1.1c0.49-0.58,0.99-1.14,1.51-1.68l0.01-0.01
			c0.82-0.87,1.66-1.68,2.51-2.48c0.71-0.62,1.42-1.24,2.12-1.85c0.69-0.52,1.37-1.02,2.04-1.53c0.01,0,0.01-0.01,0.02-0.01
			c0.04-0.03,0.08-0.05,0.11-0.08c1.46-0.97,2.94-1.93,4.24-2.51c0.33-0.16,0.65-0.32,0.97-0.48c0.34-0.16,0.77-0.3,1.14-0.45
			c0.38-0.14,0.76-0.28,1.13-0.42c0.19-0.07,0.37-0.14,0.55-0.21l0.14-0.05l-0.13,0.06h0.03l0.12-0.02c0.46-0.08,1.21-0.1,2.03-0.1
			c0.43,0,0.87,0.01,1.29,0.02h0.43h0.01c0.971,0.12,1.931,0.23,2.891,0.32c1.12,0.12,2.24,0.22,3.35,0.33l2.78,0.25h0.04
			c2.41-0.07,4.78-0.22,7.13-0.35c3.35-0.2,6.66-0.42,9.94-0.51c1.51-0.04,3-0.05,4.5-0.02c2.38,0.05,4.75,0.2,7.09,0.53
			c1.17,0.17,2.33,0.39,3.479,0.65l1.72,0.44l1.681,0.54l1.66,0.63l1.62,0.75c0.51,0.28,1.05,0.55,1.56,0.85
			c0.5,0.32,1.02,0.63,1.51,0.97c0.48,0.36,0.97,0.7,1.44,1.07c0.45,0.4,0.93,0.78,1.37,1.19c0.42,0.42,0.859,0.84,1.279,1.28
			l1.21,1.37l-1.02-1.52c-0.36-0.49-0.75-0.97-1.12-1.46c-0.39-0.48-0.82-0.92-1.229-1.39c-0.431-0.45-0.891-0.86-1.33-1.3
			c-0.46-0.41-0.95-0.8-1.431-1.2c-0.489-0.38-1.01-0.74-1.51-1.11l-1.59-1l-1.66-0.9l-1.71-0.8l-1.74-0.71
			c-1.18-0.44-2.38-0.83-3.59-1.17c-2.42-0.68-4.89-1.17-7.36-1.55c-4.939-0.75-9.89-1.05-14.739-1.41
			c-0.92-0.07-1.83-0.13-2.74-0.2c-0.001,0-0.002,0-0.003,0c0.276-0.239,0.554-0.488,0.846-0.751
			C467.891,220.969,468.877,219.952,469.898,218.859z"/>
		<g>
			<path fill="#2A4A08" d="M457.451,225.367h-8c0-1.846,0.069-3.956,0.142-6.19c0.374-11.476,0.939-28.818-7.663-33.161l3.605-7.142
				c13.159,6.643,12.494,27.056,12.053,40.563C457.518,221.604,457.451,223.652,457.451,225.367z"/>
		</g>
	</g>
	<path fill="#D32E18" d="M521.667,228.333c-5.153,3.615-2.896,8.459-6.4,12.692c-2.56,3.092-6.837,5.805-9.989,8.244
		c-2.463,1.905-5.652,4.786-8.611,5.731c-4.196,1.34-8.341,0.796-11.672,4.675c-2.037,2.374-3.175,5.955-4.587,8.917
		c-2.563,5.375-5.356,9.394-10.002,12.816c-6.746,4.969-15.169,11.477-24.005,7.926c-3.935-1.581-7.146-4.183-11.411-4.666
		c-3.979-0.45-7.317,0.714-11.071,1.266c-10.463,1.54-22.825,1.119-32.186-3.765c-4.904-2.559-9.435-6.391-14.774-7.909
		c-4.78-1.359-9.734-2.498-14.625-3.267c-7.139-1.123-16.964-3.429-21.757,3.608c-6.984,10.255-3.596,22.387-6.984,33.327
		c-2.153,6.954-1.086,11.389,2.074,17.807c4.95,10.052,11.322,19.675,16.839,29.55c4.475,8.01,13.583,9.385,19.81,15.707
		c8.325,8.452,17.796,11.311,29.074,14.009c8.21,1.965,16.793,4.136,24.589,7.325c11.522,4.715,25.122,8.701,37.62,9.269
		c8.132,0.369,16.664,1.235,24.769,0.084c2.477-0.352,5.093-0.977,7.611-1.408c4.558-0.781,9.55-0.21,13.961-1.354
		c8.083-2.096,16.726-5.905,23.638-10.436c10.395-6.813,23.874-15.018,27.101-27.854c3.703-14.737,9.999-31.236,6.973-47.032
		c-1.56-8.141-5.702-15.052-7.574-23.009c-1.723-7.322-1.208-15.358-5.401-21.9c-5.6-8.733-15.346-14.088-19.675-23.685
		c-2.277-5.049-6.523-16.558-13.332-16.333"/>
	<g>
		<path fill="#D6472B" d="M405.498,233.089c-4.463-2.256-8.701-1.613-13.009-3.427c-3.202-1.347-6.825-4.939-10.381-5.298
			c-3.77-0.38-5.291,2.8-8.231,4.006c-1.531,0.63-3.432,0.414-4.863,1.172c-2.833,1.498-1.745,2.709-3.448,4.51
			c-2.331,2.466-6.234,2.499-9.243,4.912c-7.404,5.938-1.889,11.549,4.178,16.102c10.525,7.896,25.025,14.747,38.078,9.947
			c5.407-1.989,12.641-7.507,15.096-12.838C417.831,243.151,413.673,237.218,405.498,233.089z"/>
		<path fill="#D87B61" d="M381.896,230.946c-10.033-8.507-26.907,19.482-13.476,27.828c2.787,1.731,8.748,1.795,11.071-0.992
			c2.403-2.882,0.293-7.359,0.21-10.606c-0.149-5.793,1.981-5.894,4.674-9.766c1.892-2.722,2.571-5.936,0.872-8.936
			c-1.813,0.721-3.616,1.585-5.411,2.4"/>
	</g>
	<g>
		<path fill="#D33E2A" d="M538.638,254.911c-5.534-2.517-10.185-3.134-17.395-2.287c-19.236,2.261-30.867,11.206-40.624,27.47
			c-3.475,5.791-5.576,12.554-9.723,17.756c-6.319,7.93-17.741,10.519-25.979,15.898c-8.524,5.566-20.828,17.746-10.537,27.748
			c5.534,5.376,10.505,8.85,14.692,15.586c4.76,7.658,10.791,10.631,19.567,8.39c5.002-1.279,14.348-8.431,19.429-6.942
			c4.18,1.221,4.389,6.119,8.875,7.108c9.318,2.056,20.226,0.791,29.57-1.646c6.803-1.77,10.335-3.807,15.383-8.203
			c6.467-5.63,13.04-8.568,17.226-16.172c3.966-7.207,7.194-13.49,8.946-21.662c1.714-7.987,0.537-12.85-3.291-20.259
			c-3.384-6.549-1.833-14.632-4.945-21.49c-3.58-7.883-8.607-14.282-15.86-18.491C542.052,256.6,540.305,255.67,538.638,254.911z"/>
		<path fill="#D87B61" d="M508.149,275.576c-0.628,5.119-0.785,6.879,4.269,9.017c4.021,1.699,8.467,1.545,12.633,3.096
			c8.313,3.095,15.967,9.14,17.248,17.728c1.092,7.324,5.812,16.684,12.83,7.708c4.361-5.581,2.236-16.441,0.67-23.172
			c-2.957-12.712-15.045-18.997-26.531-23.412c-3.854-1.48-11.273-2.982-15.424-1.111c-4.14,1.868-1.539,6.358-6.26,8.804"/>
	</g>
	<path fill="#BF2C04" d="M551.35,386.17c-2.96,3.12-6.13,5.99-9.479,8.55c-5.19,3.98-10.66,7.601-16.351,10.87
		c-14.359,8.28-30.069,14.38-46,18.561c-29.43,7.72-58.649-0.87-86.339-11.95c-27.71-11.09-44.61-32.681-57.19-58.49
		c9.32,6.25,18.98,11.97,27.5,19.41c12.05,10.53,25.42,19.92,40.66,24.729c35.09,11.091,75.71,15.011,110.7,2.32
		c11.82-4.29,23.49-8.68,35.011-13.39C550.36,386.58,550.85,386.37,551.35,386.17z"/>
	<path fill="#CC2F05" d="M549.86,386.78c-11.521,4.71-23.19,9.1-35.011,13.39c-34.989,12.69-75.609,8.771-110.7-2.32
		c-15.24-4.81-28.61-14.199-40.66-24.729c-8.52-7.44-18.18-13.16-27.5-19.41c-0.28-0.56-0.55-1.12-0.82-1.69
		c-2.92-6.119-4.96-12.539-6.28-19.119c0.45-6.181,1.98-11.71,6.74-13.931c12.77-5.95,19.96,19.84,22.7,26.7
		c4.97,12.42,11.84,23.93,25.3,27.3c7.29,1.82,15.3,1.87,22.2,3.88c8.39,2.45,16.32,8.181,24.52,11.5
		c17.5,7.08,37.09,8.36,56.55,7.32c12.76-0.689,28.149-3.36,38.58-9.5c4.859-2.86,10.13-4.61,14.189-8.5
		c3.54-3.41,5.47-7.66,10.13-2.02C553.5,380.12,552.59,383.74,549.86,386.78z"/>
</g>
</svg>
