<?xml version="1.0" encoding="UTF-8"?>
<!DOCTYPE svg PUBLIC "-//W3C//DTD SVG 1.1//EN" "http://www.w3.org/Graphics/SVG/1.1/DTD/svg11.dtd">
<svg version="1.1" xmlns="http://www.w3.org/2000/svg" xmlns:xlink="http://www.w3.org/1999/xlink" x="0" y="0" width="556" height="402" viewBox="0, 0, 556, 402">
  <g id="Layer_1">
    <path d="M268.436,212.712 C264.761,212.44 253.767,224.59 251.104,230.931 L251.081,230.987 C250.961,231.272 250.802,231.648 250.701,231.94 C256.944,237.28 260.823,252.972 264.255,266.85 C265.583,272.22 267.152,278.566 268.456,282.022 C268.654,281.896 268.858,281.77 269.065,281.646 L269.069,281.633 C275.371,261.663 270.07,217.762 269.033,213.774 C268.952,213.463 268.732,212.732 268.436,212.712 M452.034,246.147 C451.694,245.323 450.993,244.685 450.328,244.102 C449.637,243.535 448.901,243.033 448.156,242.549 C446.662,241.592 445.097,240.772 443.518,240.003 C440.351,238.48 437.093,237.201 433.805,236.043 C427.222,233.746 420.499,231.949 413.701,230.526 C406.9,229.111 400.02,228.063 393.063,227.543 C389.584,227.295 386.085,227.173 382.572,227.314 C380.818,227.395 379.059,227.518 377.309,227.801 C375.575,228.088 373.785,228.428 372.231,229.276 C373.096,229.145 373.947,229.118 374.804,229.16 C375.655,229.186 376.503,229.238 377.352,229.339 C379.046,229.523 380.732,229.761 382.416,230.037 C385.782,230.584 389.136,231.214 392.485,231.875 C399.186,233.187 405.871,234.586 412.559,235.984 C419.244,237.393 425.934,238.789 432.603,240.26 C435.939,240.991 439.27,241.746 442.577,242.578 C444.231,242.989 445.871,243.445 447.497,243.946 C448.306,244.203 449.108,244.483 449.885,244.819 C450.665,245.148 451.427,245.518 452.034,246.147 M455.845,248.149 C454.968,249.925 453.766,252.492 453.042,254.606 C452.808,254.432 452.575,254.258 452.363,254.097 C450.5,252.69 448.181,250.939 445.938,249.996 C445.154,249.667 443.071,248.789 441.695,250.243 C440.745,251.247 440.836,252.457 441.395,253.954 C440.06,252.899 438.722,251.987 437.512,251.539 C435.604,250.835 434.473,251.413 433.857,252.022 C432.803,253.067 432.835,254.55 433.263,256.23 C431.268,254.666 428.844,252.987 426.357,252.098 C424.113,251.293 422.904,252.008 422.285,252.748 C421.32,253.904 421.435,255.458 422.293,257.596 C416.4,251.851 413.002,249.355 410.462,249.779 C408.528,250.102 405.863,250.784 405.054,252.977 C404.242,255.178 405.853,257.172 407.092,258.647 L406.91,258.646 C402.847,258.569 393.49,254.722 384.156,247.744 C374.158,240.27 368.011,232.053 367.291,225.197 C367.242,224.738 367.363,224.538 367.602,224.33 C368.186,223.826 369.827,223.06 374.408,223.06 C378.1,223.06 383.697,223.557 392.186,225.083 C404.727,227.338 419.429,231.04 431.242,234.014 C443.808,237.178 450.45,238.819 452.912,238.733 C454.273,238.681 454.85,239.178 455.163,239.554 C456.623,241.314 456.367,245.656 455.845,248.149 M410.301,304.359 C409.983,303.523 409.595,302.721 409.192,301.93 C408.372,300.355 407.423,298.867 406.437,297.411 C404.449,294.513 402.262,291.782 399.989,289.14 C395.425,283.868 390.491,278.961 385.305,274.341 C380.113,269.727 374.668,265.391 368.896,261.474 C366.003,259.524 363.029,257.678 359.914,256.05 C358.352,255.245 356.766,254.476 355.107,253.85 C353.461,253.234 351.739,252.637 349.969,252.6 C350.785,252.916 351.535,253.315 352.258,253.779 C352.983,254.227 353.692,254.694 354.379,255.203 C355.755,256.207 357.101,257.254 358.421,258.332 C361.067,260.482 363.661,262.7 366.236,264.941 C371.393,269.417 376.493,273.961 381.596,278.505 C386.69,283.056 391.794,287.6 396.846,292.197 C399.373,294.493 401.886,296.807 404.339,299.176 C405.569,300.357 406.764,301.569 407.923,302.814 C408.497,303.439 409.053,304.082 409.559,304.76 C410.071,305.435 410.548,306.134 410.761,306.981 C410.876,306.098 410.587,305.195 410.301,304.359 M416.758,302.824 C417.148,305.076 414.763,308.713 413.067,310.615 C411.423,311.719 409.102,313.347 407.421,314.818 C407.305,314.551 407.19,314.283 407.087,314.04 C406.171,311.891 405.032,309.219 403.559,307.283 C403.112,306.697 402.024,305.271 400.499,305.271 C400.262,305.271 400.015,305.306 399.756,305.383 C398.433,305.78 397.908,306.874 397.646,308.45 C397.014,306.87 396.309,305.415 395.482,304.422 C394.184,302.863 392.913,302.798 392.072,303.022 C390.639,303.402 389.928,304.704 389.462,306.372 C388.511,304.023 387.246,301.361 385.533,299.351 C383.987,297.535 382.585,297.552 381.678,297.886 C380.266,298.407 379.591,299.813 379.27,302.095 C377.021,294.176 375.316,290.318 372.904,289.422 C371.067,288.737 368.416,288.003 366.623,289.5 C364.822,291.004 365.227,293.535 365.564,295.434 L365.409,295.341 C361.923,293.249 355.728,285.253 351.109,274.552 C346.164,263.091 344.927,252.903 347.717,246.603 L347.717,246.601 C347.904,246.178 348.108,246.064 348.418,246.004 C349.792,245.743 354.566,246.458 369.36,258.903 C379.111,267.106 390.016,277.641 398.776,286.105 C408.096,295.107 413.059,299.857 415.216,300.99 C416.424,301.625 416.675,302.341 416.758,302.824 M361.132,142.77 C361.41,142.179 360.974,140.774 358.913,138.61 C357.224,136.836 355.994,136.517 355.263,136.517 C354.984,136.517 354.776,136.564 354.645,136.594 C351.673,137.26 348.697,142.174 346.856,146.233 C353.863,146.199 360.196,144.755 361.132,142.77 M353.498,199.068 C355.874,175.319 356.597,156.459 355.839,152.724 C355.054,152.174 353.98,151.763 352.827,151.471 C350.548,151.723 348.355,151.798 346.574,151.798 C346.281,151.798 346.004,151.795 345.735,151.792 C344.36,156.168 343.374,174.184 344.02,198.826 C344.554,219.243 345.947,233.97 347.346,240.984 C348.978,234.639 351.275,221.288 353.498,199.068 M376.202,104.95 L376.12,105.04 C375.842,105.363 375.694,106.073 375.871,107.209 C375.883,106.437 375.976,105.672 376.202,104.95 M398.643,134.92 C402.509,137.576 406.28,139.418 409.421,139.851 C410.232,139.965 410.452,139.738 410.58,139.602 C410.84,139.331 411.051,138.955 411.219,138.501 C409.341,138.474 407.459,138.146 405.625,137.675 C403.465,137.085 401.364,136.273 399.355,135.285 C399.115,135.168 398.88,135.041 398.643,134.92 M378.194,108.292 C378.228,109.314 378.471,110.313 378.788,111.276 C379.465,113.192 380.496,114.974 381.811,116.541 C383.107,118.121 384.697,119.504 386.572,120.518 C388.458,121.512 390.649,122.11 392.978,121.805 C394.16,121.636 395.461,121.075 396.319,120.073 C397.181,119.086 397.617,117.896 397.79,116.775 C397.96,115.645 397.914,114.548 397.736,113.5 C397.565,112.45 397.261,111.446 396.869,110.488 C396.104,108.567 394.955,106.82 393.484,105.396 C392.015,104.006 390.114,102.905 388.124,102.872 C389.978,103.527 391.392,104.817 392.459,106.304 C393.547,107.778 394.313,109.474 394.813,111.201 C395.278,112.924 395.515,114.748 395.186,116.314 C395.023,117.087 394.719,117.76 394.283,118.217 C393.867,118.691 393.276,118.94 392.564,119.048 C391.045,119.261 389.312,118.893 387.759,118.16 C386.186,117.42 384.728,116.327 383.406,115.073 C382.106,113.797 380.93,112.345 380.035,110.727 C379.57,109.925 379.202,109.07 378.955,108.18 C378.708,107.289 378.604,106.342 378.886,105.399 C378.603,105.8 378.426,106.278 378.303,106.773 C378.218,107.269 378.164,107.785 378.194,108.292 M376.65,108.1 C376.37,107.086 376.184,106.035 376.215,104.937 C378.984,101.792 382.511,101.086 386.56,101.086 C388.129,101.086 389.777,101.192 391.488,101.301 C393.774,101.447 396.136,101.598 398.404,101.459 C402.016,101.237 406.783,101.517 409.011,104.114 C411.448,106.951 410.376,111.907 409.86,114.288 C409.713,114.97 409.606,115.462 409.572,115.906 C409.547,116.225 409.564,116.584 409.624,117.078 C408.682,116.59 407.995,115.917 407.365,115.157 C406.529,114.144 405.852,113.005 405.256,111.809 C404.67,110.607 404.15,109.347 403.732,108.009 C403.3,106.67 402.955,105.28 402.505,103.744 C401.804,105.171 401.537,106.771 401.578,108.371 C401.623,109.972 402.041,111.571 402.755,113.041 C403.475,114.504 404.528,115.852 405.924,116.811 C406.255,117.063 406.666,117.238 407.032,117.432 C407.438,117.585 407.832,117.739 408.257,117.809 C408.745,117.902 409.249,117.899 409.728,117.818 C409.823,118.424 409.96,119.194 410.148,120.238 C410.805,123.869 412.639,134.03 411.308,138.244 C407.379,137.192 403.792,135.427 400.396,133.373 C396.742,131.14 393.318,128.543 390.114,125.706 C386.925,122.859 383.902,119.799 381.302,116.413 C380.015,114.715 378.804,112.949 377.859,111.047 C377.351,110.108 376.98,109.117 376.65,108.1 M271.516,177.59 L271.515,177.59 L271.516,177.59 z M353.423,131.151 C353.78,131.071 354.171,131.012 354.584,130.979 C357.859,127.806 360.824,124.69 363.377,121.739 C367.776,116.649 370.018,113.137 371.089,110.934 C370.858,110.257 370.675,109.608 370.536,108.982 C370.332,109.029 370.117,109.085 369.889,109.149 C369.096,111.1 367.765,112.795 366.477,114.446 C365.076,116.217 363.534,117.856 362.007,119.511 C358.895,122.762 355.633,125.861 352.274,128.847 C345.562,134.828 338.485,140.384 331.181,145.623 C327.503,148.206 323.781,150.732 319.981,153.138 C316.153,155.501 312.295,157.821 308.308,159.916 C304.342,162.045 300.264,163.98 296.078,165.653 C291.885,167.288 287.574,168.715 283.136,169.415 C287.429,168.111 291.532,166.366 295.524,164.4 C299.526,162.457 303.414,160.285 307.242,158.019 C314.889,153.463 322.317,148.535 329.564,143.353 C333.216,140.799 336.785,138.128 340.337,135.435 C343.903,132.761 347.391,129.985 350.87,127.196 C354.32,124.375 357.753,121.526 361.057,118.535 C362.707,117.04 364.35,115.53 365.901,113.935 C366.304,113.548 366.673,113.135 367.053,112.728 C367.438,112.324 367.808,111.909 368.157,111.479 L368.698,110.841 C368.869,110.623 369.025,110.394 369.189,110.17 C369.442,109.859 369.635,109.517 369.824,109.167 C363.169,111.063 346.541,119.696 321.517,137.176 C302.087,150.748 285.878,164.084 278.415,172.368 C299.315,171.313 324.057,156.869 343.101,141.21 C345.356,136.972 348.845,132.179 353.423,131.151 M154.2,258.268 C147.585,260.479 140.925,262.558 134.229,264.506 C133.632,265.707 133.041,266.899 132.453,268.087 C136.226,266.934 140.039,265.725 143.896,264.451 C156.354,260.339 168.597,255.789 180.306,250.971 C180.041,250.289 179.775,249.605 179.51,248.919 C171.166,252.283 162.719,255.387 154.2,258.268 M276.271,182.393 C253.889,176.892 217.32,182.964 171.144,199.594 C171.94,201.011 172.839,202.695 173.816,204.592 C183.582,201.265 193.386,198.035 203.319,195.226 C213.471,192.288 223.731,189.699 234.096,187.58 C239.298,186.606 244.498,185.627 249.762,185.028 C255.012,184.42 260.313,183.934 265.588,184.272 L261.653,184.594 L257.75,185.129 C256.452,185.313 255.162,185.57 253.869,185.786 C252.577,185.994 251.292,186.272 250.009,186.546 C244.871,187.591 239.782,188.879 234.717,190.232 C229.655,191.611 224.608,193.039 219.598,194.599 C214.586,196.149 209.575,197.701 204.6,199.369 C195.09,202.565 185.602,205.822 176.195,209.311 C180.66,218.339 186.149,230.255 191.012,241.237 C200.328,237.203 209.49,232.814 218.412,227.98 C223.593,225.165 228.673,222.166 233.636,218.988 C238.6,215.809 243.424,212.412 248.033,208.74 C252.651,205.084 257.06,201.145 261.068,196.817 C263.037,194.624 264.97,192.389 266.698,189.995 C268.502,187.654 270.043,185.125 271.515,182.557 C270.168,185.19 268.741,187.802 267.042,190.239 C265.395,192.712 263.525,195.026 261.62,197.308 C257.736,201.812 253.43,205.943 248.9,209.797 C239.79,217.462 229.801,224.014 219.468,229.882 C214.305,232.827 209.033,235.581 203.69,238.179 C199.844,240.055 195.962,241.859 192.056,243.602 C192.347,244.266 192.638,244.927 192.924,245.58 C225.809,231.011 253.136,214.665 266.906,200.683 C271.969,195.543 277.496,188.355 276.271,182.393 M153.312,255.627 C161.806,252.789 170.221,249.717 178.539,246.41 C173.967,234.569 169.375,222.37 165.988,213.107 C163.646,213.99 161.308,214.881 158.974,215.782 C153.302,226.523 144.396,244.083 135.881,261.183 C141.723,259.43 147.536,257.583 153.312,255.627 M32.229,280.573 C38.135,280.501 44.031,280.049 49.903,279.427 C61.653,278.209 73.318,276.268 84.904,273.97 C96.482,271.628 107.997,268.96 119.396,265.864 C121.297,265.355 123.192,264.822 125.087,264.295 C133.228,249.049 141.718,232.813 148.398,219.949 C147.435,220.335 146.469,220.715 145.507,221.105 C135.747,224.967 126.057,229.005 116.43,233.188 C111.615,235.272 106.799,237.362 102.025,239.538 C99.626,240.604 97.248,241.714 94.868,242.816 C92.478,243.902 90.088,244.988 87.722,246.119 C68.738,255.085 50.009,264.603 32.021,275.607 C40.324,269.094 49.16,263.269 58.148,257.719 L64.957,253.665 L71.834,249.727 C76.442,247.143 81.104,244.655 85.79,242.219 C90.47,239.766 95.187,237.384 99.955,235.111 C104.706,232.802 109.497,230.578 114.29,228.358 C123.914,224.002 133.648,219.9 143.436,215.93 C146.372,214.774 149.313,213.632 152.259,212.5 C153.633,209.847 154.883,207.427 155.979,205.302 C149.264,207.935 142.382,210.757 135.323,213.793 C83.547,236.062 35.372,263.668 11.589,281.116 C35.929,287.947 74.806,284.438 121.3,271.362 C121.979,270.1 122.663,268.826 123.35,267.542 C110.789,270.897 98.102,273.77 85.31,276.1 C73.633,278.224 61.863,279.882 50.022,280.781 C44.102,281.198 38.163,281.444 32.227,281.309 C26.303,281.176 20.326,280.74 14.591,279.213 C17.482,279.861 20.43,280.176 23.376,280.364 C26.322,280.56 29.276,280.628 32.229,280.573 M163.777,206.996 C163.526,207.418 163.237,207.919 162.913,208.496 C163.325,208.343 163.737,208.189 164.15,208.038 C164.023,207.684 163.898,207.335 163.777,206.996 M369.389,138.971 C369.432,138.821 369.118,137.871 366.866,136.292 C365.525,135.352 364.303,134.886 363.167,134.886 L363.072,134.894 C365.05,137.001 366.246,139.019 366.65,140.927 C368.227,140.258 369.217,139.573 369.389,138.971 M364.86,221.17 C365.068,220.99 365.298,220.822 365.545,220.665 C366.391,214.564 367.139,203.834 367.197,187.501 C367.273,165.912 366.081,151.477 365.117,148.469 C364.709,148.291 364.231,148.147 363.716,148.029 C362.828,148.687 361.793,149.232 360.664,149.684 C361.439,150.978 362.003,154.222 361.521,166.355 C361.174,175.002 360.362,186.154 359.232,197.756 C359.182,198.274 359.129,198.803 359.075,199.343 C360.968,210.168 362.785,217.522 364.205,221.856 C364.401,221.617 364.613,221.384 364.86,221.17 M287.58,202.069 C290.824,213.266 297.779,242.073 295.424,257.401 L295.422,257.41 C295.256,257.548 295.094,257.687 294.936,257.825 C293.319,254.962 291.076,249.59 289.179,245.044 C284.911,234.825 280.16,223.446 274.9,218.124 C274.607,215.875 274.342,214.173 274.147,213.171 L274.513,213.129 C277.447,211.82 282.352,207.518 287.58,202.069" fill="#85BE44"/>
    <path d="M295.883,176.335 C294.026,176.335 289.067,177.126 285.303,179.941 C282.518,182.025 280.991,184.772 280.767,188.105 C280.356,194.201 277.35,198.618 274.723,201.602 C281.189,197.89 291.887,187.277 295.108,179.857 C295.757,178.363 296.026,177.11 295.883,176.335 M183.217,274.56 C182.526,275.077 181.792,275.536 181.038,275.968 C179.533,276.834 177.961,277.602 176.373,278.344 C174.781,279.084 173.166,279.787 171.521,280.458 C169.871,281.136 168.214,281.775 166.41,282.405 C168.269,282.931 170.233,282.86 172.107,282.563 C173.989,282.251 175.816,281.674 177.546,280.872 C179.273,280.07 180.918,279.047 182.352,277.725 C183.062,277.061 183.725,276.319 184.245,275.465 C184.498,275.037 184.725,274.582 184.882,274.108 C185.027,273.627 185.116,273.125 185.061,272.644 C184.557,273.466 183.922,274.042 183.217,274.56 M182.331,256.156 C185.231,263.553 187.978,270.405 190.231,275.807 L190.061,275.856 L189.443,276.024 L189.025,276.507 C185.106,281.035 177.484,286.723 163.142,289.083 C165.361,282.014 163.354,271.194 158.793,265.218 C166.8,262.346 174.676,259.31 182.331,256.156 M195.138,250.682 C197.753,256.751 199.958,262.063 201.397,265.782 C201.336,260.302 201.499,252.154 201.602,247.761 C199.473,248.741 197.317,249.716 195.138,250.682 M230.728,240.05 C232.248,239.898 233.592,239.203 234.815,238.472 C236.036,237.714 237.15,236.826 238.169,235.846 C239.19,234.866 240.116,233.788 240.925,232.605 C241.324,232.01 241.697,231.39 242.015,230.725 C242.168,230.389 242.318,230.052 242.429,229.686 C242.531,229.331 242.674,228.936 242.58,228.545 C242.372,228.848 242.071,229.025 241.795,229.244 L240.949,229.862 C240.39,230.273 239.843,230.695 239.306,231.126 C238.237,231.988 237.215,232.892 236.236,233.838 C235.255,234.784 234.316,235.769 233.412,236.798 C232.495,237.829 231.667,238.897 230.728,240.05 M226.375,235.408 C234.582,230.965 242.123,226.485 248.81,222.062 C245.13,229.741 238.445,238.438 229.534,247.057 C229.263,243.082 227.906,238.683 226.375,235.408 M103.877,281.617 C104.512,285.173 104.662,291.689 100.39,299.98 C101.894,300.363 103.405,300.679 104.911,300.927 C108.395,294.973 112.809,287.027 117.63,278.15 C112.967,279.404 108.38,280.56 103.877,281.617 M213.138,242.253 C213.755,242.23 214.355,242.228 214.941,242.241 C219.878,242.104 223.838,243.186 226.408,244.522 C225.919,241.844 225.015,239.053 223.925,236.722 C220.438,238.577 216.839,240.423 213.138,242.253 M94.073,295.129 C92.812,295.449 91.583,295.463 90.34,295.416 C89.103,295.372 87.869,295.267 86.638,295.13 C84.175,294.856 81.722,294.488 79.277,294.067 C76.834,293.644 74.395,293.177 71.979,292.61 C69.557,292.032 67.163,291.439 64.79,290.4 C65.619,291.417 66.701,292.207 67.803,292.916 C68.919,293.612 70.102,294.189 71.306,294.69 C73.723,295.687 76.245,296.367 78.803,296.815 C81.361,297.261 83.969,297.454 86.583,297.321 C87.889,297.247 89.201,297.093 90.489,296.776 C91.756,296.443 93.083,296.016 94.073,295.129 M97.586,299.318 L97.571,299.319 C80.512,300.323 65.91,297.138 53.158,289.628 C67.588,288.693 83.727,286.219 101.166,282.246 C101.712,285.422 101.81,291.465 97.586,299.318 M156.262,286.743 C155.366,287.152 154.473,287.538 153.564,287.876 C151.759,288.574 149.932,289.14 148.08,289.61 C147.157,289.867 146.216,290.035 145.275,290.243 C144.327,290.384 143.38,290.604 142.412,290.702 C140.478,291.025 138.514,291.11 136.43,291.413 C138.331,292.251 140.391,292.783 142.486,292.886 L143.274,292.939 C143.537,292.949 143.798,292.932 144.062,292.929 C144.587,292.915 145.115,292.898 145.641,292.856 C146.164,292.797 146.686,292.716 147.21,292.646 C147.734,292.574 148.243,292.423 148.76,292.314 C150.812,291.8 152.789,290.972 154.568,289.828 C155.012,289.54 155.447,289.244 155.857,288.905 C156.278,288.589 156.669,288.228 157.05,287.862 C157.772,287.101 158.529,286.304 158.89,285.29 C158.05,285.902 157.158,286.323 156.262,286.743 M156.018,266.204 C160.703,271.501 162.818,283.35 160,289.532 C159.878,289.548 159.761,289.564 159.639,289.577 L159.056,289.647 L158.595,290.009 C149.812,296.88 142.324,299.144 133.179,297.582 C137.406,290.233 135.5,279.838 133.933,273.469 C137.795,272.288 141.699,271.05 145.645,269.747 C149.121,268.6 152.581,267.418 156.018,266.204 M131.259,274.277 C132.818,280.659 134.667,291.065 129.966,297.406 L129.774,297.534 C126.354,299.805 121.584,301.14 116.225,301.507 C116.925,300.009 117.706,298.355 118.561,296.564 C119.401,296.966 120.283,297.173 121.156,297.28 C122.247,297.403 123.333,297.366 124.397,297.197 C125.46,297.028 126.503,296.725 127.502,296.267 C128,296.033 128.489,295.764 128.955,295.428 C129.185,295.255 129.413,295.08 129.625,294.861 C129.816,294.645 130.086,294.422 130.112,294.084 C129.986,294.158 129.856,294.149 129.719,294.153 C129.589,294.157 129.454,294.156 129.32,294.15 L128.525,294.125 C128,294.114 127.484,294.12 126.972,294.139 C125.95,294.181 124.947,294.282 123.955,294.444 C122.962,294.606 121.979,294.822 120.992,295.102 C120.308,295.302 119.625,295.525 118.918,295.814 C121.722,289.943 125.239,282.715 129.076,274.924 C129.803,274.71 130.529,274.495 131.259,274.277" fill="#3DAB48"/>
    <path d="M394.397,111.967 C394.397,113.147 393.441,114.103 392.262,114.103 C391.082,114.103 390.126,113.147 390.126,111.967 C390.126,110.787 391.082,109.831 392.262,109.831 C393.441,109.831 394.397,110.787 394.397,111.967" fill="#FFFFFE"/>
    <path d="M409.938,110.876 C409.938,111.771 409.213,112.494 408.319,112.494 C407.426,112.494 406.701,111.771 406.701,110.876 C406.701,109.982 407.426,109.257 408.319,109.257 C409.213,109.257 409.938,109.982 409.938,110.876" fill="#FFFFFE"/>
    <path d="M455.163,239.555 C454.85,239.178 454.273,238.682 452.912,238.733 C450.45,238.819 443.808,237.179 431.242,234.015 C419.429,231.039 404.727,227.338 392.186,225.083 C383.697,223.556 378.1,223.061 374.408,223.061 C369.826,223.061 368.186,223.825 367.602,224.331 C367.363,224.538 367.242,224.738 367.291,225.198 C368.012,232.053 374.158,240.271 384.156,247.744 C393.49,254.722 402.847,258.569 406.91,258.646 L407.092,258.647 C405.853,257.172 404.242,255.178 405.054,252.977 C405.863,250.785 408.528,250.101 410.462,249.778 C413.002,249.355 416.4,251.852 422.293,257.597 C421.435,255.459 421.321,253.904 422.285,252.748 C422.904,252.009 424.113,251.293 426.357,252.098 C428.844,252.986 431.268,254.666 433.263,256.229 C432.836,254.55 432.803,253.067 433.857,252.022 C434.473,251.413 435.605,250.834 437.512,251.539 C438.722,251.987 440.06,252.899 441.395,253.954 C440.836,252.457 440.746,251.246 441.695,250.242 C443.071,248.789 445.154,249.667 445.938,249.996 C448.181,250.94 450.5,252.69 452.363,254.097 C452.575,254.257 452.809,254.432 453.041,254.606 C453.766,252.492 454.968,249.924 455.845,248.148 C456.368,245.656 456.623,241.314 455.163,239.555 M365.545,220.665 C366.391,214.564 367.139,203.834 367.197,187.501 C367.273,165.911 366.081,151.476 365.117,148.468 C364.709,148.291 364.231,148.147 363.716,148.03 C362.828,148.686 361.793,149.231 360.664,149.685 C361.439,150.978 362.003,154.222 361.52,166.355 C361.174,175.003 360.362,186.155 359.232,197.756 C359.182,198.273 359.129,198.803 359.075,199.342 C360.968,210.168 362.786,217.522 364.205,221.856 C364.401,221.617 364.613,221.384 364.86,221.171 C365.068,220.99 365.298,220.822 365.545,220.665 M355.839,152.724 C355.054,152.174 353.98,151.762 352.827,151.472 C350.548,151.723 348.355,151.797 346.575,151.797 C346.281,151.797 346.004,151.794 345.735,151.792 C344.36,156.168 343.374,174.184 344.02,198.827 C344.554,219.243 345.947,233.97 347.346,240.984 C348.978,234.639 351.275,221.288 353.498,199.069 C355.874,175.32 356.597,156.458 355.839,152.724 M348.418,246.005 C348.108,246.064 347.904,246.178 347.717,246.602 L347.717,246.603 C344.927,252.903 346.164,263.092 351.109,274.553 C355.728,285.253 361.923,293.249 365.409,295.341 L365.564,295.433 C365.227,293.535 364.822,291.004 366.623,289.5 C368.416,288.004 371.067,288.736 372.904,289.421 C375.316,290.318 377.021,294.176 379.27,302.095 C379.591,299.813 380.266,298.408 381.678,297.886 C382.585,297.552 383.987,297.536 385.533,299.352 C387.246,301.36 388.511,304.023 389.462,306.372 C389.928,304.703 390.639,303.402 392.072,303.022 C392.913,302.798 394.184,302.862 395.482,304.423 C396.309,305.414 397.014,306.871 397.646,308.451 C397.908,306.875 398.433,305.78 399.756,305.383 C400.015,305.306 400.262,305.271 400.499,305.271 C402.024,305.271 403.112,306.696 403.559,307.283 C405.032,309.219 406.171,311.892 407.088,314.04 C407.19,314.283 407.305,314.551 407.421,314.819 C409.102,313.346 411.423,311.718 413.067,310.614 C414.763,308.713 417.148,305.075 416.758,302.824 C416.675,302.341 416.424,301.625 415.216,300.99 C413.06,299.857 408.096,295.106 398.777,286.105 C390.016,277.642 379.111,267.106 369.36,258.903 C354.566,246.457 349.792,245.743 348.418,246.005 M343.101,141.21 C345.356,136.972 348.845,132.179 353.423,131.152 C353.78,131.071 354.171,131.012 354.584,130.979 C357.859,127.806 360.824,124.691 363.377,121.738 C367.776,116.649 370.018,113.136 371.089,110.934 C370.859,110.258 370.675,109.608 370.536,108.981 C370.332,109.03 370.117,109.086 369.889,109.149 C369.944,109.014 370.005,108.878 370.055,108.74 C369.977,108.884 369.9,109.026 369.824,109.168 C363.169,111.063 346.541,119.695 321.517,137.176 C302.087,150.749 285.878,164.084 278.415,172.368 C299.315,171.313 324.057,156.869 343.101,141.21 M287.58,202.068 C282.352,207.518 277.447,211.82 274.513,213.13 L274.147,213.172 C274.342,214.172 274.607,215.875 274.9,218.125 C280.16,223.446 284.911,234.825 289.179,245.043 C291.076,249.589 293.319,254.961 294.936,257.826 C295.094,257.687 295.256,257.549 295.422,257.41 L295.424,257.4 C297.779,242.072 290.824,213.266 287.58,202.068 M269.065,281.646 L269.069,281.634 C275.37,261.664 270.07,217.763 269.033,213.774 C268.953,213.463 268.732,212.732 268.436,212.712 C264.761,212.44 253.767,224.589 251.103,230.932 L251.081,230.987 C250.961,231.271 250.802,231.648 250.701,231.94 C256.944,237.28 260.823,252.972 264.255,266.85 C265.583,272.221 267.152,278.566 268.456,282.022 C268.654,281.896 268.858,281.77 269.065,281.646 M248.81,222.062 C242.123,226.485 234.583,230.965 226.376,235.408 C227.906,238.683 229.263,243.082 229.534,247.057 C238.445,238.438 245.13,229.742 248.81,222.062 M271.516,177.591 L271.515,177.591 L271.516,177.591 z M295.883,176.335 C294.026,176.335 289.068,177.126 285.303,179.941 C282.518,182.025 280.991,184.772 280.767,188.105 C280.356,194.201 277.349,198.618 274.723,201.602 C281.19,197.89 291.887,187.277 295.108,179.857 C295.757,178.363 296.026,177.11 295.883,176.335 M354.645,136.594 C351.673,137.26 348.697,142.175 346.856,146.233 C353.863,146.198 360.196,144.755 361.132,142.77 C361.41,142.179 360.974,140.774 358.914,138.611 C357.224,136.836 355.994,136.518 355.263,136.518 C354.984,136.518 354.776,136.564 354.645,136.594 M363.167,134.886 L363.072,134.895 C365.05,137.001 366.246,139.018 366.65,140.928 C368.227,140.258 369.217,139.573 369.389,138.971 C369.432,138.82 369.119,137.87 366.866,136.292 C365.525,135.352 364.303,134.886 363.167,134.886 M190.231,275.807 C187.978,270.404 185.231,263.553 182.331,256.156 C174.676,259.31 166.8,262.346 158.792,265.218 C163.354,271.194 165.361,282.013 163.142,289.083 C177.484,286.722 185.106,281.035 189.025,276.507 L189.443,276.024 L190.06,275.856 L190.231,275.807 M159.056,289.647 L159.639,289.577 C159.761,289.564 159.878,289.548 159.999,289.532 C162.819,283.35 160.704,271.501 156.018,266.204 C152.581,267.418 149.121,268.6 145.645,269.747 C141.699,271.05 137.795,272.288 133.933,273.469 C135.5,279.838 137.406,290.233 133.179,297.582 C142.324,299.144 149.812,296.88 158.594,290.009 L159.056,289.647 z M155.979,205.303 C149.264,207.934 142.382,210.758 135.323,213.792 C83.547,236.061 35.372,263.667 11.589,281.116 C35.929,287.946 74.806,284.438 121.3,271.361 C121.979,270.099 122.662,268.826 123.35,267.541 C123.926,266.466 124.507,265.382 125.087,264.294 C133.228,249.05 141.719,232.813 148.398,219.948 C149.768,217.311 151.061,214.815 152.26,212.501 C153.632,209.848 154.883,207.426 155.979,205.303 M117.63,278.15 C112.967,279.404 108.38,280.56 103.876,281.617 C104.512,285.173 104.662,291.689 100.39,299.98 C101.894,300.363 103.405,300.679 104.911,300.927 C108.395,294.973 112.809,287.027 117.63,278.15 M97.571,299.318 L97.586,299.317 C101.81,291.465 101.712,285.422 101.166,282.246 C83.727,286.219 67.587,288.693 53.158,289.628 C65.91,297.138 80.513,300.323 97.571,299.318 M177.006,191.587 C182.778,189.601 188.601,187.715 194.417,185.973 C194.938,183.167 196.778,177.449 194.299,176.429 C191.589,175.313 179.125,189.197 177.006,191.587 M375.871,107.208 C375.865,107.552 375.871,107.897 375.894,108.24 C375.963,108.798 376.02,109.37 376.162,109.917 C376.272,110.476 376.427,111.02 376.598,111.56 C377.299,113.715 378.318,115.749 379.52,117.647 C381.916,121.455 384.929,124.821 388.268,127.793 C391.405,130.59 394.895,133.001 398.643,134.92 C402.509,137.575 406.28,139.418 409.422,139.851 C410.232,139.964 410.452,139.737 410.58,139.603 C410.841,139.331 411.051,138.955 411.219,138.501 C411.558,138.505 411.897,138.504 412.236,138.488 C411.923,138.415 411.616,138.327 411.308,138.244 C412.639,134.03 410.805,123.869 410.148,120.237 C409.96,119.195 409.823,118.424 409.728,117.817 C409.249,117.899 408.745,117.901 408.257,117.809 C407.832,117.738 407.438,117.585 407.032,117.432 C406.666,117.239 406.255,117.063 405.924,116.811 C404.528,115.852 403.475,114.504 402.755,113.04 C402.041,111.571 401.623,109.973 401.578,108.371 C401.537,106.772 401.804,105.172 402.505,103.744 C402.955,105.279 403.3,106.671 403.732,108.009 C404.15,109.348 404.671,110.607 405.256,111.809 C405.852,113.006 406.529,114.145 407.366,115.157 C407.995,115.917 408.682,116.589 409.624,117.078 C409.564,116.585 409.547,116.224 409.572,115.905 C409.606,115.462 409.713,114.97 409.86,114.288 C410.376,111.907 411.448,106.952 409.011,104.114 C406.783,101.518 402.016,101.237 398.404,101.459 C396.136,101.598 393.774,101.447 391.488,101.301 C389.777,101.192 388.129,101.086 386.561,101.086 C382.511,101.086 378.984,101.793 376.215,104.938 L376.214,104.905 L376.202,104.95 L376.12,105.04 C375.843,105.362 375.694,106.072 375.871,107.208 M518.531,281.719 C523.361,288.387 523.783,293.544 524.29,295.627 C525.092,298.93 520.252,284.025 511.76,276.581 C510.501,275.478 512.979,280.605 512.972,283.446 C512.964,286.651 513.401,279.335 506.234,274.954 C505.84,274.713 505.683,274.346 505.75,273.969 C489.365,270.657 465.106,257.303 457.858,253.782 C457.148,255.45 456.626,256.873 456.592,257.394 C456.607,258.343 456.128,259.174 455.312,259.588 C453.746,260.382 452.359,259.336 449.844,257.436 C448.819,256.663 447.644,255.776 446.482,255.031 C446.972,256.038 447.511,257.158 447.955,258.293 C448.208,258.934 448.974,260.882 447.399,261.992 C445.715,263.183 444.289,261.943 441.451,259.474 C440.317,258.487 438.904,257.258 437.686,256.399 C437.842,256.864 438.005,257.317 438.131,257.665 C438.573,258.896 438.955,259.959 439.065,260.823 C439.272,262.444 438.228,263.152 437.903,263.331 C436.339,264.191 435.069,263.137 432.769,261.221 C431.123,259.852 428.787,257.907 426.458,256.702 C427.249,258.402 428.564,260.682 429.399,262.129 C430.554,264.128 431.465,265.709 431.837,266.768 C432.315,268.128 431.679,269.114 430.987,269.546 C430.595,269.791 430.218,269.894 429.854,269.894 C428.769,269.894 427.805,268.979 426.928,268.146 C426.073,267.334 424.958,266.199 423.668,264.886 C420.534,261.696 413.229,254.263 411.058,253.921 C410.021,254.1 409.449,254.307 409.152,254.445 C409.425,254.92 410.027,255.638 410.384,256.064 C411.568,257.476 412.912,259.074 412.037,260.904 C411.195,262.666 409.029,262.872 406.831,262.828 C401.104,262.719 390.749,257.896 381.651,251.094 C376.365,247.144 368.02,239.878 364.588,231.316 C364.337,231.258 364.096,231.17 363.868,231.058 C362.151,230.208 360.174,227.849 357.361,216.439 C357.319,216.268 357.276,216.086 357.233,215.911 C355.988,225.894 354.425,236.088 352.651,242.601 C363.09,246.408 381.151,263.261 401.685,283.098 C408.755,289.928 415.435,296.38 417.159,297.286 C419.786,298.665 420.634,300.675 420.881,302.119 C421.334,304.757 420.165,307.57 418.848,309.767 C419.818,317.299 432.896,341.641 446.021,357.677 C447.586,358.313 449.603,360.106 451.49,363.977 C455.729,372.662 472.781,393.577 477.354,398.431 C476.076,405.383 450.195,366.185 450.699,370.951 C451.565,379.14 449.362,383.821 448.764,385.88 C447.813,389.144 451.041,373.809 447.388,363.123 C446.846,361.539 446.439,367.219 445.018,369.681 C443.414,372.455 447.439,366.331 443.406,358.96 C443.185,358.554 443.23,358.157 443.479,357.864 C430.92,346.83 416.538,323.167 412.007,316.504 C410.562,317.596 409.399,318.568 409.111,319.004 C408.672,319.796 407.896,320.272 407.031,320.272 L406.907,320.268 C405.154,320.177 404.474,318.58 403.238,315.679 C402.736,314.498 402.158,313.144 401.521,311.921 C401.444,313.037 401.354,314.275 401.175,315.48 C401.075,316.162 400.767,318.233 398.848,318.411 C396.792,318.611 396.176,316.818 394.944,313.264 C394.453,311.844 393.84,310.075 393.213,308.723 C393.116,309.204 393.032,309.679 392.968,310.042 C392.739,311.329 392.541,312.441 392.205,313.248 C391.575,314.755 390.305,314.84 389.948,314.842 C388.161,314.806 387.588,313.26 386.547,310.454 C385.803,308.449 384.745,305.599 383.326,303.395 C383.165,305.262 383.17,307.891 383.174,309.564 C383.178,311.872 383.181,313.695 382.977,314.8 C382.715,316.219 381.67,316.758 380.855,316.785 C379.012,316.864 378.495,315.098 378.033,313.548 C377.696,312.419 377.295,310.881 376.831,309.098 C375.702,304.773 373.071,294.688 371.358,293.311 C370.369,292.949 369.771,292.842 369.445,292.815 C369.444,293.363 369.609,294.285 369.707,294.832 C370.03,296.646 370.398,298.702 368.729,299.854 C367.123,300.96 365.149,300.064 363.256,298.927 C358.344,295.98 351.77,286.638 347.269,276.209 C344.281,269.287 339.981,256.622 343.189,246.753 C342.258,244.403 341.301,240.118 340.398,231.773 C339.502,223.473 338.821,212.308 338.48,200.339 C338.364,196.238 337.512,163.044 340.085,151.49 L339.09,151.418 C338.62,151.771 338.15,152.121 337.677,152.468 C330.9,157.442 320.854,164.113 309.502,169.392 L309.514,169.414 C311.211,173.104 301.278,186.984 291.171,198.204 C294.039,207.323 302.058,238.303 300.175,256.231 C301.066,257.881 300.492,262.703 296.46,273.822 C285.443,304.195 285.191,324.937 286.616,326.758 C288.043,328.58 291.119,336.899 289.772,336.007 C288.425,335.116 285.43,330.553 284.215,331.84 C282.999,333.126 284.944,338.941 284.162,344.726 C283.379,350.509 276.657,346.302 276.657,346.302 C276.657,346.302 285.273,349.893 280.51,330.561 C276.964,316.169 294.415,277.514 293.47,263.335 C291.197,261.485 288.994,256.454 284.965,246.804 C282.354,240.551 279.149,232.881 275.911,227.255 C277.362,242.707 278.412,266.474 274.544,281.15 C275.25,283.136 273.787,288.388 267.407,300.039 C249.977,331.864 246.142,354.844 247.413,357.109 C248.685,359.375 250.673,369.136 249.331,367.916 C247.989,366.695 245.444,361.117 243.876,362.338 C242.307,363.558 243.468,370.347 241.61,376.63 C239.75,382.916 233.011,377.096 233.011,377.096 C233.011,377.096 241.958,382.558 239.983,360.282 C238.513,343.701 264.507,303.786 265.884,287.886 C263.678,285.443 262.095,279.482 259.276,268.081 C256.303,256.058 252.231,239.591 247.17,235.678 C246.716,235.326 246.38,234.948 246.124,234.561 C241.809,240.507 236.221,246.683 229.506,252.839 C226.908,257.42 223.467,261.594 219.315,265.287 C222.737,260.162 226.063,254.999 227.994,251.56 C228.792,250.135 229.354,249.004 229.582,248.297 C229.667,248.028 229.708,247.818 229.694,247.677 C229.677,247.521 229.622,247.353 229.542,247.179 C229.16,246.363 228.08,245.389 226.408,244.522 C225.92,241.845 225.015,239.053 223.926,236.722 C220.438,238.577 216.839,240.423 213.138,242.253 C213.755,242.23 214.355,242.228 214.941,242.241 C222.9,242.423 227.976,245.772 228.177,247.677 C228.474,250.5 207.139,280.952 205.977,282.348 C207.31,284.334 203.514,288.445 199.804,288.98 C198.225,289.208 196.663,288.791 195.518,287.28 C194.91,286.478 193.617,283.737 191.876,279.692 L191.762,279.727 C186.972,285.032 177.77,291.539 160.707,293.663 C150.843,301.243 141.981,303.612 131.335,301.496 C126.861,304.207 120.854,305.663 114.247,305.806 C114.796,304.584 115.464,303.135 116.226,301.507 C121.585,301.14 126.354,299.805 129.774,297.534 L129.966,297.406 C134.667,291.065 132.818,280.659 131.259,274.277 C130.529,274.495 129.803,274.71 129.076,274.924 C129.587,273.887 130.103,272.842 130.623,271.787 C130.677,271.678 130.73,271.569 130.785,271.46 C131.336,270.345 131.893,269.218 132.452,268.087 C136.226,266.933 140.039,265.724 143.896,264.451 C156.354,260.339 168.597,255.789 180.306,250.97 C180.041,250.289 179.775,249.605 179.51,248.919 C179.187,248.085 178.863,247.248 178.54,246.41 C173.967,234.57 169.375,222.369 165.988,213.107 C165.326,211.296 164.711,209.599 164.15,208.038 C164.023,207.683 163.898,207.335 163.777,206.995 C163.592,206.479 163.413,205.975 163.242,205.493 C160.017,209.051 111.621,306.053 110.923,310.236 C110.696,311.595 108.503,312.903 105.888,313.83 C104.725,314.282 93.584,341.053 92.04,345.944 C91.94,346.261 91.88,346.486 91.865,346.607 C91.698,348.031 91.168,346.86 90.537,345.965 C90.293,345.617 90.033,345.311 89.774,345.213 C89.033,344.935 87.036,350.566 85.726,353.154 C85.395,353.811 85.105,354.275 84.893,354.392 C84.024,354.876 84.596,353.514 84.005,352.772 C83.884,352.622 83.721,352.495 83.482,352.417 C82.46,352.08 81.281,354.364 80.399,355.649 C80.065,356.136 79.772,356.484 79.548,356.484 C78.992,356.484 79.05,355.71 78.676,355.327 C78.503,355.149 78.239,355.056 77.778,355.161 C76.019,355.562 75.308,356.199 75.073,356.855 C74.926,357.269 74.969,357.689 75.058,358.062 C75.205,358.67 75.474,359.155 75.249,359.273 L75.132,359.331 C72.109,360.852 74.597,356.538 72.935,355.742 C72.665,355.614 72.291,355.575 71.762,355.67 C69.067,356.161 69.988,357.512 70.128,358.149 C70.187,358.42 70.107,358.564 69.555,358.46 C67.696,358.111 64.674,356.252 78.154,351.14 C91.633,346.026 96.281,325.807 99.07,315.156 L99.095,315.152 C96.476,315.149 95.184,314.172 97.908,311.63 C98.781,310.816 100.423,308.386 102.625,304.765 C100.901,304.429 99.171,304.018 97.451,303.516 C77.398,304.633 60.54,300.185 45.981,289.974 C44.145,290.028 42.342,290.055 40.57,290.055 C26.36,290.055 14.228,288.297 4.667,284.728 L0,282.983 L3.926,279.916 C26.119,262.579 77.623,232.537 133.12,208.669 C141.557,205.041 150.546,201.357 159.831,197.821 C160.443,196.628 160.831,195.87 160.943,195.651 C161.436,194.501 162.557,193.97 164.308,194.222 C164.883,194.306 165.524,194.472 166.235,194.73 C169.981,196.092 199.97,263.642 201.606,270.751 C201.485,269.856 201.422,268.047 201.397,265.782 C201.336,260.301 201.5,252.153 201.602,247.761 C199.473,248.741 197.317,249.716 195.138,250.682 C194.427,249.03 193.688,247.326 192.924,245.58 C225.809,231.012 253.136,214.665 266.905,200.684 C271.968,195.543 277.497,188.355 276.271,182.392 C253.889,176.892 217.321,182.964 171.144,199.595 C169.648,196.933 168.515,195.221 167.897,194.813 C169.248,194.321 170.605,193.833 171.964,193.351 C176.542,187.629 190.812,172.93 190.812,172.071 C190.812,171.025 196.738,169.107 199.702,169.456 C202.38,169.771 202.875,179.726 202.945,183.522 C227.063,176.898 250.577,173.145 269.382,175.483 C277.784,158.092 350.756,107.413 369.812,103.494 C370.036,103.447 370.355,103.382 370.732,103.326 C371.01,102.623 371.395,101.979 371.892,101.401 C377.135,95.309 384.032,95.273 390.344,95.643 L390.046,94.648 C389.842,93.906 389.569,93.166 389.304,92.423 C389.054,91.678 388.755,90.942 388.448,90.207 C387.238,87.264 385.828,84.363 384.225,81.562 C381.078,75.922 377.277,70.621 373.057,65.684 C364.607,55.809 354.252,47.509 342.637,41.5 C331.047,35.411 318.176,31.842 305.084,30.437 C298.529,29.815 291.906,29.545 285.307,29.975 C281.996,30.06 278.712,30.479 275.417,30.812 C273.766,30.943 272.138,31.259 270.5,31.504 L265.588,32.279 L270.471,31.332 C272.101,31.03 273.721,30.657 275.37,30.467 C278.658,30.018 281.939,29.482 285.258,29.279 C291.876,28.615 298.553,28.651 305.205,29.047 L310.19,29.482 C311.848,29.673 313.494,29.953 315.148,30.184 C315.973,30.318 316.807,30.399 317.625,30.576 L320.079,31.085 C321.714,31.437 323.366,31.719 324.972,32.196 C331.477,33.792 337.806,36.123 343.875,39.001 C356.025,44.755 367.043,52.95 376.185,62.907 C380.753,67.887 384.91,73.27 388.435,79.093 C390.226,81.985 391.831,85.004 393.253,88.144 C393.611,88.926 393.963,89.715 394.271,90.531 C394.594,91.338 394.921,92.143 395.188,92.991 L395.611,94.246 L395.972,95.558 C396.008,95.677 396.038,95.804 396.07,95.928 C396.75,95.936 397.418,95.932 398.063,95.892 C398.603,95.859 399.126,95.841 399.642,95.832 C399.727,94.006 399.973,92.249 400.294,90.531 C400.77,87.979 401.432,85.517 402.178,83.1 C403.682,78.268 405.546,73.621 407.586,69.072 C411.702,59.992 416.521,51.305 421.851,42.957 C427.195,34.622 433.037,26.596 439.662,19.236 C442.987,15.576 446.512,12.075 450.405,9.011 C452.357,7.49 454.411,6.09 456.596,4.926 C458.783,3.784 461.139,2.88 463.599,2.647 C461.153,2.996 458.873,4.002 456.766,5.23 C454.662,6.481 452.702,7.958 450.848,9.551 C447.149,12.755 443.831,16.376 440.718,20.147 C434.518,27.727 429.118,35.934 424.235,44.403 C419.368,52.883 415.029,61.67 411.439,70.701 C409.663,75.219 408.076,79.806 406.872,84.435 C406.274,86.749 405.77,89.075 405.453,91.38 C405.222,93.02 405.092,94.657 405.109,96.223 C408.636,96.868 411.362,98.289 413.244,100.481 C417.486,105.423 415.963,112.462 415.312,115.467 C415.251,115.752 415.177,116.096 415.145,116.277 C415.187,116.75 415.425,118.071 415.637,119.247 C417.339,128.668 418.803,139.087 414.607,143.463 C413.695,144.414 412.161,145.458 409.824,145.458 C409.457,145.458 409.069,145.433 408.661,145.376 C397.534,143.846 381.28,129.127 374.019,117.013 C371.584,120.781 367.99,125.162 363.618,129.773 C365.401,129.86 367.499,130.473 369.811,132.093 C373.612,134.759 375.131,137.547 374.32,140.381 C373.713,142.504 371.79,144.111 369.299,145.331 C370.196,146.731 370.928,149.904 371.538,158.683 C372.028,165.749 372.31,174.979 372.328,184.669 C372.34,190.968 372.232,207.701 370.9,219.083 C382.384,217.804 405.646,223.257 432.265,229.958 C441.799,232.358 450.789,234.639 452.753,234.552 C455.707,234.455 457.453,235.761 458.387,236.889 C460.095,238.95 460.481,241.974 460.433,244.531 C465.026,250.58 488.493,265.171 507.861,272.54 C509.535,272.311 512.178,272.862 515.742,275.276 C523.744,280.697 548.95,290.338 555.331,292.267 C557.688,298.932 515.72,277.836 518.531,281.719 M378.788,111.275 C378.471,110.313 378.228,109.314 378.194,108.293 C378.164,107.785 378.218,107.269 378.303,106.773 C378.426,106.279 378.603,105.801 378.887,105.399 C378.604,106.342 378.708,107.29 378.955,108.18 C379.202,109.07 379.57,109.925 380.035,110.727 C380.93,112.345 382.106,113.798 383.406,115.072 C384.728,116.327 386.186,117.42 387.759,118.161 C389.312,118.893 391.045,119.261 392.564,119.048 C393.276,118.94 393.867,118.691 394.283,118.217 C394.719,117.76 395.023,117.087 395.186,116.313 C395.515,114.748 395.278,112.924 394.813,111.201 C394.313,109.474 393.547,107.779 392.459,106.304 C391.392,104.818 389.978,103.526 388.124,102.872 C390.114,102.905 392.015,104.006 393.484,105.396 C394.955,106.82 396.104,108.567 396.869,110.489 C397.261,111.446 397.565,112.451 397.736,113.501 C397.914,114.548 397.96,115.644 397.79,116.774 C397.617,117.896 397.181,119.087 396.319,120.073 C395.461,121.075 394.16,121.635 392.978,121.805 C390.649,122.11 388.459,121.512 386.572,120.518 C384.696,119.504 383.107,118.121 381.811,116.54 C380.496,114.973 379.465,113.191 378.788,111.275" fill="#0B0B09"/>
  </g>
</svg>
