<?xml version="1.0" encoding="utf-8"?>

<!DOCTYPE svg PUBLIC "-//W3C//DTD SVG 1.1//EN" "http://www.w3.org/Graphics/SVG/1.1/DTD/svg11.dtd">
<svg version="1.1" id="Layer_1" xmlns="http://www.w3.org/2000/svg" xmlns:xlink="http://www.w3.org/1999/xlink" x="0px" y="0px"
	 viewBox="0 0 2622.499 1110.565" enable-background="new 0 0 2622.499 1110.565" xml:space="preserve">
<g>
	<g>
		<g>
			<path d="M157.604,761.09c1.803-3.949-1.258-9.243-5.957-10.616c-44.643-13.505-48.867-22.284-55.019-13.057
				c-8.284,12.396,12.931,17.559,29.509,23.116l-34.647,16.725c-10.639,5.091-1.85,22.657,8.585,17.08l34.1-18.079
				c-0.751,2.32-8.034,26.437-7.514,29.906c0.785,4.821,4.73,7.427,8.587,7.62C146.853,814.358,142.294,803.295,157.604,761.09z"/>
			<path d="M163.476,897.297c-4.575-0.082-8.996-5.952-8.72-11.163c1.259-22.852,4.036-43.471,4.985-48.742
				c1.702-10.893,18.988-9.978,17.351,3.711c-1.803,14.134-1.96,14.764-2.824,25.8c27.772-23.007,34.945-32.063,41.723-23.989
				c7.042,8.392-3.108,14.029-29.908,37.973c26.671,1.662,27.738,0.538,30.659,1.76c4.337,1.774,5.847,5.912,5.139,9.697
				C220.483,899.713,218.085,902.25,163.476,897.297z"/>
		</g>
		<g>
			<path d="M298.018,920.043c-0.264-4.271-5.709-7.502-10.217-6.648c-11.089,1.988-22.614,4.194-46.778,6.305
				c-9.972,0.779-11.047,14.163-1.718,17.273c3.947,1.309,26.165-2.217,30.572-2.883l-22.958,30.872
				c-7.181,9.591,8.723,21.071,15.52,11.115l21.868-31.803c3.008,16.567,4.654,22.751,5.638,26.769
				c1.276,5.292,7.188,8.603,12.562,6.159C312.448,972.716,305.117,966.613,298.018,920.043z"/>
			<path d="M389.203,1028.253c-33.705,15.624-32.093,17.65-47.395-22.84c-6.858-18.721-10.369-24.687-2.642-29.098
				c11.503-6.524,13.758,8.778,22.467,30.007c14.492-34.219,16.085-44.322,26.242-40.419c9.835,3.778,3.73,13.089-9.284,47.312
				c25.237-10.96,27.983-15.412,33.832-10.846c1.54,1.203,2.673,3.029,3.175,4.676
				C418.254,1015.667,411.138,1018.016,389.203,1028.253z"/>
		</g>
		<g>
			<path d="M495.942,996.454c-1.973-3.316-7.715-4.629-12.557-0.739c-2.869,2.351-18.473,14.212-38.162,26.655
				c-8.462,5.154-3.295,17.673,6.392,16.298c3.254-0.434,20.823-13.103,25.812-16.654l-6.146,37.979
				c-1.926,11.87,17.52,14.238,18.917,2.63l4.742-38.303c13.645,17.762,22.965,31.573,31.336,20.789
				C533.061,1036.307,523.35,1034.663,495.942,996.454z"/>
			<path d="M610.728,1069.909c-2.702,3.687-10.011,4.093-14.096,0.921c-0.97-0.727-18.14-14.265-36.964-32.345
				c-6.983-6.638,0.429-17.949,9.21-14.513c2.976,1.099,3.122,2.507,23.285,19.793l-2.984-38.357
				c-0.903-11.681,15.439-13.405,16.815-1.712l4.386,38.346c16.465-20.121,16.048-22.163,19.152-24.019
				c3.77-2.293,7.981-1.363,10.916,1.576C645.764,1025.032,646.018,1028.87,610.728,1069.909z"/>
		</g>
		<g>
			<path d="M714.394,977.238c-19.072-9.933-11.984-5.898-40.575,42.49c-5.196,8.479,5.086,17.233,13.055,11.569
				c3.11-2.217,13.849-23.093,15.57-26.413l11.49,36.717c3.517,11.349,21.898,5.335,17.956-5.925l-12.658-36.461
				c11.959,5.825,23.417,10.822,24.853,11.429c5.022,2.179,11.158-0.591,12.4-6.34C758.816,993.61,748.682,995.105,714.394,977.238z
				"/>
			<path d="M842.667,993.51c-1.049,4.379-7.45,7.406-12.395,5.942c-14.317-4.265-24.5-7.264-46.321-15.077
				c-9.018-3.157-7.075-16.425,2.5-17.124c2.902-0.211,1.642,0.287,29.257,8.972c-16.245-31.498-23.953-40.783-14.24-46.019
				c9.894-5.262,12.589,4.932,30.361,37.627c8.609-29.119,7.474-27.36,9.075-29.39c2.901-3.698,7.342-4.148,10.812-2.513
				C858.265,939.037,860.169,940.858,842.667,993.51z"/>
		</g>
		<g>
			<path d="M950.812,878.672c-17.528-2.718-39.35-6.501-47.839-8.205c-4.234-1.191-9.362,2.801-10.204,7.706
				c-2.501,13.785-4.541,25.156-9.323,46.783c-2.263,9.619,10.391,14.755,15.956,6.899c0.884-1.237,1.084,0.241,6.919-29.885
				l21.581,31.85c6.679,9.881,21.921-0.833,15.19-10.431l-22.118-31.63c29.047,4.917,28.336,4.83,30.486,4.272
				C960.845,893.682,960.408,880.112,950.812,878.672z"/>
			<path d="M1043.943,809.782c-1.365,16.211-3.039,32.529-4.855,48.895c-0.138,4.517-5.708,8.528-10.78,8.012
				c-18.555-1.761-34.509-3.67-48.08-5.358c-9.674-1.133-10.396-14.655-1.245-17.282c2.732-0.79,2.703-0.164,30.498,2.732
				c-23.057-28.766-31.684-35.316-22.658-42.562c8.693-7.092,13.546,2.871,36.774,31.28c3.041-29.416,2.464-28.277,3.691-30.531
				C1031.705,796.579,1044.725,800.108,1043.943,809.782z"/>
		</g>
		<g>
			<path d="M1128.17,730.086c-20.921-0.859-34.664-1.542-48.693-2.327c-4.381-0.615-9.052,4.104-9.301,9.097
				c-0.941,17.566-1.767,31.346-2.924,47.853c-0.934,10.992,16.488,14.19,17.787-0.118c0.324-3.602,0.808-10.766,1.696-25.912
				l25.608,28.712c3.264,3.666,8.94,3.982,12.617,0.657c8.895-8.01-0.078-13.886-24.955-41.432
				c29.988,1.367,28.72,1.434,30.781,0.641C1139.754,743.87,1137.892,730.507,1128.17,730.086z"/>
			<path d="M1214.894,653.253c-0.581,29.358-0.349,18.909-1.08,48.966c0.241,4.444-4.897,8.876-9.966,8.754
				c-28.948-0.619-18.658-0.369-48.201-1.163c-9.767-0.207-11.752-13.559-2.873-17.112c2.008-0.83,0.272-0.658,30.643,0.014
				c-25.479-26.776-34.574-32.464-26.095-40.576c8.028-7.678,13.281,1.163,39.205,28.216c0.715-30.021,0.451-28.65,1.398-30.741
				C1201.787,640.906,1215.026,643.541,1214.894,653.253z"/>
		</g>
		<g>
			<path d="M1294.961,569.369l-48.874-0.281c-4.42-0.395-8.945,4.57-8.971,9.604l-0.533,48.073
				c-0.247,9.757,13.055,12.359,16.986,3.575c0.875-1.978,0.772-0.262,1.127-30.633c25.965,26.423,31.313,35.661,39.738,27.366
				c8.18-8.054-1.243-13.902-27.005-40.055c29.95,0.085,28.629,0.322,30.773-0.592
				C1307.014,582.745,1304.68,569.453,1294.961,569.369z"/>
			<path d="M1380.135,490.815l-0.479,48.861c0.325,4.424-4.704,8.874-9.746,8.826l-48.099-0.232
				c-9.761,0.066-12.12-13.265-3.284-17.043c1.991-0.848,0.271-0.748,30.644-0.629c-25.938-26.298-35.19-31.845-26.749-40.156
				c8.18-8.054,13.882,1.457,39.636,27.618c0.381-29.889,0.123-28.625,1.073-30.763
				C1366.961,478.539,1380.216,481.095,1380.135,490.815z"/>
		</g>
		<g>
			<path d="M1460.906,407.609c-30.018-0.73-19.569-0.501-48.98-1.065c-4.437-0.442-9.078,4.508-9.174,9.572
				c-0.641,28.967-0.434,18.606-0.969,48.178c-0.259,9.758,13.015,12.38,16.962,3.645c0.91-1.973,0.701-0.236,1.354-30.614
				c25.654,26.65,30.94,35.973,39.395,27.836c8.027-7.682-0.578-13.314-26.476-40.392c30.006,0.602,28.632,0.809,30.768-0.05
				C1472.644,421.252,1470.617,407.923,1460.906,407.609z"/>
			<path d="M1548.98,332.332c-1.048,15.741-1.943,32.555-2.719,48.655c0.146,4.406-5.007,8.589-10.012,8.322
				c-14.508-0.763-34.464-1.603-47.934-2.068c-9.764-0.232-11.706-13.638-2.723-17.154c1.682-0.652-0.063-0.909,30.659,0.494
				l-25.908-28.442c-7.923-8.689,5.519-21.023,13.456-12.197l25.823,28.684c1.718-29.936,1.551-28.73,2.543-30.69
				C1536.481,319.36,1549.589,322.625,1548.98,332.332z"/>
		</g>
		<g>
			<path d="M1635.488,255.126c-9.354-1.079-23.075-2.723-48.887-5.07c-4.401-0.756-9.519,3.853-10.007,8.938
				c-1.129,11.004-2.45,23.494-4.45,48.131c-0.972,10.969,16.253,14.287,17.755,0.17c0.331-3.548,0.999-10.71,2.412-25.851
				c23.428,28.244,28.221,38.024,36.939,30.93c8.96-7.331,0.36-13.725-23.057-42.492c28.062,2.682,27.877,3.365,30.654,2.537
				C1645.937,269.794,1645.106,256.31,1635.488,255.126z"/>
			<path d="M1722.709,238.137c-0.372,4.348-5.861,7.849-10.77,6.931c-21.32-3.782-31.559-5.272-47.193-7.548
				c-9.691-1.247-10.244-14.772-0.859-17.341c1.637-0.446,0.196-1.015,30.412,3.918l-22.394-31.284
				c-6.856-9.553,8.25-20.407,15.037-10.607l22.027,31.693c5.459-29.39,5.374-28.418,6.543-30.106
				c2.711-3.998,7.286-4.685,10.85-3.226C1735.486,184.312,1731.14,188.1,1722.709,238.137z"/>
		</g>
		<g>
			<path d="M1782.747,114.964c-4.253-1.545-10.233,2.214-11.718,7.124c-2.697,8.642-9.038,31.289-12.3,44.874
				c-3.226,13.281,10.01,16.183,15.186,9.415c1.685-2.2,0.796-1.625,8.574-29.412c17.851,31.526,21.019,42.516,30.979,36.981
				c9.533-5.37,2.388-13.379-15.129-45.851c27.424,7.969,26.407,8.746,29.543,8.46c4.678-0.392,7.497-3.805,8.021-7.634
				C1837.063,130.499,1834.04,129.248,1782.747,114.964z"/>
			<path d="M1917.721,134.088c-1.483,4.201-7.718,5.729-11.84,3.686c-17.992-8.728-27.346-12.635-43.397-19.133
				c-9.113-3.432-6.598-16.744,3.308-17.057c3.536-0.1,26.148,10.262,28.513,11.359l-13.575-35.999
				c-4.229-11.129,13.895-17.673,17.738-6.405l12.557,36.496c1.043-2.191,12.01-24.88,14.805-27.043
				c3.833-2.984,8.419-2.445,11.413,0.078C1945.503,86.942,1937.567,90.259,1917.721,134.088z"/>
		</g>
		<g>
			<path d="M2014.146,37.093c-3.481-3.098-10.693-1.664-13.979,2.367c-35.069,43.064-32.35,46.167-27.626,50.749
				c9.661,9.336,15.971-5.734,29.29-23.414l5.641,38.057c1.234,8.137,10.686,10.319,15.022,4.394
				c2.789-3.815,2.028-3.438-2.509-44.872c4.754,3.744,10.055,7.827,20.972,17.423c6.579,5.77,15.266-0.159,14.625-7.548
				C2054.957,67.085,2018.27,40.169,2014.146,37.093z"/>
			<path d="M2128.525,110.933c-3.11,2.99-9.072,1.873-11.907-2.112c-27.15-36.946-37.362-38.49-30.696-47.404
				c2.438-3.268,6.981-4.832,11.204-2.832c3.624,1.679,17.892,19.638,20.486,22.877c4.548-41.167,3.615-41.249,7.706-44.188
				c6.376-4.613,16.834,0.089,15.559,8.451l-5.8,38.158c2.928-2.167,22.008-16.269,25.78-16.938
				c4.827-0.864,8.592,1.987,10.038,5.553C2174.989,82.622,2166.141,81.242,2128.525,110.933z"/>
		</g>
		<g>
			<path d="M2259.038,72.192c-1.691-4.608-8.672-6.571-13.302-4.683c-19.977,8.156-29.162,12.719-44.474,20.558
				c-8.656,4.513-4.44,17.375,4.736,16.671c3.193-0.232,6.43-3.091,27.897-12.524c-12.903,34.181-18.958,43.47-9.1,47.265
				c10.194,3.92,11.634-5.931,26.13-40.598c10.525,24.991,9.437,25.875,11.777,28.338c3.137,3.485,7.551,3.559,10.887,1.628
				C2280.363,124.911,2281.333,121.878,2259.038,72.192z"/>
			<path d="M2349.76,186.236c-42.241,7.631-26.154,14.027-43.962-48.663c-2.787-9.373,9.406-15.385,15.607-7.653
				c2.293,2.872,7.496,26.981,8.061,29.602l20.722-32.416c2.469-3.886,7.976-5.428,12.986-2.149
				c10.366,6.788,0.906,15.433-19.031,44.457c8.143-1.51,13.313-2.502,27.002-4.372c5.632-0.805,10.589,3.763,10.252,9.501
				C2380.876,183.859,2373.47,182.258,2349.76,186.236z"/>
		</g>
		<g>
			<path d="M2461.456,211.584c0.371-4.535-4.883-9.69-10.119-9.947c-17.472-0.773-26.007-1.081-49.077-0.11
				c-9.549,0.352-11.527,13.772-2.684,17.06c3.089,1.231,6.703-0.084,30.556,0.444c-26.077,25.452-35.508,31.315-28.288,38.963
				c7.462,7.969,14.367-1.703,40.921-25.699c-0.539,13.194-1.033,18.322-1.875,27.234c-0.541,5.173,3.447,10.023,9.421,9.562
				C2457.221,268.55,2461.004,267.609,2461.456,211.584z"/>
			<path d="M2468.664,347.586c-3.921-0.697-6.872-6.076-5.278-10.885c14.241-43.813,9.082-52.872,20.39-52.7
				c2.99,0.042,5.911,1.531,7.628,4.208c1.886,3.059,2.802,4.347-5.262,33.215l33.435-19.034
				c10.214-5.864,19.874,11.392,9.145,16.884l-34.29,17.715c6.344,1.929,15.869,5.171,25.826,9.006
				c4.972,1.901,7.735,8.065,4.43,13.303C2518.789,368.673,2514.001,360.089,2468.664,347.586z"/>
		</g>
		<g>
			<path d="M2576.387,431.033c2.689-3.793,0.492-10.843-3.878-13.675c-46.688-30.292-49.638-26.854-53.539-21.801
				c-8.099,10.526,6.682,14.751,26.54,26.458l-37.205,9.795c-11.376,3.037-7.423,18.853,3.921,16.344l37.682-8.349
				c-13.023,20.91-23.614,30.046-11.604,35.724C2545.143,478.762,2548.9,477.906,2576.387,431.033z"/>
			<path d="M2515.977,553.326c-9.103-7.651,6.035-15.137,28.259-40.687c4.521-5.183,8.731-11.851,15.897-7.67
				c12.374,7.197-2.445,19.731-16.202,33.827l38.471-0.431c11.714-0.169,11.933,19.391-0.16,19.079l-38.583-0.98
				c15.152,15.873,28.054,27.214,15.923,34.053C2550.084,595.885,2549.85,586.598,2515.977,553.326z"/>
		</g>
		<g>
			<path d="M2565.52,681.822c14.981-9.531,18.659-8.547-17.27-59.142c-5.468-7.789-17.761-2.273-15.798,7.027
				c0.639,3.152,2.966,4.501,16.336,25.861c-35.578-7.9-45.709-12.621-48.101-2.286c-2.464,10.658,7.688,10.715,43.92,20.086
				c-7.415,4.479-14.325,8.479-23.723,13.493c-4.675,2.437-6.364,8.533-2.73,13.182
				C2522.74,705.875,2526.118,706.572,2565.52,681.822z"/>
			<path d="M2466.275,767.365c-7.315-20.336-4.093-12.4,47.634-34.27c9.161-4.048,16.413,7.537,9.683,14.477
				c-2.636,2.712-24.747,10.573-28.325,11.844l34.815,16.374c10.783,5.031,2.186,22.529-8.39,17.062l-34.341-17.617
				c0.916,2.812,8.544,25.941,7.981,29.779c-0.643,4.857-4.499,7.546-8.35,7.811
				C2476.464,813.556,2479.542,805.576,2466.275,767.365z"/>
		</g>
		<g>
			<path d="M2452.937,897.821c8.707-1.064,10.897-0.66,13.977-4.704c3.182-4.363,2.381-7.59,1.659-15.283
				c-4.595-45.069-6.332-47.973-14.176-48.083c-13.434-0.175-7.73,14.914-5.195,37.12c-28.646-22.45-35.8-31.109-42.369-22.822
				c-6.866,8.458,2.388,13.027,30.914,37.091c-14.485,1.392-22.91,1.677-27.235,1.856c-5.092,0.161-9.469,4.778-8.181,10.668
				C2404.081,901.627,2407.997,902.553,2452.937,897.821z"/>
			<path d="M2327.148,923.383c0.136-4.442,5.527-7.644,10.009-6.881c17.985,2.829,29.166,3.966,46.866,4.967
				c10.023,0.4,11.397,14.072,2.264,17.269c-3.738,1.337-27.71-1.629-30.642-2.018l23.791,30.235
				c7.406,9.346-8.291,21.234-15.261,11.561l-22.671-31.235c-0.57,3.804-4.33,27.189-6.44,30.155
				c-2.633,3.823-7.293,4.74-11.031,3.128C2313.608,976.081,2321.978,969.2,2327.148,923.383z"/>
		</g>
		<g>
			<path d="M2253.601,1039.724c8.208,3.226,9.939,4.619,14.618,2.529c5.028-2.361,5.73-5.617,8.85-12.681
				c17.367-41.375,17.076-45.386,10.244-49.133c-12.052-6.598-13.747,10.307-22.092,30.271
				c-14.066-32.354-16.636-44.409-26.318-40.273c-10.021,3.954-3.957,12.843,9.399,47.348c-10.128-4.326-17.162-7.693-24.751-11.508
				c-4.653-2.398-10.613-0.284-12.304,5.34C2208.928,1019.341,2211.785,1022.378,2253.601,1039.724z"/>
			<path d="M2131.38,1000.466c2.251-3.645,8.315-4.137,12.087-1.008c35.989,28.903,45.975,27.783,41.812,38.017
				c-5.369,13.265-19.83,0.449-35.762-11.317l5.707,38.047c1.783,11.835-17.754,14.247-19.007,2.458l-4.214-38.365
				c-2.303,2.868-17.181,21.585-20.528,23.034c-6.56,2.97-13.038-2.079-12.918-8.136
				C2098.686,1036.706,2103.083,1038.302,2131.38,1000.466z"/>
		</g>
		<g>
			<path d="M2015.456,1072.043c2.64,3.7,9.923,4.16,14.053,1.015c42.253-32.977,43.091-36.018,38.942-42.681
				c-2.137-3.424-6.035-5.168-10.418-3.733c-3.029,1.022-2.377,2.032-23.618,19.426c3.18-33.748,7.189-46.799-3.959-48.052
				c-10.949-1.227-9.715,11.263-14.226,46.136c-17.458-22.246-17.618-26.669-24.775-25.55c-1.899,0.293-3.648,1.248-4.997,2.613
				C1981.238,1026.509,1980.273,1029.705,2015.456,1072.043z"/>
			<path d="M1918.928,975.256c3.663-2.369,9.508-0.099,11.636,4.353c5.293,10.926,13.931,27.306,22.541,41.645
				c5.872,9.513-8.458,20.116-16.051,7.768c-4.166-6.925-8.78-15.509-12.587-22.701l-11.373,36.753
				c-3.45,11.233-21.766,5.491-17.908-5.826l12.448-36.533c-20.489,10.046-34.165,18.579-37.203,5.335
				C1868.016,995.471,1876.934,997.453,1918.928,975.256z"/>
		</g>
		<g>
			<path d="M1784.048,996.111c1.062,4.422,7.568,7.29,12.487,5.803c19.987-6.055,30.304-9.708,46.155-15.532
				c9.074-3.261,6.776-16.637-2.681-17.095c-3.038-0.185-12.008,3.884-29.16,9.272c16.27-32.354,23.648-41.114,13.543-46.28
				c-9.751-4.881-12.387,5.358-29.742,38.026c-8.727-27.775-7.385-26.876-9.335-29.32c-2.914-3.71-7.379-4.081-10.851-2.385
				C1766.584,942.462,1767.746,946.24,1784.048,996.111z"/>
			<path d="M1675.033,882.137c23.864-3.812,32.747-5.588,47.769-8.543c4.36-1.244,9.431,3.046,10.247,7.623
				c9.044,48.765,13.937,52.738,4.786,56.73c-12.769,5.59-14.021-12.479-18.156-32.831l-21.335,32.016
				c-6.612,9.959-21.969-0.638-15.267-10.343l21.889-31.788c-28.797,5.158-28.353,5.035-30.47,4.497
				C1665.122,897.164,1665.397,883.697,1675.033,882.137z"/>
		</g>
		<g>
			<path d="M1581.593,813.531c1.267,14.14,2.132,24.177,4.959,48.914c0.118,4.508,5.75,8.517,10.829,7.983
				c14.398-1.468,24.735-2.491,48.073-5.521c10.891-1.31,10.616-18.897-3.524-17.394c-10.538,1.245-5.54,0.672-25.782,2.945
				c22.99-28.877,31.564-35.433,22.522-42.616c-8.745-6.998-13.425,2.788-36.681,31.377c-3.16-30.002-2.604-28.398-3.75-30.527
				C1593.818,800.31,1580.796,803.863,1581.593,813.531z"/>
			<path d="M1497.499,733.823c15.063-0.551,33.756-1.41,48.677-2.222c4.38-0.609,9.058,4.075,9.283,9.087
				c0.703,14.966,1.843,32.877,2.857,47.861c0.839,9.707-12.338,13.116-16.756,4.489c-0.694-1.349-1.019,0.272-2.694-30.542
				l-25.643,28.681c-7.916,8.865-21.409-3.482-13.537-12.155l25.923-28.595c-29.981,1.28-28.714,1.355-30.775,0.563
				C1485.85,747.597,1487.802,734.188,1497.499,733.823z"/>
		</g>
		<g>
			<path d="M1411.054,656.548c0.415,29.372,0.236,18.907,0.829,48.979c-0.261,4.444,4.845,8.915,9.924,8.815
				c19.76-0.329,27.503-0.425,48.226-0.951c9.756-0.159,11.818-13.532,2.93-17.085c-2.026-0.817-0.237-0.686-30.636-0.128
				c25.013-26.04,34.635-32.336,26.49-40.254c-8.367-8.104-13.599,1.028-39.536,27.823c-0.557-29.993-0.298-28.646-1.235-30.747
				C1424.232,644.277,1410.976,646.84,1411.054,656.548z"/>
			<path d="M1331.593,572.207l48.871,0.055c4.422-0.366,8.914,4.616,8.904,9.656l0.214,48.075
				c0.176,9.767-13.125,12.271-17.004,3.462c-0.86-1.984-0.776-0.266-0.929-30.639c-26.013,26.123-31.514,35.472-39.92,27.099
				c-8.182-8.156,1.409-13.973,27.27-39.869c-29.853-0.124-28.62,0.124-30.767-0.806
				C1319.444,585.501,1321.876,572.222,1331.593,572.207z"/>
		</g>
		<g>
			<path d="M1246.907,493.002l0.143,48.861c-0.356,4.424,4.641,8.898,9.683,8.888l48.098,0.107
				c9.761,0.135,12.212-13.179,3.406-17.02c-1.982-0.863-0.27-0.748-30.64-0.845c26.139-26.132,35.41-31.6,27.028-39.968
				c-8.123-8.108-13.881,1.348-39.827,27.343c-0.177-29.916,0.074-28.621-0.865-30.769
				C1260.161,480.816,1246.895,483.278,1246.907,493.002z"/>
			<path d="M1166.678,409.393c18.532-0.419,30.379-0.554,49-0.813c4.43-0.409,9.043,4.573,9.119,9.634
				c0.493,29.586,0.343,19.323,0.698,48.184c0.199,9.756-13.092,12.297-16.992,3.55c-0.903-1.976-0.686-0.249-1.171-30.624
				c-25.171,25.853-31.169,35.769-39.352,27.816c-8.477-8.24,0.959-14.027,26.511-40.455c-30.07,0.459-28.659,0.666-30.774-0.199
				C1154.887,422.971,1156.957,409.673,1166.678,409.393z"/>
		</g>
		<g>
			<path d="M1078.763,333.803c1.769,29.979,1.612,26.466,2.62,48.655c-0.167,4.417,4.988,8.576,9.993,8.315
				c32.172-1.418,28.89-1.299,47.913-1.917c9.764-0.194,11.751-13.591,2.792-17.156c-1.996-0.775-0.358-0.792-30.664,0.402
				l25.983-28.373c7.965-8.688-5.514-21.025-13.452-12.232l-25.88,28.634c-1.63-29.908-1.527-28.767-2.503-30.688
				C1091.264,320.849,1078.179,324.074,1078.763,333.803z"/>
			<path d="M992.167,256.829c12.698-1.532,23.062-2.832,48.91-5.25c4.446-0.806,9.508,3.872,10.032,8.941
				c1.652,15.596,2.566,24.041,4.55,48.135c1.007,10.935-16.257,14.345-17.752,0.187c0,0-0.668-7.269-2.464-25.837
				c-23.522,28.482-28.14,38.203-37.061,30.827c-8.633-7.131-0.063-13.677,23.146-42.362c-30.001,3.096-28.318,3.317-30.638,2.641
				C981.788,271.545,982.551,258.067,992.167,256.829z"/>
		</g>
		<g>
			<path d="M904.854,240.385c0.388,4.376,5.898,7.814,10.787,6.864c7.475-1.399,19.74-3.796,47.127-7.944
				c9.654-1.294,10.184-14.821,0.722-17.323c-3.156-0.828-24.13,3.041-30.387,4.153l22.137-31.466
				c6.756-9.577-8.395-20.401-15.128-10.521l-21.74,31.891c-3.241-16.378-2.091-10.683-5.421-26.804
				c-1.009-5.091-6.709-8.708-12.317-6.33C891.164,186.906,896.287,191.688,904.854,240.385z"/>
			<path d="M843.474,117.997c4.259-1.64,10.249,2.111,11.799,7.007c15.381,48.837,16.579,53.128,8.753,56.802
				c-12.466,5.8-13.54-10.883-19.881-31.763c-17.557,32.003-20.602,42.729-30.217,37.48c-9.897-5.402-2.969-13.141,14.266-46.175
				c-27.683,8.517-26.461,9.07-29.424,8.88c-4.709-0.266-7.547-3.704-8.129-7.516C789.396,134.473,791.668,133.043,843.474,117.997z
				"/>
		</g>
		<g>
			<path d="M708.615,138.924c1.562,4.22,7.928,5.58,11.918,3.541c42.821-21.141,50.685-19.259,48.512-29.482
				c-2.865-13.6-18.579-4.229-37.25,4.526l13.118-36.167c4.123-11.288-14.072-17.455-17.779-6.172l-12.141,36.636
				c-6.538-13.122-9.052-17.533-12.766-24.181c-2.641-4.776-9.167-6.379-13.687-2.602
				C680.352,92.023,688.158,95.474,708.615,138.924z"/>
			<path d="M592.087,57.487c29.297-23.425,26.261-27.086,58.289,20.559c3.803,5.753,9.061,11.476,2.982,17.402
				c-9.5,9.216-15.809-5.172-29.263-23.501c-5.451,35.716-4.735,47.156-15.294,45.76c-10.865-1.436-7.163-11.52-2.809-48.274
				c-17.814,13.572-20.825,17.898-24.185,18.921c-3.894,1.249-8.041-0.154-10.27-3.909
				C566.975,76.743,572.646,73.248,592.087,57.487z"/>
		</g>
		<g>
			<path d="M496.39,113.876c3.04,3.059,9.019,1.922,11.964-1.84c8.635-11.057,14.076-18.103,30.774-35.616
				c7.005-7.101-1.044-17.938-10.122-14.228c-3.716,1.625-18.948,19.987-21.004,22.464l-3.329-38.329
				c-1.05-12.146-20.609-9.584-19.085,2.018l4.889,38.285c-2.545-1.994-21.575-16.812-25.359-17.528
				c-4.792-0.915-8.668,1.628-10.179,5.258C450.532,84.688,460.601,83.682,496.39,113.876z"/>
			<path d="M366.727,72.18c1.666-4.231,8.625-6.6,13.458-4.483c47.493,20.721,50.733,24.113,48.193,31.93
				c-1.518,4.681-6.401,8.179-13.566,4.545c-8.141-4.208-11.789-6.188-23.253-11.519c12.405,34.927,18.114,43.649,7.988,47.527
				c-9.815,3.758-11.616-7.208-25.182-41.211c-11.467,26.409-9.842,25.846-12.125,28.248c-3.021,3.226-7.474,3.473-10.889,1.465
				C345.688,125.344,342.136,122.691,366.727,72.18z"/>
		</g>
		<g>
			<path d="M299.258,190.778c4.146,1.249,9.014-2.488,9.76-7.337c7.332-45.215,15.72-51.391,5.651-56.273
				c-12.879-6.29-14.972,12.943-18.976,32.338l-21.16-32.131c-6.442-9.848-22.7,1.007-15.729,10.789l22.387,31.44
				c-3.634-0.617-27.111-4.611-30.627-3.567c-4.55,1.331-6.819,5.393-6.499,9.423C244.905,186.185,251.957,181.386,299.258,190.778z
				"/>
			<path d="M165.492,229.763c-0.644-14.981-3.412-25.068,11.444-26.133c49.922-3.12,54.01-1.305,55.267,6.493
				c2.032,13.407-13.597,9.741-35.929,10.671c26.476,24.972,36.099,30.746,28.917,38.507c-7.675,8.294-15.583-2.472-41.296-25.035
				c0.451,7.969,0.727,13.511,2.203,27.192c0.599,5.275-3.412,10.074-9.333,9.683C167.989,270.539,167.929,265.253,165.492,229.763z
				"/>
		</g>
		<g>
			<path d="M158.173,350.064c3.926-0.695,6.937-6.125,5.409-10.932c-6.608-21.508-8.679-31.502-11.701-45.727
				c-1.841-9.705-15.347-9.379-17.391,0.292c-0.77,3.743,5.699,27.432,6.435,30.031L107.59,304.52
				c-10.303-5.982-19.82,11.16-9.226,16.71l34.129,18.023c-3.817,1.167-11.041,3.282-25.95,8.706
				c-4.875,1.69-7.776,7.995-4.609,13.217C107.643,370.636,112.606,362.382,158.173,350.064z"/>
			<path d="M48.873,431.59c-2.46-3.75-0.541-10.672,4.21-13.549c46.189-27.766,49.555-26.543,53.974-20.578
				c7.895,10.72-7.26,14.665-27.085,25.879c35.181,10.156,46.132,10.852,43.29,20.954c-2.642,10.511-12.252,5.592-48.145-3.292
				c12.621,21.538,15.152,22.888,15.838,26.293c1.46,6.933-5.27,11.552-10.817,10.303C73.244,476.046,52.253,437.719,48.873,431.59z
				"/>
		</g>
		<g>
			<path d="M89.507,571.809c29.074-30.237,26.972-12.954-15.302-63.536c-6.274-7.77-17.936-1.025-15.25,8.415
				c1.13,3.722,17.317,20.883,19.824,23.475l-38.454-1.207c-11.908-0.415-12.213,19.274-0.229,19.143l38.595-0.287
				c-1.897,1.916-19.274,19.317-20.524,23.07c-1.46,4.64,0.723,8.781,4.06,10.729C70.414,596.422,72.956,589.017,89.507,571.809z"/>
			<path d="M48.975,678.717c-4-2.181-5.351-9.384-2.739-13.871c27.278-45.251,30.533-47.193,37.762-43.762
				c3.442,1.622,5.938,5.439,4.964,9.894c-0.684,3.146-1.711,2.468-16.518,25.76c33.006-7.171,45.59-12.749,48.192-1.86
				c2.452,10.262-8.655,10.629-44.118,19.704c6.8,4.081,15.79,9.301,23.742,13.522c4.749,2.463,6.369,8.48,2.685,13.187
				C98.864,706.54,95.935,709.583,48.975,678.717z"/>
		</g>
	</g>
</g>
</svg>
