<?xml version="1.0" encoding="utf-8"?>
<svg version="1.1" id="Layer_1" xmlns="http://www.w3.org/2000/svg" xmlns:xlink="http://www.w3.org/1999/xlink" x="0px" y="0px"
	 viewBox="0 0 2610.269 1284.668" enable-background="new 0 0 2610.269 1284.668" xml:space="preserve">
<g>
	<polygon fill="#6D0000" points="988.301,123.459 1002.759,78.784 950.698,78.784 950.698,123.459 	"/>
	<polygon fill="#6D0000" points="1219.742,100.602 1221.687,78.784 1169.64,78.784 1169.64,100.602 	"/>
	<polygon fill="#6D0000" points="771.651,100.602 783.817,78.784 731.77,78.784 731.77,100.602 	"/>
	<polygon fill="#670000" points="1169.64,78.784 1166.482,100.602 1169.64,100.602 	"/>
	<polygon fill="#5B0000" points="731.77,78.784 718.391,100.602 731.77,100.602 	"/>
	<polygon fill="#600000" points="950.698,78.784 933.762,123.459 950.698,123.459 	"/>
	<rect x="677.364" y="167.467" fill="#6D0000" width="131.784" height="253.495"/>
	<polygon fill="#5D0000" points="879.33,85.55 879.33,22.687 809.147,167.467 809.147,420.962 817.089,404.579 817.089,223.149 	"/>
	<polygon fill="#6B0000" points="1288.578,420.962 1290.924,276.182 1290.924,22.687 1288.578,167.467 	"/>
	<rect x="1156.782" y="167.467" fill="#6D0000" width="131.797" height="253.495"/>
	<polygon fill="#6D0000" points="956.055,223.149 965.009,195.466 906.459,195.466 906.459,448.962 956.055,448.962 	"/>
	<polygon fill="#5B0000" points="643.199,223.149 643.199,476.644 677.364,420.962 677.364,167.467 	"/>
	<path fill="#140000" d="M677.364,167.467h131.784l70.183-144.78H701.962l-137.62,200.462h78.857L677.364,167.467z M731.77,78.784
		h52.047l-12.166,21.818H731.77h-13.378L731.77,78.784z"/>
	<rect x="564.342" y="223.149" fill="#6D0000" width="78.857" height="253.495"/>
	<polygon fill="#600000" points="895.959,223.149 895.959,476.644 906.459,448.962 906.459,195.466 	"/>
	<polygon fill="#6D0000" points="956.055,223.149 956.055,448.962 956.055,476.644 1034.925,476.644 1034.925,223.149 	"/>
	<polygon fill="#630000" points="1085.12,153.11 1085.12,22.687 1034.925,223.149 1034.925,476.644 1069.85,337.166 
		1069.85,223.149 	"/>
	<path fill="#140000" d="M895.959,223.149l10.5-27.683h58.55l-8.955,27.683h78.87l50.195-200.462H907.765L879.33,85.55
		l-62.241,137.599H895.959z M950.698,78.784h52.061l-14.458,44.675h-37.603h-16.936L950.698,78.784z"/>
	<polygon fill="#6D0000" points="817.089,223.149 817.089,404.579 817.089,476.644 895.959,476.644 895.959,223.149 	"/>
	<polygon fill="#6D0000" points="1069.85,223.149 1069.85,337.166 1069.85,476.644 1148.707,476.644 1148.707,223.149 	"/>
	<polygon fill="#670000" points="1148.707,223.149 1148.707,476.644 1156.782,420.962 1156.782,167.467 	"/>
	<path fill="#140000" d="M1085.12,153.11l-15.27,70.039h78.857l8.075-55.682h131.797l2.345-144.78h-177.368L1085.12,153.11z
		 M1169.64,78.784h52.047l-1.945,21.818h-50.102h-3.158L1169.64,78.784z"/>
	<polygon fill="#6D0000" points="1653.522,100.602 1659.571,92.585 1659.571,78.784 1607.511,78.784 1614.573,100.602 	"/>
	<polygon fill="#6D0000" points="1946.497,123.677 1946.497,78.784 1861.257,78.784 	"/>
	<polygon fill="#6D0000" points="1441.496,112.66 1441.496,149.074 1508.946,149.074 1508.946,78.784 1398.989,78.784 	"/>
	<polygon fill="#800000" points="1743.758,140.998 1757.816,150.182 1757.816,78.784 1730.633,22.687 1730.633,84.863 
		1743.758,113.874 	"/>
	<polygon fill="#800000" points="1663.049,87.975 1659.571,78.784 1659.571,92.585 	"/>
	<polygon fill="#800000" points="1319.359,22.687 1319.359,276.182 1320.518,348.178 1320.518,94.683 	"/>
	<polygon fill="#7F0000" points="1341.372,112.66 1320.518,94.683 1320.518,348.178 1321.118,348.695 1321.118,131.633 	"/>
	<polygon fill="#5B0000" points="1731.366,132.902 1743.758,140.998 1743.758,113.874 	"/>
	<polygon fill="#590000" points="1406.051,149.074 1441.496,149.074 1441.496,112.66 	"/>
	<polygon fill="#7D0000" points="1883.843,149.074 1757.816,78.784 1757.816,150.182 1761.161,152.367 1791.848,220.203 
		1791.848,149.074 	"/>
	<polygon fill="#6D0000" points="1636.213,167.466 1654.215,223.149 1654.215,420.962 1677.88,420.962 1677.88,167.466 	"/>
	<polygon fill="#7F0000" points="1677.88,167.466 1677.88,420.962 1698.827,435.832 1698.827,182.336 	"/>
	<polygon fill="#800000" points="1540.433,337.221 1575.344,476.644 1575.344,223.149 1525.149,22.687 1525.149,153.103 
		1540.433,223.149 	"/>
	<polygon fill="#800000" points="1698.827,182.336 1698.827,435.832 1714.31,476.644 1714.31,223.149 	"/>
	<polygon fill="#800000" points="1827.732,223.149 1791.848,149.074 1791.848,220.203 1793.18,223.149 1793.18,405.32 
		1827.732,476.644 	"/>
	<polygon fill="#6D0000" points="1793.18,223.149 1714.31,223.149 1714.31,476.644 1793.18,476.644 1793.18,405.32 	"/>
	<path fill="#140000" d="M1654.215,223.149l-18.002-55.682h41.667l20.947,14.87l15.484,40.813h78.87l-1.332-2.945l-30.687-67.836
		l-3.345-2.185l-14.058-9.184l-12.392-8.096l12.392-19.027l-13.125-29.011l-28.129-62.177h-177.355l50.195,200.462H1654.215z
		 M1659.571,78.784l3.478,9.191l-3.478,4.609l-6.049,8.017h-38.949l-7.062-21.818H1659.571z"/>
	<polygon fill="#6D0000" points="1654.215,223.149 1575.344,223.149 1575.344,476.644 1654.215,476.644 1654.215,420.962 	"/>
	<polygon fill="#140000" points="1883.843,149.074 1791.848,149.074 1827.732,223.149 2045.555,223.149 1994.72,149.074 
		1946.497,123.677 1861.257,78.784 1946.497,78.784 1908.001,22.687 1730.633,22.687 1757.816,78.784 	"/>
	<polygon fill="#800000" points="1322.597,223.149 1321.118,131.633 1321.118,348.695 1321.118,385.128 1322.597,476.644 	"/>
	<rect x="1827.732" y="223.149" fill="#6D0000" width="217.823" height="253.495"/>
	<polygon fill="#6D0000" points="1540.433,337.221 1540.433,223.149 1322.597,223.149 1322.597,476.644 1540.433,476.644 	"/>
	<polygon fill="#140000" points="1341.372,112.66 1321.118,131.633 1322.597,223.149 1540.433,223.149 1525.149,153.103 
		1524.27,149.074 1508.946,149.074 1441.496,149.074 1406.051,149.074 1441.496,112.66 1398.989,78.784 1508.946,78.784 
		1496.714,22.687 1319.359,22.687 1320.518,94.683 	"/>
	<polygon fill="#6D0000" points="453.731,670.564 484.312,615.757 402.35,615.757 402.35,670.564 	"/>
	<polygon fill="#5B0000" points="402.35,615.757 368.718,670.564 402.35,670.564 	"/>
	<polygon fill="#600000" points="774.155,797.848 798.061,734.813 798.061,481.317 678.017,797.848 	"/>
	<polygon fill="#6D0000" points="479.168,970.222 479.168,848.279 259.707,848.279 259.707,1101.774 461.86,1101.774 
		461.86,1008.486 	"/>
	<polygon fill="#5D0000" points="479.168,848.279 479.168,970.222 657.029,577.003 657.029,481.316 	"/>
	<path fill="#140000" d="M259.707,848.279h219.46l177.861-366.962h-269.95l-361.944,527.17h136.274L259.707,848.279z
		 M402.35,615.757h81.961l-30.581,54.807h-51.38h-33.633L402.35,615.757z"/>
	<rect x="25.135" y="1008.486" fill="#6D0000" width="136.274" height="253.495"/>
	<polygon fill="#5B0000" points="161.408,1008.486 161.408,1261.981 259.707,1101.774 259.707,848.279 	"/>
	<polygon fill="#630000" points="838.236,1261.982 890.989,1051.344 890.989,797.848 838.236,1008.486 	"/>
	<polygon fill="#6D0000" points="461.86,1008.486 461.86,1101.774 461.86,1261.982 838.236,1261.982 838.236,1008.486 	"/>
	<polygon fill="#140000" points="678.017,797.848 798.061,481.317 700.31,481.317 657.029,577.003 479.168,970.222 461.86,1008.486 
		838.236,1008.486 890.989,797.848 774.155,797.848 	"/>
	<polygon fill="#6B0000" points="1281.317,869.253 1283.502,734.813 1283.502,481.317 1281.317,615.757 	"/>
	<polygon fill="#6D0000" points="1108.186,615.757 1159.593,701.496 1159.593,797.848 1278.372,797.848 1278.372,869.253 
		1281.317,869.253 1281.317,615.757 	"/>
	<polygon fill="#800000" points="975.549,655.552 975.549,727.572 998.601,701.496 	"/>
	<polygon fill="#5A0000" points="1083.814,797.848 1159.593,797.848 1159.593,701.496 	"/>
	<rect x="898.585" y="1008.486" fill="#6D0000" width="376.376" height="253.495"/>
	<polygon fill="#6B0000" points="1274.96,1008.486 1274.96,1261.982 1278.372,1051.344 1278.372,869.253 1278.372,797.848 	"/>
	<polygon fill="#140000" points="975.549,655.552 998.601,701.496 975.549,727.572 954.696,751.16 898.585,1008.486 
		1274.96,1008.486 1278.372,797.848 1159.593,797.848 1083.814,797.848 1159.593,701.496 1108.186,615.757 1281.317,615.757 
		1283.502,481.317 1013.552,481.317 	"/>
	<polygon fill="#6D0000" points="1436.511,615.757 1446.679,729.615 1518.473,729.615 1518.473,615.757 	"/>
	<polygon fill="#800000" points="1673.163,615.757 1639.544,481.317 1639.544,677.656 1673.163,831.83 	"/>
	<polygon fill="#800000" points="1970.255,728.634 2037.68,785.342 2037.68,655.552 1953.24,481.317 1953.24,578.108 
		1970.255,615.757 	"/>
	<polygon fill="#6D0000" points="1836.047,615.757 1970.255,728.634 1970.255,615.757 	"/>
	<polygon fill="#6D0000" points="2254.023,701.496 2254.023,797.848 2315.491,797.848 2315.491,615.757 2142.36,615.757 	"/>
	<polygon fill="#7F0000" points="2037.68,655.552 2037.68,785.342 2052.55,797.848 2084.024,867.482 2084.024,751.16 
		2093.018,701.496 	"/>
	<polygon fill="#800000" points="1518.473,729.615 1534.983,729.615 1518.473,615.757 	"/>
	<polygon fill="#7F0000" points="1870.092,797.848 1673.163,615.757 1673.163,831.83 1683.384,878.704 1718.707,911.366 
		1718.707,797.848 	"/>
	<polygon fill="#690000" points="2245.962,797.848 2254.023,797.848 2254.023,701.496 	"/>
	<polygon fill="#6D0000" points="1464.334,927.365 1471.583,1008.486 1471.583,1180.86 1563.644,1180.86 1563.644,927.365 	"/>
	<path fill="#140000" d="M1639.544,677.656l-42.813-196.339h-269.95l8.529,527.169h136.274l-7.25-81.121h99.311l11.766,81.121
		h136.274l-28.3-129.782l-10.221-46.874L1639.544,677.656z M1518.473,729.615h-71.795l-10.167-113.859h81.962l16.509,113.859
		H1518.473z"/>
	<polygon fill="#800000" points="1563.644,927.365 1563.644,1180.86 1575.41,1261.981 1575.41,1008.486 	"/>
	<polygon fill="#800000" points="1326.78,481.317 1326.78,734.812 1335.309,1261.981 1335.309,1008.486 	"/>
	<rect x="1575.41" y="1008.486" fill="#6D0000" width="136.274" height="253.495"/>
	<polygon fill="#6D0000" points="1335.309,1008.486 1335.309,1261.981 1471.583,1261.981 1471.583,1180.86 1471.583,1008.486 	"/>
	<polygon fill="#800000" points="1718.707,797.848 1718.707,911.366 1718.707,1051.344 1771.381,1261.982 1771.381,1008.486 	"/>
	<rect x="2208.759" y="1008.486" fill="#6D0000" width="376.376" height="253.495"/>
	<polygon fill="#800000" points="2084.024,751.16 2084.024,867.482 2147.757,1008.486 2147.757,1136.136 2208.759,1261.982 
		2208.759,1008.486 	"/>
	<polygon fill="#140000" points="1870.092,797.848 1718.707,797.848 1771.381,1008.486 2147.757,1008.486 2084.024,867.482 
		2052.55,797.848 2037.68,785.342 1970.255,728.634 1836.047,615.757 1970.255,615.757 1953.24,578.108 1909.494,481.317 
		1639.544,481.317 1673.163,615.757 	"/>
	<polygon fill="#6D0000" points="1771.381,1008.486 1771.381,1261.982 2147.757,1261.982 2147.757,1136.136 2147.757,1008.486 	"/>
	<polygon fill="#140000" points="2093.018,701.496 2084.024,751.16 2208.759,1008.486 2585.135,1008.486 2440.506,797.848 
		2315.491,797.848 2254.023,797.848 2245.962,797.848 2254.023,701.496 2142.36,615.757 2315.491,615.757 2223.189,481.317 
		1953.24,481.317 2037.68,655.552 	"/>
</g>
</svg>
