<?xml version="1.0" encoding="UTF-8" standalone="no"?>
<!-- Created with Inkscape (http://www.inkscape.org/) -->

<svg
   xmlns:dc="http://purl.org/dc/elements/1.1/"
   xmlns:cc="http://creativecommons.org/ns#"
   xmlns:rdf="http://www.w3.org/1999/02/22-rdf-syntax-ns#"
   xmlns:svg="http://www.w3.org/2000/svg"
   xmlns="http://www.w3.org/2000/svg"
   xmlns:sodipodi="http://sodipodi.sourceforge.net/DTD/sodipodi-0.dtd"
   xmlns:inkscape="http://www.inkscape.org/namespaces/inkscape"
   version="1.1"
   id="svg2"
   xml:space="preserve"
   width="171.70366mm"
   height="128.64056mm"
   viewBox="0 0 648.95872 486.20056"
   sodipodi:docname="tea service - pot.svg"
   inkscape:version="0.92.3 (2405546, 2018-03-11)"><metadata
     id="metadata8"><rdf:RDF><cc:Work
         rdf:about=""><dc:format>image/svg+xml</dc:format><dc:type
           rdf:resource="http://purl.org/dc/dcmitype/StillImage" /><dc:title></dc:title></cc:Work></rdf:RDF></metadata><defs
     id="defs6" /><sodipodi:namedview
     pagecolor="#ffffff"
     bordercolor="#666666"
     borderopacity="1"
     objecttolerance="10"
     gridtolerance="10"
     guidetolerance="10"
     inkscape:pageopacity="0"
     inkscape:pageshadow="2"
     inkscape:window-width="1920"
     inkscape:window-height="1017"
     id="namedview4"
     showgrid="false"
     fit-margin-top="20"
     fit-margin-right="20"
     fit-margin-bottom="20"
     fit-margin-left="20"
     inkscape:zoom="0.34116083"
     inkscape:cx="-1031.6943"
     inkscape:cy="-249.41087"
     inkscape:window-x="-8"
     inkscape:window-y="-8"
     inkscape:window-maximized="1"
     inkscape:current-layer="g10"
     inkscape:snap-global="false"
     showguides="false"
     units="mm"
     inkscape:snap-bbox="false"
     inkscape:guide-bbox="true"
     inkscape:bbox-paths="true"
     inkscape:bbox-nodes="true"
     inkscape:snap-bbox-edge-midpoints="true"
     inkscape:snap-bbox-midpoints="true"
     inkscape:object-paths="true"
     inkscape:snap-intersection-paths="true"
     inkscape:snap-smooth-nodes="true"
     inkscape:snap-midpoints="true"
     inkscape:snap-object-midpoints="true"
     inkscape:snap-center="true"
     inkscape:snap-text-baseline="true"
     inkscape:snap-page="true" /><g
     id="g10"
     inkscape:groupmode="layer"
     inkscape:label="birthday-cake-1674879"
     transform="matrix(1.3333333,0,0,-1.3333333,-737.81564,929.92664)"><g
       style="fill:#c83737"
       transform="translate(516.828,301.7234)"
       id="g4522" /><g
       id="g6296"
       transform="translate(-301.73223,490.0346)"><path
         inkscape:connector-curvature="0"
         id="path6215"
         d="m 1112.2209,139.3789 a 9.9294025,9.9294025 0 0 1 -9.9302,-9.93017 9.9294025,9.9294025 0 0 1 2.2031,-6.22998 100.26626,100.26626 0 0 1 -41.3584,-12.53614 h 1.021 v -0.98877 h -1.1513 a 100.26626,100.26626 0 0 1 -47.5269,-60.593227 c -0.525,0.41955 -1.0469,0.847125 -1.5733,1.2627 -22.21719,17.53926 -45.6591,31.414756 -70.35347,34.170376 -3.88273,0.41103 -7.72549,-1.708658 -9.35156,-5.493166 l -6.14795,-19.40916 c -2.00133,-4.65795 -7.76477,-6.5709 -3.10693,-8.572275 29.26985,-5.477401 50.17368,-15.780076 91.46191,-64.215827 2e-4,-4.5e-4 -2e-4,-10e-4 0,-0.0015 1.1953,-1.4022 2.4483,-2.91195 3.6782,-4.378425 a 100.26626,100.26626 0 0 1 41.0186,-46.335903 c -0.3403,-0.1401 -0.6269,-0.31057 -0.854,-0.5244 -9.4362,-1.15252 -16.7827,-11.78085 -16.7827,-24.81157 h 137.1123 c 0,13.03072 -7.3466,23.65905 -16.7827,24.81157 -0.226,0.2127 -0.5103,0.38175 -0.8482,0.52148 a 100.26626,100.26626 0 0 1 45.2871,58.2172478 62.747149,62.747149 0 0 1 2.7979,-0.0981 62.747149,62.747149 0 0 1 62.7481,62.7465772 62.747149,62.747149 0 0 1 -43.3448,59.589832 62.747142,62.747142 0 0 1 -0.6988,0.23291 62.747149,62.747149 0 0 1 -4.9189,1.31104 62.747142,62.747142 0 0 1 -1.4341,0.32226 62.747149,62.747149 0 0 1 -4.2949,0.69434 62.747142,62.747142 0 0 1 -2.1987,0.2666 62.747149,62.747149 0 0 1 -4.8325,0.29297 62.747142,62.747142 0 0 1 -1.0254,0.0366 62.747149,62.747149 0 0 1 -35.4287,-10.95996 62.747142,62.747142 0 0 1 -4.7476,-3.60937 c -0.022,0.0157 -0.044,0.0326 -0.066,0.0483 -0.3991,-0.32593 -0.7857,-0.65806 -1.1748,-0.98877 a 100.26626,100.26626 0 0 1 -8.4405,5.46679 h -0.8906 v 0.98877 h 1.0211 a 100.26626,100.26626 0 0 1 -41.3819,12.51416 9.9294025,9.9294025 0 0 1 2.2251,6.25196 9.9294025,9.9294025 0 0 1 -9.9287,9.93017 z m 98.8125,-42.625484 a 39.762971,39.762971 0 0 0 39.7632,-39.763178 39.762971,39.762971 0 0 0 -36.9888,-39.665026 c 9e-4,0.01515 0,0.03023 0,0.04537 -0.3264,-0.02828 -1.0884,-0.04867 -1.7007,-0.06885 a 100.26626,100.26626 0 0 1 0.1787,5.064 100.26626,100.26626 0 0 1 -25.2172,66.290019 39.762971,39.762971 0 0 0 0.2138,0.174315 39.762971,39.762971 0 0 0 0.5391,0.385253 39.762971,39.762971 0 0 0 2.7011,1.794435 39.762971,39.762971 0 0 0 0.7398,0.424807 39.762971,39.762971 0 0 0 2.7159,1.434083 39.762971,39.762971 0 0 0 0.9169,0.410152 39.762971,39.762971 0 0 0 2.6866,1.09131 39.762971,39.762971 0 0 0 1.1338,0.376463 39.762971,39.762971 0 0 0 2.6001,0.764655 39.762971,39.762971 0 0 0 1.3608,0.30615 39.762971,39.762971 0 0 0 2.4697,0.462892 39.762971,39.762971 0 0 0 1.5674,0.190425 39.762971,39.762971 0 0 0 2.5459,0.219728 39.762971,39.762971 0 0 0 1.7036,0.06006 v 0 a 39.762971,39.762971 0 0 0 0.066,0.0029 z"
         style="opacity:1;fill:#5aa02c;fill-opacity:1;stroke:#2d5016;stroke-width:22.67716599;stroke-linecap:round;stroke-linejoin:round;stroke-miterlimit:4;stroke-dasharray:none;stroke-opacity:1;paint-order:markers fill stroke" /><g
         transform="matrix(0.33604201,0,0,-0.33604201,1470.4824,-194.41024)"
         id="g476"><path
           sodipodi:nodetypes="ccccccccc"
           inkscape:connector-curvature="0"
           id="path5194"
           d="m -1568.0912,-830.08791 c -11.5543,-1.22316 -22.9929,5.08771 -27.8318,16.34972 l -18.293,57.75668 c -5.9556,13.86106 -23.1065,19.55257 -9.2456,25.50825 107.8945,20.19074 177.5309,62.30742 371.6694,315.01034 17.3366,16.12404 44.2748,15.14776 60.3988,-2.18881 l 45.2137,-63.59778 c 16.124,-17.3366 15.1478,-44.27485 -2.1888,-60.39878 -123.5323,-103.3189 -263.1675,-270.96979 -419.7227,-288.43962 z"
           style="opacity:1;fill:#3771c8;fill-opacity:1;stroke:none;stroke-width:2.54278016;stroke-linecap:round;stroke-linejoin:round;stroke-miterlimit:4;stroke-dasharray:none;stroke-opacity:1;paint-order:markers fill stroke" /><circle
           style="opacity:1;fill:#3771c8;fill-opacity:1;stroke:none;stroke-width:5.52561903;stroke-linecap:round;stroke-linejoin:round;stroke-miterlimit:4;stroke-dasharray:none;stroke-opacity:1;paint-order:markers fill stroke"
           id="circle5405"
           cx="-1066.163"
           cy="-963.74652"
           r="29.548098" /><rect
           style="opacity:0.25;fill:#000000;fill-opacity:1;stroke:none;stroke-width:3.73698139;stroke-linecap:round;stroke-linejoin:round;stroke-miterlimit:4;stroke-dasharray:none;stroke-opacity:1;paint-order:markers fill stroke"
           id="rect5402"
           width="286.05969"
           height="3.7969117"
           x="-1209.1927"
           y="-908.40161" /><path
           inkscape:connector-curvature="0"
           style="opacity:0.5;fill:#6c6753;fill-opacity:1;stroke:none;stroke-width:4.9280057;stroke-linecap:round;stroke-linejoin:round;stroke-miterlimit:4;stroke-dasharray:none;stroke-opacity:1;paint-order:markers fill stroke"
           d="m -772.11255,-934.84557 a 186.7241,186.7241 0 0 0 -186.72357,186.72358 186.7241,186.7241 0 0 0 0.70737,14.17313 l 74.39959,-53.04934 a 118.32738,118.32738 0 0 1 111.41245,-79.44311 l 74.17241,-52.89113 a 186.7241,186.7241 0 0 0 -73.96825,-15.51313 z"
           id="rect5387" /><path
           style="opacity:1;fill:#3771c8;fill-opacity:1;stroke:none;stroke-width:3.2299335;stroke-linecap:round;stroke-linejoin:round;stroke-miterlimit:4;stroke-dasharray:none;stroke-opacity:1;paint-order:markers fill stroke"
           d="m -772.11274,-934.84569 a 186.72412,186.72412 0 0 0 -186.72349,186.72354 186.72412,186.72412 0 0 0 186.72349,186.72343 186.72412,186.72412 0 0 0 186.7234,-186.72343 186.72412,186.72412 0 0 0 -186.7234,-186.72354 z m 0,68.39543 a 118.32738,118.32738 0 0 1 118.32805,118.32811 118.32738,118.32738 0 0 1 -118.32805,118.32799 118.32738,118.32738 0 0 1 -118.32801,-118.32799 118.32738,118.32738 0 0 1 118.32801,-118.32811 z"
           id="path5340"
           inkscape:connector-curvature="0" /><path
           sodipodi:nodetypes="ccccsssccssccc"
           inkscape:connector-curvature="0"
           id="path5413"
           d="m -1553.8224,-818.937 c -10.7714,-0.76249 -21.3771,4.96828 -26.3878,15.3098 l 2.185,11.15234 c 6.295,-11.26603 18.9632,-16.62793 30.9292,-14.08759 21.2686,4.64105 40.8388,14.81352 62.0989,21.44805 23.1099,7.2118 43.926,23.64731 64.9858,38.76644 8.8323,6.34092 17.0248,13.75196 26.1979,20.01041 32.6224,22.25696 59.9352,53.14325 88.3392,83.01948 l 7.6257,-19.09391 c -38.9603,-37.47822 -83.5663,-73.40015 -121.7776,-100.924 -17.3867,-12.52379 -42.2478,-23.89864 -57.9263,-32.16321 -24.5581,-12.9454 -47.6453,-19.02263 -74.1134,-23.19889 -0.718,-0.10909 -1.4385,-0.18803 -2.1566,-0.2387 z"
           style="opacity:0.25;fill:#ffffff;fill-opacity:1;stroke:none;stroke-width:2.54278016;stroke-linecap:round;stroke-linejoin:round;stroke-miterlimit:4;stroke-dasharray:none;stroke-opacity:1;paint-order:markers fill stroke" /><path
           inkscape:connector-curvature="0"
           id="path5204"
           d="m -1066.3628,-946.40246 a 298.37418,298.37418 0 0 0 -145.8691,38.49947 h 292.13791 a 298.37418,298.37418 0 0 0 -146.26881,-38.49947 z"
           style="opacity:1;fill:#00aa88;fill-opacity:1;stroke:none;stroke-width:3.59410954;stroke-linecap:round;stroke-linejoin:round;stroke-miterlimit:4;stroke-dasharray:none;stroke-opacity:1;paint-order:markers fill stroke" /><path
           style="opacity:0.25;fill:#000000;fill-opacity:1;stroke:none;stroke-width:4.9280057;stroke-linecap:round;stroke-linejoin:round;stroke-miterlimit:4;stroke-dasharray:none;stroke-opacity:1;paint-order:markers fill stroke"
           d="m -891.86818,-891.63223 c -14.49158,11.83537 -26.78158,24.67617 -36.95334,39.89494 l 72.52741,19.28576 c 5.06984,-4.96263 10.43037,-8.52558 16.37105,-12.53798 -15.44697,-17.51007 -32.87928,-33.16291 -51.94512,-46.64272 z m 128.01968,261.40907 c -1.33444,0.11569 -5.61524,0.20867 -6.95284,0.27878 l -72.91296,54.09013 c 21.47124,8.92596 44.42081,13.76298 67.66813,14.26227 6.71056,-22.3274 10.80391,-45.35901 12.19767,-68.63133 z"
           id="path5505"
           inkscape:connector-curvature="0"
           sodipodi:nodetypes="ccccccccccc" /><path
           style="opacity:0.25;fill:#000000;fill-opacity:1;stroke:none;stroke-width:2.54278016;stroke-linecap:round;stroke-linejoin:round;stroke-miterlimit:4;stroke-dasharray:none;stroke-opacity:1;paint-order:markers fill stroke"
           d="m -1358.7346,-728.4021 c -8.0112,27.05193 -12.145,55.10342 -12.2781,83.31633 0.1187,36.14069 6.8024,71.95906 19.7255,105.71046 12.6709,14.86437 25.9803,30.92304 40.0282,48.29627 l 52.0661,-150.77839 c -32.2163,-29.71913 -65.3931,-59.58627 -99.5417,-86.54467 z"
           id="path5588"
           inkscape:connector-curvature="0"
           sodipodi:nodetypes="cccccc" /><path
           inkscape:connector-curvature="0"
           id="path5202"
           d="m -1212.6185,-904.95851 a 298.37418,298.37418 0 0 0 -152.5055,259.8723 298.37418,298.37418 0 0 0 298.3746,298.37473 298.37418,298.37418 0 0 0 298.37184,-298.37473 298.37418,298.37418 0 0 0 -152.10305,-259.8723 z"
           style="opacity:1;fill:#5f8dd3;fill-opacity:1;stroke:none;stroke-width:5.43140841;stroke-linecap:round;stroke-linejoin:round;stroke-miterlimit:4;stroke-dasharray:none;stroke-opacity:1;paint-order:markers fill stroke" /><path
           style="opacity:0.25;fill:#ffffff;fill-opacity:1;stroke:none;stroke-width:6.16866016;stroke-linecap:round;stroke-linejoin:round;stroke-miterlimit:4;stroke-dasharray:none;stroke-opacity:1;paint-order:markers fill stroke"
           d="m -967.02755,-908.02742 c -19.31062,-7.18713 -39.69575,-12.29458 -60.90385,-15.03653 8.6322,4.46399 16.9767,9.51659 25.0646,14.96838 z"
           id="path5645"
           inkscape:connector-curvature="0" /><path
           style="opacity:0.25;fill:#ffffff;fill-opacity:1;stroke:none;stroke-width:6.16866016;stroke-linecap:round;stroke-linejoin:round;stroke-miterlimit:4;stroke-dasharray:none;stroke-opacity:1;paint-order:markers fill stroke"
           d="m -1005.4976,-904.84249 c 30.64461,21.48717 59.71464,46.05957 82.60479,69.76047 20.09244,20.8041 29.47815,42.46566 36.20591,71.94018 2.46155,10.78416 9.53114,25.75649 12.39011,36.29587 7.03403,25.93054 10.75052,53.01005 10.78685,80.65408 -0.007,6.92888 -1.15701,13.82346 -0.71525,20.67912 1.45819,22.63026 -12.9514,70.04002 -17.06835,87.16737 -1.29947,5.406 -6.49624,16.63045 -10.22138,20.4562 -19.65087,23.17492 -33.09452,59.10485 -56.43072,83.83968 -19.29451,20.45093 -41.52537,38.42872 -66.30156,53.24504 58.64191,-12.25839 116.8458,-37.09258 147.65705,-84.54484 17.52997,-26.99788 37.77371,-45.61353 47.88376,-73.54611 12.73354,-35.18094 23.52875,-71.90559 23.57484,-111.24159 -0.0345,-33.5635 -8.43557,-71.09101 -21.93251,-100.05123 -7.17028,-15.38521 -11.34429,-28.47394 -15.8633,-38.9722 -10.55215,-24.51391 -32.1265,-41.01332 -50.01617,-61.43714 -6.46226,-7.37772 -14.12198,-13.43662 -21.82016,-19.2477 -18.72609,-14.13563 -39.35684,-25.95558 -61.49438,-35.00773 z"
           id="path5415"
           inkscape:connector-curvature="0"
           sodipodi:nodetypes="cssscsscscsscsscscc" /><path
           sodipodi:nodetypes="cssscssc"
           inkscape:connector-curvature="0"
           id="path5419"
           d="m -725.00221,-916.18453 c 25.03111,16.76983 49.0153,34.1665 67.55967,57.06057 14.21132,17.54472 29.2141,37.00887 32.64208,60.58863 3.00524,20.67218 6.46185,31.14828 8.86249,47.06644 4.85717,32.20723 -3.05653,67.12442 -17.91855,107.81644 17.92744,-20.95815 31.6098,-43.76581 33.80263,-67.36245 4.62255,-49.74187 -3.26319,-98.74705 -28.59075,-137.49301 -24.95564,-38.177 -61.13124,-65.07333 -96.35757,-67.67662 z"
           style="opacity:0.25;fill:#ffffff;fill-opacity:1;stroke:none;stroke-width:3.2299335;stroke-linecap:round;stroke-linejoin:round;stroke-miterlimit:4;stroke-dasharray:none;stroke-opacity:1;paint-order:markers fill stroke" /><path
           style="opacity:0.25;fill:#000000;fill-opacity:1;stroke:none;stroke-width:4.46979141;stroke-linecap:round;stroke-linejoin:round;stroke-miterlimit:4;stroke-dasharray:none;stroke-opacity:1;paint-order:markers fill stroke"
           d="m -1155.275,-907.97421 c 6.9361,-6.70088 14.1526,-13.13632 21.6371,-19.28459 l 10e-5,-5e-4 c -19.2268,4.5114 -37.7331,11.03855 -55.2994,19.34433 z"
           id="path5641"
           inkscape:connector-curvature="0"
           sodipodi:nodetypes="ccccc" /><path
           style="opacity:0.25;fill:#000000;fill-opacity:1;stroke:none;stroke-width:4.46979141;stroke-linecap:round;stroke-linejoin:round;stroke-miterlimit:4;stroke-dasharray:none;stroke-opacity:1;paint-order:markers fill stroke"
           d="m -1189.2306,-904.89903 c -55.1209,27.72554 -108.1773,69.81329 -129.0296,128.62807 -9.9209,27.982 -23.4309,55.29226 -28.6275,85.55564 -8.051,47.09175 -5.5202,92.88914 10.6191,133.17726 14.9169,37.23646 28.2781,64.55485 48.9942,92.22951 33.5779,44.85714 95.1168,78.45139 160.303,87.09504 1.6398,0.17256 3.2818,0.32887 4.9259,0.47021 -26.4049,-18.21352 -58.5405,-53.65898 -70.1513,-63.95608 -23.4764,-20.82013 -35.3286,-51.80899 -44.9597,-82.22584 -18.319,-57.85499 -29.1013,-119.96475 -18.2532,-183.92579 4.7387,-27.42577 15.2413,-53.14221 23.3556,-79.49369 6.9854,-22.68518 25.4397,-43.80622 38.7752,-67.07661 10.6889,-18.6518 25.5924,-35.46878 40.6939,-50.42391 z"
           id="path5417"
           inkscape:connector-curvature="0"
           sodipodi:nodetypes="cscssccsscsscc" /><path
           sodipodi:nodetypes="ssccs"
           inkscape:connector-curvature="0"
           id="path5200"
           d="m -1200.4885,-390.16495 h 267.4754 c 27.35377,0 22.94651,2.66739 22.94651,32.86287 h -313.36831 c 0,-30.19548 -4.4074,-32.86287 22.9464,-32.86287 z"
           style="opacity:0.5;fill:#000000;fill-opacity:1;stroke:none;stroke-width:2.05021548;stroke-linecap:round;stroke-linejoin:round;stroke-miterlimit:4;stroke-dasharray:none;stroke-opacity:1;paint-order:markers fill stroke" /><path
           style="opacity:1;fill:#00aa88;fill-opacity:1;stroke:none;stroke-width:2.52420712;stroke-linecap:round;stroke-linejoin:round;stroke-miterlimit:4;stroke-dasharray:none;stroke-opacity:1;paint-order:markers fill stroke"
           d="m -1215.7512,-387.22017 h 298.0008 c 30.47548,0 55.00995,33.07387 55.00995,74.15663 h -408.02065 c 0,-41.08276 24.5345,-74.15663 55.0099,-74.15663 z"
           id="path5421"
           inkscape:connector-curvature="0"
           sodipodi:nodetypes="ssccs" /><path
           style="opacity:0.25;fill:#ffffff;fill-opacity:1;stroke:none;stroke-width:2.45075679;stroke-linecap:round;stroke-linejoin:round;stroke-miterlimit:4;stroke-dasharray:none;stroke-opacity:1;paint-order:markers fill stroke"
           d="m -990.66742,-387.22049 c 34.33265,0 60.50248,33.07527 60.50248,74.15805 h 44.02326 c 0,-41.08278 -39.31997,-74.15805 -68.0477,-74.15805 z"
           id="path5570"
           inkscape:connector-curvature="0"
           sodipodi:nodetypes="cccsc" /><path
           style="opacity:0.25;fill:#000000;fill-opacity:1;stroke:none;stroke-width:2.52420712;stroke-linecap:round;stroke-linejoin:round;stroke-miterlimit:4;stroke-dasharray:none;stroke-opacity:1;paint-order:markers fill stroke"
           d="m -1192.1967,-387.22049 c -30.4754,0 -55.0076,33.07527 -55.0076,74.15805 h 67.7229 c 0,-41.08278 14.2263,-74.15805 44.7018,-74.15805 z"
           id="path5575"
           inkscape:connector-curvature="0" /></g></g></g></svg>