<?xml version="1.0" encoding="UTF-8"?>
<svg
 version="1.1"
 width="100%" height="100%" viewBox="-5 -85 110 110"
 xmlns:xlink="http://www.w3.org/1999/xlink"
 xmlns="http://www.w3.org/2000/svg">
 <title>Oscillograph Triangle simplified</title>
 <defs>
  <path id="tri"
	   d="m0 0 l25-60 l25 60 25-60 25,60"
	   stroke="red" stroke-width="0.2" fill="none" />
  <pattern id="test" width="10" height="10"  patternUnits="userSpaceOnUse">
	<rect width="10" height="10" fill="none" stroke="blue" stroke-width="0.15"/>
</pattern>
 </defs>
 <rect width="100" height="100" fill="url(#test) none" y="-80" />
 <use xlink:href="#tri" />
</svg>