<?xml version="1.0" encoding="UTF-8" standalone="no"?>
<!-- Created with Inkscape (http://www.inkscape.org/) -->

<svg
   xmlns:dc="http://purl.org/dc/elements/1.1/"
   xmlns:cc="http://creativecommons.org/ns#"
   xmlns:rdf="http://www.w3.org/1999/02/22-rdf-syntax-ns#"
   xmlns:svg="http://www.w3.org/2000/svg"
   xmlns="http://www.w3.org/2000/svg"
   xmlns:sodipodi="http://sodipodi.sourceforge.net/DTD/sodipodi-0.dtd"
   xmlns:inkscape="http://www.inkscape.org/namespaces/inkscape"
   width="401.30505mm"
   height="217.42882mm"
   viewBox="0 0 401.30505 217.42882"
   version="1.1"
   id="svg9166"
   inkscape:version="0.92.1 r15371"
   sodipodi:docname="merlion.svg">
  <defs
     id="defs9160">
    <filter
       inkscape:collect="always"
       style="color-interpolation-filters:sRGB"
       id="filter9772"
       x="-0.022683635"
       width="1.0453672"
       y="-0.056288201"
       height="1.1125764">
      <feGaussianBlur
         inkscape:collect="always"
         stdDeviation="4.1413693"
         id="feGaussianBlur9774" />
    </filter>
  </defs>
  <sodipodi:namedview
     id="base"
     pagecolor="#ffffff"
     bordercolor="#666666"
     borderopacity="1.0"
     inkscape:pageopacity="0.0"
     inkscape:pageshadow="2"
     inkscape:zoom="0.20526726"
     inkscape:cx="1281.9705"
     inkscape:cy="296.84244"
     inkscape:document-units="mm"
     inkscape:current-layer="layer1"
     showgrid="false"
     inkscape:snap-global="false"
     fit-margin-top="0"
     fit-margin-left="0"
     fit-margin-right="0"
     fit-margin-bottom="0"
     inkscape:window-width="1366"
     inkscape:window-height="706"
     inkscape:window-x="-8"
     inkscape:window-y="-8"
     inkscape:window-maximized="1" />
  <metadata
     id="metadata9163">
    <rdf:RDF>
      <cc:Work
         rdf:about="">
        <dc:format>image/svg+xml</dc:format>
        <dc:type
           rdf:resource="http://purl.org/dc/dcmitype/StillImage" />
        <dc:title></dc:title>
      </cc:Work>
    </rdf:RDF>
  </metadata>
  <g
     inkscape:label="Layer 1"
     inkscape:groupmode="layer"
     id="layer1"
     transform="translate(358.82353,-9.9440739)">
    <path
       style="opacity:0.65499998;fill:#3f85bc;fill-opacity:1;stroke:none;stroke-width:3.31299996;stroke-linecap:round;stroke-linejoin:bevel;stroke-miterlimit:4;stroke-dasharray:none;stroke-dashoffset:1.21209455;stroke-opacity:1;paint-order:stroke fill markers;filter:url(#filter9772)"
       d="m -62.659544,69.716222 c -5.96797,15.054381 -33.775781,2.385971 -12.663205,-7.264956 16.154796,-9.327114 24.546419,22.964837 1.976372,12.927528 -21.843907,-1.213971 -43.947603,-5.113952 -63.664373,-14.972125 15.07742,-1.619527 44.234502,1.950841 46.041801,15.263455 -31.322821,2.618156 -60.355761,-13.735404 -91.352911,-14.186457 10.07216,3.241095 26.68426,-8.270393 7.07144,-6.891801 -25.62339,0.484001 -51.69938,1.605197 -76.70027,-4.711498 -20.62579,-2.708519 33.2431,-12.191235 10.32083,0.701329 -23.70162,9.554694 -50.25171,5.301044 -74.29213,13.754897 -25.82096,6.007381 -53.78176,13.077226 -72.95777,32.390848 -15.84566,21.554468 -41.67427,32.375078 -59.46541,52.039038 -7.47343,6.26872 -28.40875,22.26333 -9.86488,8.49211 37.76411,-28.05119 72.69978,-60.362757 114.25556,-82.949819 -33.34762,16.126293 -55.38057,48.225189 -68.6986,81.719119 -13.2125,15.57314 -25.18181,42.17852 -46.92414,43.77378 -2.24623,-19.32161 18.72303,-32.90713 29.04998,-47.36635 5.57634,-6.11122 30.79813,-32.1583 14.67335,-14.47381 -16.63342,19.04817 -32.60479,39.52873 -54.44941,52.94076 -14.5097,-2.98015 11.92682,-22.32594 16.89391,-29.15582 40.99443,-39.97924 88.31175,-73.035075 138.23362,-100.876471 -15.45365,18.148248 -38.43232,27.213027 -56.7737,41.963181 -31.26131,21.02507 -62.6034,43.08222 -86.77734,72.3552 51.28426,-39.48615 94.80591,-92.002516 157.16995,-114.732974 -13.15159,19.480686 -38.96105,24.127526 -55.39688,40.428774 -32.12617,23.48373 -59.43635,52.672 -90.11515,77.89566 0.44924,-6.00997 25.07663,-19.18335 35.22447,-27.61672 36.25572,-25.16435 73.4207,-49.53863 105.40606,-80.173574 -11.98269,10.551307 -42.32217,24.792044 -48.07483,24.510473 31.35314,-16.942353 65.83179,-27.331574 96.50881,-45.661499 11.77419,-5.434222 33.21131,-17.364904 40.29762,-15.784647 -15.58907,19.8415 -44.03137,16.684735 -63.6632,30.231211 -12.16095,6.774507 -42.71682,11.410896 -41.16414,25.368325 25.89063,4.756131 50.54217,-9.5029 76.55179,-7.714306 24.46935,-2.614079 -14.75386,-5.310422 -22.41266,-2.920265 -32.8856,4.153644 -60.57533,24.020472 -91.71432,33.762492 34.45765,-34.264574 82.07732,-50.575639 128.65823,-60.340121 23.04074,5.694959 -14.23939,18.34949 -23.19293,16.974631 -6.72925,2.481535 -34.86627,-3.499436 -14.31696,-6.868527 26.68413,-3.382571 53.18695,4.922482 79.96491,2.594885 48.41443,0.09636 96.785412,-5.592876 145.197715,-2.496983 -69.412015,-5.363145 -134.001335,26.658158 -202.157735,32.831732 -7.43447,8.367813 -33.94104,6.354923 -12.18935,-2.966682 20.81484,-12.218231 41.99543,-24.37582 65.19868,-31.480488 -5.71197,18.127319 -47.57201,17.121553 -45.56155,0.277741 10.72888,-7.463908 44.44294,-13.651638 42.93435,3.659637 -22.69525,15.745586 -51.01406,18.970994 -75.97132,29.793177 -22.41305,3.59589 -40.77196,15.395178 -57.86691,29.047738 -18.0543,10.98567 -36.18766,24.57736 -57.09531,28.49693 5.75722,-7.68052 27.64112,-15.13908 13.74777,0.9812 -10.44414,19.45699 -19.10962,41.28548 -37.32858,54.94734 -14.60249,-10.01887 27.27282,-42.56853 7.63534,-23.50471 -8.96394,9.98501 -28.37133,33.02156 -39.0002,23.50301 3.92512,-17.63996 19.77038,-30.11943 32.00526,-42.49319 5.81133,-5.67817 28.01986,-20.84206 24.35095,-17.99837 -6.62933,4.58731 -28.62368,17.86259 -9.96115,6.22992 26.60706,-16.83388 52.96523,-34.10063 80.35199,-49.65956 -11.68097,10.57561 17.17175,-11.677474 -0.62531,-1.77367 -20.85883,9.42109 -41.50063,19.35674 -61.69083,30.1409 23.75555,-10.23396 45.76299,-23.99127 67.34613,-38.132691 -16.22207,16.289251 -38.66121,24.269501 -57.83834,36.349411 -13.14684,2.44431 17.57852,-16.75252 22.50925,-21.71815 12.18158,-8.68763 26.20458,-15.765173 41.38714,-16.614107 3.36727,22.557837 -31.49287,22.615647 -43.31047,37.078467 -18.63771,11.18634 -37.64163,21.8093 -57.32549,31.05345 5.6769,-10.76709 31.33599,-28.90597 33.86463,-21.02939 -18.68959,13.33306 -36.80207,27.337 -49.37279,46.85353 -7.64872,6.10958 -16.93803,30.91104 -1.96839,12.15495 9.68852,-9.90389 23.73495,-33.61598 35.99742,-29.75557 -0.96999,9.42625 -15.05791,34.38041 -21.29806,27.78084 5.36808,-25.27089 22.17684,-47.91167 44.95075,-60.15959 -5.75936,8.43176 -31.50208,27.18003 -32.2084,18.67448 27.75432,-17.26242 59.37062,-29.02205 83.18418,-52.08552 26.72183,-12.785445 55.40558,-20.877037 83.05816,-31.428731 15.70636,-5.472318 31.43667,-10.875643 47.14051,-16.355203 -10.87992,13.053614 -48.52875,19.296296 -52.30825,6.237235 9.69701,-3.155397 44.08325,-7.011884 36.33887,7.336753 -24.67704,15.297267 -54.31304,19.093841 -80.25552,31.666816 64.32034,-30.868991 138.15541,-25.90269 204.721578,-49.331138 12.286864,-9.780542 43.464565,-2.789459 20.460544,10.287051 -21.618478,6.192222 -38.092179,6.178601 -60.330372,8.467453 -57.7678,0.246174 -115.53588,0.447127 -173.303,0.828851 18.84082,-15.821772 45.58403,-20.212986 69.10836,-14.202086 -22.32197,11.321688 -49.98384,3.660786 -71.10114,18.602079 -21.59718,8.869924 -42.58021,19.207248 -62.90588,30.68816 29.79532,-14.260953 57.63411,-36.865797 92.30536,-36.616067 17.8087,-7.566486 44.34045,11.092982 16.25439,19.151466 -24.84678,7.350961 -51.03559,8.683525 -76.53734,11.991681 -15.01005,1.77493 -23.55535,-16.619081 -5.12408,-20.289022 33.88242,-19.40992 69.19733,-37.232244 107.6774,-45.39242 -26.19564,14.996203 -54.98869,24.745783 -81.39609,39.381349 -18.19925,8.773597 -36.6448,17.219194 -55.96614,23.241202 12.14131,-11.127798 40.20632,-35.506444 50.34802,-25.49201 -15.74809,13.887692 -35.34963,22.60481 -51.25635,36.436441 -34.72761,23.25816 -66.20875,50.8683 -99.43707,76.05438 -9.48001,1.15524 16.86925,-17.99667 21.36354,-23.84242 42.42757,-38.81358 88.65881,-73.455154 137.75236,-103.389909 -56.30482,29.334849 -106.69537,68.913849 -151.93358,113.189549 -5.07353,6.0961 -29.30552,16.2028 -15.19211,0.61474 38.04844,-35.86888 80.61379,-66.75974 124.42548,-95.173931 7.21642,-5.305723 35.62765,-16.372545 14.00158,-6.475806 -62.64542,29.251577 -110.3187,80.755737 -158.68269,128.593547 24.10647,-23.85742 48.13652,-47.92699 74.6858,-69.10664 -12.21133,23.59964 -34.19925,41.19421 -43.92133,66.0752 14.97792,-9.91146 20.85275,-31.40429 30.66367,-46.75454 15.67479,-27.68926 34.25374,-58.212474 65.43284,-69.986587 18.7177,-3.479042 -12.85039,11.915574 -16.72671,15.988955 -25.6099,18.775402 -49.89951,39.358422 -75.96579,57.473472 -4.31195,8.63538 -34.7315,22.45269 -17.04269,6.23951 17.71557,-16.76574 37.28533,-31.4382 57.40225,-45.17913 21.31718,-34.892715 63.51921,-46.095701 99.87198,-58.286031 23.6641,-6.559853 48.08093,-10.547598 72.64029,-11.300602 -1.05182,20.103332 -39.98538,3.158769 -12.19177,-2.396016 22.93327,0.224029 54.60164,-13.351443 71.82668,4.775143 18.30205,14.676521 43.5105,6.91175 64.28004,14.983143 9.51897,0.233801 36.216997,13.886039 12.534201,15.589424 -10.949111,3.279004 -47.655461,-7.129651 -31.116811,-18.544406 20.48312,-0.424668 72.736208,-8.667155 83.573773,10.987507 -4.539719,8.814505 -46.48557,-1.1006 -26.955642,0.534442 3.403347,0.302833 6.801643,0.779927 10.227815,0.715408 z"
       id="path9741"
       inkscape:connector-curvature="0"
       transform="matrix(0.69261733,0,0,0.95225757,-18.182256,8.0107096)"
       sodipodi:nodetypes="cccccccccccccccccccccccccccccccccccccccccccccccccccccccccccccccccccccccccccccccccccccccccccccccccccccccccccccccccccccccc" />
    <path
       style="fill:#000000;stroke-width:0.35277778"
       d="m 2.7214338,226.85048 c -3.49249999,-0.255 -9.93199,-0.59462 -14.3099598,-0.7547 l -7.95996,-0.29107 -1.78989,-1.10133 c -1.49363,-0.91904 -2.2782,-1.13757 -4.74004,-1.3203 -1.62259,-0.12044 -3.50578,-0.35867 -4.18488,-0.52941 -3.35129,-0.84258 -5.21191,-1.53118 -6.83381,-2.52915 -1.20931,-0.74409 -2.68455,-1.25029 -4.61555,-1.58372 -3.29594,-0.56912 -3.82701,-0.73297 -3.59457,-1.10907 0.0936,-0.1515 -0.45193,-1.18063 -1.21236,-2.28696 -0.76043,-1.10633 -1.3826,-2.23209 -1.3826,-2.50169 0,-0.26961 -0.35719,-0.94406 -0.79375,-1.4988 -0.65612,-0.83372 -0.81198,-1.5301 -0.8989,-4.01632 -0.0578,-1.65424 -0.24106,-3.32522 -0.40718,-3.71327 -1.34937,-3.15212 -1.16957,-16.51891 0.28947,-21.51945 0.39628,-1.35819 0.98487,-3.81882 1.30797,-5.46805 0.32309,-1.64924 0.72706,-3.14943 0.8977,-3.33375 0.17063,-0.18433 0.31025,-1.22414 0.31025,-2.3107 0,-1.08655 0.1855,-2.16105 0.41222,-2.38777 0.54211,-0.54212 0.58625,-9.0002 0.0504,-9.66277 -0.21662,-0.26786 -0.34104,-1.54431 -0.28683,-2.94252 0.12325,-3.1788 -0.4006,-7.16044 -1.07813,-8.19447 -0.2917,-0.44519 -0.49311,-1.3626 -0.44758,-2.03867 0.0455,-0.67608 -0.10837,-1.42039 -0.342,-1.65402 -0.23363,-0.23363 -0.42478,-1.25293 -0.42478,-2.26511 0,-1.04212 -0.17096,-1.89731 -0.39416,-1.97171 -0.22392,-0.0746 -0.52049,-1.57298 -0.68664,-3.46898 -0.3919,-4.4724 -1.00554,-7.0007 -1.80265,-7.42731 -0.35438,-0.18966 -0.64433,-0.62225 -0.64433,-0.96133 0,-1.30997 -2.53071,-5.36556 -4.25587,-6.82024 -0.95774,-0.80758 -1.74135,-1.6514 -1.74135,-1.87516 0,-0.22376 -0.67469,-1.21065 -1.49931,-2.19308 -5.16522,-6.15376 -4.89262,-5.71647 -4.77893,-7.66622 l 0.10463,-1.79425 2.11667,-1.13661 c 1.66355,-0.8933 2.54754,-1.13874 4.12947,-1.14653 1.56447,-0.008 2.31096,-0.21095 3.35139,-0.91245 1.53603,-1.03566 3.94711,-3.64813 3.96937,-4.30094 0.008,-0.242538 0.17379,-0.440975 0.36782,-0.440975 0.22342,0 0.35278,-2.586041 0.35278,-7.052568 0,-6.670505 -0.0382,-7.076436 -0.70556,-7.49319 -0.38805,-0.242345 -0.70555,-0.719942 -0.70555,-1.061325 0,-0.341383 -0.15875,-0.620695 -0.35278,-0.620695 -0.19403,0 -0.35278,-0.3175 -0.35278,-0.705556 0,-0.470369 -0.23518,-0.705555 -0.70555,-0.705555 -0.38806,0 -0.70556,-0.15875 -0.70556,-0.352778 0,-0.194028 -0.2925,-0.352778 -0.65,-0.352778 -1.12042,0 -1.88431,-1.994694 -1.75631,-4.586111 0.079,-1.600285 0.24648,-2.26641 0.55423,-2.204861 0.24253,0.04851 0.44097,-0.149931 0.44097,-0.440972 0,-0.291042 0.15875,-0.529167 0.35278,-0.529167 0.2195,0 0.35278,-1.999075 0.35278,-5.291666 v -5.291667 l -1.32292,-0.03738 c -0.72761,-0.02057 -1.78046,-0.0064 -2.33969,0.03147 -1.30193,0.08818 -4.09851,-1.336781 -4.09851,-2.088339 0,-0.314716 -0.3175,-0.801052 -0.70555,-1.080749 -0.78604,-0.566547 -0.95332,-1.131266 -0.25582,-0.863607 0.3286,0.126094 0.45534,-0.337333 0.47051,-1.720455 0.0308,-2.81015 0.22865,-3.155223 1.44507,-2.520731 1.11678,0.58251 1.86802,0.666443 1.86802,0.208704 0,-0.170487 0.47625,-0.507249 1.05833,-0.748355 0.58208,-0.241106 1.05833,-0.646543 1.05833,-0.90097 0,-0.254427 0.33318,-0.568339 0.74039,-0.697583 0.82299,-0.26121 3.49295,-2.798832 3.49295,-3.319832 0,-0.18275 -0.75407,-0.563097 -1.6757,-0.845213 l -1.67569,-0.512943 1.26648,-0.03673 c 0.69657,-0.0202 2.5079,0.280769 4.02518,0.668825 2.56695,0.656512 4.70467,0.948651 3.35139,0.457994 -0.29104,-0.105523 -1.53243,-0.648614 -2.75864,-1.206871 -1.22621,-0.558257 -2.57558,-1.017443 -2.99861,-1.020413 -0.42302,-0.003 -1.00726,-0.174869 -1.2983,-0.381995 -0.39448,-0.280741 -0.17001,-0.321568 0.88194,-0.160412 0.77611,0.118901 2.80018,0.314297 4.49792,0.434213 2.99019,0.211208 3.08681,0.194314 3.08681,-0.539743 0,-0.651771 0.20201,-0.757773 1.44413,-0.757773 1.14745,0 1.48205,0.144953 1.62865,0.705555 0.21463,0.820752 0.40663,0.853726 1.24874,0.214472 0.33955,-0.257754 0.62219,-0.927393 0.62809,-1.488085 0.009,-0.820835 0.0767,-0.906499 0.34925,-0.439711 0.18619,0.318852 0.39631,0.874479 0.46693,1.234721 0.0706,0.360246 0.38972,1.245207 0.70909,1.966578 0.31937,0.721374 0.58067,1.484803 0.58067,1.696515 0,0.211709 0.15875,0.286815 0.35278,0.166899 0.19633,-0.121341 0.35278,0.143708 0.35278,0.597687 0,0.451051 0.47804,1.266906 1.06932,1.824986 0.74293,0.701206 1.00417,1.214558 0.85586,1.681836 -0.12656,0.398763 0.13871,1.302675 0.65159,2.220331 2.59725,4.646986 2.01895,9.089147 -1.46816,11.277551 -1.98137,1.243446 -6.16543,2.156456 -7.75595,1.692433 -0.70959,-0.207017 -1.70439,-0.292869 -2.21066,-0.190778 -0.87413,0.176265 -0.93249,0.09518 -1.15868,-1.609909 -0.27849,-2.099359 -0.95886,-2.366447 -1.81429,-0.71223 -0.42764,0.826964 -0.66876,0.993193 -1.01902,0.702504 -0.36081,-0.299445 -0.50328,-0.05649 -0.66691,1.137274 -0.11444,0.834941 -0.45272,1.987251 -0.75175,2.560694 -0.29902,0.573441 -0.54465,1.270516 -0.54585,1.549051 -10e-4,0.278536 -0.34248,0.86867 -0.75841,1.311406 -1.13474,1.207876 -1.26455,3.834603 -0.26757,5.414109 0.44709,0.708321 0.84431,1.045784 0.93171,0.791552 0.0838,-0.243746 0.27758,-0.365781 0.43063,-0.271195 0.32724,0.202247 2.13091,-1.3904 2.13091,-1.881596 0,-0.185127 0.34428,-0.246567 0.76506,-0.136529 0.61459,0.160719 0.71945,0.0812 0.53315,-0.40429 -0.28014,-0.730028 0.65925,-2.264766 1.67386,-2.734702 0.40266,-0.186496 1.44648,-0.718273 2.3196,-1.181728 0.87313,-0.463454 2.2225,-0.853214 2.99861,-0.866133 2.40656,-0.04006 5.96018,-0.74047 6.57365,-1.295654 0.46968,-0.425048 0.62714,-0.438263 0.7981,-0.06699 0.17271,0.375091 0.25466,0.37083 0.43346,-0.02254 0.41675,-0.916844 1.56963,-1.833439 1.99724,-1.587905 0.23546,0.135198 0.3119,0.117383 0.16987,-0.03959 -0.14204,-0.156972 0.29452,-0.897255 0.97013,-1.645074 0.67561,-0.747811 1.22839,-1.529295 1.22839,-1.736623 0,-0.207327 0.19843,-0.598237 0.44097,-0.868683 0.95185,-1.061406 1.19959,-1.50241 2.51475,-4.476478 0.74869,-1.693076 1.59725,-3.27418 1.8857,-3.513565 0.88982,-0.738491 3.10399,-4.19771 4.69997,-7.342837 0.83689,-1.649236 1.70995,-3.236736 1.94011,-3.527778 0.23017,-0.291041 0.70854,-1.470437 1.06306,-2.620878 0.8262,-2.681088 2.57801,-5.922212 3.10179,-5.738776 0.85098,0.298033 0.34312,4.498475 -1.00996,8.35322 -3.30808,9.424314 -5.4417,12.770817 -12.71207,19.938379 -3.14896,3.104445 -7.16561,7.40834 -8.92587,9.564211 -3.67524,4.50124 -7.57283,8.091682 -8.86664,8.167913 -0.48132,0.02836 -1.05151,0.292788 -1.2671,0.587615 -0.65167,0.891216 -1.62744,8.006969 -1.53171,11.17001 0.0549,1.812728 -0.14522,4.051607 -0.51461,5.758577 -0.3324,1.53602 -0.52508,2.99937 -0.42817,3.25189 0.2269,0.59131 -0.46295,1.01651 -1.44372,0.88984 -0.42283,-0.0546 -1.24838,0.14873 -1.83457,0.45186 -0.68933,0.35647 -2.00377,0.55114 -3.72132,0.55114 -2.17233,0 -3.01002,0.17386 -4.60363,0.95544 -1.84708,0.90589 -1.9481,1.02416 -1.9481,2.28089 0,0.98554 0.26129,1.59275 1.01885,2.36772 0.56037,0.57325 1.46948,1.65029 2.02024,2.39342 0.55077,0.74313 1.52104,1.97503 2.15615,2.73756 0.63512,0.76253 1.15476,1.53203 1.15476,1.71 0,0.17797 0.78767,1.03176 1.75038,1.89731 1.19131,1.0711 2.23355,2.5212 3.26319,4.54023 0.83205,1.63157 1.80684,3.53387 2.16619,4.22734 0.70514,1.36078 1.25687,4.80618 1.27537,7.96447 0.006,1.08361 0.31797,2.90924 0.69251,4.05694 1.14762,3.51678 2.41239,8.97793 2.85829,12.34184 0.50971,3.84538 0.34222,15.34185 -0.23409,16.06731 -0.21352,0.26879 -0.49351,1.56204 -0.6222,2.87389 -0.12869,1.31185 -0.38124,2.7725 -0.56122,3.24589 -0.17998,0.47338 -0.3601,1.54317 -0.40026,2.37731 -0.0402,0.83414 -0.20828,1.69462 -0.3736,1.91218 -0.16531,0.21756 -0.60548,1.56693 -0.97813,2.99861 -1.12166,4.30916 -1.09523,19.57554 0.0351,20.27412 0.16539,0.10221 0.30071,1.49053 0.30071,3.08514 0,2.04142 0.16097,3.12912 0.54404,3.67602 0.29922,0.4272 1.12064,1.89764 1.82537,3.26765 0.85048,1.65332 1.44241,2.42911 1.76033,2.30711 0.61322,-0.23531 4.67361,0.70386 5.16425,1.1945 0.51667,0.51667 0.93656,0.4647 0.93656,-0.1159 0,-0.52865 1.06506,-0.91876 2.46945,-0.90451 0.78439,0.008 0.7161,0.10895 -0.61736,0.91295 -0.82462,0.4972 -1.49931,1.01677 -1.49931,1.15461 0,0.13784 0.49891,0.61948 1.10869,1.0703 0.60978,0.45084 1.0104,0.66065 0.89026,0.46627 -0.36911,-0.59723 1.10393,-1.61037 2.4612,-1.69277 l 1.28593,-0.0781 0.05,-2.42524 c 0.0582,-2.82332 0.76774,-4.19605 2.555,-4.94282 1.68809,-0.70532 1.88226,-0.61709 1.85267,0.84188 l -0.0268,1.32292 -0.49924,-1.23472 -0.49923,-1.23473 0.19628,1.12355 c 0.14724,0.84282 0.0143,1.30558 -0.53226,1.85208 -0.74452,0.74452 -0.88374,1.52496 -0.74394,4.17055 0.0747,1.41432 0.0169,1.51421 -0.99292,1.71618 -1.2123,0.24246 -2.35327,1.31005 -2.00403,1.87514 0.41372,0.66941 1.61597,0.39723 2.43107,-0.55039 l 0.79598,-0.92538 0.61371,0.93663 c 0.86228,1.31601 1.28925,0.8394 1.08797,-1.2145 -0.14751,-1.50517 -0.0834,-1.75349 0.45527,-1.76313 0.5695,-0.0102 0.56278,-0.0597 -0.0733,-0.54051 -0.69176,-0.52283 -0.69059,-0.53182 0.0956,-0.73742 0.57579,-0.15057 0.69751,-0.32672 0.44011,-0.63686 -0.47418,-0.57136 1.07391,-2.05726 1.83792,-1.76408 0.30158,0.11573 0.67711,0.002 0.83453,-0.25268 0.35799,-0.57925 0.44132,-3.11279 0.10237,-3.11279 -0.30964,0 -0.16192,-2.42135 0.19909,-3.26319 0.14561,-0.33955 0.41785,-0.61736 0.60498,-0.61736 0.18712,0 0.57835,-0.23813 0.86939,-0.52917 0.78158,-0.78158 1.53794,-0.65093 1.53171,0.26458 -0.004,0.65807 -0.0697,0.7033 -0.38132,0.26459 -0.29001,-0.40825 -0.32808,-0.30964 -0.16662,0.43157 0.16585,0.76137 0.0986,0.91826 -0.32424,0.75601 -0.5895,-0.22621 -0.74137,0.40621 -0.18076,0.75269 0.56503,0.34921 0.40741,0.881 -0.26458,0.89268 -0.58796,0.0102 -0.58796,0.0278 0,0.3703 0.44709,0.26041 0.61968,0.8169 0.62578,2.01775 0.005,0.91199 0.14902,2.26396 0.32088,3.00439 0.37097,1.59829 -0.18464,2.04081 -1.44977,1.15468 -0.86245,-0.60408 -2.22643,-0.7714 -1.89321,-0.23223 0.11164,0.18062 0.0676,0.41206 -0.0978,0.51432 -0.16544,0.10225 -0.32256,0.76437 -0.34913,1.47137 -0.0454,1.2086 0.005,1.272 0.8485,1.06037 0.8108,-0.20349 0.88941,-0.13079 0.81936,0.75786 -0.17396,2.20692 0.006,2.92324 0.73448,2.92324 0.38805,0 0.70555,0.15875 0.70555,0.35277 0,0.19403 0.27781,0.35035 0.61736,0.34738 0.51014,-0.004 0.52878,-0.0614 0.10733,-0.32809 -0.64096,-0.40551 -0.68762,-3.6474 -0.0735,-5.10381 0.32933,-0.78099 0.53177,-0.92915 0.84355,-0.61737 0.47819,0.47819 2.033,0.55508 2.033,0.10053 0,-0.17033 -0.23813,-0.8796 -0.52917,-1.57617 -0.59882,-1.43317 -0.69322,-3.98671 -0.19575,-5.29515 0.25289,-0.66515 0.51407,-0.8297 1.08144,-0.68133 0.55185,0.14431 1.01577,-0.11745 1.76892,-0.9981 1.03841,-1.21421 1.45469,-1.05345 0.50917,0.19662 -0.80712,1.06711 -0.62143,1.36461 0.71628,1.14752 0.96215,-0.15613 1.30936,-0.0599 1.57509,0.43663 0.18747,0.3503 0.24062,0.73716 0.11809,0.85968 -0.34602,0.34603 -2.42405,0.26256 -3.48253,-0.13987 -1.13146,-0.43018 -1.4817,-0.2149 -0.86306,0.53051 0.35287,0.42519 0.35435,0.53769 0.007,0.53769 -0.67627,0 0.29637,1.04959 1.01334,1.0935 0.31711,0.0194 0.19103,0.14223 -0.28163,0.27431 -1.28018,0.35775 -1.4209,1.19737 -0.14887,0.88831 l 1.00466,-0.24409 -0.88194,0.77652 -0.88194,0.77652 0.82402,-0.22842 c 0.76278,-0.21144 0.79251,-0.16952 0.39993,0.56402 -0.3703,0.69192 -0.34823,0.76331 0.17407,0.56289 0.51152,-0.19629 0.56298,-0.0693 0.35526,0.87638 -0.22746,1.03563 -0.18883,1.09233 0.60791,0.89236 0.67809,-0.17019 0.97073,-0.0105 1.44161,0.78664 0.55713,0.94313 0.55449,1.03304 -0.0463,1.57672 -0.3504,0.31711 -0.81403,0.57656 -1.03028,0.57656 -0.62611,0 -1.49153,1.47838 -1.49153,2.54794 0,0.80998 0.15289,0.97984 0.88194,0.97984 0.73997,0 0.88195,-0.16631 0.88195,-1.03313 0,-0.56823 0.19843,-1.24786 0.44097,-1.51029 1.4284,-1.5456 1.79274,-2.16468 2.02662,-3.44368 0.19985,-1.09289 0.14859,-1.42123 -0.22191,-1.42123 -0.7839,0 -0.54906,-1.05403 0.31196,-1.40012 0.76297,-0.30668 0.75613,-0.31991 -0.17639,-0.34141 -1.06454,-0.0246 -1.24129,-0.41649 -0.47472,-1.05269 0.51955,-0.43119 2.18591,-0.1886 2.53012,0.36835 0.10816,0.175 -0.0521,0.81681 -0.35611,1.42623 -0.30402,0.60942 -0.55277,1.14352 -0.55277,1.18689 0,0.0434 0.75407,-0.004 1.6756998,-0.10413 1.61964,-0.17688 1.65621,-0.16068 1.0934,0.4843 -0.66515,0.76224 -1.4466398,3.31313 -1.01501,3.31313 0.15735,0 0.40639,-0.43656 0.55342,-0.97014 0.26694,-0.96869 0.268,-0.96804 0.71669,0.44098 l 0.44936,1.41111 0.052,-1.76389 0.052,-1.76389 0.67014,1.50866 c 0.61203,1.37783 0.75519,1.48825 1.65078,1.27329 1.21574,-0.2918 1.41808,-0.4587 0.93677,-0.77266 -0.50141,-0.32708 -0.85727,-2.70711 -0.59833,-4.00177 0.13656,-0.68283 0.57679,-1.22783 1.28946,-1.59637 1.36635,-0.70657 1.99857,-1.33519 1.99857,-1.9872 0,-0.57854 0.97304,-1.50599 1.26925001,-1.20978 0.10664,0.10663 -0.0496,0.66475 -0.34723001,1.24027 -0.29761,0.57551 -0.4416,1.14589 -0.31999,1.2675 0.52929001,0.52929 1.12509001,0.12782 1.63511001,-1.1018 l 0.54872,-1.32292 0.0182,1.6757 c 0.0135,1.24624 0.1538,1.67569 0.54733999,1.67569 0.29398,0 0.52917,-0.31358 0.52917,-0.70555 0,-1.0512 0.49517,-0.85313 0.96252,0.38501 0.2301,0.60963 0.57537,0.98939 0.78289,0.86113 0.45639,-0.28207 0.4808,-2.64338 0.0346,-3.34878 -0.27886,-0.44087 -0.43067,-0.42027 -1.05293,0.14287 -0.55891,0.5058 -0.73676,0.54336 -0.76889,0.16236 -0.0814,-0.96483 0.11309,-1.52897 0.69135,-2.00576 0.32184,-0.26537 0.40337,-0.39225 0.18116,-0.28197 -0.2222,0.11029 -0.49503,-0.0367 -0.60629,-0.32661 -0.11124,-0.28993 -0.45038,-0.52714 -0.75363,-0.52714 -0.97608999,0 -4.80365,-1.42046 -5.78741,-2.14778 -0.92479,-0.68373 -2.15004,-0.63218 -2.15004,0.0905 0,0.38475 -3.00726,0.0289 -3.9687498,-0.46964 -1.23807,-0.64194 -0.56027,-0.91162 1.9606498,-0.78011 2.20559,0.11506 2.6876,0.0324 3.33664,-0.57228 0.41724,-0.38873 0.99016,-0.70677 1.27315,-0.70677 0.28298,0 0.59459,-0.19844 0.69245,-0.44098 0.11225,-0.27817 0.18822,-0.22673 0.20579,0.13934 0.0349,0.72681 2.36224001,1.01466 4.52577,0.55975 1.45158,-0.30522 1.76625,-0.57913 1.25391,-1.09147 -0.44414,-0.44414 -0.40674,-1.28331 0.0572,-1.28331 0.25021,0 0.70409,-0.35719 1.00862,-0.79375 l 0.55369,-0.79375 0.0185,0.90276 c 0.0173,0.84231 0.13692,0.90456 1.78673,0.92944 0.97252,0.0147 1.85502,-0.11376 1.9611,-0.2854 0.1061,-0.17164 0.5804,-0.31208 1.05402,-0.31208 0.47361,0 0.86112,-0.14805 0.86112,-0.329 0,-0.18096 0.3331702,-0.43475 0.7403802,-0.564 0.40721,-0.12924 1.02794,-0.52254 1.37941,-0.87401 0.61684,-0.61684 0.60955,-0.6667 -0.20994,-1.43658 -0.70488,-0.6622 -0.98389,-0.73215 -1.64399,-0.41213 -0.9296502,0.45068 -1.0368502,0.46048 -6.0042202,0.54924 -3.06032,0.0547 -3.68403999,-0.0156 -3.21097,-0.36198 0.52572,-0.38491 0.48704,-0.4679 -0.37002999,-0.79375 -1.27632,-0.48526 -1.26397,-0.49018 -1.26397,0.5043 0,0.47751 -0.35719,1.20273 -0.79375001,1.6116 -0.67142,0.62883 -1.11997,0.72053 -2.91042,0.59502 -1.90627,-0.13363 -5.7179898,-1.2579 -4.39208,-1.29545 0.30074,-0.009 0.73159,-0.20027 0.95743,-0.42611 0.22585,-0.22585 1.3782,-0.4634 2.56077,-0.52788 1.18258,-0.0645 2.47147,-0.2892 2.8642,-0.49938 0.62314,-0.3335 0.65133,-0.45717 0.22144,-0.97143 -0.60553,-0.72437 -0.58004,-1.68316 0.0412,-1.54875 1.05065,0.22732 5.31713,0.20977 5.54973,-0.0228 0.13884,-0.13884 0.53061,-0.25243 0.8706,-0.25243 0.69742,0 2.78637,-1.10576 2.78979,-1.47674 10e-4,-0.1331 -0.63277,-0.5989 -1.40888,-1.0351 -2.37068,-1.33239 -1.5782,-1.90657 1.77165,-1.2836 1.72873,0.32149 2.21726,0.31035 2.44349,-0.0557 0.1994202,-0.32266 0.3540502,-0.34221 0.5245502,-0.0663 0.25987,0.42049 2.95951,0.16371 3.50538,-0.33341 0.16916,-0.15406 0.50287,-0.20517 0.74157,-0.11357 0.23869,0.0916 0.68722,-0.21994 0.99673,-0.69231 0.55553,-0.84784 0.54363,-0.86614 -0.92975,-1.42882 -0.82087,-0.3135 -1.66102,-0.56999 -1.86699,-0.56999 -0.20598,0 -0.66498,-0.32097 -1.02,-0.71327 -0.61118,-0.67534 -0.61409,-0.77916 -0.0547,-1.95225 0.32495,-0.68143 0.59082,-1.31296 0.59082,-1.40339 0,-0.0904 -0.635,-0.16442 -1.41111,-0.16442 -1.6089802,0 -1.6738702,0.10024 -0.72445,1.11931 0.68451,0.73474 0.68294,0.73956 -0.5001602,1.54244 -2.59015,1.75772 -3.74433,2.01579 -6.88928,1.54042 -1.11881,-0.16912 -1.68362,0.0547 -1.63649,0.64852 0.0659,0.83037 -2.59507,2.12673 -5.25358,2.55941 -1.19487,0.19447 -2.19666,0.56355 -2.36989,0.87311 -0.16506,0.29493 -0.66767,0.53623 -1.11693,0.53623 -1.0439,0 -2.6758798,1.2732 -2.6758798,2.0876 0,0.3439 -0.32449,0.91893 -0.72109,1.27784 -0.3966,0.35892 -0.67425,0.97884 -0.61701,1.3776 0.0596,0.41549 -0.22487,0.99158 -0.66642,1.34941 -0.42376,0.34341 -0.82079,0.97841 -0.88229,1.41111 -0.11096,0.78074 -0.61517,1.10641 -4.21043,2.71949 -1.87213,0.83997 -3.4861,0.54022 -3.4861,-0.64744 0,-0.50908 0.40702,-0.77261 1.6757,-1.08497 3.5798,-0.88135 6.10014,-3.4892 7.13574,-7.38346 0.26861,-1.0101 0.64323,-1.59987 1.09053,-1.71685 0.37475,-0.098 0.68137,-0.44946 0.68137,-0.78103 0,-0.33157 0.8736798,-1.75607 1.9415098,-3.16556 1.06784,-1.4095 2.03359,-2.98501 2.14613,-3.50114 0.11254,-0.51614 0.30135,-1.17656 0.41958,-1.4676 0.11822,-0.29104 0.23896,-0.68792 0.2683,-0.88194 0.0294,-0.19403 0.22489,-0.76823 0.43456,-1.276 0.24925,-0.60362 0.27121,-1.39743 0.0634,-2.29306 -0.44371,-1.91259 -0.4485,-1.899 0.66903,-1.899 1.54956,0 2.3292,-1.12168 2.29764,-3.30563 -0.0147,-1.01547 -0.2351,-2.23494 -0.48982,-2.70992 -0.48619,-0.90662 -0.70713,-4.61735 -0.2584,-4.33982 0.14301,0.0884 0.76092,0.88884 1.37313,1.77866 l 1.11311001,1.61785 0.63629,-0.8421 c 0.47991,-0.63512 0.73635999,-0.74238 1.04339999,-0.4364 0.30744,0.30637 0.22729,0.58552 -0.3274,1.1402 -0.59902999,0.59903 -0.67059999,0.90259 -0.38805999,1.64575 0.44730999,1.17651 0.44491999,2.87947 -0.004,3.15718 -0.19299,0.11928 -0.52893,0.54954 -0.74654,0.95616 -0.38661,0.72238 -0.34854,0.73375 1.66416999,0.4972 1.29887,-0.15266 2.33243,-0.4982 2.79775,-0.93533 0.40585,-0.38129 0.91059,-0.69324 1.12164,-0.69324 0.21105,0 0.54975,-0.47625 0.75266,-1.05834 0.20292,-0.58208 0.53595,-1.05833 0.74007,-1.05833 0.20412,0 0.37113,-0.13785 0.37113,-0.30633 0,-0.16848 -0.64105,-0.39231 -1.42455,-0.4974 -1.62147,-0.21748 -3.16156,-1.09876 -3.16156,-1.80911 0,-0.55027 1.76362,-0.99177 2.29305,-0.57403 0.19403,0.15309 1.14653,0.21997 2.11667,0.14862 0.97014,-0.0714 2.00201,-0.14375 2.29305,-0.16089 0.5770802,-0.034 1.9839802,-0.57502 2.8222302,-1.08532 0.29104,-0.17717 0.80698,-0.41541 1.14652,-0.52943 0.33955,-0.11401 0.61737,-0.30887 0.61737,-0.43303 10e-6,-0.26122 -2.55349,-1.10308 -3.34582,-1.10308 -0.2941,0 -0.53472,-0.25919 -0.53472,-0.57598 0,-0.72335 1.45961,-2.03302 1.74718,-1.56771 0.25314,0.40959 2.85239,0.55703 4.69923,0.26656 2.53151,-0.39815 4.62125,-2.31449 3.38092,-3.10041 -0.79655,-0.50471 -1.35811,-0.36519 -1.11196,0.27628 0.17671,0.46049 0.0857,0.53636 -0.41356,0.34478 -0.35297,-0.13546 -0.97388,-0.0345 -1.38416,0.22493 -0.67622,0.42767 -2.82399,0.71961 -4.6246,0.6286 -0.38805,-0.0196 -1.1002,-0.0477 -1.58254,-0.0624 -0.48235,-0.0147 -1.1455302,-0.17044 -1.4737502,-0.3461 -0.93925,-0.50267 -1.75733,0.004 -1.69058,1.0471 0.0325,0.50823 0.0423,1.17663 0.0218,1.48535 -0.0437,0.65619 -3.38911,2.58036 -4.04721,2.32782 -0.24649,-0.0946 -1.15167,-0.0392 -2.01153,0.12303 -1.26364999,0.23845 -1.85079999,0.15795 -3.06267,-0.4199 -0.99136,-0.47271 -1.49931,-0.94328 -1.49931,-1.389 0,-0.68043 0.8538,-0.93764 1.20833,-0.36401 0.26983,0.43659 3.41279,0.0398 4.25003,-0.5366 0.38272,-0.26346 0.97803,-0.47903 1.32292,-0.47903 0.34488,0 0.62706,-0.16108 0.62706,-0.35796 0,-0.19688 0.50888,-0.66743 1.13085,-1.04568 l 1.13085,-0.68771 -2.0128,-0.89016 c -2.39605,-1.05965 -2.76249,-2.08031 -0.79709,-2.2202 0.66785,-0.0475 1.30869,0.0663 1.42408,0.25302 0.11539,0.18671 0.6795,0.24552 1.25358,0.13071 0.57408,-0.11482 1.25477,-0.0336 1.51266,0.18038 0.50245,0.417 1.7814002,0.11122 4.0719602,-0.97354 2.11991,-1.00394 2.75561,-2.83577 0.99634,-2.87101 -0.42511,-0.008 -1.40501,-0.24058 -2.17756,-0.51569 -1.2244102,-0.43603 -1.4418102,-0.43378 -1.6943702,0.0175 -0.19872,0.35509 -0.57912,0.44509 -1.21101,0.28649 -0.73981,-0.18568 -0.87992,-0.12343 -0.7113,0.31598 0.24295,0.63311 -1.11532,1.14761 -1.64124,0.62169 -0.19776,-0.19776 -0.59696,-0.17901 -1.02108,0.048 -0.4416,0.23633 -0.77677,0.24812 -0.9161,0.0322 -0.12084,-0.18726 -0.73565,-0.44177 -1.36624,-0.56559 -0.6306,-0.12382 -1.62278,-0.32251 -2.20486999,-0.44155 -1.21906,-0.2493 -1.23894,-0.19318 -0.53151,1.49996 0.64255,1.53782 0.50532,1.79823 -1.10697001,2.1007 -1.21396,0.22773 -1.25348,0.28269 -1.06009,1.47437 0.21911,1.35025 -0.18182,2.3709 -1.32478,3.37249 -0.73585,0.64483 -0.73593,0.64766 -0.0328,1.19399 0.74652,0.58005 0.57698,0.5413 -1.94105,-0.44359 -2.04042,-0.79807 -2.50706,-1.22037 -1.34849,-1.22037 1.46305,0 1.90788,-0.8329 1.41968,-2.65823 -0.47022,-1.75806 -0.35207,-2.28833 0.64916,-2.91361 0.58617,-0.36607 0.74195,-0.34964 0.91307,0.0963 0.17236,0.44916 0.34426,0.40693 1.04424,-0.25659 0.46085,-0.43684 0.84065,-0.97326 0.844,-1.19204 0.004,-0.21877 0.24422,-0.5954 0.53526,-0.83694 0.77363001,-0.64206 0.66358001,-0.868 -0.655,-1.3448 -0.65129,-0.23551 -1.46964,-0.74365 -1.81856,-1.1292 -0.62429,-0.68982 -0.60854,-0.701 0.98696,-0.701 0.89174,0 1.70815,0.14043 1.81423,0.31207 0.27233001,0.44066 3.80545,0.36309 4.39449,-0.0965 0.26883,-0.20974 0.66877,-0.38374 0.88875,-0.38666 0.4532,-0.006 2.51071,-1.54346 2.29229,-1.71289 -0.0781,-0.0606 -0.72955,-0.46337 -1.4476,-0.89504 -1.23049,-0.73973 -1.36739,-0.75287 -2.38125,-0.22859 -0.59163,0.30594 -1.0757,0.70596 -1.0757,0.88891 0,0.18296 -0.24403,0.239 -0.54229999,0.12454 -0.29827,-0.11445 -0.8539,0.0739 -1.23473,0.41853 -0.64785,0.5863 -0.69241,0.58753 -0.69241,0.019 0,-0.80803 -1.35232001,-0.42392 -2.19702001,0.62403 -0.51127,0.6343 -0.61078,0.66003 -0.61736,0.15964 -0.004,-0.3281 0.15091,-0.69465 0.34493,-0.81457 0.71623,-0.44266 0.31386,-0.79427 -1.13064,-0.98801 -1.83649,-0.24633 -2.10285,-0.0937 -1.69744,0.9726 0.26533,0.69787 0.17099,0.93916 -0.55261,1.41328 -0.47991,0.31445 -1.02742,0.47603 -1.21668,0.35906 -0.46884,-0.28976 -0.002,-2.01135 0.68706,-2.53275 0.48946,-0.37046 0.3965,-0.55835 -0.74809,-1.51188 -0.80634,-0.67174 -1.23108,-1.28674 -1.10879,-1.60544 0.22521,-0.58689 1.38079,-0.69689 1.71084,-0.16285 0.14439,0.23363 0.46205,0.22345 0.93562,-0.03 0.39435,-0.21105 1.07263,-0.29448 1.50727,-0.18539 0.97521,0.24476 2.9727,-0.73776 4.39842001,-2.16347 l 1.06551,-1.06551 -1.48426001,-0.55678 c -1.38262,-0.51866 -1.61687,-0.51123 -3.42063,0.10853 -1.06501,0.36592 -2.3439,0.5838 -2.84198,0.48418 -0.57723,-0.11544 -1.07402,0.0218 -1.37003,0.37846 -0.46165,0.55626 -1.4363398,0.77529 -1.4363398,0.32277 0,-0.13024 0.2627198,-0.52712 0.5838398,-0.88194 0.55767,-0.61622 0.51023,-0.64514 -1.0583298,-0.64514 -0.9032,0 -1.64218,0.0857 -1.64218,0.19044 0,0.40102 1.41824,2.94733 1.75885,3.15783 0.5413098,0.33455 0.4284,1.23784 -0.15473,1.23784 -0.39249,0 -0.48547,0.39249 -0.39697,1.67569 0.0636,0.92164 0.046,1.23914 -0.039,0.70556 -0.085,-0.53358 -0.36963,-0.97014 -0.63251,-0.97014 -0.26288,0 -0.74754,-0.10344 -1.07703,-0.22988 -0.51268,-0.19674 -0.54228,-0.12379 -0.20524,0.50598 0.6652,1.24292 0.44532,1.62206 -1.64514,2.83681 -1.20299,0.69904 -2.65912,1.9775 -3.60548,3.16555 -0.87313,1.09611 -3.17561,3.66405 -5.11662,5.70654 -1.94101,2.04249 -4.29299,4.58674 -5.22662,5.65389 -0.93363,1.06716 -1.5823,1.70216 -1.44148,1.41112 0.38363,-0.79291 3.8837,-5.46703 6.33999,-8.46668 2.78279,-3.39835 3.70154,-4.9011 4.85283,-7.9375 1.37598,-3.62896 1.50821,-5.24459 0.63283,-7.73208 -0.57872,-1.64447 -0.64515,-2.19551 -0.31293,-2.59581 0.33673,-0.40574 0.28221,-0.61421 -0.27049,-1.0342 -1.26893,-0.96425 -3.73446,-1.86759 -6.21569,-2.27736 -3.04924,-0.50357 -3.52122,-0.1707 -3.66881,2.58748 -0.0553,1.03386 -0.11313,2.00184 -0.12846,2.15106 -0.0154,0.14921 -0.41914,0.1731 -0.89733,0.0531 -0.47819,-0.12002 -1.36442,-0.004 -1.96942,0.25786 l -1.09998,0.47608 0.25574,2.64583 c 0.27478,2.84284 0.25865,8.12815 -0.0257,8.41248 -0.0953,0.0953 0.0753,0.44808 0.37925,0.7839 0.62668,0.69247 0.37341,3.14684 -0.3257,3.15624 -0.2428,0.003 -0.21237,0.12538 0.0769,0.30868 0.33366,0.21142 0.36038,0.37637 0.0882,0.54459 -0.21474,0.1327 -0.39044,0.55879 -0.39044,0.94684 0,0.39378 -0.16041,0.60643 -0.363,0.48122 -0.22929,-0.14171 -0.34108,-2.39083 -0.3035,-6.10624 0.0546,-5.39327 -0.0211,-6.18961 -0.91101,-9.58606 -0.53378,-2.03729 -1.07189,-4.48773 -1.1958,-5.44542 -0.21473,-1.65952 -0.25428,-1.71215 -0.84267,-1.12133 -0.33954,0.34096 -0.61736,1.00546 -0.61736,1.47667 0,1.22404 -0.52349,1.07251 -2.58891,-0.74937 -1.44054,-1.27068 -2.01434,-1.56904 -2.74747,-1.42862 -1.12995,0.21642 -2.26826,-0.53096 -1.97453,-1.29641 0.31193,-0.81287 3.01796,-2.29123 6.69888,-3.65973 1.7826,-0.66275 5.54674,-2.41788 8.36476,-3.90029 9.15016,-4.81345 10.75495,-5.62084 11.61331,-5.8428 l 0.84519,-0.21855 -0.24378,-3.98833 c -0.45096,-7.37759 -0.51913,-7.68941 -1.85308,-8.47646 -1.22939,-0.72536 -1.38624,-1.27679 -0.96386,-3.38872 0.19741,-0.98702 0.39413,-1.12262 2.16072,-1.48936 2.65893,-0.552 4.99907,-1.39896 8.6720098,-3.13867 3.30584,-1.56582 3.20602,-1.55528 8.29395001,-0.87583 1.35501,0.18095 1.94624999,-0.0689 1.57699,-0.66636 -0.14154,-0.22901 -0.21296,-0.839497 -0.15872,-1.356631 0.0572,-0.545041 -0.28192,-1.543074 -0.80675,-2.374452 -0.49795,-0.788814 -0.90537,-1.680467 -0.90537,-1.981454 0,-0.300986 -0.25144001,-0.643734 -0.55875001,-0.761661 -0.37261,-0.142984 -0.42788,-0.295289 -0.16591,-0.457197 0.2672,-0.165138 0.16443,-0.53316 -0.32136,-1.150736 -0.52402,-0.666185 -0.65597,-1.199049 -0.49554,-2.001174 0.17131,-0.85658 0.0969,-1.093227 -0.34355,-1.093227 -0.33127,0 -0.48596,-0.198656 -0.3766,-0.483644 0.33548,-0.874247 -0.83862,-0.901192 -1.76725,-0.04056 l -0.90993,0.843291 V 86.84919 c 0,-1.684842 0.15942,-3.059476 0.36991,-3.189563 0.25579,-0.15809 0.25039,-0.372622 -0.0175,-0.695431 -0.25131,-0.302803 -0.31286,-1.438293 -0.1752,-3.23179 0.33488,-4.363092 0.80047,-6.870721 2.64213,-14.230247 3.00038001,-11.98995 4.53469,-26.915449 3.56158001,-34.64647 -0.53984,-4.288987 -1.15645,-6.406619 -0.90285,-3.100753 0.0967,1.26118 0.27132,5.38868 0.38793,9.172222 0.20322,6.592813 0.16616,7.150836 -0.89026,13.405556 -0.60626001,3.589514 -1.32617001,7.320139 -1.59980001,8.290278 -0.27363,0.970139 -1.12719,3.907014 -1.8968,6.526389 -0.76961,2.619375 -1.68933,6.32074 -2.04382,8.225253 -0.42141,2.264057 -0.73194,3.241023 -0.89706,2.822222 -0.17384,-0.440926 -0.26026,-0.228279 -0.27732,0.682386 -0.0137,0.727604 -0.16077,1.322916 -0.32695,1.322916 -0.16618,0 -0.29453,0.436563 -0.28522,0.970139 0.0321,1.837119 -0.52722,4.852363 -1.05132,5.668052 -0.3922,0.610401 -0.42554,0.937419 -0.13167,1.291513 0.47154,0.56817 -0.056,0.999508 -1.2885598,1.053461 -0.67863,0.0297 -0.8296,-0.18295 -0.98484,-1.387235 -0.10085,-0.782274 -0.1535,-2.010152 -0.11702,-2.728616 0.0517,-1.017605 -0.14493,-1.502096 -0.88962,-2.192246 -0.88244,-0.81782 -0.93873,-1.032482 -0.732,-2.791446 0.14811,-1.260157 0.0891,-1.988858 -0.17431,-2.151641 -0.21905,-0.135378 -0.49351,0.0021 -0.60991,0.305382 -0.11641,0.30334 -0.34843,0.551526 -0.51561,0.551526 -0.16718,0 -0.21258,-0.238125 -0.1009,-0.529167 0.11169,-0.291041 0.0313,-0.529166 -0.17873,-0.529166 -0.42372,0 -0.14051,-0.959496 0.98924,-3.351389 0.36658,-0.776111 0.82184,-2.046111 1.0117,-2.822222 0.18985,-0.776111 1.40207,-4.982986 2.69382,-9.348611 3.5914298,-12.137705 3.9829498,-13.586884 5.0037998,-18.520834 0.83535,-4.037412 0.94423,-5.331109 0.91005,-10.812916 -0.0346,-5.549978 0.031,-6.3073 0.60345,-6.967361 0.35325,-0.407306 0.80887,-0.740556 1.01248,-0.740556 0.2036,0 0.43102,-0.182488 0.50537,-0.405529 0.08,-0.239946 0.93664,-0.407415 2.09803001,-0.410147 1.80334999,-0.0042 1.95029999,-0.06446 1.80831999,-0.740998 -0.15401,-0.733856 -0.1525,-0.733961 0.441,-0.03083 1.00061,1.185466 2.25536,4.178313 2.97685,7.100437 1.15751,4.688031 2.23316,13.104866 2.00051,15.65373 -1.17606,12.884605 -1.6906,18.148678 -2.15514,22.048611 -1.09402,9.184499 -1.78786,28.304843 -1.06897,29.45764 0.36848,0.590878 0.35895,0.556305 0.82701,2.997916 0.39388,2.054665 1.80957,6.974475 2.08102,7.231945 0.10228,0.097 0.078,-0.85549 -0.054,-2.11667 -1.44091,-13.768674 -1.56665,-19.536051 -0.73835,-33.866664 0.95538,-16.529177 1.18613,-19.909706 1.60136,-23.459723 0.77743,-6.646843 -0.053,-15.862153 -1.8407,-20.427217 -0.79568,-2.031785 -0.59936,-2.359936 1.47564,-2.466588 1.97314,-0.101417 2.6021,-0.889248 1.87442,-2.347906 -0.28541,-0.572129 -0.66606,-1.040234 -0.84588,-1.040234 -0.17981,0 -0.32694,-0.199372 -0.32694,-0.443049 0,-0.62203 -1.78487,-1.342063 -2.71996,-1.097254 -0.85592,0.224085 -2.98332,-0.887592 -4.15919999,-2.173403 -0.38806,-0.424332 -1.41993,-1.008057 -2.29306001,-1.297167 -0.87312,-0.28911 -2.2225,-0.740727 -2.99861,-1.003594 -0.77611,-0.262866 -2.36361,-0.522759 -3.52778,-0.577541 -1.16417,-0.05478 -4.2597898,-0.273368 -6.8791698,-0.485749 -8.56868,-0.694757 -9.03853,-0.637136 -11.81805,1.449366 -0.77611,0.582601 -2.00643,1.310814 -2.73403,1.618249 -0.7276,0.307435 -1.32292,0.683938 -1.32292,0.836671 0,0.152734 -0.75406,0.765662 -1.67569,1.362062 -2.59017,1.676136 -4.18741,3.265768 -4.82818,4.805206 -0.81547,1.959133 -1.83741,2.963511 -4.00221,3.933403 -1.02466,0.459081 -2.37404,1.314488 -2.99861,1.900905 -0.62457,0.586416 -1.96902,1.798589 -2.98767,2.693718 -1.01864,0.895127 -1.85208,1.843906 -1.85208,2.108397 0,0.26449 -0.15875,0.480892 -0.35278,0.480892 -0.19403,0 -0.31309,0.194428 -0.26458,0.432063 0.0565,0.277011 -0.74938,0.572692 -2.24575,0.823933 -1.28367,0.215528 -2.8899,0.735474 -3.56942,1.155436 -0.67951,0.419962 -1.56455,0.763568 -1.96676,0.763568 -0.40221,0 -0.81492,0.135316 -0.91714,0.300703 -0.10221,0.165387 -1.22196,0.397457 -2.48831,0.515711 -2.90007,0.270812 -3.5016,0.599396 -4.17408,2.280073 -0.29779,0.744251 -0.804,1.571097 -1.12492,1.837437 -0.49203,0.408344 -0.54518,0.902919 -0.33906,3.155027 0.13444,1.468924 0.44074,3.067646 0.68066,3.552715 0.23991,0.48507 0.53151,2.40072 0.64798,4.256998 0.11648,1.856282 0.3143,3.642219 0.4396,3.96875 0.33909,0.883659 -1.47567,0.801222 -1.95192,-0.08867 -0.47965,-0.896235 -0.46596,-3.661949 0.0263,-5.304846 0.31915,-1.065241 0.28657,-1.509385 -0.17639,-2.404661 -0.400158,-0.773814 -0.567847,-2.04814 -0.567847,-4.315241 0,-3.022537 0.06712,-3.317032 1.109627,-4.868215 1.61906,-2.409071 2.28757,-2.82396 4.98362,-3.092927 1.31399,-0.131089 2.4743,-0.376234 2.57846,-0.544767 0.10416,-0.168533 0.56983,-0.306424 1.03484,-0.306424 0.465,0 1.39845,-0.375275 2.07434,-0.833945 0.77606,-0.526645 2.02022,-0.923473 3.3764,-1.076907 1.23656,-0.139901 2.05822,-0.387435 1.93701,-0.583548 -0.19154,-0.309917 0.61742,-1.158976 5.18601,-5.4431 0.82764,-0.776111 2.46347,-1.887361 3.63517,-2.469444 1.80545,-0.896922 2.26487,-1.327353 3.0123,-2.822222 1.165,-2.329993 1.89851,-3.147332 4.30659,-4.79876 1.10745,-0.759469 2.43483,-1.771298 2.94975,-2.248508 0.51492,-0.477209 1.26653,-0.972491 1.67025,-1.100626 0.40371,-0.128135 1.68778,-0.926966 2.85347,-1.775179 1.16569,-0.848213 2.27362,-1.542205 2.46205,-1.542205 0.18844,0 0.59324,-0.224292 0.89956,-0.498426 1.28897,-1.153531 4.45954,-1.5739388 10.55443,-1.3994818 3.2326298,0.09253 6.4331398,0.3114388 7.1122398,0.4864668 0.67909,0.175027 1.63731,0.399951 2.12936,0.49983 0.49205,0.09988 1.73577,0.967145 2.76382001,1.927257 1.02805,0.960111 2.37170999,1.944259 2.98591999,2.186995 0.6142,0.242736 1.36461,0.650828 1.66756,0.906872 0.43245,0.365484 0.7814,0.378504 1.62368,0.06058 0.59006,-0.222723 1.29468,-0.293383 1.56583,-0.157021 2.49641,1.255469 5.2554902,3.902033 5.2554902,5.041171 0,0.500624 0.47925,1.15704 1.29858,1.778632 0.71422,0.541848 1.7753,1.501116 2.35797,2.131706 0.58266,0.63059 1.28934,1.146528 1.57039,1.146528 0.74629,0 4.72338,4.439315 5.44594,6.078881 0.44726,1.014875 0.77252,1.344883 1.17377,1.190908 0.8241,-0.316236 1.77184,0.961317 3.37409,4.548266 0.78003,1.74625 1.75789,3.440428 2.17301,3.764838 0.50902,0.39779 0.77449,1.029535 0.81534,1.940278 0.0333,0.742742 0.34168,3.09669 0.68525,5.230996 0.34357,2.134305 0.60335,4.707612 0.57729,5.718454 -0.0261,1.010846 0.10654,1.933025 0.29467,2.049293 0.18812,0.116265 0.34204,0.678275 0.34204,1.248908 0,0.570632 0.15875,1.037512 0.35278,1.037512 0.19402,0 0.35277,0.30813 0.35277,0.684735 0,0.376604 0.15875,0.782849 0.35278,0.902765 0.19403,0.119916 0.35278,0.675541 0.35278,1.234722 0,0.559181 0.15875,1.114806 0.35278,1.234722 0.19403,0.119917 0.35278,1.302925 0.35278,2.628911 0,2.618662 -0.16748,2.839145 -2.15659,2.839145 -0.59951,0 -1.12663,0.224293 -1.24362,0.529167 -0.11168,0.291041 -0.52301,0.529166 -0.91407,0.529166 -0.59903,0 -0.64027,0.08523 -0.26186,0.541193 0.36166,0.435769 0.3627,0.702737 0.005,1.370489 -0.57324,1.071107 -0.32086,2.629125 1.42425,8.792269 0.76047,2.685719 1.38267,4.95093 1.38267,5.033808 0,0.08287 0.39688,0.05108 0.88194,-0.07067 0.79907,-0.200551 0.88195,-0.118301 0.88195,0.875224 0,0.603119 0.15875,1.096578 0.35278,1.096578 0.19403,0 0.35278,0.3175 0.35278,0.705555 0,0.388056 0.11906,0.706794 0.26458,0.708308 0.41442,0.0043 1.14653,1.804514 1.14653,2.819244 0,0.504596 0.15807,1.075525 0.35127,1.268727 0.19321,0.193202 0.40995,0.85519 0.48166,1.471083 0.0717,0.615894 0.38989,1.515858 0.70706,1.999922 0.37279,0.568949 0.57667,1.63285 0.57667,3.009195 0,1.171 0.11907,2.13032 0.26459,2.13183 0.42248,0.004 1.14652,1.81302 1.14652,2.86397 0,1.24383 -1.57289,2.07217 -3.93476,2.07217 -1.699,0 -1.70968,0.007 -1.70968,1.16417 0,0.64029 0.14653,1.31498 0.32563,1.4993 0.42555,0.43796 0.0525,2.33276 -0.4037,2.05078 -0.22151,-0.1369 -0.2612,0.18864 -0.10802,0.88606 0.2804,1.27665 -0.041,1.47177 -0.50848,0.30872 -0.28904,-0.71909 -0.32115,-0.68527 -0.3414,0.3595 -0.0206,1.0624 0.0482,1.13553 0.87379,0.92832 1.78769,-0.44868 3.4311,2.10958 3.20038,4.98195 -0.14832,1.84643 0.6441,4.21083 1.70683,5.09282 0.30065,0.24951 0.54663,0.75388 0.54663,1.12081 0,0.77166 0.58143,1.89497 1.5875,3.06703 0.63073,0.73479 0.71876,1.43633 0.83001,6.61459 l 0.12445,5.79262 h -2.5057 -2.5057 v 5.65835 c 0,4.82263 -0.0727,5.59117 -0.49214,5.20347 -0.27068,-0.25018 -0.43128,-0.55579 -0.35689,-0.67912 0.0744,-0.12334 -0.25977,-0.29976 -0.74258,-0.39205 -1.118,-0.21372 -1.10328,0.0151 0.17931,2.78614 1.30991,2.83006 1.57892,3.85915 1.08811,4.16248 -0.20976,0.12964 -0.38137,0.47382 -0.38137,0.76487 0,0.29104 0.15875,0.43105 0.35278,0.31114 0.22853,-0.14124 0.35278,1.4593 0.35278,4.54448 0,2.80302 -0.14554,4.85245 -0.35373,4.98111 -0.2213,0.13678 -0.23324,0.44377 -0.0319,0.82001 0.41988,0.78457 0.50433,21.00979 0.0911,21.83249 -0.67457,1.34317 -1.0462,2.92521 -0.73266,3.11899 0.44289,0.27371 0.41324,5.44876 -0.0312,5.44876 -0.19402,0 -0.35277,0.37041 -0.35277,0.82315 0,0.45273 -0.1088,0.93194 -0.24178,1.06491 -0.35567,0.35569 -1.15787,2.77382 -1.16402,3.50884 -0.003,0.34892 -0.32281,1.29155 -0.71087,2.09474 -0.38806,0.80318 -0.70556,1.82256 -0.70556,2.26528 0,0.44272 -0.3175,1.37023 -0.70555,2.06113 -0.46645,0.83047 -0.70556,1.9101 -0.70556,3.18574 0,1.06125 -0.15875,1.92954 -0.35277,1.92954 -0.19403,0 -0.35278,0.4581 -0.35278,1.01801 0,1.18527 -0.62938,2.51201 -1.83187,3.8616 -0.46951,0.52694 -0.9588,1.2321 -1.08732,1.56701 -0.12852,0.33492 -0.47677,0.60894 -0.77391,0.60894 -0.29713,0 -0.54024,0.21352 -0.54024,0.47449 0,1.13874 -1.22557,1.59711 -4.94237,1.84849 -2.03537,0.13765 -4.31595,0.46504 -5.06795,0.72754 -0.752,0.26249 -2.27521,0.47725 -3.38491,0.47725 -1.56961,0 -2.15942,0.15668 -2.65616,0.70556 -0.35118,0.38806 -0.8917202,0.68011 -1.2012002,0.64902 -0.30947,-0.0311 -3.42018,-0.26517 -6.91268,-0.52017 z M -17.658836,224.7446 c -0.11723,-0.11722 -0.4215,-0.12975 -0.67616,-0.0278 -0.28142,0.11261 -0.19783,0.19621 0.21314,0.21313 0.37188,0.0153 0.58024,-0.0681 0.46302,-0.18528 z m 20.3617798,-0.35775 c 0.51293,-0.19683 0.50844,-0.26195 -0.046,-0.66738 -0.46015,-0.33646 -0.51817,-0.56957 -0.23108,-0.92842 0.21083,-0.26352 0.45673,-1.00578 0.54644,-1.64945 0.15443,-1.10812 0.1146,-1.15835 -0.74944,-0.94518 -0.50189,0.12382 -1.05143,0.36075 -1.22121,0.52649 -0.49701999,0.48524 -0.35585999,2.0354 0.27272,2.99473 0.64418,0.98315 0.62901,0.97604 1.42859,0.66921 z m -13.5634598,-4.01522 c 0,-0.19403 -0.07,-0.35278 -0.15557,-0.35278 -0.0856,0 -0.25368,0.15875 -0.3736,0.35278 -0.11991,0.19403 -0.0499,0.35278 0.15557,0.35278 0.20548,0 0.3736,-0.15875 0.3736,-0.35278 z m 21.51404,-1.69651 c -0.005,-0.5141 -0.0527,-0.52341 -0.34737,-0.0674 -0.4464802,0.69087 -0.4464802,1.15788 0,0.88195 0.19403,-0.11992 0.35035,-0.48648 0.34737,-0.81457 z m -20.4557102,-0.0674 c 0.24288,-0.45382 0.25174,-0.70555 0.0248,-0.70555 -0.19403,0 -0.5226998,0.3175 -0.7303798,0.70555 -0.24288,0.45382 -0.25174,0.70556 -0.0248,0.70556 0.19403,0 0.5227,-0.3175 0.7303798,-0.70556 z m 18.12589,-1.01173 c 0.56833,-0.628 0.54604,-0.66902 -0.47449,-0.87313 -1.20682,-0.24136 -1.48991,-1.37333 -0.48421,-1.93615 0.52237,-0.29233 0.50543,-0.35407 -0.15458,-0.56355 -0.45716,-0.1451 -0.78337,-0.59015 -0.85122,-1.16133 -0.1407,-1.18458 -0.82851,-1.41587 -1.34432,-0.45208 -0.54712,1.02231 -0.16859,2.45527 1.10666,4.18934 1.21519,1.6524 1.37546,1.71039 2.20216,0.7969 z m 4.7164802,-6.49456 c 0.29352,-0.22712 0.44097,-0.20881 0.44097,0.0548 0,0.57804 0.89902,0.48385 1.42443,-0.14925 0.24887,-0.29987 0.66059,-0.46536 0.91493,-0.36776 0.25435,0.0976 0.69382,-0.0539 0.97662,-0.33673 0.2828,-0.28279 0.64458,-0.51988 0.80396,-0.52686 0.15938,-0.007 0.72908,-0.37231 1.266,-0.81186 l 0.97623,-0.79917 -1.24081,-0.0352 c -0.68244,-0.0193 -1.24081,0.12048 -1.24081,0.31072 0,0.19828 -0.43733,0.24984 -1.02475,0.12082 -0.60424,-0.13271 -1.12309,-0.0659 -1.26441,0.16271 -0.13181,0.21328 -0.53044,0.29549 -0.88584,0.18269 -0.3554,-0.1128 -0.74854,-0.0394 -0.87366,0.163 -0.14931,0.24158 -0.44403,0.25219 -0.85759,0.0309 -0.42345,-0.22662 -0.76352,-0.2038 -1.03692,0.0696 -0.42582,0.42582 -0.55931,2.11231 -0.19595,2.47567 0.23955,0.23954 1.1616,-0.0364 1.8176,-0.54402 z m -4.9602102,-1.52195 c 0.88967,-1.36719 0.5029,-1.894 -0.77553,-1.05633 -1.06167,0.69563 -1.23163,0.6983 -1.23163,0.0193 0,-0.29714 0.23813,-0.63162 0.52917,-0.7433 0.97549,-0.37433 0.56263,-0.92802 -0.52917,-0.70966 -0.89013,0.17803 -1.05833,0.10093 -1.05833,-0.48507 0,-0.40645 -0.23759,-0.69674 -0.57026,-0.69674 -0.49376,0 -0.53643,0.31949 -0.31808,2.38125 0.13871,1.30969 0.40099,2.56309 0.58285,2.78534 0.56261,0.68755 2.51392,-0.17775 3.37098,-1.49483 z m 2.3648202,0.70911 c 0.3833,-0.99886 0.22715,-1.55865 -0.43479,-1.55865 -0.5243702,0 -1.4677402,1.25776 -1.4677402,1.95688 0,0.44223 1.7180102,0.0826 1.9025302,-0.39823 z m 10.88566,-5.67284 c -0.24253,-0.0979 -0.63941,-0.0979 -0.88194,0 -0.24254,0.0979 -0.0441,0.17794 0.44097,0.17794 0.48507,0 0.68351,-0.0801 0.44097,-0.17794 z m -1.92552,-0.69655 c -0.31757,-0.31757 -0.82784,-0.4813 -1.13393,-0.36385 -0.95897,0.368 -0.60731,0.94126 0.57741,0.94126 1.05004,0 1.09121,-0.0427 0.55652,-0.57741 z m -2.12798,-0.75053 c 0.15044,-0.45676 -2.16104,-1.62763 -2.79562,-1.4161 -0.18989,0.0633 0.002,0.55649 0.42632,1.09599 0.79383,1.00918 2.08488,1.18361 2.3693,0.32011 z m -0.22228,-4.69376 c 0.49383,-0.2643 0.83887,-0.26608 1.15228,-0.006 0.68631,0.56959 1.96771,-0.45822 1.35081,-1.08349 -0.36765,-0.37264 -0.58564,-0.37104 -1.19381,0.009 -0.56852,0.35505 -0.80526,0.36558 -1.0036,0.0447 -0.4139,-0.66971 -1.5752,-0.24373 -1.69888,0.62316 -0.1235,0.86565 0.30816,0.99358 1.3932,0.41288 z m -5.5138,-0.87501 c 0.88344,-0.72967 0.97088,-0.93029 0.52917,-1.21399 -0.29104,-0.18692 -0.7873,-0.25966 -1.1028,-0.16163 -0.37023,0.11503 -0.63997,-0.0754 -0.76072,-0.53722 -0.19213,-0.73471 -1.6642602,-1.04309 -1.6642602,-0.34862 0,0.56073 1.39083,3.16266 1.6828602,3.14826 0.14158,-0.007 0.73367,-0.40604 1.31575,-0.8868 z m 2.55764,0.67714 c 0.8139,-0.21812 1.06478,-0.97962 0.44826,-1.36065 -0.45764,-0.28284 -1.63466,0.36563 -1.89499,1.04403 -0.22119,0.57642 0.1633,0.66056 1.44673,0.31662 z m 7.48531,-1.62974 c 0.017,-0.40087 -0.97337,-0.31653 -1.23395,0.10509 -0.12565,0.20332 -0.13066,0.62457 -0.0111,0.9361 0.19193,0.50016 0.27681,0.48786 0.7256,-0.10509 0.27953,-0.36933 0.51329,-0.79057 0.51946,-0.9361 z m -23.0195902,-7.0082 c 0.21649,-0.21649 0.74637001,-0.57368 1.17750001,-0.79375 0.43113,-0.22006 0.77038,-0.55886 0.75389,-0.75289 -0.0554,-0.65216 -1.06556,-0.57668 -1.89278001,0.14144 -0.45117,0.39166 -1.1378,0.95158 -1.52586,1.24426 -0.68929,0.51988 -0.68482,0.5324 0.19403,0.54336 0.49477,0.006 1.07672,-0.16592 1.29322,-0.38242 z m 21.0905302,-2.13941 c 1.19372,0.097 3.30028,-1.24296 3.34017,-2.12467 0.0141,-0.31108 -2.47662,-1.01699 -2.82612,-0.80099 -0.14174,0.0876 -0.45389,-0.0771 -0.69366,-0.36601 -0.60355,-0.72723 -0.94068,-0.66226 -1.82177,0.35109 -0.61314,0.70518 -0.86133,0.79391 -1.27056,0.45429 -0.40586,-0.33683 -0.60774,-0.28646 -0.99957,0.24939 -0.27005,0.36931 -0.49099,1.04905 -0.49099,1.51052 0,1.18647 1.47456,0.96299 1.77065,-0.26835 0.20234,-0.8415 0.22305,-0.82822 0.45161,0.28957 0.20939,1.02408 0.33992,1.13856 1.03711,0.90967 0.43866,-0.14402 1.11507,-0.23604 1.50313,-0.20451 z M 3.4656238,186.40753 c 0.14044,-0.14044 0.60116,-0.25534 1.02381,-0.25534 0.42266,0 1.05581,-0.3175 1.407,-0.70556 0.35118,-0.38806 0.84415,-0.70556 1.09548,-0.70556 0.25132,0 0.61377,-0.27781 0.80544,-0.61736 0.29756,-0.52714 0.13737,-0.67021 -1.09615,-0.97901 -1.41574,-0.35442 -2.43664,-1.29907 -1.94032,-1.7954 0.13784,-0.13784 0.64754,-0.0698 1.13266,0.15127 0.5868,0.26737 1.17352,0.29106 1.75289,0.0708 0.47897,-0.18211 0.95219,-0.1995 1.0516,-0.0386 0.44709,0.72342 5.6650602,-1.20714 5.6650602,-2.09597 0,-0.24113 -0.76372,-0.63234 -1.69717,-0.86935 -2.24983,-0.57125 -2.6699202,-1.01277 -1.83815,-1.93187 0.35533,-0.39264 0.94289,-0.71389 1.30568,-0.71389 0.53578,0 1.3477,-1.18275 1.3477,-1.96324 0,-0.43917 -1.14477,-0.0605 -1.66936,0.55213 -0.33226,0.38805 -0.72758,0.70555 -0.87849,0.70555 -0.49856,0 -0.28488,-1.07644 0.25479,-1.28353 1.03642,-0.39771 0.51814,-0.86303 -0.70555,-0.63347 -0.8093602,0.15184 -1.2347302,0.0966 -1.2347302,-0.1604 0,-0.21562 0.1905,-0.39204 0.42334,-0.39204 0.3153,0 0.32135,-0.10198 0.0237,-0.39962 -0.21979,-0.21979 -0.66576,-0.29749 -0.99106,-0.17266 -0.47298,0.1815 -0.54233,0.48874 -0.34625,1.53396 0.13486,0.71884 0.47216,1.74589 0.74956,2.28232 0.49436,0.95599 0.47803,0.98726 -0.824,1.57745 -0.87118,0.3949 -2.26179,0.60653 -4.04054,0.61493 l -2.7122,0.0128 0.0513,1.28638 c 0.0406,1.01927 -0.16533,1.47674 -0.99196999,2.20316 -0.5738,0.50422 -1.20891,0.92179 -1.41136,0.92792 -0.43804001,0.0133 -1.22758001,2.75439 -0.97954001,3.40076 0.0951,0.24793 0.43727,0.51136 0.7603,0.58541 0.96737001,0.22175 4.23189,0.0827 4.50652,-0.1919 z m 10.9355602,-0.16715 c 0.6751,-0.88933 0.59968,-1.14653 -0.33619,-1.14653 -0.86988,0 -2.16471,1.12376 -1.76054,1.52794 0.44857,0.44856 1.6298,0.23369 2.09673,-0.38141 z M -1.2343662,181.1251 c 1.20108001,-1.13083 2.10964001,-2.63421 1.73275001,-2.86715 -0.3996,-0.24696 -3.91923001,0.1498 -4.11322001,0.46368 -0.16051,0.25971 1.09081,3.19722 1.36195,3.19722 0.0965,0 0.55484,-0.35719 1.01852,-0.79375 z m 24.4169102,-0.62219 c 0,-0.75618 -1.02506,-0.64696 -1.17374,0.12506 -0.0908,0.47145 0.0529,0.61513 0.52434,0.52434 0.35717,-0.0688 0.6494,-0.36102 0.6494,-0.6494 z m 2.45591,0.22484 c 0.23631,0.0907 0.6434,-0.0927 0.90464,-0.40744 0.42499,-0.51208 0.34744,-0.55776 -0.73685,-0.43393 -0.85737,0.0979 -1.24775,0.338 -1.33465,0.82084 -0.0952,0.52885 -0.026,0.58941 0.30719,0.26906 0.23651,-0.22737 0.62336,-0.33921 0.85967,-0.24853 z m -4.65406,-0.45141 c -0.23884,-0.0966 -0.71509,-0.10251 -1.05833,-0.0131 -0.34325,0.0894 -0.14783,0.16851 0.43426,0.1757 0.58208,0.007 0.86291,-0.066 0.62407,-0.16263 z m -2.21157,-0.82693 c 0,-0.19403 -0.2475,-0.35278 -0.54999,-0.35278 -0.3025,0 -0.45188,0.15875 -0.33196,0.35278 0.11992,0.19403 0.36741,0.35278 0.54999,0.35278 0.18257,0 0.33196,-0.15875 0.33196,-0.35278 z m -1.56774,-2.61667 c 0.47603,-0.34807 0.81593,-0.39033 1.11868,-0.13907 0.65433,0.54305 3.7445,-2.1803 3.14933,-2.77547 -0.27385,-0.27385 -3.87646,-0.42868 -4.27794,-0.18386 -0.18862,0.11502 -0.93105,0.16666 -1.64985,0.11476 -1.44537,-0.10436 -2.06415,0.56287 -2.06415,2.22573 0,1.25589 1.36597,1.14336 1.85953,-0.1532 0.14196,-0.37293 0.20965,-0.31217 0.22928,0.20579 0.0483,1.27376 0.55739,1.49338 1.63512,0.70532 z m 2.1754,-7.26111 c 0.94484,0 1.15622,-0.13748 1.15622,-0.75201 0,-0.67141 -0.14851,-0.73208 -1.38586,-0.56612 -1.09053,0.14627 -1.3456,0.081 -1.19697,-0.30633 0.13086,-0.34101 -0.0848,-0.49221 -0.70196,-0.49221 -2.08926,0 -2.48848,0.7037 -1.27466,2.24682 0.67863,0.86275 0.78762,0.89204 1.4896,0.40035 0.41657,-0.29178 1.2777,-0.5305 1.91363,-0.5305 z m 6.77843,0.0508 c 0.99752,-0.72277 1.4547,-1.68097 0.65575,-1.37439 -0.28661,0.10999 -0.73951,0.065 -1.00645,-0.1 -0.27902,-0.17245 -0.66594,-0.15008 -0.91018,0.0526 -0.23366,0.19392 -1.23117,0.35883 -2.21669,0.36646 -1.6403,0.0127 -1.79186,0.0838 -1.79186,0.84067 0,0.69454 0.2116,0.84988 1.32292,0.97117 1.80452,0.19696 2.9277,-0.0183 3.94651,-0.75654 z m -2.85052,-10.24267 c 0.33668,-0.21334 0.36191,-0.37543 0.085,-0.54654 -0.52625,-0.32524 -1.86269,0.11841 -1.60631,0.53324 0.25136,0.40671 0.89156,0.4123 1.52127,0.0133 z m 2.1672,-0.39148 c 0,-0.19403 -0.23812,-0.35278 -0.52916,-0.35278 -0.29105,0 -0.52917,0.15875 -0.52917,0.35278 0,0.19403 0.23812,0.35278 0.52917,0.35278 0.29104,0 0.52916,-0.15875 0.52916,-0.35278 z m -4.40972,-0.35278 c -0.11992,-0.19402 -0.44679,-0.35277 -0.72638,-0.35277 -0.27959,0 -0.50834,0.15875 -0.50834,0.35277 0,0.19403 0.32687,0.35278 0.72638,0.35278 0.3995,0 0.62826,-0.15875 0.50834,-0.35278 z m -2.02634,-0.79375 c -0.16514,-0.5027 -2.73616,-0.82657 -2.73616,-0.34467 0,0.57229 0.45507,0.78565 1.6757,0.78565 0.80633,0 1.15737,-0.14598 1.06046,-0.44098 z m -6.70491,-4.84214 c 0.82462,-0.13721 1.49931,-0.10909 1.49931,0.0625 0,0.17158 1.22673,0.23947 2.72608,0.15087 2.43113,-0.14366 2.81573,-0.2653 3.55457,-1.12426 0.65114,-0.75699 0.72836,-1.02664 0.36072,-1.25972 -0.85121,-0.53967 -2.00609,-0.31925 -2.96018,0.56497 -0.77764,0.7207 -1.06723,0.80492 -1.66594,0.4845 -0.57897,-0.30985 -0.81314,-0.26685 -1.16466,0.21388 -0.33112,0.45284 -0.60083,0.51564 -1.09002,0.25384 -0.79863,-0.42742 -2.55658,-0.14462 -3.34152,0.53754 -0.3917002,0.34041 -0.6583702,0.38308 -0.8145702,0.13033 -0.12773,-0.20667 -0.4213,-0.37071 -0.65239,-0.36454 -0.23108,0.006 -0.1072,0.2478 0.27528,0.53695 0.38249,0.28915 0.93811,0.42154 1.2347302,0.29419 0.29661,-0.12736 1.21397,-0.34382 2.03859,-0.48103 z m -2.4884102,-4.77098 c 0.4154602,-0.291 1.0017402,-0.43455 1.3028502,-0.31901 0.85156,0.32678 3.31149,-1.9124 3.37792,-3.0748 0.007,-0.1203 -0.72406,-0.42496 -1.62431,-0.67701 -1.48651,-0.4162 -1.67996,-0.39926 -2.10682,0.18451 -0.30366,0.41528 -0.8792902,0.6283 -1.6263902,0.60187 -1.86245,-0.0659 -2.30387,0.22444 -2.87074,1.88811 -0.56117,1.64695 -0.53563,1.69329 0.74423,1.3503 0.49228,-0.13193 0.80584,-0.49856 0.82557,-0.96532 0.0226,-0.5345 0.12776,-0.42034 0.36286,0.39392 0.37407,1.29549 0.55047,1.36294 1.61483,0.61743 z m -4.94448,-0.79382 c 0.11984,-0.33955 0.53881,-0.97392 0.93106,-1.40972 0.97751,-1.08604 0.46336,-1.42864 -0.97859,-0.6521 -1.13513,0.61131 -1.95639,0.54534 -1.95639,-0.15714 0,-0.17888 0.4085,-0.42776 0.90778,-0.55307 1.13755,-0.28551 0.72176,-0.69241 -0.96845,-0.94774 -1.48187,-0.22386 -1.73364,0.10466 -1.30462,1.70234 0.57474,2.14039 2.84586,3.5003 3.36921,2.01743 z m 19.9372002,0.0526 c 0.80658,-0.4171 0.96901,-0.64092 0.62114,-0.85591 -0.4782,-0.29555 -3.47667,-0.16122 -4.63948,0.20784 -0.35016,0.11114 -0.63666,0.0326 -0.63666,-0.17448 0,-0.2071 -0.54626,-0.37655 -1.21391,-0.37655 -0.66764,0 -1.31201,-0.15875 -1.43193,-0.35278 -0.11991,-0.19402 -0.63014,-0.35277 -1.13383,-0.35277 -0.87937,0 -0.89152,0.0268 -0.30543,0.67444 0.58682,0.64844 2.47521,1.02167 5.93718,1.17346 0.7276,0.0319 1.32292,0.18479 1.32292,0.33977 0,0.40215 0.24598,0.35511 1.48,-0.28302 z m -38.16889,-2.66779 c 0,-0.33348 0.15875,-0.70445 0.35277,-0.82436 0.67559,-0.41754 0.3409,-0.88263 -1.52819,-2.12364 -1.50969,-1.00237 -2.04535,-1.18809 -2.71374,-0.94083 l -0.83277,0.30806 0.94985,0.23839 c 0.60253,0.15123 0.94985,0.47674 0.94985,0.89019 0,0.35849 0.33264,1.4522 0.73919,2.43048 0.70509,1.69663 0.77018,1.75214 1.41111,1.20336 0.36956,-0.31642 0.67193,-0.84817 0.67193,-1.18165 z m 11.7426998,-4.59387 c 0.92183001,-0.13109 1.35225001,-1.69855 0.46641,-1.69855 -0.29698,0 -0.87757,0.35719 -1.29021,0.79375 l -0.75024,0.79375 0.11914,-1.05833 c 0.11234,-0.99793 0.0416,-1.06471 -1.24011,-1.16999 l -1.35924,-0.11166 0.25222,1.87555 c 0.3515,2.61384 0.66762,2.88503 1.95799,1.67964 0.58472,-0.54621 1.41454,-1.04309 1.84404,-1.10416 z m 18.0670202,1.82923 c 0.11992,-0.19403 0.59484,-0.35278 1.05538,-0.35278 0.53766,0 0.92052,-0.26204 1.06972,-0.73214 0.37508,-1.18175 0.20661,-1.22654 -3.8008,-1.01038 -1.68271,0.0908 -1.71828,0.12596 -1.66693,1.64964 0.005,0.14294 0.46532,0.212 1.02335,0.15347 0.55802,-0.0585 1.11908,0.0626 1.24678,0.26927 0.29206,0.47256 0.78805,0.48316 1.0725,0.0229 z m -4.63787,-0.61736 c 0.0947,-0.33955 0.28237,-0.99828 0.41705,-1.46385 0.23353,-0.8072 0.18485,-0.83673 -1.04928,-0.63647 -1.18153,0.19174 -1.2848402,0.1426 -1.18703,-0.56462 0.0796,-0.57548 -0.0969,-0.80363 -0.6866202,-0.88738 -1.06985,-0.15194 -1.00267,0.46426 0.27193,2.49398 1.0872002,1.73131 1.9343402,2.13264 2.2339502,1.05834 z M 1.8363338,140.2933 c 0.838,-0.59671 1.01837,-0.62344 1.18992,-0.17639 0.2815,0.73358 1.05535,0.65729 1.81184,-0.17863 0.35119,-0.38805 0.81235,-0.70656 1.02482,-0.70778 0.21246,-0.001 0.66044,-0.48396 0.9955,-1.07272 0.59588,-1.04706 0.59202,-1.07688 -0.17639,-1.36253 -0.89929,-0.3343 -1.71684,-0.11943 -2.12604,0.55879 -0.15516,0.25716 -0.51235,0.46757 -0.79375,0.46757 -0.2814,0 -0.51164,0.22876 -0.51164,0.50835 0,0.80779 -0.76466,1.06222 -1.14575,0.38124 -0.3165,-0.56555 -0.42188,-0.53379 -1.18827999,0.35812 -0.88768,1.03306 -0.98711,1.31079 -0.60578,1.69211 0.33893,0.33893 0.43245,0.31023 1.52554999,-0.46813 z m -15.1260698,-0.002 c 0.18441,0 0.47886,-0.35719 0.65434,-0.79375 0.30254,-0.75269 0.3202,-0.74162 0.34141,0.21413 0.0182,0.82172 0.13639,0.95912 0.63972,0.74386 0.33955,-0.14521 1.04041,-0.33698 1.55746,-0.42615 0.5170598,-0.0892 1.5457298,-0.71686 2.2859398,-1.39487 1.30571,-1.19599 1.32501,-1.24796 0.64739,-1.74357 -1.03935,-0.7602 -2.31098,-0.98706 -3.0268398,-0.54 -0.75783,0.47328 -2.63654,0.87376 -3.8037,0.81083 -1.02787,-0.0554 -3.30022,1.29066 -3.1155,1.84553 0.24654,0.74053 1.36436,0.65028 2.27141,-0.18339 0.87463,-0.80388 0.88777,-0.80533 0.49769,-0.0551 -0.5914,1.1374 -0.51376,1.99417 0.15736,1.73663 0.30691,-0.11777 0.7089,-0.21413 0.89332,-0.21413 z m -4.83158,-1.27247 c 0.30691,-0.11777 0.55802,-0.43119 0.55802,-0.69649 0,-0.2653 0.47625,-0.72864 1.05834,-1.02965 0.58208,-0.30101 1.05833,-0.62258 1.05833,-0.71462 0,-0.092 -0.73158,-0.16733 -1.62575,-0.16733 -1.55796,0 -1.61651,0.0368 -1.40439,0.88195 0.12765,0.50858 0.0692,0.88194 -0.13814,0.88194 -0.19773,0 -0.3595,0.23813 -0.3595,0.52917 0,0.59374 0.0646,0.6176 0.85309,0.31503 z m 32.26771,-3.33856 c -0.56613,-0.34988 -0.82382,-0.16428 -0.4998,0.35998 0.12985,0.2101 0.40082,0.28019 0.60215,0.15576 0.23702,-0.14649 0.20094,-0.32829 -0.10235,-0.51574 z m -20.2673802,-1.37746 c 0.62892,-0.23911 0.90492,-0.22657 0.90492,0.0412 0,0.23729 0.30478,0.29057 0.79375,0.13877 0.43656,-0.13554 1.06572,-0.28292 1.39814,-0.32752 0.33242,-0.0446 0.90054,-0.3491 1.2625,-0.67666 0.36196,-0.32757 0.80924001,-0.59558 0.99396001,-0.59558 0.18471,0 0.51399,-0.47195 0.73172,-1.04877 0.38442,-1.01846 0.36106,-1.0553 -0.80847,-1.27471 -0.66239001,-0.12426 -1.40104001,-0.0657 -1.64144001,0.13015 -0.75002,0.611 -2.98487,1.09196 -3.35484,0.72199 -0.21536,-0.21536 -0.54718,-0.12863 -0.91495,0.23914 -0.51496,0.51496 -0.57704,0.5174 -0.57704,0.0227 0,-0.94777 -0.95038,-0.60835 -1.41111,0.50397 -0.24111,0.58208 -0.58195,1.05833 -0.75742,1.05833 -0.17547,0 -0.0768,-0.46837 0.21919,-1.04081 0.29602,-0.57245 0.53823,-1.12808 0.53823,-1.23473 0,-0.35722 -1.2651998,-0.19871 -1.6735998,0.20969 -0.30294,0.30294 -0.35426,0.21496 -0.2058,-0.35278 0.13937,-0.53295 0.0364,-0.75637 -0.34874,-0.75637 -1.00415,0 -1.06729,1.37082 -0.12847,2.78946 0.78596,1.18766 1.00798,1.31296 2.0597298,1.16239 0.64835,-0.0928 1.29545,-0.34527 1.438,-0.561 0.15023,-0.22735 0.26145,-0.0585 0.26459,0.40151 0.006,0.90956 0.007,0.90983 1.21715,0.4497 z m 13.7813,-0.35668 c 0,-0.62802 -1.16363,-0.92259 -1.66479,-0.42143 -0.19531,0.19532 -0.24284,0.53678 -0.10562,0.75881 0.35067,0.56741 1.77041,0.29686 1.77041,-0.33738 z m 2.20965,0.3737 c 0.3369202,-0.17986 0.9004502,-0.41687 1.2523002,-0.52668 0.35184,-0.1098 0.5525,-0.34077 0.44589,-0.51326 -0.24939,-0.40352 -3.0258902,-0.45021 -3.0258902,-0.0509 0,0.166 -0.0964,0.55292 -0.21413,0.85983 -0.24396,0.63575 0.55847,0.75597 1.54183,0.231 z m -25.7614998,-1.08409 c 0.93116,0 4.29598,-3.32207 3.83338,-3.78468 -0.19583,-0.19582 -1.07216,0.15445 -2.33014,0.93138 -1.20137,0.74196 -3.9362,1.80222 -4.21083,1.63249 -0.16243,-0.10039 -0.49151,0.0539 -0.73128,0.34275 -0.23977,0.28891 -0.76576,0.52529 -1.16886,0.52529 -0.45786,0 -0.60714,0.12354 -0.39778,0.3292 0.44407,0.4362 3.00021,0.63677 3.75153,0.29436 0.32679,-0.14893 0.89108,-0.27079 1.25398,-0.27079 z m 21.2587998,0.17639 c 0,-0.32925 -0.33318,-0.52916 -0.88195,-0.52916 -1.09774,0 -1.16337,0.60228 -0.0882,0.80936 0.43656,0.0841 0.83344,0.17451 0.88194,0.20093 0.0485,0.0264 0.0882,-0.19009 0.0882,-0.48113 z m -2.46945,-1.23472 c 0,-0.19403 -0.07,-0.35278 -0.15556,-0.35278 -0.0856,0 -0.25369,0.15875 -0.3736,0.35278 -0.11992,0.19403 -0.0499,0.35278 0.15557,0.35278 0.20547,0 0.37359,-0.15875 0.37359,-0.35278 z m 30.5471302,-0.44342 c 0.265,-0.265 -1.51392,-3.15065 -2.77133,-4.49547 -0.45355,-0.48507 -0.93439,-1.16982 -1.06855,-1.52166 -0.13416,-0.35185 -0.40488,-0.54025 -0.6016,-0.41867 -0.34526,0.21338 -2.52378,-1.09751 -2.76351,-1.6629 -0.0647,-0.15253 -0.69968,-0.27966 -1.41111,-0.28252 -1.62671,-0.007 -3.07248,-0.73449 -3.00842,-1.51474 0.0337,-0.41066 -0.24129,-0.61302 -0.88194,-0.64896 -0.51202,-0.0287 -1.1831,-0.0684 -1.49128,-0.0882 -0.30819,-0.0198 -0.7969,-0.23124 -1.08602,-0.46992 -0.44561,-0.36785 -0.86065,-0.50214 -2.41059,-0.77995 -0.097,-0.0174 0.0515,-0.17584 0.3301,-0.35211 0.42152,-0.26673 0.42847,-0.41449 0.0414,-0.88089 -0.5975,-0.71995 -1.44353,-0.10494 -1.33132,0.96779 0.0488,0.46618 -0.15297,0.7927 -0.53946,0.87316 -0.49676,0.10342 -0.61736,-0.11773 -0.61736,-1.13207 0,-0.69332 -0.15565,-1.26059 -0.34589,-1.26059 -0.19024,0 -0.29003,-0.47978 -0.22175,-1.06619 0.083,-0.71286 -0.0654,-1.1732 -0.44786,-1.38914 -0.45804,-0.2586 -0.48414,-0.41167 -0.13103,-0.76825 0.4927,-0.49754 0.61257,-1.863 0.13778,-1.56957 -0.16675,0.10306 -0.25694,-0.23387 -0.20042,-0.74873 0.11174,-1.018 -0.71578,-2.92478 -1.26934,-2.92478 -0.18904,0 -0.34372,0.22708 -0.34372,0.50463 0,0.27755 -0.35718,0.55536 -0.79375,0.61736 -0.5209902,0.074 -0.7937502,0.35518 -0.7937502,0.81828 0,0.38806 -0.19843,0.66587 -0.44097,0.61737 -0.24253,-0.0485 -0.44097,0.21232 -0.44097,0.57961 0,0.3673 -0.23813,0.75919 -0.52917,0.87088 -0.29104,0.11168 -0.52916,0.0493 -0.52916,-0.13865 0,-0.18794 0.15875,-0.34171 0.35277,-0.34171 0.19403,0 0.35278,-0.1852 0.35278,-0.41157 0,-0.22636 -0.10446,-0.30712 -0.23212,-0.17945 -0.12767,0.12767 -0.44517,0.0553 -0.70556,-0.16079 -0.37092,-0.30784 -0.47343,-0.22976 -0.47343,0.36063 0,0.41444 -0.17902,1.04019 -0.39782,1.39055 -0.43187,0.69153 0.0738,13.96364 0.55016,14.44001 0.13678,0.13678 0.53096,-0.12551 0.87594,-0.58287 l 0.62726,-0.83157 4.9048702,1.1165 c 6.42718,1.46301 9.99651,2.34039 13.01876,3.20012 2.3693,0.67399 6.5231,0.82932 7.0874,0.26503 z M 2.3686538,127.94602 c 0.38805,-0.16267 1.21695,-0.50457 1.84198,-0.75977 1.73228,-0.70728 1.99109,-3.08658 0.33911,-3.11753 -0.1586,-0.003 -0.19176,0.29895 -0.0737,0.67092 0.16978,0.53496 0.0752,0.63984 -0.45281,0.50178 -0.3671,-0.096 -0.91035,0.0683 -1.20722,0.36521 -0.29686,0.29687 -0.59834,0.48509 -0.66995,0.41827 -0.0716,-0.0668 -0.88425,-0.005 -1.80587999,0.13726 -0.92164,0.14231 -1.67570001,0.12517 -1.67570001,-0.0381 0,-0.74716 -1.43818,-0.20948 -1.91715,0.71676 -0.74981,1.44996 0.19157,2.07268 1.36279,0.90147 0.50396,-0.50397 0.55436,-0.48756 0.55436,0.18055 0,0.66206 0.14866,0.71431 1.49931001,0.52694 0.82461,-0.11439 1.81679999,-0.34109 2.20485999,-0.50376 z m -12.7648198,-0.88391 c 0.5464298,-0.0602 1.2732998,-0.36273 1.6152798,-0.67221 0.34196,-0.30948 0.76853,-0.56269 0.94791,-0.56269 0.17938,0 0.76359,-0.46347 1.29825,-1.02995 l 0.9721,-1.02994 -1.22048,-0.4028 c -0.67127,-0.22154 -1.7976,-0.79444 -2.50297,-1.27311 -1.2353398,-0.83833 -1.2891298,-0.84492 -1.4632198,-0.17916 -0.0994,0.38013 -0.40323,0.77653 -0.67515,0.88087 -0.27192,0.10435 -0.49657,0.55189 -0.49922,0.99455 -0.009,1.53074 -0.43277,2.40016 -1.27206,2.61081 -0.46188,0.11592 -0.83979,0.34068 -0.83979,0.49944 0,0.40515 1.09952,0.66018 1.94028,0.45005 0.38805,-0.097 1.15264,-0.22563 1.69907,-0.28586 z m 6.7328798,-0.58684 c 0.29395,-0.41967 0.44594,-0.90626 0.33776,-1.08131 -0.25105,-0.4062 -1.53777,0.74004 -1.53777,1.36987 0,0.71446 0.59823,0.57061 1.20001,-0.28856 z m 9.1058,-3.82306 c -0.0854,-0.58208 -0.36474,-1.05833 -0.62068,-1.05833 -0.25595,0 -0.56613,-0.3175 -0.68929,-0.70556 -0.23906,-0.75319 -0.70829,-0.91917 -1.0474,-0.37047 -0.1139,0.18429 0.11486,0.50737 0.50835,0.71796 0.39349,0.21059 0.71544,0.61543 0.71544,0.89965 0,0.28421 0.15875,0.51675 0.35277,0.51675 0.19403,0 0.35278,0.23813 0.35278,0.52917 0,0.29104 0.13126,0.52916 0.29168,0.52916 0.16042,0 0.22178,-0.47625 0.13635,-1.05833 z m -7.33068,-2.15981 c 2.25681001,-0.7895 3.4844,-1.61091 3.16934,-2.12067 -0.28464999,-0.46058 -2.06164999,-0.36677 -2.56384,0.13534 -0.28236,0.28231 -1.52628,0.44437 -3.45729,0.45042 -2.44034,0.008 -3.10112,0.12551 -3.46077,0.61736 -0.7084,0.9688 -1.03929,0.70292 -0.37912,-0.30463 0.75458,-1.15164 0.59355,-1.31274 -0.66141,-0.66166 -1.2073498,0.62638 -1.5503498,0.65863 -0.9842598,0.0925 0.6831498,-0.68315 0.4937398,-0.98778 -0.61418,-0.98778 -1.4304,0 -1.61338,0.50508 -0.71156,1.96424 0.75003,1.21358 0.81686,1.24131 2.5824298,1.07145 1.45711,-0.14019 3.16434,0.0208 4.7876,0.45152 0.0841,0.0223 1.11597,-0.29635 2.29306,-0.70813 z m -10.9425898,-0.39783 c 0.57317,-2.84573 0.56104,-3.0868 -0.15525,-3.0868 -0.60934,0 -0.69673,0.24337 -0.69673,1.94027 0,1.92856 0.54638,2.66383 0.85198,1.14653 z m 48.53691,-3.94793 c 0,-0.0856 -0.15875,-0.25368 -0.35278,-0.3736 -0.19403,-0.11991 -0.35278,-0.0499 -0.35278,0.15557 0,0.20548 0.15875,0.3736 0.35278,0.3736 0.19403,0 0.35278,-0.07 0.35278,-0.15557 z M 4.0443438,115.42509 c 0.64964,-0.17257 0.97014,-0.49112 0.97014,-0.96427 0,-0.6278 -0.1475,-0.67741 -1.32292,-0.44504 -0.7276,0.14385 -1.56104,0.26253 -1.85208,0.26374 -0.71286,0.003 -1.41110999,0.58847 -1.41110999,1.18327 0,0.50785 1.62604999,0.4909 3.61596999,-0.0377 z M -12.684966,114.9051 c 0.92299,-0.25754 0.91351,-0.27122 -0.45798,-0.66064 -1.58435,-0.44986 -2.34142,-0.0726 -1.61376,0.80419 0.2466,0.29713 0.60156,0.44556 0.7888,0.32983 0.18724,-0.11572 0.76457,-0.32875 1.28294,-0.47338 z m 12.52211981,0.19688 c 0.10441,-0.27207 0.10555,-0.57895 0.002,-0.68196 -0.29324,-0.29324 -1.88111001,0.5379 -1.67250001,0.87544 0.29807,0.48229 1.46240001,0.34739 1.66996001,-0.19348 z M 35.801064,113.95414 c -0.23884,-0.0966 -0.71509,-0.10251 -1.05834,-0.0131 -0.34324,0.0894 -0.14782,0.16851 0.43426,0.1757 0.58209,0.007 0.86292,-0.066 0.62408,-0.16263 z M 15.401844,96.719666 c 1.51614,-1.157295 2.33418,-1.493725 3.78817,-1.557937 0.32648,-0.01443 0.70257,-0.369574 0.83577,-0.789235 0.21453,-0.675954 0.27963,-0.69608 0.57047,-0.176389 0.43425,0.775974 1.21431,0.741987 2.10939,-0.09191 0.91088,-0.848618 0.58196,-1.438131 -0.80242,-1.438131 -0.88031,0 -1.02518,-0.113746 -0.84958,-0.667021 0.16512,-0.520263 -0.0423,-0.755559 -0.94266,-1.069436 -0.63491,-0.221329 -1.20145,-0.261182 -1.25899,-0.08856 -0.21329,0.639854 -1.08616,1.641182 -1.27021,1.457134 -0.31572,-0.315722 -0.36888,-9.302806 -0.0917,-15.507116 0.14301,-3.201458 0.10706,-12.805833 -0.0799,-21.343055 -0.30181,-13.782289 -0.42656,-15.937435 -1.11289,-19.22639 -0.6833,-3.274469 -2.70455,-9.048602 -3.04744,-8.705705 -0.0702,0.07021 0.1918,1.127689 0.58226,2.349943 0.80028,2.505089 1.89793,7.163853 2.4949,10.589096 0.43959,2.522307 0.17106,28.504342 -0.37373,36.159722 -0.46458,6.528312 -2.74031,19.341388 -2.81955,15.875 -0.009,-0.388055 -0.17643,-0.94368 -0.37235,-1.234722 -0.26028,-0.386644 -0.33009,-0.101603 -0.25918,1.058333 0.0632,1.033188 -0.0739,1.72145 -0.39259,1.971125 -0.36221,0.283789 -0.42544,0.811675 -0.24297,2.028472 0.21356,1.424104 0.35849,1.644848 1.07997,1.644848 0.45832,0 1.56319,-0.557131 2.45526,-1.23807 z m -71.58476,-35.466271 c 0.23445,-0.379338 -0.41624,-1.395659 -0.89354,-1.395659 -0.33781,0 -0.69503,1.301993 -0.42995,1.567074 0.32203,0.32203 1.07913,0.223972 1.32349,-0.171415 z m 2.92912,-2.139826 c -0.68033,-0.42273 -0.81064,0.304278 -0.24563,1.37034 l 0.48196,0.909373 0.11645,-0.994078 c 0.0656,-0.559939 -0.0885,-1.121406 -0.35278,-1.285635 z m -6.41713,-1.019722 c 0.34945,0 0.13759,-0.460163 -0.64676,-1.40475 -1.3699,-1.649773 -1.8647,-1.794101 -1.53357,-0.447333 0.32349,1.315751 1.33237,2.836898 1.51606,2.285848 0.0795,-0.238569 0.37844,-0.433765 0.66427,-0.433765 z M -9.0494362,215.24595 c -1.6101398,-0.74598 -1.7994298,-0.93969 -1.4876198,-1.52232 0.1965,-0.36716 0.25703,-0.76781 0.1345,-0.89034 -0.12253,-0.12252 -0.0376,-0.22277 0.1888,-0.22277 0.2263698,0 0.4115698,-0.22876 0.4115698,-0.50835 0,-0.54838 0.63724,-1.08868 0.934,-0.79191 0.0998,0.0998 0.004,0.51259 -0.21227,0.91727 -0.37109,0.69338 -0.30545,0.73577 1.13962,0.73577 1.44178,0 3.07754,0.91315 3.07754,1.71802 0,0.22665 -0.9707,0.83124 -2.14076,1.33335 -0.11027,0.0473 -1.03068,-0.2986 -2.04538,-0.76872 z m -29.7926498,-0.19497 c 0.2644,-0.2644 0.85545,-0.27601 1.92263,-0.0378 l 1.54088,0.34398 -1.92264,0.0378 c -1.37906,0.0271 -1.8147,-0.0701 -1.54087,-0.34398 z m -5.00315,-0.32379 c -0.27594,-0.44648 0.19107,-0.44648 0.88194,0 0.45603,0.29471 0.44672,0.34272 -0.0674,0.34737 -0.3281,0.003 -0.69466,-0.15335 -0.81457,-0.34737 z m 6.35,-1.01535 c -0.58209,-0.12446 -1.03056,-0.37953 -0.9966,-0.5668 0.11277,-0.62198 0.70335,-0.56608 1.56055,0.1477 0.46594,0.38798 0.76778,0.69192 0.67077,0.67542 -0.097,-0.0165 -0.65264,-0.13185 -1.23472,-0.25632 z m 24.34522,-0.40152 c 0.12187,-0.19719 0.36937,-0.2672 0.54999,-0.15557 0.48932,0.30241 0.39808,0.5141 -0.22159,0.5141 -0.30249,0 -0.45027,-0.16134 -0.3284,-0.35853 z m 9.7637598,-1.66994 c 0.12487,-0.65515 1.69796,-1.09793 1.69796,-0.47792 0,0.34233 -1.09316,1.09528 -1.59017,1.09528 -0.124,0 -0.1725,-0.27781 -0.10779,-0.61736 z m -31.2124998,-1.14617 c -0.10143,-0.38787 -0.0406,-0.79411 0.13525,-0.90277 0.17581,-0.10866 0.31966,-0.0424 0.31966,0.14719 0,0.1896 0.0964,0.59585 0.21413,0.90276 0.11777,0.30691 0.0569,0.55802 -0.13525,0.55802 -0.19215,0 -0.43236,-0.31734 -0.53379,-0.7052 z m 7.38289,0.17603 c -0.11169,-0.29104 -0.0493,-0.52917 0.13864,-0.52917 0.18794,0 0.34171,0.23813 0.34171,0.52917 0,0.29104 -0.0624,0.52917 -0.13865,0.52917 -0.0762,0 -0.23002,-0.23813 -0.3417,-0.52917 z m 22.8786998,-0.53409 c -0.34517,-0.55849 0.1535,-1.05341 1.06137,-1.05341 0.98377,0 1.44113,0.53519 0.79951,0.93556 -0.70471,0.43973 -1.6259,0.49807 -1.86088,0.11785 z m -5.8839398,-0.23606 c 0.2546598,-0.10191 0.5589298,-0.0894 0.6761598,0.0278 0.11722,0.11723 -0.0911,0.20061 -0.4630198,0.18529 -0.41097,-0.0169 -0.49456,-0.10052 -0.21314,-0.21314 z m -21.00739,-0.56757 c 0.16733,-0.50199 1.47793,-0.93976 1.9465,-0.65017 0.21773,0.13457 -0.15158,0.40972 -0.83849,0.62472 -0.80728,0.25268 -1.18666,0.26139 -1.10801,0.0254 z m -8.68051,-0.40828 c -0.27404,-0.71413 0.0867,-0.90234 1.67881,-0.87596 1.33388,0.0221 1.37523,0.0509 0.55857,0.38906 -0.48507,0.20085 -1.14564,0.50013 -1.46794,0.66508 -0.39166,0.20044 -0.64682,0.14136 -0.76944,-0.17818 z m 8.11701,-0.42946 c -0.49418,-0.49418 0.26254,-0.82062 1.81411,-0.78258 1.61348,0.0396 1.62369,0.0467 0.40816,0.28486 -0.68568,0.13435 -1.4176,0.34991 -1.62649,0.479 -0.20888,0.1291 -0.47698,0.13752 -0.59578,0.0187 z m 13.17037,-0.35423 c 0,-0.41042 0.26085,-0.84631 0.57966,-0.96865 0.93418,-0.35848 1.03004,0.10515 0.19449,0.9407 l -0.77415,0.77415 z m -21.51945,-1.18555 c 0,-0.67553 1.05062,-0.77314 2.38124,-0.22123 l 1.32293,0.54873 -1.85208,0.0182 c -1.04886,0.0103 -1.85209,-0.1396 -1.85209,-0.34566 z m 8.11389,-0.55531 c 0,-0.22906 0.23813,-0.50784 0.52917,-0.61952 0.29104,-0.11169 0.52917,-0.44617 0.52917,-0.7433 0,-0.29713 0.13326,-0.54024 0.29615,-0.54024 0.25312,0 0.47787,0.35321 1.3917,2.18711 0.0676,0.13575 -0.52257,0.22108 -1.3116,0.18962 -0.83514,-0.0333 -1.43459,-0.23123 -1.43459,-0.47367 z m 6.21769,-0.0363 c -0.11071,-0.11071 -0.11685,-0.3379 -0.0136,-0.50486 0.24767,-0.40073 1.20431,-0.39163 1.20431,0.0115 0,0.38938 -0.91534,0.7687 -1.19064,0.4934 z m -11.50935,-0.45566 c -0.29105,-0.18809 -0.96075,-0.3444 -1.48824,-0.34738 -0.7064,-0.004 -0.90557,-0.1448 -0.756,-0.53456 0.11168,-0.29104 0.4242,-0.52917 0.69448,-0.52917 0.54815,0 1.952,-1.27694 1.81434,-1.65031 -0.17281,-0.46871 1.98729,-0.81783 2.27346,-0.36744 0.48229,0.75905 0.32899,1.66002 -0.24499,1.43977 -0.36719,-0.1409 -0.52917,0.0245 -0.52917,0.54024 0,0.90099 -0.30192,0.94769 -0.8938,0.13825 -0.38285,-0.52358 -0.42465,-0.45233 -0.31037,0.52916 0.14812,1.27211 0.16439,1.24939 -0.55971,0.78144 z m 8.33806,-0.50574 c -0.60277,-0.91995 -0.76781,-1.9637 -0.3105,-1.9637 0.26547,0 1.18502,2.54667 0.98998,2.74171 -0.0564,0.0564 -0.36216,-0.29371 -0.67948,-0.77801 z m 2.59805,-0.55259 c 0,-0.19403 0.39687,-0.35278 0.88194,-0.35278 0.48507,0 0.88195,0.15875 0.88195,0.35278 0,0.19403 -0.39688,0.35278 -0.88195,0.35278 -0.48507,0 -0.88194,-0.15875 -0.88194,-0.35278 z m 0.0112,-0.97014 c 0.0157,-0.36947 0.90051,-1.49931 1.1742,-1.49931 0.12413,0 0.22569,0.23813 0.22569,0.52917 0,0.29104 0.24749,0.52917 0.54999,0.52917 0.30249,0 0.45187,0.15875 0.33195,0.35277 -0.25129,0.40661 -2.29869,0.48574 -2.28183,0.0882 z m -7.59332,-0.78547 c -0.24184,-0.76197 0.0117,-1.41939 0.54736,-1.41939 0.42967,0 0.43362,1.65942 0.005,1.92458 -0.18006,0.11128 -0.42843,-0.11606 -0.55194,-0.50519 z m 1.58487,-0.54501 c 0,-0.69749 0.17843,-0.87438 0.88195,-0.87438 0.50179,0 0.88194,0.20368 0.88194,0.47254 0,0.2599 -0.39687,0.65337 -0.88194,0.87438 -0.81161,0.36979 -0.88195,0.33211 -0.88195,-0.47254 z m 3.11905,-0.34075 c -0.35979,-0.3623 0.3367,-2.40555 0.9339,-2.73976 0.86737,-0.4854 0.61058,-0.96887 -0.51461,-0.96887 -0.75512,0 -1.26631,0.29559 -1.83023,1.05833 -0.43894,0.59371 -1.1018,1.05341 -1.50986,1.04712 -0.67974,-0.0105 -0.68695,-0.0419 -0.11005,-0.47987 0.77954,-0.59175 0.79475,-1.74542 0.0313,-2.37614 -0.52612,-0.43466 -0.56719,-0.38497 -0.4017,0.48597 0.1333,0.70156 0.0409,0.97014 -0.33366,0.97014 -0.3155,0 -0.43861,0.20686 -0.31493,0.52917 0.13572,0.35366 -0.0149,0.52917 -0.4541,0.52917 -0.47931,0 -0.6434,-0.23862 -0.60629,-0.8817 0.028,-0.48493 0.2663,-0.88181 0.52959,-0.88194 0.26706,-1.4e-4 0.39429,-0.22027 0.28776,-0.49788 -0.21585,-0.56249 2.18474,-2.31768 3.19471,-2.33581 0.59366,-0.0107 0.5941,-0.0346 0.009,-0.47898 -0.5775,-0.43841 -0.56196,-0.52621 0.24773,-1.39989 0.73653,-0.79472 0.77276,-0.93214 0.24573,-0.93214 -0.7831,0 -1.46482,0.67093 -1.46482,1.44162 0,0.44064 -0.4346,0.65764 -1.6757,0.8367 -0.92163,0.13297 -2.03288,0.32695 -2.46944,0.43108 -0.59923,0.14292 -0.79375,0.0337 -0.79375,-0.44552 0,-0.60375 -0.0233,-0.603 -0.47532,0.0152 -0.33428,0.45716 -0.55087,0.52779 -0.72993,0.23806 -0.14004,-0.22658 -0.4024,-0.32064 -0.58302,-0.20901 -0.18062,0.11163 -0.3284,0.052 -0.3284,-0.13239 0,-0.18445 0.40337,-0.4366 0.89637,-0.56034 0.49301,-0.12373 0.80096,-0.37936 0.68433,-0.56807 -0.32241,-0.52167 1.58016,-1.10649 2.75806,-0.84778 0.67581,0.14843 0.96237,0.10117 0.81661,-0.13468 -0.12351,-0.19985 -0.70659,-0.46923 -1.29572,-0.59863 -0.87193,-0.1915 -0.99436,-0.32777 -0.65831,-0.73269 0.22706,-0.27359 0.26992,-0.49744 0.0953,-0.49744 -0.17466,0 -0.58942,0.3175 -0.92169,0.70556 -0.97579,1.13964 -1.30213,0.81328 -0.70552,-0.70556 0.30487,-0.77611 0.68897,-1.41111 0.85357,-1.41111 0.48453,0 0.34235,-1.12287 -0.19609,-1.54861 -0.33008,-0.26098 -0.43185,-0.79168 -0.30504,-1.5906 l 0.1903,-1.19894 0.46894,0.84616 0.46893,0.84616 0.0125,-0.97014 c 0.0135,-1.0478 0.69991,-1.37244 0.74591,-0.35278 0.0283,0.6273 0.0579,0.5761 0.53344,-0.92167 0.12215,-0.38474 0.25743,-0.39372 0.67761,-0.045 0.42527,0.35295 0.52499,0.3348 0.52499,-0.0955 0,-0.61893 -1.03055,-0.95469 -2.95104,-0.96147 -1.12456,-0.004 -1.5728,0.22366 -2.55763,1.29884 -1.31703,1.43786 -1.47124,1.27189 -0.55572,-0.5981 0.43487,-0.88824 0.85084,-1.24696 1.48236,-1.27834 0.48282,-0.024 1.22342,-0.0637 1.64577,-0.0882 0.79492,-0.0461 1.87792,-1.71079 1.87792,-2.88648 0,-0.36809 0.42641,-0.7655 1.05738,-0.98545 0.58155,-0.20274 1.65311,-0.80716 2.38125,-1.34316 0.72813,-0.53601 1.37946,-1.0101 1.4474,-1.05355 0.0679,-0.0434 0.0143,-0.25568 -0.11916,-0.47164 -0.15456,-0.2501 -0.80489,0.1256 -1.79133,1.03486 -0.85176,0.78513 -1.69797,1.42751 -1.88047,1.42751 -0.83203,0 -1.44784,-0.48945 -1.44784,-1.15075 0,-0.70088 -0.0212,-0.70333 -0.70772,-0.082 -0.38925,0.35226 -0.80791,0.54028 -0.93037,0.41783 -0.12245,-0.12245 0.25926,-0.67281 0.84826,-1.22301 0.80949,-0.75618 1.02869,-1.22115 0.89799,-1.90486 -0.14673,-0.76755 2e-4,-0.96484 0.97044,-1.30307 0.62884,-0.21921 1.42017,-0.39857 1.75852,-0.39857 0.63591,0 1.04924,-0.68032 1.03559,-1.70455 -0.006,-0.47784 -0.12247,-0.44184 -0.61737,0.19142 -0.54876,0.70219 -3.25534,2.12009 -3.25534,1.70538 0,-0.0935 0.87178,-0.81402 1.9373,-1.60117 1.06551,-0.78714 1.89895,-1.61837 1.85208,-1.84717 -0.0469,-0.22881 0.0735,-0.43693 0.26756,-0.46251 0.88229,-0.1163 1.6127,-0.64578 1.4556,-1.05517 -0.20485,-0.53385 2.40409,-3.05497 2.79601,-2.70189 0.14879,0.13404 0.17084,-0.0341 0.049,-0.37365 -0.14211,-0.39604 -0.0476,-0.61736 0.26355,-0.61736 0.29686,0 0.41938,0.25119 0.31576,0.64742 -0.13938,0.53299 0.0529,0.65577 1.08773,0.69468 0.74764,0.0281 1.22277,-0.10917 1.17247,-0.33874 -0.0465,-0.2123 0.15356,-0.45762 0.4446,-0.54515 0.427,-0.12842 0.43676,-0.0944 0.0505,0.17639 -0.62461,0.43788 0.0174,0.84999 0.88778,0.56988 0.35705,-0.11491 -1.17643,0.77186 -3.40775,1.97061 -2.23132,1.19873 -4.12574,2.24738 -4.20982,2.33032 -0.0841,0.0829 0.0216,0.32522 0.23475,0.53841 0.28163,0.28163 0.70925,0.14672 1.56398,-0.4934 1.67344,-1.25328 3.42987,-2.08872 3.84801,-1.8303 0.19683,0.12165 0.54936,0.0721 0.78339,-0.11005 0.57813,-0.45003 2.71858,0.1578 2.71858,0.772 0,0.26473 -0.24819,0.57657 -0.55153,0.69297 -0.30334,0.11641 -0.4573,0.36411 -0.34213,0.55045 0.11517,0.18634 -0.47009,0.50533 -1.30056,0.70887 -3.31317,0.81199 -5.21412,1.4811 -5.21412,1.8353 0,0.2173 0.25722,0.26561 0.61737,0.11596 1.97317,-0.81993 4.00653,-1.23006 6.09845,-1.23006 2.05039,0 2.44896,0.10714 2.95273,0.79375 l 0.58239,0.79375 -0.37538,-0.79375 c -0.25565,-0.54059 -0.2589,-0.79375 -0.0102,-0.79375 0.20086,0 0.36519,0.15875 0.36519,0.35277 0,0.19403 0.22327,0.35278 0.49614,0.35278 0.70725,0 0.29588,1.30621 -0.47484,1.50776 -0.43645,0.11413 -0.60049,0.47359 -0.55616,1.21872 0.0513,0.86281 -0.055,1.02603 -0.57911,0.88897 -0.35309,-0.0923 -0.57459,-0.27692 -0.49223,-0.41019 0.27972,-0.45259 -5.39605,-0.22467 -5.85587,0.23515 -0.35168,0.35168 -0.20919,0.44015 0.70891,0.44015 0.63198,0 1.86251,0.17965 2.7345,0.39922 1.33693,0.33664 1.61755,0.55978 1.79032,1.42364 0.11269,0.56343 0.50141,1.18312 0.86383,1.37708 0.36243,0.19396 0.65896,0.51642 0.65896,0.71657 0,0.20014 0.40301,0.89228 0.89558,1.53807 1.47476,1.9335 1.99955,7.46986 0.84045,8.86648 -0.19232,0.23173 -0.32531,0.55711 -0.29552,0.72305 0.13052,0.72718 -0.0946,1.07006 -1.08773,1.65672 -0.58209,0.34384 -1.05834,0.85244 -1.05834,1.13022 0,0.31644 -0.52699,0.58932 -1.41111,0.7307 -0.77611,0.1241 -1.41111,0.41581 -1.41111,0.64823 0,0.80991 -1.61568,1.95668 -2.75677,1.95668 -1.34916,0 -1.38165,-0.2271 -0.26739,-1.86905 0.74701,-1.10079 0.78937,-1.31758 0.3317,-1.69742 -0.78289,-0.64973 -2.26316,0.009 -3.05115,1.35866 -0.70648,1.20965 -0.57227,2.65383 0.49079,5.28115 0.25214,0.62319 0.36623,1.22529 0.25351,1.33801 -0.32968,0.32968 -2.56354,0.6116 -2.81776,0.35562 z m -1.36766,-3.62044 c -0.0204,-0.43156 -1.02013,-2.06039 -1.02851,-1.67569 -0.0163,0.74741 0.43214,1.94028 0.72938,1.94028 0.1714,0 0.30601,-0.11907 0.29913,-0.26459 z m 10.77223,-10.49514 c 0,-3.11999 -0.0153,-3.17704 -0.88195,-3.29306 -0.48507,-0.0649 -1.03275,-0.26338 -1.21708,-0.44098 -0.71021,-0.68428 -2.51682,-0.33819 -3.47942,0.66654 -0.81841,0.85424 -0.94794,1.28547 -0.94794,3.15575 0,2.0023 0.0735,2.20559 0.97014,2.68507 0.61189,0.3272 1.8169,0.49715 3.26319,0.46022 l 2.29306,-0.0585 z m -12.7,1.94028 c 0.6257,-0.69139 0.61617,-0.70555 -0.47449,-0.70555 -1.04678,0 -1.47718,0.57657 -0.87783,1.17592 0.38042,0.38043 0.67513,0.27792 1.35232,-0.47037 z m 1.05833,-13.3286 c 0.38805,-0.60946 1.02305,-1.12538 1.41111,-1.1465 l 0.70556,-0.0384 -0.70556,-0.30319 c -0.38806,-0.16675 -1.22149,-0.31434 -1.85208,-0.32798 -1.13036,-0.0244 -1.14653,-0.002 -1.14653,1.5921 0,1.87679 0.49101,1.94605 1.5875,0.22395 z m 13.05278,-2.19362 c 0.11991,-0.19403 0.0499,-0.35278 -0.15557,-0.35278 -0.20548,0 -0.3736,0.15875 -0.3736,0.35278 0,0.19403 0.07,0.35278 0.15557,0.35278 0.0856,0 0.25368,-0.15875 0.3736,-0.35278 z m -12.00951,-0.3284 c 0.35417,-0.57307 -0.28926,-0.63337 -1.92522,-0.18041 l -1.5875,0.43954 1.65488,0.0346 c 0.91018,0.019 1.74621,-0.11314 1.85784,-0.29376 z m 3.50106,-7.27465 c 0.12047,-0.31394 0.0613,-0.45555 -0.13865,-0.33195 -0.1918,0.11854 -0.34874,0.36491 -0.34874,0.54749 0,0.50744 0.25286,0.39562 0.48739,-0.21554 z m 28.4403898,34.82162 c 0,-0.16396 0.34208,-0.60052 0.76017,-0.97014 l 0.76016,-0.67204 -0.62435,0.97014 c -0.64377,1.00032 -0.89598,1.18949 -0.89598,0.67204 z m -41.9805498,-2.11255 c 0,-1.00248 0.15571,-1.82269 0.34602,-1.82269 0.20841,0 0.2588,0.66646 0.12669,1.6757 -0.29837,2.27947 -0.47271,2.33369 -0.47271,0.14699 z m 3.04474,0.47736 c 0.12047,-0.31394 0.44557,-0.52331 0.72245,-0.46528 0.8133,0.17046 0.7112,0.80131 -0.14948,0.92357 -0.6066,0.0862 -0.74073,-0.0211 -0.57297,-0.45829 z m -7.27268,-4.3077 c 0.003,-0.15697 0.15929,-0.52353 0.34738,-0.81457 0.29471,-0.45603 0.34272,-0.44672 0.34738,0.0674 0.003,0.3281 -0.15335,0.69466 -0.34738,0.81457 -0.19403,0.11992 -0.35035,0.0896 -0.34738,-0.0674 z m 37.3890498,-1.8729 c 0,-0.19403 0.16812,-0.35278 0.3736,-0.35278 0.20548,0 0.27548,0.15875 0.15556,0.35278 -0.11991,0.19402 -0.28803,0.35277 -0.37359,0.35277 -0.0856,0 -0.15557,-0.15875 -0.15557,-0.35277 z m -31.2807898,-1.55848 c 0.12999,-0.33874 0.23877,-1.03947 0.24174,-1.55718 0.006,-1.07345 0.54183,-2.09916 0.90604,-1.73494 0.31278,0.31278 -0.53793,3.38503 -1.01978,3.68284 -0.22612,0.13974 -0.27468,-0.008 -0.128,-0.39072 z m -1.31939,-1.67376 c -0.13897,-0.86907 -0.0854,-1.61776 0.1313,-1.83444 0.25295,-0.25295 0.3661,0.20088 0.3661,1.46834 0,1.00895 -0.0591,1.83445 -0.1313,1.83445 -0.0722,0 -0.23696,-0.66076 -0.3661,-1.46835 z m -0.32128,-6.46915 c 0.23128,-1.88346 0.37553,-2.29306 0.80761,-2.29306 0.52974,0 0.43353,0.69429 -0.31777,2.29306 l -0.66311,1.41111 z m 4.34646,-2.93982 c 0,-0.80845 0.14877,-1.4699 0.3306,-1.4699 0.18313,0 0.23953,0.5901 0.12645,1.32291 -0.28267,1.83181 -0.45705,1.88789 -0.45705,0.14699 z m -0.65247,-4.99833 c 0.33162,-0.95128 1.00524,-1.78046 1.00524,-1.23738 0,0.32184 -1.05368,2.29636 -1.22543,2.29636 -0.0819,0 0.0172,-0.47654 0.22019,-1.05898 z m -2.52253,-4.37695 c 0,-0.0672 0.23812,-0.31975 0.52916,-0.56129 0.30501,-0.25314 0.52917,-0.28742 0.52917,-0.0809 0,0.19703 -0.23812,0.44961 -0.52917,0.56129 -0.29104,0.11168 -0.52916,0.14811 -0.52916,0.0809 z m 4.95179,-0.0321 c -0.005,-0.19403 0.38098,-0.82903 0.85811,-1.41112 0.47712,-0.58208 0.87321,-0.86874 0.88019,-0.63703 0.007,0.23172 -0.37917,0.86672 -0.85811,1.41111 -0.47894,0.5444 -0.87503,0.83106 -0.88019,0.63704 z m 9.95094,-8.64979 c 0.43137,-0.69072 0.70995,-0.64963 0.82311,0.1214 0.0361,0.24587 -0.22804,0.46915 -0.58694,0.49619 -0.55405,0.0417 -0.5897,-0.0515 -0.23617,-0.61759 z m -12.97353,-2.28633 c -0.0909,-0.29104 -0.22703,-0.73425 -0.30246,-0.98492 -0.0754,-0.25066 0.0651,-0.7323 0.31223,-1.0703 0.33812,-0.46241 0.36012,-0.96619 0.0889,-2.03486 -0.26635,-1.04933 -0.24635,-1.63362 0.0766,-2.23699 0.32516,-0.60757 0.33753,-1.00269 0.0483,-1.54314 -0.21384,-0.39955 -0.38879,-1.27051 -0.38879,-1.93546 0,-1.09936 0.08,-1.1937 0.88194,-1.04039 0.81054,0.15494 1.27689,0.79189 0.5798,0.79189 -0.16618,0 -0.28525,0.47589 -0.26459,1.05753 0.0207,0.58164 0.15663,1.05789 0.30215,1.05834 0.14552,3.5e-4 0.26458,0.58311 0.26458,1.29482 0,0.71171 0.17242,2.28411 0.38315,3.49422 0.28028,1.60948 0.27695,2.39864 -0.0124,2.93931 -0.45684,0.85362 -1.72595,0.98892 -1.96931,0.20995 z m 16.76802,-0.84031 c 0,-0.19402 0.15875,-0.45088 0.35278,-0.5708 0.19403,-0.11992 0.35278,-0.0593 0.35278,0.13475 0,0.19403 -0.15875,0.45089 -0.35278,0.5708 -0.19403,0.11992 -0.35278,0.0593 -0.35278,-0.13475 z m -8.08909,-2.58686 c 0.0136,-0.44339 0.16122,-1.12366 0.32798,-1.51172 0.27939,-0.65017 0.30513,-0.65413 0.32798,-0.0504 0.0155,0.40845 0.209,0.58442 0.51404,0.46737 0.75007,-0.28783 0.26479,1.11981 -0.53331,1.54694 -0.55902,0.29918 -0.65765,0.22914 -0.63669,-0.45214 z m 0.92225,-6.627 c 0.0994,-2.42534 0.0191,-5.91784 -0.1785,-7.76111 -0.29745,-2.77455 -0.27121,-3.4887 0.1524,-4.14915 0.4038,-0.62956 0.71398,-0.7497 1.47107,-0.5698 2.05778,0.48899 4.16201,1.28924 4.74275,1.80368 0.56104,0.49699 0.41009,0.63456 -1.94028,1.76813 -1.40176,0.67607 -2.58081,1.25613 -2.62011,1.28903 -0.0393,0.0329 -0.21266,0.96026 -0.38524,2.06081 -0.32499,2.07245 -0.061,2.84501 0.85246,2.49449 0.28876,-0.11081 0.48618,0.0436 0.48618,0.38035 0,0.3118 0.19844,0.57261 0.44097,0.57959 0.24254,0.007 -0.0353,0.40604 -0.61736,0.88681 -0.79227,0.65437 -0.94294,0.94745 -0.59931,1.16582 0.36681,0.23309 0.37315,0.48017 0.0316,1.22986 -0.23509,0.51599 -0.56026,0.93816 -0.72259,0.93816 -0.16233,0 -0.52006,0.51594 -0.79496,1.14653 -0.45554,1.04496 -0.48381,0.75588 -0.31904,-3.2632 z m -10.11927,-2.60264 c 0,-0.26728 0.23812,-0.68359 0.52916,-0.92513 0.4475,-0.37139 0.52917,-0.29638 0.52917,0.48597 0,0.58716 -0.19332,0.92514 -0.52917,0.92514 -0.29104,0 -0.52916,-0.21869 -0.52916,-0.48598 z m -10.58332,-21.0543 c 0,-0.20548 0.15875,-0.27548 0.35278,-0.15557 0.19403,0.11992 0.35278,0.28804 0.35278,0.3736 0,0.0856 -0.15875,0.15557 -0.35278,0.15557 -0.19403,0 -0.35278,-0.16812 -0.35278,-0.3736 z m 0.0279,-1.59607 c 0.0169,-0.41097 0.10052,-0.49456 0.21313,-0.21314 0.10191,0.25466 0.0894,0.55893 -0.0279,0.67616 -0.11722,0.11722 -0.2006,-0.0911 -0.18529,-0.46302 z m -1.76389,-2.46945 c 0.0169,-0.41097 0.10052,-0.49456 0.21313,-0.21314 0.10191,0.25466 0.0894,0.55894 -0.0279,0.67616 -0.11722,0.11723 -0.2006,-0.0911 -0.18528,-0.46302 z m 4.2804,-0.0294 c -0.0412,-0.42039 -0.24571,-0.82128 -0.45446,-0.89087 -0.20875,-0.0696 -0.45568,-0.91624 -0.54873,-1.88148 -0.0931,-0.96524 -0.55192,-2.54873 -1.01969,-3.51887 -0.46777,-0.97014 -0.81615,-2.20033 -0.77418,-2.73377 0.0882,-1.12061 0.60547,-1.32909 0.60547,-0.24402 0,0.39951 0.15875,0.62827 0.35278,0.50835 0.61565,-0.38049 0.38135,-1.23682 -0.44097,-1.61173 -0.63119,-0.28777 -0.78373,-0.62941 -0.74482,-1.66813 0.086,-2.29561 0.11862,-2.42338 0.61897,-2.42338 0.32118,0 0.56991,0.59091 0.71771,1.70509 0.14186,1.06942 0.40097,1.70509 0.695,1.70509 0.76729,0 1.32367,3.71027 1.19029,7.9375 -0.0674,2.13431 -0.15616,3.5366 -0.19737,3.11621 z m -5.85217,-2.77708 c -0.12099,-0.31527 -0.21997,-0.92537 -0.21997,-1.35577 0,-0.43039 -0.17983,-0.96236 -0.39962,-1.18215 -0.2198,-0.21979 -0.30415,-0.64842 -0.18747,-0.9525 0.43615,-1.13659 0.84806,-0.48466 1.04147,1.64836 0.20756,2.28896 0.1402,2.81828 -0.23441,1.84206 z m -4.94116,-7.78742 c -1.02043,-1.27885 -1.13911,-2.11559 -0.43218,-3.04686 0.94137,-1.24009 2.65842,-0.50074 2.88463,1.24211 0.0561,0.4325 0.20725,1.27585 0.3358,1.8741 0.21997,1.02372 0.17197,1.08773 -0.81564,1.08773 -0.76301,0 -1.3013,-0.31574 -1.97261,-1.15708 z m 11.38867,-8.96558 c -0.83662,-0.88332 -0.89208,-1.11924 -0.63099,-2.68423 0.15744,-0.943689 0.47199,-3.065171 0.69901,-4.714407 0.22703,-1.649236 0.5534,-3.176926 0.72528,-3.394869 0.17187,-0.217942 0.22314,-0.629133 0.11392,-0.913758 -0.28043,-0.730789 2.81642,-4.738867 3.86481,-5.001994 0.46933,-0.117796 1.30213,-0.584076 1.85066,-1.036178 0.54853,-0.452106 1.27423,-0.923072 1.61267,-1.04659 0.33844,-0.123521 0.93234,-0.745853 1.31979,-1.382959 0.38745,-0.637106 0.90429,-1.158374 1.14855,-1.158374 0.24425,0 0.59116,-0.595313 0.7709,-1.322917 0.17974,-0.727604 0.51193,-1.322917 0.73819,-1.322917 0.22627,0 0.71421,-0.595312 1.08431,-1.322916 0.37011,-0.727604 0.84532,-1.481667 1.05604,-1.675695 0.21073,-0.194028 0.58339,-1.067153 0.82814,-1.940278 0.37278,-1.329795 1.68496,-3.560398 2.49032,-4.233333 0.53756,-0.449174 5.83076,-9.872334 8.12467,-14.463889 4.65057,-9.30868 6.3053,-14.904514 6.42923,-21.741866 0.0719,-3.964135 0.55102,-4.680318 1.12969,-1.688512 0.78306,4.048492 0.0892,14.318329 -0.925,13.691499 -0.17859,-0.110377 -0.22603,0.177952 -0.10719,0.651468 0.13816,0.550457 0.0203,1.009573 -0.33475,1.304255 -0.30138,0.250123 -0.46097,0.595531 -0.35464,0.767574 0.10633,0.172042 0.0252,0.312804 -0.18027,0.312804 -0.20548,0 -0.3736,0.387506 -0.3736,0.861124 0,0.473618 -0.16521,0.963228 -0.36713,1.088023 -0.20192,0.124795 -0.27484,0.517677 -0.16204,0.873076 0.1128,0.355399 0.0417,0.747158 -0.158,0.870578 -0.21836,0.134958 -0.28899,-0.02896 -0.17718,-0.411283 0.10224,-0.349627 -0.17739,0.07869 -0.62141,0.951816 -0.44401,0.873125 -0.89585,1.666875 -1.00409,1.763889 -0.18875,0.169167 -0.58794,0.984705 -3.82794,7.820402 -0.79717,1.681847 -1.54675,3.586847 -1.66573,4.233334 -0.32777,1.780871 -1.06895,2.720728 -2.64192,3.350108 -0.83236,0.333043 -1.26019,0.673156 -1.02759,0.816913 0.56402,0.34858 0.25761,1.616887 -0.98188,4.064275 -0.58951,1.163998 -1.18413,2.592607 -1.3214,3.17469 -0.13726,0.582083 -0.44022,1.296458 -0.67325,1.5875 -0.23302,0.291042 -0.62891,1.047676 -0.87973,1.681406 -0.36713,0.927601 -0.55197,1.072621 -0.94812,0.743853 -0.39809,-0.330391 -0.44539,-0.286741 -0.24766,0.228547 0.16707,0.435381 0.11509,0.557008 -0.16427,0.384355 -0.25905,-0.160101 -0.33816,-0.06878 -0.21606,0.249417 0.10596,0.276102 -0.0149,0.720909 -0.26862,0.988463 -0.25369,0.267553 -0.69578,0.962709 -0.98242,1.544792 -0.28664,0.582084 -0.88195,1.650492 -1.32292,2.374241 -0.44096,0.723748 -0.80374,1.596873 -0.80617,1.940277 -0.004,0.508025 -3.55765,5.691583 -5.3866,7.856316 -0.2459,0.291041 -1.21449,1.76076 -2.15243,3.26604 -0.93794,1.50528 -1.80718,2.79255 -1.93164,2.86061 -0.12447,0.0681 -0.63906,-0.31205 -1.14354,-0.84468 z m 7.09085,-20.430594 c 0,-0.182577 0.15693,-0.428949 0.34874,-0.54749 0.19997,-0.123592 0.25911,0.01803 0.13864,0.331957 -0.23452,0.611159 -0.48738,0.722979 -0.48738,0.215533 z m 21.53025,-3.901376 c 0,-0.291042 0.15389,-0.767292 0.34197,-1.058334 0.30398,-0.470369 0.34198,-0.470369 0.34198,0 0,0.291042 -0.15389,0.767292 -0.34198,1.058334 -0.30397,0.470369 -0.34197,0.470369 -0.34197,0 z m 1.41153,-1.146528 c -0.006,-0.533577 0.13816,-0.970139 0.32073,-0.970139 0.6148,0 0.70737,0.596865 0.19713,1.270945 -0.48005,0.634196 -0.50723,0.618402 -0.51786,-0.300806 z m -0.11202,-18.010078 c -0.17943,-0.467582 0.5648,-2.769362 2.53195,-7.830894 1.12503,-2.894747 2.43772,-7.322221 2.65596,-8.958106 0.2317398,-1.737098 0.9877798,-5.85892 1.1716598,-6.387728 0.1012,-0.291042 0.24391,-0.990855 0.31714,-1.55514 0.13348,-1.028505 0.69564,-1.972638 1.17455,-1.972638 0.34252,0 0.15416,3.428969 -0.28289,5.150025 -0.19224,0.757 -0.31109,2.170114 -0.26413,3.140253 0.0761,1.571997 -0.93908,5.678325 -1.52627,6.173611 -0.11501,0.09701 -0.22499,0.374827 -0.2444,0.617361 -0.0801,1.001275 -0.16501,1.146528 -0.6702698,1.146528 -0.5816,0 -0.71511,0.548996 -0.20951,0.861476 0.17581,0.108659 0.23316,0.52832 0.12744,0.932586 -0.12525,0.478991 -0.2807,0.591841 -0.44626,0.32397 -0.15034,-0.243265 -0.34572,0.04735 -0.47865,0.711969 -0.12353,0.617661 -0.14363,1.254037 -0.0447,1.414167 0.099,0.160129 -0.12356,0.387473 -0.4945,0.505206 -0.46058,0.14618 -0.61696,0.433902 -0.49315,0.907344 0.0997,0.381303 0.021,0.693282 -0.17488,0.693282 -0.1959,0 -0.45072,0.24637 -0.56627,0.54749 -0.14194,0.369877 -0.0683,0.464651 0.22684,0.292136 0.24031,-0.140441 0.15912,0.06225 -0.18043,0.45043 -0.33955,0.388179 -0.61736,0.971091 -0.61736,1.295361 0,0.32427 -0.15875,0.589583 -0.35278,0.589583 -0.19403,0 -0.33398,0.119063 -0.311,0.264584 0.16828,1.065752 -0.49624,1.604137 -0.84813,0.687144 z m -48.40619,-12.883272 c -1.07571,-0.211649 -1.5875,-0.765986 -1.5875,-1.71946 0,-1.122159 0.90583,-0.977186 1.85628,0.297089 0.81687,1.095177 0.71834,1.61659 -0.26878,1.422371 z m 8.11389,-2.439822 c 0.39214,-0.360122 7.23774,-1.262653 7.51023,-0.990158 0.36326,0.363261 -1.63875,0.815933 -4.68801,1.06 -1.93341,0.154752 -3.03704,0.12744 -2.82222,-0.06984 z m 27.34028,-2.188366 c 0,-0.399506 0.15875,-0.726375 0.35278,-0.726375 0.19402,0 0.35277,0.228756 0.35277,0.508347 0,0.279591 -0.15875,0.606459 -0.35277,0.726375 -0.19403,0.119916 -0.35278,-0.10884 -0.35278,-0.508347 z m -25.4,-0.137539 c 1.37815,-0.539957 3.88055,-1.062577 3.88055,-0.810443 0,0.143524 -1.06925,0.422415 -4.23333,1.104173 -0.48507,0.104517 -0.32632,-0.02766 0.35278,-0.29373 z m 12.31557,-6.46557 c -0.30845,-0.08274 -0.90376,-0.760631 -1.32292,-1.506415 -1.73499,-3.087007 -0.54474,-4.016371 3.92882,-3.06766 1.59159,0.337531 3.40974,0.701287 4.04033,0.808347 0.63059,0.10706 1.14653,0.310554 1.14653,0.45221 0,0.498386 -1.81446,1.076363 -3.37906,1.076363 -1.18805,0 -1.63649,0.153728 -1.80091,0.617361 -0.31236,0.880773 -1.21219,1.859201 -1.66568,1.811161 -0.21246,-0.02251 -0.63866,-0.108623 -0.94711,-0.191367 z m 5.20849,-4.706281 c -2.30553,-0.614278 -3.31078,-1.058652 -2.39486,-1.058652 0.75817,0 5.48928,1.1295 6.03746,1.441378 0.91287,0.519352 -1.01854,0.31642 -3.6426,-0.382726 z m 16.34261,-5.404345 c 0,-0.255825 0.22973,-1.248012 0.51051,-2.204861 0.31404,-1.070185 0.4834,-2.982827 0.44006,-4.969793 -0.0742,-3.401928 0.16718,-3.82816 0.85943,-1.51762 0.35874,1.197351 0.56002,1.3963 1.4127,1.3963 1.88969,0 2.72015,2.808807 0.99258,3.357117 -0.54271,0.172251 -0.68751,0.541466 -0.68751,1.753081 0,2.363649 -0.21434,2.650914 -1.97802,2.650914 -1.04756,0 -1.54975,-0.150727 -1.54975,-0.465138 z"
       id="path9733"
       inkscape:connector-curvature="0" />
    <path
       style="opacity:0.903;fill:none;fill-opacity:1;stroke:none;stroke-width:3.31299996;stroke-linecap:round;stroke-linejoin:bevel;stroke-miterlimit:4;stroke-dasharray:none;stroke-dashoffset:1.21209455;stroke-opacity:1;paint-order:stroke fill markers"
       id="path9739"
       d="m -47.253043,62.204697 c -3.552155,-1.347142 -7.187448,-2.311482 -10.937764,-2.895468 -4.207248,-0.540366 -8.459641,-0.548174 -12.693962,-0.629711 -16.943358,-0.456067 -33.887891,-0.706995 -50.837161,-0.681074 -25.96833,0.465415 -51.89374,2.174436 -77.70734,5.004588 -10.15121,1.12481 -20.21446,2.789796 -30.02842,5.615366 -3.8803,1.30673 -7.94025,1.551522 -11.99334,1.726996 -2.17187,-0.0044 -4.33128,0.391637 -6.46528,0.769512 -0.37705,0.06676 -0.7477,0.300667 -1.12472,0.233733 -0.41757,-0.07413 -0.73704,-0.419785 -1.10556,-0.629679 -0.29406,-0.746107 -0.82434,-1.438447 -0.88218,-2.238322 -0.6866,-9.494806 10.52802,-19.850106 15.85675,-24.84116 7.76489,-7.272846 15.88935,-14.186853 24.37162,-20.608618 14.27467,-10.807088 29.22683,-20.6888805 43.84025,-31.0333209 17.04859,-10.2047261 33.67679,-21.1470731 51.14576,-30.6141771 48.801357,-26.44734 109.1273831,-54.09756 159.706923,-75.802102 53.706617,-23.04642 109.909077,-44.84283 164.915157,-64.72903 22.4757,-8.12558 45.17713,-15.61265 67.76571,-23.41898 55.47802,-18.15568 110.72624,-37.44764 167.2381,-52.24306 0.44156,0.10834 1.65682,0.0146 1.32466,0.32504 -4.53956,4.24249 -9.38149,8.16883 -14.3728,11.86926 -0.96743,0.71722 -2.25248,0.85302 -3.37519,1.28866 -1.3359,0.51836 -2.67864,1.02043 -4.00063,1.57333 -3.76698,1.57547 -3.6961,1.62904 -7.16679,3.44682 -0.8776,0.56817 -3.48311,2.31266 -2.63274,1.70451 3.54301,-2.53383 6.95613,-5.27827 10.71277,-7.48305 0.90664,-0.53213 -1.46177,1.52567 -2.04854,2.39797 -0.86529,1.28632 -1.5327,2.69525 -2.2882,4.04899 -10.45239,18.72949 -1.88153,3.66224 -15.5825,27.41854 -27.28793,45.76669 -57.48792,90.14866 -95.11001,128.154234 -8.89217,8.982813 -18.49202,17.23636 -27.73801,25.854541 C 239.0816,-18.253181 191.15107,10.342727 140.97669,34.083244 114.33584,46.688628 99.848132,52.107239 72.902214,62.990039 48.688907,72.204643 24.142067,80.576953 -0.74363923,87.791233 -11.516744,90.914317 -22.212174,93.570315 -33.272494,95.343886 c -1.408975,0.126672 -2.812362,0.363453 -4.226923,0.380016 -1.949137,0.02283 -3.99787,-0.756465 -2.918351,-3.157003 0.202099,-0.449411 0.623139,-0.777095 1.017902,-1.07201 4.744043,-3.544115 9.586738,-6.954215 14.380108,-10.431324 2.316147,-1.337107 4.682514,-1.518357 7.293458,-1.511353 0,0 -12.058113,10.765324 -12.058113,10.765324 v 0 c -2.489631,0.323456 -4.785447,0.783878 -6.864125,2.292067 3.937895,-2.901072 7.881184,-5.794838 11.813684,-8.70322 0.355483,-0.262906 -0.666289,0.617254 -1.082426,0.766646 -0.429123,0.154053 -1.780951,0.01418 -1.355999,0.179393 1.590731,0.618413 3.672991,0.34536 5.215906,0.340262 C -11.683666,84.159753 -2.1289828,82.202503 8.0258805,79.610372 32.070944,73.472629 55.709748,65.806097 78.980696,57.206184 89.725181,52.9636 100.56029,48.943709 111.21415,44.478429 147.67847,29.195397 182.92574,11.655912 216.74221,-8.863177 c 9.33206,-5.662488 18.60082,-11.464682 27.45682,-17.846092 10.47758,-7.549875 20.32489,-15.937997 30.48734,-23.906996 9.17932,-8.558337 18.71831,-16.746489 27.53799,-25.675013 36.6327,-37.084782 66.18594,-80.405872 91.40986,-125.841932 2.72751,-5.25135 5.5595,-10.44973 8.18253,-15.75404 1.62137,-3.27875 3.03826,-6.65472 4.54663,-9.98697 0.62153,-1.3731 2.16807,-5.54839 3.67106,-6.78554 10.91232,-8.98228 10.36095,-8.52673 17.59144,-12.68883 3.69691,-1.78654 7.46693,-3.30571 11.23542,-4.9299 1.19123,-0.5134 4.3652,-2.60895 3.54579,-1.60338 -2.98022,3.6573 -6.81257,6.52832 -10.21885,9.79248 0.0614,-0.0804 0.12282,-0.16077 0.18423,-0.24115 -11.3671,1.20793 -22.67828,3.98805 -33.73485,6.72121 -41.19946,10.18441 -81.9236,22.25343 -122.30811,35.27245 -22.58836,7.80654 -45.2896,15.29383 -67.76509,23.41961 -55.00536,19.88661 -111.207899,41.68365 -164.913682,64.73058 -52.7932049,22.655325 -110.529122,49.030259 -160.963348,77.043993 -18.39598,10.218065 -35.80158,22.125338 -53.70237,33.1880081 -23.27278,16.7776199 -33.45494,22.5991429 -52.95119,41.5634499 -4.60266,4.477075 -14.69803,14.214239 -13.36003,22.636427 2.68639,-0.0555 5.33989,-0.942586 8.05247,-0.740762 3.93662,-0.211545 7.83119,-0.713237 11.61909,-1.858759 9.50906,-2.396035 19.2771,-3.378454 29.01821,-4.34227 25.63705,-2.081996 51.33029,-3.304545 77.03261,-4.246158 17.593267,-0.377018 35.189077,-0.611693 52.782236,-0.997034 4.348901,-0.01778 8.724852,-0.06746 13.025046,0.68975 3.834611,0.713801 7.543514,1.837237 11.283249,2.931782 0,0 -12.739754,10.52296 -12.739754,10.52296 z"
       inkscape:connector-curvature="0" />
  </g>
</svg>
