<?xml version="1.0" encoding="UTF-8"?>
<!DOCTYPE svg PUBLIC "-//W3C//DTD SVG 1.1//EN" "http://www.w3.org/Graphics/SVG/1.1/DTD/svg11.dtd">
<svg version="1.1" xmlns="http://www.w3.org/2000/svg" xmlns:xlink="http://www.w3.org/1999/xlink" x="0" y="0" width="746" height="497" viewBox="0, 0, 746, 497">
  <g id="ãƒ_x00ac_ã_x201a__x00a4_ãƒ_x00a4_ãƒ_x00bc__x0020_1">
    <path d="M553.47,226.528 C550.95,226.528 548.574,225.088 547.494,222.567 C546.054,219.255 547.566,215.367 550.878,213.927 L697.975,149.701 L729.943,13.687 C730.807,10.159 734.263,7.927 737.791,8.791 C741.319,9.583 743.479,13.111 742.687,16.639 L709.927,155.821 C709.423,157.837 708.055,159.493 706.183,160.357 L556.062,225.88 C555.198,226.24 554.334,226.384 553.398,226.384 z" fill="#E6E6E8"/>
    <path d="M610.062,202.263 L656.07,182.174 L649.374,170.797 L603.294,190.886 z" fill="#000000"/>
    <path d="M733.903,54.009 L724.255,37.736 L716.551,70.353 L726.199,86.626 z" fill="#000000"/>
    <path d="M705.607,114.923 L697.975,149.557 L672.415,160.717 L679.183,172.093 L706.255,160.285 C708.127,159.493 709.567,157.765 709.999,155.749 L715.255,131.196 L705.607,114.923 z" fill="#000000"/>
    <path d="M580.254,200.967 L550.878,213.783 C547.566,215.223 546.054,219.111 547.494,222.423 C548.574,224.872 550.95,226.384 553.47,226.384 C554.334,226.384 555.198,226.168 556.134,225.88 L587.022,212.415 L580.326,201.039 z" fill="#000000"/>
    <path d="M414.22,267.353 C410.836,267.353 407.956,264.761 407.74,261.377 L389.596,51.561 L335.812,133.356 C333.868,136.38 329.764,137.244 326.74,135.228 C323.716,133.284 322.852,129.18 324.868,126.156 L389.02,28.52 C390.532,26.216 393.412,25.136 396.076,25.712 C398.812,26.432 400.756,28.736 400.972,31.472 L420.772,260.081 C421.06,263.681 418.396,266.849 414.796,267.209 C414.58,267.281 414.436,267.281 414.22,267.281 z" fill="#000000"/>
    <path d="M239.547,97.066 C181.442,67.185 129.026,123.276 126.506,163.237 C123.986,203.127 151.418,288.018 188.858,275.49 C226.299,263.033 305.499,130.98 239.475,97.066 z" fill="#000000"/>
    <path d="M8.857,293.274 C8.209,293.274 7.561,293.202 6.913,292.986 C3.457,291.906 1.513,288.234 2.593,284.778 L88.561,7.711 C89.281,5.263 91.441,3.535 93.961,3.175 C96.482,2.887 99.002,3.967 100.37,6.127 L171.938,117.227 C173.882,120.251 173.018,124.356 169.994,126.3 C166.898,128.244 162.866,127.38 160.922,124.356 L96.914,25.064 L15.121,288.738 C14.257,291.546 11.665,293.346 8.857,293.346 z" fill="#000000"/>
    <path d="M168.914,257.993 L122.186,494.234 L191.378,263.033 z" fill="#000000"/>
    <path d="M190.73,239.344 C190.73,259.073 208.227,275.202 230.043,275.202 C251.859,275.202 269.355,259.145 269.355,239.344 C269.355,219.615 251.859,203.487 230.043,203.487 C208.227,203.487 190.73,219.615 190.73,239.344 z" fill="#FFFFFF"/>
    <path d="M230.043,280.746 C205.274,280.746 185.186,262.169 185.186,239.344 C185.186,216.519 205.274,197.87 230.043,197.87 C254.811,197.87 274.899,216.519 274.899,239.344 C274.899,262.169 254.811,280.746 230.043,280.746 z M230.043,209.031 L230.043,209.031 C211.467,209.031 196.274,222.639 196.274,239.344 C196.274,256.049 211.395,269.585 230.043,269.585 C248.619,269.585 263.811,256.049 263.811,239.344 C263.811,222.639 248.691,209.031 230.043,209.031 z" fill="#000000"/>
    <path d="M207.867,239.344 C207.867,250.505 217.731,259.577 230.043,259.577 C242.355,259.577 252.219,250.505 252.219,239.344 C252.219,228.184 242.355,219.039 230.043,219.039 C217.731,219.039 207.867,228.184 207.867,239.344 z" fill="#000000"/>
    <path d="M88.705,226.528 C88.705,246.04 106.058,261.953 127.586,261.953 C149.114,261.953 166.466,246.04 166.466,226.528 C166.466,206.943 149.114,190.958 127.586,190.958 C106.058,190.958 88.705,206.871 88.705,226.528 z" fill="#FFFFFF"/>
    <path d="M127.586,267.425 C103.106,267.425 83.161,249.064 83.161,226.528 C83.161,203.919 103.106,185.486 127.586,185.486 C152.066,185.486 171.938,203.919 171.938,226.528 C171.938,249.064 151.994,267.425 127.586,267.425 z M127.586,196.502 L127.586,196.502 C109.154,196.502 94.177,209.967 94.177,226.528 C94.177,243.016 109.154,256.409 127.586,256.409 C145.946,256.409 160.922,242.944 160.922,226.528 C160.922,209.967 145.946,196.502 127.586,196.502 z" fill="#000000"/>
    <path d="M104.186,226.528 C104.186,238.192 114.626,247.768 127.586,247.768 C140.546,247.768 150.986,238.192 150.986,226.528 C150.986,214.719 140.546,205.143 127.586,205.143 C114.626,205.143 104.186,214.719 104.186,226.528 z" fill="#000000"/>
    <path d="M247.035,98.939 C274.179,89.578 549.942,57.249 587.598,67.833 C625.254,78.346 660.103,140.556 494.645,143.508 C329.26,146.532 216.867,109.307 246.963,98.939 z" fill="#C1C1C1"/>
    <path d="M618.99,262.169 C658.591,188.438 404.716,144.804 352.876,112.043 C303.555,80.866 194.762,71.865 206.858,106.571 C218.955,141.276 593.934,308.971 619.062,262.169 z" fill="#E6E6E8"/>
    <path d="M339.7,185.054 L373.324,121.763 C365.116,118.379 357.844,115.139 352.804,111.971 C348.34,109.163 343.372,106.571 338.044,104.195 L304.131,168.061 C315.435,173.678 327.388,179.294 339.7,184.982 z" fill="#000000"/>
    <path d="M438.557,144.3 C425.092,139.98 412.204,135.876 400.612,131.916 L366.052,197.006 C378.004,202.263 390.1,207.519 402.34,212.559 L438.557,144.3 z" fill="#000000"/>
    <path d="M504.221,166.045 C491.693,161.653 479.021,157.333 466.421,153.229 L429.196,223.359 C441.725,228.328 454.109,233.008 466.277,237.4 L504.221,165.973 z" fill="#000000"/>
    <path d="M592.71,206.367 L561.102,265.985 C591.846,272.321 613.518,272.249 618.99,262.169 C630.222,241.288 617.406,222.855 592.71,206.367 z" fill="#000000"/>
    <path d="M310.755,94.114 C259.203,79.066 197.498,79.93 206.786,106.499 C209.955,115.571 238.179,133.86 278.427,154.957 L310.755,94.042 z" fill="#000000"/>
    <path d="M567.726,191.894 C556.638,186.422 544.397,181.238 531.509,176.198 L493.853,247.12 C507.245,251.585 520.133,255.545 532.157,258.857 L567.726,191.894 z" fill="#000000"/>
    <path d="M277.779,99.731 C306.075,94.834 583.494,106.571 618.99,122.916 C654.487,139.26 679.039,206.223 515.237,182.966 C351.436,159.709 246.387,105.131 277.779,99.659 z" fill="#939393"/>
    <path d="M618.99,443.472 C617.262,443.472 615.606,442.824 614.31,441.528 L509.189,333.668 C508.253,332.732 507.677,331.508 507.389,330.212 L462.821,73.45 L352.732,159.565 C349.852,161.797 345.82,161.365 343.516,158.485 C341.284,155.605 341.788,151.501 344.668,149.269 L463.397,56.457 C465.197,55.089 467.717,54.729 469.805,55.521 C471.965,56.313 473.549,58.257 473.909,60.489 L519.989,326.036 L623.67,432.456 C626.19,435.048 626.118,439.224 623.526,441.744 C622.23,442.968 620.574,443.616 618.918,443.616 z" fill="#000000"/>
    <path d="M315.939,421.583 C315.867,421.583 315.723,421.583 315.651,421.583 C312.051,421.367 309.243,418.343 309.459,414.671 L327.748,45.44 L246.027,127.812 C243.435,130.476 239.331,130.404 236.739,127.884 C234.147,125.364 234.147,121.187 236.739,118.667 L330.484,24.2 C332.428,22.256 335.308,21.68 337.756,22.832 C340.276,23.912 341.788,26.432 341.644,29.168 L322.564,415.463 C322.42,418.991 319.467,421.727 316.011,421.727 z" fill="#000000"/>
  </g>
</svg>
