<?xml version="1.0" encoding="utf-8"?>
<!DOCTYPE svg PUBLIC "-//W3C//DTD SVG 1.1//EN" "http://www.w3.org/Graphics/SVG/1.1/DTD/svg11.dtd">
<svg version="1.1" id="Layer_1" xmlns="http://www.w3.org/2000/svg" xmlns:xlink="http://www.w3.org/1999/xlink" x="0px" y="0px"
	 viewBox="242.1451 -35.8681 1053.8549 2023.1056" enable-background="new 242.1451 -35.8681 1053.8549 2023.1056"
	 xml:space="preserve">
<g>
	<path stroke="#000000" stroke-width="0.0938" d="M723.61,54.32c41.48-2.24,83.09-2.17,124.58-0.04c4.67,13.75,7.74,28,10.84,42.16
		c2.8799,14.26,6.59,28.35,9.4,42.64c7.64,37.12,14.27,74.45,22.32,111.49c-20.29,4.55-41.07,7.83-60.38,15.87
		c-4.74,2.1-9.52,4.22-13.78,7.19c-7.47,5.82-11.77,15.46-20.8701,19.17c-4.36,2.02-9.21-0.1-12.59-3
		c-7.36-6.27-11.98-15.36-20.34-20.53c-15.06-9.76-33.21-12.91-50.75-14.84c-7.81-0.99-15.71-0.76-23.53-1.6
		c9.03-53.21,18.14-106.41,27.35-159.6C718.08,80.2,720.11,67.08,723.61,54.32z"/>
	<path fill="#F15A25" stroke="#F15A25" stroke-width="0.0938" d="M710,96c1.88-1.07,4.51-0.86,5.86-2.77
		c-9.21,53.19-18.32,106.39-27.35,159.6c7.82,0.84,15.72,0.61,23.53,1.6c17.54,1.93,35.69,5.08,50.75,14.84
		c8.36,5.17,12.98,14.26,20.34,20.53c3.38,2.9,8.23,5.02,12.59,3c9.1-3.71,13.4-13.35,20.8701-19.17
		c4.2599-2.97,9.04-5.09,13.78-7.19c19.31-8.04,40.09-11.32,60.38-15.87c-8.05-37.04-14.68-74.37-22.32-111.49
		c-2.81-14.29-6.52-28.38-9.4-42.64c2.79,0.21,5.66,0.77,7.8799,2.62c15.98,12.86,34.15,22.62,52.54,31.56l0.29,0.58
		c9.18,17.4,16.43,35.7,24.37,53.68c7.22,16,10.58,33.62,10.67,51.14c0.02,6.17,0.4,12.52-1.76,18.42
		c-1.79,5.2-3.2,11.43,0.15,16.32c3.5,4.98,8.62,8.68,11.55,14.11c2.7401,5.52,3.0601,12.46,0.14,17.98
		c-2.29,4.5-4.45,9.15-5.11,14.2c-1.25,8.77-3.65,17.31-5.09,26.05c-1.52,9.08-2.99,18.19-5.44,27.07
		c-1.31,4.73-4.49,8.71-5.6,13.51c-1.82,7.83-1.75,15.94-3.34,23.81c-1.95,10.24-4.89,20.3-6.02,30.7
		c-0.53,5.8-2.49,11.31-4.47,16.75c-1.38,3.67-1.92,7.59-1.78,11.5c-11.32-0.98-22.68-1.37-34.01-0.53
		c-24.02,0-48.04-0.48-72.06-0.53c-16.35,0.05-32.67-0.78-49.01-0.69c-25.64-0.28-51.29,0.02-76.91-1
		c-8.08-0.13-15.96-2.62-24.07-1.99c-7.07,0.64-13.79-2.02-20.77-2.44c-0.26-3.82-0.44-7.64-0.74-11.46
		c-0.36-4.99-1.42-9.96-3.84-14.38c-2.61-4.77-3.15-10.25-4.47-15.43c-1.36-6.66-3.67-13.14-4.19-19.95
		c-0.44-5.19-0.11-10.41-0.53-15.6c-1.04-10.54-4.54-20.58-6.72-30.89c-1.69-7.63-1.25-15.5-2.17-23.22
		c-0.54-10.28-10.01-17.82-9.15-28.4c-0.09-5.54,2.27-10.7,5.64-14.97c1.83-2.94,5.13-5.86,4.09-9.68
		c-2.33-14.31-1.2599-28.87-0.54-43.27c1.84-23.84,4.6-47.65,9.31-71.11c1.73-10.02,6.98-19.06,13.31-26.87
		c4.41-5.37,10.03-9.66,16.2-12.81c5.03-2.52,10.68-3.46,15.7-6.02c5.86-2.87,10.11-7.99,15.38-11.72
		C702.2,100.84,705.96,98.17,710,96z"/>
	<path stroke="#000000" stroke-width="0.0938" d="M919.74,131.2c5.55,0.12,10.78,2.18,15.92,4.09c10.73,4.02,20.86,9.45,31.58,13.49
		c5.34,2.75,12.56,5.01,14.06,11.63c2.43,9.98,2.09,20.37,1.97,30.56c-0.45,9.17-0.6,18.4-2.06,27.49
		c-2.71,15.24-5.73,30.43-9.54,45.44c-1.89,7.11-3.76,14.3-6.95,20.97c-2.93-5.43-8.05-9.13-11.55-14.11
		c-3.35-4.89-1.94-11.12-0.15-16.32c2.16-5.9,1.78-12.25,1.76-18.42c-0.09-17.52-3.45-35.14-10.67-51.14
		C936.17,166.9,928.92,148.6,919.74,131.2z"/>
	<path stroke="#000000" stroke-width="0.0938" d="M605.68,148.73c14.6-6.39,29.62-12.49,45.5-14.7
		c-6.33,7.81-11.58,16.85-13.31,26.87c-4.71,23.46-7.47,47.27-9.31,71.11c-0.72,14.4-1.79,28.96,0.54,43.27
		c1.04,3.82-2.2599,6.74-4.09,9.68c-3.37,4.27-5.73,9.43-5.64,14.97c-5.04-4.38-7.2-10.92-9.48-16.97
		c-5.81-16.9-9.45-34.44-12.9-51.94c-4.47-23.66-8.19-47.48-10.42-71.45C592.19,154.79,599.09,151.89,605.68,148.73z"/>
	<path fill="#F8931F" stroke="#F8931F" stroke-width="0.0938" d="M650.44,447.8c0.3,3.82,0.48,7.64,0.74,11.46
		c6.98,0.42,13.7,3.08,20.77,2.44c8.11-0.63,15.99,1.86,24.07,1.99c25.62,1.02,51.27,0.72,76.91,1c16.34-0.09,32.66,0.74,49.01,0.69
		c24.02,0.05,48.04,0.53,72.06,0.53c11.33-0.84,22.69-0.45,34.01,0.53c-0.14-3.91,0.4-7.83,1.78-11.5
		c-1.18,5.33-1.07,10.81,0.41,16.07c-0.27,11.01-2.61,21.89-2.39,32.93c0.01,9.26-0.14,18.52-0.02,27.79
		c-10.93,0.03-21.86-0.56-32.78,0.14c-14.33,0.85-28.67-0.12-43.01-0.21c-18.69,0-37.32-2.2-56.02-1.86
		c-11.66-0.62-23.3,0.74-34.96,0.08c-11.68-0.07-23.33-0.71-35-1.25c-24.18-0.18-48.35-1.01-72.53-0.97
		c1.75-8.06,1.72-16.41,2.52-24.61c0.94-8.58-1.06-17.15-3.71-25.26c-1.27-4.45-2.93-9.06-2.14-13.76
		C651.03,458.66,650.62,453.21,650.44,447.8z"/>
	<path fill="#F15A25" stroke="#F15A25" stroke-width="0.0938" d="M653.49,527.66c24.18-0.04,48.35,0.79,72.53,0.97
		c11.67,0.54,23.32,1.18,35,1.25c11.66,0.66,23.3-0.7,34.96-0.08c18.7-0.34,37.33,1.86,56.02,1.86c14.34,0.09,28.68,1.06,43.01,0.21
		c10.92-0.7,21.85-0.11,32.78-0.14c1.6,9.88,8.06,17.83,13.93,25.57c8.66,10.97,15.6201,23.14,22.95,35.01
		c19.69,33.25,38.39,67.08,57.25,100.8c8.72,16.33,17.31,32.72,25.7601,49.2c6.37,12.27,11.5,25.13,17.4099,37.62
		c2.65,5.49,6.54,10.25,9.38,15.65c5.91,10,10.41,20.75,16.17,30.84c4.5599,6.7,8.0699,14.02,11.86,21.18
		c9.97,19.44,19.59,39.05,29.12,58.71c3.11,6.71,5.58,13.69,8.64,20.42c4.88,11.72,11.34,22.67,16.84,34.1
		c9.0801,19.61,18.01,39.3,27.2101,58.87c3.83,8.2599,7.85,16.44,11.1299,24.95c5.2001,13.5499,12.3501,26.22,18.65,39.27
		c11.75,25.4199,23.8,50.73,34.25,76.72c0.9,2.03,1.36,4.22,1.52,6.45c-25.62,18.01-58.49,20.4501-84.5699,37.52
		c-0.77,5.55,3.99,9.96,3.1599,15.59c-18.98,9.49-39.01,16.7301-59.26,22.99c-12.71,3.75-25.73,6.38-38.34,10.4601
		c-11.53,3.5399-22.35,9.24-34.2,11.73c-10.7001,2.3099-21.86-0.12-32.48,2.75c-7.4,1.92-12.73,8.25-20.22,9.92
		c-4.31,0.83-8.66-0.3101-12.97-0.17c-6.61,0.45-12.43,4.09-18.92,5.08c-5.67,1.05-11.36-0.51-17.04-0.1899
		c-10.38,0.76-20.66,2.4299-30.97,3.72c-22.55,3.26-45.4,2.27-68.09,1.96c-8.43-0.1799-16.86-0.2999-25.28-0.62
		c-13.68-0.25-27.34,0.4501-41.01,0.5901c-23.23,0.2899-46.67,1.48-69.68-2.42c-10.92-1.75-21.89-3.7-32.98-3.59
		c-12.33-0.14-24.7,0.7999-37-0.29c-13.8-1.3099-26.03-8.37-39.29-11.76c-7-1.87-14.43-1.99-21.14-4.9299
		c-13.71-5.65-28.58,0.1699-42.72-2.3301c-4.45-1.2999-8.35-4.11-12.91-5.08c-3.92-0.91-8.06-0.71-11.87-2.03
		c-3.94-2.33-5.63-7.1899-9.8-9.22c-6.08-2.9401-12.68-4.5801-18.97-6.97c-12.86-4.76-26.49-7.4301-38.89-13.4
		c-5.53-2.59-9.63-7.5701-15.42-9.64c-6.91-1.5601-14.11,1.1899-20.98-0.83c-9.69-2.8201-19.19-6.7101-27.63-12.29
		c-4.23-2.52-4.91-7.77-7.58-11.52c-3.45-4.87-8.48-8.24-13.37-11.48c-8.15-5.15-16.74-9.55-25.43-13.6801
		c-10.01-4.7-20.81-7.7899-30.15-13.84c-3.1-1.99-5.98-5.29-5.53-9.22c0.22-6.15,6.36-9.9601,7.39-15.87
		c1.24-4.49-3.93-8.13-1.93-12.55c8.91-19.1,20.83-36.59,30.32-55.38c9.54-17.91,18.6-36.0699,28.07-54
		c7.21-11.75,13.31-24.11,19.63-36.35c7.14-12.71,13.78-25.7,20.3-38.74c6.4-13.02,13.58-25.64,20.64-38.31
		c27.87-49.75,55.58-99.6,83.85-149.13c23.7-35.94,46.75-72.31,71.51-107.54c21.82-31.15,44.76-61.54,69.44-90.5
		C642.84,539.56,647.87,533.33,653.49,527.66z"/>
	<path stroke="#000000" stroke-width="0.0938" d="M769.67,1288.42c13.67-0.14,27.33-0.8401,41.01-0.5901
		c0.32,27.0601,0.79,54.14-0.13,81.2001c0.02,3.5-0.26,7.46,1.94,10.4399c1.94,2.61,5.42,2.8101,8.39,3.25
		c-1.37,6.6801-5.13,12.48-7.44,18.8201c-1.31,3.27-0.8,7.64,2.46,9.58c1.47,0.87,3.15,1.35,4.64,2.23
		c0.47,1.62,0.51,4.01-1.39,4.73c-3.02,1.2201-6.52,1.4401-8.94,3.89c2.62,3.92,8.31,5.5901,8.85,10.87
		c0.56,5.66,2.08,11.89,7.67,14.62c7.84-4.34,16.28-7.84,25.18-9.1699c17.61-2.41,36.25,3.2999,49.16,15.59
		c8.86,8,14.58,18.92,17.77,30.3099c1.17,4.5601,2.65,9.41,1.46,14.13c-2.56,7.6101-8.76,13.5-15.77,17.15
		c-10.25,5.37-22.04,8.12-33.61,7.03c-3.74-0.46-7.82-1.02-10.56-3.85c-4.33-4.14-7.53-9.26-10.85-14.1901
		c-2.27-3.34-3.29-7.49-2.28-11.45c6.18-0.04,11.34,3.77,17.03,5.61c6.39,2.09,12.89,4.4,19.69,4.6c5.9-0.2,11.89-2.13,16.52-5.86
		c3.2-2.53,5.13-7.16,3.17-11.02c-2.46-4.9199-7.68-7.5699-12.48-9.6899c-11.62-4.79-24.59-7.51-37.09-5.04
		c-7.15,1.3-14.35,6.0701-15.8,13.62c-1.26,7.98,1.2,16.28,5.29,23.17c11.96,19.6,33.44,31.4299,44.05,52.0499
		c12.05,21.16,20.51,44.4801,23.76,68.66c6.23,49.1-0.96,98.8101,5.43,147.89c2.32,14.83,4.92,30.61,14.39,42.77
		c2.3,3.64,1.26,8.16,2.4,12.16c2.5,8.3099,8.42,15.1899,15.31,20.2899c13.72,10.1,31.54,13.35,48.25,11.35
		c18.25-1.6399,36.51-9.88,47.47-24.98c11.59-15.38,13.3199-36.5299,7.22-54.45c-1.71-4.7001-2.95-9.54-4.61-14.24
		c-1.58-4.6901-5.51-7.92-8.75-11.4301c-6.27-6.7-13.63-12.76-22.4-15.7899c-6.85-2.4701-14.63-1.91-21.2,1.1499
		c-8.52,3.91-15.89,10.67-19.96,19.17c-2.77,5.64-3.09,12.5601-0.1,18.2c3.32,6.9401,10.32,11,17.17,13.8401
		c10.15,4.1499,21.28,7.33,29.06,15.5599c-1.69,3.29-4.29,6.25-7.85,7.53c-7.17,2.6899-15.04,0.87-22.04-1.4401
		c-14.69-4.9299-27.22-14.3199-39.52-23.45c-5.46-3.88-6.1-11.14-6.15-17.27c-0.22-8.49,1.35-17.22,6-24.4399
		c8.13-12.98,22.2-21.04,36.63-25.15c15.23-4.25,31.48-4.49,46.9401-1.34c13.0199,2.72,26.2,8.72,34.1,19.85
		c4.99,7.33,7.6799,15.89,11.09,24.02c8.24,19.85,9.63,42.33,4.76,63.2c-4.98,20.7001-17.16,39.83-34.63,52.17
		c-12.92,9.09-28.73,13.1599-44.33,14.13c-24.65,1.62-50.12-3.3101-71.42-16.12c-12.89-7.6901-23.74-18.6001-31.77-31.24
		c-10.76-16.91-17.39-36.2001-20.96-55.8501c-4.47-24.47-4.87-49.48-3.89-74.2699c1.04-26.3,3.76-52.7101,0.98-79
		c-2.07-19.9701-7.61-39.78-17.79-57.1801c-11.66-20.03-28.77-36.33-47.31-49.99c-5.07,35.23-11.18,70.51-11.1,106.22
		c-0.15,15.4,2.46,30.64,3,46.02c1.16,26.3,2.23,52.6801,0.61,79c-1.06,16.35-2.19,33.0601-8.03,48.54
		c-1.95,5.11-4.65,9.9199-7.94,14.2899c-7.58-7.36-10.97-17.7899-13.01-27.88c-3.85-20.75-4.57-41.9199-4.86-62.97
		c-0.07-26.73,1.53-53.4299,3.96-80.04c2.23-25.0599,0.11-50.25-3.54-75.0699c-2.34-15.9301-5.07-31.8099-7.04-47.8
		c-9.4,5.9901-17.22,14.01-25,21.9c-10.14,9.8101-18.96,21.0701-25.49,33.61c-8.85,16.8101-13.42,35.61-14.9,54.4801
		c-2.25,28.3099,0.54,56.6499,1.42,84.95c1.08,24.83,0.07,49.95-5.55,74.24c-3.93,17.01-10.24,33.65-20.03,48.1801
		c-8.59,12.8099-20.08,23.72-33.52,31.33c-20.14,11.53-43.83,15.86-66.85,14.71c-17.65-0.8199-35.6-5.65-49.68-16.6799
		c-23.51-17.6901-34.69-48.04-34.16-76.8201c-0.09-13.39,3.71-26.39,8.2-38.87c3.01-7.86,6.37-15.71,11.28-22.58
		c8.42-10.74,21.66-16.4301,34.76-19.01c18.5-3.46,38.18-1.87,55.55,5.5699c10.51,4.55,20.26,11.6901,26.25,21.61
		c5.64,9.2401,7.16,20.6001,5.1801,31.16c-0.57,3.88-2.07,7.78-5.1801,10.35c-7.49,6.4401-15.8799,11.79-24.53,16.52
		c-9.5,5.02-19.72,9.9401-30.71,9.78c-5.98,0.05-11.76-3.39-14.18-8.92c7.76-7.87,18.68-10.7999,28.42-15.35
		c6.9-3.16,14.16-7.04,18.05-13.86c3.71-6.41,2.41-14.48-1.02-20.7c-6.59-12.0801-20.26-20.86-34.29-19.3401
		c-9.73,1.05-18.23,6.8101-25.06,13.53c-5.35,5.4401-11.25,10.91-13.6,18.4301c-3.91,11.7999-7.62,24.09-6.6,36.6799
		c0.84,14.63,8.06,28.67,19.42,37.92c16.05,13.15,37.94,18.22,58.32,15.4c13.92-2.03,27.94-7.9501,36.99-19.0601
		c3.66-4.6699,6.84-10.12,7.31-16.14c0.36-3.1,0.42-6.39,2.28-9.02c6.87-10,10.24-21.8899,12.59-33.6599
		c4.59-24.16,4.11-48.88,3.96-73.37c-0.22-28-0.38-56.11,2.98-83.9601c1.78-16.35,7.36-31.99,13.85-47
		c4.42-10.1599,9.09-20.2899,15.31-29.48c9.77-14.35,25-23.88,34.79-38.21c3.83-5.61,7.1-11.72,8.72-18.35
		c1.2401-5.29,1.02-11.37-2.42-15.8201c-4.18-5.47-11.18-7.74-17.78-8.4199c-10.99-0.9-22.11,1.4299-32.16,5.84
		c-4.64,2.33-9.65,4.91-12.43,9.49c-2.17,3.41-0.46,7.66,2.24,10.21c4.62,4.38,10.9,7.4,17.38,7.0901
		c7.29-0.2001,14.06-3.2401,20.84-5.5801c5.2-1.73,10.03-4.6799,15.56-5.26c2.49,6.3-2.23,12.14-5.7,16.99
		c-3.51,4.6001-6.59,10.86-12.84,12.02c-12.27,2.36-25.23,0.23-36.43-5.2c-6.86-3.29-12.88-8.49-16.78-15.05
		c-3.15-5.62-0.93-12.33,0.73-18.0699c3.82-13.5901,11.9-26.1,23.4-34.42c9.27-6.83,20.81-9.87,32.18-10.5599
		c12.55-0.76,25.7,1.8099,35.95,9.4299c6.23-2.1899,6.68-9.37,8.14-14.7999c0.9301-4.62,4.76-7.63,8.29-10.3301
		c-1.75-3.99-6.87-2.87-9.75-5.38c-0.93-1.2999-0.39-2.87-0.18-4.26c3.7-1.0499,7.61-3.61,7.73-7.87
		c-0.6-8.3099-7.55-14.5499-8.33-22.84c3.27,0.09,7.39,0.0601,8.92-3.46c3.5699-8.1001,1.92-17.23,1.91-25.79
		C769.62,1331.47,769.66,1309.9399,769.67,1288.42z"/>
</g>
</svg>
