<?xml version="1.0" encoding="utf-8"?>
<!-- Generator: Adobe Illustrator 15.1.0, SVG Export Plug-In . SVG Version: 6.00 Build 0)  -->
<!DOCTYPE svg PUBLIC "-//W3C//DTD SVG 1.1//EN" "http://www.w3.org/Graphics/SVG/1.1/DTD/svg11.dtd">
<svg version="1.1" id="Capa_2" xmlns="http://www.w3.org/2000/svg" xmlns:xlink="http://www.w3.org/1999/xlink" x="0px" y="0px"
	 width="800px" height="800px" viewBox="0 0 800 800" enable-background="new 0 0 800 800" xml:space="preserve">
<g>
	<g>
		<g>
			<path fill="#FFFFFF" d="M120.596,798c-5.544,0-9.596-4.066-9.596-9.077V13.51c0-5.011,4.052-9.51,9.596-9.51H684.47
				C690.014,4,695,8.499,695,13.51v775.413c0,5.011-4.986,9.077-10.53,9.077H120.596z"/>
			<path d="M684.516,8.029c3.874,0,6.484,2.141,6.484,5.481v775.413c0,3.341-2.656,7.077-6.53,7.077H120.596
				c-3.874,0-7.596-3.736-7.596-7.077V13.51c0-3.34,3.722-5.51,7.596-5.51H685 M684.47,2H120.596C113.369,2,107,6.818,107,13.51
				v775.413c0,6.691,6.369,13.077,13.596,13.077H684.47c7.226,0,12.53-6.386,12.53-13.077V13.51C697,6.818,691.675,2,684.449,2
				H684.47z"/>
		</g>
		<g>
			<g>
				<g>
					<path fill="#C60101" d="M153.953,54.75c-0.658,0-1.134,0.106-1.427,0.318c-0.294,0.212-0.559,0.588-0.792,1.13l-3.242,8.511
						c-0.259,0.777-0.388,1.331-0.388,1.66c0,0.611,0.159,1.13,0.476,1.554c0.317,0.424,0.741,0.766,1.269,1.025
						c0.529,0.258,1.134,0.453,1.815,0.582c0.682,0.13,1.374,0.218,2.079,0.265c0.353,0,0.599,0.128,0.739,0.382
						c0.141,0.254,0.212,0.521,0.212,0.798c0,0.301-0.071,0.579-0.212,0.833c-0.141,0.254-0.387,0.382-0.739,0.382
						c-0.564,0-1.187-0.03-1.867-0.088c-0.682-0.059-1.381-0.124-2.097-0.194c-0.717-0.07-1.438-0.136-2.167-0.193
						c-0.728-0.059-1.421-0.088-2.079-0.088c-1.245,0-2.448,0.094-3.611,0.282c-1.163,0.188-2.414,0.282-3.752,0.282
						c-0.283,0-0.506-0.14-0.669-0.417c-0.165-0.278-0.248-0.579-0.248-0.903c0-0.254,0.065-0.486,0.194-0.694
						c0.129-0.208,0.347-0.336,0.652-0.382l1.092-0.141c0.728-0.164,1.38-0.364,1.956-0.599c0.575-0.235,1.122-0.582,1.639-1.041
						c0.516-0.458,1.009-1.082,1.479-1.868c0.47-0.788,0.963-1.816,1.48-3.086l16.314-41.078c0.141-0.399,0.528-0.6,1.163-0.6
						c0.657,0,1.186,0.2,1.585,0.6c1.197,3.08,2.483,6.376,3.857,9.89c1.375,3.515,2.778,7.088,4.211,10.719
						c1.433,3.631,2.872,7.24,4.316,10.824c1.445,3.585,2.824,6.976,4.14,10.173c0.563,1.387,1.116,2.463,1.656,3.227
						c0.54,0.765,1.092,1.346,1.655,1.745c0.564,0.4,1.14,0.67,1.727,0.812c0.586,0.141,1.21,0.282,1.868,0.423
						c0.281,0.046,0.486,0.197,0.616,0.451c0.129,0.255,0.194,0.521,0.194,0.799c0,0.301-0.06,0.568-0.176,0.799
						c-0.119,0.23-0.307,0.347-0.564,0.347c-0.751,0-1.497-0.024-2.237-0.07c-0.74-0.047-1.475-0.119-2.202-0.212
						c-0.705-0.094-1.457-0.164-2.255-0.211c-0.798-0.046-1.645-0.07-2.537-0.07c-2.043,0-3.946,0.094-5.708,0.282
						c-1.762,0.188-3.466,0.282-5.109,0.282c-0.329,0-0.581-0.128-0.757-0.382s-0.265-0.556-0.265-0.903
						c0-0.277,0.071-0.521,0.212-0.729c0.141-0.208,0.388-0.336,0.739-0.382c1.645-0.212,2.842-0.506,3.595-0.883
						c0.775-0.376,1.163-1.177,1.163-2.401c0-0.33-0.036-0.711-0.106-1.147c-0.07-0.436-0.224-1.031-0.458-1.784
						c-0.235-0.753-0.569-1.719-1.004-2.896c-0.435-1.177-1.017-2.672-1.744-4.485c-0.234-0.635-0.557-1.036-0.969-1.201
						c-0.411-0.165-1.074-0.247-1.99-0.247H153.953z M166.39,51.931c0.657,0,1.11-0.111,1.356-0.335
						c0.247-0.223,0.252-0.616,0.018-1.18l-6.306-16.877c-0.095-0.258-0.283-0.388-0.564-0.388s-0.47,0.129-0.563,0.388
						l-6.589,16.877c-0.235,0.611-0.259,1.016-0.071,1.215c0.188,0.2,0.553,0.3,1.093,0.3H166.39z"/>
				</g>
			</g>
			<g>
				<g>
					<path fill="#C60101" d="M643.095,742.687c0.658,0,1.134-0.106,1.427-0.319c0.294-0.212,0.559-0.588,0.793-1.129l3.242-8.512
						c0.258-0.777,0.388-1.33,0.388-1.66c0-0.611-0.158-1.13-0.476-1.554c-0.317-0.423-0.74-0.767-1.269-1.024
						c-0.53-0.259-1.133-0.453-1.814-0.582c-0.682-0.13-1.375-0.219-2.079-0.265c-0.353,0-0.6-0.128-0.739-0.384
						c-0.143-0.253-0.212-0.521-0.212-0.797c0-0.301,0.069-0.58,0.212-0.833c0.14-0.256,0.387-0.384,0.739-0.384
						c0.564,0,1.187,0.031,1.867,0.089c0.682,0.059,1.381,0.124,2.097,0.194c0.717,0.069,1.438,0.136,2.166,0.192
						c0.729,0.06,1.422,0.089,2.08,0.089c1.245,0,2.448-0.094,3.611-0.281c1.162-0.188,2.413-0.283,3.752-0.283
						c0.282,0,0.505,0.14,0.67,0.418c0.164,0.277,0.247,0.578,0.247,0.902c0,0.255-0.065,0.486-0.194,0.693
						c-0.129,0.208-0.347,0.336-0.653,0.384l-1.091,0.14c-0.729,0.165-1.38,0.364-1.956,0.6s-1.121,0.582-1.639,1.04
						c-0.516,0.459-1.009,1.081-1.479,1.869c-0.471,0.787-0.963,1.815-1.481,3.086l-16.313,41.078
						c-0.141,0.398-0.529,0.599-1.163,0.599c-0.658,0-1.186-0.2-1.586-0.599c-1.197-3.081-2.484-6.378-3.856-9.892
						c-1.375-3.514-2.778-7.088-4.211-10.719c-1.434-3.631-2.872-7.24-4.316-10.825c-1.445-3.585-2.824-6.976-4.141-10.173
						c-0.563-1.387-1.115-2.462-1.656-3.226c-0.539-0.764-1.092-1.346-1.656-1.746c-0.563-0.399-1.138-0.67-1.726-0.811
						c-0.586-0.141-1.21-0.282-1.868-0.422c-0.281-0.048-0.485-0.198-0.616-0.452c-0.129-0.256-0.193-0.521-0.193-0.799
						c0-0.302,0.059-0.568,0.176-0.799s0.307-0.348,0.564-0.348c0.751,0,1.497,0.023,2.236,0.071
						c0.74,0.047,1.475,0.118,2.203,0.212c0.705,0.093,1.456,0.164,2.255,0.211c0.798,0.047,1.645,0.07,2.537,0.07
						c2.043,0,3.945-0.094,5.707-0.281c1.762-0.188,3.465-0.283,5.109-0.283c0.329,0,0.581,0.128,0.757,0.384
						c0.177,0.253,0.266,0.555,0.266,0.901c0,0.277-0.071,0.521-0.213,0.729c-0.14,0.208-0.387,0.336-0.738,0.384
						c-1.645,0.21-2.842,0.505-3.595,0.882c-0.775,0.377-1.163,1.178-1.163,2.402c0,0.329,0.035,0.711,0.105,1.147
						c0.07,0.436,0.225,1.029,0.459,1.783s0.569,1.72,1.003,2.896c0.436,1.177,1.018,2.673,1.744,4.486
						c0.235,0.635,0.559,1.035,0.971,1.2c0.41,0.165,1.074,0.248,1.99,0.248H643.095z M630.657,745.505
						c-0.658,0-1.11,0.111-1.356,0.334c-0.247,0.224-0.253,0.617-0.019,1.181l6.308,16.877c0.094,0.258,0.283,0.388,0.564,0.388
						s0.47-0.13,0.563-0.388l6.589-16.877c0.235-0.61,0.259-1.017,0.069-1.215c-0.187-0.2-0.551-0.3-1.092-0.3H630.657z"/>
				</g>
			</g>
		</g>
	</g>
	<path fill-rule="evenodd" clip-rule="evenodd" fill="#BD0000" d="M386.623,537.893c5.262-1.699-7.004,3.841-3.396,11.318
		c18.419,6.268,29.717-16.765,27.166-36.22c-1.013-7.719-5.499-14.422-10.187-20.373c-27.876-35.405-113.273-45.2-148.273-79.232
		C178.707,342.19,331.125,229.677,394.547,300.2c6.365-26.549,31.726-36.522,66.778-35.088
		c57.098,2.336,106.019,46.759,110.924,103.001c2.069,23.743-6.116,46.706-16.979,59.988
		c-36.829,45.04-105.366,56.489-143.747,101.867c-3.447,12.957-15.361,29.785-29.427,21.505
		C379.151,545.698,382.084,539.563,386.623,537.893z"/>
	<g>
		<path fill-rule="evenodd" clip-rule="evenodd" fill="#BD0000" d="M160.723,141.886c0.985-0.318-1.312,0.719-0.635,2.12
			c3.449,1.173,5.565-3.14,5.087-6.784c-0.19-1.445-1.03-2.701-1.908-3.816c-5.22-6.631-21.213-8.465-27.769-14.839
			c-13.714-13.334,14.832-34.406,26.708-21.197c1.192-4.972,5.943-6.84,12.507-6.572c10.692,0.438,19.855,8.757,20.774,19.29
			c0.387,4.449-1.146,8.748-3.181,11.235c-6.896,8.436-19.733,10.58-26.921,19.078c-0.646,2.427-2.876,5.579-5.511,4.028
			C159.324,143.348,159.873,142.198,160.723,141.886z"/>
		<path fill-rule="evenodd" clip-rule="evenodd" fill="#BD0000" d="M635.376,663.403c-0.986,0.317,1.312-0.719,0.635-2.12
			c-3.448-1.174-5.565,3.141-5.087,6.783c0.19,1.445,1.03,2.701,1.908,3.816c5.22,6.63,21.213,8.464,27.768,14.839
			c13.715,13.334-14.831,34.405-26.708,21.197c-1.192,4.973-5.942,6.84-12.507,6.572c-10.692-0.438-19.855-8.758-20.774-19.29
			c-0.387-4.449,1.146-8.749,3.181-11.236c6.896-8.435,19.732-10.58,26.921-19.077c0.646-2.427,2.876-5.579,5.511-4.028
			C636.774,661.941,636.226,663.092,635.376,663.403z"/>
	</g>
	<g>
		<path fill-rule="evenodd" clip-rule="evenodd" fill="#BD0000" d="M160.723,141.886c0.985-0.318-1.312,0.719-0.635,2.12
			c3.449,1.173,5.565-3.14,5.087-6.784c-0.19-1.445-1.03-2.701-1.908-3.816c-5.22-6.631-21.213-8.465-27.769-14.839
			c-13.714-13.334,14.832-34.406,26.708-21.197c1.192-4.972,5.943-6.84,12.507-6.572c10.692,0.438,19.855,8.757,20.774,19.29
			c0.387,4.449-1.146,8.748-3.181,11.235c-6.896,8.436-19.733,10.58-26.921,19.078c-0.646,2.427-2.876,5.579-5.511,4.028
			C159.324,143.348,159.873,142.198,160.723,141.886z"/>
		<path fill-rule="evenodd" clip-rule="evenodd" fill="#BD0000" d="M635.376,663.403c-0.986,0.317,1.312-0.719,0.635-2.12
			c-3.448-1.174-5.565,3.141-5.087,6.783c0.19,1.445,1.03,2.701,1.908,3.816c5.22,6.63,21.213,8.464,27.768,14.839
			c13.715,13.334-14.831,34.405-26.708,21.197c-1.192,4.973-5.942,6.84-12.507,6.572c-10.692-0.438-19.855-8.758-20.774-19.29
			c-0.387-4.449,1.146-8.749,3.181-11.236c6.896-8.435,19.732-10.58,26.921-19.077c0.646-2.427,2.876-5.579,5.511-4.028
			C636.774,661.941,636.226,663.092,635.376,663.403z"/>
	</g>
</g>
</svg>
