<?xml version="1.0" encoding="utf-8"?>
<!-- Generator: Adobe Illustrator 17.0.0, SVG Export Plug-In . SVG Version: 6.00 Build 0)  -->
<!DOCTYPE svg PUBLIC "-//W3C//DTD SVG 1.1//EN" "http://www.w3.org/Graphics/SVG/1.1/DTD/svg11.dtd">
<svg
    xmlns="http://www.w3.org/2000/svg"
    xmlns:xlink="http://www.w3.org/1999/xlink"
    xmlns:svg="http://www.w3.org/2000/svg"
    xmlns:inkscape="http://www.inkscape.org/namespaces/inkscape"
    xmlns:sodipodi="http://sodipodi.sourceforge.net/DTD/sodipodi-0.dtd"
    xmlns:ns1="http://sozi.baierouge.fr"
    xmlns:dc="http://purl.org/dc/elements/1.1/"
    xmlns:cc="http://web.resource.org/cc/"
    xmlns:rdf="http://www.w3.org/1999/02/22-rdf-syntax-ns#"
    version="1.1"
    id="Layer_1"
    x="0px"
    y="0px"
    width="620.767px"
    height="589.535px"
    viewBox="0 0 620.767 589.535"
    enable-background="new 0 0 620.767 589.535"
    xml:space="preserve"
  >
<g
    >
	<g
        id="XMLID_8_"
      >
		<g
        >
			<path
            fill="#FFFFFF"
            d="M402.945,305.062c1.694,4.51,3.071,8.201,4.688,12.512c-1.276,1.19-2.679,2.832-4.412,4.022     c-5.486,3.765-11.818,5.345-18.276,6.382c-4.286,0.684-8.608,1.126-13.514,1.758c-0.973-3.236-2.022-6.801-3.172-10.682     C380.81,316.349,392.895,313.794,402.945,305.062z"
        />
			<path
            fill="#E8CFBF"
            d="M386.347,360.058c-0.049-2.642,0-5.298-0.165-7.94c-0.126-1.856-2.679-2.73-4.182-1.39     c-0.822,0.733-1.417,1.847-1.782,2.896c-0.671,1.933-1.175,3.93-1.619,5.928c-0.706,3.261-2.755,5.372-5.839,7.179     c-0.518-0.859-1.313-1.568-1.301-2.249c0.138-4.375,0.39-8.722,3.476-12.299c0.733-0.847,1.086-2.01,1.669-2.997     c1.249-2.071,2.501-4.133,3.817-6.155c2.01-3.123,3.135-6.434,2.35-10.339c4.752-0.948,9.468-1.896,14.701-2.945     c7.67,9.315,12.438,20.071,12.892,32.523c-0.316,0.101-0.632,0.202-0.948,0.289c-0.481-1.022-0.871-2.111-1.454-3.084     c-0.721-1.212-1.945-1.972-3.197-1.187c-0.543,0.341-0.684,1.795-0.555,2.679c0.175,1.252,0.783,2.427,1.175,3.654     c1.568,4.878,0.997,9.618-1.062,14.208c-0.481,1.099-1.328,2.034-2.402,3.614c0.077-6.434,0.178-12.033,0.19-17.644     c0.012-1.405-0.076-2.832-0.368-4.197c-0.417-1.997-1.605-2.807-3.209-2.479c-2.01,0.393-1.834,1.923-1.607,3.313     c1.049,6.648,1.024,13.272-0.025,19.908c-0.276,1.77-0.822,3.501-1.061,5.283c-0.393,2.73-1.857,4.36-4.789,5.093     c-0.911-2.338-1.316-4.728-0.227-6.94c3.777-7.71,3.639-15.886,3.274-24.117c-0.027-0.516,0.049-1.123-0.215-1.504     c-0.457-0.669-1.089-1.58-1.733-1.656c-0.681-0.074-1.783,0.506-2.148,1.126c-0.481,0.81-0.531,1.933-0.558,2.92     c-0.138,4.222,0.04,8.468-0.353,12.652c-0.417,4.651-1.832,9.026-6.155,12.741c-0.546-3.298-0.886-5.992,0.074-8.848     C384.97,372.254,386.486,366.302,386.347,360.058z"
        />
			<g
          >
				<path
              fill="#D6B4A1"
              d="M403.797,365.277c0-0.617,0.091-1.178,0.254-1.676c-0.022-0.79-0.044-1.578-0.052-2.363      c-0.005-0.548,0.084-1.034,0.21-1.491c-0.259,0.042-0.521,0.081-0.81,0.081c-0.689,0-1.289-0.133-1.832-0.336      c0.156,0.318,0.289,0.681,0.378,1.108c0.289,1.365,0.378,2.792,0.365,4.197c-0.012,5.611-0.114,11.211-0.19,17.644      c0.306-0.447,0.585-0.834,0.849-1.197C403.945,376.009,403.804,370.607,403.797,365.277z"
          />
				<path
              fill="#D6B4A1"
              d="M386.384,352.119c0.165,2.642,0.114,5.298,0.165,7.94c0.138,6.243-1.38,12.196-3.338,18.037      c-0.943,2.802-0.632,5.448-0.106,8.66c1.187-4.876,2.58-9.739,3.308-14.672c0.81-5.486,0.706-10.956,2.02-16.365      c0.126-0.518,0.37-0.906,0.674-1.195c-0.153-0.133-0.318-0.254-0.462-0.398c-1.185-1.19-2.049-3.086-2.306-4.723      c-0.528-0.341-1.022-0.79-1.449-1.373c0.59,0.805-0.222,0.04-1.099,0.086c-1.18,0.067-2.321,0.338-3.441,0.726      c-0.309,0.106-0.625,0.227-0.946,0.356c-0.025,0.025-0.047,0.049-0.072,0.074c-0.844,2.982-1.133,6.159-2.18,9.07      c-1.094,3.042-2.526,5.587-4.668,7.703c0.165,0.22,0.331,0.447,0.477,0.686c3.083-1.807,5.13-3.918,5.839-7.179      c0.442-1.997,0.948-3.995,1.617-5.928c0.368-1.049,0.96-2.163,1.783-2.896C383.706,349.388,386.259,350.262,386.384,352.119z"
          />
				<path
              fill="#D6B4A1"
              d="M391.302,391.705c0.496-2.308,0.894-4.634,1.578-6.895c1.002-3.321,2.442-6.592,2.4-10.124      c-0.064-5.466-0.817-10.988,0.565-16.321c-0.309-0.178-0.593-0.383-0.842-0.622c-0.595-0.025-1.188-0.158-1.755-0.383      c-0.044,0.195-0.079,0.392-0.121,0.588c0.358,0.343,0.689,0.817,0.955,1.212c0.267,0.38,0.19,0.988,0.215,1.504      c0.368,8.231,0.506,16.407-3.274,24.117c-1.086,2.212-0.681,4.602,0.227,6.94C391.27,391.715,391.285,391.71,391.302,391.705z"
          />
				<path
              fill="#D6B4A1"
              d="M408.033,356.431c0.652-0.111,1.323-0.106,1.977,0.007c-1.508-10.016-5.89-18.864-12.339-26.692      c-5.234,1.049-9.947,1.997-14.699,2.945c0.123,0.62,0.185,1.22,0.217,1.81c5.1-1.733,13.139-1.622,17.303,2.17      c3.55,3.234,5.478,9.132,6.118,14.195C408.142,352.212,408.616,354.501,408.033,356.431z"
          />
			</g
        >
			<path
            fill="#E8CFBF"
            d="M367.97,122.93c-1.101,0.189-2.288,0.404-3.755,0.67c-0.202-1.858-0.368-3.451-0.555-5.384     c1.01-0.354,1.694-0.594,2.476-0.86C366.743,119.214,367.299,120.908,367.97,122.93z"
        />
			<path
            fill="#E8CFBF"
            d="M363.04,111.794c-0.721-2.566,1.568-3.046,2.59-3.855c3.819-3.034,9.152-1.441,9.961,2.907     c0.531,2.907-0.291,5.713-3.009,8.52c0.128-1.618,0.23-2.377,0.254-3.135c0.163-3.54-1.353-5.069-4.955-4.93     c-0.886,0.038-1.758,0.24-2.642,0.329C364.519,111.706,363.81,111.744,363.04,111.794z"
        />
			<path
            fill="#B2D235"
            d="M360.221,501.638c1.819-1.669,2.451-1.491,4.108,0.405c2.945,3.362,5.89,6.722,8.823,10.112     c0.39,0.467,0.973,1.074,0.936,1.568c-0.267,3.071,2.047,3.955,4.145,4.802c3.792,1.503,7.722,2.666,11.502,4.184     c1.847,0.746,2.958,2.338,3.123,4.461c0.405,5.486,0.859,10.959,1.301,16.484c-1.718,1.617-3.678,2.148-5.979,2.135     c-8.962-0.037-17.178-2.933-24.937-6.977c-5.068-2.629-7.307-6.713-6.283-12.376c0.405-2.237,0.481-4.587,0.341-6.875     c-0.151-2.451-1.061-3.375-3.501-3.78c-3.525-0.607-5.979-2.958-8.305-5.258c-1.58-1.568-1.037-3.817,0.064-5.636     c3.096-0.23,5.777-0.368,8.431-0.62C356.327,504.053,358.413,503.307,360.221,501.638z"
        />
			<path
            fill="#AEE0E8"
            d="M368.158,453.518c1.948,5.081,1.202,11.413-1.783,15.346c-1.148,1.528-2.412,2.982-3.651,4.449     c-1.417,1.656-2.782,2.933-5.449,2.54c-1.731-0.267-3.666,0.899-5.523,1.442c-7.611,2.224-15.321,3.108-23.169,1.516     c-6.219-1.264-9.241-4.538-10.063-10.858C336.128,466.207,352.851,462.252,368.158,453.518z"
        />
			<path
            fill="#E8CFBF"
            d="M355.33,483.259c0.795,3.73,1.516,7.483,2.375,11.213c0.518,2.301,0.089,3.639-1.859,4.866     c-2.844,1.783-7.52,1.543-10.036-0.733c-0.746-0.681-1.276-1.871-1.427-2.908c-0.546-3.765-0.886-7.557-1.316-11.388     c3.78-1.086,7.648-2.212,11.692-3.375C354.913,481.565,355.152,482.412,355.33,483.259z"
        />
			<path
            fill="#FFFFFF"
            d="M400.834,299.347c0.657,1.644,0.101,2.555-1.264,3.516c-6.271,4.436-13.171,7.456-20.656,9.063     c-3.866,0.834-7.784,1.326-11.993,2.034c-0.469-1.328-0.948-2.35-1.202-3.424c-2.832-12.376-5.51-24.789-8.456-37.15     c-2.148-8.974-4.676-17.861-6.952-26.798c-0.758-2.982-1.239-6.029-1.859-9.051c-0.289-1.428-0.202-2.667,0.684-3.994     c1.276-1.908,2.16-4.07,3.261-6.104c0.681-1.264,1.743-2.01,3.172-1.315c3.538,1.719,6.927,1.315,10.428-0.872     c4.728,8.076,9.517,15.547,13.576,23.397c3.753,7.28,6.863,14.901,9.999,22.485C393.45,280.488,397.067,289.955,400.834,299.347z     "
        />
			<path
            d="M355.076,201.804c0.254,2.452,0.555,5.018-0.758,7.306c-0.368,0.038-0.733,0.075-1.086,0.114     c-0.672-2.149-1.568-4.26-1.973-6.459c-1.516-8.431-2.896-16.887-4.31-25.331c-0.126-0.759-0.405-1.593-0.202-2.276     c0.291-1.011,0.884-2.654,1.466-2.704c1.049-0.076,2.402,0.568,3.209,1.352c0.62,0.607,0.733,1.871,0.849,2.856     C353.244,185.03,354.217,193.411,355.076,201.804z"
        />
			<path
            fill="#FFFFFF"
            d="M238.232,75.973c0.835,0.291,1.921,0.088,2.819-0.164c0.555-0.152,0.936-0.847,1.452-1.201     c2.414-1.631,4.678-3.691,7.32-4.753c12.855-5.156,26.391-7.457,40.095-8.316c9.707-0.607,19.464-0.165,29.198-0.216     c2.488-0.012,4.992-0.075,7.483-0.114c0.025-0.367,0.049-0.733,0.062-1.1c-5.51-2.111-11.248-3.211-17.15-3.527     c-11.161-0.594-22.261-0.025-33.308,1.77c-10.643,1.719-21.184,3.868-31.245,7.786c-3.236,1.264-6.574,3.072-7.369,7.192     C237.385,74.367,237.005,75.53,238.232,75.973z M366.706,98.939c-0.279-1.656-0.647-3.059-0.748-4.487     c-0.617-8.659-4.562-15.965-9.428-22.828c-1.454-2.048-3.488-3.754-5.473-5.347c-1.086-0.885-2.605-1.226-4.323-1.997     c-0.037,2.958,1.731,4.31,2.92,5.802c3.614,4.563,6.584,9.468,8.821,14.827c1.871,4.475,2.96,8.987,1.252,13.816     c-0.417,1.15-0.304,2.49-0.479,4.235c-3.274-2.225-6.283-4.26-9.418-6.396c1.694-2.187,3.325-4.133,2.718-6.813     c-0.304-1.34-0.506-2.945-1.353-3.868c-4.081-4.373-8.949-7.635-14.825-9.176c-0.444-0.114-0.948-0.038-2.239-0.076     c1.163,1.391,1.822,2.401,2.693,3.172c2.098,1.896,4.298,3.678,6.458,5.486c2.73,2.275,4.261,5.005,3.375,8.873     c-4.246-1.858-8.342-3.943-12.64-5.435c-3.464-1.188-7.154-1.921-10.793-2.376c-5.461-0.683-10.959-1.201-16.444-1.302     c-8.103-0.151-15.978,1.289-23.777,3.704c-9.354,2.895-18.38,6.434-26.872,11.249c-3.338,1.884-6.624,3.919-9.633,6.282     c-4.019,3.172-7.759,6.687-11.564,10.124c-1.417,1.277-2.669,2.731-4.185,4.311c-4.108-1.049-7.636-3.324-10.075-6.901     c-2.957-4.323-5.663-8.836-8.253-13.399c-0.859-1.517-1.252-3.388-1.454-5.144c-0.279-2.528-0.178-5.107-0.264-7.673     c-0.267-7.382,3.059-13.272,7.722-18.606c5.246-5.979,10.705-11.756,17.481-16.053c3.666-2.326,7.33-4.74,11.25-6.522     c9.808-4.462,19.73-8.798,30.499-10.353c6.725-0.973,13.511-1.491,20.276-2.187c1.896-0.202,3.804-0.316,5.775-0.48     c-0.025-0.796-0.049-1.352-0.074-2.098c9.176,0.228,18.227,0.809,26.998,3.577c1.592,0.493,3.212,0.91,4.829,1.289     c2.261,0.519,4.157,1.58,6.13,2.844c1.681,1.088,4.375,0.48,6.332,1.302c6.587,2.755,12.349,6.775,16.874,12.387     c3.135,3.893,6.271,7.786,9.241,11.806c4.133,5.625,4.108,11.97,2.503,18.353c-0.81,3.198-2.39,6.206-3.614,9.316     C371.799,95.059,369.651,97.018,366.706,98.939z M244.93,82.305c-3.841-1.112-6.661-0.872-8.922,1.833     c-4.375,5.233-8.28,10.769-10.29,17.392c-0.405,1.34-0.252,2.844-0.353,4.273c0.39,0.101,0.783,0.215,1.175,0.316     c1.605-2.882,3.084-5.853,4.866-8.633c1.859-2.895,3.817-5.777,6.093-8.356C239.597,86.754,242.175,84.795,244.93,82.305z      M305.325,75.315c2.123,0.025,4.311,0.328,6.787-1.049c-3.273-2.642-6.572-3.312-10.072-3.59     c-11.087-0.847-21.666,1.441-32.094,4.854c-1.037,0.341-2.022,1.075-2.819,1.845c-1.568,1.479-2.034,3.425-1.175,4.424     c1.264,1.453,2.642,0.443,3.881-0.012c2.755-1.012,5.409-2.326,8.191-3.261C286.896,75.568,296.085,75.177,305.325,75.315z"
        />
			<path
            d="M344.927,154.062c-1.239-0.379-1.77-1.631-1.113-2.717c0.405-0.644,2.049-1.352,2.313-1.112     c0.822,0.72,1.239,1.896,2.2,3.539C346.682,153.949,345.709,154.302,344.927,154.062z"
        />
			<path
            d="M349.035,209.034c0.037,1.391-0.543,2.806-1,4.992c-0.936-1.239-1.516-1.656-1.617-2.187     c-1.921-9.265-3.829-18.53-5.639-27.82c-0.252-1.34,0.015-2.806,0.178-4.209c0.052-0.367,0.607-0.885,1-0.961     c0.39-0.075,1.034,0.202,1.276,0.531c0.417,0.619,0.681,1.365,0.896,2.085C346.835,190.466,348.756,199.617,349.035,209.034z"
        />
			<path
            d="M343.031,147.73c-0.24,0.607-1.264,0.923-2.439,1.681c-0.215-1.34-0.684-2.352-0.368-2.857     c0.355-0.581,1.429-0.708,2.187-1.024C342.651,146.277,343.258,147.174,343.031,147.73z"
        />
			<path
            d="M341.451,154.998c-0.746,0.948-1.592,2.111-3.716,1.289c-0.101-1.049-0.506-2.402-0.267-3.615     c0.227-1.163,2.288-1.516,3.286-0.695C341.703,152.761,342.335,153.861,341.451,154.998z"
        />
			<path
            fill="#FFFFFF"
            d="M335.763,122.273c1.871-1.391,4.5-0.948,6.434,0.316c0.114,0.063,0.215,0.139,0.316,0.215     c2.491,1.921,1.694,4.955,2.464,7.445c0.583,1.908,0.343,1.984-0.985,3.981c-1.2-1.757-2.2-3.792-3.703-5.296     c-1.948-1.947-4.286-0.872-6.624,0.189C332.274,125.938,333.361,124.055,335.763,122.273z"
        />
			<path
            d="M350.007,130.097c1.316,6.99-4.387,11.136-9.909,10.301c-1.745-0.252-3.451-0.783-4.614-1.061     c-3.538-2.667-6.345-5.056-6.244-9.328c0.012-0.505,0.077-1.137-0.178-1.492c-2.212-3.046-0.417-5.397,1.442-7.533     c2.427-2.768,5.32-4.854,9.354-4.184c5.473,0.923,7.925,3.274,9.189,8.785C349.388,127.076,349.716,128.593,350.007,130.097z      M333.664,129.124c2.338-1.062,4.676-2.136,6.624-0.189c1.503,1.504,2.503,3.539,3.703,5.296     c1.328-1.997,1.568-2.073,0.985-3.981c-0.77-2.49,0.027-5.524-2.464-7.445c-0.101-0.076-0.202-0.152-0.316-0.215     c-1.933-1.264-4.562-1.707-6.434-0.316C333.361,124.055,332.274,125.938,333.664,129.124z"
        />
			<path
            fill="#FFFFFF"
            d="M349.035,209.034c-0.279-9.417-2.2-18.568-4.905-27.568c-0.215-0.721-0.479-1.466-0.896-2.085     c-0.242-0.329-0.886-0.607-1.276-0.531c-0.393,0.076-0.948,0.594-1,0.961c-0.163,1.403-0.43,2.869-0.178,4.209     c1.81,9.291,3.718,18.555,5.639,27.82c0.101,0.531,0.681,0.948,1.617,2.187C348.492,211.84,349.072,210.425,349.035,209.034z      M351.259,202.765c0.405,2.199,1.301,4.31,1.973,6.459c0.353-0.038,0.718-0.076,1.086-0.114c1.313-2.288,1.012-4.854,0.758-7.306     c-0.859-8.393-1.832-16.773-2.805-25.141c-0.116-0.986-0.23-2.25-0.849-2.856c-0.807-0.784-2.16-1.428-3.209-1.352     c-0.583,0.051-1.175,1.694-1.466,2.704c-0.202,0.683,0.077,1.517,0.202,2.276C348.363,185.877,349.743,194.333,351.259,202.765z      M350.551,160.661c2.175-2.2,3.464-5.296,5.182-8.04c8.305,10.1,15.131,36.644,15.978,57.02     c-1.024,0.076-2.059,0.291-3.059,0.176c-2.565-0.265-3.387,1.391-3.881,3.363c-0.277,1.112-0.291,2.276-0.43,3.413     c-0.365,3.008-0.896,3.817-3.918,5.864c-0.822-0.391-1.718-0.847-2.654-1.239c-4.31-1.782-8.255,0.202-9.532,4.715     c-0.328,1.214-0.783,2.453-1.479,3.476c-1.77,2.629-3.16,3.021-6.268,2.225c-2.58-0.645-5.184-1.213-7.799-1.82     c-2.037,2.793-3.881,5.334-6.258,8.608c-0.138-1.542-0.328-2.212-0.227-2.832c1.252-8.355,2.819-16.672,3.755-25.052     c1.111-9.923,1.832-19.883,2.375-29.843c0.19-3.451,1.543-5.473,4.185-7.546C341.451,169.294,346.151,165.11,350.551,160.661z"
        />
			<path
            fill="#E7E7F7"
            d="M340.305,175.924c4.034-3.835,11.677-6.67,13.786-11.98c0.43-1.08,1.103-1.871,1.901-2.422     c0.42-1.64,1.775-2.802,3.39-3.272c-1.173-2.2-2.392-4.103-3.649-5.629c-1.718,2.743-3.007,5.84-5.182,8.04     c-4.399,4.449-9.1,8.633-14.03,12.488c-2.642,2.073-3.994,4.096-4.185,7.546c-0.247,4.524-0.536,9.047-0.876,13.568     C333.526,187.968,335.415,180.576,340.305,175.924z"
        />
			<path
            fill="#E7E7F7"
            d="M331.958,210.659c0.133-3.273,0.19-6.713,0.647-10.055c-0.667-0.473-1.19-1.104-1.508-1.857     c-0.331,3.934-0.696,7.866-1.136,11.791c-0.936,8.38-2.503,16.697-3.755,25.052c-0.101,0.62,0.089,1.289,0.227,2.832     c2.377-3.274,4.222-5.815,6.258-8.608c0.007,0.002,0.015,0.003,0.022,0.005C331.934,223.462,331.699,217.03,331.958,210.659z"
        />
			<path
            fill="#E7E7F7"
            d="M360.544,210.289c-2.042-4.888-4.167-9.747-6.135-14.661c0.222,2.059,0.457,4.116,0.667,6.176     c0.254,2.452,0.555,5.018-0.758,7.306c-0.025,0.002-0.047,0.005-0.072,0.007c0.894,3.948,1.899,7.877,2.775,11.831     c0.247,0.078,0.496,0.167,0.748,0.27c0.936,0.392,1.832,0.848,2.654,1.239c2.456-1.664,3.259-2.529,3.674-4.403     C362.87,215.488,361.643,212.92,360.544,210.289z"
        />
			<path
            fill="#E7E7F7"
            d="M342.754,202.218c-0.434,2.758-0.61,5.555-0.684,8.441c-0.185,7.178,0.099,14.289,1.18,21.318     c1.383-0.119,2.37-0.876,3.508-2.567c0.563-0.828,0.963-1.796,1.271-2.778C346.618,218.444,344.132,210.428,342.754,202.218z"
        />
			<path
            d="M320.493,127.708c0.556,1.226,0.681,1.365,0.657,1.466c-1.276,4.272,0.494,6.775,4.261,8.924     c4.538,2.579,4.639,7.053,0.96,10.857c-3.375,3.514-7.624,4.449-12.21,4.399c-2.681-0.038-4.412-1.934-4.513-4.639     c-0.012-0.379-0.012-0.809,0.138-1.137c0.506-1.176-0.24-3.148,1.807-3.349c1.997-0.202,1.96,1.592,2.454,2.844     c0.908,2.326,1.629,2.831,4.019,2.452c2.313-0.38,4.384-1.34,5.903-3.261c1.491-1.871,1.276-3.008-0.859-4.26     c-1.429-0.834-2.985-1.529-4.249-2.566c-3.513-2.869-3.424-7.773,0.064-10.605C319.42,128.429,319.963,128.1,320.493,127.708z"
        />
			<path
            fill="#FFFFFF"
            d="M312.455,461.835c-0.38,0.064-0.76,0.113-1.126,0.178c-0.039-0.948-0.076-1.896-0.101-2.844     c0.279-0.027,0.568-0.052,0.847-0.076C312.201,460.015,312.327,460.924,312.455,461.835z"
        />
			<path
            fill="#D6B4A1"
            d="M292.989,184.095c5.473-0.341,14.509,0.733,17.328,2.047c-1.629,8.873-6.219,22.032-8.922,25.736     C298.588,202.613,295.794,193.385,292.989,184.095z"
        />
			<path
            fill="#ED1C24"
            d="M285.264,183.084c0.506,0.152,0.975,0.797,1.252,1.328c3.78,7.04,6.169,14.612,8.559,22.196     c1.148,3.652,2.59,7.217,3.817,10.845c0.316,0.897,0.378,1.896,0.518,2.857c0.163,1.036,0.277,2.073,0.43,3.274     c2.565-0.784,3.059-2.655,3.767-4.222c4.523-9.935,8.581-20.06,10.944-30.74c0.748-3.337,2.252-5.246,5.525-5.954     c1.212-0.265,2.363-0.872,3.982-1.479c-0.227,1.82-0.291,3.325-0.62,4.765c-2.706,11.881-6.397,23.46-10.784,34.824     c-1.479,3.83-2.945,7.66-4.473,11.477c-1.39,3.501-3.804,6.232-6.814,8.861c-0.442-0.695-0.807-1.176-1.086-1.707     c-4.071-7.559-8.014-15.18-12.235-22.651c-4.209-7.445-6.851-15.433-8.912-23.662c-0.997-3.943-1.985-7.887-3.135-12.5     C279.502,181.517,282.396,182.237,285.264,183.084z"
        />
			<path
            fill="#AEE0E8"
            d="M299.714,468.118c2.78,2.034,4.765,0.543,6.964-1.936c0.973,6.13,0.948,11.578-0.481,16.975     c-0.81,3.047-2.516,5.133-5.737,6.068c-4.715,1.353-9.367,2.666-14.511,1.212c1.151-2.034,4.967-2.602,3.792-6.179     c-2.288-0.165-4.273,0.365-6.182,1.592c-3.589,2.313-7.545,3.74-11.717,4.651c-2.844,0.62-5.372,0.178-7.547-1.681     c-2.832-2.414-5.32-5.283-8.379-7.305c-2.553-1.681-4.034-3.906-5.17-6.461c-1.568-3.501-2.807-7.14-1.871-11.401     c5.636,0.62,11.198,1.316,16.785,1.795c10.845,0.923,21.703,1.721,32.548,2.567C298.714,468.066,299.371,467.863,299.714,468.118     z"
        />
			<path
            fill="#B2D235"
            d="M276.152,517.021c7.001,2.2,12.867,1.111,17.126-4.979c2.528,2.642,2.997,6.535,1.089,9.517     c-0.886,1.39-2.061,2.617-3.224,3.792c-3.047,3.071-4.032,6.51-3.121,10.845c0.694,3.323,0.847,6.851,0.681,10.25     c-0.405,8.191-5.562,13.171-12.173,17.015c-4.587,2.666-9.554,4.283-14.813,5.004c-0.595,0.076-1.227-0.126-2.175-0.227     c-0.669-4.461-1.454-8.86-1.933-13.297c-0.405-3.589,1.225-6.485,3.249-9.48c3.274-4.854,5.928-10.124,8.695-15.306     C271.829,525.894,273.903,521.507,276.152,517.021z"
        />
			<path
            d="M325.688,155.617c2.187-0.884,4.007,0,5.713,1.252c1.506,1.1,2.175,2.452,0.773,4.475     c-1.733-0.506-3.515-1.024-5.399-1.568c-4.94,7.723-12.956,9.341-20.994,10.352c-8.317,1.062-15.951-1.44-22.448-6.131     c-1.629,0.594-2.881,1.315-4.184,1.441c-1.958,0.202-2.755-0.973-2.375-2.907c0.442-2.313,4.019-6.864,6.434-8.191     c1.39,1.529,1.39,1.529,1.454,3.779c4.928,4.993,10.959,7.433,17.847,7.888c6.056,0.404,11.729-1.012,16.785-4.285     c2.252-1.441,5.246-2.351,5.866-5.612C325.182,155.921,325.473,155.706,325.688,155.617z"
        />
			<path
            fill="#FFFFFF"
            d="M283.383,133.321c-0.405-2.655-0.153-5.537-3.577-6.485c-3.617-0.999-5.298,1.504-7.182,3.741     c-2.59-4.386-2.261-6.99,1.089-10.314c2.173-2.161,4.626-4.096,7.786-2.971c2.93,1.049,4.384,3.665,4.992,6.775     C287.289,128.113,286.743,130.046,283.383,133.321z"
        />
			<path
            fill="#E8CFBF"
            d="M290.246,504.811c0.101,0.353,0.203,0.758,0.151,1.099c-0.607,3.78-6.611,7.421-10.226,6.081     c-0.758-0.279-1.629-1.289-1.745-2.074c-0.402-2.642-0.39-5.345-0.718-8.001c-0.304-2.501-0.847-4.992-1.341-7.836     c4.056-1.718,7.382,0.632,10.744,0.847C288.249,498.503,289.246,501.651,290.246,504.811z"
        />
			<path
            d="M276.935,113.337c3.288,1.137,7.105,0.126,10.087,2.351c2.908,2.161,3.906,5.359,4.044,8.785     c0.141,3.223-0.163,6.434-2.022,9.29c-0.822,1.125-1.568,2.339-2.501,3.375c-2.807,3.11-6.105,3.83-10.087,2.301     c-3.755-1.428-6.648-3.527-8.532-7.217c-3.274-6.434-1.908-9.657,2.059-14.334c1.365-1.605,3.427-2.628,5.221-3.867     C275.71,113.665,276.481,113.185,276.935,113.337z M279.806,126.836c3.424,0.948,3.172,3.83,3.577,6.485     c3.36-3.274,3.906-5.208,3.108-9.253c-0.607-3.109-2.061-5.726-4.992-6.775c-3.16-1.125-5.614,0.809-7.786,2.971     c-3.35,3.324-3.678,5.928-1.089,10.314C274.508,128.34,276.189,125.837,279.806,126.836z"
        />
			<path
            d="M302.04,70.677c3.501,0.278,6.799,0.948,10.072,3.59c-2.476,1.377-4.663,1.075-6.787,1.049     c-9.24-0.139-18.429,0.252-27.302,3.211c-2.782,0.935-5.436,2.25-8.191,3.261c-1.239,0.455-2.617,1.466-3.881,0.012     c-0.859-0.999-0.392-2.945,1.175-4.424c0.797-0.771,1.783-1.504,2.819-1.845C280.374,72.117,290.952,69.829,302.04,70.677z"
        />
			<path
            fill="#FFFFFF"
            d="M323.123,462.479c-0.899,0.052-1.795,0.114-2.681,0.126c-0.378,0-0.746-0.114-1.264-0.203     c-4.17-6.624-6.648-14.018-9.063-21.436c-1.731-5.36-3.464-10.707-5.271-16.039c-0.568-1.696-2.111-2.555-3.577-2.187     c-1.681,0.43-2.071,1.365-1.743,3.59c0.316,2.274,0.669,4.575,0.669,6.863c0,8.596-0.138,17.19-0.24,25.786     c-0.025,1.276-0.165,2.54-0.267,3.943c-4.55,1.113-9.011,0.19-13.435-0.089c-7.154-0.442-14.309-1.099-21.439-1.982     c-9.265-1.138-18.518-2.503-27.744-3.933c-3.022-0.479-5.979-1.466-8.962-2.212c-1.694-0.43-2.642-1.39-2.605-3.261     c0.114-4.992-0.037-9.999,0.279-14.978c0.62-9.845,1.353-19.693,2.286-29.526c1.101-11.618,2.2-23.246,3.792-34.812     c1.076-7.848,3.046-15.585,4.488-23.396c2.086-11.336,3.841-22.752,6.118-34.051c3.629-18.101,7.596-36.138,11.364-54.214     c1.024-4.891,1.681-9.86,2.73-14.75c1.365-6.371,2.945-12.691,4.461-19.036c0.531-2.263,0.57-4.297-2.338-5.739     c-0.96,2.023-2.249,3.868-2.73,5.89c-1.289,5.473-2.224,11.035-3.323,16.558c-1.896,9.545-3.767,19.087-5.727,28.631     c-2.679,13.045-5.409,26.09-8.14,39.132c-0.227,1.113-0.62,2.187-1.062,3.718c-11.818-2.972-22.562-7.673-32.41-15.131     c0.834-2.276,1.644-4.412,2.402-6.56c4.145-11.704,8.102-23.497,12.475-35.115c2.037-5.384,4.854-10.465,7.396-15.661     c4.498-9.214,8.974-18.454,13.662-27.58c3.046-5.916,6.182-11.832,9.747-17.444c4.323-6.8,9.152-13.272,13.739-19.908     c1.025-1.466,2.338-1.719,3.565-0.543c1.074,1.023,2.163,2.287,2.604,3.652c1.629,4.993,3.222,10.024,4.412,15.13     c2.212,9.48,6.118,18.227,10.919,26.607c3.945,6.914,8.028,13.727,11.959,20.641c0.531,0.922,0.644,2.174,0.632,3.274     c-0.025,1.642,0.518,2.832,2.136,3.173c1.543,0.316,2.503-0.721,2.795-2.034c0.657-3.047,3.678-4.172,5.056-6.624     c0.733-1.315,1.541-2.452,1.896-4.057c0.568-2.591,1.921-5.005,2.906-7.508c3.59-9.05,7.206-18.101,10.707-27.201     c0.911-2.351,1.402-4.854,2.086-7.281c0.264,0.038,0.531,0.089,0.795,0.127c-0.227,3.148-0.328,6.32-0.733,9.442     c-1.326,10.036-2.716,20.072-4.17,30.108c-0.304,2.136-1.049,4.222-1.454,6.358c-0.19,0.974-0.304,2.097,0.037,2.958     c0.227,0.544,1.531,1.15,2.074,0.96c1.758-0.618,3.525-1.404,5.031-2.465c1.516-1.087,3.172-2.363,3.955-3.956     c1.202-2.427,2.945-3.034,5.271-2.769c2.163,0.241,4.298,0.632,6.688,0.999c0.77,3.249,1.528,6.459,2.313,9.671     c2.338,9.593,4.765,19.162,7.014,28.768c1.936,8.241,3.464,16.585,5.55,24.774c3.488,13.677,7.268,27.277,10.959,40.892     c0.62,2.286,0.708,4.854,3.185,6.293c-0.58,1.19-0.921,2.326-1.592,3.224c-2.982,4.019-3.728,8.633-3.854,13.45     c-0.077,3.424,1.694,6.434,4.866,7.456c1.062,0.355,2.59,0.052,3.627-0.491c1.783-0.936,3.362-2.301,5.221-3.629     c0.494,3.224-0.494,6.258-1.518,9.139c-1.464,4.12-1.565,7.952-0.516,12.299c1.82,7.446,2.768,15.104,4.056,22.675     c0.758,4.424,1.479,8.836,2.224,13.247c0.126,0.758,0.38,1.503,0.555,2.249c0.773,2.997,0,5.258-2.439,7.421     c-2.617,2.301-4.525,5.372-6.964,7.9c-7.041,7.268-15.761,11.68-25.28,14.864C342.107,459.736,332.778,461.872,323.123,462.479z"
        />
			<path
            d="M261.276,148.854c0.518-0.505,2.071-0.568,2.703-0.151c0.785,0.531,1.644,1.845,1.506,2.654     c-0.316,1.909-1.721,2.996-4.123,2.73C260.024,152.255,259.668,150.409,261.276,148.854z"
        />
			<path
            d="M259.328,139.198c0.518-1.239,1.442-2.048,2.629-1.213c0.758,0.531,1.061,1.706,1.871,3.135     c-1.632,0.417-2.73,1.049-3.641,0.847C258.76,141.65,258.834,140.386,259.328,139.198z"
        />
			<path
            fill="#E8CFBF"
            d="M261.362,154.088c2.402,0.265,3.807-0.821,4.123-2.73c0.138-0.808-0.721-2.123-1.506-2.654     c-0.632-0.417-2.185-0.354-2.703,0.151C259.668,150.409,260.024,152.255,261.362,154.088z M340.098,140.398     c5.523,0.835,11.225-3.311,9.909-10.301c-0.291-1.504-0.62-3.021-0.96-4.512c-1.264-5.512-3.715-7.862-9.189-8.785     c-4.034-0.67-6.927,1.416-9.354,4.184c-1.859,2.136-3.654,4.487-1.442,7.533c0.254,0.354,0.19,0.986,0.178,1.492     c-0.101,4.272,2.706,6.661,6.244,9.328C336.647,139.615,338.352,140.146,340.098,140.398z M276.456,139.438     c3.982,1.529,7.28,0.809,10.087-2.301c0.933-1.036,1.679-2.25,2.501-3.375c1.859-2.856,2.163-6.067,2.022-9.29     c-0.138-3.426-1.136-6.624-4.044-8.785c-2.982-2.225-6.799-1.213-10.087-2.351c-0.454-0.152-1.225,0.328-1.731,0.683     c-1.795,1.239-3.856,2.262-5.221,3.867c-3.967,4.677-5.333,7.9-2.059,14.334C269.807,135.912,272.701,138.01,276.456,139.438z      M256.358,144.001c0.81-0.821-0.089-3.337-1.239-3.4c-0.96-0.063-2.59,0.417-2.805,1.049c-0.331,0.923,0.341,2.199,0.718,3.88     C254.526,144.873,255.674,144.671,256.358,144.001z M337.469,152.672c-0.24,1.213,0.165,2.566,0.267,3.615     c2.123,0.821,2.97-0.341,3.716-1.289c0.884-1.137,0.252-2.237-0.696-3.021C339.757,151.155,337.696,151.509,337.469,152.672z      M343.813,151.345c-0.657,1.087-0.126,2.339,1.113,2.717c0.783,0.24,1.755-0.114,3.399-0.291c-0.96-1.643-1.378-2.819-2.2-3.539     C345.862,149.993,344.218,150.701,343.813,151.345z M314.161,153.354c4.587,0.051,8.836-0.884,12.21-4.399     c3.678-3.804,3.577-8.279-0.96-10.857c-3.767-2.149-5.537-4.652-4.261-8.924c0.025-0.101-0.101-0.24-0.657-1.466     c-0.531,0.392-1.074,0.721-1.568,1.125c-3.488,2.832-3.577,7.736-0.064,10.605c1.264,1.036,2.819,1.732,4.249,2.566     c2.136,1.252,2.35,2.389,0.859,4.26c-1.518,1.921-3.59,2.882-5.903,3.261c-2.39,0.379-3.111-0.127-4.019-2.452     c-0.494-1.252-0.457-3.046-2.454-2.844c-2.047,0.202-1.301,2.174-1.807,3.349c-0.151,0.328-0.151,0.759-0.138,1.137     C309.749,151.421,311.48,153.317,314.161,153.354z M283.331,163.997c6.498,4.69,14.131,7.193,22.448,6.131     c8.038-1.011,16.054-2.629,20.994-10.352c1.884,0.544,3.666,1.062,5.399,1.568c1.402-2.023,0.733-3.375-0.773-4.475     c-1.706-1.252-3.525-2.136-5.713-1.252c-0.215,0.089-0.506,0.304-0.531,0.493c-0.62,3.261-3.614,4.171-5.866,5.612     c-5.056,3.274-10.729,4.689-16.785,4.285c-6.888-0.455-12.919-2.895-17.847-7.888c-0.064-2.25-0.064-2.25-1.454-3.779     c-2.414,1.327-5.992,5.877-6.434,8.191c-0.38,1.934,0.417,3.109,2.375,2.907C280.45,165.312,281.702,164.592,283.331,163.997z      M340.224,146.554c-0.316,0.505,0.153,1.517,0.368,2.857c1.175-0.759,2.2-1.075,2.439-1.681c0.227-0.556-0.38-1.453-0.62-2.2     C341.653,145.846,340.579,145.973,340.224,146.554z M259.328,139.198c-0.494,1.188-0.568,2.452,0.859,2.768     c0.911,0.202,2.009-0.43,3.641-0.847c-0.81-1.429-1.113-2.604-1.871-3.135C260.769,137.15,259.846,137.959,259.328,139.198z      M334.244,94.124c5.387,1.264,9.924,3.539,14.082,6.611c0.531,0.379,0.948,1.15,1.086,1.808     c1.405,6.812,3.844,13.272,6.801,19.541c0.165,0.354,0.252,0.821,0.543,1.011c3.022,2.01,1.972,4.778,1.543,7.508     c-1.264,8.077-4.35,15.522-7.964,22.752c-0.909,1.808-2.224,3.501-3.678,4.905c-4.967,4.79-10.048,9.429-15.622,13.588     c-7.004,5.22-14.953,7.685-23.194,9.619c-4.565,1.075-9.075,0.189-13.665-0.771c-5.537-1.163-10.793-3.085-16.18-4.69     c-0.605-0.189-1.378-0.139-1.832-0.505c-4.691-3.741-10.668-5.296-14.99-9.821c-5.5-5.764-10.922-11.49-14.965-18.404     c-0.988-1.68-1.429-3.665-3.135-5.018c-0.973-0.771-0.987-2.149-0.392-3.552c0.886-2.085,1.632-4.285,2.049-6.497     c0.859-4.664,1.479-9.366,2.173-14.043c0.114-0.759,0.328-1.631,0.089-2.3c-1.113-3.084,0.607-4.74,2.869-6.295     c6.031-4.133,12.324-7.749,18.972-10.858c7.851-3.665,16.23-5.473,24.421-7.963c1.531-0.468,3.224-0.443,5.056-0.657     c-0.721,3.88-1.062,7.457-2.111,10.807c-0.708,2.25-2.313,4.248-3.703,6.219c-1.933,2.781-1.353,4.361,1.921,5.208     c2.896,0.759,5.412-0.328,7.673-1.656c4.184-2.464,8.154-5.283,12.198-7.951c0.632-0.416,1.252-0.859,2.276-1.555     c0.264,1.201,0.568,2.111,0.644,3.034c0.062,0.758-0.291,1.542-0.202,2.287c0.252,2.036,0.442,4.323,2.629,5.208     c2.01,0.821,3.525-0.821,4.575-2.148c2.39-2.971,4.513-6.181,6.624-9.366C332.02,98.37,332.968,96.398,334.244,94.124z"
        />
			<path
            fill="#D6B4A1"
            d="M289.163,95.189c0.459-0.316,0.928-0.62,1.385-0.94c2.254-1.571,4.444-0.93,5.839,0.612     c0.343-0.103,0.681-0.217,1.027-0.313c0.338-0.094,0.659-0.14,0.978-0.17c0.225-1.39,0.452-2.811,0.726-4.286     c-1.832,0.215-3.525,0.189-5.056,0.657c-8.191,2.49-16.57,4.297-24.421,7.963c-6.648,3.109-12.941,6.725-18.972,10.858     c-1.97,1.355-3.528,2.788-3.157,5.176c4.157-2.675,8.465-5.107,13.087-7.126c8.759-3.827,16.852-9.126,25.907-12.263     C287.491,95.014,288.377,95.002,289.163,95.189z"
        />
			<path
            fill="#D6B4A1"
            d="M320.353,123.088c0.491,3.865,0.412,7.633,0.627,11.415c0.76,1.395,2.123,2.539,3.975,3.595     c4.071,2.313,4.56,6.151,1.965,9.663c1.814-1.567,3.291-3.578,3.703-5.739c0.6-3.145-0.822-5.406-2.407-7.962     c-2.254-3.63-3.75-7.152-3.844-11.368c-0.57,0.229-1.18,0.375-1.827,0.375C321.814,123.067,321.083,123.071,320.353,123.088z"
        />
			<path
            fill="#D6B4A1"
            d="M356.3,123.094c-0.291-0.189-0.378-0.657-0.543-1.011c-2.957-6.269-5.397-12.729-6.801-19.541     c-0.138-0.657-0.556-1.429-1.086-1.808c-4.157-3.072-8.695-5.347-14.082-6.611c-1.276,2.275-2.224,4.247-3.412,6.055     c-2.111,3.185-4.234,6.396-6.624,9.366c-1.049,1.327-2.565,2.97-4.575,2.148c-2.187-0.884-2.377-3.172-2.629-5.208     c-0.089-0.746,0.264-1.529,0.203-2.287c-0.077-0.923-0.38-1.833-0.644-3.034c-1.024,0.696-1.644,1.138-2.276,1.555     c-4.044,2.667-8.014,5.486-12.198,7.951c-2.261,1.328-4.777,2.414-7.673,1.656c-0.699-0.181-1.261-0.401-1.713-0.656     c-0.249,0.946-0.476,1.902-0.694,2.863c0.822,0.078,1.644,0.15,2.466,0.241c0.447-0.121,0.921-0.206,1.454-0.202     c2.123,0.015,4.328,0.146,6.52,0.138c2.698-1.597,5.323-3.312,7.9-5.105c2.266-1.576,5.606-0.422,6.917,1.814     c0.17,0.291,0.301,0.584,0.402,0.88c0.422,0.22,0.79,0.497,1.106,0.819c1.402-0.106,2.81-0.162,4.226-0.162     c0.331,0,0.654,0.037,0.968,0.1c5.231-3.401,13.403-9.551,19.688-5.103c5.955,4.216,6.619,11.365,6.626,18.14     c0,0.96-0.237,1.762-0.61,2.439c0.109,0.523,0.232,1.044,0.333,1.566c0.481,2.556,0.015,4.722-1.03,6.411     c-0.642,4.956-1.918,9.635-3.844,13.904c0.452-0.194,0.872-0.29,0.992-0.179c0.822,0.72,1.239,1.896,2.2,3.539     c-1.644,0.177-2.617,0.531-3.399,0.291c-0.538-0.164-0.931-0.498-1.163-0.905c-3.538,6.54-8.725,11.943-15.59,15.635     c-0.407,0.636-0.983,1.215-1.812,1.669c-4.281,2.35-8.705,4.154-13.262,5.465c-8.932,3.564-19.254,3.921-28.539,1.246     c-0.047,0.277-0.113,0.55-0.202,0.816c3.232,1.02,6.473,2.003,9.818,2.706c4.589,0.96,9.1,1.845,13.664,0.771     c8.241-1.934,16.19-4.399,23.194-9.619c5.574-4.159,10.655-8.798,15.622-13.588c1.454-1.404,2.77-3.097,3.678-4.905     c3.614-7.23,6.7-14.675,7.964-22.752C358.273,127.872,359.322,125.104,356.3,123.094z"
        />
			<path
            d="M255.118,140.601c1.151,0.063,2.049,2.579,1.239,3.4c-0.684,0.67-1.832,0.872-3.325,1.529     c-0.378-1.681-1.049-2.958-0.718-3.88C252.529,141.018,254.158,140.538,255.118,140.601z"
        />
			<path
            d="M238.232,75.973c-1.227-0.443-0.847-1.605-0.644-2.642c0.795-4.12,4.133-5.928,7.369-7.192     c10.06-3.918,20.602-6.067,31.245-7.786c11.048-1.795,22.147-2.364,33.308-1.77c5.903,0.316,11.64,1.416,17.15,3.527     c-0.012,0.367-0.037,0.733-0.062,1.1c-2.491,0.038-4.994,0.101-7.483,0.114c-9.734,0.051-19.491-0.391-29.198,0.216     c-13.704,0.859-27.24,3.16-40.095,8.316c-2.642,1.062-4.905,3.122-7.32,4.753c-0.516,0.354-0.896,1.049-1.452,1.201     C240.153,76.061,239.067,76.263,238.232,75.973z"
        />
			<path
            fill="#FFFFFF"
            d="M320.368,19.826c4.728,2.566,9.265,5.359,13.03,9.922c-3.185-0.581-5.915-1.213-8.683-1.555     c-8.406-1.011-16.824-1.428-25.231-0.025c-0.378,0.064-0.807,0.025-1.136,0.177c-4.412,2.187-9.191,1.896-13.904,2.174     c-13.514,0.809-26.102,5.068-38.276,10.655c-4.587,2.111-8.986,4.601-13.953,7.167c5.523-9.619,12.729-16.887,22.043-21.892     c5.967-3.198,12.122-6.055,18.328-8.784c8.683-3.817,17.911-4.045,27.164-3.274C306.905,14.985,313.934,16.337,320.368,19.826z"
        />
			<path
            fill="#E7E7F7"
            d="M374.036,64.913c-2.97-4.019-6.105-7.912-9.241-11.806c-4.525-5.612-10.287-9.632-16.874-12.387     c-1.958-0.822-4.651-0.215-6.332-1.302c-1.973-1.264-3.869-2.326-6.13-2.844c-1.617-0.379-3.236-0.796-4.829-1.289     c-3.913-1.235-7.883-2.019-11.894-2.546c0.627,0.558,1.059,1.279,1.313,2.068c7.298,1.768,14.02,5.273,20.604,9.194     c0.876,0.522,1.464,1.184,1.857,1.903c3.831,2.701,1.079,10.166-4.54,8.954c-0.116-0.025-0.23-0.059-0.346-0.086     c-0.931,0.479-2.037,0.698-3.291,0.489c-8.268-1.375-16.504-2.637-24.87-2.967c-12.307,1.748-24.759,3.747-36.728,7.043     c1.155-0.199,2.311-0.393,3.466-0.58c11.048-1.796,22.147-2.364,33.308-1.77c5.903,0.316,11.64,1.416,17.15,3.527     c-0.012,0.367-0.037,0.733-0.062,1.1c-2.491,0.038-4.994,0.101-7.483,0.114c-9.734,0.051-19.491-0.391-29.198,0.215     c-3.143,0.197-6.273,0.483-9.389,0.85c4.276,0.073,8.616,0.518,12.907,0.912c0.61-0.062,1.227-0.133,1.834-0.191     c1.143-0.109,2.069,0.13,2.807,0.577c2.331,0.164,4.634,0.265,6.89,0.231c2.143-0.032,3.562,1.045,4.298,2.498     c2.721-0.014,5.463-0.018,8.228-0.074c3.834-0.077,5.392,3.376,4.72,6.269c1.373,2.847-0.074,7.423-4.315,7.884     c-3.772,0.41-7.549,0.467-11.329,0.42c-9.423,1.178-18.498,3.689-27.428,6.737c0.155,0.793,0.109,1.61-0.133,2.389     c1.323-0.443,2.654-0.875,3.994-1.289c7.799-2.414,15.674-3.855,23.777-3.704c5.486,0.101,10.983,0.62,16.444,1.302     c3.639,0.455,7.33,1.188,10.793,2.376c4.298,1.492,8.394,3.577,12.64,5.435c0.886-3.867-0.644-6.598-3.375-8.873     c-2.16-1.808-4.36-3.59-6.458-5.486c-0.871-0.771-1.531-1.782-2.693-3.172c1.291,0.038,1.795-0.038,2.239,0.076     c5.876,1.542,10.744,4.803,14.825,9.176c0.847,0.923,1.049,2.528,1.353,3.868c0.607,2.68-1.025,4.626-2.718,6.813     c3.135,2.136,6.145,4.171,9.418,6.396c0.175-1.745,0.062-3.085,0.479-4.235c1.708-4.829,0.62-9.341-1.252-13.816     c-2.237-5.359-5.207-10.264-8.821-14.827c-1.19-1.492-2.957-2.844-2.92-5.802c1.718,0.771,3.236,1.112,4.323,1.997     c1.985,1.592,4.019,3.299,5.473,5.347c4.866,6.863,8.811,14.169,9.428,22.828c0.101,1.428,0.469,2.831,0.748,4.487     c2.945-1.921,5.093-3.88,6.219-6.763c1.224-3.109,2.804-6.118,3.614-9.316C378.144,76.883,378.168,70.538,374.036,64.913z"
        />
			<path
            fill="#E7E7F7"
            d="M320.368,20.231c-6.434-3.489-13.462-4.841-20.617-5.436c-3.133-0.261-6.261-0.402-9.366-0.334     c1.106,1.678,1.548,3.807,0.916,6.334c-1.481,5.92-6.382,9.157-12.011,10.607c1.703-0.212,3.422-0.375,5.155-0.478     c4.713-0.278,9.492,0.012,13.904-2.174c0.328-0.152,0.758-0.114,1.136-0.177c8.406-1.403,16.825-0.986,25.231,0.025     c2.768,0.341,5.498,0.973,8.683,1.555C329.633,25.59,325.095,22.796,320.368,20.231z"
        />
			<path
            d="M236.008,84.138c2.261-2.705,5.081-2.945,8.922-1.833c-2.755,2.49-5.333,4.449-7.431,6.825     c-2.276,2.579-4.234,5.461-6.093,8.356c-1.782,2.78-3.261,5.751-4.866,8.633c-0.392-0.101-0.785-0.215-1.175-0.316     c0.101-1.429-0.052-2.933,0.353-4.273C227.728,94.907,231.633,89.371,236.008,84.138z"
        />
			<path
            fill="#E8CFBF"
            d="M234.376,132.397c-2.212-0.568-3.691-0.96-5.182-1.327c-2.363-0.569-4.639-0.265-6.584,1.188     c-1.126,0.834-2.163,1.909-1.454,3.729c1.605-0.114,3.234-0.24,5.157-0.38c-0.531,1.833-1.101,3.451-1.442,5.107     c-0.328,1.644,0.583,2.832,2.074,3.047c1.541,0.215,3.185-1.024,3.16-2.616c-0.027-1.365-0.38-2.73-0.671-4.639     c2.479,1.163,4.577,2.149,7.194,3.362c0.328,1.302,0.758,3.008,1.237,4.929c-2.691,0.354-5.068,0.797-7.456,0.961     c-3.249,0.227-6.056-0.784-8.256-3.312c-1.264-1.453-2.703-2.756-3.906-4.247c-2.338-2.933-1.605-5.953,1.782-7.496     c4.399-1.997,8.836-2.743,13.183,0.177C233.492,131.058,233.643,131.425,234.376,132.397z"
        />
			<path
            fill="#FFFFFF"
            d="M204.294,305.225c10.238,6.219,20.577,11.364,32.333,13.929c-0.417,2.528-0.847,5.145-1.316,7.912     c-5.397-0.086-10.376-1.163-15.055-3.185c-4.802-2.059-9.44-4.525-14.042-7.041c-1.733-0.96-3.135-2.528-4.74-3.854     C202.423,310.37,203.282,308.007,204.294,305.225z"
        />
			<path
            fill="#E8CFBF"
            d="M208.894,323.604c4.436,1.896,8.875,3.792,13.502,5.774c-1.58,4.463-0.659,8.547,1.35,12.83     c1.822,3.893,2.844,8.228,3.617,12.489c0.479,2.54-0.027,5.333-0.405,7.962c-0.254,1.758-1.871,2.049-3.098,0.671     c-1.755-1.972-2.817-4.249-2.856-6.964c-0.037-2.061-0.114-4.12-0.39-6.157c-0.141-1.099-0.531-2.301-1.19-3.172     c-1.212-1.58-3.955-1.099-4.323,0.708c-0.973,4.866-2.123,9.72-2.617,14.625c-0.365,3.664,0.027,7.419,0.356,11.109     c0.252,2.908-0.543,5.486-1.568,8.443c-2.982-2.501-3.501-5.777-3.54-8.821c-0.049-3.92,0.659-7.863,1.202-11.769     c0.304-2.15,1.037-4.234,1.378-6.384c0.239-1.466-0.141-2.945-1.871-3.311c-1.629-0.341-2.326,0.884-2.654,2.187     c-1.77,7.216-4.032,14.383-2.365,21.979c0.672,3.059,0.822,6.093-1.086,9.278c-2.743-0.896-3.715-2.73-3.804-5.271     c-0.316-8.443,0.985-16.622,3.856-24.547c0.037-0.113,0.126-0.227,0.163-0.341c0.481-1.454,1.34-3.022-0.669-3.982     c-1.681-0.81-3.16-0.037-3.918,2.491c-1.101,3.678-1.923,7.431-2.718,11.198c-0.607,2.832-1,5.725-1.782,8.584     c-2.844-4.982-2.666-10.1-0.671-15.282c0.558-1.417,1.543-2.669,2.2-4.046c0.583-1.2,0.987-2.491,1.479-3.767     c-3.866-2.047-4.599,1.494-6.406,2.972C189.516,345.483,197.303,333.373,208.894,323.604z"
        />
			<path
            d="M344.384,495.696c0.151,1.037,0.681,2.227,1.427,2.908c2.516,2.276,7.192,2.516,10.036,0.733     c1.948-1.227,2.377-2.565,1.859-4.866c-0.859-3.73-1.58-7.483-2.375-11.213c-0.178-0.847-0.417-1.694-0.57-2.326     c-4.044,1.163-7.912,2.288-11.692,3.375C343.497,488.139,343.838,491.931,344.384,495.696z M227.046,331.732     c-1.264,4.461,1.099,14.46,4.639,18.96c0.973-6.359,1.896-12.363,2.817-18.316C231.799,332.136,229.547,331.946,227.046,331.732z      M363.66,118.215c0.188,1.934,0.353,3.527,0.555,5.384c1.466-0.265,2.654-0.48,3.755-0.67c-0.671-2.023-1.227-3.716-1.834-5.575     C365.353,117.621,364.669,117.861,363.66,118.215z M312.455,461.835c-0.128-0.911-0.254-1.82-0.38-2.743     c-0.279,0.025-0.568,0.049-0.847,0.076c0.025,0.948,0.062,1.896,0.101,2.844C311.695,461.948,312.075,461.899,312.455,461.835z      M299.484,28.168c8.406-1.403,16.825-0.986,25.231,0.025c2.768,0.341,5.498,0.973,8.683,1.555     c-3.765-4.563-8.302-7.356-13.03-9.922c-6.434-3.489-13.462-4.841-20.617-5.436c-9.253-0.771-18.481-0.543-27.164,3.274     c-6.206,2.73-12.361,5.587-18.328,8.784c-9.315,5.005-16.521,12.273-22.043,21.892c4.967-2.566,9.366-5.056,13.953-7.167     c12.173-5.587,24.762-9.847,38.276-10.655c4.713-0.278,9.492,0.012,13.904-2.174C298.677,28.193,299.107,28.231,299.484,28.168z      M367.881,111.301c3.602-0.139,5.118,1.391,4.955,4.93c-0.025,0.758-0.126,1.516-0.254,3.135c2.718-2.806,3.54-5.613,3.009-8.52     c-0.81-4.348-6.142-5.941-9.961-2.907c-1.022,0.809-3.311,1.289-2.59,3.855c0.77-0.051,1.479-0.088,2.2-0.164     C366.123,111.541,366.995,111.339,367.881,111.301z M379.573,248.648c-4.059-7.85-8.848-15.32-13.576-23.397     c-3.501,2.187-6.89,2.591-10.428,0.872c-1.429-0.696-2.491,0.051-3.172,1.315c-1.101,2.035-1.985,4.196-3.261,6.104     c-0.886,1.328-0.973,2.566-0.684,3.994c0.62,3.021,1.101,6.068,1.859,9.051c2.276,8.936,4.804,17.824,6.952,26.798     c2.945,12.361,5.624,24.774,8.456,37.15c0.254,1.074,0.733,2.096,1.202,3.424c4.209-0.709,8.127-1.2,11.993-2.034     c7.485-1.607,14.385-4.626,20.656-9.063c1.365-0.96,1.921-1.871,1.264-3.516c-3.767-9.391-7.384-18.859-11.262-28.213     C386.436,263.55,383.326,255.929,379.573,248.648z M255.916,481.516c3.059,2.022,5.547,4.891,8.379,7.305     c2.175,1.859,4.703,2.301,7.547,1.681c4.172-0.911,8.127-2.338,11.717-4.651c1.908-1.227,3.893-1.758,6.182-1.592     c1.175,3.577-2.642,4.145-3.792,6.179c5.145,1.454,9.796,0.141,14.511-1.212c3.222-0.936,4.928-3.022,5.737-6.068     c1.429-5.397,1.454-10.845,0.481-16.975c-2.2,2.479-4.184,3.97-6.964,1.936c-0.343-0.254-1-0.052-1.506-0.101     c-10.845-0.847-21.703-1.644-32.548-2.567c-5.587-0.479-11.149-1.175-16.785-1.795c-0.936,4.261,0.304,7.9,1.871,11.401     C251.882,477.61,253.363,479.834,255.916,481.516z M261.174,165.678c4.323,4.525,10.3,6.08,14.99,9.821     c0.454,0.367,1.227,0.316,1.832,0.505c5.387,1.605,10.643,3.527,16.18,4.69c4.589,0.96,9.1,1.845,13.665,0.771     c8.241-1.934,16.19-4.399,23.194-9.619c5.574-4.159,10.655-8.798,15.622-13.588c1.454-1.404,2.77-3.097,3.678-4.905     c3.614-7.23,6.7-14.675,7.964-22.752c0.43-2.73,1.479-5.498-1.543-7.508c-0.291-0.189-0.378-0.657-0.543-1.011     c-2.958-6.269-5.397-12.729-6.801-19.541c-0.138-0.657-0.555-1.429-1.086-1.808c-4.157-3.072-8.695-5.347-14.082-6.611     c-1.276,2.275-2.224,4.247-3.412,6.055c-2.111,3.185-4.234,6.396-6.624,9.366c-1.049,1.327-2.565,2.97-4.575,2.148     c-2.187-0.884-2.377-3.172-2.629-5.208c-0.089-0.746,0.264-1.529,0.202-2.287c-0.077-0.923-0.38-1.833-0.644-3.034     c-1.024,0.696-1.644,1.138-2.276,1.555c-4.044,2.668-8.014,5.486-12.198,7.951c-2.261,1.328-4.777,2.414-7.673,1.656     c-3.273-0.847-3.854-2.427-1.921-5.208c1.39-1.971,2.995-3.968,3.703-6.219c1.049-3.349,1.39-6.927,2.111-10.807     c-1.832,0.215-3.525,0.189-5.056,0.657c-8.191,2.49-16.57,4.297-24.421,7.963c-6.648,3.109-12.941,6.725-18.972,10.858     c-2.261,1.555-3.982,3.211-2.869,6.295c0.24,0.67,0.025,1.542-0.089,2.3c-0.694,4.677-1.313,9.379-2.173,14.043     c-0.417,2.212-1.163,4.412-2.049,6.497c-0.595,1.403-0.58,2.781,0.392,3.552c1.706,1.352,2.148,3.337,3.135,5.018     C250.253,154.189,255.674,159.915,261.174,165.678z M334.017,88.726c4.298,1.492,8.394,3.577,12.64,5.435     c0.886-3.867-0.644-6.598-3.375-8.873c-2.16-1.808-4.36-3.59-6.458-5.486c-0.871-0.771-1.531-1.782-2.693-3.172     c1.291,0.038,1.795-0.038,2.239,0.076c5.876,1.542,10.744,4.803,14.825,9.176c0.847,0.923,1.049,2.528,1.353,3.868     c0.607,2.68-1.025,4.626-2.718,6.813c3.135,2.136,6.145,4.171,9.418,6.396c0.175-1.745,0.062-3.085,0.479-4.235     c1.708-4.829,0.62-9.341-1.252-13.816c-2.237-5.359-5.207-10.264-8.821-14.827c-1.19-1.492-2.957-2.844-2.92-5.802     c1.718,0.771,3.236,1.112,4.323,1.997c1.985,1.592,4.019,3.299,5.473,5.347c4.866,6.863,8.811,14.169,9.428,22.828     c0.101,1.428,0.469,2.831,0.748,4.487c2.945-1.921,5.093-3.88,6.219-6.763c1.224-3.109,2.804-6.118,3.614-9.316     c1.605-6.383,1.629-12.728-2.503-18.353c-2.97-4.019-6.105-7.912-9.241-11.806c-4.525-5.612-10.287-9.632-16.874-12.387     c-1.958-0.822-4.651-0.215-6.332-1.302c-1.973-1.264-3.869-2.325-6.13-2.844c-1.617-0.379-3.236-0.796-4.829-1.289     c-8.771-2.768-17.822-3.349-26.998-3.577c0.025,0.746,0.049,1.302,0.074,2.098c-1.97,0.164-3.878,0.278-5.775,0.48     c-6.764,0.696-13.551,1.213-20.276,2.187c-10.769,1.555-20.691,5.89-30.499,10.353c-3.92,1.782-7.584,4.196-11.25,6.522     c-6.777,4.297-12.235,10.074-17.481,16.053c-4.663,5.334-7.989,11.224-7.722,18.606c0.086,2.566-0.015,5.145,0.264,7.673     c0.202,1.756,0.595,3.627,1.454,5.144c2.59,4.563,5.296,9.076,8.253,13.399c2.439,3.577,5.967,5.852,10.075,6.901     c1.516-1.58,2.768-3.033,4.185-4.311c3.804-3.438,7.545-6.952,11.564-10.124c3.009-2.364,6.295-4.399,9.633-6.282     c8.492-4.816,17.518-8.355,26.872-11.249c7.799-2.414,15.674-3.855,23.777-3.704c5.486,0.101,10.983,0.62,16.444,1.302     C326.863,86.805,330.554,87.538,334.017,88.726z M259.542,568.238c0.948,0.101,1.58,0.304,2.175,0.227     c5.258-0.721,10.225-2.338,14.813-5.004c6.611-3.844,11.768-8.823,12.173-17.015c0.165-3.399,0.012-6.927-0.681-10.25     c-0.911-4.335,0.074-7.774,3.121-10.845c1.163-1.175,2.338-2.402,3.224-3.792c1.908-2.982,1.439-6.875-1.089-9.517     c-4.259,6.09-10.124,7.179-17.126,4.979c-2.249,4.486-4.323,8.873-6.599,13.134c-2.767,5.182-5.421,10.453-8.695,15.306     c-2.024,2.995-3.654,5.891-3.249,9.48C258.088,559.378,258.873,563.777,259.542,568.238z M368.513,169.18     c2.111,8.988,4.069,18,6.105,27c0.365,1.618,0.543,3.349,1.264,4.803c1.252,2.579,1.062,5.233,0.985,7.912     c-0.037,1.681-0.657,2.869-2.592,3.249c-1.731,0.341-3.387,1.1-4.967,1.643c-2.047,6.838-0.062,12.564,4.375,17.772     c2.654,3.122,5.182,6.371,7.419,9.809c1.795,2.769,3.212,5.815,4.538,8.849c4.525,10.327,8.976,20.691,13.361,31.082     c2.098,4.955,3.93,10.023,6.016,14.99c0.417,0.987,1.417,1.733,2.516,3.046c-1.706,3.565,1.429,6.789,2.427,10.468     c0.153,0.555,0.708,1.049,1.163,1.464c2.187,1.985,2.466,2.92,1.466,5.589c-1.163,3.12-3.451,5.372-5.979,7.394     c-1.378,1.099-2.869,2.059-4.36,3.133c2.2,3.995,4.323,7.774,6.357,11.618c4.868,9.176,7.194,18.935,5.967,29.312     c-0.328,2.856-1.58,5.611-2.479,8.394c-0.188,0.592-0.556,1.378-1.034,1.58c-2.896,1.163-3.666,4.081-5.412,6.194     c-1.289,1.553-2.691,3.209-4.412,4.145c-1.945,1.061-3.209,2.35-4.081,4.335c-1.151,2.642-3.301,3.78-6.207,3.552     c-2.212-0.19-4.083-0.886-4.626-3.273c-0.38-1.58-1.113-2.224-2.693-1.721c1.113,5.513,2.301,10.732,3.185,15.99     c1.279,7.572,2.301,15.193,3.503,22.777c0.405,2.516,0.289,4.626-2.629,5.525c-0.442,0.138-0.822,0.58-1.175,0.936     c-3.906,3.881-7.762,7.823-11.719,11.652c-1.074,1.049-1.768,2.01-1.718,3.617c0.089,2.817-0.405,5.661-0.101,8.443     c0.77,6.838-2.832,11.425-7.483,15.533c-1.429,1.264-3.135,2.212-5.207,3.666c0.289,3.716,0.592,7.762,0.921,11.932     c3.439,0.481,5.044,2.669,6.132,5.36c3.044,7.596,9.063,12.603,15.306,17.343c1.175,0.896,2.807,1.212,4.246,1.718     c7.725,2.681,11.287,7.811,11.3,15.953c0.015,3.185,0.494,6.369,0.533,9.554c0.025,1.884-0.217,3.819-0.671,5.639     c-0.417,1.718-1.77,2.92-3.525,3.197c-2.276,0.368-4.691,0.923-6.863,0.518c-4.009-0.77-7.888-2.172-11.82-3.323     c-1.592-0.457-3.148-0.987-4.74-1.429c-2.464-0.681-5.017-1.151-7.406-2.034c-7.483-2.755-11.68-8.065-12.045-16.168     c-0.04-0.77-0.19-1.58,0.012-2.301c1.111-4.093-1.175-6.179-4.436-7.735c-0.356-0.165-0.709-0.341-1.012-0.568     c-5.019-3.706-8.683-6.056-6.458-15.183c0.77-3.108,0.58-6.029-0.392-9.048c-0.884-2.782-1.454-5.676-2.187-8.648     c-12.526,0.506-21.286-4.296-24.231-17.405c-0.24,0.141-0.491,0.267-0.733,0.405c0.025,2.553,0.025,5.12,0.077,7.685     c0.089,4.715-1.049,9.176-3.135,13.336c-2.414,4.854-6.51,7.053-11.944,6.75c-0.872-0.064-1.758-0.012-3.123-0.012     c0.227,4.562-0.353,9.051,3.54,12.41c2.111,1.834,2.642,4.323,2.78,6.927c0.076,1.531-0.077,3.071,0,4.614     c0.153,2.995-0.896,5.323-3.121,7.458c-2.429,2.35-5.12,4.817-4.286,8.873c0.405,1.985,0.454,4.083,1.099,5.979     c2.629,7.698-0.694,13.447-5.814,18.656c-4.473,4.537-9.732,7.888-15.699,10.149c-3.464,1.316-6.838,2.819-10.655,3.098     c-1.402,0.089-2.73,1.427-4.31,2.326c-1.491-1.037-2.074-2.795-2.427-4.728c-0.733-4.031-1.479-8.065-2.276-12.097     c-1.212-6.053,0.114-11.425,4.071-16.193c1.227-1.479,2.451-2.995,3.362-4.663c4.12-7.547,7.848-15.257,10.315-23.522     c0.138-0.481,0.252-1.089,0.607-1.353c3.513-2.693,2.375-6.194,1.516-9.492c-0.669-2.58-1.847-5.031-2.617-7.041     c-7.661-2.869-14.03-6.737-18.896-12.692c-4.816-5.915-8.621-12.361-8.458-20.691c-6.977-1.531-14.168-3.096-21.804-4.765     c-0.151-3.73-0.568-7.394-0.402-11.035c0.276-6.256,0.884-12.502,1.427-18.758c1.303-15.205,2.58-30.413,3.994-45.605     c0.43-4.589,1.328-9.139,1.997-13.702c0.077-0.595,0.064-1.202,0.101-1.921c-5.409,2.2-5.903,1.997-11.198-4.728     c-0.948,3.74-0.785,7.243-0.227,10.692c0.718,4.451-0.494,8.357-2.945,11.934c-0.405,0.605-1.479,0.96-2.276,1.034     c-1.252,0.101-2.54-0.138-3.387-0.188c-1.795,1.326-3.135,2.844-4.817,3.488c-2.921,1.138-6.231-0.785-7.154-4.059     c-0.694-2.439-2.086-4.145-3.74-6.016c-1.896-2.111-2.884-5.044-4.236-7.621c-0.39-0.773-0.491-1.908-1.111-2.326     c-2.982-2.037-3.148-5.145-3.224-8.204c-0.151-5.992,1.353-11.667,3.577-17.205c2.807-7.026,7.446-12.815,12.312-18.454     c1.503-1.743,3.071-3.424,4.651-5.194c-0.316-1.605-1.439-2.098-2.933-2.503c-3.792-1.037-5.473-3.906-4.461-7.596     c1.543-5.663,3.083-11.287,5.335-16.76c3.666-8.885,6.863-17.975,9.845-27.114c2.479-7.609,6.207-14.61,9.594-21.779     c3.071-6.496,6.145-12.993,9.391-19.389c3.718-7.332,7.685-14.524,11.44-21.829c4.817-9.379,10.364-18.29,16.748-26.683     c0.696-0.91,1.316-1.896,1.933-2.869c0.128-0.19,0.101-0.481,0.202-0.973c-7.557-7.559-15.408-15.055-20.362-24.408     c-4.715,0.404-8.925,0.796-13.121,1.124c-2.59,0.202-4.725-0.632-6.483-2.667c-1.933-2.212-4.133-4.196-6.056-6.434     c-0.783-0.923-1.452-2.161-1.654-3.349c-0.948-5.587-0.773-7.964,5.081-10.302c1.884-0.758,3.755-1.491,6.142-2.427     c-1.415-1.049-2.629-1.707-3.501-2.667c-2.313-2.553-4.626-5.144-6.648-7.925c-1.568-2.174-2.503-4.803-4.071-6.977     c-5.004-6.964-4.829-15.067-4.7-22.929c0.062-3.64,2.059-7.356,3.602-10.845c1.656-3.754,4.283-6.889,7.305-9.733     c2.123-2.01,3.918-4.386,5.777-6.674c0.454-0.543,0.607-1.352,0.884-2.047c1.101-2.717,1.847-5.663,3.35-8.14     c3.59-5.929,7.875-11.276,13.07-16.016c10.391-9.48,22.792-15.206,35.797-19.692c8.823-3.046,18.165-3.16,27.391-1.782     c6.068,0.897,12.134,1.934,17.721,4.841c7.345,3.817,14.26,8.115,18.772,15.344c1.2,1.921,2.602,3.287,4.915,3.932     c7.105,2.01,13.753,5.043,19.061,10.352c2.795,2.793,5.323,5.852,7.863,8.886c1.958,2.352,3.716,4.88,5.663,7.256     c3.246,3.994,4.992,8.38,5.105,13.664c0.101,4.955-0.101,9.745-2.187,14.258c-2.022,4.386-4.259,8.684-6.421,13.045     c1.392,1.845,2.77,3.981,4.451,5.839c3.197,3.552,2.298,7.433,0.936,11.174c-2.227,6.092-9.317,11.414-15.775,11.792     c-1.429,4.917-2.958,9.784-4.197,14.726c-0.304,1.213,0.114,2.768,0.607,3.994C362.61,155.289,366.768,161.748,368.513,169.18z      M398.533,358.123c1.605-0.328,2.792,0.481,3.209,2.479c0.291,1.365,0.38,2.792,0.368,4.197     c-0.012,5.611-0.113,11.211-0.19,17.644c1.074-1.58,1.921-2.516,2.402-3.614c2.059-4.589,2.629-9.329,1.062-14.208     c-0.393-1.227-1-2.402-1.175-3.654c-0.128-0.884,0.012-2.338,0.555-2.679c1.252-0.785,2.476-0.025,3.197,1.187     c0.583,0.973,0.973,2.061,1.454,3.084c0.316-0.086,0.632-0.188,0.948-0.289c-0.454-12.452-5.221-23.209-12.892-32.523     c-5.234,1.049-9.949,1.997-14.701,2.945c0.785,3.906-0.341,7.216-2.35,10.339c-1.316,2.022-2.568,4.083-3.817,6.155     c-0.583,0.987-0.936,2.15-1.669,2.997c-3.086,3.577-3.338,7.925-3.476,12.299c-0.012,0.681,0.783,1.39,1.301,2.249     c3.084-1.807,5.133-3.918,5.839-7.179c0.444-1.997,0.948-3.995,1.619-5.928c0.365-1.049,0.96-2.163,1.782-2.896     c1.503-1.34,4.056-0.467,4.182,1.39c0.165,2.642,0.116,5.298,0.165,7.94c0.138,6.243-1.378,12.196-3.338,18.037     c-0.96,2.856-0.62,5.55-0.074,8.848c4.323-3.716,5.737-8.09,6.155-12.741c0.393-4.184,0.215-8.431,0.353-12.652     c0.027-0.987,0.077-2.111,0.558-2.92c0.365-0.62,1.466-1.2,2.148-1.126c0.644,0.076,1.276,0.987,1.733,1.656     c0.264,0.38,0.188,0.988,0.215,1.504c0.365,8.231,0.504,16.407-3.274,24.117c-1.089,2.212-0.684,4.602,0.227,6.94     c2.933-0.733,4.397-2.363,4.789-5.093c0.239-1.783,0.785-3.513,1.061-5.283c1.049-6.636,1.074-13.26,0.025-19.908     C396.699,360.046,396.524,358.515,398.533,358.123z M318.521,467.952c0.822,6.32,3.844,9.594,10.063,10.858     c7.848,1.592,15.558,0.708,23.169-1.516c1.856-0.543,3.792-1.708,5.523-1.442c2.666,0.393,4.032-0.884,5.449-2.54     c1.239-1.467,2.503-2.921,3.651-4.449c2.985-3.933,3.73-10.265,1.783-15.346C352.851,462.252,336.128,466.207,318.521,467.952z      M310.317,186.143c-2.819-1.314-11.855-2.388-17.328-2.047c2.805,9.29,5.599,18.517,8.406,27.783     C304.098,208.174,308.688,195.016,310.317,186.143z M371.71,209.641c-0.847-20.376-7.673-46.92-15.978-57.02     c-1.718,2.743-3.007,5.84-5.182,8.04c-4.399,4.449-9.1,8.633-14.03,12.488c-2.642,2.073-3.994,4.096-4.185,7.546     c-0.543,9.96-1.264,19.92-2.375,29.843c-0.936,8.38-2.503,16.697-3.755,25.052c-0.101,0.62,0.089,1.289,0.227,2.832     c2.377-3.274,4.222-5.815,6.258-8.608c2.614,0.607,5.219,1.175,7.799,1.82c3.108,0.796,4.498,0.404,6.268-2.225     c0.696-1.023,1.15-2.262,1.479-3.476c1.276-4.512,5.221-6.496,9.532-4.715c0.936,0.392,1.832,0.848,2.654,1.239     c3.022-2.047,3.553-2.856,3.918-5.864c0.138-1.137,0.153-2.301,0.43-3.413c0.494-1.972,1.316-3.628,3.881-3.363     C369.651,209.932,370.686,209.717,371.71,209.641z M235.312,327.066c0.469-2.768,0.899-5.384,1.316-7.912     c-11.756-2.565-22.095-7.71-32.333-13.929c-1.012,2.782-1.871,5.145-2.819,7.762c1.605,1.326,3.007,2.893,4.74,3.854     c4.602,2.516,9.241,4.982,14.042,7.041C224.935,325.903,229.915,326.979,235.312,327.066z M211.271,381.924     c1.025-2.958,1.82-5.535,1.568-8.443c-0.328-3.691-0.721-7.446-0.356-11.109c0.494-4.905,1.644-9.759,2.617-14.625     c0.368-1.807,3.111-2.288,4.323-0.708c0.659,0.871,1.049,2.074,1.19,3.172c0.276,2.037,0.353,4.096,0.39,6.157     c0.039,2.716,1.101,4.992,2.856,6.964c1.227,1.378,2.844,1.086,3.098-0.671c0.378-2.629,0.884-5.421,0.405-7.962     c-0.773-4.261-1.795-8.596-3.617-12.489c-2.01-4.283-2.93-8.367-1.35-12.83c-4.626-1.982-9.065-3.878-13.502-5.774     c-11.591,9.769-19.377,21.878-18.832,29.489c1.807-1.479,2.54-5.019,6.406-2.972c-0.491,1.276-0.896,2.568-1.479,3.767     c-0.657,1.378-1.642,2.629-2.2,4.046c-1.995,5.182-2.173,10.3,0.671,15.282c0.783-2.859,1.175-5.752,1.782-8.584     c0.795-3.767,1.617-7.52,2.718-11.198c0.758-2.528,2.237-3.301,3.918-2.491c2.01,0.96,1.15,2.528,0.669,3.982     c-0.037,0.114-0.126,0.227-0.163,0.341c-2.871,7.925-4.172,16.104-3.856,24.547c0.089,2.54,1.062,4.375,3.804,5.271     c1.908-3.185,1.758-6.219,1.086-9.278c-1.666-7.596,0.595-14.763,2.365-21.979c0.328-1.304,1.025-2.528,2.654-2.187     c1.731,0.365,2.111,1.844,1.871,3.311c-0.341,2.15-1.074,4.234-1.378,6.384c-0.543,3.906-1.252,7.848-1.202,11.769     C207.77,376.147,208.289,379.423,211.271,381.924z M299.41,220.309c-0.141-0.961-0.202-1.96-0.518-2.857     c-1.227-3.627-2.669-7.192-3.817-10.845c-2.39-7.584-4.779-15.156-8.559-22.196c-0.276-0.531-0.746-1.176-1.252-1.328     c-2.869-0.847-5.762-1.567-9.265-2.49c1.15,4.613,2.138,8.557,3.135,12.5c2.061,8.229,4.703,16.217,8.912,23.662     c4.221,7.47,8.164,15.092,12.235,22.651c0.279,0.531,0.644,1.012,1.086,1.707c3.009-2.629,5.424-5.36,6.814-8.861     c1.528-3.817,2.995-7.647,4.473-11.477c4.387-11.364,8.078-22.942,10.784-34.824c0.328-1.44,0.392-2.945,0.62-4.765     c-1.619,0.607-2.77,1.213-3.982,1.479c-3.273,0.708-4.777,2.617-5.525,5.954c-2.363,10.68-6.421,20.805-10.944,30.74     c-0.708,1.567-1.202,3.438-3.767,4.222C299.687,222.382,299.573,221.345,299.41,220.309z M300.938,249.406     c-1.617-0.341-2.16-1.531-2.136-3.173c0.012-1.1-0.101-2.352-0.632-3.274c-3.93-6.914-8.014-13.727-11.959-20.641     c-4.802-8.38-8.707-17.127-10.919-26.607c-1.19-5.107-2.782-10.137-4.412-15.13c-0.442-1.365-1.531-2.629-2.604-3.652     c-1.227-1.176-2.54-0.923-3.565,0.543c-4.587,6.636-9.416,13.108-13.739,19.908c-3.565,5.612-6.7,11.528-9.747,17.444     c-4.688,9.126-9.164,18.366-13.662,27.58c-2.543,5.196-5.36,10.277-7.396,15.661c-4.372,11.618-8.33,23.411-12.475,35.115     c-0.758,2.148-1.568,4.283-2.402,6.56c9.848,7.458,20.592,12.159,32.41,15.131c0.442-1.531,0.834-2.605,1.062-3.718     c2.73-13.042,5.461-26.087,8.14-39.132c1.96-9.544,3.831-19.086,5.727-28.631c1.099-5.523,2.034-11.085,3.323-16.558     c0.481-2.023,1.77-3.868,2.73-5.89c2.908,1.441,2.869,3.476,2.338,5.739c-1.516,6.345-3.096,12.665-4.461,19.036     c-1.049,4.89-1.706,9.86-2.73,14.75c-3.767,18.076-7.735,36.113-11.364,54.214c-2.276,11.299-4.031,22.715-6.118,34.051     c-1.442,7.811-3.412,15.548-4.488,23.396c-1.592,11.566-2.691,23.194-3.792,34.812c-0.933,9.833-1.666,19.681-2.286,29.526     c-0.316,4.979-0.165,9.986-0.279,14.978c-0.037,1.871,0.911,2.832,2.605,3.261c2.982,0.746,5.94,1.733,8.962,2.212     c9.226,1.429,18.479,2.795,27.744,3.933c7.13,0.884,14.284,1.54,21.439,1.982c4.424,0.279,8.885,1.202,13.435,0.089     c0.101-1.402,0.242-2.666,0.267-3.943c0.101-8.596,0.24-17.19,0.24-25.786c0-2.288-0.353-4.589-0.669-6.863     c-0.328-2.224,0.062-3.16,1.743-3.59c1.466-0.368,3.009,0.491,3.577,2.187c1.807,5.332,3.54,10.68,5.271,16.039     c2.414,7.419,4.893,14.813,9.063,21.436c0.518,0.089,0.886,0.203,1.264,0.203c0.886-0.012,1.782-0.074,2.681-0.126     c9.655-0.607,18.985-2.743,28.161-5.814c9.519-3.185,18.239-7.596,25.28-14.864c2.439-2.528,4.347-5.599,6.964-7.9     c2.439-2.163,3.212-4.424,2.439-7.421c-0.175-0.746-0.43-1.491-0.555-2.249c-0.746-4.412-1.466-8.823-2.224-13.247     c-1.289-7.572-2.237-15.23-4.056-22.675c-1.049-4.348-0.948-8.179,0.516-12.299c1.025-2.881,2.012-5.915,1.518-9.139     c-1.859,1.328-3.439,2.693-5.221,3.629c-1.037,0.543-2.565,0.847-3.627,0.491c-3.172-1.022-4.942-4.032-4.866-7.456     c0.126-4.817,0.871-9.431,3.854-13.45c0.672-0.899,1.012-2.034,1.592-3.224c-2.476-1.439-2.565-4.007-3.185-6.293     c-3.691-13.615-7.47-27.215-10.959-40.892c-2.086-8.189-3.614-16.533-5.55-24.774c-2.249-9.606-4.676-19.175-7.014-28.768     c-0.785-3.212-1.543-6.422-2.313-9.671c-2.39-0.367-4.525-0.758-6.688-0.999c-2.326-0.265-4.069,0.341-5.271,2.769     c-0.783,1.592-2.439,2.869-3.955,3.956c-1.506,1.062-3.274,1.847-5.031,2.465c-0.543,0.19-1.847-0.416-2.074-0.96     c-0.341-0.86-0.227-1.984-0.037-2.958c0.405-2.137,1.15-4.222,1.454-6.358c1.454-10.036,2.844-20.072,4.17-30.108     c0.405-3.122,0.506-6.295,0.733-9.442c-0.264-0.038-0.531-0.088-0.795-0.127c-0.684,2.427-1.175,4.93-2.086,7.281     c-3.501,9.1-7.117,18.151-10.707,27.201c-0.985,2.503-2.338,4.917-2.906,7.508c-0.355,1.605-1.163,2.743-1.896,4.057     c-1.378,2.453-4.399,3.577-5.056,6.624C303.442,248.685,302.481,249.722,300.938,249.406z M220.03,130.704     c-3.387,1.542-4.12,4.563-1.782,7.496c1.202,1.491,2.642,2.793,3.906,4.247c2.2,2.528,5.007,3.539,8.256,3.312     c2.387-0.164,4.765-0.607,7.456-0.961c-0.479-1.921-0.908-3.627-1.237-4.929c-2.617-1.213-4.715-2.199-7.194-3.362     c0.291,1.909,0.644,3.274,0.671,4.639c0.025,1.592-1.619,2.831-3.16,2.616c-1.491-0.215-2.402-1.403-2.074-3.047     c0.341-1.656,0.911-3.273,1.442-5.107c-1.923,0.139-3.552,0.265-5.157,0.38c-0.709-1.82,0.328-2.895,1.454-3.729     c1.945-1.453,4.222-1.757,6.584-1.188c1.491,0.367,2.97,0.759,5.182,1.327c-0.733-0.973-0.884-1.339-1.163-1.516     C228.866,127.961,224.429,128.706,220.03,130.704z M363.242,538.813c7.759,4.044,15.975,6.94,24.937,6.977     c2.301,0.012,4.261-0.518,5.979-2.135c-0.442-5.525-0.896-10.998-1.301-16.484c-0.165-2.123-1.276-3.715-3.123-4.461     c-3.78-1.518-7.71-2.681-11.502-4.184c-2.099-0.847-4.412-1.731-4.145-4.802c0.037-0.494-0.546-1.101-0.936-1.568     c-2.933-3.39-5.878-6.75-8.823-10.112c-1.657-1.896-2.289-2.074-4.108-0.405c-1.807,1.669-3.893,2.414-6.231,2.629     c-2.654,0.252-5.335,0.39-8.431,0.62c-1.101,1.82-1.644,4.069-0.064,5.636c2.326,2.301,4.779,4.651,8.305,5.258     c2.439,0.405,3.35,1.328,3.501,3.78c0.141,2.289,0.064,4.639-0.341,6.875C355.935,532.1,358.174,536.184,363.242,538.813z      M280.171,511.99c3.614,1.34,9.618-2.301,10.226-6.081c0.052-0.341-0.049-0.746-0.151-1.099c-1-3.16-1.997-6.308-3.135-9.885     c-3.362-0.215-6.688-2.565-10.744-0.847c0.494,2.844,1.037,5.335,1.341,7.836c0.328,2.656,0.316,5.36,0.718,8.001     C278.542,510.701,279.413,511.711,280.171,511.99z M407.633,317.573c-1.617-4.31-2.995-8.001-4.688-12.512     c-10.05,8.732-22.135,11.287-34.686,13.99c1.15,3.881,2.2,7.446,3.172,10.682c4.905-0.632,9.228-1.074,13.514-1.758     c6.458-1.037,12.791-2.617,18.276-6.382C404.954,320.405,406.357,318.763,407.633,317.573z M375.591,342.537     c2.464-3.335,2.743-6.142,2.237-9.379c-1.896,0.254-3.464,0.469-5.449,0.733C373.468,336.825,374.391,339.291,375.591,342.537z"
        />
			<g
          >
				<path
              fill="#E7E7F7"
              d="M407.495,317.734c-1.279,1.19-2.681,2.832-4.412,4.019c-0.064,0.039-0.128,0.076-0.19,0.116      c-1.202-4.565-2.54-9.102-4.019-13.615c1.338-0.921,2.654-1.921,3.93-3.034C404.498,309.733,405.875,313.423,407.495,317.734z"
          />
				<path
              fill="#E7E7F7"
              d="M375.477,329.376c-1.353,0.163-2.743,0.328-4.184,0.518c-0.973-3.237-2.022-6.801-3.172-10.682      c0.96-0.202,1.921-0.417,2.881-0.632C372.392,322.222,373.897,325.824,375.477,329.376z"
          />
				<path
              fill="#E7E7F7"
              d="M361.055,267.655c-0.355,15.346,2.906,31.03,8.164,46.06c-0.795,0.126-1.617,0.267-2.439,0.405      c-0.467-1.328-0.948-2.35-1.2-3.427c-2.832-12.373-5.513-24.786-8.458-37.147c-2.148-8.974-4.676-17.861-6.952-26.798      c-0.758-2.982-1.237-6.029-1.856-9.051c-0.291-1.428-0.203-2.666,0.681-3.993c1.276-1.91,2.163-4.071,3.261-6.105      c0.684-1.264,1.745-2.011,3.172-1.315c3.54,1.718,6.927,1.315,10.428-0.873c4.728,8.077,9.519,15.547,13.576,23.395      c3.755,7.283,6.863,14.904,9.998,22.488c3.881,9.354,7.495,18.822,11.262,28.213c0.657,1.644,0.101,2.553-1.264,3.515      c-0.62,0.442-1.252,0.859-1.884,1.276c-5.839-16.938-13.41-33.407-21.728-48.98c-0.457-0.859-1.049-1.479-1.706-1.896      c-1.997-3.365-8.102-2.871-9.292,1.415c-2.614-0.101-5.081,1.491-4.651,4.817c0.291,2.249,0.657,4.449,1.074,6.661      C361.129,266.732,361.067,267.174,361.055,267.655z"
          />
				<path
              fill="#E7E7F7"
              d="M324.801,269.842c-0.012,0.012-0.025,0.012-0.037,0.025      C324.676,269.576,324.688,269.576,324.801,269.842z"
          />
				<path
              fill="#E7E7F7"
              d="M300.055,434.565c-0.015,8.191-0.141,16.383-0.242,24.574c-0.025,1.276-0.163,2.54-0.264,3.943      c-4.55,1.113-9.013,0.19-13.437-0.089c-3.046-0.188-6.066-0.417-9.112-0.681c0.203-0.039,0.402-0.089,0.605-0.138      C290.863,458.986,296.235,446.588,300.055,434.565z"
          />
				<path
              fill="#E7E7F7"
              d="M385.829,426.64c-0.178-0.746-0.43-1.491-0.556-2.249c-0.748-4.412-1.466-8.823-2.227-13.247      c-1.289-7.572-2.237-15.232-4.056-22.676c-1.049-4.347-0.948-8.179,0.518-12.299c1.024-2.881,2.01-5.915,1.516-9.139      c-1.857,1.328-3.437,2.693-5.219,3.629c-1.037,0.543-2.568,0.847-3.629,0.491c-3.172-1.022-4.942-4.031-4.866-7.456      c0.126-4.816,0.871-9.431,3.856-13.45c0.669-0.899,1.01-2.034,1.592-3.224c-2.479-1.439-2.567-4.007-3.185-6.293      c-3.693-13.615-7.47-27.216-10.961-40.892c-2.084-8.189-3.614-16.533-5.547-24.774c-2.251-9.606-4.678-19.175-7.016-28.768      c-0.783-3.212-1.541-6.422-2.313-9.671c-2.387-0.367-4.525-0.758-6.685-0.999c-2.326-0.265-4.071,0.342-5.271,2.769      c-0.785,1.592-2.439,2.869-3.957,3.955c-1.503,1.062-3.274,1.847-5.031,2.466c-0.543,0.188-1.844-0.417-2.071-0.963      c-0.343-0.859-0.227-1.982-0.04-2.957c0.405-2.135,1.151-4.222,1.454-6.358c1.454-10.036,2.844-20.072,4.172-30.108      c0.405-3.123,0.506-6.295,0.733-9.443c-0.267-0.037-0.531-0.088-0.797-0.126c-0.681,2.427-1.175,4.93-2.086,7.28      c-3.501,9.101-7.115,18.151-10.704,27.202c-0.988,2.502-2.338,4.916-2.908,7.507c-0.353,1.606-1.163,2.743-1.896,4.057      c-1.378,2.453-4.399,3.577-5.056,6.622c-0.291,1.316-1.252,2.353-2.792,2.037c-1.619-0.343-2.163-1.531-2.138-3.172      c0.012-1.101-0.101-2.353-0.632-3.276c-1.074-1.882-2.16-3.765-3.249-5.637c0.331,3.135,0.785,6.257,1.405,9.328      c0.202,1.021,0.415,2.179,0.667,3.384c7.851-0.644,16.474-0.101,24.359,2.081c4.53-2.002,9.339-3.35,14.674-3.903      c5.246-0.543,6.202,5.977,2.975,8.838c-0.193,1.326-0.378,2.654-0.6,3.972c0.402,0.368,0.817,0.728,1.2,1.118      c1.311,1.336,1.634,2.876,1.353,4.286c4.446,25.48,8.821,50.985,14.185,76.302c2.516,11.857,5.056,23.752,8.191,35.456      c2.35,8.759,5.207,17.405,7.103,26.277c2.466,11.514,3.945,23.461-1.338,33.066c0.96,2.54,0.126,5.688-3.273,6.434      c-0.822,0.178-1.632,0.38-2.427,0.595c-0.583,0.506-1.19,1.037-1.834,1.516c-9.821,7.394-23.093,13.64-35.809,15.383h-0.012      c-0.948,0.368-1.871,0.708-2.832,1.037c0.077,0,0.138-0.012,0.215-0.012c9.658-0.607,18.985-2.743,28.163-5.814      c9.517-3.185,18.239-7.596,25.28-14.864c2.439-2.528,4.348-5.602,6.964-7.9C385.829,431.899,386.599,429.637,385.829,426.64z"
          />
				<path
              fill="#E7E7F7"
              d="M256.419,245.877c-1.049,4.89-1.706,9.86-2.73,14.75c-1.997,9.569-4.044,19.125-6.066,28.679      c2.123-5.547,4.372-11.06,6.041-16.773c0.084-0.286,0.21-0.526,0.326-0.778c1.133-15.02,4.506-30.993,13.418-42.351      c1.084-1.38,2.39-1.86,3.641-1.735c1.866-1.997,4.012-3.747,6.481-5.254c-5.55-3.008-10.314-8.431-13.79-12.893      c-0.291-0.379-0.607-0.783-0.911-1.187c-0.392,0.051-0.795,0.101-1.175,0.176c-1.086,0.228-2.074,0.114-2.921-0.202      c-1.933,5.625-3.841,11.275-5.737,16.913l3.034,1.023c0.58-1.744,1.681-3.375,2.513-5.145c2.908,1.442,2.871,3.476,2.34,5.739      C259.365,233.185,257.785,239.505,256.419,245.877z"
          />
				<path
              fill="#E7E7F7"
              d="M251.805,228.723c0.393-1.163,0.785-2.326,1.19-3.501l3.034,1.023c-0.089,0.241-0.153,0.492-0.215,0.746      c-1.291,5.473-2.227,11.035-3.325,16.56c-1.896,9.544-3.767,19.085-5.725,28.629c-2.681,13.045-5.411,26.087-8.142,39.132      c-0.227,1.113-0.62,2.187-1.062,3.718c-3.943-0.987-7.774-2.175-11.477-3.59c3.362-13.79,6.851-27.532,11.161-41.068      C241.708,256.368,247.105,242.652,251.805,228.723z"
          />
				<path
              fill="#E7E7F7"
              d="M236.487,319.314c-0.417,2.528-0.847,5.145-1.313,7.912c-4.387-0.074-8.495-0.807-12.388-2.16      c0.746-3.071,1.479-6.118,2.224-9.189C228.713,317.28,232.517,318.442,236.487,319.314z"
          />
			</g
        >
			<path
            fill="#8DCCD3"
            d="M248.875,463.654l51.797,4.491l1.582,1.266l4.424-3.229c0,0,7.92,24.12-12.02,24.752l7.596-11.709     l-4.115-2.533l-45.576-6.014l-0.632,6.33C251.931,477.008,245.5,467.076,248.875,463.654z"
        />
			<path
            fill="#8DCCD3"
            d="M326.626,477.958l-3.799-7.912c0,0,32.6-2.533,42.727-10.761l0.635,8.544c0,0,6.157,1.126,1.97-14.311     c0,0-25.774,11.393-49.637,14.435C318.521,467.952,317.447,477.324,326.626,477.958z"
        />
			<path
            fill="#A3C129"
            d="M280.732,517.836l10.129,1.898l-5.063,5.382c0,0-1.899,6.646,0,16.457v12.344     c0,0,6.011-0.948,2.214-20.256c0,0-1.217-6.48,6.355-12.102c0,0,4.812-3.918-1.089-9.517     C293.278,512.042,292.125,517.836,280.732,517.836z"
        />
			<path
            fill="#A3C129"
            d="M355.742,504.226c0,0,4.115-2.847,9.179,3.483c0,0,11.08,15.19,18.042,16.141     c0,0,9.492,7.278,10.127,17.091l1.069,2.713c0,0,4.31-15.057-2.651-20.436l-15.193-9.495l-13.292-14.561L355.742,504.226z"
        />
			<g
          >
				<path
              fill="#D6B4A1"
              d="M196.083,356.059c0.146-0.598,0.19-1.165,0.146-1.689c0.207-0.763,0.415-1.521,0.607-2.284      c0.133-0.531,0.161-1.024,0.146-1.498c0.244,0.101,0.489,0.2,0.77,0.269c0.669,0.16,1.281,0.173,1.857,0.106      c-0.225,0.272-0.439,0.593-0.627,0.988c-0.602,1.259-1.025,2.624-1.343,3.992c-1.308,5.458-2.523,10.924-3.965,17.195      c-0.19-0.504-0.37-0.948-0.543-1.363C193.417,366.457,194.824,361.238,196.083,356.059z"
          />
				<path
              fill="#D6B4A1"
              d="M216.245,347.909c-0.817,2.516-1.444,5.096-2.16,7.641c-1.706,6.004-1.832,12.124-1.531,18.244      c0.148,2.933-0.807,5.419-2.099,8.401c0.156-4.997,0.121-10.035,0.709-14.98c0.649-5.5,2.13-10.766,2.306-16.316      c0.017-0.528-0.106-0.96-0.311-1.313c0.175-0.094,0.353-0.173,0.521-0.276c1.38-0.867,2.646-2.496,3.296-4.017      c0.568-0.205,1.128-0.523,1.666-0.985c-0.743,0.639,0.193,0.091,0.978,0.348c1.057,0.343,2.029,0.879,2.95,1.521      c0.252,0.178,0.509,0.37,0.768,0.573c0.017,0.027,0.032,0.057,0.049,0.086c0.012,3.086-0.533,6.226-0.314,9.292      c0.222,3.204,0.881,6.009,2.298,8.564c-0.207,0.173-0.415,0.353-0.61,0.553c-2.348-2.486-3.678-5.014-3.493-8.34      c0.101-2.037,0.148-4.091,0.027-6.12c-0.067-1.103-0.326-2.318-0.889-3.224C219.378,345.905,216.831,346.142,216.245,347.909z"
          />
				<path
              fill="#D6B4A1"
              d="M202.216,385.696c0.059-2.36,0.222-4.713,0.089-7.073c-0.193-3.461-0.822-6.979,0.047-10.403      c1.348-5.298,3.377-10.487,3.288-15.998c0.343-0.101,0.667-0.234,0.965-0.405c0.583,0.114,1.192,0.124,1.795,0.042      c0,0.198-0.012,0.398-0.02,0.598c-0.427,0.249-0.862,0.632-1.215,0.953c-0.346,0.306-0.415,0.916-0.56,1.412      c-2.293,7.912-4.35,15.827-2.488,24.208c0.533,2.407-0.422,4.634-1.854,6.693C202.245,385.713,202.233,385.703,202.216,385.696z      "
          />
				<path
              fill="#D6B4A1"
              d="M192.632,346.67c-0.607-0.262-1.262-0.417-1.923-0.459c3.819-9.379,10.161-16.951,18.269-23.043      c4.841,2.252,9.199,4.281,13.593,6.32c-0.267,0.573-0.464,1.141-0.635,1.708c-4.55-2.884-12.391-4.666-17.328-1.96      c-4.212,2.308-7.473,7.586-9.285,12.358C193.518,342.542,192.521,344.658,192.632,346.67z"
          />
			</g
        >
			<path
            fill="#E7E7F7"
            d="M312.924,290.034c0,0-20.775,107.455-51.473,83.123C261.451,373.157,283.413,367.978,312.924,290.034z"
        />
		</g
      >
	</g
    >
</g
  >
<metadata
    ><rdf:RDF
      ><cc:Work
        ><dc:format
          >image/svg+xml</dc:format
        ><dc:type
            rdf:resource="http://purl.org/dc/dcmitype/StillImage"
        /><cc:license
            rdf:resource="http://creativecommons.org/licenses/publicdomain/"
        /><dc:publisher
          ><cc:Agent
              rdf:about="http://openclipart.org/"
            ><dc:title
              >Openclipart</dc:title
            ></cc:Agent
          ></dc:publisher
        ><dc:title
          >algerian boy ??? ??????</dc:title
        ><dc:date
          >2014-06-02T13:30:45</dc:date
        ><dc:description
          >??? ?????? ??????? ????????</dc:description
        ><dc:source
          >https://openclipart.org/detail/193951/algerian-boy-???-??????-by-osfor.org-193951</dc:source
        ><dc:creator
          ><cc:Agent
            ><dc:title
              >osfor.org</dc:title
            ></cc:Agent
          ></dc:creator
        ><dc:subject
          ><rdf:Bag
            ><rdf:li
              >??? ????? ????? ???? ??????</rdf:li
            ><rdf:li
              >??? ?????? ??????? ???????? ????</rdf:li
            ><rdf:li
              >????? ????? ????????</rdf:li
            ></rdf:Bag
          ></dc:subject
        ></cc:Work
      ><cc:License
          rdf:about="http://creativecommons.org/licenses/publicdomain/"
        ><cc:permits
            rdf:resource="http://creativecommons.org/ns#Reproduction"
        /><cc:permits
            rdf:resource="http://creativecommons.org/ns#Distribution"
        /><cc:permits
            rdf:resource="http://creativecommons.org/ns#DerivativeWorks"
        /></cc:License
      ></rdf:RDF
    ></metadata
  ></svg
>
