<?xml version="1.0" encoding="UTF-8" standalone="no"?>
<svg id="svg5842" xmlns:rdf="http://www.w3.org/1999/02/22-rdf-syntax-ns#" xmlns="http://www.w3.org/2000/svg" height="244.72mm" width="1436.9mm" version="1.1" xmlns:cc="http://creativecommons.org/ns#" xmlns:dc="http://purl.org/dc/elements/1.1/" viewBox="0 0 5091.2427 867.11243">
<g id="layer1" transform="translate(3599.9 -153.09)">
<g id="g5809" transform="translate(-1031.2 689.74)">
<path id="path5046" d="m-2182.6 287.1c5 24.775 15.625 43.356 28.125 43.356h106.25c12.5 0 21.25-18.581 15.625-43.356l-175-781.64c-5.625-24.775-15.625-42.117-28.125-42.117h-128.12c-12.5 0-22.5 18.581-28.125 43.356l-175 780.4c-5.625 24.775 3.1251 43.356 15.625 43.356h100c12.5 0 23.125-18.581 28.125-43.356l21.875-111.49h196.88l21.875 111.49zm-121.88-563.62h6.25l50 247.75h-109.37l53.125-247.75z"/>
<path id="path5048" d="m-1589.9 163.23c0-24.775-9.3751-43.356-21.875-43.356h-234.38v-613.17c0-24.775-9.375-43.356-21.875-43.356h-93.75c-12.5 0-21.875 18.581-21.875 43.356v780.4c0 24.775 9.375 43.356 21.875 43.356h350c12.5 0 21.875-18.581 21.875-43.356v-123.87z"/>
<path id="path5050" d="m-1158.1-522.93c-125.97 1.234-252.09-1.1611-377.97 1.2676-9.1549 8.459-6.6333 22.101-7.7882 33.238-0.041 40.841-0.6563 81.716 0.3506 122.54 0.7433 8.2105 1.4234 17.553 6.6075 24.122 9.8407 5.0189 20.984 0.001 31.434 1.7215 65.925-0.1982 131.85 0.11353 197.78-0.0418 4.2093 18.481-0.1393 38.585-11.875 53.485-73.341 135.02-150.7 267.89-220.88 404.6-16.18 47.447-8.0051 98.201-9.9846 147.34-0.1034 16.567-1.0743 34.071 6.6863 49.111 10.042 5.3026 21.362-0.0209 32.041 1.8856 121.05-0.53409 242.31 1.7433 363.22-1.2333 10.156-11.87 6.1733-28.523 7.2734-42.941-0.2994-43.554 2.6541-87.452-2.8418-130.71-2.2765-6.2769-9.5765-9.5216-15.838-7.6075-76.623 0.32145-153.25-0.17158-229.87 0.0372-5.0464-19.521 1.2068-40.39 13.19-56.107 72.908-134.09 149.63-266.15 219.48-401.88 16.294-47.545 7.8278-98.489 9.9433-147.78 0.075-16.73 1.2918-34.943-7.6597-49.84-0.92-0.73283-2.0776-1.3359-3.291-1.2031z"/>
<path id="path5052" d="m-1040.9-525.87c-10.271 3.3045-10.655 16.557-11.924 25.389-2.0793 29.565 0.4942 59.258-0.5191 88.881 0.1772 236.57-1.2627 473.16 0.9019 709.73 0.3578 8.4029 3.3977 20.517 13.512 21.057 20.128 0.46165 40.304-0.40842 60.455 0.32032 10.44-0.44599 21.432 1.0998 31.42-2.125 8.6211-7.1602 8.0724-19.918 8.7517-30.091 0.45576-96.628 0.22692-193.27 0.30299-289.9h203.19c1.4268 102.95-2.6528 206.02 2.2558 308.89 1.3024 7.3712 7.4669 14.908 15.734 12.887 29.04-0.20082 58.324 1.5226 87.205-0.95703 9.4564-5.4713 8.9298-18.284 9.8435-27.769 0.71057-93.367 0.20679-186.75 0.48803-280.12 0.10386-171.62 0.52547-343.26-0.92919-514.87-0.6028-8.0212-3.2688-19.672-12.885-20.672-21.019-1.0872-42.148 0.7878-63.203-0.58789-10.117 0.0329-20.958-0.81204-30.398 2.9512-9.257 9.876-6.8273 24.418-7.7114 36.773-0.62555 98.296-0.18604 196.59-0.34129 294.89h-203.19c-1.4878-107.33 2.7961-214.79-2.3926-322.03-1.4435-7.4692-8.2409-14.33-16.344-12.3-28.069-0.307-56.174 0.33881-84.221-0.34247z"/>
<path id="path5054" d="m-120.95-515.57c-38.306 1.4739-76.721 1.1148-115.07 1.1343-84.097-0.1996-168.61-2.1413-252.44 2.1606-6.2621 17.957-1.3904 37.32-3.1786 55.9 0.58604 252.73-2.4406 505.49 1.7489 758.19-0.0516 4.2068 3.3889 8.1596 7.8674 6.6063 22.55-1.2476 45.155 0.10762 67.736-0.31594 99.853 0.30693 199.74 1.864 299.56-1.5658 5.7755-10.762 1.8944-23.34 3.1777-34.951-0.088-42.593 3.732-85.741-3.2305-127.86-5.952-5.2397-14.305-0.41007-21.35-1.7224-87.43-0.20868-174.86-0.0749-262.29-0.12525v-167.52c71.661-2.4069 143.47 2.8068 215.04-2.373 7.5449-20.324 0.93433-42.257 3.4254-63.389 0.32062-33.386 2.3849-67.145-3.5465-100.08-9.4126-3.9322-19.63 0.82634-29.379-1.0888-61.845 0.12462-123.69-0.13527-185.54 0.0165v-155.28c94.563-1.8547 189.23 2.4455 283.73-2.043 7.4192-19.361 1.1966-40.301 3.457-60.492 0.10013-34.809 2.8476-69.982-3.9414-104.34-1.7898-0.85132-3.8304-0.93648-5.7754-0.85351z"/>
<path id="path5056" d="m217.29-509.94c-77.858 2.0266-155.84-2.6008-233.62 2.1934-5.4555 23.852 0.46216 48.471-2.3201 72.609-0.42169 27.36-1.2458 54.929 3.1463 81.975 13.368 1.9575 27.031-1.863 40.625-0.37084 12.958 0.2505 28.904 3.896 34.534 17.017 6.6149 16.337 1.1659 34.156 2.865 51.121-0.01033 143.07-0.0208 286.14-0.03103 429.21-25.652 6.9278-52.425 0.31568-78.387 3.7656-6.6517 22.781 0.35893 47.008-2.6904 70.453-0.42548 28.453-1.74 57.126 3.0126 85.258 12.597 1.278 25.225-1.7754 37.826-0.22207 67.544-0.21378 135.21 2.7925 202.65-1.6568 5.1602-22.987-0.46019-46.768 2.2446-70.052 0.3596-28.135 1.6288-56.504-3.3833-84.332-12.239-1.028-24.798 1.5348-37.187-0.0215-13.53-0.0848-27.059-0.26918-40.588-0.41986v-496.41c25.593-7.1919 52.364-0.52533 78.357-3.9004 6.7764-23.433-0.37525-48.27 2.6401-72.312 0.44512-28.054 2.5291-56.557-3.7631-84.071-1.9792 0.0579-3.9583 0.11589-5.9375 0.17383z"/>
<path id="path5058" d="m814.72-494.29c-11.339 0.23222-22.599 0.12129-33.658 2.6641-9.0719 31.526-13.361 64.178-21.687 95.888-32.83 152.33-58.986 306.26-98.95 456.93-21.62 25.607-68.759 16.903-81.057-13.854-15.932-71.416-29.914-143.33-44.642-215.03-22.098-108.83-44.362-217.71-70.413-325.63-8.2508-0.96767-16.713 1.4664-25.096 0.37891-23.824-0.16684-47.714-1.9962-71.494-0.28125-1.5344 106.11-0.3238 212.23-1.177 318.35-0.37386 153.88-0.6372 307.77 2.1184 461.63 16.083-0.01 32.218 1.6539 48.256 0.53907 3.5278-121.53-1.5653-243.13 1.8262-364.66 0.84104-22.593 1.8249-45.288 4.3008-67.721 18.503-28.338 66.926-25.124 82.688 4.3681 14.534 43.922 18.843 90.361 29.546 135.21 19.57 97.816 39.061 195.7 63.02 292.53 15.974-0.76496 31.997 0.48832 47.914 0.56641 5.7515-0.37823 6.2321-6.6097 7.3008-10.926 6.7431-26.07 10.107-52.887 16.974-78.928 23.768-113.64 44.491-227.99 72.102-340.8 15.371-28.544 62.109-28.68 78.861-1.4492 11.725 23.092 7.3525 49.963 7.0156 74.822 2.3893 118.75-2.6937 237.71 2.8809 356.36 15.778-0.20142 32.152 1.6336 48.156 0.65625 0.88596-64.943 0.0764-129.9 0.69335-194.84 0.43879-195.27 1.7405-390.56-1.9844-585.81-21.172 0.88514-42.325-1.1025-63.496-0.97265z"/>
<path id="path5060" d="m1388.7-486.3c-106.63 2.6143-213.31-1.8497-319.92 1.873-0.6411 167.69-0.8625 335.39-1.136 503.09 0.1016 86.874 0.6529 173.75 2.181 260.61 106.69-0.94978 213.41 2.395 320.07-1.168 0.2231-35.763 2.3792-71.608-0.3203-107.31-90.455-0.71702-181.03 2.2125-271.4-1.9648-13.608-6.6886-17.46-24.062-14.801-37.883v-184.36c72.586-4.3755 145.33 0.77301 217.95-2.3223 0.3898-35.948 1.5084-71.966-0.5293-107.87-72.473 0.2623-144.95-0.13777-217.42 0.0742v-212.8c95.555-2.3615 191.15 0.94842 286.71-1.498 0.2641-36.162 1.3801-72.384-0.2539-108.51l-0.9995 0.0328-0.1314 0.004z"/>
<path id="path5062" d="m1764.3-469.88c-62.136 1.2405-124.29-0.52084-186.43 0.77539-0.6602 244.22-2.3661 488.46 0.7285 732.67 3.274 0.98533-0.1474-6.5506 1.1423-8.4644 1.1659-102.13 0.3384-204.27 0.9319-306.4 34.32 19.773 75.251 18.196 113.49 17.413 33.78-0.90714 70.315 0.12936 99.343 19.676 32.518 22.303 49.386 60.416 58.75 97.474 15.872 60.215 29.571 121.14 50.648 179.83 3.6618 0.18332 7.4079 0.3294 11.078-0.16406-24.296-85.324-40.077-174.41-81.92-253.52-11.27-19.327-22.59-40.644-20.654-63.769 2.1458-27.152 20.812-49.666 41.904-65.336 17.866-12.676 26.778-34.173 32.879-54.388 9.302-35.793 10.922-73.286 8.6665-110.12-3.5736-48.824-16.395-98.133-43.97-139.14-20.08-27.19-52.075-47.053-86.59-46.532zm-2.9942 64.273c61.613 0.46397 117.46 53.578 121.7 114.92 11.671 56.916-2.2821 120.78-43.693 162.87-32.602 27.857-78.22 35.334-119.71 29.381-37.69-0.79356-76.295 4.3614-113.2-5.5938-21.532-13.269-30.914-41.155-25.828-65.338-0.038-78.698-0.076-157.4-0.1132-236.09 60.281-0.0466 120.56-0.0966 180.84-0.14453z"/>
<path id="path5064" d="m2069.9-504.76c-5.1419 0.11283-10.289 0.0506-15.428 0.27539 1.6962 38.355 4.0798 76.719 5.2946 115.11 1.9188 45.414 3.968 90.899 9.0746 136.07 7.6822 0.16302 15.415 1.293 22.996 0.7207 4.0737-45.354 4.0081-90.994 8.3418-136.35 2.3508-38.478 4.1337-77.01 3.6816-115.58-11.321 0.2165-22.64-0.30524-33.961-0.26172z"/>
<path id="path5066" d="m2398.8-472.43c-37.248 1.8097-72.159 23.844-92.285 54.961 54.45-39.428 133.78-41.914 189.33-3.3379-19.988-29.81-54.018-52.34-90.666-51.577-2.1269-0.0684-4.2555-0.0691-6.3832-0.0459zm-98.736 305.96c16.245 32.103 47.358 54.872 81.598 64.645 44.572 15.115 93.081 22.803 132.38 50.464 2.8742 1.9003 5.6998 3.8774 8.4601 5.9407-15.85-31.345-45.474-54.796-79.32-64.09-46.98-16.573-98.771-24.147-139.73-54.531-1.0682-0.73549-2.7-2.0536-3.3885-2.4278zm-2.4668 375.24c23.365 35.315 64.758 59.387 107.64 57.773 41.955-0.13624 84.865-21.326 106.79-57.838-61.827 44.142-152.16 45.88-213.56-0.0293-1.2114-0.91277-2.4945-1.9824-0.873 0.0937z"/>
</g>
</g>
</svg>
