<?xml version="1.0" encoding="utf-8"?>
<!-- Generator: Adobe Illustrator 15.1.0, SVG Export Plug-In . SVG Version: 6.00 Build 0)  -->
<!DOCTYPE svg PUBLIC "-//W3C//DTD SVG 1.1//EN" "http://www.w3.org/Graphics/SVG/1.1/DTD/svg11.dtd">
<svg version="1.1" id="Layer_1" xmlns="http://www.w3.org/2000/svg" xmlns:xlink="http://www.w3.org/1999/xlink" x="0px" y="0px"
	 width="288px" height="288px" viewBox="0 0 288 288" enable-background="new 0 0 288 288" xml:space="preserve">
<g>
	<g>
		<path d="M236.341,84.627H207.67V38.225h28.671V84.627z M213.459,79.849h17.092V43.004h-17.092V79.849z"/>
	</g>
	<path d="M236.341,84.627H48.748c0,0,34.938-19.776,63.797-9.888c0,0,11.009,3.56,38.707,3.56
		C189.129,78.299,186.214,82.652,236.341,84.627z"/>
	<g>
		<path d="M233.449,149.755c-1.424,9.002-23.008,13.683-29.623,15.592c-19.951,5.76-41.123,7.567-61.812,7.272
			c-18.898-0.27-37.779-3.904-55.833-9.313c-3.342-1.002-30.818-10.829-25.442-14.704c24.761-17.841,60.517-22.591,90.016-22.241
			c18.801,0.223,37.655,3.191,55.693,8.399c6.778,1.955,25.622,6.622,27.026,15.504c0.388,2.46,6.136,1.037,5.729-1.535
			c-1.496-9.485-18.408-13.935-25.771-16.477c-22.944-7.921-48.007-10.134-72.112-9.787c-20.936,0.301-41.792,4.973-61.337,12.275
			c-7.411,2.771-22.393,7.516-26.786,15.09c-3.225,5.563,16.284,12.344,19.08,13.468c22.917,9.219,48.443,12.955,72.996,13.303
			c23.681,0.339,47.978-3.316,70.375-11.053c7.01-2.422,22.151-7.258,23.582-16.309
			C239.663,146.511,233.826,147.359,233.449,149.755z"/>
	</g>
	<polygon fill="none" stroke="#000000" stroke-width="2" stroke-miterlimit="10" points="142.545,261.201 183.218,215.322 
		184.369,261.201 	"/>
</g>
</svg>
