<?xml version="1.0" encoding="utf-8"?>
<svg version="1.1" id="Layer_1" xmlns="http://www.w3.org/2000/svg" xmlns:xlink="http://www.w3.org/1999/xlink" x="0px" y="0px"
	 viewBox="0 0 2632.39 792.706" enable-background="new 0 0 2632.39 792.706" xml:space="preserve">
<g>
	<path d="M703.446,652.513c-12.43-3.309-28.237-5.379-44.412-8.227c-14.146-2.492-26.571-3.63-27.688-8.227
		c-0.856-3.624,10.746-5.74,23.227-8.227c14.224-2.833,27.888-4.726,37.722-8.227c3.236-1.154,5.53-2.901,4.885-4.113
		c-0.973-1.815-4.592-2.906-9.191-4.113c-12.563-3.294-28.422-5.371-44.57-8.227c-14.045-2.485-26.459-3.718-27.23-8.227
		c-0.624-3.805,11.094-5.732,23.666-8.227c14.24-2.825,27.847-4.703,37.533-8.227c3.153-1.149,5.314-2.94,4.604-4.113
		c-1.108-1.823-4.784-2.902-9.466-4.113c-12.694-3.28-28.603-5.364-44.721-8.227c-13.942-2.477-26.333-3.828-26.767-8.227
		c-0.365-3.975,11.441-5.724,24.101-8.227c14.253-2.817,27.802-4.68,37.337-8.227c3.07-1.144,5.094-2.973,4.322-4.113
		c-1.242-1.826-4.976-2.899-9.739-4.113c-12.823-3.266-28.779-5.356-44.866-8.227c-13.836-2.47-26.187-3.959-26.3-8.227
		c-0.081-4.131,11.785-5.716,24.532-8.227c14.264-2.809,27.752-4.656,37.134-8.227c2.986-1.138,4.872-3.002,4.039-4.113
		c-1.374-1.827-5.167-2.896-10.01-4.113c-12.95-3.252-28.951-5.349-45.003-8.227c-13.728-2.463-26.017-4.109-25.83-8.227
		c0.224-4.269,12.126-5.708,24.958-8.227c14.272-2.801,27.698-4.632,36.925-8.227c2.902-1.133,4.649-3.025,3.755-4.113
		c-1.504-1.825-5.357-2.893-10.281-4.113c-13.074-3.239-29.119-5.341-45.134-8.227c-13.619-2.455-25.82-4.275-25.356-8.227
		c0.546-4.388,12.466-5.7,25.379-8.227c14.278-2.793,27.641-4.606,36.709-8.227c2.818-1.127,4.425-3.044,3.47-4.113
		c-1.631-1.82-5.547-2.889-10.55-4.113c-9.176,0-18.352,0-27.528,0L460.676,73.768H280.421L157.995,405.714h27.528
		c4.01,1.197,7.249,2.43,7.516,4.113c0.229,1.476-2.717,2.943-6.505,4.113c-11.199,3.454-26.474,5.44-42.777,8.227
		c-14.926,2.552-27.44,3.578-31.448,8.227c-1.868,2.184,7.673,5.812,19.287,8.227c13.984,2.906,28.063,4.892,39.066,8.227
		c3.931,1.193,7.104,2.471,7.247,4.113c0.127,1.53-2.915,2.939-6.789,4.113c-11.35,3.435-26.695,5.433-42.993,8.227
		c-14.843,2.545-27.325,3.543-31.026,8.227c-1.812,2.313,8.039,5.803,19.762,8.227c14.022,2.897,28.06,4.875,38.935,8.227
		c3.852,1.189,6.953,2.517,6.976,4.113c0.018,1.582-3.113,2.935-7.073,4.113c-11.5,3.417-26.912,5.426-43.202,8.227
		c-14.759,2.538-27.216,3.514-30.6,8.227c-1.746,2.456,8.402,5.794,20.232,8.227c14.057,2.888,28.052,4.857,38.797,8.227
		c3.772,1.184,6.793,2.567,6.705,4.113c-0.099,1.631-3.31,2.931-7.356,4.113c-11.647,3.399-27.125,5.419-43.405,8.227
		c-14.672,2.531-27.112,3.493-30.17,8.227c-1.669,2.612,8.764,5.786,20.699,8.227c14.089,2.88,28.039,4.839,38.653,8.227
		c3.692,1.18,6.625,2.62,6.431,4.113c-0.223,1.675-3.506,2.927-7.638,4.113c-11.793,3.382-27.334,5.411-43.601,8.227
		c-14.583,2.525-27.012,3.482-29.735,8.227c-1.575,2.779,9.124,5.777,21.161,8.227c14.119,2.871,28.022,4.82,38.502,8.227
		c3.611,1.176,6.447,2.674,6.157,4.113c-0.352,1.713-3.702,2.923-7.919,4.113c-11.936,3.366-27.539,5.404-43.79,8.227
		c-14.491,2.517-26.916,3.484-29.295,8.227c-1.462,2.956,9.482,5.769,21.62,8.227c14.147,2.863,28.001,4.8,38.343,8.227
		c3.53,1.171,6.261,2.728,5.881,4.113c-0.485,1.746-3.898,2.919-8.199,4.113c-12.077,3.349-27.739,5.397-43.973,8.227
		c61.572,0,123.144,0,184.717,0c10.347-1.814,20.812-3.432,30.6-5.298c8.533-1.628,15.413-2.966,19.451-5.298
		c2.14-1.24,0.966-3.917-2.694-5.298c-5.628-2.121-13.283-3.603-22.051-5.298c-18.37-3.551-36.619-3.751-40.015-10.597
		c-2.204-4.524,16.805-7.302,36.343-10.597c20.521-3.459,39.649-3.648,43.801-10.597c2.411-4.097-15.547-7.233-33.32-10.597
		c-17.716-3.353-35.406-6.731-32.888-10.597c4.564-6.912,23.633-7.128,44.189-10.597c63.952,0,127.904,0,191.855,0
		c-18.179,3.461-37.133,4.384-37.05,10.597c0.144,6.406,19.938,7.225,40.027,10.597c20.146,3.381,39.899,4.033,40.459,10.597
		c0.459,6.026-18.518,7.146-36.662,10.597c-17.17,3.266-32.032,8.161-29.204,10.597c2.883,2.469,9.12,3.7,17.012,5.298
		c9.363,1.896,19.674,3.508,30.142,5.298c18.74,3.206,34.688,7.928,31.884,10.597c-6.739,6.359-24.522,6.942-42.912,10.597
		c61.87,0,123.739,0,185.609,0c14.206-2.841,27.925-4.747,37.904-8.227c3.319-1.159,5.743-2.858,5.165-4.113
		C711.525,654.824,707.962,653.717,703.446,652.513z M451.97,456.587c-37.181,0-74.363,0-111.544,0
		c7.619-1.787,13.219-4.659,11.919-6.359c-2.48-3.22-10.225-4.425-19.615-6.359c-21.967-4.521-48.355-4.805-47.212-12.718
		c0.465-3.048,8.087-4.493,17.165-6.359c11.23-2.307,23.687-4.161,35.99-6.359c11.04-1.973,20.04-3.418,25.053-6.359
		c2.341-1.378-0.284-4.659-6.078-6.359c-9.176,0-18.352,0-27.528,0l0.274-0.883c22.002-70.788,35.694-117.79,41.048-140.991
		c6.539,29.154,11.001,48.786,13.385,58.895c7.725,28.555,15.463,55.033,23.201,79.419l1.167,3.56h27.528
		c7.107,1.756,11.699,4.886,10.137,6.359c-3.339,3.133-11.299,4.403-20.994,6.359c-21.979,4.432-48.037,6.51-45.038,12.718
		c1.6,3.257,9.437,4.468,19.011,6.359c11.559,2.282,24.125,4.141,36.319,6.359c10.735,1.954,19.38,3.311,23.674,6.359
		C461.76,451.603,458.269,454.849,451.97,456.587z"/>
	<path d="M1332.381,652.012c-17.667-3.76-38.637-6.06-58.257-9.593c-8.188-1.476-14.828-2.794-19.204-4.796
		c-2.623-1.203-2.892-3.595-0.725-4.796c8.499-4.697,23.001-6.148,37.357-9.593c6.167-1.481,11.243-2.707,14.008-4.796
		c1.537-1.165,0.147-3.538-3.258-4.796c-5.231-1.931-12.522-3.301-21.259-4.796c-9.8-1.677-20.233-3.176-30.721-4.796
		c-19.145-2.958-35.958-3.596-38.207-9.593c-1.516-4.131,13.145-6.536,27.341-9.593c14.15-3.047,28.662-5.662,26.978-9.593
		c2.415-1.539-3.536-5.746-13.972-8.197c-13.069-3.068-27.148-4.788-37.405-8.979c-3.059-1.252-4.39-3.626-2.763-4.782
		c3.079-2.182,8.976-3.449,16.651-4.978c19.315-3.843,41.242-5.989,59.311-10.541c6.09-1.536,10.74-3.916,9.746-5.564
		c-1.669-2.746-7.977-3.997-15.837-5.759c-9.293-2.082-19.456-3.821-29.319-5.954c-8.481-1.835-15.712-3.003-17.797-6.149
		c-3.41-5.208,22.894-8.493,48.835-12.884c12.437-2.106,23.081-3.699,29.891-6.734c3.39-1.515,1.547-5.108-4.58-6.93
		c-13.869-4.116-31.511-6.097-47.264-9.971c-6.006-1.478-10.932-2.7-11.873-5.017c-0.655-1.63,3.355-3.614,8.569-5.038
		c15.438-4.208,35.196-6.316,53.565-10.138c7.375-1.536,13.219-2.743,15.931-5.1c1.392-1.214-0.946-3.726-5.198-5.121
		c-13.635-4.465-32.173-6.375-49.338-10.305c-6.734-1.543-12.176-2.721-13.832-5.184c-0.964-1.444,2.702-3.751,7.847-5.205
		c15.589-4.397,35.658-6.436,53.837-10.472c7.019-1.559,12.657-2.744,14.163-5.267c0.908-1.533-3.106-3.796-8.51-5.288
		c-9.176,0-18.352,0-27.528,0c1.129-11.743,1.71-23.635,1.71-35.685c0-91.605-27.817-166.424-83.435-224.427
		c-55.633-58.003-127.161-87.004-214.611-87.004c-86.865,0-158.992,29.447-216.396,88.343
		c-57.417,58.895-86.111,132.961-86.111,222.196c0,12.487,0.515,24.677,1.534,36.577h27.528c6.452,1.696,10.462,4.734,8.909,6.14
		c-3.299,2.974-10.868,4.235-20.147,6.088c-10.652,2.126-21.702,3.899-31.949,6.035c-8.671,1.809-15.68,3.021-17.79,5.983
		c-3.201,4.543,19.464,8.033,41.307,11.808c10.997,1.901,20.835,3.554,28.463,5.825c5.208,1.552,7.817,4.476,6.036,5.773
		c-3.658,2.655-10.725,3.968-19.353,5.72c-9.799,1.99-19.953,3.679-29.463,5.668c-8.226,1.721-14.82,2.986-17.782,5.615
		c-1.466,1.307,1.61,4.054,6.839,5.563c16.617,4.787,38.276,6.768,57.618,10.968c7.37,1.602,13.232,2.814,14.666,5.405
		c0.883,1.609-3.33,3.843-8.754,5.353c-15.633,4.344-34.19,6.213-48.887,10.548c-4.954,1.463-8.429,3.802-7.415,5.195
		c1.804,2.463,7.4,3.624,14.449,5.143c18.356,3.951,38.969,6.158,56.235,10.128c6.369,1.466,11.398,2.676,12.484,4.985
		c0.718,1.54-2.926,3.539-7.581,4.933c-13.454,4.021-29.89,5.968-43.97,9.708c-5.316,1.413-9.65,2.694-10.193,4.775
		c-0.427,1.662,3.392,3.392,8.262,4.723c14.408,3.932,33.263,6.057,52.183,9.288c15.823,2.703,29.38,5.783,27.64,9.078
		c-1.77,3.316-9.318,4.497-17.901,6.423c-9.832,2.206-19.672,3.971-28.17,6.219c-6.635,1.757-11.694,4.309-10.626,6.016
		c1.872,2.968,8.902,4.122,17.609,5.812c22.687,4.398,46.972,6.668,65.965,11.012c6.625,1.517,11.746,2.936,12.182,5.2
		c0.353,1.878-3.772,3.571-8.453,4.996c-12.593,3.829-26.146,5.564-35.509,9.38c-3.04,1.241-4.627,3.301-3.527,4.384
		c1.95,1.912,6.314,2.967,11.862,4.18c14.785,3.23,32.703,5.289,51.051,7.749c17.54,2.352,32.163,4.343,42.924,6.933
		c7.182,1.73,11.726,4.333,10.903,6.117c-1.19,2.559-5.297,3.774-8.842,5.302c-7.585,3.269-10.005,6.536-5.924,8.157
		c7.142,2.828,18.693,3.845,31.778,4.894c14.06,1.125,27.842,1.631,40.633,1.631c13.831-0.001,25.379-0.784,35.821-2.065
		c12.012-1.475,26.134-3.763,45.69-6.193c24.147-2.999,54.16-5.624,84.989-10.318c12.179-1.856,22.353-2.798,25.488-6.705
		c1.521-1.911-5.798-5.22-15.527-7.736c21.679,3.323,42.194,5.8,40.145,10.82c-2.869,6.878-20.668,7.03-37.075,10.82
		c-7.256,1.677-13.274,2.963-16.329,5.41c-1.578,1.268,0.788,3.97,5.501,5.41c7.029,2.144,16.365,3.693,27.2,5.41
		c11.692,1.852,23.542,3.514,34.72,5.41c9.868,1.674,17.918,3.115,23.193,5.41c3.022,1.317,2.996,4.056,0.081,5.41
		c-11.14,5.16-28.181,6.501-42.887,10.82c-5.248,1.543-9.29,3.85-8.343,5.41c1.606,2.626,7.66,3.821,15.379,5.41
		c20.655,4.246,44.455,6.518,64.687,10.82c-12.092-4.44-28.178-6.099-41.569-10.262c-4.674-1.455-8.15-3.692-7.217-5.131
		c1.597-2.446,7.143-3.624,14.251-5.131c19.136-4.052,41.738-6.36,62.093-10.262c8.042-1.543,14.313-2.787,17.482-5.131
		c1.613-1.197-0.212-3.742-3.986-5.131c-12.089-4.441-28.176-6.1-41.569-10.262c-4.676-1.455-8.155-3.691-7.223-5.131
		c1.594-2.446,7.139-3.625,14.245-5.131c19.134-4.052,41.735-6.361,62.092-10.262c8.044-1.543,14.316-2.788,17.488-5.131
		C1337.975,655.946,1336.154,653.401,1332.381,652.012z M1150.072,412.694c-6.206,3.093-16.248,4.61-27.883,6.676
		c-24.347,4.324-48.548,7.208-45.721,12.438c1.607,2.931,8.157,4.082,15.797,5.761c9.151,2.01,18.869,3.642,28.23,5.455
		c8.661,1.678,15.81,3.134,20.736,5.149c3.16,1.295,3.982,3.704,2.121,4.843c2-6.337-22.764-8.074-47.54-11.826
		c-24.709-3.742-49.321-5.772-47.061-11.826c1.081-2.841,7.415-4.13,14.805-5.913c8.671-2.09,17.828-3.795,26.285-5.913
		c7.007-1.756,13.126-3.334,13.219-5.913c0.078-2.535-6.422-4.216-14.402-5.913c-3.533,0-7.067,0-10.6,0
		c3.52,1.295,5.638,3.512,4.508,4.685c-2.081,2.151-7.099,3.296-13.583,4.685c-17.162,3.674-37.656,5.962-57.153,9.371
		c-8.313,1.454-15.187,2.787-20.029,4.685c-3.109,1.221-4.224,3.538-2.636,4.685c6.798,4.896,20.59,6.119,34.794,9.371
		c6.45,1.477,11.946,2.773,15.672,4.685c2.333,1.199,2.492,3.528,0.267,4.685c-3.83,1.988-9.939,3.255-17.578,4.685
		c-8.921,1.67-18.787,3.132-29.072,4.685c-10.226,1.545-19.917,3.002-28.551,4.685c-7.269,1.418-12.992,2.643-16.272,4.685
		c-2.744,1.715,5.904,6.595,18.264,9.371c14.216,2.197,28.146,4.092,40.384,6.47c9.647,1.876,17.588,3.411,17.873,6.47
		c0.693,8.138-24.506,7.933-43.038,12.939c-6.807,1.841-11.677,4.93-10.16,6.469c3.269,3.3,11.945,4.53,23.001,6.47
		c13.182,2.311,27.433,4.222,41.335,6.469c12.382,2.002,22.384,3.526,28.284,6.47c-4.356,3.012-12.266,3.697-20.08,4.687
		c-8.598,1.088-15.85,1.559-21.204,1.56c-8.477-0.001-12.69-1.505-15.615-2.9c-2.346-1.118-5.413-2.397-9.963-3.625
		c-6.188-1.668-14.841-3.292-26.382-5.075c-13.238-2.044-28.66-3.997-44.962-6.525c-14.31-2.22-27.58-2.784-30.807-7.976
		c-1.764-2.873,10.812-6.262,25.975-9.426c15.667-3.269,33.876-7.258,30.695-10.877c-4.476-5.042-18.743-6.082-36.315-8.956
		c-18.815-3.076-36.121-4.563-46.134-9.489c-2.442-1.205-2.289-3.682,0.415-4.944c4.43-2.065,11.068-3.459,19.063-5.077
		c17.619-3.566,35.373-4.147,42.912-10.555c1.482-1.267-1.191-3.985-6.145-5.477c-7.205-2.168-16.593-3.779-27.272-5.61
		c-21.788-3.735-45.723-4.446-44.746-11.62c0.395-2.746,7.055-4.221,15.087-6.01c9.88-2.199,20.959-3.989,31.98-6.143
		c9.807-1.917,17.944-3.226,21.91-6.276c1.803-1.392-2.018-4.646-8.771-6.409c-9.176,0-18.352,0-27.528,0
		c-1.29-11.557-1.936-23.748-1.936-36.577c0-51.157,10.402-90.867,31.232-119.129c20.817-28.248,49.971-42.387,87.45-42.387
		c76.143,0,114.221,54.141,114.221,162.408c0,12.958-0.438,24.843-1.301,35.685h27.528
		C1150.493,407.587,1153.029,411.216,1150.072,412.694z"/>
	<path d="M1859.626,550.612c6.828-2.097,15.781-3.66,26.064-5.416c10.849-1.852,21.617-3.517,31.378-5.536
		c8.056-1.667,14.595-2.836,16.467-5.656c2.883-4.392-18.239-7.764-38.969-11.674c-10.118-1.909-19.008-3.477-25.24-6.017
		c-3.616-1.477-3.505-4.631,0.429-6.138c6.784-2.593,16.635-4.24,28.19-6.258c12.179-2.126,23.945-3.938,33.863-6.378
		c7.253-1.786,11.98-5.018,10.314-6.498c-3.68-3.254-12.313-4.561-22.994-6.619c-23.937-4.61-50.923-9.553-46.448-13.599
		c3.927-3.522,13.419-4.812,25.148-6.98c13.155-2.43,26.321-4.376,37.52-7.1c8.031-1.955,12.386-5.734,9.981-7.221
		c-5.697-3.507-16.48-4.996-29.449-7.341c-13.698-2.476-26.504-4.341-36.007-7.461c-5.484-1.804-5.434-5.746,0.262-7.581
		c14.684-4.722,34.668-6.614,52.958-10.713c7.082-1.588,12.804-2.791,14.201-5.356c0.869-1.61-3.403-3.845-9.023-5.356
		c-9.176,0-18.352,0-27.528,0V73.768h-182.039v331.946h27.528c4.728,1.271,8.521,2.458,9.134,4.351
		c0.461,1.443-2.578,3.119-6.537,4.351c-11.736,3.648-27.438,5.656-43.407,8.703c-13.486,2.574-25.044,6.081-23.124,8.703
		c3.749,5.067,17.139,5.959,32.471,8.703c21.429,3.834,42.568,6.539,40.221,11.455c-1.299,2.68-7.281,3.86-14.48,5.45
		c-8.795,1.941-18.545,3.529-28.429,5.266c-18.078,3.177-34.426,5.691-32.909,9.977c2.131,5.884,17.189,6.421,32.15,9.238
		c15.36,2.892,28.066,4.351,33.847,8.498c2.266,1.634-4.539,5.678-14.539,7.759c-13.216,2.748-27.66,4.718-41.364,7.02
		c-12.249,2.059-21.714,3.719-27.506,6.281c-3.132,1.388-2.894,4.238-0.243,5.542c4.319,2.12,9.875,3.392,15.475,4.803
		c12.016,3.027,20.421,4.738,22.528,7.389c2.978,3.791-16.121,5.909-30.325,5.911c-7.77-0.001-14.505-0.552-20.854-1.478
		c-7.165-1.045-15.553-2.675-26.899-4.433c-13.881-2.151-31.88-4.393-53.202-7.389c-19.663-2.764-42.561-4.262-40.33-10.345
		c2.969-7.875,26.982-7.221,49.349-13.301c7.273-1.98,10.565-6.113,6.87-7.759c-8.504-3.777-22.905-5.6-40.121-8.498
		c-16.815-2.831-32.359-3.382-37.03-9.238c-2.286-2.896,12.27-6.812,29.423-9.977c9.418-1.737,18.765-3.318,27.209-5.266
		c6.854-1.582,12.663-2.816,13.609-5.45c1.924-5.469-19.489-7.621-40.918-11.455c-15.332-2.744-28.722-3.635-32.471-8.703
		c-1.92-2.621,9.639-6.129,23.124-8.703c15.968-3.046,31.67-5.055,43.407-8.703c3.959-1.232,6.999-2.908,6.537-4.351
		c-0.613-1.893-4.406-3.08-9.134-4.351c-9.176,0-18.352,0-27.528,0V73.768h-182.04v331.946h27.528
		c5.233,1.407,9.468,3.07,9.179,4.91c-0.343,2.129-4.954,3.482-10.598,4.91c-15.466,3.91-33.922,6.018-50.109,9.82
		c-8.276,1.946-13.68,5.382-11.948,6.918c3.933,3.47,13.139,4.726,24.277,6.81c24.894,4.656,52.502,7.926,48.694,13.296
		c-2.42,3.374-10.551,4.539-20.32,6.486c-11.379,2.267-23.17,4.111-33.962,6.378c-8.945,1.879-16.33,3.186-17.389,6.269
		c-0.756,2.238,5.718,4.402,13.433,6.161c9.89,2.253,21.148,4.018,32.552,6.053c10.676,1.906,19.715,3.49,25.92,5.945
		c3.647,1.446,3.842,4.432,0.593,5.837c-5.63,2.429-13.845,3.929-23.365,5.729c-20.29,3.834-40.301,3.936-43.133,11.133
		c-1.996,5.199,18.102,7.392,37.498,10.701c19.784,3.375,37.61,3.845,40.854,10.268c2.022,4.074-14.121,6.842-29.863,9.836
		c-16.602,3.158-31.226,4.11-36.125,9.404c-2.218,2.417,9.784,6.401,24.034,8.972c17.17,3.096,34.099,5.257,47.58,8.54
		c5.063,1.234,8.949,2.32,10.581,4.108c0.958,1.053-0.496,2.917-3.033,4c-19.364,8.237-47.17,5.43-56.701,14.919
		c-3.125,3.161,15.816,7.771,36.516,11.022c11.46,1.8,22.616,3.416,32.745,5.244c8.736,1.577,15.644,2.949,19.984,5.066
		c2.491,1.218,2.417,3.67,0.085,4.889c-3.776,1.969-9.219,3.252-15.402,4.711c-13.573,3.201-25.908,4.625-31.763,8.889
		c-2.355,1.723,5.335,5.994,17.074,8.178c15.814,2.938,33.569,5.03,50.951,7.466c15.895,2.228,28.646,4.107,37.423,6.755
		c5.313,1.605,7.46,4.661,5.864,6.044c-6.819,5.885-17.583,6.131-20.374,9.955c-1.687,2.331,7.635,5.426,19.565,7.111
		c32.474,4.578,65.934,5.687,92.9,5.689c24.875-0.002,40.946-2.217,53.165-4.628c8.769-1.73,19.508-3.756,34.056-5.785
		c18.38-2.562,41.333-4.989,67.558-8.1c12.719-1.509,24.89-3.014,35.739-4.918c8.797-1.545,15.832-2.636,18.2-5.497
		c2.942-3.587-16.477-7.1-33.464-12.73c-5.616-1.864-7.985-5.667-4.53-7.233c7.755-3.505,21.173-5.274,38.127-7.812
		c18.317-2.741,36.005-4.802,49.703-8.391c4.76-1.249,8.6-2.579,8.744-4.413c0.127-1.7-3.448-3.212-7.941-4.558
		c-9.845-2.942-22.227-4.896-34.425-7.825c-9.496-2.281-15.45-6.702-12.645-8.306c7.607-4.331,22.438-5.893,40.493-8.787
		c18.347-2.94,34.663-4.181,42.901-9.268c1.848-1.145,0.948-3.539-2.116-4.814c-4.703-1.953-11.335-3.35-19.164-4.935
		c-16.907-3.421-33.707-4.064-40.59-10.23C1852.365,554.659,1854.935,552.055,1859.626,550.612z"/>
	<path d="M2596.11,656.626c-0.836-1.803-4.398-2.909-8.915-4.113c-12.43-3.309-28.237-5.379-44.412-8.227
		c-14.146-2.492-26.571-3.63-27.688-8.227c-0.856-3.624,10.746-5.74,23.227-8.227c14.224-2.833,27.888-4.726,37.722-8.227
		c3.236-1.154,5.53-2.901,4.885-4.113c-0.972-1.815-4.592-2.906-9.191-4.113c-12.563-3.294-28.422-5.371-44.57-8.227
		c-14.045-2.485-26.459-3.718-27.23-8.227c-0.624-3.805,11.094-5.732,23.666-8.227c14.24-2.825,27.847-4.703,37.533-8.227
		c3.153-1.149,5.313-2.94,4.604-4.113c-1.108-1.823-4.784-2.902-9.466-4.113c-12.694-3.28-28.603-5.364-44.721-8.227
		c-13.942-2.477-26.332-3.828-26.767-8.227c-0.364-3.975,11.441-5.724,24.101-8.227c14.254-2.817,27.802-4.68,37.336-8.227
		c3.07-1.144,5.094-2.973,4.322-4.113c-1.242-1.826-4.976-2.899-9.739-4.113c-12.823-3.266-28.779-5.356-44.866-8.227
		c-13.836-2.47-26.187-3.959-26.3-8.227c-0.081-4.131,11.785-5.716,24.532-8.227c14.264-2.809,27.752-4.656,37.134-8.227
		c2.986-1.138,4.872-3.002,4.039-4.113c-1.374-1.827-5.167-2.896-10.01-4.113c-12.95-3.252-28.951-5.349-45.003-8.227
		c-13.729-2.463-26.017-4.109-25.83-8.227c0.224-4.269,12.126-5.708,24.958-8.227c14.272-2.801,27.698-4.632,36.925-8.227
		c2.902-1.133,4.649-3.025,3.755-4.113c-1.504-1.825-5.357-2.893-10.281-4.113c-13.074-3.239-29.119-5.341-45.134-8.227
		c-13.619-2.455-25.82-4.275-25.355-8.227c0.546-4.388,12.466-5.7,25.379-8.227c14.278-2.793,27.641-4.606,36.709-8.227
		c2.818-1.127,4.425-3.044,3.47-4.113c-1.632-1.82-5.547-2.889-10.55-4.113c-9.176,0-18.352,0-27.528,0L2344.425,73.768H2164.17
		l-122.427,331.946h27.528c4.01,1.197,7.249,2.43,7.516,4.113c0.229,1.476-2.717,2.943-6.505,4.113
		c-11.198,3.454-26.474,5.44-42.777,8.227c-14.926,2.552-27.44,3.578-31.448,8.227c-1.868,2.184,7.673,5.812,19.287,8.227
		c13.984,2.906,28.063,4.892,39.065,8.227c3.931,1.193,7.104,2.471,7.247,4.113c0.127,1.53-2.915,2.939-6.79,4.113
		c-11.35,3.435-26.695,5.433-42.993,8.227c-14.844,2.545-27.325,3.543-31.026,8.227c-1.812,2.313,8.038,5.803,19.761,8.227
		c14.022,2.897,28.06,4.875,38.935,8.227c3.852,1.189,6.953,2.517,6.976,4.113c0.018,1.582-3.113,2.935-7.073,4.113
		c-11.5,3.417-26.912,5.426-43.202,8.227c-14.759,2.538-27.216,3.514-30.6,8.227c-1.746,2.456,8.402,5.794,20.232,8.227
		c14.057,2.888,28.052,4.857,38.797,8.227c3.772,1.184,6.793,2.567,6.705,4.113c-0.099,1.631-3.31,2.931-7.356,4.113
		c-11.647,3.399-27.125,5.419-43.405,8.227c-14.672,2.531-27.112,3.493-30.17,8.227c-1.668,2.612,8.764,5.786,20.699,8.227
		c14.089,2.88,28.039,4.839,38.653,8.227c3.692,1.18,6.625,2.62,6.431,4.113c-0.223,1.675-3.506,2.927-7.638,4.113
		c-11.793,3.382-27.334,5.411-43.601,8.227c-14.583,2.525-27.012,3.482-29.734,8.227c-1.575,2.779,9.124,5.777,21.161,8.227
		c14.119,2.871,28.022,4.82,38.501,8.227c3.611,1.176,6.447,2.674,6.157,4.113c-0.352,1.713-3.702,2.923-7.919,4.113
		c-11.936,3.366-27.539,5.404-43.79,8.227c-14.491,2.517-26.916,3.484-29.295,8.227c-1.462,2.956,9.482,5.769,21.62,8.227
		c14.147,2.863,28.001,4.8,38.343,8.227c3.53,1.171,6.26,2.728,5.881,4.113c-0.484,1.746-3.898,2.919-8.199,4.113
		c-12.077,3.349-27.739,5.397-43.972,8.227c61.572,0,123.144,0,184.716,0c10.347-1.814,20.812-3.432,30.6-5.298
		c8.533-1.628,15.413-2.966,19.451-5.298c2.14-1.24,0.966-3.917-2.694-5.298c-5.628-2.121-13.283-3.603-22.051-5.298
		c-18.37-3.551-36.619-3.751-40.015-10.597c-2.204-4.524,16.805-7.302,36.343-10.597c20.521-3.459,39.649-3.648,43.801-10.597
		c2.411-4.097-15.547-7.233-33.32-10.597c-17.717-3.353-35.406-6.731-32.888-10.597c4.563-6.912,23.633-7.128,44.188-10.597
		c63.952,0,127.904,0,191.856,0c-18.179,3.461-37.133,4.384-37.05,10.597c0.144,6.406,19.938,7.225,40.027,10.597
		c20.146,3.381,39.899,4.033,40.459,10.597c0.459,6.026-18.518,7.146-36.662,10.597c-17.17,3.266-32.032,8.161-29.204,10.597
		c2.883,2.469,9.121,3.7,17.012,5.298c9.363,1.896,19.674,3.508,30.142,5.298c18.74,3.206,34.688,7.928,31.884,10.597
		c-6.739,6.359-24.522,6.942-42.912,10.597c61.87,0,123.739,0,185.609,0c14.206-2.841,27.926-4.747,37.904-8.227
		C2594.264,659.581,2596.688,657.882,2596.11,656.626z M2335.718,456.587c-37.181,0-74.363,0-111.544,0
		c7.619-1.787,13.219-4.659,11.919-6.359c-2.48-3.22-10.225-4.425-19.615-6.359c-21.967-4.521-48.354-4.805-47.212-12.718
		c0.465-3.048,8.087-4.493,17.165-6.359c11.23-2.307,23.687-4.161,35.99-6.359c11.04-1.973,20.041-3.418,25.053-6.359
		c2.341-1.378-0.284-4.659-6.078-6.359c-9.176,0-18.352,0-27.528,0l0.274-0.883c22.002-70.788,35.694-117.79,41.049-140.991
		c6.54,29.154,11.001,48.786,13.386,58.895c7.723,28.555,15.462,55.033,23.2,79.419l1.167,3.56h27.528
		c7.107,1.756,11.699,4.886,10.136,6.359c-3.339,3.133-11.299,4.403-20.994,6.359c-21.979,4.432-48.037,6.51-45.038,12.718
		c1.599,3.257,9.437,4.468,19.011,6.359c11.559,2.282,24.125,4.141,36.318,6.359c10.735,1.954,19.38,3.311,23.674,6.359
		C2345.508,451.603,2342.017,454.849,2335.718,456.587z"/>
</g>
</svg>
