<?xml version="1.0" encoding="utf-8"?>
<svg version="1.1" id="Layer_1" xmlns="http://www.w3.org/2000/svg" xmlns:xlink="http://www.w3.org/1999/xlink" x="0px" y="0px"
	 viewBox="0 0 1536 1920" enable-background="new 0 0 1536 1920" xml:space="preserve">
<path d="M62.98,64.7c8.22-3.15,16.27-6.9,24.86-8.91c57.002-4.212,71.968,22.383,90.79,33.83c6.02,3.75,11.25,8.64,15.86,14.02
	c0.48-0.04,1.43-0.14,1.91-0.18c0.02-1.39,0.04-2.77,0.07-4.14c0.42,0.11,1.27,0.33,1.7,0.44c0.4,1.07,0.79,2.15,1.14,3.25
	c0.107,11.01-10.61-14.601,20.84,61.84c1.65,4.11,2.35,9.13,6.49,11.6c3.62-0.11,7.23-0.01,10.85,0.08
	c0.369-11.099-2.124-40.466,11.95-44.21c12.32,10.74,14.72,27.81,18.24,42.82c1.75-1.56,2.74-3.7,4.03-5.61
	c1.83-2.35,4.3-4.15,5.94-6.66c3.74-5.8,6.2-12.37,10.4-17.88c1.35-1.76,2.44-3.7,3.44-5.68c0.41,0.07,1.23,0.22,1.64,0.29
	c6.27,10.47,5.24,23.53,0.85,34.49c-0.14,1.43-1.96,3.89-0.04,4.71c2.14-1.165,14.148-14.343,18.95-24.86
	c3.78-2.8,8.89-4.24,11.07-8.77c1.07-2.33,2.78-4.24,5.58-3.86c-0.03,0.48-0.1,1.45-0.14,1.93c-8.081,6.333,4.279,3.545,44.1,27.15
	c48.615,27.554,64.23,60.267,50.65,74.44c-3.19-2-6.43-4.15-10.2-4.85c-17.276-3.021-30.047-2.28-41.97,10.18
	c-1,1.22-2.23-0.25-3.21-0.68c-5.36-3.74-11.83-5.08-17.78-7.55c-18.993-7.132-26.874-2.728-39.91,8.96
	c-5.623-6.088-12.263-17.11-28.98-13.91c-2.564,1.502-7.632,7.118-31.12,12.78c-1.18,4.6-4.38,8.57-3.56,13.61
	c-0.97,0.1-2.93,0.31-3.91,0.41c-0.01-3.84-0.08-7.67,0.08-11.5c-0.48,0.05-1.42,0.15-1.89,0.2c-0.9,5.25-3.61,10.15-7.57,13.7
	c-4.718,4.134-9.174,0.777-39.48,6.51c-4.27-9.3-7.75-19.29-15.15-26.72c-0.66-6.04,4.12-10.48,7.41-14.94
	c2.44-2.95,2.62-8.76-1.62-10.16c0.02,1.41,0.05,2.82,0.09,4.23c-1.39,0.68-2.7,1.49-3.93,2.43c-0.68-0.01-2.03-0.03-2.7-0.04
	c-0.24,0.55-0.72,1.66-0.95,2.21c-0.57-0.09-1.7-0.29-2.26-0.38c-1.61-4.13,2.26-7.21,5.82-8.26c-0.02-0.33-0.06-1-0.08-1.33
	c-10.382-9.937-9.34-20.719-30.92-27.9c-5.08-1.77-10.53-1.36-15.74-2.5c-0.372-30.248-7.388-36.009-14.69-46.16
	c-3.47-2.16-6.11-5.31-8.95-8.19c-2.51-2.56-6.07-3.87-8.23-6.8c-1.67-2.15-3.46-4.25-5.87-5.6c-2.6-1.1-2.25-4.29-3.19-6.51
	c-8.139-22.995-30.967-41.565-37.45-45.01C55.74,67.06,60.17,66,62.98,64.7z"/>
<path d="M934,58.37c22.372,2.92,66.376,32.044,82.03,48.42c2-2.16,4.32-4.16,7.52-3.52c-0.01,0.54-0.03,1.63-0.04,2.17
	c-0.76,0-2.28,0-3.04,0c-1.81,3.48,1.66,6.88,0.32,10.46c-2.45,11.49-3.4,23.37-1.66,35.03c0.76,8.86-3.94,17.06-3.77,25.88
	c2.67-0.24,5.07-1.75,7.81-1.58c2.462,3.933-0.09,4.854,7.99,4.16c0.14-1.53,0.27-3.06,0.44-4.59c2.07-1.4,4.29-1.2,6.12,0.49
	c1.813,1.754,1.598-0.117,10.95-10.06c-3.271-36.72-1.11,5.247-2.96-52.34c0.37-3.46-3.05-5.45-3.77-8.6
	c1.4-0.03,2.84-0.04,4.27-0.03c1.59,1.12,3.21,2.22,4.83,3.32c24.27-18.013,45.079-32.272,77.24-39.35
	c0.06-0.15,0.18-0.43,0.24-0.57c9.715-1.545,38.666-5.989,38.41,4.26c-12.238,6.578-20.93,29.471-21.73,43.12
	c-4.414,14.226-35.396,21.465-46.9,79.34c-24.244-0.451-24.898,14.907-30.86,20.12c-4.323,4.015-18.999,21.648-12.46,29.49
	c2.46,2.766,3.135,10.375-3.32,8.28c-3.473-1.65-0.58-9.029-6.14-6.75c-4.08,3.35-3.8,9.71-8.47,12.6
	c-5.46,3.67-10.94,7.44-15.1,12.63c-6.393-7.835-5.586-20.402-7.89-34.94c-0.77-0.1-1.53-0.19-2.27-0.28
	c-0.44,1.08-0.87,2.16-1.29,3.24c-1.53-0.04-3.05-0.09-4.56-0.16c-0.48-1.23-0.95-2.46-1.41-3.68c1.22-2.55,2.62-5.17,2.27-8.11
	c-5.36-5.6-8.97-12.6-12.17-19.59c-1.81-3.68-1.8-8.19-4.77-11.25c-12.507-13.613-29.337-3.704-28.38-12.98
	c0.159-6.397-3.865-25.085-12.46-42.25c-23.06-29.866-25.679-28.701-25.48-33.8c-0.205-4.664-3-30.649-18-40.61
	C897.52,62.826,918.821,55.553,934,58.37z"/>
<path d="M1365.98,68.64c3.38-1.36,6.54,0.67,7.76,3.88c5.729,1.583,64.057-2.717,88.19,13.52c6.146,3.862,22.863,15.854,22.61,23.45
	c-7.348-3.583-18.003,4.224-21.44,12.95c-9.075,1.331-46.17-11.045-66.01,23.22c-2.88-0.27-5.17-2.59-8.13-2.27
	c-15.66,0.036-19.442,0.719-26.23,9.56c-2.63,4.67-4.58,11.01-1.44,15.9c2.27,4.85,1.32,10.44,1.34,15.63
	c-2.09,0.27-4.19,0.24-6.26,0.04c-0.18,6.46,0.46,12.98,2.39,19.17c-9.081,6.576-11.648-2.736-18.12-0.74
	c-2.82,1.81-5.7,3.75-9.22,3.59c-0.09-2.49,1.9-3.77,3.88-4.78c-2.43-2.26-6.29-0.81-9.28-1.38
	c-21.927-2.137-30.949,17.241-31.71,24.76c-0.59,3.93,0.32,7.85,0.4,11.78c-16.298,13.722-18.49,6.243-33.14,41.15
	c-0.97,7.55-2.43,15.04-3.33,22.61c-4.834,3.678-14.095,4.637-21.21,22.38c-18.663-20.868-20.52-52.99-17.73-81.11
	c-0.241-20.284,7.604-29.817,3.06-35.39c-1.07-1.21-0.87-2.87-0.96-4.35c2.5,0.04,3.96,2.21,5.64,3.72
	c4.07-2.53,6.87-6.52,10.75-9.3c14.02-10.81,30.66-18,43.73-30.1c3.81-3.55,3.38-9.12,4.97-13.71c-0.42-0.96-0.83-1.92-1.23-2.87
	c-3-1.61-6.28-3-8.63-5.53c-0.72-1.87-0.31-3.91-0.3-5.85c2.01-0.58,4.07-1.07,6.18-1.32c4.839-6.482,1.791-12.12,14.86-18.24
	c0.08-2.64,0.64-5.22,2.29-7.34c1.1-0.33,2.22-0.67,3.36-1.01c1.03,0.37,2.08,0.73,3.15,1.1c1.13,1.91,1.87,4.24,3.74,5.6
	c16.882,1.02,12.669,5.99,20.12,0.65c3.87-3.22,8.73-5.03,12.38-8.55c1.552-1.491,16.753-19.267,25.78-33.5
	c0.72-1.23,0.47-2.75,0.62-4.12C1367.83,70.79,1366.89,69.72,1365.98,68.64z"/>
<path d="M800.11,74.92c13.86-1.849,19.758-7.518,39.6-5.12c0.513,5.814-0.314-0.08-10.3,28.35c-2.1,5.05-2.95,10.49-3.71,15.86
	c-0.26,2.45,2,5.47-0.77,7.13c-16.101,0.481-65.078,19.293-49.88,55.68c-26.421-3.343-49.479,27.402-76.49,32.84
	c0.09,1.34,0.18,2.68,0.28,4.03c-9.855,2.271-8.868-1.426-11.82,10.42c-1.27,6.4-5.15,11.77-7.76,17.64
	c-8.579-2.451,3.833-2.677-18.29,4.65c-5.3,1.71-11.22,1.96-16.42-0.22c-8.373-3.4-29.942-2.069-27.95-34.12
	c-0.03-1.79,0.38-3.83-0.74-5.38c-11.296-15.735-50-33.75-68.3-34.42c-0.33-3.95-0.08-8.14-2.06-11.72
	c-12.421-23.382-49.136-26.839-74.71-19.76c-2.58-4.66-4.39-9.79-7.97-13.81c-3.371-3.865-22.194-21.791-26.7-24.85
	c6.233-9.59,16.097-9.941,24.73-11.02c3.11-0.42,6.27-2.14,9.42-0.97c25.858,10.253,59.9,31.799,64.94,35.5
	c26.695,17.489,16.473,14.603,25.16,15.04c3.33,2.59,5.77,6.13,9.13,8.7c31.625,23.35,55.576,29.918,62.34,38.74
	c7.3,9.766,12.726,4.72,18.01,3.66c22.392-3.555,24.176,6.891,32.72-10.11c6.571-11.224,24.408-27.242,29.38-35.64
	c-0.52-0.96-2.43-1.88-1.2-3.02C725.364,137.585,788.529,76.858,800.11,74.92z"/>
<path d="M607.97,339.98c1.21,1.16,2.82,1.56,4.44,1.82c0.7-2.66,1.04-6.05,4.19-6.87c0.456,16.4-2.923,7.958-2.17,40.05
	c1.522,17.055,7.804,39.052,24.23,44.27c9.713,3.323,10.028-2.865,13.42-6.32c2.35-1.32,5.16-1.8,7.16-3.72
	c2.31-2.16,5-3.81,8.02-4.76c0.46,1.95,0.92,3.89,1.35,5.86c2.93,1.55,6.29,2.87,8.06,5.87c2.55,4.1,3.48,9.42,8.03,11.99
	c-2.59,2.64-5.94,4.64-7.82,7.91c-0.85,2.66-0.69,5.81-2.67,7.99c-2.01,2.46-4.58,5.3-3.24,8.76
	c6.604,18.391,12.145,28.885,32.03,33.41c36.849,11.233,23.564,3.526,35.94,3.91c-0.04,2.96-4.61,2.77-4.38,5.82
	c0.161,5.314,8.933,25.206,11.67,34c6.47,24.36,4.514,53.869,1.05,64.05c-8.96-6.435-4.658-5.766-20.59-6.51
	c-5.471-3.911-17.791-23.528-31.64-28.43c-8.17-2.93-17.32-5.03-25.81-2.21c3.845-26.866-21.074-33.839-43.15-28.37
	c-4.46,1.35-6.88,5.53-9.51,9.01c-1.15,0.16-2.3,0.28-3.45,0.35c0.1-4.05,3.79-6.68,4.65-10.56c-5.2,0.29-9.69,3.27-14.72,4.15
	c-5.31-0.23-7.01-6.64-11.77-8.15c-4.03-2.03-9.16-0.99-12.7-4.05c0,0-6.176-16.619-8.53-21.51c-1.24-2.49-4.34-4.79-3.04-7.86
	c2.122-5.947,10.296-16.889,1.99-17.45c-2.35-0.46-3.48,2.13-5.06,3.32c-2.35-1.19-2.91-3.39-2.46-5.82
	c3.35-1.02,6.55-2.43,9.73-3.89c2.159-18.963,2.491-48.697-12.65-60.34c-2.19-0.66-4.44-0.98-6.66-1.42
	c-0.36-0.53-1.06-1.57-1.42-2.09c-0.313-10.692,5.231-13.674-6.71-33.81c-21.317-35.136-32.184-30.95-30.35-40.35
	c0.91-6.35-3.14-11.77-5.21-17.45c-0.98-3.08-3.83-4.8-6.19-6.72C517.469,290.418,582.845,320.165,607.97,339.98z"/>
<path d="M1478.81,348.99c-17.319,14.073-23.771,33.574-23.34,47.01c-0.1,2.86,0.64,6.43-2.14,8.31
	c-35.299,25.48-28.495,17.455-49.35,60.67c-2.5,3.03-7.27,3.04-9.59,6.38c-7.24,10-7.27,22.98-5.44,34.7
	c1.09,5.63,0.14,11.49,1.76,17.04c7.861,3.657,8.384,3.599,9.08,9.53c-2.6,1.04-5.41,1.17-8.15,1.22c0.05-3.04-2.63-4.44-4.91-5.67
	c-3.115,10.022-0.008,9.393-0.27,13.96c-4.278,6.234-10.284,7.155-10.21,20.64c-4.088-0.798-11.822-5.381-23.2,1.27
	c-3.282,2.12-12.799-6.535-19.21-3.33c-0.44,2.93-1.02,5.83-1.51,8.75c-2.41,0.34-5.33,0.11-6.67-2.22
	c-0.11-2.31,0.7-4.51,0.91-6.79c-9.854-9.516-30.311-7.971-43.63-2.65c-3.21,1.11-4.83,4.65-7.8,5.91
	c-5.02-0.72-10.03-1.99-15.15-1.23c1.99-0.33,3.98-0.66,5.99-0.98c-1.115,0.091-40.023-3.206-42.73,28.65
	c-15.485,0.331-12.817,0.842-36.27,8.26c-6.02,1.99-10.64,6.99-13.18,12.69c-1.02-0.54-2.22-0.93-2.43-2.2
	c-1.5-4.09-3.05-8.28-3.03-12.69c-0.25,0.56-0.49,1.13-0.72,1.71c-0.174-16.575-7.057-56.5,51.81-108.58
	c2.74-2.51,1.66-6.56,2.18-9.82c3.23,1.56,2.38,5.98,4.13,8.71c4.934,1.238,27.083,3.262,47.32,2.09c0.74-1.88,1.73-3.65,2.69-5.42
	c-0.74-1.13-1.83-1.96-2.72-2.92c-2.38-1.75-1.27-5.48-3.7-7.23c-5.42-4.69-9.06-10.96-12.86-16.93c0.47-1.55,2.04-1.63,3.42-1.49
	c1,0.801,11.516,10.462,18.16,10.27c1.2-1.09,2.36-2.27,3.78-3.11c2.04-0.27,4.12-0.2,6.19-0.25c0.153-6.474,7.628-22.291,19-21.64
	c2.39,4.18,2.13,9.13,4.02,13.49c1.49,3.99-1.15,7.94-0.5,11.98c16.771,3.34,16.471-1.74,22.77-27.08
	c0.846-4.565,9.278-51.715,8.79-59.18c-0.41-3.28-0.87-6.56-0.82-9.87c3.72,1.06,3.4,5.64,4.55,8.63
	C1354.516,378.867,1453.38,321.692,1478.81,348.99z"/>
<path d="M1115.92,365.23c5.613,1.459,38.814,10.796,46.16,14.79c-0.86,1.41-2.42,1.48-3.88,1.56
	c-13.491,10.185-22.109,33.238-20.69,48.38c-0.03,3.06,0.57,6.51-0.96,9.3c-7.296,4.978-12.877,2.145-29.3,17.01
	c-5.703,4.858-15.332,22.189-18.91,25.3c-5.42-1.49-9.99,1.99-14.85,3.66c-14.667,4.97-17.034,16.337-40.81,33.45
	c-11.223,10.658-10.034,8.725-7.33,14.31c-0.86,1.51-1.68,3.04-2.41,4.62c-1.5-0.31-3.63,0.5-4.47-1.16
	c-1.3-2.04-0.78-4.63-1.12-6.9c-21.139,0.627-34.259,19.404-36.36,21.55c-14.341-19.023-26.779-9.054-43.23-22.71
	c-3.5-0.2-3.33,4.89-3.2,7.32c-3.15,0.11-5.88-1.62-8.11-3.66c1.91-2.71,4.27-5.1,5.94-7.99c0.418-2.752-13.435-21.128-24.32-29.13
	c-8.083-5.528-24.351-9.712-31.18-8.34c-1.7,0.6-2.36-1.44-3.2-2.43c-5.445-8.476-23.142-24.967-38.11-29.56
	c-2.63-1-5.55-1.68-7.65-3.64c-0.63-7.15-4.5-13.35-9.17-18.58c-5.93-10.71-13.3-22.18-25.64-26.07
	c2.975-6.092,35.75-21.649,36.75-22.18c7.249-3.321,35.652-22.237,71.19-11.41c2.91,0.71,5.79,1.89,8.83,1.86
	c1.98-1.71,3.87-3.74,6.77-3.4c0,0.69-0.02,2.07-0.02,2.76c-1.43,1.63-3.36,3.97-1.65,6.11c4.94,6.57,7,14.71,11.52,21.54
	c3.31,4.99,6.79,9.88,9.59,15.2c3.69,4.94,8.89,8.52,12.77,13.32c2.86,3.78,7.05,6.41,11.61,7.62c0.05-1.21,0.12-2.42,0.18-3.63
	c-5.36-5.56-5.27-14.16-3.37-21.17c6.422,0.5,17.1,11.1,18.84,12.51c3.92-1.33,7.67-3.52,11.98-3.15c3.56-0.43,8.61,0.52,10.5-3.4
	c2.57-4.72,6.93-7.98,10.6-11.78c0.73-0.82,1.97-0.49,2.95-0.73c4.07,16.043,1.55,13.441-1.25,27.54
	c17.877,0.523,31.078-27.156,39.08-36.79c4.6-5.18,8.71-10.82,12.25-16.77c0.85-3.76-0.97-7.65,0.35-11.42
	c3.7,0.21,2.67,4.15,3.06,6.77C1076.224,373.698,1092.41,360.419,1115.92,365.23z"/>
<path d="M161.43,378.57c1.19-2.98,2.26-7.88,6.44-7.37c-0.64,3.12-3.84,6.78-0.71,9.54c7.92,6.02,14.96,13.15,23.01,19.05
	c46.4,32.574,41.457,29.097,49.15,28.41c11.686-12.497,1.917-6.611,9.57-16.68c1.41-0.02,2.82,0.01,4.24,0.11
	c1.25,1.32,1.77,3.68,3.92,3.84c16.746,3.758,11.549,4.662,17.93,7.12c3.44-0.6,7.64-2.37,10.44,0.77c1.23,3.17-0.56,6.31-2.31,8.86
	c1.96,2.31,4.75,3.93,7.88,3.52c24.23-4.57,47.19-14.66,67.87-27.97c8.406-4.367,6.307-7.486,6.69-14.66
	c0.99,0.79,2.1,1.46,2.86,2.48c2.21,2.43-1.51,6.37,1.69,8.26c10.54,5.29,21.8,9.11,32.22,14.69
	c28.942,13.049,49.075,36.876,48.23,48c-8.211-0.571-11.913-5.357-28.46,9.79c-4.636,5.212-7.959-4.434-31.1-4.04
	c-6.732,0.161-15.529-1.843-36.33,11.44c-3.05,1.73-4.5,5.21-7.57,6.9c-2.62-4.1-5.99-8.56-11.21-9.14
	c-6.27-0.43-12.84-0.47-18.71,2.08c-7.311,2.547-24.307,16.733-28.78,22.33c0.32,0.54,0.98,1.62,1.31,2.16
	c-2.22,2.31-3.83,5.11-6.06,7.41c-1.79,0.22-3.59-0.01-5.38-0.1c0.18-3.39,5.21-3.53,4.71-7.37c-4.42,1.53-8.59,3.69-12.98,5.3
	c-3.31,0.52-6.61-0.88-9.95-0.61c-5.19-0.17-9.98,2.11-15.02,2.82c-3.92-0.27-6.64-3.61-9.91-5.44c-7.47-4.07-15.7-6.39-23.49-9.74
	c0.63,2.33,0.96,4.72,1.13,7.14c-0.96,0.02-1.92,0.04-2.87,0.07c-1.17-2.51-2.97-4.78-3.63-7.49c0.78-3.2,3.11-6.55,1.31-9.84
	c-11.812-25.843-28.526-33.351-41.53-31.75c-4.68,0.03-7.74,4.47-12.2,5.13c-0.888-1-11.597-17.276-32.01-27.24
	c-12.83-6.46-27.8-7.4-41.77-5.02c-4.152-3.304-1.763-8.905-18.69-18.61c-1.84-1.22-4.08-1.24-6.2-1.4
	C59.433,390.621,137.527,378.243,161.43,378.57z"/>
<path d="M344.34,599.08c3.31,4.08-3.54,6.57-3.23,10.81c2.67-0.98,5.33-1.96,8.07-2.72c0.13-0.11,0.38-0.34,0.5-0.45
	c50.479-8.567,84.097-5.43,86.88,44.39c-0.34,0.39-1.01,1.17-1.35,1.56c-1.62-4.07-4.15-7.67-6.64-11.23
	c-2.653-3.855-11.462-2.964-24.16,6.83c-16.569,13.102-21.218,34.523-23.28,40.63c-7.47,3.27-14.44,7.53-21.26,11.98
	c-8.246,5.611-31.483,30.639-32.3,31.65c-3.813,4.971-20.82,28.423-19.02,34.44c1.14,4.64-0.56,9.35,0.12,14.06
	c-2.38,1.9-6.59,2.82-8.31-0.38c-2.69-2.27,1-5.07-0.13-7.74c-2.35,0.89-3.63,3.19-5.46,4.77c-3.66,3.73-8.1,6.61-11.73,10.36
	c-3.07,4.07-0.41,9.32-0.56,13.87c-5.634-0.713-3.103-9.363-15.54-11.22c-6.41-1-12.61-3.67-19.19-3.19
	c-0.15,1.54-0.3,3.11-0.45,4.68c-2.88-0.18-6.04,0.61-8.71-0.75c-1.44-0.63-1.01-2.41-1.29-3.63c0.68-0.39,2.04-1.19,2.72-1.59
	c-6.217-11.461-25.95-22.109-27.71-23.32c-21.81-9.816-29.197-4.91-34.33-5.34c-6.32-0.34-12.69-0.53-19,0.05
	c-3.88,0.45-8.16,2.14-11.8-0.13c-12.019-7.1-19.568-16.237-39.18-8.8c-1.62,0.76-3.28-0.25-4.87-0.58
	c-17.825-5.762-27.942,16.313-21.54,39.75c-12.216-3.054-33.547-75.819,43.08-113.95c3.81-2.18,8.1-4.45,9.91-8.7
	c-0.68-2.08-1.25-4.2-1.87-6.29c0.87-0.16,1.74-0.33,2.61-0.47c1.68,2.95,3.68,5.8,4.48,9.16c3.51,2.95,7.55,5.14,11.66,7.13
	c9.5,4.77,17.38,12.85,27.99,15.29c7.953,1.51,28.913,0.637,29.82-10.01c0.27-3.33,2.14-6.15,3.42-9.14
	c-4.281-5.139-17.93-16.894-16-22.36c3-3.63,8.31-1.8,12.26-1.07c6.23,0.74,9.2,7.27,15.03,8.89
	c14.762,6.188,14.395-9.842,39.23-12.92c1.16,0.83,2.77,1.9,2.39,3.6c-1.397,11.2-7.433,14.375-10.52,19.98
	c5.073,4.134,7.677,10.955,17.03,6.19c7.892-4.278,24.868-7.531,41.02-33.07c6.33-6.75,11.24-14.67,17.4-21.58
	C341.331,606.417,337.112,605.359,344.34,599.08z"/>
<path d="M897.89,626.71c11.806-1.916,30.926,7.521,33.09,9.11c-14.315,18.754-9.176,40.034-16.9,44.5
	c-20.966,11.354-37.651,46.46-43.1,55.64c-7.013,10.492-12.559,4.391-21.06,7.04c-20.022,5.799-33.106,25.024-46.68,30.8
	c2.15,2.47,2.71,5.61,2.3,8.8c-2.96-0.72-5.9-2.64-9.02-1.82c-3.17,1.33-3.37,5.12-4.15,7.99c-0.53-0.01-1.59-0.04-2.12-0.06
	c6.401,2.516-21.164,27.899-26.41,32.43c-3.29,2.76-7.34-0.04-10.7-1.14c-10.28-4.25-21.81-7.15-29.83-15.32
	c-3.04-2.8-3.99-8.03-8.54-8.94c-3.24,0.09-5.33,3.1-7.68,4.93c-0.69-0.36-2.07-1.09-2.76-1.46c0.78-2.06,1.21-4.21,1.22-6.41
	c-8.79-4.49-18.37-7.05-27.57-10.53c-28.591-10.781-36.232-9.059-49.02-8.89c-5.13-0.19-10.25,4.12-15.15,0.95
	c-4.55-3.06-7.71-7.79-12.13-11.07c-30.755-31.958-52.175-23.529-60.85-39.03c-4.54-11.42-13.52-20.23-20.37-30.22
	c1.248-4.167,26.779-15.342,50.52-14.66c64.596-0.589,58.901,14.768,69.65,2.24c0.47-0.03,1.41-0.1,1.88-0.13
	c0.05,0.56,0.15,1.67,0.2,2.22c-0.82,0.71-1.63,1.43-2.44,2.16c0.01,0.85,0.02,2.55,0.02,3.39c9.464,4.907,64.159,28.781,68.97,20.7
	c1.04-1.46,0.01-3.32,0.09-4.93c-0.84-3.6,2.51-6.47,2.14-10.04c0.01-3.3-3.07-5.29-4.69-7.83c-1.82-1.87-1.44-4.57-1.44-6.94
	c-0.2,0.56-0.38,1.13-0.56,1.71c-0.1-4.52-3.3-7.97-4.92-11.97c-2.7-5.73-2.75-12.24-5-18.11c-0.63-1.93-1.59-3.89-1.26-5.97
	c1.15-1.44,2.65-2.59,4.3-3.4c3.253-0.307,17.819,11.724,23.11,20.35c3.04,4.15,4.12,9.24,5.58,14.07c0.73-0.39,2.2-1.19,2.93-1.58
	c-2.407-14.205,10.678-29.173,22.04-38.54c13.235-5.714,9.64,28.13,5.39,43.11c-0.88,2.72-3.2,5.18-2.34,8.24
	c1.92,2.04,4.96,2,7.51,2.72c0.25,2.78-0.74,6.4,1.86,8.33c1.67,1.77,4.53,1.82,6.58,0.67c17.415-10.157,50.596-37.798,49.99-43.73
	c-1.23-1.11-2.43-2.25-3.56-3.44c4.42,0.06,9.24,2.59,13.29-0.48C851.451,635.864,878.565,631.661,897.89,626.71z"/>
<path d="M1127.1,680.19c1,0.463,83.474,23.379,94.51,18.15c0.13-4.11,0.08-8.22,0.05-12.32c0.14,2.35,0.24,4.71,0.54,7.07
	c0.12-2.58,0.11-5.15,0.2-7.72c1.8,0.57,3.6,1.35,5.5,1.69c2.91-0.19,5.85-0.94,8.76-0.15c2.79,0.97,5.31-0.97,7.95-1.62
	c0.9,3.51-1.13,6.46-2.16,9.58c2.96,5.37,9.26,9.11,15.55,8.71c0,0,52.745,1.601,82,0.95c-1.81-1.63-2.6-3.92-0.21-5.42
	c7.198,8.13,22.777,7.577,39.52,10.81c4.86,0.94,9.56,3.27,14.64,2.63c-0.96,0.16-1.88,0.36-2.79,0.56
	c6.33,0.66,12.26,3.51,18.67,3.6c-0.58,0.18-1.14,0.37-1.68,0.56c12.196,0.333,59.551,16.136,61.47,31.18
	c-4.313,0.2-20.522-3.814-29.21,4.9c-3.48,3.08-6.08,7.03-9.68,9.97c-29.241-10.461-51.051,18.434-57.61,23.71
	c-18.429-13.812-35.645-19.464-56.22-12c-21.399,8.072-52.155,33.259-61.37,42.5c-4.739,4.53,2.236,13.874-7.95,13.97
	c0.03-3.04-0.85-6.31,0.67-9.13c0.32-3.5,0.93-6.98,1-10.49c-0.9-2.89-4.3-2.16-6.6-2.35c-1.726-6.135,0.482-13.808-2.58-21.73
	c-1.83,4.67-4.54,8.94-6.09,13.71c-2.44,0.2-4.76-0.72-7.11-1.15c-0.56,6.04-2.8,12.18-6.84,16.77c-1.23,1.87-3.53,1.08-5.37,1.12
	c0.19-4.43,1.63-8.73,4.85-11.89c1.157-6.171-41.188-81.61-109-46.9c-1.78,1.07-2.79-1.24-3.71-2.29
	c-20.898-28.421-37.917-32.469-60.99-33.83c-8.178-2.18-10.514-18.606-29.79-17.83c-4.64-0.12-9.13,1.52-13.78,1.2
	c0.05-4.62,3.37-8.18,7.34-10.05c9.09-4.47,18.28-9.18,28.35-11.02C1051.892,680.662,1118.964,682.509,1127.1,680.19z"/>
<path d="M395.21,895.84c7.24-2.1,17.39-6.182,17.39,23.13c-0.24,3.92,2.12,8,0.38,11.75c0.73-0.29,1.24-0.91,1.81-1.41
	c-0.15,1.014,16.614,128.311,27.38,135.09c3.464-9.268-1.586-16.707-0.5-29.43c8.117,4.014,14.973,55.81,25.41,58.49
	c2.02-3.17,3.03-6.81,3.39-10.52c0.445-7.038,14.403-23.961-18.28-88.13c-18.908-8.329-19.463-8.63-20.77-10.7
	c-1.081-5.449,15.115-3.726,16.87-3.41c40.748,32.994,61.89,83.855,63.53,92.04c0.1-0.51,0.22-1.01,0.34-1.49
	c1.549,8.64,11.281,27.819,9.22,36.71c-19.142,95.201-17.974,93.184-20.64,101.77c-33.899,76.429-43.445,147.163-53.34,132.82
	c-4.325-5.544-1.655-12.863-6.57-41.86c-0.43-2.51-0.52-5.03-0.37-7.54c-0.3,1.24-0.59,2.52-0.88,3.8
	c-0.25-11.99-3.83-23.64-6.3-35.32c-0.13-0.04-0.39-0.12-0.52-0.17c-1.314-6.118-5.805-19.97-12-21.39
	c-3.25,7.92-6.87,15.7-10.02,23.66c12.13,11.65,21.21,27.3,22.25,44.35c0.12-1.64,0.2-3.26,0.5-4.84c0.78,3.55-0.34,7.19-0.05,10.8
	c0.53,9.99-2.1,19.78-5.33,29.13c-0.3,0.1-0.9,0.28-1.19,0.38c-3.506-10.768-19.264-45.836-27.73-54.12
	c-5.483,1.236-2.052,5.583-30.62,4.77c-8.39,17.16-17.38,34.05-25.46,51.37c-0.29-0.12-0.87-0.36-1.16-0.48
	c-2.13-8.72-4.67-17.4-5.19-26.42c-2.41-30.823,13.261-44.485,14.93-46.83c0.17-6.94-0.33-13.91-0.57-20.84
	c-0.3-0.52-0.9-1.54-1.2-2.05c-11.66,26.72-17.24,55.81-19.6,84.76c-5.808,12.365-15.673,10.871-14.95-26.71
	c0.73-3.29,1.89-6.56,1.06-9.96c0.25,1.33,0.53,2.66,0.83,4c2.135-30.79-10.341-89.931-19.26-143.88
	c-3.643-19.329-3.182-18.642,16.89-121.58c20.19-39.047,31.406-66.044,40.47-69.53c0.61,1.82,1.86,3.89,0.53,5.75
	c-7.638,14.594-15.63,39.433-15.49,46.97c-0.21-0.54-0.42-1.07-0.62-1.59c-2.98,16.04-6.52,32.23-6.2,48.62
	c3.64-1.716,10.418-19.736,31.34-70.91c1.546-3.827,6.98-61.523,7.13-63.17c0.259-9.441,7.983-12.963-2.08-35.26
	c1.613,0.039,16.432-1.775,16.53,9.58c0.72,6.58-1.81,12.81-3.89,18.9c3.79,26.61,8.28,53.15,12.11,79.76
	c0.91-0.04,1.82-0.1,2.74-0.18c6.127-11.437,6.245-56.413,6.42-69.54c0.72-10.51,1.02-21.78-4.4-31.23
	C398.26,900.99,395.35,899,395.21,895.84z"/>
<path d="M791.01,951.45c9.77-10.9,19.99-21.39,29.88-32.18c3.72,9.45,4.48,21.16-1.78,29.73c-3.3,5.19-8.83,8.17-13.95,11.23
	c-16.401,8.201,72.205,44.042,91.11,80.59c3.357,9.688,13.099,24.639,14.47,83.24c1.937,23.859-2.857,134.46-3.69,140.53
	c-1.26-7.84-2.84-15.63-3.96-23.48c-0.18,0.94-0.35,1.9-0.5,2.87c0.682-9.238-15.557-57.05-17.91-63.99
	c-0.688-3.874,3.519-45.969-23.32-71.89c9.358-33.248-38.503-73.629-51.48-79.45c-8.055,19.1-4.3,12.476-13.07,18.22
	c0.43,4.68-1.4,9.07-4.87,12.2c-4.09-3.78-5.32-9.36-6.32-14.59c-4.69-0.23-9.34-1.02-14.04-1.14c-2.07,4.97-2.5,11.17-7.47,14.32
	c-1.07-0.53-2.14-1.04-3.2-1.54c-4.745-12.126,1.014-4.608-7.81-21.25c-6.482-11.176-4.147-11.415-10.39-7.28
	c-20.04,17.86-33.52,42.17-41.47,67.59c-22.073,13.97-22.323,46.24-17.9,71.92c1.07,4.22-2.02,7.8-2.98,11.73
	c-16.797,51.691-6.319,93.355-6.59,110.54c-8.3-2.96-24.916-93.586-20.4-152.34c1.749-31.876,9.86-76.746,27.45-100.19
	c23.12-18.61,46.92-36.4,70.18-54.85c4.09-3.25,8.34-8.83,5.37-14.17c-21.151-2.407-27.281-24.578-29.84-44.85
	C752.305,936.829,753.836,962.324,791.01,951.45z"/>
<path d="M1115.96,920.33c19.195,8.122,10.196,18.299,12.16,23.69c0.8,2.5,1.37,5.08,1.63,7.72c0.15-0.5,0.32-0.98,0.51-1.45
	c0.33,4.09,1.63,8.01,2.57,11.99c0.42,0.05,1.24,0.16,1.66,0.22c-0.13-7.28,1.47-14.44,1.26-21.72c-1.53-1.54-3.04-3.07-4.52-4.61
	c0.86-4.54,1.35-9.13,2.33-13.64c27.222-3.485,2.002,21.382,63.36,149.58c6.08,4.21,13.07,7.26,18.3,12.68
	c10.857,10.998-1.803,11.777-3.49,15.71c-28.256,54.81-10.877,20.429-6.84,115.49c0.25-2.3,0.45-4.59,0.7-6.87
	c-1.614,19.117,8.503,73.479-14.67,79.08c-10.96,2.09-20.976-9.079-24.92-8.81c-0.83,3.67-2.68,7-3.61,10.63
	c-0.87,2.19,1.42,3.39,2.62,4.82c15.566,15.24,10.521,38.947,3,59.15c-2.836-0.886-20.006-35.511-28.85-39.29
	c-7.41,1.11-14.91,1.56-22.38,1.63c-13.15,12.99-26.74,25.52-39.95,38.44c-7.225-22.899,0.078-46.959,15.93-64.11
	c0.71-1,2.01-1.84,1.8-3.22c-7.477-5.571-11.367-8.394-20.51-9.91c-3.35,0.41-6.65,1.41-10.06,1.09c1.28,0.24,2.56,0.52,3.86,0.8
	c-5.03-0.37-10.64,0.98-15.02-2.21c-11.441-6.871,18.241-90.762,17.8-96.16c-0.751-62.011-0.247-46.178,2.04-55.06
	c6.974-28.498,37.702-66.993,43.31-144.04c1.46-12.99,0.85-26.18-1.56-39.01c-1.72-1.7-3.78-3.2-4.94-5.34
	C1108.5,931.14,1112.34,925.3,1115.96,920.33z"/>
<path d="M821.99,1314.66c-1.64,0.29-3.27,0.61-4.9,0.91c9.651-1.569,75.392,13.272,131.29,48.7c-6.44,0.06-12.88,0.03-19.31,0.33
	c4.62-0.23,9.23-0.54,13.83-1.12c-16.31,0.72-32.6-0.94-48.9-0.73c-13.33-0.16-26.64,1.41-39.97,0.72
	c3.63,0.44,7.27,0.78,10.91,1.12c-14.247-1.289-64.792,2.557-71.03,19.14c-0.98,3.07,0.19,6.26,1.05,9.21
	c-52.935-12.693-80.344,8.314-87.75,40.6c-28.516-4.255-58.628,2.565-72.94,27.57c-22.713,40.228-16.896,30.815-25.69,37.58
	c0.7,4.96-0.7,10.04-4.55,13.4c-3.5-3.9-6.6-8.59-6.77-13.99c-0.2,0.57-0.39,1.15-0.58,1.76c0.03-0.64,0.07-1.9,0.09-2.54
	c-5.11-0.04-10.23,0-15.34-0.01c-1.55,5.433-2.886,17.631-9.04,15.09c-4.55-4.41-3.56-11.61-7.23-16.54
	c-3.78-5.58-7.58-11.16-11.16-16.86c-30.421-14.415-63.959-20.802-96.12-11.88c-28.799-13.495-83.509-49.106-128.96-9.44
	c-34.756-19.767-79.951-20.265-120.52,4.87c-4.76,2.8-8.99,6.39-13.73,9.24c27.963-28.207,87.33-79.315,140.13-101.85
	c62.658-24.907,77.513,0.172,204.08,70.47c17.681-2.965,22.387-13.353,20.56-20.91c-16.874-3.272-28.52-8.869-36.95-46.09
	c21.661,12.219,31.001,25.423,44.53,28.93c6.781,0.917,24.138-0.676,28.15-6.13c0.745-1.003,25.773-33.821,27.35-34.01
	c4.25,8.68,5.94,19.36,1.81,28.41c-7.46,17.625-31.069,14.433-4.09,30.33c1.33,1.05,2.97,0.39,4.19-0.48
	c33.829-21.941,78.346-54.913,94.42-91.78C753.746,1305.327,817.75,1314.802,821.99,1314.66z"/>
<path d="M1074.37,1434.34c9.42-9.59,18.31-19.71,27.68-29.34c2.74,2.416,7.597,20.45-5.67,31.44c-4.47,3.909-11.001,5.421-9.78,8.58
	c1.96,5.46,7.56,8.08,11.78,11.56c24.06,24.19,52.91,43.08,82.86,59.17c2.443,1.73,70.813,76.762,110.09,174.5
	c-0.02,0.39-0.08,1.17-0.11,1.55c-15.013-18.907-52.312-53.745-92.72-71.39c-4.281-30.531-22.586-49.581-47.08-63.62
	c-8.2-9.707-47.042-52.789-59.42-52.37c-1.31,4.36-3.38,8.45-4.94,12.73c-2.14,1.15-4.29,2.31-6.41,3.49
	c0.47,4.39-1.56,8.36-4.74,11.26c-3.3-3.71-4.86-8.51-5.52-13.35c-4.27-0.3-8.5-0.95-12.77-1.09c-1.92,4.4-2.31,10.06-6.82,12.79
	c-3.29,0.43-4.06-3.97-4.64-6.38c-0.72-8.78-7.14-15.44-10.2-23.4c-11.891-2.182-24.977,33.797-28.75,45.58
	c-23.731,20.767-36.448,51.254-29.7,87.04c-30.659,8.216-77.964,70.043-95.93,96.32c-0.001-0.252,25.127-71.778,26.2-78.18
	c0.14,0.5,0.29,1.02,0.45,1.56c1.796-7.754,23.69-73.96,65.96-140.64c3.237-2.999,37.968-29.708,64.33-50.36
	c3.88-3.07,7.16-7.65,5.78-12.84c-19.745-3.243-26.039-21.95-27.87-41.8C1049.016,1431.239,1041.931,1439.67,1074.37,1434.34z"/>
<path d="M878.76,1407.66c-1.176,8.277-29.508,104.732-6.21,136.43c-23.517,14.436-43.633,42.758-48.31,80.97
	c-21.584,6.547-50.988,28.117-55,55.97c-1,5.6-2.7,11.1-2.99,16.82c-0.23-0.96-0.43-1.89-0.62-2.8
	c-1.434,14.42-1.53,11.982-7.19,17.72c1.57,3.75,0.79,7.74-1.27,11.14c-0.64-0.08-1.92-0.23-2.56-0.31
	c-2.8-2.97-5.18-6.34-6.48-10.22c-4.19,0.34-8.29,1.36-12.49,1.5c-1.77,4.66,0.53,10.72-3.66,14.33c-0.55,0.11-1.64,0.33-2.18,0.44
	c-3.16-2.2-4.32-6.06-6-9.31c-0.947-2.047-16.503-24.426-39.45-28.46c-4.49-0.74-9.06-0.34-13.57-0.1
	c-11.048-16.559-68.486-46.641-103.99-44.13c-28.389-29.253-88.063-67.88-135.81-93.27c1.013,0.072,80.153,24.353,99.11,25.64
	c-1.63,0.09-3.25,0.15-4.85,0.46c0,0,35.424,4.939,39.77,5.39c21.37,4.605,22.88-5.985,50.41,21.8
	c21.12,23.03,45.64,42.97,72.61,58.74c4.71,0.45,9.45,0.58,14.17,1.11c3.18-4.22,6.35-10.01,3.27-15.15
	c-19.898,1.853-29.736-14.93-37.22-33.25c25.154,6.786,34.451,28.262,62.84,11.04c7.12-11.25,12.97-23.34,19.57-34.93
	c0.33,0.15,0.98,0.46,1.31,0.61c6.266,11.997,5.611,13.174,5.39,22.46c-0.16,0.11-0.47,0.31-0.63,0.42
	c-2.89,15.406-25.204,18.111,2.47,27.13c11.365-18.601,38.6-67.597,39.52-83.58c0.17,0.5,0.36,1.01,0.56,1.55
	c1.05-6.62,3.44-13.01,3.43-19.77c0.22,0.58,0.46,1.17,0.7,1.79C802.151,1518.177,862.781,1430.104,878.76,1407.66z"/>
<path d="M327.29,1534.69c0.04,0.16,0.12,0.49,0.16,0.66c37.057,5.495,43.653,21.769,129.09,102.96c3.19,2.51,6.38,5.11,8.62,8.56
	c5.82,4.125,26.642,26.556,29.46,44.92c-56.929-35.993-53.058-35.996-58.25-42.12c-17.29-19.52-37.17-36.65-58.54-51.55
	c-10.337,12.189-0.469,3.589-22.76,26.67c-6.78-3.05-13.91-5.62-20.23-9.49c-3.91-7.06-7.32-14.42-10.86-21.68
	c-14.51,2.26-24.68,15.62-27.42,29.39c-3.099,20.458-88.642,89.219-91.36,90.7c13.172-19.246,6.174-38.652,6.51-41.69
	c12.44-17.79,21.12-38.12,26.05-59.22c22.23-10.62,35.47-33.68,41.1-56.85c9.348-1.252,26.55-10.433,29.45-12.61
	C312.388,1537.251,310.449,1534.795,327.29,1534.69z"/>
<path d="M665.22,1741.07c-6.79,1.93-13.61,3.76-20.39,5.73c-0.15,0.11-0.44,0.33-0.59,0.44c-17.353,4.909-46.799,15.324-54.25,31.76
	c-2.862,1.249-26.543,7.539-32.71,30.39c-0.13,0.11-0.4,0.32-0.53,0.43c-2.02,8.76-1.82,17.85-0.89,26.75
	c-30.665,3.911-55.071,15.689-51.06,46.33c1.21,3.23,3.91,5.64,5.78,8.52c0.02,0.49,0.05,1.46,0.07,1.94
	c-1.57-0.03-3.13-0.03-4.69-0.04c1.24-0.32,2.49-0.57,3.74-0.84c-1.62-0.05-3.23,0.15-4.83,0.23c-2.47-4.05-4.95-8.12-6.58-12.58
	c-1.17,0.09-2.34,0.2-3.49,0.35c-5.6-4-11.87-7.14-16.65-12.18c-4.92,5.92-10.97,10.86-15.79,16.84c0.41,5.11,4.68,8.71,6.47,13.33
	c-1.98-0.01-3.94-0.01-5.9-0.01c-2.13-3.87-3.9-8.19-7.24-11.15c-28.914-15.107-71.822-30.608-102.93-20.32
	c-1.55,0.31-3.41,1.48-4.81,0.23c-20.24-17.26-45.97-27.26-72.13-31c-1.923-0.903-10.917-9.057-28.78-5.97
	c-6.01,1.01-12.25,0.96-17.98,3.2c-4.81,0.54-9.15,3.36-14.03,3.13c0.96,0.17,1.91,0.39,2.86,0.63c-5.73-0.11-10.39,3.9-15.98,4.52
	c13.624-19.382,119.17-54.546,126.02-56.07c15.221,4.453,89.725,26.706,104.47,26.78c2.401-8.909-20.029-13.373-24-28.14
	c5.34,0.18,10.14,2.88,15.4,3.47c-0.4,0.07-1.2,0.22-1.6,0.29c5.06,1.22,9.38,4.17,13.88,6.62c4.16-0.19,8.2-1.31,12.23-2.27
	c5.76-9.48,11.41-19.52,20.18-26.57c1.24,10.52-1.97,20.91-6.42,30.33c-2.48,4.61,3.37,7.62,5.88,10.65
	c19.649-14.333,54.473-51.104,60.21-57.76c2.32-2.42,4.37-5.36,7.64-6.56C576.921,1725.402,626.026,1720.446,665.22,1741.07z"/>
<path d="M1022.81,1764.48c58.855,49.689,53.222,46.808,73.36,43.53c0.16-0.86,0.34-1.7,0.52-2.52c-4.71-4.41-5.52-11.28-4.9-17.37
	c5.62,3.57,9.66,9.04,14.92,13.06c10.55-0.05,18.62-7.84,28.11-11.35c-0.79,8.75-1.95,19.69-10.38,24.55
	c0.04,1.55,0.11,3.12,0.2,4.71c20.54,13.143,46.073-8.061,65.6-22.91c49.07-16.181,105.965,24.671,119.82,58.03
	c-11.309-7.306-40.066-29.539-55.19-15.5c-32.114-6.708-70.401,22-71.88,31.85c-11.167-2.06-43.605-9.834-51.67,13.02
	c-0.53-0.03-1.59-0.1-2.13-0.13c-0.36-1.68-0.72-3.42-1.02-5.05c-5.02,1.35-9.72,3.6-14.37,5.86
	c-24.917-9.557-22.054-16.478-21.03-5.95c-0.76,0.35-2.27,1.04-3.02,1.39c-11.814-5.907,4.849-25.466-41.95-26.45
	c-37.283-57.703-64.04-45.562-66.74-45.94c-11.01-2.92-22.11,1.75-31.86,6.52C952.39,1792.239,972.775,1768.59,1022.81,1764.48z"/>
<path d="M836.98,1776.94c6.868-0.725,59.036-1.095,70.86,22.04c-18.215-6.77-19.771,2.119-28.83,1.36
	c-3.93-0.38-7.47,1.36-11.1,2.49c-9.086,8.174-7.15,10.243-7.26,17.19c-52.673,31.023-46.448,39.6-48.93,51.08
	c-2.64-0.29-3.2-3.62-5.65-3.93c-3.8,2.96-6,7.64-10.05,10.36c-8.31,0.36-16.87,0.6-24.85-2.13c2.016,5.377,4.627,5.543-0.29,8.21
	c-2.41-2.08-5.23-3.72-7.16-6.28c-9.43-12.99-27.25-18.51-42.6-14.68c-7.42-3.8-15.77-5.51-24.09-5.26
	c-23.809,0.085-27.263,2.835-38.1,32.58c-0.61,1.12-0.59,3.52-2.47,2.83c-10.523-28.896,0.934-62.055,33.06-80.41
	c12.2-6.009,0.168-3.942,36.94,9.09c9.611,3.475,23.053-4.792,23.49-8.87c-6.27-2.35-10.21-8.21-11.77-14.51
	c8.98,2.16,17.31,7.64,26.87,6.53c6.08-3.73,12.21-7.43,18.58-10.65c0.071,9.412,0.01,8.015-5.16,15.8
	c0.51,1.18,1.01,2.39,1.52,3.63c18.331,2.592,26.643-9.428,39.59-21.84C820.56,1790.567,833.945,1777.13,836.98,1776.94z"/>
</svg>
