<?xml version="1.0" encoding="UTF-8" standalone="no"?>
<!-- Created with Inkscape (http://www.inkscape.org/) -->

<svg
   xmlns:dc="http://purl.org/dc/elements/1.1/"
   xmlns:cc="http://creativecommons.org/ns#"
   xmlns:rdf="http://www.w3.org/1999/02/22-rdf-syntax-ns#"
   xmlns:svg="http://www.w3.org/2000/svg"
   xmlns="http://www.w3.org/2000/svg"
   xmlns:sodipodi="http://sodipodi.sourceforge.net/DTD/sodipodi-0.dtd"
   xmlns:inkscape="http://www.inkscape.org/namespaces/inkscape"
   width="1052.3622"
   height="744.09448"
   id="svg4560"
   version="1.1"
   inkscape:version="0.48+devel r9772"
   sodipodi:docname="New document 9">
  <defs
     id="defs4562" />
  <sodipodi:namedview
     id="base"
     pagecolor="#ffffff"
     bordercolor="#666666"
     borderopacity="1.0"
     inkscape:pageopacity="0.0"
     inkscape:pageshadow="2"
     inkscape:zoom="0.87354498"
     inkscape:cx="526.18109"
     inkscape:cy="372.04724"
     inkscape:document-units="px"
     inkscape:current-layer="layer1"
     showgrid="false"
     inkscape:window-width="1440"
     inkscape:window-height="805"
     inkscape:window-x="0"
     inkscape:window-y="1"
     inkscape:window-maximized="1" />
  <metadata
     id="metadata4565">
    <rdf:RDF>
      <cc:Work
         rdf:about="">
        <dc:format>image/svg+xml</dc:format>
        <dc:type
           rdf:resource="http://purl.org/dc/dcmitype/StillImage" />
        <dc:title></dc:title>
      </cc:Work>
    </rdf:RDF>
  </metadata>
  <g
     inkscape:label="Layer 1"
     inkscape:groupmode="layer"
     id="layer1"
     transform="translate(0,-308.2677)">
    <g
       id="g4840"
       transform="matrix(1.543065,0,0,1.5243687,-50.569465,-543.5549)">
      <path
         d="m 227.0788,602.85744 c -6.25053,3e-5 -10.58103,0.71477 -12.99152,2.14423 -2.41052,1.42951 -3.61577,3.86805 -3.61576,7.31562 -1e-5,2.74687 0.89692,4.93314 2.6908,6.55882 1.82188,1.59767 4.28844,2.3965 7.3997,2.3965 4.28844,0 7.72201,-1.51357 10.30072,-4.54073 2.60668,-3.05516 3.91003,-7.10538 3.91007,-12.15064 l 0,-1.7238 -7.69401,0 m 15.43006,-3.19532 0,26.86596 -7.73605,0 0,-7.14744 c -1.76587,2.85898 -3.96616,4.97518 -6.60087,6.3486 -2.63477,1.3454 -5.85812,2.0181 -9.67006,2.01811 -4.82104,-10e-6 -8.66103,-1.3454 -11.51999,-4.03621 -2.83096,-2.71882 -4.24643,-6.34859 -4.24642,-10.88933 -1e-5,-5.29749 1.76583,-9.29164 5.29751,-11.98247 3.55969,-2.69077 8.8572,-4.03617 15.89254,-4.0362 l 10.84729,0 0,-0.75678 c -4e-5,-3.55968 -1.17726,-6.30653 -3.53168,-8.24058 -2.32645,-1.962 -5.60586,-2.94302 -9.83824,-2.94306 -2.69082,4e-5 -5.31154,0.32237 -7.86218,0.967 -2.55066,0.64471 -5.00321,1.61172 -7.35765,2.90102 l 0,-7.14744 c 2.83093,-1.09309 5.57779,-1.90593 8.24057,-2.43853 2.66275,-0.56054 5.25545,-0.84083 7.7781,-0.84088 6.81105,5e-5 11.89834,1.76589 15.26188,5.29751 3.36346,3.53172 5.0452,8.88528 5.04525,16.06072"
         style="font-size:86.10560608px;font-style:normal;font-weight:normal;line-height:125%;letter-spacing:0px;word-spacing:0px;fill:#000000;fill-opacity:1;stroke:none;font-family:Sans"
         id="path4573"
         inkscape:connector-curvature="0" />
      <path
         d="m 252.93571,579.43907 8.19853,0 14.71531,39.52113 14.71532,-39.52113 8.19853,0 -17.65838,47.08901 -10.51093,0 -17.65838,-47.08901"
         style="font-size:86.10560608px;font-style:normal;font-weight:normal;line-height:125%;letter-spacing:0px;word-spacing:0px;fill:#000000;fill-opacity:1;stroke:none;font-family:Sans"
         id="path4575"
         inkscape:connector-curvature="0" />
      <path
         d="m 303.89273,579.43907 8.19853,0 14.71532,39.52113 14.71531,-39.52113 8.19853,0 -17.65837,47.08901 -10.51094,0 -17.65838,-47.08901"
         style="font-size:86.10560608px;font-style:normal;font-weight:normal;line-height:125%;letter-spacing:0px;word-spacing:0px;fill:#000000;fill-opacity:1;stroke:none;font-family:Sans"
         id="path4577"
         inkscape:connector-curvature="0" />
      <path
         d="m 360.39954,579.43907 7.73605,0 0,47.08901 -7.73605,0 0,-47.08901 m 0,-18.33107 7.73605,0 0,9.79619 -7.73605,0 0,-9.79619"
         style="font-size:86.10560608px;font-style:normal;font-weight:normal;line-height:125%;letter-spacing:0px;word-spacing:0px;fill:#000000;fill-opacity:1;stroke:none;font-family:Sans"
         id="path4579"
         inkscape:connector-curvature="0" />
      <path
         d="m 391.93236,566.06916 0,13.36991 15.93458,0 0,6.01226 -15.93458,0 0,25.5626 c -1e-5,3.84001 0.51853,6.30657 1.55562,7.3997 1.06509,1.09315 3.20932,1.63971 6.4327,1.63971 l 7.94626,0 0,6.47474 -7.94626,0 c -5.97024,0 -10.09052,-1.10715 -12.36087,-3.32146 -2.27037,-2.24233 -3.40555,-6.30655 -3.40554,-12.19269 l 0,-25.5626 -5.67591,0 0,-6.01226 5.67591,0 0,-13.36991 7.77809,0"
         style="font-size:86.10560608px;font-style:normal;font-weight:normal;line-height:125%;letter-spacing:0px;word-spacing:0px;fill:#000000;fill-opacity:1;stroke:none;font-family:Sans"
         id="path4581"
         inkscape:connector-curvature="0" />
      <g
         transform="translate(0,196)"
         id="g4754">
        <g
           transform="translate(0,118)"
           id="g4756">
          <g
             transform="translate(0,60)"
             id="g4758">
            <g
               id="g4760"
               transform="translate(0,40)">
              <path
                 style="fill:#ffffff;stroke:#000000;stroke-width:1px;stroke-linecap:butt;stroke-linejoin:miter;stroke-opacity:1"
                 d="m 430.02651,316.36604 9.7668,-1.43629 6.89421,-5.17066 4.02163,-7.18147 0,-9.47954 0,-1.4363 -8.61777,0 -10.05406,0.28726 -8.04325,2.29807 -4.02162,5.74518 -0.28726,6.89421 2.87259,5.74518 4.02162,2.29807 4.8834,1.14904 0.57452,0.57451 -0.28726,0 -0.28726,-0.86177 z"
                 id="path4762"
                 inkscape:connector-curvature="0"
                 transform="translate(0,308.2677)" />
              <path
                 inkscape:connector-curvature="0"
                 id="path4764"
                 style="font-size:86.10560608px;font-style:normal;font-weight:normal;line-height:125%;letter-spacing:0px;word-spacing:0px;fill:#000000;fill-opacity:1;stroke:none;font-family:Sans"
                 d="m 439.48383,602.85744 c -6.25053,3e-5 -10.58103,0.71477 -12.99152,2.14423 -2.41052,1.42951 -3.61577,3.86805 -3.61576,7.31562 -1e-5,2.74687 0.89692,4.93314 2.6908,6.55882 1.82188,1.59767 4.28844,2.3965 7.3997,2.3965 4.28843,0 7.722,-1.51357 10.30072,-4.54073 2.60668,-3.05516 3.91003,-7.10538 3.91007,-12.15064 l 0,-1.7238 -7.69401,0 m 15.43006,-3.19532 0,26.86596 -7.73605,0 0,-7.14744 c -1.76588,2.85898 -3.96616,4.97518 -6.60087,6.3486 -2.63477,1.3454 -5.85812,2.0181 -9.67006,2.01811 -4.82104,-10e-6 -8.66103,-1.3454 -11.51999,-4.03621 -2.83096,-2.71882 -4.24643,-6.34859 -4.24642,-10.88933 -10e-6,-5.29749 1.76583,-9.29164 5.29751,-11.98247 3.55969,-2.69077 8.8572,-4.03617 15.89254,-4.0362 l 10.84729,0 0,-0.75678 c -4e-5,-3.55968 -1.17726,-6.30653 -3.53168,-8.24058 -2.32645,-1.962 -5.60586,-2.94302 -9.83824,-2.94306 -2.69082,4e-5 -5.31154,0.32237 -7.86218,0.967 -2.55067,0.64471 -5.00322,1.61172 -7.35765,2.90102 l 0,-7.14744 c 2.83093,-1.09309 5.57779,-1.90593 8.24057,-2.43853 2.66275,-0.56054 5.25545,-0.84083 7.7781,-0.84088 6.81105,5e-5 11.89834,1.76589 15.26188,5.29751 3.36345,3.53172 5.0452,8.88528 5.04525,16.06072" />
            </g>
            <g
               transform="translate(0,20)"
               id="g4766">
              <path
                 transform="translate(0,308.2677)"
                 inkscape:connector-curvature="0"
                 id="path4768"
                 d="m 430.02651,316.36604 9.7668,-1.43629 6.89421,-5.17066 4.02163,-7.18147 0,-9.47954 0,-1.4363 -8.61777,0 -10.05406,0.28726 -8.04325,2.29807 -4.02162,5.74518 -0.28726,6.89421 2.87259,5.74518 4.02162,2.29807 4.8834,1.14904 0.57452,0.57451 -0.28726,0 -0.28726,-0.86177 z"
                 style="fill:#ffffff;stroke:#000000;stroke-width:1px;stroke-linecap:butt;stroke-linejoin:miter;stroke-opacity:1" />
              <path
                 d="m 439.48383,602.85744 c -6.25053,3e-5 -10.58103,0.71477 -12.99152,2.14423 -2.41052,1.42951 -3.61577,3.86805 -3.61576,7.31562 -1e-5,2.74687 0.89692,4.93314 2.6908,6.55882 1.82188,1.59767 4.28844,2.3965 7.3997,2.3965 4.28843,0 7.722,-1.51357 10.30072,-4.54073 2.60668,-3.05516 3.91003,-7.10538 3.91007,-12.15064 l 0,-1.7238 -7.69401,0 m 15.43006,-3.19532 0,26.86596 -7.73605,0 0,-7.14744 c -1.76588,2.85898 -3.96616,4.97518 -6.60087,6.3486 -2.63477,1.3454 -5.85812,2.0181 -9.67006,2.01811 -4.82104,-10e-6 -8.66103,-1.3454 -11.51999,-4.03621 -2.83096,-2.71882 -4.24643,-6.34859 -4.24642,-10.88933 -10e-6,-5.29749 1.76583,-9.29164 5.29751,-11.98247 3.55969,-2.69077 8.8572,-4.03617 15.89254,-4.0362 l 10.84729,0 0,-0.75678 c -4e-5,-3.55968 -1.17726,-6.30653 -3.53168,-8.24058 -2.32645,-1.962 -5.60586,-2.94302 -9.83824,-2.94306 -2.69082,4e-5 -5.31154,0.32237 -7.86218,0.967 -2.55067,0.64471 -5.00322,1.61172 -7.35765,2.90102 l 0,-7.14744 c 2.83093,-1.09309 5.57779,-1.90593 8.24057,-2.43853 2.66275,-0.56054 5.25545,-0.84083 7.7781,-0.84088 6.81105,5e-5 11.89834,1.76589 15.26188,5.29751 3.36345,3.53172 5.0452,8.88528 5.04525,16.06072"
                 style="font-size:86.10560608px;font-style:normal;font-weight:normal;line-height:125%;letter-spacing:0px;word-spacing:0px;fill:#000000;fill-opacity:1;stroke:none;font-family:Sans"
                 id="path4770"
                 inkscape:connector-curvature="0" />
            </g>
            <g
               id="g4772">
              <path
                 style="fill:#ffffff;stroke:#000000;stroke-width:1px;stroke-linecap:butt;stroke-linejoin:miter;stroke-opacity:1"
                 d="m 430.02651,316.36604 9.7668,-1.43629 6.89421,-5.17066 4.02163,-7.18147 0,-9.47954 0,-1.4363 -8.61777,0 -10.05406,0.28726 -8.04325,2.29807 -4.02162,5.74518 -0.28726,6.89421 2.87259,5.74518 4.02162,2.29807 4.8834,1.14904 0.57452,0.57451 -0.28726,0 -0.28726,-0.86177 z"
                 id="path4774"
                 inkscape:connector-curvature="0"
                 transform="translate(0,308.2677)" />
              <path
                 inkscape:connector-curvature="0"
                 id="path4776"
                 style="font-size:86.10560608px;font-style:normal;font-weight:normal;line-height:125%;letter-spacing:0px;word-spacing:0px;fill:#000000;fill-opacity:1;stroke:none;font-family:Sans"
                 d="m 439.48383,602.85744 c -6.25053,3e-5 -10.58103,0.71477 -12.99152,2.14423 -2.41052,1.42951 -3.61577,3.86805 -3.61576,7.31562 -1e-5,2.74687 0.89692,4.93314 2.6908,6.55882 1.82188,1.59767 4.28844,2.3965 7.3997,2.3965 4.28843,0 7.722,-1.51357 10.30072,-4.54073 2.60668,-3.05516 3.91003,-7.10538 3.91007,-12.15064 l 0,-1.7238 -7.69401,0 m 15.43006,-3.19532 0,26.86596 -7.73605,0 0,-7.14744 c -1.76588,2.85898 -3.96616,4.97518 -6.60087,6.3486 -2.63477,1.3454 -5.85812,2.0181 -9.67006,2.01811 -4.82104,-10e-6 -8.66103,-1.3454 -11.51999,-4.03621 -2.83096,-2.71882 -4.24643,-6.34859 -4.24642,-10.88933 -10e-6,-5.29749 1.76583,-9.29164 5.29751,-11.98247 3.55969,-2.69077 8.8572,-4.03617 15.89254,-4.0362 l 10.84729,0 0,-0.75678 c -4e-5,-3.55968 -1.17726,-6.30653 -3.53168,-8.24058 -2.32645,-1.962 -5.60586,-2.94302 -9.83824,-2.94306 -2.69082,4e-5 -5.31154,0.32237 -7.86218,0.967 -2.55067,0.64471 -5.00322,1.61172 -7.35765,2.90102 l 0,-7.14744 c 2.83093,-1.09309 5.57779,-1.90593 8.24057,-2.43853 2.66275,-0.56054 5.25545,-0.84083 7.7781,-0.84088 6.81105,5e-5 11.89834,1.76589 15.26188,5.29751 3.36345,3.53172 5.0452,8.88528 5.04525,16.06072" />
            </g>
          </g>
          <g
             id="g4778">
            <g
               transform="translate(0,40)"
               id="g4780">
              <path
                 transform="translate(0,308.2677)"
                 inkscape:connector-curvature="0"
                 id="path4782"
                 d="m 430.02651,316.36604 9.7668,-1.43629 6.89421,-5.17066 4.02163,-7.18147 0,-9.47954 0,-1.4363 -8.61777,0 -10.05406,0.28726 -8.04325,2.29807 -4.02162,5.74518 -0.28726,6.89421 2.87259,5.74518 4.02162,2.29807 4.8834,1.14904 0.57452,0.57451 -0.28726,0 -0.28726,-0.86177 z"
                 style="fill:#ffffff;stroke:#000000;stroke-width:1px;stroke-linecap:butt;stroke-linejoin:miter;stroke-opacity:1" />
              <path
                 d="m 439.48383,602.85744 c -6.25053,3e-5 -10.58103,0.71477 -12.99152,2.14423 -2.41052,1.42951 -3.61577,3.86805 -3.61576,7.31562 -1e-5,2.74687 0.89692,4.93314 2.6908,6.55882 1.82188,1.59767 4.28844,2.3965 7.3997,2.3965 4.28843,0 7.722,-1.51357 10.30072,-4.54073 2.60668,-3.05516 3.91003,-7.10538 3.91007,-12.15064 l 0,-1.7238 -7.69401,0 m 15.43006,-3.19532 0,26.86596 -7.73605,0 0,-7.14744 c -1.76588,2.85898 -3.96616,4.97518 -6.60087,6.3486 -2.63477,1.3454 -5.85812,2.0181 -9.67006,2.01811 -4.82104,-10e-6 -8.66103,-1.3454 -11.51999,-4.03621 -2.83096,-2.71882 -4.24643,-6.34859 -4.24642,-10.88933 -10e-6,-5.29749 1.76583,-9.29164 5.29751,-11.98247 3.55969,-2.69077 8.8572,-4.03617 15.89254,-4.0362 l 10.84729,0 0,-0.75678 c -4e-5,-3.55968 -1.17726,-6.30653 -3.53168,-8.24058 -2.32645,-1.962 -5.60586,-2.94302 -9.83824,-2.94306 -2.69082,4e-5 -5.31154,0.32237 -7.86218,0.967 -2.55067,0.64471 -5.00322,1.61172 -7.35765,2.90102 l 0,-7.14744 c 2.83093,-1.09309 5.57779,-1.90593 8.24057,-2.43853 2.66275,-0.56054 5.25545,-0.84083 7.7781,-0.84088 6.81105,5e-5 11.89834,1.76589 15.26188,5.29751 3.36345,3.53172 5.0452,8.88528 5.04525,16.06072"
                 style="font-size:86.10560608px;font-style:normal;font-weight:normal;line-height:125%;letter-spacing:0px;word-spacing:0px;fill:#000000;fill-opacity:1;stroke:none;font-family:Sans"
                 id="path4784"
                 inkscape:connector-curvature="0" />
            </g>
            <g
               id="g4786"
               transform="translate(0,20)">
              <path
                 style="fill:#ffffff;stroke:#000000;stroke-width:1px;stroke-linecap:butt;stroke-linejoin:miter;stroke-opacity:1"
                 d="m 430.02651,316.36604 9.7668,-1.43629 6.89421,-5.17066 4.02163,-7.18147 0,-9.47954 0,-1.4363 -8.61777,0 -10.05406,0.28726 -8.04325,2.29807 -4.02162,5.74518 -0.28726,6.89421 2.87259,5.74518 4.02162,2.29807 4.8834,1.14904 0.57452,0.57451 -0.28726,0 -0.28726,-0.86177 z"
                 id="path4788"
                 inkscape:connector-curvature="0"
                 transform="translate(0,308.2677)" />
              <path
                 inkscape:connector-curvature="0"
                 id="path4790"
                 style="font-size:86.10560608px;font-style:normal;font-weight:normal;line-height:125%;letter-spacing:0px;word-spacing:0px;fill:#000000;fill-opacity:1;stroke:none;font-family:Sans"
                 d="m 439.48383,602.85744 c -6.25053,3e-5 -10.58103,0.71477 -12.99152,2.14423 -2.41052,1.42951 -3.61577,3.86805 -3.61576,7.31562 -1e-5,2.74687 0.89692,4.93314 2.6908,6.55882 1.82188,1.59767 4.28844,2.3965 7.3997,2.3965 4.28843,0 7.722,-1.51357 10.30072,-4.54073 2.60668,-3.05516 3.91003,-7.10538 3.91007,-12.15064 l 0,-1.7238 -7.69401,0 m 15.43006,-3.19532 0,26.86596 -7.73605,0 0,-7.14744 c -1.76588,2.85898 -3.96616,4.97518 -6.60087,6.3486 -2.63477,1.3454 -5.85812,2.0181 -9.67006,2.01811 -4.82104,-10e-6 -8.66103,-1.3454 -11.51999,-4.03621 -2.83096,-2.71882 -4.24643,-6.34859 -4.24642,-10.88933 -10e-6,-5.29749 1.76583,-9.29164 5.29751,-11.98247 3.55969,-2.69077 8.8572,-4.03617 15.89254,-4.0362 l 10.84729,0 0,-0.75678 c -4e-5,-3.55968 -1.17726,-6.30653 -3.53168,-8.24058 -2.32645,-1.962 -5.60586,-2.94302 -9.83824,-2.94306 -2.69082,4e-5 -5.31154,0.32237 -7.86218,0.967 -2.55067,0.64471 -5.00322,1.61172 -7.35765,2.90102 l 0,-7.14744 c 2.83093,-1.09309 5.57779,-1.90593 8.24057,-2.43853 2.66275,-0.56054 5.25545,-0.84083 7.7781,-0.84088 6.81105,5e-5 11.89834,1.76589 15.26188,5.29751 3.36345,3.53172 5.0452,8.88528 5.04525,16.06072" />
            </g>
            <g
               id="g4792">
              <path
                 transform="translate(0,308.2677)"
                 inkscape:connector-curvature="0"
                 id="path4794"
                 d="m 430.02651,316.36604 9.7668,-1.43629 6.89421,-5.17066 4.02163,-7.18147 0,-9.47954 0,-1.4363 -8.61777,0 -10.05406,0.28726 -8.04325,2.29807 -4.02162,5.74518 -0.28726,6.89421 2.87259,5.74518 4.02162,2.29807 4.8834,1.14904 0.57452,0.57451 -0.28726,0 -0.28726,-0.86177 z"
                 style="fill:#ffffff;stroke:#000000;stroke-width:1px;stroke-linecap:butt;stroke-linejoin:miter;stroke-opacity:1" />
              <path
                 d="m 439.48383,602.85744 c -6.25053,3e-5 -10.58103,0.71477 -12.99152,2.14423 -2.41052,1.42951 -3.61577,3.86805 -3.61576,7.31562 -1e-5,2.74687 0.89692,4.93314 2.6908,6.55882 1.82188,1.59767 4.28844,2.3965 7.3997,2.3965 4.28843,0 7.722,-1.51357 10.30072,-4.54073 2.60668,-3.05516 3.91003,-7.10538 3.91007,-12.15064 l 0,-1.7238 -7.69401,0 m 15.43006,-3.19532 0,26.86596 -7.73605,0 0,-7.14744 c -1.76588,2.85898 -3.96616,4.97518 -6.60087,6.3486 -2.63477,1.3454 -5.85812,2.0181 -9.67006,2.01811 -4.82104,-10e-6 -8.66103,-1.3454 -11.51999,-4.03621 -2.83096,-2.71882 -4.24643,-6.34859 -4.24642,-10.88933 -10e-6,-5.29749 1.76583,-9.29164 5.29751,-11.98247 3.55969,-2.69077 8.8572,-4.03617 15.89254,-4.0362 l 10.84729,0 0,-0.75678 c -4e-5,-3.55968 -1.17726,-6.30653 -3.53168,-8.24058 -2.32645,-1.962 -5.60586,-2.94302 -9.83824,-2.94306 -2.69082,4e-5 -5.31154,0.32237 -7.86218,0.967 -2.55067,0.64471 -5.00322,1.61172 -7.35765,2.90102 l 0,-7.14744 c 2.83093,-1.09309 5.57779,-1.90593 8.24057,-2.43853 2.66275,-0.56054 5.25545,-0.84083 7.7781,-0.84088 6.81105,5e-5 11.89834,1.76589 15.26188,5.29751 3.36345,3.53172 5.0452,8.88528 5.04525,16.06072"
                 style="font-size:86.10560608px;font-style:normal;font-weight:normal;line-height:125%;letter-spacing:0px;word-spacing:0px;fill:#000000;fill-opacity:1;stroke:none;font-family:Sans"
                 id="path4796"
                 inkscape:connector-curvature="0" />
            </g>
          </g>
        </g>
        <g
           id="g4798">
          <g
             id="g4800"
             transform="translate(0,60)">
            <g
               transform="translate(0,40)"
               id="g4802">
              <path
                 transform="translate(0,308.2677)"
                 inkscape:connector-curvature="0"
                 id="path4804"
                 d="m 430.02651,316.36604 9.7668,-1.43629 6.89421,-5.17066 4.02163,-7.18147 0,-9.47954 0,-1.4363 -8.61777,0 -10.05406,0.28726 -8.04325,2.29807 -4.02162,5.74518 -0.28726,6.89421 2.87259,5.74518 4.02162,2.29807 4.8834,1.14904 0.57452,0.57451 -0.28726,0 -0.28726,-0.86177 z"
                 style="fill:#ffffff;stroke:#000000;stroke-width:1px;stroke-linecap:butt;stroke-linejoin:miter;stroke-opacity:1" />
              <path
                 d="m 439.48383,602.85744 c -6.25053,3e-5 -10.58103,0.71477 -12.99152,2.14423 -2.41052,1.42951 -3.61577,3.86805 -3.61576,7.31562 -1e-5,2.74687 0.89692,4.93314 2.6908,6.55882 1.82188,1.59767 4.28844,2.3965 7.3997,2.3965 4.28843,0 7.722,-1.51357 10.30072,-4.54073 2.60668,-3.05516 3.91003,-7.10538 3.91007,-12.15064 l 0,-1.7238 -7.69401,0 m 15.43006,-3.19532 0,26.86596 -7.73605,0 0,-7.14744 c -1.76588,2.85898 -3.96616,4.97518 -6.60087,6.3486 -2.63477,1.3454 -5.85812,2.0181 -9.67006,2.01811 -4.82104,-10e-6 -8.66103,-1.3454 -11.51999,-4.03621 -2.83096,-2.71882 -4.24643,-6.34859 -4.24642,-10.88933 -10e-6,-5.29749 1.76583,-9.29164 5.29751,-11.98247 3.55969,-2.69077 8.8572,-4.03617 15.89254,-4.0362 l 10.84729,0 0,-0.75678 c -4e-5,-3.55968 -1.17726,-6.30653 -3.53168,-8.24058 -2.32645,-1.962 -5.60586,-2.94302 -9.83824,-2.94306 -2.69082,4e-5 -5.31154,0.32237 -7.86218,0.967 -2.55067,0.64471 -5.00322,1.61172 -7.35765,2.90102 l 0,-7.14744 c 2.83093,-1.09309 5.57779,-1.90593 8.24057,-2.43853 2.66275,-0.56054 5.25545,-0.84083 7.7781,-0.84088 6.81105,5e-5 11.89834,1.76589 15.26188,5.29751 3.36345,3.53172 5.0452,8.88528 5.04525,16.06072"
                 style="font-size:86.10560608px;font-style:normal;font-weight:normal;line-height:125%;letter-spacing:0px;word-spacing:0px;fill:#000000;fill-opacity:1;stroke:none;font-family:Sans"
                 id="path4806"
                 inkscape:connector-curvature="0" />
            </g>
            <g
               id="g4808"
               transform="translate(0,20)">
              <path
                 style="fill:#ffffff;stroke:#000000;stroke-width:1px;stroke-linecap:butt;stroke-linejoin:miter;stroke-opacity:1"
                 d="m 430.02651,316.36604 9.7668,-1.43629 6.89421,-5.17066 4.02163,-7.18147 0,-9.47954 0,-1.4363 -8.61777,0 -10.05406,0.28726 -8.04325,2.29807 -4.02162,5.74518 -0.28726,6.89421 2.87259,5.74518 4.02162,2.29807 4.8834,1.14904 0.57452,0.57451 -0.28726,0 -0.28726,-0.86177 z"
                 id="path4810"
                 inkscape:connector-curvature="0"
                 transform="translate(0,308.2677)" />
              <path
                 inkscape:connector-curvature="0"
                 id="path4812"
                 style="font-size:86.10560608px;font-style:normal;font-weight:normal;line-height:125%;letter-spacing:0px;word-spacing:0px;fill:#000000;fill-opacity:1;stroke:none;font-family:Sans"
                 d="m 439.48383,602.85744 c -6.25053,3e-5 -10.58103,0.71477 -12.99152,2.14423 -2.41052,1.42951 -3.61577,3.86805 -3.61576,7.31562 -1e-5,2.74687 0.89692,4.93314 2.6908,6.55882 1.82188,1.59767 4.28844,2.3965 7.3997,2.3965 4.28843,0 7.722,-1.51357 10.30072,-4.54073 2.60668,-3.05516 3.91003,-7.10538 3.91007,-12.15064 l 0,-1.7238 -7.69401,0 m 15.43006,-3.19532 0,26.86596 -7.73605,0 0,-7.14744 c -1.76588,2.85898 -3.96616,4.97518 -6.60087,6.3486 -2.63477,1.3454 -5.85812,2.0181 -9.67006,2.01811 -4.82104,-10e-6 -8.66103,-1.3454 -11.51999,-4.03621 -2.83096,-2.71882 -4.24643,-6.34859 -4.24642,-10.88933 -10e-6,-5.29749 1.76583,-9.29164 5.29751,-11.98247 3.55969,-2.69077 8.8572,-4.03617 15.89254,-4.0362 l 10.84729,0 0,-0.75678 c -4e-5,-3.55968 -1.17726,-6.30653 -3.53168,-8.24058 -2.32645,-1.962 -5.60586,-2.94302 -9.83824,-2.94306 -2.69082,4e-5 -5.31154,0.32237 -7.86218,0.967 -2.55067,0.64471 -5.00322,1.61172 -7.35765,2.90102 l 0,-7.14744 c 2.83093,-1.09309 5.57779,-1.90593 8.24057,-2.43853 2.66275,-0.56054 5.25545,-0.84083 7.7781,-0.84088 6.81105,5e-5 11.89834,1.76589 15.26188,5.29751 3.36345,3.53172 5.0452,8.88528 5.04525,16.06072" />
            </g>
            <g
               id="g4814">
              <path
                 transform="translate(0,308.2677)"
                 inkscape:connector-curvature="0"
                 id="path4816"
                 d="m 430.02651,316.36604 9.7668,-1.43629 6.89421,-5.17066 4.02163,-7.18147 0,-9.47954 0,-1.4363 -8.61777,0 -10.05406,0.28726 -8.04325,2.29807 -4.02162,5.74518 -0.28726,6.89421 2.87259,5.74518 4.02162,2.29807 4.8834,1.14904 0.57452,0.57451 -0.28726,0 -0.28726,-0.86177 z"
                 style="fill:#ffffff;stroke:#000000;stroke-width:1px;stroke-linecap:butt;stroke-linejoin:miter;stroke-opacity:1" />
              <path
                 d="m 439.48383,602.85744 c -6.25053,3e-5 -10.58103,0.71477 -12.99152,2.14423 -2.41052,1.42951 -3.61577,3.86805 -3.61576,7.31562 -1e-5,2.74687 0.89692,4.93314 2.6908,6.55882 1.82188,1.59767 4.28844,2.3965 7.3997,2.3965 4.28843,0 7.722,-1.51357 10.30072,-4.54073 2.60668,-3.05516 3.91003,-7.10538 3.91007,-12.15064 l 0,-1.7238 -7.69401,0 m 15.43006,-3.19532 0,26.86596 -7.73605,0 0,-7.14744 c -1.76588,2.85898 -3.96616,4.97518 -6.60087,6.3486 -2.63477,1.3454 -5.85812,2.0181 -9.67006,2.01811 -4.82104,-10e-6 -8.66103,-1.3454 -11.51999,-4.03621 -2.83096,-2.71882 -4.24643,-6.34859 -4.24642,-10.88933 -10e-6,-5.29749 1.76583,-9.29164 5.29751,-11.98247 3.55969,-2.69077 8.8572,-4.03617 15.89254,-4.0362 l 10.84729,0 0,-0.75678 c -4e-5,-3.55968 -1.17726,-6.30653 -3.53168,-8.24058 -2.32645,-1.962 -5.60586,-2.94302 -9.83824,-2.94306 -2.69082,4e-5 -5.31154,0.32237 -7.86218,0.967 -2.55067,0.64471 -5.00322,1.61172 -7.35765,2.90102 l 0,-7.14744 c 2.83093,-1.09309 5.57779,-1.90593 8.24057,-2.43853 2.66275,-0.56054 5.25545,-0.84083 7.7781,-0.84088 6.81105,5e-5 11.89834,1.76589 15.26188,5.29751 3.36345,3.53172 5.0452,8.88528 5.04525,16.06072"
                 style="font-size:86.10560608px;font-style:normal;font-weight:normal;line-height:125%;letter-spacing:0px;word-spacing:0px;fill:#000000;fill-opacity:1;stroke:none;font-family:Sans"
                 id="path4818"
                 inkscape:connector-curvature="0" />
            </g>
          </g>
          <g
             id="g4820">
            <g
               id="g4822"
               transform="translate(0,40)">
              <path
                 style="fill:#ffffff;stroke:#000000;stroke-width:1px;stroke-linecap:butt;stroke-linejoin:miter;stroke-opacity:1"
                 d="m 430.02651,316.36604 9.7668,-1.43629 6.89421,-5.17066 4.02163,-7.18147 0,-9.47954 0,-1.4363 -8.61777,0 -10.05406,0.28726 -8.04325,2.29807 -4.02162,5.74518 -0.28726,6.89421 2.87259,5.74518 4.02162,2.29807 4.8834,1.14904 0.57452,0.57451 -0.28726,0 -0.28726,-0.86177 z"
                 id="path4824"
                 inkscape:connector-curvature="0"
                 transform="translate(0,308.2677)" />
              <path
                 inkscape:connector-curvature="0"
                 id="path4826"
                 style="font-size:86.10560608px;font-style:normal;font-weight:normal;line-height:125%;letter-spacing:0px;word-spacing:0px;fill:#000000;fill-opacity:1;stroke:none;font-family:Sans"
                 d="m 439.48383,602.85744 c -6.25053,3e-5 -10.58103,0.71477 -12.99152,2.14423 -2.41052,1.42951 -3.61577,3.86805 -3.61576,7.31562 -1e-5,2.74687 0.89692,4.93314 2.6908,6.55882 1.82188,1.59767 4.28844,2.3965 7.3997,2.3965 4.28843,0 7.722,-1.51357 10.30072,-4.54073 2.60668,-3.05516 3.91003,-7.10538 3.91007,-12.15064 l 0,-1.7238 -7.69401,0 m 15.43006,-3.19532 0,26.86596 -7.73605,0 0,-7.14744 c -1.76588,2.85898 -3.96616,4.97518 -6.60087,6.3486 -2.63477,1.3454 -5.85812,2.0181 -9.67006,2.01811 -4.82104,-10e-6 -8.66103,-1.3454 -11.51999,-4.03621 -2.83096,-2.71882 -4.24643,-6.34859 -4.24642,-10.88933 -10e-6,-5.29749 1.76583,-9.29164 5.29751,-11.98247 3.55969,-2.69077 8.8572,-4.03617 15.89254,-4.0362 l 10.84729,0 0,-0.75678 c -4e-5,-3.55968 -1.17726,-6.30653 -3.53168,-8.24058 -2.32645,-1.962 -5.60586,-2.94302 -9.83824,-2.94306 -2.69082,4e-5 -5.31154,0.32237 -7.86218,0.967 -2.55067,0.64471 -5.00322,1.61172 -7.35765,2.90102 l 0,-7.14744 c 2.83093,-1.09309 5.57779,-1.90593 8.24057,-2.43853 2.66275,-0.56054 5.25545,-0.84083 7.7781,-0.84088 6.81105,5e-5 11.89834,1.76589 15.26188,5.29751 3.36345,3.53172 5.0452,8.88528 5.04525,16.06072" />
            </g>
            <g
               transform="translate(0,20)"
               id="g4828">
              <path
                 transform="translate(0,308.2677)"
                 inkscape:connector-curvature="0"
                 id="path4830"
                 d="m 430.02651,316.36604 9.7668,-1.43629 6.89421,-5.17066 4.02163,-7.18147 0,-9.47954 0,-1.4363 -8.61777,0 -10.05406,0.28726 -8.04325,2.29807 -4.02162,5.74518 -0.28726,6.89421 2.87259,5.74518 4.02162,2.29807 4.8834,1.14904 0.57452,0.57451 -0.28726,0 -0.28726,-0.86177 z"
                 style="fill:#ffffff;stroke:#000000;stroke-width:1px;stroke-linecap:butt;stroke-linejoin:miter;stroke-opacity:1" />
              <path
                 d="m 439.48383,602.85744 c -6.25053,3e-5 -10.58103,0.71477 -12.99152,2.14423 -2.41052,1.42951 -3.61577,3.86805 -3.61576,7.31562 -1e-5,2.74687 0.89692,4.93314 2.6908,6.55882 1.82188,1.59767 4.28844,2.3965 7.3997,2.3965 4.28843,0 7.722,-1.51357 10.30072,-4.54073 2.60668,-3.05516 3.91003,-7.10538 3.91007,-12.15064 l 0,-1.7238 -7.69401,0 m 15.43006,-3.19532 0,26.86596 -7.73605,0 0,-7.14744 c -1.76588,2.85898 -3.96616,4.97518 -6.60087,6.3486 -2.63477,1.3454 -5.85812,2.0181 -9.67006,2.01811 -4.82104,-10e-6 -8.66103,-1.3454 -11.51999,-4.03621 -2.83096,-2.71882 -4.24643,-6.34859 -4.24642,-10.88933 -10e-6,-5.29749 1.76583,-9.29164 5.29751,-11.98247 3.55969,-2.69077 8.8572,-4.03617 15.89254,-4.0362 l 10.84729,0 0,-0.75678 c -4e-5,-3.55968 -1.17726,-6.30653 -3.53168,-8.24058 -2.32645,-1.962 -5.60586,-2.94302 -9.83824,-2.94306 -2.69082,4e-5 -5.31154,0.32237 -7.86218,0.967 -2.55067,0.64471 -5.00322,1.61172 -7.35765,2.90102 l 0,-7.14744 c 2.83093,-1.09309 5.57779,-1.90593 8.24057,-2.43853 2.66275,-0.56054 5.25545,-0.84083 7.7781,-0.84088 6.81105,5e-5 11.89834,1.76589 15.26188,5.29751 3.36345,3.53172 5.0452,8.88528 5.04525,16.06072"
                 style="font-size:86.10560608px;font-style:normal;font-weight:normal;line-height:125%;letter-spacing:0px;word-spacing:0px;fill:#000000;fill-opacity:1;stroke:none;font-family:Sans"
                 id="path4832"
                 inkscape:connector-curvature="0" />
            </g>
            <g
               id="g4834">
              <path
                 style="fill:#ffffff;stroke:#000000;stroke-width:1px;stroke-linecap:butt;stroke-linejoin:miter;stroke-opacity:1"
                 d="m 430.02651,316.36604 9.7668,-1.43629 6.89421,-5.17066 4.02163,-7.18147 0,-9.47954 0,-1.4363 -8.61777,0 -10.05406,0.28726 -8.04325,2.29807 -4.02162,5.74518 -0.28726,6.89421 2.87259,5.74518 4.02162,2.29807 4.8834,1.14904 0.57452,0.57451 -0.28726,0 -0.28726,-0.86177 z"
                 id="path4836"
                 inkscape:connector-curvature="0"
                 transform="translate(0,308.2677)" />
              <path
                 inkscape:connector-curvature="0"
                 id="path4838"
                 style="font-size:86.10560608px;font-style:normal;font-weight:normal;line-height:125%;letter-spacing:0px;word-spacing:0px;fill:#000000;fill-opacity:1;stroke:none;font-family:Sans"
                 d="m 439.48383,602.85744 c -6.25053,3e-5 -10.58103,0.71477 -12.99152,2.14423 -2.41052,1.42951 -3.61577,3.86805 -3.61576,7.31562 -1e-5,2.74687 0.89692,4.93314 2.6908,6.55882 1.82188,1.59767 4.28844,2.3965 7.3997,2.3965 4.28843,0 7.722,-1.51357 10.30072,-4.54073 2.60668,-3.05516 3.91003,-7.10538 3.91007,-12.15064 l 0,-1.7238 -7.69401,0 m 15.43006,-3.19532 0,26.86596 -7.73605,0 0,-7.14744 c -1.76588,2.85898 -3.96616,4.97518 -6.60087,6.3486 -2.63477,1.3454 -5.85812,2.0181 -9.67006,2.01811 -4.82104,-10e-6 -8.66103,-1.3454 -11.51999,-4.03621 -2.83096,-2.71882 -4.24643,-6.34859 -4.24642,-10.88933 -10e-6,-5.29749 1.76583,-9.29164 5.29751,-11.98247 3.55969,-2.69077 8.8572,-4.03617 15.89254,-4.0362 l 10.84729,0 0,-0.75678 c -4e-5,-3.55968 -1.17726,-6.30653 -3.53168,-8.24058 -2.32645,-1.962 -5.60586,-2.94302 -9.83824,-2.94306 -2.69082,4e-5 -5.31154,0.32237 -7.86218,0.967 -2.55067,0.64471 -5.00322,1.61172 -7.35765,2.90102 l 0,-7.14744 c 2.83093,-1.09309 5.57779,-1.90593 8.24057,-2.43853 2.66275,-0.56054 5.25545,-0.84083 7.7781,-0.84088 6.81105,5e-5 11.89834,1.76589 15.26188,5.29751 3.36345,3.53172 5.0452,8.88528 5.04525,16.06072" />
            </g>
          </g>
        </g>
      </g>
      <g
         id="g4710">
        <g
           id="g4668"
           transform="translate(0,118)">
          <g
             id="g4670"
             transform="translate(0,60)">
            <g
               transform="translate(0,40)"
               id="g4672">
              <path
                 transform="translate(0,308.2677)"
                 inkscape:connector-curvature="0"
                 id="path4674"
                 d="m 430.02651,316.36604 9.7668,-1.43629 6.89421,-5.17066 4.02163,-7.18147 0,-9.47954 0,-1.4363 -8.61777,0 -10.05406,0.28726 -8.04325,2.29807 -4.02162,5.74518 -0.28726,6.89421 2.87259,5.74518 4.02162,2.29807 4.8834,1.14904 0.57452,0.57451 -0.28726,0 -0.28726,-0.86177 z"
                 style="fill:#ffffff;stroke:#000000;stroke-width:1px;stroke-linecap:butt;stroke-linejoin:miter;stroke-opacity:1" />
              <path
                 d="m 439.48383,602.85744 c -6.25053,3e-5 -10.58103,0.71477 -12.99152,2.14423 -2.41052,1.42951 -3.61577,3.86805 -3.61576,7.31562 -1e-5,2.74687 0.89692,4.93314 2.6908,6.55882 1.82188,1.59767 4.28844,2.3965 7.3997,2.3965 4.28843,0 7.722,-1.51357 10.30072,-4.54073 2.60668,-3.05516 3.91003,-7.10538 3.91007,-12.15064 l 0,-1.7238 -7.69401,0 m 15.43006,-3.19532 0,26.86596 -7.73605,0 0,-7.14744 c -1.76588,2.85898 -3.96616,4.97518 -6.60087,6.3486 -2.63477,1.3454 -5.85812,2.0181 -9.67006,2.01811 -4.82104,-10e-6 -8.66103,-1.3454 -11.51999,-4.03621 -2.83096,-2.71882 -4.24643,-6.34859 -4.24642,-10.88933 -10e-6,-5.29749 1.76583,-9.29164 5.29751,-11.98247 3.55969,-2.69077 8.8572,-4.03617 15.89254,-4.0362 l 10.84729,0 0,-0.75678 c -4e-5,-3.55968 -1.17726,-6.30653 -3.53168,-8.24058 -2.32645,-1.962 -5.60586,-2.94302 -9.83824,-2.94306 -2.69082,4e-5 -5.31154,0.32237 -7.86218,0.967 -2.55067,0.64471 -5.00322,1.61172 -7.35765,2.90102 l 0,-7.14744 c 2.83093,-1.09309 5.57779,-1.90593 8.24057,-2.43853 2.66275,-0.56054 5.25545,-0.84083 7.7781,-0.84088 6.81105,5e-5 11.89834,1.76589 15.26188,5.29751 3.36345,3.53172 5.0452,8.88528 5.04525,16.06072"
                 style="font-size:86.10560608px;font-style:normal;font-weight:normal;line-height:125%;letter-spacing:0px;word-spacing:0px;fill:#000000;fill-opacity:1;stroke:none;font-family:Sans"
                 id="path4676"
                 inkscape:connector-curvature="0" />
            </g>
            <g
               id="g4678"
               transform="translate(0,20)">
              <path
                 style="fill:#ffffff;stroke:#000000;stroke-width:1px;stroke-linecap:butt;stroke-linejoin:miter;stroke-opacity:1"
                 d="m 430.02651,316.36604 9.7668,-1.43629 6.89421,-5.17066 4.02163,-7.18147 0,-9.47954 0,-1.4363 -8.61777,0 -10.05406,0.28726 -8.04325,2.29807 -4.02162,5.74518 -0.28726,6.89421 2.87259,5.74518 4.02162,2.29807 4.8834,1.14904 0.57452,0.57451 -0.28726,0 -0.28726,-0.86177 z"
                 id="path4680"
                 inkscape:connector-curvature="0"
                 transform="translate(0,308.2677)" />
              <path
                 inkscape:connector-curvature="0"
                 id="path4682"
                 style="font-size:86.10560608px;font-style:normal;font-weight:normal;line-height:125%;letter-spacing:0px;word-spacing:0px;fill:#000000;fill-opacity:1;stroke:none;font-family:Sans"
                 d="m 439.48383,602.85744 c -6.25053,3e-5 -10.58103,0.71477 -12.99152,2.14423 -2.41052,1.42951 -3.61577,3.86805 -3.61576,7.31562 -1e-5,2.74687 0.89692,4.93314 2.6908,6.55882 1.82188,1.59767 4.28844,2.3965 7.3997,2.3965 4.28843,0 7.722,-1.51357 10.30072,-4.54073 2.60668,-3.05516 3.91003,-7.10538 3.91007,-12.15064 l 0,-1.7238 -7.69401,0 m 15.43006,-3.19532 0,26.86596 -7.73605,0 0,-7.14744 c -1.76588,2.85898 -3.96616,4.97518 -6.60087,6.3486 -2.63477,1.3454 -5.85812,2.0181 -9.67006,2.01811 -4.82104,-10e-6 -8.66103,-1.3454 -11.51999,-4.03621 -2.83096,-2.71882 -4.24643,-6.34859 -4.24642,-10.88933 -10e-6,-5.29749 1.76583,-9.29164 5.29751,-11.98247 3.55969,-2.69077 8.8572,-4.03617 15.89254,-4.0362 l 10.84729,0 0,-0.75678 c -4e-5,-3.55968 -1.17726,-6.30653 -3.53168,-8.24058 -2.32645,-1.962 -5.60586,-2.94302 -9.83824,-2.94306 -2.69082,4e-5 -5.31154,0.32237 -7.86218,0.967 -2.55067,0.64471 -5.00322,1.61172 -7.35765,2.90102 l 0,-7.14744 c 2.83093,-1.09309 5.57779,-1.90593 8.24057,-2.43853 2.66275,-0.56054 5.25545,-0.84083 7.7781,-0.84088 6.81105,5e-5 11.89834,1.76589 15.26188,5.29751 3.36345,3.53172 5.0452,8.88528 5.04525,16.06072" />
            </g>
            <g
               id="g4684">
              <path
                 transform="translate(0,308.2677)"
                 inkscape:connector-curvature="0"
                 id="path4686"
                 d="m 430.02651,316.36604 9.7668,-1.43629 6.89421,-5.17066 4.02163,-7.18147 0,-9.47954 0,-1.4363 -8.61777,0 -10.05406,0.28726 -8.04325,2.29807 -4.02162,5.74518 -0.28726,6.89421 2.87259,5.74518 4.02162,2.29807 4.8834,1.14904 0.57452,0.57451 -0.28726,0 -0.28726,-0.86177 z"
                 style="fill:#ffffff;stroke:#000000;stroke-width:1px;stroke-linecap:butt;stroke-linejoin:miter;stroke-opacity:1" />
              <path
                 d="m 439.48383,602.85744 c -6.25053,3e-5 -10.58103,0.71477 -12.99152,2.14423 -2.41052,1.42951 -3.61577,3.86805 -3.61576,7.31562 -1e-5,2.74687 0.89692,4.93314 2.6908,6.55882 1.82188,1.59767 4.28844,2.3965 7.3997,2.3965 4.28843,0 7.722,-1.51357 10.30072,-4.54073 2.60668,-3.05516 3.91003,-7.10538 3.91007,-12.15064 l 0,-1.7238 -7.69401,0 m 15.43006,-3.19532 0,26.86596 -7.73605,0 0,-7.14744 c -1.76588,2.85898 -3.96616,4.97518 -6.60087,6.3486 -2.63477,1.3454 -5.85812,2.0181 -9.67006,2.01811 -4.82104,-10e-6 -8.66103,-1.3454 -11.51999,-4.03621 -2.83096,-2.71882 -4.24643,-6.34859 -4.24642,-10.88933 -10e-6,-5.29749 1.76583,-9.29164 5.29751,-11.98247 3.55969,-2.69077 8.8572,-4.03617 15.89254,-4.0362 l 10.84729,0 0,-0.75678 c -4e-5,-3.55968 -1.17726,-6.30653 -3.53168,-8.24058 -2.32645,-1.962 -5.60586,-2.94302 -9.83824,-2.94306 -2.69082,4e-5 -5.31154,0.32237 -7.86218,0.967 -2.55067,0.64471 -5.00322,1.61172 -7.35765,2.90102 l 0,-7.14744 c 2.83093,-1.09309 5.57779,-1.90593 8.24057,-2.43853 2.66275,-0.56054 5.25545,-0.84083 7.7781,-0.84088 6.81105,5e-5 11.89834,1.76589 15.26188,5.29751 3.36345,3.53172 5.0452,8.88528 5.04525,16.06072"
                 style="font-size:86.10560608px;font-style:normal;font-weight:normal;line-height:125%;letter-spacing:0px;word-spacing:0px;fill:#000000;fill-opacity:1;stroke:none;font-family:Sans"
                 id="path4688"
                 inkscape:connector-curvature="0" />
            </g>
          </g>
          <g
             id="g4690">
            <g
               id="g4692"
               transform="translate(0,40)">
              <path
                 style="fill:#ffffff;stroke:#000000;stroke-width:1px;stroke-linecap:butt;stroke-linejoin:miter;stroke-opacity:1"
                 d="m 430.02651,316.36604 9.7668,-1.43629 6.89421,-5.17066 4.02163,-7.18147 0,-9.47954 0,-1.4363 -8.61777,0 -10.05406,0.28726 -8.04325,2.29807 -4.02162,5.74518 -0.28726,6.89421 2.87259,5.74518 4.02162,2.29807 4.8834,1.14904 0.57452,0.57451 -0.28726,0 -0.28726,-0.86177 z"
                 id="path4694"
                 inkscape:connector-curvature="0"
                 transform="translate(0,308.2677)" />
              <path
                 inkscape:connector-curvature="0"
                 id="path4696"
                 style="font-size:86.10560608px;font-style:normal;font-weight:normal;line-height:125%;letter-spacing:0px;word-spacing:0px;fill:#000000;fill-opacity:1;stroke:none;font-family:Sans"
                 d="m 439.48383,602.85744 c -6.25053,3e-5 -10.58103,0.71477 -12.99152,2.14423 -2.41052,1.42951 -3.61577,3.86805 -3.61576,7.31562 -1e-5,2.74687 0.89692,4.93314 2.6908,6.55882 1.82188,1.59767 4.28844,2.3965 7.3997,2.3965 4.28843,0 7.722,-1.51357 10.30072,-4.54073 2.60668,-3.05516 3.91003,-7.10538 3.91007,-12.15064 l 0,-1.7238 -7.69401,0 m 15.43006,-3.19532 0,26.86596 -7.73605,0 0,-7.14744 c -1.76588,2.85898 -3.96616,4.97518 -6.60087,6.3486 -2.63477,1.3454 -5.85812,2.0181 -9.67006,2.01811 -4.82104,-10e-6 -8.66103,-1.3454 -11.51999,-4.03621 -2.83096,-2.71882 -4.24643,-6.34859 -4.24642,-10.88933 -10e-6,-5.29749 1.76583,-9.29164 5.29751,-11.98247 3.55969,-2.69077 8.8572,-4.03617 15.89254,-4.0362 l 10.84729,0 0,-0.75678 c -4e-5,-3.55968 -1.17726,-6.30653 -3.53168,-8.24058 -2.32645,-1.962 -5.60586,-2.94302 -9.83824,-2.94306 -2.69082,4e-5 -5.31154,0.32237 -7.86218,0.967 -2.55067,0.64471 -5.00322,1.61172 -7.35765,2.90102 l 0,-7.14744 c 2.83093,-1.09309 5.57779,-1.90593 8.24057,-2.43853 2.66275,-0.56054 5.25545,-0.84083 7.7781,-0.84088 6.81105,5e-5 11.89834,1.76589 15.26188,5.29751 3.36345,3.53172 5.0452,8.88528 5.04525,16.06072" />
            </g>
            <g
               transform="translate(0,20)"
               id="g4698">
              <path
                 transform="translate(0,308.2677)"
                 inkscape:connector-curvature="0"
                 id="path4700"
                 d="m 430.02651,316.36604 9.7668,-1.43629 6.89421,-5.17066 4.02163,-7.18147 0,-9.47954 0,-1.4363 -8.61777,0 -10.05406,0.28726 -8.04325,2.29807 -4.02162,5.74518 -0.28726,6.89421 2.87259,5.74518 4.02162,2.29807 4.8834,1.14904 0.57452,0.57451 -0.28726,0 -0.28726,-0.86177 z"
                 style="fill:#ffffff;stroke:#000000;stroke-width:1px;stroke-linecap:butt;stroke-linejoin:miter;stroke-opacity:1" />
              <path
                 d="m 439.48383,602.85744 c -6.25053,3e-5 -10.58103,0.71477 -12.99152,2.14423 -2.41052,1.42951 -3.61577,3.86805 -3.61576,7.31562 -1e-5,2.74687 0.89692,4.93314 2.6908,6.55882 1.82188,1.59767 4.28844,2.3965 7.3997,2.3965 4.28843,0 7.722,-1.51357 10.30072,-4.54073 2.60668,-3.05516 3.91003,-7.10538 3.91007,-12.15064 l 0,-1.7238 -7.69401,0 m 15.43006,-3.19532 0,26.86596 -7.73605,0 0,-7.14744 c -1.76588,2.85898 -3.96616,4.97518 -6.60087,6.3486 -2.63477,1.3454 -5.85812,2.0181 -9.67006,2.01811 -4.82104,-10e-6 -8.66103,-1.3454 -11.51999,-4.03621 -2.83096,-2.71882 -4.24643,-6.34859 -4.24642,-10.88933 -10e-6,-5.29749 1.76583,-9.29164 5.29751,-11.98247 3.55969,-2.69077 8.8572,-4.03617 15.89254,-4.0362 l 10.84729,0 0,-0.75678 c -4e-5,-3.55968 -1.17726,-6.30653 -3.53168,-8.24058 -2.32645,-1.962 -5.60586,-2.94302 -9.83824,-2.94306 -2.69082,4e-5 -5.31154,0.32237 -7.86218,0.967 -2.55067,0.64471 -5.00322,1.61172 -7.35765,2.90102 l 0,-7.14744 c 2.83093,-1.09309 5.57779,-1.90593 8.24057,-2.43853 2.66275,-0.56054 5.25545,-0.84083 7.7781,-0.84088 6.81105,5e-5 11.89834,1.76589 15.26188,5.29751 3.36345,3.53172 5.0452,8.88528 5.04525,16.06072"
                 style="font-size:86.10560608px;font-style:normal;font-weight:normal;line-height:125%;letter-spacing:0px;word-spacing:0px;fill:#000000;fill-opacity:1;stroke:none;font-family:Sans"
                 id="path4702"
                 inkscape:connector-curvature="0" />
            </g>
            <g
               id="g4704">
              <path
                 style="fill:#ffffff;stroke:#000000;stroke-width:1px;stroke-linecap:butt;stroke-linejoin:miter;stroke-opacity:1"
                 d="m 430.02651,316.36604 9.7668,-1.43629 6.89421,-5.17066 4.02163,-7.18147 0,-9.47954 0,-1.4363 -8.61777,0 -10.05406,0.28726 -8.04325,2.29807 -4.02162,5.74518 -0.28726,6.89421 2.87259,5.74518 4.02162,2.29807 4.8834,1.14904 0.57452,0.57451 -0.28726,0 -0.28726,-0.86177 z"
                 id="path4706"
                 inkscape:connector-curvature="0"
                 transform="translate(0,308.2677)" />
              <path
                 inkscape:connector-curvature="0"
                 id="path4708"
                 style="font-size:86.10560608px;font-style:normal;font-weight:normal;line-height:125%;letter-spacing:0px;word-spacing:0px;fill:#000000;fill-opacity:1;stroke:none;font-family:Sans"
                 d="m 439.48383,602.85744 c -6.25053,3e-5 -10.58103,0.71477 -12.99152,2.14423 -2.41052,1.42951 -3.61577,3.86805 -3.61576,7.31562 -1e-5,2.74687 0.89692,4.93314 2.6908,6.55882 1.82188,1.59767 4.28844,2.3965 7.3997,2.3965 4.28843,0 7.722,-1.51357 10.30072,-4.54073 2.60668,-3.05516 3.91003,-7.10538 3.91007,-12.15064 l 0,-1.7238 -7.69401,0 m 15.43006,-3.19532 0,26.86596 -7.73605,0 0,-7.14744 c -1.76588,2.85898 -3.96616,4.97518 -6.60087,6.3486 -2.63477,1.3454 -5.85812,2.0181 -9.67006,2.01811 -4.82104,-10e-6 -8.66103,-1.3454 -11.51999,-4.03621 -2.83096,-2.71882 -4.24643,-6.34859 -4.24642,-10.88933 -10e-6,-5.29749 1.76583,-9.29164 5.29751,-11.98247 3.55969,-2.69077 8.8572,-4.03617 15.89254,-4.0362 l 10.84729,0 0,-0.75678 c -4e-5,-3.55968 -1.17726,-6.30653 -3.53168,-8.24058 -2.32645,-1.962 -5.60586,-2.94302 -9.83824,-2.94306 -2.69082,4e-5 -5.31154,0.32237 -7.86218,0.967 -2.55067,0.64471 -5.00322,1.61172 -7.35765,2.90102 l 0,-7.14744 c 2.83093,-1.09309 5.57779,-1.90593 8.24057,-2.43853 2.66275,-0.56054 5.25545,-0.84083 7.7781,-0.84088 6.81105,5e-5 11.89834,1.76589 15.26188,5.29751 3.36345,3.53172 5.0452,8.88528 5.04525,16.06072" />
            </g>
          </g>
        </g>
        <g
           id="g4646">
          <g
             transform="translate(0,60)"
             id="g4626">
            <g
               id="g4628"
               transform="translate(0,40)">
              <path
                 style="fill:#ffffff;stroke:#000000;stroke-width:1px;stroke-linecap:butt;stroke-linejoin:miter;stroke-opacity:1"
                 d="m 430.02651,316.36604 9.7668,-1.43629 6.89421,-5.17066 4.02163,-7.18147 0,-9.47954 0,-1.4363 -8.61777,0 -10.05406,0.28726 -8.04325,2.29807 -4.02162,5.74518 -0.28726,6.89421 2.87259,5.74518 4.02162,2.29807 4.8834,1.14904 0.57452,0.57451 -0.28726,0 -0.28726,-0.86177 z"
                 id="path4630"
                 inkscape:connector-curvature="0"
                 transform="translate(0,308.2677)" />
              <path
                 inkscape:connector-curvature="0"
                 id="path4632"
                 style="font-size:86.10560608px;font-style:normal;font-weight:normal;line-height:125%;letter-spacing:0px;word-spacing:0px;fill:#000000;fill-opacity:1;stroke:none;font-family:Sans"
                 d="m 439.48383,602.85744 c -6.25053,3e-5 -10.58103,0.71477 -12.99152,2.14423 -2.41052,1.42951 -3.61577,3.86805 -3.61576,7.31562 -1e-5,2.74687 0.89692,4.93314 2.6908,6.55882 1.82188,1.59767 4.28844,2.3965 7.3997,2.3965 4.28843,0 7.722,-1.51357 10.30072,-4.54073 2.60668,-3.05516 3.91003,-7.10538 3.91007,-12.15064 l 0,-1.7238 -7.69401,0 m 15.43006,-3.19532 0,26.86596 -7.73605,0 0,-7.14744 c -1.76588,2.85898 -3.96616,4.97518 -6.60087,6.3486 -2.63477,1.3454 -5.85812,2.0181 -9.67006,2.01811 -4.82104,-10e-6 -8.66103,-1.3454 -11.51999,-4.03621 -2.83096,-2.71882 -4.24643,-6.34859 -4.24642,-10.88933 -10e-6,-5.29749 1.76583,-9.29164 5.29751,-11.98247 3.55969,-2.69077 8.8572,-4.03617 15.89254,-4.0362 l 10.84729,0 0,-0.75678 c -4e-5,-3.55968 -1.17726,-6.30653 -3.53168,-8.24058 -2.32645,-1.962 -5.60586,-2.94302 -9.83824,-2.94306 -2.69082,4e-5 -5.31154,0.32237 -7.86218,0.967 -2.55067,0.64471 -5.00322,1.61172 -7.35765,2.90102 l 0,-7.14744 c 2.83093,-1.09309 5.57779,-1.90593 8.24057,-2.43853 2.66275,-0.56054 5.25545,-0.84083 7.7781,-0.84088 6.81105,5e-5 11.89834,1.76589 15.26188,5.29751 3.36345,3.53172 5.0452,8.88528 5.04525,16.06072" />
            </g>
            <g
               transform="translate(0,20)"
               id="g4634">
              <path
                 transform="translate(0,308.2677)"
                 inkscape:connector-curvature="0"
                 id="path4636"
                 d="m 430.02651,316.36604 9.7668,-1.43629 6.89421,-5.17066 4.02163,-7.18147 0,-9.47954 0,-1.4363 -8.61777,0 -10.05406,0.28726 -8.04325,2.29807 -4.02162,5.74518 -0.28726,6.89421 2.87259,5.74518 4.02162,2.29807 4.8834,1.14904 0.57452,0.57451 -0.28726,0 -0.28726,-0.86177 z"
                 style="fill:#ffffff;stroke:#000000;stroke-width:1px;stroke-linecap:butt;stroke-linejoin:miter;stroke-opacity:1" />
              <path
                 d="m 439.48383,602.85744 c -6.25053,3e-5 -10.58103,0.71477 -12.99152,2.14423 -2.41052,1.42951 -3.61577,3.86805 -3.61576,7.31562 -1e-5,2.74687 0.89692,4.93314 2.6908,6.55882 1.82188,1.59767 4.28844,2.3965 7.3997,2.3965 4.28843,0 7.722,-1.51357 10.30072,-4.54073 2.60668,-3.05516 3.91003,-7.10538 3.91007,-12.15064 l 0,-1.7238 -7.69401,0 m 15.43006,-3.19532 0,26.86596 -7.73605,0 0,-7.14744 c -1.76588,2.85898 -3.96616,4.97518 -6.60087,6.3486 -2.63477,1.3454 -5.85812,2.0181 -9.67006,2.01811 -4.82104,-10e-6 -8.66103,-1.3454 -11.51999,-4.03621 -2.83096,-2.71882 -4.24643,-6.34859 -4.24642,-10.88933 -10e-6,-5.29749 1.76583,-9.29164 5.29751,-11.98247 3.55969,-2.69077 8.8572,-4.03617 15.89254,-4.0362 l 10.84729,0 0,-0.75678 c -4e-5,-3.55968 -1.17726,-6.30653 -3.53168,-8.24058 -2.32645,-1.962 -5.60586,-2.94302 -9.83824,-2.94306 -2.69082,4e-5 -5.31154,0.32237 -7.86218,0.967 -2.55067,0.64471 -5.00322,1.61172 -7.35765,2.90102 l 0,-7.14744 c 2.83093,-1.09309 5.57779,-1.90593 8.24057,-2.43853 2.66275,-0.56054 5.25545,-0.84083 7.7781,-0.84088 6.81105,5e-5 11.89834,1.76589 15.26188,5.29751 3.36345,3.53172 5.0452,8.88528 5.04525,16.06072"
                 style="font-size:86.10560608px;font-style:normal;font-weight:normal;line-height:125%;letter-spacing:0px;word-spacing:0px;fill:#000000;fill-opacity:1;stroke:none;font-family:Sans"
                 id="path4638"
                 inkscape:connector-curvature="0" />
            </g>
            <g
               id="g4640">
              <path
                 style="fill:#ffffff;stroke:#000000;stroke-width:1px;stroke-linecap:butt;stroke-linejoin:miter;stroke-opacity:1"
                 d="m 430.02651,316.36604 9.7668,-1.43629 6.89421,-5.17066 4.02163,-7.18147 0,-9.47954 0,-1.4363 -8.61777,0 -10.05406,0.28726 -8.04325,2.29807 -4.02162,5.74518 -0.28726,6.89421 2.87259,5.74518 4.02162,2.29807 4.8834,1.14904 0.57452,0.57451 -0.28726,0 -0.28726,-0.86177 z"
                 id="path4642"
                 inkscape:connector-curvature="0"
                 transform="translate(0,308.2677)" />
              <path
                 inkscape:connector-curvature="0"
                 id="path4644"
                 style="font-size:86.10560608px;font-style:normal;font-weight:normal;line-height:125%;letter-spacing:0px;word-spacing:0px;fill:#000000;fill-opacity:1;stroke:none;font-family:Sans"
                 d="m 439.48383,602.85744 c -6.25053,3e-5 -10.58103,0.71477 -12.99152,2.14423 -2.41052,1.42951 -3.61577,3.86805 -3.61576,7.31562 -1e-5,2.74687 0.89692,4.93314 2.6908,6.55882 1.82188,1.59767 4.28844,2.3965 7.3997,2.3965 4.28843,0 7.722,-1.51357 10.30072,-4.54073 2.60668,-3.05516 3.91003,-7.10538 3.91007,-12.15064 l 0,-1.7238 -7.69401,0 m 15.43006,-3.19532 0,26.86596 -7.73605,0 0,-7.14744 c -1.76588,2.85898 -3.96616,4.97518 -6.60087,6.3486 -2.63477,1.3454 -5.85812,2.0181 -9.67006,2.01811 -4.82104,-10e-6 -8.66103,-1.3454 -11.51999,-4.03621 -2.83096,-2.71882 -4.24643,-6.34859 -4.24642,-10.88933 -10e-6,-5.29749 1.76583,-9.29164 5.29751,-11.98247 3.55969,-2.69077 8.8572,-4.03617 15.89254,-4.0362 l 10.84729,0 0,-0.75678 c -4e-5,-3.55968 -1.17726,-6.30653 -3.53168,-8.24058 -2.32645,-1.962 -5.60586,-2.94302 -9.83824,-2.94306 -2.69082,4e-5 -5.31154,0.32237 -7.86218,0.967 -2.55067,0.64471 -5.00322,1.61172 -7.35765,2.90102 l 0,-7.14744 c 2.83093,-1.09309 5.57779,-1.90593 8.24057,-2.43853 2.66275,-0.56054 5.25545,-0.84083 7.7781,-0.84088 6.81105,5e-5 11.89834,1.76589 15.26188,5.29751 3.36345,3.53172 5.0452,8.88528 5.04525,16.06072" />
            </g>
          </g>
          <g
             id="g4615">
            <g
               transform="translate(0,40)"
               id="g4609">
              <path
                 transform="translate(0,308.2677)"
                 inkscape:connector-curvature="0"
                 id="path4611"
                 d="m 430.02651,316.36604 9.7668,-1.43629 6.89421,-5.17066 4.02163,-7.18147 0,-9.47954 0,-1.4363 -8.61777,0 -10.05406,0.28726 -8.04325,2.29807 -4.02162,5.74518 -0.28726,6.89421 2.87259,5.74518 4.02162,2.29807 4.8834,1.14904 0.57452,0.57451 -0.28726,0 -0.28726,-0.86177 z"
                 style="fill:#ffffff;stroke:#000000;stroke-width:1px;stroke-linecap:butt;stroke-linejoin:miter;stroke-opacity:1" />
              <path
                 d="m 439.48383,602.85744 c -6.25053,3e-5 -10.58103,0.71477 -12.99152,2.14423 -2.41052,1.42951 -3.61577,3.86805 -3.61576,7.31562 -1e-5,2.74687 0.89692,4.93314 2.6908,6.55882 1.82188,1.59767 4.28844,2.3965 7.3997,2.3965 4.28843,0 7.722,-1.51357 10.30072,-4.54073 2.60668,-3.05516 3.91003,-7.10538 3.91007,-12.15064 l 0,-1.7238 -7.69401,0 m 15.43006,-3.19532 0,26.86596 -7.73605,0 0,-7.14744 c -1.76588,2.85898 -3.96616,4.97518 -6.60087,6.3486 -2.63477,1.3454 -5.85812,2.0181 -9.67006,2.01811 -4.82104,-10e-6 -8.66103,-1.3454 -11.51999,-4.03621 -2.83096,-2.71882 -4.24643,-6.34859 -4.24642,-10.88933 -10e-6,-5.29749 1.76583,-9.29164 5.29751,-11.98247 3.55969,-2.69077 8.8572,-4.03617 15.89254,-4.0362 l 10.84729,0 0,-0.75678 c -4e-5,-3.55968 -1.17726,-6.30653 -3.53168,-8.24058 -2.32645,-1.962 -5.60586,-2.94302 -9.83824,-2.94306 -2.69082,4e-5 -5.31154,0.32237 -7.86218,0.967 -2.55067,0.64471 -5.00322,1.61172 -7.35765,2.90102 l 0,-7.14744 c 2.83093,-1.09309 5.57779,-1.90593 8.24057,-2.43853 2.66275,-0.56054 5.25545,-0.84083 7.7781,-0.84088 6.81105,5e-5 11.89834,1.76589 15.26188,5.29751 3.36345,3.53172 5.0452,8.88528 5.04525,16.06072"
                 style="font-size:86.10560608px;font-style:normal;font-weight:normal;line-height:125%;letter-spacing:0px;word-spacing:0px;fill:#000000;fill-opacity:1;stroke:none;font-family:Sans"
                 id="path4613"
                 inkscape:connector-curvature="0" />
            </g>
            <g
               id="g4603"
               transform="translate(0,20)">
              <path
                 style="fill:#ffffff;stroke:#000000;stroke-width:1px;stroke-linecap:butt;stroke-linejoin:miter;stroke-opacity:1"
                 d="m 430.02651,316.36604 9.7668,-1.43629 6.89421,-5.17066 4.02163,-7.18147 0,-9.47954 0,-1.4363 -8.61777,0 -10.05406,0.28726 -8.04325,2.29807 -4.02162,5.74518 -0.28726,6.89421 2.87259,5.74518 4.02162,2.29807 4.8834,1.14904 0.57452,0.57451 -0.28726,0 -0.28726,-0.86177 z"
                 id="path4605"
                 inkscape:connector-curvature="0"
                 transform="translate(0,308.2677)" />
              <path
                 inkscape:connector-curvature="0"
                 id="path4607"
                 style="font-size:86.10560608px;font-style:normal;font-weight:normal;line-height:125%;letter-spacing:0px;word-spacing:0px;fill:#000000;fill-opacity:1;stroke:none;font-family:Sans"
                 d="m 439.48383,602.85744 c -6.25053,3e-5 -10.58103,0.71477 -12.99152,2.14423 -2.41052,1.42951 -3.61577,3.86805 -3.61576,7.31562 -1e-5,2.74687 0.89692,4.93314 2.6908,6.55882 1.82188,1.59767 4.28844,2.3965 7.3997,2.3965 4.28843,0 7.722,-1.51357 10.30072,-4.54073 2.60668,-3.05516 3.91003,-7.10538 3.91007,-12.15064 l 0,-1.7238 -7.69401,0 m 15.43006,-3.19532 0,26.86596 -7.73605,0 0,-7.14744 c -1.76588,2.85898 -3.96616,4.97518 -6.60087,6.3486 -2.63477,1.3454 -5.85812,2.0181 -9.67006,2.01811 -4.82104,-10e-6 -8.66103,-1.3454 -11.51999,-4.03621 -2.83096,-2.71882 -4.24643,-6.34859 -4.24642,-10.88933 -10e-6,-5.29749 1.76583,-9.29164 5.29751,-11.98247 3.55969,-2.69077 8.8572,-4.03617 15.89254,-4.0362 l 10.84729,0 0,-0.75678 c -4e-5,-3.55968 -1.17726,-6.30653 -3.53168,-8.24058 -2.32645,-1.962 -5.60586,-2.94302 -9.83824,-2.94306 -2.69082,4e-5 -5.31154,0.32237 -7.86218,0.967 -2.55067,0.64471 -5.00322,1.61172 -7.35765,2.90102 l 0,-7.14744 c 2.83093,-1.09309 5.57779,-1.90593 8.24057,-2.43853 2.66275,-0.56054 5.25545,-0.84083 7.7781,-0.84088 6.81105,5e-5 11.89834,1.76589 15.26188,5.29751 3.36345,3.53172 5.0452,8.88528 5.04525,16.06072" />
            </g>
            <g
               id="g4599">
              <path
                 transform="translate(0,308.2677)"
                 inkscape:connector-curvature="0"
                 id="path4597"
                 d="m 430.02651,316.36604 9.7668,-1.43629 6.89421,-5.17066 4.02163,-7.18147 0,-9.47954 0,-1.4363 -8.61777,0 -10.05406,0.28726 -8.04325,2.29807 -4.02162,5.74518 -0.28726,6.89421 2.87259,5.74518 4.02162,2.29807 4.8834,1.14904 0.57452,0.57451 -0.28726,0 -0.28726,-0.86177 z"
                 style="fill:#ffffff;stroke:#000000;stroke-width:1px;stroke-linecap:butt;stroke-linejoin:miter;stroke-opacity:1" />
              <path
                 d="m 439.48383,602.85744 c -6.25053,3e-5 -10.58103,0.71477 -12.99152,2.14423 -2.41052,1.42951 -3.61577,3.86805 -3.61576,7.31562 -1e-5,2.74687 0.89692,4.93314 2.6908,6.55882 1.82188,1.59767 4.28844,2.3965 7.3997,2.3965 4.28843,0 7.722,-1.51357 10.30072,-4.54073 2.60668,-3.05516 3.91003,-7.10538 3.91007,-12.15064 l 0,-1.7238 -7.69401,0 m 15.43006,-3.19532 0,26.86596 -7.73605,0 0,-7.14744 c -1.76588,2.85898 -3.96616,4.97518 -6.60087,6.3486 -2.63477,1.3454 -5.85812,2.0181 -9.67006,2.01811 -4.82104,-10e-6 -8.66103,-1.3454 -11.51999,-4.03621 -2.83096,-2.71882 -4.24643,-6.34859 -4.24642,-10.88933 -10e-6,-5.29749 1.76583,-9.29164 5.29751,-11.98247 3.55969,-2.69077 8.8572,-4.03617 15.89254,-4.0362 l 10.84729,0 0,-0.75678 c -4e-5,-3.55968 -1.17726,-6.30653 -3.53168,-8.24058 -2.32645,-1.962 -5.60586,-2.94302 -9.83824,-2.94306 -2.69082,4e-5 -5.31154,0.32237 -7.86218,0.967 -2.55067,0.64471 -5.00322,1.61172 -7.35765,2.90102 l 0,-7.14744 c 2.83093,-1.09309 5.57779,-1.90593 8.24057,-2.43853 2.66275,-0.56054 5.25545,-0.84083 7.7781,-0.84088 6.81105,5e-5 11.89834,1.76589 15.26188,5.29751 3.36345,3.53172 5.0452,8.88528 5.04525,16.06072"
                 style="font-size:86.10560608px;font-style:normal;font-weight:normal;line-height:125%;letter-spacing:0px;word-spacing:0px;fill:#000000;fill-opacity:1;stroke:none;font-family:Sans"
                 id="path4583"
                 inkscape:connector-curvature="0" />
            </g>
          </g>
        </g>
      </g>
      <path
         d="m 498.1769,586.6706 c -0.86894,-0.50449 -1.82193,-0.86887 -2.85897,-1.09314 -1.00908,-0.25222 -2.13025,-0.37835 -3.3635,-0.37839 -4.37258,4e-5 -7.73608,1.42952 -10.0905,4.28846 -2.32644,2.83098 -3.48965,6.90922 -3.48964,12.23473 l 0,24.80582 -7.77809,0 0,-47.08901 7.77809,0 0,7.31562 c 1.62568,-2.85894 3.74188,-4.97514 6.34861,-6.34861 2.60669,-1.40141 5.77398,-2.10214 9.50189,-2.10219 0.53252,5e-5 1.12113,0.0421 1.76584,0.12613 0.64463,0.0561 1.35938,0.15421 2.14423,0.29431 l 0.042,7.94627"
         style="font-size:86.10560608px;font-style:normal;font-weight:normal;line-height:125%;letter-spacing:0px;word-spacing:0px;fill:#000000;fill-opacity:1;stroke:none;font-family:Sans"
         id="path4585"
         inkscape:connector-curvature="0" />
      <path
         d="m 544.80343,601.04956 0,3.78394 -35.56901,0 c 0.33633,5.32556 1.93399,9.38978 4.79298,12.19269 2.88699,2.77489 6.89516,4.16233 12.02452,4.16233 2.97106,0 5.84404,-0.36437 8.61897,-1.09314 2.80287,-0.72875 5.57776,-1.82189 8.32466,-3.27941 l 0,7.31561 c -2.77493,1.17723 -5.61989,2.07416 -8.53488,2.6908 -2.91507,0.61664 -5.87214,0.92496 -8.87123,0.92497 -7.51184,-10e-6 -13.46803,-2.18628 -17.8686,-6.55883 -4.37256,-4.37254 -6.55883,-10.28669 -6.55882,-17.74246 -10e-6,-7.70799 2.07415,-13.81835 6.22247,-18.33108 4.17633,-4.54068 9.79617,-6.81104 16.85955,-6.81109 6.33455,5e-5 11.33776,2.04618 15.00962,6.13839 3.6998,4.06427 5.54972,9.60002 5.54977,16.60728 m -7.73605,-2.27036 c -0.0561,-4.23237 -1.24734,-7.60988 -3.57372,-10.13255 -2.29842,-2.52258 -5.3536,-3.78389 -9.16554,-3.78393 -4.31651,4e-5 -7.77811,1.21931 -10.3848,3.6578 -2.5787,2.43858 -4.06425,5.87215 -4.45664,10.30072 l 27.5807,-0.042"
         style="font-size:86.10560608px;font-style:normal;font-weight:normal;line-height:125%;letter-spacing:0px;word-spacing:0px;fill:#000000;fill-opacity:1;stroke:none;font-family:Sans"
         id="path4587"
         inkscape:connector-curvature="0" />
    </g>
  </g>
</svg>
