<script type="text/javascript">
WB_wombat_Init("http://web.archive.org/web", "20171002230334", "openclipart.org");
</script>
<script type="text/javascript" src="/_static/js/wbhack.js" charset="utf-8"></script>
<script type="text/javascript">
__wbhack.init('http://web.archive.org/web');
</script>
<link rel="stylesheet" type="text/css" href="/_static/css/banner-styles.css" />
<link rel="stylesheet" type="text/css" href="/_static/css/iconochive.css" />
<!-- End Wayback Rewrite JS Include -->
<svg width="313" height="361" xmlns="http://www.w3.org/2000/svg">
 <defs>
  <lineargradient x1="0.33826" y1="0.16805" x2="0.33873" y2="0.90441" id="imagebot_16">
   <stop stop-color="#ef8900" offset="0" id="imagebot_22"/>
   <stop stop-color="#5d2500" offset="1" id="imagebot_21"/>
  </lineargradient>
  <radialgradient r="117.84" gradienttransform="matrix(1.7551, 6.3148e-08, -1.0548e-08, 1.7657, 110.829, 200.217)" cx="126.23" cy="45.06" gradientunits="userSpaceOnUse" id="imagebot_12">
   <stop stop-color="#ffffff" offset="0" id="imagebot_20"/>
   <stop stop-color="#c5c5c5" offset="1" id="imagebot_19"/>
  </radialgradient>
  <lineargradient x1="0.43247" y1="0.78276" x2="0.66104" y2="0.30328" id="imagebot_14">
   <stop stop-color="#ff7f2a" offset="0" id="imagebot_18"/>
   <stop stop-color="#813300" stop-opacity="0" offset="1" id="imagebot_17"/>
  </lineargradient>
 </defs>
 <g label="Layer 1" id="imagebot_2">
  <g transform="translate(-7.68501, -18.916) matrix(1, 0, 0, 1, -206.15, -216.44)" label="Layer 1" id="imagebot_3">
   <path stroke="#000000" stroke-width="1px" fill="url(#imagebot_16)" d="M271.025,285.596 C251.496,285.572 236.077,285.747 234.525,286.19 C230.387,287.372 226.838,291.502 226.838,291.502 S228.624,307.463 229.806,312.784 C230.989,318.1 238.085,428.664 237.494,436.944 S239.832,543.344 238.65,548.664 C237.542,553.654 236.44,559.154 236.306,558.854 C236.273,559.234 234.541,579.454 235.712,582.384 C236.895,585.334 304.288,596.564 335.62,595.384 C366.95,594.204 430.2,587.114 433.74,582.384 C437.29,577.654 430.19,553.404 432.56,550.444 C434.92,547.484 439.05,545.714 445.56,543.944 C452.06,542.174 479.27,530.954 486.37,525.634 C493.46,520.314 509.42,492.524 512.96,481.284 C516.51,470.054 525.37,444.024 525.96,433.384 S526.55,381.374 524.18,372.504 C521.82,363.644 511.78,344.144 504.68,340.604 C497.59,337.054 446.15,333.504 446.15,333.504 S442.62,331.114 442.62,327.564 C442.62,324.024 373.45,289.155 357.49,287.382 C347.52,286.273 303.573,285.641 271.025,285.6 L271.025,285.596 z M444.965,357.13 C444.375,357.13 489.905,358.33 496.995,361.28 C504.095,364.24 503.505,383.14 504.095,393.78 S503.495,432.2 503.495,441.06 C503.495,449.93 486.355,488.97 481.035,495.47 C475.705,501.97 468.635,507.28 463.315,513.19 S439.665,517.93 434.935,516.75 S431.375,504.91 430.775,498.41 C430.185,491.91 434.935,390.23 435.535,384.32 C436.125,378.4 436.695,364.22 444.965,357.13 z" id="imagebot_15"/>
   <path fill="url(#imagebot_14)" d="M237.481,344.72 S242.801,317.527 249.304,313.98 C255.807,310.433 291.276,307.477 298.37,309.251 C305.464,311.024 323.198,324.621 327.336,329.35 C331.474,334.079 339.159,364.228 340.932,372.504 C342.705,380.78 345.07,412.702 346.252,415.658 C347.435,418.614 355.12,434.575 363.395,434.575 C371.671,434.575 389.406,418.614 392.953,412.111 C396.5,405.608 397.091,398.515 407.732,385.509 C418.373,372.504 416.009,347.675 420.146,342.355 C424.285,337.034 421.329,333.488 426.058,336.443 S433.152,344.128 436.699,339.99 C440.246,335.852 421.329,305.703 421.329,305.703 L243.989,290.334 L229.805,301.566 S235.716,308.66 236.308,312.207 C236.899,315.754 238.081,345.312 237.49,344.72 L237.481,344.72 z" id="imagebot_13"/>
   <path stroke="#000000" stroke-width="1px" fill="url(#imagebot_12)" d="M229.796,319.89 S232.161,302.747 234.525,300.973 C236.89,299.199 296.596,293.879 301.325,294.47 C306.054,295.061 320.833,302.746 332.065,302.746 S348.617,305.111 352.755,307.476 C356.893,309.84 361.623,317.526 365.76,318.708 C369.898,319.89 379.356,325.801 378.174,329.94 C376.992,334.078 376.401,351.813 376.992,355.36 C377.583,358.907 379.948,365.41 379.948,365.41 S379.948,370.139 382.903,371.321 S391.771,372.503 391.771,367.774 S388.815,361.863 387.633,355.951 S384.677,346.493 388.815,338.216 C392.953,329.94 392.953,327.575 397.091,325.211 C401.229,322.847 401.82,318.709 404.776,324.029 S404.185,331.714 410.097,330.532 C416.008,329.349 414.235,323.438 421.328,324.62 C428.422,325.802 427.24,326.394 429.013,331.714 C430.787,337.034 429.013,342.946 434.925,338.217 C440.836,333.487 443.792,328.167 446.748,322.256 C449.704,316.344 452.068,287.378 445.566,277.328 S396.5,243.632 386.451,243.041 C376.401,242.45 304.872,235.356 297.187,237.72 S267.038,241.858 261.718,244.814 C256.397,247.77 256.397,254.272 252.259,254.864 C248.121,255.455 241.618,254.864 239.845,259.593 C238.072,264.322 240.436,261.367 233.343,266.096 S222.111,267.278 221.52,275.554 C220.928,283.83 225.658,283.239 220.337,286.195 C215.017,289.151 213.835,289.151 216.199,296.245 C218.564,303.339 226.249,321.073 226.249,321.073 L229.796,319.891 L229.796,319.89 z" id="imagebot_11"/>
   <path stroke="#000000" stroke-width="1px" fill="#ffffff" d="M232.752,311.615 L235.117,329.941 S245.758,492.511 244.575,503.151 C243.393,513.792 239.846,542.167 243.393,546.896 C246.94,551.625 246.94,556.354 249.304,556.946 C251.669,557.537 270.585,564.04 284.773,563.449 C298.961,562.858 372.263,563.449 384.087,561.675 C395.91,559.902 411.28,557.537 418.374,554.581 C425.468,551.626 426.059,549.852 428.424,552.808 C430.789,555.764 434.336,565.222 431.971,566.996 C429.606,568.769 403.596,580.001 393.546,578.228 C383.496,576.454 335.022,573.499 319.652,573.499 S285.365,576.454 272.951,573.499 S249.305,571.134 246.349,569.361 C243.393,567.587 238.073,559.311 238.664,556.947 C239.255,554.582 241.029,545.124 241.029,545.124 S239.846,471.23 239.846,467.683 C239.846,464.136 236.891,390.242 236.891,390.242 L231.57,318.713 L232.753,311.619 L232.752,311.615 z" id="imagebot_10"/>
   <path fill="#803300" d="M428.42,341.76 S428.42,376.638 429.011,388.461 S426.647,466.493 424.873,474.178 S423.691,486.001 424.873,492.504 C426.055,499.007 424.873,500.78 424.873,500.78 S428.42,478.907 429.011,473.587 C429.602,468.267 432.558,393.19 433.149,388.461 C433.74,383.732 437.878,367.771 439.061,361.859 C440.243,355.948 442.017,352.992 439.061,348.854 C436.105,344.716 437.878,346.489 434.332,344.125 S428.42,344.125 428.42,341.76 L428.42,341.76 z" id="imagebot_9"/>
   <path fill="#803300" d="M242.801,326.39 C244.574,334.075 246.939,434.57 247.53,441.66 C248.121,448.754 251.077,478.903 249.895,487.77 C248.712,496.637 248.121,498.411 246.939,501.366 C245.757,504.322 245.165,490.134 245.165,490.134 S237.48,386.684 238.663,382.544 C239.845,378.406 236.298,342.346 238.072,337.616 C239.845,332.887 242.21,325.202 242.801,326.384 L242.801,326.39 z" id="imagebot_8"/>
   <path fill-opacity="0.4382" fill="#000000" d="M251.078,533.3 C254.034,540.394 255.216,545.123 261.128,545.714 C267.039,546.305 315.514,549.261 327.337,549.261 S397.093,549.261 405.369,543.349 C413.645,537.438 416.601,539.802 419.557,529.161 C422.513,518.52 424.286,505.515 421.922,501.377 C419.557,497.239 427.833,511.427 427.833,519.703 C427.833,527.979 423.695,533.299 418.375,541.576 C413.054,549.852 405.37,553.99 394.138,553.99 S369.901,555.764 361.625,554.582 C353.349,553.399 347.437,552.217 336.205,555.173 S283.001,554.582 271.769,552.808 S251.67,554.582 248.714,546.897 C245.758,539.212 246.349,529.754 248.714,523.842 C251.078,517.93 254.625,508.472 254.625,508.472 L251.078,533.3 L251.078,533.3 z" id="imagebot_7"/>
   <path fill-opacity="0.71536" fill="#ffffff" d="M251.078,323.44 C252.852,331.125 260.536,357.136 259.945,366.003 C259.354,374.87 258.763,402.654 257.581,415.66 C256.398,428.665 252.852,447.582 254.625,464.726 C256.398,481.869 258.763,487.781 255.807,494.284 C252.851,500.787 248.713,510.245 248.713,510.245 S265.265,488.372 266.448,483.052 C267.631,477.732 262.31,452.312 263.493,439.307 S266.448,396.744 268.813,382.556 S272.36,355.954 269.404,342.949 S251.669,321.668 251.078,323.441 L251.078,323.44 z" id="imagebot_6"/>
   <path fill="#ececec" d="M442.97,329.88 C442.97,326.333 445.559,357.129 444.968,357.129 C444.931,356.205 490.645,357.96 497.738,360.916 C504.831,363.872 504.24,383.514 504.831,394.155 C505.422,404.796 504.238,432.015 504.238,440.882 C504.238,449.749 487.274,488.601 481.954,495.103 C476.633,501.605 469.001,507.649 463.681,513.561 C458.36,519.472 439.111,518.49 434.382,517.308 C429.652,516.126 438.873,545.16 445.377,543.387 C451.879,541.614 479.096,530.21 486.189,524.89 C493.282,519.57 508.681,492.148 512.228,480.916 C515.774,469.684 524.822,444.02 525.413,433.379 C526.004,422.738 526.181,381.371 523.816,372.504 C521.452,363.637 511.04,344.329 503.946,340.783 C496.852,337.236 446.597,334.096 446.597,334.096 S442.969,331.95 442.969,329.881 L442.97,329.88 z" id="imagebot_5"/>
   <path stroke="#000000" stroke-width="1px" fill="#000000" d="M442.32,330.24 S444.389,335.413 444.832,337.925 C445.276,340.437 446.162,348.714 445.867,351.374 C445.571,354.034 446.458,356.694 445.424,356.842 C444.389,356.99 444.241,354.625 444.241,352.852 S443.946,343.689 443.355,341.177 C442.763,338.665 442.616,336.891 442.172,335.118 C441.729,333.344 442.763,329.945 442.32,330.241 L442.32,330.24 z" id="imagebot_4"/>
  </g>
  <title>Layer 1</title>
 </g>
 <metadata>image/svg+xmlOpenclipartBeer2010-07-17T14:58:12Beer,Drink,cool,drunk,water,bujung,thirstyhttps://openclipart.org/detail/73591/beer-by-aungkarnsaungkarnsBeerDrinkbujungcooldrunkthirstywater</metadata>
</svg><!--
     FILE ARCHIVED ON 23:03:34 Oct 02, 2017 AND RETRIEVED FROM THE
     INTERNET ARCHIVE ON 02:46:22 Jun 04, 2019.
     JAVASCRIPT APPENDED BY WAYBACK MACHINE, COPYRIGHT INTERNET ARCHIVE.

     ALL OTHER CONTENT MAY ALSO BE PROTECTED BY COPYRIGHT (17 U.S.C.
     SECTION 108(a)(3)).
-->
<!--
playback timings (ms):
  LoadShardBlock: 78.809 (3)
  esindex: 0.007
  captures_list: 114.438
  CDXLines.iter: 13.325 (3)
  PetaboxLoader3.datanode: 111.358 (5)
  exclusion.robots: 0.304
  exclusion.robots.policy: 0.286
  RedisCDXSource: 19.042
  PetaboxLoader3.resolve: 382.761 (2)
  load_resource: 451.527
-->