<?xml version="1.0" encoding="UTF-8" standalone="no"?>
<!-- Created with Inkscape (http://www.inkscape.org/) -->
<svg
    xmlns:inkscape="http://www.inkscape.org/namespaces/inkscape"
    xmlns:rdf="http://www.w3.org/1999/02/22-rdf-syntax-ns#"
    xmlns="http://www.w3.org/2000/svg"
    xmlns:sodipodi="http://sodipodi.sourceforge.net/DTD/sodipodi-0.dtd"
    xmlns:cc="http://web.resource.org/cc/"
    xmlns:xlink="http://www.w3.org/1999/xlink"
    xmlns:dc="http://purl.org/dc/elements/1.1/"
    xmlns:svg="http://www.w3.org/2000/svg"
    xmlns:ns1="http://sozi.baierouge.fr"
    id="svg2"
    sodipodi:docname="clock.svg"
    viewBox="0 0 410 416"
    sodipodi:version="0.32"
    version="1.0"
    inkscape:output_extension="org.inkscape.output.svg.inkscape"
    inkscape:version="0.45.1"
    sodipodi:docbase="/home/leon/eaglenest/gnu/img/openclipart_bb"
  >
  <defs
      id="defs4"
    >
    <linearGradient
        id="linearGradient3335"
      >
      <stop
          id="stop3337"
          style="stop-color:#f5f5f5"
          offset="0"
      />
      <stop
          id="stop3339"
          style="stop-color:#e5e5e5"
          offset="1"
      />
    </linearGradient
    >
    <linearGradient
        id="linearGradient3194"
      >
      <stop
          id="stop3196"
          style="stop-color:#565656"
          offset="0"
      />
      <stop
          id="stop3198"
          style="stop-color:#ffffff"
          offset="1"
      />
    </linearGradient
    >
    <linearGradient
        id="linearGradient3648"
        y2="215.3"
        gradientUnits="userSpaceOnUse"
        x2="286.38"
        gradientTransform="translate(15 13)"
        y1="350.66"
        x1="72.286"
        inkscape:collect="always"
      >
      <stop
          id="stop3587"
          style="stop-color:#d0d0d0"
          offset="0"
      />
      <stop
          id="stop3589"
          style="stop-color:#ffffff"
          offset="1"
      />
    </linearGradient
    >
    <linearGradient
        id="linearGradient3651"
        y2="62.104"
        gradientUnits="userSpaceOnUse"
        x2="293.95"
        gradientTransform="translate(15 13)"
        y1="137.36"
        x1="84.348"
        inkscape:collect="always"
      >
      <stop
          id="stop3595"
          style="stop-color:#000000"
          offset="0"
      />
      <stop
          id="stop3597"
          style="stop-color:#616161"
          offset="1"
      />
    </linearGradient
    >
    <linearGradient
        id="linearGradient3656"
        y2="249.28"
        xlink:href="#linearGradient3335"
        gradientUnits="userSpaceOnUse"
        x2="156.41"
        gradientTransform="translate(15 13)"
        y1="185.64"
        x1="224.83"
        inkscape:collect="always"
    />
    <linearGradient
        id="linearGradient3660"
        y2="237.5"
        xlink:href="#linearGradient3335"
        gradientUnits="userSpaceOnUse"
        x2="310.04"
        gradientTransform="translate(15 13)"
        y1="204.67"
        x1="171.59"
        inkscape:collect="always"
    />
    <linearGradient
        id="linearGradient3664"
        y2="77.905"
        gradientUnits="userSpaceOnUse"
        x2="152.13"
        gradientTransform="translate(15 13)"
        y1="231.45"
        x1="222.84"
        inkscape:collect="always"
      >
      <stop
          id="stop3379"
          style="stop-color:#3ca1f6"
          offset="0"
      />
      <stop
          id="stop3381"
          style="stop-color:#207dcc"
          offset="1"
      />
    </linearGradient
    >
    <radialGradient
        id="radialGradient3683"
        gradientUnits="userSpaceOnUse"
        cy="202.14"
        cx="197.86"
        gradientTransform="matrix(1.0004 0 0 1.0004 -.074559 -.076175)"
        r="189.29"
        inkscape:collect="always"
      >
      <stop
          id="stop3679"
          style="stop-color:#000000"
          offset="0"
      />
      <stop
          id="stop3685"
          style="stop-color:#000000"
          offset=".81875"
      />
      <stop
          id="stop3681"
          style="stop-color:#000000;stop-opacity:0"
          offset="1"
      />
    </radialGradient
    >
    <radialGradient
        id="radialGradient3687"
        gradientUnits="userSpaceOnUse"
        cy="202.14"
        cx="197.86"
        r="189.29"
        inkscape:collect="always"
      >
      <stop
          id="stop3333"
          style="stop-color:#f7f7f7"
          offset="0"
      />
      <stop
          id="stop3326"
          style="stop-color:#c2c2c2"
          offset="1"
      />
    </radialGradient
    >
    <radialGradient
        id="radialGradient3689"
        gradientUnits="userSpaceOnUse"
        cy="-341.76"
        cx="295.91"
        gradientTransform="matrix(.96168 .49722 -.36946 .71457 -93.626 109.93)"
        r="189.29"
        inkscape:collect="always"
      >
      <stop
          id="stop3234"
          style="stop-color:#ffffff"
          offset="0"
      />
      <stop
          id="stop3240"
          style="stop-color:#ffffff;stop-opacity:.56471"
          offset=".5"
      />
      <stop
          id="stop3236"
          style="stop-color:#ffffff;stop-opacity:0"
          offset="1"
      />
    </radialGradient
    >
    <radialGradient
        id="radialGradient3691"
        gradientUnits="userSpaceOnUse"
        cy="630.49"
        cx="197.86"
        gradientTransform="matrix(1.071 0 0 .66819 -14.045 -29.86)"
        r="189.29"
        inkscape:collect="always"
      >
      <stop
          id="stop3224"
          style="stop-color:#30a9ec"
          offset="0"
      />
      <stop
          id="stop3226"
          style="stop-color:#0a4c71;stop-opacity:0"
          offset="1"
      />
    </radialGradient
    >
    <radialGradient
        id="radialGradient3693"
        gradientUnits="userSpaceOnUse"
        cy="202.14"
        cx="197.86"
        r="189.29"
        inkscape:collect="always"
      >
      <stop
          id="stop3212"
          style="stop-color:#266080"
          offset="0"
      />
      <stop
          id="stop3214"
          style="stop-color:#112d3c"
          offset="1"
      />
    </radialGradient
    >
    <linearGradient
        id="linearGradient3695"
        y2="391.43"
        xlink:href="#linearGradient3194"
        gradientUnits="userSpaceOnUse"
        x2="188.41"
        y1="68.568"
        x1="296.9"
        inkscape:collect="always"
    />
    <linearGradient
        id="linearGradient3697"
        y2="254.95"
        gradientUnits="userSpaceOnUse"
        x2="208.65"
        y1="392.2"
        x1="80.243"
        inkscape:collect="always"
      >
      <stop
          id="stop3178"
          style="stop-color:#f7f7f7"
          offset="0"
      />
      <stop
          id="stop3180"
          style="stop-color:#e1e1e1"
          offset="1"
      />
    </linearGradient
    >
    <radialGradient
        id="radialGradient3699"
        gradientUnits="userSpaceOnUse"
        cy="160.01"
        cx="293.05"
        gradientTransform="matrix(2.0751 .55601 -.63991 2.3882 -187.16 -314.92)"
        r="189.29"
        inkscape:collect="always"
      >
      <stop
          id="stop3186"
          style="stop-color:#9b9b9b"
          offset="0"
      />
      <stop
          id="stop3188"
          style="stop-color:#454545"
          offset="1"
      />
    </radialGradient
    >
    <linearGradient
        id="linearGradient3701"
        y2="35.842"
        xlink:href="#linearGradient3194"
        gradientUnits="userSpaceOnUse"
        x2="331.71"
        y1="299.49"
        x1="250.59"
        inkscape:collect="always"
    />
  </defs
  >
  <sodipodi:namedview
      id="base"
      inkscape:zoom="0.7"
      height="430px"
      borderopacity="1.0"
      inkscape:current-layer="layer1"
      inkscape:cx="196.84788"
      inkscape:cy="198.23228"
      width="430px"
      inkscape:guide-bbox="true"
      showguides="true"
      bordercolor="#666666"
      inkscape:window-x="1280"
      guidetolerance="10"
      objecttolerance="10"
      inkscape:window-y="0"
      inkscape:window-width="1274"
      inkscape:pageopacity="0.0"
      inkscape:pageshadow="2"
      pagecolor="#ffffff"
      gridtolerance="10000"
      inkscape:document-units="px"
      inkscape:window-height="963"
  />
  <g
      id="layer1"
      inkscape:label="Layer 1"
      inkscape:groupmode="layer"
      transform="translate(-5 -13)"
    >
    <path
        id="path3675"
        sodipodi:rx="189.28572"
        sodipodi:ry="189.28572"
        style="fill-rule:evenodd;color:#000000;fill:url(#radialGradient3683)"
        sodipodi:type="arc"
        d="m387.14 202.14a189.29 189.29 0 1 1 -378.57 0 189.29 189.29 0 1 1 378.57 0z"
        transform="matrix(1.083 0 0 1.083 -4.283 5.0755)"
        sodipodi:cy="202.14285"
        sodipodi:cx="197.85715"
    />
    <path
        id="path2170"
        sodipodi:rx="189.28572"
        sodipodi:ry="189.28572"
        style="fill-rule:evenodd;color:#000000;fill:url(#linearGradient3701)"
        sodipodi:type="arc"
        d="m387.14 202.14a189.29 189.29 0 1 1 -378.57 0 189.29 189.29 0 1 1 378.57 0z"
        transform="matrix(1.0566 0 0 1.0566 5.9434 -.58488)"
        sodipodi:cy="202.14285"
        sodipodi:cx="197.85715"
    />
    <path
        id="path2172"
        sodipodi:rx="189.28572"
        sodipodi:ry="189.28572"
        style="fill-rule:evenodd;color:#000000;fill:#b1b1b1"
        sodipodi:type="arc"
        d="m387.14 202.14a189.29 189.29 0 1 1 -378.57 0 189.29 189.29 0 1 1 378.57 0z"
        transform="matrix(1.0355 0 0 1.0355 10.125 3.6868)"
        sodipodi:cy="202.14285"
        sodipodi:cx="197.85715"
    />
    <path
        id="path3168"
        sodipodi:rx="189.28572"
        sodipodi:ry="189.28572"
        style="fill-rule:evenodd;color:#000000;fill:url(#radialGradient3699)"
        sodipodi:type="arc"
        d="m387.14 202.14a189.29 189.29 0 1 1 -378.57 0h189.29z"
        transform="matrix(1.0002 0.268 -0.268 1.0002 71.28 -42.207)"
        sodipodi:cy="202.14285"
        sodipodi:cx="197.85715"
        sodipodi:end="3.1415927"
        sodipodi:start="0"
    />
    <path
        id="path3174"
        sodipodi:rx="189.28572"
        sodipodi:ry="189.28572"
        style="fill-rule:evenodd;color:#000000;fill:url(#linearGradient3697)"
        sodipodi:type="arc"
        d="m387.14 202.14a189.29 189.29 0 1 1 -378.57 0h189.29z"
        inkscape:transform-center-x="-3.359334"
        inkscape:transform-center-y="-72.655817"
        transform="matrix(-1.0002 -0.268 0.268 -1.0002 358.72 468.21)"
        sodipodi:cy="202.14285"
        sodipodi:cx="197.85715"
        sodipodi:end="3.1415927"
        sodipodi:start="0"
    />
    <path
        id="path3146"
        sodipodi:rx="189.28572"
        sodipodi:ry="189.28572"
        style="fill-rule:evenodd;color:#000000;fill:url(#linearGradient3695)"
        sodipodi:type="arc"
        d="m387.14 202.14a189.29 189.29 0 1 1 -378.57 0 189.29 189.29 0 1 1 378.57 0z"
        transform="matrix(.87698 0 0 .87698 41.483 35.725)"
        sodipodi:cy="202.14285"
        sodipodi:cx="197.85715"
    />
    <path
        id="path3148"
        sodipodi:rx="189.28572"
        sodipodi:ry="189.28572"
        style="fill-rule:evenodd;color:#000000;fill:url(#radialGradient3693)"
        sodipodi:type="arc"
        d="m387.14 202.14a189.29 189.29 0 1 1 -378.57 0 189.29 189.29 0 1 1 378.57 0z"
        transform="matrix(.84528 0 0 .84528 47.755 42.132)"
        sodipodi:cy="202.14285"
        sodipodi:cx="197.85715"
    />
    <path
        id="path3218"
        sodipodi:rx="189.28572"
        sodipodi:ry="189.28572"
        style="fill-rule:evenodd;color:#000000;fill:url(#radialGradient3691)"
        sodipodi:type="arc"
        d="m387.14 202.14a189.29 189.29 0 1 1 -378.57 0 189.29 189.29 0 1 1 378.57 0z"
        transform="matrix(.81887 0 0 .81887 52.981 47.472)"
        sodipodi:cy="202.14285"
        sodipodi:cx="197.85715"
    />
    <path
        id="path3361"
        sodipodi:rx="189.28572"
        sodipodi:ry="189.28572"
        style="fill-rule:evenodd;color:#000000;fill:url(#radialGradient3689)"
        sodipodi:type="arc"
        d="m387.14 202.14a189.29 189.29 0 1 1 -378.57 0 189.29 189.29 0 1 1 378.57 0z"
        transform="matrix(.79245 0 0 .79245 58.208 52.811)"
        sodipodi:cy="202.14285"
        sodipodi:cx="197.85715"
    />
    <path
        id="path3359"
        style="fill-rule:evenodd;color:#000000;fill-opacity:.16571;fill:#000000"
        d="m140.88 87.493l-4.3 2.574 68.98 114.86c-2.84 2.53-4.61 6.21-4.54 10.3 0.12 7.45 6.28 13.4 13.73 13.27 1.57-0.03 3.06-0.34 4.45-0.86l14.48 24.13 4.27-2.57-14.48-24.13c2.84-2.53 4.61-6.21 4.54-10.3-0.12-7.45-6.28-13.4-13.73-13.27-1.57 0.03-3.05 0.34-4.45 0.86l-68.95-114.87z"
    />
    <path
        id="path3259"
        style="fill-rule:evenodd;color:#000000;fill:url(#linearGradient3664)"
        d="m143.56 84.25l-4.34 2.5 67 116.03c-2.88 2.48-4.72 6.12-4.72 10.22 0 7.45 6.05 13.5 13.5 13.5 1.57 0 3.06-0.29 4.47-0.78l14.06 24.37 4.31-2.5-14.06-24.37c2.88-2.48 4.72-6.12 4.72-10.22 0-7.45-6.05-13.5-13.5-13.5-1.57 0-3.06 0.29-4.47 0.78l-66.97-116.03z"
    />
    <path
        id="path3367"
        style="fill-rule:evenodd;color:#000000;fill-opacity:.16571;fill:#000000"
        d="m215.2 202.64c-4.29-0.07-8.07 2.13-10.25 5.49l-16.36-4.69-1.92 6.72 16.36 4.69c0.1 6.43 5.28 11.68 11.77 11.79 4.29 0.07 8.1-2.12 10.28-5.48l115.7 33.13 1.9-6.72-115.71-33.13c-0.1-6.44-5.28-11.68-11.77-11.8z"
    />
    <path
        id="path3281"
        style="fill-rule:evenodd;color:#000000;fill:url(#linearGradient3660)"
        d="m215 201c-4.29 0-8.04 2.26-10.16 5.66l-16.43-4.41-1.82 6.75 16.44 4.41c0.22 6.43 5.48 11.59 11.97 11.59 4.3 0 8.07-2.26 10.19-5.66l116.25 31.16 1.78-6.75-116.25-31.16c-0.22-6.43-5.48-11.59-11.97-11.59z"
    />
    <path
        id="path3369"
        style="fill-rule:evenodd;color:#000000;fill-opacity:.16571;fill:#000000"
        d="m233.43 192.69l-12.67 13.01c-1.69-1.11-3.73-1.73-5.9-1.7-5.79 0.07-10.44 4.84-10.36 10.63 0.03 2.18 0.71 4.19 1.86 5.85l-54.11 55.57 2.88 2.81 54.11-55.57c1.69 1.11 3.73 1.73 5.9 1.7 5.79-0.07 10.44-4.84 10.36-10.63-0.03-2.18-0.71-4.19-1.86-5.86l12.67-13.01-2.88-2.8z"
    />
    <path
        id="rect3291"
        style="fill-rule:evenodd;color:#000000;fill:url(#linearGradient3656)"
        d="m233.72 191.44l-12.84 12.84c-1.68-1.13-3.71-1.78-5.88-1.78-5.8 0-10.5 4.7-10.5 10.5 0 2.17 0.65 4.2 1.78 5.88l-54.84 54.84 2.84 2.84 54.85-54.84c1.67 1.13 3.7 1.78 5.87 1.78 5.8 0 10.5-4.7 10.5-10.5 0-2.17-0.65-4.2-1.78-5.87l12.84-12.85-2.84-2.84z"
    />
    <path
        id="path3320"
        sodipodi:rx="189.28572"
        sodipodi:ry="189.28572"
        style="fill-rule:evenodd;color:#000000;fill:#9c9c9c"
        sodipodi:type="arc"
        d="m387.14 202.14a189.29 189.29 0 1 1 -378.57 0 189.29 189.29 0 1 1 378.57 0z"
        transform="matrix(.042264 0 0 .042264 206.64 204.46)"
        sodipodi:cy="202.14285"
        sodipodi:cx="197.85715"
    />
    <path
        id="path3386"
        sodipodi:rx="189.28572"
        sodipodi:ry="189.28572"
        style="fill-rule:evenodd;color:#000000;fill:url(#radialGradient3687)"
        sodipodi:type="arc"
        d="m387.14 202.14a189.29 189.29 0 1 1 -378.57 0 189.29 189.29 0 1 1 378.57 0z"
        transform="matrix(.036981 0 0 .036981 207.68 205.52)"
        sodipodi:cy="202.14285"
        sodipodi:cx="197.85715"
    />
    <path
        id="path3490"
        style="fill:url(#linearGradient3651)"
        d="m213.13 22.688l-7.47 0.468 0.03 0.75c0.42 0.014 0.77 0.039 1.03 0.063 0.28 0.002 0.49 0.024 0.66 0.094 0.18 0.048 0.33 0.145 0.4 0.281 0.09 0.115 0.11 0.291 0.13 0.531 0.02 0.459-0.21 1.147-0.75 2.063-0.53 0.894-1.31 2.099-2.32 3.625l-3.18-4.313c-0.33-0.44-0.49-0.783-0.5-1.062-0.02-0.32 0.06-0.567 0.25-0.719 0.21-0.154 0.58-0.259 1.12-0.313 0.06-0.003 0.35-0.05 0.91-0.125l-0.03-0.718-10.38 0.625 0.06 0.75c0.55 0.006 0.97 0.111 1.29 0.312 0.31 0.201 0.71 0.631 1.21 1.281l6.47 8.344-4.81 6.938c-0.42 0.587-0.86 1.014-1.28 1.281-0.43 0.267-1.02 0.468-1.75 0.594l0.06 0.75 7.47-0.469-0.03-0.75c-0.93-0.043-1.57-0.144-1.94-0.281-0.35-0.159-0.54-0.402-0.56-0.782-0.02-0.319 0.13-0.826 0.47-1.468 0.34-0.643 1.04-1.758 2.06-3.344l1.03-1.594 3.31 4.688c0.46 0.632 0.73 1.143 0.75 1.562 0.03 0.499-0.46 0.813-1.5 0.938-0.04 0.002-0.32 0.052-0.84 0.125l0.03 0.718 10.19-0.625-0.03-0.75c-0.52 0.013-0.97-0.098-1.35-0.375-0.36-0.298-0.93-0.966-1.71-2l-6-8.156 2.18-3.469c1.21-1.858 2.13-3.065 2.75-3.625 0.63-0.56 1.52-0.924 2.63-1.093l-0.06-0.75zm3.53 0.187l-0.03 0.75c1.07 0.119 1.78 0.312 2.15 0.625 0.39 0.294 0.59 0.834 0.56 1.594l-0.53 14.5c-0.02 0.759-0.23 1.296-0.62 1.562-0.37 0.267-1.1 0.409-2.22 0.469l-0.03 0.75 10.47 0.375 0.03-0.75c-1.14-0.121-1.88-0.332-2.25-0.625s-0.53-0.814-0.5-1.594l0.5-14.5c0.03-0.779 0.24-1.339 0.65-1.625 0.41-0.285 1.18-0.405 2.29-0.406l0.03-0.75-10.5-0.375zm12.97 0.531l-0.07 0.75c1.07 0.193 1.78 0.444 2.13 0.782 0.37 0.32 0.51 0.869 0.44 1.625l-1.54 14.437c-0.08 0.756-0.31 1.261-0.71 1.5-0.39 0.241-1.16 0.361-2.29 0.344l-0.06 0.75 10.44 1.094 0.06-0.75c-1.12-0.199-1.84-0.464-2.19-0.782-0.34-0.318-0.48-0.88-0.4-1.656l1.5-14.437c0.08-0.776 0.35-1.275 0.78-1.532 0.43-0.256 1.18-0.356 2.28-0.281l0.09-0.75-10.46-1.094zm-103.35 22.219l-9.09 5.188 0.34 0.656c0.98-0.465 1.71-0.667 2.19-0.594 0.48 0.045 0.94 0.402 1.31 1.063l7.19 12.593c0.37 0.661 0.47 1.225 0.28 1.657-0.17 0.421-0.73 0.952-1.66 1.593l0.35 0.657 9.15-5.219-0.37-0.625c-1.03 0.495-1.78 0.711-2.25 0.656s-0.9-0.416-1.28-1.094l-7.19-12.625c-0.39-0.677-0.48-1.26-0.28-1.718 0.2-0.459 0.78-0.984 1.72-1.563l-0.41-0.625zm188.31 5.469l-0.4 0.625c0.86 0.657 1.37 1.228 1.53 1.687 0.18 0.453 0.04 0.989-0.38 1.625l-7.9 12.157c-0.42 0.636-0.87 0.973-1.35 1-0.45 0.037-1.19-0.222-2.18-0.75l-0.41 0.625 8.81 5.75 0.41-0.625c-0.91-0.691-1.46-1.246-1.63-1.688-0.16-0.442-0.02-1.003 0.41-1.656l7.94-12.156c0.42-0.654 0.87-0.999 1.37-1.032 0.5-0.032 1.22 0.245 2.16 0.813l0.41-0.625-8.79-5.75zm-200.5 1.437l-6.12 4.313 0.44 0.625c0.36-0.21 0.64-0.383 0.87-0.5 0.24-0.146 0.48-0.223 0.66-0.25 0.18-0.055 0.34-0.049 0.47 0.031 0.13 0.052 0.23 0.179 0.37 0.375 0.27 0.375 0.42 1.091 0.44 2.156 0.02 1.037-0.01 2.454-0.06 4.282l-4.94-1.969c-0.51-0.202-0.84-0.428-1-0.656-0.19-0.262-0.27-0.489-0.19-0.719 0.1-0.242 0.38-0.547 0.81-0.875 0.05-0.035 0.29-0.207 0.72-0.563l-0.43-0.625-8.474 5.969 0.438 0.656c0.464-0.279 0.878-0.412 1.25-0.406s0.946 0.148 1.716 0.438l9.88 3.687-0.47 8.438c-0.05 0.722-0.19 1.299-0.41 1.75-0.22 0.45-0.56 0.944-1.12 1.437l0.44 0.594 6.09-4.313-0.44-0.625c-0.81 0.45-1.39 0.704-1.78 0.782-0.38 0.049-0.69-0.065-0.91-0.375-0.18-0.262-0.32-0.775-0.37-1.5-0.05-0.726-0.04-2.019 0-3.907l0.03-1.906 5.28 2.188c0.73 0.296 1.23 0.657 1.47 1 0.29 0.408 0.03 0.912-0.78 1.562-0.03 0.023-0.26 0.198-0.66 0.531l0.44 0.625 8.31-5.906-0.43-0.594c-0.44 0.284-0.88 0.381-1.35 0.344-0.46-0.065-1.32-0.316-2.53-0.781l-9.34-3.781 0.03-4.094c0.05-2.216 0.2-3.726 0.44-4.531 0.23-0.806 0.79-1.584 1.65-2.313l-0.44-0.594zm261.32 57.809l-0.63 0.41c0.49 0.96 0.69 1.68 0.63 2.16-0.04 0.48-0.35 0.91-1 1.31l-12.44 7.56c-0.65 0.4-1.19 0.49-1.63 0.31-0.42-0.16-0.95-0.68-1.62-1.59l-0.66 0.38 5.47 8.96 0.63-0.37c-0.53-1.02-0.76-1.78-0.72-2.25s0.42-0.91 1.09-1.31l12.41-7.53c0.66-0.41 1.22-0.5 1.69-0.32 0.46 0.19 0.98 0.74 1.59 1.66l0.66-0.38-5.47-9zm-321.1 0.72l-3.688 6.53 0.656 0.38c0.241-0.35 0.463-0.61 0.625-0.81 0.155-0.24 0.29-0.4 0.438-0.5 0.14-0.13 0.286-0.21 0.437-0.19 0.144-0.01 0.322 0.04 0.532 0.16 0.4 0.22 0.84 0.82 1.312 1.78 0.465 0.92 1.081 2.23 1.813 3.9l-5.375 0.32c-0.549 0.03-0.944-0.02-1.188-0.16-0.279-0.16-0.414-0.35-0.437-0.59-0.014-0.27 0.096-0.62 0.343-1.1 0.03-0.05 0.166-0.33 0.407-0.84l-0.657-0.38-5.093 9.03 0.656 0.38c0.3-0.45 0.63-0.75 0.969-0.91 0.338-0.15 0.9-0.24 1.718-0.31l10.532-0.91 3.187 7.85c0.262 0.67 0.382 1.25 0.375 1.75s-0.144 1.09-0.437 1.78l0.656 0.37 3.687-6.53-0.656-0.37c-0.539 0.75-0.965 1.23-1.281 1.47-0.324 0.2-0.669 0.21-1 0.03-0.279-0.16-0.584-0.55-0.938-1.19-0.353-0.64-0.913-1.81-1.687-3.53l-0.781-1.75 5.718-0.25c0.781-0.04 1.353 0.04 1.719 0.25 0.436 0.24 0.427 0.84-0.031 1.78-0.02 0.03-0.124 0.28-0.344 0.75l0.656 0.38 5-8.88-0.656-0.37c-0.273 0.44-0.624 0.73-1.062 0.9-0.446 0.14-1.331 0.25-2.625 0.35l-10.063 0.59-1.719-3.72c-0.903-2.02-1.433-3.45-1.562-4.28s0.037-1.76 0.5-2.78l-0.656-0.38zm327.75 10.41l-0.65 0.37c0.42 1 0.59 1.72 0.5 2.19-0.07 0.49-0.42 0.9-1.1 1.25l-12.87 6.69c-0.68 0.35-1.24 0.43-1.66 0.22-0.41-0.19-0.96-0.77-1.56-1.72l-0.66 0.37 4.85 9.29 0.65-0.35c-0.45-1.05-0.63-1.81-0.56-2.28s0.46-0.86 1.16-1.22l12.9-6.69c0.7-0.36 1.27-0.43 1.72-0.21 0.45 0.21 0.93 0.79 1.47 1.75l0.66-0.32-4.85-9.34zm22.38 75.22l-0.75 0.03c-0.02 1.08-0.19 1.82-0.47 2.22-0.26 0.41-0.74 0.64-1.5 0.69l-14.5 0.84c-0.76 0.04-1.29-0.08-1.59-0.44-0.31-0.34-0.56-1.11-0.72-2.22l-0.75 0.07 0.65 10.46 0.75-0.03c0.02-1.14 0.15-1.91 0.41-2.31s0.75-0.61 1.53-0.66l14.47-0.87c0.78-0.05 1.36 0.15 1.69 0.53 0.32 0.38 0.52 1.09 0.62 2.19h0.75l-0.59-10.5zm-19.63 12.75l-0.09 10.5 0.75 0.03c0.09-1.14 0.28-1.91 0.56-2.28 0.28-0.38 0.85-0.54 1.63-0.53l14.5 0.09c0.78 0.01 1.29 0.22 1.59 0.63 0.3 0.4 0.47 1.14 0.5 2.25l0.75 0.03 0.09-10.5-0.75-0.03c-0.09 1.07-0.29 1.81-0.59 2.18-0.28 0.4-0.77 0.6-1.53 0.6l-14.53-0.13c-0.76-0.01-1.29-0.21-1.56-0.59-0.28-0.37-0.48-1.1-0.57-2.22l-0.75-0.03zm-0.12 11.62l-0.81 10.47 0.75 0.03c0.16-1.13 0.41-1.83 0.71-2.18 0.31-0.36 0.82-0.53 1.6-0.47l14.5 1.12c0.78 0.06 1.32 0.33 1.59 0.75s0.33 1.18 0.28 2.28l0.75 0.03 0.85-10.43-0.75-0.1c-0.17 1.07-0.43 1.8-0.75 2.16-0.31 0.38-0.84 0.53-1.6 0.47l-14.47-1.1c-0.75-0.06-1.25-0.31-1.5-0.71-0.25-0.39-0.39-1.13-0.4-2.25l-0.75-0.07z"
    />
    <path
        id="path3478"
        style="fill:url(#linearGradient3648)"
        d="m25.469 195.69l-0.313 7.53h0.75c0.057-0.42 0.138-0.74 0.188-1 0.031-0.28 0.07-0.5 0.156-0.66 0.067-0.18 0.17-0.29 0.313-0.34 0.123-0.08 0.322-0.1 0.562-0.09 0.46 0.01 1.081 0.33 1.938 0.96 0.836 0.62 1.989 1.5 3.406 2.66l-4.625 2.72c-0.471 0.28-0.845 0.42-1.125 0.41-0.32-0.02-0.556-0.11-0.688-0.32-0.131-0.22-0.188-0.61-0.187-1.15 0.002-0.06 0.018-0.38 0-0.94h-0.75l-0.438 10.34 0.75 0.07c0.061-0.54 0.206-0.99 0.438-1.29 0.231-0.29 0.709-0.63 1.406-1.06l8.969-5.62 6.406 5.53c0.542 0.48 0.902 0.95 1.125 1.4s0.386 1.01 0.438 1.75l0.75 0.07 0.281-7.53h-0.75c-0.136 0.91-0.295 1.52-0.469 1.87-0.193 0.33-0.495 0.51-0.875 0.5-0.32-0.01-0.739-0.25-1.344-0.66-0.605-0.4-1.649-1.16-3.125-2.34l-1.5-1.19 4.969-2.84c0.676-0.4 1.205-0.58 1.625-0.56 0.5 0.02 0.793 0.55 0.813 1.59-0.002 0.04 0.011 0.32 0.031 0.84h0.75l0.375-10.15-0.75-0.06c-0.04 0.51-0.218 0.96-0.531 1.31-0.333 0.32-1.05 0.82-2.157 1.5l-8.687 5.12-3.25-2.5c-1.728-1.39-2.819-2.44-3.313-3.12s-0.756-1.57-0.812-2.69l-0.75-0.06zm19.719 22.06l-0.75 0.03c-0.013 1.14-0.15 1.92-0.407 2.31-0.257 0.4-0.752 0.64-1.531 0.69l-14.5 0.85c-0.779 0.04-1.333-0.12-1.656-0.5-0.323-0.39-0.52-1.13-0.625-2.22l-0.75 0.06 0.625 10.47 0.75-0.03c0.015-1.09 0.16-1.86 0.437-2.25 0.256-0.42 0.742-0.65 1.5-0.69l14.5-0.84c0.759-0.05 1.292 0.1 1.594 0.46 0.301 0.35 0.552 1.08 0.719 2.19l0.75-0.06-0.656-10.47zm10.312 52.06l-0.687 0.25c0.336 1.09 0.436 1.89 0.312 2.35-0.124 0.45-0.554 0.78-1.281 1.06l-13.563 5.25c-0.727 0.28-1.295 0.3-1.718 0.03-0.424-0.27-0.817-0.93-1.25-1.94l-0.719 0.28 3.75 9.82 0.719-0.28c-0.315-1.04-0.393-1.76-0.25-2.22 0.117-0.48 0.509-0.89 1.218-1.16l13.563-5.22c0.709-0.27 1.289-0.28 1.687-0.03 0.391 0.23 0.816 0.87 1.313 1.88l0.687-0.29-3.781-9.78zm4.219 10.78l-0.656 0.32c0.41 1.06 0.561 1.85 0.468 2.31-0.092 0.46-0.481 0.89-1.187 1.22l-13.156 6.12c-0.707 0.33-1.278 0.36-1.719 0.13-0.441-0.24-0.936-0.84-1.438-1.81l-0.656 0.31 4.438 9.53 0.656-0.34c-0.385-1.02-0.517-1.72-0.406-2.19 0.084-0.48 0.499-0.9 1.187-1.22l13.156-6.16c0.689-0.32 1.242-0.35 1.657-0.12 0.406 0.21 0.872 0.78 1.437 1.75l0.688-0.31-4.469-9.54zm309.84 2.94l-4.65 9.41 0.68 0.37c0.58-0.98 1.08-1.62 1.5-1.84s0.96-0.13 1.66 0.22l13.06 6.44c0.7 0.34 1.07 0.72 1.16 1.21 0.09 0.5-0.08 1.25-0.53 2.25l0.65 0.32 4.66-9.38-0.66-0.34c-0.55 0.93-1.03 1.51-1.46 1.72-0.43 0.23-1.01 0.18-1.69-0.16l-13-6.44c-0.68-0.33-1.11-0.72-1.19-1.18-0.09-0.45 0.06-1.21 0.47-2.25l-0.66-0.35zm-304.87 7.56l-0.688 0.38c0.483 1.03 0.748 1.78 0.688 2.25-0.061 0.47-0.475 0.9-1.157 1.28l-12.656 7.03c-0.682 0.38-1.262 0.49-1.719 0.28-0.456-0.2-0.994-0.77-1.562-1.72l-0.656 0.35 5.125 9.19 0.625-0.38c-0.454-0.98-0.641-1.71-0.563-2.19 0.051-0.48 0.398-0.91 1.063-1.28l12.718-7.03c0.665-0.37 1.227-0.48 1.657-0.28 0.419 0.18 0.931 0.76 1.562 1.69l0.656-0.38-5.093-9.19zm294.06 11.35l-0.41 0.69 11.35 15.09c0.61 0.8 0.94 1.44 1.03 1.87 0.07 0.45-0.05 1.04-0.38 1.75l0.63 0.38 3.37-5.44-0.62-0.37c-0.64 0.87-1.13 1.4-1.44 1.59-0.3 0.19-0.65 0.16-1.06-0.09-0.34-0.22-0.85-0.78-1.5-1.66l-6.38-8.44 10.72 1.78c1.16 0.18 1.88 0.34 2.19 0.54 0.56 0.34 0.57 1 0.06 1.93-0.03 0.05-0.15 0.35-0.43 0.88l0.62 0.4 5.31-8.59-0.62-0.37c-0.48 0.57-0.87 0.95-1.22 1.06s-1.01 0.08-1.91-0.03l-19.31-2.97zm-282.69 6.5l-18.407 4.34c-0.978 0.24-1.696 0.31-2.125 0.22-0.44-0.11-0.912-0.45-1.437-1.03l-0.594 0.44 3.625 5.25 0.594-0.44c-0.548-0.94-0.825-1.55-0.875-1.91-0.05-0.35 0.105-0.66 0.5-0.93 0.329-0.23 1.027-0.47 2.094-0.72l10.281-2.47-5.875 9.09c-0.627 0.99-1.079 1.58-1.375 1.78-0.543 0.38-1.161 0.15-1.813-0.68-0.034-0.05-0.22-0.32-0.593-0.79l-0.625 0.44 5.718 8.28 0.657-0.4c-0.339-0.67-0.539-1.2-0.5-1.57 0.038-0.36 0.291-0.94 0.75-1.71l10.437-16.54-0.437-0.65zm33.527 37.37l-0.43 0.6c0.86 0.74 1.39 1.33 1.53 1.78s-0.04 1-0.5 1.62l-8.63 11.66c-0.46 0.63-0.97 0.93-1.47 0.94-0.496 0-1.183-0.29-2.09-0.91l-0.469 0.59 8.439 6.25 0.44-0.59c-0.82-0.71-1.28-1.31-1.41-1.78-0.15-0.46-0.02-0.98 0.44-1.59l8.65-11.69c0.46-0.61 0.91-0.91 1.38-0.91 0.45-0.01 1.16 0.26 2.12 0.85l0.47-0.6-8.47-6.22zm9.38 6.88l-0.44 0.62c0.92 0.68 1.49 1.25 1.66 1.69s0.04 1-0.38 1.66l-7.81 12.22c-0.42 0.65-0.91 0.99-1.41 1.03-0.49 0.03-1.2-0.23-2.15-0.78l-0.41 0.62 8.85 5.69 0.37-0.63c-0.87-0.65-1.34-1.23-1.5-1.68-0.19-0.46-0.1-0.99 0.31-1.63l7.85-12.22c0.41-0.64 0.84-1 1.31-1.03 0.45-0.04 1.19 0.2 2.19 0.72l0.4-0.63-8.84-5.65zm187.34 3.19l-0.65 0.43 3.62 18.53c0.2 0.99 0.24 1.7 0.13 2.13-0.13 0.43-0.49 0.9-1.1 1.41l0.41 0.62 5.41-3.41-0.41-0.62c-0.96 0.51-1.61 0.78-1.97 0.81-0.36 0.04-0.65-0.16-0.91-0.56-0.21-0.34-0.44-1.05-0.65-2.13l-2.06-10.37 8.87 6.25c0.97 0.67 1.56 1.16 1.75 1.47 0.35 0.56 0.08 1.13-0.78 1.75-0.05 0.03-0.33 0.24-0.81 0.59l0.4 0.63 8.53-5.38-0.4-0.65c-0.68 0.31-1.2 0.45-1.56 0.4-0.37-0.05-0.93-0.32-1.69-0.81l-16.13-11.09zm-168.9 7.09l-14.07 12.56c-0.74 0.67-1.36 1.07-1.78 1.19-0.44 0.11-1.01 0.05-1.75-0.22l-0.34 0.69 5.69 2.87 0.34-0.65c-0.93-0.57-1.51-0.97-1.72-1.25-0.21-0.29-0.22-0.67 0-1.1 0.18-0.35 0.71-0.9 1.53-1.62l7.88-7.06-0.88 10.78c-0.08 1.17-0.21 1.93-0.37 2.25-0.3 0.58-0.94 0.67-1.91 0.25-0.05-0.03-0.35-0.17-0.9-0.41l-0.35 0.66 9 4.62 0.31-0.69c-0.61-0.42-0.98-0.81-1.12-1.15s-0.19-0.97-0.16-1.88l1.32-19.47-0.72-0.37zm86.97 18.5l-0.82 0.03-5.84 17.97c-0.31 0.96-0.6 1.62-0.91 1.94-0.32 0.31-0.88 0.54-1.65 0.68l0.03 0.75 6.37-0.37-0.03-0.75c-1.08-0.02-1.76-0.08-2.09-0.22s-0.54-0.46-0.56-0.94c-0.03-0.4 0.12-1.11 0.46-2.15l3.29-10.07 4.68 9.79c0.52 1.05 0.8 1.73 0.82 2.09 0.03 0.66-0.48 1.07-1.54 1.19-0.06 0-0.37 0.02-0.96 0.09l0.03 0.75 10.06-0.56-0.06-0.75c-0.75-0.06-1.27-0.18-1.57-0.41-0.29-0.22-0.63-0.73-1.06-1.53l-8.65-17.53zm-21.94 0.44l-0.03 0.75c1.13 0.12 1.88 0.36 2.25 0.65 0.36 0.3 0.53 0.85 0.5 1.63l-0.6 14.5c-0.03 0.78-0.27 1.28-0.68 1.56-0.42 0.28-1.15 0.41-2.25 0.41l-0.07 0.75 10.5 0.47 0.03-0.75c-1.07-0.13-1.82-0.35-2.18-0.66-0.39-0.3-0.54-0.8-0.5-1.56l0.59-14.53c0.03-0.76 0.26-1.27 0.66-1.54 0.37-0.26 1.09-0.41 2.22-0.46l0.06-0.75-10.5-0.47z"
    />
  </g
  >
  <metadata
    >
    <rdf:RDF
      >
      <cc:Work
        >
        <dc:format
          >image/svg+xml</dc:format
        >
        <dc:type
            rdf:resource="http://purl.org/dc/dcmitype/StillImage"
        />
        <cc:license
            rdf:resource="http://creativecommons.org/licenses/publicdomain/"
        />
        <dc:publisher
          >
          <cc:Agent
              rdf:about="http://openclipart.org/"
            >
            <dc:title
              >Openclipart</dc:title
            >
          </cc:Agent
          >
        </dc:publisher
        >
        <dc:title
          >Clock</dc:title
        >
        <dc:date
          >2007-10-31T09:45:02</dc:date
        >
        <dc:description
        />
        <dc:source
          >https://openclipart.org/detail/7656/clock-by-benbois</dc:source
        >
        <dc:creator
          >
          <cc:Agent
            >
            <dc:title
              >BenBois</dc:title
            >
          </cc:Agent
          >
        </dc:creator
        >
        <dc:subject
          >
          <rdf:Bag
            >
            <rdf:li
              >blue</rdf:li
            >
            <rdf:li
              >chronometer</rdf:li
            >
            <rdf:li
              >clock</rdf:li
            >
            <rdf:li
              >hour</rdf:li
            >
            <rdf:li
              >minute</rdf:li
            >
            <rdf:li
              >time</rdf:li
            >
          </rdf:Bag
          >
        </dc:subject
        >
      </cc:Work
      >
      <cc:License
          rdf:about="http://creativecommons.org/licenses/publicdomain/"
        >
        <cc:permits
            rdf:resource="http://creativecommons.org/ns#Reproduction"
        />
        <cc:permits
            rdf:resource="http://creativecommons.org/ns#Distribution"
        />
        <cc:permits
            rdf:resource="http://creativecommons.org/ns#DerivativeWorks"
        />
      </cc:License
      >
    </rdf:RDF
    >
  </metadata
  >
</svg
>
