<?xml version="1.0" encoding="UTF-8" standalone="no"?>
<!-- Created with Inkscape (http://www.inkscape.org/) -->
<svg xmlns:inkscape="http://www.inkscape.org/namespaces/inkscape" xmlns:rdf="http://www.w3.org/1999/02/22-rdf-syntax-ns#" xmlns="http://www.w3.org/2000/svg" xmlns:cc="http://creativecommons.org/ns#" xmlns:dc="http://purl.org/dc/elements/1.1/" xmlns:sodipodi="http://sodipodi.sourceforge.net/DTD/sodipodi-0.dtd" xmlns:svg="http://www.w3.org/2000/svg" xmlns:ns1="http://sozi.baierouge.fr" xmlns:xlink="http://www.w3.org/1999/xlink" id="svg2" sodipodi:docname="hbarone_Berimbau_1.svg" inkscape:export-filename="/home/henrique/Documentos/pontao de cultura/logo_quilombo_arere_4.png" viewBox="0 0 162.37 477.93" sodipodi:version="0.32" inkscape:export-xdpi="300" version="1.0" inkscape:output_extension="org.inkscape.output.svg.inkscape" inkscape:export-ydpi="300" inkscape:version="0.46">
  <sodipodi:namedview id="base" bordercolor="#666666" inkscape:pageshadow="2" inkscape:window-y="25" pagecolor="#00b200" inkscape:window-height="949" inkscape:zoom="0.98994949" inkscape:window-x="0" showgrid="false" borderopacity="1.0" inkscape:current-layer="layer1" inkscape:cx="484.02643" inkscape:cy="665.16132" showguides="true" inkscape:guide-bbox="true" units="" inkscape:window-width="1279" inkscape:pageopacity="1" inkscape:document-units="px"/>
  <g id="layer1" inkscape:label="Camada 1" inkscape:groupmode="layer" transform="translate(-255.04 -161.9)">
    <g id="g3675" style="stroke:#fff6f6;stroke-width:2.093" transform="matrix(.88710 -.088083 .088083 .88710 612.47 406.09)">
      <g id="g4108" inkscape:label="Camada 1" transform="matrix(1.8714 0 0 1.8714 -793.21 -843.96)">
        <g id="g4110" style="stroke:#fff6f6;stroke-width:2.093" transform="matrix(.47531 -.048611 .048611 .47531 135.26 438.59)">
          <g id="g5072">
            <g id="g3498" style="stroke:#fff6f6;stroke-width:2.093;fill:#554400" transform="matrix(.99927 -.14871 .14871 .99927 -112.44 -504.89)">
              <path id="rect3583" sodipodi:nodetypes="ccccc" style="stroke:#fff6f6;stroke-width:2.093;fill:#554400" d="m319.08 256.16c3.13 1.29 6.27 2.57 9.4 3.86 58.97 299.48-100.93 433.58-224.39 547.24-3.13-1.28-6.263-2.57-9.396-3.85 112.65-122.98 272.28-226.69 224.39-547.25z"/>
            </g>
            <path id="path3592" sodipodi:nodetypes="cccc" style="stroke:#fff6f6;stroke-width:2.7488;fill:none" d="m246.17-293.6l-84.26 451.95-25.95 56.52-28.63 62.35"/>
            <path id="rect3590" sodipodi:nodetypes="ccccc" style="stroke:#fff6f6;stroke-width:2.1145;fill:#ffffff" d="m160.91 158.71l38.7 13.94-3.64 2.53-36.09-13.6 1.03-2.87z"/>
            <path id="path3586" sodipodi:rx="68.690376" sodipodi:ry="71.720833" style="stroke:#ffffff;stroke-width:2.2256;fill:#008000" sodipodi:type="arc" d="m200.01 638.2a68.69 71.721 0 1 1 -137.38 0 68.69 71.721 0 1 1 137.38 0z" transform="matrix(.96620 .21207 -.24268 .88094 284.36 -396.95)" sodipodi:cy="638.19965" sodipodi:cx="131.31982"/>
            <path id="path3310" sodipodi:nodetypes="cccc" style="fill-rule:evenodd;stroke:#ffffff;stroke-width:2.1916px;fill:#ffff00" d="m192.7 176.15c10.56-9.6 30.84-16.19 50.97-16.95-12.05 13.74-16.96 44.56-15.56 52.29-10.8-8.81-30.67-18.08-35.41-35.34z"/>
            <path id="path3314" sodipodi:nodetypes="cccc" style="fill-rule:evenodd;stroke:#ffffff;stroke-width:1.5647px;fill:#ffff00" d="m236.17 133.48c9.05-2.92 21.06-2.05 37.07 5.13-12.33 4.95-21.44 11.56-27.37 19.15-4.51-9.73-7.58-15.91-9.7-24.28z"/>
            <path id="path3312" sodipodi:nodetypes="cccc" style="fill-rule:evenodd;stroke:#ffffff;stroke-width:1.7051px;fill:#ffff00" d="m210.75 242.75c3.32-10.31 10.32-20.69 17.19-31.31-2.73 14.61 6.46 37.78 18.32 40.08-15.3-1.52-20.22-1.67-35.51-8.77z"/>
            <path id="path3296" sodipodi:rx="34.345188" sodipodi:ry="52.022858" style="stroke:#ffffff;stroke-width:2.2256;fill:#008000" sodipodi:type="arc" d="m200.01 639.71a34.345 52.023 0 1 1 -68.69 0 34.345 52.023 0 1 1 68.69 0z" transform="matrix(1.2856 .093246 -.23428 1.135 210.62 -543.59)" sodipodi:cy="639.71484" sodipodi:cx="165.66502"/>
            <path id="path3588" sodipodi:rx="34.345188" sodipodi:ry="52.022858" style="stroke:#fff6f6;stroke-width:2.2256;fill:#554400" sodipodi:type="arc" d="m200.01 639.71a34.345 52.023 0 1 1 -68.69 0 34.345 52.023 0 1 1 68.69 0z" transform="matrix(.73054 .36689 -.29936 .84142 364.95 -398.81)" sodipodi:cy="639.71484" sodipodi:cx="165.66502"/>
          </g>
        </g>
      </g>
    </g>
  </g>
  <metadata>
    <rdf:RDF>
      <cc:Work>
        <dc:format>image/svg+xml</dc:format>
        <dc:type rdf:resource="http://purl.org/dc/dcmitype/StillImage"/>
        <cc:license rdf:resource="http://creativecommons.org/licenses/publicdomain/"/>
        <dc:publisher>
          <cc:Agent rdf:about="http://openclipart.org/">
            <dc:title>Openclipart</dc:title>
          </cc:Agent>
        </dc:publisher>
        <dc:title>Berimbau</dc:title>
        <dc:date>2008-07-25T15:35:04</dc:date>
        <dc:description>Desenho em vetor de um berimbau, caxixi, aquidavi e dobão de pedra. Instrumentos usados em roda de capoeira.</dc:description>
        <dc:source>https://openclipart.org/detail/18105/berimbau-by-hbarone-18105</dc:source>
        <dc:creator>
          <cc:Agent>
            <dc:title>hbarone</dc:title>
          </cc:Agent>
        </dc:creator>
        <dc:subject>
          <rdf:Bag>
            <rdf:li>berimbau</rdf:li>
            <rdf:li>brasil</rdf:li>
            <rdf:li>capoeira</rdf:li>
            <rdf:li>caxixi</rdf:li>
            <rdf:li>dobr</rdf:li>
          </rdf:Bag>
        </dc:subject>
      </cc:Work>
      <cc:License rdf:about="http://creativecommons.org/licenses/publicdomain/">
        <cc:permits rdf:resource="http://creativecommons.org/ns#Reproduction"/>
        <cc:permits rdf:resource="http://creativecommons.org/ns#Distribution"/>
        <cc:permits rdf:resource="http://creativecommons.org/ns#DerivativeWorks"/>
      </cc:License>
    </rdf:RDF>
  </metadata>
</svg>