<?xml version="1.0" encoding="UTF-8" standalone="no"?>
<!-- Created with Inkscape (http://www.inkscape.org/) -->

<svg
   xmlns:dc="http://purl.org/dc/elements/1.1/"
   xmlns:cc="http://creativecommons.org/ns#"
   xmlns:rdf="http://www.w3.org/1999/02/22-rdf-syntax-ns#"
   xmlns:svg="http://www.w3.org/2000/svg"
   xmlns="http://www.w3.org/2000/svg"
   xmlns:xlink="http://www.w3.org/1999/xlink"
   xmlns:sodipodi="http://sodipodi.sourceforge.net/DTD/sodipodi-0.dtd"
   xmlns:inkscape="http://www.inkscape.org/namespaces/inkscape"
   width="142.88696mm"
   height="220.96269mm"
   viewBox="0 0 506.29239 782.93867"
   id="svg2"
   version="1.1"
   inkscape:version="0.91 r13725"
   sodipodi:docname="bicycle-balloons.svg"
   inkscape:export-filename="C:\y12\plan2014-15\svg\bicycle-balloons\bicycle-balloons.png"
   inkscape:export-xdpi="90"
   inkscape:export-ydpi="90">
  <defs
     id="defs4">
    <linearGradient
       id="linearGradient14806">
      <stop
         offset="0"
         style="stop-color:#a0dfff"
         id="stop14808" />
      <stop
         offset="1"
         style="stop-color:#00a6d4;stop-opacity:.98039"
         id="stop14810" />
    </linearGradient>
    <linearGradient
       id="linearGradient14841">
      <stop
         offset="0"
         style="stop-color:#ffd5a0"
         id="stop14843" />
      <stop
         offset="1"
         style="stop-color:#ff9d22;stop-opacity:.98039"
         id="stop14845" />
    </linearGradient>
    <linearGradient
       id="linearGradient6752">
      <stop
         offset="0"
         style="stop-color:#ffa0a0"
         id="stop6754" />
      <stop
         offset="1"
         style="stop-color:#d40000;stop-opacity:.97938"
         id="stop6756" />
    </linearGradient>
    <radialGradient
       inkscape:collect="always"
       r="21.995001"
       gradientTransform="matrix(1.0542315,-0.13959839,0.25800204,1.9484521,5.6490861,-1406.8357)"
       cx="125.7"
       cy="897.65997"
       gradientUnits="userSpaceOnUse"
       xlink:href="#linearGradient6752"
       id="radialGradient6980" />
    <radialGradient
       inkscape:collect="always"
       r="352.85999"
       gradientTransform="matrix(0.18918797,0.25036006,-0.25790787,0.19489592,426.67527,-8.7526853)"
       cx="236.82001"
       cy="540.67999"
       gradientUnits="userSpaceOnUse"
       xlink:href="#linearGradient6752"
       id="radialGradient6982" />
    <radialGradient
       inkscape:collect="always"
       r="21.995001"
       gradientTransform="matrix(1.0542315,-0.13959839,0.25800204,1.9484521,212.01161,-1454.3537)"
       cx="125.7"
       cy="897.65997"
       gradientUnits="userSpaceOnUse"
       xlink:href="#linearGradient14841"
       id="radialGradient6984" />
    <radialGradient
       inkscape:collect="always"
       r="352.85999"
       gradientTransform="matrix(0.18918797,0.25036006,-0.25790787,0.19489592,633.03779,-56.266986)"
       cx="236.82001"
       cy="540.67999"
       gradientUnits="userSpaceOnUse"
       xlink:href="#linearGradient14841"
       id="radialGradient6986" />
    <radialGradient
       inkscape:collect="always"
       r="21.995001"
       gradientTransform="matrix(1.0542315,-0.13959839,0.25800204,1.9484521,97.845446,-1386.3509)"
       cx="125.7"
       cy="897.65997"
       gradientUnits="userSpaceOnUse"
       xlink:href="#linearGradient14806"
       id="radialGradient6988" />
    <radialGradient
       inkscape:collect="always"
       r="352.85999"
       gradientTransform="matrix(0.18918797,0.25036006,-0.25790787,0.19489592,518.87163,11.735145)"
       cx="236.82001"
       cy="540.67999"
       gradientUnits="userSpaceOnUse"
       xlink:href="#linearGradient14806"
       id="radialGradient6990" />
  </defs>
  <sodipodi:namedview
     id="base"
     pagecolor="#ffffff"
     bordercolor="#666666"
     borderopacity="1.0"
     inkscape:pageopacity="0.0"
     inkscape:pageshadow="2"
     inkscape:zoom="0.81150767"
     inkscape:cx="235.18971"
     inkscape:cy="476.9192"
     inkscape:document-units="px"
     inkscape:current-layer="layer1"
     showgrid="false"
     inkscape:window-width="1920"
     inkscape:window-height="1028"
     inkscape:window-x="-8"
     inkscape:window-y="-8"
     inkscape:window-maximized="1"
     fit-margin-top="0"
     fit-margin-left="0"
     fit-margin-right="0"
     fit-margin-bottom="0" />
  <metadata
     id="metadata7">
    <rdf:RDF>
      <cc:Work
         rdf:about="">
        <dc:format>image/svg+xml</dc:format>
        <dc:type
           rdf:resource="http://purl.org/dc/dcmitype/StillImage" />
        <dc:title></dc:title>
      </cc:Work>
    </rdf:RDF>
  </metadata>
  <g
     inkscape:label="Layer 1"
     inkscape:groupmode="layer"
     id="layer1"
     transform="translate(-136.85753,-220.16161)">
    <g
       id="g4239"
       transform="translate(-30.806856,187.30569)">
      <path
         id="path14767"
         style="fill:url(#radialGradient6980)"
         sodipodi:type="star"
         d="m 370.90633,305.28336 c 2.53473,-0.30417 20.1387,23.19095 19.13475,25.53817 -1.00394,2.34722 -30.1533,5.84515 -31.68408,3.8021 -1.53078,-2.04306 10.0146,-29.03611 12.54933,-29.34027 z"
         sodipodi:r1="18.424053"
         inkscape:flatsided="true"
         sodipodi:arg2="-0.64302775"
         sodipodi:arg1="-1.6902254"
         inkscape:randomized="0"
         sodipodi:cy="323.57617"
         sodipodi:cx="373.10147"
         inkscape:rounded="0.08"
         sodipodi:r2="13.43973"
         sodipodi:sides="3" />
      <path
         inkscape:connector-curvature="0"
         id="path14753"
         sodipodi:nodetypes="czzsz"
         style="fill:url(#radialGradient6982)"
         d="m 467.59429,183.49353 c 0,53.6967 -47.95254,133.86147 -97.27412,133.86147 -50.78478,0 -97.27411,-80.16477 -97.27411,-133.86147 0.003,-53.68946 43.57741,-103.119687 97.27411,-103.119687 53.6967,0 97.27412,49.430227 97.27412,103.119687 z" />
      <path
         inkscape:connector-curvature="0"
         id="path14790"
         sodipodi:nodetypes="ccsc"
         style="fill:none;stroke:#816647;stroke-width:2.17307568;stroke-linecap:round;stroke-linejoin:round"
         d="m 362.85928,317.72442 c 6.12083,-1.26763 10.43076,-2.55699 18.47114,-0.68814 9.8875,116.96942 73.70349,171.80337 101.29431,277.21203 2.1441,8.19974 2.37371,129.20336 4.10493,137.99707" />
      <path
         id="path14822"
         style="fill:url(#radialGradient6984)"
         sodipodi:type="star"
         d="m 577.26885,257.76541 c 2.53473,-0.30417 20.1387,23.19096 19.13475,25.53818 -1.00394,2.34722 -30.1533,5.84515 -31.68408,3.80209 -1.53078,-2.04305 10.0146,-29.0361 12.54933,-29.34027 z"
         sodipodi:r1="18.424053"
         inkscape:flatsided="true"
         sodipodi:arg2="-0.64302775"
         sodipodi:arg1="-1.6902254"
         inkscape:randomized="0"
         sodipodi:cy="276.05823"
         sodipodi:cx="579.46399"
         inkscape:rounded="0.08"
         sodipodi:r2="13.43973"
         sodipodi:sides="3" />
      <path
         inkscape:connector-curvature="0"
         id="path14824"
         sodipodi:nodetypes="czzsz"
         style="fill:url(#radialGradient6986)"
         d="m 673.9568,135.98285 c 0,53.68946 -47.95254,133.85422 -97.27411,133.85422 -50.78478,0 -97.26687,-80.16476 -97.26687,-133.85422 0,-53.6967 43.57741,-103.12693 97.26687,-103.12693 53.6967,7.25e-4 97.27411,49.43023 97.27411,103.12693 z" />
      <path
         inkscape:connector-curvature="0"
         id="path14826"
         sodipodi:nodetypes="ccsc"
         style="fill:none;stroke:#816647;stroke-width:2.17307568;stroke-linecap:round;stroke-linejoin:round"
         d="m 569.2218,270.2065 c 6.12807,-1.26039 10.43076,-2.55699 18.47114,-0.68814 -15.40711,159.77177 -79.43316,194.41059 -99.08501,324.90379 -0.35494,2.36141 3.56292,122.92099 5.83741,140.93579" />
      <path
         id="path14796"
         style="fill:url(#radialGradient6988)"
         sodipodi:type="star"
         sodipodi:sides="3"
         sodipodi:r1="18.424053"
         sodipodi:r2="13.43973"
         sodipodi:arg1="-1.6902254"
         sodipodi:arg2="-0.64302775"
         inkscape:randomized="0"
         sodipodi:cy="344.06104"
         sodipodi:cx="465.29782"
         inkscape:rounded="0.08"
         inkscape:flatsided="true"
         d="m 463.10268,325.76822 c 2.53473,-0.30417 20.1387,23.19095 19.13475,25.53818 -1.00394,2.34722 -30.1533,5.84514 -31.68408,3.80209 -1.53078,-2.04305 10.0146,-29.0361 12.54933,-29.34027 z" />
      <path
         inkscape:connector-curvature="0"
         id="path14798"
         sodipodi:nodetypes="czzsz"
         style="fill:url(#radialGradient6990)"
         d="m 559.7834,203.98563 c 0,53.68946 -47.94529,133.85423 -97.26687,133.85423 -50.78478,0 -97.27411,-80.16477 -97.27411,-133.85423 0,-53.6967 43.57741,-103.12693 97.27411,-103.12693 53.68946,0 97.26687,49.43023 97.26687,103.12693 z" />
      <path
         inkscape:connector-curvature="0"
         id="path14800"
         sodipodi:nodetypes="cccc"
         style="fill:none;stroke:#816647;stroke-width:2.17307568;stroke-linecap:round;stroke-linejoin:round"
         d="m 455.05564,338.20928 c 6.12083,-1.26763 10.43076,-2.55699 18.47114,-0.68814 9.14141,81.7004 26.52601,148.25447 12.42275,255.56095 -0.35493,3.40448 3.92068,123.8437 3.47158,135.62177" />
      <path
         inkscape:connector-curvature="0"
         id="path6930"
         style="fill:#816647;fill-rule:evenodd"
         d="m 485.93946,606.41132 c -0.78231,0.0942 -1.05032,0.30423 -3.36827,0.60846 -0.60122,-0.007 -1.10103,0.46359 -1.11551,1.06481 -0.007,0.60122 0.46359,1.10103 1.0648,1.10827 -0.32596,0.24628 -0.74609,0.68814 -0.70262,1.31833 0.029,0.36218 0.28974,0.71712 0.52153,0.89821 -0.007,0.0579 -0.0362,0.10141 -0.0435,0.15936 -0.0652,0.43461 -0.15211,1.0141 -0.24628,1.81089 -0.0797,0.60122 0.34769,1.15173 0.94891,1.22417 0.60122,0.0724 1.14449,-0.34769 1.22417,-0.94891 0.0579,-0.47084 0.0942,-0.70263 0.13038,-1.02135 0.4491,0.21007 0.97788,0.36218 1.62981,0.34045 1.1807,-0.0362 2.60044,-0.54327 4.41858,-1.8109 0.31872,-0.2173 0.49981,-0.58673 0.47084,-0.97064 -0.029,-0.39839 -0.31148,-0.7823 -0.565,-0.95615 -0.0507,-0.029 -0.0869,-0.0145 -0.13039,-0.0435 0.32596,-0.25353 0.70263,-0.70263 0.65193,-1.31109 -0.0362,-0.49981 -0.40564,-0.91269 -0.90545,-0.99237 -2.59321,-0.43462 -3.20167,-0.57949 -3.98397,-0.47808 z" />
    </g>
    <path
       inkscape:connector-curvature="0"
       id="path101"
       style="fill:#000000;fill-rule:evenodd"
       d="m 342.05129,767.06995 -36.46811,35.48877 52.25513,30.03972 c 0.32601,22.96059 0.51231,42.38161 0.37388,59.70684 -0.14101,17.13894 1.3972,33.95186 -1.11905,42.70763 -2.70125,8.52289 -9.0352,8.42974 -14.34455,8.52289 -5.35721,-0.13972 -14.11168,-2.51495 -17.27736,-8.89548 -3.16827,-6.52025 -1.67793,-16.53349 -1.81635,-29.34112 -0.32602,-13.08707 -0.32602,-28.59594 0,-47.78539 -16.6745,-7.73115 -30.55202,-14.62399 -42.33634,-21.19081 -11.87616,-6.56682 -21.98255,-11.45701 -27.99049,-17.74439 -6.05581,-6.61339 -7.96272,-13.50623 -8.05716,-20.11962 -0.0932,-6.6134 2.23551,-11.55015 7.35856,-18.769 5.07648,-7.31199 13.0405,-15.08972 22.82216,-24.59065 9.73251,-9.7338 25.56869,-25.56869 34.9299,-32.41495 9.17492,-6.79968 13.83095,-8.3366 20.25805,-8.19688 6.47368,0.0931 12.66791,4.19159 18.02383,8.5229 5.07648,4.09844 7.26413,8.24345 12.8542,16.71977 5.49564,8.5229 12.06246,19.56075 19.88805,33.81215 14.99657,-1.35063 26.40701,-1.35063 34.60389,0 7.96402,1.25747 12.8542,3.63271 13.97067,7.82429 1.07118,4.14502 0.23545,13.55281 -7.35857,16.71978 -7.823,2.88754 -28.92066,1.44377 -38.65446,1.3972 -9.73509,0 -14.85685,0.55888 -19.51417,-1.3972 -4.75305,-2.14236 -5.58878,-5.77507 -9.17751,-10.89813 -3.81641,-5.2149 -8.05457,-11.92144 -13.2242,-20.11832 z" />
    <path
       inkscape:connector-curvature="0"
       id="path103"
       style="fill:#000000;fill-rule:evenodd"
       d="m 379.87908,668.60644 c 17.4546,0 31.62191,13.14399 31.62191,29.34112 0,16.19712 -14.16731,29.34111 -31.62191,29.34111 -17.45719,0 -31.6245,-13.14528 -31.6245,-29.34111 0,-16.19584 14.16602,-29.34112 31.6245,-29.34112" />
    <path
       inkscape:connector-curvature="0"
       id="path105"
       style="fill:#000000;fill-rule:evenodd"
       d="m 225.34661,838.88323 c 48.84494,0 88.48908,36.78507 88.48908,82.10855 0,45.32349 -39.64543,82.10852 -88.48908,82.10852 -48.84623,0 -88.48908,-36.78503 -88.48908,-82.10852 0,-45.32348 39.64285,-82.10855 88.48908,-82.10855 z m 0,15.88146 c 39.40999,0 71.39672,29.67101 71.39672,66.22709 0,36.55609 -31.98673,66.2258 -71.39672,66.2258 -39.41127,0 -71.39671,-29.66971 -71.39671,-66.2258 0,-36.55608 31.98544,-66.22709 71.39671,-66.22709 z" />
    <path
       style="fill:#000000;fill-opacity:1;fill-rule:evenodd"
       d="m 455.53125,835.18555 c -48.84753,0 -88.48828,36.78589 -88.48828,82.10937 0,25.84467 12.90071,48.90042 33.03711,63.95508 l 15.34765,-9.18945 c -18.85526,-11.92289 -31.24609,-32.00742 -31.24609,-54.76563 0,-36.55608 31.96291,-66.22656 71.34961,-66.22656 35.22161,0 64.48951,23.73709 70.28711,54.90039 l 15.4043,-9.22266 c -9.8398,-35.38973 -44.49284,-61.56054 -85.69141,-61.56054 z"
       id="path107"
       inkscape:connector-curvature="0" />
    <ellipse
       style="opacity:1;fill:#000000;fill-opacity:1;stroke:none;stroke-width:2.29999995;stroke-miterlimit:4;stroke-dasharray:none;stroke-dashoffset:0;stroke-opacity:1"
       id="path4273"
       cx="458.38791"
       cy="916.82379"
       rx="10.141663"
       ry="10.952996" />
  </g>
</svg>
