<?xml version="1.0" encoding="utf-8"?>
<!DOCTYPE svg PUBLIC "-//W3C//DTD SVG 1.1//EN" "http://www.w3.org/Graphics/SVG/1.1/DTD/svg11.dtd">
<svg version="1.1" id="Layer_1" xmlns="http://www.w3.org/2000/svg" xmlns:xlink="http://www.w3.org/1999/xlink" x="0px" y="0px"
	 viewBox="252.9532 -38.5127 918.0468 1999.2816" enable-background="new 252.9532 -38.5127 918.0468 1999.2816"
	 xml:space="preserve">
<g>
	<path fill="#213051" stroke="#213051" stroke-width="0.0938" d="M702.47,98.89c-0.12-2.94,2.46-5.53,5.3701-5.63
		c3.3799-0.31,7.94-0.4,9.5,3.35c1.3799,4.9-0.32,10.23,0.92,15.08c10.36,12.54,25.62,19.62,36.74,31.37
		c7.07,7.27,11.92,16.79,13.08,26.91c0.04,0.71,0.12,2.13,0.16,2.84c-5.75,0.47-11.53,0.4-17.29,0.15
		c-13.3,0.25-26.61-0.1-39.92,0.2c-11.34-0.47-22.7,0.36-34.04-0.17c-6.97,0.24-13.94-0.08-20.91,0.2
		c0.55-12.38,6.6-24.11,15.68-32.43c9.56-9.07,21.15-15.66,30.65-24.8C702.52,110.27,702.36,104.58,702.47,98.89z"/>
	<path fill="#C3C6CA" stroke="#C3C6CA" stroke-width="0.0938" d="M768.08,169.97c0.59,1.26,1.18,2.53,1.77,3.81
		c-6.2,6.06-8.68,14.76-10.29,23.02c-3,17.4-2.13,35.84,4.62,52.3c-0.73,0.09-1.44,0.16-2.15,0.2c-33.19-0.1-66.39-0.01-99.58-0.05
		c-0.4-0.02-1.21-0.08-1.62-0.11c6.3-15.47,7.46-32.67,5.12-49.11c-1.52-9.58-4.08-19.71-11.11-26.81l1.24-0.03
		c6.97-0.28,13.94,0.04,20.91-0.2c11.34,0.53,22.7-0.3,34.04,0.17c13.31-0.3,26.62,0.05,39.92-0.2c5.76,0.25,11.54,0.32,17.29-0.15
		C768.2,172.1,768.12,170.68,768.08,169.97 M659.28,174.6c3.08,5.85,6.14,11.79,7.36,18.37c3.85,18,3.15,37.14-2.96,54.57
		c32.54,0.02,65.09,0.07,97.63-0.02c-6.19-17.51-6.85-36.79-2.85-54.86c1.33-6.41,3.86-12.56,7.6-17.95
		C730.47,174.54,694.87,174.75,659.28,174.6z"/>
	<path fill="#FFFFFF" stroke="#FFFFFF" stroke-width="0.0938" d="M659.28,174.6c35.59,0.15,71.1899-0.06,106.78,0.11
		c-3.74,5.39-6.27,11.54-7.6,17.95c-4,18.07-3.34,37.35,2.85,54.86c-32.54,0.09-65.09,0.04-97.63,0.02
		c6.11-17.43,6.81-36.57,2.96-54.57C665.42,186.39,662.36,180.45,659.28,174.6z"/>
	<path fill="#213152" stroke="#213152" stroke-width="0.0938" d="M662.45,249.25c33.19,0.04,66.39-0.05,99.58,0.05
		c-4.92,4.73-12.01,7.08-15.65,13.12c-3.94,6.81-3.59,15.22-1.37,22.55c1.51,4.84,3.59,9.78,7.21,13.43c5.2,3,11.59,1.74,17.32,2.74
		c-2.23,0.44-4.46,0.93-6.71,1.22c-22.94-1.01-45.91-0.27-68.87-0.51c-11.23,0.03-22.47-0.14-33.68,0.57
		c-1.59-0.45-3.13-0.95-4.71-1.36c4.76-0.39,9.57-0.5,14.3-1.28c3.5-1.18,5.16-4.86,6.85-7.86c4.23-8.71,6.42-19.5,1.88-28.54
		C675.22,256.67,667.54,254.31,662.45,249.25z"/>
	<path fill="#404563" stroke="#404563" stroke-width="0.0938" d="M437.76,302.71c72.59-1.74,145.29,2.98,217.81-1.65
		c1.58,0.41,3.12,0.91,4.71,1.36c-12.16,1.86-24.57,0.56-36.72,2.38c-19.19,0.7-38.4-0.12-57.59,0.14
		c-42.36,0.35-84.73-0.07-127.09,0.11c-0.52,0.02-1.56,0.06-2.08,0.07C437.04,304.52,437.52,303.32,437.76,302.71z"/>
	<path fill="#404563" stroke="#404563" stroke-width="0.0938" d="M769.54,301.14c72.47,4.46,145.12-0.14,217.66,1.58
		c0.24,0.59,0.72,1.78,0.96,2.38c-0.52-0.02-1.56-0.05-2.08-0.07c-46.35-0.08-92.71,0.2-139.07-0.06
		c-15.52-0.2-31.06,0.5-46.56-0.18c-12.45-1.79-25.14-0.71-37.62-2.43C765.08,302.07,767.31,301.58,769.54,301.14z"/>
	<path fill="#455281" stroke="#455281" stroke-width="0.0938" d="M660.28,302.42c11.21-0.71,22.45-0.54,33.68-0.57
		c22.96,0.24,45.93-0.5,68.87,0.51c12.48,1.72,25.17,0.64,37.62,2.43c-58.96,0.16-117.93,0.09-176.89,0.01
		C635.71,302.98,648.12,304.28,660.28,302.42z"/>
	<path fill="#1B2141" stroke="#1B2141" stroke-width="0.0938" d="M436.8,305.12c0.52-0.01,1.56-0.05,2.08-0.07
		c-3.56,9.56-1.4,20.01-3.74,29.77l-1.54,0.35C435.57,325.25,433.75,314.84,436.8,305.12z"/>
	<path fill="#213165" stroke="#213165" stroke-width="0.0938" d="M438.88,305.05c42.36-0.18,84.73,0.24,127.09-0.11
		c19.19-0.26,38.4,0.56,57.59-0.14c58.96,0.08,117.93,0.15,176.89-0.01c15.5,0.68,31.04-0.02,46.56,0.18
		c46.36,0.26,92.72-0.02,139.07,0.06c3.76,9.51,0.96,20.04,3.72,29.75c-41.6-0.39-83.2-0.05-124.8-0.17
		c-138.67-0.02-277.34,0.04-416.01-0.01c-4.62,0.03-9.24-0.17-13.85,0.22C437.48,325.06,435.32,314.61,438.88,305.05z"/>
	<path fill="#1B2141" stroke="#1B2141" stroke-width="0.0938" d="M986.08,305.03c0.52,0.02,1.56,0.05,2.08,0.07
		c3.08,9.64,1.22,20.01,3.27,29.85l-1.63-0.17C987.04,325.07,989.84,314.54,986.08,305.03z"/>
	<path fill="#45527E" stroke="#45527E" stroke-width="0.0938" d="M433.6,335.17l1.54-0.35c4.61-0.39,9.23-0.19,13.85-0.22
		c138.67,0.05,277.34-0.01,416.01,0.01c41.6,0.12,83.2-0.22,124.8,0.17l1.63,0.17c0.26,0.66,0.79,1.98,1.06,2.63l-0.74,0.01
		c-186.3,0.21-372.61-0.11-558.92,0.13c0.1-0.62,0.31-1.85,0.41-2.47L433.6,335.17z"/>
	<path fill="#16234F" stroke="#16234F" stroke-width="0.0938" d="M432.83,337.72c186.31-0.24,372.62,0.08,558.92-0.13
		c0.05,0.91,0.15,2.72,0.2,3.63c-8.29-0.88-16.63-0.59-24.95-0.56c-175.68,0.01-351.37-0.03-527.05-0.03
		c-2.03-0.13-3.71,1.03-5.33,2.05c-0.07-0.45-0.21-1.33-0.28-1.77c-6.16,1.16-12.58,2.64-18.76,0.77c4.72-0.95,9.64-0.61,14.3-1.93
		C431.12,339.53,432.05,338.66,432.83,337.72z"/>
	<path fill="#19253D" stroke="#19253D" stroke-width="0.0938" d="M991.75,337.59c2.19,2.57,5.71,2.69,8.82,3.12
		c5.81,0.59,11.95,0.51,17.2,3.48c0.19,10.43-0.9,21.06,1.77,31.29c-0.66-0.15-1.97-0.45-2.63-0.61
		c-1.36-9.45-0.28-19.09-1.36-28.56c-1.46-2.38-4.73-2.39-7.17-2.91c-5.52-0.48-10.98-1.26-16.43-2.18
		C991.9,340.31,991.8,338.5,991.75,337.59z"/>
	<path fill="#213165" stroke="#213165" stroke-width="0.0938" d="M415.58,341.68c6.18,1.87,12.6,0.39,18.76-0.77
		c0.07,0.44,0.21,1.32,0.28,1.77c1.62-1.02,3.3-2.18,5.33-2.05c175.68,0,351.37,0.04,527.05,0.03c8.32-0.03,16.66-0.32,24.95,0.56
		c5.45,0.92,10.91,1.7,16.43,2.18c2.44,0.52,5.71,0.53,7.17,2.91c1.08,9.47,0,19.11,1.36,28.56
		c-192.64-0.01-385.28,0.02-577.92,0.01c-11.18,0.13-22.39-0.36-33.56,0.36c2.68-10.15,1.46-20.71,1.75-31.07
		C409.83,342.97,412.58,341.53,415.58,341.68z"/>
	<path fill="#46527E" stroke="#46527E" stroke-width="0.0938" d="M405.43,375.24c11.17-0.72,22.38-0.23,33.56-0.36
		c192.64,0.01,385.28-0.02,577.92-0.01c0.66,0.16,1.97,0.46,2.63,0.61l0.25,0.06c0.22,0.76,0.45,1.52,0.7,2.28
		c-0.55-0.04-1.64-0.13-2.19-0.17c-88.44-0.27-176.9-0.03-265.35-0.12c-110.3,0.04-220.59,0-330.89,0.02
		c-5.9,0.09-11.82-0.24-17.7,0.21C404.71,376.91,405.07,376.08,405.43,375.24z"/>
	<path fill="#213165" stroke="#213165" stroke-width="0.0938" d="M379.46,382.91c8.35-1.43,16.87-2.26,24.9-5.15
		c5.88-0.45,11.8-0.12,17.7-0.21c110.3-0.02,220.59,0.02,330.89-0.02c88.45,0.09,176.91-0.15,265.35,0.12
		c1.26,1.02,2.45,2.27,4.04,2.82c6.52,2.18,13.52,2.23,20.07,4.23c1.6699,2.34,0.61,5.52,1.0599,8.22
		c-0.47,1.28,1.15,1.02,1.79,1.37c11.48-0.35,22.98-0.06,34.47-0.16c0.2001,8.66-0.5,17.38,0.37,26l-0.0499,0.19
		c-1.5,3.84,0.36,7.8,0.1599,11.73c-0.22,5.33-0.7899,10.67-0.2799,16c-0.14,109.65,0.0699,219.35-0.14,329.02
		c0.0599,1.64,0.8199,3.13,1.35,4.68c0.35,25.38-0.33,50.86-0.33,76.27c-0.5,54.01-0.5901,108.01-1,162.01
		c-0.2301,222.3099-0.03,444.63-0.1001,666.9399c0.2001,10.9-0.52,21.85,0.6801,32.7101c-1.62-1.0801-3.48-1.8101-5.4301-1.7201
		c-26.95,0.13-53.92,0.26-80.8699-0.0299c0.16-388.9801-0.01-777.9601,0.08-1166.9501c0.06-5.38-0.28-10.77,0.33-16.12
		c15.4-0.5,30.8101-0.14,46.22-0.26c0.12-25.86-0.0599-51.73,0.0801-77.6c-0.03-2.12-0.14-4.24-0.4401-6.33
		c-0.13-0.68-0.37-2.05-0.5-2.73c-31.61-0.42-63.25-0.08-94.87-0.19c-152.31,0-304.63,0-456.95,0.02
		c-33.95,0.07-67.92-0.19-101.87,0.14c-0.13,0.68-0.39,2.05-0.52,2.74c-0.66,4.06-0.44,8.19-0.41,12.29
		c-0.03,23.91-0.15,47.83,0.07,71.74c12.91-0.07,25.83-0.1,38.75-0.09c1.85,0.03,4.67,0.03,5.02,2.42c0.5,3.29,0.19,6.63,0.21,9.95
		c-0.02,385.03-0.03,770.06-0.01,1155.0901c-0.07,5.2799-0.14,10.58,0.33,15.86c-28.58,0.2999-57.17,0.11-85.76,0.1799
		c-0.19-208.0299-0.03-416.0599-0.08-624.1c-0.09-68.99,0.27-137.98-0.39-206.97c-0.15-30.64-0.43-61.29-0.66-91.94
		c-0.02-16.76-0.64-33.58-0.31-50.31c2.58-4.89,1.41-10.53,1.62-15.81c-0.17-16.67,0.08-33.34-0.04-50.01
		c-0.52-8.96,0.28-17.92-0.12-26.87c-0.32-6.05,0.15-12.1,0.2-18.14c-0.07-15.43,0-30.86-0.29-46.28
		c0.63-11.21-0.03-22.44,0.17-33.67c-0.06-31.66,0.19-63.33-0.05-94.99c-0.54-7.34,0.52-14.67-0.03-21.99
		c-0.41-4.59,0.86-9.29-0.67-13.75c1.24-9.64,0.22-19.42,0.61-29.12c11.99-0.06,23.99,0.11,35.98-0.09
		C379.75,390.33,379.65,386.62,379.46,382.91z"/>
	<path fill="#1B2141" stroke="#1B2141" stroke-width="0.0938" d="M1018.3,377.65c0.55,0.04,1.64,0.13,2.19,0.17
		c8.09,2.83,16.65,3.64,25.04,5.19c-0.29,3.75-0.28,7.52-0.27,11.28c-0.64-0.35-2.26-0.09-1.79-1.37
		c-0.45-2.7,0.61-5.88-1.0599-8.22c-6.55-2-13.55-2.05-20.07-4.23C1020.75,379.92,1019.56,378.67,1018.3,377.65z"/>
	<path fill="#1A265A" stroke="#1A265A" stroke-width="0.0938" d="M1080.21,432.05c0.2001-3.93-1.6599-7.89-0.1599-11.73
		c2.99,10.65,4.4399,21.69,5.7799,32.63c5.26,6.35,14.9301,4.19,21.3,8.77c3.01,2.05,3.47,5.96,3.39,9.32
		c-0.13,27.01,0.16,54.03-0.15,81.03c-5.53,13.69-21.33,20.59-24.63,35.5c-1.54,9.73-1.3099,19.66-1.8199,29.49
		c-0.89,31.96-1.36,63.93-1.8,95.91c-0.46,22.92-0.21,45.8701-0.98,68.78c-0.53-1.55-1.29-3.04-1.35-4.68
		c0.21-109.67,0-219.37,0.14-329.02C1079.42,442.72,1079.99,437.38,1080.21,432.05z"/>
	<path fill="#1A265A" stroke="#1A265A" stroke-width="0.0938" d="M343.2,423.26c1.53,4.46,0.26,9.16,0.67,13.75
		c0.55,7.32-0.51,14.65,0.03,21.99c0.24,31.66-0.01,63.33,0.05,94.99c-0.2,11.23,0.46,22.46-0.17,33.67
		c0.29,15.42,0.22,30.85,0.29,46.28c-0.05,6.04-0.52,12.09-0.2,18.14c0.4,8.95-0.4,17.91,0.12,26.87
		c0.12,16.67-0.13,33.34,0.04,50.01c-0.21,5.28,0.96,10.92-1.62,15.81c-1.01-43.21-0.98-86.46-2.45-129.67
		c-0.28-8.43-0.49-16.88-1.32-25.28c-1.02-6.82-4.7-13.01-9.45-17.91c-4.79-4.92-9.81-9.74-13.42-15.64
		c-1.13-1.91-2.59-3.86-2.31-6.21c0.05-26.68,0.02-53.35,0.02-80.03c-0.1-3.04,0.66-6.43,3.3-8.26c5.72-3.98,13.36-3,19.2-6.7
		c1.06-0.75,2.3-1.69,2.41-3.1C339.28,442.3,340.79,432.67,343.2,423.26z"/>
	<path fill="#45507B" stroke="#45507B" stroke-width="0.0938" d="M386.17,447.91c33.95-0.33,67.92-0.07,101.87-0.14
		c152.32-0.02,304.64-0.02,456.95-0.02c31.62,0.11,63.26-0.23,94.87,0.19c0.13,0.68,0.37,2.05,0.5,2.73
		c-178.13,0.15-356.25-0.08-534.38,0.07c-40.11-0.09-80.22,0.15-120.33-0.09C385.78,449.96,386.04,448.59,386.17,447.91z"/>
	<path fill="#1B2142" stroke="#1B2142" stroke-width="0.0938" d="M385.24,462.94c-0.03-4.1-0.25-8.23,0.41-12.29
		c40.11,0.24,80.22,0,120.33,0.09c178.13-0.15,356.25,0.08,534.38-0.07c0.3,2.09,0.41,4.21,0.4401,6.33
		c-0.14,25.87,0.0399,51.74-0.0801,77.6c-15.4099,0.12-30.8199-0.24-46.22,0.26c0.05-0.48,0.16-1.42,0.21-1.9
		c14.81,0.2,29.64,0.42,44.44-0.05c0.38-16.64-0.03-33.3,0.2-49.96c-0.27-10.21,0.41-20.44-0.38-30.63
		c-6.64-0.64-13.2899-0.24-19.93-0.16c-58.69-0.1-117.36,0.03-176.04,0.08c-99.33-0.01-198.67-0.02-298-0.02
		c-7.35,0.06-14.7,0.03-22.05-0.32c-37.65,0.67-75.32-0.1-112.97,0.26c-7.65,0.27-15.3-0.7-22.93,0.1
		c-0.69,16.57-0.1,33.17-0.28,49.75c0.21,10.29-0.45,20.61,0.32,30.88c13.69,0.67,27.41-0.06,41.11,0.34
		c2.6,1.63,5.73,1.75,8.69,1.98c-2.06,1.82-4.81,3.72-4.83,6.78c-0.19,6.38-0.19,12.77,0.11,19.15c2.15,0.3,4.01,1.38,5.47,2.99
		c-1.71,0.94-3.46,1.8-5.21,2.63c-0.09,0.34-0.26,1.02-0.34,1.36c3.12,0.87,5.79,2.89,8.98,3.55c0.29,102.44,0,204.89,0.12,307.34
		c-0.05,277.99,0.03,555.99-0.04,833.98c-0.13,1.63-0.44,3.28-0.73,4.9301c-3.6-0.04-7.21-0.0801-10.81-0.01
		c-0.47-5.28-0.4-10.5801-0.33-15.86c-0.02-385.03-0.01-770.0601,0.01-1155.0901c-0.02-3.32,0.29-6.66-0.21-9.95
		c-0.35-2.39-3.17-2.39-5.02-2.42c-12.92-0.01-25.84,0.02-38.75,0.09C385.09,510.77,385.21,486.85,385.24,462.94z"/>
	<path fill="#283569" stroke="#283569" stroke-width="0.0938" d="M387.05,452.26c7.63-0.8,15.28,0.17,22.93-0.1
		c37.65-0.36,75.32,0.41,112.97-0.26c7.35,0.35,14.7,0.38,22.05,0.32c99.33,0,198.67,0.01,298,0.02
		c58.68-0.05,117.35-0.18,176.04-0.08c6.6401-0.08,13.29-0.48,19.93,0.16c0.79,10.19,0.11,20.42,0.38,30.63
		c-0.23,16.66,0.1801,33.32-0.2,49.96c-14.8,0.47-29.63,0.25-44.44,0.05c-89.56-0.07-179.16-0.07-268.73-0.05
		c-8.34,0.38-16.67,0.14-25-0.02c-50.3,0.09-100.6,0.03-150.9,0.01c-36.01,0.16-72.03-0.22-108.03,0.2
		c-4.62-0.27-9.24-0.3-13.85,0.13c-13.7-0.4-27.42,0.33-41.11-0.34c-0.77-10.27-0.11-20.59-0.32-30.88
		C386.95,485.43,386.36,468.83,387.05,452.26 M521.38,457.18c-0.2,21.26,0,42.51-0.14,63.77c0.09,1.42-0.2,2.99,0.48,4.32
		c1.08,0.3,2.2,0.43,3.35,0.39c45.98,0.09,91.97,0.05,137.96,0.05c86.2599-0.08,172.52,0.17,258.78-0.12
		c-0.08-22.79,0.24-45.58-0.15-68.37c-0.3799,0.19-1.16,0.56-1.55,0.74c-0.53-0.16-1.59-0.49-2.12-0.66
		c-130.33,0.06-260.65,0-390.98,0.01c-1.31,0.27-3.22-0.49-4.12,0.7C522.51,457.81,521.76,457.39,521.38,457.18z"/>
	<path fill="#1A2243" stroke="#1A2243" stroke-width="0.0938" d="M521.38,457.18c0.38,0.21,1.13,0.63,1.51,0.83
		c-0.02,0.57-0.07,1.71-0.09,2.28c0.1,13.9-0.02,27.8,0.05,41.7c0.08,6.23-0.31,12.49,0.33,18.71c132.26,0.1,264.52,0.1,396.78,0
		c0.59-6.21,0.19-12.44,0.22-18.67c-0.06-13.92,0.11-27.84,0.06-41.76c-0.03-0.57-0.09-1.73-0.13-2.31
		c0.39-0.18,1.17-0.55,1.55-0.74c0.39,22.79,0.07,45.58,0.15,68.37c-86.26,0.29-172.52,0.04-258.78,0.12
		c-45.9901,0-91.98,0.04-137.96-0.05c-1.15,0.04-2.27-0.09-3.35-0.39c-0.68-1.33-0.39-2.9-0.48-4.32
		C521.38,499.69,521.18,478.44,521.38,457.18z"/>
	<path fill="#48557F" stroke="#48557F" stroke-width="0.0938" d="M522.89,458.01c0.9-1.19,2.81-0.43,4.12-0.7
		c130.33-0.01,260.65,0.05,390.98-0.01c0.53,0.17,1.59,0.5,2.12,0.66c0.04,0.58,0.1,1.74,0.13,2.31
		c-132.47,0.15-264.96,0.08-397.44,0.02C522.82,459.72,522.87,458.58,522.89,458.01z"/>
	<path fill="#2A3665" stroke="#2A3665" stroke-width="0.0938" d="M522.8,460.29c132.48,0.06,264.97,0.13,397.44-0.02
		c0.05,13.92-0.12,27.84-0.06,41.76c-0.03,6.23,0.37,12.46-0.22,18.67c-132.26,0.1-264.52,0.1-396.78,0
		c-0.64-6.22-0.25-12.48-0.33-18.71C522.78,488.09,522.9,474.19,522.8,460.29 M531.31,468.36c-0.23,1.87-0.46,3.74-0.49,5.63
		c0.06,13.59,0.33,27.18-0.05,40.76c0.38-0.45,1.12-1.34,1.5-1.78l0.45-0.1299c-0.04,0.39-0.1299,1.17-0.17,1.56
		c4.38-1.17,8.94-0.4,13.41-0.6c114.02,0.03,228.02,0,342.04,0.01c7.28-0.32,14.56,0.88,21.81-0.3c-0.06-0.63-0.19-1.9-0.25-2.53
		c0.04-10.65-0.02-21.31-0.02-31.96c0-3.13,0.23-6.29-0.39-9.37c0.17-0.33,0.5099-0.99,0.67-1.32c-6.61-0.12-13.23-0.24-19.84-0.16
		c-84.66,0.1-169.32,0-253.98,0.06C601.1,468.33,566.21,467.94,531.31,468.36z"/>
	<path fill="#14214D" stroke="#14214D" stroke-width="0.0938" d="M531.31,468.36c34.9-0.42,69.79-0.03,104.69-0.13
		c84.66-0.06,169.32,0.04,253.98-0.06c6.61-0.08,13.23,0.04,19.84,0.16c-0.16,0.33-0.5,0.99-0.67,1.32
		c-13.05,0.28-26.1,0.88-39.14,0.29c-12.36,0.37-24.74,0.5-37.09-0.08c-22.29,0.84-44.6-0.02-66.89,0.19
		c-6.35-0.51-12.71-0.31-19.05,0.15c-11.65-0.22-23.29,0.16-34.94,0.01c-7.0099,0.42-13.99-0.92-20.98-0.23
		c-11.02,0.63-22.06,0.11-33.08-0.23c-7.99,0.82-15.99-0.19-23.99,0.27c-6.65-0.7-13.3,0.36-19.96-0.07
		c-18.33,0.54-36.6801,0.11-55.02,0.27c-8.8-0.81-17.6,0.19-26.42,0.16c-0.28,14.19,0.36,28.4-0.32,42.59
		c-0.38,0.44-1.12,1.33-1.5,1.78c0.38-13.58,0.11-27.17,0.05-40.76C530.85,472.1,531.08,470.23,531.31,468.36z"/>
	<path fill="#0F3BBF" stroke="#0F3BBF" stroke-width="0.0938" d="M532.59,470.38c8.8199,0.03,17.62-0.97,26.42-0.16
		c18.34-0.16,36.69,0.27,55.02-0.27c6.66,0.43,13.31-0.63,19.96,0.07c8-0.46,16,0.55,23.99-0.27c11.02,0.34,22.06,0.86,33.08,0.23
		c6.99-0.69,13.97,0.65,20.98,0.23c11.65,0.15,23.29-0.23,34.94-0.01c6.34-0.46,12.7-0.66,19.05-0.15
		c22.29-0.21,44.6,0.65,66.89-0.19c12.35,0.58,24.73,0.45,37.09,0.08c13.04,0.59,26.09-0.01,39.14-0.29
		c0.62,3.08,0.39,6.24,0.39,9.37c0,10.65,0.06,21.31,0.02,31.96c-96.86,0.34-193.74-0.06-290.6,0.2
		c-28.4-0.19-56.79,0.04-85.18-0.14c-0.27,0.45-0.8,1.35-1.0601,1.8l-0.45,0.1299C532.95,498.78,532.31,484.57,532.59,470.38
		 M591.33,476.56c-9.91,2.13-12.52,15.68-6.9,23.08c4.33,5.81,13.6,6.4,18.95,1.68c4.88-4.57,5.45-12.45,2.75-18.31
		C603.59,477.58,596.97,475.18,591.33,476.56 M647.18,479.19c-5.21,4.75-5.32,13.09-2.53,19.15c2.9,6.28,11.52,7.73,17.2,4.56
		c2.77-1.58,4.2401-4.53,5.22-7.44c-0.87-0.29-2.63-0.86-3.51-1.15c-0.93,2.01-1.64,4.36-3.61,5.62
		c-4.03,2.83-10.49,1.09-12.21-3.62c-1.67-4.54-1.63-10.16,1.36-14.15c3.88-4.58,12.41-3.28,13.89,2.87
		c1.23-0.28,2.47-0.56,3.71-0.83C664.52,475.82,653.22,473.83,647.18,479.19 M714.54,476.43c-0.03,4.11,0,8.23-0.05,12.35
		c0.44,0.03,1.32,0.1,1.76,0.13c-0.02-1.68-0.02-3.34-0.02-5c1.79-0.09,3.63,0.07,5.41-0.34c2.38-0.35,2.6-3.4,2.04-5.25
		C721.75,475.25,717.53,476.81,714.54,476.43 M734.27,476.07c-0.24,3.78,0.29,7.67-0.97,11.33c-1.54,0-3.08-0.01-4.61-0.01
		c-1.73-3.76-0.25-7.98-1.52-11.84c-1.85,2.8-0.94,6.39-0.98,9.55c-0.21,5.02,8.48,5.56,9.43,0.9c0.31-3.11,0.36-6.28-0.01-9.37
		C735.28,476.49,734.61,476.21,734.27,476.07 M738.41,476.45c-0.0099,4.13-0.03,8.27-0.02,12.41c2.42-0.04,4.87,0.13,7.29-0.26
		c2.04-0.64,2.16-2.95,2.19-4.72c-0.41-0.33-1.25-0.98-1.66-1.31c0.62-1.61,1.74-3.62,0.23-5.11
		C744.15,475.77,741.05,476.68,738.41,476.45 M750.33,475.9c-0.72,4.29-0.33,8.64-0.4,12.97c2.74-0.02,5.48-0.02,8.23-0.14
		c-0.83-2.65-4.48-0.85-6.5-1.37c-0.1-3.56,0.25-7.14-0.17-10.68C751.2,476.49,750.62,476.09,750.33,475.9 M768.95,489.12
		c2.76,0.58,6.99-2.02,5.27-5.15c-1.37,1.82-3.0099,4.47-5.72,3.48c-3.64-1.21-2.99-5.96-1.83-8.78c2.75-1.86,5.62-0.46,7.35,2
		c1.77-2.86-2.76-5.01-5.11-4.37C762.12,476.84,762.23,488.64,768.95,489.12 M825.43,476.72c-9.93,2.75-11.89,17.07-5.3,24.01
		c5.34,5.59,15.76,4.83,20-1.73c3.38-5.49,3.17-13.15-0.74-18.32C836.11,476.61,830.32,475.4,825.43,476.72 M557.35,503.86
		c1.15,0.01,2.3,0.03,3.47,0.06c0.71-3.5-0.55-7.52,0.57-10.7c4.25-1.01,9.16,0.64,13.24-1.58c5.11-3.05,4.77-12.34-1.15-14.27
		c-5.26-1.26-10.74-0.37-16.1-0.67C557.31,485.75,557.37,494.81,557.35,503.86 M612.18,476.78c-0.03,9.04-0.04,18.08-0.01,27.12
		c5.68-0.14,11.36,0.25,17.03-0.06c0-0.79,0-2.37,0.01-3.16c-4.45,0.06-8.9-0.04-13.34,0.1c-0.34-8.06,0.11-16.13-0.24-24.18
		C614.77,476.64,613.04,476.73,612.18,476.78 M634.14,476.72c-0.31,9.06-0.28,18.15-0.03,27.22c1.17-0.04,2.35-0.08,3.54-0.11
		c-0.08-9.05,0.08-18.11-0.09-27.16C636.71,476.68,635,476.7,634.14,476.72 M671.34,503.89c6.8199,0.12,13.64-0.04,20.46-0.03
		c0-0.79-0.01-2.37-0.01-3.15c-5.55-0.01-11.11,0.01-16.66-0.01c-0.01-3.07,0-6.13,0.02-9.2c4.95,0.07,9.9-0.03,14.85,0.05
		c0.03-1.1,0.07-2.2,0.12-3.29c-5-0.02-10-0.02-14.99-0.01c0-2.75,0-5.5,0-8.25c5.35-0.04,10.7,0.02,16.05-0.06c0-0.8,0-2.41,0-3.21
		c-6.59-0.02-13.19,0.02-19.78-0.02C671.32,485.77,671.42,494.83,671.34,503.89 M759.9,476.48c0.09,4.02-0.2401,8.06,0.11,12.07
		l1.49,0.91c0.26-4.34,0.14-8.7,0.12-13.05L759.9,476.48 M792.11,476.75c-0.04,9.04,0,18.09-0.02,27.13
		c5.53-0.36,11.3799,1.17,16.67-1.04c5.33-2.56,5.13-11.44-0.7-13.35c4.14-2.63,4.31-9.18-0.08-11.63
		C803,475.72,797.36,477.1,792.11,476.75 M845.44,476.77c3.08,4.35,6.25,8.66,9.27,13.06c-3.53,4.66-6.95,9.42-10.52,14.06
		c1.54-0.04,3.1-0.06,4.67-0.08c2.51-3.73,5.31-7.25,7.74-11.04c2.87,3.46,5.27,7.29,7.82,11c1.59,0.05,3.18,0.08,4.79,0.11
		c-3.33-4.84-6.9-9.53-10.18-14.4c3.2599-4.17,6.28-8.53,9.53-12.71c-0.99-0.03-2.97-0.08-3.96-0.11c-2.65,3.32-5.22,6.7-7.65,10.19
		c-2.28-3.43-4.7-6.77-7.09-10.13C848.37,476.73,846.9,476.75,845.44,476.77 M724.36,504.38c3.23,2.46,7.91,0.71,9.3-2.95
		c-2.7599-1.42-3.03,3.02-5.69,2.5c-5.39,0.23-5.34-10.13,0.08-9.79c1.98-0.05,3.05,2.01,4.6,2.99c0.81-3.62-3.75-5.47-6.59-4.23
		C721.41,494.42,721.05,501.39,724.36,504.38 M738.41,493.12c-1.23,3.71-2.99,7.23-4.08,10.99c0.12,0.47,0.35,1.4,0.47,1.87
		c0.94-1.45,1.72-2.99,2.46-4.54c1.54,0.01,3.07,0.01,4.63,0.02c0.68,1.46,1.36,2.93,2.09,4.39c0.22-0.44,0.66-1.31,0.88-1.75
		c-1.1-3.81-2.96-7.35-4.32-11.07C740.01,493.05,738.94,493.1,738.41,493.12 M746.87,492.23c-0.42,4.33-0.19,8.69-0.19,13.03
		c2.63-0.03,5.27-0.02,7.92,0.03c-0.24-3-4.28-1.08-6.21-1.61c-0.12-3.39,0.2-6.79-0.06-10.17
		C747.96,493.19,747.24,492.55,746.87,492.23 M756.38,505.39c2.71-0.11,5.43-0.14,8.16-0.3c-1.2599-2.54-4.43-1.06-6.59-1.39
		c-0.06-3.6,0.21-7.21-0.15-10.8l-1.01-0.42C755.56,496.6,756.41,501.12,756.38,505.39z"/>
	<path fill="#F8FDFF" stroke="#F8FDFF" stroke-width="0.0938" d="M591.33,476.56c5.64-1.38,12.26,1.02,14.8,6.45
		c2.7,5.86,2.13,13.74-2.75,18.31c-5.35,4.72-14.62,4.13-18.95-1.68C578.81,492.24,581.42,478.69,591.33,476.56 M590.27,480.49
		c-5.03,2.54-5.47,9.12-4.43,14c1.23,5.33,7.73,8.46,12.64,5.97c5.84-2.77,6.48-10.77,4.17-16.09
		C600.64,479.79,594.54,478.11,590.27,480.49z"/>
	<path fill="#F5FDFF" stroke="#F5FDFF" stroke-width="0.0938" d="M647.18,479.19c6.04-5.36,17.34-3.37,19.52,5.01
		c-1.24,0.27-2.48,0.55-3.71,0.83c-1.48-6.15-10.01-7.45-13.89-2.87c-2.99,3.99-3.03,9.61-1.36,14.15
		c1.72,4.71,8.18,6.45,12.21,3.62c1.97-1.26,2.68-3.61,3.61-5.62c0.88,0.29,2.64,0.86,3.51,1.15c-0.98,2.91-2.45,5.86-5.22,7.44
		c-5.68,3.17-14.3,1.72-17.2-4.56C641.86,492.28,641.97,483.94,647.18,479.19z"/>
	<path fill="#F5FDFF" stroke="#F5FDFF" stroke-width="0.0938" d="M714.54,476.43c2.9901,0.38,7.21-1.18,9.14,1.89
		c0.56,1.85,0.34,4.9-2.04,5.25c-1.78,0.41-3.62,0.25-5.41,0.34c0,1.66,0,3.32,0.02,5c-0.44-0.03-1.32-0.1-1.76-0.13
		C714.54,484.66,714.51,480.54,714.54,476.43 M716.21,477.96c0.22,1.36-0.39,3.13,0.43,4.29c2.13,0.18,5.43,0.7,5.77-2.26
		C721.76,477.12,718.34,478.07,716.21,477.96z"/>
	<path fill="#F5FDFF" stroke="#F5FDFF" stroke-width="0.0938" d="M734.27,476.07c0.34,0.14,1.01,0.42,1.34,0.56
		c0.37,3.09,0.32,6.26,0.01,9.37c-0.95,4.66-9.64,4.12-9.43-0.9c0.04-3.16-0.87-6.75,0.98-9.55c1.27,3.86-0.21,8.08,1.52,11.84
		c1.53,0,3.07,0.01,4.61,0.01C734.56,483.74,734.03,479.85,734.27,476.07z"/>
	<path fill="#F5FDFF" stroke="#F5FDFF" stroke-width="0.0938" d="M738.41,476.45c2.64,0.23,5.7401-0.68,8.03,1.01
		c1.51,1.49,0.39,3.5-0.23,5.11c0.41,0.33,1.25,0.98,1.66,1.31c-0.03,1.77-0.15,4.08-2.19,4.72c-2.42,0.39-4.87,0.22-7.29,0.26
		C738.38,484.72,738.4,480.58,738.41,476.45 M740.19,477.87c-0.02,1.28-0.03,2.57-0.03,3.86c1.88-0.29,4.41,0.5,5.53-1.55
		C745.51,477.22,742.18,478.18,740.19,477.87 M740.21,483.11c-0.03,1.42-0.05,2.86-0.06,4.3c2.2-0.24,5.71,0.81,6.09-2.36
		C745.38,482.43,742.28,483.41,740.21,483.11z"/>
	<path fill="#F5FDFF" stroke="#F5FDFF" stroke-width="0.0938" d="M750.33,475.9c0.29,0.19,0.87,0.59,1.16,0.78
		c0.42,3.54,0.07,7.12,0.17,10.68c2.02,0.52,5.67-1.28,6.5,1.37c-2.75,0.12-5.49,0.12-8.23,0.14
		C750,484.54,749.61,480.19,750.33,475.9z"/>
	<path fill="#F5FDFF" stroke="#F5FDFF" stroke-width="0.0938" d="M768.95,489.12c-6.72-0.48-6.83-12.28-0.04-12.82
		c2.35-0.64,6.88,1.51,5.11,4.37c-1.73-2.46-4.6-3.86-7.35-2c-1.16,2.82-1.81,7.57,1.83,8.78c2.71,0.99,4.35-1.66,5.72-3.48
		C775.94,487.1,771.71,489.7,768.95,489.12z"/>
	<path fill="#F8FEFF" stroke="#F8FEFF" stroke-width="0.0938" d="M825.43,476.72c4.89-1.32,10.68-0.11,13.96,3.96
		c3.91,5.17,4.12,12.83,0.74,18.32c-4.24,6.56-14.66,7.32-20,1.73C813.54,493.79,815.5,479.47,825.43,476.72 M825.24,480.37
		c-5.33,2.61-5.83,9.64-4.42,14.71c1.52,5.35,8.47,7.94,13.17,4.99c5.09-2.97,5.5-10.02,3.71-15.05
		C836.01,480.12,829.72,478,825.24,480.37z"/>
	<path fill="#F8FEFF" stroke="#F8FEFF" stroke-width="0.0938" d="M557.35,503.86c0.02-9.05-0.04-18.11,0.03-27.16
		c5.36,0.3,10.84-0.59,16.1,0.67c5.92,1.93,6.26,11.22,1.15,14.27c-4.08,2.22-8.99,0.57-13.24,1.58c-1.12,3.18,0.14,7.2-0.57,10.7
		C559.65,503.89,558.5,503.87,557.35,503.86 M560.9,480.09c0.2599,3.07-0.63,6.63,0.44,9.4c3.37,0.15,6.85,0.38,10.17-0.33
		c3.85-1.16,3.83-7.48,0.14-8.78C568.12,479.62,564.47,480.07,560.9,480.09z"/>
	<path fill="#F8FFFF" stroke="#F8FFFF" stroke-width="0.0938" d="M612.18,476.78c0.86-0.05,2.59-0.14,3.45-0.18
		c0.35,8.05-0.1,16.12,0.24,24.18c4.44-0.14,8.89-0.04,13.34-0.1c-0.01,0.79-0.01,2.37-0.01,3.16c-5.67,0.31-11.35-0.08-17.03,0.06
		C612.14,494.86,612.15,485.82,612.18,476.78z"/>
	<path fill="#FBFDFF" stroke="#FBFDFF" stroke-width="0.0938" d="M634.14,476.72c0.86-0.02,2.57-0.04,3.42-0.05
		c0.17,9.05,0.01,18.11,0.09,27.16c-1.19,0.03-2.37,0.07-3.54,0.11C633.86,494.87,633.83,485.78,634.14,476.72z"/>
	<path fill="#F9FEFF" stroke="#F9FEFF" stroke-width="0.0938" d="M671.34,503.89c0.08-9.06-0.02-18.12,0.06-27.18
		c6.59,0.04,13.19,0,19.78,0.02c0,0.8,0,2.41,0,3.21c-5.35,0.08-10.7,0.02-16.05,0.06c0,2.75,0,5.5,0,8.25
		c4.99-0.01,9.99-0.01,14.99,0.01c-0.05,1.09-0.09,2.19-0.12,3.29c-4.95-0.08-9.9,0.02-14.85-0.05c-0.02,3.07-0.03,6.13-0.02,9.2
		c5.55,0.02,11.11,0,16.66,0.01c0,0.78,0.01,2.36,0.01,3.15C684.98,503.85,678.16,504.01,671.34,503.89z"/>
	<path fill="#E6FBFF" stroke="#E6FBFF" stroke-width="0.0938" d="M759.9,476.48l1.72-0.07c0.02,4.35,0.14,8.71-0.12,13.05
		l-1.49-0.91C759.66,484.54,759.99,480.5,759.9,476.48z"/>
	<path fill="#F8FEFF" stroke="#F8FEFF" stroke-width="0.0938" d="M792.11,476.75c5.25,0.35,10.89-1.03,15.87,1.11
		c4.39,2.45,4.22,9,0.08,11.63c5.83,1.91,6.03,10.79,0.7,13.35c-5.29,2.21-11.14,0.68-16.67,1.04
		C792.11,494.84,792.07,485.79,792.11,476.75 M795.68,480.01c-0.01,2.7-0.02,5.42,0,8.13c3.26-0.07,6.64,0.39,9.82-0.56
		c3.11-1.16,2.76-6.48-0.46-7.2C801.96,479.75,798.79,480.02,795.68,480.01 M795.68,491.45c-0.01,3.07-0.02,6.15,0,9.23
		c3.42-0.06,6.93,0.36,10.29-0.45c3.69-1.08,3.7401-7.12,0.07-8.22C802.68,491.04,799.12,491.52,795.68,491.45z"/>
	<path fill="#F8FEFF" stroke="#F8FEFF" stroke-width="0.0938" d="M845.44,476.77c1.46-0.02,2.93-0.04,4.42-0.05
		c2.39,3.36,4.81,6.7,7.09,10.13c2.43-3.49,5-6.87,7.65-10.19c0.9901,0.03,2.97,0.08,3.96,0.11c-3.25,4.18-6.27,8.54-9.53,12.71
		c3.28,4.87,6.85,9.56,10.18,14.4c-1.61-0.03-3.2-0.06-4.79-0.11c-2.55-3.71-4.95-7.54-7.82-11c-2.43,3.79-5.23,7.31-7.74,11.04
		c-1.57,0.02-3.13,0.04-4.67,0.08c3.57-4.64,6.99-9.4,10.52-14.06C851.69,485.43,848.52,481.12,845.44,476.77z"/>
	<path fill="#1337B9" stroke="#1337B9" stroke-width="0.0938" d="M716.21,477.96c2.13,0.11,5.55-0.84,6.2,2.03
		c-0.34,2.96-3.64,2.44-5.77,2.26C715.82,481.09,716.43,479.32,716.21,477.96z"/>
	<path fill="#1D38A9" stroke="#1D38A9" stroke-width="0.0938" d="M740.19,477.87c1.99,0.31,5.32-0.65,5.5,2.31
		c-1.12,2.05-3.65,1.26-5.53,1.55C740.16,480.44,740.17,479.15,740.19,477.87z"/>
	<path fill="#123BBC" stroke="#123BBC" stroke-width="0.0938" d="M560.9,480.09c3.5699-0.02,7.22-0.47,10.75,0.29
		c3.69,1.3,3.71,7.62-0.14,8.78c-3.32,0.71-6.8,0.48-10.17,0.33C560.27,486.72,561.16,483.16,560.9,480.09z"/>
	<path fill="#0F3BBE" stroke="#0F3BBE" stroke-width="0.0938" d="M590.27,480.49c4.27-2.38,10.37-0.7,12.38,3.88
		c2.31,5.32,1.67,13.32-4.17,16.09c-4.91,2.49-11.41-0.64-12.64-5.97C584.8,489.61,585.24,483.03,590.27,480.49z"/>
	<path fill="#0F3CBD" stroke="#0F3CBD" stroke-width="0.0938" d="M795.68,480.01c3.11,0.01,6.28-0.26,9.36,0.37
		c3.22,0.72,3.57,6.04,0.46,7.2c-3.18,0.95-6.56,0.49-9.82,0.56C795.66,485.43,795.67,482.71,795.68,480.01z"/>
	<path fill="#0F3BBF" stroke="#0F3BBF" stroke-width="0.0938" d="M825.24,480.37c4.48-2.37,10.77-0.25,12.46,4.65
		c1.79,5.03,1.38,12.08-3.71,15.05c-4.7,2.95-11.65,0.36-13.17-4.99C819.41,490.01,819.91,482.98,825.24,480.37z"/>
	<path fill="#1437AE" stroke="#1437AE" stroke-width="0.0938" d="M740.21,483.11c2.07,0.3,5.17-0.68,6.03,1.94
		c-0.38,3.17-3.89,2.12-6.09,2.36C740.16,485.97,740.18,484.53,740.21,483.11z"/>
	<path fill="#0C3BBE" stroke="#0C3BBE" stroke-width="0.0938" d="M795.68,491.45c3.44,0.07,7-0.41,10.36,0.56
		c3.67,1.1,3.62,7.14-0.07,8.22c-3.36,0.81-6.87,0.39-10.29,0.45C795.66,497.6,795.67,494.52,795.68,491.45z"/>
	<path fill="#F5FDFF" stroke="#F5FDFF" stroke-width="0.0938" d="M724.36,504.38c-3.31-2.99-2.95-9.96,1.7-11.48
		c2.84-1.24,7.4,0.61,6.59,4.23c-1.55-0.98-2.62-3.04-4.6-2.99c-5.42-0.34-5.47,10.02-0.08,9.79c2.66,0.52,2.9301-3.92,5.69-2.5
		C732.27,505.09,727.59,506.84,724.36,504.38z"/>
	<path fill="#F5FDFF" stroke="#F5FDFF" stroke-width="0.0938" d="M738.41,493.12c0.53-0.02,1.6-0.07,2.13-0.09
		c1.36,3.72,3.22,7.26,4.32,11.07c-0.22,0.44-0.66,1.31-0.88,1.75c-0.73-1.46-1.41-2.93-2.09-4.39c-1.56-0.01-3.09-0.01-4.63-0.02
		c-0.74,1.55-1.52,3.09-2.46,4.54c-0.12-0.47-0.35-1.4-0.47-1.87C735.42,500.35,737.18,496.83,738.41,493.12 M739.46,494.63
		c-0.65,1.82-1.3,3.65-1.93,5.49c1,0.02,3,0.05,4,0.07C740.85,498.32,740.17,496.47,739.46,494.63z"/>
	<path fill="#F5FDFF" stroke="#F5FDFF" stroke-width="0.0938" d="M746.87,492.23c0.37,0.32,1.09,0.96,1.46,1.28
		c0.26,3.38-0.06,6.78,0.06,10.17c1.93,0.53,5.97-1.39,6.21,1.61c-2.65-0.05-5.29-0.06-7.92-0.03
		C746.68,500.92,746.45,496.56,746.87,492.23z"/>
	<path fill="#F5FDFF" stroke="#F5FDFF" stroke-width="0.0938" d="M756.38,505.39c0.03-4.27-0.82-8.79,0.41-12.91l1.01,0.42
		c0.36,3.59,0.09,7.2,0.15,10.8c2.16,0.33,5.33-1.15,6.59,1.39C761.81,505.25,759.09,505.28,756.38,505.39z"/>
	<path fill="#1D38A9" stroke="#1D38A9" stroke-width="0.0938" d="M739.46,494.63c0.71,1.84,1.39,3.69,2.07,5.56
		c-1-0.02-3-0.05-4-0.07C738.16,498.28,738.81,496.45,739.46,494.63z"/>
	<path fill="#375CC6" stroke="#375CC6" stroke-width="0.0938" d="M532.72,512.84c0.26-0.45,0.79-1.35,1.0601-1.8
		c28.39,0.18,56.78-0.05,85.18,0.14c96.86-0.26,193.74,0.14,290.6-0.2c0.06,0.63,0.19,1.9,0.25,2.53
		c-7.25,1.18-14.53-0.02-21.81,0.3c-114.02-0.01-228.02,0.02-342.04-0.01c-4.47,0.2-9.03-0.57-13.41,0.6
		C532.59,514.01,532.68,513.23,532.72,512.84z"/>
	<path fill="#1B2141" stroke="#1B2141" stroke-width="0.0938" d="M428.2,533.23c4.61-0.43,9.23-0.4,13.85-0.13
		c36-0.42,72.02-0.04,108.03-0.2c50.3,0.02,100.6,0.08,150.9-0.01c8.33,0.16,16.66,0.4,25,0.02c89.57-0.02,179.17-0.02,268.73,0.05
		c-0.05,0.48-0.16,1.42-0.21,1.9c-0.61,5.35-0.27,10.74-0.33,16.12c-0.09,388.99,0.08,777.97-0.08,1166.9501
		c-3.09-0.0701-6.17-0.01-9.2401,0.0499c-0.81-0.77-1.63-1.49-2.31-2.3099c0.56-38.2001,0.08-76.4601,0.29-114.6801
		c-0.18-8.03,0.69-16.26-1.78-24.04c1.24-0.97,1.93-2.34,1.74-3.9099c-0.0099-14.5801-0.0099-29.15-0.02-43.7201
		c-0.59-0.1699-1.77-0.49-2.35-0.6499c3.45-6.74,2.23-14.4,2.37-21.67c0.02-105.67-0.0099-211.33,0.03-317
		c0.15-6.65-0.39-13.3101,0.36-19.9301c0.22-2.08,0.08-4.1599-0.17-6.2c-0.76-15.65,0.36-31.4-0.56-47.03
		c-0.3-0.61-0.59-1.2-0.87-1.7799c1.33-2.5701,1.08-5.4501,0.93-8.2201c0.59-22.6,0.16-45.23,0.3-67.84
		c-0.04-82.31,0.02-164.63-0.02-246.94c-0.24-7.82,0.7-15.63-0.11-23.43c0.18-15.72,0.13-31.43,0.04-47.15
		c-0.55-0.07-1.66-0.22-2.21-0.3c3.48-3.96,2.14-9.43,2.3-14.21c-0.06-41.66-0.02-83.3199,0-124.98c-0.06-3.98-0.6-7.92-1.1-11.85
		c0.53-0.07,1.61-0.21,2.15-0.28c0.02-10.34,0.12-20.68-0.14-31.01c-30.91-0.43-61.84-0.06-92.7599-0.18
		c-149.65,0-299.3-0.01-448.94,0.01c-3.53-0.82-3.02,3.12-3.18,5.37c-0.09,8.6-0.07,17.21,0.02,25.82c0.87,0.09,2.6,0.26,3.47,0.34
		c-0.31,0.37-0.95,1.09-1.26,1.46c-3.19-0.66-5.86-2.68-8.98-3.55c0.08-0.34,0.25-1.02,0.34-1.36c1.75-0.83,3.5-1.69,5.21-2.63
		c-1.46-1.61-3.32-2.69-5.47-2.99c-0.3-6.38-0.3-12.77-0.11-19.15c0.02-3.06,2.77-4.96,4.83-6.78
		C433.93,534.98,430.8,534.86,428.2,533.23z"/>
	<path fill="#00010B" stroke="#00010B" stroke-width="0.0938" d="M438.84,544.05c0.16-2.25-0.35-6.19,3.18-5.37
		c149.64-0.02,299.29-0.01,448.94-0.01c30.92,0.12,61.85-0.25,92.7599,0.18c0.26,10.33,0.16,20.67,0.14,31.01
		c-0.54,0.07-1.62,0.21-2.15,0.28c-78.79,0.26-157.58-0.11-236.37,0.18c0.35,43.91,0.0099,87.82,0.1299,131.74
		c0,217.33-0.0099,434.66,0,652.0001c-0.08,120.7699,0.14,241.5399-0.12,362.3099c-18.83,0.23-37.66,0.1-56.49,0.0601
		c0.32-0.4901,0.95-1.4901,1.26-1.9801c8.78,0.29,17.56,0.24,26.34,0.0601c-0.08-336.16,0-672.3201-0.04-1008.49
		c0.1-55.13-0.17-110.26,0.14-165.39c-21.84-0.49-43.7-0.09-65.55-0.22c-70.03-0.0099-140.06,0.02-210.09-0.0099
		c-0.64,9.22-0.27,18.5-0.2,27.74c23.44,0.49,46.9,0.09,70.34,0.22c59.52,0.03,119.04-0.04,178.55,0.04
		c0.09,1.35,0.2,2.71,0.31,4.0699c-0.41-0.3-1.22-0.91-1.63-1.21c-0.17-0.25-0.5099-0.76-0.69-1.02
		c-81.75-0.06-163.5099,0.01-245.27-0.03c-0.87-0.08-2.6-0.25-3.47-0.34C438.77,561.26,438.75,552.65,438.84,544.05 M718.28,540.46
		c-0.05,391.39-0.01,782.77-0.02,1174.1599c8.47-0.04,16.93,0.11,25.4,0.05c-0.02-382.01,0.06-764.03-0.03-1146.05
		c4.44-0.55,8.91-0.18,13.38-0.25c74.93-0.07,149.87,0.12,224.81-0.1c0.34-9.26,0.7-18.58,0-27.83
		C893.98,540.41,806.13,540.36,718.28,540.46z"/>
	<path fill="#14214D" stroke="#14214D" stroke-width="0.0938" d="M440.92,540.4c70.03,0.03,140.06,0,210.09,0.0099
		c21.85,0.13,43.71-0.27,65.55,0.22c-0.31,55.13-0.04,110.26-0.14,165.39c0.04,336.1699-0.04,672.33,0.04,1008.49
		c-8.78,0.1799-17.56,0.23-26.34-0.0601c-0.04-376.49,0-752.97-0.01-1129.45c-0.01-4.18,0.21-8.37-0.19-12.53
		c-0.11-1.36-0.22-2.72-0.31-4.0699c-59.51-0.08-119.03-0.01-178.55-0.04c-23.44-0.13-46.9,0.27-70.34-0.22
		C440.65,558.9,440.28,549.62,440.92,540.4z"/>
	<path fill="#14214D" stroke="#14214D" stroke-width="0.0938" d="M718.28,540.46c87.85-0.1,175.7-0.05,263.54-0.02
		c0.7,9.25,0.34,18.57,0,27.83c-74.94,0.22-149.88,0.03-224.81,0.1c-4.47,0.07-8.94-0.3-13.38,0.25
		c0.09,382.02,0.01,764.04,0.03,1146.05c-8.47,0.0599-16.93-0.0901-25.4-0.05C718.27,1323.23,718.23,931.85,718.28,540.46z"/>
	<path fill="#1A265A" stroke="#1A265A" stroke-width="0.0938" d="M442.33,570.21c81.76,0.04,163.52-0.03,245.27,0.03
		c0.1801,0.26,0.52,0.77,0.69,1.02c-0.88,17.55-0.18,35.14-0.4,52.71c0,348.34,0,696.6901,0,1045.03
		c0.11,15.66-0.21,31.3199,0.16,46.97l0.81,0.4601c18.83,0.0399,37.66,0.1699,56.49-0.0601c0.26-120.77,0.04-241.54,0.12-362.3099
		c-0.0099-217.3401,0-434.67,0-652.0001c-0.12-43.92,0.22-87.83-0.1299-131.74c78.79-0.29,157.58,0.08,236.37-0.18
		c0.5,3.93,1.04,7.87,1.1,11.85c-0.02,41.66-0.06,83.32,0,124.98c-0.16,4.78,1.18,10.25-2.3,14.21c-0.65,15.6-0.01,31.25-0.32,46.87
		c0.62,0.14,1.86,0.43,2.49,0.58c0.81,7.8-0.13,15.61,0.11,23.43c0.04,82.31-0.02,164.63,0.02,246.94
		c-0.14,22.61,0.29,45.24-0.3,67.84c0.15,2.77,0.4,5.65-0.93,8.2201c0.28,0.58,0.57,1.1699,0.87,1.7799
		c-0.47-0.12-1.41-0.38-1.88-0.51c-0.73,15.6901-0.2,31.4401-0.24,47.15c0.67,0.1,2.01,0.29,2.68,0.39c0.25,2.04,0.39,4.12,0.17,6.2
		c-0.75,6.62-0.21,13.28-0.36,19.9301c-0.04,105.67-0.01,211.33-0.03,317c-0.14,7.27,1.08,14.9301-2.37,21.67
		c-0.38,11.75-0.08,23.5199-0.17,35.2899c0.07,4.3301-0.51,8.77,0.8,12.99c2.47,7.78,1.6,16.01,1.78,24.04
		c-0.21,38.22,0.27,76.48-0.29,114.6801c0.68,0.8199,1.5,1.5399,2.31,2.3099c-181.48-0.14-362.95,0-544.4299-0.0599
		c0.29-1.65,0.6-3.3,0.73-4.9301c0.07-277.99-0.01-555.99,0.04-833.98c-0.12-102.45,0.17-204.9-0.12-307.34
		C441.38,571.3,442.02,570.58,442.33,570.21 M471.84,644.71c0.05,70.69-0.2,141.38,0.13,212.06c53.96-0.19,107.92-0.03,161.87-0.08
		c0.0099-70.66-0.01-141.32,0.0099-211.98C579.85,644.72,525.85,644.7,471.84,644.71 M797.88,644.7
		c0.04,70.67-0.13,141.35,0.09,212.03c53.97-0.07,107.94-0.04,161.91-0.02c0.01-70.66-0.02-141.32,0.01-211.9901
		C905.89,644.68,851.88,644.73,797.88,644.7 M802.15,921.05c-0.62,8.29-0.23,16.65-0.33,24.97c0.05,81.35-0.05,162.7,0.04,244.04
		c-0.35,2.1499,0.97,3.8899,3.06,4.34c0.24-0.37,0.71-1.1,0.95-1.47c23.02,0.36,46.05,0.0699,69.07,0.1599
		c25.32-0.0399,50.65,0.13,75.97-0.08v0.89c1.47-0.48,3.06-0.74,4.38-1.6c0.91-1.2301,0.81-2.8401,0.92-4.26
		c-0.03-88.6801-0.04-177.3701,0-266.05c-0.12-1.3-0.07-3.15-1.51-3.71c-13.14-2.0601-26.5-1.03-39.76-1.3
		c-16.63,0.35-33.27-0.3-49.89,0.22c-5.36,0.74-10.73-0.1-16.09-0.25c-12.32,0.14-24.66-0.16-36.96,0.63
		C808.58,917.76,802.78,916.23,802.15,921.05 M449.68,921.7c-0.75,6.06-0.13,12.2-0.32,18.29c0.01,77.58-0.02,155.16,0.01,232.75
		c0.75,0.17,2.24,0.51,2.99,0.6901l0.4-0.8101l0.06,1.38c52.06,0.12,104.13,0.03,156.2,0.0601c24.54-0.15,49.1,0.2999,73.63-0.1901
		c0.06-0.72,0.16-2.16,0.22-2.88l0.68-0.01c-0.75-4.9399-0.64-9.95-0.56-14.9299c-0.1-76.65,0.09-153.3201-0.06-229.96
		c-0.27-0.3701-0.81-1.1-1.08-1.47c1.46-0.63,1.1801-3.51-0.75-2.96c-65.71,0.04-131.41,0.02-197.12,0.02
		c-10.46,0.2-20.95-0.42-31.39,0.3l-0.24-0.69C451.68,921.4,450.35,921.6,449.68,921.7 M762.7,1108.33
		c1.48,2.49,4.91,3.63,7.44,1.9701c0.2,0.2699,0.59,0.8099,0.78,1.08c6.3-3.49,6.24-14.9-1.04-16.97l0.77,1.22
		c-1.2401-0.45-2.48-0.85-3.72-1.22C761.05,1095.97,759.86,1103.6899,762.7,1108.33 M760.65,1163.08c0.33,2.12,1.67,3.91,2.68,5.77
		c-2.12,19.66-1.91,39.5701,0.17,59.24c0.57,2.91-2.55,4.99-2.1,7.91c0.17,2.6899,2.29,4.71,4.58,5.86c2.25,4.16,9.5,1.53,9.8-2.87
		c1.03-4.04-3.1801-6.95-2.34-10.9399c1.66-19.03,1-38.17-0.6-57.17c2.06-3.0699,4.27-8.61,0.18-10.9301
		c-1.4-1.4299-2.79-3.4399-4.98-3.48C764.31,1155.99,760.44,1159.23,760.65,1163.08 M645.42,1229.92l0.02,0.7999
		c-59.59,0.0901-119.18,0-178.77,0.05c-0.34,35.39-0.04,70.7999-0.14,106.2c0,61.66,0,123.3301,0,184.99
		c0.26,8.04-0.53,16.16,0.31,24.16c2.14,1.41,3.28-1.29,2.82-3l1.14,0.05c-0.06,0.75-0.19,2.25-0.25,3.01
		c53.47,0.1799,106.96,0.0199,160.44,0.0699c4.95-0.11,9.94,0.4301,14.85-0.47c-0.2401-0.85-0.47-1.6801-0.7-2.49
		c1.15,0.0599,2.11,0.74,3.15,1.1899c-0.65-1.24-1.33-2.45-2.05-3.61c0.41-0.47,0.84-0.92,1.27-1.34c-1.35-1.1-2.75-2.14-4.2-3.0901
		c0.82-0.3099,1.65-0.61,2.49-0.8799c0.51-18.1901,0.06-36.41,0.23-54.6101c-0.09-77.6399,0.06-155.2799-0.07-232.9199
		c0.24-1.65-0.45-4.6801,1.97-4.8c2.35,0.9,4.46,2.5,7.01,2.8301c1.15-0.6101,1.43-1.4801,0.84-2.6101
		c-1.82-0.3999-3.67-0.5199-5.46-0.9399c-2.26-1.67-3.78-4.1-5.3-6.39C646.4,1234.25,648.12,1231.5,645.42,1229.92 M802.23,1245.15
		c0.19,3.2999-0.31,6.5699-0.46,9.87c0.12,74.64,0.03,149.2999,0.05,223.95c-0.07,29.79,0.19,59.6-0.19,89.38
		c-0.01,1.39,0.74,2.72,2.24,2.97c3.55,1.2401,7.39,0.8,11.08,0.8501c44.34-0.13,88.69,0.08,133.03-0.0901
		c2.63-0.2699,6.36,0.5701,7.76-2.39c0.93-3.1299,0.3-6.49,0.45-9.7c0.01-104.33-0.01-208.65,0.01-312.98
		c0.02-1.13,0.06-2.58-1.4-2.61c-6.24-0.9501-12.59-0.39-18.87-0.52c-42.68-0.0601-85.36,0.09-128.03-0.0699
		C805.91,1243.76,804.05,1244.46,802.23,1245.15z"/>
	<path fill="#000617" stroke="#000617" stroke-width="0.0938" d="M688.29,571.26c0.41,0.3,1.22,0.91,1.63,1.21
		c0.4,4.16,0.18,8.35,0.19,12.53c0.01,376.48-0.03,752.96,0.01,1129.45c-0.31,0.49-0.94,1.49-1.26,1.9801l-0.81-0.4601
		c-0.37-15.65-0.05-31.3099-0.16-46.97c0-348.34,0-696.69,0-1045.03C688.11,606.4,687.41,588.81,688.29,571.26z"/>
	<path fill="#FDFFFF" stroke="#FDFFFF" stroke-width="0.0938" d="M471.84,644.71c54.01-0.01,108.01,0.0099,162.01,0
		c-0.02,70.66,0,141.32-0.0099,211.98c-53.95,0.05-107.91-0.11-161.87,0.08C471.64,786.09,471.89,715.4,471.84,644.71
		 M476.85,649.56l0.68,1.05l-0.97-0.1c0.26,12.18,0.04,24.36,0.11,36.54c-0.07,54.88,0.14,109.75-0.1,164.62
		c6.13,0.38,12.29,0.09,18.43,0.18c44.67,0,89.34,0.01,134.01-0.0099c-0.16-67.44,0.07-134.88-0.16-202.33
		C578.19,649.65,527.52,649.56,476.85,649.56z"/>
	<path fill="#FCFFFF" stroke="#FCFFFF" stroke-width="0.0938" d="M797.88,644.7c54,0.03,108.01-0.02,162.01,0.02
		c-0.03,70.67,0,141.33-0.01,211.9901c-53.97-0.02-107.94-0.05-161.91,0.02C797.75,786.05,797.92,715.37,797.88,644.7
		 M802.71,649.57c-0.03,67.38,0.1,134.75-0.06,202.13c19.8,0.36,39.61,0.04,59.42,0.15c31.18-0.06,62.36,0.13,93.53-0.09l-0.77-0.44
		c0.63-8.41,0.1-16.87,0.28-25.29c0-47.66,0-95.32,0-142.9901c-0.18-11.18,0.36-22.39-0.3-33.56
		C904.11,649.7,853.41,649.51,802.71,649.57z"/>
	<path fill="#00000E" stroke="#00000E" stroke-width="0.0938" d="M476.85,649.56c50.67,0,101.34,0.09,152-0.05
		c0.23,67.45,0,134.89,0.16,202.33c-44.67,0.02-89.34,0.0099-134.01,0.0099c-6.14-0.09-12.3,0.2-18.43-0.18
		c1.19-0.61,2.4-1.19,3.63-1.72c48.67-0.13,97.34-0.02,146.01-0.05c0.03-65.59-0.01-131.17,0.03-196.75
		c0.57,0.9,1.15,1.81,1.74,2.74c-0.08-1.53-0.17-3.06-0.24-4.58c-20.57-0.85-41.16,0.29-61.73-0.42
		c-29.48,0.23-59.01,0.47-88.48-0.28L476.85,649.56z"/>
	<path fill="#000014" stroke="#000014" stroke-width="0.0938" d="M802.71,649.57c50.7-0.06,101.4,0.13,152.1-0.09
		c0.66,11.17,0.12,22.38,0.3,33.56c0,47.67,0,95.33,0,142.9901c-0.18,8.42,0.35,16.8799-0.28,25.29c-0.85-0.49-1.71-0.95-2.56-1.37
		c0-65.61,0.02-131.22-0.01-196.83c-48.67-0.01-97.34,0.01-146-0.01c0.02,65.63-0.06,131.25,0.04,196.88
		c-1.24,0.53-2.46,1.1-3.65,1.71C802.81,784.32,802.68,716.95,802.71,649.57z"/>
	<path fill="#00011B" stroke="#00011B" stroke-width="0.0938" d="M477.53,650.61c29.47,0.75,59,0.51,88.48,0.28
		c20.57,0.71,41.16-0.43,61.73,0.42c0.07,1.52,0.16,3.05,0.24,4.58c-0.59-0.93-1.17-1.84-1.74-2.74
		c-48.68-0.07-97.36-0.01-146.04-0.03c0.03,65.61,0.02,131.22,0,196.83c-1.23,0.53-2.44,1.11-3.63,1.72
		c0.24-54.87,0.03-109.74,0.1-164.62c-0.07-12.18,0.15-24.36-0.11-36.54L477.53,650.61z"/>
	<path fill="#FFFFFF" stroke="#FFFFFF" stroke-width="0.0938" d="M480.2,653.12c48.68,0.02,97.36-0.04,146.04,0.03
		c-0.04,65.58,0,131.16-0.03,196.75c-48.67,0.03-97.34-0.08-146.01,0.05C480.22,784.34,480.23,718.73,480.2,653.12 M489.11,666.88
		c-0.04,25.05-0.06,50.1,0,75.16c11.2,0.17,22.42,0.37,33.61-0.11c-0.17-23.99-0.09-47.98-0.02-71.96
		c-0.15-1.15,0.47-3.6299-1.55-3.23C510.47,666.78,499.78,666.56,489.11,666.88 M539.69,666.74c-0.11,25.15-0.08,50.31-0.02,75.46
		c9.68-0.19,19.37,0.3,29.04-0.29c-0.02-23.64-0.05-47.29,0.02-70.93c-0.24-1.35,0.38-3.08-0.61-4.15
		C558.65,666.59,549.16,666.79,539.69,666.74 M585.73,666.79c-0.07,25.15-0.18,50.31,0.02,75.47c10.21-0.16,20.42-0.09,30.63-0.04
		c0.44-4.37,0.23-8.77,0.26-13.14c0.03-20.7-0.06-41.39,0.03-62.07C606.38,666.4,596.04,666.84,585.73,666.79 M489.09,756.73
		c0.02,25.98-0.13,51.97,0.09,77.95c11.14-0.09,22.28,0.06,33.42-0.1c-0.1-26,0.37-52.03-0.23-78.01
		C511.28,756.76,500.18,756.53,489.09,756.73 M539.62,756.64c-0.05,25.93,0.12,51.86-0.08,77.79c9.69,0.49,19.41,0.1,29.12,0.2
		c-0.0699-26.01,0.31-52.04-0.2-78.04C558.85,756.76,549.23,756.61,539.62,756.64 M585.67,756.67c-0.12,25.92,0.19,51.84-0.13,77.76
		c10.35,0.51,20.72,0.09,31.09,0.2c-0.06-26,0.22-52.02-0.16-78.01C606.2,756.75,595.93,756.55,585.67,756.67z"/>
	<path fill="#FFFFFF" stroke="#FFFFFF" stroke-width="0.0938" d="M806.26,653.11c48.66,0.02,97.33,0,146,0.01
		c0.03,65.61,0.01,131.22,0.01,196.83c-48.66-0.06-97.32-0.15-145.97,0.04C806.2,784.36,806.28,718.74,806.26,653.11 M815.11,666.8
		c0,24.08-0.03,48.17-0.03,72.25c0.07,1.24-0.27,3.69,1.89,3.13c10.4901,0.07,21-0.14,31.5,0.1c0.54-5.07,0.09-10.17,0.23-15.26
		c-0.01-20.01-0.01-40.03,0.02-60.04C837.53,666.45,826.31,666.79,815.11,666.8 M865.69,666.78c0,25.12-0.1,50.25,0.04,75.37
		c9.67,0.0099,19.35,0.13,29.03-0.06c-0.04-25.05-0.07-50.1,0.05-75.14C885.12,666.45,875.39,666.82,865.69,666.78 M911.79,666.76
		c-0.18,25.13-0.16,50.27,0,75.4c10.31-0.06,20.63,0.21,30.93-0.12c-0.0699-25.02-0.08-50.05,0.01-75.07
		C932.43,666.43,922.1,666.85,911.79,666.76 M815.1,787.02c0.08,15.87-0.14,31.75,0.1,47.63c11.16,0,22.31,0.03,33.47-0.02
		c-0.1-26.01,0.31-52.05-0.19-78.05c-11.01,0.13-22.04,0.21-33.05-0.06C814.66,766.66,815.31,776.85,815.1,787.02 M865.7,756.64
		c0.09,26.02-0.34,52.07,0.24,78.07c9.58-0.19,19.16,0,28.74-0.08c0.1-15.55,0.04-31.09,0.05-46.63
		c-0.21-10.5,0.43-21.04-0.33-31.51C884.84,756.85,875.26,756.52,865.7,756.64 M911.77,756.7c-0.18,16.42-0.02,32.84-0.08,49.27
		c0.19,9.58-0.42,19.21,0.36,28.77c10.19-0.19,20.4-0.05,30.6-0.12c0.0699-14.85,0-29.71,0.04-44.57
		c-0.17-11.18,0.35-22.4-0.28-33.56C932.2,756.81,921.98,756.54,911.77,756.7z"/>
	<path fill="#C3CDD9" stroke="#C3CDD9" stroke-width="0.0938" d="M489.11,666.88c10.67-0.32,21.36-0.1,32.04-0.14
		c2.02-0.4,1.4,2.08,1.55,3.23c-0.07,23.98-0.15,47.97,0.02,71.96c-11.19,0.48-22.41,0.28-33.61,0.11
		C489.05,716.98,489.07,691.93,489.11,666.88z"/>
	<path fill="#C3CDD9" stroke="#C3CDD9" stroke-width="0.0938" d="M539.69,666.74c9.47,0.05,18.96-0.15,28.43,0.09
		c0.99,1.07,0.37,2.8,0.61,4.15c-0.07,23.64-0.04,47.29-0.02,70.93c-9.67,0.59-19.36,0.1-29.04,0.29
		C539.61,717.05,539.58,691.89,539.69,666.74z"/>
	<path fill="#C3CDD9" stroke="#C3CDD9" stroke-width="0.0938" d="M585.73,666.79c10.31,0.05,20.65-0.39,30.94,0.22
		c-0.09,20.68,0,41.37-0.03,62.07c-0.03,4.37,0.18,8.77-0.26,13.14c-10.21-0.05-20.42-0.12-30.63,0.04
		C585.55,717.1,585.66,691.94,585.73,666.79z"/>
	<path fill="#C3CDD9" stroke="#C3CDD9" stroke-width="0.0938" d="M815.11,666.8c11.2-0.01,22.42-0.35,33.61,0.18
		c-0.03,20.01-0.03,40.03-0.02,60.04c-0.14,5.09,0.31,10.19-0.23,15.26c-10.5-0.2401-21.0099-0.03-31.5-0.1
		c-2.16,0.56-1.8199-1.89-1.89-3.13C815.08,714.97,815.11,690.88,815.11,666.8z"/>
	<path fill="#C3CDD9" stroke="#C3CDD9" stroke-width="0.0938" d="M865.69,666.78c9.7,0.04,19.43-0.33,29.12,0.17
		c-0.12,25.04-0.09,50.09-0.05,75.14c-9.68,0.19-19.36,0.0699-29.03,0.06C865.59,717.03,865.69,691.9,865.69,666.78z"/>
	<path fill="#C3CDD9" stroke="#C3CDD9" stroke-width="0.0938" d="M911.79,666.76c10.31,0.09,20.64-0.33,30.94,0.21
		c-0.09,25.02-0.08,50.05-0.01,75.07c-10.3,0.33-20.62,0.06-30.93,0.12C911.63,717.03,911.61,691.89,911.79,666.76z"/>
	<path fill="#6C6354" stroke="#6C6354" stroke-width="0.0938" d="M980.51,721.18c0.55,0.08,1.66,0.23,2.21,0.3
		c0.09,15.72,0.14,31.43-0.04,47.15c-0.63-0.15-1.87-0.44-2.49-0.58C980.5,752.43,979.86,736.78,980.51,721.18z"/>
	<path fill="#C3CDD9" stroke="#C3CDD9" stroke-width="0.0938" d="M489.09,756.73c11.09-0.2,22.19,0.03,33.28-0.16
		c0.6,25.98,0.13,52.01,0.23,78.01c-11.14,0.16-22.28,0.01-33.42,0.1C488.96,808.7,489.11,782.71,489.09,756.73z"/>
	<path fill="#C3CDD9" stroke="#C3CDD9" stroke-width="0.0938" d="M539.62,756.64c9.61-0.03,19.23,0.12,28.84-0.05
		c0.5099,26,0.13,52.03,0.2,78.04c-9.71-0.1-19.43,0.29-29.12-0.2C539.74,808.5,539.57,782.57,539.62,756.64z"/>
	<path fill="#C3CDD9" stroke="#C3CDD9" stroke-width="0.0938" d="M585.67,756.67c10.26-0.12,20.53,0.08,30.8-0.05
		c0.38,25.99,0.1,52.01,0.16,78.01c-10.37-0.11-20.74,0.31-31.09-0.2C585.86,808.51,585.55,782.59,585.67,756.67z"/>
	<path fill="#C3CDD9" stroke="#C3CDD9" stroke-width="0.0938" d="M815.1,787.02c0.21-10.17-0.44-20.36,0.33-30.5
		c11.01,0.27,22.04,0.19,33.05,0.06c0.5,26,0.09,52.04,0.19,78.05c-11.16,0.05-22.31,0.02-33.47,0.02
		C814.96,818.77,815.18,802.89,815.1,787.02z"/>
	<path fill="#C3CDD9" stroke="#C3CDD9" stroke-width="0.0938" d="M865.7,756.64c9.56-0.12,19.14,0.21,28.7-0.15
		c0.7599,10.47,0.12,21.01,0.33,31.51c-0.01,15.54,0.05,31.08-0.05,46.63c-9.58,0.08-19.16-0.11-28.74,0.08
		C865.36,808.71,865.79,782.66,865.7,756.64z"/>
	<path fill="#C3CDD9" stroke="#C3CDD9" stroke-width="0.0938" d="M911.77,756.7c10.21-0.16,20.43,0.11,30.64-0.21
		c0.63,11.16,0.11,22.38,0.28,33.56c-0.04,14.86,0.03,29.72-0.04,44.57c-10.2,0.07-20.41-0.07-30.6,0.12
		c-0.78-9.56-0.17-19.19-0.36-28.77C911.75,789.54,911.59,773.12,911.77,756.7z"/>
	<path fill="#00010B" stroke="#00010B" stroke-width="0.0938" d="M802.65,851.7c1.19-0.61,2.41-1.18,3.65-1.71
		c48.65-0.19,97.31-0.1,145.97-0.04c0.85,0.42,1.71,0.88,2.56,1.37l0.77,0.44c-31.17,0.22-62.35,0.03-93.53,0.09
		C842.26,851.74,822.45,852.06,802.65,851.7z"/>
	<path fill="#1B2042" stroke="#1B2042" stroke-width="0.0938" d="M802.15,921.05c0.63-4.82,6.43-3.29,9.85-3.47
		c12.3-0.79,24.64-0.49,36.96-0.63c5.36,0.15,10.73,0.99,16.09,0.25c16.62-0.52,33.26,0.13,49.89-0.22
		c13.26,0.27,26.62-0.76,39.76,1.3c1.44,0.56,1.39,2.41,1.51,3.71c-0.04,88.68-0.03,177.37,0,266.05
		c-0.11,1.4199-0.01,3.0299-0.92,4.26c-1.32,0.86-2.91,1.12-4.38,1.6v-0.89c0-0.74,0-2.2,0-2.9301
		c0.34-53.01-0.02-106.0199,0.1801-159.0299c0.19-24.3701-0.29-48.73,0.0099-73.09c-0.17-11.08,0.39-22.17-0.58-33.22
		c0.05-0.99,0.14-1.97,0.25-2.93c-47.61-0.54-95.26-0.04-142.88-0.24c-2.51-0.3-1.77,2.87-2.07,4.41
		c0.06,77.34,0.02,154.6801,0.03,232.03c0.1801,10.53-0.42,21.09,0.36,31.6c0.73,0.14,2.2,0.4,2.94,0.53
		c-1.33,0.63-2.46,1.5699-3.28,2.79c-0.24,0.37-0.71,1.1-0.95,1.47c-2.09-0.4501-3.41-2.1901-3.06-4.34
		c-0.09-81.3401,0.01-162.6901-0.04-244.04C801.92,937.7,801.53,929.34,802.15,921.05z"/>
	<path fill="#000208" stroke="#000208" stroke-width="0.0938" d="M449.68,921.7c0.67-0.1,2-0.3,2.67-0.41
		c-0.05,84.05-0.07,168.09,0.01,252.1401c-0.75-0.1801-2.24-0.52-2.99-0.6901c-0.03-77.59,0-155.17-0.01-232.75
		C449.55,933.9,448.93,927.76,449.68,921.7z"/>
	<path fill="#142054" stroke="#142054" stroke-width="0.0938" d="M452.35,921.29l0.24,0.69c0.23,0.65,0.68,1.95,0.91,2.6
		c76.11,0.08,152.23,0.01,228.35,0.04c0.27,0.37,0.81,1.1,1.08,1.47c0.15,76.64-0.04,153.31,0.06,229.96
		c-0.08,4.98-0.19,9.99,0.56,14.9299l-0.68,0.01c-55.62,0.04-111.24,0.01-166.86,0.02c-20.85,0.13-41.71-0.25-62.55,0.1799
		c-0.18,0.3601-0.53,1.0801-0.7,1.4301l-0.4,0.8101C452.28,1089.38,452.3,1005.34,452.35,921.29 M494.39,963.53
		c0.2,53.41-0.04,106.8099,0.12,160.22l1.6-0.6801c-0.01,0.8401-0.03,2.52-0.04,3.3601c-0.56,0.0499-1.69,0.1599-2.25,0.22
		l1.09,1.47c3.29,0.64,6.67,0.24,10.01,0.3199c44.34,0.01,88.67-0.08,133.01,0.04c1.29-0.26,4.11,0.6901,4-1.52
		c0.74-6.2999-0.03-12.6599,0.33-18.98c-0.01-40.33-0.11-80.6699,0.02-121c-0.38-7.9,0.48-15.84-0.59-23.69
		c-36.22-0.13-72.44-0.04-108.66-0.05C520.15,963.43,507.24,962.78,494.39,963.53z"/>
	<path fill="#3B4875" stroke="#3B4875" stroke-width="0.0938" d="M452.59,921.98c10.44-0.72,20.93-0.1,31.39-0.3
		c65.71,0,131.41,0.02,197.12-0.02c1.9301-0.55,2.21,2.33,0.75,2.96c-76.12-0.03-152.24,0.04-228.35-0.04
		C453.27,923.93,452.82,922.63,452.59,921.98z"/>
	<path fill="#000109" stroke="#000109" stroke-width="0.0938" d="M805.82,925.98c0.3-1.54-0.44-4.71,2.07-4.41
		c47.62,0.2,95.27-0.3,142.88,0.24c-0.11,0.96-0.2,1.94-0.25,2.93c-28.5-0.3-57.01-0.05-85.51-0.14
		c-18.59,0.17-37.2-0.28-55.78,0.23c0,88.43,0.16,176.8799-0.08,265.31c-0.7401-0.13-2.21-0.39-2.94-0.53
		c-0.78-10.51-0.18-21.0699-0.36-31.6C805.84,1080.66,805.88,1003.32,805.82,925.98z"/>
	<path fill="#1A265A" stroke="#1A265A" stroke-width="0.0938" d="M809.23,924.83c18.58-0.51,37.19-0.06,55.78-0.23
		c28.5,0.09,57.01-0.16,85.51,0.14c0.97,11.05,0.41,22.14,0.58,33.22c-0.3,24.36,0.1801,48.72-0.0099,73.09
		c-0.2,53.01,0.16,106.0199-0.1801,159.0299c-47.25,0.28-94.5099,0.12-141.7599,0.0601C809.39,1101.71,809.23,1013.26,809.23,924.83
		z"/>
	<path fill="#00000E" stroke="#00000E" stroke-width="0.0938" d="M494.39,963.53c12.85-0.75,25.76-0.1,38.64-0.29
		c36.22,0.01,72.4399-0.08,108.66,0.05c1.07,7.85,0.21,15.79,0.59,23.69c-0.13,40.3301-0.03,80.67-0.02,121
		c-0.36,6.3201,0.41,12.6801-0.33,18.98c0.11,2.2101-2.71,1.26-4,1.52c-44.34-0.12-88.67-0.03-133.01-0.04
		c-3.34-0.08-6.72,0.3201-10.01-0.3199l-1.09-1.47c0.56-0.0601,1.69-0.17,2.25-0.22c48.17-0.05,96.35-0.02,144.53-0.01
		c-0.06-1.2001-0.11-2.38-0.17-3.5601c-0.18-4.76-0.72-9.59,0.2-14.2999c1.47-5.0801,0.5-10.39,0.76-15.5801
		c-0.22-9.0599,0.44-18.1699-0.33-27.1899l-0.46-1.76c-1.05-12.27,0.26-24.67-0.7-36.97c0.7599-1.6201,1.72-3.23,1.53-5.0801
		c-0.04-12.01-0.08-24.01,0.02-36.02c0.22-1.92-0.64-3.64-1.75-5.11c0.63-5.29,0.67-10.62,0.42-15.93
		c-32.68-0.36-65.37-0.06-98.05-0.16c-15.27,0.13-30.55-0.24-45.82,0.18c-0.06,52.71,0.22,105.43-0.14,158.1299l-1.6,0.6801
		C494.35,1070.34,494.59,1016.94,494.39,963.53z"/>
	<path fill="#13224B" stroke="#13224B" stroke-width="0.0938" d="M496.25,964.94c15.27-0.42,30.55-0.05,45.82-0.18
		c32.68,0.1,65.37-0.2,98.05,0.16c0.25,5.31,0.21,10.64-0.42,15.93c-1.41,5.62-0.82,11.4301-0.91,17.16
		c-0.0099,7.33,0.02,14.65-0.05,21.98c-0.07,2.4,0.51,4.76,1.16,7.0701c0.96,12.2999-0.35,24.7,0.7,36.97
		c-2.25,1.14-1.73,3.84-1.86,5.9199c0.09,12.38,0.04,24.76,0.04,37.14c0.46,0.37,1.3799,1.1,1.85,1.4701
		c-0.92,4.71-0.38,9.5399-0.2,14.2999c-22.79,0.49-45.59,0.05-68.38,0.1901c-25.31,0.0499-50.62-0.04-75.94,0.0199
		C496.47,1070.37,496.19,1017.65,496.25,964.94 M536.29,988.29c-1.0099,10.17-0.22,20.43-0.47,30.65c0,19.34,0,38.68,0,58.03
		c0.24,9.86-0.53,19.77,0.47,29.6c27.39-0.1699,54.8,0.3301,82.18-0.25c-0.18-39.23-0.24-78.46,0.03-117.6799
		c-1.52-0.17-3.03-0.32-4.54-0.33C588.07,988.28,562.18,988.31,536.29,988.29 M509.52,1020.31c-1.09,2.27,0.43,4.4901,0.95,6.68
		c0.09,5.6801-0.73,11.35-0.71,17.05c-0.36,8.97,0.87,17.9299,0.88,26.88c-1.66,2.95-1.47,6.76,1.68,8.59
		c1.95,3.3099,7.29,2.13,8.04-1.48c0.25-3.4401-2.15-6.55-1.56-10.03c1.19-12.65,0.51-25.39-0.39-38.03
		c0.15-2.77,3.39-7.73-0.5099-8.98c-0.52-0.87-1.03-1.71-1.56-2.54C513.97,1017.46,510.79,1017.83,509.52,1020.31z"/>
	<path fill="#69605B" stroke="#69605B" stroke-width="0.0938" d="M638.79,998.01c0.09-5.73-0.5-11.54,0.91-17.16
		c1.11,1.47,1.97,3.19,1.75,5.11c-0.1,12.0099-0.06,24.0099-0.02,36.02c0.19,1.85-0.77,3.46-1.53,5.0801
		c-0.65-2.3101-1.23-4.67-1.16-7.0701C638.81,1012.66,638.78,1005.34,638.79,998.01z"/>
	<path fill="#000102" stroke="#000102" stroke-width="0.0938" d="M536.29,988.29c25.89,0.02,51.78-0.0099,77.67,0.02
		c1.5099,0.01,3.02,0.16,4.54,0.33c-0.27,39.22-0.21,78.45-0.03,117.6799c-27.3799,0.5801-54.79,0.0801-82.18,0.25
		c-1-9.83-0.23-19.74-0.47-29.6c0-19.35,0-38.6899,0-58.03C536.07,1008.72,535.28,998.46,536.29,988.29 M539.18,991.47
		c-0.03,37.3101-0.02,74.63-0.01,111.9401c25.35-0.03,50.69,0.01,76.04-0.02c0-37.29-0.02-74.59,0.0099-111.88
		C589.87,991.41,564.53,991.49,539.18,991.47z"/>
	<path fill="#FFFFFF" stroke="#FFFFFF" stroke-width="0.0938" d="M539.18,991.47c25.35,0.02,50.69-0.06,76.04,0.04
		c-0.03,37.29-0.0099,74.59-0.0099,111.88c-25.35,0.03-50.69-0.01-76.04,0.02C539.16,1066.1,539.15,1028.78,539.18,991.47z"/>
	<path fill="#766245" stroke="#766245" stroke-width="0.0938" d="M509.52,1020.31c1.27-2.48,4.45-2.85,6.82-1.86
		c0.53,0.83,1.04,1.67,1.56,2.54c0.19,3.0701-1.96,5.76-1.44,8.86c1.18,13.37,1.18,26.8201,0.18,40.2101
		c1.04,2.0599,2.71,4.4399,1.53,6.83c-0.86,2.4299-3.73,2.46-5.85,2.62c-3.15-1.83-3.34-5.64-1.68-8.59
		c-0.01-8.9501-1.24-17.91-0.88-26.88c-0.02-5.7001,0.8-11.37,0.71-17.05C509.95,1024.8,508.43,1022.58,509.52,1020.31z"/>
	<path fill="#030000" stroke="#030000" stroke-width="0.0938" d="M517.9,1020.99c3.9,1.25,0.66,6.21,0.5099,8.98
		c0.9,12.64,1.58,25.38,0.39,38.03c-0.59,3.48,1.81,6.59,1.56,10.03c-0.75,3.61-6.09,4.7899-8.04,1.48
		c2.12-0.16,4.99-0.1901,5.85-2.62c1.18-2.39-0.49-4.77-1.53-6.83c1-13.39,1-26.8401-0.18-40.2101
		C515.94,1026.75,518.09,1024.0601,517.9,1020.99z"/>
	<path fill="#6F625A" stroke="#6F625A" stroke-width="0.0938" d="M638.74,1069.95c0.13-2.08-0.39-4.7799,1.86-5.9199l0.46,1.76
		c0.77,9.02,0.11,18.13,0.33,27.1899c-0.26,5.1901,0.71,10.5-0.76,15.5801c-0.47-0.3701-1.39-1.1001-1.85-1.4701
		C638.78,1094.71,638.83,1082.33,638.74,1069.95z"/>
	<path fill="#726447" stroke="#726447" stroke-width="0.0938" d="M762.7,1108.33c-2.84-4.64-1.65-12.36,4.23-13.9199
		c1.24,0.37,2.48,0.77,3.72,1.22c3.63,4.11,3.95,11.01-0.51,14.67C767.61,1111.96,764.18,1110.8199,762.7,1108.33 M765.99,1100.9301
		c-0.48,2.3199,0.22,4.6399,0.78,6.8999c3.12-1.85,2.42-6.76,0.98-9.6C766.05,1097.9399,766.27,1099.8199,765.99,1100.9301z"/>
	<path fill="#000109" stroke="#000109" stroke-width="0.0938" d="M769.88,1094.41c7.28,2.0699,7.34,13.48,1.04,16.97
		c-0.19-0.27-0.58-0.8101-0.78-1.08c4.46-3.66,4.14-10.5601,0.51-14.67L769.88,1094.41z"/>
	<path fill="#0A0000" stroke="#0A0000" stroke-width="0.0938" d="M765.99,1100.9301c0.28-1.1101,0.06-2.9901,1.76-2.7001
		c1.44,2.84,2.14,7.75-0.98,9.6C766.21,1105.5699,765.51,1103.25,765.99,1100.9301z"/>
	<path fill="#6C6354" stroke="#6C6354" stroke-width="0.0938" d="M980.33,1163.48c0.04-15.71-0.49-31.46,0.24-47.15
		c0.47,0.13,1.41,0.39,1.88,0.51c0.92,15.63-0.2,31.38,0.56,47.03C982.34,1163.77,981,1163.58,980.33,1163.48z"/>
	<path fill="#3B446A" stroke="#3B446A" stroke-width="0.0938" d="M496.11,1123.0699c25.32-0.0599,50.63,0.03,75.94-0.0199
		c22.79-0.14,45.59,0.2999,68.38-0.1901c0.06,1.1801,0.11,2.36,0.17,3.5601c-48.18-0.01-96.36-0.04-144.53,0.01
		C496.08,1125.59,496.1,1123.91,496.11,1123.0699z"/>
	<path fill="#766245" stroke="#766245" stroke-width="0.0938" d="M760.65,1163.08c-0.21-3.85,3.66-7.09,7.39-6.61
		c2.19,0.04,3.58,2.05,4.98,3.48c0.63,3.2201-0.15,6.4701-2.3,8.9801c2.03,19.97,2.34,40.13,0.54,60.13
		c2.05,2.6899,3.46,6.21,2.24,9.59c-1.44,2.6799-4.69,3.5499-7.52,3.21c-2.29-1.15-4.41-3.17-4.58-5.86c-0.45-2.92,2.67-5,2.1-7.91
		c-2.08-19.6699-2.29-39.58-0.17-59.24C762.32,1166.99,760.98,1165.2,760.65,1163.08z"/>
	<path fill="#000104" stroke="#000104" stroke-width="0.0938" d="M773.02,1159.95c4.09,2.3201,1.88,7.8601-0.18,10.9301
		c1.6,19,2.2599,38.14,0.6,57.17c-0.84,3.99,3.37,6.8999,2.34,10.9399c-0.3,4.4-7.55,7.03-9.8,2.87c2.83,0.34,6.08-0.53,7.52-3.21
		c1.22-3.38-0.19-6.9-2.24-9.59c1.8-20,1.49-40.16-0.54-60.13C772.87,1166.42,773.65,1163.17,773.02,1159.95z"/>
	<path fill="#384572" stroke="#384572" stroke-width="0.0938" d="M453.46,1171.1899c20.84-0.4299,41.7-0.0499,62.55-0.1799
		c55.62-0.01,111.24,0.02,166.86-0.02c-0.06,0.72-0.16,2.16-0.22,2.88c-24.53,0.49-49.09,0.04-73.63,0.1901
		c-52.07-0.03-104.14,0.0599-156.2-0.0601l-0.06-1.38C452.93,1172.27,453.28,1171.55,453.46,1171.1899z"/>
	<path fill="#3D4876" stroke="#3D4876" stroke-width="0.0938" d="M809.15,1190.14c47.25,0.0599,94.5099,0.22,141.7599-0.0601
		c0,0.7301,0,2.1901,0,2.9301c-25.3199,0.21-50.65,0.04-75.97,0.08c-23.02-0.09-46.05,0.2001-69.07-0.1599
		C806.69,1191.71,807.82,1190.77,809.15,1190.14z"/>
	<path fill="#182456" stroke="#182456" stroke-width="0.0938" d="M645.42,1229.92c2.7,1.58,0.98,4.33-0.4,6.2
		c1.52,2.29,3.04,4.72,5.3,6.39c1.79,0.42,3.64,0.54,5.46,0.9399c0.59,1.13,0.31,2-0.84,2.6101
		c-2.55-0.3301-4.66-1.9301-7.01-2.8301c-2.42,0.12-1.73,3.15-1.97,4.8c0.13,77.64-0.02,155.28,0.07,232.9199
		c-0.17,18.2001,0.28,36.42-0.23,54.6101c-0.84,0.2699-1.67,0.5699-2.49,0.8799c1.45,0.9501,2.85,1.9901,4.2,3.0901
		c-0.43,0.4199-0.86,0.87-1.27,1.34c0.72,1.16,1.4,2.37,2.05,3.61c-1.04-0.45-2-1.13-3.15-1.1899
		c-52.06,0.12-104.12,0.0299-156.18,0.0599c-6.05-0.0599-12.11,0.11-18.16-0.1799l-1.14-0.05c0.06-13.36-0.01-26.71,0.03-40.0699
		c0.09-6.4801-0.3-12.99,0.41-19.4401c0.67-0.17,2-0.52,2.67-0.6899c0.16-14.28,0.06-28.5701,0.06-42.8501
		c-0.7-0.12-2.1-0.36-2.8-0.48c-0.76-10.1899-0.17-20.4099-0.35-30.61c-0.02-30,0.04-59.99-0.02-89.98c0.03-2.2,0.18-4.38,0.35-6.55
		c0.94-0.09,1.89-0.1499,2.83-0.22c0-14.27,0.05-28.53-0.03-42.7999c-0.68-0.2101-2.03-0.65-2.71-0.8601
		c-0.82-11.45-0.41-22.95-0.27-34.4099c54.37-0.27,108.74,0.15,163.11-0.13c4.21,0.11,8.43,0.22,12.61-0.38
		c-0.05-0.99-0.08-1.97-0.11-2.9301L645.42,1229.92 M509.61,1268.4399c-4.46,0.13-8.95-0.86-13.43-0.24
		c-0.65,2.2301-1.29,4.4801-1.36,6.8301c0.14,76.01,0.03,152.02,0.06,228.03c0.01,2,0.62,3.9399,1.26,5.85
		c34.94,0.49,69.9,0.02,104.85,0.26c2.13-0.0801,4.41,0.13,6.4-0.8c1.37-3.24,0.49-6.89,0.61-10.29
		c0.12-73.13-0.06-146.2699,0.11-219.4099c0.49-0.0901,1.48-0.28,1.97-0.38c-0.12-0.3101-0.38-0.9301-0.51-1.23
		c0.36-0.4501,1.08-1.3401,1.45-1.79c2.5-0.12,1.69-2.85,1.72-4.55c0.11-1.78-1.41-3.97-3.36-3.33
		c-6.81,1.14-13.74,0.8199-20.58,0.1899c-10.58-0.4299-21.23-1.0299-31.77,0.3401c-6.67,0.21-13.34-0.03-20.01,0.0699
		C527.88,1268.41,518.55,1265.42,509.61,1268.4399z"/>
	<path fill="#00010B" stroke="#00010B" stroke-width="0.0938" d="M466.67,1230.77c59.59-0.05,119.18,0.04,178.77-0.05
		c0.03,0.9601,0.06,1.9401,0.11,2.9301c-4.18,0.6-8.4,0.49-12.61,0.38c-54.37,0.28-108.74-0.14-163.11,0.13
		c-0.14,11.46-0.55,22.96,0.27,34.4099c0.18,14.6101,0.36,29.26-0.09,43.88c-0.17,2.17-0.32,4.3501-0.35,6.55
		c0.06,29.99,0,59.98,0.02,89.98c0.18,10.2001-0.41,20.42,0.35,30.61c0.4,14.66,0.26,29.35,0.07,44.02
		c-0.71,6.4501-0.32,12.96-0.41,19.4401c-0.04,13.36,0.03,26.71-0.03,40.0699c0.46,1.71-0.68,4.41-2.82,3
		c-0.84-8-0.05-16.12-0.31-24.16c0-61.6599,0-123.33,0-184.99C466.63,1301.5699,466.33,1266.16,466.67,1230.77z"/>
	<path fill="#1A2142" stroke="#1A2142" stroke-width="0.0938" d="M802.23,1245.15c1.82-0.6901,3.68-1.39,5.67-1.34
		c42.67,0.1599,85.35,0.0099,128.03,0.0699c6.28,0.13,12.63-0.4301,18.87,0.52c1.46,0.03,1.42,1.48,1.4,2.61
		c-0.02,104.33,0,208.65-0.01,312.98c-0.15,3.21,0.48,6.5701-0.45,9.7c-1.4,2.9601-5.13,2.1201-7.76,2.39
		c-44.34,0.17-88.69-0.0399-133.03,0.0901c-3.69-0.05-7.53,0.39-11.08-0.8501c-1.5-0.25-2.25-1.58-2.24-2.97
		c0.38-29.78,0.12-59.59,0.19-89.38c-0.02-74.65,0.07-149.3099-0.05-223.95C801.92,1251.72,802.42,1248.45,802.23,1245.15
		 M806.15,1247.91c-0.65,47.02-0.14,94.0699-0.3,141.1c0.1,58.37-0.22,116.74,0.17,175.1c0.8,0.0601,2.39,0.16,3.19,0.22
		c-0.83,0.87-1.67,1.7301-2.47,2.65c6.4,0.71,12.86,0.16,19.3,0.3301c41.61-0.14,83.25,0.2799,124.85-0.2001
		c-0.03-0.73-0.1-2.1899-0.13-2.92c0.75-8.37,0.09-16.7999,0.36-25.1899c-0.18-83.66-0.14-167.3101-0.02-250.97
		c0.12-12.39-0.63-24.8,0.41-37.17l-0.74-0.02c0.03-0.7,0.1-2.1,0.13-2.7999c-17.97-0.54-35.96-0.0801-53.94-0.23
		C866.69,1247.87,836.41,1247.6801,806.15,1247.91z"/>
	<path fill="#000109" stroke="#000109" stroke-width="0.0938" d="M806.15,1247.91c30.2599-0.23,60.54-0.04,90.81-0.1
		c17.98,0.1499,35.97-0.3101,53.94,0.23c-0.03,0.7-0.1,2.1-0.13,2.7999c-29.91-0.2-59.82-0.0499-89.73-0.09
		c-17.25,0.1801-34.52-0.38-51.75,0.29c-0.1,104.4299,0.06,208.86-0.08,313.2899c-0.8-0.0599-2.39-0.1599-3.19-0.22
		c-0.39-58.36-0.07-116.73-0.17-175.1C806.01,1341.98,805.5,1294.9301,806.15,1247.91z"/>
	<path fill="#1A265A" stroke="#1A265A" stroke-width="0.0938" d="M809.29,1251.04c17.23-0.67,34.5-0.11,51.75-0.29
		c29.91,0.04,59.82-0.11,89.73,0.09l0.74,0.02c-1.04,12.37-0.29,24.78-0.41,37.17c-0.12,83.6599-0.16,167.3099,0.02,250.97
		c-0.27,8.39,0.39,16.8199-0.36,25.1899c-47.18,0.3301-94.37,0.0801-141.55,0.14C809.35,1459.9,809.19,1355.47,809.29,1251.04z"/>
	<path fill="#1A2143" stroke="#1A2143" stroke-width="0.0938" d="M509.61,1268.4399c8.94-3.0199,18.27-0.0299,27.41-0.45
		c6.67-0.1,13.34,0.14,20.01-0.0699c10.54-1.37,21.1899-0.77,31.77-0.3401c6.84,0.63,13.77,0.9501,20.58-0.1899
		c1.95-0.64,3.47,1.5499,3.36,3.33c-0.03,1.7001,0.78,4.4301-1.72,4.55c0.01-2.16-0.11-4.3-0.23-6.4301
		c-0.59,0.0901-1.78,0.26-2.37,0.35c-0.05,2.65-0.23,5.4501,1.15,7.8701c0.13,0.2999,0.39,0.9199,0.51,1.23
		c-0.49,0.1-1.48,0.2899-1.97,0.38c-0.17,73.14,0.01,146.2799-0.11,219.4099c-0.12,3.4,0.76,7.05-0.61,10.29
		c-1.99,0.9301-4.27,0.72-6.4,0.8c-34.95-0.24-69.91,0.23-104.85-0.26c-0.64-1.91-1.25-3.85-1.26-5.85
		c-0.03-76.01,0.08-152.02-0.06-228.03c0.07-2.35,0.71-4.6,1.36-6.8301C500.66,1267.58,505.15,1268.5699,509.61,1268.4399
		 M499.34,1273.27c-0.27,76.1899-0.04,152.38-0.06,228.5699c0.26,0.91,0.52,1.8401,0.8,2.79c34.24-0.02,68.48-0.02,102.72,0
		c0.05-0.72,0.16-2.17,0.22-2.89c1.88-5.88-0.7-11.8-0.18-17.76c0.0699-66.3099,0-132.62,0.06-198.9299
		c-0.28-2.53,1.92-6.3401-1.31-7.67c-4.1801-0.63-8.44-0.34-12.65-0.4301c-26.65,0.3-53.33-0.88-79.96,0.4601
		c-1.87,0.01-3.61-0.77-5.41-1.12c4.79-0.73,9.63-0.3501,14.45-0.39c28.27-0.12,56.54,0.0699,84.81-0.0801
		c0-0.6599-0.01-1.98-0.02-2.6399c-5.24-0.5901-10.52-0.26-15.78-0.3201c-18.67,0-37.34-0.03-56.01-0.01
		C520.46,1273.09,509.87,1272.36,499.34,1273.27z"/>
	<path fill="#6F625A" stroke="#6F625A" stroke-width="0.0938" d="M470.1,1268.5699c0.68,0.2101,2.03,0.65,2.71,0.8601
		c0.08,14.2699,0.03,28.5299,0.03,42.7999c-0.94,0.0701-1.89,0.13-2.83,0.22C470.46,1297.83,470.28,1283.1801,470.1,1268.5699z"/>
	<path fill="#6C6563" stroke="#6C6563" stroke-width="0.0938" d="M608.42,1269.1899c0.59-0.09,1.78-0.2599,2.37-0.35
		c0.12,2.13,0.2401,4.27,0.23,6.4301c-0.37,0.45-1.09,1.34-1.45,1.79C608.19,1274.64,608.37,1271.84,608.42,1269.1899z"/>
	<path fill="#000105" stroke="#000105" stroke-width="0.0938" d="M499.34,1273.27c10.53-0.91,21.12-0.1801,31.68-0.42
		c18.67-0.02,37.34,0.01,56.01,0.01c5.2599,0.0601,10.54-0.27,15.78,0.3201c0.01,0.6599,0.02,1.98,0.02,2.6399
		c-28.27,0.15-56.54-0.0399-84.81,0.0801c-4.82,0.0399-9.66-0.34-14.45,0.39c-0.31,0.01-0.93,0.0299-1.24,0.0399
		c-0.15,75.16,0.19,150.3201-0.15,225.4801c-0.73,0.0099-2.18,0.0199-2.9,0.0299C499.3,1425.65,499.07,1349.46,499.34,1273.27z"/>
	<path fill="#182456" stroke="#182456" stroke-width="0.0938" d="M502.33,1276.33c0.31-0.01,0.93-0.0299,1.24-0.0399
		c1.8,0.35,3.54,1.13,5.41,1.12c26.63-1.3401,53.31-0.16,79.96-0.4601c4.21,0.0901,8.47-0.2,12.65,0.4301
		c3.23,1.33,1.03,5.14,1.31,7.67c-0.06,66.3099,0.0099,132.62-0.06,198.9299c-0.52,5.96,2.06,11.88,0.18,17.76
		c-33.62,0.17-67.23,0.02-100.84,0.0701C502.52,1426.65,502.18,1351.49,502.33,1276.33 M525.93,1359.95
		c-0.59,2.9701-0.23,6.02-0.29,9.04c-0.02,15,0.1,30.01-0.04,45.01c-0.0699,1.5601,0.35,3,1.26,4.33
		c1.73-0.8199,1.56-2.6699,1.72-4.1799c0.34,1.71,1.71,2.58,3.44,2.25c15-0.0701,30.01-0.01,45.02-0.03
		c1.47,0.04,2.7401-0.46,3.81-1.49c-1.19-0.61-2.44-0.92-3.74-0.95c4.46-3.3301,3.03-9.13,3.18-13.92
		c0.11-12.63-0.22-25.26,0.17-37.87c-0.19-0.65-0.57-1.9401-0.77-2.59c-16.53-0.2301-33.09,0.0199-49.63-0.12
		C528.68,1359.5,527.19,1359.26,525.93,1359.95z"/>
	<path fill="#000104" stroke="#000104" stroke-width="0.0938" d="M525.93,1359.95c1.26-0.6899,2.75-0.45,4.13-0.5199
		c16.54,0.1399,33.1-0.1101,49.63,0.12c0.2,0.6499,0.58,1.9399,0.77,2.59c-17.22-0.04-34.45-0.08-51.67,0.04
		c-0.22,17.3199,0.2,34.6499-0.21,51.97c-0.16,1.51,0.01,3.36-1.72,4.1799c-0.91-1.33-1.33-2.7699-1.26-4.33
		c0.14-15,0.02-30.01,0.04-45.01C525.7,1365.97,525.34,1362.92,525.93,1359.95z"/>
	<path fill="#2B2B2B" stroke="#2B2B2B" stroke-width="0.0938" d="M528.79,1362.1801c17.22-0.12,34.45-0.0801,51.67-0.04
		c-0.39,12.61-0.06,25.24-0.17,37.87c-0.15,4.79,1.28,10.59-3.18,13.92c-16.18,0.5499-32.36-0.3501-48.53,0.22
		C528.99,1396.83,528.57,1379.5,528.79,1362.1801z"/>
	<path fill="#3F456B" stroke="#3F456B" stroke-width="0.0938" d="M528.58,1414.15c16.17-0.5701,32.35,0.33,48.53-0.22
		c1.3,0.0299,2.55,0.34,3.74,0.95c-1.0699,1.03-2.34,1.53-3.81,1.49c-15.0099,0.02-30.02-0.04-45.02,0.03
		C530.29,1416.73,528.92,1415.86,528.58,1414.15z"/>
	<path fill="#6F625A" stroke="#6F625A" stroke-width="0.0938" d="M470.03,1439.59c0.7,0.12,2.1,0.36,2.8,0.48
		c0,14.28,0.1,28.5701-0.06,42.8501c-0.67,0.1699-2,0.5199-2.67,0.6899C470.29,1468.9399,470.43,1454.25,470.03,1439.59z"/>
	<path fill="#3D466F" stroke="#3D466F" stroke-width="0.0938" d="M499.28,1501.84c0.72-0.01,2.17-0.02,2.9-0.0299
		c33.61-0.05,67.22,0.1,100.84-0.0701c-0.06,0.72-0.17,2.17-0.22,2.89c-34.24-0.02-68.48-0.02-102.72,0
		C499.8,1503.6801,499.54,1502.75,499.28,1501.84z"/>
	<path fill="#6C6354" stroke="#6C6354" stroke-width="0.0938" d="M980.42,1528.67c0.58,0.1599,1.76,0.48,2.35,0.6499
		c0.01,14.5701,0.01,29.14,0.02,43.7201c0.19,1.5699-0.5,2.9399-1.74,3.9099c-1.31-4.22-0.73-8.6599-0.8-12.99
		C980.34,1552.1899,980.04,1540.42,980.42,1528.67z"/>
	<path fill="#3D4876" stroke="#3D4876" stroke-width="0.0938" d="M470.8,1543.17c6.05,0.2899,12.11,0.12,18.16,0.1799
		c52.06-0.03,104.12,0.0601,156.18-0.0599c0.23,0.8099,0.46,1.64,0.7,2.49c-4.91,0.9-9.9,0.36-14.85,0.47
		c-53.48-0.05-106.97,0.11-160.44-0.0699C470.61,1545.42,470.74,1543.92,470.8,1543.17z"/>
	<path fill="#3E4976" stroke="#3E4976" stroke-width="0.0938" d="M809.21,1564.33c47.18-0.0599,94.37,0.1901,141.55-0.14
		c0.03,0.7301,0.1,2.1901,0.13,2.92c-41.6,0.48-83.24,0.0601-124.85,0.2001c-6.44-0.17-12.9,0.3799-19.3-0.3301
		C807.54,1566.0601,808.38,1565.2,809.21,1564.33z"/>
	<path fill="#3E4976" stroke="#3E4976" stroke-width="0.0938" d="M343.85,1718.09c28.59-0.0699,57.18,0.12,85.76-0.1799
		c3.6-0.0701,7.21-0.03,10.81,0.01c181.48,0.0599,362.95-0.0801,544.4299,0.0599c3.07-0.0599,6.15-0.12,9.2401-0.0499
		c26.95,0.2899,53.92,0.1599,80.8699,0.0299c1.9501-0.09,3.8101,0.64,5.4301,1.7201c2.28,9.0699,7.85,16.72,11.75,25.0699
		c0.87,3.78,2.09,7.47,3.38,11.15c-256.03-0.1-512.05,0.0399-768.08-0.0701C330.72,1742.3199,341.39,1731.87,343.85,1718.09z"/>
	<path fill="#172451" stroke="#172451" stroke-width="0.0938" d="M1092.14,1744.75c4.87,8.58,6.15,18.5699,6.9399,28.25
		c1.4,17.6-0.73,35.1899-2.34,52.6899c-256.44,4.5701-512.97,4.6101-769.41-0.0099c-2.16-23.1801-4.91-46.8301,0.11-69.8501
		c256.03,0.11,512.05-0.0299,768.08,0.0701C1094.23,1752.22,1093.01,1748.53,1092.14,1744.75z"/>
</g>
</svg>
