<?xml version="1.0"?>
<svg
    xmlns:rdf="http://www.w3.org/1999/02/22-rdf-syntax-ns#"
    xmlns="http://www.w3.org/2000/svg"
    xmlns:cc="http://creativecommons.org/ns#"
    xmlns:xlink="http://www.w3.org/1999/xlink"
    xmlns:dc="http://purl.org/dc/elements/1.1/"
    xmlns:svg="http://www.w3.org/2000/svg"
    xmlns:inkscape="http://www.inkscape.org/namespaces/inkscape"
    xmlns:sodipodi="http://sodipodi.sourceforge.net/DTD/sodipodi-0.dtd"
    xmlns:ns1="http://sozi.baierouge.fr"
    id="svg2"
    viewBox="0 0 500 300"
    version="1.1"
  >
  <g
      id="layer1"
      transform="translate(0 -752.36)"
    >
    <rect
        id="rect2985"
        ry="0"
        height="290.24"
        width="490.24"
        stroke="#006100"
        y="757.24"
        x="4.8823"
        stroke-width="9.7646"
        fill="#008000"
    />
    <g
        id="flowRoot3755"
        transform="matrix(1.0242 0 0 1.0187 43.317 9.0025)"
        fill="#fff"
      >
      <path
          id="path5087"
          d="m55.344 911.96h38c9.5769 0.0354 16.523-1.5854 20.837-4.8624 4.3145-3.277 6.4353-8.4228 6.3624-15.437-0.10007-4.827-1.4-8.6228-3.9-11.387-2.5-2.7645-5.6-4.6353-9.2999-5.6124 3.6895-1.4333 6.2603-3.3416 7.7124-5.7249 1.452-2.3833 2.1478-5.6416 2.0875-9.7749 0.0166-5.4811-1.9917-9.6936-6.0249-12.637-4.0333-2.9436-10.192-4.4311-18.475-4.4624h-37.3v12.9h5.7999v43.999h-5.7999zm26.5-56.699h6.2999c1.9374 0.0167 3.5124 0.65838 4.7249 1.925 1.2124 1.2667 1.8374 3.0584 1.875 5.3749 0.04787 2.4208-0.42295 4.3042-1.4125 5.6499-0.98961 1.3459-2.7854 2.0292-5.3874 2.05h-6.0999zm0 43.699v-17.4h7.6999c2.7562 0.0479 4.8436 0.8771 6.2624 2.4875 1.4187 1.6104 2.1312 3.7146 2.1375 6.3124-0.07504 2.7208-0.90003 4.8291-2.475 6.3249s-3.45 2.2542-5.6249 2.275z"
      />
      <path
          id="path5089"
          d="m158.89 913.76c11.354-0.10416 20.046-3.3458 26.075-9.7249s9.0706-15.271 9.1249-26.675c0.0353-11.394-2.8854-20.406-8.7624-27.037-5.8771-6.6311-14.923-10.019-27.137-10.162-10.519 0.1709-18.956 3.5542-25.312 10.15-6.3562 6.5958-9.6186 15.379-9.7874 26.35 0.18542 12.483 3.5395 21.791 10.062 27.925 6.5228 6.1332 15.102 9.1916 25.737 9.1749zm0-15.7c-3.2625-0.0729-5.9125-2.002-7.9499-5.7874-2.0375-3.7854-3.0875-8.9894-3.15-15.612 0.0479-6.3103 1.002-11.389 2.8625-15.237 1.8604-3.8478 4.3395-5.802 7.4374-5.8624 3.827 0.15214 6.6228 2.273 8.3874 6.3624 1.7645 4.0896 2.6353 9.2353 2.6125 15.437-0.0313 6.2874-0.94379 11.287-2.7375 15-1.7938 3.7125-4.2812 5.6124-7.4624 5.6999z"
      />
      <path
          id="path5091"
          d="m274.72 854.96v-12.9h-30.1v12.9h6.7999v23.8l-24.5-36.7h-28.7v12.9h5.7999v44.099h-5.8999v12.9h30.7v-12.9h-7.6999v-25.2l25.5 38.1h21.5v-56.999z"
      />
      <path
          id="path5093"
          d="m279.76 911.96h30.1c12.362-0.0708 21.837-3.2041 28.425-9.3999 6.5873-6.1957 9.9123-15.029 9.9749-26.5-0.0709-9.7728-3.3792-17.827-9.9249-24.162-6.5458-6.3353-15.904-9.6144-28.075-9.8374h-30.5v13.2h6.1999v43.399h-6.1999zm26.7-13.3v-43.399h3.8c5.2624 0.19797 9.0873 2.3271 11.475 6.3874 2.3874 4.0604 3.5624 8.8645 3.525 14.412 0.0375 6.3979-1.1375 11.702-3.525 15.912-2.3875 4.2104-6.2125 6.4395-11.475 6.6874z"
      />
    </g
    >
    <g
        id="layer1-7"
        transform="matrix(.23057 0 0 .24735 168.74 785.12)"
        fill="#fff"
      >
      <path
          id="path2453"
          fill="#fff"
          d="m595.44-71.803c-11.635 1.6226-20.951 1.9143-34.25 3.2188-12.939 0.76499-27.39 0.85446-46.625 6.625-13.371 4.0114-23.217 8.4208-27.406 8.0625 4.5325-3.6996-19.479-14.699-33.68-16.073-10.157-0.98242-31.132 0.88515-52.882 7.4164-35.459 10.639-76.787 1.2819-112.37-4.6125-44.745-8.1551-59.046-1.6058-70.478 13.894-4.1897 0.35831-14.035-4.0511-27.406-8.0625-19.235-5.7705-33.686-5.86-46.625-6.625-13.299-1.3044-22.615-1.5961-34.25-3.2188-7.02-0.05754-14.122 1.7727-18.594 5.8438-11.125 9.2328-8.9593 22.875 4.4375 27.969 6.4659 2.4583 25.107 4.4688 41.406 4.4688 31.224 0 44.672 8.7169 35.031 24-11.075 17.558-92.676 22.61-167.06 12.875-18.378-2.4051-56.116-6.6016-83.844-9.3438-54.602-5.3999-71.239-8.9797-179-25.938-103.01-16.21-139.13-19.404-177.69-23.625-38.554-4.2206-45.19-2.7755-76.406-0.6875-31.217 2.088-50.039 5.9324-66.469 13.562-26.991 12.535-51.714 37.521-57.031 44.281-25.214 32.054-38.69 92.466-23.25 107.91 17.051 17.05 40.373-3.5586 64.094-45.25 22.512-39.566 34.909-48.084 52.875-36.312 26.3 17.232 25.926 43.986-2.375 170.84-13.242 65.226-24.394 130.1-40.781 194.59-5.4752 23.749-3.5338 38.079-12.406 2.1875-1.2861-5.2025-4.9423-24.144-10.312-41.781-10.429-34.252-12.598-72.17-5.25-91.5 2.4794-6.5189 13.833-20.903 25.219-31.969 21.532-21.963 29.074-48.9-8.8125-62.188-33.287 0-53 26.936-53 72.438 0 36.935 6.0893 61.841 37.5 137.47 16.031 38.597 17.793 42.323 15.5 56.438-5.5966 30.407-8.9126 67.394-21.094 95.719-1.624 0.00001-5.3505-7.9994-8.2812-17.781-4.525-15.103-3.8954-22.404 4.1562-48.469 8.7941-29.119 4.6125-70.416-31.844-48.719-5.638 4.3564-7.3521 14.31-8.5625 26.906-2.6423 27.497 7.0866 59.826 27.094 90.031 15.13 22.842 15.082 20.908 2.375 80.531-28.754 134.92-33.687 225.94-33.875 272.56 0.01 161.23 224.9 55.111 349.03 101.84 19.547 7.359 49.367 6.1795 67.812 8.2187 19.798 2.1889 83.893 1.2725 218.47-2.875 210.83-6.4975 249.99-17.175 260.41 4.7188 24.46 25.13 64.192 27.216 96.469 13.75 12.056-6.6919 21.174-10.457 28.25-12.219 6.7084 1.9708 15.109 5.6352 25.844 11.594 32.277 13.466 72.039 11.348 96.5-13.781 10.42-21.894 49.543-11.185 260.38-4.6876 134.58 4.1474 198.67 5.0639 218.47 2.875 18.445-2.0392 48.265-0.8597 67.813-8.2187 124.13-46.732 349.02 59.352 349.03-101.88-0.188-46.618-5.1207-137.61-33.875-272.53-12.707-59.623-12.755-57.69 2.375-80.531 20.007-30.206 29.736-62.534 27.094-90.031-1.2104-12.596-2.9244-22.55-8.5624-26.906-36.456-21.697-40.638 19.6-31.844 48.719 8.0516 26.065 8.6812 33.366 4.1562 48.469-2.9307 9.7818-6.6572 17.781-8.2812 17.781-12.181-28.324-15.497-65.312-21.094-95.719-2.2932-14.115-0.5305-17.841 15.5-56.438 31.411-75.628 37.5-100.53 37.5-137.47 0-45.502-19.713-72.438-53-72.438-37.886 13.288-30.345 40.224-8.8125 62.188 11.386 11.065 22.739 25.45 25.219 31.969 7.3483 19.33 5.1791 57.248-5.25 91.5-5.3702 17.637-9.0264 36.579-10.312 41.781-8.8725 35.891-6.931 21.561-12.406-2.1875-16.388-64.494-27.539-129.37-40.781-194.59-28.301-126.86-28.675-153.61-2.375-170.84 17.966-11.772 30.364-3.2537 52.875 36.312 23.721 41.691 47.043 62.3 64.094 45.25 15.44-15.44 1.9642-75.852-23.25-107.91-5.3174-6.7599-30.04-31.747-57.031-44.281-16.43-7.6301-35.252-11.475-66.469-13.562-31.217-2.088-37.852-3.5331-76.406 0.6875s-74.676 7.4147-177.69 23.625c-107.76 16.958-124.4 20.538-179 25.938-27.728 2.7422-65.466 6.9387-83.844 9.3438-74.387 9.7346-155.99 4.6827-167.06-12.875-9.6403-15.283 3.8078-24 35.031-24 16.3 0.000002 34.94-2.0104 41.406-4.4688 13.397-5.0934 15.562-18.736 4.4375-27.969-4.4715-4.0711-11.574-5.9013-18.594-5.8438zm595.03 2.2188c-50.701 0.16262-152.49 9.1589-264.34 24.219-85.726 11.542-161.45 20.904-243.22 30.094-53.079 5.9652-115.18 6.0173-118.84 0.09375-1.6993-2.7496 4.165-4.5938 14.656-4.5938 22.075 0.000002 47.085-6.52 52.562-14.812 18.936-28.669-0.7895-10.832-5.6875-5.5-6.2057 6.756-18.465 9.0964-41.094 10.375-39.547 2.2346-50.255 11.155-25.719 21.406 19.085 7.9743 99.961 9.4054 148.78 2.625 16.868-2.3427 53.335-6.6734 81.062-9.5938 27.728-2.9203 61.761-7.239 75.625-9.625s39.623-6.4356 57.281-8.75c67.432-8.8381 48.112-6.806 61.875-9.0312 62.111-10.042 141.49-21.422 165.75-20.938 24.258 0.48487 32.687-1.9856 44.656-2 13.31-0.01479 25.117 0.83733 28.312 2.5625 4.8539 2.6204 6.6451 2.0556 0.1563-3-2.605-2.0296-11.973-3.5949-31.812-3.5312zm-1676 0.625c-19.84-0.06363-29.208 1.5016-31.812 3.5312-6.4889 5.0556-4.6977 5.6204 0.15625 3 3.1956-1.7252 15.003-2.5773 28.312-2.5625 11.969 0.0144 20.398 2.4849 44.656 2 24.258-0.48487 103.64 10.896 165.75 20.938 13.763 2.2252-5.557 0.19317 61.875 9.0312 17.658 2.3144 43.417 6.364 57.281 8.75s47.897 6.7047 75.625 9.625 64.195 7.2511 81.062 9.5938c48.82 6.7804 129.7 5.3493 148.78-2.625 24.536-10.252 13.829-19.172-25.719-21.406-22.629-1.2786-34.888-3.6191-41.094-10.375-4.898-5.3323-24.623-23.169-5.6875 5.5 5.4772 8.2925 30.488 14.813 52.563 14.812 10.491 0 16.356 1.8442 14.656 4.5938-3.6609 5.9235-65.765 5.8715-118.84-0.09375-81.771-9.1897-157.49-18.552-243.22-30.094-111.85-15.06-213.64-24.056-264.34-24.219zm938.75 3.6652c13.836 1.3221 27.247 8.1221 26.746 10.835-1.7145 9.2689-9.2965 11.303-19 14.562-16.893 7.543-32.023 15.078-34.531 24.438-4.8403 18.064 17.775 19.039 31.906 17.313 33.404-7.3297-23.427 14.734-34.219-7.1875-2.7523-5.4007-4.5294-15.086 7.125-23.031 15.532-10.588 34.636-20.432 36.844-25.625 1.4603-3.4356-3.5828-6.3251-10.562-5.0312l-31.25 5.7812c-8.6614 1.6056-47.463 19.695-74.302 19.609-26.751-0.08533-60.421-17.423-73.291-18.953-10.632-1.2641-17.785-3.5383-33.27-4.8023-6.9797-1.2938-11.518 0.5855-10.057 4.0211 2.2075 5.1935 22.827 15.068 38.359 25.656 11.654 7.9451 9.8772 17.599 7.125 23-10.792 21.922-67.623-0.14219-34.219 7.1875 14.131 1.727 36.747 0.75172 31.906-17.313-2.5078-9.3591-17.638-16.895-34.531-24.438-9.7035-3.2597-23.501-7.9489-17.571-15.277 2.7849-3.4418 12.83-11.193 22.15-10.915 29.45 0.87824 46.661 13.633 75.253 18.842 14.88 3.6358 26.724 5.2375 53.895-0.31758 13.883-3.3113 67.361-18.654 75.496-18.355zm124.62-0.75893c6.4867 0.01161 17.894 0.84162 20.625 1.25 7.8509 1.1742 11.438 4.3405 11.438 10.594 0.00001 5.5631-31.669 14.068-37.188 15.375-5.5189 1.3073-24.367 3.0003-32.875 3.4688-20.347 1.1204-37.024 15.017-24.375 30.469 14.148 17.282 29.166 23.437 89.875 24.406 74.549 1.1902 119.88-12.862 211.62-21.906 42.389-4.1791 77.74-12.592 116.91-18.969 90.401-16.883 141.46-19.132 5.3125 8.8438-6.9255 0.2356-97.959 16.3-106.78 18.125-8.8226 1.8249-22.984 3.1761-50.875 6.125s-75.882 9.4582-111.28 10.344l-64.344 1.625c-63.51-2.7922-82.398-12.077-95.094-23.562-15.83-14.32-7.3928-29.85-0.9375-32.906 7.8289-3.7065 20.688-5.8491 26.781-5.7812 6.0933 0.06781 28.16-3.0271 36.031-4.5312 13.334-2.5481 43.079-10.492 24.219-16.844-5.1058-1.7195-8.4603-0.98426-12.031-1.4375-16.888-2.1435-13.518-4.6991-7.0312-4.6875zm-450.72 0.625c6.4867-0.01161 9.8568 2.5752-7.0312 4.7188-3.5709 0.45324-6.9254-0.3132-12.031 1.4062-18.861 6.3515 10.885 14.327 24.219 16.875 7.8711 1.5042 29.938 4.5678 36.031 4.5 6.0933-0.06781 18.952 2.0748 26.781 5.7812 6.4552 3.0561 14.892 18.586-0.9375 32.906-12.75 11.486-31.64 20.771-95.146 23.563l-64.344-1.625c-35.399-0.88558-83.39-7.3949-111.28-10.344-27.891-2.9489-42.052-4.3001-50.875-6.125-8.8225-1.8249-99.856-17.889-106.78-18.125-136.15-27.975-85.089-25.727 5.3125-8.8438 39.167 6.3765 74.518 14.79 116.91 18.969 91.74 9.0446 137.08 23.096 211.62 21.906 60.709-0.96922 75.727-7.0929 89.875-24.375 12.649-15.452-4.0277-29.38-24.375-30.5-8.5084-0.4685-27.356-2.1614-32.875-3.4688-5.5189-1.3073-37.187-9.8119-37.188-15.375 0-6.2533 3.5866-9.4196 11.438-10.594 2.7305-0.40838 14.138-1.2384 20.625-1.25zm426.41 3.75c16.13-0.15387 33.469 2.6735 33.469 7.3438 0.00001 2.4079-8.2296 6.0667-18.312 8.125-15.096 2.7772-30.643 3.4444-45.969 4.0312-12.67 0.48515-30.773 4.5364-38.094 15.188-1.833 2.6668-2.2372 8.7166-0.6875 13.344 4.0614 12.126 5.7232 8.2629-23.594 12.656-8.3922 0.40996-25.579-1.9869-27.5-9.1563 0-5.0141 1.06-12.17 24-21.812 8.6386-3.6312 19.172-6.4423 27.438-11.062 19.77-8.6688 47.174-17.941 69.25-18.656zm-405.12 0.625c1.013-0.0134 2.0231-0.0096 3.0312 0 22.076 0.71481 49.48 9.9875 69.25 18.656 8.2656 4.6202 18.799 7.4314 27.438 11.062 22.94 9.6426 24 16.83 24 21.844-1.921 7.1694-19.108 9.5662-27.5 9.1562-29.317-4.3934-27.655-0.5298-23.594-12.656 1.5497-4.6272 1.1455-10.677-0.6875-13.344-7.3208-10.651-25.424-14.734-38.094-15.219-15.326-0.58687-30.873-1.254-45.969-4.0312-10.083-2.0583-18.313-5.7171-18.312-8.125 0-4.3784 15.242-7.1428 30.438-7.3438zm307.31 8.2188c5.2055 0.01239 6.4756 1.0196 2.75 2.2188-36.831 18.604-66.794 40.403-107.95 39.652-38.024-0.69448-70.755-20.952-105.54-38.522-9.0192-6.2168 23.04-3.0078 70.299 17.754 39.014 13.517 37.684 10.753 74.906-0.625 31.528-12.854 55.591-20.502 65.529-20.478zm745.78 1.4375c19.798-0.10458 35.221 2.0776 50.062 6.5625 44.277 13.38 86.08 51.047 92.062 82.938 8.404 44.798-23.645 40.707-49.156-4.1875-7.4295-13.074-13.673-19.425-20.688-32.594-11.391-16.043-34.239-19.691-49.5-15.625-14.012 3.5167-25.426 26.411-25.344 47.938 0.059 15.265 2.7755 30.102 16.188 88.062 4.0698 19.1 11.936 44.631 16.125 59 25.689 99.283 42.856 153.36 58.25 231.41 3.8258 19.397 4.5445 14.04-8.0625 41.406-4.5401 9.8552-40.23 69.882-62.375 113.16-20.098 39.275-34.675 126.82-34.062 156.25 0.0002 0.01-0.0002 0.0213 0 0.0312-0.098 0.32203-0.1681 0.65855-0.1875 1.0312-0.1598 3.0718-0.9593 18.074-5.0313-5.8438-2.5444-14.946-1.6988-75.845 7.125-107.72 3.4892-12.604 12.89-40.449 20.875-61.875 36.882-98.971 41.5-115.07 41.5-144.94 0.0001-34.631-8.1765-53.588-27.344-63.5-15.272-7.8977-33.645-3.5583-38.5 9.0938-6.9408 18.087-3.1635 21.291 18.25 46 20.094 38.099 15.411 37.453 19.062 54.406-1.5447 27.213-7.0627 51.684-20.75 92.062-26.052 76.855-30.029 98.696-27.969 154.34 1.6042 43.334-1.1359 62.08 11.844 77.906 18.462 22.319 38.329 20.864 60.844 2.5312 20.484-17.431-6.5543-58.192-24.875-37.438-1.5577 6.1534-5.9094 7.4675-8.8125-0.0625-8.9741-23.277 25.093-46.92 54.562-37.875 24.368 7.4786 35.43 32.726 33.25 75.812-3.6319 82.03-61.441 127.26-128.16 166.78-33.458 17.312-26.662 17.006-193.34 8.7812-57.552-2.84-140.04-5.1275-183.31-5.0937-78.541 0.0615-220.68 9.9709-259.72 18.125-11.343 2.3693-43.086 14.689-49.375 8.5-10.335-10.17-0.73795-7.6156 32.656-12.875 32.631-5.1392 62.009-8.4521 95.594-14.531 25.25-5.3215 44.844-19.202 44.844-31.719 0.00001-5.904-3.5573-8.7402-9.0625-8.6875-6.2392 0.0597-14.97 3.8583-23.719 11.219-12.624 10.622-54.635 23.484-69.75 28.906-15.253 5.4716-27.466 7.447-43.719 9.9688-13.813 3.6759-27.966 4.6888-30.844 4.7187-6.6393 0.069-12.041-20.886-8.375-32.438 2.8363-8.9365 17.315-9.1318 20.5-1.4062 1.7678 4.2884 7.6562 6.6089 11.688 5.0937 9.7244-3.6551 8.9635-13.362 3.1562-17.906-19.7-15.416-56.169 8.873-56.094 38.594 1.6312 11.431 3.3815 13.288 0.15625 14.812-25.376 13.625-65.179 16.3-82.625 5.8437-11.972-6.0302-1.5846-22.91 3.7947-27.432 2.9814-0.765 7.9528-1.6022 11.112-1.2239 9.2267 1.1052 12.826-1.3645 14.594-7.9375 2.612-9.7117-11.447-17.887-18.562-21.781-6.8121-3.7287-12.839-16.342-19.375-26.625l-8.25-10.844-13.75 17.719c-7.2689 8.326-9.7503 18.225-14.094 20.375-9.4446 4.6755-18.622 10.249-18.688 21.781 1.7678 6.573 5.3983 9.0426 14.625 7.9375 3.9921-0.4781 8.0258 0.2253 11.625 1.4375 5.1986 5.7865 12.086 20.949 3.25 27.219-17.446 10.456-57.249 7.781-82.625-5.8437-3.2253-1.5248-1.475-3.3814 0.15625-14.812 0.0753-29.721-36.394-53.979-56.094-38.562-5.8072 4.5445-6.5682 14.251 3.1562 17.906 4.0313 1.5151 9.9197-0.8367 11.688-5.125 3.1846-7.7256 17.664-7.5303 20.5 1.4062 3.6662 11.551-1.7357 32.506-8.375 32.438-2.8777-0.0299-17.03-1.0429-30.844-4.7187-16.253-2.5217-28.466-4.4659-43.719-9.9376-15.115-5.4221-57.127-18.316-69.75-28.937-8.7484-7.3604-17.48-11.159-23.719-11.219-5.5052-0.0527-9.0625 2.7835-9.0625 8.6875 0 12.517 19.593 26.397 44.844 31.719 33.584 6.0792 62.963 9.3921 95.594 14.531 33.394 5.2594 42.991 2.7357 32.656 12.906-6.2886 6.1886-38.032-6.162-49.375-8.5313-39.038-8.1541-181.18-18.064-259.72-18.125-43.277-0.0338-125.76 2.2538-183.31 5.0937-166.68 8.2252-159.89 8.5306-193.34-8.7812-66.715-39.525-124.52-84.751-128.16-166.78-2.1797-43.087 8.8825-68.334 33.25-75.812 29.47-9.0445 63.537 14.598 54.562 37.875-2.9031 7.53-7.2548 6.2159-8.8125 0.0625-18.321-20.754-45.359 20.006-24.875 37.438 22.514 18.333 42.381 19.788 60.844-2.5312 12.98-15.826 10.24-34.572 11.844-77.906 2.0599-55.647-1.9168-77.489-27.969-154.34-13.687-40.379-19.205-64.85-20.75-92.062 3.6514-16.953-1.0313-16.307 19.062-54.406 21.413-24.709 25.191-27.913 18.25-46-4.8551-12.652-23.228-16.991-38.5-9.0938-19.167 9.9118-27.344 28.869-27.344 63.5 0 29.864 4.6182 45.967 41.5 144.94 7.9845 21.426 17.386 49.271 20.875 61.875 8.8238 31.874 9.6694 92.773 7.125 107.72-4.0719 23.918-4.8715 8.9156-5.0312 5.8438-0.0194-0.3727-0.0898-0.70924-0.1875-1.0312 0.0002-0.01-0.00027-0.0213 0-0.0312 0.6129-29.428-13.964-116.97-34.062-156.25-22.145-43.274-57.835-103.3-62.375-113.16-12.607-27.366-11.888-22.009-8.0625-41.406 15.394-78.048 32.561-132.12 58.25-231.41 4.1892-14.369 12.055-39.9 16.125-59 13.412-57.96 16.129-72.798 16.188-88.062 0.0828-21.527-11.332-44.421-25.344-47.938-15.261-4.0662-38.109-0.41835-49.5 15.625-7.0147 13.169-13.258 19.519-20.688 32.594-25.512 44.895-57.56 48.985-49.156 4.1875 5.9827-31.89 47.785-69.558 92.062-82.938 29.684-8.9698 61.722-8.7894 126.34 0.65625 30.189 3.5549 53.86 1.527 94.469 15.781 16.091 7.6456 20.39 6.224 62.156 16.938 210.39 37.685 244.72 43.624 347.22 44.656 71.136 0.7161 105.23-9.9499 125.91-23.937 11.994-6.6916 10.282-10.395 24.062-7.0625 10.279 4.3183 18.686 6.6674 37.156 3.9688 8.1485-1.1906 17.494-8.7187 17.344-18.406 10.22 4.8135 22.888 14.095 37.866 18.232 15.991 5.8909 41.918 5.9155 54.772 1.192 15.217-3.9586 25.957-15.253 36.205-20.08-0.15018 9.6875 9.1952 17.216 17.344 18.406 18.47 2.6986 26.877 0.38078 37.156-3.9375 13.781-3.3323 12.069 0.37095 24.062 7.0625 20.678 13.988 54.771 24.654 125.91 23.937 102.5-1.0319 136.83-6.9712 347.22-44.656 41.766-10.713 46.065-9.2919 62.156-16.938 40.608-14.254 64.28-12.226 94.469-15.781 32.311-4.7228 56.484-7.1142 76.281-7.2188zm21.156 9.3125c-5.5686-0.01586-11.754 0.05782-18.844 0.09375-17.016 0.08624-34.096 1.2836-45.531 3.8125-26.632 5.8895-42.305 10.112-101.5 27.469-74.41 21.818-83.925 26.89-81.562 43.406 2.9428 20.57 34.217 14.361 127.37-25.25 103.99-44.218 133.15-49.63 160.09-29.75 25.722 17.838 32.145 40.969 46.531 65.031 12.908 20.885 31.156 21.999 31.156 1.2188-0.0001-16.854-25.453-46.613-51.219-64.312-14.004-8.2036-10.784-6.6781-27.125-15.406-11.7-5.3679-22.669-6.2649-39.375-6.3125zm-1740.3 0.625c-16.706 0.04757-27.675 0.94459-39.375 6.3125-16.341 8.7281-13.121 7.2026-27.125 15.406-25.766 17.699-51.219 47.458-51.219 64.312 0 20.78 18.248 19.666 31.156-1.2188 14.386-24.062 20.81-47.193 46.531-65.031 26.946-19.88 56.102-14.468 160.09 29.75 93.158 39.611 124.43 45.82 127.38 25.25 2.3628-16.516-7.1525-21.589-81.562-43.406-59.195-17.357-74.868-21.579-101.5-27.469-11.436-2.5289-28.515-3.7263-45.531-3.8125-7.0901-0.03593-13.275-0.10961-18.844-0.09375zm1716.8 5.375c5.8284 0.11921 3.607 2.1143-15.719 6-4.5952 0.92392-31.344 9.7158-46.469 14.531-15.124 4.8154-50.87 17.171-79.438 27.469s-54.247 18.75-57.062 18.75c-14.041-0.00001 10.677-10.144 83.812-34.344 67.481-22.329 81.759-27.333 90.969-29.313 9.9952-2.148 19.373-3.1865 23.906-3.0938zm-1693.3 0.625c4.5332-0.09272 13.911 0.94577 23.906 3.0938 9.2101 1.9793 23.488 6.9837 90.969 29.313 73.135 24.2 97.854 34.344 83.812 34.344-2.8154 0-28.495-8.4525-57.062-18.75-28.568-10.298-64.313-22.653-79.438-27.469-15.124-4.8154-41.874-13.607-46.469-14.531-19.326-3.8857-21.547-5.8808-15.719-6zm1763.4 8.0625c2.5658 0.02945 12.731 5.8889 19.438 12.594 22.524 22.52 38.98 47.895 38.531 54.656-0.8173 12.321-10.113-5.2532-20.406-20.344-8.6288-16.317-22.478-27.473-33.75-41.438-4.4107-3.8985-5.1565-5.4842-3.8125-5.4688zm-846.44 0.03125c1.4554-0.10705-3.0515 5.3994-12.875 13.344-25.278 20.443-80.027 23.667-114.84 0.625-18.624-12.326-19.578-18.827 3.3438-3.4375 33.843 17.833 74.661 19.22 108.16-0.625 10.028-6.733 15.087-9.823 16.219-9.9062zm-987.03 0.59375c1.344-0.01543 0.59818 1.5702-3.8125 5.4688-11.272 13.965-25.121 25.121-33.75 41.438-10.294 15.091-19.589 32.665-20.406 20.344-0.4485-6.7611 16.007-32.137 38.531-54.656 6.7061-6.7048 16.872-12.564 19.438-12.594zm1809.9 23.249c8.1373 0.0057 14.793 2.1012 21.375 8.625 14.299 15.738 12.477 19.407-2.0938 6.9687-18.126-11.949-27.049-11.203-38.344 3.1562-12.31 15.65-12.432 49.77-0.3438 102.5 10.165 44.339 11.394 61.551 2.4375 34.375-5.4347-14.605-7.3766-30.271-11.031-45.438-8.1744-32.463-7.4557-83.258 1.3437-96.687 5.2707-8.0439 16.194-13.507 26.656-13.5zm-1786.5 0.625c10.462-0.00733 21.386 5.4561 26.656 13.5 8.7994 13.43 9.5181 64.224 1.3438 96.687-3.6547 15.167-5.5966 30.832-11.031 45.438-8.9566 27.176-7.7274 9.9641 2.4375-34.375 12.088-52.73 11.967-86.85-0.34375-102.5-11.295-14.359-20.217-15.105-38.344-3.1562-14.571 12.439-16.393 8.7689-2.0938-6.9687 6.5817-6.5238 13.238-8.6193 21.375-8.625zm1895.4 46.688c1.0394-0.17702 2.8691 3.7537 5.5937 13.719 3.8218 13.455 1.8452 34.224-8.125 38.312-16.966 5.7062-35.912-10.601-43.219-25.062-6.7893-11.83 0.4017-6.4334 11 5.3125 6.1067 6.768 18.318 12.763 24.812 11.844 8.7494-1.2386 8.1752-8.0001 10.094-22.906-1.5089-11.914-1.6754-20.96-0.1563-21.219zm-2004.4 0.625c0.0712-0.0215 0.15379-0.01106 0.21875 0 1.5191 0.25872 1.3526 9.305-0.15625 21.219 1.9186 14.906 1.3444 21.668 10.094 22.906 6.4942 0.91935 18.706-5.0758 24.812-11.844 10.598-11.746 17.789-17.142 11-5.3125-7.3067 14.461-26.253 30.769-43.219 25.062-9.9701-4.089-11.947-24.858-8.125-38.312 2.5545-9.3422 4.3076-13.396 5.375-13.719zm1955.5 151.21c10.84-0.00001 24.536 20.615 30.656 46.125 3.0492 12.71 4.5647 24.123 3.3438 25.344-1.221 1.2208-4.5734-7.094-7.4376-18.469s-11.571-27.956-19.375-36.844c-9.9974-11.387-12.132-16.156-7.1874-16.156zm-1906.5 0.625c4.9446-0.00001 2.8101 4.7696-7.1875 16.156-7.8034 8.8876-16.511 25.469-19.375 36.844-2.8642 11.375-6.2165 19.69-7.4375 18.469-1.2209-1.2209 0.29457-12.633 3.3438-25.344 6.1198-25.51 19.816-46.125 30.656-46.125zm1802.7 161.88c2.2418-0.10266 5.7739 0.63587 10.938 2.625 16.295 8.7209 27.262 32.122 26.781 57.156-0.2419 12.604-2.2288 28.073-4.4375 34.375-2.9134 8.3123-3.3563 5.5425-1.5938-10.094 3.506-31.103-2.9707-59.235-22.031-68.156-9.2355-4.3228-17.663-15.54-9.6563-15.906zm-1699.7 0.625c0.32121-0.0143 0.62602-0.0128 0.90625 0 8.0063 0.36664-0.42082 11.583-9.6562 15.906-19.061 8.9215-25.537 37.053-22.031 68.156 1.7625 15.636 1.3196 18.406-1.5938 10.094-2.2087-6.3018-4.1957-21.771-4.4375-34.375-0.4803-25.034 10.486-48.435 26.781-57.156 4.5182-1.7405 7.7828-2.5252 10.031-2.625zm1845.4 66.66c10.454-0.34959 3.9136 53.866-2.2703 78.781-3.0002 12.088-6.5607 18.478-8.7559 19.834-2.1952 1.3567-1.2384-1.2696 2.7449-10.803 5.2202-12.494 6.6318-26.627 5.0937-50.594-1.1737-18.288-3.4669-28.241-1.5937-34.312 1.7999-1.8704 3.402-2.7998 4.7813-2.9062zm-1990.3 0.625c0.66462-1.3136 3.5436-2.4366 4.7812 2.9062 1.8816 6.0294 2.86 10.736 0.42656 35.323-2.3654 23.9-2.1467 37.09 3.0734 49.584 3.9833 9.5335 5.4452 16.2 3.25 14.844-2.1952-1.3567-5.2438-12.086-9.2609-23.875-6.4364-24.996-13.851-55.893-2.2703-78.781zm1938.2 14.16c1.0686-0.37551 0.6354 5.5714 1.4375 8.8438 9.0339 36.858 3.6759 26.657 12 75.781 4.5845 27.053 8.8045 19.48-43.875 78.531-42.249 47.359-58.006 73.724-64.094 102.59-3.5218 16.702-10.928 39.314-8.875 15.094 3.7108-57.975 17.079-115.87 43.625-167.06 33.484-64.577 50.986-94.195 58.094-110.97 0.7888-1.8616 1.3313-2.6873 1.6875-2.8125zm-1886.2 0.625c0.35582-0.0507 0.92507 0.74942 1.8125 2.8438 7.1073 16.773 24.61 46.361 58.094 110.94 26.546 51.196 39.914 109.09 43.625 167.06 2.0533 24.221-5.3532 1.6083-8.875-15.094-6.0876-28.87-21.845-55.235-64.094-102.59-52.68-59.051-48.459-51.478-43.875-78.531 8.3242-49.125 2.966-38.923 12-75.781 0.76863-3.136 0.40319-8.7141 1.3125-8.8438zm1906.2 120 3.5938 15.625c12.85 55.813 22.702 124.39 24.969 173.75 2.2805 49.667 1.3266 62.061-7.1875 93.062-6.1041 22.227-14.394 41.711-24.562 58.125-14.842 23.959-33.712 41.362-55.844 51.094-17.799 7.8265-34.057 10.603-69.094 11.75l-45.844 1.5c-26.324 2.2159 17.542-8.9373 26.312-13.406 3.1118-1.5828 6.2222-3.2345 9.3437-4.9687 0.02-0.0114 0.042-0.0197 0.062-0.0313 47.129-26.198 94.334-68.76 110.81-100.62 25.387-54.109 35.992-148.63-35.312-156.06-16.673-0.00001-38.255 13.135-42.906 24.25-7.4546 17.814-14.247 24.394-8.0625 6.6875 2.3175-6.6352 12.897-39.076 31.625-65.312 10.796-15.124 33.668-42.789 50.844-61.469l31.25-33.969zm-1926.1 0.625 31.25 33.969c17.176 18.679 40.047 46.344 50.844 61.469 18.728 26.236 29.307 58.677 31.625 65.312 6.1846 17.707-0.60797 11.126-8.0625-6.6875-4.6513-11.115-26.233-24.25-42.906-24.25-71.304 7.428-60.7 101.95-35.312 156.06 16.478 31.865 63.684 74.427 110.81 100.62 0.0204 0.0115 0.0421 0.0199 0.0625 0.0313 3.1215 1.7342 6.2319 3.3859 9.3438 4.9687 8.7708 4.4689 52.636 15.622 26.312 13.406l-45.844-1.5c-35.037-1.1473-51.295-3.9235-69.094-11.75-22.132-9.7319-41.002-27.135-55.844-51.094-10.168-16.414-18.458-35.898-24.562-58.125-8.5141-31.002-9.468-43.396-7.1875-93.062 2.2666-49.36 12.118-117.94 24.969-173.75l3.5938-15.625zm1968.7 245.13c0.4409-0.0886 0.9873 0.71153 1.6875 2.625 2.5124 28.011 1.3431 54.688-2.8438 72.188-8.0236 33.536-11.898 48.713-34.062 63.906-24.492 16.789-65.65 28.176-108 26.219-91.404-4.2244 0.7276-3.0621 36.625-7.6876 11.519-1.4842 38.803-10.644 55.125-22.844 16.819-13.836 23.63-28.002 30.875-48.125 6.5718-18.511 13.986-43.563 18.156-66.656 0.7405-11.006 1.1149-19.359 2.4375-19.625zm-2011.4 0.625c1.4624-0.4362 1.8224 8.1608 2.5938 19.625 4.17 23.093 11.584 48.145 18.156 66.656 7.2447 20.123 14.056 34.32 30.875 48.156 16.322 12.2 43.606 21.36 55.125 22.844 35.897 4.6254 128.03 3.4631 36.625 7.6875-42.35 1.9573-83.508-9.461-108-26.25-22.164-15.193-26.039-30.37-34.062-63.906-4.1867-17.499-5.3561-44.176-2.8438-72.188 0.61263-1.6743 1.1218-2.5029 1.5312-2.625zm1005.9 87.25c5.0278 3.0987 8.3895 11.881 11.463 16.661 7.9677 12.394 8.9218 10.524 17.487 13.469 9.2247 3.1718 16.162 17.446 1.7086 12.729-3.1181-1.0176-10.466-0.21388-18.214 3.6511-6.7446 3.3647-9.5956 6.4523-13.24 6.2028-4.0092 0.52289-7.6996-3.3711-11.617-5.3253-6.135-4.2571-11.897-6.3916-17.961-4.4087-16.064 5.2526-6.0105-12.409 5.0549-13.458 8.4998-0.80562 10.464-9.3121 13.131-14.508 3.691-7.191 9.9905-15.013 12.187-15.013zm292.19 21.063c2.7858-0.0492 4.0938 1.4688 4.0938 4.5312 0.00001 2.6625-8.8361 8.7441-19.656 13.531-10.82 4.7862-28.928 9.5177-40.125 11.125-21.218 3.0457-32.237 4.8537-2.0938-2.7812 10.158-2.5728 26.035-10.052 35.438-15.969 11.038-6.9455 18.272-10.366 22.344-10.437zm-584.59 0.625c4.0715 0.0716 11.306 3.492 22.344 10.437 9.4026 5.9168 25.28 13.396 35.438 15.969 30.143 7.6349 19.124 5.827-2.0938 2.7812-11.197-1.6072-29.305-6.3388-40.125-11.125-10.82-4.7871-19.656-10.869-19.656-13.531-0.0001-3.0624 1.3081-4.5803 4.0938-4.5312zm404.75 18.125c1.3193-0.1989 1.8842 2.9516 0.5 11.781-1.5799 10.078 0.0747 16.769 5.3125 27.156 7.6029 15.077 2.9489 18.866-3.2188 23.344-18.745 13.609-38.652 23.884-5.2188-7.4688 7.5346-7.0658-4.7313-28.028-4.9062-33.719-0.25217-8.2013 5.0126-20.714 7.5312-21.094zm-225.16 0.6562c0.0763-0.0141 0.16754-0.0124 0.25 0 2.5186 0.3796 7.8147 12.892 7.5625 21.094-0.1749 5.6906-12.784 27.001-4.9375 33.719 33.1 28.341 12.759 20.63-5.2188 7.4375-6.1448-4.5091-10.822-8.2666-3.2188-23.344 5.2378-10.387 6.8924-17.078 5.3125-27.156-1.2977-8.2777-0.89404-11.539 0.25-11.75zm512.56 22c79.678-0.0309 235.61 0.0312 240.28 0.0312 6.2302-0.0001 12.461 0.2555 17.188 0.75 9.4527 0.9888 1.6636 0.3497-17.188 1.7813-21.694 1.6475-624.01 8.0651-286.12-2.5 1.1875-0.0371 19.284-0.0522 45.844-0.0625zm-948 0.625c49.526-0.0117 108.44-0.0154 148.28 0 26.559 0.0103 44.656 0.0254 45.844 0.0625 337.89 10.565-264.43 4.1475-286.12 2.5-18.851-1.4316-26.64-0.7924-17.188-1.7813 4.7263-0.4945 10.957-0.75 17.188-0.75 2.3363 0 42.474-0.0195 92-0.0312zm1295.5 3.8438c22.664 0.0246 48.71 0.7185-17.188 6.5-10.793 0.9469 2.8227 8.343-217.69 6.0624-112.55-0.4228-239.68 0.5263-282.53 2.125-89.559 4.4359-98.247 4.7092-45.031-2.8437 23.899-3.3919 101.12-5.6879 279.22-5.5313 82.648 5.7179 180.89-4.1281 249.31-6.0937 5.3016-0.0892 10.604-0.2095 15.906-0.1875 3.2752 0.0213 10.445-0.0395 18-0.0312zm-1494.7 0.625c7.5546-0.008 14.725 0.0525 18 0.0312 5.3027-0.022 10.605 0.0983 15.906 0.1875 68.425 1.9656 166.66 11.812 249.31 6.0937 178.1-0.1565 255.32 2.1394 279.22 5.5313 53.216 7.5529 44.527 7.2796-45.031 2.8437-42.852-1.5987-169.98-2.5478-282.53-2.125-220.51 2.2805-206.89-5.1157-217.69-6.0624-65.898-5.7814-39.851-6.4755-17.188-6.5zm850.5 10.469c5.0098-0.0302-12.869 14.866-45.719 19.094-15.07 0.8291-24.583 0.0855-36.875-3.0312-4.9082-2.1911-8.819-4.8263-11.75-7.7188-5.6047-6.6616 1.8444-1.6923 5.5574-0.20855 20.632 13.904 65.11 5.4334 75.849-2.1976 7.0528-4.2742 11.268-5.9274 12.938-5.9375zm-206.28 0.625c1.6699 0.0101 5.8846 1.6946 12.938 5.9687 9.6083 6.8275 45.852 13.527 68.156 4.9063 4.1585-0.13264 25.49-12.259 10.73 0.11834-2.2384 1.8771-6.7613 4.4359-9.2305 5.0692-12.292 3.1167-21.805 3.8602-36.875 3.0312-32.85-4.2283-50.729-19.124-45.719-19.094zm542.19 6.625c11.355-0.0327 213.11 0.9888 214.12 0.9687 59.651-1.1776-37.253 9.9435-168.78 8.75-111.79-1.0141-234.74-5.4583-235.75-7.0937-1.0878-1.763 141.83-1.3583 166.12-2.1563 9.1099-0.2995 17.468-0.4491 24.281-0.4687zm-878.09 0.625c6.8128 0.0196 15.171 0.1693 24.281 0.4687 24.293 0.7981 167.21 0.3933 166.13 2.1563-1.0091 1.6354-123.96 6.1108-235.75 7.125-131.53 1.1933-228.43-9.9277-168.78-8.75 1.0175 0.0201 202.77-1.0327 214.12-1zm439.8 3.1875c2.254 1.6404 5.727 3.5547 9.2889 5.6562 14.495 8.5523 22.031 13.604 54.062 7.1876 36.394-7.2902 47.458-15.824 28.594 0.9374-11.492 10.212-45.251 12.782-74.085 2.8484-9.0828-3.1292-12.593-6.2088-17.869-9.7898-6.4823 4.0853-7.8392 6.8004-19.361 10.272-28.37 8.5477-63.078 7.0807-74.091-2.7054-18.864-16.762-7.8-8.2277 28.594-0.9374 32.032 6.4164 39.567 1.3648 54.062-7.1876 3.3341-2.3058 6.7222-4.5009 10.805-6.2812z"
      />
    </g
    >
  </g
  >
  <metadata
    >
    <rdf:RDF
      >
      <cc:Work
        >
        <dc:format
          >image/svg+xml</dc:format
        >
        <dc:type
            rdf:resource="http://purl.org/dc/dcmitype/StillImage"
        />
        <cc:license
            rdf:resource="http://creativecommons.org/licenses/publicdomain/"
        />
        <dc:publisher
          >
          <cc:Agent
              rdf:about="http://openclipart.org/"
            >
            <dc:title
              >Openclipart</dc:title
            >
          </cc:Agent
          >
        </dc:publisher
        >
        <dc:title
          >Bond</dc:title
        >
        <dc:date
          >2013-08-10T04:39:15</dc:date
        >
        <dc:description
          >A representation of a bond.</dc:description
        >
        <dc:source
          >https://openclipart.org/detail/181723/bond-by-alastair-181723</dc:source
        >
        <dc:creator
          >
          <cc:Agent
            >
            <dc:title
              >Alastair</dc:title
            >
          </cc:Agent
          >
        </dc:creator
        >
        <dc:subject
          >
          <rdf:Bag
            >
            <rdf:li
              >bond</rdf:li
            >
            <rdf:li
              >investing</rdf:li
            >
            <rdf:li
              >investments</rdf:li
            >
            <rdf:li
              >loan</rdf:li
            >
          </rdf:Bag
          >
        </dc:subject
        >
      </cc:Work
      >
      <cc:License
          rdf:about="http://creativecommons.org/licenses/publicdomain/"
        >
        <cc:permits
            rdf:resource="http://creativecommons.org/ns#Reproduction"
        />
        <cc:permits
            rdf:resource="http://creativecommons.org/ns#Distribution"
        />
        <cc:permits
            rdf:resource="http://creativecommons.org/ns#DerivativeWorks"
        />
      </cc:License
      >
    </rdf:RDF
    >
  </metadata
  >
</svg
>
