<?xml version="1.0" encoding="UTF-8" standalone="no"?>
<svg
   xmlns:dc="http://purl.org/dc/elements/1.1/"
   xmlns:cc="http://creativecommons.org/ns#"
   xmlns:rdf="http://www.w3.org/1999/02/22-rdf-syntax-ns#"
   xmlns:svg="http://www.w3.org/2000/svg"
   xmlns="http://www.w3.org/2000/svg"
   xmlns:sodipodi="http://sodipodi.sourceforge.net/DTD/sodipodi-0.dtd"
   xmlns:inkscape="http://www.inkscape.org/namespaces/inkscape"
   version="1.0"
   width="1190.9774pt"
   height="861.68634pt"
   viewBox="0 0 1190.9774 861.68634"
   preserveAspectRatio="xMidYMid meet"
   id="svg2"
   inkscape:version="0.91 r13725"
   sodipodi:docname="boom4.svg">
  <defs
     id="defs34" />
  <sodipodi:namedview
     pagecolor="#ffffff"
     bordercolor="#666666"
     borderopacity="1"
     objecttolerance="10"
     gridtolerance="10"
     guidetolerance="10"
     inkscape:pageopacity="0"
     inkscape:pageshadow="2"
     inkscape:window-width="1920"
     inkscape:window-height="1018"
     id="namedview32"
     showgrid="false"
     inkscape:zoom="0.75294118"
     inkscape:cx="499.2213"
     inkscape:cy="581.24587"
     inkscape:window-x="-8"
     inkscape:window-y="-8"
     inkscape:window-maximized="1"
     inkscape:current-layer="svg2"
     fit-margin-top="0"
     fit-margin-left="0"
     fit-margin-right="0"
     fit-margin-bottom="0" />
  <metadata
     id="metadata4">
Created by potrace 1.12, written by Peter Selinger 2001-2015
<rdf:RDF>
  <cc:Work
     rdf:about="">
    <dc:format>image/svg+xml</dc:format>
    <dc:type
       rdf:resource="http://purl.org/dc/dcmitype/StillImage" />
    <dc:title></dc:title>
  </cc:Work>
</rdf:RDF>
</metadata>
  <g
     transform="matrix(0.1,0,0,-0.1,-17.582554,876.12635)"
     id="g6"
     style="fill:#7b62b8;fill-opacity:1;stroke:#1d296c;stroke-width:11.19999981;stroke-miterlimit:4;stroke-dasharray:none;stroke-opacity:1">
    <path
       d="m 8410,8748 c -25,-5 -74,-29 -110,-52 -73,-48 -248,-198 -295,-254 -16,-20 -37,-43 -45,-52 -8,-8 -56,-78 -106,-155 -79,-122 -114,-179 -196,-319 -16,-27 -47,-92 -77,-161 -38,-86 -50,-114 -61,-145 -7,-19 -18,-48 -25,-65 -7,-16 -20,-51 -30,-77 -24,-66 -41,-77 -49,-36 -4,18 -9,60 -12,93 -3,33 -7,67 -10,75 -3,8 -10,62 -15,120 -8,95 -15,153 -34,290 -4,25 -23,108 -42,185 -20,77 -38,156 -40,175 -8,67 -13,80 -43,95 -41,21 -55,19 -129,-17 -136,-69 -399,-335 -512,-520 -63,-102 -159,-287 -159,-306 0,-8 -6,-26 -14,-40 -19,-38 -64,-175 -81,-247 -7,-33 -18,-73 -24,-88 -6,-16 -11,-38 -12,-50 0,-12 -11,-44 -23,-72 l -23,-50 -11,55 c -6,30 -16,93 -21,140 -38,318 -75,539 -102,608 -5,13 -9,31 -9,41 0,26 -94,310 -120,363 -33,67 -60,141 -60,165 0,30 -45,63 -87,63 -25,0 -42,-8 -61,-29 -101,-107 -238,-352 -300,-536 -67,-197 -94,-321 -113,-520 -18,-186 -32,-278 -45,-282 -22,-7 -92,74 -180,207 -49,74 -96,149 -104,165 -12,24 -125,211 -158,261 -72,111 -169,247 -196,275 -24,26 -46,39 -75,44 -48,8 -71,-4 -133,-67 -39,-40 -138,-218 -138,-248 0,-9 -4,-20 -8,-26 -10,-10 -37,-99 -48,-154 -3,-19 -10,-39 -14,-45 -4,-5 -12,-32 -19,-60 -7,-27 -19,-75 -27,-105 -12,-50 -28,-215 -28,-295 1,-104 22,-278 39,-317 5,-14 2,-18 -13,-18 -25,0 -157,139 -274,287 -48,61 -99,124 -114,140 -14,15 -43,53 -64,83 -21,30 -47,64 -57,75 -11,12 -22,26 -24,32 -2,6 -21,30 -42,54 -76,88 -169,222 -183,262 -10,31 -23,46 -46,56 -29,13 -35,12 -76,-10 l -44,-24 -4,-170 c -3,-93 -7,-188 -9,-210 -2,-22 -4,-80 -5,-130 0,-49 -5,-105 -11,-123 -8,-24 -8,-37 1,-47 8,-10 11,-34 8,-65 -3,-28 -1,-53 3,-56 5,-3 9,-14 9,-25 0,-10 6,-19 13,-19 9,0 9,-2 -1,-8 -15,-10 -8,-79 13,-127 7,-16 17,-48 20,-70 4,-22 12,-45 17,-52 5,-6 8,-20 7,-30 -1,-10 3,-36 9,-58 7,-22 12,-59 12,-83 l 0,-43 -37,7 c -41,7 -94,25 -160,55 -24,10 -47,19 -53,19 -16,0 -283,125 -455,212 -55,28 -145,73 -200,100 -55,27 -107,53 -115,57 -132,71 -181,98 -210,117 -42,29 -69,30 -120,4 -68,-35 -75,-68 -27,-120 23,-26 36,-53 45,-100 8,-36 22,-87 33,-114 10,-27 19,-56 19,-65 0,-9 12,-38 25,-66 14,-27 25,-56 25,-63 0,-18 71,-183 87,-203 19,-23 5,-30 -28,-14 -15,8 -34,15 -42,15 -8,0 -36,12 -63,26 -55,30 -139,61 -199,74 -22,5 -67,15 -100,23 -33,9 -89,18 -125,21 -64,5 -261,22 -350,31 -25,2 -126,9 -225,15 -99,6 -231,18 -293,27 -111,16 -113,16 -140,-4 -20,-15 -28,-30 -30,-60 -3,-36 1,-44 27,-62 16,-12 32,-21 36,-21 7,0 161,-101 300,-197 39,-26 88,-64 110,-83 60,-52 255,-252 300,-309 22,-27 45,-50 50,-50 6,-1 26,-24 45,-51 19,-28 49,-68 65,-90 17,-21 41,-58 55,-81 14,-23 30,-47 35,-53 15,-15 55,-85 55,-95 0,-9 -57,-26 -295,-87 -99,-25 -196,-50 -215,-56 -19,-5 -54,-14 -77,-19 -92,-20 -130,-28 -193,-43 -36,-8 -83,-15 -106,-16 -23,0 -54,-5 -70,-10 -16,-6 -76,-17 -134,-25 -58,-8 -152,-24 -210,-36 -58,-11 -124,-24 -147,-28 -54,-10 -71,-25 -79,-69 -6,-31 -3,-39 25,-64 29,-26 37,-28 77,-22 43,6 133,-11 254,-48 37,-11 187,-83 230,-109 88,-55 202,-118 240,-133 25,-9 61,-27 80,-40 19,-12 51,-28 70,-36 19,-8 65,-31 101,-52 36,-21 69,-38 72,-38 3,0 30,-14 59,-31 29,-18 73,-43 98,-57 25,-13 59,-35 77,-48 17,-13 34,-24 38,-24 6,0 216,-143 280,-191 22,-16 66,-48 98,-70 32,-22 55,-44 52,-48 -13,-22 -251,-102 -344,-117 -24,-3 -58,-12 -75,-19 -17,-7 -62,-21 -100,-30 -55,-14 -426,-190 -688,-326 -10,-5 -24,-9 -31,-9 -7,0 -35,-11 -63,-24 -27,-13 -83,-34 -124,-47 -51,-17 -86,-35 -112,-60 -43,-41 -46,-57 -19,-90 19,-24 21,-24 233,-24 138,0 229,-5 258,-13 66,-18 163,-41 260,-62 47,-10 101,-23 120,-29 113,-31 201,-53 248,-61 29,-5 78,-16 110,-25 31,-9 73,-21 92,-26 43,-11 122,-34 193,-55 95,-29 187,-82 187,-108 0,-6 -43,-56 -96,-111 -169,-176 -218,-237 -298,-369 -10,-17 -21,-33 -25,-36 -10,-7 -111,-157 -111,-165 0,-5 -106,-166 -184,-280 -15,-22 -35,-56 -44,-75 -9,-19 -18,-37 -21,-40 -4,-3 -26,-34 -50,-70 -61,-88 -115,-156 -173,-212 -38,-38 -48,-54 -48,-81 0,-65 57,-85 127,-45 55,31 152,78 162,78 4,0 19,8 32,19 22,17 195,109 374,198 74,38 137,75 305,184 127,82 208,117 217,94 8,-22 -4,-109 -26,-180 -51,-170 -92,-410 -112,-660 -5,-71 -12,-215 -15,-320 -3,-104 -7,-203 -7,-220 -2,-25 2,-30 23,-33 14,-2 37,-8 51,-13 36,-14 109,21 109,52 0,20 29,51 301,315 74,72 154,153 178,180 24,27 87,94 140,149 54,55 115,125 136,155 22,30 42,57 45,60 3,3 17,21 32,42 15,20 34,42 41,50 7,7 40,52 73,99 32,47 98,137 145,200 47,63 114,159 149,214 69,108 210,295 222,295 12,0 9,-67 -6,-145 -22,-112 -10,-1089 14,-1170 5,-16 12,-70 16,-120 3,-49 11,-98 16,-107 11,-22 68,-24 107,-4 23,13 81,84 81,101 0,3 22,38 49,78 117,174 211,335 211,362 0,4 14,26 30,50 17,24 30,45 30,48 0,2 27,52 60,111 33,59 60,110 60,113 0,3 9,18 20,33 18,26 43,69 104,185 12,22 34,58 49,80 15,22 27,44 27,48 0,5 8,21 19,35 10,15 28,44 40,65 11,20 31,54 42,75 12,20 30,49 40,64 11,14 19,29 19,33 0,4 9,20 20,35 11,16 43,73 71,127 74,142 131,219 174,233 68,23 96,-5 115,-115 7,-38 16,-80 21,-93 5,-13 9,-45 9,-73 0,-27 4,-57 9,-67 5,-9 15,-57 21,-107 6,-49 20,-126 31,-170 10,-45 19,-91 19,-103 0,-13 5,-32 11,-44 6,-11 12,-44 14,-73 2,-30 6,-63 10,-74 6,-20 23,-107 29,-146 1,-11 5,-27 8,-35 9,-21 18,-64 29,-135 20,-134 65,-336 89,-405 39,-110 59,-168 67,-195 7,-25 14,-31 42,-33 19,-2 44,2 56,8 27,15 114,195 144,300 8,25 22,68 31,95 40,112 88,276 135,465 4,14 10,34 15,45 5,11 11,34 15,50 16,78 24,113 35,150 14,46 25,110 39,215 6,41 18,104 26,140 10,40 17,137 21,255 6,249 8,257 42,253 18,-2 38,-19 64,-53 21,-27 46,-54 55,-58 10,-4 27,-29 38,-54 11,-26 37,-68 58,-94 20,-27 37,-54 37,-61 0,-7 13,-26 29,-43 16,-16 37,-46 48,-65 10,-19 35,-61 56,-93 20,-31 37,-63 37,-70 0,-6 14,-34 30,-62 16,-27 30,-55 30,-62 0,-7 11,-29 25,-49 14,-20 25,-45 25,-54 0,-10 6,-23 14,-29 7,-6 16,-24 19,-40 3,-16 12,-35 20,-43 8,-7 24,-43 37,-78 22,-61 66,-160 145,-325 18,-38 43,-90 54,-115 12,-25 27,-54 34,-65 6,-11 29,-48 50,-81 20,-34 37,-69 37,-77 0,-27 35,-39 78,-27 54,14 94,62 113,135 4,16 12,46 18,65 9,33 15,59 61,240 22,90 35,151 50,245 6,39 15,90 20,115 15,75 49,347 60,485 6,72 20,235 31,364 10,129 21,236 24,239 6,6 25,-45 32,-85 3,-18 12,-38 19,-44 8,-6 14,-22 14,-34 0,-12 7,-28 15,-35 8,-7 15,-20 15,-29 0,-9 19,-57 43,-106 24,-50 49,-106 56,-125 24,-63 83,-205 91,-215 4,-5 13,-28 20,-50 7,-22 23,-58 36,-80 12,-22 32,-67 44,-100 12,-33 30,-78 40,-100 11,-22 31,-71 45,-110 15,-38 33,-77 40,-85 7,-8 16,-26 20,-40 11,-39 114,-250 137,-283 19,-27 25,-29 65,-24 52,6 83,30 83,66 0,14 9,58 19,96 24,88 36,149 51,250 6,44 15,105 21,135 6,30 15,80 20,110 6,30 14,75 19,100 9,49 21,168 47,465 8,105 19,215 22,245 3,30 3,75 -1,99 -4,24 -4,50 1,60 8,13 12,10 25,-19 23,-57 165,-229 309,-374 83,-84 190,-200 281,-306 7,-8 20,-22 29,-30 9,-8 37,-40 62,-70 24,-30 57,-70 72,-88 32,-38 194,-141 235,-149 37,-7 94,4 113,23 19,19 19,71 1,115 -7,19 -21,77 -31,129 -26,138 -53,233 -105,365 -24,61 -46,115 -63,155 -11,24 -41,101 -67,171 -27,70 -55,141 -64,157 -9,18 -12,33 -6,37 12,8 148,-39 222,-76 10,-5 29,-9 43,-9 14,0 42,-7 62,-15 19,-8 42,-15 51,-15 8,0 23,-6 31,-13 9,-7 63,-28 121,-46 58,-18 114,-37 125,-41 60,-24 223,-70 249,-70 11,0 29,-8 40,-18 12,-11 46,-26 77,-36 31,-9 64,-23 75,-30 10,-8 51,-23 89,-34 88,-27 202,-65 246,-84 19,-8 52,-21 74,-28 22,-7 54,-23 70,-35 51,-38 90,-41 136,-11 32,22 39,32 39,60 0,30 -6,37 -65,75 -43,28 -94,76 -152,144 -48,56 -115,131 -149,167 -34,36 -79,87 -99,114 -21,28 -46,59 -57,70 -11,12 -38,46 -61,76 -23,30 -44,57 -47,60 -17,16 -111,137 -145,185 -22,32 -63,85 -91,119 -28,34 -70,90 -94,126 -24,36 -46,67 -49,70 -3,3 -33,46 -65,95 -33,50 -71,103 -85,118 -34,38 -20,45 71,35 40,-5 183,-13 318,-18 292,-12 454,-30 590,-65 172,-44 224,-57 310,-75 52,-12 125,-30 161,-41 37,-11 117,-25 178,-31 106,-11 113,-11 139,9 45,34 43,99 -5,120 -27,12 -110,81 -218,182 -27,26 -66,58 -85,71 -19,13 -37,27 -40,30 -3,3 -21,17 -40,30 -19,13 -37,27 -40,31 -6,7 -62,48 -164,117 -38,26 -81,56 -96,67 -15,11 -56,40 -91,64 -156,108 -356,267 -441,350 -67,64 -79,81 -57,81 6,0 68,28 137,61 70,34 188,88 262,121 74,32 144,63 155,68 73,33 119,49 185,64 96,23 240,63 310,86 30,9 89,27 130,39 178,52 362,121 389,145 12,11 21,30 21,42 0,37 -51,58 -155,66 -85,6 -132,13 -265,37 -30,5 -71,13 -90,16 -19,4 -71,15 -115,25 -145,33 -410,69 -560,75 -139,6 -235,17 -235,26 0,8 41,39 137,104 29,19 95,73 148,120 52,47 99,85 103,85 4,0 27,18 52,40 25,22 78,66 119,98 41,31 106,86 145,121 39,35 96,82 126,105 56,41 105,86 263,244 92,92 103,116 68,151 -18,18 -33,19 -263,14 -140,-2 -288,-11 -348,-20 -58,-8 -134,-19 -170,-23 -36,-5 -85,-13 -110,-19 -25,-5 -90,-19 -145,-30 -55,-11 -115,-25 -134,-30 -54,-16 -263,-52 -269,-46 -7,7 81,99 148,156 130,110 567,561 625,645 11,16 38,49 61,74 23,25 48,54 57,65 9,11 36,46 61,77 25,31 46,61 46,67 0,6 4,11 8,11 5,0 23,28 42,63 18,34 46,81 62,105 16,23 28,50 26,59 -4,22 -51,55 -79,56 -55,1 -268,-24 -319,-38 -30,-8 -74,-15 -96,-15 -23,0 -61,-7 -84,-15 -24,-8 -68,-20 -99,-26 -117,-21 -277,-61 -287,-72 -4,-4 -19,-7 -34,-7 -15,0 -65,-13 -111,-29 -46,-15 -104,-34 -129,-42 -122,-36 -448,-188 -565,-264 -33,-22 -108,-63 -167,-92 -99,-49 -128,-60 -128,-49 0,2 29,62 64,133 35,70 74,149 85,176 40,90 63,142 93,207 17,36 39,88 50,115 11,28 39,88 62,135 24,47 51,108 61,135 10,28 24,57 31,65 7,8 16,29 20,45 14,57 52,130 83,159 38,36 38,49 5,93 -21,27 -30,32 -52,27 -80,-18 -339,-143 -432,-209 -30,-21 -77,-55 -105,-74 -27,-19 -57,-43 -66,-53 -9,-10 -21,-18 -26,-18 -5,0 -27,-17 -48,-38 -22,-20 -74,-65 -115,-98 -41,-34 -102,-92 -135,-130 -33,-37 -73,-82 -90,-99 -43,-46 -85,-96 -104,-125 -8,-14 -32,-48 -53,-76 -21,-28 -38,-56 -38,-62 0,-7 -4,-12 -9,-12 -5,0 -20,-17 -32,-37 -13,-21 -26,-40 -29,-43 -4,-3 -41,-56 -84,-117 -73,-107 -96,-134 -96,-116 0,4 5,37 11,73 6,36 12,79 14,95 1,17 9,80 18,140 9,61 23,184 32,275 8,91 20,203 26,250 15,119 -1,444 -24,466 -11,11 -83,13 -127,2 z m 28,-141 c 30,-83 27,-243 -13,-587 -7,-63 -13,-122 -13,-130 0,-8 -3,-31 -5,-50 -3,-19 -10,-75 -16,-125 -33,-260 -43,-322 -61,-376 -24,-71 -24,-64 2,-89 30,-28 88,-27 119,3 13,12 44,51 69,85 25,35 58,80 74,100 37,48 126,176 149,216 11,17 27,40 36,51 9,11 29,38 43,60 48,76 179,233 278,336 63,65 220,199 315,269 25,19 63,49 83,66 21,17 71,49 112,71 41,22 96,52 122,67 55,31 78,33 78,8 0,-22 -50,-141 -126,-300 -30,-63 -54,-116 -54,-118 0,-2 -18,-42 -40,-89 -22,-47 -40,-87 -40,-90 0,-3 -16,-40 -36,-82 -19,-43 -43,-94 -51,-113 -21,-47 -72,-153 -107,-220 -16,-30 -38,-73 -49,-95 -11,-22 -29,-51 -39,-64 -21,-28 -22,-49 -3,-74 16,-22 89,-35 99,-18 4,6 14,11 23,11 15,0 87,34 166,79 21,11 41,21 46,21 7,0 152,82 211,120 8,5 31,17 50,26 19,9 53,25 75,36 183,93 252,125 295,139 14,4 52,17 85,30 33,12 75,26 93,30 17,5 47,13 65,18 215,61 459,114 727,161 61,11 144,13 152,4 9,-8 -20,-68 -66,-139 -42,-65 -181,-239 -215,-269 -11,-11 -21,-23 -21,-29 0,-5 -15,-23 -34,-40 -18,-18 -74,-77 -124,-133 -108,-121 -263,-276 -352,-353 -36,-31 -105,-95 -154,-143 -48,-47 -112,-105 -142,-129 -48,-39 -53,-48 -51,-79 3,-52 31,-62 145,-55 52,3 112,10 135,15 54,12 173,37 262,56 39,7 108,23 155,33 80,19 195,35 425,62 104,13 325,13 337,1 13,-13 -85,-114 -206,-212 -67,-53 -130,-107 -141,-120 -11,-12 -40,-36 -65,-53 -25,-17 -74,-55 -109,-86 -35,-30 -92,-76 -126,-101 -34,-25 -84,-65 -111,-88 -89,-77 -343,-269 -372,-281 -39,-16 -65,-62 -53,-94 5,-13 16,-27 24,-30 18,-7 107,-18 177,-22 181,-10 275,-17 350,-26 147,-18 341,-50 450,-74 96,-21 207,-41 303,-52 36,-5 50,-20 25,-27 -7,-2 -71,-22 -143,-44 -71,-23 -148,-45 -170,-51 -22,-5 -74,-18 -115,-29 -41,-11 -100,-26 -130,-32 -73,-16 -207,-64 -305,-110 -98,-46 -132,-61 -212,-93 -35,-14 -76,-35 -92,-46 -16,-12 -34,-21 -41,-21 -6,0 -46,-17 -88,-37 -42,-20 -101,-46 -130,-58 -33,-12 -60,-30 -69,-47 -15,-24 -15,-28 0,-51 8,-13 35,-34 59,-47 24,-12 57,-36 73,-54 34,-35 124,-113 172,-148 63,-46 149,-113 186,-146 21,-18 48,-37 60,-42 12,-6 42,-26 67,-45 77,-59 125,-91 158,-106 18,-8 34,-21 37,-30 3,-8 20,-23 38,-33 61,-32 77,-43 120,-79 86,-75 132,-109 169,-128 21,-11 45,-30 54,-44 9,-14 31,-34 50,-46 31,-19 46,-49 25,-49 -19,0 -288,59 -315,70 -16,6 -49,15 -75,20 -25,6 -86,21 -136,35 -182,49 -307,64 -655,80 -184,9 -382,19 -440,22 -97,5 -107,3 -132,-17 -41,-32 -39,-83 5,-111 32,-22 142,-152 168,-199 8,-14 30,-49 49,-79 19,-29 42,-64 50,-77 8,-12 33,-47 56,-76 73,-95 188,-248 212,-281 12,-18 29,-36 36,-42 7,-5 23,-26 37,-45 46,-67 122,-160 131,-160 4,0 8,-5 8,-10 0,-13 80,-101 178,-195 39,-38 72,-75 72,-82 0,-6 14,-23 31,-38 17,-14 29,-28 26,-31 -6,-6 -165,49 -297,103 -162,66 -296,114 -380,137 -30,8 -86,25 -125,39 -38,13 -117,39 -175,57 -58,19 -112,37 -120,41 -8,4 -35,14 -60,22 -25,9 -83,29 -130,47 -47,17 -107,39 -135,48 -27,8 -68,28 -90,42 -76,50 -99,55 -143,30 -22,-13 -45,-33 -52,-45 -15,-28 -4,-84 17,-92 50,-19 117,-116 149,-215 12,-37 33,-86 46,-110 14,-24 44,-95 67,-158 24,-63 47,-124 51,-135 38,-85 84,-264 97,-378 6,-56 -3,-59 -56,-20 -52,38 -62,49 -277,292 -21,25 -63,69 -92,99 -29,30 -81,88 -115,129 -34,41 -105,118 -157,172 -80,81 -219,264 -220,289 0,4 -9,18 -20,32 -11,14 -20,39 -20,56 0,39 -33,70 -82,79 -33,6 -41,3 -71,-26 -48,-48 -50,-69 -16,-137 50,-98 55,-220 20,-453 -5,-35 -13,-127 -16,-204 -4,-77 -14,-178 -22,-225 -8,-47 -19,-114 -24,-150 -5,-36 -12,-82 -15,-103 -4,-20 -10,-40 -15,-43 -5,-3 -9,-21 -9,-41 0,-46 -17,-155 -35,-218 -8,-27 -17,-69 -21,-93 -9,-58 -19,-47 -83,98 -29,63 -61,132 -71,153 -11,22 -20,44 -20,49 0,6 -15,45 -34,87 -19,42 -58,132 -86,201 -29,69 -61,141 -70,160 -10,19 -26,53 -35,75 -9,22 -21,48 -26,58 -6,10 -30,66 -55,125 -24,59 -51,121 -58,137 -8,17 -28,68 -46,115 -17,47 -49,121 -71,165 -21,44 -39,85 -39,92 0,23 -50,71 -80,77 -23,4 -41,-1 -71,-20 -51,-32 -56,-46 -36,-108 28,-86 38,-153 27,-181 -6,-16 -6,-34 1,-52 5,-14 7,-34 3,-42 -3,-9 -8,-32 -10,-51 -2,-19 -8,-60 -14,-90 -5,-30 -12,-109 -15,-175 -3,-66 -10,-156 -15,-200 -5,-44 -11,-98 -13,-120 -10,-99 -28,-223 -37,-260 -9,-39 -30,-176 -36,-245 -8,-80 -78,-360 -107,-429 l -14,-33 -19,20 c -11,11 -36,54 -56,94 -38,75 -158,336 -158,343 0,2 -13,32 -29,67 -40,88 -75,164 -101,223 -12,28 -27,59 -32,70 -6,11 -37,70 -68,130 -31,61 -66,127 -78,148 -12,20 -31,54 -43,74 -12,21 -50,80 -86,133 -200,294 -291,391 -367,390 -30,-1 -98,-51 -114,-83 -10,-20 -14,-92 -15,-260 -2,-195 -6,-250 -25,-342 -12,-60 -32,-155 -43,-210 -32,-159 -37,-181 -79,-358 -23,-92 -54,-201 -70,-241 -17,-41 -30,-79 -30,-85 0,-6 -18,-65 -40,-131 -22,-66 -40,-124 -40,-129 0,-5 -9,-31 -21,-58 l -21,-48 -14,27 c -16,30 -87,284 -104,373 -7,33 -19,92 -27,130 -9,39 -20,93 -24,120 -17,106 -29,172 -39,220 -22,102 -52,278 -79,465 -39,264 -74,416 -102,446 -61,65 -170,49 -287,-43 -19,-15 -113,-153 -148,-218 -10,-19 -25,-45 -76,-132 -12,-21 -42,-78 -67,-128 -25,-49 -70,-125 -98,-167 -29,-42 -53,-81 -53,-86 0,-5 -10,-24 -23,-43 -13,-19 -45,-77 -72,-129 -28,-52 -52,-97 -55,-100 -9,-9 -56,-95 -137,-249 -18,-36 -38,-69 -43,-75 -5,-6 -30,-53 -56,-104 -25,-51 -50,-94 -54,-97 -4,-3 -38,-56 -76,-119 -98,-164 -100,-159 -115,219 -5,138 -12,322 -15,410 -10,245 21,624 56,697 39,80 18,128 -55,128 -33,0 -52,-8 -89,-35 -25,-20 -46,-39 -46,-43 -1,-4 -31,-40 -69,-80 -37,-40 -94,-116 -127,-169 -32,-53 -77,-120 -99,-149 -76,-101 -160,-218 -167,-233 -4,-9 -41,-59 -83,-111 -41,-52 -93,-122 -115,-155 -60,-92 -84,-122 -183,-230 -139,-152 -603,-615 -616,-615 -6,0 -12,21 -13,53 -3,111 3,295 11,362 5,39 15,113 21,165 6,52 15,113 20,135 5,22 11,63 15,91 3,29 19,105 36,170 17,66 37,151 44,189 7,39 23,89 36,112 22,42 22,43 4,83 -20,44 -45,56 -98,46 -38,-7 -236,-106 -322,-161 -119,-75 -170,-109 -175,-115 -3,-4 -43,-26 -90,-49 -47,-24 -89,-46 -95,-51 -5,-4 -73,-40 -150,-80 -77,-40 -146,-78 -153,-83 -20,-15 -28,1 -12,26 7,12 21,36 29,52 9,17 38,64 65,105 45,69 177,274 201,312 14,23 192,288 213,317 35,49 115,148 160,197 26,27 61,66 78,85 36,41 137,128 173,150 43,26 54,45 47,83 -7,35 -31,57 -76,71 -14,4 -56,22 -95,40 -89,41 -174,70 -250,85 -33,7 -85,20 -115,30 -30,9 -80,23 -110,29 -48,10 -107,25 -250,61 -112,29 -174,44 -250,60 -47,10 -117,25 -157,34 -39,10 -117,23 -173,29 -55,7 -101,17 -102,22 0,6 26,20 58,33 33,13 95,41 139,61 44,21 90,41 103,45 13,4 56,27 95,50 163,95 297,151 497,207 36,9 97,27 136,38 39,12 78,21 87,21 9,0 36,9 59,19 24,11 63,25 88,31 138,38 170,52 186,81 8,17 12,39 9,50 -9,27 -56,69 -78,69 -16,0 -55,18 -67,30 -3,3 -23,16 -45,29 -22,13 -76,50 -120,83 -103,76 -331,224 -426,276 -41,22 -103,56 -139,76 -36,20 -123,65 -195,100 -233,114 -249,123 -360,185 -113,65 -282,141 -310,141 -28,0 -6,19 28,24 305,45 594,97 687,125 96,28 126,36 270,69 183,43 235,51 303,45 67,-5 69,-5 103,28 36,35 41,57 22,92 -16,30 -26,39 -77,68 -35,19 -57,45 -112,134 -64,103 -127,185 -209,273 -19,21 -69,75 -110,121 -91,101 -185,192 -265,258 -65,53 -199,145 -227,156 -22,8 -23,26 -4,33 15,6 273,-15 501,-41 72,-8 175,-20 230,-25 103,-11 140,-19 235,-51 99,-33 294,-115 348,-148 29,-17 55,-31 58,-31 16,0 45,-52 55,-100 17,-79 40,-100 107,-100 44,0 55,3 59,19 3,11 23,26 49,36 50,19 69,43 79,97 6,33 3,41 -21,66 -24,23 -39,29 -81,30 -31,2 -74,13 -108,28 -60,28 -68,40 -125,184 -12,30 -27,69 -34,85 -7,17 -28,68 -45,115 -18,47 -37,93 -42,102 -18,36 -58,213 -50,221 12,12 73,-8 141,-47 30,-18 87,-47 125,-65 39,-18 81,-39 95,-46 47,-26 285,-143 355,-176 39,-18 106,-49 150,-70 44,-21 98,-43 120,-50 22,-7 55,-18 73,-26 94,-40 282,-59 310,-31 18,18 15,80 -6,130 -10,24 -24,70 -31,103 -7,33 -20,80 -28,105 -15,43 -19,58 -43,148 -15,57 -37,261 -34,317 2,28 8,133 15,235 6,101 14,191 18,199 6,10 18,1 45,-34 20,-26 36,-52 36,-56 0,-5 6,-9 14,-9 8,0 21,-17 29,-37 9,-21 45,-69 80,-106 35,-38 71,-84 80,-103 10,-19 24,-37 32,-40 8,-4 15,-11 15,-18 0,-6 23,-34 50,-61 28,-27 50,-56 50,-65 0,-9 13,-29 30,-45 17,-16 30,-34 30,-41 0,-7 15,-24 33,-39 17,-15 37,-36 42,-45 13,-24 133,-148 176,-183 19,-15 56,-45 83,-68 42,-35 54,-40 90,-37 37,3 43,7 60,41 18,39 18,39 -3,82 -21,43 -44,117 -63,205 -15,70 -11,353 6,445 33,176 94,385 149,502 23,50 31,61 80,114 l 27,30 29,-23 c 16,-13 39,-39 52,-58 12,-19 39,-55 58,-80 36,-45 77,-109 135,-209 17,-29 41,-70 53,-90 12,-20 29,-49 39,-66 9,-16 33,-55 54,-85 20,-30 39,-59 41,-65 12,-29 92,-145 100,-145 5,0 14,-11 19,-25 5,-14 18,-29 27,-32 10,-4 39,-28 65,-54 50,-50 94,-67 143,-55 34,9 45,41 56,156 4,52 13,149 18,215 19,219 42,345 87,470 113,321 213,515 265,515 14,0 27,-18 49,-65 17,-36 30,-71 30,-78 0,-6 7,-21 15,-31 8,-11 15,-29 15,-41 0,-11 6,-30 14,-40 8,-11 24,-63 36,-115 12,-52 30,-117 40,-145 9,-27 23,-93 30,-145 7,-52 16,-105 21,-118 5,-13 9,-40 9,-61 0,-20 6,-43 13,-50 7,-7 12,-40 13,-79 0,-37 6,-107 13,-157 7,-49 16,-119 20,-155 16,-130 44,-180 100,-180 37,0 64,21 88,72 30,62 29,57 93,303 45,173 107,349 153,435 23,41 55,102 71,135 17,33 33,62 36,65 3,3 17,21 30,40 14,19 32,42 41,50 8,8 47,53 86,100 80,96 187,201 235,230 41,25 77,26 84,3 3,-10 12,-31 19,-48 17,-39 41,-118 38,-127 -2,-4 6,-40 16,-80 10,-40 22,-106 26,-146 4,-39 11,-75 16,-78 5,-3 9,-44 9,-92 0,-48 7,-115 15,-149 8,-34 14,-84 14,-110 0,-27 4,-72 10,-102 6,-29 11,-75 11,-102 0,-66 6,-77 52,-90 49,-13 83,-6 91,18 4,10 18,37 32,61 14,23 25,47 25,52 0,5 14,39 30,76 17,37 37,90 45,118 21,81 109,271 192,414 29,51 53,96 53,100 0,4 17,30 38,57 21,28 52,75 70,106 17,31 49,76 70,100 20,24 62,74 92,112 29,37 57,67 60,67 4,0 40,30 81,66 75,66 131,103 159,104 9,0 21,-14 28,-33 z"
       id="path8"
       inkscape:connector-curvature="0"
       style="fill:#7b62b8;fill-opacity:1;stroke:#1d296c;stroke-width:11.19999981;stroke-miterlimit:4;stroke-dasharray:none;stroke-opacity:1" />
    <path
       d="m 9250,7164 c -69,-35 -134,-67 -145,-70 -11,-4 -31,-14 -45,-24 -95,-64 -171,-109 -203,-121 -21,-7 -46,-21 -56,-30 -10,-10 -41,-25 -70,-36 l -51,-18 -23,27 c -36,42 -60,50 -101,33 -21,-9 -36,-22 -36,-32 0,-9 11,-59 25,-112 14,-53 32,-145 40,-206 8,-60 19,-130 24,-154 5,-24 7,-79 4,-121 -4,-52 -2,-84 7,-101 9,-17 14,-88 16,-244 1,-121 5,-299 9,-395 4,-96 8,-211 9,-255 1,-44 8,-113 14,-154 l 12,-73 -41,-37 c -47,-42 -46,-59 6,-87 32,-17 36,-17 70,-1 20,9 49,17 66,17 19,0 32,6 36,18 9,26 45,62 62,62 20,0 118,60 205,126 43,33 88,58 119,66 83,21 113,78 77,148 -14,27 -19,51 -15,67 6,27 21,125 35,243 15,117 18,136 56,325 9,44 20,109 25,145 4,36 13,90 19,120 27,140 31,199 45,655 2,77 7,163 10,190 6,42 4,53 -11,66 -39,34 -64,29 -194,-37 z m 71,-111 c 8,-20 8,-82 1,-208 -5,-99 -8,-211 -7,-250 1,-38 -4,-95 -11,-125 -7,-30 -15,-86 -18,-125 -2,-38 -10,-93 -16,-122 -6,-28 -10,-57 -9,-65 2,-7 -3,-31 -9,-53 -7,-22 -12,-55 -12,-73 0,-18 -7,-47 -16,-63 -8,-17 -14,-43 -13,-57 1,-15 -1,-38 -4,-52 -3,-14 -13,-65 -22,-115 -9,-49 -20,-109 -25,-133 -6,-23 -10,-68 -10,-100 0,-57 -2,-61 -62,-151 -10,-14 -18,-34 -18,-43 0,-28 -182,-163 -247,-182 -19,-6 -23,-2 -32,31 -18,70 -31,255 -41,593 -12,411 -17,504 -35,645 -30,236 -35,281 -35,301 0,17 26,34 133,89 72,37 157,85 187,106 59,41 290,177 303,178 4,1 12,-11 18,-26 z"
       id="path10"
       inkscape:connector-curvature="0"
       style="fill:#7b62b8;fill-opacity:1;stroke:#1d296c;stroke-width:11.19999981;stroke-miterlimit:4;stroke-dasharray:none;stroke-opacity:1" />
    <path
       d="m 7915,6811 c -60,-20 -139,-50 -175,-66 -36,-15 -78,-33 -95,-41 -16,-7 -43,-16 -60,-20 -16,-4 -60,-22 -97,-41 -73,-36 -88,-59 -71,-110 7,-20 3,-47 -15,-108 -13,-44 -31,-118 -39,-165 -8,-47 -18,-101 -23,-120 -5,-19 -14,-69 -20,-110 -13,-84 -45,-219 -54,-228 -17,-16 -46,61 -118,318 -41,147 -72,238 -110,320 -11,25 -24,54 -28,65 -4,11 -15,36 -23,55 -8,19 -18,45 -21,57 -4,12 -20,31 -35,42 l -28,20 -98,-34 c -96,-34 -175,-71 -225,-105 -14,-9 -41,-22 -60,-29 -19,-6 -44,-21 -57,-33 -24,-23 -31,-64 -11,-70 12,-4 1,-122 -22,-233 -5,-27 -12,-70 -15,-95 -9,-76 -15,-78 -81,-29 -105,78 -126,91 -209,124 -104,43 -139,49 -275,48 -124,0 -143,-3 -227,-32 -147,-49 -340,-176 -448,-292 -27,-30 -71,-71 -97,-93 -32,-25 -48,-46 -48,-61 0,-12 -7,-28 -15,-35 -12,-10 -21,-8 -47,12 -55,40 -172,95 -285,135 -96,33 -121,37 -232,41 -137,5 -207,-11 -312,-68 -86,-47 -111,-73 -107,-111 3,-29 8,-34 39,-42 40,-9 74,4 154,63 65,47 136,65 245,63 82,-1 110,-7 208,-41 62,-22 123,-47 137,-56 13,-9 27,-16 30,-16 9,0 95,-59 125,-85 102,-91 169,-160 213,-220 28,-38 67,-92 87,-120 44,-60 100,-166 100,-189 0,-9 4,-24 9,-34 19,-38 29,-82 20,-88 -5,-3 -7,-10 -3,-15 14,-23 35,-226 36,-354 1,-138 -23,-370 -42,-406 -6,-10 -22,-50 -36,-91 -22,-62 -78,-182 -137,-291 -34,-64 -213,-199 -299,-225 -81,-26 -121,-31 -243,-32 -190,-3 -188,-3 -230,30 -26,21 -49,30 -74,30 -47,0 -61,-14 -61,-62 0,-43 12,-51 122,-87 75,-24 174,-27 291,-11 193,28 223,33 232,40 10,8 65,39 139,78 57,30 197,172 226,229 14,26 30,54 37,61 7,7 13,18 13,23 0,6 11,35 25,65 14,30 25,62 25,70 0,46 158,-53 275,-172 97,-98 143,-124 222,-124 126,0 332,35 357,60 13,13 56,13 56,-1 0,-28 66,-37 286,-37 l 222,0 28,29 c 26,28 27,30 16,81 -8,37 -8,74 -1,123 5,39 14,111 19,160 5,50 14,116 19,148 6,32 8,64 4,72 -3,10 1,15 11,15 11,0 25,-19 40,-52 57,-133 142,-466 137,-542 -4,-64 59,-102 118,-71 17,8 31,22 31,31 0,8 8,17 18,20 9,3 26,10 37,14 78,32 243,60 308,52 53,-6 97,34 97,89 0,20 12,88 26,150 45,193 51,229 83,514 12,99 24,191 27,205 5,23 7,24 19,7 13,-18 25,-85 30,-167 2,-25 6,-56 10,-70 4,-14 13,-83 20,-155 15,-142 23,-183 66,-323 21,-69 27,-104 23,-136 -6,-38 -2,-49 20,-79 18,-23 38,-37 60,-41 47,-9 108,17 130,56 11,17 69,81 130,142 110,110 136,142 136,170 0,8 12,17 26,20 14,4 37,18 50,31 21,21 22,28 13,52 -6,15 -16,35 -24,43 -29,32 -61,133 -81,255 -3,17 -14,82 -24,145 -11,63 -27,169 -36,235 -17,129 -39,270 -54,350 -21,113 -56,346 -70,465 -5,41 -14,98 -20,125 -6,28 -16,82 -21,120 -17,127 -55,307 -96,455 -8,30 -19,89 -25,130 -5,43 -15,80 -24,86 -9,7 -14,30 -14,63 0,42 -5,57 -25,76 -13,14 -30,25 -37,25 -7,-1 -62,-18 -123,-39 z m 59,-118 c -15,-34 -7,-74 23,-116 43,-61 116,-316 130,-452 3,-30 9,-55 13,-55 8,0 20,-60 26,-135 2,-27 13,-93 24,-145 10,-52 19,-104 19,-115 0,-11 2,-36 5,-55 4,-19 13,-82 21,-140 9,-58 20,-127 26,-155 6,-27 10,-65 10,-84 -1,-18 4,-52 10,-74 6,-23 12,-55 14,-72 17,-158 27,-240 32,-249 4,-6 6,-26 5,-44 -2,-19 4,-57 12,-86 8,-28 17,-82 21,-121 3,-38 19,-119 35,-180 16,-60 31,-129 35,-152 4,-24 11,-45 16,-49 20,-12 8,-34 -20,-34 -21,0 -51,-20 -119,-79 -86,-75 -137,-101 -162,-86 -15,9 -27,44 -51,140 -11,44 -24,96 -29,115 -5,19 -18,109 -30,200 -24,187 -42,295 -65,395 -8,39 -19,103 -24,144 -11,83 -28,108 -76,112 -63,5 -81,-1 -104,-32 -28,-38 -30,-73 -6,-99 20,-22 19,-34 -10,-225 -17,-115 -32,-232 -41,-325 -3,-30 -8,-62 -11,-70 -3,-8 -9,-35 -14,-60 -12,-72 -26,-127 -61,-250 -28,-96 -37,-117 -58,-126 -14,-7 -85,-15 -158,-18 -88,-4 -143,-11 -162,-21 -35,-18 -40,-12 -56,65 -7,30 -17,82 -24,115 -7,33 -16,69 -21,80 -4,11 -19,56 -33,100 -13,44 -37,107 -52,140 -14,33 -27,70 -28,82 0,11 -13,35 -29,52 -32,37 -75,41 -102,11 -10,-11 -24,-20 -31,-20 -8,0 -25,-10 -39,-22 -26,-23 -31,-52 -17,-103 11,-38 -18,-279 -59,-496 -11,-55 -12,-57 -48,-62 -44,-7 -176,7 -213,22 -30,11 -38,31 -13,31 35,0 155,147 155,191 0,8 13,64 29,124 28,103 36,140 75,335 36,182 40,227 38,505 -1,293 -7,346 -58,560 -18,73 -86,184 -159,258 l -74,76 5,53 c 6,64 21,131 39,178 8,19 22,67 31,105 28,116 46,148 104,185 28,18 80,43 115,56 77,26 75,28 133,-91 61,-124 92,-202 92,-233 0,-15 9,-45 20,-67 11,-22 20,-51 20,-64 0,-14 9,-57 21,-96 11,-38 24,-83 29,-100 7,-26 14,-57 36,-172 2,-13 11,-23 19,-23 8,0 32,-16 54,-35 31,-28 47,-35 80,-35 36,0 44,4 61,32 14,23 18,43 14,68 -5,31 9,107 46,250 7,30 41,204 57,295 15,88 56,202 82,226 15,14 40,42 56,63 31,40 163,113 281,154 77,27 99,28 88,5 z M 5975,6115 c 22,-4 49,-10 60,-14 36,-13 178,-86 189,-96 6,-6 38,-31 71,-55 33,-25 80,-64 105,-87 25,-24 50,-43 56,-43 18,0 91,-97 122,-163 65,-138 87,-296 87,-637 0,-234 -4,-293 -34,-505 -14,-100 -66,-300 -96,-370 -7,-16 -23,-54 -35,-83 -14,-32 -39,-67 -64,-88 -39,-33 -191,-114 -215,-114 -6,0 -19,-4 -29,-9 -36,-20 -115,-31 -219,-31 l -107,0 -64,67 c -36,36 -70,81 -78,98 -16,39 -46,60 -97,68 -26,4 -46,15 -60,34 -12,15 -34,41 -50,57 -29,29 -29,30 -18,95 6,36 16,89 22,116 27,128 20,355 -17,575 -27,165 -39,207 -77,275 -6,11 -19,36 -30,55 -10,19 -24,44 -30,55 -14,25 -137,171 -201,239 -45,49 -45,50 -26,68 10,10 22,35 26,55 3,21 13,49 22,63 22,36 94,123 113,137 9,7 49,40 89,73 85,71 162,114 275,152 71,24 91,27 175,23 52,-2 113,-7 135,-10 z"
       id="path12"
       inkscape:connector-curvature="0"
       style="fill:#7b62b8;fill-opacity:1;stroke:#1d296c;stroke-width:11.19999981;stroke-miterlimit:4;stroke-dasharray:none;stroke-opacity:1" />
    <path
       d="m 5905,5320 c -22,-11 -57,-26 -77,-32 -61,-18 -73,-63 -73,-282 l 0,-178 44,-39 c 35,-32 51,-39 84,-39 52,0 94,28 132,90 16,26 42,54 57,63 59,34 64,177 10,290 -32,65 -102,147 -126,147 -7,0 -30,-9 -51,-20 z m 58,-173 c 11,-21 21,-64 24,-97 5,-55 3,-62 -23,-94 -16,-18 -37,-44 -46,-56 -35,-47 -58,0 -58,120 0,96 32,175 69,168 9,-2 24,-20 34,-41 z"
       id="path14"
       inkscape:connector-curvature="0"
       style="fill:#7b62b8;fill-opacity:1;stroke:#1d296c;stroke-width:11.19999981;stroke-miterlimit:4;stroke-dasharray:none;stroke-opacity:1" />
    <path
       d="m 3677,5704 c -2,-2 -50,-6 -108,-8 -123,-6 -210,-16 -224,-26 -5,-4 -44,-13 -85,-20 -71,-12 -174,-45 -194,-62 -6,-4 -20,-8 -32,-8 -13,0 -26,-4 -29,-10 -3,-5 -14,-10 -24,-10 -10,0 -24,-7 -31,-15 -7,-8 -21,-15 -32,-15 -10,0 -21,-7 -25,-16 -3,-8 -12,-13 -19,-10 -21,8 -196,-67 -270,-116 -23,-16 -45,-28 -50,-28 -4,0 -32,-19 -63,-42 -30,-23 -73,-48 -96,-56 -50,-17 -95,-59 -95,-88 0,-13 8,-38 19,-56 12,-22 22,-71 30,-147 11,-112 20,-141 47,-141 10,0 14,-12 14,-37 0,-25 -3,-33 -9,-24 -5,7 -6,22 -3,33 3,15 1,19 -9,16 -18,-6 -17,-80 5,-313 10,-99 19,-196 20,-215 7,-90 28,-266 33,-273 3,-5 7,-33 9,-64 2,-31 8,-72 14,-92 5,-20 10,-55 10,-78 0,-23 5,-54 11,-70 l 11,-28 13,25 13,25 6,-25 c 12,-52 11,-93 -3,-98 -10,-3 -13,2 -9,21 6,30 -5,52 -21,43 -12,-8 -10,-150 2,-162 11,-12 39,6 33,21 -3,8 -1,17 4,20 6,4 10,-14 10,-41 0,-43 -1,-46 -13,-29 -24,32 -38,9 -32,-53 4,-32 8,-106 9,-167 5,-157 16,-246 36,-275 11,-15 19,-51 22,-91 3,-52 10,-76 31,-106 22,-32 28,-52 29,-107 2,-57 6,-70 28,-91 52,-50 130,-31 130,32 0,27 0,27 36,8 37,-19 68,-19 123,1 49,17 76,41 105,95 18,35 54,63 135,106 24,13 76,49 117,79 40,30 106,77 146,103 40,27 100,75 133,108 33,33 85,76 116,96 31,20 76,55 100,79 24,24 69,63 99,87 30,25 99,89 152,143 91,91 118,112 118,89 0,-5 15,-18 33,-28 28,-17 36,-18 64,-6 57,23 69,74 28,113 -28,27 -32,45 -10,54 8,3 15,9 15,14 0,5 27,37 60,72 33,35 60,68 60,73 0,5 9,16 19,25 28,24 117,192 125,238 10,50 10,164 1,195 -11,37 -74,97 -140,134 -80,45 -213,74 -327,71 l -86,-2 -13,80 c -6,45 -13,110 -14,146 -1,36 -5,78 -10,94 -4,15 -4,31 1,35 33,24 184,288 184,322 0,10 5,21 10,24 6,3 10,34 10,67 0,47 -6,71 -24,102 -67,111 -219,209 -371,240 -16,3 -47,10 -67,15 -20,5 -39,7 -41,5 z m 79,-105 c 97,-18 200,-73 271,-145 39,-39 49,-73 34,-115 -6,-18 -11,-46 -11,-64 0,-19 -8,-39 -20,-50 -11,-10 -20,-23 -20,-29 0,-6 -9,-22 -20,-36 -11,-14 -20,-33 -20,-43 0,-18 -2,-21 -45,-70 -26,-29 -33,-57 -15,-57 6,0 10,-9 10,-19 0,-22 -42,-59 -77,-67 -24,-6 -60,-60 -48,-72 3,-4 10,0 14,7 5,7 14,12 21,9 10,-3 9,-7 -2,-18 -8,-8 -22,-27 -32,-42 -21,-32 -40,-37 -31,-8 9,29 -4,24 -50,-16 -36,-32 -38,-37 -23,-48 13,-10 15,-15 6,-24 -15,-15 -38,-16 -38,-2 0,21 -29,9 -52,-20 -13,-17 -35,-46 -50,-64 -29,-35 -36,-56 -18,-56 18,0 11,-25 -11,-38 -18,-11 -23,-11 -33,3 -10,15 -17,12 -56,-22 -25,-22 -60,-49 -77,-62 -41,-28 -41,-50 -4,-90 37,-39 74,-40 148,-5 30,14 105,41 166,60 62,20 121,39 132,44 144,62 425,66 540,7 97,-49 120,-94 110,-218 -5,-64 -11,-89 -20,-89 -13,0 -45,-52 -45,-74 0,-18 -137,-196 -201,-261 -32,-33 -59,-65 -59,-71 0,-5 -14,-15 -31,-21 -17,-7 -33,-21 -36,-32 -3,-12 -8,-21 -12,-21 -11,-1 -81,-68 -81,-78 0,-5 -7,-15 -15,-22 -12,-10 -13,-16 -4,-26 8,-10 8,-14 0,-14 -6,0 -11,5 -11,10 0,22 -32,8 -73,-34 -24,-23 -50,-47 -58,-52 -8,-5 -25,-22 -39,-37 -21,-24 -22,-30 -10,-38 12,-8 11,-9 -5,-5 -24,7 -55,-12 -124,-76 -29,-27 -56,-48 -61,-48 -5,0 -19,-13 -32,-30 -12,-16 -27,-30 -32,-30 -9,0 -98,-62 -146,-103 -42,-35 -244,-157 -259,-157 -10,0 -41,-16 -91,-48 -21,-13 -51,-22 -76,-22 -54,0 -133,-52 -148,-97 -15,-43 -22,-48 -35,-25 -13,24 -41,183 -48,267 -4,61 -14,89 -44,135 -17,27 -27,125 -34,355 -4,125 -21,318 -31,360 -3,11 -10,67 -15,125 -10,99 -22,199 -33,280 -3,19 -6,71 -7,115 -2,44 -6,85 -10,90 -6,9 -12,59 -25,200 -2,22 -8,94 -14,160 -6,66 -16,161 -22,212 l -10,92 41,47 c 49,56 175,146 246,177 28,12 74,34 104,50 30,16 79,37 110,47 31,10 94,35 140,55 95,40 295,94 356,96 22,1 51,5 65,9 38,12 169,11 236,-1 z m 214,-553 c 0,-2 -7,-17 -15,-32 l -15,-29 0,33 c 0,22 5,32 15,32 8,0 15,-2 15,-4 z m -88,-330 c 4,-26 18,-65 32,-87 34,-51 34,-69 -2,-69 -15,0 -66,-11 -113,-25 -46,-13 -91,-25 -99,-25 -8,0 -28,-7 -44,-15 -15,-8 -37,-15 -48,-15 -17,0 -16,5 13,45 18,25 44,52 58,61 28,18 133,125 158,162 23,33 37,22 45,-32 z M 2448,4497 c 3,-37 -5,-46 -24,-27 -14,14 -5,72 10,67 6,-2 12,-20 14,-40 z m 15,-170 c 5,-32 3,-38 -11,-35 -9,2 -17,9 -16,16 1,6 2,31 3,55 3,47 13,31 24,-36 z m 22,-167 c 0,-18 -6,-35 -12,-37 -9,-3 -13,10 -13,49 1,44 3,50 13,37 7,-9 12,-31 12,-49 z m 39,-326 c 3,-9 6,-25 6,-37 -1,-22 -1,-22 -15,-3 -17,22 -20,56 -6,56 5,0 12,-7 15,-16 z m 30,-494 c 5,-97 3,-112 -8,-97 -9,11 -12,39 -11,80 1,34 3,80 4,101 2,70 9,34 15,-84 z"
       id="path16"
       inkscape:connector-curvature="0"
       style="fill:#7b62b8;fill-opacity:1;stroke:#1d296c;stroke-width:11.19999981;stroke-miterlimit:4;stroke-dasharray:none;stroke-opacity:1" />
    <path
       d="m 3175,5146 c -22,-7 -58,-20 -80,-30 -22,-10 -55,-24 -72,-32 -39,-17 -42,-40 -13,-99 10,-22 28,-83 40,-135 30,-138 41,-169 67,-190 36,-28 84,-36 99,-16 6,9 16,16 20,15 5,-2 21,3 35,10 29,14 92,130 130,243 20,58 22,71 11,101 -6,18 -12,41 -12,50 0,23 -61,68 -112,84 -50,15 -59,15 -113,-1 z m 104,-115 c 25,-16 9,-128 -29,-205 -18,-36 -36,-66 -41,-66 -16,0 -27,33 -54,160 -16,72 -13,77 50,106 35,16 55,17 74,5 z"
       id="path18"
       inkscape:connector-curvature="0"
       style="fill:#7b62b8;fill-opacity:1;stroke:#1d296c;stroke-width:11.19999981;stroke-miterlimit:4;stroke-dasharray:none;stroke-opacity:1" />
    <path
       d="m 3270,3979 c -25,-5 -63,-7 -86,-4 -79,11 -121,-59 -75,-124 11,-15 24,-60 31,-106 15,-104 33,-164 66,-225 22,-41 35,-52 67,-62 35,-11 41,-10 53,7 8,10 14,27 14,37 0,15 4,16 27,7 48,-18 76,-3 121,66 53,80 72,140 72,230 0,82 -18,120 -75,155 -43,26 -142,35 -215,19 z m 153,-109 c 32,-30 7,-190 -41,-259 -13,-20 -28,-46 -33,-58 -5,-13 -12,-23 -16,-23 -16,1 -54,108 -70,198 l -17,94 25,19 c 51,40 126,54 152,29 z"
       id="path20"
       inkscape:connector-curvature="0"
       style="fill:#7b62b8;fill-opacity:1;stroke:#1d296c;stroke-width:11.19999981;stroke-miterlimit:4;stroke-dasharray:none;stroke-opacity:1" />
    <path
       d="m 10154,5365 c -9,-23 3,-45 26,-45 29,0 38,30 15,46 -24,18 -34,18 -41,-1 z"
       id="path22"
       inkscape:connector-curvature="0"
       style="fill:#7b62b8;fill-opacity:1;stroke:#1d296c;stroke-width:11.19999981;stroke-miterlimit:4;stroke-dasharray:none;stroke-opacity:1" />
    <path
       d="m 4530,5098 c -11,-12 -20,-27 -20,-33 0,-6 -5,-49 -11,-95 -11,-85 2,-213 23,-226 4,-3 8,-15 8,-27 1,-12 11,-42 24,-67 13,-25 35,-68 48,-96 26,-53 69,-91 125,-113 46,-18 121,1 159,40 41,43 54,91 54,208 0,99 -2,106 -36,177 -87,175 -302,309 -374,232 z m 196,-170 c 65,-60 95,-124 101,-219 6,-88 -5,-129 -43,-154 -30,-19 -52,-9 -91,42 -36,46 -50,89 -64,191 -12,79 -11,85 11,132 13,28 27,50 32,50 5,0 29,-19 54,-42 z"
       id="path24"
       inkscape:connector-curvature="0"
       style="fill:#7b62b8;fill-opacity:1;stroke:#1d296c;stroke-width:11.19999981;stroke-miterlimit:4;stroke-dasharray:none;stroke-opacity:1" />
    <path
       d="m 9215,4875 c -22,-8 -41,-15 -42,-15 -2,0 -3,-9 -3,-20 0,-11 8,-24 18,-27 41,-16 80,-84 92,-161 7,-46 6,-68 -9,-111 -17,-51 -94,-159 -115,-160 -6,-1 -19,-9 -30,-20 -36,-32 -111,-54 -166,-49 -28,3 -54,8 -58,12 -13,13 -5,111 12,143 8,17 23,53 32,80 23,70 38,83 96,83 39,0 54,5 73,25 46,46 22,111 -37,102 -145,-23 -203,-83 -267,-277 -39,-120 -42,-128 -43,-162 -2,-67 48,-107 155,-123 107,-16 255,54 343,163 21,26 47,56 57,67 36,38 77,161 77,228 0,50 -43,157 -80,197 -41,44 -47,46 -105,25 z"
       id="path26"
       inkscape:connector-curvature="0"
       style="fill:#7b62b8;fill-opacity:1;stroke:#1d296c;stroke-width:11.19999981;stroke-miterlimit:4;stroke-dasharray:none;stroke-opacity:1" />
    <path
       d="m 2848,746 c -19,-18 -24,-46 -9,-46 15,0 33,28 29,46 -3,17 -4,17 -20,0 z"
       id="path28"
       inkscape:connector-curvature="0"
       style="fill:#7b62b8;fill-opacity:1;stroke:#1d296c;stroke-width:11.19999981;stroke-miterlimit:4;stroke-dasharray:none;stroke-opacity:1" />
    <path
       d="m 11417,194 c -4,-4 -7,-16 -7,-26 0,-13 7,-18 26,-18 21,0 25,4 22,22 -3,23 -27,35 -41,22 z"
       id="path30"
       inkscape:connector-curvature="0"
       style="fill:#7b62b8;fill-opacity:1;stroke:#1d296c;stroke-width:11.19999981;stroke-miterlimit:4;stroke-dasharray:none;stroke-opacity:1" />
  </g>
</svg>
