<?xml version="1.0" encoding="UTF-8" standalone="no"?>
<!-- Created with Inkscape (http://www.inkscape.org/) -->
<svg
    xmlns:dc="http://purl.org/dc/elements/1.1/"
    xmlns:cc="http://creativecommons.org/ns#"
    xmlns:rdf="http://www.w3.org/1999/02/22-rdf-syntax-ns#"
    xmlns:svg="http://www.w3.org/2000/svg"
    xmlns="http://www.w3.org/2000/svg"
    xmlns:sodipodi="http://sodipodi.sourceforge.net/DTD/sodipodi-0.dtd"
    xmlns:inkscape="http://www.inkscape.org/namespaces/inkscape"
    xmlns:ns1="http://sozi.baierouge.fr"
    xmlns:xlink="http://www.w3.org/1999/xlink"
    width="1052.36"
    height="1052.3622"
    id="svg2"
    version="1.1"
    inkscape:version="0.47 r22583"
    sodipodi:docname="boy-damaging-camera.svg"
  >
  <title
      id="title3163"
    >NSA Stop Watching Us</title
  >
  <defs
      id="defs4"
    >
    <inkscape:perspective
        sodipodi:type="inkscape:persp3d"
        inkscape:vp_x="0 : 526.18109 : 1"
        inkscape:vp_y="0 : 1000 : 0"
        inkscape:vp_z="744.09448 : 526.18109 : 1"
        inkscape:persp3d-origin="372.04724 : 350.78739 : 1"
        id="perspective10"
    />
    <linearGradient
        x1="248.42"
        y1="659.03"
        gradientTransform="matrix(3.2661,-0.060204,0.024804,1.3456,-513.71,-747.58)"
        x2="332.17"
        gradientUnits="userSpaceOnUse"
        y2="641.86"
        id="linearGradient2934"
      >
      <stop
          offset="0"
          id="stop6741"
      />
      <stop
          offset="1"
          stop-opacity="0"
          id="stop6743"
      />
    </linearGradient
    >
    <inkscape:perspective
        id="perspective3114"
        inkscape:persp3d-origin="117.06 : 77.896667 : 1"
        inkscape:vp_z="234.12 : 116.845 : 1"
        inkscape:vp_y="0 : 1000 : 0"
        inkscape:vp_x="0 : 116.845 : 1"
        sodipodi:type="inkscape:persp3d"
    />
    <filter
        id="filter3147"
        inkscape:label="Invert"
        x="0"
        y="0"
        width="1"
        height="1"
        inkscape:menu="Color"
        inkscape:menu-tooltip="Invert colors"
        color-interpolation-filters="sRGB"
      >
      <feColorMatrix
          id="feColorMatrix3149"
          type="saturate"
          values="1"
          result="fbSourceGraphic"
      />
      <feColorMatrix
          id="feColorMatrix3151"
          in="fbSourceGraphic"
          values="-1 0 0 0 1 0 -1 0 0 1 0 0 -1 0 1 0 0 0 1 0 "
      />
    </filter
    >
  </defs
  >
  <sodipodi:namedview
      id="base"
      pagecolor="#ffffff"
      bordercolor="#666666"
      borderopacity="1.0"
      inkscape:pageopacity="0.0"
      inkscape:pageshadow="2"
      inkscape:zoom="0.1767767"
      inkscape:cx="585.31588"
      inkscape:cy="789.03452"
      inkscape:document-units="px"
      inkscape:current-layer="layer2"
      showgrid="false"
      inkscape:window-width="1022"
      inkscape:window-height="747"
      inkscape:window-x="0"
      inkscape:window-y="19"
      inkscape:window-maximized="0"
  />
  <g
      inkscape:label="background"
      inkscape:groupmode="layer"
      id="layer1"
    >
    <rect
        style="fill:#800000;fill-opacity:1;fill-rule:nonzero;stroke:#800000;stroke-width:5.948668;stroke-linecap:butt;stroke-linejoin:miter;stroke-miterlimit:4;stroke-opacity:1;stroke-dasharray:none;stroke-dashoffset:0"
        id="rect2816"
        width="1046.4069"
        height="1049.6865"
        x="2.9795094"
        y="2.9768105"
    />
    <text
        xml:space="preserve"
        style="font-size:80px;font-style:normal;font-variant:normal;font-weight:normal;font-stretch:normal;text-align:center;text-anchor:middle;fill:#ffffff;fill-opacity:1;stroke:none;font-family:DejaVu Sans;-inkscape-font-specification:DejaVu Sans"
        x="521.54926"
        y="1033.2151"
        id="text3153"
      >
      <tspan
          sodipodi:role="line"
          id="tspan3155"
          x="521.54926"
          y="1033.2151"
          style="font-size:75px;font-style:normal;font-variant:normal;font-weight:bold;font-stretch:normal;font-family:DejaVu Sans;-inkscape-font-specification:DejaVu Sans Bold"
        >#StopWatchingUs</tspan
      >
    </text
    >
  </g
  >
  <g
      inkscape:groupmode="layer"
      id="layer2"
      inkscape:label="camera"
    >
    <g
        id="g2905"
        transform="matrix(-0.3948569,0,0,0.3948569,1069.1391,-71.218718)"
      >
      <g
          id="g2891"
        >
        <g
            id="g2879"
          >
          <g
              id="g2871"
            >
            <g
                id="g2857"
                transform="translate(-6.8293653e-8,-36.769553)"
                style="stroke:#ffffff"
              >
              <g
                  transform="matrix(1.0530468,0.44482436,-0.44482436,1.0530468,71.050178,-297.32372)"
                  id="g2835"
                  style="stroke:#ffffff"
                >
                <rect
                    style="fill:#ffffff;fill-opacity:1;fill-rule:nonzero;stroke:#ffffff;stroke-width:2.95417118;stroke-linecap:butt;stroke-linejoin:miter;stroke-miterlimit:4;stroke-opacity:1;stroke-dasharray:none;stroke-dashoffset:0"
                    id="rect2819"
                    width="447.45551"
                    height="195.01811"
                    x="405.77414"
                    y="398.0065"
                />
                <rect
                    style="fill:#ffffff;fill-opacity:1;fill-rule:nonzero;stroke:#ffffff;stroke-width:2.6552887;stroke-linecap:butt;stroke-linejoin:miter;stroke-miterlimit:4;stroke-opacity:1;stroke-dasharray:none;stroke-dashoffset:0"
                    id="rect2821"
                    width="27.379845"
                    height="75.992805"
                    x="852.51562"
                    y="458.07159"
                />
              </g
              >
              <path
                  id="rect2846"
                  d="m 867.81921,562.67821 c 1.52366,-3.39327 3.04734,-6.78654 4.57108,-10.17978 -27.1059,-15.99105 -54.21178,-31.98211 -81.31768,-47.97317 -3.68564,8.7422 -7.37131,17.48441 -11.05697,26.2266 29.26784,10.64212 58.53568,21.28422 87.80357,31.92635 z"
                  style="fill:#ffffff;fill-opacity:1;fill-rule:nonzero;stroke:#ffffff;stroke-width:3.22025108;stroke-linecap:butt;stroke-linejoin:miter;stroke-miterlimit:4;stroke-opacity:1;stroke-dashoffset:0"
              />
            </g
            >
            <rect
                style="fill:#ffffff;fill-opacity:1;fill-rule:nonzero;stroke:#ffffff;stroke-width:3.79169035;stroke-linecap:butt;stroke-linejoin:miter;stroke-miterlimit:4;stroke-opacity:1;stroke-dasharray:none;stroke-dashoffset:0"
                id="rect2850"
                width="56.294853"
                height="289.64008"
                x="423.35065"
                y="518.63348"
                ry="38.199123"
            />
          </g
          >
          <g
              transform="matrix(1.0928505,0,0,1.0928505,-125.21896,-93.014632)"
              id="g2831"
            >
            <path
                sodipodi:type="arc"
                style="fill:#800000;fill-opacity:1;fill-rule:nonzero;stroke:#800000;stroke-width:3.51799989;stroke-linecap:butt;stroke-linejoin:miter;stroke-miterlimit:4;stroke-opacity:1;stroke-dasharray:none;stroke-dashoffset:0"
                id="path2825"
                sodipodi:cx="483.92621"
                sodipodi:cy="548.54858"
                sodipodi:rx="37.565048"
                sodipodi:ry="35.355339"
                d="m 521.49126,548.54858 c 0,19.52622 -16.81845,35.35534 -37.56505,35.35534 -20.7466,0 -37.56505,-15.82912 -37.56505,-35.35534 0,-19.52621 16.81845,-35.35534 37.56505,-35.35534 20.74077,0 37.55679,15.82056 37.56504,35.34128"
                sodipodi:start="0"
                sodipodi:end="6.2827876"
                sodipodi:open="true"
                transform="translate(50.8233,-8.8388348)"
            />
            <path
                sodipodi:type="arc"
                style="fill:#ffffff;fill-opacity:1;fill-rule:nonzero;stroke:#800000;stroke-width:3.51799989;stroke-linecap:butt;stroke-linejoin:miter;stroke-miterlimit:4;stroke-opacity:1;stroke-dasharray:none;stroke-dashoffset:0"
                id="path2829"
                sodipodi:cx="538.8927"
                sodipodi:cy="544.95782"
                sodipodi:rx="15.191748"
                sodipodi:ry="15.191748"
                d="m 554.08445,544.95782 c 0,8.39018 -6.80158,15.19175 -15.19175,15.19175 -8.39017,0 -15.19175,-6.80157 -15.19175,-15.19175 0,-8.39017 6.80158,-15.19174 15.19175,-15.19174 8.38781,0 15.18841,6.79789 15.19175,15.1857"
                sodipodi:start="0"
                sodipodi:end="6.2827876"
                sodipodi:open="true"
                transform="matrix(1.3259014,0,0,1.3259014,-178.94043,-182.57434)"
            />
          </g
          >
        </g
        >
        <rect
            style="fill:#ffffff;fill-opacity:1;fill-rule:nonzero;stroke:#ffffff;stroke-width:3.78626728;stroke-linecap:butt;stroke-linejoin:miter;stroke-miterlimit:4;stroke-opacity:1;stroke-dasharray:none;stroke-dashoffset:0"
            id="rect2866"
            width="190.50964"
            height="23.773355"
            x="229.40096"
            y="713.08514"
        />
      </g
      >
      <rect
          y="646.68433"
          x="180.51367"
          height="162.93872"
          width="46.266113"
          id="rect2869"
          style="fill:#ffffff;fill-opacity:1;fill-rule:nonzero;stroke:#ffffff;stroke-width:2.5067184;stroke-linecap:butt;stroke-linejoin:miter;stroke-miterlimit:4;stroke-opacity:1;stroke-dasharray:none;stroke-dashoffset:0"
      />
    </g
    >
    <g
        id="g3120"
        transform="matrix(2.7964694,0,0,2.7964694,105.25319,296.8294)"
        style="filter:url(#filter3147)"
      >
      <g
          display="none"
          transform="translate(-46.898,24.986)"
          id="layer1-3"
          style="display:none"
        >
        <path
            display="inline"
            transform="translate(-205.17,160)"
            d="m 316.68,30.01 c 60.151,1.9171 -64.161,5.0512 -71.737,5.3378 -38.446,-0.33194 81.37,0.80905 122.99,1.2624 87.5,2.6182 -117.28,4.0161 -128.88,4.5734 3.4012,-7.4124 160.11,-10.724 117.93,-0.93202 -66.657,12.748 -100.54,14.66 12.595,9.0588 39.254,1.1972 68.16,-3.8659 104.84,-5.8495 3.5876,1.4717 18.733,-1.6189 11.122,8.9199 -17.994,0.13607 -18.371,-0.96131 -50.645,0.22621 -49.508,1.3725 -278.13,23.462 -110.31,-12.307 30.436,-5.3979 -148.68,6.1152 -55.195,-4.0598 38.867,-0.89722 205.33,-2.3204 70.71,4.7186 -47.992,-0.80317 -219.5,-1.2787 -67.228,-10.143 70.052,-2.4864 89.62,1.8674 12.02,3.4614 l 31.781,-4.2677 1.2e-4,6e-5 z"
            id="path6737"
            style="fill:url(#linearGradient2934);display:inline"
        />
      </g
      >
      <g
          transform="translate(-252.07,184.99)"
          id="layer3"
          style="stroke:#000000"
        >
        <path
            d="m 387.78,-51.628 c 14.203,-6.7777 48.186,-20.169 48.186,-20.169 0,0 24.556,39.493 25.646,39.288 1.385,-0.26082 11.562,-9.8934 11.562,-9.8934"
            id="path4878"
            style="fill:none;stroke-width:1.89999998"
        />
        <path
            d="m 385.86,-51.367 c -3.4776,14.913 0.0828,31.875 -1.8167,47.27 -8.1754,16.027 -27.12,31.086 -31.862,36.992"
            id="path4880"
            style="fill:none;stroke-width:1.89999998"
        />
        <path
            d="m 472.56,-50.729 c 8.1565,-1.2617 14.951,-10.622 12.688,-6.1157 -4.6595,9.2783 -6.1384,7.7053 -12.6,15.298 -6.9974,8.2226 -18.844,16.44 -0.0879,-9.1823 z"
            id="path4882"
            style="fill-rule:evenodd;stroke-width:1px"
        />
        <path
            d="m 358.63,31.441 c -5.6095,2.7896 -10.678,-1.3829 -6.7699,2.6624 8.0465,8.3285 20.019,17.269 28.355,12.993 9.0743,-4.6541 4.1701,4.2735 -21.585,-15.656 z"
            id="path5757"
            style="fill-rule:evenodd;stroke-width:1px"
        />
        <path
            d="m 268.93,-168.91 c 0,0 -8.7895,-3.2341 -11.073,-0.91659 -2.5106,2.548 0.75758,7.8108 1.61,11.73 1.3276,6.1045 3.3186,4.0519 8.0896,4.7817 1.3679,-4.6941 7.184,-6.9228 1.3733,-15.595 z"
            id="path2920"
            style="fill:none;stroke-width:2.0999999;stroke-linecap:round;stroke-linejoin:round"
        />
      </g
      >
      <g
          transform="translate(-46.898,24.986)"
          id="layer2-0"
          style="stroke:#000000"
        >
        <path
            d="m 133.65,46.387 c 27.395,-4.9661 38.922,-11.209 38.922,-11.209 l 45.224,-25.126"
            id="path4876"
            style="fill:none;stroke-width:1.89999998"
        />
        <path
            d="m 49.769,5.1063 c -0.50959,-5.3468 -2.6782,-4.3701 -2.3345,-7.7154 0.68809,-6.696 3.0348,-8.0799 5.8012,1.557 3.0113,10.49 16.652,24.814 -3.4667,6.1584 z"
            id="path5759"
            style="fill-rule:evenodd;stroke-width:1px"
        />
        <path
            transform="translate(-205.17,160)"
            d="m 337.07,-113.94 c -31.867,4.7389 -49.986,9.8167 -49.986,9.8167 0,0 -7.5502,-2.8979 -22.727,-44.259"
            id="path4874"
            style="fill:none;stroke-width:1.89999998"
        />
        <path
            d="m 230.91,4.7869 c 6.0659,-0.76234 11.92,-4.749 10.307,-1.7772 -1.5443,2.8466 -5.7006,11.345 -12.494,8.5234 -7.3946,-3.0709 -20.171,1.4845 2.1868,-6.7462 z"
            id="path5761"
            style="fill-rule:evenodd;stroke-width:1px"
        />
        <path
            d="m 125.15,36.984 c 1.5921,3.0273 1.524,0.53105 4.764,2.7376 7.5607,13.968 54.172,69.117 52.072,71.1 -8.5708,8.0938 -46.794,-55.237 -52.811,-72.799 -0.78355,-2.2869 -2.721,1.2849 -4.0251,-1.039 z"
            id="path3077"
            style="fill:none;stroke-width:3;stroke-linecap:round;stroke-linejoin:round"
        />
        <path
            transform="matrix(1.1789,-0.61539,0.65217,1.1705,-668.89,-159.82)"
            d="m 444.03,362.03 c 5.1653,-9.4742 13.303,-9.0126 18.175,1.0312 4.8724,10.044 4.635,25.866 -0.53031,35.34 -5.1653,9.4742 -13.303,9.0126 -18.175,-1.0312 -4.8278,-9.9517 -4.6452,-25.601 0.40978,-35.116"
            id="path3075"
            style="fill:none;stroke-width:1.83790004;stroke-linecap:round"
        />
        <path
            transform="matrix(1.0093,-0.68604,0.78285,1.0924,-481.62,-203.16)"
            d="m 293.26,368.63 c 1.4348,-1.7595 3.6952,-1.6738 5.0486,0.1915 1.3534,1.8652 1.2875,4.8037 -0.14731,6.5632 -1.43481,1.7595 -3.6952,1.6738 -5.0486,-0.1915 -1.3411,-1.8482 -1.2903,-4.7544 0.11383,-6.5216"
            id="path4835"
            style="fill:none;stroke-width:1.62049997;stroke-linecap:round"
        />
        <path
            d="m 130.1,18.297 c -4.2408,-2.7204 -11.218,2.7858 -9.1243,7.9862"
            id="path4837"
            style="fill:none;stroke-width:1.25"
        />
        <path
            transform="matrix(1.0093,-0.68604,0.78285,1.0924,-470.12,-208.64)"
            d="m 293.26,368.63 c 1.4348,-1.7595 3.6952,-1.6738 5.0486,0.1915 1.3534,1.8652 1.2875,4.8037 -0.14731,6.5632 -1.43481,1.7595 -3.6952,1.6738 -5.0486,-0.1915 -1.3411,-1.8482 -1.2903,-4.7544 0.11383,-6.5216"
            id="path4835-8"
            style="fill:none;stroke-width:1.62049997;stroke-linecap:round"
        />
        <path
            d="m 120.7,26.162 c 4.2408,2.7204 11.218,-2.7858 9.1243,-7.9862"
            id="path4837-4"
            style="fill:none;stroke-width:1.25"
        />
      </g
      >
    </g
    >
  </g
  >
  <metadata
    >
    <rdf:RDF
      >
      <cc:Work
        >
        <dc:format
          >image/svg+xml</dc:format
        >
        <dc:type
            rdf:resource="http://purl.org/dc/dcmitype/StillImage"
        />
        <cc:license
            rdf:resource="http://creativecommons.org/licenses/publicdomain/"
        />
        <dc:publisher
          >
          <cc:Agent
              rdf:about="http://openclipart.org/"
            >
            <dc:title
              >Openclipart</dc:title
            >
          </cc:Agent
          >
        </dc:publisher
        >
        <dc:title
          >NSA Stop Watching Us</dc:title
        >
        <dc:date
          >2014-02-07T00:56:01</dc:date
        >
        <dc:description
          >boy hurling a stone at a surveillance camera. join the protest at TheDayWeFightBack.org</dc:description
        >
        <dc:source
          >https://openclipart.org/detail/190660/nsa-stop-watching-us-by-rsiddharth-190660</dc:source
        >
        <dc:creator
          >
          <cc:Agent
            >
            <dc:title
              >rsiddharth</dc:title
            >
          </cc:Agent
          >
        </dc:creator
        >
        <dc:subject
          >
          <rdf:Bag
            >
            <rdf:li
              >nsa</rdf:li
            >
            <rdf:li
              >prism</rdf:li
            >
            <rdf:li
              >protest</rdf:li
            >
            <rdf:li
              >surveillance</rdf:li
            >
            <rdf:li
              >worldnews</rdf:li
            >
            <rdf:li
              >worldnews2014</rdf:li
            >
          </rdf:Bag
          >
        </dc:subject
        >
      </cc:Work
      >
      <cc:License
          rdf:about="http://creativecommons.org/licenses/publicdomain/"
        >
        <cc:permits
            rdf:resource="http://creativecommons.org/ns#Reproduction"
        />
        <cc:permits
            rdf:resource="http://creativecommons.org/ns#Distribution"
        />
        <cc:permits
            rdf:resource="http://creativecommons.org/ns#DerivativeWorks"
        />
      </cc:License
      >
    </rdf:RDF
    >
  </metadata
  >
</svg
>
