<?xml version="1.0" encoding="UTF-8" standalone="no"?>
<svg
    xmlns:rdf="http://www.w3.org/1999/02/22-rdf-syntax-ns#"
    xmlns="http://www.w3.org/2000/svg"
    xmlns:cc="http://creativecommons.org/ns#"
    xmlns:xlink="http://www.w3.org/1999/xlink"
    xmlns:dc="http://purl.org/dc/elements/1.1/"
    xmlns:svg="http://www.w3.org/2000/svg"
    xmlns:inkscape="http://www.inkscape.org/namespaces/inkscape"
    xmlns:sodipodi="http://sodipodi.sourceforge.net/DTD/sodipodi-0.dtd"
    xmlns:ns1="http://sozi.baierouge.fr"
    viewBox="0 0 635.72 603.35"
    height="100%"
    width="100%"
    version="1.1"
  >
  <defs
  />
  <g
      stroke-linejoin="round"
      transform="translate(-57.14 -230.64)"
      stroke-linecap="round"
      stroke-dasharray="none"
      stroke-miterlimit="4"
      stroke-width="1.00000004999999990"
    >
    <g
        stroke-linejoin="round"
        transform="translate(175.54 -447.95)"
        stroke-linecap="round"
        stroke-dasharray="none"
        stroke-miterlimit="4"
      >
      <g
          transform="translate(199.46 628.94)"
          stroke="#000"
          stroke-width="1.00000004999999990"
        >
        <path
            d="m61.372,538.58v17.717l30.686,17.717v-17.717z"
            fill="#6e0000"
        />
        <path
            d="m92.058,574.02,61.372-35.433v-17.717l-61.372,35.433z"
            fill="#c80000"
        />
        <path
            d="m61.372,538.58,30.686,17.717,61.372-35.433-30.686-17.717z"
            fill="#ff3c3c"
        />
      </g
      >
      <g
          transform="matrix(-1 0 0 1 306.86 690.94)"
          stroke="#000"
          stroke-width="1.00000004999999990"
        >
        <path
            d="m61.372,538.58v17.717l30.686,17.717v-17.717z"
            fill="#c80000"
        />
        <path
            d="m92.058,574.02,61.372-35.433v-17.717l-61.372,35.433z"
            fill="#6e0000"
        />
        <path
            d="m61.372,538.58,30.686,17.717,61.372-35.433-30.686-17.717z"
            fill="#ff3c3c"
        />
      </g
      >
      <g
          stroke-width="1.00000004999999990"
        >
        <path
            d="m76.715,777.76,61.372-35.433,30.686,17.717-61.372,35.433z"
            stroke="#000"
            fill="#ff3c3c"
        />
        <path
            d="m15.343,937.2v17.717l30.686-17.717v-17.716z"
            stroke="#000"
            fill="#c80000"
        />
        <path
            d="m230.14,1061.2,30.686,17.717,30.686-17.717-30.686-17.716z"
            stroke="#000"
            fill="#ff3c3c"
        />
        <path
            d="m260.83,1043.5v-17.717l30.686,17.717v17.716z"
            stroke="#000"
            fill="#650000"
        />
        <path
            d="m230.14,1078.9v-17.717l30.686,17.717v17.716z"
            stroke="#000"
            fill="#650000"
        />
        <g
            transform="translate(-92.058 566.93)"
            stroke="#000"
            fill="#650000"
          >
          <path
              d="m291.52,175.39v-17.717l61.372,35.433v17.717z"
          />
          <path
              d="m352.89,210.83v-17.717l61.372,35.433v17.717z"
          />
          <path
              d="m414.26,246.26v-17.717l61.372,35.433v17.717z"
          />
          <path
              d="m475.63,281.69v-17.717l61.372,35.433v17.717z"
          />
          <path
              d="m322.2,210.83v-17.717l61.372,35.433v17.717z"
          />
          <path
              d="m383.57,246.26v-17.717l61.372,35.433v17.717z"
          />
          <path
              d="m444.95,281.69v-17.717l61.372,35.433v17.717z"
          />
          <path
              d="m291.52,210.83v-17.717l61.372,35.433v17.717z"
          />
          <path
              d="m352.89,246.26v-17.717l61.372,35.433v17.717z"
          />
          <path
              d="m414.26,281.69v-17.717l61.372,35.433v17.717z"
          />
          <path
              d="m322.2,246.26v-17.717l61.372,35.433v17.717z"
          />
          <path
              d="m383.57,281.69v-17.717l61.372,35.433v17.717z"
          />
          <path
              d="m444.95,317.13v-17.717l61.372,35.433v17.717z"
          />
          <path
              d="m291.52,246.26v-17.717l61.372,35.433v17.717z"
          />
          <path
              d="m352.89,281.69v-17.717l61.372,35.433v17.717z"
          />
          <path
              d="m414.26,317.13v-17.717l61.372,35.433v17.717z"
          />
          <path
              d="m322.2,281.69v-17.717l61.372,35.433v17.717z"
          />
          <path
              d="m383.57,317.13v-17.717l61.372,35.433v17.717z"
          />
          <path
              d="m291.52,281.69v-17.717l61.372,35.433v17.717z"
          />
          <path
              d="m352.89,317.13v-17.717l61.372,35.433v17.717z"
          />
          <path
              d="m322.2,317.13v-17.717l61.372,35.433v17.717z"
          />
          <path
              d="m383.57,352.56v-17.717l61.372,35.433v17.717z"
          />
          <path
              d="m291.52,193.11v-17.717l30.686,17.717v17.717z"
          />
          <path
              d="m291.52,228.54v-17.717l30.686,17.717v17.717z"
          />
          <path
              d="m291.52,263.98v-17.717l30.686,17.717v17.717z"
          />
          <path
              d="m291.52,299.41v-17.717l30.686,17.717v17.717z"
          />
          <path
              d="m506.32,317.13v-17.717l30.686,17.717v17.717z"
          />
          <path
              d="m475.63,317.13v-17.717l30.686,17.717v17.717z"
          />
          <path
              d="m444.95,352.56v-17.717l30.686,17.717v17.717z"
          />
          <path
              d="m414.26,352.56v-17.717l30.686,17.717v17.717z"
          />
        </g
        >
        <g
            transform="translate(-92.058 566.93)"
            stroke="#000"
            fill="#c80000"
          >
          <path
              d="m76.715,281.69v17.717l61.372-35.433v-17.717z"
          />
          <path
              d="m138.09,246.26v17.717l61.372-35.433v-17.717z"
          />
          <path
              d="m107.4,281.69v17.717l61.372-35.433v-17.717z"
          />
          <path
              d="m168.77,246.26v17.717l61.372-35.433v-17.717z"
          />
          <path
              d="m230.14,210.83v17.717l61.372-35.433v-17.717z"
          />
          <path
              d="m76.715,317.13v17.717l61.372-35.433v-17.717z"
          />
          <path
              d="m138.09,281.69v17.717l61.372-35.433v-17.717z"
          />
          <path
              d="m199.46,246.26v17.717l61.372-35.433v-17.717z"
          />
          <path
              d="m107.4,317.13v17.717l61.372-35.433v-17.717z"
          />
          <path
              d="m168.77,281.69v17.717l61.372-35.433v-17.717z"
          />
          <path
              d="m230.14,246.26v17.717l61.372-35.433v-17.717z"
          />
          <path
              d="m138.09,317.13v17.717l61.372-35.433v-17.717z"
          />
          <path
              d="m199.46,281.69v17.717l61.372-35.433v-17.717z"
          />
          <path
              d="m230.14,281.69v17.717l61.372-35.433v-17.717z"
          />
          <path
              d="m168.77,317.13v17.717l61.372-35.433v-17.717z"
          />
          <path
              d="m107.4,352.56v17.717l61.372-35.433v-17.717z"
          />
          <path
              d="m138.09,352.56v17.717l61.372-35.433v-17.717z"
          />
          <path
              d="m46.029,317.13v17.717l61.372-35.433v-17.717z"
          />
          <path
              d="m199.46,317.13v17.717l61.372-35.433v-17.717z"
          />
          <path
              d="m168.77,352.56v17.717l61.372-35.433v-17.717z"
          />
          <path
              d="m230.14,317.13v17.717l61.372-35.433v-17.717z"
          />
          <path
              d="m46.029,299.41v17.717l30.686-17.717v-17.717z"
          />
          <path
              d="m76.715,334.84v17.717l30.686-17.717v-17.717z"
          />
          <path
              d="m107.4,334.84v17.717l30.686-17.717v-17.717z"
          />
          <path
              d="m138.09,370.28v17.717l30.686-17.717v-17.717z"
          />
          <path
              d="m260.83,175.39v17.717l30.686-17.717v-17.717z"
          />
          <path
              d="m260.83,210.83v17.717l30.686-17.717v-17.717z"
          />
          <path
              d="m260.83,246.26v17.717l30.686-17.717v-17.717z"
          />
          <path
              d="m260.83,281.69v17.717l30.686-17.717v-17.717z"
          />
        </g
        >
        <path
            d="m291.52,1061.2-46.029-8.8583,15.343-8.8582z"
            fill="#500"
        />
        <g
            transform="translate(-92.058 566.93)"
            stroke="#000"
            fill="#c80000"
          >
          <path
              d="m352.89,476.57v17.717l61.372-35.433v-17.717z"
          />
          <path
              d="m291.52,565.16v17.717l30.686-17.717v-17.717z"
          />
          <path
              d="m291.52,600.59v17.717l30.686-17.717v-17.717z"
          />
          <path
              d="m291.52,582.87v17.717l61.372-35.433v-17.717z"
          />
          <path
              d="m322.2,547.44v17.717l61.372-35.433v-17.717z"
          />
          <path
              d="m322.2,582.87v17.717l61.372-35.433v-17.717z"
          />
          <path
              d="m352.89,547.44v17.717l61.372-35.433v-17.717z"
          />
          <path
              d="m352.89,512.01v17.717l61.372-35.433v-17.717z"
          />
          <path
              d="m383.57,441.14v17.717l61.372-35.433v-17.717z"
          />
          <path
              d="m414.26,441.14v17.717l61.372-35.433v-17.717z"
          />
          <path
              d="m383.57,476.57v17.717l61.372-35.433v-17.717z"
          />
          <path
              d="m383.57,512.01v17.717l61.372-35.433v-17.717z"
          />
          <path
              d="m383.57,547.44v17.717l61.372-35.433v-17.717z"
          />
          <path
              d="m414.26,512.01v17.717l61.372-35.433v-17.717z"
          />
          <path
              d="m414.26,476.57v17.717l61.372-35.433v-17.717z"
          />
          <path
              d="m444.95,405.71v17.717l61.372-35.433v-17.717z"
          />
          <path
              d="m475.63,405.71v17.717l61.372-35.433v-17.717z"
          />
          <path
              d="m444.95,441.14v17.717l61.372-35.433v-17.717z"
          />
          <path
              d="m444.95,476.57v17.717l61.372-35.433v-17.717z"
          />
          <path
              d="m444.95,512.01v17.717l61.372-35.433v-17.717z"
          />
          <path
              d="m475.63,476.57v17.717l61.372-35.433v-17.717z"
          />
          <path
              d="m475.63,441.14v17.717l61.372-35.433v-17.717z"
          />
          <path
              d="m506.32,370.28v17.717l61.372-35.433v-17.717z"
          />
          <path
              d="m537,370.28v17.717l61.372-35.433v-17.717z"
          />
          <path
              d="m506.32,405.71v17.717l61.372-35.433v-17.717z"
          />
          <path
              d="m506.32,441.14v17.717l61.372-35.433v-17.717z"
          />
          <path
              d="m506.32,476.57v17.717l61.372-35.433v-17.717z"
          />
          <path
              d="m537,441.14v17.717l61.372-35.433v-17.717z"
          />
          <path
              d="m537,405.71v17.717l61.372-35.433v-17.717z"
          />
          <path
              d="m414.26,405.71v17.717l61.372-35.433v-17.717z"
          />
          <path
              d="m475.63,370.28v17.717l61.372-35.433v-17.717z"
          />
          <path
              d="m537,334.84v17.717l61.372-35.433v-17.717z"
          />
          <path
              d="m567.69,334.84v17.717l30.686-17.717v-17.717z"
          />
          <path
              d="m567.69,370.28v17.717l30.686-17.717v-17.717z"
          />
          <path
              d="m567.69,405.71v17.717l30.686-17.717v-17.717z"
          />
          <path
              d="m567.69,441.14v17.717l30.686-17.717v-17.717z"
          />
        </g
        >
        <g
            transform="matrix(1 0 0 -1 -398.92 1484.6)"
            stroke="#000"
            fill="#650000"
          >
          <path
              d="m291.52,494.29v17.717l30.686-17.717v-17.717z"
          />
          <path
              d="m322.2,476.57v17.717l61.372-35.433v-17.717z"
          />
          <path
              d="m291.52,512.01v17.717l61.372-35.433v-17.717z"
          />
          <path
              d="m352.89,476.57v17.717l61.372-35.433v-17.717z"
          />
          <path
              d="m291.52,529.72v17.717l30.686-17.717v-17.717z"
          />
          <path
              d="m291.52,565.16v17.717l30.686-17.717v-17.717z"
          />
          <path
              d="m291.52,600.59v17.717l30.686-17.717v-17.717z"
          />
          <path
              d="m291.52,547.44v17.717l61.372-35.433v-17.717z"
          />
          <path
              d="m291.52,582.87v17.717l61.372-35.433v-17.717z"
          />
          <path
              d="m322.2,512.01v17.717l61.372-35.433v-17.717z"
          />
          <path
              d="m322.2,547.44v17.717l61.372-35.433v-17.717z"
          />
          <path
              d="m322.2,582.87v17.717l61.372-35.433v-17.717z"
          />
          <path
              d="m352.89,547.44v17.717l61.372-35.433v-17.717z"
          />
          <path
              d="m352.89,512.01v17.717l61.372-35.433v-17.717z"
          />
          <path
              d="m383.57,441.14v17.717l61.372-35.433v-17.717z"
          />
          <path
              d="m414.26,441.14v17.717l61.372-35.433v-17.717z"
          />
          <path
              d="m383.57,476.57v17.717l61.372-35.433v-17.717z"
          />
          <path
              d="m383.57,512.01v17.717l61.372-35.433v-17.717z"
          />
          <path
              d="m414.26,476.57v17.717l61.372-35.433v-17.717z"
          />
          <path
              d="m444.95,405.71v17.717l61.372-35.433v-17.717z"
          />
          <path
              d="m475.63,405.71v17.717l61.372-35.433v-17.717z"
          />
          <path
              d="m444.95,441.14v17.717l61.372-35.433v-17.717z"
          />
          <path
              d="m444.95,476.57v17.717l61.372-35.433v-17.717z"
          />
          <path
              d="m475.63,441.14v17.717l61.372-35.433v-17.717z"
          />
          <path
              d="m506.32,370.28v17.717l61.372-35.433v-17.717z"
          />
          <path
              d="m537,370.28v17.717l61.372-35.433v-17.717z"
          />
          <path
              d="m506.32,405.71v17.717l61.372-35.433v-17.717z"
          />
          <path
              d="m291.52,476.57v17.717l61.372-35.433v-17.717z"
          />
          <path
              d="m352.89,441.14v17.717l61.372-35.433v-17.717z"
          />
          <path
              d="m414.26,405.71v17.717l61.372-35.433v-17.717z"
          />
          <path
              d="m475.63,370.28v17.717l61.372-35.433v-17.717z"
          />
          <path
              d="m537,334.84v17.717l61.372-35.433v-17.717z"
          />
          <path
              d="m567.69,334.84v17.717l30.686-17.717v-17.717z"
          />
        </g
        >
        <g
            transform="translate(-92.058 566.93)"
            stroke="#000"
            fill="#ff3c3c"
          >
          <path
              d="m383.57,387.99,61.372-35.433,30.686,17.717-61.372,35.433z"
          />
          <path
              d="m444.95,352.56,61.372-35.433,30.686,17.717-61.372,35.433z"
          />
          <path
              d="m506.32,317.13,61.372-35.433,30.686,17.717-61.372,35.433z"
          />
          <path
              d="m107.4,334.84-61.371-35.43-30.686,17.72,61.372,35.43z"
          />
          <path
              d="m-15.343,299.41,61.372-35.43,30.686,17.71-61.372,35.44z"
          />
          <path
              d="m46.029,263.98,61.372-35.433,30.686,17.717-61.372,35.433z"
          />
          <path
              d="m107.4,228.54,61.372-35.433,30.686,17.717-61.372,35.433z"
          />
          <path
              d="m230.14,157.68,61.372-35.433,30.686,17.717-61.372,35.433z"
          />
          <path
              d="m383.57,175.39-61.372-35.433-30.686,17.717,61.372,35.433z"
          />
          <path
              d="m444.95,210.83-61.372-35.433-30.686,17.717,61.372,35.433z"
          />
          <path
              d="m506.32,246.26-61.372-35.433-30.686,17.717,61.372,35.433z"
          />
          <path
              d="m567.69,281.69-61.372-35.433-30.686,17.717,61.372,35.433z"
          />
        </g
        >
        <path
            d="m-15.343,919.49v17.716l30.686-17.716v-17.717z"
            stroke="#000"
            fill="#c80000"
        />
        <path
            d="m15.343,954.92v17.717l30.686-17.717v-17.716z"
            stroke="#000"
            fill="#c80000"
        />
        <path
            d="m168.77,1096.7v17.716l30.686-17.716v-17.717z"
            stroke="#000"
            fill="#c80000"
        />
        <path
            d="m291.52,972.64v-17.717l30.686,17.717v17.717z"
            stroke="#000"
            fill="#650000"
        />
        <path
            d="m260.83,1008.1v-17.717l30.686,17.717v17.716z"
            stroke="#000"
            fill="#650000"
        />
        <path
            d="m230.14,1043.5v-17.717l30.686,17.717v17.716z"
            stroke="#000"
            fill="#650000"
        />
        <path
            d="m107.4,1025.8v17.717l30.686-17.717v-17.716z"
            stroke="#000"
            fill="#c80000"
        />
        <path
            d="m138.09,1061.2v17.717l30.686-17.717v-17.716z"
            stroke="#000"
            fill="#c80000"
        />
        <path
            d="m138.09,1008.1-61.372-35.433-30.686,17.717,61.372,35.433z"
            stroke="#000"
            fill="#ff3c3c"
        />
        <path
            d="m-15.343,937.2,30.686,17.72,30.686-17.72-30.686-17.71z"
            stroke="#000"
            fill="#ff3c3c"
        />
        <path
            d="m15.343,972.64,30.686,17.71,30.686-17.71-30.686-17.72z"
            stroke="#000"
            fill="#ff3c3c"
        />
        <path
            d="m107.4,1043.5,30.686,17.717,30.686-17.717-30.686-17.716z"
            stroke="#000"
            fill="#ff3c3c"
        />
        <path
            d="m138.09,1078.9,30.686,17.717,30.686-17.717-30.686-17.716z"
            stroke="#000"
            fill="#ff3c3c"
        />
        <path
            d="m260.83,990.35,30.686,17.716,30.686-17.716-30.686-17.717z"
            stroke="#000"
            fill="#ff3c3c"
        />
        <path
            d="m230.14,1025.8,30.686,17.716,30.686-17.716-30.686-17.717z"
            stroke="#000"
            fill="#ff3c3c"
        />
        <path
            d="m168.77,1114.4,30.686,17.717,30.686-17.717-30.686-17.716z"
            stroke="#000"
            fill="#ff3c3c"
        />
        <path
            d="m199.46,1096.7,30.686,17.717,30.686-17.717-30.686-17.716z"
            stroke="#000"
            fill="#ff3c3c"
        />
        <path
            d="m322.2,990.35-46.029-8.8583,15.343-8.8583z"
            fill="#500"
        />
        <path
            d="m291.52,1025.8-46.029-8.8583,15.343-8.8583z"
            fill="#500"
        />
        <path
            d="m260.83,1096.7-46.029-8.8582,15.343-8.8583z"
            fill="#500"
        />
        <path
            d="m138.09,742.32v-17.717l30.686,17.717v17.717z"
            stroke="#000"
            fill="#650000"
        />
        <path
            d="m168.77,760.04-46.029-8.8583,15.343-8.8583z"
            fill="#500"
        />
      </g
      >
      <g
          transform="matrix(.86603 -.5 .5 .86603 -219.79 820.36)"
          stroke="#000"
          stroke-width="0.99999607000000001"
        >
        <path
            d="m61.372,538.58v17.717l30.686,17.717v-17.717z"
            fill="#6e0000"
        />
        <path
            d="m92.058,574.02,61.372-35.433v-17.717l-61.372,35.433z"
            fill="#c80000"
        />
        <path
            d="m61.372,538.58,30.686,17.717,61.372-35.433-30.686-17.717z"
            fill="#ff3c3c"
        />
      </g
      >
    </g
    >
  </g
  >
  <path
      stroke-linejoin="round"
      style="enable-background:accumulate;color:#000000;"
      d="m578.69,356.05c1.1364-10.843,15.343-44.284,6.0091-56.614,9.3337-5.387,30.553-32.506,40.02-30.197l-0.00004-81.496-156.5,90.354c16.445,63.572-28.862,41.308-20.702,116.88-31.457,72.685-111.06,33.849-109.29,99.908z"
      stroke-dashoffset="0"
      stroke="#000"
      stroke-linecap="round"
      stroke-miterlimit="4"
      stroke-dasharray="none"
      stroke-width="1"
      fill="#fff6d5"
  />
  <path
      stroke-linejoin="round"
      style="enable-background:accumulate;color:#000000;"
      d="M317.86,506.64,11,329.44,10.999,187.74,87.714,232.04c-5.1143,26.575-37.773,13.152-15.343,79.724,27.714,4.6191,35.445,15.737,46.029,26.575,18.274,18.712,42.27,33.11,65.165,46.824,36.317,21.753,81.336,35.774,89.976,60.418,17.531,27.562,6.9384,21.733,13.149,43.066"
      stroke-dashoffset="0"
      stroke="#000"
      stroke-linecap="round"
      stroke-miterlimit="4"
      stroke-dasharray="none"
      stroke-width="1"
      fill="#aca793"
  />
  <path
      stroke-linejoin="round"
      style="enable-background:accumulate;color:#000000;"
      d="M317.86,187.74,440.6,258.61,563.35,187.74,317.86,46.012z"
      stroke-dashoffset="0"
      stroke="#000"
      stroke-linecap="round"
      stroke-miterlimit="4"
      stroke-dasharray="none"
      stroke-width="1.00000004999999990"
      fill="#aca793"
  />
  <path
      stroke-linejoin="round"
      style="enable-background:accumulate;color:#000000;"
      d="m317.86,187.74,0-141.73-15.343,8.8583c-5.6459,3.2597,5.6036,67.193-27.617,69.094-12.558,0.71897-43.556,19.229-58.303,19.488-27.368,0.48018-36.823-17.717-36.823-17.717l-107.4,62.008,61.372,35.433v17.717l30.686,17.717v17.717z"
      stroke-dashoffset="0"
      stroke="#000"
      stroke-linecap="round"
      stroke-miterlimit="4"
      stroke-dasharray="none"
      stroke-width="1.00000004999999990"
      fill="#fff6d5"
  />
  <path
      stroke-linejoin="round"
      style="enable-background:accumulate;color:#000000;"
      d="m468.22,278.1c-9.0691-8.5531-34.895-5.3767-39.892-12.402l135.02-77.96-245.49-141.73-15.34,8.857c2.74-19.843-15.14-16.946-15.35-26.575l30.69-17.717,306.86,177.16z"
      stroke-dashoffset="0"
      stroke="#000"
      stroke-linecap="round"
      stroke-miterlimit="4"
      stroke-dasharray="none"
      stroke-width="1.00000004999999990"
      fill="#f2f2f2"
  />
  <path
      stroke-linejoin="round"
      style="enable-background:accumulate;color:#000000;"
      d="m87.714,232.04c0.69375-3.501,7.8864-2.4657,9.2058-5.315,3.535-7.6338,11.09-11.821,8.822-19.71l-33.369-19.27,107.4-62c6.1372-16.224-12.274-17.717,0-35.433l-168.77,97.433z"
      stroke-dashoffset="0"
      stroke="#000"
      stroke-linecap="round"
      stroke-miterlimit="4"
      stroke-dasharray="none"
      stroke-width="1"
      fill="#f2f2f2"
  />
  <path
      stroke-linejoin="round"
      style="enable-background:accumulate;color:#000000;"
      d="m584.7,299.44c-6.1602-1.4816-13.593-0.36175-18.794-4.9856-7.3373-6.522-13.321-12.576-22.357-15.589"
      transform="translate(0,-1.6955278e-6)"
      stroke-dashoffset="0"
      stroke="#000"
      stroke-linecap="round"
      stroke-miterlimit="4"
      stroke-dasharray="none"
      stroke-width="1px"
      fill="none"
  />
  <path
      stroke-linejoin="round"
      style="enable-background:accumulate;color:#000000;"
      d="m587.75,314.8c-4.2068,1.5307-8.8131-2.8148-13.436,1.8076-5.276,5.276-14.629,5.4683-20.921,8.6147-3.3055,1.6528-4.8928,6.4069-8.2045,8.6147-5.7576,3.8384-13.69,5.1613-18.87,8.6147"
      transform="translate(0,-1.6955278e-6)"
      stroke-dashoffset="0"
      stroke="#000"
      stroke-linecap="round"
      stroke-miterlimit="4"
      stroke-dasharray="none"
      stroke-width="1px"
      fill="none"
  />
  <path
      stroke-linejoin="round"
      style="enable-background:accumulate;color:#000000;"
      d="m447.52,394.98c20.716-8.1844,49.387,0.99151,61.37-17.713"
      stroke-dashoffset="0"
      stroke="#000"
      stroke-linecap="round"
      stroke-miterlimit="4"
      stroke-dasharray="none"
      stroke-width="1px"
      fill="none"
  />
  <path
      stroke-linejoin="round"
      style="enable-background:accumulate;color:#000000;"
      d="m72.37,311.72c-7.3805-0.22851-16.58,0.94186-23.058-3.3763-3.8434-2.5623-4.5906-5.8813-8.7022-7.2518-4.3959-1.4653-10.83,0.12845-14.504-2.3206"
      transform="translate(0,-1.6955278e-6)"
      stroke-dashoffset="0"
      stroke="#000"
      stroke-linecap="round"
      stroke-miterlimit="4"
      stroke-dasharray="none"
      stroke-width="1px"
      fill="none"
  />
  <path
      stroke-linejoin="round"
      style="enable-background:accumulate;color:#000000;"
      d="m410,178.35c-6.0281-6.9833-8.6231-24.729-5.5192-34.041,8.8461-15.304,7.7178-25.785,8.2212-43.54,9.8066-0.13821,17.373-3.4394,39.641-12.546"
      transform="translate(0,-1.6955278e-6)"
      stroke-dashoffset="0"
      stroke="#000"
      stroke-linecap="round"
      stroke-miterlimit="4"
      stroke-dasharray="none"
      stroke-width="1px"
      fill="none"
  />
  <metadata
    >
    <rdf:RDF
      >
      <cc:Work
        >
        <dc:format
          >image/svg+xml</dc:format
        >
        <dc:type
            rdf:resource="http://purl.org/dc/dcmitype/StillImage"
        />
        <cc:license
            rdf:resource="http://creativecommons.org/licenses/publicdomain/"
        />
        <dc:publisher
          >
          <cc:Agent
              rdf:about="http://openclipart.org/"
            >
            <dc:title
              >Openclipart</dc:title
            >
          </cc:Agent
          >
        </dc:publisher
        >
        <dc:title
          >damaged brick wall</dc:title
        >
        <dc:date
          >2014-01-11T05:40:07</dc:date
        >
        <dc:description
          >Damaged brick wall with plaster</dc:description
        >
        <dc:source
          >https://openclipart.org/detail/190003/damaged-brick-wall-by-jarda-190003</dc:source
        >
        <dc:creator
          >
          <cc:Agent
            >
            <dc:title
              >jarda</dc:title
            >
          </cc:Agent
          >
        </dc:creator
        >
        <dc:subject
          >
          <rdf:Bag
            >
            <rdf:li
              >brick</rdf:li
            >
            <rdf:li
              >bricks</rdf:li
            >
            <rdf:li
              >cracks</rdf:li
            >
            <rdf:li
              >damaged</rdf:li
            >
            <rdf:li
              >frame</rdf:li
            >
            <rdf:li
              >plaster</rdf:li
            >
            <rdf:li
              >wall</rdf:li
            >
          </rdf:Bag
          >
        </dc:subject
        >
      </cc:Work
      >
      <cc:License
          rdf:about="http://creativecommons.org/licenses/publicdomain/"
        >
        <cc:permits
            rdf:resource="http://creativecommons.org/ns#Reproduction"
        />
        <cc:permits
            rdf:resource="http://creativecommons.org/ns#Distribution"
        />
        <cc:permits
            rdf:resource="http://creativecommons.org/ns#DerivativeWorks"
        />
      </cc:License
      >
    </rdf:RDF
    >
  </metadata
  >
</svg
>
