<?xml version="1.0" encoding="utf-8"?>
<!-- Generator: Adobe Illustrator 16.0.0, SVG Export Plug-In . SVG Version: 6.00 Build 0)  -->
<!DOCTYPE svg PUBLIC "-//W3C//DTD SVG 1.1//EN" "http://www.w3.org/Graphics/SVG/1.1/DTD/svg11.dtd">
<svg version="1.1" id="Layer_1" xmlns="http://www.w3.org/2000/svg" xmlns:xlink="http://www.w3.org/1999/xlink" x="0px" y="0px"
	 width="850px" height="696px" viewBox="0 0 850 696" enable-background="new 0 0 850 696" xml:space="preserve">
<g>
	<polygon fill-rule="evenodd" clip-rule="evenodd" fill="#BAEDED" points="20.158,65.068 118.178,69.822 361.445,65.068 
		511.445,69.822 778.475,65.068 781.742,183.881 778.475,337.148 776.99,506.455 778.475,629.723 686.99,615.764 609.467,628.238 
		490.951,622 345.703,622 217.684,629.723 23.426,626.752 34.414,550.713 24.91,482.693 32.633,398.932 23.426,329.426 
		32.633,212.1 20.158,65.068 20.158,65.068 	"/>
	<polygon fill-rule="evenodd" clip-rule="evenodd" fill="#FF994D" points="276.197,117.348 190.652,155.365 155.9,247.148 
		182.93,283.387 155.9,310.416 155.9,364.178 198.672,403.682 255.703,428.932 465.701,479.723 514.713,458.932 561.939,362.396 
		598.475,307.148 604.713,270.91 675.701,245.365 701.246,201.109 699.467,171.109 678.971,155.365 675.701,107.842 645.701,50.811 
		603.227,46.059 591.939,85.564 615.701,166.355 645.701,193.387 629.959,215.365 591.939,229.623 468.971,199.623 411.941,209.129 
		372.436,239.129 334.414,240.613 279.168,289.623 241.445,329.426 204.91,316.654 200.158,288.139 227.188,270.91 252.436,147.348 
		276.197,117.348 276.197,117.348 	"/>
	<polygon fill-rule="evenodd" clip-rule="evenodd" points="589.564,22.594 609.467,30.912 637.387,41.9 646.891,46.654 
		661.445,64.475 667.387,77.248 674.217,87.645 676.891,96.555 686.395,120.316 692.039,129.229 691.445,138.732 689.367,143.484 
		683.129,148.238 696.791,158.039 704.217,168.139 706.891,174.971 708.375,188.039 709.861,193.98 704.217,219.822 
		698.277,234.971 680.455,253.98 666.197,260.811 653.723,264.377 644.217,264.971 637.387,268.535 627.285,268.535 
		625.209,267.049 623.723,237.645 618.971,219.822 616.891,218.039 629.367,208.238 631.445,198.732 632.039,185.961 
		648.971,174.971 668.871,177.645 673.027,179.723 674.217,182.396 666.791,190.416 664.713,226.059 661.445,235.564 
		662.039,236.455 666.791,233.783 671.543,228.139 680.455,207.049 681.645,198.139 685.209,191.307 688.475,183.287 
		687.883,174.971 682.535,168.139 673.625,163.387 651.049,160.416 641.543,161.9 640.951,162.791 639.467,162.791 653.723,149.129 
		657.883,149.129 664.119,141.406 666.791,136.059 667.387,135.168 666.791,134.574 665.307,134.574 668.277,128.039 665.307,112 
		652.535,89.723 648.971,76.654 642.137,65.068 633.227,58.832 617.781,56.752 614.217,58.238 609.467,65.664 609.467,71.01 
		635.307,99.822 646.297,113.484 651.049,117.645 653.129,125.068 648.971,135.168 638.277,141.406 627.883,152.99 621.049,163.387 
		617.781,170.219 608.871,168.139 599.959,161.307 584.217,141.406 580.951,133.387 572.633,127.148 554.217,117.049 
		533.723,98.338 518.871,94.475 495.109,84.08 490.355,80.811 488.871,78.732 488.871,67.148 493.625,62.99 503.723,65.664 
		512.039,69.822 525.109,69.229 531.049,65.664 542.633,65.664 558.971,73.387 563.723,73.98 565.209,73.98 567.285,71.9 
		566.693,67.148 561.939,59.426 548.871,53.484 519.465,52 488.277,55.564 484.119,53.484 482.039,48.732 482.039,41.9 
		490.355,34.178 495.109,31.506 503.129,24.08 522.137,15.764 540.852,13.09 549.465,11.9 565.801,13.98 589.564,22.594 
		589.564,22.594 	"/>
	<polygon fill-rule="evenodd" clip-rule="evenodd" points="763.625,58.832 784.119,59.426 787.387,63.584 786.791,80.811 
		785.307,126.555 784.713,148.238 786.197,154.475 784.119,172.297 778.475,177.049 772.535,175.564 770.455,172.297 
		769.861,117.049 767.781,88.238 768.971,76.059 766.891,72.494 763.625,70.416 757.387,71.01 740.455,70.416 732.137,71.9 
		698.871,71.01 695.307,67.148 696.791,60.912 703.027,58.238 727.98,56.752 738.971,54.674 749.959,56.158 763.625,58.832 
		763.625,58.832 	"/>
	<polygon fill-rule="evenodd" clip-rule="evenodd" points="67.387,64.475 117.285,61.506 183.523,62.396 248.871,62.396 
		295.207,60.912 318.377,58.832 398.871,64.475 425.307,63.584 428.871,67.742 427.387,73.98 424.119,76.059 385.801,77.248 
		325.801,73.98 186.197,76.059 123.523,74.574 77.781,76.059 61.445,77.248 32.039,73.387 29.959,75.168 30.852,163.387 
		34.713,189.229 37.387,198.139 38.871,243.881 36.197,277.445 32.039,342.197 32.633,365.961 38.871,421.207 34.713,475.861 
		34.713,507.939 37.387,544.771 40.355,572.098 37.387,598.238 33.523,619.326 34.713,620.514 66.791,615.764 101.543,619.92 
		182.039,619.326 207.285,619.92 219.465,621.408 231.049,626.158 232.533,629.424 231.049,635.068 227.781,637.15 191.543,631.506 
		121.445,634.178 79.861,631.506 63.227,628.832 27.285,635.662 21.941,628.832 15.703,624.674 17.781,624.078 18.377,624.078 
		21.941,610.416 26.693,574.178 24.613,540.912 21.941,510.613 20.455,493.682 21.941,467.842 24.613,425.367 23.723,396.852 
		18.969,352.295 19.861,314.277 23.723,246.555 23.129,195.465 20.455,186.555 16.297,142.893 15.703,110.219 12.139,82 
		9.762,74.574 10.355,62.396 14.217,58.832 37.387,59.426 67.387,64.475 67.387,64.475 	"/>
	<polygon fill-rule="evenodd" clip-rule="evenodd" points="152.039,92.99 135.703,107.248 123.523,112 82.533,108.732 
		73.029,110.219 68.871,114.674 70.355,119.723 74.217,122.99 77.781,120.912 80.455,117.049 79.861,113.484 89.367,112.893 
		91.445,116.158 91.445,125.664 88.475,129.822 78.969,134.574 66.791,130.416 60.555,122.396 60.555,112.893 68.871,101.9 
		79.861,96.555 92.633,95.068 110.455,96.555 129.465,95.068 146.693,88.238 152.633,88.832 152.039,92.99 152.039,92.99 	"/>
	<polygon fill-rule="evenodd" clip-rule="evenodd" points="342.436,115.564 347.188,120.912 344.813,126.555 343.029,128.635 
		332.039,127.148 321.941,128.635 320.455,129.822 315.109,129.822 302.039,133.387 288.969,136.654 269.367,152.99 
		267.285,155.068 267.285,156.555 269.959,158.635 278.277,157.148 289.861,151.209 318.377,138.139 333.227,134.574 
		341.543,136.654 346.297,142.297 345.703,150.316 328.475,167.248 299.959,183.881 285.703,188.039 281.543,192.791 
		278.871,198.732 270.555,209.129 252.139,254.871 248.871,264.377 240.555,279.229 227.781,291.703 220.355,294.377 
		203.129,293.188 201.643,292.297 199.861,292.297 198.969,293.188 198.969,294.377 209.959,300.613 221.543,313.387 
		224.217,320.219 225.703,327.049 225.703,329.129 223.029,330.613 217.387,341.307 207.881,354.377 201.049,369.525 
		200.455,381.703 200.455,394.771 201.049,404.279 172.533,391.207 164.217,384.969 157.387,374.871 152.039,350.219 
		152.633,323.783 154.119,319.623 166.297,323.783 169.861,328.535 166.297,340.119 164.217,354.377 167.188,363.881 
		169.861,368.041 174.613,370.119 179.959,368.932 184.119,360.613 184.713,344.277 189.465,329.723 195.109,321.109 
		193.625,314.871 190.355,308.039 182.633,304.475 170.455,304.475 165.109,307.445 163.029,306.555 162.139,306.555 
		164.217,302.693 174.613,294.377 184.713,292.297 193.625,292.297 194.217,291.703 182.633,284.871 174.613,282.791 
		165.109,276.555 160.355,270.316 155.307,257.545 156.197,239.129 161.543,214.475 166.297,199.623 186.197,170.811 
		189.465,169.326 195.109,170.811 196.891,174.377 195.109,182.396 186.791,194.574 186.791,204.377 177.285,226.951 
		176.396,237.049 173.129,239.129 169.861,245.068 170.455,254.871 174.02,260.811 180.555,264.971 190.355,263.783 
		194.217,260.811 198.969,252.791 199.861,235.564 201.049,223.98 209.959,208.238 218.871,198.139 218.871,185.961 217.98,183.287 
		217.98,180.912 224.217,172.893 224.217,163.387 221.543,158.635 211.445,152.396 203.129,152.99 205.801,147.645 242.633,127.148 
		270.555,116.158 295.207,110.219 327.881,110.811 342.436,115.564 342.436,115.564 	"/>
	<polygon fill-rule="evenodd" clip-rule="evenodd" points="149.367,130.416 149.367,140.219 145.801,147.645 138.377,152.99 
		115.801,155.664 70.355,155.664 61.445,161.307 56.693,160.416 54.613,158.039 55.801,151.209 63.227,145.564 71.543,141.406 
		87.285,139.326 109.861,139.326 114.613,141.406 133.029,140.219 137.781,137.545 141.049,132.494 141.049,130.416 
		136.891,127.148 129.465,128.635 127.387,131.307 128.277,134.574 129.465,136.059 122.039,137.545 119.367,136.654 
		117.285,136.654 118.771,128.635 128.277,119.723 130.059,118.832 141.643,121.803 149.367,130.416 149.367,130.416 	"/>
	<polygon fill-rule="evenodd" clip-rule="evenodd" points="741.645,135.168 741.645,137.545 746.395,142.893 749.959,181.803 
		738.971,191.9 730.059,189.229 720.555,177.049 723.227,166.059 726.197,157.148 726.197,129.822 725.307,128.039 725.307,125.664 
		727.98,122.99 734.217,125.664 741.645,135.168 741.645,135.168 	"/>
	<polygon fill-rule="evenodd" clip-rule="evenodd" points="527.781,188.635 540.852,196.059 553.625,208.238 574.119,209.129 
		593.723,217.148 604.119,225.465 607.387,231.406 610.059,252.197 609.467,268.535 608.277,303.287 604.119,323.188 600.555,332.1 
		587.781,350.219 579.465,363.881 552.137,399.525 536.693,433.682 533.129,449.424 524.217,465.764 512.039,480.021 
		494.217,489.525 486.791,493.682 458.277,498.436 452.633,497.248 428.871,484.771 409.861,479.424 384.613,471.109 
		376.297,468.436 353.723,462.197 310.355,454.178 255.703,444.377 246.791,442 228.969,430.119 216.197,407.842 214.713,389.129 
		214.713,383.188 216.791,370.119 223.625,358.533 233.723,343.682 234.613,340.119 236.693,336.555 237.285,313.387 
		248.277,297.049 265.801,282.791 276.197,278.039 280.355,278.039 283.029,273.881 285.703,264.971 295.207,256.059 
		316.891,248.039 332.633,242.396 334.713,242.396 336.197,243.881 334.713,250.119 336.197,259.029 338.871,262.893 
		340.951,264.971 363.523,269.723 365.307,271.209 366.197,271.209 367.387,264.971 359.959,260.219 359.959,256.951 
		361.445,254.871 360.555,251.307 360.555,250.119 357.881,248.039 354.613,248.039 352.533,243.287 353.723,237.049 
		363.523,233.783 373.029,232.297 390.555,216.555 394.119,216.555 398.277,221.9 403.029,243.287 402.139,245.068 408.969,254.871 
		412.533,264.377 411.941,271.801 405.703,280.119 396.791,284.871 377.188,286.059 368.871,284.871 362.039,284.277 
		338.871,278.635 327.881,279.229 315.703,286.059 310.951,292.297 307.387,300.613 306.791,304.475 300.852,312.197 
		298.475,313.387 288.377,314.277 264.613,331.209 255.109,342.197 251.543,357.049 250.355,372.791 252.139,387.939 
		257.781,398.932 266.693,409.029 291.049,423.287 334.713,425.961 351.643,427.445 352.533,426.852 331.445,417.939 
		309.465,413.188 291.941,407.842 278.871,399.525 269.367,381.703 280.355,360.021 281.543,343.682 291.049,333.287 
		302.039,325.861 314.217,322.297 321.049,313.387 332.039,303.287 341.543,299.129 360.555,299.723 375.703,307.445 
		385.207,314.277 411.049,320.219 418.771,319.029 436.297,311.307 443.129,305.961 450.555,293.188 456.791,280.119 
		464.217,270.316 474.613,264.377 482.039,261.703 495.109,267.939 503.723,261.703 522.732,260.811 535.209,267.939 
		544.119,273.881 549.465,273.881 552.137,275.961 558.971,277.445 567.285,283.387 571.445,289.623 571.445,298.535 
		567.883,306.555 562.535,314.871 539.959,346.949 529.861,365.961 517.387,388.533 516.197,394.178 507.285,406.355 
		498.375,421.207 486.197,431.605 469.861,436.355 460.951,436.951 455.307,439.625 454.713,440.514 457.387,442.594 
		474.613,446.455 490.355,443.188 495.701,440.514 503.129,434.279 517.387,418.533 540.852,372.791 545.604,366.852 
		548.871,360.613 562.535,343.682 568.475,337.445 576.791,324.971 580.951,314.871 585.109,290.219 584.217,259.029 
		580.355,243.287 576.197,239.723 558.971,243.881 550.951,243.287 544.119,239.129 534.613,226.059 528.375,223.98 
		520.355,222.791 512.039,222.791 505.209,226.059 498.375,232.297 493.027,233.783 484.713,230.219 476.395,219.822 452.039,221.9 
		444.613,226.951 435.701,237.645 428.871,248.635 422.633,253.387 420.555,253.98 424.119,241.801 423.523,223.98 418.771,215.961 
		413.129,211.801 415.801,207.049 427.387,199.623 448.475,189.229 465.701,185.961 482.633,187.148 486.791,188.635 
		495.701,186.555 497.781,184.475 514.119,185.961 527.781,188.635 527.781,188.635 	"/>
	<polygon fill-rule="evenodd" clip-rule="evenodd" points="741.049,200.219 746.395,209.129 746.395,221.9 740.455,240.316 
		734.217,250.713 730.059,253.387 725.307,254.871 717.285,252.791 708.971,241.801 708.971,233.783 717.883,215.068 
		721.148,198.732 724.713,195.465 729.467,194.574 734.217,195.465 741.049,200.219 741.049,200.219 	"/>
	<polygon fill-rule="evenodd" clip-rule="evenodd" points="811.445,226.951 809.959,234.971 796.891,245.961 790.355,256.951 
		774.613,280.119 771.049,282.197 763.625,279.229 754.119,269.129 756.791,260.811 765.701,249.229 795.701,222.791 
		801.645,219.822 805.801,220.713 811.445,226.951 811.445,226.951 	"/>
	<polygon fill-rule="evenodd" clip-rule="evenodd" points="725.307,267.049 724.713,272.396 719.367,281.307 700.059,298.535 
		691.445,303.881 683.723,303.881 676.297,295.564 676.891,282.197 691.445,264.377 703.027,256.951 707.781,255.465 
		719.367,260.219 725.307,267.049 725.307,267.049 	"/>
	<polygon fill-rule="evenodd" clip-rule="evenodd" points="764.811,294.971 764.811,302.693 749.959,317.545 733.625,328.535 
		727.98,329.723 723.227,328.535 716.395,320.219 714.613,314.871 716.395,307.445 736.891,285.465 745.801,281.307 
		756.791,285.465 764.811,294.971 764.811,294.971 	"/>
	<polygon fill-rule="evenodd" clip-rule="evenodd" points="673.625,301.209 672.137,308.635 670.059,314.277 663.523,320.219 
		645.701,327.939 631.445,335.365 625.209,340.119 616.891,340.119 614.811,338.635 623.129,305.365 634.119,301.209 
		646.297,297.939 658.475,291.109 666.791,294.377 673.625,301.209 673.625,301.209 	"/>
	<polygon fill-rule="evenodd" clip-rule="evenodd" points="786.197,319.029 785.307,327.939 783.227,332.693 784.119,366.852 
		786.197,393.287 783.227,405.465 779.959,407.842 771.645,403.09 771.049,402.197 770.455,327.049 775.209,315.465 
		777.883,314.277 784.119,315.465 786.197,319.029 786.197,319.029 	"/>
	<polygon fill-rule="evenodd" clip-rule="evenodd" points="711.049,321.703 712.535,329.723 714.613,339.525 713.129,346.949 
		703.027,352.295 674.811,357.939 666.791,357.939 662.633,355.861 658.475,349.029 661.445,335.365 669.467,327.939 
		699.467,316.951 708.375,319.029 711.049,321.703 711.049,321.703 	"/>
	<polygon fill-rule="evenodd" clip-rule="evenodd" points="653.723,350.219 653.723,363.881 648.375,371.307 643.027,374.871 
		619.861,381.109 598.475,381.703 591.049,379.625 588.971,377.545 604.713,352.295 627.285,347.545 643.625,343.682 
		646.297,343.682 653.723,350.219 653.723,350.219 	"/>
	<polygon fill-rule="evenodd" clip-rule="evenodd" points="652.535,387.348 655.801,394.178 657.285,401.01 654.613,411.703 
		650.455,414.377 629.367,415.268 595.209,424.771 576.791,424.178 568.475,418.533 565.801,415.268 565.801,406.355 
		577.387,392.098 601.445,391.207 636.197,383.783 648.971,384.969 652.535,387.348 652.535,387.348 	"/>
	<polygon fill-rule="evenodd" clip-rule="evenodd" points="715.209,395.367 730.059,405.465 733.027,410.514 732.137,420.613 
		723.227,428.932 718.773,430.119 713.129,428.932 700.059,421.207 670.059,415.861 665.307,412.295 662.633,408.436 
		664.713,393.287 673.027,386.455 680.455,385.861 694.119,387.348 715.209,395.367 715.209,395.367 	"/>
	<polygon fill-rule="evenodd" clip-rule="evenodd" points="134.813,404.279 145.801,425.961 154.119,432.197 159.465,439.029 
		158.871,444.377 163.029,444.377 166.297,442.594 171.643,443.783 182.633,452.098 196.297,458.336 199.861,465.17 
		198.377,472.594 195.703,476.752 195.109,477.348 195.109,478.832 195.703,479.424 208.771,465.17 212.039,462.197 
		228.377,466.951 235.207,474.674 236.693,474.674 239.367,466.951 242.633,464.279 260.455,460.119 297.285,466.355 
		298.475,468.436 295.207,477.939 289.861,483.584 274.713,486.852 248.277,488.336 244.713,486.258 239.367,478.832 
		237.881,477.348 237.285,477.348 235.801,479.424 235.801,486.852 234.613,492.496 232.533,496.355 228.969,498.436 
		212.039,496.355 196.297,489.525 194.217,486.852 195.109,482.098 195.109,480.613 195.703,480.021 195.109,479.424 
		188.871,482.99 179.367,482.098 171.643,478.832 157.387,465.764 154.119,458.336 155.307,452.098 154.119,450.613 
		145.801,453.287 140.455,452.098 130.059,440.514 120.555,417.939 119.367,410.514 119.367,406.951 126.197,401.605 
		128.871,401.01 132.436,401.605 134.813,404.279 134.813,404.279 	"/>
	<polygon fill-rule="evenodd" clip-rule="evenodd" points="759.467,413.783 779.959,424.178 785.307,425.961 790.951,433.682 
		789.467,439.625 784.119,446.455 777.285,450.021 765.701,447.939 745.801,439.625 736.891,433.682 734.217,429.525 
		734.217,422.693 740.455,413.188 748.475,408.436 752.633,408.436 759.467,413.783 759.467,413.783 	"/>
	<polygon fill-rule="evenodd" clip-rule="evenodd" points="574.119,436.355 593.723,442.594 632.039,447.348 635.307,451.506 
		635.307,461.01 637.387,462.197 643.027,456.852 653.723,454.771 661.445,456.258 670.059,465.764 676.297,482.99 675.701,499.92 
		672.137,506.752 666.791,510.021 655.801,508.832 650.455,504.674 646.297,496.355 643.625,484.771 640.951,480.021 
		637.387,477.348 634.713,472 634.119,472 633.227,471.109 628.475,477.939 624.316,479.424 594.316,473.783 573.229,469.625 
		554.217,461.01 548.871,456.258 546.791,454.178 553.625,428.932 556.297,426.852 563.129,428.336 574.119,436.355 
		574.119,436.355 	"/>
	<polygon fill-rule="evenodd" clip-rule="evenodd" points="821.543,454.178 836.693,461.01 840.555,466.355 840.555,469.029 
		835.209,475.861 828.971,479.424 822.732,477.939 795.701,463.09 787.98,456.852 786.791,451.506 787.98,445.861 798.971,437.842 
		804.316,439.625 821.543,454.178 821.543,454.178 	"/>
	<polygon fill-rule="evenodd" clip-rule="evenodd" points="783.227,478.832 784.119,515.367 788.871,546.852 787.387,566.752 
		786.197,583.09 785.307,603.584 784.713,625.268 788.871,632.99 787.387,638.932 784.119,641.01 772.535,640.416 762.732,638.336 
		749.959,637.15 709.861,627.348 667.387,628.238 632.039,635.662 612.137,635.068 578.871,630.912 521.543,629.424 
		506.395,628.238 503.129,624.078 504.613,617.842 507.883,615.764 582.137,617.842 610.951,619.92 646.297,619.326 672.137,615.17 
		676.891,611.9 706.891,612.496 768.971,619.326 771.645,616.654 772.535,527.248 770.455,492.496 770.455,468.436 776.395,472 
		783.227,478.832 783.227,478.832 	"/>
	<polygon fill-rule="evenodd" clip-rule="evenodd" points="364.713,483.584 361.445,492.496 355.207,497.248 307.98,503.189 
		302.039,499.92 298.475,493.682 300.852,484.178 307.98,479.424 329.367,472.594 363.523,480.021 364.713,483.584 364.713,483.584 
			"/>
	<polygon fill-rule="evenodd" clip-rule="evenodd" points="400.059,493.09 400.059,502.594 394.119,512.99 376.297,528.436 
		350.455,536.752 336.791,535.268 329.959,529.92 324.613,520.416 324.613,512.99 331.445,507.939 354.613,503.189 382.533,486.852 
		398.277,490.119 400.059,493.09 400.059,493.09 	"/>
	<polygon fill-rule="evenodd" clip-rule="evenodd" points="301.445,504.674 301.445,514.178 297.285,521.01 284.217,529.92 
		270.555,534.078 255.109,533.189 248.277,525.764 248.277,514.771 256.297,509.424 267.881,506.752 290.455,495.764 
		292.533,495.17 295.801,495.764 301.445,504.674 301.445,504.674 	"/>
	<polygon fill-rule="evenodd" clip-rule="evenodd" points="428.871,515.367 425.307,532 413.723,548.932 394.713,562.594 
		389.959,564.078 371.543,558.436 370.355,559.92 370.355,561.408 377.781,566.752 380.455,569.424 381.049,576.852 
		383.129,579.525 382.533,587.248 384.613,587.248 390.555,582.496 397.387,583.09 411.941,594.674 416.693,600.912 
		416.693,608.336 412.533,615.764 406.891,620.514 396.197,620.514 377.781,605.068 376.297,602.99 378.969,596.158 
		379.564,595.268 377.781,593.484 366.791,596.158 357.285,594.674 350.455,585.17 345.703,573.584 345.703,566.158 349.861,559.92 
		356.693,555.17 358.475,546.258 368.871,538.238 384.613,528.436 408.377,505.268 413.723,495.764 428.871,501.109 
		428.871,515.367 428.871,515.367 	"/>
	<polygon fill-rule="evenodd" clip-rule="evenodd" points="681.645,525.17 681.049,543.584 676.297,553.09 671.543,556.355 
		662.039,555.764 652.535,552.496 651.049,550.416 651.645,540.912 653.723,534.674 653.129,521.605 653.129,518.336 
		659.959,516.258 675.701,517.742 681.645,525.17 681.645,525.17 	"/>
	<polygon fill-rule="evenodd" clip-rule="evenodd" points="248.277,537.348 248.277,545.367 243.523,552.496 221.543,565.268 
		214.119,570.912 205.801,570.912 199.861,562.594 197.781,556.355 198.377,552.496 215.604,537.348 219.465,535.861 
		231.643,524.279 233.129,523.682 239.959,525.17 248.277,537.348 248.277,537.348 	"/>
	<polygon fill-rule="evenodd" clip-rule="evenodd" points="325.801,536.752 327.285,544.771 326.693,548.932 320.455,556.355 
		297.881,575.662 290.455,576.852 277.387,575.662 273.227,572.99 269.959,566.752 271.445,557.842 280.355,546.852 307.98,525.17 
		316.297,525.764 325.801,536.752 325.801,536.752 	"/>
	<polygon fill-rule="evenodd" clip-rule="evenodd" points="658.475,559.326 661.445,566.752 660.555,570.912 652.535,577.742 
		636.791,583.682 618.971,585.764 610.951,585.764 608.277,581.9 608.277,575.662 620.455,566.752 643.027,555.764 647.781,555.17 
		653.723,556.355 658.475,559.326 658.475,559.326 	"/>
	<polygon fill-rule="evenodd" clip-rule="evenodd" points="203.129,578.336 202.533,584.574 194.217,591.408 171.049,605.662 
		165.703,607.15 161.543,606.258 156.197,600.912 156.197,594.078 170.455,580.416 182.039,567.348 190.355,563.189 
		196.891,565.268 203.129,578.336 203.129,578.336 	"/>
	<polygon fill-rule="evenodd" clip-rule="evenodd" points="297.285,585.764 301.445,592.594 298.475,609.822 293.723,625.268 
		288.969,629.424 272.633,628.238 265.801,616.654 267.285,589.326 269.959,584.574 274.713,581.9 290.455,582.496 297.285,585.764 
		297.285,585.764 	"/>
	<polygon fill-rule="evenodd" clip-rule="evenodd" points="445.209,615.17 449.367,621.408 455.307,624.078 463.625,634.178 
		463.625,640.416 458.871,644.574 452.039,644.574 429.465,631.506 421.148,628.832 415.801,628.238 415.801,624.674 
		416.693,619.326 428.277,608.336 429.465,607.742 436.891,608.932 445.209,615.17 445.209,615.17 	"/>
	<polygon fill-rule="evenodd" clip-rule="evenodd" points="292.533,636.258 297.285,641.9 298.475,673.98 296.693,682 
		291.941,685.564 283.625,684.078 278.277,678.734 274.119,658.832 271.445,652.893 269.959,641.01 271.445,635.662 
		274.713,633.584 287.781,634.178 292.533,636.258 292.533,636.258 	"/>
</g>
</svg>
