<?xml version="1.0" encoding="UTF-8" standalone="no"?>
<svg
    xmlns:dc="http://purl.org/dc/elements/1.1/"
    xmlns:cc="http://creativecommons.org/ns#"
    xmlns:rdf="http://www.w3.org/1999/02/22-rdf-syntax-ns#"
    xmlns:svg="http://www.w3.org/2000/svg"
    xmlns="http://www.w3.org/2000/svg"
    xmlns:sodipodi="http://sodipodi.sourceforge.net/DTD/sodipodi-0.dtd"
    xmlns:inkscape="http://www.inkscape.org/namespaces/inkscape"
    xmlns:ns1="http://sozi.baierouge.fr"
    xmlns:xlink="http://www.w3.org/1999/xlink"
    id="svg2"
    viewBox="0 0 400 380"
    version="1.0"
    inkscape:version="0.48.4 r9939"
    width="100%"
    height="100%"
    sodipodi:docname="liftarn_Cat_silhouette_ss.svg"
  >
  <defs
      id="defs8"
  />
  <sodipodi:namedview
      pagecolor="#ffffff"
      bordercolor="#666666"
      borderopacity="1"
      objecttolerance="10"
      gridtolerance="10"
      guidetolerance="10"
      inkscape:pageopacity="0"
      inkscape:pageshadow="2"
      inkscape:window-width="1323"
      inkscape:window-height="772"
      id="namedview6"
      showgrid="false"
      inkscape:zoom="1.0951037"
      inkscape:cx="82.68011"
      inkscape:cy="203.27438"
      inkscape:window-x="79"
      inkscape:window-y="51"
      inkscape:window-maximized="0"
      inkscape:current-layer="svg2"
  />
  <g
      id="g3999"
      transform="translate(6,0)"
    >
    <path
        sodipodi:nodetypes="sscsscsssccccccsscsccs"
        d="m 137.77906,316.50095 118.3481,0 c 5.18489,0 15.76115,-22.31779 -29.06336,-20.16115 4.45118,-13.35343 22.53852,-45.6531 32.59285,-45.6531 8.90233,0 19.51173,0.49242 19.51173,20.77892 0,23.04151 38.77211,60.20051 48.17713,45.03533 14.01329,-22.58036 -24.08855,-15.68916 -24.08855,-70.17118 0,-74.51743 43.48508,-63.90805 43.48508,-105.78008 0,-20.94666 -5.78125,-23.77445 -5.78125,-38.75123 0,-19.787181 17.43799,-18.638261 14.04469,-35.048861 -2.34604,-11.33522 -4.17888,-20.42606 -5.54038,-34.13348 -0.97403,-9.72654 -1.28823,-20.09299 -11.38447,-19.67615 -11.86622,0.49014 -16.36974,21.38331 -34.82367,22.882 -18.41205,1.49456 -34.11149,-15.67533 -41.24379,-13.22248 -7.05901,2.43082 -4.83868,21.60112 -0.64936,35.2164 6.58767,21.39903 20.94656,49.219221 -5.23665,53.408501 -26.1832,4.18932 -71.21834,8.37864 -103.68549,51.31912 -32.46718,42.94035 -31.27325,93.338 -43.9878,108.92211 -42.68809,52.3245 -86.431869,30.84402 -86.431869,74.36055 0,19.49052 33.017053,33.51426 38.253701,27.23054 5.236647,-6.28404 -44.495743,-24.99986 11.149848,-47.13002 51.97145,-24.93185 46.61225,-9.42574 66.35351,-9.42574 z"
        id="path1891-5"
        inkscape:connector-curvature="0"
        style="fill:#000000;fill-opacity:1;fill-rule:evenodd"
    />
    <path
        sodipodi:nodetypes="sccs"
        inkscape:connector-curvature="0"
        id="path3023-5"
        d="m 324.89301,301.14274 c 6.8279,3.67903 2.93823,14.17717 -1.20484,16.66239 -3.29088,2.26161 -18.68009,-2.39931 -12.45972,-8.82545 3.1982,-3.66287 10.06457,-9.7767 13.66456,-7.83694 z"
        style="fill:#ffffff;stroke:#000000;stroke-opacity:1"
    />
    <path
        sodipodi:nodetypes="ccc"
        inkscape:connector-curvature="0"
        id="path3025-3"
        d="m 243.74885,299.96565 c -1.92431,4.6994 -0.66834,15.35881 5.21094,15.37608 18.30779,0.29843 8.43536,-17.41638 -5.21094,-15.37608 z"
        style="fill:#ffffff;stroke:#000000;stroke-opacity:1"
    />
    <path
        sodipodi:nodetypes="ccccccc"
        inkscape:connector-curvature="0"
        id="path3027-1"
        d="m 318.4738,50.251709 c -0.18851,7.63157 0.72227,14.499654 -2.37099,21.709608 -1.10575,5.112428 -6.3822,6.732945 -6.13398,10.963512 0.72113,3.50676 3.87635,5.72795 6.32939,8.06285 2.48683,2.05358 6.03205,5.00618 8.85636,3.64718 6.54601,-2.69837 9.86075,-9.57389 12.09932,-15.86764 3.52101,-14.227664 -10.40737,-21.002122 -18.7801,-28.51551 z"
        style="fill:#ffffff;stroke:#000000;stroke-width:1.04732847px;stroke-linecap:butt;stroke-linejoin:miter;stroke-opacity:1"
    />
    <path
        sodipodi:nodetypes="cccc"
        inkscape:connector-curvature="0"
        id="path3029-3"
        d="m 327.71524,68.436559 c -0.4904,3.64039 -0.86195,5.66084 3.42314,9.72494 2.91911,-5.58445 5.76378,-5.06539 2.31188,-7.99091 -1.52241,-1.43255 -3.72774,-1.74564 -5.73502,-1.73403 z"
        style="fill:#000000;stroke:#000000;stroke-width:1.04732847px;stroke-linecap:butt;stroke-linejoin:miter;stroke-opacity:1"
    />
    <path
        sodipodi:nodetypes="cccc"
        inkscape:connector-curvature="0"
        id="path3031-8"
        d="m 321.75302,86.919499 c 3.47221,-1.04009 7.71577,-2.95715 9.47399,-8.090532 1.80957,2.704812 4.09938,1.635622 1.48821,4.071002 -3.49454,2.51905 -5.76576,2.79184 -10.9622,4.01953 z"
        style="fill:#000000;stroke:#000000;stroke-width:1.04732847px;stroke-linecap:butt;stroke-linejoin:miter;stroke-opacity:1"
    />
    <path
        style="fill:#aaccff;stroke:#000000;stroke-width:1.04732847px;stroke-linecap:butt;stroke-linejoin:miter;stroke-opacity:1"
        d="m 304.96563,55.650237 c -3.93512,0.114113 -8.91459,1.508858 -9.64626,5.824807 0.3949,4.82255 7.40117,4.123083 10.08608,1.42726 2.56014,-1.550252 4.41284,-7.71865 -0.43982,-7.252067 z"
        id="path3033-9"
        inkscape:connector-curvature="0"
        sodipodi:nodetypes="cccc"
    />
    <path
        style="fill:#000000;stroke:#000000;stroke-width:1.04732847px;stroke-linecap:butt;stroke-linejoin:miter;stroke-opacity:1"
        d="m 300.76741,58.952329 c -2.21126,0.629749 -2.5289,4.563497 -0.0891,5.070004 2.42011,0.350499 4.66376,-2.696918 3.31357,-4.839495 -0.86001,-0.888489 -2.18382,-0.460298 -3.22437,-0.230415 z"
        id="path3037-4"
        inkscape:connector-curvature="0"
    />
    <path
        style="fill:#aaccff;stroke:#000000;stroke-width:1.04732847px;stroke-linecap:butt;stroke-linejoin:miter;stroke-opacity:1"
        d="m 344.07401,51.161483 c 1.65207,-4.51682 -8.12999,-5.554781 -10.62719,-1.783136 -4.58182,8.373503 7.75019,5.988848 10.62719,1.783136 z"
        id="path3035-9"
        inkscape:connector-curvature="0"
        sodipodi:nodetypes="ccc"
    />
    <path
        style="fill:#000000;stroke:#000000;stroke-width:1.04732847px;stroke-linecap:butt;stroke-linejoin:miter;stroke-opacity:1"
        d="m 336.94119,50.003044 c -2.80393,1.128657 -0.2276,6.263784 2.20701,3.894387 1.82047,-1.265219 1.11794,-5.611526 -1.57448,-4.227348 l -0.32899,0.160071 -0.30357,0.172577 0,1.25e-4 z"
        id="path3039-0"
        inkscape:connector-curvature="0"
    />
    <path
        inkscape:connector-curvature="0"
        id="path3052-7"
        d="m 335.35156,91.579454 c -2.17726,5.379061 -7.58353,9.149526 -13.27561,8.664516 -9.43055,-0.630983 -17.57883,-6.516723 -24.49564,-12.731603 -3.91234,-2.831331 -10.32029,-3.483822 -13.55203,0.740859 -2.05126,3.804991 1.9175,7.283662 4.79296,8.997081 12.92542,11.545793 20.84693,29.455393 19.15409,47.229943 0.253,7.43606 2.75961,15.0719 7.70384,20.57208 2.31233,2.70663 6.53196,3.80928 9.41069,1.37315 3.24051,-2.04666 4.38224,-5.7853 5.04133,-9.41414 2.28536,-10.32119 2.78228,-21.03451 5.97105,-31.14438 2.3114,-11.24431 3.31802,-23.32551 -0.75068,-34.287506 z"
        style="fill:#ffffff;stroke:#000000;stroke-width:1.02952194px;stroke-linecap:butt;stroke-linejoin:miter;stroke-opacity:1"
    />
  </g
  >
  <metadata
    >
    <rdf:RDF
      >
      <cc:Work
        >
        <dc:format
          >image/svg+xml</dc:format
        >
        <dc:type
            rdf:resource="http://purl.org/dc/dcmitype/StillImage"
        />
        <cc:license
            rdf:resource="http://creativecommons.org/licenses/publicdomain/"
        />
        <dc:publisher
          >
          <cc:Agent
              rdf:about="http://openclipart.org/"
            >
            <dc:title
              >Openclipart</dc:title
            >
          </cc:Agent
          >
        </dc:publisher
        >
        <dc:title
          >snowshoe cat silhouette</dc:title
        >
        <dc:date
          >2014-03-10T11:55:28</dc:date
        >
        <dc:description
          >An edit of a cat silhoette to include the general traits of a snowshoe cat breed: blue eyes, white feet, V shaped white zone around the nose.&#13;\n&#13;\nMade for a friend who has such a cat (Smeagol).&#13;\n&#13;\nMore about the snowshoe in wikipedia - https://en.wikipedia.org/wiki/Snowshoe_(cat)</dc:description
        >
        <dc:source
          >https://openclipart.org/detail/191701/snowshoe-cat-silhouette-by-jmmourinho-191701</dc:source
        >
        <dc:creator
          >
          <cc:Agent
            >
            <dc:title
              >jmmourinho</dc:title
            >
          </cc:Agent
          >
        </dc:creator
        >
        <dc:subject
          >
          <rdf:Bag
            >
            <rdf:li
              >animal</rdf:li
            >
            <rdf:li
              >cat</rdf:li
            >
            <rdf:li
              >cats</rdf:li
            >
            <rdf:li
              >pet</rdf:li
            >
            <rdf:li
              >snowshoe</rdf:li
            >
          </rdf:Bag
          >
        </dc:subject
        >
      </cc:Work
      >
      <cc:License
          rdf:about="http://creativecommons.org/licenses/publicdomain/"
        >
        <cc:permits
            rdf:resource="http://creativecommons.org/ns#Reproduction"
        />
        <cc:permits
            rdf:resource="http://creativecommons.org/ns#Distribution"
        />
        <cc:permits
            rdf:resource="http://creativecommons.org/ns#DerivativeWorks"
        />
      </cc:License
      >
    </rdf:RDF
    >
  </metadata
  >
</svg
>
