<?xml version="1.0" encoding="UTF-8" standalone="no"?>
<!-- Created with Inkscape (http://www.inkscape.org/) -->

<svg
   xmlns:dc="http://purl.org/dc/elements/1.1/"
   xmlns:cc="http://creativecommons.org/ns#"
   xmlns:rdf="http://www.w3.org/1999/02/22-rdf-syntax-ns#"
   xmlns:svg="http://www.w3.org/2000/svg"
   xmlns="http://www.w3.org/2000/svg"
   xmlns:xlink="http://www.w3.org/1999/xlink"
   xmlns:sodipodi="http://sodipodi.sourceforge.net/DTD/sodipodi-0.dtd"
   xmlns:inkscape="http://www.inkscape.org/namespaces/inkscape"
   width="600"
   height="320"
   id="svg2"
   version="1.1"
   inkscape:version="0.48.4 r9939"
   sodipodi:docname="New document 1">
  <defs
     id="defs4">
    <linearGradient
       inkscape:collect="always"
       id="linearGradient4166">
      <stop
         style="stop-color:#aaeeff;stop-opacity:1;"
         offset="0"
         id="stop4168" />
      <stop
         style="stop-color:#96d3b0;stop-opacity:1"
         offset="1"
         id="stop4170" />
    </linearGradient>
    <linearGradient
       inkscape:collect="always"
       id="linearGradient4094">
      <stop
         style="stop-color:#e6e6e6;stop-opacity:1"
         offset="0"
         id="stop4096" />
      <stop
         style="stop-color:#e6e6e6;stop-opacity:0;"
         offset="1"
         id="stop4098" />
    </linearGradient>
    <linearGradient
       inkscape:collect="always"
       id="linearGradient4084">
      <stop
         style="stop-color:#666666;stop-opacity:1;"
         offset="0"
         id="stop4086" />
      <stop
         style="stop-color:#666666;stop-opacity:0;"
         offset="1"
         id="stop4088" />
    </linearGradient>
    <linearGradient
       inkscape:collect="always"
       id="linearGradient4074">
      <stop
         style="stop-color:#808080;stop-opacity:1;"
         offset="0"
         id="stop4076" />
      <stop
         style="stop-color:#808080;stop-opacity:0;"
         offset="1"
         id="stop4078" />
    </linearGradient>
    <linearGradient
       inkscape:collect="always"
       id="linearGradient4040">
      <stop
         style="stop-color:#999999;stop-opacity:1"
         offset="0"
         id="stop4042" />
      <stop
         style="stop-color:#4d4d4d;stop-opacity:0;"
         offset="1"
         id="stop4044" />
    </linearGradient>
    <linearGradient
       inkscape:collect="always"
       id="linearGradient4028">
      <stop
         style="stop-color:#e9ddaf;stop-opacity:1;"
         offset="0"
         id="stop4030" />
      <stop
         style="stop-color:#f4eed7;stop-opacity:1"
         offset="1"
         id="stop4032" />
    </linearGradient>
    <linearGradient
       inkscape:collect="always"
       id="linearGradient4015">
      <stop
         style="stop-color:#cccccc;stop-opacity:1;"
         offset="0"
         id="stop4017" />
      <stop
         style="stop-color:#cccccc;stop-opacity:0;"
         offset="1"
         id="stop4019" />
    </linearGradient>
    <linearGradient
       id="linearGradient3982"
       inkscape:collect="always">
      <stop
         id="stop3984"
         offset="0"
         style="stop-color:#ffffff;stop-opacity:1;" />
      <stop
         id="stop3986"
         offset="1"
         style="stop-color:#cccccc;stop-opacity:1" />
    </linearGradient>
    <linearGradient
       inkscape:collect="always"
       id="linearGradient3940">
      <stop
         style="stop-color:#000000;stop-opacity:1;"
         offset="0"
         id="stop3942" />
      <stop
         style="stop-color:#000000;stop-opacity:0;"
         offset="1"
         id="stop3944" />
    </linearGradient>
    <linearGradient
       inkscape:collect="always"
       id="linearGradient3922">
      <stop
         style="stop-color:#803300;stop-opacity:1;"
         offset="0"
         id="stop3924" />
      <stop
         style="stop-color:#552200;stop-opacity:1"
         offset="1"
         id="stop3926" />
    </linearGradient>
    <linearGradient
       inkscape:collect="always"
       id="linearGradient3910">
      <stop
         style="stop-color:#803300;stop-opacity:1;"
         offset="0"
         id="stop3912" />
      <stop
         style="stop-color:#2b1100;stop-opacity:1"
         offset="1"
         id="stop3914" />
    </linearGradient>
    <linearGradient
       inkscape:collect="always"
       id="linearGradient3902">
      <stop
         style="stop-color:#ffffff;stop-opacity:1;"
         offset="0"
         id="stop3904" />
      <stop
         style="stop-color:#e6e6e6;stop-opacity:1"
         offset="1"
         id="stop3906" />
    </linearGradient>
    <clipPath
       clipPathUnits="userSpaceOnUse"
       id="clipPath3120">
      <path
         sodipodi:nodetypes="ccccc"
         inkscape:connector-curvature="0"
         id="path3122"
         d="m 183.87389,213.69046 25.25382,92.93403 212.67301,-58.58884 -20.74403,-70.71068 z"
         style="fill:none;stroke:#000000;stroke-width:1px;stroke-linecap:butt;stroke-linejoin:miter;stroke-opacity:1" />
    </clipPath>
    <linearGradient
       inkscape:collect="always"
       xlink:href="#linearGradient3910"
       id="linearGradient3916"
       x1="247.14287"
       y1="215.93359"
       x2="267.85715"
       y2="283.79077"
       gradientUnits="userSpaceOnUse" />
    <linearGradient
       inkscape:collect="always"
       xlink:href="#linearGradient3922"
       id="linearGradient3928"
       x1="253.57143"
       y1="213.07646"
       x2="277.14285"
       y2="286.64789"
       gradientUnits="userSpaceOnUse" />
    <linearGradient
       inkscape:collect="always"
       xlink:href="#linearGradient3940"
       id="linearGradient3946"
       x1="322.85712"
       y1="293.79074"
       x2="310"
       y2="240.21931"
       gradientUnits="userSpaceOnUse" />
    <filter
       inkscape:collect="always"
       id="filter3956"
       x="-0.07774736"
       width="1.1554947"
       y="-0.2628471"
       height="1.5256943"
       color-interpolation-filters="sRGB">
      <feGaussianBlur
         inkscape:collect="always"
         stdDeviation="7.1985157"
         id="feGaussianBlur3958" />
    </filter>
    <linearGradient
       inkscape:collect="always"
       xlink:href="#linearGradient3922"
       id="linearGradient3972"
       gradientUnits="userSpaceOnUse"
       x1="253.57143"
       y1="213.07646"
       x2="277.14285"
       y2="286.64789" />
    <linearGradient
       inkscape:collect="always"
       xlink:href="#linearGradient3922"
       id="linearGradient3976"
       gradientUnits="userSpaceOnUse"
       x1="253.57143"
       y1="213.07646"
       x2="277.14285"
       y2="286.64789" />
    <linearGradient
       inkscape:collect="always"
       xlink:href="#linearGradient3982"
       id="linearGradient3980"
       gradientUnits="userSpaceOnUse"
       x1="248.57143"
       y1="200.93361"
       x2="274.71329"
       y2="306.07843"
       gradientTransform="matrix(0.83122635,-0.08847533,0.08847533,0.83122635,30.083376,122.90511)" />
    <filter
       inkscape:collect="always"
       id="filter3990"
       color-interpolation-filters="sRGB">
      <feGaussianBlur
         inkscape:collect="always"
         stdDeviation="3.252679"
         id="feGaussianBlur3992" />
    </filter>
    <linearGradient
       inkscape:collect="always"
       xlink:href="#linearGradient3922"
       id="linearGradient3994"
       gradientUnits="userSpaceOnUse"
       x1="253.57143"
       y1="213.07646"
       x2="277.14285"
       y2="286.64789" />
    <linearGradient
       inkscape:collect="always"
       xlink:href="#linearGradient3902"
       id="linearGradient3998"
       gradientUnits="userSpaceOnUse"
       x1="248.57143"
       y1="200.93361"
       x2="282.85715"
       y2="292.36218"
       gradientTransform="matrix(0.83592172,0,0,0.83592172,27.217824,29.095176)" />
    <linearGradient
       inkscape:collect="always"
       xlink:href="#linearGradient4015"
       id="linearGradient4021"
       x1="203.2932"
       y1="282.37338"
       x2="201.50513"
       y2="275.30234"
       gradientUnits="userSpaceOnUse" />
    <linearGradient
       inkscape:collect="always"
       xlink:href="#linearGradient4028"
       id="linearGradient4034"
       x1="216.78572"
       y1="214.14789"
       x2="233.57143"
       y2="186.29076"
       gradientUnits="userSpaceOnUse" />
    <linearGradient
       inkscape:collect="always"
       xlink:href="#linearGradient4040"
       id="linearGradient4046"
       x1="276.78571"
       y1="251.6479"
       x2="283.21429"
       y2="272.71933"
       gradientUnits="userSpaceOnUse" />
    <clipPath
       clipPathUnits="userSpaceOnUse"
       id="clipPath4059">
      <path
         sodipodi:nodetypes="ccccc"
         inkscape:connector-curvature="0"
         id="path4061"
         d="m 201.45172,284.64076 45.30711,39.27892 175.12076,-55.18406 -42.73844,-33.91695 z"
         style="fill:url(#linearGradient4063);fill-opacity:1;stroke:none" />
    </clipPath>
    <linearGradient
       inkscape:collect="always"
       xlink:href="#linearGradient3982"
       id="linearGradient4063"
       gradientUnits="userSpaceOnUse"
       gradientTransform="matrix(0.83122635,-0.08847533,0.08847533,0.83122635,30.083376,122.90511)"
       x1="248.57143"
       y1="200.93361"
       x2="274.71329"
       y2="306.07843" />
    <filter
       inkscape:collect="always"
       id="filter4148"
       x="-0.083517589"
       width="1.1670352"
       y="-0.21307692"
       height="1.4261538"
       color-interpolation-filters="sRGB">
      <feGaussianBlur
         inkscape:collect="always"
         stdDeviation="1.236607"
         id="feGaussianBlur4150" />
    </filter>
    <linearGradient
       inkscape:collect="always"
       xlink:href="#linearGradient4074"
       id="linearGradient4160"
       gradientUnits="userSpaceOnUse"
       x1="416.96429"
       y1="228.79076"
       x2="421.96426"
       y2="215.93361" />
    <linearGradient
       inkscape:collect="always"
       xlink:href="#linearGradient4084"
       id="linearGradient4162"
       gradientUnits="userSpaceOnUse"
       x1="426.25"
       y1="192.00504"
       x2="419.82144"
       y2="207.54074" />
    <linearGradient
       inkscape:collect="always"
       xlink:href="#linearGradient4094"
       id="linearGradient4164"
       gradientUnits="userSpaceOnUse"
       x1="438.02188"
       y1="218.18138"
       x2="424.79413"
       y2="212.41476" />
    <linearGradient
       inkscape:collect="always"
       xlink:href="#linearGradient4166"
       id="linearGradient4172"
       x1="134.28572"
       y1="208.07646"
       x2="205.71428"
       y2="341.64789"
       gradientUnits="userSpaceOnUse" />
    <linearGradient
       inkscape:collect="always"
       xlink:href="#linearGradient4166"
       id="linearGradient4193"
       gradientUnits="userSpaceOnUse"
       x1="134.28572"
       y1="208.07646"
       x2="205.71428"
       y2="341.64789" />
    <linearGradient
       inkscape:collect="always"
       xlink:href="#linearGradient3940"
       id="linearGradient4195"
       gradientUnits="userSpaceOnUse"
       x1="322.85712"
       y1="293.79074"
       x2="310"
       y2="240.21931" />
    <linearGradient
       inkscape:collect="always"
       xlink:href="#linearGradient3902"
       id="linearGradient4197"
       gradientUnits="userSpaceOnUse"
       gradientTransform="matrix(0.83592172,0,0,0.83592172,27.217824,29.095176)"
       x1="248.57143"
       y1="200.93361"
       x2="282.85715"
       y2="292.36218" />
    <linearGradient
       inkscape:collect="always"
       xlink:href="#linearGradient4015"
       id="linearGradient4199"
       gradientUnits="userSpaceOnUse"
       x1="203.2932"
       y1="282.37338"
       x2="201.50513"
       y2="275.30234" />
    <linearGradient
       inkscape:collect="always"
       xlink:href="#linearGradient3922"
       id="linearGradient4201"
       gradientUnits="userSpaceOnUse"
       x1="253.57143"
       y1="213.07646"
       x2="277.14285"
       y2="286.64789" />
    <linearGradient
       inkscape:collect="always"
       xlink:href="#linearGradient3982"
       id="linearGradient4203"
       gradientUnits="userSpaceOnUse"
       gradientTransform="matrix(0.83122635,-0.08847533,0.08847533,0.83122635,30.083376,122.90511)"
       x1="248.57143"
       y1="200.93361"
       x2="274.71329"
       y2="306.07843" />
    <linearGradient
       inkscape:collect="always"
       xlink:href="#linearGradient3922"
       id="linearGradient4205"
       gradientUnits="userSpaceOnUse"
       x1="253.57143"
       y1="213.07646"
       x2="277.14285"
       y2="286.64789" />
    <linearGradient
       inkscape:collect="always"
       xlink:href="#linearGradient4028"
       id="linearGradient4207"
       gradientUnits="userSpaceOnUse"
       x1="216.78572"
       y1="214.14789"
       x2="233.57143"
       y2="186.29076" />
    <linearGradient
       inkscape:collect="always"
       xlink:href="#linearGradient4040"
       id="linearGradient4209"
       gradientUnits="userSpaceOnUse"
       x1="276.78571"
       y1="251.6479"
       x2="283.21429"
       y2="272.71933" />
    <linearGradient
       inkscape:collect="always"
       xlink:href="#linearGradient4074"
       id="linearGradient4211"
       gradientUnits="userSpaceOnUse"
       x1="416.96429"
       y1="228.79076"
       x2="421.96426"
       y2="215.93361" />
    <linearGradient
       inkscape:collect="always"
       xlink:href="#linearGradient4084"
       id="linearGradient4213"
       gradientUnits="userSpaceOnUse"
       x1="426.25"
       y1="192.00504"
       x2="419.82144"
       y2="207.54074" />
    <linearGradient
       inkscape:collect="always"
       xlink:href="#linearGradient4094"
       id="linearGradient4215"
       gradientUnits="userSpaceOnUse"
       x1="438.02188"
       y1="218.18138"
       x2="424.79413"
       y2="212.41476" />
  </defs>
  <sodipodi:namedview
     id="base"
     pagecolor="#ffffff"
     bordercolor="#666666"
     borderopacity="1.0"
     inkscape:pageopacity="0.0"
     inkscape:pageshadow="2"
     inkscape:zoom="1"
     inkscape:cx="299.3839"
     inkscape:cy="161.11686"
     inkscape:document-units="px"
     inkscape:current-layer="layer1"
     showgrid="false"
     inkscape:window-width="1024"
     inkscape:window-height="548"
     inkscape:window-x="-8"
     inkscape:window-y="-8"
     inkscape:window-maximized="1" />
  <metadata
     id="metadata7">
    <rdf:RDF>
      <cc:Work
         rdf:about="">
        <dc:format>image/svg+xml</dc:format>
        <dc:type
           rdf:resource="http://purl.org/dc/dcmitype/StillImage" />
        <dc:title></dc:title>
      </cc:Work>
    </rdf:RDF>
  </metadata>
  <g
     inkscape:label="Layer 1"
     inkscape:groupmode="layer"
     id="layer1"
     transform="translate(0,-732.36218)">
    <g
       id="g4174"
       transform="matrix(1.3140922,0,0,1.3140922,-100.88494,540.21341)">
      <rect
         y="146.25536"
         x="76.771591"
         height="243.44676"
         width="456.58896"
         id="rect3132"
         style="fill:url(#linearGradient4193);fill-opacity:1;stroke:none" />
      <path
         sodipodi:nodetypes="ccccc"
         inkscape:connector-curvature="0"
         id="path3988"
         d="m 201.83053,284.26195 44.87137,41.17476 174.6262,-55.90015 -42.18695,-34.71789 z"
         style="opacity:0.4375;fill:#000000;fill-opacity:1;stroke:none;filter:url(#filter3990)" />
      <path
         transform="matrix(0.83592172,0,0,0.83592172,27.217824,29.095176)"
         style="opacity:0.60980775;fill:url(#linearGradient4195);fill-opacity:1;stroke:none;filter:url(#filter3956)"
         d="m 183.1596,242.81992 27.39668,63.80457 209.10158,-58.01964 -5.74403,-45.56559 z"
         id="path3930"
         inkscape:connector-curvature="0"
         sodipodi:nodetypes="ccccc" />
      <path
         sodipodi:nodetypes="ccccc"
         inkscape:connector-curvature="0"
         id="path2985"
         d="m 180.922,207.72367 21.11022,77.68558 177.77799,-48.97569 -17.34039,-59.10859 z"
         style="fill:url(#linearGradient4197);fill-opacity:1;stroke:none" />
      <path
         id="path4000"
         d="m 376.78125,226.09375 -178.25,46.46875 3.5,12.84375 L 333.5,249.1875 l 46.09375,-13.46875 -2.8125,-9.625 z"
         style="fill:url(#linearGradient4199);fill-opacity:1;stroke:none"
         inkscape:connector-curvature="0" />
      <path
         transform="matrix(0.83592172,0,0,0.83592172,27.217824,29.095176)"
         inkscape:connector-curvature="0"
         id="path2987"
         clip-path="url(#clipPath3120)"
         d="m 393.3125,162.9375 -0.9375,0.25 33.59375,121.4375 0.9375,-0.25 -33.59375,-121.4375 z m -3.21875,0.65625 -0.9375,0.25 33.5625,121.4375 0.9375,-0.25 -33.5625,-121.4375 z m -3.21875,0.625 -0.9375,0.25 33.5625,121.4375 0.9375,-0.25 -33.5625,-121.4375 z m -3.21875,0.65625 -0.9375,0.25 33.5625,121.40625 0.9375,-0.25 L 383.65625,164.875 z M 380.4375,165.5 379.5,165.75 413.0625,287.1875 414,286.9375 380.4375,165.5 z m -3.25,0.625 -0.9375,0.25 33.59375,121.4375 0.9375,-0.25 L 377.1875,166.125 z m -3.21875,0.65625 -0.9375,0.25 33.5625,121.40625 0.9375,-0.25 -33.5625,-121.40625 z m -3.21875,0.625 -0.9375,0.25 33.5625,121.4375 0.9375,-0.25 -33.5625,-121.4375 z m -3.21875,0.625 -0.9375,0.25 33.5625,121.4375 0.9375,-0.25 -33.5625,-121.4375 z m -3.25,0.65625 -0.9375,0.25 33.59375,121.40625 0.9375,-0.25 -33.59375,-121.40625 z m -3.21875,0.625 -0.9375,0.25 33.59375,121.4375 0.9375,-0.25 -33.59375,-121.4375 z m -3.21875,0.625 -0.9375,0.25 33.5625,121.4375 0.9375,-0.25 -33.5625,-121.4375 z m -3.21875,0.65625 -0.9375,0.25 L 387.25,292.25 388.1875,292 354.625,170.59375 z m -3.21875,0.625 -0.9375,0.25 33.5625,121.4375 0.9375,-0.25 -33.5625,-121.4375 z m -3.25,0.625 -0.9375,0.25 33.59375,121.4375 0.9375,-0.25 -33.59375,-121.4375 z M 344.9375,172.5 344,172.75 l 33.59375,121.4375 0.9375,-0.25 L 344.9375,172.5 z m -3.21875,0.625 -0.9375,0.25 33.5625,121.4375 0.9375,-0.25 -33.5625,-121.4375 z m -3.21875,0.65625 -0.9375,0.25 33.5625,121.40625 0.9375,-0.25 L 338.5,173.78125 z m -3.21875,0.625 -0.9375,0.25 33.5625,121.4375 0.9375,-0.25 -33.5625,-121.4375 z m -3.25,0.625 -0.9375,0.25 33.59375,121.4375 0.9375,-0.25 -33.59375,-121.4375 z m -3.21875,0.65625 -0.9375,0.25 33.5625,121.40625 0.9375,-0.25 -33.5625,-121.40625 z m -3.21875,0.625 -0.9375,0.25 33.5625,121.4375 0.9375,-0.25 -33.5625,-121.4375 z m -3.21875,0.625 -0.9375,0.25 L 355,298.625 l 0.9375,-0.25 -33.5625,-121.4375 z m -3.21875,0.65625 -0.9375,0.25 33.5625,121.40625 0.9375,-0.25 -33.5625,-121.40625 z m -3.25,0.625 -0.9375,0.25 33.59375,121.4375 0.9375,-0.25 -33.59375,-121.4375 z m -3.21875,0.625 -0.9375,0.25 33.5625,121.4375 0.9375,-0.25 -33.5625,-121.4375 z m -3.21875,0.65625 -0.9375,0.25 33.5625,121.40625 0.9375,-0.25 L 309.46875,179.5 z m -3.21875,0.625 -0.9375,0.25 33.5625,121.4375 0.9375,-0.25 L 306.25,180.125 z m -3.25,0.625 -0.9375,0.25 33.59375,121.4375 0.9375,-0.25 L 303,180.75 z m -3.21875,0.65625 -0.9375,0.25 33.59375,121.4375 0.9375,-0.25 -33.59375,-121.4375 z m -3.21875,0.625 -0.9375,0.25 33.5625,121.4375 0.9375,-0.25 -33.5625,-121.4375 z m -3.21875,0.65625 -0.9375,0.25 33.5625,121.40625 0.9375,-0.25 -33.5625,-121.40625 z m -3.21875,0.625 -0.9375,0.25 L 322.75,305 323.6875,304.75 290.125,183.3125 z m -3.25,0.625 -0.9375,0.25 33.59375,121.4375 0.9375,-0.25 L 286.875,183.9375 z m -3.21875,0.65625 -0.9375,0.25 33.5625,121.40625 0.9375,-0.25 -33.5625,-121.40625 z m -3.21875,0.625 -0.9375,0.25 33.5625,121.4375 0.9375,-0.25 -33.5625,-121.4375 z m -3.21875,0.625 -0.9375,0.25 33.5625,121.4375 0.9375,-0.25 -33.5625,-121.4375 z M 274,186.5 l -0.9375,0.25 33.5625,121.40625 0.9375,-0.25 L 274,186.5 z m -3.25,0.625 -0.9375,0.25 33.59375,121.4375 0.9375,-0.25 L 270.75,187.125 z m -3.21875,0.625 -0.9375,0.25 33.5625,121.4375 0.9375,-0.25 -33.5625,-121.4375 z m -3.21875,0.65625 -0.9375,0.25 33.5625,121.40625 0.9375,-0.25 -33.5625,-121.40625 z m -3.21875,0.625 -0.9375,0.25 33.5625,121.4375 0.9375,-0.25 -33.5625,-121.4375 z m -3.25,0.625 -0.9375,0.25 33.59375,121.4375 0.9375,-0.25 -33.59375,-121.4375 z m -3.21875,0.65625 -0.9375,0.25 L 287.25,312 288.1875,311.75 254.625,190.3125 z m -3.21875,0.625 -0.9375,0.25 33.5625,121.4375 0.9375,-0.25 -33.5625,-121.4375 z m -3.21875,0.65625 -0.9375,0.25 L 280.8125,313.25 281.75,313 248.1875,191.59375 z m -3.21875,0.625 -0.9375,0.25 33.5625,121.4375 0.9375,-0.25 -33.5625,-121.4375 z m -3.25,0.625 -0.9375,0.25 33.59375,121.4375 0.9375,-0.25 -33.59375,-121.4375 z M 238.5,193.5 l -0.9375,0.25 33.5625,121.40625 0.9375,-0.25 L 238.5,193.5 z m -3.21875,0.625 -0.9375,0.25 33.5625,121.4375 0.9375,-0.25 -33.5625,-121.4375 z m -3.21875,0.625 -0.9375,0.25 33.5625,121.4375 0.9375,-0.25 L 232.0625,194.75 z m -3.25,0.65625 -0.9375,0.25 33.59375,121.40625 0.9375,-0.25 -33.59375,-121.40625 z m -3.21875,0.625 -0.9375,0.25 33.59375,121.4375 0.9375,-0.25 -33.59375,-121.4375 z m -3.21875,0.625 -0.9375,0.25 33.5625,121.4375 0.9375,-0.25 -33.5625,-121.4375 z m -3.21875,0.65625 -0.9375,0.25 33.5625,121.40625 0.9375,-0.25 -33.5625,-121.40625 z m -3.21875,0.625 -0.9375,0.25 33.5625,121.4375 0.9375,-0.25 -33.5625,-121.4375 z m -3.25,0.625 -0.9375,0.25 33.59375,121.4375 0.9375,-0.25 -33.59375,-121.4375 z m -3.21875,0.65625 -0.9375,0.25 33.5625,121.4375 0.9375,-0.25 -33.5625,-121.4375 z m -3.21875,0.625 -0.9375,0.25 33.5625,121.4375 0.9375,-0.25 -33.5625,-121.4375 z m -3.21875,0.65625 -0.9375,0.25 33.5625,121.40625 0.9375,-0.25 L 203.03125,200.5 z m -3.21875,0.625 -0.9375,0.25 33.5625,121.4375 0.9375,-0.25 -33.5625,-121.4375 z m -3.25,0.625 -0.9375,0.25 33.59375,121.4375 0.9375,-0.25 L 196.5625,201.75 z m -3.21875,0.65625 -0.9375,0.25 33.5625,121.40625 0.9375,-0.25 -33.5625,-121.40625 z m -3.21875,0.625 -0.9375,0.25 33.5625,121.4375 0.9375,-0.25 -33.5625,-121.4375 z m -3.21875,0.625 -0.9375,0.25 33.5625,121.4375 0.9375,-0.25 -33.5625,-121.4375 z"
         style="font-size:medium;font-style:normal;font-variant:normal;font-weight:normal;font-stretch:normal;text-indent:0;text-align:start;text-decoration:none;line-height:normal;letter-spacing:normal;word-spacing:normal;text-transform:none;direction:ltr;block-progression:tb;writing-mode:lr-tb;text-anchor:start;baseline-shift:baseline;opacity:0.21076929;color:#000000;fill:url(#linearGradient4201);fill-opacity:1;fill-rule:nonzero;stroke:none;stroke-width:1px;marker:none;visibility:visible;display:inline;overflow:visible;enable-background:accumulate;font-family:Sans;-inkscape-font-specification:Sans" />
      <path
         style="fill:url(#linearGradient4203);fill-opacity:1;stroke:none"
         d="m 201.83053,284.8933 44.9283,39.02638 175.12076,-55.18406 -42.73844,-33.91695 z"
         id="path3966"
         inkscape:connector-curvature="0"
         sodipodi:nodetypes="ccccc" />
      <path
         transform="matrix(0.82702664,-0.08847533,0.08802831,0.83122635,30.95554,122.90511)"
         sodipodi:nodetypes="ccccccccccccccccccccccccccccccccccccccccccccccccccccccccccccccccccccccccccccccccccccccccccccccccccccccccccccccccccccccccccccccccccccccccccccccccccccccccccccccccccccccccccccccccccccccccccccccccccccccccccccccccccccccccccccccccccccccccccccccccccccccccccccccccccccccccccccccccccccccccccccccccccccccccccccccccccccccccccccccccccccc"
         style="font-size:medium;font-style:normal;font-variant:normal;font-weight:normal;font-stretch:normal;text-indent:0;text-align:start;text-decoration:none;line-height:normal;letter-spacing:normal;word-spacing:normal;text-transform:none;direction:ltr;block-progression:tb;writing-mode:lr-tb;text-anchor:start;baseline-shift:baseline;opacity:0.20076922;color:#000000;fill:url(#linearGradient4205);fill-opacity:1;fill-rule:nonzero;stroke:none;stroke-width:1px;marker:none;visibility:visible;display:inline;overflow:visible;enable-background:accumulate;font-family:Sans;-inkscape-font-specification:Sans"
         d="m 396.92165,177.71519 -0.94095,0.21864 47.44471,45.96358 0.9375,-0.25 z m -3.23263,0.56628 -0.94094,0.21863 47.42733,46.05356 0.9375,-0.25 z m -3.23293,0.53774 -0.94095,0.21865 47.44152,46.1408 0.9375,-0.25 z m -3.23262,0.56628 -0.94094,0.21863 47.45538,46.19954 0.9375,-0.25 z m -3.23294,0.53775 -0.94094,0.21864 47.46957,46.31803 0.9375,-0.25 z m -3.26438,0.53744 -0.94094,0.21864 47.5152,46.40559 0.9375,-0.25 z m -3.23262,0.56627 -0.94095,0.21864 47.49783,46.46432 0.9375,-0.25 z m -3.23294,0.53775 -0.94094,0.21865 47.51201,46.58281 0.9375,-0.25 z m -3.23293,0.53776 -0.94095,0.21864 47.5262,46.67006 0.9375,-0.25 z m -3.26407,0.56595 -0.94095,0.21865 47.57152,46.7291 0.9375,-0.25 z m -3.23294,0.53776 -0.94094,0.21863 47.5857,46.84761 0.9375,-0.25 z m -3.23294,0.53776 -0.94094,0.21863 47.56864,46.93485 0.9375,-0.25 z m -3.23261,0.56626 -0.94094,0.21865 47.5825,46.99357 0.9375,-0.25 z m -3.23294,0.53776 -0.94094,0.21863 47.59669,47.11208 0.9375,-0.25 z m -3.26438,0.53743 -0.94094,0.21865 47.64232,47.19963 0.9375,-0.25 z m -3.23262,0.56628 -0.94095,0.21864 47.6562,47.28961 0.9375,-0.25 z m -3.23294,0.53775 -0.94094,0.21864 47.63913,47.37686 0.9375,-0.25 z m -3.23261,0.56628 -0.94095,0.21863 47.653,47.43559 0.9375,-0.25 z m -3.23294,0.53775 -0.94094,0.21864 47.66718,47.55408 0.9375,-0.25 z m -3.26439,0.53744 -0.94094,0.21864 47.71282,47.64164 0.9375,-0.25 z m -3.23261,0.56626 -0.94095,0.21865 47.69544,47.70037 0.9375,-0.25 z m -3.23294,0.53776 -0.94094,0.21864 47.70962,47.81887 0.9375,-0.25 z m -3.23294,0.53776 -0.94094,0.21864 47.72381,47.90611 0.9375,-0.25 z m -3.23261,0.56626 -0.94095,0.21865 47.73768,47.96484 0.9375,-0.25 z m -3.26439,0.53745 -0.94095,0.21863 47.78332,48.08366 0.9375,-0.25 z m -3.23294,0.53775 -0.94094,0.21864 47.76625,48.1709 0.9375,-0.25 z m -3.23261,0.56627 -0.94095,0.21864 47.78012,48.22963 0.9375,-0.25 z m -3.23294,0.53776 -0.94094,0.21863 47.7943,48.34813 0.9375,-0.25 z m -3.26439,0.53743 -0.94094,0.21865 47.83994,48.43568 0.9375,-0.25 z m -3.23261,0.56628 -0.94095,0.21863 47.85381,48.52567 0.9375,-0.25 z m -3.23294,0.53775 -0.94095,0.21864 47.83675,48.61291 0.9375,-0.25 z m -3.23263,0.56627 -0.94094,0.21864 47.85062,48.67164 0.9375,-0.25 z m -3.23292,0.53776 -0.94095,0.21863 47.8648,48.79014 0.9375,-0.25 z m -3.26439,0.53743 -0.94095,0.21865 47.91044,48.87769 0.9375,-0.25 z m -3.23262,0.56627 -0.94094,0.21864 47.89305,48.93643 0.9375,-0.25 z m -3.23293,0.53776 -0.94095,0.21864 47.90724,49.05492 0.9375,-0.25 z m -3.23294,0.53775 -0.94094,0.21865 47.92142,49.14216 0.9375,-0.25 z m -3.23263,0.56627 -0.94094,0.21864 47.9353,49.2009 0.9375,-0.25 z m -3.26437,0.53744 -0.94095,0.21864 47.98093,49.31971 0.9375,-0.25 z m -3.23294,0.53776 -0.94095,0.21863 47.96387,49.40696 0.9375,-0.25 z m -3.23263,0.56627 -0.94094,0.21864 47.97774,49.46568 0.9375,-0.25 z m -3.23292,0.53775 -0.94096,0.21864 47.99193,49.58418 0.9375,-0.25 z m -3.26439,0.53744 -0.94095,0.21864 48.03756,49.67174 0.9375,-0.25 z m -3.23262,0.56628 -0.94095,0.21863 48.02018,49.76172 0.9375,-0.25 z m -3.23293,0.53774 -0.94095,0.21865 48.03436,49.84896 0.9375,-0.25 z m -3.23263,0.56628 -0.94094,0.21863 48.04823,49.9077 0.9375,-0.25 z m -3.23294,0.53776 -0.94094,0.21863 48.06242,50.02619 0.9375,-0.25 z m -3.26438,0.53743 -0.94094,0.21864 48.10805,50.11375 0.9375,-0.25 z m -3.23262,0.56627 -0.94094,0.21864 48.09067,50.17248 0.9375,-0.25 z m -3.23294,0.53775 -0.94094,0.21865 48.10486,50.29097 0.9375,-0.25 z m -3.23292,0.53776 -0.94096,0.21864 48.11905,50.37822 0.9375,-0.25 z m -3.26408,0.56595 -0.94094,0.21865 48.16436,50.43726 0.9375,-0.25 z m -3.23293,0.53776 -0.94095,0.21864 48.17855,50.55576 0.9375,-0.25 z m -3.23293,0.53776 -0.94095,0.21863 48.16148,50.64301 0.9375,-0.25 z m -3.23263,0.56626 -0.94094,0.21865 48.17535,50.70173 0.9375,-0.25 z m -3.23294,0.53776 -0.94094,0.21863 48.18954,50.82024 0.9375,-0.25 z m -3.26438,0.53744 -0.94094,0.21864 48.23517,50.90779 0.9375,-0.25 z m -3.23262,0.56627 -0.94094,0.21864 48.21779,50.99777 0.9375,-0.25 z m -3.23294,0.53775 -0.94094,0.21864 48.23198,51.08502 0.9375,-0.25 z m -3.23261,0.56628 -0.94095,0.21863 48.24585,51.14375 0.9375,-0.25 z m -3.23294,0.53775 -0.94094,0.21864 48.26003,51.26224 0.9375,-0.25 z m -3.26439,0.53744 -0.94094,0.21864 48.30567,51.3498 0.9375,-0.25 z m -3.23261,0.56626 -0.94095,0.21865 48.28829,51.40853 0.9375,-0.25 z m -3.23294,0.53776 -0.94094,0.21864 48.30247,51.52703 0.9375,-0.25 z m -3.23294,0.53776 -0.94094,0.21864 48.31666,51.61427 0.9375,-0.25 z"
         clip-path="none"
         id="path3968"
         inkscape:connector-curvature="0" />
      <path
         id="path4023"
         d="m 362.8125,178.5 -181.21875,31.65625 2.8125,10.375 180.5625,-34.71875 -2.15625,-7.3125 z"
         style="opacity:0.86942294;fill:url(#linearGradient4207);fill-opacity:1;stroke:none"
         inkscape:connector-curvature="0" />
      <path
         clip-path="url(#clipPath4059)"
         sodipodi:nodetypes="cccccc"
         inkscape:connector-curvature="0"
         id="path4038"
         d="m 384.28943,232.90687 -187.56499,53.13135 4.3507,4.7258 6.07143,9.28571 186.78571,-61.07143 z"
         style="opacity:0.4375;fill:url(#linearGradient4209);fill-opacity:1;stroke:none" />
      <g
         transform="matrix(1.4627982,0,0,1.4381264,-211.42386,-22.93287)"
         id="g4152">
        <path
           style="opacity:0.53519233;fill:#000000;stroke:none;filter:url(#filter4148)"
           d="m 401.96429,215.93361 27.85714,9.82143 7.67857,-5.89286 -25.89286,-8.03571 z"
           id="path4142"
           inkscape:connector-curvature="0" />
        <path
           inkscape:connector-curvature="0"
           style="fill:#f2f2f2;fill-opacity:1;stroke:none"
           d="m 407.09375,198.75 -0.0312,0.0625 c -1.96832,-0.44277 -4.71261,2.89632 -6.1875,7.59375 -1.35971,4.33059 -1.18722,8.33597 0.3125,9.53125 l 0,0.0312 0.125,0.0312 c 0.13194,0.0896 0.28689,0.17146 0.4375,0.21875 0.14394,0.0452 0.28541,0.0901 0.4375,0.0937 l 26.59375,9.125 5.90625,-17.21875 -27.59375,-9.46875 z"
           id="path4067" />
        <path
           inkscape:connector-curvature="0"
           id="path4072"
           d="m 407.09375,198.75 -0.0312,0.0625 c -1.96832,-0.44277 -4.71261,2.89632 -6.1875,7.59375 -1.35971,4.33059 -1.18722,8.33597 0.3125,9.53125 l 0,0.0312 0.125,0.0312 c 0.13194,0.0896 0.28689,0.17146 0.4375,0.21875 0.14394,0.0452 0.28541,0.0901 0.4375,0.0937 l 26.59375,9.125 5.90625,-17.21875 -27.59375,-9.46875 z"
           style="opacity:0.7692308;fill:url(#linearGradient4211);fill-opacity:1;stroke:none" />
        <path
           inkscape:connector-curvature="0"
           style="fill:url(#linearGradient4213);fill-opacity:1;stroke:none"
           d="m 407.09375,198.75 -0.0312,0.0625 c -1.96832,-0.44277 -4.71261,2.89632 -6.1875,7.59375 -1.35971,4.33059 -1.18722,8.33597 0.3125,9.53125 l 0,0.0312 0.125,0.0312 c 0.13194,0.0896 0.28689,0.17146 0.4375,0.21875 0.14394,0.0452 0.28541,0.0901 0.4375,0.0937 l 26.59375,9.125 5.90625,-17.21875 -27.59375,-9.46875 z"
           id="path4082" />
        <path
           sodipodi:type="arc"
           style="fill:#ffffff;fill-opacity:1;stroke:none"
           id="path4065"
           sodipodi:cx="431.60715"
           sodipodi:cy="216.82646"
           sodipodi:rx="3.75"
           sodipodi:ry="9.1071424"
           d="m 435.35715,216.82646 c 0,5.02974 -1.67893,9.10714 -3.75,9.10714 -2.07107,0 -3.75,-4.0774 -3.75,-9.10714 0,-5.02973 1.67893,-9.10714 3.75,-9.10714 2.07107,0 3.75,4.07741 3.75,9.10714 z"
           transform="matrix(0.95407763,0.29955949,-0.29955949,0.95407763,84.772856,-119.33483)" />
        <path
           transform="matrix(0.95407763,0.29955949,-0.29955949,0.95407763,84.772856,-119.33483)"
           d="m 435.35715,216.82646 c 0,5.02974 -1.67893,9.10714 -3.75,9.10714 -2.07107,0 -3.75,-4.0774 -3.75,-9.10714 0,-5.02973 1.67893,-9.10714 3.75,-9.10714 2.07107,0 3.75,4.07741 3.75,9.10714 z"
           sodipodi:ry="9.1071424"
           sodipodi:rx="3.75"
           sodipodi:cy="216.82646"
           sodipodi:cx="431.60715"
           id="path4092"
           style="opacity:0.70230773;fill:url(#linearGradient4215);fill-opacity:1;stroke:none"
           sodipodi:type="arc" />
      </g>
    </g>
  </g>
</svg>
