<?xml version="1.0" encoding="UTF-8" standalone="no"?>
<!-- Created with Inkscape (http://www.inkscape.org/) -->

<svg
   xmlns:dc="http://purl.org/dc/elements/1.1/"
   xmlns:cc="http://creativecommons.org/ns#"
   xmlns:rdf="http://www.w3.org/1999/02/22-rdf-syntax-ns#"
   xmlns:svg="http://www.w3.org/2000/svg"
   xmlns="http://www.w3.org/2000/svg"
   version="1.1"
   width="1000"
   height="1000"
   id="svg2">
  <defs
     id="defs4" />
  <metadata
     id="metadata7">
    <rdf:RDF>
      <cc:Work
         rdf:about="">
        <dc:format>image/svg+xml</dc:format>
        <dc:type
           rdf:resource="http://purl.org/dc/dcmitype/StillImage" />
        <dc:title></dc:title>
      </cc:Work>
    </rdf:RDF>
  </metadata>
  <g
     transform="matrix(1.2225243,0,0,1.2136428,-113.89029,-107.47845)"
     id="g3814">
    <g
       transform="translate(0,-52.362183)"
       id="layer1">
      <path
         d="m 923.78448,554.53351 a 413.272,428.3837 0 1 1 -826.544001,0 413.272,428.3837 0 1 1 826.544001,0 z"
         transform="matrix(0.9682035,0,0,0.93711658,5.720028,32.699647)"
         id="path2985"
         style="fill:#000000;stroke:#000000;stroke-width:2.58563304;stroke-linecap:butt;stroke-linejoin:miter;stroke-miterlimit:4;stroke-opacity:1;stroke-dasharray:none" />
      <path
         d="m 440.47089,103.13929 c -0.0869,1.53789 -0.17376,3.07578 0,0 z"
         transform="translate(0,52.362183)"
         id="path3327"
         style="fill:none;stroke:#000000;stroke-width:0.82096714px;stroke-linecap:butt;stroke-linejoin:miter;stroke-opacity:1" />
    </g>
    <path
       d="m 500,98.462082 0,802.812428"
       id="path3404"
       style="fill:#ff0000;stroke:#f4d7e3;stroke-width:0.82096714px;stroke-linecap:butt;stroke-linejoin:miter;stroke-opacity:1" />
    <path
       d="M 508.03023,901.51144 491.96461,98.230522"
       id="path3406"
       style="fill:none;stroke:#ffd5e5;stroke-width:0.82096714px;stroke-linecap:butt;stroke-linejoin:miter;stroke-opacity:1" />
    <path
       d="M 508.04005,97.997698 491.97916,901.04177"
       id="path3408"
       style="fill:none;stroke:#e9afc6;stroke-width:0.82096714px;stroke-linecap:butt;stroke-linejoin:miter;stroke-opacity:1" />
    <path
       d="M 483.96745,900.81378 516.0613,98.467423"
       id="path3410"
       style="fill:none;stroke:#de87aa;stroke-width:0.82096714px;stroke-linecap:butt;stroke-linejoin:miter;stroke-opacity:1" />
    <path
       d="M 524.05049,99.158511 475.96537,900.57717"
       id="path3412"
       style="fill:none;stroke:#d35f8d;stroke-width:0.82096714px;stroke-linecap:butt;stroke-linejoin:miter;stroke-opacity:1" />
    <path
       d="M 468.00848,899.89401 532.03112,99.610973"
       id="path3414"
       style="fill:none;stroke:#c83771;stroke-width:0.82096714px;stroke-linecap:butt;stroke-linejoin:miter;stroke-opacity:1" />
    <path
       d="M 483.96584,99.145884 516.04151,901.03767"
       id="path3416"
       style="fill:none;stroke:#ffaacc;stroke-width:0.82096714px;stroke-linecap:butt;stroke-linejoin:miter;stroke-opacity:1" />
    <path
       d="M 524.0478,900.7966 475.94962,99.16037"
       id="path3418"
       style="fill:none;stroke:#ff80b2;stroke-width:0.82096714px;stroke-linecap:butt;stroke-linejoin:miter;stroke-opacity:1" />
    <path
       d="m 468.00748,100.09355 64.00123,800.01528"
       id="path3420"
       style="fill:none;stroke:#ff5599;stroke-width:0.82096714px;stroke-linecap:butt;stroke-linejoin:miter;stroke-opacity:1" />
    <path
       d="M 460.08256,899.17442 539.96913,100.30871"
       id="path3422"
       style="fill:none;stroke:#c837ab;stroke-width:0.82096714px;stroke-linecap:butt;stroke-linejoin:miter;stroke-opacity:1" />
    <path
       d="M 460.05418,100.54178 539.94075,899.4075"
       id="path3424"
       style="fill:none;stroke:#ff2a7f;stroke-width:0.82096714px;stroke-linecap:butt;stroke-linejoin:miter;stroke-opacity:1" />
    <path
       d="M 547.8142,898.45166 452.17597,101.4664"
       id="path3426"
       style="fill:none;stroke:#ff00cc;stroke-width:0.82096714px;stroke-linecap:butt;stroke-linejoin:miter;stroke-opacity:1" />
    <path
       d="M 444.34285,102.44894 555.61711,897.26509"
       id="path3428"
       style="fill:none;stroke:#ff2ad4;stroke-width:0.82096714px;stroke-linecap:butt;stroke-linejoin:miter;stroke-opacity:1" />
    <path
       d="M 563.60773,897.54828 436.55055,103.44094"
       id="path3430"
       style="fill:none;stroke:#ff80e5;stroke-width:0.82096714px;stroke-linecap:butt;stroke-linejoin:miter;stroke-opacity:1" />
    <path
       d="m 428.93203,105.17795 142.334,790.74442"
       id="path3432"
       style="fill:none;stroke:#ffaaee;stroke-width:0.82096714px;stroke-linecap:butt;stroke-linejoin:miter;stroke-opacity:1" />
    <path
       d="M 421.17804,105.89019 578.81718,894.08588"
       id="path3434"
       style="fill:none;stroke:#ffd5f6;stroke-width:0.82096714px;stroke-linecap:butt;stroke-linejoin:miter;stroke-opacity:1" />
    <path
       d="M 452.18294,898.47546 547.90691,100.77572"
       id="path3436"
       style="fill:none;stroke:#d35fbc;stroke-width:0.82096714px;stroke-linecap:butt;stroke-linejoin:miter;stroke-opacity:1" />
    <path
       d="M 555.66221,102.41277 444.37455,897.32461"
       id="path3438"
       style="fill:none;stroke:#de87cd;stroke-width:0.82096714px;stroke-linecap:butt;stroke-linejoin:miter;stroke-opacity:1" />
    <path
       d="M 436.53221,896.67368 563.43138,103.55387"
       id="path3440"
       style="fill:none;stroke:#e9afdd;stroke-width:0.82096714px;stroke-linecap:butt;stroke-linejoin:miter;stroke-opacity:1" />
    <path
       d="M 571.14266,104.76302 428.86374,895.20143"
       id="path3442"
       style="fill:none;stroke:#f4d7ee;stroke-width:0.82096714px;stroke-linecap:butt;stroke-linejoin:miter;stroke-opacity:1" />
    <path
       d="M 421.23763,893.81187 578.76955,106.15224"
       id="path3444"
       style="fill:none;stroke:#eed7f4;stroke-width:0.82096714px;stroke-linecap:butt;stroke-linejoin:miter;stroke-opacity:1" />
    <path
       d="m 413.64694,107.4861 172.6903,784.95591"
       id="path3446"
       style="fill:none;stroke:#f6d5ff;stroke-width:0.82096714px;stroke-linecap:butt;stroke-linejoin:miter;stroke-opacity:1" />
    <path
       d="M 593.68892,890.3705 406.24035,109.33479"
       id="path3448"
       style="fill:none;stroke:#eeaaff;stroke-width:0.82096714px;stroke-linecap:butt;stroke-linejoin:miter;stroke-opacity:1" />
    <path
       d="M 398.97404,111.43862 600.94907,888.26566"
       id="path3450"
       style="fill:none;stroke:#e580ff;stroke-width:0.82096714px;stroke-linecap:butt;stroke-linejoin:miter;stroke-opacity:1" />
    <path
       d="M 608.28494,886.73193 391.72613,113.30761"
       id="path3452"
       style="fill:none;stroke:#dd55ff;stroke-width:0.82096714px;stroke-linecap:butt;stroke-linejoin:miter;stroke-opacity:1" />
    <path
       d="M 384.5665,115.22168 615.51062,885.03539"
       id="path3454"
       style="fill:none;stroke:#d42aff;stroke-width:0.82096714px;stroke-linecap:butt;stroke-linejoin:miter;stroke-opacity:1" />
    <path
       d="M 622.42631,882.58222 377.54867,117.33959"
       id="path3456"
       style="fill:none;stroke:#7f2aff;stroke-width:0.82096714px;stroke-linecap:butt;stroke-linejoin:miter;stroke-opacity:1" />
    <path
       d="M 370.7433,119.83323 629.22637,880.07757"
       id="path3458"
       style="fill:none;stroke:#9955ff;stroke-width:0.82096714px;stroke-linecap:butt;stroke-linejoin:miter;stroke-opacity:1" />
    <path
       d="M 413.8699,891.50045 586.29503,107.74988"
       id="path3460"
       style="fill:none;stroke:#ddafe9;stroke-width:0.82096714px;stroke-linecap:butt;stroke-linejoin:miter;stroke-opacity:1" />
    <path
       d="M 593.64327,109.81973 406.2706,890.53916"
       id="path3462"
       style="fill:none;stroke:#cd87de;stroke-width:0.82096714px;stroke-linecap:butt;stroke-linejoin:miter;stroke-opacity:1" />
    <path
       d="M 398.95446,888.63668 601.02793,111.43104"
       id="path3464"
       style="fill:none;stroke:#bc5fd3;stroke-width:0.82096714px;stroke-linecap:butt;stroke-linejoin:miter;stroke-opacity:1" />
    <path
       d="M 608.33644,113.08413 391.73421,886.66354"
       id="path3466"
       style="fill:none;stroke:#ab37c8;stroke-width:0.82096714px;stroke-linecap:butt;stroke-linejoin:miter;stroke-opacity:1" />
    <path
       d="M 384.639,884.53667 615.3082,115.63934"
       id="path3468"
       style="fill:none;stroke:#7137c8;stroke-width:0.82096714px;stroke-linecap:butt;stroke-linejoin:miter;stroke-opacity:1" />
    <path
       d="M 622.41107,117.46542 377.77887,881.94104"
       id="path3470"
       style="fill:none;stroke:#8d5fd3;stroke-width:0.82096714px;stroke-linecap:butt;stroke-linejoin:miter;stroke-opacity:1" />
    <path
       d="M 636.01393,877.81647 364.12779,122.57719"
       id="path3472"
       style="fill:none;stroke:#b380ff;stroke-width:0.82096714px;stroke-linecap:butt;stroke-linejoin:miter;stroke-opacity:1" />
    <path
       d="M 357.37518,124.67152 642.58911,875.23449"
       id="path3474"
       style="fill:none;stroke:#ccaaff;stroke-width:0.82096714px;stroke-linecap:butt;stroke-linejoin:miter;stroke-opacity:1" />
    <path
       d="M 649.29855,873.24639 350.88725,127.21813"
       id="path3476"
       style="fill:none;stroke:#e5d5ff;stroke-width:0.82096714px;stroke-linecap:butt;stroke-linejoin:miter;stroke-opacity:1" />
    <path
       d="m 344.43758,129.61329 311.1184,740.75808"
       id="path3478"
       style="fill:none;stroke:#d5d5ff;stroke-width:0.82096714px;stroke-linecap:butt;stroke-linejoin:miter;stroke-opacity:1" />
    <path
       d="M 661.54258,867.14222 338.24206,132.36832"
       id="path3480"
       style="fill:none;stroke:#aaaaff;stroke-width:0.82096714px;stroke-linecap:butt;stroke-linejoin:miter;stroke-opacity:1" />
    <path
       d="M 332.2651,135.35891 667.81672,864.81895"
       id="path3482"
       style="fill:none;stroke:#8080ff;stroke-width:0.82096714px;stroke-linecap:butt;stroke-linejoin:miter;stroke-opacity:1" />
    <path
       d="m 326.38075,138.29324 347.18506,723.3022"
       id="path3484"
       style="fill:none;stroke:#5555ff;stroke-width:0.82096714px;stroke-linecap:butt;stroke-linejoin:miter;stroke-opacity:1" />
    <path
       d="M 679.21269,858.42537 320.59526,141.19051"
       id="path3486"
       style="fill:none;stroke:#2a2aff;stroke-width:0.82096714px;stroke-linecap:butt;stroke-linejoin:miter;stroke-opacity:1" />
    <path
       d="M 315.18587,144.58822 684.9031,855.58288"
       id="path3488"
       style="fill:none;stroke:#3771c8;stroke-width:0.82096714px;stroke-linecap:butt;stroke-linejoin:miter;stroke-opacity:1" />
    <path
       d="M 370.87172,879.78907 629.18913,120.03197"
       id="path3490"
       style="fill:none;stroke:#aa87de;stroke-width:0.82096714px;stroke-linecap:butt;stroke-linejoin:miter;stroke-opacity:1" />
    <path
       d="M 309.14667,146.5679 690.39866,852.59011"
       id="path3492"
       style="fill:none;stroke:#5f8dd3;stroke-width:0.82096714px;stroke-linecap:butt;stroke-linejoin:miter;stroke-opacity:1" />
    <path
       d="M 695.96289,849.93374 303.88648,149.79729"
       id="path3494"
       style="fill:none;stroke:#87aade;stroke-width:0.82096714px;stroke-linecap:butt;stroke-linejoin:miter;stroke-opacity:1" />
    <path
       d="M 298.60549,152.76808 701.23408,846.95531"
       id="path3496"
       style="fill:none;stroke:#afc6e9;stroke-width:0.82096714px;stroke-linecap:butt;stroke-linejoin:miter;stroke-opacity:1" />
    <path
       d="M 363.91561,878.0122 636.02384,122.15599"
       id="path3498"
       style="fill:none;stroke:#c6afe9;stroke-width:0.82096714px;stroke-linecap:butt;stroke-linejoin:miter;stroke-opacity:1" />
    <path
       d="M 642.58092,124.78704 357.33768,875.42714"
       id="path3500"
       style="fill:none;stroke:#e3d7f4;stroke-width:0.82096714px;stroke-linecap:butt;stroke-linejoin:miter;stroke-opacity:1" />
    <path
       d="M 350.89798,872.75505 649.11704,127.20741"
       id="path3502"
       style="fill:none;stroke:#d7d7f4;stroke-width:0.82096714px;stroke-linecap:butt;stroke-linejoin:miter;stroke-opacity:1" />
    <path
       d="M 655.56708,129.60218 344.53162,870.1628"
       id="path3504"
       style="fill:none;stroke:#afafe9;stroke-width:0.82096714px;stroke-linecap:butt;stroke-linejoin:miter;stroke-opacity:1" />
    <path
       d="M 338.37684,867.32537 661.602,132.72273"
       id="path3506"
       style="fill:none;stroke:#8787de;stroke-width:0.82096714px;stroke-linecap:butt;stroke-linejoin:miter;stroke-opacity:1" />
    <path
       d="M 667.6592,135.52349 332.18166,864.82248"
       id="path3508"
       style="fill:none;stroke:#5f5fd3;stroke-width:0.82096714px;stroke-linecap:butt;stroke-linejoin:miter;stroke-opacity:1" />
    <path
       d="M 326.34939,861.7721 673.48733,138.56807"
       id="path3510"
       style="fill:none;stroke:#3737c8;stroke-width:0.82096714px;stroke-linecap:butt;stroke-linejoin:miter;stroke-opacity:1" />
    <path
       d="M 293.26737,155.44562 706.64439,844.40731"
       id="path3512"
       style="fill:none;stroke:#d7e3f4;stroke-width:0.82096714px;stroke-linecap:butt;stroke-linejoin:miter;stroke-opacity:1" />
    <path
       d="M 320.65416,858.69168 679.45742,141.08515"
       id="path3514"
       style="fill:none;stroke:#2a7fff;stroke-width:0.82096714px;stroke-linecap:butt;stroke-linejoin:miter;stroke-opacity:1" />
    <path
       d="M 684.91583,144.39264 314.91336,855.93585"
       id="path3516"
       style="fill:none;stroke:#5599ff;stroke-width:0.82096714px;stroke-linecap:butt;stroke-linejoin:miter;stroke-opacity:1" />
    <path
       d="M 309.40636,852.95119 690.75547,146.74913"
       id="path3518"
       style="fill:none;stroke:#80b3ff;stroke-width:0.82096714px;stroke-linecap:butt;stroke-linejoin:miter;stroke-opacity:1" />
    <path
       d="M 695.97616,150.04258 303.9455,850.09732"
       id="path3520"
       style="fill:none;stroke:#aaccff;stroke-width:0.82096714px;stroke-linecap:butt;stroke-linejoin:miter;stroke-opacity:1" />
    <path
       d="M 298.78988,846.91399 701.46534,152.64596"
       id="path3522"
       style="fill:none;stroke:#d5e5ff;stroke-width:0.82096714px;stroke-linecap:butt;stroke-linejoin:miter;stroke-opacity:1" />
    <path
       d="M 288.39355,158.69928 711.32862,840.85262"
       id="path3524"
       style="fill:none;stroke:#d5f6ff;stroke-width:0.82096714px;stroke-linecap:butt;stroke-linejoin:miter;stroke-opacity:1" />
    <path
       d="M 715.89442,837.33502 283.70655,162.04148"
       id="path3526"
       style="fill:none;stroke:#aaeeff;stroke-width:0.82096714px;stroke-linecap:butt;stroke-linejoin:miter;stroke-opacity:1" />
    <path
       d="M 278.86356,164.94479 720.90192,834.69988"
       id="path3528"
       style="fill:none;stroke:#80e5ff;stroke-width:0.82096714px;stroke-linecap:butt;stroke-linejoin:miter;stroke-opacity:1" />
    <path
       d="M 293.71229,843.81285 706.47364,155.87726"
       id="path3530"
       style="fill:none;stroke:#d7f4ee;stroke-width:0.82096714px;stroke-linecap:butt;stroke-linejoin:miter;stroke-opacity:1" />
    <path
       d="M 274.35505,168.16919 725.47201,831.57648"
       id="path3532"
       style="fill:none;stroke:#55ddff;stroke-width:0.82096714px;stroke-linecap:butt;stroke-linejoin:miter;stroke-opacity:1" />
    <path
       d="M 729.95531,828.50758 269.62271,170.88959"
       id="path3534"
       style="fill:none;stroke:#2ad4ff;stroke-width:0.82096714px;stroke-linecap:butt;stroke-linejoin:miter;stroke-opacity:1" />
    <path
       d="M 265.54406,174.36675 734.43575,825.60521"
       id="path3536"
       style="fill:none;stroke:#2affd5;stroke-width:0.82096714px;stroke-linecap:butt;stroke-linejoin:miter;stroke-opacity:1" />
    <path
       d="M 738.56887,822.39037 261.1212,177.19081"
       id="path3538"
       style="fill:none;stroke:#55ffdd;stroke-width:0.82096714px;stroke-linecap:butt;stroke-linejoin:miter;stroke-opacity:1" />
    <path
       d="M 257.0071,180.2725 742.73332,819.38595"
       id="path3540"
       style="fill:none;stroke:#80ffe6;stroke-width:0.82096714px;stroke-linecap:butt;stroke-linejoin:miter;stroke-opacity:1" />
    <path
       d="M 746.73551,816.32758 253.13229,183.50294"
       id="path3542"
       style="fill:none;stroke:#aaffee;stroke-width:0.82096714px;stroke-linecap:butt;stroke-linejoin:miter;stroke-opacity:1" />
    <path
       d="M 249.46316,186.82895 750.57142,813.21427"
       id="path3544"
       style="fill:none;stroke:#d5fff6;stroke-width:0.82096714px;stroke-linecap:butt;stroke-linejoin:miter;stroke-opacity:1" />
    <path
       d="M 753.89543,809.62858 245.58151,189.73355"
       id="path3546"
       style="fill:none;stroke:#d5ffe6;stroke-width:0.82096714px;stroke-linecap:butt;stroke-linejoin:miter;stroke-opacity:1" />
    <path
       d="M 241.90269,192.7413 758.01714,807.16327"
       id="path3548"
       style="fill:none;stroke:#aaffcc;stroke-width:0.82096714px;stroke-linecap:butt;stroke-linejoin:miter;stroke-opacity:1" />
    <path
       d="M 761.73423,804.34213 238.61913,196.06876"
       id="path3550"
       style="fill:none;stroke:#80ffb3;stroke-width:0.82096714px;stroke-linecap:butt;stroke-linejoin:miter;stroke-opacity:1" />
    <path
       d="M 235.03908,198.90805 764.55364,800.62913"
       id="path3552"
       style="fill:none;stroke:#55ff99;stroke-width:0.82096714px;stroke-linecap:butt;stroke-linejoin:miter;stroke-opacity:1" />
    <path
       d="M 767.6207,797.35633 231.7302,201.92245"
       id="path3554"
       style="fill:none;stroke:#2aff80;stroke-width:0.82096714px;stroke-linecap:butt;stroke-linejoin:miter;stroke-opacity:1" />
    <path
       d="M 228.46746,204.85593 771.36594,794.96298"
       id="path3556"
       style="fill:none;stroke:#2aff2a;stroke-width:0.82096714px;stroke-linecap:butt;stroke-linejoin:miter;stroke-opacity:1" />
    <path
       d="M 774.41525,791.93111 225.89282,208.39662"
       id="path3558"
       style="fill:none;stroke:#55ff55;stroke-width:0.82096714px;stroke-linecap:butt;stroke-linejoin:miter;stroke-opacity:1" />
    <path
       d="m 222.60304,211.04484 555.35021,578.4898"
       id="path3560"
       style="fill:none;stroke:#80ff80;stroke-width:0.82096714px;stroke-linecap:butt;stroke-linejoin:miter;stroke-opacity:1" />
    <path
       d="M 780.31025,786.03086 219.35425,213.62679"
       id="path3562"
       style="fill:none;stroke:#aaffaa;stroke-width:0.82096714px;stroke-linecap:butt;stroke-linejoin:miter;stroke-opacity:1" />
    <path
       d="M 216.98423,216.98423 784.09711,784.09711"
       id="path3564"
       style="fill:none;stroke:#d5ffd5;stroke-width:0.82096714px;stroke-linecap:butt;stroke-linejoin:miter;stroke-opacity:1" />
    <path
       d="M 288.68001,840.83869 711.31759,159.16518"
       id="path3566"
       style="fill:none;stroke:#afe9dd;stroke-width:0.82096714px;stroke-linecap:butt;stroke-linejoin:miter;stroke-opacity:1" />
    <path
       d="M 716.29245,162.04305 283.69275,837.98008"
       id="path3568"
       style="fill:none;stroke:#87decd;stroke-width:0.82096714px;stroke-linecap:butt;stroke-linejoin:miter;stroke-opacity:1" />
    <path
       d="M 278.96442,834.9024 720.73894,165.54706"
       id="path3570"
       style="fill:none;stroke:#5fd3bc;stroke-width:0.82096714px;stroke-linecap:butt;stroke-linejoin:miter;stroke-opacity:1" />
    <path
       d="M 725.59449,168.2434 274.14033,832.14657"
       id="path3572"
       style="fill:none;stroke:#37c8ab;stroke-width:0.82096714px;stroke-linecap:butt;stroke-linejoin:miter;stroke-opacity:1" />
    <path
       d="M 269.8694,828.758 730.15545,171.2065"
       id="path3574"
       style="fill:none;stroke:#37c871;stroke-width:0.82096714px;stroke-linecap:butt;stroke-linejoin:miter;stroke-opacity:1" />
    <path
       d="M 734.48134,174.33147 265.49556,825.70061"
       id="path3576"
       style="fill:none;stroke:#5fd38d;stroke-width:0.82096714px;stroke-linecap:butt;stroke-linejoin:miter;stroke-opacity:1" />
    <path
       d="M 261.33106,822.5256 738.50155,177.7006"
       id="path3578"
       style="fill:none;stroke:#87deaa;stroke-width:0.82096714px;stroke-linecap:butt;stroke-linejoin:miter;stroke-opacity:1" />
    <path
       d="M 742.66326,180.70624 257.22435,819.44164"
       id="path3580"
       style="fill:none;stroke:#afe9c6;stroke-width:0.82096714px;stroke-linecap:butt;stroke-linejoin:miter;stroke-opacity:1" />
    <path
       d="M 253.1636,816.45692 746.83847,183.54043"
       id="path3582"
       style="fill:none;stroke:#d7f4e3;stroke-width:0.82096714px;stroke-linecap:butt;stroke-linejoin:miter;stroke-opacity:1" />
    <path
       d="M 750.56393,186.79509 249.44072,813.1991"
       id="path3584"
       style="fill:none;stroke:#d7f4d7;stroke-width:0.82096714px;stroke-linecap:butt;stroke-linejoin:miter;stroke-opacity:1" />
    <path
       d="M 245.5157,810.34671 754.43917,189.70833"
       id="path3586"
       style="fill:none;stroke:#afe9af;stroke-width:0.82096714px;stroke-linecap:butt;stroke-linejoin:miter;stroke-opacity:1" />
    <path
       d="M 757.70756,193.20529 242.20623,806.89734"
       id="path3588"
       style="fill:none;stroke:#87de87;stroke-width:0.82096714px;stroke-linecap:butt;stroke-linejoin:miter;stroke-opacity:1" />
    <path
       d="M 238.70619,803.83001 761.33849,196.11804"
       id="path3590"
       style="fill:none;stroke:#5fd35f;stroke-width:0.82096714px;stroke-linecap:butt;stroke-linejoin:miter;stroke-opacity:1" />
    <path
       d="M 765.11744,198.73018 234.93921,801.20544"
       id="path3592"
       style="fill:none;stroke:#37c837;stroke-width:0.82096714px;stroke-linecap:butt;stroke-linejoin:miter;stroke-opacity:1" />
    <path
       d="M 231.73484,798.0724 768.49091,201.67677"
       id="path3594"
       style="fill:none;stroke:#71c837;stroke-width:0.82096714px;stroke-linecap:butt;stroke-linejoin:miter;stroke-opacity:1" />
    <path
       d="M 771.71942,204.65281 228.10663,795.53627"
       id="path3596"
       style="fill:none;stroke:#8dd35f;stroke-width:0.82096714px;stroke-linecap:butt;stroke-linejoin:miter;stroke-opacity:1" />
    <path
       d="M 225.15651,792.38669 774.65567,207.81312"
       id="path3598"
       style="fill:none;stroke:#aade87;stroke-width:0.82096714px;stroke-linecap:butt;stroke-linejoin:miter;stroke-opacity:1" />
    <path
       d="M 777.62993,210.80216 222.628,788.92917"
       id="path3600"
       style="fill:none;stroke:#c6e9af;stroke-width:0.82096714px;stroke-linecap:butt;stroke-linejoin:miter;stroke-opacity:1" />
    <path
       d="M 218.90606,786.83055 780.5534,213.72102"
       id="path3602"
       style="fill:none;stroke:#e3f4d7;stroke-width:0.82096714px;stroke-linecap:butt;stroke-linejoin:miter;stroke-opacity:1" />
    <path
       d="M 213.79101,219.51519 786.49805,780.76808"
       id="path3606"
       style="fill:none;stroke:#e5ffd5;stroke-width:0.82096714px;stroke-linecap:butt;stroke-linejoin:miter;stroke-opacity:1" />
    <path
       d="M 789.1823,777.61501 210.69608,222.26824"
       id="path3608"
       style="fill:none;stroke:#ccffaa;stroke-width:0.82096714px;stroke-linecap:butt;stroke-linejoin:miter;stroke-opacity:1" />
    <path
       d="m 207.71992,225.25672 584.44404,549.3774"
       id="path3610"
       style="fill:none;stroke:#b3ff80;stroke-width:0.82096714px;stroke-linecap:butt;stroke-linejoin:miter;stroke-opacity:1" />
    <path
       d="M 794.60703,771.03847 205.01962,228.61805"
       id="path3612"
       style="fill:none;stroke:#99ff55;stroke-width:0.82096714px;stroke-linecap:butt;stroke-linejoin:miter;stroke-opacity:1" />
    <path
       d="M 202.24915,232.02423 797.83291,768.04961"
       id="path3614"
       style="fill:none;stroke:#7fff2a;stroke-width:0.82096714px;stroke-linecap:butt;stroke-linejoin:miter;stroke-opacity:1" />
    <path
       d="M 801.25439,765.10386 199.44126,235.50831"
       id="path3616"
       style="fill:#d4ff2a;stroke:#ccff00;stroke-width:0.82096714px;stroke-linecap:butt;stroke-linejoin:miter;stroke-opacity:1" />
    <path
       d="M 196.55598,239.03814 803.59952,761.09558"
       id="path3618"
       style="fill:none;stroke:#ddff55;stroke-width:0.82096714px;stroke-linecap:butt;stroke-linejoin:miter;stroke-opacity:1" />
    <path
       d="M 807.02999,757.90519 193.61189,242.63399"
       id="path3620"
       style="fill:none;stroke:#e5ff80;stroke-width:0.82096714px;stroke-linecap:butt;stroke-linejoin:miter;stroke-opacity:1" />
    <path
       d="M 189.85926,245.6846 810.16252,754.33327"
       id="path3622"
       style="fill:none;stroke:#eeffaa;stroke-width:0.82096714px;stroke-linecap:butt;stroke-linejoin:miter;stroke-opacity:1" />
    <path
       d="M 812.96311,750.37049 187.14945,249.71956"
       id="path3624"
       style="fill:none;stroke:#f6ffd5;stroke-width:0.82096714px;stroke-linecap:butt;stroke-linejoin:miter;stroke-opacity:1" />
    <path
       d="M 184.02582,253.54014 816.18741,746.62618"
       id="path3626"
       style="fill:none;stroke:#fff6d5;stroke-width:0.82096714px;stroke-linecap:butt;stroke-linejoin:miter;stroke-opacity:1" />
    <path
       d="M 818.98429,742.42806 181.0055,257.56418"
       id="path3628"
       style="fill:none;stroke:#ffeeaa;stroke-width:0.82096714px;stroke-linecap:butt;stroke-linejoin:miter;stroke-opacity:1" />
    <path
       d="M 177.87433,261.62701 822.13442,738.37947"
       id="path3630"
       style="fill:none;stroke:#ffe680;stroke-width:0.82096714px;stroke-linecap:butt;stroke-linejoin:miter;stroke-opacity:1" />
    <path
       d="M 825.08467,734.06096 175.32737,266.23571"
       id="path3632"
       style="fill:none;stroke:#ffdd55;stroke-width:0.82096714px;stroke-linecap:butt;stroke-linejoin:miter;stroke-opacity:1" />
    <path
       d="M 172.08018,270.45613 828.66975,730.06882"
       id="path3634"
       style="fill:none;stroke:#ffd42a;stroke-width:0.82096714px;stroke-linecap:butt;stroke-linejoin:miter;stroke-opacity:1" />
    <path
       d="M 831.53246,725.44207 168.99587,274.91719"
       id="path3636"
       style="fill:none;stroke:#ff6600;stroke-width:0.82096714px;stroke-linecap:butt;stroke-linejoin:miter;stroke-opacity:1" />
    <path
       d="M 165.32466,279.11427 834.43864,720.7295"
       id="path3638"
       style="fill:none;stroke:#ff7f2a;stroke-width:0.82096714px;stroke-linecap:butt;stroke-linejoin:miter;stroke-opacity:1" />
    <path
       d="M 837.17817,715.79403 162.8059,284.19578"
       id="path3640"
       style="fill:none;stroke:#ff9955;stroke-width:0.82096714px;stroke-linecap:butt;stroke-linejoin:miter;stroke-opacity:1" />
    <path
       d="M 159.46813,288.87024 840.52557,711.12585"
       id="path3642"
       style="fill:none;stroke:#ffb380;stroke-width:0.82096714px;stroke-linecap:butt;stroke-linejoin:miter;stroke-opacity:1" />
    <path
       d="M 844.2115,706.5269 156.46015,293.87609"
       id="path3644"
       style="fill:none;stroke:#ffccaa;stroke-width:0.82096714px;stroke-linecap:butt;stroke-linejoin:miter;stroke-opacity:1" />
    <path
       d="M 153.7907,299.1986 846.69045,701.08046"
       id="path3646"
       style="fill:none;stroke:#ff0000;stroke-width:0.82096714px;stroke-linecap:butt;stroke-linejoin:miter;stroke-opacity:1" />
    <path
       d="M 849.23681,695.57261 150.6876,304.38506"
       id="path3648"
       style="fill:none;stroke:#ff2a2a;stroke-width:0.82096714px;stroke-linecap:butt;stroke-linejoin:miter;stroke-opacity:1" />
    <path
       d="M 148.06967,309.95762 852.33861,690.26285"
       id="path3650"
       style="fill:none;stroke:#ff5555;stroke-width:0.82096714px;stroke-linecap:butt;stroke-linejoin:miter;stroke-opacity:1" />
    <path
       d="M 855.49955,684.85976 144.51221,315.14635"
       id="path3652"
       style="fill:none;stroke:#ff8080;stroke-width:0.82096714px;stroke-linecap:butt;stroke-linejoin:miter;stroke-opacity:1" />
    <path
       d="M 141.85339,320.92669 858.62365,679.31182"
       id="path3654"
       style="fill:none;stroke:#ffaaaa;stroke-width:0.82096714px;stroke-linecap:butt;stroke-linejoin:miter;stroke-opacity:1" />
    <path
       d="M 861.32917,673.438 138.38946,326.42694"
       id="path3656"
       style="fill:none;stroke:#f4d7d7;stroke-width:0.82096714px;stroke-linecap:butt;stroke-linejoin:miter;stroke-opacity:1" />
    <path
       d="M 136.21253,332.65776 864.16945,667.51794"
       id="path3658"
       style="fill:none;stroke:#e9afaf;stroke-width:0.82096714px;stroke-linecap:butt;stroke-linejoin:miter;stroke-opacity:1" />
    <path
       d="M 867.07118,661.51132 133.80752,338.87531"
       id="path3660"
       style="fill:none;stroke:#de8787;stroke-width:0.82096714px;stroke-linecap:butt;stroke-linejoin:miter;stroke-opacity:1" />
    <path
       d="M 130.58435,344.84543 869.43099,655.16102"
       id="path3662"
       style="fill:none;stroke:#d35f5f;stroke-width:0.82096714px;stroke-linecap:butt;stroke-linejoin:miter;stroke-opacity:1" />
    <path
       d="M 871.74054,648.69622 127.71483,351.08593"
       id="path3664"
       style="fill:none;stroke:#c83737;stroke-width:0.82096714px;stroke-linecap:butt;stroke-linejoin:miter;stroke-opacity:1" />
    <path
       d="M 125.2202,357.58367 874.15929,642.18053"
       id="path3666"
       style="fill:none;stroke:#ff0000;stroke-width:0.82096714px;stroke-linecap:butt;stroke-linejoin:miter;stroke-opacity:1" />
    <path
       d="M 876.93749,635.6975 123.56545,364.48356"
       id="path3668"
       style="fill:none;stroke:#ff2a2a;stroke-width:0.82096714px;stroke-linecap:butt;stroke-linejoin:miter;stroke-opacity:1" />
    <path
       d="M 119.78084,370.72548 879.60873,629.06697"
       id="path3670"
       style="fill:none;stroke:#ff5555;stroke-width:0.82096714px;stroke-linecap:butt;stroke-linejoin:miter;stroke-opacity:1" />
    <path
       d="M 881.26967,622.0063 118.75794,378.00254"
       id="path3672"
       style="fill:none;stroke:#ffaaaa;stroke-width:0.82096714px;stroke-linecap:butt;stroke-linejoin:miter;stroke-opacity:1" />
    <path
       d="M 117.13838,385.14151 883.15865,614.94759"
       id="path3674"
       style="fill:none;stroke:#ffd5d5;stroke-width:0.82096714px;stroke-linecap:butt;stroke-linejoin:miter;stroke-opacity:1" />
    <path
       d="M 885.98585,608.07604 115.07749,392.2217"
       id="path3676"
       style="fill:none;stroke:#ffe680;stroke-width:0.82096714px;stroke-linecap:butt;stroke-linejoin:miter;stroke-opacity:1" />
    <path
       d="M 112.93542,399.36321 887.57789,600.77025"
       id="path3678"
       style="fill:none;stroke:#ffdd55;stroke-width:0.82096714px;stroke-linecap:butt;stroke-linejoin:miter;stroke-opacity:1" />
    <path
       d="M 888.74992,593.29998 110.78043,406.5873"
       id="path3680"
       style="fill:none;stroke:#ffdd55;stroke-width:0.82096714px;stroke-linecap:butt;stroke-linejoin:miter;stroke-opacity:1" />
    <path
       d="M 109.20648,414.02542 891.57887,586.14735"
       id="path3682"
       style="fill:none;stroke:#ffdd55;stroke-width:0.82096714px;stroke-linecap:butt;stroke-linejoin:miter;stroke-opacity:1" />
    <path
       d="M 892.90367,578.58073 107.29895,421.45979"
       id="path3684"
       style="fill:none;stroke:#ffd42a;stroke-width:0.82096714px;stroke-linecap:butt;stroke-linejoin:miter;stroke-opacity:1" />
    <path
       d="M 105.87767,429.05798 893.92203,570.90597"
       id="path3686"
       style="fill:none;stroke:#ccff00;stroke-width:0.82096714px;stroke-linecap:butt;stroke-linejoin:miter;stroke-opacity:1" />
    <path
       d="M 895.49905,563.27985 105.69515,436.91122"
       id="path3688"
       style="fill:none;stroke:#ddff55;stroke-width:0.82096714px;stroke-linecap:butt;stroke-linejoin:miter;stroke-opacity:1" />
    <path
       d="M 103.61433,444.50601 896.21598,555.47024"
       id="path3690"
       style="fill:none;stroke:#eeffaa;stroke-width:0.82096714px;stroke-linecap:butt;stroke-linejoin:miter;stroke-opacity:1" />
    <path
       d="M 897.81913,547.7383 102.89485,452.34738"
       id="path3692"
       style="fill:none;stroke:#eeffaa;stroke-width:0.82096714px;stroke-linecap:butt;stroke-linejoin:miter;stroke-opacity:1" />
    <path
       d="m 101.71948,460.17195 796.77276,79.67727"
       id="path3694"
       style="fill:none;stroke:#f6ffd5;stroke-width:0.82096714px;stroke-linecap:butt;stroke-linejoin:miter;stroke-opacity:1" />
    <path
       d="M 898.7339,531.89871 100.83291,468.06663"
       id="path3696"
       style="fill:none;stroke:#e5ffd5;stroke-width:0.82096714px;stroke-linecap:butt;stroke-linejoin:miter;stroke-opacity:1" />
    <path
       d="m 100.34682,476.02081 799.07626,47.94457"
       id="path3698"
       style="fill:none;stroke:#ccffaa;stroke-width:0.82096714px;stroke-linecap:butt;stroke-linejoin:miter;stroke-opacity:1" />
    <path
       d="M 899.89859,515.99594 99.880751,483.99523"
       id="path3700"
       style="fill:none;stroke:#b3ff80;stroke-width:0.82096714px;stroke-linecap:butt;stroke-linejoin:miter;stroke-opacity:1" />
    <path
       d="m 100.11862,492.00237 800.4852,16.00971"
       id="path3702"
       style="fill:none;stroke:#99ff55;stroke-width:0.82096714px;stroke-linecap:butt;stroke-linejoin:miter;stroke-opacity:1" />
    <path
       d="M 900.60874,500 99.886963,500"
       id="path3704"
       style="fill:none;stroke:#7fff2a;stroke-width:0.82096714px;stroke-linecap:butt;stroke-linejoin:miter;stroke-opacity:1" />
    <path
       d="M 100.12388,507.99752 900.5998,491.988"
       id="path3706"
       style="fill:none;stroke:#00d400;stroke-width:0.82096714px;stroke-linecap:butt;stroke-linejoin:miter;stroke-opacity:1" />
    <path
       d="M 900.60488,483.9758 100.58704,515.97652"
       id="path3708"
       style="fill:none;stroke:#2aff2a;stroke-width:0.82096714px;stroke-linecap:butt;stroke-linejoin:miter;stroke-opacity:1" />
    <path
       d="M 100.82549,523.95047 899.90175,476.00589"
       id="path3710"
       style="fill:none;stroke:#80ff80;stroke-width:0.82096714px;stroke-linecap:butt;stroke-linejoin:miter;stroke-opacity:1" />
    <path
       d="m 898.75484,468.09961 -798.16875,63.8535"
       id="path3712"
       style="fill:none;stroke:#aaffaa;stroke-width:0.82096714px;stroke-linecap:butt;stroke-linejoin:miter;stroke-opacity:1" />
    <path
       d="M 101.97556,539.80244 898.51832,460.14817"
       id="path3714"
       style="fill:none;stroke:#d5ffd5;stroke-width:0.82096714px;stroke-linecap:butt;stroke-linejoin:miter;stroke-opacity:1" />
    <path
       d="M 897.56634,452.29204 102.64205,547.68295"
       id="path3716"
       style="fill:none;stroke:#71c837;stroke-width:0.82096714px;stroke-linecap:butt;stroke-linejoin:miter;stroke-opacity:1" />
    <path
       d="M 104.30209,555.39771 896.64401,444.46984"
       id="path3718"
       style="fill:none;stroke:#8dd35f;stroke-width:0.82096714px;stroke-linecap:butt;stroke-linejoin:miter;stroke-opacity:1" />
    <path
       d="M 895.5039,436.71938 104.4588,563.28659"
       id="path3720"
       style="fill:none;stroke:#aade87;stroke-width:0.82096714px;stroke-linecap:butt;stroke-linejoin:miter;stroke-opacity:1" />
    <path
       d="M 105.57709,570.99612 893.62145,429.14814"
       id="path3722"
       style="fill:none;stroke:#c6e9af;stroke-width:0.82096714px;stroke-linecap:butt;stroke-linejoin:miter;stroke-opacity:1" />
    <path
       d="M 892.68629,421.46274 106.76887,578.64623"
       id="path3724"
       style="fill:none;stroke:#e3f4d7;stroke-width:0.82096714px;stroke-linecap:butt;stroke-linejoin:miter;stroke-opacity:1" />
    <path
       d="M 108.18048,586.20029 891.09351,413.95943"
       id="path3726"
       style="fill:none;stroke:#eef4d7;stroke-width:0.82096714px;stroke-linecap:butt;stroke-linejoin:miter;stroke-opacity:1" />
    <path
       d="M 889.52134,406.51488 110.51513,593.47637"
       id="path3728"
       style="fill:none;stroke:#dde9af;stroke-width:0.82096714px;stroke-linecap:butt;stroke-linejoin:miter;stroke-opacity:1" />
    <path
       d="M 111.79849,600.93239 888.56896,398.97207"
       id="path3730"
       style="fill:none;stroke:#cdde87;stroke-width:0.82096714px;stroke-linecap:butt;stroke-linejoin:miter;stroke-opacity:1" />
    <path
       d="m 886.36443,391.81796 -772.32144,216.25"
       id="path3732"
       style="fill:none;stroke:#bcd35f;stroke-width:0.82096714px;stroke-linecap:butt;stroke-linejoin:miter;stroke-opacity:1" />
    <path
       d="m 116.16661,615.15002 767.917,-230.3751"
       id="path3734"
       style="fill:none;stroke:#abc837;stroke-width:0.82096714px;stroke-linecap:butt;stroke-linejoin:miter;stroke-opacity:1" />
    <path
       d="M 881.835,377.8128 117.5701,622.37757"
       id="path3736"
       style="fill:none;stroke:#ffe6d5;stroke-width:0.82096714px;stroke-linecap:butt;stroke-linejoin:miter;stroke-opacity:1" />
    <path
       d="m 120.69401,628.96404 758.995,-258.0583"
       id="path3738"
       style="fill:none;stroke:#ffccaa;stroke-width:0.82096714px;stroke-linecap:butt;stroke-linejoin:miter;stroke-opacity:1" />
    <path
       d="m 876.94741,364.29893 -754.063,271.46268"
       id="path3740"
       style="fill:none;stroke:#ffb380;stroke-width:0.82096714px;stroke-linecap:butt;stroke-linejoin:miter;stroke-opacity:1" />
    <path
       d="M 125.33608,642.37229 874.90442,357.53632"
       id="path3742"
       style="fill:none;stroke:#ff9955;stroke-width:0.82096714px;stroke-linecap:butt;stroke-linejoin:miter;stroke-opacity:1" />
    <path
       d="M 872.15178,351.13929 128.20617,648.71753"
       id="path3744"
       style="fill:none;stroke:#ff7f2a;stroke-width:0.82096714px;stroke-linecap:butt;stroke-linejoin:miter;stroke-opacity:1" />
    <path
       d="M 130.42959,655.21957 869.60796,344.76465"
       id="path3746"
       style="fill:none;stroke:#ff2a2a;stroke-width:0.82096714px;stroke-linecap:butt;stroke-linejoin:miter;stroke-opacity:1" />
    <path
       d="M 867.08265,338.48363 133.06387,661.4519"
       id="path3748"
       style="fill:none;stroke:#ff5555;stroke-width:0.82096714px;stroke-linecap:butt;stroke-linejoin:miter;stroke-opacity:1" />
    <path
       d="M 136.41607,667.24861 864.19659,332.46957"
       id="path3750"
       style="fill:none;stroke:#ff8080;stroke-width:0.82096714px;stroke-linecap:butt;stroke-linejoin:miter;stroke-opacity:1" />
    <path
       d="M 861.43193,326.51267 139.15678,673.20475"
       id="path3752"
       style="fill:none;stroke:#ffaaaa;stroke-width:0.82096714px;stroke-linecap:butt;stroke-linejoin:miter;stroke-opacity:1" />
    <path
       d="M 141.30832,679.34584 858.45026,320.77487"
       id="path3754"
       style="fill:#ffd5d5;stroke:#ffd5d5;stroke-width:0.82096714px;stroke-linecap:butt;stroke-linejoin:miter;stroke-opacity:1" />
    <path
       d="M 855.51228,315.13361 143.96907,685.13608"
       id="path3756"
       style="fill:none;stroke:#f9f9f9;stroke-width:0.82096714px;stroke-linecap:butt;stroke-linejoin:miter;stroke-opacity:1" />
    <path
       d="M 146.60637,690.83256 852.26888,309.7748"
       id="path3758"
       style="fill:none;stroke:#f2f2f2;stroke-width:0.82096714px;stroke-linecap:butt;stroke-linejoin:miter;stroke-opacity:1" />
    <path
       d="M 849.40569,304.33282 150.8081,695.54747"
       id="path3760"
       style="fill:none;stroke:#e6e6e6;stroke-width:0.82096714px;stroke-linecap:butt;stroke-linejoin:miter;stroke-opacity:1" />
    <path
       d="M 153.05819,701.22625 846.60313,298.97018"
       id="path3762"
       style="fill:none;stroke:#cccccc;stroke-width:0.82096714px;stroke-linecap:butt;stroke-linejoin:miter;stroke-opacity:1" />
    <path
       d="M 843.30287,294.01828 156.59708,706.04175"
       id="path3764"
       style="fill:none;stroke:#b3b3b3;stroke-width:0.82096714px;stroke-linecap:butt;stroke-linejoin:miter;stroke-opacity:1" />
    <path
       d="M 159.32911,711.21595 840.60326,288.82598"
       id="path3766"
       style="fill:none;stroke:#f4d7d7;stroke-width:0.82096714px;stroke-linecap:butt;stroke-linejoin:miter;stroke-opacity:1" />
    <path
       d="M 837.68668,283.88052 162.07925,716.26928"
       id="path3768"
       style="fill:none;stroke:#e9afaf;stroke-width:0.82096714px;stroke-linecap:butt;stroke-linejoin:miter;stroke-opacity:1" />
    <path
       d="M 165.42122,720.82199 834.23935,279.40203"
       id="path3770"
       style="fill:none;stroke:#de8787;stroke-width:0.82096714px;stroke-linecap:butt;stroke-linejoin:miter;stroke-opacity:1" />
    <path
       d="M 831.7566,274.40551 168.70484,725.28071"
       id="path3772"
       style="fill:none;stroke:#c83737;stroke-width:0.82096714px;stroke-linecap:butt;stroke-linejoin:miter;stroke-opacity:1" />
    <path
       d="m 171.35113,730.05421 657.02143,-459.915"
       id="path3774"
       style="fill:none;stroke:#a02c2c;stroke-width:0.82096714px;stroke-linecap:butt;stroke-linejoin:miter;stroke-opacity:1" />
    <path
       d="M 825.36256,265.73896 174.5197,734.34582"
       id="path3776"
       style="fill:none;stroke:#c87137;stroke-width:0.82096714px;stroke-linecap:butt;stroke-linejoin:miter;stroke-opacity:1" />
    <path
       d="M 177.6245,738.55787 822.41047,261.41625"
       id="path3778"
       style="fill:none;stroke:#d38d5f;stroke-width:0.82096714px;stroke-linecap:butt;stroke-linejoin:miter;stroke-opacity:1" />
    <path
       d="M 819.14652,257.44865 180.66437,742.69508"
       id="path3780"
       style="fill:none;stroke:#deaa87;stroke-width:0.82096714px;stroke-linecap:butt;stroke-linejoin:miter;stroke-opacity:1" />
    <path
       d="M 183.94459,746.52322 816.23427,253.33727"
       id="path3782"
       style="fill:none;stroke:#e9c6af;stroke-width:0.82096714px;stroke-linecap:butt;stroke-linejoin:miter;stroke-opacity:1" />
    <path
       d="M 813.23324,249.41341 186.4043,750.87656"
       id="path3784"
       style="fill:none;stroke:#f4e3d7;stroke-width:0.82096714px;stroke-linecap:butt;stroke-linejoin:miter;stroke-opacity:1" />
    <path
       d="M 189.46438,754.63921 810.06388,245.74762"
       id="path3786"
       style="fill:none;stroke:#f4eed7;stroke-width:0.82096714px;stroke-linecap:butt;stroke-linejoin:miter;stroke-opacity:1" />
    <path
       d="M 807.04531,242.08194 192.87385,757.98597"
       id="path3788"
       style="fill:none;stroke:#e9ddaf;stroke-width:0.82096714px;stroke-linecap:butt;stroke-linejoin:miter;stroke-opacity:1" />
    <path
       d="M 195.76939,761.63832 804.11164,238.46399"
       id="path3790"
       style="fill:none;stroke:#decd87;stroke-width:0.82096714px;stroke-linecap:butt;stroke-linejoin:miter;stroke-opacity:1" />
    <path
       d="M 801.0237,235.09915 198.61652,765.21747"
       id="path3792"
       style="fill:none;stroke:#d3bc5f;stroke-width:0.82096714px;stroke-linecap:butt;stroke-linejoin:miter;stroke-opacity:1" />
    <path
       d="M 201.83776,768.34601 798.19489,231.6246"
       id="path3794"
       style="fill:none;stroke:#c8ab37;stroke-width:0.82096714px;stroke-linecap:butt;stroke-linejoin:miter;stroke-opacity:1" />
    <path
       d="M 795.46294,228.1741 204.92671,771.46743"
       id="path3796"
       style="fill:none;stroke:#abc837;stroke-width:0.82096714px;stroke-linecap:butt;stroke-linejoin:miter;stroke-opacity:1" />
    <path
       d="M 207.60591,774.85044 792.41873,225.12639"
       id="path3798"
       style="fill:none;stroke:#bcd35f;stroke-width:0.82096714px;stroke-linecap:butt;stroke-linejoin:miter;stroke-opacity:1" />
    <path
       d="M 789.55566,222.02656 210.23913,778.17043"
       id="path3800"
       style="fill:none;stroke:#cdde87;stroke-width:0.82096714px;stroke-linecap:butt;stroke-linejoin:miter;stroke-opacity:1" />
    <path
       d="M 213.05096,781.21006 786.62972,219.10287"
       id="path3802"
       style="fill:none;stroke:#dde9af;stroke-width:0.82096714px;stroke-linecap:butt;stroke-linejoin:miter;stroke-opacity:1" />
    <path
       d="M 216.65572,783.34428 783.29963,216.70037"
       id="path3812"
       style="fill:none;stroke:#eef4d7;stroke-width:0.82096714px;stroke-linecap:butt;stroke-linejoin:miter;stroke-opacity:1" />
  </g>
</svg>
