<?xml version="1.0" standalone="yes"?>
<svg xmlns="http://www.w3.org/2000/svg" xmlns:xlink="http://www.w3.org/1999/xlink" xmlns:svg="http://www.w3.org/2000/svg" xmlns:dc="http://purl.org/dc/elements/1.1/" xmlns:cc="http://web.resource.org/cc/" xmlns:rdf="http://www.w3.org/1999/02/22-rdf-syntax-ns#" width="401" height="278">
<path style="fill:#ffffff; stroke:none;" d="M0 0L0 215L1 215C2.43211 182.152 38.583 154.047 69 172.465C90.2378 185.324 96.7904 208.786 95.0887 232C94.1479 244.834 90.2485 250.205 82.3349 260C75.3232 268.678 65.1398 275.355 54 277L54 278L243 278L243 277C185.9 268.567 190.403 166.776 249 166.019C308.758 165.246 313.078 267.178 256 277L256 278L341 278L341 277L315 266C312.978 259.374 308.619 254.279 305.876 248C299.085 232.458 298.012 215.947 304.066 200C317.891 163.581 363.679 153.811 385.532 189C401.181 214.199 389.884 238.226 392 265L383 261.191L372 269.471L354 277L354 278L401 278L401 61L400 61C399.497 85.3579 377.862 114.984 351 112.671C324.495 110.389 305.595 83.2699 305.015 58C304.469 34.2229 319.915 7.74908 344 1.89969C372.266 -4.96509 398.823 23.0008 400 50L401 50L401 0L0 0z"/>
<path style="fill:#fe8e8e; stroke:none;" d="M45.6667 1.33334L46.3333 1.66666L45.6667 1.33334z"/>
<path style="fill:#ff0101; stroke:none;" d="M17 20C23.0755 26.1021 39.2973 9.09766 48 7.46759C57.042 5.77399 66.6633 9.03729 73.9992 14.3009C76.9712 16.4334 82.4579 24.046 86.6667 22.338C89.7454 21.0885 87.1279 17.525 85.8472 16.0031C81.9182 11.3342 76.5794 7.33047 71 4.87656C50.2578 -4.24615 31.3522 4.46112 17 20z"/>
<path style="fill:#ff5555; stroke:none;" d="M57 1L57 2L60 2L57 1z"/>
<path style="fill:#ff7272; stroke:none;" d="M247.667 1.33334L248.333 1.66666L247.667 1.33334z"/>
<path style="fill:#ff0101; stroke:none;" d="M249 1.46375C188.426 12.0929 197.815 121.429 261 111.561C295.27 106.208 309.296 65.045 298.899 35C291.892 14.7516 271.396 -2.46616 249 1.46375z"/>
<path style="fill:#f1b18a; stroke:none;" d="M261.667 1.33334L262.333 1.66666L261.667 1.33334z"/>
<path style="fill:#ff7272; stroke:none;" d="M345.667 1.33334L346.333 1.66666L345.667 1.33334z"/>
<path style="fill:#ff0101; stroke:none;" d="M347 1.46375C286.682 12.048 295.845 121.425 359 111.561C393.41 106.187 407.319 65.1055 396.899 35C389.852 14.6417 369.492 -2.48309 347 1.46375z"/>
<path style="fill:#f1b18a; stroke:none;" d="M359.667 1.33334L360.333 1.66666L359.667 1.33334z"/>
<path style="fill:#ff7272; stroke:none;" d="M41.6667 2.33334L42.3333 2.66666L41.6667 2.33334z"/>
<path style="fill:#ff5555; stroke:none;" d="M243.667 2.33334L244.333 2.66666L243.667 2.33334z"/>
<path style="fill:#fe8e8e; stroke:none;" d="M265.667 2.33334L266.333 2.66666L265.667 2.33334z"/>
<path style="fill:#ff5555; stroke:none;" d="M341.667 2.33334L342.333 2.66666L341.667 2.33334z"/>
<path style="fill:#fe8e8e; stroke:none;" d="M363.667 2.33334L364.333 2.66666L363.667 2.33334M36 4L37 5L36 4z"/>
<path style="fill:#ff7272; stroke:none;" d="M271 4L272 5L271 4M34 5L35 6L34 5z"/>
<path style="fill:#fe8e8e; stroke:none;" d="M32 6L33 7L32 6z"/>
<path style="fill:#ff7272; stroke:none;" d="M275 6L276 7L275 6z"/>
<path style="fill:#e1c2ab; stroke:none;" d="M47 7L47 8L59 8L47 7z"/>
<path style="fill:#ff7272; stroke:none;" d="M232 7L233 8L232 7z"/>
<path style="fill:#ff5555; stroke:none;" d="M248.667 7.33334L249.333 7.66666L248.667 7.33334z"/>
<path style="fill:#e1c2ab; stroke:none;" d="M250 7L250 8L258 8L250 7z"/>
<path style="fill:#ff7272; stroke:none;" d="M258 7L258 8L261 8L258 7z"/>
<path style="fill:#fe8e8e; stroke:none;" d="M330 7L331 8L330 7z"/>
<path style="fill:#ff5555; stroke:none;" d="M346.667 7.33334L347.333 7.66666L346.667 7.33334z"/>
<path style="fill:#e1c2ab; stroke:none;" d="M348 7L348 8L356 8L348 7z"/>
<path style="fill:#fe8e8e; stroke:none;" d="M356 7L356 8L359 8L356 7z"/>
<path style="fill:#ff7272; stroke:none;" d="M29 8L30 9L29 8z"/>
<path style="fill:#f1b18a; stroke:none;" d="M43.6667 8.33334L44.3333 8.66666L43.6667 8.33334z"/>
<path style="fill:#ffffff; stroke:none;" d="M83 24C75.2451 7.37244 51.0384 3.77332 36 11.7963C33.9887 12.8693 20.0578 21.8336 26.3372 24.338C30.6479 26.0571 35.8732 19.1814 39 17.1049C45.5981 12.7231 52.3102 11.1115 60 13.3009C68.1199 15.6129 74.5387 26.2264 83 24z"/>
<path style="fill:#ff3636; stroke:none;" d="M62.6667 8.33334L63.3333 8.66666L62.6667 8.33334z"/>
<path style="fill:#ffffff; stroke:none;" d="M245 8.52933C193.515 20.3478 209.509 117.722 265 104.323C316.002 92.009 300.386 -4.18472 245 8.52933z"/>
<path style="fill:#ff7272; stroke:none;" d="M263.667 8.33334L264.333 8.66666L263.667 8.33334z"/>
<path style="fill:#ffffff; stroke:none;" d="M343 8.52933C291.713 20.3654 307.641 117.841 363 104.475C413.966 92.1689 398.457 -4.26898 343 8.52933z"/>
<path style="fill:#ff7272; stroke:none;" d="M78 9L79 10L78 9z"/>
<path style="fill:#fe8e8e; stroke:none;" d="M229 9L230 10L229 9M38 10L39 11L38 10M269 10L270 11L269 10M281 10L282 11L281 10z"/>
<path style="fill:#ff7272; stroke:none;" d="M379 10L380 11L379 10M25 11L26 12L25 11z"/>
<path style="fill:#fe8e8e; stroke:none;" d="M36 11L37 12L36 11z"/>
<path style="fill:#d29f7e; stroke:none;" d="M48 12L48 13C51.2778 13.9671 54.5891 14.7584 57 12L48 12z"/>
<path style="fill:#303030; stroke:none;" d="M51 12L51 13L56 13L51 12z"/>
<path style="fill:#ff7272; stroke:none;" d="M273 12L274 13L273 12z"/>
<path style="fill:#fe8e8e; stroke:none;" d="M334 12L335 13L334 12M371 12L372 13L371 12z"/>
<path style="fill:#544f4c; stroke:none;" d="M41 15L41 16L49 14L41 15z"/>
<path style="fill:#8e6e57; stroke:none;" d="M57 13L57 14L66 16L57 13z"/>
<path style="fill:#ff7272; stroke:none;" d="M73 13L74 14L73 13z"/>
<path style="fill:#e1c2ab; stroke:none;" d="M31 35C40.8775 34.2565 43.6347 25.6787 53 34L54 34C63.5356 25.5274 66.1838 34.251 76 35C75.3353 30.9746 76.2139 26.4332 73.6674 23.0147C64.5103 10.7219 40.8992 10.1783 32.6427 24.0039C30.7956 27.0969 31.5775 31.5025 31 35z"/>
<path style="fill:#fe8e8e; stroke:none;" d="M233 14L234 15L233 14M331 14L332 15L331 14z"/>
<path style="fill:#ff7272; stroke:none;" d="M374 14L375 15L374 14z"/>
<path style="fill:#fe8e8e; stroke:none;" d="M30 15L31 16L30 15z"/>
<path style="fill:#cdbaac; stroke:none;" d="M150 15L150 16L154 16L150 15z"/>
<path style="fill:#1a1510; stroke:none;" d="M154 15L154 16L159 16L154 15z"/>
<path style="fill:#cdbaac; stroke:none;" d="M159 15L159 16L164 16L159 15z"/>
<path style="fill:#afadab; stroke:none;" d="M250 15L250 16L253 16L250 15z"/>
<path style="fill:#544f4c; stroke:none;" d="M249 16L249 17C264.555 17 279.941 23.8494 283 41C285.444 37.0073 282.212 32.5266 279.779 29C272.277 18.1222 261.658 14.9438 249 16z"/>
<path style="fill:#1a1510; stroke:none;" d="M254 15L254 16L257 16L254 15z"/>
<path style="fill:#99928d; stroke:none;" d="M257 15L257 16L260 16L257 15z"/>
<path style="fill:#ff7272; stroke:none;" d="M20 16L21 17L20 16z"/>
<path style="fill:#877b71; stroke:none;" d="M38 17L38 18L42 17L38 17M66 16L66 17L77 27C76.0602 21.4965 71.1436 17.7486 66 16z"/>
<path style="fill:#644c34; stroke:none;" d="M147 16L147 17L152 17L147 16z"/>
<path style="fill:#996c07; stroke:none;" d="M152 16L152 17L161 17L152 16z"/>
<path style="fill:#72510a; stroke:none;" d="M161 16L161 17L168 17L161 16z"/>
<path style="fill:#877b71; stroke:none;" d="M168 16L168 17L171 17L168 16z"/>
<path style="fill:#756d6b; stroke:none;" d="M246 16L246 17L248 18C239.632 19.8012 234.066 23.4755 229.469 31C227.716 33.87 224.937 39.3414 229.282 41.3966C233.171 43.2356 239.781 42 244 42C255.174 42 267.933 43.7309 278.941 41.8519C287.186 40.4446 278.597 29.0635 275.815 26.0401C267.363 16.8551 257.366 17.4365 246 16z"/>
<path style="fill:#fe8e8e; stroke:none;" d="M19 17L20 18L19 17z"/>
<path style="fill:#ff7272; stroke:none;" d="M78 17L79 18L78 17z"/>
<path style="fill:#6e5a4b; stroke:none;" d="M144 17L144 18L147 18L144 17z"/>
<path style="fill:#fcab01; stroke:none;" d="M186 50L188 50C199.223 23.4017 170.872 16.0665 151 17.0401C146.7 17.2508 134.114 20.26 135.752 26.7029C137.119 32.0813 146.561 33.7726 151 34.9892C165.413 38.939 180.381 33.4991 186 50z"/>
<path style="fill:#6e5a4b; stroke:none;" d="M170 17L170 18L175 18L170 17z"/>
<path style="fill:#544f4c; stroke:none;" d="M242 20L248 18L242 20z"/>
<path style="fill:#cdbaac; stroke:none;" d="M340.667 17.3333L341.333 17.6667L340.667 17.3333z"/>
<path style="fill:#afadab; stroke:none;" d="M348.667 17.3333L349.333 17.6667L348.667 17.3333z"/>
<path style="fill:#a38671; stroke:none;" d="M349 18L349 19L356 19L349 18z"/>
<path style="fill:#1a1510; stroke:none;" d="M351 17L351 18L354 18L351 17z"/>
<path style="fill:#afadab; stroke:none;" d="M355.667 17.3333L356.333 17.6667L355.667 17.3333z"/>
<path style="fill:#cdbaac; stroke:none;" d="M363.667 17.3333L364.333 17.6667L363.667 17.3333z"/>
<path style="fill:#877b71; stroke:none;" d="M31 25L38 18L31 25z"/>
<path style="fill:#fe8e8e; stroke:none;" d="M79 18L80 19L79 18z"/>
<path style="fill:#644c34; stroke:none;" d="M139 19L139 20L144 19L139 19M175 18L175 19L183 22L183 21L175 18z"/>
<path style="fill:#fe8e8e; stroke:none;" d="M289 18L290 19L289 18z"/>
<path style="fill:#303030; stroke:none;" d="M323 49L320 47L327 43C325.28 29.9279 338.354 26.99 345 19C333.253 16.3018 327.23 25.856 322.335 34.9599C319.127 40.9265 313.557 45.9408 323 49z"/>
<path style="fill:#cdbaac; stroke:none;" d="M343.667 18.3333L344.333 18.6667L343.667 18.3333z"/>
<path style="fill:#d29f7e; stroke:none;" d="M345 18L331.537 29.0185L324 43L324 50L315 50L316 53L314 52L314 53L314 58L322 60L321 66L322 70L323 73C334.088 83.9368 342.969 99.4166 362 92.892C367.659 90.9518 371.671 86.4404 377 84L383 63L391 61L392 58L392 53C388.324 50.1642 386.37 48.8034 382 51C382.217 43.5933 378.004 35.0775 374 29L359.791 19.7415L345 18z"/>
<path style="fill:#513425; stroke:none;" d="M346 18L346 19L349 19L346 18z"/>
<path style="fill:#544f4c; stroke:none;" d="M356 18L356 19L360 19L356 18z"/>
<path style="fill:#303030; stroke:none;" d="M360 19C363.235 22.8586 368.086 23.9934 371.674 27.4684C377.171 32.7914 377.188 41.3408 381.934 46.392C384.072 48.6679 388.108 47.2618 388.133 44.0455C388.155 41.3244 384.938 39.1186 383.68 36.8958C378.412 27.5895 372.856 16.0812 360 19z"/>
<path style="fill:#99928d; stroke:none;" d="M367 18L368 19L367 18z"/>
<path style="fill:#ff7272; stroke:none;" d="M387 18L388 19L387 18M80 19L81 20L80 19z"/>
<path style="fill:#fe8e8e; stroke:none;" d="M219 19L220 20L219 19z"/>
<path style="fill:#756d6b; stroke:none;" d="M368.667 19.3333L369.333 19.6667L368.667 19.3333z"/>
<path style="fill:#fe8e8e; stroke:none;" d="M89 20L90 21L89 20z"/>
<path style="fill:#99928d; stroke:none;" d="M137 20L138 21L137 20z"/>
<path style="fill:#996c07; stroke:none;" d="M138.667 20.3333L139.333 20.6667L138.667 20.3333z"/>
<path style="fill:#3a281d; stroke:none;" d="M23 47C22.3483 55.2098 17.7217 69.8018 23.3426 76.9398C28.1959 83.1031 33.099 89.1832 41 90.2593C44.3314 90.713 48.4843 92.1038 49 88C51.8718 87.9155 55.2282 86.4868 58 86.9468C62.3564 87.6697 65.156 90.8445 69.9961 89.5625C74.0014 88.5016 75.8024 85.0531 78.3711 82.169C88.3438 70.9717 85.3976 61.0378 84 47C94.3885 46.1503 103.841 31.3247 93.517 23.1667C85.5238 16.8503 76.026 27.6488 76 35L71 36L71 37L77 37L71.8318 53L72.1728 61.892L62 70L61 70L56 63C47.2799 63.6203 36.4727 70.8416 31 61L33 58L34 58C34 72.2766 51.3034 59.4345 56 61C59.3019 62.1006 67.7389 69.8121 72 62C75.256 56.0307 63.2153 54.1388 64 51C49.2462 51.0016 30.0709 57.0634 30 37L36 37C28.9144 31.7556 28.3827 20.4084 16.1289 21.6898C7.0929 22.6347 8.82924 37.59 12.1636 42.7724C14.4386 46.3084 19.2 46.6892 23 47z"/>
<path style="fill:#d19724; stroke:none;" d="M134 27L135 27L138 21L134 27z"/>
<path style="fill:#996c07; stroke:none;" d="M139 25L153 29L141 25L141 24C154.564 21.4804 167.498 22.456 181 25C174.978 17.8426 145.245 18.5984 139 25z"/>
<path style="fill:#99928d; stroke:none;" d="M23.3333 22.6667L23.6667 23.3333L23.3333 22.6667z"/>
<path style="fill:#d19724; stroke:none;" d="M183 22L186 26L183 22z"/>
<path style="fill:#ff7272; stroke:none;" d="M315 22L316 23L315 22z"/>
<path style="fill:#fe8e8e; stroke:none;" d="M390 22L391 23L390 22z"/>
<path style="fill:#756d6b; stroke:none;" d="M83 23L84 24L83 23z"/>
<path style="fill:#fe8e8e; stroke:none;" d="M322 23L323 24L322 23z"/>
<path style="fill:#8e6e57; stroke:none;" d="M363 23L363 24L370 26L363 23z"/>
<path style="fill:#ff7272; stroke:none;" d="M383 23L384 24L383 23z"/>
<path style="fill:#756d6b; stroke:none;" d="M12 24L13 25L12 24z"/>
<path style="fill:#afadab; stroke:none;" d="M30 24L31 25L30 24z"/>
<path style="fill:#877b71; stroke:none;" d="M94 24L95 25L94 24z"/>
<path style="fill:#6e5a4b; stroke:none;" d="M133 24L133 27L134 27L133 24z"/>
<path style="fill:#ff7272; stroke:none;" d="M223 24L224 25L223 24z"/>
<path style="fill:#99928d; stroke:none;" d="M29 25L30 26L29 25z"/>
<path style="fill:#756d6b; stroke:none;" d="M30.3333 25.6667L30.6667 26.3333L30.3333 25.6667z"/>
<path style="fill:#ff7272; stroke:none;" d="M215 25L216 26L215 25z"/>
<path style="fill:#fe8e8e; stroke:none;" d="M313 25L314 26L313 25z"/>
<path style="fill:#6e5a4b; stroke:none;" d="M186 26L189 34L190 34L186 26z"/>
<path style="fill:#ff7272; stroke:none;" d="M287 26L288 27L287 26z"/>
<path style="fill:#644c34; stroke:none;" d="M368 26L373 30L368 26z"/>
<path style="fill:#afadab; stroke:none;" d="M97 27L97 30L98 30L97 27z"/>
<path style="fill:#3a281d; stroke:none;" d="M131 27L131 28L135 28L131 27z"/>
<path style="fill:#72510a; stroke:none;" d="M138 27L138 28L166 35L166 34L138 27z"/>
<path style="fill:#afadab; stroke:none;" d="M278 27L279 28L278 27z"/>
<path style="fill:#fe8e8e; stroke:none;" d="M312 27L313 28L312 27z"/>
<path style="fill:#99928d; stroke:none;" d="M326 27L327 28L326 27z"/>
<path style="fill:#877b71; stroke:none;" d="M31 28L31 33L32 33L31 28z"/>
<path style="fill:#6e5a4b; stroke:none;" d="M75 28L75 33L76 33L75 28z"/>
<path style="fill:#72510a; stroke:none;" d="M129 28L129 30L131 28L129 28z"/>
<path style="fill:#fcab01; stroke:none;" d="M125 49L126 49L134 28C124.452 30.3392 125 41.018 125 49z"/>
<path style="fill:#996c07; stroke:none;" d="M134 32L138 30C135.365 28.1923 133.929 28.7534 134 32z"/>
<path style="fill:#72510a; stroke:none;" d="M153 28L153 29L162 30L153 28z"/>
<path style="fill:#99928d; stroke:none;" d="M379 28L380 29L379 28z"/>
<path style="fill:#756d6b; stroke:none;" d="M9 29L10 30L9 29M42 29L42 30C49.4847 30.8336 53.1868 35.6505 52 43L56 44C54.1682 36.831 56.6337 34.9949 60 29L54 34L42 29z"/>
<path style="fill:#544f4c; stroke:none;" d="M60 29L60 30L67 31L60 29z"/>
<path style="fill:#99928d; stroke:none;" d="M128 29L129 30L128 29z"/>
<path style="fill:#996c07; stroke:none;" d="M160 30L160 31L164 30L160 30M166 31L166 32C171.169 32 179.377 33.306 183 29L166 31z"/>
<path style="fill:#ff7272; stroke:none;" d="M311 29L312 30L311 29M318 29L319 30L318 29z"/>
<path style="fill:#fe8e8e; stroke:none;" d="M394 29L395 30L394 29z"/>
<path style="fill:#544f4c; stroke:none;" d="M38 33L42 31L38 33z"/>
<path style="fill:#cdbaac; stroke:none;" d="M42 30L42 31L47 31L42 30M60 30L60 31L64 31L60 30z"/>
<path style="fill:#fcab01; stroke:none;" d="M135 30L127 46L128 46C130.656 41.6805 138.15 34.8409 135 30z"/>
<path style="fill:#644c34; stroke:none;" d="M137 30C135.576 35.1229 128.878 39.6897 132 45L138 31C148.028 37.4934 158.1 38.9921 170 39L137 30z"/>
<path style="fill:#72510a; stroke:none;" d="M163 30L163 31L168 31L163 30z"/>
<path style="fill:#ffffff; stroke:none;" d="M40.2284 32.0278C32.1836 36.9425 40.7881 49.3338 48.8912 44.8202C58.1001 39.6908 48.6305 26.8948 40.2284 32.0278M58.1088 32.0278C49.5937 36.8188 57.7016 49.2747 65.9414 44.8202C74.9247 39.9638 67.0045 27.0227 58.1088 32.0278z"/>
<path style="fill:#756d6b; stroke:none;" d="M67 31C71.5588 40.0715 67.5276 46.8592 57 45L57 46C61.6922 47.3838 76.6038 44.2426 71 37L71 36L73 36L73 35L67 31z"/>
<path style="fill:#996c07; stroke:none;" d="M127.333 31.6667L127.667 32.3333L127.333 31.6667z"/>
<path style="fill:#72510a; stroke:none;" d="M133 31L126 49L127 49L133 31z"/>
<path style="fill:#d29f7e; stroke:none;" d="M138 31L128 52L121 53L126 53L126 54L122 54L125 60L120 56L119 56C118.322 61.1945 121.028 63.0278 126 62L126 72C130.637 76.7787 132.292 83.5995 137.3 88.3843C146.954 97.6077 169.603 99.5008 178.451 87.9097C181.603 83.7814 185.69 77.0863 186.867 71.9961C188.146 66.4603 185.827 61.843 192 59C191.504 55.966 191.126 54.9286 188 55L193 56L194 56C192.668 51.6147 190.284 51.1159 186 52L184 46L182 48L181 41L181 40L155 39L155 37L138 31z"/>
<path style="fill:#fe8e8e; stroke:none;" d="M310 31L311 32L310 31M317 31L318 32L317 31z"/>
<path style="fill:#ff7272; stroke:none;" d="M388 31L389 32L388 31z"/>
<path style="fill:#756d6b; stroke:none;" d="M37 33L33 35L33 36L36 36L36 37L33 37L33 38L36 38C36.8148 45.2951 41.2595 46.939 48 47L48 46C38.5699 45.4837 38.7977 40.3592 37 33z"/>
<path style="fill:#cdbaac; stroke:none;" d="M97 33L97 36L98 36L97 33z"/>
<path style="fill:#996c07; stroke:none;" d="M126.333 33.6667L126.667 34.3333L126.333 33.6667z"/>
<path style="fill:#544f4c; stroke:none;" d="M43 38L48 35L43 38z"/>
<path style="fill:#6e5a4b; stroke:none;" d="M59 34L59 35L65 37L59 34z"/>
<path style="fill:#996c07; stroke:none;" d="M165 35L165 36L177 35L165 35z"/>
<path style="fill:#72510a; stroke:none;" d="M170 35L170 36L183 35L170 35z"/>
<path style="fill:#8e6e57; stroke:none;" d="M190 34L186 52C190.141 51.5409 192.085 52.2346 194 56L195 56C194.432 52.4177 193.492 51.0567 190 50L190 34z"/>
<path style="fill:#ff0101; stroke:none;" d="M9 35C7.26411 47.8911 4.92962 58.9695 7.88812 72C17.7524 115.446 73.1488 127.085 94.1914 85C99.8146 73.7536 100.142 62.2947 99.9961 50C99.9411 45.3768 99.9099 38.9733 96 36C95.1382 52.8266 95.4005 69.7608 86.6628 85C72.1523 110.308 41.4507 111.967 23.3287 90C16.7695 82.0492 12.4939 70.2897 12.0394 60C11.6669 51.5676 14.1578 42.4121 9 35z"/>
<path style="fill:#72510a; stroke:none;" d="M125.333 35.6667L125.667 36.3333L125.333 35.6667z"/>
<path style="fill:#6e5a4b; stroke:none;" d="M327 35L326 41L329 35L327 35z"/>
<path style="fill:#ff7272; stroke:none;" d="M8.33333 37.6667L8.66667 38.3333L8.33333 37.6667z"/>
<path style="fill:#e1c2ab; stroke:none;" d="M30 37C30.6139 41.8535 30.8339 49.2424 35.3796 52.2917C39.0802 54.774 43.9754 50.2005 48 50.3102C53.1118 50.4496 66.81 54.7511 70.6713 52.8673C75.8315 50.3498 76.3766 41.9072 77 37C74.0053 37.2176 59.5139 54.3342 58 44L53 42C47.177 49.3458 37.8934 47.3572 36 38L30 37z"/>
<path style="fill:#72510a; stroke:none;" d="M124 37L124 41L125 41L124 37z"/>
<path style="fill:#8e6e57; stroke:none;" d="M155 39L158 38L155 39z"/>
<path style="fill:#544f4c; stroke:none;" d="M46 41L50 39L46 41z"/>
<path style="fill:#99928d; stroke:none;" d="M58 38L59 39L58 38z"/>
<path style="fill:#303030; stroke:none;" d="M59 38L59 39L61 40L59 42L62 38L59 38z"/>
<path style="fill:#996c07; stroke:none;" d="M170 38L170 39L181 39L170 38z"/>
<path style="fill:#544f4c; stroke:none;" d="M226 38C222.211 41.0968 220.177 41.6206 220 47L226 49L225 45C228.969 44.1494 228.031 40.738 226 38z"/>
<path style="fill:#1a1510; stroke:none;" d="M235 41L243 40L243 38L235 41z"/>
<path style="fill:#f1b18a; stroke:none;" d="M314.333 38.6667L314.667 39.3333L314.333 38.6667z"/>
<path style="fill:#513425; stroke:none;" d="M343 40L343 41L350 39L343 40z"/>
<path style="fill:#303030; stroke:none;" d="M358 38L358 39L365 41L358 38z"/>
<path style="fill:#1a1510; stroke:none;" d="M48 39L47 40L47 41L47 42L50 39L48 39z"/>
<path style="fill:#877b71; stroke:none;" d="M50.3333 39.6667L50.6667 40.3333L50.3333 39.6667z"/>
<path style="fill:#544f4c; stroke:none;" d="M58 41L61 40L58 41z"/>
<path style="fill:#8e6e57; stroke:none;" d="M171 39L171 40L181 40L181 41L179 42L182 48L184 48C186.423 39.1634 176.987 39 171 39z"/>
<path style="fill:#ff7272; stroke:none;" d="M209.333 39.6667L209.667 40.3333L209.333 39.6667z"/>
<path style="fill:#afadab; stroke:none;" d="M221 39L221 40L224 40L221 39z"/>
<path style="fill:#3a281d; stroke:none;" d="M266 39L266 40L275 41L266 39z"/>
<path style="fill:#afadab; stroke:none;" d="M286 39L286 40L289 40L286 39z"/>
<path style="fill:#8e6e57; stroke:none;" d="M347 39L347 40L350 40L347 39z"/>
<path style="fill:#877b71; stroke:none;" d="M384.667 39.3333L385.333 39.6667L384.667 39.3333z"/>
<path style="fill:#513425; stroke:none;" d="M30 40L30 46L31 46L30 40z"/>
<path style="fill:#99928d; stroke:none;" d="M123 40L123 45L124 45L123 40z"/>
<path style="fill:#72510a; stroke:none;" d="M184 40L186 46L187 46L184 40z"/>
<path style="fill:#afadab; stroke:none;" d="M220 40L221 41L220 40z"/>
<path style="fill:#1a1510; stroke:none;" d="M284 40C269.679 46.8919 243.833 42 228 42L228 47L229 47C231.876 41.7841 237.705 43 243 43C254.41 43 276.177 38.789 285 47L286 47L286 43L283 44L284 40z"/>
<path style="fill:#644c34; stroke:none;" d="M283 44L291 47C290.809 41.1772 286.35 37.6115 283 44z"/>
<path style="fill:#ff7272; stroke:none;" d="M300.333 40.6667L300.667 41.3333L300.333 40.6667z"/>
<path style="fill:#ff3636; stroke:none;" d="M307.333 40.6667L307.667 41.3333L307.333 40.6667z"/>
<path style="fill:#756d6b; stroke:none;" d="M317.667 40.3333L318.333 40.6667L317.667 40.3333z"/>
<path style="fill:#8e6e57; stroke:none;" d="M379.333 40.6667L379.667 41.3333L379.333 40.6667z"/>
<path style="fill:#99928d; stroke:none;" d="M386.667 40.3333L387.333 40.6667L386.667 40.3333z"/>
<path style="fill:#ff5555; stroke:none;" d="M398.333 40.6667L398.667 41.3333L398.333 40.6667M7.33333 41.6667L7.66667 42.3333L7.33333 41.6667z"/>
<path style="fill:#996c07; stroke:none;" d="M124 41L124 49L125 49L124 41z"/>
<path style="fill:#f1b18a; stroke:none;" d="M215.333 41.6667L215.667 42.3333L215.333 41.6667z"/>
<path style="fill:#fe8e8e; stroke:none;" d="M313.333 41.6667L313.667 42.3333L313.333 41.6667M99.3333 42.6667L99.6667 43.3333L99.3333 42.6667z"/>
<path style="fill:#99928d; stroke:none;" d="M219 42L219 46L220 46L219 42z"/>
<path style="fill:#fe8e8e; stroke:none;" d="M294.333 42.6667L294.667 43.3333L294.333 42.6667z"/>
<path style="fill:#544f4c; stroke:none;" d="M349 42L348 46L349 46L351 42L349 42z"/>
<path style="fill:#303030; stroke:none;" d="M357 42L356 46L359 42L357 42z"/>
<path style="fill:#afadab; stroke:none;" d="M388 42L389 43L388 42z"/>
<path style="fill:#f1b18a; stroke:none;" d="M392.333 42.6667L392.667 43.3333L392.333 42.6667z"/>
<path style="fill:#a38671; stroke:none;" d="M48 47L53 43L48 47M129 43L127 49L131 48L131 43L129 43z"/>
<path style="fill:#fe8e8e; stroke:none;" d="M208.333 43.6667L208.667 44.3333L208.333 43.6667z"/>
<path style="fill:#644c34; stroke:none;" d="M256 47C258.041 59.2701 280.317 55.4747 281 43L243 43C239.992 43 232.041 41.6153 230.133 44.6026C227.627 48.5262 233.905 52.9863 237.004 53.6968C244.718 55.4652 250.613 52.1072 256 47z"/>
<path style="fill:#99928d; stroke:none;" d="M316.333 43.6667L316.667 44.3333L316.333 43.6667z"/>
<path style="fill:#1a1510; stroke:none;" d="M323 43L320 47L324 47L323 43M350 43L349 47L352 43L350 43M359 43L357 45L357 46C359.251 45.5267 360.118 45.1397 359 43z"/>
<path style="fill:#8e6e57; stroke:none;" d="M150 44L150 45L155 45L150 44z"/>
<path style="fill:#513425; stroke:none;" d="M160 44L166 47L160 44z"/>
<path style="fill:#afadab; stroke:none;" d="M223.333 44.6667L223.667 45.3333L223.333 44.6667z"/>
<path style="fill:#513425; stroke:none;" d="M281 44C278.633 55.7253 268.061 54.3973 259 52L259 53C265.842 56.8327 285.949 56.8439 281 44z"/>
<path style="fill:#756d6b; stroke:none;" d="M286 47L285 47L282 45C279.275 58.4981 263.515 58.0688 256 49C248.939 53.6077 241.293 59.2036 233.108 53.1458C229.712 50.6325 229.081 46.4191 225 45L226 49C215.173 42.88 212.853 59.6294 224 60C224.239 71.5088 230.748 74.944 236 84L233 83L239 88C239.256 82.0323 239.179 73.2927 242.843 68.304C248.798 60.1979 261.299 62.1267 266.397 70.0046C269.194 74.3256 269.779 81.9351 270 87L271 87L278 77L279 77L281 79L287 60C297.609 58.3092 292.617 48.3619 287 44L286 47z"/>
<path style="fill:#fe8e8e; stroke:none;" d="M301.333 44.6667L301.667 45.3333L301.333 44.6667z"/>
<path style="fill:#ff7272; stroke:none;" d="M306.333 44.6667L306.667 45.3333L306.333 44.6667z"/>
<path style="fill:#fe8e8e; stroke:none;" d="M399.333 44.6667L399.667 45.3333L399.333 44.6667M6.33333 45.6667L6.66667 46.3333L6.33333 45.6667z"/>
<path style="fill:#ffffff; stroke:none;" d="M13 45C12.7765 58.299 11.654 70.6111 18.25 83C30.8196 106.609 62.7705 114.944 81.6111 92.9722C90.0247 83.1604 94 70.7818 94 58C94 54.0145 95.7272 47.013 91 46C92.1291 52.158 87.9979 53.8092 86.2276 59.0895C84.6851 63.6905 86.8172 68.6136 85.2431 72.9992C82.9281 79.4491 72.7947 89.721 66 90.8457C61.1739 91.6445 56.7649 89.6986 52 90.1327C45.9875 90.6805 40.4337 92.6146 35.0154 88.5664C30.6577 85.3105 22.7094 77.3722 21.473 72C19.4558 63.2354 21.5916 51.1904 13 45z"/>
<path style="fill:#afadab; stroke:none;" d="M14 45L15 46L14 45z"/>
<path style="fill:#ff7272; stroke:none;" d="M92.6667 45.3333L93.3333 45.6667L92.6667 45.3333z"/>
<path style="fill:#cdbaac; stroke:none;" d="M123 45L123 49L124 49L123 45z"/>
<path style="fill:#513425; stroke:none;" d="M149 45L149 46L155 46L149 45z"/>
<path style="fill:#fe8e8e; stroke:none;" d="M214.333 45.6667L214.667 46.3333L214.333 45.6667z"/>
<path style="fill:#303030; stroke:none;" d="M231 45C234.543 55.1722 249.372 55.1184 253 45L231 45z"/>
<path style="fill:#3a281d; stroke:none;" d="M258 45C260.601 54.0447 270.01 53.6638 277 50L277 49C269.87 50.74 264.732 51.0459 259 46L271 49L270 46L278 48C279.778 43.2828 261.513 45 258 45z"/>
<path style="fill:#756d6b; stroke:none;" d="M16 46L16 52L17 52L16 46z"/>
<path style="fill:#e1c2ab; stroke:none;" d="M17 46C17.0994 50.0997 17.442 52.6877 21 55L17 46z"/>
<path style="fill:#544f4c; stroke:none;" d="M18 46L19 53L23 52L23 51L19 51L18 46z"/>
<path style="fill:#6e5a4b; stroke:none;" d="M88 46L88 52L84 51L84 52L89 53L88 46z"/>
<path style="fill:#afadab; stroke:none;" d="M89 46L92 52L91 46L89 46z"/>
<path style="fill:#756d6b; stroke:none;" d="M233 46C234.877 49.5785 237.032 50.5574 241 51L241 46L233 46M244 46L244 51L251 46L244 46M259 46L267 51L267 46L259 46z"/>
<path style="fill:#ff5555; stroke:none;" d="M295.333 46.6667L295.667 47.3333L295.333 46.6667M301.333 46.6667L301.667 47.3333L301.333 46.6667z"/>
<path style="fill:#fe8e8e; stroke:none;" d="M312.333 46.6667L312.667 47.3333L312.333 46.6667z"/>
<path style="fill:#513425; stroke:none;" d="M357.667 46.3333L358.333 46.6667L357.667 46.3333z"/>
<path style="fill:#ff7272; stroke:none;" d="M393.333 46.6667L393.667 47.3333L393.333 46.6667z"/>
<path style="fill:#ff5555; stroke:none;" d="M6 47L6 50L7 50L6 47z"/>
<path style="fill:#fe8e8e; stroke:none;" d="M12 47L12 51L13 51L12 47z"/>
<path style="fill:#e1c2ab; stroke:none;" d="M20 47L20 51L23 51L23 47L20 47z"/>
<path style="fill:#cdbaac; stroke:none;" d="M84 47L88 52L88 47L84 47z"/>
<path style="fill:#f1b18a; stroke:none;" d="M100 47L100 50L101 50L100 47z"/>
<path style="fill:#303030; stroke:none;" d="M229 47C231.789 60.5287 251.106 57.2477 256 47C245.619 54.0687 238.561 56.9399 229 47z"/>
<path style="fill:#1a1510; stroke:none;" d="M267 47L266 50L270 50L270 49L267 47z"/>
<path style="fill:#756d6b; stroke:none;" d="M270 51L277 47C273.286 47.1227 271.437 47.4238 270 51z"/>
<path style="fill:#6e5a4b; stroke:none;" d="M317 47L316 50L317 47M382 51C385.782 49.6746 387.372 49.9493 390 53C391.155 47.3595 384.563 46.9532 382 51z"/>
<path style="fill:#99928d; stroke:none;" d="M19 48L19 51L20 51L19 48z"/>
<path style="fill:#303030; stroke:none;" d="M151 52L155 48L151 52z"/>
<path style="fill:#6e5a4b; stroke:none;" d="M160.667 48.3333L161.333 48.6667L160.667 48.3333z"/>
<path style="fill:#644c34; stroke:none;" d="M185.333 48.6667L185.667 49.3333L185.333 48.6667z"/>
<path style="fill:#fe8e8e; stroke:none;" d="M207 48L207 53L208 53L207 48z"/>
<path style="fill:#303030; stroke:none;" d="M286 49C288.726 51.5298 289.664 53.0528 287 56L290 57L290 48L286 49z"/>
<path style="fill:#fe8e8e; stroke:none;" d="M94 49L94 63L95 63L94 49z"/>
<path style="fill:#8e6e57; stroke:none;" d="M118 56L120 59L121 59L124 49L118 56z"/>
<path style="fill:#644c34; stroke:none;" d="M124 49L128 52L127 49L124 49z"/>
<path style="fill:#1a1510; stroke:none;" d="M154 49L152 51L152 52C154.251 51.5267 155.118 51.1397 154 49z"/>
<path style="fill:#644c34; stroke:none;" d="M155 49L155 52L156 52L155 49z"/>
<path style="fill:#303030; stroke:none;" d="M159 49L160 53L162 53L163 49L159 49z"/>
<path style="fill:#cdbaac; stroke:none;" d="M190 49L190 50L193 50L190 49z"/>
<path style="fill:#303030; stroke:none;" d="M222 57L222 56C220.222 53.3376 220.785 52.2195 223 50C218.57 47.8761 217.238 55.9795 222 57z"/>
<path style="fill:#ff7272; stroke:none;" d="M305 49L305 61L306 61L305 49z"/>
<path style="fill:#8e6e57; stroke:none;" d="M322.667 49.3333L323.333 49.6667L322.667 49.3333z"/>
<path style="fill:#756d6b; stroke:none;" d="M56 50L56 51L61 51L56 50z"/>
<path style="fill:#ff3636; stroke:none;" d="M100 50L100 63L101 63L100 50z"/>
<path style="fill:#afadab; stroke:none;" d="M216.333 50.6667L216.667 51.3333L216.333 50.6667z"/>
<path style="fill:#cdbaac; stroke:none;" d="M293.333 50.6667L293.667 51.3333L293.333 50.6667z"/>
<path style="fill:#644c34; stroke:none;" d="M318 50C317.138 53.6715 316.156 58.0854 321 58L318 57L322 51L318 50z"/>
<path style="fill:#fe8e8e; stroke:none;" d="M400 50L400 61L401 61L400 50z"/>
<path style="fill:#e1c2ab; stroke:none;" d="M89 51L86 55L89 51z"/>
<path style="fill:#ff5555; stroke:none;" d="M213 51L213 62L214 62L213 51z"/>
<path style="fill:#f1b18a; stroke:none;" d="M302 51L302 61L303 61L302 51z"/>
<path style="fill:#6e5a4b; stroke:none;" d="M315.333 51.6667L315.667 52.3333L315.333 51.6667z"/>
<path style="fill:#513425; stroke:none;" d="M384 53L387 52L388 58L385 57L389 59C388.965 56.0304 388.04 48.5448 384 53z"/>
<path style="fill:#99928d; stroke:none;" d="M16 52L20 55L20 54L16 52z"/>
<path style="fill:#a38671; stroke:none;" d="M21.3333 52.6667L21.6667 53.3333L21.3333 52.6667z"/>
<path style="fill:#1a1510; stroke:none;" d="M63 52L63 53C67.2774 55.0369 75.4716 61.0939 66.9799 64.2423C62.3717 65.9509 58.4189 62.1485 54 61.608C45.558 60.5756 39.218 68.9189 34 58L33 58L31 61C34.8348 71.5233 48.1192 64.0656 56 63L61 70L62 70C64.9326 67.0614 70.014 66.1874 72.3526 62.7755C76.3034 57.0116 67.3094 52.8339 63 52z"/>
<path style="fill:#99928d; stroke:none;" d="M85.3333 52.6667L85.6667 53.3333L85.3333 52.6667z"/>
<path style="fill:#756d6b; stroke:none;" d="M90.3333 52.6667L90.6667 53.3333L90.3333 52.6667z"/>
<path style="fill:#644c34; stroke:none;" d="M125 60L122 59L122 54L126 54C120.751 50.4203 119.063 60.1046 125 60z"/>
<path style="fill:#513425; stroke:none;" d="M152 52L152 53L155 53L152 52z"/>
<path style="fill:#ff3636; stroke:none;" d="M311 52L311 60L312 60L311 52z"/>
<path style="fill:#e1c2ab; stroke:none;" d="M5 53L5 60L6 60L5 53z"/>
<path style="fill:#afadab; stroke:none;" d="M118.333 53.6667L118.667 54.3333L118.333 53.6667z"/>
<path style="fill:#644c34; stroke:none;" d="M188 55L191 54L190 60C195.333 62.0105 192.333 49.1756 188 55z"/>
<path style="fill:#ff5555; stroke:none;" d="M207 53L207 61L208 61L207 53z"/>
<path style="fill:#ff3636; stroke:none;" d="M394 53L394 60L395 60L394 53z"/>
<path style="fill:#6e5a4b; stroke:none;" d="M69.6667 54.3333L70.3333 54.6667L69.6667 54.3333z"/>
<path style="fill:#544f4c; stroke:none;" d="M89 54L90 55L89 54z"/>
<path style="fill:#303030; stroke:none;" d="M314.333 54.6667L314.667 55.3333L314.333 54.6667z"/>
<path style="fill:#6e5a4b; stroke:none;" d="M19.6667 55.3333L20.3333 55.6667L19.6667 55.3333z"/>
<path style="fill:#756d6b; stroke:none;" d="M86 57L89 56L86 57z"/>
<path style="fill:#a38671; stroke:none;" d="M195 55L190 61L190 60L192 60L192 59C186.872 60.4495 187.016 64.2675 187 69L188 69L188 65C193.449 64.386 197.009 60.6181 195 55z"/>
<path style="fill:#544f4c; stroke:none;" d="M391.333 55.6667L391.667 56.3333L391.333 55.6667z"/>
<path style="fill:#303030; stroke:none;" d="M118.333 56.6667L118.667 57.3333L118.333 56.6667z"/>
<path style="fill:#8e6e57; stroke:none;" d="M130 64L136 63L136 58L130 64M180 58L179 63L182 63L180 58z"/>
<path style="fill:#6e5a4b; stroke:none;" d="M315.333 58.6667L315.667 59.3333L315.333 58.6667z"/>
<path style="fill:#544f4c; stroke:none;" d="M390.333 58.6667L390.667 59.3333L390.333 58.6667z"/>
<path style="fill:#513425; stroke:none;" d="M330 59C328.375 66.1028 332.894 73.3368 339 77C336.183 70.6711 330.881 66.4563 332 59L330 59z"/>
<path style="fill:#3a281d; stroke:none;" d="M375 59L375 68L376 68C377.493 64.4013 378.497 61.4838 375 59z"/>
<path style="fill:#99928d; stroke:none;" d="M220 60L220 61L224 61L220 60z"/>
<path style="fill:#afadab; stroke:none;" d="M287.667 60.3333L288.333 60.6667L287.667 60.3333z"/>
<path style="fill:#544f4c; stroke:none;" d="M316 60L316 61L321 65L322 65L322 60L316 60z"/>
<path style="fill:#303030; stroke:none;" d="M384.333 60.6667L384.667 61.3333L384.333 60.6667z"/>
<path style="fill:#99928d; stroke:none;" d="M21.3333 61.6667L21.6667 62.3333L21.3333 61.6667z"/>
<path style="fill:#afadab; stroke:none;" d="M52.6667 61.3333L53.3333 61.6667L52.6667 61.3333M85.3333 61.6667L85.6667 62.3333L85.3333 61.6667z"/>
<path style="fill:#644c34; stroke:none;" d="M183 61L186 65L183 61z"/>
<path style="fill:#f1b18a; stroke:none;" d="M207 61L207 64L208 64L207 61z"/>
<path style="fill:#e1c2ab; stroke:none;" d="M305 61L305 64L306 64L305 61z"/>
<path style="fill:#fe8e8e; stroke:none;" d="M12 62L12 65L13 65L12 62z"/>
<path style="fill:#6e5a4b; stroke:none;" d="M120 62L120 63L125 64L126 71L127 71L126 62L120 62z"/>
<path style="fill:#513425; stroke:none;" d="M134 62C132.548 68.3357 137.369 76.1209 143 79L134 62z"/>
<path style="fill:#3a281d; stroke:none;" d="M180 62L173 78C177.717 75.2184 183.711 67.1856 180 62z"/>
<path style="fill:#513425; stroke:none;" d="M188.333 62.6667L188.667 63.3333L188.333 62.6667z"/>
<path style="fill:#afadab; stroke:none;" d="M318 62L318 63L321 63L318 62z"/>
<path style="fill:#ff5555; stroke:none;" d="M6 63L6 66L7 66L6 63z"/>
<path style="fill:#f1b18a; stroke:none;" d="M100 63L100 66L101 66L100 63z"/>
<path style="fill:#544f4c; stroke:none;" d="M249 63L249 64L259 64L249 63z"/>
<path style="fill:#cdbaac; stroke:none;" d="M286.333 63.6667L286.667 64.3333L286.333 63.6667z"/>
<path style="fill:#8e6e57; stroke:none;" d="M383 63L383 68L384 68L383 63z"/>
<path style="fill:#f1b18a; stroke:none;" d="M393 63L393 66L394 66L393 63z"/>
<path style="fill:#6e5a4b; stroke:none;" d="M22.3333 64.6667L22.6667 65.3333L22.3333 64.6667z"/>
<path style="fill:#877b71; stroke:none;" d="M84.3333 64.6667L84.6667 65.3333L84.3333 64.6667z"/>
<path style="fill:#afadab; stroke:none;" d="M122 64L122 65L125 65L122 64z"/>
<path style="fill:#303030; stroke:none;" d="M246.055 64.9383C239.531 67.9808 235.587 88.9476 240.603 94.3009C246.175 100.247 259.38 98.3777 265.856 95.1458C271.392 92.3827 270.172 83.945 269.116 79C266.737 67.8641 258.711 59.0354 246.055 64.9383z"/>
<path style="fill:#ff7272; stroke:none;" d="M295 64L295 67L296 67L295 64z"/>
<path style="fill:#ff3636; stroke:none;" d="M301 64L301 67L302 67L301 64z"/>
<path style="fill:#fe8e8e; stroke:none;" d="M312 64L312 67L313 67L312 64M214 65L214 68L215 68L214 65z"/>
<path style="fill:#ff5555; stroke:none;" d="M399 65L399 68L400 68L399 65z"/>
<path style="fill:#f1b18a; stroke:none;" d="M6.33333 66.6667L6.66667 67.3333L6.33333 66.6667z"/>
<path style="fill:#fe8e8e; stroke:none;" d="M93 66L93 69L94 69L93 66z"/>
<path style="fill:#ff5555; stroke:none;" d="M306 66L306 69L307 69L306 66z"/>
<path style="fill:#544f4c; stroke:none;" d="M322 66L322 69L323 69L322 66z"/>
<path style="fill:#ff7272; stroke:none;" d="M208 67L208 70L209 70L208 67z"/>
<path style="fill:#cdbaac; stroke:none;" d="M285.333 67.6667L285.667 68.3333L285.333 67.6667z"/>
<path style="fill:#e1c2ab; stroke:none;" d="M301.333 67.6667L301.667 68.3333L301.333 67.6667z"/>
<path style="fill:#ff7272; stroke:none;" d="M13.3333 68.6667L13.6667 69.3333L13.3333 68.6667M99 68L99 71L100 71L99 68z"/>
<path style="fill:#513425; stroke:none;" d="M374 68L368 77C371.529 75.1957 374.607 72.186 374 68z"/>
<path style="fill:#8e6e57; stroke:none;" d="M382 68L382 71L383 71L382 68z"/>
<path style="fill:#ff7272; stroke:none;" d="M294.333 69.6667L294.667 70.3333L294.333 69.6667z"/>
<path style="fill:#fe8e8e; stroke:none;" d="M392 69L392 72L393 72L392 69M7.33333 70.6667L7.66667 71.3333L7.33333 70.6667z"/>
<path style="fill:#ff7272; stroke:none;" d="M215.333 70.6667L215.667 71.3333L215.333 70.6667z"/>
<path style="fill:#ff5555; stroke:none;" d="M313.333 70.6667L313.667 71.3333L313.333 70.6667z"/>
<path style="fill:#544f4c; stroke:none;" d="M323.333 70.6667L323.667 71.3333L323.333 70.6667z"/>
<path style="fill:#ff5555; stroke:none;" d="M92.3333 71.6667L92.6667 72.3333L92.3333 71.6667z"/>
<path style="fill:#544f4c; stroke:none;" d="M260 71L261 74L262 74L262 71L260 71z"/>
<path style="fill:#fe8e8e; stroke:none;" d="M300.333 71.6667L300.667 72.3333L300.333 71.6667z"/>
<path style="fill:#8e6e57; stroke:none;" d="M381 71L381 74L382 74L381 71z"/>
<path style="fill:#fe8e8e; stroke:none;" d="M398.333 71.6667L398.667 72.3333L398.333 71.6667z"/>
<path style="fill:#8e6e57; stroke:none;" d="M127 72C127.965 78.4402 130.815 83.9957 136 88L127 72z"/>
<path style="fill:#fe8e8e; stroke:none;" d="M209.333 72.6667L209.667 73.3333L209.333 72.6667z"/>
<path style="fill:#99928d; stroke:none;" d="M248 72L248 73L261 73L248 72z"/>
<path style="fill:#f1b18a; stroke:none;" d="M307.333 72.6667L307.667 73.3333L307.333 72.6667M98.3333 73.6667L98.6667 74.3333L98.3333 73.6667z"/>
<path style="fill:#ffffff; stroke:none;" d="M248 73C250.975 77.5893 256.633 75.8428 261 74L248 73z"/>
<path style="fill:#ff3636; stroke:none;" d="M293.333 73.6667L293.667 74.3333L293.333 73.6667z"/>
<path style="fill:#8e6e57; stroke:none;" d="M324 73C325.467 81.1301 331.806 89.8679 340 92L340 91L324 73z"/>
<path style="fill:#ff5555; stroke:none;" d="M391.333 73.6667L391.667 74.3333L391.333 73.6667z"/>
<path style="fill:#fe8e8e; stroke:none;" d="M8.33333 74.6667L8.66667 75.3333L8.33333 74.6667z"/>
<path style="fill:#ff3636; stroke:none;" d="M216.333 74.6667L216.667 75.3333L216.333 74.6667z"/>
<path style="fill:#afadab; stroke:none;" d="M260 74L261 75L260 74z"/>
<path style="fill:#877b71; stroke:none;" d="M380 74L376 83C378.842 80.5551 381.049 77.8368 380 74M84 75L85 76L84 75z"/>
<path style="fill:#afadab; stroke:none;" d="M249 76L250 79L260 78C259.046 73.5703 252.801 76 249 76z"/>
<path style="fill:#f1b18a; stroke:none;" d="M397.333 75.6667L397.667 76.3333L397.333 75.6667z"/>
<path style="fill:#544f4c; stroke:none;" d="M229 76L236 84L229 76z"/>
<path style="fill:#6e5a4b; stroke:none;" d="M339 76C341.083 79.6579 343.909 80.5779 348 81L348 80L339 76M367 76L349 81L349 82C353.624 82 367.172 82.9351 367 76M172 77C166.061 81.1923 160.227 82.9793 153 83L153 85C160.62 84.9369 168.289 83.3419 174 78L172 77z"/>
<path style="fill:#ffffff; stroke:none;" d="M251 78L251 80L259 77L251 78z"/>
<path style="fill:#544f4c; stroke:none;" d="M278 77L270 89C274.314 86.9867 281.092 82.1576 278 77z"/>
<path style="fill:#6e5a4b; stroke:none;" d="M143 78C145.083 81.6579 147.909 82.5779 152 83L152 82L143 78z"/>
<path style="fill:#99928d; stroke:none;" d="M183 78L180 85L183 78z"/>
<path style="fill:#877b71; stroke:none;" d="M258 78L259 79L258 78z"/>
<path style="fill:#fe8e8e; stroke:none;" d="M316 79L317 80L316 79z"/>
<path style="fill:#afadab; stroke:none;" d="M27 80L28 81L27 80z"/>
<path style="fill:#99928d; stroke:none;" d="M252 80L252 81L256 81L252 80z"/>
<path style="fill:#a38671; stroke:none;" d="M346 81L346 82L358 81L346 81z"/>
<path style="fill:#ff7272; stroke:none;" d="M290 81L291 82L290 81M310 81L311 82L310 81z"/>
<path style="fill:#fe8e8e; stroke:none;" d="M388 81L389 82L388 81z"/>
<path style="fill:#877b71; stroke:none;" d="M77 82L78 83L77 82z"/>
<path style="fill:#8e6e57; stroke:none;" d="M349 82L349 83L357 83L349 82z"/>
<path style="fill:#fe8e8e; stroke:none;" d="M296 83L297 84L296 83M387 83L388 84L387 83z"/>
<path style="fill:#ff7272; stroke:none;" d="M394 83L395 84L394 83z"/>
<path style="fill:#99928d; stroke:none;" d="M30 84L31 85L30 84z"/>
<path style="fill:#a38671; stroke:none;" d="M363 92L363 93C368.801 91.9494 372.632 88.7392 376 84L363 92z"/>
<path style="fill:#fe8e8e; stroke:none;" d="M221 85L222 86L221 85z"/>
<path style="fill:#ff7272; stroke:none;" d="M319 85L320 86L319 85M393 85L394 86L393 85M20 86L21 87L20 86z"/>
<path style="fill:#1a1510; stroke:none;" d="M49 88L49 89L64 91C60.1602 84.3203 55.0058 87.736 49 88z"/>
<path style="fill:#ff7272; stroke:none;" d="M85 87L86 88L85 87M313 87L314 88L313 87z"/>
<path style="fill:#fe8e8e; stroke:none;" d="M392 87L393 88L392 87z"/>
<path style="fill:#8e6e57; stroke:none;" d="M136 88C139.002 92.067 143.84 97.1291 149 94L136 88z"/>
<path style="fill:#afadab; stroke:none;" d="M238 88L238 92L239 92L238 88z"/>
<path style="fill:#fe8e8e; stroke:none;" d="M321 88L322 89L321 88z"/>
<path style="fill:#ff7272; stroke:none;" d="M384 88L385 89L384 88M22 89L23 90L22 89z"/>
<path style="fill:#544f4c; stroke:none;" d="M50 89L50 90L58 90L50 89z"/>
<path style="fill:#99928d; stroke:none;" d="M71 89L72 90L71 89z"/>
<path style="fill:#ff7272; stroke:none;" d="M91 89L92 90L91 89z"/>
<path style="fill:#fe8e8e; stroke:none;" d="M216 89L217 90L216 89M285 89L286 90L285 89z"/>
<path style="fill:#afadab; stroke:none;" d="M37 90L37 91L43 91L37 90M64 90L64 91L69 91L64 90z"/>
<path style="fill:#756d6b; stroke:none;" d="M269 90L269 93L270 93L269 90z"/>
<path style="fill:#fe8e8e; stroke:none;" d="M292 90L293 91L292 90z"/>
<path style="fill:#e1c2ab; stroke:none;" d="M44 91L44 92L48 92L44 91z"/>
<path style="fill:#cdbaac; stroke:none;" d="M59 91L59 92L62 92L59 91z"/>
<path style="fill:#ff7272; stroke:none;" d="M82 91L83 92L82 91z"/>
<path style="fill:#fe8e8e; stroke:none;" d="M218 92L219 93L218 92z"/>
<path style="fill:#ff7272; stroke:none;" d="M226 92L227 93L226 92z"/>
<path style="fill:#644c34; stroke:none;" d="M340 92L340 93L360 95L340 92z"/>
<path style="fill:#877b71; stroke:none;" d="M167 94L167 95L171 94L167 94z"/>
<path style="fill:#fe8e8e; stroke:none;" d="M227 93L228 94L227 93z"/>
<path style="fill:#ff7272; stroke:none;" d="M317 93L318 94L317 93M325 93L326 94L325 93z"/>
<path style="fill:#8e6e57; stroke:none;" d="M360 93L360 94L363 94L360 93z"/>
<path style="fill:#fe8e8e; stroke:none;" d="M388 93L389 94L388 93M18 94L19 95L18 94z"/>
<path style="fill:#644c34; stroke:none;" d="M147 95L147 96L164 97L147 95z"/>
<path style="fill:#ff7272; stroke:none;" d="M326 94L327 95L326 94z"/>
<path style="fill:#e1c2ab; stroke:none;" d="M358 95L358 96L362 95L358 95z"/>
<path style="fill:#ff7272; stroke:none;" d="M379 94L380 95L379 94z"/>
<path style="fill:#8e6e57; stroke:none;" d="M164 95L164 96L167 96L164 95z"/>
<path style="fill:#fe8e8e; stroke:none;" d="M229 95L230 96L229 95z"/>
<path style="fill:#99928d; stroke:none;" d="M240.667 95.3333L241.333 95.6667L240.667 95.3333M265 95L265 96L268 96L265 95z"/>
<path style="fill:#ff7272; stroke:none;" d="M327 95L328 96L327 95z"/>
<path style="fill:#99928d; stroke:none;" d="M348 95L348 96L351 96L348 95z"/>
<path style="fill:#afadab; stroke:none;" d="M355 95L355 96L358 96L355 95z"/>
<path style="fill:#fe8e8e; stroke:none;" d="M77 96L78 97L77 96M86 96L87 97L86 96z"/>
<path style="fill:#ff7272; stroke:none;" d="M230 96L231 97L230 96z"/>
<path style="fill:#6e5a4b; stroke:none;" d="M242 96L242 97L245 97L242 96z"/>
<path style="fill:#877b71; stroke:none;" d="M261 96L261 97L265 97L261 96z"/>
<path style="fill:#ff7272; stroke:none;" d="M76 97L77 98L76 97z"/>
<path style="fill:#fe8e8e; stroke:none;" d="M85 97L86 98L85 97z"/>
<path style="fill:#afadab; stroke:none;" d="M151 97L151 98L154 98L151 97z"/>
<path style="fill:#cdbaac; stroke:none;" d="M243.667 97.3333L244.333 97.6667L243.667 97.3333z"/>
<path style="fill:#756d6b; stroke:none;" d="M245.667 97.3333L246.333 97.6667L245.667 97.3333z"/>
<path style="fill:#cdbaac; stroke:none;" d="M257 97L257 98L261 98L257 97z"/>
<path style="fill:#fe8e8e; stroke:none;" d="M31 98L32 99L31 98z"/>
<path style="fill:#ff7272; stroke:none;" d="M84 98L85 99L84 98z"/>
<path style="fill:#fe8e8e; stroke:none;" d="M224 99L225 100L224 99M234 99L235 100L234 99z"/>
<path style="fill:#ff7272; stroke:none;" d="M332 99L333 100L332 99M373 99L374 100L373 99M82 100L83 101L82 100z"/>
<path style="fill:#fe8e8e; stroke:none;" d="M70 101L71 102L70 101M81 101L82 102L81 101z"/>
<path style="fill:#ff7272; stroke:none;" d="M237 101L238 102L237 101z"/>
<path style="fill:#fe8e8e; stroke:none;" d="M68 102L69 103L68 102z"/>
<path style="fill:#ff7272; stroke:none;" d="M239 102L240 103L239 102M337 102L338 103L337 102z"/>
<path style="fill:#fe8e8e; stroke:none;" d="M280 103L281 104L280 103z"/>
<path style="fill:#ff7272; stroke:none;" d="M378 103L379 104L378 103z"/>
<path style="fill:#f1b18a; stroke:none;" d="M42.6667 104.333L43.3333 104.667L42.6667 104.333z"/>
<path style="fill:#ff7272; stroke:none;" d="M77 104L78 105L77 104z"/>
<path style="fill:#fe8e8e; stroke:none;" d="M230 104L231 105L230 104z"/>
<path style="fill:#ff5555; stroke:none;" d="M264.667 104.333L265.333 104.667L264.667 104.333z"/>
<path style="fill:#f1b18a; stroke:none;" d="M342.667 104.333L343.333 104.667L342.667 104.333z"/>
<path style="fill:#fe8e8e; stroke:none;" d="M30 105L31 106L30 105M46.6667 105.333L47.3333 105.667L46.6667 105.333z"/>
<path style="fill:#ff5555; stroke:none;" d="M59.6667 105.333L60.3333 105.667L59.6667 105.333z"/>
<path style="fill:#ff7272; stroke:none;" d="M247.667 105.333L248.333 105.667L247.667 105.333z"/>
<path style="fill:#e1c2ab; stroke:none;" d="M258 105L258 106L261 106L258 105z"/>
<path style="fill:#ff7272; stroke:none;" d="M277 105L278 106L277 105M345.667 105.333L346.333 105.667L345.667 105.333z"/>
<path style="fill:#e1c2ab; stroke:none;" d="M356 105L356 106L359 106L356 105z"/>
<path style="fill:#fe8e8e; stroke:none;" d="M74 106L75 107L74 106z"/>
<path style="fill:#ff7272; stroke:none;" d="M72 107L73 108L72 107z"/>
<path style="fill:#fe8e8e; stroke:none;" d="M235 107L236 108L235 107M333 107L334 108L333 107z"/>
<path style="fill:#ff7272; stroke:none;" d="M70 108L71 109L70 108z"/>
<path style="fill:#fe8e8e; stroke:none;" d="M237 108L238 109L237 108M335 108L336 109L335 108z"/>
<path style="fill:#ff5555; stroke:none;" d="M242.667 110.333L243.333 110.667L242.667 110.333z"/>
<path style="fill:#f1b18a; stroke:none;" d="M266.667 110.333L267.333 110.667L266.667 110.333z"/>
<path style="fill:#ff5555; stroke:none;" d="M340.667 110.333L341.333 110.667L340.667 110.333z"/>
<path style="fill:#f1b18a; stroke:none;" d="M364.667 110.333L365.333 110.667L364.667 110.333z"/>
<path style="fill:#ff7272; stroke:none;" d="M44.6667 111.333L45.3333 111.667L44.6667 111.333z"/>
<path style="fill:#ff5555; stroke:none;" d="M59 111L59 112L62 112L59 111z"/>
<path style="fill:#fe8e8e; stroke:none;" d="M245.667 111.333L246.333 111.667L245.667 111.333z"/>
<path style="fill:#ff7272; stroke:none;" d="M261 111L261 112L264 112L261 111z"/>
<path style="fill:#ff5555; stroke:none;" d="M344.667 111.333L345.333 111.667L344.667 111.333z"/>
<path style="fill:#ff7272; stroke:none;" d="M359 111L359 112L362 112L359 111z"/>
<path style="fill:#f1b18a; stroke:none;" d="M49 112L49 113L56 113L49 112M251 112L251 113L258 113L251 112M349 112L349 113L356 113L349 112z"/>
<path style="fill:#ff5555; stroke:none;" d="M41 166L41 167L54 167L41 166M243 166L243 167L253 167L243 166z"/>
<path style="fill:#fe8e8e; stroke:none;" d="M253 166L253 167L256 167L253 166z"/>
<path style="fill:#ff5555; stroke:none;" d="M341 166L341 167L351 167L341 166z"/>
<path style="fill:#fe8e8e; stroke:none;" d="M351 166L351 167L354 167L351 166z"/>
<path style="fill:#ff7272; stroke:none;" d="M37.6667 167.333L38.3333 167.667L37.6667 167.333z"/>
<path style="fill:#ff0101; stroke:none;" d="M86 255C70.53 255.055 62.0694 274.575 44 271.532C36.1184 270.204 28.9584 266.014 23 260.841C3.12414 243.584 1.69445 210.874 16.9275 190C33.5535 167.217 63.7597 167.487 79.6404 191C83.9091 197.32 87.0981 204.489 88.5394 212C90.7859 223.709 87.6535 232.797 85 244C95.6597 240.741 95.1035 225.974 94.9961 217C94.7245 194.291 77.7111 169.543 54 167.171C44.379 166.208 34.3737 167.348 26 172.468C-4.59549 191.174 -7.50977 240.115 17.2863 264.711C37.6479 284.908 71.8268 279.548 86 255z"/>
<path style="fill:#ff7272; stroke:none;" d="M56.6667 167.333L57.3333 167.667L56.6667 167.333z"/>
<path style="fill:#ff5555; stroke:none;" d="M239.667 167.333L240.333 167.667L239.667 167.333z"/>
<path style="fill:#ff0101; stroke:none;" d="M241 167.439C181.125 176.887 194.102 285.767 257 276.7C318.154 267.884 305.169 157.314 241 167.439z"/>
<path style="fill:#fe8e8e; stroke:none;" d="M258.667 167.333L259.333 167.667L258.667 167.333z"/>
<path style="fill:#ff5555; stroke:none;" d="M337.667 167.333L338.333 167.667L337.667 167.333z"/>
<path style="fill:#ff0101; stroke:none;" d="M315 261C314.994 252.5 311.427 246.91 309.079 239C304.827 224.679 305.186 210.413 312.323 197C328.679 166.265 363.979 165.712 381.931 195C390.935 209.688 390 229.38 390 246C395.794 236.778 396.261 221.429 394.192 211C392.316 201.54 389.038 192.796 383.239 185C366.822 162.93 333.939 160.486 315.174 181.015C304.21 193.009 301 207.254 301 223C301 235.102 303.392 254.156 315 261z"/>
<path style="fill:#fe8e8e; stroke:none;" d="M356.667 167.333L357.333 167.667L356.667 167.333z"/>
<path style="fill:#ff3636; stroke:none;" d="M34.6667 168.333L35.3333 168.667L34.6667 168.333z"/>
<path style="fill:#f1b18a; stroke:none;" d="M360.667 168.333L361.333 168.667L360.667 168.333z"/>
<path style="fill:#ff7272; stroke:none;" d="M231 170L232 171L231 170M267 170L268 171L267 170z"/>
<path style="fill:#fe8e8e; stroke:none;" d="M329 170L330 171L329 170M229 171L230 172L229 171z"/>
<path style="fill:#ff7272; stroke:none;" d="M269 171L270 172L269 171z"/>
<path style="fill:#fe8e8e; stroke:none;" d="M327 171L328 172L327 171z"/>
<path style="fill:#ff7272; stroke:none;" d="M367 171L368 172L367 171M43 172L43 173L51 173L43 172M245 172L245 173L252 173L245 172M343 172L343 173L352 173L343 172z"/>
<path style="fill:#fe8e8e; stroke:none;" d="M369 172L370 173L369 172M39.6667 173.333L40.3333 173.667L39.6667 173.333z"/>
<path style="fill:#ffffff; stroke:none;" d="M10 242L11 242L11 238C13.0088 239.787 16.6624 246.264 19.7863 245.248C24.1011 243.846 21.0015 232.318 21.0015 229C21.0015 213.53 26.5902 189.619 46 194C51.6109 186.635 59.6759 189.17 67 192.757C90.4376 204.235 78.2342 223.983 83 244L85 244C91.3814 224.043 90.635 201.261 75.6998 185.09C50.1973 157.478 14.587 180.263 7.88503 211C5.60223 221.47 7.88325 231.739 10 242z"/>
<path style="fill:#ff5555; stroke:none;" d="M55.6667 173.333L56.3333 173.667L55.6667 173.333z"/>
<path style="fill:#f1b18a; stroke:none;" d="M241.667 173.333L242.333 173.667L241.667 173.333z"/>
<path style="fill:#ffffff; stroke:none;" d="M287 201L286 201C286.533 209.39 291.866 221.029 279 222C274.195 232.599 270.731 244.171 260 250.517C240.314 262.158 224.307 235.175 222 219C199.823 215.492 221.599 197.143 232.181 193.505C239.432 191.011 243.391 193.423 250.17 193.347C258.105 193.258 266.844 190.254 274.985 192.667C279.261 193.935 281.945 198.123 286 200C278.587 174.808 246.108 164.641 226.001 181.329C209.144 195.319 204.92 220.775 211.52 241C220.473 268.436 253.959 281.953 275.96 259.96C290.955 244.969 293.615 220.502 287 201z"/>
<path style="fill:#ff7272; stroke:none;" d="M256.667 173.333L257.333 173.667L256.667 173.333z"/>
<path style="fill:#f1b18a; stroke:none;" d="M339.667 173.333L340.333 173.667L339.667 173.333z"/>
<path style="fill:#ffffff; stroke:none;" d="M314 251L315 251C314.044 228.749 317.303 177.006 350 178.108C361.517 178.496 370.719 186.221 380 192C367.942 168.756 335.747 167.385 319.184 186.004C303.941 203.139 302.865 231.416 314 251z"/>
<path style="fill:#fe8e8e; stroke:none;" d="M354.667 173.333L355.333 173.667L354.667 173.333z"/>
<path style="fill:#ff5555; stroke:none;" d="M260.667 174.333L261.333 174.667L260.667 174.333z"/>
<path style="fill:#fe8e8e; stroke:none;" d="M372 174L373 175L372 174z"/>
<path style="fill:#ff7272; stroke:none;" d="M223 175L224 176L223 175z"/>
<path style="fill:#fe8e8e; stroke:none;" d="M263 175L264 176L263 175z"/>
<path style="fill:#ff7272; stroke:none;" d="M321 175L322 176L321 175M333 175L334 176L333 175z"/>
<path style="fill:#fe8e8e; stroke:none;" d="M361 175L362 176L361 175M20 176L21 177L20 176M233 176L234 177L233 176M265 176L266 177L265 176z"/>
<path style="fill:#ff7272; stroke:none;" d="M331 176L332 177L331 176M19 177L20 178L19 177M76 177L77 178L76 177M231 177L232 178L231 177M267 177L268 178L267 177z"/>
<path style="fill:#fe8e8e; stroke:none;" d="M365 177L366 178L365 177M28 178L29 179L28 178M67 178L68 179L67 178z"/>
<path style="fill:#afadab; stroke:none;" d="M344.667 178.333L345.333 178.667L344.667 178.333z"/>
<path style="fill:#544f4c; stroke:none;" d="M346 178L346 179L351 179L346 178z"/>
<path style="fill:#afadab; stroke:none;" d="M351 178L351 179L354 179L351 178z"/>
<path style="fill:#ff7272; stroke:none;" d="M228 179L229 180L228 179M270 179L271 180L270 179z"/>
<path style="fill:#72510a; stroke:none;" d="M337 181L337 182L341 182L341 188L344 187L345 179L337 181z"/>
<path style="fill:#996c07; stroke:none;" d="M345 179L345 180L353 180L345 179z"/>
<path style="fill:#644c34; stroke:none;" d="M353 179L353 180L357 180L353 179z"/>
<path style="fill:#cdbaac; stroke:none;" d="M357.667 179.333L358.333 179.667L357.667 179.333z"/>
<path style="fill:#fe8e8e; stroke:none;" d="M368 179L369 180L368 179z"/>
<path style="fill:#ff7272; stroke:none;" d="M79 180L80 181L79 180z"/>
<path style="fill:#afadab; stroke:none;" d="M339 180L339 181L342 181L339 180z"/>
<path style="fill:#fcab01; stroke:none;" d="M375 208L375 207L372 206L372 205C376.231 206.774 379.872 208.313 381 213L385 213C384.989 196.968 375.69 187.378 361 181.816C357.11 180.342 348.31 178.031 344.607 181.028C340.992 183.954 345.509 190.46 347.529 192.96C353.716 200.615 365.337 206.692 375 208z"/>
<path style="fill:#72510a; stroke:none;" d="M357 180L357 181L361 182L357 180z"/>
<path style="fill:#ff7272; stroke:none;" d="M15 181L16 182L15 181z"/>
<path style="fill:#fe8e8e; stroke:none;" d="M24 181L25 182L24 181M71 181L72 182L71 181z"/>
<path style="fill:#ff7272; stroke:none;" d="M80 181L81 182L80 181z"/>
<path style="fill:#72510a; stroke:none;" d="M346 181L354 183L346 181z"/>
<path style="fill:#303030; stroke:none;" d="M361 181L361 182L365 183L365 182L361 181z"/>
<path style="fill:#fe8e8e; stroke:none;" d="M14 182L15 183L14 182M81 182L82 183L81 182z"/>
<path style="fill:#fcab01; stroke:none;" d="M319 213L326 212L324 210L333 194L334 194L329 207C338.114 204.678 340.806 190.242 341 182C328.69 182.97 319.32 201.972 319 213z"/>
<path style="fill:#996c07; stroke:none;" d="M353 184L356 182L353 184z"/>
<path style="fill:#d19724; stroke:none;" d="M153 189C160.324 189.235 162.917 192.947 163 200C170.727 202.656 173.089 209.512 173 217C177.122 216.752 180.612 214.994 183 219L179 217C181.024 229.267 180.113 246.663 168 253L169 256L164 256C165.917 261.774 186.637 258.947 193 259L190.668 236L193.539 226L185 202C179.591 196.368 159.976 172.215 153 189z"/>
<path style="fill:#1a1510; stroke:none;" d="M159 183L159 184L162 184L159 183z"/>
<path style="fill:#afadab; stroke:none;" d="M162.667 183.333L163.333 183.667L162.667 183.333z"/>
<path style="fill:#d19724; stroke:none;" d="M329 190L336 183L329 190z"/>
<path style="fill:#996c07; stroke:none;" d="M338 183L340 185L340 183L338 183z"/>
<path style="fill:#513425; stroke:none;" d="M355 183L355 184L358 184L355 183z"/>
<path style="fill:#303030; stroke:none;" d="M365.667 183.333L366.333 183.667L365.667 183.333z"/>
<path style="fill:#afadab; stroke:none;" d="M367 183L368 184L367 183z"/>
<path style="fill:#ff7272; stroke:none;" d="M373 183L374 184L373 183z"/>
<path style="fill:#644c34; stroke:none;" d="M163.667 184.333L164.333 184.667L163.667 184.333z"/>
<path style="fill:#cdbaac; stroke:none;" d="M165 184L165 185L169 185L165 184z"/>
<path style="fill:#ff7272; stroke:none;" d="M214 184L215 185L214 184M284 184L285 185L284 184z"/>
<path style="fill:#fe8e8e; stroke:none;" d="M312 184L313 185L312 184z"/>
<path style="fill:#1a1510; stroke:none;" d="M332 191L339 184L332 191z"/>
<path style="fill:#513425; stroke:none;" d="M358.667 184.333L359.333 184.667L358.667 184.333M367 184L367 185L372 187L372 186L367 184z"/>
<path style="fill:#ff7272; stroke:none;" d="M374 184L375 185L374 184z"/>
<path style="fill:#6e5a4b; stroke:none;" d="M141 186L141 187L155 185L153 187L141 186z"/>
<path style="fill:#996c07; stroke:none;" d="M165 185L165 186L176 191C173.612 186.159 170.185 185.125 165 185z"/>
<path style="fill:#513425; stroke:none;" d="M360.667 185.333L361.333 185.667L360.667 185.333z"/>
<path style="fill:#fe8e8e; stroke:none;" d="M383 185L384 186L383 185z"/>
<path style="fill:#ff7272; stroke:none;" d="M84 186L85 187L84 186z"/>
<path style="fill:#d19724; stroke:none;" d="M139 193L130 202L131 208C110.513 213.529 122.603 245.347 124 259L150 258L150 257L145 254L137 246L136 246L137 250C130.232 243.177 132.12 220.519 135.594 212.184C137.767 206.973 143.169 203.039 143 197L139 199C141.67 196.731 147.964 194.108 149.149 190.745C151.24 184.812 139.595 185.364 139 193z"/>
<path style="fill:#afadab; stroke:none;" d="M151.667 186.333L152.333 186.667L151.667 186.333z"/>
<path style="fill:#72510a; stroke:none;" d="M362 186L365 188L362 186z"/>
<path style="fill:#99928d; stroke:none;" d="M372 186L373 187L372 186z"/>
<path style="fill:#fe8e8e; stroke:none;" d="M18 187L19 188L18 187z"/>
<path style="fill:#ff7272; stroke:none;" d="M77 187L78 188L77 187z"/>
<path style="fill:#e1c2ab; stroke:none;" d="M342 187C339.948 196.818 336.397 205.081 328 211C328.586 220.895 328.28 234.382 334.589 242.816C337.07 246.133 341.199 247.944 344 251C346.95 250.017 347.622 249.513 347 252L356 252L360 251L368 244C372.74 242.986 371.659 237.957 372.789 234C375.165 225.677 377.666 220.66 378 212C362.606 206.345 352.201 199.563 342 187z"/>
<path style="fill:#1a1510; stroke:none;" d="M343 187L347 193L343 187z"/>
<path style="fill:#3a281d; stroke:none;" d="M348 187C351.278 194.028 358.596 199.806 366 202L366 201L348 187z"/>
<path style="fill:#544f4c; stroke:none;" d="M372 187L375 189L372 187z"/>
<path style="fill:#513425; stroke:none;" d="M150 188L139 199L143 197L142 202C148.555 197.777 149.139 191.294 159 191L150 188z"/>
<path style="fill:#fe8e8e; stroke:none;" d="M287 188L288 189L287 188z"/>
<path style="fill:#513425; stroke:none;" d="M336 191L339 188L336 191M340 188L338 199L339 199L340 188z"/>
<path style="fill:#877b71; stroke:none;" d="M341.333 188.667L341.667 189.333L341.333 188.667z"/>
<path style="fill:#72510a; stroke:none;" d="M365 188L378 200C375.412 194.452 370.701 190.209 365 188z"/>
<path style="fill:#ff7272; stroke:none;" d="M385 188L386 189L385 188M9 189L10 190L9 189z"/>
<path style="fill:#afadab; stroke:none;" d="M49.6667 189.333L50.3333 189.667L49.6667 189.333z"/>
<path style="fill:#756d6b; stroke:none;" d="M51 189L51 190L59 190L51 189z"/>
<path style="fill:#fe8e8e; stroke:none;" d="M86 189L87 190L86 189z"/>
<path style="fill:#644c34; stroke:none;" d="M138 189L136 192L136 193C138.649 192.432 139.355 191.412 138 189z"/>
<path style="fill:#996c07; stroke:none;" d="M157 189L157 190L161 192L157 189z"/>
<path style="fill:#ff7272; stroke:none;" d="M218 189L219 190L218 189z"/>
<path style="fill:#fe8e8e; stroke:none;" d="M280 189L281 190L280 189z"/>
<path style="fill:#996c07; stroke:none;" d="M328 189L327 192L328 189z"/>
<path style="fill:#513425; stroke:none;" d="M375 189L380 194L375 189z"/>
<path style="fill:#411901; stroke:none;" d="M12 239L15.7029 253.972L44 254C41.4948 249.855 37.214 247.379 34.7994 242.999C28.9953 232.471 28.3901 205.544 45 205L46 197L52 208L62 206C62.943 210.401 67.6905 208.077 69.8889 212.028C79.0293 228.455 69.0055 240.297 60 253C66.7252 254.988 84.1697 256.994 89.6057 251.683C94.063 247.328 94.537 238.858 95 233L93 233C92.2359 236.839 86.7044 247.884 82.4568 240.847C74.7983 228.16 89.1032 210.319 76.787 198.329C65.9031 187.733 55.2634 190.61 42.9105 193.687C38.167 194.868 34.1086 193.251 30.2137 197.148C25.2751 202.09 24.0644 210.415 22.8048 217C21.6234 223.176 25.4055 240.356 21.2585 244.534C18.2401 247.575 14.1116 240.692 12 239z"/>
<path style="fill:#99928d; stroke:none;" d="M61.6667 190.333L62.3333 190.667L61.6667 190.333z"/>
<path style="fill:#ff7272; stroke:none;" d="M308 190L309 191L308 190M15 191L16 192L15 191z"/>
<path style="fill:#a38671; stroke:none;" d="M152 191L152 192L159 192L152 191z"/>
<path style="fill:#996c07; stroke:none;" d="M176 191L182 196L176 191z"/>
<path style="fill:#e1c2ab; stroke:none;" d="M238 191L238 192L246 192L238 191z"/>
<path style="fill:#877b71; stroke:none;" d="M256.667 191.333L257.333 191.667L256.667 191.333z"/>
<path style="fill:#513425; stroke:none;" d="M258 191.533C242.62 192.761 230.197 193.81 217.156 202.841C203.886 212.03 218.776 220.557 229.192 220.223C233.23 220.093 233.972 214.959 235.495 212.209C237.21 209.113 248.463 199.822 252.015 200.291C265.69 202.096 266.703 223.066 282.981 220.837C291.36 219.69 286.93 204.412 284.02 199.594C279.5 192.109 266.031 190.892 258 191.533z"/>
<path style="fill:#afadab; stroke:none;" d="M326 191L327 192L326 191z"/>
<path style="fill:#513425; stroke:none;" d="M325 202L326 202L333 191C328.496 193.302 326.401 197.24 325 202z"/>
<path style="fill:#72510a; stroke:none;" d="M335 191L334 194L335 191z"/>
<path style="fill:#e1c2ab; stroke:none;" d="M37 192L37 193L41 193L37 192z"/>
<path style="fill:#d29f7e; stroke:none;" d="M178 219C171.232 217.943 166.51 205.186 162.688 199.701C160.642 196.767 162.518 192.868 157.941 192.152C147.167 190.467 144.447 199.136 140.46 206.806C134.428 218.408 129.497 236.21 139.344 247.96C150.336 261.077 174.306 259.922 177.518 240C178.562 233.524 177.946 225.624 178 219z"/>
<path style="fill:#72510a; stroke:none;" d="M161 192L171 217L172 217C174.409 209.693 170.964 201.625 163 200L161 192z"/>
<path style="fill:#ff7272; stroke:none;" d="M216 192L217 193L216 192z"/>
<path style="fill:#544f4c; stroke:none;" d="M238 192L238 193L246 193L238 192z"/>
<path style="fill:#cdbaac; stroke:none;" d="M246.667 192.333L247.333 192.667L246.667 192.333z"/>
<path style="fill:#99928d; stroke:none;" d="M264.667 192.333L265.333 192.667L264.667 192.333M269 192L269 193L276 193L269 192z"/>
<path style="fill:#fe8e8e; stroke:none;" d="M282 192L283 193L282 192z"/>
<path style="fill:#a38671; stroke:none;" d="M340.333 192.667L340.667 193.333L340.333 192.667M345 192L347 195L345 192z"/>
<path style="fill:#877b71; stroke:none;" d="M380.333 192.667L380.667 193.333L380.333 192.667z"/>
<path style="fill:#644c34; stroke:none;" d="M35 193L35 194L44 194L35 193M134 193L134 195L136 193L134 193z"/>
<path style="fill:#cdbaac; stroke:none;" d="M230.667 193.333L231.333 193.667L230.667 193.333z"/>
<path style="fill:#877b71; stroke:none;" d="M232 193L232 194L237 194L232 193z"/>
<path style="fill:#72510a; stroke:none;" d="M325 193L324 196L325 193z"/>
<path style="fill:#6e5a4b; stroke:none;" d="M347 193C348.367 197.725 351.291 199.252 356 200L356 199L347 193z"/>
<path style="fill:#756d6b; stroke:none;" d="M133 194L133 198L134 198L133 194z"/>
<path style="fill:#996c07; stroke:none;" d="M333 194L332 197L333 194z"/>
<path style="fill:#3a281d; stroke:none;" d="M380 194L381 195L380 194z"/>
<path style="fill:#cdbaac; stroke:none;" d="M381 194L382 195L381 194z"/>
<path style="fill:#99928d; stroke:none;" d="M31 195L32 196L31 195z"/>
<path style="fill:#644c34; stroke:none;" d="M182 195L182 199L183 199L182 195z"/>
<path style="fill:#877b71; stroke:none;" d="M228.333 195.667L228.667 196.333L228.333 195.667z"/>
<path style="fill:#72510a; stroke:none;" d="M381 195L383 201L384 201L381 195z"/>
<path style="fill:#99928d; stroke:none;" d="M382.333 195.667L382.667 196.333L382.333 195.667M30 196L31 197L30 196M74 196L75 197L74 196z"/>
<path style="fill:#afadab; stroke:none;" d="M183.333 196.667L183.667 197.333L183.333 196.667z"/>
<path style="fill:#72510a; stroke:none;" d="M323.333 196.667L323.667 197.333L323.333 196.667z"/>
<path style="fill:#99928d; stroke:none;" d="M29 197L30 198L29 197z"/>
<path style="fill:#d29f7e; stroke:none;" d="M46 197L46 206C17.8921 206.099 32.9739 271.98 61.9846 251.057C64.9723 248.902 67.0327 246.232 68.7369 242.999C70.903 238.89 72.3638 234.64 72.8295 230C73.5521 222.801 71.5899 216.873 70 210L62 210L62 206L61 206L52 209C51.8759 203.721 50.9283 199.562 46 197z"/>
<path style="fill:#cdbaac; stroke:none;" d="M224 197L224 198L228 198L224 197z"/>
<path style="fill:#513425; stroke:none;" d="M332 197L326 209C329.467 206.127 333.292 201.723 332 197z"/>
<path style="fill:#99928d; stroke:none;" d="M383.333 197.667L383.667 198.333L383.333 197.667z"/>
<path style="fill:#8e6e57; stroke:none;" d="M45 198L45 203L46 203L45 198z"/>
<path style="fill:#cdbaac; stroke:none;" d="M133.333 198.667L133.667 199.333L133.333 198.667z"/>
<path style="fill:#644c34; stroke:none;" d="M134.333 198.667L134.667 199.333L134.333 198.667z"/>
<path style="fill:#72510a; stroke:none;" d="M322.333 198.667L322.667 199.333L322.333 198.667z"/>
<path style="fill:#99928d; stroke:none;" d="M182.333 199.667L182.667 200.333L182.333 199.667z"/>
<path style="fill:#fcab01; stroke:none;" d="M222 205C226.67 204.848 229.588 203.68 231 199L222 205z"/>
<path style="fill:#d29f7e; stroke:none;" d="M226 220L225 225C230.264 231.682 229.743 240.609 237.04 246.61C252.394 259.236 277.159 241.784 274.299 223.039C273.457 217.524 266.94 213.737 263.128 210.455C259.185 207.061 259.02 202.49 253 203L252 199C247.468 200.621 239.757 206.378 236.899 210.304C233.214 215.366 233.614 220.568 226 220z"/>
<path style="fill:#644c34; stroke:none;" d="M252 199L256 202L252 199z"/>
<path style="fill:#544f4c; stroke:none;" d="M337 199L332 208C335.112 205.681 338.072 203.097 337 199z"/>
<path style="fill:#d29f7e; stroke:none;" d="M384 199L384 202L385 202L384 199z"/>
<path style="fill:#996c07; stroke:none;" d="M131 202L134 200L131 202z"/>
<path style="fill:#72510a; stroke:none;" d="M137 200L137 202L139 202L137 200M231 200L228 203L228 205L234 206L231 200z"/>
<path style="fill:#fe8e8e; stroke:none;" d="M285.667 200.333L286.333 200.667L285.667 200.333z"/>
<path style="fill:#ff5555; stroke:none;" d="M293.333 200.667L293.667 201.333L293.333 200.667z"/>
<path style="fill:#877b71; stroke:none;" d="M321 200L320 204L321 204L321 200z"/>
<path style="fill:#3a281d; stroke:none;" d="M355.667 200.333L356.333 200.667L355.667 200.333z"/>
<path style="fill:#513425; stroke:none;" d="M378 200L380 203L378 200z"/>
<path style="fill:#afadab; stroke:none;" d="M130 201L131 202L130 201M218 201L218 202L221 202L218 201z"/>
<path style="fill:#6e5a4b; stroke:none;" d="M285 201L285 206L286 206L285 201z"/>
<path style="fill:#72510a; stroke:none;" d="M357 201L357 202L362 204L362 203L357 201z"/>
<path style="fill:#644c34; stroke:none;" d="M140 202L137 209L137 210L142 202L140 202z"/>
<path style="fill:#f1b18a; stroke:none;" d="M211.333 202.667L211.667 203.333L211.333 202.667z"/>
<path style="fill:#72510a; stroke:none;" d="M324.333 202.667L324.667 203.333L324.333 202.667M366 202L366 203L372 205L372 204L366 202z"/>
<path style="fill:#996c07; stroke:none;" d="M384.333 202.667L384.667 203.333L384.333 202.667z"/>
<path style="fill:#99928d; stroke:none;" d="M385.333 202.667L385.667 203.333L385.333 202.667z"/>
<path style="fill:#644c34; stroke:none;" d="M45 203L38 205L38 206C40.5721 205.998 46.4584 206.869 45 203z"/>
<path style="fill:#513425; stroke:none;" d="M129 203L129 206L130 206L129 203z"/>
<path style="fill:#996c07; stroke:none;" d="M184 203L187 207L184 203z"/>
<path style="fill:#d19724; stroke:none;" d="M231 203L230 205L232 205L231 203z"/>
<path style="fill:#ff5555; stroke:none;" d="M294.333 203.667L294.667 204.333L294.333 203.667z"/>
<path style="fill:#72510a; stroke:none;" d="M380.333 203.667L380.667 204.333L380.333 203.667z"/>
<path style="fill:#ff5555; stroke:none;" d="M392.333 203.667L392.667 204.333L392.333 203.667z"/>
<path style="fill:#fcab01; stroke:none;" d="M231 211L237 204C233.09 205.079 231.609 207.025 231 211z"/>
<path style="fill:#ff3636; stroke:none;" d="M302.333 204.667L302.667 205.333L302.333 204.667z"/>
<path style="fill:#996c07; stroke:none;" d="M320.333 204.667L320.667 205.333L320.333 204.667M323 204L321 211L322 211L323 204z"/>
<path style="fill:#513425; stroke:none;" d="M361 204C364.617 209.521 373.756 211.378 380 212L361 204M385 204L385 213L386 213L385 204z"/>
<path style="fill:#ff5555; stroke:none;" d="M2.33333 205.667L2.66667 206.333L2.33333 205.667z"/>
<path style="fill:#ff7272; stroke:none;" d="M93.3333 205.667L93.6667 206.333L93.3333 205.667z"/>
<path style="fill:#8e6e57; stroke:none;" d="M260 205C260.633 209.061 262.034 210.85 266 212L260 205z"/>
<path style="fill:#f1b18a; stroke:none;" d="M288.333 205.667L288.667 206.333L288.333 205.667z"/>
<path style="fill:#756d6b; stroke:none;" d="M319.333 205.667L319.667 206.333L319.333 205.667z"/>
<path style="fill:#72510a; stroke:none;" d="M372 205L372 206L380 209L380 208L372 205z"/>
<path style="fill:#996c07; stroke:none;" d="M381 205L382 210L383 210L381 205z"/>
<path style="fill:#d29f7e; stroke:none;" d="M386 205L386 208L387 208L386 205z"/>
<path style="fill:#877b71; stroke:none;" d="M129.333 206.667L129.667 207.333L129.333 206.667z"/>
<path style="fill:#72510a; stroke:none;" d="M130.333 206.667L130.667 207.333L130.333 206.667z"/>
<path style="fill:#996c07; stroke:none;" d="M324 210L324 211C328.034 210.869 331.073 210.525 331 206L324 210z"/>
<path style="fill:#fe8e8e; stroke:none;" d="M393.333 206.667L393.667 207.333L393.333 206.667z"/>
<path style="fill:#f1b18a; stroke:none;" d="M8.33333 207.667L8.66667 208.333L8.33333 207.667z"/>
<path style="fill:#fe8e8e; stroke:none;" d="M87.3333 207.667L87.6667 208.333L87.3333 207.667z"/>
<path style="fill:#756d6b; stroke:none;" d="M187 207L189 210L187 207z"/>
<path style="fill:#ff7272; stroke:none;" d="M203 207L203 210L204 210L203 207z"/>
<path style="fill:#6e5a4b; stroke:none;" d="M287 207L287 213L288 213L287 207z"/>
<path style="fill:#ff5555; stroke:none;" d="M295.333 207.667L295.667 208.333L295.333 207.667z"/>
<path style="fill:#996c07; stroke:none;" d="M369 207L369 208L373 209L373 208L369 207z"/>
<path style="fill:#756d6b; stroke:none;" d="M24.3333 208.667L24.6667 209.333L24.3333 208.667z"/>
<path style="fill:#8e6e57; stroke:none;" d="M52 208L52 209L60 209L52 208z"/>
<path style="fill:#6e5a4b; stroke:none;" d="M126 208L126 209L129 209L126 208z"/>
<path style="fill:#ff5555; stroke:none;" d="M301.333 208.667L301.667 209.333L301.333 208.667z"/>
<path style="fill:#877b71; stroke:none;" d="M318 208L318 213L319 213L318 208z"/>
<path style="fill:#d19724; stroke:none;" d="M375 208L375 209L380 211L375 208z"/>
<path style="fill:#756d6b; stroke:none;" d="M386 208L387 215L388 215L386 208z"/>
<path style="fill:#ff7272; stroke:none;" d="M387 208L387 211L388 211L387 208z"/>
<path style="fill:#fe8e8e; stroke:none;" d="M1.33333 209.667L1.66667 210.333L1.33333 209.667z"/>
<path style="fill:#8e6e57; stroke:none;" d="M62 209L62 210L69 210L62 209z"/>
<path style="fill:#e1c2ab; stroke:none;" d="M82 209L82 222L83 222L82 209z"/>
<path style="fill:#fe8e8e; stroke:none;" d="M94.3333 209.667L94.6667 210.333L94.3333 209.667z"/>
<path style="fill:#644c34; stroke:none;" d="M120 221L121 221L126 209C120.755 211.588 120.05 215.494 120 221z"/>
<path style="fill:#fe8e8e; stroke:none;" d="M209.333 209.667L209.667 210.333L209.333 209.667M289.333 209.667L289.667 210.333L289.333 209.667z"/>
<path style="fill:#ff7272; stroke:none;" d="M307.333 209.667L307.667 210.333L307.333 209.667z"/>
<path style="fill:#544f4c; stroke:none;" d="M346 210L346 211L350 209L346 210z"/>
<path style="fill:#996c07; stroke:none;" d="M380 209L380 213L381 213L380 209z"/>
<path style="fill:#6e5a4b; stroke:none;" d="M46 210L45 213L46 210z"/>
<path style="fill:#8e6e57; stroke:none;" d="M55 210L59 213L55 210z"/>
<path style="fill:#544f4c; stroke:none;" d="M135 210L133 228L134 228L137 210L135 210z"/>
<path style="fill:#3a281d; stroke:none;" d="M149.667 210.333L150.333 210.667L149.667 210.333z"/>
<path style="fill:#513425; stroke:none;" d="M159 210L159 211L164 214L159 210z"/>
<path style="fill:#6e5a4b; stroke:none;" d="M235 210L235 214L236 214L235 210M243 213L248 211L243 213z"/>
<path style="fill:#877b71; stroke:none;" d="M345.333 210.667L345.667 211.333L345.333 210.667z"/>
<path style="fill:#1a1510; stroke:none;" d="M353 210L353 211L356 211L353 210z"/>
<path style="fill:#756d6b; stroke:none;" d="M356 210L359 212L359 211L356 210z"/>
<path style="fill:#ff7272; stroke:none;" d="M7.33333 211.667L7.66667 212.333L7.33333 211.667M88.3333 211.667L88.6667 212.333L88.3333 211.667z"/>
<path style="fill:#644c34; stroke:none;" d="M146 212L146 213L151 212L146 212z"/>
<path style="fill:#6e5a4b; stroke:none;" d="M189 211C189.004 216.693 189.232 220.368 194 224L189 211z"/>
<path style="fill:#644c34; stroke:none;" d="M254 211L258 214L254 211z"/>
<path style="fill:#f1b18a; stroke:none;" d="M296.333 211.667L296.667 212.333L296.333 211.667z"/>
<path style="fill:#411d3b; stroke:none;" d="M325 213L328 211L325 213z"/>
<path style="fill:#ffffff; stroke:none;" d="M387 211L388 212L387 211z"/>
<path style="fill:#fe8e8e; stroke:none;" d="M394.333 211.667L394.667 212.333L394.333 211.667z"/>
<path style="fill:#877b71; stroke:none;" d="M23.3333 212.667L23.6667 213.333L23.3333 212.667z"/>
<path style="fill:#f1b18a; stroke:none;" d="M43 212L36 230L39 229C40.0477 249.413 66.3542 246.183 64 228C67.5032 230.651 64.2574 234.531 63 238C74.8053 228.351 66.7258 216.214 55 212L55 217L52 215L51 215L48 217L48 212L45 215L43 212z"/>
<path style="fill:#8e6e57; stroke:none;" d="M48 212L48 213L51 213L48 212z"/>
<path style="fill:#6e5a4b; stroke:none;" d="M53 212L52 216L53 216L55 213L53 212z"/>
<path style="fill:#ff5555; stroke:none;" d="M202 212L202 216L203 216L202 212z"/>
<path style="fill:#ff7272; stroke:none;" d="M300 212L300 216L301 216L300 212z"/>
<path style="fill:#411d3b; stroke:none;" d="M378 212L377 216L387 216L387 215L378 215L378 214L384 214L378 212z"/>
<path style="fill:#8e6e57; stroke:none;" d="M33.3333 213.667L33.6667 214.333L33.3333 213.667z"/>
<path style="fill:#1a1510; stroke:none;" d="M48 213L48 216L51 216L51 213L48 213M53 213L53 216L56 216L56 213L53 213z"/>
<path style="fill:#afadab; stroke:none;" d="M211.333 213.667L211.667 214.333L211.333 213.667z"/>
<path style="fill:#513425; stroke:none;" d="M246 216L250 214L246 216z"/>
<path style="fill:#fe8e8e; stroke:none;" d="M290 213L290 217L291 217L290 213z"/>
<path style="fill:#ff3636; stroke:none;" d="M296 213L296 217L297 217L296 213z"/>
<path style="fill:#a74980; stroke:none;" d="M319 213L318 217L328 214L319 213z"/>
<path style="fill:#996c07; stroke:none;" d="M320 213L320 214L323 214L320 213z"/>
<path style="fill:#544f4c; stroke:none;" d="M328 213L321 216L321 217C324.162 216.897 328.091 216.847 328 213z"/>
<path style="fill:#303030; stroke:none;" d="M347 213L348 215L349 215L350 213L347 213M353 213L354 215L355 215L356 213L353 213z"/>
<path style="fill:#a74980; stroke:none;" d="M384 213L378 214L378 215L384 213z"/>
<path style="fill:#f56ec4; stroke:none;" d="M385 213L385 215L387 215L387 213L385 213z"/>
<path style="fill:#fe8e8e; stroke:none;" d="M388 213L387 216L388 213z"/>
<path style="fill:#72510a; stroke:none;" d="M127 222L128 222L132 215C127.626 214.628 126.288 218.215 127 222z"/>
<path style="fill:#544f4c; stroke:none;" d="M150 217L152 214L150 217z"/>
<path style="fill:#6e5a4b; stroke:none;" d="M157.667 214.333L158.333 214.667L157.667 214.333z"/>
<path style="fill:#f1b18a; stroke:none;" d="M208 214L208 228L209 228L208 214z"/>
<path style="fill:#1a1510; stroke:none;" d="M247 217L250 214L247 217z"/>
<path style="fill:#8e6e57; stroke:none;" d="M250 214L249 217C251.158 216.022 251.501 215.812 250 214z"/>
<path style="fill:#fe8e8e; stroke:none;" d="M306 214L306 228L307 228L306 214z"/>
<path style="fill:#1a1510; stroke:none;" d="M347 214C348.127 216.006 348.873 216.006 350 214L347 214z"/>
<path style="fill:#756d6b; stroke:none;" d="M350.333 214.667L350.667 215.333L350.333 214.667z"/>
<path style="fill:#1a1510; stroke:none;" d="M353 214C354.127 216.006 354.873 216.006 356 214L353 214z"/>
<path style="fill:#a38671; stroke:none;" d="M356.333 214.667L356.667 215.333L356.333 214.667z"/>
<path style="fill:#fe8e8e; stroke:none;" d="M0 215L0 229L1 229L0 215M95 215L95 229L96 229L95 215z"/>
<path style="fill:#1a1510; stroke:none;" d="M151 215L149 216C150.572 218.742 152.391 217.841 153 215L151 215z"/>
<path style="fill:#303030; stroke:none;" d="M156 218L160 216C157.588 214.645 156.568 215.351 156 218z"/>
<path style="fill:#996c07; stroke:none;" d="M179 215L183 219L179 215z"/>
<path style="fill:#303030; stroke:none;" d="M251 219L255 215L251 219z"/>
<path style="fill:#f56ec4; stroke:none;" d="M319.667 215.333L320.333 215.667L319.667 215.333z"/>
<path style="fill:#8e6e57; stroke:none;" d="M48.6667 216.333L49.3333 216.667L48.6667 216.333M53.6667 216.333L54.3333 216.667L53.6667 216.333z"/>
<path style="fill:#1a1510; stroke:none;" d="M159 216L157 219C159.251 218.527 160.118 218.14 159 216z"/>
<path style="fill:#513425; stroke:none;" d="M172 216L179 224L180 224L180 216L172 216z"/>
<path style="fill:#ff3636; stroke:none;" d="M300 216L300 229L301 229L300 216z"/>
<path style="fill:#a38671; stroke:none;" d="M327 216L327 219L328 219L327 216z"/>
<path style="fill:#6e5a4b; stroke:none;" d="M348.667 216.333L349.333 216.667L348.667 216.333z"/>
<path style="fill:#a38671; stroke:none;" d="M354.667 216.333L355.333 216.667L354.667 216.333z"/>
<path style="fill:#513425; stroke:none;" d="M379 216L377 225L378 225L380 217L384 217L379 216z"/>
<path style="fill:#d19724; stroke:none;" d="M383 218L386 216L383 218z"/>
<path style="fill:#72510a; stroke:none;" d="M386 216L386 221L387 221L386 216z"/>
<path style="fill:#e1c2ab; stroke:none;" d="M387 216L388 226L389 226L389 216L387 216z"/>
<path style="fill:#ff3636; stroke:none;" d="M6 217L6 225L7 225L6 217z"/>
<path style="fill:#99928d; stroke:none;" d="M22.3333 217.667L22.6667 218.333L22.3333 217.667z"/>
<path style="fill:#afadab; stroke:none;" d="M215 217L215 218L218 218L215 217z"/>
<path style="fill:#8e6e57; stroke:none;" d="M233 217L232 220L233 217z"/>
<path style="fill:#e1c2ab; stroke:none;" d="M290 217L290 228L291 228L290 217z"/>
<path style="fill:#72510a; stroke:none;" d="M319 217L317 262L318 262C321.087 249.026 315.006 229.429 324 218L325.813 240L321 258L322 258L323 256L325 258L334 243L333 237L332 237L324 256L323 256L326.956 241L325 217L319 217z"/>
<path style="fill:#fcab01; stroke:none;" d="M325 217L327.349 240L323 256L324 256L331.732 241L327 217L325 217M380 217C377.051 231.1 368.686 245.202 383 257L382 253L383 253L385 257L386 257L382.188 236L383 217L380 217M385 217C384.992 228.915 384.584 237.244 386.678 249C387.339 252.709 388.31 256.718 385 259L390 263C389.962 249.38 391.528 229.275 385 217z"/>
<path style="fill:#ff3636; stroke:none;" d="M89 218L89 225L90 225L89 218z"/>
<path style="fill:#513425; stroke:none;" d="M150.667 218.333L151.333 218.667L150.667 218.333z"/>
<path style="fill:#99928d; stroke:none;" d="M218 218L218 219L222 219L222 224L223 224L224 218L218 218z"/>
<path style="fill:#fcab01; stroke:none;" d="M322 218L318.17 243L318 262L317 262L317.09 242L320 221L319 221L316 264L322 258L321 258L325.92 240L324 218L322 218z"/>
<path style="fill:#72510a; stroke:none;" d="M383 218L382 233L383 233L385 218L383 218z"/>
<path style="fill:#8e6e57; stroke:none;" d="M244 252L232.108 240L225 225L228 220C220.084 217.406 225.495 229.649 226.451 233C228.897 241.569 235.363 249.435 244 252z"/>
<path style="fill:#644c34; stroke:none;" d="M327 219L328 228L329 228L327 219z"/>
<path style="fill:#3a281d; stroke:none;" d="M381 219C378.443 232.141 375.695 239.999 381 253L382 253L378.365 236L381 219z"/>
<path style="fill:#a38671; stroke:none;" d="M31 220L31 231L32 231L31 220z"/>
<path style="fill:#6e5a4b; stroke:none;" d="M178 220L178 232L179 232L178 220z"/>
<path style="fill:#8e6e57; stroke:none;" d="M274 220L270 241L271 241L279 222L285 222L274 220z"/>
<path style="fill:#877b71; stroke:none;" d="M318.333 220.667L318.667 221.333L318.333 220.667z"/>
<path style="fill:#99928d; stroke:none;" d="M387.333 220.667L387.667 221.333L387.333 220.667z"/>
<path style="fill:#cdbaac; stroke:none;" d="M21.3333 221.667L21.6667 222.333L21.3333 221.667z"/>
<path style="fill:#756d6b; stroke:none;" d="M118 222L118 225L119 225L118 222z"/>
<path style="fill:#644c34; stroke:none;" d="M128.667 222.333L129.333 222.667L128.667 222.333z"/>
<path style="fill:#72510a; stroke:none;" d="M318 222L318 225L319 225L318 222z"/>
<path style="fill:#756d6b; stroke:none;" d="M334 222L333 227L343 239L336 222L334 222z"/>
<path style="fill:#6e5a4b; stroke:none;" d="M367 222C366.786 231.088 361.885 238.361 353 241L353 242C363.105 240.958 364.186 233.438 370 227L367 222z"/>
<path style="fill:#411901; stroke:none;" d="M387 222L389 255L390 255C390 244.558 392.149 231.476 387 222z"/>
<path style="fill:#644c34; stroke:none;" d="M21 223L21 235L22 235L21 223z"/>
<path style="fill:#8e6e57; stroke:none;" d="M73 223L73 229L74 229L73 223z"/>
<path style="fill:#99928d; stroke:none;" d="M81 224L81 240L82 240L81 224z"/>
<path style="fill:#6e5a4b; stroke:none;" d="M194 224L192 245L193 245L194 224z"/>
<path style="fill:#877b71; stroke:none;" d="M317.333 224.667L317.667 225.333L317.333 224.667z"/>
<path style="fill:#6e5a4b; stroke:none;" d="M137 226L143 239L144 239L143 226L137 226M171 225L169 226C170.524 234.598 167.044 240.994 160 246L160 247L174 231L172 228L174 228L171 225z"/>
<path style="fill:#72510a; stroke:none;" d="M181 225L180 234L181 234C182.644 230.563 183.357 228.163 181 225z"/>
<path style="fill:#cdbaac; stroke:none;" d="M195 225L195 228L196 228L195 225z"/>
<path style="fill:#72510a; stroke:none;" d="M376 225L374 230L378 225L376 225z"/>
<path style="fill:#8e6e57; stroke:none;" d="M235 226C234.115 236.115 243.811 250.432 254.985 243.91C260.669 240.594 261.208 234.606 265 230L261 226C261.73 233.418 255.737 247.671 246.015 242.817C239.82 239.724 237.846 232.277 237 226L235 226z"/>
<path style="fill:#72510a; stroke:none;" d="M317 226L317 229L318 229L317 226z"/>
<path style="fill:#cdbaac; stroke:none;" d="M225 227L225 230L226 230L225 227z"/>
<path style="fill:#a38671; stroke:none;" d="M64 228C63.9031 240.538 53.3855 244.748 43 242L43 243C54.6905 249.548 64.8485 239.922 67 228L64 228z"/>
<path style="fill:#e1c2ab; stroke:none;" d="M88 228L88 231L89 231L88 228z"/>
<path style="fill:#644c34; stroke:none;" d="M134 228C133.278 233.713 131.718 246.562 137 250C136.017 247.05 135.513 246.378 138 247L134 228z"/>
<path style="fill:#ff5555; stroke:none;" d="M290.333 228.667L290.667 229.333L290.333 228.667z"/>
<path style="fill:#ff7272; stroke:none;" d="M296 228L296 231L297 231L296 228z"/>
<path style="fill:#877b71; stroke:none;" d="M316.333 228.667L316.667 229.333L316.333 228.667z"/>
<path style="fill:#996c07; stroke:none;" d="M329 228L329 232L330 232L329 228z"/>
<path style="fill:#ffffff; stroke:none;" d="M0 229L0 278L41 278L41 277C13.943 272.944 9.68908 249.155 0 229z"/>
<path style="fill:#f1b18a; stroke:none;" d="M7 229L7 232L8 232L7 229z"/>
<path style="fill:#a38671; stroke:none;" d="M37 229L36 233L40 239L41 239L39 229L37 229z"/>
<path style="fill:#756d6b; stroke:none;" d="M120 229L120 233L121 233L120 229z"/>
<path style="fill:#fe8e8e; stroke:none;" d="M202 229L202 232L203 232L202 229z"/>
<path style="fill:#f1b18a; stroke:none;" d="M300.333 229.667L300.667 230.333L300.333 229.667z"/>
<path style="fill:#996c07; stroke:none;" d="M316 230L315 244L316 244L316 230z"/>
<path style="fill:#3a281d; stroke:none;" d="M374 230C371.828 237.347 373.296 245.395 377 252L378 252L374 230z"/>
<path style="fill:#fe8e8e; stroke:none;" d="M394 230L394 233L395 233L394 230z"/>
<path style="fill:#ff5555; stroke:none;" d="M1 231L1 234L2 234L1 231z"/>
<path style="fill:#6e5a4b; stroke:none;" d="M31 231L31 236L32 236L31 231z"/>
<path style="fill:#ff3636; stroke:none;" d="M88.3333 231.667L88.6667 232.333L88.3333 231.667z"/>
<path style="fill:#ff5555; stroke:none;" d="M94.3333 231.667L94.6667 232.333L94.3333 231.667z"/>
<path style="fill:#afadab; stroke:none;" d="M274.333 231.667L274.667 232.333L274.333 231.667z"/>
<path style="fill:#544f4c; stroke:none;" d="M330 231L331 237L332 237L330 231z"/>
<path style="fill:#8e6e57; stroke:none;" d="M72.3333 232.667L72.6667 233.333L72.3333 232.667z"/>
<path style="fill:#513425; stroke:none;" d="M177 232L174 248C179.335 243.456 180.35 238.167 177 232z"/>
<path style="fill:#fe8e8e; stroke:none;" d="M209 232L209 235L210 235L209 232z"/>
<path style="fill:#ff7272; stroke:none;" d="M307.333 232.667L307.667 233.333L307.333 232.667z"/>
<path style="fill:#cdbaac; stroke:none;" d="M315 232L315 235L316 235L315 232z"/>
<path style="fill:#644c34; stroke:none;" d="M120 233L120 240L121 240L120 233z"/>
<path style="fill:#ff5555; stroke:none;" d="M289.333 233.667L289.667 234.333L289.333 233.667z"/>
<path style="fill:#513425; stroke:none;" d="M382 233L386 258L387 258L382 233z"/>
<path style="fill:#996c07; stroke:none;" d="M190 234L190 238L191 238L190 234z"/>
<path style="fill:#ff7272; stroke:none;" d="M203 234L203 237L204 237L203 234z"/>
<path style="fill:#fe8e8e; stroke:none;" d="M301.333 234.667L301.667 235.333L301.333 234.667z"/>
<path style="fill:#877b71; stroke:none;" d="M372 234L372 241L373 241L372 234z"/>
<path style="fill:#ff7272; stroke:none;" d="M8.33333 235.667L8.66667 236.333L8.33333 235.667z"/>
<path style="fill:#cdbaac; stroke:none;" d="M21.3333 235.667L21.6667 236.333L21.3333 235.667z"/>
<path style="fill:#ff7272; stroke:none;" d="M87.3333 235.667L87.6667 236.333L87.3333 235.667z"/>
<path style="fill:#cdbaac; stroke:none;" d="M227.333 235.667L227.667 236.333L227.333 235.667z"/>
<path style="fill:#fe8e8e; stroke:none;" d="M295.333 235.667L295.667 236.333L295.333 235.667M393.333 235.667L393.667 236.333L393.333 235.667M2.33333 237.667L2.66667 238.333L2.33333 237.667z"/>
<path style="fill:#6e5a4b; stroke:none;" d="M94 237L94 240L95 240L94 237z"/>
<path style="fill:#ff5555; stroke:none;" d="M210.333 237.667L210.667 238.333L210.333 237.667M288.333 237.667L288.667 238.333L288.333 237.667z"/>
<path style="fill:#cdbaac; stroke:none;" d="M11.6667 238.333L12.3333 238.667L11.6667 238.333z"/>
<path style="fill:#99928d; stroke:none;" d="M22 238L22 244L23 244L22 238z"/>
<path style="fill:#996c07; stroke:none;" d="M327 238L327 242L328 242L327 238z"/>
<path style="fill:#756d6b; stroke:none;" d="M11 239L11 242L12 242L11 239z"/>
<path style="fill:#a38671; stroke:none;" d="M41 239L43 242L41 239z"/>
<path style="fill:#644c34; stroke:none;" d="M144 239C146.399 245.994 152.815 249.542 160 248L160 247C152.73 246.829 149.292 243.519 144 239z"/>
<path style="fill:#e1c2ab; stroke:none;" d="M204.333 239.667L204.667 240.333L204.333 239.667z"/>
<path style="fill:#f1b18a; stroke:none;" d="M294.333 239.667L294.667 240.333L294.333 239.667z"/>
<path style="fill:#e1c2ab; stroke:none;" d="M314 239L314 246L315 246L314 239z"/>
<path style="fill:#6e5a4b; stroke:none;" d="M343 239L343 240L350 242L350 241L343 239M119 240L122 254L123 254L119 240M269 240L260 249L260 250C264.272 248.547 270.027 245.121 269 240z"/>
<path style="fill:#ff3636; stroke:none;" d="M309.333 240.667L309.667 241.333L309.333 240.667z"/>
<path style="fill:#72510a; stroke:none;" d="M180 241L180 248L181 248L180 241z"/>
<path style="fill:#877b71; stroke:none;" d="M349 242L349 243L354 243L349 242z"/>
<path style="fill:#ffffff; stroke:none;" d="M372 241C359.843 255.651 346.83 252.417 333 243C331.263 247.407 322.969 257.487 324.331 261.815C325.979 267.05 336.305 269.804 341 270.56C351.813 272.301 374.437 268.429 377.173 255C377.953 251.171 374.021 244.21 372 241z"/>
<path style="fill:#f1b18a; stroke:none;" d="M10 242L11 245L12 245L12 242L10 242M205.333 242.667L205.667 243.333L205.333 242.667z"/>
<path style="fill:#756d6b; stroke:none;" d="M373.333 242.667L373.667 243.333L373.333 242.667z"/>
<path style="fill:#99928d; stroke:none;" d="M93.3333 243.667L93.6667 244.333L93.3333 243.667M332.333 243.667L332.667 244.333L332.333 243.667z"/>
<path style="fill:#544f4c; stroke:none;" d="M334 243L335 244L334 243z"/>
<path style="fill:#99928d; stroke:none;" d="M16 244L17 245L16 244z"/>
<path style="fill:#644c34; stroke:none;" d="M315 244L315 249L316 249L315 244z"/>
<path style="fill:#544f4c; stroke:none;" d="M335 244L336 245L335 244z"/>
<path style="fill:#756d6b; stroke:none;" d="M368 244L369 245L368 244z"/>
<path style="fill:#a38671; stroke:none;" d="M12.3333 245.667L12.6667 246.333L12.3333 245.667z"/>
<path style="fill:#afadab; stroke:none;" d="M21 245L22 246L21 245z"/>
<path style="fill:#6e5a4b; stroke:none;" d="M191 245L191 250L192 250L191 245z"/>
<path style="fill:#756d6b; stroke:none;" d="M336 245L342 249L342 248L336 245z"/>
<path style="fill:#cdbaac; stroke:none;" d="M18 246L18 247L21 247L18 246M92.3333 247.667L92.6667 248.333L92.3333 247.667z"/>
<path style="fill:#72510a; stroke:none;" d="M138 247L142 255L145 254L151 257L151 256L138 247z"/>
<path style="fill:#ff7272; stroke:none;" d="M305 247L306 248L305 247z"/>
<path style="fill:#996c07; stroke:none;" d="M168 252L168 253L175 248L168 252z"/>
<path style="fill:#877b71; stroke:none;" d="M362.667 248.333L363.333 248.667L362.667 248.333M91 249L92 250L91 249z"/>
<path style="fill:#a38671; stroke:none;" d="M254 249L254 250L261 251L254 249z"/>
<path style="fill:#756d6b; stroke:none;" d="M315 249L315 253L316 253L315 249z"/>
<path style="fill:#99928d; stroke:none;" d="M330 249L331 250L330 249z"/>
<path style="fill:#6e5a4b; stroke:none;" d="M342.667 249.333L343.333 249.667L342.667 249.333z"/>
<path style="fill:#877b71; stroke:none;" d="M360.667 249.333L361.333 249.667L360.667 249.333z"/>
<path style="fill:#99928d; stroke:none;" d="M375 249L376 250L375 249z"/>
<path style="fill:#877b71; stroke:none;" d="M192 250L193 254L194 254L192 250z"/>
<path style="fill:#6e5a4b; stroke:none;" d="M244 251L244 252L259 251L244 251M345 250L345 251L348 251L345 250z"/>
<path style="fill:#756d6b; stroke:none;" d="M356 250L356 251L359 251L356 250z"/>
<path style="fill:#72510a; stroke:none;" d="M378 250L378 255L379 255L378 250z"/>
<path style="fill:#99928d; stroke:none;" d="M90 251L91 252L90 251z"/>
<path style="fill:#ff7272; stroke:none;" d="M216 251L217 252L216 251z"/>
<path style="fill:#cdbaac; stroke:none;" d="M257.667 251.333L258.333 251.667L257.667 251.333z"/>
<path style="fill:#fe8e8e; stroke:none;" d="M282 251L283 252L282 251z"/>
<path style="fill:#877b71; stroke:none;" d="M349 251L349 252L355 252L349 251z"/>
<path style="fill:#99928d; stroke:none;" d="M89 252L90 253L89 252z"/>
<path style="fill:#3a281d; stroke:none;" d="M140 252L143 254L140 252z"/>
<path style="fill:#99928d; stroke:none;" d="M246.667 252.333L247.333 252.667L246.667 252.333z"/>
<path style="fill:#e1c2ab; stroke:none;" d="M252 252L252 253L257 253L252 252z"/>
<path style="fill:#ffffff; stroke:none;" d="M20 257C29.5124 276.964 67.7674 275.387 77 256C58.9392 251.7 38.2999 254.687 20 257z"/>
<path style="fill:#644c34; stroke:none;" d="M165 260L164 256L169 256L168 253C164.644 254.234 161.593 256.974 165 260z"/>
<path style="fill:#ff7272; stroke:none;" d="M308 253L309 254L308 253z"/>
<path style="fill:#411901; stroke:none;" d="M315 253L315 259L316 259L315 253z"/>
<path style="fill:#513425; stroke:none;" d="M382 253L384 258L385 258L382 253z"/>
<path style="fill:#ff7272; stroke:none;" d="M9 254L10 255L9 254z"/>
<path style="fill:#513425; stroke:none;" d="M26 254L26 255L43 255L26 254z"/>
<path style="fill:#afadab; stroke:none;" d="M47 254L47 255L55 255L47 254M61 254L61 255L73 255L61 254z"/>
<path style="fill:#513425; stroke:none;" d="M73 254L73 255L79 255L73 254z"/>
<path style="fill:#810901; stroke:none;" d="M82 254L82 255L87 255L82 254z"/>
<path style="fill:#6e5a4b; stroke:none;" d="M123 254L123 259L124 259L123 254z"/>
<path style="fill:#544f4c; stroke:none;" d="M193 254L193 259L194 259L193 254z"/>
<path style="fill:#ff7272; stroke:none;" d="M218 254L219 255L218 254z"/>
<path style="fill:#fe8e8e; stroke:none;" d="M280 254L281 255L280 254z"/>
<path style="fill:#810901; stroke:none;" d="M379 254L383 259L379 254z"/>
<path style="fill:#99928d; stroke:none;" d="M390.333 254.667L390.667 255.333L390.333 254.667z"/>
<path style="fill:#644c34; stroke:none;" d="M16 255L16 256L25 256L16 255z"/>
<path style="fill:#99928d; stroke:none;" d="M25 255L25 256L31 256L25 255z"/>
<path style="fill:#cdbaac; stroke:none;" d="M31 255L31 256L42 256L31 255z"/>
<path style="fill:#e1c2ab; stroke:none;" d="M75 255L75 256L78 257L75 255z"/>
<path style="fill:#ff0101; stroke:none;" d="M378 255C363.93 270.773 338.486 280.065 323 260C312.045 268.793 333.792 276.106 341 276.829C358.488 278.585 370.868 272.124 383 260L383 259L378 255z"/>
<path style="fill:#996c07; stroke:none;" d="M387 255L386 258L383 257L388 263L385 259C387.649 258.432 388.355 257.412 387 255z"/>
<path style="fill:#e1c2ab; stroke:none;" d="M18 256L18 257L24 257L18 256z"/>
<path style="fill:#afadab; stroke:none;" d="M122.333 256.667L122.667 257.333L122.333 256.667z"/>
<path style="fill:#513425; stroke:none;" d="M390 256L390 261L391 261L390 256z"/>
<path style="fill:#ff7272; stroke:none;" d="M84 257L85 258L84 257z"/>
<path style="fill:#1a1510; stroke:none;" d="M150.333 257.667L150.667 258.333L150.333 257.667z"/>
<path style="fill:#6e5a4b; stroke:none;" d="M151 257L160 259L160 258L151 257z"/>
<path style="fill:#99928d; stroke:none;" d="M162 257L160 258L160 259L162 257M325 257L326 258L325 257z"/>
<path style="fill:#3a281d; stroke:none;" d="M129 258L129 259L134 259L129 258z"/>
<path style="fill:#6e5a4b; stroke:none;" d="M134 258L134 259L142 259L134 258z"/>
<path style="fill:#756d6b; stroke:none;" d="M146 259L146 260L151 260L146 259z"/>
<path style="fill:#513425; stroke:none;" d="M175 258L175 259L178 259L175 258z"/>
<path style="fill:#877b71; stroke:none;" d="M178 258L178 259L182 259L178 258z"/>
<path style="fill:#6e5a4b; stroke:none;" d="M182 258L182 259L186 259L182 258M323 258L323 260L325 258L323 258z"/>
<path style="fill:#644c34; stroke:none;" d="M124 259L124 260L128 260L124 259z"/>
<path style="fill:#877b71; stroke:none;" d="M128 259L128 260L131 260L128 259z"/>
<path style="fill:#99928d; stroke:none;" d="M142 259L142 260L146 260L142 259z"/>
<path style="fill:#644c34; stroke:none;" d="M171 259L171 260L175 260L171 259z"/>
<path style="fill:#99928d; stroke:none;" d="M185.667 259.333L186.333 259.667L185.667 259.333z"/>
<path style="fill:#644c34; stroke:none;" d="M187 259L187 260L193 260L187 259z"/>
<path style="fill:#ff7272; stroke:none;" d="M214 259L215 260L214 259M284 259L285 260L284 259z"/>
<path style="fill:#fe8e8e; stroke:none;" d="M312 259L313 260L312 259z"/>
<path style="fill:#996c07; stroke:none;" d="M315 259L315 264L316 264L315 259z"/>
<path style="fill:#ff7272; stroke:none;" d="M374 259L375 260L374 259z"/>
<path style="fill:#3a281d; stroke:none;" d="M383 259L384 260L383 259z"/>
<path style="fill:#afadab; stroke:none;" d="M164 260L164 261L167 261L164 260z"/>
<path style="fill:#1a1510; stroke:none;" d="M167 260L167 261L170 261L167 260z"/>
<path style="fill:#e1c2ab; stroke:none;" d="M189 260L189 261L193 261L189 260z"/>
<path style="fill:#ff7272; stroke:none;" d="M373 260L374 261L373 260z"/>
<path style="fill:#99928d; stroke:none;" d="M391.333 260.667L391.667 261.333L391.333 260.667z"/>
<path style="fill:#fe8e8e; stroke:none;" d="M14 261L15 262L14 261M81 261L82 262L81 261z"/>
<path style="fill:#303030; stroke:none;" d="M314 261L315 266L319 265L319 264L314 261z"/>
<path style="fill:#d19724; stroke:none;" d="M390 261L388 263L388 264C390.251 263.527 391.118 263.14 390 261z"/>
<path style="fill:#ff7272; stroke:none;" d="M15 262L16 263L15 262z"/>
<path style="fill:#fe8e8e; stroke:none;" d="M71 262L72 263L71 262z"/>
<path style="fill:#ff7272; stroke:none;" d="M80 262L81 263L80 262z"/>
<path style="fill:#303030; stroke:none;" d="M391.333 262.667L391.667 263.333L391.333 262.667z"/>
<path style="fill:#ff7272; stroke:none;" d="M79 263L80 264L79 263z"/>
<path style="fill:#99928d; stroke:none;" d="M387 263L388 264L387 263z"/>
<path style="fill:#ff7272; stroke:none;" d="M228 264L229 265L228 264M270 264L271 265L270 264z"/>
<path style="fill:#fe8e8e; stroke:none;" d="M368 264L369 265L368 264z"/>
<path style="fill:#1a1510; stroke:none;" d="M389.667 264.333L390.333 264.667L389.667 264.333z"/>
<path style="fill:#afadab; stroke:none;" d="M391 264L392 265L391 264z"/>
<path style="fill:#fe8e8e; stroke:none;" d="M28 265L29 266L28 265M67 265L68 266L67 265z"/>
<path style="fill:#ff7272; stroke:none;" d="M19 266L20 267L19 266M76 266L77 267L76 266M231 266L232 267L231 266M267 266L268 267L267 266z"/>
<path style="fill:#fe8e8e; stroke:none;" d="M365 266L366 267L365 266M20 267L21 268L20 267M233 267L234 268L233 267M265 267L266 268L265 267z"/>
<path style="fill:#ff7272; stroke:none;" d="M331 267L332 268L331 267M223 268L224 269L223 268z"/>
<path style="fill:#fe8e8e; stroke:none;" d="M263 268L264 269L263 268z"/>
<path style="fill:#ff7272; stroke:none;" d="M321 268L322 269L321 268M333 268L334 269L333 268z"/>
<path style="fill:#fe8e8e; stroke:none;" d="M361 268L362 269L361 268z"/>
<path style="fill:#ff5555; stroke:none;" d="M260.667 269.333L261.333 269.667L260.667 269.333z"/>
<path style="fill:#fe8e8e; stroke:none;" d="M372 269L373 270L372 269M24 270L25 271L24 270M39.6667 270.333L40.3333 270.667L39.6667 270.333z"/>
<path style="fill:#ff5555; stroke:none;" d="M55.6667 270.333L56.3333 270.667L55.6667 270.333z"/>
<path style="fill:#f1b18a; stroke:none;" d="M241.667 270.333L242.333 270.667L241.667 270.333z"/>
<path style="fill:#fe8e8e; stroke:none;" d="M256.667 270.333L257.333 270.667L256.667 270.333z"/>
<path style="fill:#f1b18a; stroke:none;" d="M339.667 270.333L340.333 270.667L339.667 270.333z"/>
<path style="fill:#fe8e8e; stroke:none;" d="M354.667 270.333L355.333 270.667L354.667 270.333z"/>
<path style="fill:#ff7272; stroke:none;" d="M43 271L43 272L51 272L43 271M245 271L245 272L252 272L245 271M343 271L343 272L352 272L343 271z"/>
<path style="fill:#fe8e8e; stroke:none;" d="M369 271L370 272L369 271z"/>
<path style="fill:#ff7272; stroke:none;" d="M229 272L230 273L229 272M269 272L270 273L269 272z"/>
<path style="fill:#fe8e8e; stroke:none;" d="M327 272L328 273L327 272z"/>
<path style="fill:#ff7272; stroke:none;" d="M367 272L368 273L367 272M231 273L232 274L231 273M267 273L268 274L267 273z"/>
<path style="fill:#fe8e8e; stroke:none;" d="M329 273L330 274L329 273z"/>
<path style="fill:#ff3636; stroke:none;" d="M34.6667 275.333L35.3333 275.667L34.6667 275.333z"/>
<path style="fill:#f1b18a; stroke:none;" d="M360.667 275.333L361.333 275.667L360.667 275.333z"/>
<path style="fill:#ff7272; stroke:none;" d="M37.6667 276.333L38.3333 276.667L37.6667 276.333M56.6667 276.333L57.3333 276.667L56.6667 276.333z"/>
<path style="fill:#ff5555; stroke:none;" d="M239.667 276.333L240.333 276.667L239.667 276.333z"/>
<path style="fill:#fe8e8e; stroke:none;" d="M258.667 276.333L259.333 276.667L258.667 276.333z"/>
<path style="fill:#ff5555; stroke:none;" d="M337.667 276.333L338.333 276.667L337.667 276.333z"/>
<path style="fill:#fe8e8e; stroke:none;" d="M356.667 276.333L357.333 276.667L356.667 276.333z"/>
<path style="fill:#ff5555; stroke:none;" d="M41 277L41 278L54 278L41 277M243 277L243 278L253 278L243 277z"/>
<path style="fill:#fe8e8e; stroke:none;" d="M253 277L253 278L256 278L253 277z"/>
<path style="fill:#ff5555; stroke:none;" d="M341 277L341 278L351 278L341 277z"/>
<path style="fill:#fe8e8e; stroke:none;" d="M351 277L351 278L354 278L351 277z"/>
</svg>
