<?xml version="1.0" encoding="UTF-8" standalone="no"?>
<!-- Created with Inkscape (http://www.inkscape.org/) -->

<svg
   xmlns:dc="http://purl.org/dc/elements/1.1/"
   xmlns:cc="http://creativecommons.org/ns#"
   xmlns:rdf="http://www.w3.org/1999/02/22-rdf-syntax-ns#"
   xmlns:svg="http://www.w3.org/2000/svg"
   xmlns="http://www.w3.org/2000/svg"
   xmlns:xlink="http://www.w3.org/1999/xlink"
   xmlns:sodipodi="http://sodipodi.sourceforge.net/DTD/sodipodi-0.dtd"
   xmlns:inkscape="http://www.inkscape.org/namespaces/inkscape"
   width="744.09448"
   height="1052.3622"
   id="svg2"
   version="1.1"
   inkscape:version="0.48+devel r12830"
   viewBox="0 0 744.09448 1052.3622"
   sodipodi:docname="clip art icone detetive.svg">
  <defs
     id="defs4" />
  <sodipodi:namedview
     id="base"
     pagecolor="#ffffff"
     bordercolor="#666666"
     borderopacity="1.0"
     inkscape:pageopacity="0.0"
     inkscape:pageshadow="2"
     inkscape:zoom="0.49547396"
     inkscape:cx="375"
     inkscape:cy="462.56927"
     inkscape:document-units="px"
     inkscape:current-layer="layer1"
     showgrid="false"
     inkscape:window-width="1024"
     inkscape:window-height="712"
     inkscape:window-x="-4"
     inkscape:window-y="-4"
     inkscape:window-maximized="1" />
  <metadata
     id="metadata7">
    <rdf:RDF>
      <cc:Work
         rdf:about="">
        <dc:format>image/svg+xml</dc:format>
        <dc:type
           rdf:resource="http://purl.org/dc/dcmitype/StillImage" />
        <dc:title></dc:title>
      </cc:Work>
    </rdf:RDF>
  </metadata>
  <g
     inkscape:label="Layer 1"
     inkscape:groupmode="layer"
     id="layer1">
    <g
       id="g4449"
       transform="matrix(0.59375781,0,0,0.59375781,-135.51426,-127.93626)">
      <g
         transform="matrix(0.95416941,0,0,0.95416941,4.834582,82.130605)"
         inkscape:export-ydpi="90"
         inkscape:export-xdpi="90"
         id="g3493">
        <g
           id="g3332"
           transform="matrix(0.29552571,0,0,0.29552571,681.48976,107.01788)">
          <path
             inkscape:connector-curvature="0"
             style="fill:#000000;fill-opacity:1;stroke:none"
             d="m 761.83594,691.55078 -257.37696,240.45899 -343.99414,-75.70313 149.1543,319.08596 -178.29687,303.7656 94.52148,-11.6953 a 490.40585,342.66852 0 0 0 -4.23828,42.4746 490.40585,342.66852 0 0 0 490.40625,342.668 490.40585,342.66852 0 0 0 490.40628,-342.668 490.40585,342.66852 0 0 0 -176.4414,-263.1309 l 78.3867,-34.2285 -308.22268,-170.4746 -34.30468,-350.55272 z"
             id="path3334" />
          <ellipse
             style="fill:#ffffff;fill-opacity:1;stroke:none"
             id="ellipse3336"
             cx="993.12317"
             cy="1392.9788"
             rx="57.453407"
             ry="77.972481"
             d="m 1050.5766,1392.9788 a 57.453407,77.972481 0 0 1 -57.45343,77.9724 57.453407,77.972481 0 0 1 -57.45341,-77.9724 57.453407,77.972481 0 0 1 57.45341,-77.9725 57.453407,77.972481 0 0 1 57.45343,77.9725 z" />
          <path
             style="fill:#ffffff;stroke:#000000;stroke-width:1px;stroke-linecap:butt;stroke-linejoin:miter;stroke-opacity:1"
             d="m 1091.6147,1602.2733 c -68.3969,12.2896 -136.79382,26.9932 -205.19073,-77.9724"
             id="path3338"
             inkscape:connector-curvature="0"
             sodipodi:nodetypes="cc" />
          <path
             style="fill:#000000;stroke:#000000;stroke-width:1px;stroke-linecap:butt;stroke-linejoin:miter;stroke-opacity:1"
             d="m 250.33269,1454.536 c -14.25873,31.4163 -130.36594,106.7158 8.20764,160.0488"
             id="path3340"
             inkscape:connector-curvature="0"
             sodipodi:nodetypes="cc" />
          <ellipse
             style="opacity:0.71399997;fill:#000000;fill-opacity:1;stroke:none"
             id="ellipse3342"
             cx="960.18884"
             cy="1364.2521"
             rx="24.622889"
             ry="28.726704"
             d="m 984.81173,1364.2521 a 24.622889,28.726704 0 0 1 -24.62289,28.7267 24.622889,28.726704 0 0 1 -24.62289,-28.7267 24.622889,28.726704 0 0 1 24.62289,-28.7267 24.622889,28.726704 0 0 1 24.62289,28.7267 z" />
          <path
             style="fill:#000000;stroke:#000000;stroke-width:1px;stroke-linecap:butt;stroke-linejoin:miter;stroke-opacity:1"
             d="m 1144.9643,1417.6017 69.7648,-41.0382 -32.8305,110.803"
             id="path3344"
             inkscape:connector-curvature="0" />
          <rect
             style="fill:#000000;fill-opacity:1;stroke:none"
             id="rect3346"
             width="98.491554"
             height="135.42589"
             x="570.43024"
             y="1799.2565" />
          <path
             style="fill:#000000;stroke:#000000;stroke-width:1px;stroke-linecap:butt;stroke-linejoin:miter;stroke-opacity:1"
             d="M 504.76921,1860.8137 488.35395,2008.551 812.55531,2127.5616 718.16757,1918.2671 582.74169,1897.748 Z"
             id="path3348"
             inkscape:connector-curvature="0" />
          <path
             style="fill:#000000;stroke:#000000;stroke-width:1px;stroke-linecap:butt;stroke-linejoin:miter;stroke-opacity:1"
             d="m 722.27139,1942.89 110.80299,106.6991 -143.63351,-45.1419"
             id="path3350"
             inkscape:connector-curvature="0"
             sodipodi:nodetypes="ccc" />
        </g>
        <path
           inkscape:connector-curvature="0"
           id="path3352"
           d="m 834.30039,698.17078 -35.1707,93.38427 116.42714,4.85114 -20.6173,-83.68204 z"
           style="fill:#000000;stroke:#000000;stroke-width:0.2955257px;stroke-linecap:butt;stroke-linejoin:miter;stroke-opacity:1" />
        <path
           inkscape:connector-curvature="0"
           id="path3354"
           d="m 857.34326,775.78887 38.80905,31.53235 -23.04288,18.19174 44.87297,-7.2767 -52.14966,21.8301 6.06391,-23.04288 12.12783,-9.70226 -26.68122,-20.61732 0,-6.06389 3.63835,0 3.63835,1.21278"
           style="fill:#000000;stroke:#000000;stroke-width:0.2955257px;stroke-linecap:butt;stroke-linejoin:miter;stroke-opacity:1" />
        <path
           style="fill:#000000;stroke:#000000;stroke-width:0.2955257px;stroke-linecap:butt;stroke-linejoin:miter;stroke-opacity:1"
           d="m 837.88746,759.76685 16.08088,47.34804 -29.18977,3.1417 41.86516,17.71556 -55.77001,-9.2653 17.3952,-16.28349 15.43097,-1.7616 -11.62025,-31.65332 3.22656,-5.13419 3.08053,1.93596 2.43523,2.96276"
           id="path3356"
           inkscape:connector-curvature="0" />
        <path
           sodipodi:nodetypes="cccccccc"
           inkscape:connector-curvature="0"
           id="path3358"
           d="m 848.85378,720.00085 -50.93688,-12.12781 24.25566,54.57521 -7.2767,-40.02181 31.53235,13.34059 2.42557,-10.91503 4.85113,-3.63834 z"
           style="fill:#000000;stroke:#000000;stroke-width:0.2955257px;stroke-linecap:butt;stroke-linejoin:miter;stroke-opacity:1" />
        <path
           inkscape:connector-curvature="0"
           id="path3360"
           d="m 880.3531,740.81887 37.62981,20.47059 36.41596,-20.47059 -4.85549,-8.77313 -27.91888,16.81512 -33.98821,-14.62184 -2.42773,8.04202 0,0.7311"
           style="fill:#000000;stroke:#000000;stroke-width:0.2295533px;stroke-linecap:butt;stroke-linejoin:miter;stroke-opacity:1" />
        <g
           transform="matrix(0.57347893,0.09734535,-0.21820071,0.52306296,857.04928,-546.10456)"
           id="g3362">
          <path
             style="fill:#999999;fill-opacity:1;stroke:#000000;stroke-width:6;stroke-linecap:round;stroke-miterlimit:4;stroke-opacity:1;stroke-dashoffset:0"
             d="m 1007.4704,2130.8883 c 13.6794,14.5161 38.2543,0 38.2543,0 l 2.7838,132.5701 c -12.7523,6.5182 -26.0151,9.381 -41.0381,0 z"
             id="path3364"
             inkscape:connector-curvature="0"
             sodipodi:nodetypes="ccccc" />
          <circle
             style="opacity:0.65700001;fill:#e6e6e6;fill-opacity:1;stroke:#000000;stroke-width:6;stroke-miterlimit:4;stroke-dasharray:none"
             id="circle3366"
             cx="1030.0575"
             cy="2066.0044"
             r="69.764847"
             d="m 1099.8223,2066.0044 a 69.764847,69.764847 0 0 1 -69.7648,69.7648 69.764847,69.764847 0 0 1 -69.76485,-69.7648 69.764847,69.764847 0 0 1 69.76485,-69.7649 69.764847,69.764847 0 0 1 69.7648,69.7649 z" />
          <path
             style="fill:#ffffff;stroke:none"
             d="m 1005.7221,2010.4255 c 8.7983,-3.1255 4.4675,-0.8014 7.3321,-3.6661 0.5248,-0.5248 3.974,0 4.8881,0 5.6477,0 18.282,-2.4682 23.2183,0 5.5956,2.7978 13.0545,2.0563 17.1083,6.1101 1.2583,1.2583 8.2091,7.6771 7.9431,7.9432 -0.1723,0.1722 -13.8127,-6.4806 -15.8862,-8.5542 -0.6168,-0.6168 -4.5622,0 -5.4991,0 -5.7911,0 -33.2016,2.0754 -36.6606,0 -4.4512,-2.6707 -0.3549,-1.3107 -4.8881,-2.444"
             id="path3368"
             inkscape:connector-curvature="0" />
          <path
             style="fill:#ffffff;stroke:none"
             d="m 1080.8763,2036.0879 c -3.7581,0.4368 -6.5682,4.2465 -9.7762,4.8881 -16.1397,3.2279 -25.9848,8.1225 -44.6037,13.4422 -6.5384,1.8681 -13.4422,5.7823 -13.4422,5.4991 0,-3.554 16.955,-1.6798 15.2752,0 -1.0569,1.057 -4.8072,2.0097 -6.1101,2.444 -1.9189,0.6397 -4.7184,3.5813 -6.1101,4.2771 -9.35,4.675 -19.29842,5.4238 -25.05136,14.0532 -0.62098,0.9315 -4.88808,2.5184 -4.88808,3.6661 0,1.0183 2.55311,1.7239 1.83303,2.444 -2.73589,2.7359 -12.83121,8.397 -12.83121,9.1652 0,0.1526 5.89668,-0.2135 6.1101,0 0.83975,0.8397 1.83303,4.2426 1.83303,3.055 0,-0.746 3.53163,-6.2445 4.27707,-5.4991 1.26724,1.2673 -3.89483,3.5126 -4.27707,4.2771 -0.98522,1.9704 -3.66606,7.7021 -3.66606,5.4991 0,-6.1116 11.9281,-10.0951 14.66423,-12.8312 2.12845,-2.1285 -3.2454,4.4674 -2.44403,3.666 3.81725,-3.8172 12.49555,-6.09 17.10825,-9.1651 1.1374,-0.7583 6.2911,-6.5401 7.3321,-5.4991 0.6219,0.6218 -1.4405,1.4406 -1.833,1.833 -0.611,0.611 -1.222,2.4441 -1.833,1.833 -1.0089,-1.0089 2.4566,-3.6786 3.055,-4.277 4.1329,-4.1329 4.6663,-3.4443 7.9432,-6.7211 1.8045,-1.8045 8.5256,-5.4706 6.7211,-3.6661 -0.4074,0.4074 -1.2221,1.7981 -1.2221,1.222 0,-1.5297 1.6549,-3.4369 3.0551,-4.277 3.6427,-2.1857 7.3519,-1.2352 10.9982,-3.6661 0.5359,-0.3573 2.4771,-0.611 1.833,-0.611 -5.8439,0 -12.6761,1.9333 -2.444,-4.8881 1.9623,-1.3082 22.5773,-2.444 25.6624,-2.444 3.9508,0 3.9883,-2.4441 7.9431,-2.4441 0.8147,0 3.2587,0 2.444,0 -3.191,0 -1.5307,-3.0485 -0.611,-4.888 1.3086,-2.6172 3.6661,-3.8948 3.6661,-7.9432"
             id="path3370"
             inkscape:connector-curvature="0" />
        </g>
        <ellipse
           ry="7.8155785"
           rx="5.9645205"
           cy="736.3999"
           cx="951.94989"
           id="ellipse3372"
           style="fill:#000000;fill-opacity:1;stroke:none"
           d="m 957.91441,736.3999 a 5.9645205,7.8155785 0 0 1 -5.96452,7.81558 5.9645205,7.8155785 0 0 1 -5.96452,-7.81558 5.9645205,7.8155785 0 0 1 5.96452,-7.81558 5.9645205,7.8155785 0 0 1 5.96452,7.81558 z" />
        <g
           style="fill:#999999;stroke:none"
           transform="matrix(0.31824301,0,-0.13657673,0.0344902,1041.4052,756.04344)"
           id="g3374">
          <g
             style="fill:#999999;stroke:none"
             id="g3376">
            <path
               inkscape:connector-curvature="0"
               style="fill:#999999;fill-opacity:1;stroke:none"
               d="m 761.83594,691.55078 -257.37696,240.45899 -343.99414,-75.70313 149.1543,319.08596 -178.29687,303.7656 94.52148,-11.6953 a 490.40585,342.66852 0 0 0 -4.23828,42.4746 490.40585,342.66852 0 0 0 490.40625,342.668 490.40585,342.66852 0 0 0 490.40628,-342.668 490.40585,342.66852 0 0 0 -176.4414,-263.1309 l 78.3867,-34.2285 -308.22268,-170.4746 -34.30468,-350.55272 z"
               id="path3378" />
            <ellipse
               style="fill:#999999;fill-opacity:1;stroke:none"
               id="ellipse3380"
               cx="993.12317"
               cy="1392.9788"
               rx="57.453407"
               ry="77.972481"
               d="m 1050.5766,1392.9788 a 57.453407,77.972481 0 0 1 -57.45343,77.9724 57.453407,77.972481 0 0 1 -57.45341,-77.9724 57.453407,77.972481 0 0 1 57.45341,-77.9725 57.453407,77.972481 0 0 1 57.45343,77.9725 z" />
            <path
               style="fill:#999999;stroke:none"
               d="m 1091.6147,1602.2733 c -68.3969,12.2896 -136.79382,26.9932 -205.19073,-77.9724"
               id="path3382"
               inkscape:connector-curvature="0"
               sodipodi:nodetypes="cc" />
            <path
               style="fill:#999999;stroke:none"
               d="m 250.33269,1454.536 c -14.25873,31.4163 -130.36594,106.7158 8.20764,160.0488"
               id="path3384"
               inkscape:connector-curvature="0"
               sodipodi:nodetypes="cc" />
            <ellipse
               style="opacity:0.71399997;fill:#999999;fill-opacity:1;stroke:none"
               id="ellipse3386"
               cx="960.18884"
               cy="1364.2521"
               rx="24.622889"
               ry="28.726704"
               d="m 984.81173,1364.2521 a 24.622889,28.726704 0 0 1 -24.62289,28.7267 24.622889,28.726704 0 0 1 -24.62289,-28.7267 24.622889,28.726704 0 0 1 24.62289,-28.7267 24.622889,28.726704 0 0 1 24.62289,28.7267 z" />
            <path
               style="fill:#999999;stroke:none"
               d="m 1144.9643,1417.6017 69.7648,-41.0382 -32.8305,110.803"
               id="path3388"
               inkscape:connector-curvature="0" />
            <rect
               style="fill:#999999;fill-opacity:1;stroke:none"
               id="rect3390"
               width="98.491554"
               height="135.42589"
               x="570.43024"
               y="1799.2565" />
            <path
               style="fill:#999999;stroke:none"
               d="M 504.76921,1860.8137 488.35395,2008.551 812.55531,2127.5616 718.16757,1918.2671 582.74169,1897.748 Z"
               id="path3392"
               inkscape:connector-curvature="0" />
            <path
               style="fill:#999999;stroke:none"
               d="m 722.27139,1942.89 110.80299,106.6991 -143.63351,-45.1419"
               id="path3394"
               inkscape:connector-curvature="0"
               sodipodi:nodetypes="ccc" />
          </g>
          <path
             inkscape:connector-curvature="0"
             id="path3396"
             d="m 517.08065,2000.3434 -119.01062,315.9937 393.96621,16.4153 -69.76485,-283.1633 z"
             style="fill:#999999;stroke:none" />
          <path
             inkscape:connector-curvature="0"
             id="path3398"
             d="m 595.05313,2262.9875 131.32207,106.6992 -77.97248,61.5572 151.84115,-24.6229 -176.46404,73.8687 20.51908,-77.9725 41.03814,-32.8305 -90.28392,-69.7649 0,-20.519 12.31144,0 12.31145,4.1038"
             style="fill:#999999;stroke:none" />
          <path
             style="fill:#999999;stroke:none"
             d="m 529.2186,2208.7722 54.41448,160.2163 -98.77237,10.6309 141.66337,59.9459 -188.7146,-31.3519 58.8619,-55.1001 52.2153,-5.9609 -39.3206,-107.1085 10.91804,-17.3731 10.42391,6.5509 8.24032,10.0254"
             id="path3400"
             inkscape:connector-curvature="0" />
          <path
             sodipodi:nodetypes="cccccccc"
             inkscape:connector-curvature="0"
             id="path3402"
             d="m 566.32643,2074.212 -172.36022,-41.0381 82.0763,184.6716 -24.62289,-135.4258 106.69918,45.1419 8.20763,-36.9343 16.41526,-12.3114 z"
             style="fill:#999999;stroke:none" />
          <path
             inkscape:connector-curvature="0"
             id="path3404"
             d="m 672.91385,2144.656 127.33174,69.2684 123.22434,-69.2684 -16.43,-29.6865 -94.47191,56.899 -115.00932,-49.4774 -8.21495,27.2126 0,2.4739"
             style="fill:#999999;stroke:none" />
          <g
             style="fill:#999999;stroke:none"
             transform="matrix(0.83490258,-0.19290692,0,0.83490258,46.400658,459.03032)"
             id="g3406">
            <path
               style="fill:#999999;fill-opacity:1;stroke:none"
               d="m 1007.4704,2130.8883 c 13.6794,14.5161 38.2543,0 38.2543,0 l 2.7838,132.5701 c -12.7523,6.5182 -26.0151,9.381 -41.0381,0 z"
               id="path3408"
               inkscape:connector-curvature="0"
               sodipodi:nodetypes="ccccc" />
            <circle
               style="opacity:0.65700001;fill:#999999;fill-opacity:1;stroke:none"
               id="circle3410"
               cx="1030.0575"
               cy="2066.0044"
               r="69.764847"
               d="m 1099.8223,2066.0044 a 69.764847,69.764847 0 0 1 -69.7648,69.7648 69.764847,69.764847 0 0 1 -69.76485,-69.7648 69.764847,69.764847 0 0 1 69.76485,-69.7649 69.764847,69.764847 0 0 1 69.7648,69.7649 z" />
            <path
               style="fill:#999999;stroke:none"
               d="m 1005.7221,2010.4255 c 8.7983,-3.1255 4.4675,-0.8014 7.3321,-3.6661 0.5248,-0.5248 3.974,0 4.8881,0 5.6477,0 18.282,-2.4682 23.2183,0 5.5956,2.7978 13.0545,2.0563 17.1083,6.1101 1.2583,1.2583 8.2091,7.6771 7.9431,7.9432 -0.1723,0.1722 -13.8127,-6.4806 -15.8862,-8.5542 -0.6168,-0.6168 -4.5622,0 -5.4991,0 -5.7911,0 -33.2016,2.0754 -36.6606,0 -4.4512,-2.6707 -0.3549,-1.3107 -4.8881,-2.444"
               id="path3412"
               inkscape:connector-curvature="0" />
            <path
               style="fill:#999999;stroke:none"
               d="m 1080.8763,2036.0879 c -3.7581,0.4368 -6.5682,4.2465 -9.7762,4.8881 -16.1397,3.2279 -25.9848,8.1225 -44.6037,13.4422 -6.5384,1.8681 -13.4422,5.7823 -13.4422,5.4991 0,-3.554 16.955,-1.6798 15.2752,0 -1.0569,1.057 -4.8072,2.0097 -6.1101,2.444 -1.9189,0.6397 -4.7184,3.5813 -6.1101,4.2771 -9.35,4.675 -19.29842,5.4238 -25.05136,14.0532 -0.62098,0.9315 -4.88808,2.5184 -4.88808,3.6661 0,1.0183 2.55311,1.7239 1.83303,2.444 -2.73589,2.7359 -12.83121,8.397 -12.83121,9.1652 0,0.1526 5.89668,-0.2135 6.1101,0 0.83975,0.8397 1.83303,4.2426 1.83303,3.055 0,-0.746 3.53163,-6.2445 4.27707,-5.4991 1.26724,1.2673 -3.89483,3.5126 -4.27707,4.2771 -0.98522,1.9704 -3.66606,7.7021 -3.66606,5.4991 0,-6.1116 11.9281,-10.0951 14.66423,-12.8312 2.12845,-2.1285 -3.2454,4.4674 -2.44403,3.666 3.81725,-3.8172 12.49555,-6.09 17.10825,-9.1651 1.1374,-0.7583 6.2911,-6.5401 7.3321,-5.4991 0.6219,0.6218 -1.4405,1.4406 -1.833,1.833 -0.611,0.611 -1.222,2.4441 -1.833,1.833 -1.0089,-1.0089 2.4566,-3.6786 3.055,-4.277 4.1329,-4.1329 4.6663,-3.4443 7.9432,-6.7211 1.8045,-1.8045 8.5256,-5.4706 6.7211,-3.6661 -0.4074,0.4074 -1.2221,1.7981 -1.2221,1.222 0,-1.5297 1.6549,-3.4369 3.0551,-4.277 3.6427,-2.1857 7.3519,-1.2352 10.9982,-3.6661 0.5359,-0.3573 2.4771,-0.611 1.833,-0.611 -5.8439,0 -12.6761,1.9333 -2.444,-4.8881 1.9623,-1.3082 22.5773,-2.444 25.6624,-2.444 3.9508,0 3.9883,-2.4441 7.9431,-2.4441 0.8147,0 3.2587,0 2.444,0 -3.191,0 -1.5307,-3.0485 -0.611,-4.888 1.3086,-2.6172 3.6661,-3.8948 3.6661,-7.9432"
               id="path3414"
               inkscape:connector-curvature="0" />
          </g>
          <ellipse
             ry="26.446358"
             rx="20.182747"
             cy="2129.7031"
             cx="915.18317"
             id="ellipse3416"
             style="fill:#999999;fill-opacity:1;stroke:none"
             d="m 935.36591,2129.7031 a 20.182747,26.446358 0 0 1 -20.18274,26.4464 20.182747,26.446358 0 0 1 -20.18275,-26.4464 20.182747,26.446358 0 0 1 20.18275,-26.4463 20.182747,26.446358 0 0 1 20.18274,26.4463 z" />
        </g>
      </g>
      <g
         id="g4424">
        <g
           id="g4213"
           transform="matrix(4.2591457,0,0,4.2591457,-4292.1452,-1053.0914)">
          <path
             id="path3411"
             d="m 1227.3984,311.04297 a 85.061386,85.061386 0 0 0 -6.7656,0.82226 85.061386,85.061386 0 0 0 -8.2949,1.86133 85.061386,85.061386 0 0 0 -8.0684,2.68164 85.061386,85.061386 0 0 0 -7.7617,3.47266 85.061386,85.061386 0 0 0 -7.375,4.23047 85.061386,85.061386 0 0 0 -6.916,4.94531 85.061386,85.061386 0 0 0 -6.3887,5.61328 85.061386,85.061386 0 0 0 -5.7949,6.2207 85.061386,85.061386 0 0 0 -5.1465,6.76758 85.061386,85.061386 0 0 0 -4.4433,7.25 85.061386,85.061386 0 0 0 -3.6993,7.65625 85.061386,85.061386 0 0 0 -2.916,7.98633 85.061386,85.061386 0 0 0 -2.1035,8.23828 85.061386,85.061386 0 0 0 -1.2695,8.40821 85.061386,85.061386 0 0 0 -0.4258,8.49023 85.061386,85.061386 0 0 0 0.2129,6.01758 85.061386,85.061386 0 0 0 1.0254,8.4414 85.061386,85.061386 0 0 0 1.8613,8.29493 85.061386,85.061386 0 0 0 2.6816,8.07031 85.061386,85.061386 0 0 0 3.4727,7.75976 85.061386,85.061386 0 0 0 4.2305,7.375 85.061386,85.061386 0 0 0 4.9472,6.91602 85.061386,85.061386 0 0 0 5.6114,6.38867 85.061386,85.061386 0 0 0 6.2207,5.79492 85.061386,85.061386 0 0 0 6.7695,5.14649 85.061386,85.061386 0 0 0 7.248,4.44336 85.061386,85.061386 0 0 0 7.6563,3.69922 85.061386,85.061386 0 0 0 7.9863,2.91601 85.061386,85.061386 0 0 0 8.2383,2.10352 85.061386,85.061386 0 0 0 8.4082,1.26953 85.061386,85.061386 0 0 0 0.1836,0.01 85.061386,85.061386 0 0 0 77.3691,-84.64648 85.061386,85.061386 0 0 0 -76.7539,-84.64453 z"
             style="opacity:0.96999996;fill:none;stroke:#000000;stroke-width:0.63865501;stroke-linecap:round;stroke-miterlimit:4;stroke-opacity:1;stroke-dasharray:none;stroke-dashoffset:0"
             inkscape:connector-curvature="0" />
          <path
             id="path3406"
             d="m 1219.0918,310.62695 a 85.061386,85.061386 0 0 0 -85.0625,85.06055 85.061386,85.061386 0 0 0 85.0625,85.0625 85.061386,85.061386 0 0 0 7.6914,-0.41602 85.061386,85.061386 0 0 1 -0.1836,-0.01 85.061386,85.061386 0 0 1 -8.4082,-1.26953 85.061386,85.061386 0 0 1 -8.2383,-2.10352 85.061386,85.061386 0 0 1 -7.9863,-2.91601 85.061386,85.061386 0 0 1 -7.6563,-3.69922 85.061386,85.061386 0 0 1 -7.248,-4.44336 85.061386,85.061386 0 0 1 -6.7695,-5.14649 85.061386,85.061386 0 0 1 -6.2207,-5.79492 85.061386,85.061386 0 0 1 -5.6114,-6.38867 85.061386,85.061386 0 0 1 -4.9472,-6.91602 85.061386,85.061386 0 0 1 -4.2305,-7.375 85.061386,85.061386 0 0 1 -3.4727,-7.75976 85.061386,85.061386 0 0 1 -2.6816,-8.07031 85.061386,85.061386 0 0 1 -1.8613,-8.29493 85.061386,85.061386 0 0 1 -1.0254,-8.4414 85.061386,85.061386 0 0 1 -0.2129,-6.01758 85.061386,85.061386 0 0 1 0.4258,-8.49023 85.061386,85.061386 0 0 1 1.2695,-8.40821 85.061386,85.061386 0 0 1 2.1035,-8.23828 85.061386,85.061386 0 0 1 2.916,-7.98633 85.061386,85.061386 0 0 1 3.6993,-7.65625 85.061386,85.061386 0 0 1 4.4433,-7.25 85.061386,85.061386 0 0 1 5.1465,-6.76758 85.061386,85.061386 0 0 1 5.7949,-6.2207 85.061386,85.061386 0 0 1 6.3887,-5.61328 85.061386,85.061386 0 0 1 6.916,-4.94531 85.061386,85.061386 0 0 1 7.375,-4.23047 85.061386,85.061386 0 0 1 7.7617,-3.47266 85.061386,85.061386 0 0 1 8.0684,-2.68164 85.061386,85.061386 0 0 1 8.2949,-1.86133 85.061386,85.061386 0 0 1 6.7656,-0.82226 85.061386,85.061386 0 0 0 -8.3066,-0.41602 z"
             style="opacity:0.96999996;fill:#000000;stroke:#000000;stroke-width:0.72091264;stroke-linecap:round;stroke-miterlimit:4;stroke-opacity:1;stroke-dasharray:none;stroke-dashoffset:0"
             inkscape:connector-curvature="0" />
        </g>
        <path
           style="opacity:0.96999996;fill:#ececec;fill-opacity:1;stroke:none"
           d="m 1150.0859,476.37268 c 4.3952,-10.44871 5.1474,-24.60944 2.131,-40.12027 -3.0163,-15.51084 -9.7888,-32.30914 -19.1882,-47.59301 -12.4647,-20.25273 -29.5195,-37.60814 -46.3495,-47.16655 -16.8301,-9.55842 -33.2281,-11.20215 -44.5646,-4.46718 -10.915,6.50755 -17.0173,20.69783 -16.697,38.82741 48.1479,5.03332 98.5,31.35233 124.6683,100.5196 z"
           id="path4227"
           inkscape:connector-curvature="0"
           sodipodi:nodetypes="cscsccc" />
        <path
           sodipodi:nodetypes="cscsccc"
           inkscape:connector-curvature="0"
           id="path4242"
           d="m 945.61328,912.98928 c -3.49274,9.15176 -11.47763,18.44744 -22.62308,26.33647 -11.14526,7.88908 -25.40591,14.33972 -40.40337,18.27591 -19.87918,5.21015 -40.896,5.8697 -57.11708,1.79251 -16.22109,-4.07728 -27.44674,-12.84106 -30.50775,-23.81714 -2.93347,-10.58238 1.72667,-23.09094 12.75131,-34.22568 33.08444,25.60298 80.25472,39.22425 137.89997,11.63793 z"
           style="opacity:0.96999996;fill:#ececec;fill-opacity:1;stroke:none" />
        <path
           style="fill:#000000;stroke:#000000;stroke-width:1px;stroke-linecap:butt;stroke-linejoin:miter;stroke-opacity:1"
           d="m 1063.5597,957.75795 c 21.9966,-13.04606 47.6762,-31.00274 77.9641,-55.10381 l 176.9277,163.31786 c 17.4087,60.39 -34.4236,94.9849 -83.3602,93.5675 z"
           id="path4244"
           inkscape:connector-curvature="0"
           sodipodi:nodetypes="ccccc" />
        <path
           style="opacity:0.78200001;fill:#ffffff;fill-opacity:1;stroke:none"
           d="m 1130.2902,924.72601 c 8.6484,-4.6001 15.5928,12.30516 29.1776,13.68766 13.5847,1.3821 77.2964,72.24543 91.1852,79.13873 18.4049,9.1425 34.6754,29.7191 44.2183,43.4551 32.5429,22.5893 -9.8108,63.7921 -11.3003,50.2271 -0.5244,-28.8934 -91.7076,-169.39979 -153.2808,-186.50859 z"
           id="path4246"
           inkscape:connector-curvature="0"
           sodipodi:nodetypes="cscccc" />
      </g>
    </g>
    <g
       id="g4646"
       transform="matrix(-0.59375781,0,0,0.59375781,1463.939,426.89196)">
      <g
         transform="translate(923.65554,-147.29391)"
         id="g4433">
        <g
           transform="matrix(4.2591457,0,0,4.2591457,-4292.1452,-1053.0914)"
           id="g4435">
          <path
             inkscape:connector-curvature="0"
             style="opacity:0.96999996;fill:none;stroke:#000000;stroke-width:0.63865501;stroke-linecap:round;stroke-miterlimit:4;stroke-opacity:1;stroke-dasharray:none;stroke-dashoffset:0"
             d="m 1227.3984,311.04297 a 85.061386,85.061386 0 0 0 -6.7656,0.82226 85.061386,85.061386 0 0 0 -8.2949,1.86133 85.061386,85.061386 0 0 0 -8.0684,2.68164 85.061386,85.061386 0 0 0 -7.7617,3.47266 85.061386,85.061386 0 0 0 -7.375,4.23047 85.061386,85.061386 0 0 0 -6.916,4.94531 85.061386,85.061386 0 0 0 -6.3887,5.61328 85.061386,85.061386 0 0 0 -5.7949,6.2207 85.061386,85.061386 0 0 0 -5.1465,6.76758 85.061386,85.061386 0 0 0 -4.4433,7.25 85.061386,85.061386 0 0 0 -3.6993,7.65625 85.061386,85.061386 0 0 0 -2.916,7.98633 85.061386,85.061386 0 0 0 -2.1035,8.23828 85.061386,85.061386 0 0 0 -1.2695,8.40821 85.061386,85.061386 0 0 0 -0.4258,8.49023 85.061386,85.061386 0 0 0 0.2129,6.01758 85.061386,85.061386 0 0 0 1.0254,8.4414 85.061386,85.061386 0 0 0 1.8613,8.29493 85.061386,85.061386 0 0 0 2.6816,8.07031 85.061386,85.061386 0 0 0 3.4727,7.75976 85.061386,85.061386 0 0 0 4.2305,7.375 85.061386,85.061386 0 0 0 4.9472,6.91602 85.061386,85.061386 0 0 0 5.6114,6.38867 85.061386,85.061386 0 0 0 6.2207,5.79492 85.061386,85.061386 0 0 0 6.7695,5.14649 85.061386,85.061386 0 0 0 7.248,4.44336 85.061386,85.061386 0 0 0 7.6563,3.69922 85.061386,85.061386 0 0 0 7.9863,2.91601 85.061386,85.061386 0 0 0 8.2383,2.10352 85.061386,85.061386 0 0 0 8.4082,1.26953 85.061386,85.061386 0 0 0 0.1836,0.01 85.061386,85.061386 0 0 0 77.3691,-84.64648 85.061386,85.061386 0 0 0 -76.7539,-84.64453 z"
             id="path4437" />
          <path
             inkscape:connector-curvature="0"
             style="opacity:0.96999996;fill:#000000;stroke:#000000;stroke-width:0.72091264;stroke-linecap:round;stroke-miterlimit:4;stroke-opacity:1;stroke-dasharray:none;stroke-dashoffset:0"
             d="m 1219.0918,310.62695 a 85.061386,85.061386 0 0 0 -85.0625,85.06055 85.061386,85.061386 0 0 0 85.0625,85.0625 85.061386,85.061386 0 0 0 7.6914,-0.41602 85.061386,85.061386 0 0 1 -0.1836,-0.01 85.061386,85.061386 0 0 1 -8.4082,-1.26953 85.061386,85.061386 0 0 1 -8.2383,-2.10352 85.061386,85.061386 0 0 1 -7.9863,-2.91601 85.061386,85.061386 0 0 1 -7.6563,-3.69922 85.061386,85.061386 0 0 1 -7.248,-4.44336 85.061386,85.061386 0 0 1 -6.7695,-5.14649 85.061386,85.061386 0 0 1 -6.2207,-5.79492 85.061386,85.061386 0 0 1 -5.6114,-6.38867 85.061386,85.061386 0 0 1 -4.9472,-6.91602 85.061386,85.061386 0 0 1 -4.2305,-7.375 85.061386,85.061386 0 0 1 -3.4727,-7.75976 85.061386,85.061386 0 0 1 -2.6816,-8.07031 85.061386,85.061386 0 0 1 -1.8613,-8.29493 85.061386,85.061386 0 0 1 -1.0254,-8.4414 85.061386,85.061386 0 0 1 -0.2129,-6.01758 85.061386,85.061386 0 0 1 0.4258,-8.49023 85.061386,85.061386 0 0 1 1.2695,-8.40821 85.061386,85.061386 0 0 1 2.1035,-8.23828 85.061386,85.061386 0 0 1 2.916,-7.98633 85.061386,85.061386 0 0 1 3.6993,-7.65625 85.061386,85.061386 0 0 1 4.4433,-7.25 85.061386,85.061386 0 0 1 5.1465,-6.76758 85.061386,85.061386 0 0 1 5.7949,-6.2207 85.061386,85.061386 0 0 1 6.3887,-5.61328 85.061386,85.061386 0 0 1 6.916,-4.94531 85.061386,85.061386 0 0 1 7.375,-4.23047 85.061386,85.061386 0 0 1 7.7617,-3.47266 85.061386,85.061386 0 0 1 8.0684,-2.68164 85.061386,85.061386 0 0 1 8.2949,-1.86133 85.061386,85.061386 0 0 1 6.7656,-0.82226 85.061386,85.061386 0 0 0 -8.3066,-0.41602 z"
             id="path4439" />
        </g>
        <path
           sodipodi:nodetypes="cscsccc"
           inkscape:connector-curvature="0"
           id="path4441"
           d="m 1150.0859,476.37268 c 4.3952,-10.44871 5.1474,-24.60944 2.131,-40.12027 -3.0163,-15.51084 -9.7888,-32.30914 -19.1882,-47.59301 -12.4647,-20.25273 -29.5195,-37.60814 -46.3495,-47.16655 -16.8301,-9.55842 -33.2281,-11.20215 -44.5646,-4.46718 -10.915,6.50755 -17.0173,20.69783 -16.697,38.82741 48.1479,5.03332 98.5,31.35233 124.6683,100.5196 z"
           style="opacity:0.96999996;fill:#ececec;fill-opacity:1;stroke:none" />
        <path
           style="opacity:0.96999996;fill:#ececec;fill-opacity:1;stroke:none"
           d="m 945.61328,912.98928 c -3.49274,9.15176 -11.47763,18.44744 -22.62308,26.33647 -11.14526,7.88908 -25.40591,14.33972 -40.40337,18.27591 -19.87918,5.21015 -40.896,5.8697 -57.11708,1.79251 -16.22109,-4.07728 -27.44674,-12.84106 -30.50775,-23.81714 -2.93347,-10.58238 1.72667,-23.09094 12.75131,-34.22568 33.08444,25.60298 80.25472,39.22425 137.89997,11.63793 z"
           id="path4443"
           inkscape:connector-curvature="0"
           sodipodi:nodetypes="cscsccc" />
        <path
           sodipodi:nodetypes="ccccc"
           inkscape:connector-curvature="0"
           id="path4445"
           d="m 1063.5597,957.75795 c 21.9966,-13.04606 47.6762,-31.00274 77.9641,-55.10381 l 176.9277,163.31786 c 17.4087,60.39 -34.4236,94.9849 -83.3602,93.5675 z"
           style="fill:#000000;stroke:#000000;stroke-width:1px;stroke-linecap:butt;stroke-linejoin:miter;stroke-opacity:1" />
        <path
           sodipodi:nodetypes="cscccc"
           inkscape:connector-curvature="0"
           id="path4447"
           d="m 1130.2902,924.72601 c 8.6484,-4.6001 15.5928,12.30516 29.1776,13.68766 13.5847,1.3821 77.2964,72.24543 91.1852,79.13873 18.4049,9.1425 34.6754,29.7191 44.2183,43.4551 32.5429,22.5893 -9.8108,63.7921 -11.3003,50.2271 -0.5244,-28.8934 -91.7076,-169.39979 -153.2808,-186.50859 z"
           style="opacity:0.78200001;fill:#ffffff;fill-opacity:1;stroke:none" />
      </g>
      <image
         transform="matrix(0.99910405,0.04232127,-0.04232127,0.99910405,0,0)"
         width="504.78342"
         height="514.49078"
         xlink:href="data:image/png;base64,iVBORw0KGgoAAAANSUhEUgAAAggAAAISCAYAAACpsTeeAAAAAXNSR0IArs4c6QAAAARnQU1BAACx jwv8YQUAAAAgY0hSTQAAeiYAAICEAAD6AAAAgOgAAHUwAADqYAAAOpgAABdwnLpRPAAAABN0RVh0 U29mdHdhcmUAUGhvdG9TY2FwZYB1kb8AAGYOSURBVHhe7Z0JvNTU+f5lE0TADcFdivoHLVorxV2k 1eLyc8dara1brVWrQt2oVgtqrWhdEBHElaLFC+67aKtV69LWteICdUHBHRFFRUTI/33S5HbuMHNn y2Rykm8+n+dz596bSc755s15n5wk5yy3HAsEKiewvX1lvslLkF6svBp8AwIQgAAEIACBKAjsZhv5 IkGmINegzI2igmwDAhCAAAQgAIHKCPzYVv86oeZARmGpqVNlVWJtCEAAAhCAAARqIXCUfXlJgs1B 2JOwdS2V5LsQgAAEIAABCJRPYLgDxiA0CPuWXy3WhAAEIAABCECgGgJt7EujHDIHMgnHVlNRvgMB CEAAAhCAQGkC7W2ViY4Zg7AH4ZzS1WMNCEAAAhCAAAQqJdDRvnCbo+bgaiu3xAIBCEAAAhCAQIQE uti2/uKoOVAPwrMRsmBTEIAABCAAAQgYgVVN/3DYHMggvMeRhAAEIAABCEAgOgJr2aY0CmGSRkWs pizfWB3aRYeFLUEAAhCAAASySaC3Vfv1FBiDXDMhs8MCAQhAAAIQgECVBPrZ995NmTmQUdiiSh58 DQIQgAAEIJB5AlsZgY9TaA5kEH6R+aMLAAhAAAIQgEAVBHay7yxIqTmQQfhdFUz4CgQgAAEIQCDT BDQM8VcpNgcyCOMzfYSpPAQgAAEIQKACAofauotTbgxkDm4PVAEaVoUABCAAAQhkk8BQq7amQa7m tUHXvqNxHFggAAEIQAACEChBwLWJlmo1JG8TERCAAAQgAAEItE7grIz0GuSbiu4EBgQgAAEIQAAC yxLQTIx/yqg5kFnYlKCAAAQgAAEIQOB/BDrZx9szbAzCnoRdCAoIQAACEIAABP5LQLMw/hVz4D+I eRhBAQEIQAACEIDAcsutZhBcn4Wx1ocTc79/GkEBAQhAAAIQyDoBTUw0nZ6DFq9wjsl6UFB/CEAA AhDINoENrPpvYA6WGd/hsWyHBbWHAAQgAIEsE9CT+mmcibHWWw2aulpigQAEIAABCGSKwNZW27TO wlirOdD3v8xUNFBZCEAAAhCAgBHY2ZTmWRijMAjaxkpECwQgAAEIQCArBLIwC2NUBqFvVoKCekIA AhCAAAS+MQRRJdC0b+f7hAsEIAABCEAgCwSyMhNjVMblJ1kICuoIAQhAAALZJTCMXoOqek0uym7I UHMIQAACEEg7gaxN0xxV74G2MzntwUH9IAABCEAgewTaWJU1EmCUCTNr23o4e2FDjSEAAQhAIM0E 2lrlxmIOajJHrxo/iQUCEIAABCCQCgLtrRbXYw5qMgfqKfk0UCqCgkpAAAIQgEC2CXS16j+EOajZ HIS3UlY0lhILBCAAAQhAwEkCmqb5nxiDyIxBaBA0iRULBCAAAQhAwEkCmqb5JcxB5OZAJmF7JyOC QkMAAhBIKIH5Vq4HTSNNqwbJa5L9HGrSw3N/N+nVuz1N3YM66H9qjJcPfv+R/eyZV7/8xvrbCa1/ nMVimub6vqWhOGSBAAQgAIGICLT2Ktxnto/c/+dPM/x5gf/fFfzta/v5tOlS0yHB3/S/kSZNPrTY pCvpCcH/9ZpfaFRkRlYJ/i+z0t8ks6Il36zobzIsoVkJseQbFv29XUTMqtkM0zTX1xwoTs+r5sDw HQhAAAIQKExA0+Qm8X35/DkIZFbUm1HMsMis6P8yJFpnSWAwrrGfvzDp+38x/d60h2l1kwxPrmnp HHwn17SI2khTaFpyKeYal/DvYS9L7nrfsV/eSyjnJB77ass0kZMcAhCAAASiI1BtY5zG76lXI7de 8+139WqEf5NpUa+HejXCv4XGJRwBUdt4zjTOpJ6TPhiD2AzoA9GdFmwJAhCAAATyk2IaEz91SmYv UdTH5UVOZwhAAAIQiI6Aur+ZNTAbCTTqhJyk7c21OJZYIAABCEAgQgJJaugpC2almhiQye0YKMJT g01BAAIQyC6BQVb1ahpkvgO3pMXAehbLEgsEIAABCERE4AlMAiYpBTGwVUTnA5uBAAQgAIGAwL4p SA5Ju5qlPPH3sOzDGQ0BCEAAAtESmI5BoAchBTFwTLSnBVuDAAQgAIEOhuCtFCQIrtrjv2pPEvOr OJUhAAEIQCB6AqdiEOhFcDwG7o7+tGCLEIAABCDQzfHkkKQrWcrSmJ6MZziNIQABCEAgegJnYRDo QXA8BjTfBQsEIAABCERMYDXb3hjHEwRX7o25ck8Cd82TITVyxs6IT0k2BwEIQCA5BNa1omia5iQ0 +JSB41BpDKxpsSuxQAACEIBAHQhU2iizPok8KTGwhZ0PEgsEIAABCERMgImbSPZJSfbVlOP/Ij4f 2BwEIAABCOQQuItbDNxicTQGjuRMhgAEIACB+hHY3tHkUM0VJ99JV4/JmfU7LdgyBCAAAQjsgUGg B8HRGNBASZ1zTuHlOZ0hAAEIQCA6Am1sUy86miDoEUhXj0A1x3Ouxe5w04xAP4ru1GBLEIAABCDw MwwCvQgpioEnrS7bcVpDAAIQgEDtBNqnKDlUcxXKd9LXE7HUYnqqaYPaTw+2AAEIQCC7BI7HINCD kNIY0EBgE0yrB9LtiE7ZPdWpOQQgAIHKCOhBrw9TmiDoHUhf70A1x3ReTnxrqvNDTHr+RmKBAAQg AIFWCKxq//sMk0BPQoZi4J9W1x0D0ThAAAIQgEArBKq5MuM7XKGnIQYetPOiH60DBCAAAQgsS2Bt +9OiDF09piGpUYdozVn4vEJPOw9GBlqBxgICEIAABJZb7loMArcYiIHlFuQwmGOfjzIxrTQtJAQg kGkCfaz2S0gQmARiYJkYeMmYaHIoJojKdBNJ5SGQbQJ0W0fbbQ3P9PHU8wqaCZUFAhCAQGYIDLCa PsTVIz0IxEDJGFBP2yTTmoEy00hQUQhAILsEdiE5lEwO9Aqkr1eg2mP6hZ0vowJ1s59DTRqZVGKB AAQgkDoC1TaWfI/ESQwst9wr1iJITByVuqaRCkEg2wQOpAeBHgRiILIY+Kux3CLbTQq1hwAE0kJA r3PNJEFEliC4oqZXJZw4SpNHfSstDQX1gAAEskngaAwCBoEYqEsMaDCyS00rZ7NpodYQgIDrBDqS HOqSHOhNoDchjIGP7RzTzJKSzjcWCEAAAk4QOA2DgEEgBmKLAd3S0wONzC7pRPNIISGQbQJ6XUuv bnHFCwNiIL4Y+Iedc9IO2W5+qD0EIJB0ApqwZiEmAZNEDMQaAxqAKRyEad2gkZhgP3skvcGgfBCA QLYIqGHiChIGxEBjYiCcXVL8NYHUSFOnQNlqiagtBCCQKAK9rTTfYBAwSMRAomLgbTsekmaYbJuo FoPCQAACmSIwheSQqOTAlXxjruSTyv1pOz+/HyhTDROVhQAEGk9AM9ZpkJekNpCUi2NDDPw3BjTD 5KaNbzIoAQQgkCUCzO5IEiYJuxED4cONmmVyjSw1UtQVAhBoDAGSgxvJgePEccqNgc+tudCryl0D Nab1YK8QgECqCTzJLQZusRADzsbAO3bsJD3UqHlWWCAAAQhERmCIbellEoSzCYKeBXoWwhjQeawR G5mGOrLmkQ1BINsE9CrVkRgEDAIxkKoY0EON381Rtls5ag8BCFRNYA7JIVXJgV4FehUUA+Gojfqp qah7Baq6oeCLEIBA9gicjEHAIBADqY+BL+wYS3q4caXsNXPUGAIQqIaAnoSeR4JIfYKgZ4GehTAG 5tr5Hk5HvXw1jQbfgQAEskPg9xgEDAIxkMkYwCBkp52nphCoisCXJIdMJgd6FehVeMHO/cFVtRp8 CQIQyASBsRgEDAIxkPkY0Lgo22WixaOSEIBA2QS+ZWsuJkFkPkHQo0CPguZn0VsP0gZltyCsCAEI pJrAnzEIGARigBjIiYGv7fME0+qBUt0AUjkIQKA4gc1IDiQHYoAYKBADestJ0psPnQLRlkIAAhki cA/JgeRADBADJWLgLfu/dIipTYbaR6oKgUwTGGi1f5wEQYIgBoiBMmPgn7bejoEy3XhSeQhkgcDe ZTYMPMzGw2zEADGQGwOa/6FfoCy0ldQRApkjoC5DGn4YEAPEQDUxoIcaJRYIQCCFBA7FIGCQiAFi oMoYCA2C3nzomcL2kSpBINMEOljtZ1XZOFRzxcF3uFIlBtIZAwusHZFGmlbIdKtK5SGQIgLDMAhc QRIDxECEMaAp5Y8K1C5FbSVVgUDmCHS2Gn8UYePAFWI6rxA5rhzXamJAwzlvlblWlQpDIEUEqjnx +Q4JgxggBorFwIvWPkoaP6FjoBQ1mVQFAtkg0MOq+QU9CHQxEwPEQA0xoDkdpLtM2wfKRgtKLSGQ cgKja2gYuIrkKpIYyG4MfG5tx6WmDQOlvKmkehDIHoF1rMqLMAlcQRIDxEAZMTDL1hkaaKXsNZfU GALZIzCxjIaBK8XsXily7LN97DVyorSnqW32mkdqDIFsE1iCQeDqkRggBoIY0CBIkwL1z3bTSO0h AIE7SA4kB2Ig0zGg152lkaY1aBIhAAEIhAT0rjLdyDAgBrIVA7yOSA6AAATKIvAIJgGTRAykOga+ seMrTTXpdUQWCEAAAmUR2J3kkOrkQO9AtnoHwuOtVxF5HbGsJpCVIACBYgSexSBgEIiB1MXAXDum 0hEmTfEusUAAAhCoiMBPSA6pSw70GmSz16DYcddFgLRlRS0DK0MAApknoJnXXsMkYBKIgdTGAAYh 8808ACBQPYFfkRxSmxzoTaA3IYwBjXsywdQtUPUtBt+EAAQyQ6ATBgGDQAxkKgZm2fHeIzMtHBWF AASqJjCC5JCp5ECvAr0KYQzo1UdptapbD74IAQikmsDVGAQMAjGQ6Rh4347/XoFS3dhROQhAoHwC erKZORm4oqRXgRgIY0DzMXQNVH5LwpoQgECqCGiGtn9x5ZjpK0eMAcagUAy8ikFIVVtPZSBQMYHD MAeYA2KAGCgQAzIIErM6Vtys8gUIuE9gJauC7jtyBQkDYoAYKBYDi62NGB7I/VaPGkAAAmURuBBz gDkiBoiBCmLgRlu3S6CyGhlWggAE3CTwdQUNA1eYXGESA8SAYiC89fBtN5s9Sg0BCJQi0BdzwJUj MUAM1BADn9h3GWipVEvL/yHgIIEHa2gYuJLkSpIYIAZCg4BJcDABUGQIFCOwD+aAK0digBiIIAaW 2jakkSamlCbnQMBxAsy5wJUfV//EQD1ioMnaRkltDAsEIOAggXo0DGyThEMMEANhDDxu7eLqgRxs IikyBLJJ4MsIuhRJBCQCYoAYKBUDL2EQsplkqLWbBNbHHHDPmRggBmKKARkEqbebzSWlhkC2CEyJ qWEodWXB/7n6JAayEwMfW7ujyeAkFghAIIEEvo854MqRGCAGGhQDeh1S2jaBbSNFgkCmCXSw2k9v UMPAlWJ2rhQ51hzrUjHwubVDOwfKdKNM5SGQFALHYw64ciQG3ImB+++/35Oefvpp74knnvB1++23 eyNGjPA1aNAgr127dr4cO64YhKRkBcoBASOgV43mOdaIuNboUV6unGuKgW7dunkHHnigr9GjR/vm IKUGIeT0lbVJe9FCQwACjSUwAXPgzpUjxyo7x6p3797exIkTfX311Vdepct7773nSSeffHKzOnfu 7EmOxNFCK+fgQI1tJdk7BDJIYIDVeYkjjYUrjRrlpLeg6hjo1KmTd8455/hatGhRpZ6g5Ppvv/22 J+29995Vl7EB7YXGZtkxg+0zVYZAQwnIILjUUFBWjlcqY2DjjTf2pFdffbVkko9qhUmTJnnSCius kHSmoUHAJDQ0XbDzLBHQpClPYBAwSMRA42OgEQYhNBp33nmn16FDB18JjoVPrWxS/yw10tQVAo0i 8LMENwZJbqgoG70YkcbARhtt5L377ru+GrXceOONSTcIIfMPrd3qG6hRbSf7hUCqCaxotXsbg9D4 K0eOQXaPwVprreVJb731VqN8QfN+ZRCkNm3aRGp+6hTfs227koaGZ4EABCImcH6dTlwXGhfKSA9A w2NA9/3DhxH1Mxy/4Oqrr/ZeeuklX41YVBZH2gYMQsRJgc1BQAT6mBY50gi40lhRTkxHRTEgg7Db bru1KpmGjz/+2FecS1guB9qIp62MnQPRukMAAhEQuMOBE7+ixpb6ZLeb3tVj369fv5IGQYn6sMMO 86XxDOJa3nzzTU9y4O0GtRO3BWobQdvIJiCQeQIkX652iYEGxcCqq67qSaV6D8L/N8IgyIg4ZBDC WD478y07ACBQI4E9Xb3iotz0EqQhBrbddtuyzUGuiTjuuOO8xYsX+4prOf30010ykhiEGpMDX882 gU5paGCpA0bBxRjo0aOHJ5Xbc1Bovb/+9a+eFNeiZx+6dOniywHmGhF2n0DZbumpPQSqIODCSU4Z G9T17UACcDo2ojAIQ4cO9aQ4l2HDhnmSQ/GxwMq6aRXtI1+BQGYJrOnQCe5SY0RZMTRlxcDWW2/t SbX0IOy+++6eNHfu3Ng8wiuvvOJJjrUfr1t5JRYIQKAMAq6d4JSXxJuaGOjatWtNxiA0FRiEsm+v hQahWxltI6tAINMEUtPQOnYVA3dMjh8Dffr0icQghEbhmWeeia0HIdzRgAEDPMmxc3BKplt+Kg+B Mgi4dlJTXhJrqmIgSoPw8MMPe1Lcy3nnnedJjhkElVdzzkgsEIBAHoEXHTyhXWyEKDOmpmgM7Ljj jpH1IDz55JOeFPfy/PPPe5KD7YkeWsQgkBohkEfgFw6ezC42QJQZc1AwBlZcccXIjEF4e+H111/3 pLiXpUuXepKDbYoMgvT/yBAQgMD/CMxz8GR2sQGizBiEgjHQq1ev1BmE1VZbzdV4f9zaw/aByBMQ yDwBV09kyk3CTUUMRG0QDjjgAP8qXmrUMnjwYJePzXDLChILBDJPwOUTmbJjEpyPgV133TXSHoQr r7yyUb6geb8nnXSS68cFg5D51AgAEXD9RKb8HEOnY2DMmDGRGIT99tvPkz744IOGG4SxY8c6fUys XfzS1JsUAYGsE3D9RKb8GASnY2D27Nnez3/+c1+1jKCIQYj8Yud+Sw4SCwQyS8DpxpUekMgbReIh ZsO1ZMkS79VXX/W19957V20SHnjgAU9KwnL77benKY4ymxyoOATSdCJTl5iTGwateoO2/PLLezIH tRiEPfbYw5PuuuuuJPiC5jI8+uijaToXDyBNQCCrBNJ0IlMXDIIzMaCZG3OXZ5991pOGDBniq7Xb DSNHjvSkRox1UI4Tefrppz0pJQZyttWja6Cs5gnqnVECaTmJqQfmwKkY0OuNhRbNwnjxxRf72n// /X3lmoW99trLNwcYhOp7b6owLn+w70i1Lj+1DRwXqNZt8X0I1J2AU41qFSc29cM4JDIGihmEXNOw ePFiT5ozZ443a9YsX4sWLSrnIr6h6zg85HJrsVKLQdje2q5pJr0dIW1T95adHUAgAgKJbDwxArFe HREDDTBRG2ywQUOTeD13/sQTT3hSys5jJfZ1Kmhze9q6NwSaH7B4zn5KLBBwgkDaTmLq04Bkl7JE EEsMrbXWWvXM0Q3d9rRp0zwphXExzuokFVva2T+k35leK1B/DIITaZFChgTSeBJTJ0xC4mOgW7du DU3i9dx5ig3C160YhF3sf9JDpqWtmKNrSD8QcIVA4hvSFF6FwDzjBkbmIDQIn376aT1zdUO2fe21 13pSCs9dGQRpw5wGfj37fLMpfL5A9W7NIDCttCvZkXJyrzuFjVgaG+ZU1imN5kCO5Oyzz/aV4nPr RqvbRYH0GqTqmmsQCtX9LVtHWoG8AwFXCKT5JKZuGb9ST3qCeumllxpyhV/vnWpGSSnp/GsoX9hD IJMQGoRy6otBcCUzUk6fQDlBzTpwIgbqEANTpkypd65uyPYzZBAqPS9uI+9AwCUClQY469chUWDU smlU02oQ+vTp40nE9TJxfYZLyYGyQoCTmIRPDDQoBs4444yGXOHXc6fvvfee16ZNG18YhBYGYb7x WJ+UAwGXCHASNyg50Hhms9cg97gPHDiwnrm6IduePHkyBqFwm/IYBsGl1EhZeQYBc4BBbFAMaDZH acGCBb7SssggYH4Lml8ZBBYIOEWAk7lBCYJGNNs9CGk1CAcddBBtSuE2ZbRTmYHCQoAkle0kxfFv /PG/5ZZbUtF5MH/+fE/q1KmTL2KrRWwtNh4/JONAwDUCnMj0IBADDYyBffbZB4PQQP4xGZlXMAiu pUbKyzMI6W+YSP4JP8YdO3b09OS/5PIyYcIET4op4bq2HxmEcCInMg8EnCHg2olGeROe8EgQld22 SINBWLp0qbfJJpv44vgXPP7XO5MRKCgEcghwQpNwiYEGx8CZZ57pSa4uN954IzHUegwdQ9aBgIsE OLEbnBy44qrsijuNvFZaaSVPmjt3rpMeAYPQagy/YzErg4BJcDFDZrzMGAQMAjHQ4Bhw1SAsXrzY k/r27UsMFY8hGYRugTKebqi+awQ4sRucHNJ4RUydqusV+c1vfuNUD8KIESM8iePd6vG+x7WkQHkh EBLg5MYgEAMJiYH27dt7//rXv3y5sGAQyjKCZ1tjK7FAwDkCJIeEJAeuwspqbFMfr5tvvrknLVy4 MNEe4bnnnvP0BoZE7LYauxgE59IiBaYHAWNAw57AGEi6QXjnnXc8ac011yR+SsfP59bQ9g1E1oGA cwQ4yUuf5DCCUewxsN9++3kaX0BKwvLJJ5940oABA3zRa1BWj9dTzmUECgyBHAKc6CQ/YiChMXDa aad5UhIWDEJZhiD/XLrS2lqJBQJOEiA5JDQ5cIVWVYOcqngODcIJJ5zgv04oNWKZPXu2t8UWW/gi LiuKSwyCk2mRQvMMAsaAxt6RGGiUQbjnnns8qUePHsRKdbHCA4rkWqcJcOJXd+LDDW6xxsCgQYM8 6c033/QVx4JBqKi3oFA8jLbsILFAwEkCsTZydE/W3OBwvDJuTDp37uxJZ511lvfZZ5/5imJ55ZVX vFBDhgzxJM7XSM5XDIKTqZFCiwCNAAyIAYdiIDQHxQzCggULPKm1Ra8pTp482dc+++zjq127ds2i XYi0XXyGVAMBVwmQHBxKDjTckTbczsd+9+7dPen444/3HnroIV8YhMTFyNd23q7gaoKg3Nkm4Hwj SdJMXINITDXQdIY9Aeuvv74n9e/f39t000199ezZ0xfnTKznTGgQMAnZzrVO1p7GooGNOQ11rA11 JmJdBoG4SlxcbWnHRGKBgFMEaEwwCMQAMUAM1DcGjrGsILFAwCkCNAz1bRjgC19igBjAIDiVFils SIDGi8aLGCAGiIH6xwBDLpN3nSNAw1D/hgHGMCYGiAFed3QuPVJgGi4aLmKAGCAG6h8DGATyrXME aBjq3zDAGMbEADHwmXPZgQJnngANFw0XMUAMEAPxxMBKlnEkFgg4QYCGIZ6GAc5wJgaIAQyCE2mR QvIWA40VCYsYIAbijYHNrOGVWCDgBAEaiHgbCHjDmxjIbgzsaVlBYoGAEwRorLLbWHHsOfbEQPwx gEFwIjVSSBGggYABMUAMEAPxxcCxpB4IuEKAhiG+hgHWsCYGiIGzXUkOlBMCNFg0WMQAMUAMxBcD GATyrjMEaBjiaxhgDWtigBi4yJnsQEEzT4AGiwaLGCAGiIH4YuCKzGcdADhDgIYhvoYB1rAmBogB DIIz6ZGC0mDRYBEDxAAxEF8MTCLtQMAVAjQM8TUMsIY1MUAM3GLJQWKBQOIJ0GDRYBEDxAAxEF8M YBASnxYpYEiAhiG+hgHWsCYGiIH7rPGVWCCQeAI0WDRYxAAxQAzEFwN3YRASnxcpYECAhiG+hgHW sCYGiAEZBIkFAoknQINFg0UMEAPEQHwxMMWygsQCgcQToGGIr2GANayJAWJAMYBBSHxqpIAiQIMF A2KAGCAG4o2BiaQfCLhAgIYh3oYB3gnn3a9fP+93v/udr969e3O8En68HL3IGe9CcqCMEKABpAEk BnJiIDQIxx9/vKfl6aef9jV06FBvtdVW8+VoUqLcyTnXMQjkXicI0Ggkp9HgWCTkWMgclGsQ2rVr x3FLyHFzyLgxo6MT6ZFC0rjRuBEDeTHQrVs3T7rtttv8XoRw+eqrrzxp6tSp3p577ukLg8BzTFUY k1NJPRBwgQDJAYNADJRpEFq4heCXOXPmeKNGjfK14YYbwpLzqZwYwCC4kB0pI+6/CvdfTgPAOilI FJtuuqn30Ucf+Sq2FDMIRx11lCd16dKFWEhBLETcThxM7oGACwRovGi8iIFWYuDHP/6xJ5W7hA81 YhC4+GjFVAxyITlQRgiQHDAIxEAJg1CuOSi03scff+xddtllvvr37w9rzjfFAAaB3OsEARosGixi oJUYWGGFFbwJEyb4qmZpzSCMHDnS69WrF/yzdw5u5ER2oJCZJ0DjlL3GiWNewTHPNQgPPvhgNR6h xXdmzJjhSTIHGIRM3oZYalkHg5D51OsGAJJFBcki4geVYO8I+x49enhSFAYh32EsWbLE3650yCGH +OrcuTOx4UhsVNEmyCCs6EZ6oJRZJ0BDlN6GiGMb8bHdZJNNvDfeeMNXVAsGIXO9CG9mPelQf3cI kEQiTiJVXFFwDBw5BvUwCIWMxieffNL83MP222/vScRVaowEBsGd/Jj5ktLwOJKcSBDJSBA77LCD J3355ZdRdSKUtZ2XX37Zk4YPH+717NnTFzGRjJio8DjcmfmsAwBnCNDIYBCIgSpi4Gc/+1lZiT2q lUJzgEFw0hTknmO/dyY7UNDMEyA5VJEcKrxigHEKGcdtEHKNxsKFCz1p8uTJvn74wx/6atu2LbGW /FjDIGQ+7boDgAYl+Q0KxyiBx0iTNJ100km+4l7KMQibb765J2FmE9fj8GN30gMlzToBGpAEJh8a 9cQ16sucJ400CMUMiQZlCgd1wiAkNoY2yXrSof7uEMAgYBCIgSpjQCYhNApx9yKUu79wboihQ4d6 Uvfu3X1hQhtmIDAI7uTHzJeUhqLK5EAD27AGNjExK3OgOOjQoYN32mmn+UragkFIVJx+YPHSJvNZ BwDOEEhMY0vCTVRDRlxUYByTbBDyDcuCBQs86dprr/UVvrbZpk0bLxTnYt3ORQyCM6mRgooAiQAG xEAEMaA5G6TzzjsvaZ0ILcqDQWhom3cTaQcCLhEgOUSQHDBaDW10ExHDrhiEYu5lzpw5XqhRo0Z5 0kYbbeSL+I4svo9zKTlQVghw8mMQiIEIY2D55Zf3jj/+eF9Lly715cKCQYjMBLR2PmEQyLlOESA5 RJgcuNKKpZFNdMy6ahBaMzHhg45HHXWUJ3Xt2tUX8V5xvPdzKjtQ2MwT4CTHIBADdYqB3Xff3ZN0 39/lBYNQsRHIP6c+tEwjtc18xgGAUwRIDnVKDlxd1dyopiY2t912W2/mzJm+0rBooipp6tSpvnbe eWdfvAVRNOYxCE6lRQobEkhNI0xCJiEnNQYwCMSmxeYE0g4EXCOAQaAHgRiIIQY23nhjT7rtttvS 0IlQsA4vvviiJ5144olMSb1sTGEQXMuOlBdnn9SrTsqVrtjMmkEITQJx3BzHu5BvIOAaAa4eY7h6 pJFMV7Kv5Xh27NjRO/DAA319+umnvtK6LFmyxPv73//uK3wDonPnzp5UC0PHvjvPyit1cC05UF4I ZOlEpa6YoYbHAAYBg0DagYArBBreYDp2NQAvTEZkMTBgwABPevDBB9PaibBMvT744ANPuuiii7x+ /fr5SnkbMMnqJ7FAwDkCaT85qR8JPbExgEHAIDiXMShwpggktvFM+VUF3DEufu8BPQj0IGQq41BZ pwiQqEhUxECDY0ATPe29996+nnrqKV9ZWl5++WVPGj58uK+ePXumKSb3towgsUDAOQJpOhGpS4MT Hb0+1b2tgUHAIDiXOShwJgiQVEmqxECCYmD11Vf3pPC1QM2ymLVl4cKFXlNTk69ddtnFV7t27VyM 0zmWRdoHykRCoZLpIuDiSUeZE5TQ6DWortegGDcMguelyCCck650QW2yRoBkS7IlBhIcA126dPEG Dx7s6/rrr/e1dOlSX1la5s2b502YMMHX5ptv7krMYhCyllFTVl9XTjTKmeAkRi9CtL0IuTwxCP+1 QY4ZhCV2DKVvpSxfUJ2MESDxkniJAUdiQPfhpS233NLXsGHDfN15553e4sWLfbm8aGjm8I2G8ePH e1L4ZsMBBxzQXG8H3nLAIGQskaa1uiQHR5IDV+n1u0p3hS0GYUtX2qsHLKYkFgg4TcCVE45yYmSI gSIx0KZNG693796+hgwZ4uv000/3ddVVV/maMWOGr7ieX1i0aJEnzZo1y5d6OaRLLrnE18knn+z9 5Cc/8bXjjjv66tWrl9e+fXtfrpi2IuXc1/4usUDAaQKun4iUH+OQ+RhIi0Fw3BTkxiEGwem0SOFD AplvXFPUKHEsMUtFY6BDhw6etP766/vSmwDSD37wA1/77rtvs8Ir+4MPPtgrpPD/e+21lyeF2wif jejTp48/loOUkh6BSs6tZ61NaROITAMBpwlUEvisSwIiBhyNAQxCbM+wYBCcTokUPpcADb6jDT49 H7E1+JwjnCOVxMCBpBgIpIVAJYHPujSUxAAxQAwUjoEZlhSkdmlJDtQDApzsNPjEADFADNQeAxgE 8mnqCNAw1N4wwBCGxAAx8EvLDhILBFJDgIaNho0YIAaIgdpjAIOQmrRIRXjNsfYGgUYVhsQAMaAY eCl49oDnD8itqSLwDk/D8zQ8MUAMEAM1xcA+qcoKVAYCAQEMAldAXAUTA8RAbTGAQSClppLAAVw5 1HTlQMNaW8MKP/i5HAOPWfspsUAgtQRuxyRgEogBYoAYqDgGMAipTYtULCSwnn2YR+NQcePg8pUP ZefKnRioLQaWWpu5ZSCyCQRSTWB3DAIGgRggBoiBsmPgllRnBCoHgTwCXFHUdkUBP/gRA9mJAQwC KTRTBMZz9VD21QOJIDuJgGPNsc6NAd2OldbIVHagspkn0AmDgEEgBogBYqDVGAgNQuYTBgCyR2Ah jQMJghggBoiBojFwpLGRWCCQOQL7WY31dC7dqjAgBogBYqBlDPzF2sY2gTKXHKgwBETgLAwCBokY IAaIgWViIDQIZAoIZJaAHPIUGgcSBDFADBADfgzo1qu0UWazAhWHQEAAg0DXMl3LxAAx8L8YCA0C SQICEDAC3UzTuXrgCpIYIAaIgeVOJStAAAItCaxlv75B40CCIAaIgYzGwF1Wb0m9qiwQgEAegQ3s 9/cz2jjQxUo3OzGQ7RjAIJASIVCCwPfs/59hEriKJAaIgQzFwKdW1+8GIklAAAKtEMAgZPtKiitp jn8iY6B79+6etNJKK/mK0MCEBuFG2+ZvTd8JxO0GUiUE8gjsYb8vjvDki/JEZlskL2IghTHQpk0b r3Pnzr5WXnll3wgUU2vm4IADDvC23nprr0ePHr7KbMcesfVkDjAIpEMIlEGAKaFT2AiX2ViW26iy HjESSQzIHOQahCuuuMIrpTFjxnjS7373O1/HHnusJ3NQjkHo2LFjWO6Zdk5ITUV0rv29bxntJatA IHMEdiOhcB+aGCAGqokBJfw11ljD11ZbbeVrjz328I444ghfw4cP93XRRReVNAOFzILMQSkTof9f cMEF3i9+8Qtf/fv392QOKjAIoXH4tTGQumcuC1BhCLRCgAmduEqM5CqxmiTDd9w1J+UYhHISfNTr hD0PJ5544rvbbrvtFKmVHoRCBmEbMgYEIPBfArvSSLvbSHPsOHb1jAGZgPXWW8/X7rvv7uu4447z Lr74Yl9RJ/cotpdrEN59992mBx54wNeQIUOa2rVr56sVw3CN/Q+DQHaEQA4BehHoRaAXgRhoEQPh cwO1GoTrrrvOswTt66abbvI1YcKEis2FtlOOgZg4ceJnb7zxxq1SFQYhNA/HWPsorUCmgEDWCehZ hM/reSXCtrnSJQaSGwOhGejbt68nHXTQQd55553nq5yk3No6uQbBs+XLL7/09d577/n6z3/+473w wgu+nnjiCV8PPfSQd8899/i6+eabPW2jNYNw1VVXeaavpZdffvkeGYNCCnsT7C2I1noRcv93gcXt yllPENQfAv0MwWwa8eQ24hwbjk29YqCQQajEGEyZMqU5oT/66KOe9Nxzz3kLFy70lbuUMggtVs77 Rdv64IMPfL366qvNPRPlGoTQNLzzzjtN48aN82UPWbZmFjAI5EYIBAR62c9X69UIsV0SHDGQnBjQ WAO77rqrr3POOcdXJaYgd91cg9Bagq/1f/lmI9zeggULvNdff/0VqVjvQe7fQ4MgczB9+vSmXXbZ pTWTMMbitmcgkgUEMk1gDRrx5DTiHAuORVQxsPbaa3vSz3/+c1+XX3551YYg30g8//zzteb+mr4f GgRt5Ouvv/5w/vz5j0lmCqa0ZhhkDsowCDIPVwRaO9PZgcpnnoAMwrNRNUpshwRHDCQjBuppEGQY pk2b5mvWrFm+vvrqq5qSfrVfLmYQ7LbEbcXMgnoURowY4ctutxTqTZBBkDmQVs58lgBApgl0str/ iYY9GQ07x4HjUGkM9O7d2wulEQil8ePH+6r2NkKp7+UbBL2poFsPUvgWwz//+U9v5syZvj788ENd 7fuqx/LNN998IX3++ecvyhy0ZhBC4xA+l9C+fftCJuEyOw4SBiHT6ZHKi4AmMRluWlJp48T6JDRi IN4YWGWVVTzpyCOP9FUqmcfx/3yDIHNQyCCoLDfccIOvO++80/vb3/7m65lnnmk2E++//773xRdf +Cq1LFq06G0zHR+YOVgkaf2lS5culuwByRlmFG6VCvUm5BoEmzOiSbJYztcf7G8dSRMQgMByy+kV yPk0+PE2+PCGdyUxkESDUIkJCc1BvkEotI2rr77ae+SRR96U7DmDRz/77LNnJSV/mYPWDILMwuLF ixdI1oNxR7FbDn/+85+LmYPQLAwjOUAAAhgEBhBiAKFExkCHDh08SaMbhqMHVpKUXV03NAj23ECr DyAGDyhO0S2G3F6HcgyCjMPkyZObdKuhyO0GDALZEQIBgc3t55uVXNGwLlfAxEB9YyCrBsGeaZgj c1CGQWgeLMluTbwohUbBTMJHUqm3HEaNGtUkFbjNoL9tHYhEAYHME+hqBK6n0a9vow9f+JaKgXXX XdeTwmmQXe0JqLTcU6dOnS3NmTNnajljHeSuE5oDuyXx+JIlS74JjYLdmni6tW2VMAgT7FipXZRY IAABI3BIqQaM/5PkiIFoY6Bt27aeDebja+zYsb4qTbCurx+ag2oMgkyAzEEhg2DPItwqtWYUDj/8 8EK9CBgEUiIEChBgnATuyyfyvnzajMnKK6/sSVk2CLX0HBRK+vPmzXvYehG+ClXKHNjojE3S+uuv X8gk/NJiTmKBAAQCAn3S1hBTn2iveOEZDc/QIJx00kmZ6zEIezxkECp53qCc2w/huAj2OuQ7NqDT a619J9cgFBhE6c8W65IGmGOBAAQCApfbz6UkgmgSARzhmBsD4SBH559/vie5fnug2vLfcsstsyp9 ILFcgyBzINnzCc9/9NFHd0utfdemqS40yqLMwdGBSA4QgEAOAT3F+zLJjeRGDEQXA1tuuaV32WWX +VJizaJBkDEIzUE5Cb/KdfSa5JRyDYL2sc8++xS6zYBBIC1CoAgBDcs8kgQRXYKAZbZZ5huEaq++ Xf5evXoOWjESvlkoZTRsGuumdu3a+bLzNFR4m6E7WQICEGhJIDQIX5PYsp3YOP61Hf/Bgwd7Uj3n S0i6aQh7Dqp9U6FUgq/1/6FByDEHoUnYx/4msUAAAgUIbGd/e5UkUVuSgF/2+IWvLyY9ede7fDbZ 0wu1JvA4vr/XXnsVus2AQSAtQqAEgfb2/6GmT0l02Ut0HPPqj7lMQr0TcNK374pBuPvuuwsZhAss /iUWCECgBIE17f+TSBjVJwzYZYPdrrvu6klJT951Kt9S2+5Sm7nxH3Fc+Ue1DxkEjYlQZFyEdcgO EIBA6wRCg8BrkAyoxIBKBWJg0KBBnlSnxOvKdp00CDIaRczB/1mzKLFAAAJlEBhk60znajgbV8Mc 5/KPc9YNwoQJE5Y89thjT0hRXdnHuZ0TTjih0G0GDEIZSYFVIJBLQG85nGyaSwIpP4HAKr2svvOd 73jjxo3zlbUehGuvvfYL6YUXXpgWZ0KPel/33ntvIYOg568kFghAoEICK5L00pv0OLalj22vXr08 acyYMZkzBqERCs1BSg3CmArbRFaHAAQCAjIIw02fkExKJxMYpYvRiiuu6J133nm+stZroPrecMMN c6WZM2feEfXVfCO2N2vWrKaOHTvm9yKEBqELrT4EIFAdgVXta6NMC0mC6UqCHM/ixzPLBuHWW299 QwMfJXXwo2oNRv/+/fMNwo12DsgcYBCqyw18CwLNBHrbp6tNjMDImw6pf9Ph6KOPzmTPgcxBWg3C 4YcfXug5hPVp4yEAgWgIYBAwB6k2BwMHDvSkjN1W8F9fvP/++/9d7dV5I79nszreJc2fP/+RuXPn 3lusLEUMwneiaRrZCgQgIAI9glsOX9BFzS2HNMVAjx49/AcSs2gQnn/++QcameRr2XdoDkoZhNNP P71QDwIGgbwGgToQWNe2OZZnEzAJaTEJoUHIylsL11133QJJ5sAlg2CG4O4FCxY8J3399ddzvZzF /vavYmZj9OjRhQzCjnVoG9kkBCAQEODhRW47pOK2w/HHH5+ZWws333zzW/Zk/y1SLVfvjfhuaBBy jcE333yzSPrggw9uK1QmmYMiBmE3WnIIQKB+BLrZpjXYyFtpuZKkHtnqFdl88809KUvPHcggNCK5 l7PPr7766rVAby9atOgdyXoKPjADsFDKNQbhZ5mDTz755NFi2//zn//cJNm5na/B9Wsa2TIEIBAS 6GAffmR6ggSbrQTr+vHOgkGwoZK/kR555JGnpHISddTrfPjhh7dLH3/88TR7XuBRyW4J/PPzzz9/ 4YsvvnhJ+vLLL1/NNwiFDEHu35bY0po5UD1uuukmXxgEEhYEGkugjesJg/Jnx+C0a9fO+/3vf+8r rT0IEydO/DQJzxnkG4RSib/U/8MehXnz5v21lJmZPHlyIXOwk53rEgsEIBATARkEddvdZfqGZJud ZOvisd5uu+1SawxCwxMahFJJtJb/f/bZZ8/Y1f8rkt0SeHvx4sVzJUviX9oF/lKpVMKv9P8yCOWY A9WriEHQA4o8pBhTYmA3EMgn0NP+oOcTmCGSBxkT9SBjmzZtPGnEiBG+0tR7oJkXpWnTpr0gvfPO O1NqSf75333//fdvkuxhwfvUtS8VMgiVJvxK1rdnEj60BxLLHgbaTFKxNxgwCOQtCCSAQKIShItX u5Q5ut6YtBqE66+//uMXX3zxPilKU2C9AZ9I1hNQ8CHBSpJ7LevqgcX33ntvqlRJ/caPH1/IIGyR gHaRIkAAAkagv2mC6UsSXXSJDpbVs/zud7+bqp4D9YLIIJRKnHb1P0WyZwLulKyb/kF7YPAxyR4a 1K2C6ZI9LPiGJeR3paQZhFJ1zP9/EYOwDi0zBCCQLAJrWnFOMOlth6UkuOoTHOxqY/frX/86FQZB txPuvffe6VI5EyyFBqGWK/m4v7s0WKzsVY3bcMYZZxSaqGn5ZDWNlAYCEMglgEHg2YTYbz2tvPLK njRu3DinDYK9tvf2jBkz7pTsfvztkvUI3KHBgiR7LuAf0sKFC2dqHIFgLIHPLdcukeJK8sGtia/t 9sTXle7TXol8wOpyazjfgj5X2nvw05/+tEmyhieUZnGUMAjkIwgkmMBqVrajTH+nN6G2q2F6E8rn 57JBuPbaaz9/8sknH5WUKMPEqUQq5d6b14OE9re/SHbL4GXJnvz/rNIknbu+bjuY6XjKbkc8Ltnn J/SAomTjGbyocQyCsQzeDAc5yjcINqHSfZLGQQi/a2MgvJIz/sFrGkY5rFOuQajUHGh9m1vDV45B uMI+SywQgIAjBDa2cp5heoZkV36yg1XlrAYPHuxJLr65UI1ByE+qYeI1s/BFuWZBV/8yB4UMQiVJ W7cI8g1CJd+vZt0CBuEUO28kFghAwDECGARuO9T1tsOpp57qSS4YhPCVxfAZg7fffvumapJk7nfK NQhmID5Vb4Gk3oha99uI78+ePbvJeozynz/AHDiWFCguBHIJdLdfDjFpsKVFXCVXfpUMs8LMOnXq 5F1++eW+km4Qpk6dOnv69On3ShUmV417MMXeTnhAsxtK1oU/XbIegDct8c+XWus9kDmw7z0bXu3b rQsnDcIDDzxQ6PXG3WluIQCBdBBY3apxKAkPkxBFDMgghCYhTQZB9+kl3bu3e/4LpHJvHxRaT+Yg NAgyB7kGwXoTKhqDoEJz0xTl+meffXYhg9ArHU0jtYAABERABmGS6Z0okgTbyK7Z6Nu3ryclzRzo jYRQ1Qx0VKtB0LDF9pbDvAJ6L5xIScMayxy4YhBkDvIMwjV27kttaVYhAIH0EtBYCpo5UgMv1fV+ NdtPF9899tjDk5JgEGz64Q+fe+65B6VSV83h2AX21sK94RsElrhftDcFZkv2EOE3tfQYlNq/i//f ZZddmiQ7h0NhENKbE6gZBJYhIIPwNkk8XUm8nsfzqKOO8qRGGYRJkyZ98vjjj/9dsjkSpirh5yZ9 JX+9LihZ4n8rZwTDyMYt0HDJdvvgeSkcP8FFA9BamV955ZWmjh07+soxCEfbZ4kFAhDICAF1F37H dFzQEHAbgl6Vor1KWTUIZjTm2+2DdyW7VfCXtBmC/PqEBiHHHMgobJKRNpFqQgACRQhgEDAIRQ3C b3/7W0+KqwfhxhtvfF966aWX/i5prgNL0u9J1YwsWO1tBCXQ/IcN02wSLrjggkIPJ2oqehYIQCDj BHpb/fWa5JR6dlezbfdubVx88cWeVE+DoAmTpJdffvl5u00wRwrnEqg2wVfyPT1wGD5YaLcv7pGy ZhC22WabfIMwzs5XDELGEwPVh0AugT4kcfeSeL2OWYcOHepiDDSY0S233PKmZKbgIRtrYJZUSVKv dV0zBZ+Hrya6OqhRFD0a9913X6GegwMspiQWCEAAAs0EMAjcbmi+3SCDEIVJuOqqqxZJ4eiG9rDh IzlzHSyqNdmX+33NdWAPNf5N0sBIUSRY17dRwCD8yVqDboFoGiEAAQi0IIBJwCT4JmGFFVbwVc3t heuuu26BZCPzPS9ZIn0Qg/BupIMaRWFOdt111/wehNAg0CxCAAIQWIYABgGD4BuELl26+CrHIFx5 5ZWLc9crZBA0M2KtsyOW21ug9ezBxg8lDaEsRZFQ07KNadOmNUlt2rTJNwh6FokFAhCAQEECGAQM gm8QunXr5qtcg3D77be/Jr3wwgvTpNxkqlkJ7S2EL6RKknwl69q2l5oBWSCZMXg/HCApLUk9ynrI HOy+++655uDPdswlzevCAgEIpIjAKKvLLhHVB4OAQfANQvv27X0VMwgaxOihhx76lzRr1qxbCiUw DTcs6SFEezNhiVRJ0i+2bviWg36GDzlqACWbSfGfUpTJNI3bkjnIMwiH2TGXWCAAgZQR+IfV52vT w6ZjTe1qqB8GAYPQwiCMHz/eu/rqqxdKd9xxx8xnn332L1KhxGlJ+q5wZMN63k7AIFT/PEOTLdY+ 5AtzUEOjyVchkGQCr+uKLxAGgQQfxXwbCy2epBmPPvroNCnfEMgMSJoR0br0P5LCK36ZhKgMgm1n kaQ5FKx34BnJ9nt3qDRe4dejTtbL0yRtuOGG+ebgCjvOKyS5gaNsEIBAdQRWta99kmMQltpn9Sic bupYxSYb3YPwjZWZSaXiNzkfGffHAj1qP6cGajJz4CsYPGiqjTA4VfMS2D3/L4sZhNZuI+g2QzgL onoCNHGSFJoMewVyhpmAJ6S5c+feXY9kmcVtFjEHMgvbVdFO8BUIQMABAltaGWUKCl01vmh/P8vU pYJ6JMUg3GBlvtX0YGB4VBcpt7ckiivltG9DvQD5dXzZ/iaNNH07kEJkSKAWV5gTJ05skgoZBJmE YmbA5jOYpzkNgnkN3gmfD7BnEh4OewLs8zRJsy9mMWnHWeeTTjqp0K2FCpoGVoUABFwjcEQrBiFM DJUahEaahEUlDoAMQihd9c4roLQn/UL1+yowUzJUw3NMgQzCQ4HOsJ8DTBpCt9AwutvY36WiBqFQ QrMZDm8Lh0hWT4D1AMyU7O+3apTCcKTC8LN6IOJMjOzr3aZbb721qV27dvkG4beuNXaUFwIQqIyA DEKphPgfW+cy0+plbjrJBqG1KhQyC5reOjQUM8tgVYplo/8fPhug2wDnBtrNfmr0O5mD0CD0t89S JQ+sFjQIJ5xwQpNULNF++OGHd4QjI3788cfLPKsQfi/XIGASqn/IsFLDs+aaazZJOcbvKvss6fYk CwQgkHICet6g3MSl2RsnmjZohYmrBqG1wyyTIIMgPW3SGx/3mHSv/cpAl5bJ8dMy13u3xHq6NSTz Jqkcv8lbX+bmjkD6n+4VS7nPlsgkhAZBJqGWRe/ASy2uNAcOHNgk5SemTz755BHJXjN8LUz+rRmE ShMb69duIjSNc55BuNGOb2gea4kVvgsBCDhC4JIyE1auiciaQSh1KGUSZBDOM50Y6GdB8v2u/Vwn kBjKILxkksGQNPOduvUPDLR1cDxkEMKrej14OdS0cyDNoNk+KFSuQRhsf5PK7e0pVa9q/q+n2ptN QteuXZskPeQWJm09nFjIIJDUa0/qUTC0+S6apAJDKYcGoZq44DsQgICDBCYFCancXgSt97FJV63f K1DfNPYg1HpYQ4NQ6s0QmQQZhDXL2KEMQmgSylg9tlVOsj1JLXoS8g2CTZE8XbKExgOG7ybDGITm 4le/+lWTlH8M7XfdkmSBAAQyREBXsZWYg9x19YqkjML3c3g12iCUelAxQ4e2IVXd0fYqtUgw11xz TZOU+zZDFFe7bCN6c1HAGIy0v0kdGhJR7BQCEGgYAY17UK1BCL+XFIOg8mAQGhZK/o4LGoQ999yz SSKhR5/Qo2R6wQUX5Pcc6BZk10CNjSz2DgEIxE7gtQgMwhe2jXtNB5ka2YOAQYg9fJbZYWf7i3R9 7pVo586dm6SXX34Zk5CwWwoyGOF4FTZ/RjGD0PjIogQQgECsBPSqUhQGIexJ0JwO0lMRmI5qezXo QYg1hIrubJnnEGQYhg0bhkFImEHQrR8ZgzxzEL6d0zMZ4UQpIACBRhCQSag2GSfxexiERkTRsvvU KIvLPOiGQUjeLQYZhLxjda39vmGgZEQTpYAABBpCoLXhlpNoAEqVCYPQkDBaZqcFDYJeedT79VKU 987ZVuXGw2babJIK3FbQa7QsEIAABPxXl0olXZf+j0FIVlCPzO9JOPbYY5skknrlST0qZpdeemmh 4ZOvtmMlYRCSdQ5RGgg0jEAlIym6YBRkEDAJDQunZXbcL98ghPe7H3jgAUxCzM8jaNIlqU2bNvm3 FfTMwXrJCRtKAgEIJIFANSMpJt0oYBCSEFn/K4OGepZaJKV+/fo1SVFdFbOd1nskNDpiaA5yDMJY Oy6SBvNigQAEINCCwJ/st6Qn/ErLh0FIVpCH8zRcl2sSQoPw9ttvYxLq2JPw+uuvN0kahyLfpAXm YKVkhQulgQAEkkKglpEUK03cca2PQUhKdP23HAUNQpisfvnLX2IQ6mQQpk2b1rTRRhv5KmAOzra/ YQ6Sda5QGggkikAUIynGlfjL3Q8GIVEh1lyYHxZIUn7iGjVqlC9uE0T74GKBNxTE+9hADJ2czPOE UkEgUQTSZhIwCIkKr+bCtLFPpwRqcUUbPrg4adIkTEKNvQmzZ89uOu2003zlGASNbCn9XzJDg1JB AAJJJfC6Fazcq3MX1sMgJDXSlltOM1pK5xbqTVBCoxehul6Exx9/vEnacsstC91OCA1CciODkkEA AokjoJEU56fMIGi4Z5ZkE9C97zH5JkEGYdy4cb4wCqWNwsyZM5skTc+8/PLL+ypgvP5of1s/2eFA 6SAAgSQSSNtIirk9HLMM+CNJhE6Z/IfjZBCWMQl6BU8699xzC5qEOXPmTMU8/Nc85BqEPGNwo/1+ SCCeNeCEgwAEqiKQtpEU82+ByCDcbNJ4D8ebdgi0YlW0+FLUBHrYBi8tcNXrXwkffvjhvt58881m s3DLLbe8+dprr90uZdEozJo1q0n64x//2LTGGmv4yuM3yn7XrKosEIAABGoi8Fv7tgvPFURdxs9q osaXoySwsm3s/ECFusibNtlkk6b77rvvTumKK65Yetddd70qZcUghKZAvSprr722ryKmSuYAgxBl dLItCGSYQBpHUizHTMggvGy623RVIDWsR5s2ynA8NLLq6tU5tUji09wB07NqEIr0FIQmIYzfnY1d 20CNPI7sGwIQSBEBPeFcTlLNyjoyCGpoWeInoFchdwvU4ipZBkH64Q9/6I0ePfobacaMGXemtRfh 3//+d5N0xhlnFLqVcI0xkvY3yVhxyyz+WGWPEMgEgXsxCC0M0gLjMSPQ5ExEQHIqKYMQmgQZ19Ak TLHPXwTyunXr5stmhXxL7/1LrhsF1SFcNCxyODZEDoNcwyRzsEJyDhslgQAE0koAg1C8B0VjKuiK liV+Ar1sl6MD/b2YiV1zzTWfks4+++zmp/pdMAvTp09vfqVz3333bVp11VWLPVeQfyth38AcYBDi j0n2CIHMEUjbSIpR3wrRWxAsjSOg1/ReKGYQ7O9LA73QtWvXKdLBBx/cNHnyZF96wK9ehkG3OKSH HnroabsdcH8l+wkNQpEeglyzcJ6to2GqZQgwBY2LQ/YMgUwSeKOVxjfqZOvi9uZnMiqSU+lNAgNQ Tux8YutKT5puklZeeeWmIUOG+NJ8D3/961+bVe6tCRtv4A7pySeffPSee+55WbJhoefZGxWedNVV V31ts1LeVMggPPfcc03XXHONL7sl0jRgwABf9jxFoR6Da63M0s9N30rOIaAkEIBAFgmkcSTFchJJ JevIIGwaKIsx0ug6X5ZrYNu2bevZLQVfBYxt5AbBZptcNHToUC9fRx99tHfEEUd49vM16YQTTvCn VJY23XTTJuvJ8FVGD0HuOrkGodHc2T8EIJBxAmkeSbESE1DOunqdjCU+Al1tV9KnFRiE3OO4xL4n fWT6TyDdqng+1IorrvgvG2PB16BBg57bf//9X5WOOeaYWWYI3pdaMwhBuR6wn1KlZkDrX2g6ONC3 7We7QPFRZk8QgAAEWiGg7sxyEmTW15ljnDTyH0s8BI4pZBC22GIL79JLL/VlSd2zYZl9NTCGSxkE vQmjgaB0nkkDTasHiocke4EABCBQJYGsjqZYTVLRYEos8RCQQZBaHKdf//rXnjRhwgRfZ555pq8d dtjBW2GFFXzFaBZ0S6NUz8Hy8eBiLxCAAASiJ5DV0RSrSSQafZElHgLTbTdS83HScwfhg4GhQcj9 OX78eE8aPny4t99++/nabrvtvH79+vnq27evZ8MUN6tHjx5e9+7dfWnb66yzjq9evXp5ffr08fWd 73zH23jjjX0VMB4P2t9GBvqF/dwrkG7drRcIgxBPvLAXCECgDgQYSbH8WywyCFKnOhwHNvk/AjsV SMaevb7Y3HNQyCDU62/f+973PCmnTBpMS+rCQYMABCCQZgIMlFS+QQiTxElpDogE1O3WXIMQ3joY M2ZM7Abhwgsv9GxUQ185ZQrfNkgAKooAAQhAoH4E/lnoao2/tfrg5jPGh/ka6hOT69tmv8mNv+9/ //ueVK8egta2a281FLq1sI2VT2KBAAQgkHoCmITKehE0eh+9CPU5LX6faw70hsJZZ53lK06DED7r 0LNnz3yDoOciWCAAAQhkgsAqVktGU6zMIChp6B50v0xESDyV7Gi7kT7MNQh6sDBOYxDuC4MQz0Fn LxCAQLIJyCDoda1qnurP+ncwCdHF9k9sU1KLmNKIhY0wCKeccoonFTgvhkVXZbYEAQhAINkEtsIc 1GSOZhu/LZJ9iJ0o3eNWSikRBmGbbbbxpJzyLLTP0mpO0KSQEIAABCIgwEiKtfeeaChfHlyrPhj7 B4m4hUFYZZVV/HENpDh7ES655BKvQ4cOvnIMgkZElFggAAEIZIbAGfQg1NSDECaRWcZRGpSZyImu ojIIoUloTsp77713rMYgNCEHHXRQoVsLP7AySiwQgAAEMkNgNAYhEoMQJpW3MxM50VVUE2FJPsNw 3AGNQRBnz0G4L42mmHdOzLTf2wSKrtZsCQIQgIADBPQ0voZc1mx3mgEv6w8f1lJ/GYTBDhzzpBRR U45/GcjnPmDAAF9xm4PTTz/dkwrE/2lJgUU5IAABCDSSwCAMQs0G6T1juGegRh5LF/b96/x4O/XU Uz0pboMwcOBAT8opz9f2WVrDBZCUEQIQgEAcBMbaTl7CKNRsFD4yhgfGccAc3YdGo3wtN87WW289 T4rbHGgY506dOvnKKc9t9lligQAEIJA4AkdYic4x6QEu3QONc9GgNdr/pxiFmozCXON3SJwHzqF9 7ZIfWz/96U89KSEG4f+sfBILBCAAgcQRWMFK9ErQiKrb+uGYS8grkNE8jyGThUlYNnjvzDUInTt3 9i677DJfcRuEQw89tNCzBxiEmBscdgcBCFRG4MK8q6wJ9vvBJpmHei/qXq3lgT2++19+MgjSL+t9 wBzZ/resnFKLB2J32mmn2I1BaEQ22GCD/Fh9y8qnWyBMyuVIUFFMCGSRwFpWafUe5DdgH9vfnjBd Vycoa9t2dQ+dJB8dA5mEE+p0vFza7CgrrNQcW5qU6ZxzzondIIwYMcKTCsT5WS4BpawQgEB2CcgE tJaoT7T/d68DnrMxCJEbJL3Sd2qgOhyyxG+yU2A8W5jPjTfeOHZzoN6DnXfe2VdenGu66XUTT5IC QgACEDACW5o0MVCpq/mnbZ0bTBodcaMIyC0zNn4ZZShVRv7/3+P4uSmLU0b/rFAMHXvssbEbhLFj x3orrriir5wy3W+fJRYIQAACzhBo8UBXGYlaV6q1LBpWVu+Ak9Drx0B8s7Y8ZRWW/LhabbXVfDXC IBx55JGFYnuIlUtigQAEIOAMgR9XkaxlEl413W7a1lTJq5LNQ99WsV9MRXmmQgbhXGcisPaCfi8/ lkKDEPeETLq90Ldv3/w41bM+7QPVXlu2AAEIQCBGAtWYhNxGUPdWNa58qUVjIGg9En39GYSj9f2x 1EFJwf+vzY+pffbZx5Pieq1RD0KG0oOReeW5IAWMqQIEIJBRAuoB0JsLtSRuJX7drrjYpPe8ly/A 8pga91FL+bL6XRmFNCeo1ax+6tFqPr6aTvmiiy7yFZdB2G233bxQeTG+1H7/fxltV6g2BCCQEgKn RJy81a36YAE2jIFQmxGrxugoSf0pUCW3g1wI7WXmXNhqq608KS5zMG7cOK9bt27NyjuP/uYCRMoI AQhAoDUC6v4PR1esJgkV+47mX/iJSQMwrWeaF7ERibKsad6WTIKUFoMQDjb0en48nXzyyZ4Ul0E4 7rjjWoubQ2l2IAABCKSBQP7oilEmTM0doCmLo9wm26qcp3oS0jCK3+5WD6mFQVh//fVjMwahAdls s80KxaEGHJM0PgMLBCAAAecJ6Ar/Q5J46k3MrXaM0/BUvQxCi+R8yCGHxGYQRo0a5Ult27YtZBDG WNkkFghAAAKpITAJg5B6gxAmND1U2sHhyL0nN1Y1MJEGKYrr1sLee+/tSUXOl03t7xILBCAAgVQR +AKTkBmTcJ8d6zgm6IryBNFonpKeqWhO0BraOC5zcMUVV/gDMZUwCFHWmW1BAAIQSAyBSkdY5HmA yp8HiJpZi4RZgcnT2ybSiomJvtYLorEdJJ+fxh2Qfv/738duEGQSCnD+hyMcKSYEIACBqgiUM3hS i2l1K0hIUSdGtvc/c6Lhhq80TQ9UiWl4tKpIifdLnW13ehOm+W2Yb3/7254UV++B9jNs2LDWYu4X 8SJhbxCAAATiJaAn3TVCYmsNoV6L1Hvo0zAHibklocT57UDt7OeuFRwbGYRV4g2zivd2uH1DahGX v/rVr2I1CP37988/Lz6zMoXqUnGt+AIEIAABxwg0T37TSpLR7IFaFlaQiLjir+/tiAl2LKRwucQ+ qNtbKjVRlkbU7BkoieH6rBVK8mOoe/fuvvRMQFw9CBdeeKHXvn37/BjWHCOhksiNMkEAAhCIlEC5 oyv+NNjrzvZzIkYhEb0Js+04rF4gGraxv40y6ZkDTfVdbLrvf9r/1oo0mmrf2Fb5sbXffvt5Ulzm QPvZf//9CxlclS1U7TVlCxCAAAQSTqDc0RX/kFePDe33S00zMAsNNQv5xyU/3PrYH6Qzihynp+3v 30pQjLZ4BTfuORfUSyH17Nkz3yA8lyBGFAUCEIBArARK3RKYXKQ0ugde6rv8v36M9KBiuYveWtFo l1LuMXnRfpdkJBq59LCdf5Vbtq233jrWnoNTTjnFkwrE9PGNBMO+IQABCDSSgLqa328l2eu+dbFF tx/mYBQaZpQ0q2ahmTULHS/dkpBONt1s0m2KMCHKbDRy4J/f5MfQaaed5klx3V7YZpttPCmnHBov RFq5kScn+4YABCDQaAITW0ny77RSOD3RPQuD0DCDoISmN02qWVa1L0m/NF1reqaajUTwHfVEvZUb Q7169YrNGMiAXHLJJZ5uaUg55bjBPkssEIAABDJNQA9g6TWuYrcEBhahMxRz0FBzoOP1uCmKWRw1 4uLmgeI8GfbKj6FDDz00VoNw0EEHFYr7Ha1cEgsEIACBzBO4q0SyzzcJG9v6GsqX5wway2CxHYMf RRS9MglxP4/QYpyNuOdcUA/COuuskx/DGgOEBQIQgAAEAgIaXbG1wZP0WmT+IpPwKSah4Sbpbkej WGakxWiQgwcPjrX34PTTTy9kcE91lCfFhgAEIFAXAuqm1gOJxXoExuXtVaMx6r41PQiNZ6ABrbYL VJfgqNNGNchTc/xozoVzzz03VoMwcODA/PjVYFMaTIoFAhCAAATyCBRL+Pfmrbev/c58DY03B7nH 63pHolkTR0mf5BqEfv36xWYOxowZ40mdOnXKj3e94cECAQhAAAIFCGjCnEImIf++rJIRvQfJYvCh HZMkDX5U7ATThEdSi/g5/vjjYzMIehBSKhDDmt+CBQIQgAAEihCYWaDh1Dvh6wbrd7Ofue/RYxSS YxTGJDyqdStEy/NhjPXo0cOT4pxzYYMNNvCknDifZZ8l3TpjgQAEIACBIgQuLmAQwsb0Z8F3NOAO xiB5DN6w49I1UBIDXCNzyiS0iJ0hQ4bE1nswYsQITyoQvyOSCIwyQQACEEgSgdZGVwznAHgAg5Bo g/S7JAVUUJY17Ocik0yCn6CXX355XxqsKK5RE3feeWdPyolfvb0jrZNAZhQJAhCAQOII/KmIAVDj rmF5i80USK9CMnoVNG1y+4RFVThxlEyCHyfbbrutr7jMwdixYz2NtSDlxPc99lligQAEIACBMggU G11Rr0KOLmIeMAfJMAfhcdAwyklZOlhBNGy31BwnZ5xxhifFZRCOPPLIQjGqN3IkFghAAAIQqIBA foP6rn333xiEyG8vaMKsFoMGRcD44QqOc71X3S+/PppzIe55F/r27ZsfzzIs6mlJWm9LvY8H24cA BCBQM4H8ERaVxBj/IPqegluN6xDTRFNUM2SqK3/3miMgmg38Nd8gHH744Z4UV+/BOeec42kwprxy nBdN9dgKBCAAgewRKDXCIrcVojELMyy0cl+xWymCHoTw2DTaJPTLr0vXrl29yy+/3FdcBmG33XbL j1WZ3d7ZO6WpMQQgAIHoCGgeBoxAfRnoKfqtA4VH7hj7cKdpfo38b4kuFKra0mW55W/btq23yy67 xGYMxo0b50ndunXLj+GHqqoNX4IABCAAgWYCHe2TRlLEJNSXgV5NLPR64ob2d+kck6Z31nwBlRwL GYwtGhTPGlSrxVTim222mW8OzjvvvFhMwrHHHutJBZgd1CAm7BYCEIBAqghcUmFSqiSBse7/Ev7U MqJmR1tnrOmlCo7J1WVstx6rqBekxfE94YQTYjEG4a0LGRIppxwf2Wdp+XpUmG1CAAIQyBqBNa3C mjWQZF5fBi8bYz33Ue5Srkl4zzaoWQrjnKlQ9WhRvp49e8Y6pPKoUaM8Sbc1cmJ3tH2WWCAAAQhA ICIC7Ww78zAJdTVJi41v/wqP1yG2vgaw0quSpQzcBRVuu5bV1dPRojw/+tGPYus90NwOq622mrf3 3nvnM9nYyiWxQAACEIBARAQOtu1E/a5+qYSWxf//tsrj1d2+J51u0gN4mmArn5+eJVmhyu1X+jXd Lmnef8eOHZcZUnnPPff0TjzxRK9Pnz6+9HbDKqus4u20007exRdf7KvatxyGDRtWKHY00BcLBCAA AQhETGBKgYSTxQRe7zo3GWep1mWAbUDPjjwfKCy3Jtqq97K27UC9Ic2stttuuxbJ/pBDDvH/V2Bs gubvyCxoYqVqTEL//v3zj9Ontr8V611xtg8BCEAgawRWtwrrPna9kyPbX2656cZZinLRUMdh789T 9lljLtRzauOR+bESDql8/vnne1KnTp3KOtYyCRdddFFFJuHCCy/02rdvn7/9K6IEyrYgAAEIQOC/ BNRtXVaDznqRcNIoiJvVIfg0CdfsQD+tw/a1SZkRDcndHC+9e/duTvC77767J1USJ9tss01FBmH/ /fcvtP3v1am+bBYCEIBA5gk8XEmjzro1G4Xf1CniVrPtSnqIsB7LAfnH/ogjjmiR4PU2QyXxobcQ JL2RUOp2gx5OLLB9zW7JAgEIQAACdSCwjW3zy0oaddat2SDoNkOPOhzLem+yxbwL6uofPXq0n9gv ueQSX9XGxoEHHljSIJxyyimFtv+relea7UMAAhDIIgF1Gev9/Kobdr5bNbs3jJ3kyqLBh5Z502WD DTbw/vjHP3pnn322r2rjYeutty5pEPQwZM72F9pnaVVXAFJOCEAAAi4ROKzaBp3vVW0MCiVRTXqU 9EX3+Qu+7aK5EKQhQ4ZUbRA23njjogbh0ksv9SS9TpkTdzfYZ4kFAhCAAATqQOBmEn2kib7aBDnf jsNNpv1MGqWwkhEX6xAWzZtcyT5J402fBLGiXoSiY2a09mpja7EWzuNQ6DmEgw8+2JMKfH9QPSvP tiEAAQhkmcAaVnmNXV9tYuN70bLTzI+SJm7STJtdGhicv7R96/ZTLLegBg0aVLQHYf311/eknDid aZ+lpBipBh4mdg0BCECgPgTOxBwk2hzptcWJpq0C1ScKWm71/9mvN5o0s2Sls0tWbRgPO+ww7w9/ +IOnURKlgw46yNNzCT169Ci0zVOtbBILBCAAAQjUicCjGIREG4Tc5KgJte6vQxzsFWxTDyFqSupy 5n2o2ghEEG8yLXFPTlUH7GwSAhCAQHIJbG9F+yqCBruRySKL+9b9f02uVevybdvAPaYlgf7lQCy8 bWUcUWvF+T4EIAABCLRO4FUHEkIWDUA5dX7Gjp00yqShsitZOtvKF5vChw7L2V8t6+iZikLff8T+ /sNAeotjHZNeu5X+Y7rXdJZpj0B6XoYFAhCAAARiIPBz2wcmIdqHDGtJpNV+d44dx4mmrcuImR/b Oi8WSdjV7r/Y9+bafi4x6ZmG4wNdbj8vMu1kStLbGmWgYxUIQAAC2SFwW0yJIurEw/YKmxo9oxA+ p3CkfdbshroC/9CkWwnh7YR68NNtj7+YdMsqnLFy8+ycStQUAhCAQHoIaMpeXm90v/egWLJXt/6b MRjAf9s+JPVG1XMGyfScedQEAhCAQMIJnB1D8qjHlSrbTIap0euXeuNBauRYDQk/zSgeBCAAAfcI aCAeki0MKo0BTeql4Y03cS/kKTEEIAABCJRD4Ae2UmyD4GBGyjJj4cBE8xLE6ykryxCTblncYdq2 nOBiHQhAAAIQcJNARyv2VQlKQpVexaZ9/fOC47OggcdIwxj/2qRXDlkgAAEIQCAjBI5pYOJJe3KP on5XB3H4fft5n2lxoCi2XWobenD1fFP3jJwLVBMCEIAABHIIqKu4VKLg/41j9GSBaN3H/va3iI9b 7quJk2zbkkZXZIEABCAQC4ErrrjiTJvB9bSpU6dGMTpsLGVO+07WizjRYCaiNROf2vFZs0AQ6jXC IyI6ds/bdg42ha8m7pr2oKd+EIBAYwmMHz++11VXXdXfTMFgMwUHmkZeeeWVXJQ09rAss/dzI0oy GINojUEuT90GkgotGipZCb5S/no1UTrNpG2wQAACEIiFgJmBFtO5m0mYEcuO2UlFBDS87T+qSC6V JiPWrzyB5zO7osSRPcn+rzkLirHWswu3mz4zaYhjSb1HLBCAAATqRsDMwN9NL5kJeNe0MDQH9vkV 9RrUbcdsuGYC19oWlDhI4MlnoLEqSi29bIVxpk/yjqkmcjrMJEPIAgEIQCByApbst7ekv6fdOjjE fg43TcrvKQh+51ZC5PSj36C6lV/HHDhjjpT0y52pcQtbV9KDhmeaOkUfPmwRAhDIOoERI0a0v/rq q9cqYgRa3EbQOlnn5Vr9f4VBcMYg6OT6hWsBRnkhAIF0ESh0u6CEQdAthqHpopCN2tyNQXDKIDyW jbCklhCAQKMJ6FaBErueEzBNsFsGd5XbUxA8dzDU3kr4VqPrwf6rI7ChfW0+BsEpg/CxHS8GLaou 3vkWBCDQCgHdKtBrhuGzBBWYgRa3EnhV0f0w08NqF2AOnDIHuQ+SavwDFghAAAI1E8h9s6BaUxB8 70Xb1oiaC8QGEkGAtxeS/+ZCsbdL9IoiCwQgAIGyCeh2gSXwS/V2gW4XmJ6uxRDY95eGtxLspzOv TFtZjzDtZbdQths3blwfAbTf97H6fG/s2LFr2GfmnDEmf6IHwdkehEfKbhVYEQIQyByB8HZB+Nph LUag0Hf1GqONgqjb1IlaVF/dIlH9Pc9rY59nmp4IDNGF9nlq8PqlHqu4yPSbRFUgIYXpYuWYhUFw 1iBoEqWVExJLFAMCEEgIgQhvFyzzimKOUfhX3NXVcw1K+uEcDVaW14Okr94Q9YoML2Bk3gvWe8F+ /sXWuT/ucru6P71ywuBIbjM4xNXgo9wQgEBtBHJvFQTd/C9F3UsQbs/29bWScfBWQ6QPSRfqzg9u gVyqWyKmH+XXq5QJsv9/Y9+ZVxvh7H57A6u6pg3GILjNYIwdQ4kFAhBIKQFdNQcTGvkjFAZJs7Wr +8j+F5qCyy67bLVa8crQWNn1uuTQYKRF3Qrwy6qEb9IwzFU9E2HPEfQzRj3t5yq6raCy2rY2yDUf ts+f2/+/m/s3+9zqHDS6HVFrvV39fkcruMbkxyS4zeAhVwOQckMAAq0TqFePQDnbVbIt5/jkJfzt 7Xu9w4Rv/1OvhgZJmlrOPstc5wHb/pWmYXbbYV+ZJ/veI/b7DfbzXPt5ZGA6vrHPb5n+lrtd+/0Z 07hgnc/ts0acXS40X7pVEfTOHG7rbFsOg7Su09sqpqk1+5t+bPoZhsE5w/S+HbNuaQ1Q6gWBLBAI utQ1CFHzpEZlJsvIeguChLko7DWwnwN1319DKYfHIEz44b3/OMto+1xUj/3ZdvUmRm5Pxs32tz9k Ie6qreMw++KppjNMZ5vOxzgk2jj8pNoDzfcgAIF4COQOQmQJSffVwxEKI03y1SZRS4of2XfHmH6Z v41S9/yr3WdSvme9EFuW22MST7S4uZerrNia/OdWk4ZofhDjkAjjMNrNcKLUEMgGAUuEXyUlGVKO //YWBFqUjQhsbC2ftN1PN800vWHSK3g82xAfg3cbe/jZOwQgYAnnAtPVdrV9W3BPfLoevCMht0jI De8tCW5V3Gc/jyJqG0NgBdutHnD5BqMQm1E6wFhLLBCAQJ0IXHfddZ10q8CSy6aW+HfUQ3LhQ3EY gWQZgQK3SWbY8TrYjuHKdQoPNlsFAT0EqSdB9zHpIcgjMQ11Mw0XVXF8+AoEIFAGAQxAsg1Aa8eH 5wvKCPCErRI+BKkHIC8xaW4BbkvUxmBawo4xxYGAUwSC19s0Mt+DemI/eDd/IebAKXOwxI6XRlm8 w3SmUwFIYUsSyH0I8k1MQ0WmabbxanXgj5L0WQECKSagQXTypzSOe/AhzEb9zEYwJgJtYIrP4dyq rW2/fIxJqMgk7JeR2KCaEKiIgCXmT0nO0SZnu0Jv9EOHi60Mr9lxHVVRMLByqgjolcrWbj9MxEQ0 8/ljqo48lYFAGQT0RLqksQXs51mmy+zzZPt5P6agMlNgD/K1mvRL/T8O3nZcB5s0ZQALBJY7oYQB eCJgtI/9DB+EHGafw+ccsvRsg+bYYIFAaghYwplgyeAKXSVK9nGEScPhSjIFjb6KTcX+w96ABPQK tOCpQZpM0+04327iQezUnNnRVaSTbaq15xG+sv9vWWJ34YOQ+YM9pc08LDUO4iWxQKAhBDQev+71 6+lxm553+UKFsEZ/hunpQH/Tg4GmaZYENG6/NJHkX1/zkzQzkH+8LX56NCSA2alzBPTwYmvJvBZn qYGeJA04lJaxG/Zy7ghT4MQSCB7k0/DAP7Kksqdkn3cOtL0eDtO4/TIGBd4//9r+Nk+y772lJ8xJ /PVN/K7xtbh4w/Solft6+3me4iuxJwMFqyuBlWzrw0zj8/aiK94+ph8V2fveJZL3PyMq9b62nddL mBEXeh303AYLBJoJBFfomhBoqn3Wq3yT1H0fdOFrKl514Y/M6b4f7lqiobzuGY9wemZO1WwT6GvV Xze4Us9NsLfY3x4xvWT6MMcEnGufJ5g078PfTa+anmslcS+2/+0QEWLNcvmw4yZBt2QKdu1GxMjp zVgiOTaQrmo/Dq5q9e60hscNFXZ/q+tbuksKu8Dt81VBcr3MPuuhuPAe+elBkj3Rfkr+A3SmnwRX 4PvZ5/3CK3D7vI2uwDVXva7AQ5WT7Oy7ekc/vDrXsL66Opf0Dv/T9lOzA6biHjn1cP84WkyeaTrc eqR2t5jfzNTT6YaEwkdCQNNJK8FHceX9WYntXBpJiZdbrqNtR70cX5dZ7rm23s2mQs86RFHvSrex xMoyOCIWqduMNVJrBvqGxON+4uEYJvMY2jmm6aNnm3QLlwUCLQgoQQ0yxTng0b8iPga/sO29U6ZJ 0JgNpxXZv2a+lHSiPGMKJ7d62z7LXFRqAMpZnznNSwSDJZaHSS7JTC4cF3ePi55HoXcg4kyUws3p lcNyElmU6+hWw451YPm9ILGXKqveqFDPQ7nd+5rUSt1suq2hOStKbb+S/99ZBw6p2qQloSNIRO4m Io5dY4+d9Qzcahpn0tgTx5t+nKoGgsrUjcCvbMufRpzwyk2OmtehHks32+hkk7rvS5XlfltHWqeK gqjnJRzP4Rj7rPEcfms623ShSbdRSu1f/9fDllKHKsqQia9ceuml3SzJfEmiaWyigb87/PXMjumV TDQQVDJyAhryUgMb5T8r8EWZSa2cxFdqHSXwNpHX7H8bHG4f55dZnxdsvYF1KovGdLje1GTSWwua rEkPfOo2y/OBZtrPneq0/1Rs1rpDDyBBuZOgOFaxH6u9dMtA41oYey42UtHqNaYSV9huWxtHQPfa p5h0hX+O6VjTdqb3TUpkGhHxdtN1eclXCV9jFMwoMymHBkJvQdRr+T/bcLkPXqp+qitLAgnY/PCd 7IroExJP7ImHtysS9oaJnQc36I2c4JbBsASerhTJQQJylW1NGsWv1NW9/j/EVM4Vvq7UdU9rc5Pu 1YfLvfbhBtPFJk3nqQcJtzHp/r8eKNQrk7qS1uBK9Vw0mZR0Txn1Vg/KaFO7ehaIbVdHwBrEazAI GISMxcBiq+8Hpld5y6C6doNvlSawoq3yQBkJMt84qBt8hKlL6V1UtEa5DwdWtNESKyvpy6x8WYKD DNTtplUDRVkGtlUDAWsgd8pYcuDqPWFX7zHG33p2u6BrDacLX4VASQJ6+E6J7rEqzEGuWXjLvq9b CluU3GPyVzjEijinTB5PpaTOiT8quoVQqpAjRoxoaw30nBgbaRJ0dhN0HMd+vJneP5hOsUGJfq6B uUzfL3Ue8H8IREFA02y+WGYiLOeWg9ZZYNJT/0dHUcAGbmNj27eSfzn1nmXrHdTAsjq7a0vk3a3B 29T0f4GOtL9pmGCNbniP/fy3/ZwbKI4GmX2Q8GOPAQ1EZDGukTQ1eua/TOrNZYFAwwn0sxKcbLrD 9FyZCbGcpKl19FDi+Q2vYRUFsNfmOp5wwgmb9evX75kBAwY017dbt27euuuu62222WbewIEDvb32 2ss79NBDQ2N0nu2qzaRJk1a0E7yvPTH8A8k+61XHZRa72m1vVwVrW+Owja4MWiumDVayqg3d28+2 tVtr6+kqOxzi1/bd6pDVGjt97Nixa2h4YNu/Ju3RsMV66HSZxdbrYuttrC58Tfgj2efTbf2x9vMO NWr2U0MELwmkRnZbW29/+znU/vfH4MEpPTz1qOk/Jg0vHHtjzD5hnrAY4I2CKtpovtI4AuUagErW c3W6z5F2GDSyol/XQYMGeTvssEMLbb311l7//v19jRkzRjPetZb0NBf6Pyw5vpOTSPPnTT/f/qfZ 0P5mP2eaCr7fb/8fYbrSdLfpBdOHxfZt/xtt/9PkPo+b3gpUqqwql+YC+CxhDSqmAmPlXAwEZnln M+5bq9dMRr5xTTx7hkBtBDQjo+7Fa1AfvUkwK4LehYm2je1rK1bdv616S51NepVTIzpWYoRel1Ew E/HvSy655MeWWMOpdHN/DiDhchVLDKQyBmTC9SbNGPup6Y6HmzTYHAsEUk9AXWGVJMtC6+oVRhmO 40xJ7FpTV/9/yq1nly5dvD59+vg9C9Lhhx/+/ujRo59UD0F4C0FXDNZg7GN/O95+nmv6k32+V1L3 fij7u4zDXvb3P9jP++znLBOTEHG17NzVctrNT3B7TM/G6JmB59Uzl/rW3/EK/n9Ug22GHE4jQgAA AABJRU5ErkJggg== "
         id="image4643"
         x="1548.3353"
         y="162.8306" />
    </g>
  </g>
</svg>
