<?xml version="1.0" encoding="UTF-8" standalone="no"?>
<!-- Created with Inkscape (http://www.inkscape.org/) -->

<svg
   xmlns:dc="http://purl.org/dc/elements/1.1/"
   xmlns:cc="http://creativecommons.org/ns#"
   xmlns:rdf="http://www.w3.org/1999/02/22-rdf-syntax-ns#"
   xmlns:svg="http://www.w3.org/2000/svg"
   xmlns="http://www.w3.org/2000/svg"
   xmlns:xlink="http://www.w3.org/1999/xlink"
   xmlns:sodipodi="http://sodipodi.sourceforge.net/DTD/sodipodi-0.dtd"
   xmlns:inkscape="http://www.inkscape.org/namespaces/inkscape"
   width="210mm"
   height="297mm"
   id="svg2"
   version="1.1"
   inkscape:version="0.48.1 "
   sodipodi:docname="luna shida.svg">
  <defs
     id="defs4">
    <linearGradient
       id="linearGradient3977">
      <stop
         style="stop-color:#000000;stop-opacity:1;"
         offset="0"
         id="stop3979" />
      <stop
         style="stop-color:#000000;stop-opacity:0;"
         offset="1"
         id="stop3981" />
    </linearGradient>
    <linearGradient
       id="linearGradient3965">
      <stop
         style="stop-color:#e2aeae;stop-opacity:1;"
         offset="0"
         id="stop3967" />
      <stop
         style="stop-color:#000000;stop-opacity:0;"
         offset="1"
         id="stop3969" />
    </linearGradient>
    <linearGradient
       id="linearGradient3791">
      <stop
         style="stop-color:#303030;stop-opacity:1;"
         offset="0"
         id="stop3793" />
      <stop
         style="stop-color:#ccc4c4;stop-opacity:0.97841728;"
         offset="1"
         id="stop3795" />
    </linearGradient>
    <linearGradient
       id="linearGradient3781">
      <stop
         style="stop-color:#333333;stop-opacity:1;"
         offset="0"
         id="stop3783" />
      <stop
         style="stop-color:#333333;stop-opacity:0;"
         offset="1"
         id="stop3785" />
    </linearGradient>
    <linearGradient
       id="linearGradient3769">
      <stop
         style="stop-color:#3f3a3a;stop-opacity:1;"
         offset="0"
         id="stop3771" />
      <stop
         id="stop3779"
         offset="0.25"
         style="stop-color:#424242;stop-opacity:0.74901962;" />
      <stop
         id="stop3777"
         offset="0.5"
         style="stop-color:#000000;stop-opacity:1;" />
      <stop
         style="stop-color:#999999;stop-opacity:0;"
         offset="1"
         id="stop3773" />
    </linearGradient>
    <linearGradient
       id="linearGradient3759">
      <stop
         style="stop-color:#000000;stop-opacity:1;"
         offset="0"
         id="stop3761" />
      <stop
         id="stop3767"
         offset="0.47325903"
         style="stop-color:#362d2d;stop-opacity:1;" />
      <stop
         style="stop-color:#000000;stop-opacity:1;"
         offset="1"
         id="stop3763" />
    </linearGradient>
    <linearGradient
       inkscape:collect="always"
       xlink:href="#linearGradient3791"
       id="linearGradient3797"
       x1="297.18814"
       y1="290.8428"
       x2="430.56281"
       y2="201.24776"
       gradientUnits="userSpaceOnUse" />
    <filter
       inkscape:collect="always"
       id="filter3821"
       x="-0.13351532"
       width="1.2670306"
       y="-0.22897097"
       height="1.4579419">
      <feGaussianBlur
         inkscape:collect="always"
         stdDeviation="2.4970169"
         id="feGaussianBlur3823" />
    </filter>
    <filter
       inkscape:collect="always"
       id="filter3837"
       x="-0.15192632"
       width="1.3038526"
       y="-0.16684409"
       height="1.3336882">
      <feGaussianBlur
         inkscape:collect="always"
         stdDeviation="1.5127777"
         id="feGaussianBlur3839" />
    </filter>
    <filter
       inkscape:collect="always"
       id="filter3843"
       x="-0.098673944"
       width="1.1973479"
       y="-0.15308593"
       height="1.3061719">
      <feGaussianBlur
         inkscape:collect="always"
         stdDeviation="1.2262622"
         id="feGaussianBlur3845" />
    </filter>
    <filter
       inkscape:collect="always"
       id="filter3873"
       x="-0.095565874"
       width="1.1911317"
       y="-0.17988261"
       height="1.3597652">
      <feGaussianBlur
         inkscape:collect="always"
         stdDeviation="1.5467125"
         id="feGaussianBlur3875" />
    </filter>
    <filter
       inkscape:collect="always"
       id="filter3883"
       x="-0.097540643"
       width="1.1950813"
       y="-0.15589607"
       height="1.3117921">
      <feGaussianBlur
         inkscape:collect="always"
         stdDeviation="3.1330121"
         id="feGaussianBlur3885" />
    </filter>
    <filter
       inkscape:collect="always"
       id="filter3889"
       x="-0.11835442"
       width="1.2367088"
       y="-0.12169198"
       height="1.243384">
      <feGaussianBlur
         inkscape:collect="always"
         stdDeviation="2.3215113"
         id="feGaussianBlur3891" />
    </filter>
    <filter
       inkscape:collect="always"
       id="filter3911"
       x="-0.26402276"
       width="1.5280455"
       y="-0.21359144"
       height="1.4271829">
      <feGaussianBlur
         inkscape:collect="always"
         stdDeviation="1.9801707"
         id="feGaussianBlur3913" />
    </filter>
    <filter
       inkscape:collect="always"
       id="filter3919"
       x="-0.15587302"
       width="1.311746"
       y="-0.097549669"
       height="1.1950993">
      <feGaussianBlur
         inkscape:collect="always"
         stdDeviation="2.7277778"
         id="feGaussianBlur3921" />
    </filter>
    <filter
       inkscape:collect="always"
       id="filter3937"
       x="-0.13733294"
       width="1.2746659"
       y="-0.10655196"
       height="1.2131039">
      <feGaussianBlur
         inkscape:collect="always"
         stdDeviation="2.1043704"
         id="feGaussianBlur3939" />
    </filter>
    <filter
       inkscape:collect="always"
       id="filter3943"
       x="-0.1070382"
       width="1.2140764"
       y="-0.13653354"
       height="1.2730671">
      <feGaussianBlur
         inkscape:collect="always"
         stdDeviation="3.8406321"
         id="feGaussianBlur3945" />
    </filter>
    <radialGradient
       inkscape:collect="always"
       xlink:href="#linearGradient3965"
       id="radialGradient3971"
       cx="216"
       cy="554.36218"
       fx="216"
       fy="554.36218"
       r="191"
       gradientTransform="matrix(1,0,0,1.0157068,0,-8.7072594)"
       gradientUnits="userSpaceOnUse" />
  </defs>
  <sodipodi:namedview
     id="base"
     pagecolor="#ffffff"
     bordercolor="#666666"
     borderopacity="1.0"
     inkscape:pageopacity="0.0"
     inkscape:pageshadow="2"
     inkscape:zoom="1"
     inkscape:cx="485.91659"
     inkscape:cy="347.73976"
     inkscape:document-units="px"
     inkscape:current-layer="layer1"
     showgrid="false"
     inkscape:window-width="1366"
     inkscape:window-height="706"
     inkscape:window-x="-8"
     inkscape:window-y="-8"
     inkscape:window-maximized="1" />
  <metadata
     id="metadata7">
    <rdf:RDF>
      <cc:Work
         rdf:about="">
        <dc:format>image/svg+xml</dc:format>
        <dc:type
           rdf:resource="http://purl.org/dc/dcmitype/StillImage" />
        <dc:title></dc:title>
      </cc:Work>
    </rdf:RDF>
  </metadata>
  <g
     inkscape:label="Capa 1"
     inkscape:groupmode="layer"
     id="layer1">
    <rect
       style="opacity:0.81999972;fill:#000000;fill-opacity:1;fill-rule:nonzero;stroke:#000000;stroke-width:0;stroke-miterlimit:4;stroke-opacity:1;stroke-dasharray:none;stroke-dashoffset:5"
       id="rect2985"
       width="736.04102"
       height="450.85748"
       x="2.8853197"
       y="-0.77954692" />
    <path
       sodipodi:type="arc"
       style="opacity:0.86000001000000004;color:#000000;fill:url(#linearGradient3797);fill-opacity:1;fill-rule:nonzero;stroke:#000000;stroke-width:0;stroke-linecap:butt;stroke-linejoin:miter;stroke-miterlimit:4;stroke-opacity:1;stroke-dasharray:none;stroke-dashoffset:0;marker:none;visibility:visible;display:inline;overflow:visible;enable-background:accumulate"
       id="path3789"
       sodipodi:cx="337.58243"
       sodipodi:cy="270.44052"
       sodipodi:rx="132.72472"
       sodipodi:ry="132.72472"
       d="m 470.30714,270.44052 a 132.72472,132.72472 0 1 1 -265.44943,0 132.72472,132.72472 0 1 1 265.44943,0 z" />
    <path
       style="fill:#5e5e5e;stroke:#000000;stroke-width:0;stroke-linecap:butt;stroke-linejoin:miter;stroke-opacity:1;stroke-miterlimit:4;stroke-dasharray:none;fill-opacity:1;filter:url(#filter3821)"
       d="m 276.45106,179.14408 5.10057,-1.02011 2.04023,-6.12069 7.1408,-3.06034 4.08046,-1.02012 4.08046,0 c 0,0 5.10057,4.08046 6.12069,0 1.02011,-4.08046 5.10057,-6.12068 5.10057,-6.12068 l 10.20114,1.02011 c 0,0 1.02012,1.02011 1.02012,5.10057 0,4.08046 -2.04023,7.14081 -2.04023,7.14081 l -9.18103,3.06034 c 0,0 0,-4.08046 -7.1408,0 -7.14081,4.08046 0,0 -7.14081,4.08046 -7.1408,4.08046 -5.10057,8.16091 -11.22126,4.08046 -6.12068,-4.08046 -8.16091,-7.14081 -8.16091,-7.14081 z"
       id="path3799"
       inkscape:connector-curvature="0" />
    <path
       style="fill:#777777;stroke:#000000;stroke-width:0;stroke-linecap:butt;stroke-linejoin:miter;stroke-opacity:1;stroke-miterlimit:4;stroke-dasharray:none;fill-opacity:1;filter:url(#filter3837)"
       d="m 348.36914,162.31219 c 13.77154,-3.5704 5.3556,-5.10057 13.77154,-3.5704 8.41595,1.53017 8.67098,0.25503 9.18104,1.53017 0.51005,1.27515 0.76508,0.51006 0.51005,2.29526 -0.25503,1.7852 1.27515,0 -0.25503,2.55029 -1.53017,2.55028 -0.51005,1.02011 -2.04023,2.80531 -1.53017,1.7852 -1.27514,0.25503 -1.53017,1.7852 -0.25503,1.53017 -2.04023,-0.25503 -0.25503,2.29526 1.7852,2.55029 2.29526,-0.25503 1.7852,2.55029 -0.51005,2.80531 -0.25502,3.06034 -2.55028,3.82543 -2.29526,0.76508 -1.53017,2.55028 -3.5704,0.76508 -2.04023,-1.7852 -2.04023,-2.04023 -2.04023,-2.04023 l 0,-1.53017 c 0,0 0.76508,-1.02011 -1.53017,-1.7852 -2.29526,-0.76508 -2.80532,2.55029 -3.06035,-1.27514 -0.25503,-3.82543 -0.25503,-3.82543 -0.25503,-3.82543 0,0 2.29526,0.51006 1.53018,-0.76509 -0.76509,-1.27514 3.31537,-1.7852 -1.78521,-1.53017 -5.10057,0.25503 -3.5704,0.25503 -5.10057,0.25503 -1.53017,0 -2.80531,-4.33549 -2.80531,-4.33549 z"
       id="path3827"
       inkscape:connector-curvature="0" />
    <path
       style="fill:#8c8c8c;stroke:#000000;stroke-width:0;stroke-linecap:butt;stroke-linejoin:miter;stroke-opacity:1;stroke-miterlimit:4;stroke-dasharray:none;fill-opacity:1;filter:url(#filter3843)"
       d="m 391.46898,177.61391 c 11.22126,14.28161 17.08692,12.75143 11.22126,14.28161 -5.86566,1.53017 -6.37572,3.82543 -7.1408,0.76508 -0.76509,-3.06034 5.3556,-3.06034 -0.76509,-3.31537 -6.12069,-0.25503 -2.55029,-2.04023 -6.63074,-0.25503 -4.08046,1.7852 -2.29526,-2.29526 -4.33549,2.04023 -2.04023,4.33549 -0.76509,6.12069 -3.5704,5.61063 -2.80532,-0.51006 -3.82543,1.53017 -3.82543,-2.29526 0,-3.82543 -2.80532,-3.82543 0,-7.39583 2.80531,-3.5704 1.53017,-3.31537 5.10057,-4.84554 3.5704,-1.53018 9.94612,-4.59052 9.94612,-4.59052 z"
       id="path3841"
       inkscape:connector-curvature="0" />
    <path
       style="fill:#5f5f5f;stroke:#000000;stroke-width:0;stroke-linecap:butt;stroke-linejoin:miter;stroke-opacity:1;stroke-miterlimit:4;stroke-dasharray:none;fill-opacity:1;filter:url(#filter3873)"
       d="m 308.8397,190.11031 c 5.10057,13.26149 9.94611,-3.06034 9.94611,-3.06034 0,0 -5.86566,-2.04023 2.04023,-2.04023 7.90589,0 21.67744,2.55029 21.67744,2.55029 0,0 0,-6.37572 0.25503,0.25503 0.25503,6.63074 1.7852,3.82543 0.25503,7.90589 -1.53018,4.08045 2.55028,4.33548 -6.63075,7.39583 -9.18103,3.06034 0.51006,2.55028 -12.24138,1.53017 -12.75143,-1.02012 -12.4964,0 -16.0668,-2.29526 -3.5704,-2.29526 -4.08046,-7.1408 -2.04023,-9.18103 2.04023,-2.04023 2.80532,-3.06035 2.80532,-3.06035 z"
       id="path3847"
       inkscape:connector-curvature="0" />
    <path
       style="fill:#838383;stroke:#000000;stroke-width:0;stroke-linecap:butt;stroke-linejoin:miter;stroke-opacity:1;stroke-miterlimit:4;stroke-dasharray:none;fill-opacity:1;filter:url(#filter3883)"
       d="m 368.00634,206.17712 c 1.53017,-1.02011 1.27515,-1.27514 3.31538,-1.7852 2.04022,-0.51006 -3.82543,-1.27514 4.59051,-1.27514 8.41595,0 9.43606,0 9.43606,0 0,0 3.82543,1.02011 4.84555,0 1.02011,-1.02012 1.27514,-1.27515 1.27514,-1.27515 0,0 0.76508,-0.76508 3.82543,0 3.06034,0.76509 -1.02012,0.76509 4.08046,0.76509 5.10057,0 5.3556,-0.25503 6.63074,-1.02012 1.27515,-0.76508 1.02012,2.29526 4.08046,-2.29525 3.06034,-4.59052 -0.51006,-5.10058 3.5704,-6.88578 4.08046,-1.7852 -4.33549,-2.04023 6.12069,-2.80531 10.45617,-0.76509 2.29526,-4.84555 10.45617,-0.76509 8.16092,4.08046 3.06035,-3.82543 8.67098,4.59052 5.61063,8.41594 5.3556,3.5704 5.61063,8.926 0.25503,5.3556 0.76508,4.08046 0.51006,6.63074 -0.25503,2.55029 0.25502,1.02012 -1.27515,4.59052 -1.53017,3.5704 -0.25503,1.53017 -2.55028,4.33549 -2.29526,2.80531 -4.59052,1.53017 -5.61063,4.33548 -1.02012,2.80532 -0.25503,1.78521 0,6.88578 0.25502,5.10057 14.2816,6.37571 -2.29526,6.12069 -16.57686,-0.25503 -13.26149,0.25502 -18.10704,-2.04023 -4.84554,-2.29526 -7.1408,-2.29526 -10.7112,-4.33549 -3.5704,-2.04023 3.06034,-3.5704 -8.16092,-3.5704 -11.22126,0 -11.73131,1.27514 -14.79166,0 -3.06034,-1.27514 -5.10057,-1.7852 -5.3556,-5.61063 -0.25503,-3.82543 4.08046,-7.90589 -1.53017,-9.18103 -5.61063,-1.27515 -6.63075,-4.33549 -6.63075,-4.33549 z"
       id="path3877"
       inkscape:connector-curvature="0" />
    <path
       style="fill:#464646;fill-opacity:1;stroke:#000000;stroke-width:0;stroke-linecap:butt;stroke-linejoin:miter;stroke-miterlimit:4;stroke-opacity:1;stroke-dasharray:none;filter:url(#filter3889)"
       d="m 294.4374,227.99536 c 1.27515,-1.53017 1.53018,-1.02012 5.35561,-6.37572 3.82543,-5.3556 -0.51006,-6.12069 4.08045,-5.61063 4.59052,0.51006 3.06035,-2.04023 7.65086,0.76509 4.59052,2.80531 9.94612,0.76508 11.22126,4.59051 1.27515,3.82543 2.04023,-1.02011 3.31538,10.45618 1.27514,11.47629 9.69109,6.37571 1.27514,11.73132 -8.41595,5.3556 6.88577,0.25502 -11.22126,7.39583 -18.10704,7.1408 -20.65732,14.02657 -24.48275,7.90588 -3.82543,-6.12068 -11.98635,-2.04023 -4.84555,-13.00646 7.14081,-10.96623 8.41595,-13.51652 8.41595,-13.51652 l 0,-2.29525 0.51006,-1.02012 z"
       id="path3887"
       inkscape:connector-curvature="0" />
    <path
       style="fill:#515151;stroke:#000000;stroke-width:0;stroke-linecap:butt;stroke-linejoin:miter;stroke-opacity:1;stroke-miterlimit:4;stroke-dasharray:none;fill-opacity:1;filter:url(#filter3911)"
       d="m 259,185.36218 7,11 c 0,0 -1,1 0,7 1,6 9,5 9,1 0,-4 2,-2 2,-6 0,-4 -2,-7 -5,-9 -3,-2 -13,-4 -13,-4 z"
       id="path3893"
       inkscape:connector-curvature="0" />
    <path
       style="fill:none;stroke:#000000;stroke-width:1px;stroke-linecap:butt;stroke-linejoin:miter;stroke-opacity:1"
       d="m 771,190.36218 6,-5 z"
       id="path3915"
       inkscape:connector-curvature="0" />
    <path
       style="fill:#545454;fill-opacity:1;stroke:#000000;stroke-width:0;stroke-linecap:butt;stroke-linejoin:miter;stroke-miterlimit:4;stroke-opacity:1;stroke-dasharray:none;filter:url(#filter3919)"
       d="m 340,225.36218 10,40 -9,13 8,9 13,5 7,0 c 0,0 3,1 6,-3 3,-4 7,-8 7,-8 0,0 0,-7 -1,-11 -1,-4 -2,-8 -2,-8 l -3,-12 3,-9 z"
       id="path3917"
       inkscape:connector-curvature="0"
       transform="matrix(1.036302,0,0,1.0685748,-12.105034,-20.50522)" />
    <path
       style="fill:#656565;fill-opacity:1;stroke:#000000;stroke-width:0;stroke-linecap:butt;stroke-linejoin:miter;stroke-miterlimit:4;stroke-opacity:1;stroke-dasharray:none;filter:url(#filter3937)"
       d="m 392,250.86218 c 8.5,-8 9.5,-9 12.5,-9 3,0 7,-0.5 10.5,1.5 3.5,2 7,5 7,5 l 0.5,6 c 0,0 -0.5,2.5 1.5,5 2,2.5 2,1.5 3,5 1,3.5 1.5,6 1,8.5 -0.5,2.5 -0.5,8 -0.5,8 0,0 2.5,-1 0.5,2.5 -2,3.5 -5.5,5 -5.5,5 0,0 0,1.5 -4.5,0.5 -4.5,-1 -1,-0.5 -7,-3.5 -6,-3 -10.5,-3.5 -10.5,-3.5 0,0 -1.5,2 -4,-1.5 -2.5,-3.5 -4.5,-6 -4,-11 0.5,-5 0.5,-5 1.5,-8 1,-3 3,-1.5 1,-5 -2,-3.5 -3,-5.5 -3,-5.5 z"
       id="path3927"
       inkscape:connector-curvature="0" />
    <path
       style="fill:#656565;stroke:#000000;stroke-width:0;stroke-linecap:butt;stroke-linejoin:miter;stroke-opacity:1;stroke-miterlimit:4;stroke-dasharray:none;fill-opacity:1;filter:url(#filter3943)"
       d="m 377,334.36218 c -2,-3.5 -7,-10.5 -7,-10.5 0,0 -1,-1.5 -1,-5.5 0,-4 -5.5,-6 2.5,-10.5 8,-4.5 -2,-1 8,-4.5 10,-3.5 2.5,-8 14,-4 11.5,4 3,6.5 16,4.5 13,-2 7,5.5 15,-4.5 8,-10 -4,-11 9,-12 13,-1 8.5,-7 13,-1 4.5,6 8.5,4 6,11.5 -2.5,7.5 -0.5,7 -5,11.5 -4.5,4.5 0,-1 -6,6.5 -6,7.5 -2,2 -9.5,10.5 -7.5,8.5 -7.5,7 -11.5,13 -4,6 -0.5,6 -5.5,7 -5,1 3,0 -8,1.5 -11,1.5 -3.5,6.5 -12,0.5 -8.5,-6 -6,-5 -10.5,-7 -4.5,-2 -7.5,-7 -7.5,-7 z"
       id="path3941"
       inkscape:connector-curvature="0" />
    <g
       id="g3985">
      <path
         transform="translate(49,-167)"
         d="m 493,873.36218 a 152,152 0 1 1 -304,0 152,152 0 1 1 304,0 z"
         sodipodi:ry="152"
         sodipodi:rx="152"
         sodipodi:cy="873.36218"
         sodipodi:cx="341"
         id="path3973"
         style="opacity:0.86000001000000004;color:#000000;fill:#ff0000;fill-opacity:1;fill-rule:nonzero;stroke:#000000;stroke-width:0;stroke-linecap:butt;stroke-linejoin:miter;stroke-miterlimit:4;stroke-opacity:1;stroke-dasharray:none;stroke-dashoffset:0;marker:none;visibility:visible;display:inline;overflow:visible;enable-background:accumulate"
         sodipodi:type="arc" />
    </g>
  </g>
</svg>
