<?xml version="1.0" encoding="UTF-8" standalone="no"?>
<!DOCTYPE svg PUBLIC "-//W3C//DTD SVG 1.1//EN" "http://www.w3.org/Graphics/SVG/1.1/DTD/svg11.dtd">
<svg version="1.1" xmlns="http://www.w3.org/2000/svg" viewBox="-500 -500 1000 1000">
	<g id="Cross-166">
		<title>Cross CLXVI, by Adam Stanislav</title>
		<path d="m0-500a500 500 0 0 1 0 1000 500 500 0 0 1 0-1000m0 528.321c0.085-2.722 0.088-5.496 0-8.321-0.088 2.825-0.085 5.599 0 8.321-1.784 57.305-40 91.679-40 91.679v200l-50-70-70 130 160 90 160-90-70-130-50 70v-200s-38.216-34.374-40-91.679zm28.321-28.321c57.305 1.784 91.679 40 91.679 40h200l-70 50 130 70 90-160-90-160-130 70 70 50h-200s-34.374 38.216-91.679 40zm-56.642 0c-57.305-1.784-91.679-40-91.679-40h-200l70-50-130-70-90 160 90 160 130-70-70-50h200s34.374-38.216 91.679-40zm28.321-28.321c1.784-57.305 40-91.679 40-91.679v-200l50 70 70-130-160-90-160 90 70 130 50-70v200s38.216 34.374 40 91.679c-0.085 2.722-0.088 5.496 0 8.321c0.088-2.825 0.085-5.599 0-8.321z"/>
	</g>
</svg>
