<?xml version="1.0" encoding="utf-8"?>
<svg version="1.1" id="Layer_1" xmlns="http://www.w3.org/2000/svg" xmlns:xlink="http://www.w3.org/1999/xlink" x="0px" y="0px"
	 viewBox="0 0 2654.215 1737.867" enable-background="new 0 0 2654.215 1737.867" xml:space="preserve">
<g>
	
		<path fill="none" stroke="#000000" stroke-width="97.9083" stroke-linecap="round" stroke-linejoin="round" stroke-miterlimit="10" d="
		M470.41,1235.674c116.946,508.579,562.973,543.935,829.501,78.871c271.968,484.102,704.396,418.83,813.183-87.03"/>
	<g>
		<circle cx="432.334" cy="408.893" r="364.437"/>
		<circle fill="#FFFFFF" cx="339.865" cy="324.583" r="206.695"/>
		<circle fill="#FFFFFF" cx="440.493" cy="683.58" r="67.992"/>
	</g>
	<g>
		<circle cx="2221.881" cy="408.893" r="364.437"/>
		<circle fill="#FFFFFF" cx="2129.412" cy="324.583" r="206.695"/>
		<circle fill="#FFFFFF" cx="2230.04" cy="683.58" r="67.992"/>
	</g>
</g>
</svg>
