<?xml version="1.0" encoding="UTF-8" standalone="no"?>
<svg
    xmlns:rdf="http://www.w3.org/1999/02/22-rdf-syntax-ns#"
    xmlns="http://www.w3.org/2000/svg"
    xmlns:cc="http://web.resource.org/cc/"
    xmlns:dc="http://purl.org/dc/elements/1.1/"
    xmlns:svg="http://www.w3.org/2000/svg"
    xmlns:inkscape="http://www.inkscape.org/namespaces/inkscape"
    xmlns:sodipodi="http://sodipodi.sourceforge.net/DTD/sodipodi-0.dtd"
    xmlns:ns1="http://sozi.baierouge.fr"
    xmlns:xlink="http://www.w3.org/1999/xlink"
    version="1.1"
    viewBox="0 0 819 263"
  >
  <g
      id="#ffffffff"
      fill="#ffffff"
    >
    <path
        d="m0 0h819v263h-819v-263m773.97 6.92c-7.51 12.15-15.15 24.23-22.75 36.33-9.61 13.89-19.96 27.26-30.56 40.41-4.94 5.87-8.23 12.91-13.27 18.68 1.26 5.09 1.41 10.39 2.95 15.42-7.93-2.2-16.81-1.97-23.86 2.65-6.01 3.1-8.7 9.55-11.11 15.45-7.06 1.41-14.31 2.86-21.52 2.07-4.88-1.66-8.62-5.8-13.72-7.05-9.51-2.33-19.35-3.31-29.13-3.31-9.32 0.61-17.51-4.9-26.73-5.12-1.73 2.49-3.36 5.06-5.16 7.5-3.24-1.1-6.48-2.15-9.73-3.18 0.08 0.53 0.23 1.58 0.31 2.11-9.64-2.8-19.69-3.74-29.69-3.04-16.89 0.93-33.57-2.2-50.41-2.42-37.24-0.92-74.73-1.04-111.71 3.85-17.32 1.24-34.88 0.27-51.9 4.34-6.44-0.85-13.02 0.44-19.49 0.17-4.38-4.31-9.21-9.18-16.01-8.21-5.1 6.64-9.87 13.81-16.74 18.77-0.9-2.16-1.85-4.3-2.79-6.45-0.65 0.17-1.95 0.49-2.6 0.66 0.05 1.53 0.11 3.06 0.19 4.6-10.2 1.7-20.69 2.41-30.44 6.05-3.57 0.64-5.65 3.57-7.86 6.05-18.5 0.4-37.11 0.56-55.45 3.27-2.37 3.62-4.32 7.77-7.84 10.41-4.23 2.26-9.4 0.64-13.94 1.21-21.38-0.36-42.75-0.09-64.11 0.51-6.94 0.59-11.98 6.06-17.07 10.18-11.85 10.58-24.7 19.99-36.14 31.02 44.63 0.5 89.26-0.25 133.89 0.37 0.88 1.27 1.75 2.55 2.67 3.8 2.55 3.92 8.49 1.51 12.28 2.77 13.03 0.33 25.97-2.16 39.03-1.73 4.35 4.47 9.76 7.81 13.48 12.91 5.99 6.71 10.49 14.7 17.28 20.7 3.93 3.29 8.65 6.72 14.14 5.88 5.38-3.48 7.84-9.59 8.95-15.65 25.53-0.67 51.16-2.95 76.65-0.15 12.41 0.59 24.52-2.97 36.92-2.72 31.67-0.18 63.35 0.08 95.02-0.08 17.95-0.29 35.83 2.03 53.79 1.53 8.7-0.16 17.75 1.54 26.12-1.51 9.01-3.03 18.76-4.05 28.14-2.26-0.7-0.77-1.4-1.53-2.09-2.3 2.75 0.52 5.59 1.29 8.41 0.79 3.52-1.02 5.01-4.87 8.08-6.6 10.86-4.26 23.93-4.93 32.74-13.32 3.58-2.75 7.44-5.26 10.27-8.85 2.52-3 3.72-6.79 5.45-10.25-0.54 0.13-1.62 0.38-2.17 0.51 4.11-10.93 7.66-22.07 11.92-32.94 6.29 2.36 13.02-0.6 19.52 0.52 7.5 1.26 15.13 3.74 22.75 1.72 7.05-1.65 12.15-7.68 15.12-13.97 2.31-4.48 0.95-9.65 0.5-14.41 5.29-0.57 11.29-0.79 15.15 3.51 1.37-1.9 2.68-3.85 3.9-5.85-1.16 0.85-2.3 1.72-3.44 2.58-1.57-1.6-3.22-3.14-4.92-4.6 3.51-1.36 7.4-2.27 10.19-4.96-1.05 2.22-1.53 4.66-2.07 7.04 5.08-3.25 8.35-8.46 11.8-13.24 17.91-23.26 30.18-50.17 46.67-74.37 4.1-5.41 7.29-11.54 9-18.13-4.26-4.1-4.75-11.38-10.8-13.59-8.19-3.7-17.33-4.41-26.06-6.08z"
    />
    <path
        d="m780.71 11.83c9.32-0.52 23.03 1.21 25.1 12.36 0.1 6.11-3.05 11.59-5.64 16.9-6.45 13.18-14.75 25.3-22.06 37.98-9.57 16.27-19.19 32.81-32.68 46.22 10.85-21.16 25.89-39.84 37.06-60.83 5.4-11.49 12.36-22.12 19.03-32.88 3.34-5.99-2.82-10.88-6.38-14.64-5.01-2.75-11.11-2.31-16.64-1.86 5.48 1.25 11.57 1.14 16.62 3.87 2.28 2.31 4.72 4.98 5.55 8.22-0.24 3.93-3.42 6.92-5.12 10.29-8.22 12.21-13.88 25.88-21.93 38.19-10.33 15.7-20.52 31.48-30.95 47.11-2.3 3.65-6.94 4.47-10.65 5.87-3.93-5.06-11.07-7.13-13.32-13.48-1.72-4.07-2.58-8.51-2.28-12.92 1.41 0.96 2.83 1.92 4.26 2.87 0.01-4.06-0.27-8.53 2.51-11.87 16.77-21.37 31.08-44.52 45.75-67.35 3.55-4.88 6.77-10.51 11.77-14.05z"
    />
    <path
        d="m755.09 41.07c5.56-8.7 10.3-18.15 18.05-25.2-14.15 22.16-28.54 44.17-43.65 65.68-5.7 7.09-10.95 14.67-17.76 20.76 3.72-9.13 10.34-16.59 16.33-24.27 9.35-12.06 19.01-23.95 27.03-36.97z"
    />
    <path
        d="m711.4 103.15c1.4-0.44 1.88 0.04 1.45 1.45-1.41 0.43-1.89-0.05-1.45-1.45z"
    />
    <path
        d="m710.55 106.06c3.81 2.61 5.17 7.12 6.27 11.36-2.26-3.7-4.27-7.53-6.27-11.36z"
    />
    <path
        d="m715.62 117.57c2.43 2.29 4.93 4.57 6.95 7.24 0.62 2.18 0.17 4.53 0.26 6.77-2.96-4.35-6.14-8.74-7.21-14.01z"
    />
    <path
        d="m690.18 122.13c6.17-4.74 14.55-3.28 21.23-0.47-7.08-1.32-14.22-1.3-21.23 0.47z"
    />
    <path
        d="m712.15 122.4c3.99-0.82-0.86 3.98 0 0z"
    />
    <path
        d="m697.66 124.28c2.51-0.4 5.02-0.75 7.58-1.1 0.19 3.44 0.05 7.24 2.33 10.09 2.3 3.55 6.94 3.83 10.6 5.27-1.34 3.76-2.62 7.59-4.59 11.07-5.67 5.2-13.69 7.45-21.27 6.09-3.25-0.54-2.38-4.42-2.85-6.82-0.07-4.96-3.53-8.87-5.29-13.3 3.61-2.23 4.92-6.58 8.14-9.13 3.94-0.54 7.91 0.24 11.88 0.43-2.18-0.86-4.37-1.71-6.53-2.6z"
    />
    <path
        d="m582.41 126.61c4.01-0.4 8.17-0.34 12.07 0.8-4.04 0.33-8.13 0.21-12.07-0.8z"
    />
    <path
        d="m295.61 127.41c1.24-0.98 2.89 1.15 1.78 2.18-1.25 0.98-2.9-1.15-1.78-2.18z"
    />
    <path
        d="m492 127.22c0.56-1.07 2.42-1.07 3 0 0.34 1.81-3.35 1.81-3 0z"
    />
    <path
        d="m380.6 129.71c5.27-0.35 10.57-0.7 15.86-0.86-5.28 0.44-10.57 0.68-15.86 0.86z"
    />
    <path
        d="m541.53 129.12c1.41-2.18 3.16 1.9 0.57 1.29-0.14-0.32-0.42-0.97-0.57-1.29z"
    />
    <path
        d="m711.75 128.79c1.5 1.46 2.9 3.01 4.23 4.64-1.51-1.46-2.93-3-4.23-4.64z"
    />
    <path
        d="m726.28 129.53c2.39 0.36 4.78 0.84 7.13 1.44-2.41-0.31-4.81-0.74-7.13-1.44z"
    />
    <path
        d="m371.08 130.25c1.1-1.05 4.38-0.9 4.38 0.95-1.14 0.9-4.15 0.67-4.38-0.95z"
    />
    <path
        d="m543.73 133.77c1.36-1.32 2.72-2.64 4.1-3.95 1.19 1.67 2.38 3.34 3.56 5.02-2.56-0.35-5.11-0.71-7.66-1.07z"
    />
    <path
        d="m289.53 131.12c1.42-2.18 3.17 1.9 0.57 1.29-0.14-0.32-0.42-0.97-0.57-1.29z"
    />
    <path
        d="m325.98 131.61c3.76 1.91 2.17-3.41 0 0z"
    />
    <path
        d="m554.92 132.07c10.79 5.28 21.97 10.1 31.64 17.34-14.74-0.09-28.37-6.8-41.89-11.92 4.14-0.07 8.32 0 12.46-0.26-0.74-1.73-1.48-3.44-2.21-5.16z"
    />
    <path
        d="m583.14 132.12c1.37-0.55 2.22 1.79 0.73 2.16-1.42 0.55-2.23-1.77-0.73-2.16z"
    />
    <path
        d="m563.8 133.17c0.45-1.27 2.85-0.76 2.4 0.66-0.47 1.27-2.86 0.76-2.4-0.66z"
    />
    <path
        d="m571.01 134c4.85 1.89 9.87 3.5 14.41 6.08 1.82 1.84 1.17 4.82 1.59 7.19-6.04-3.27-12.02-6.66-18.18-9.69 0.74-1.18 1.47-2.38 2.18-3.58z"
    />
    <path
        d="m474 135.22c0.56-1.07 2.42-1.07 3 0 0.34 1.81-3.35 1.81-3 0z"
    />
    <path
        d="m539.53 137.12c1.41-2.18 3.16 1.9 0.57 1.29-0.14-0.32-0.42-0.97-0.57-1.29z"
    />
    <path
        d="m467 137.97c2.66 0.02 5.33 0.02 8 0v1.06c-2.67-0.02-5.34-0.02-8 0v-1.06z"
    />
    <path
        d="m536.1 138.13c12.2 4.27 24.45 8.41 36.48 13.16-0.06-0.56-0.19-1.69-0.25-2.25 4.22 1.05 8.44 2.05 12.68 3.07-0.37 3.02-0.79 6.02-1.1 9.04-8.81-0.79-17.55 0.62-26.34 0.59-18 0.32-36.06-1.82-53.99 0.61-35.25 0.76-70.48 2.45-105.58 5.91-9.71 1.1-19.34-1.29-28.72-3.48 0.14 0.46 0.42 1.37 0.56 1.83-15.67-3.87-31.71-1.39-47.58-1.18-16.07-0.38-32.15-0.87-48.22-0.18-10.62 1.14-21.26 2.11-31.92 2.76 0.35-0.81 0.71-1.63 1.07-2.44-3.5 1.19-7.12 2.02-10.69 2.93-0.86-4.07-0.08-8.2 3.38-10.56 0.17-2.33-0.96-6.09 2.17-6.74 9.48-2.87 19.28-4.43 29.03-6.08 0.86 2.9 1.91 5.74 3.23 8.47 1.41-1.63 2.81-3.29 4.17-4.97 8.94 3.34 18.48 4.03 27.92 4.67-0.42-1.54-0.88-3.08-1.32-4.61 23.73-7.1 48.89-5.64 73.35-5.23 8.89 0.32 17.71-1.13 26.6-0.81 5.27-1.09 9.47 2.39 13.92 4.4 5.66 2.99 12.07 3.88 18.3 5.02-7.96-2.62-16.03-5.02-23.57-8.71 11.06-1.84 22.43-3.36 33.59-1.51 8.67 2.73 16.98 6.94 26.1 8.07-7.3-3.57-15.08-5.99-22.73-8.66 10.84 0.29 22.39-2.01 32.76 2.24 6.52 2.48 13.12 4.77 19.88 6.55-6.04-3.3-12.69-5.21-18.87-8.2 11.15-0.69 22.29-2.2 33.48-1.53 1.94 0.32 3.61 1.44 5.34 2.31 13.59 7.76 28.64 12.44 43.56 16.87l0.04-1.84c-7.6-0.92-14.6-4.18-21.74-6.72-7.87-2.79-15.43-6.43-22.67-10.59 5.22-0.05 10.53-0.56 15.74 0.14 1.11 0.13 3.33 0.38 4.44 0.5-0.23-2.33-3.45-2.24-4.44-0.5 0.64-0.78 1.28-1.57 1.94-2.35m-159.71 7.15c7.94 4.67 16.86 7.33 25.92 8.77-6.63-2.87-13.59-4.87-20.4-7.24 1.12-0.69 2.24-1.4 3.37-2.1-3.01 0.06-5.93 0.21-8.89 0.57m-27.72-0.33c2.44 1.28 5.01 2.32 7.66 3.1-2.45-1.28-5.01-2.32-7.66-3.1m-34.95 2.13c2.06 1.39 4.19 2.69 6.34 3.96-5.03 0.49-10.06 1-15.1 0.47 0.04 0.49 0.14 1.46 0.19 1.94 8.99 0.93 17.92 2.44 26.69 4.7 0.07-0.53 0.21-1.58 0.27-2.11-5.37 0.07-10.5-1.82-15.48-3.58 7.6 0.66 15.18 1.59 22.81 1.97-6.04-1.97-12.31-3.35-18.7-3.15 1.49-0.23 2.99-0.45 4.49-0.68-3.83-1.21-7.66-2.41-11.51-3.52m19.28 2.14c-0.35 1.81 3.34 1.81 3 0-0.58-1.07-2.43-1.07-3 0m5.8-0.05c-0.46 1.42 1.94 1.93 2.4 0.66 0.45-1.42-1.95-1.93-2.4-0.66m22.73-0.05c0.15 0.32 0.43 0.97 0.57 1.29 2.59 0.61 0.84-3.47-0.57-1.29m110.76 1.41c-0.87 1.23 1.23 2.52 2.04 1.32s-1.26-2.47-2.04-1.32m28.24-0.41c0.15 0.32 0.43 0.97 0.57 1.29 2.59 0.61 0.84-3.47-0.57-1.29m4.01 1.15c-0.93 1.14 1.04 2.6 1.92 1.46 0.91-1.14-1.05-2.6-1.92-1.46m-26.1 1.38c-0.7 1.5 1.88 2.44 2.65 1.17 0.6-1.44-1.9-2.37-2.65-1.17m-230.34 6.97c5.61 2.71 13.11 6.07 18.65 1.54-5.23 0.55-10.68 0.66-15.54-1.67 6.37-2.68 13.43-2.65 20.21-3.47-7.75-0.81-16.94-1.9-23.32 3.6m86.9-3.4c-0.35 1.81 3.34 1.81 3 0-0.58-1.07-2.43-1.07-3 0m17.53 2.9c0.15 0.32 0.43 0.97 0.57 1.29 2.59 0.61 0.84-3.47-0.57-1.29m33.49 2.34c1.3 1.17 2.64 2.32 3.97 3.46-1.5 0.01-2.99 0-4.49 0.03 2.46 0.17 4.93 0.3 7.41 0.39-2.2-1.45-4.51-2.74-6.89-3.88z"
    />
    <path
        d="m597.54 138.72c1.18-0.96 4.07 0.11 3.68 1.8-1.19 0.97-4.12-0.11-3.68-1.8z"
    />
    <path
        d="m319.58 140.72c3.24-0.21 6.57-0.37 9.84-0.44-3.32 0.17-6.54 0.39-9.84 0.44z"
    />
    <path
        d="m369.8 140.17c0.45-1.27 2.85-0.76 2.4 0.66-0.46 1.27-2.86 0.76-2.4-0.66z"
    />
    <path
        d="m709.05 156.05c7.34-2.64 10.17-9.84 13.18-16.29-0.66 6.89-3.53 13.98-9.05 18.38-8.11 4.78-18.33 2.86-26.53-0.81 7.34 2.08 15.61 3.13 22.4-1.28z"
    />
    <path
        d="m591.39 141.18c1.52 1.84 2.15 3.93 0.35 5.85-0.14-1.95-0.26-3.9-0.35-5.85z"
    />
    <path
        d="m601.91 143.31c0.92-1.03 2.94-0.4 3.29 0.89-0.24 1.9-3.93 0.84-3.29-0.89z"
    />
    <path
        d="m670.28 142.84c1.74 0.11 3.49 0.21 5.24 0.32-0.38 1.8-0.83 3.59-1.32 5.37 1.12 2 2.16 4.04 3.15 6.12-6.13-0.38-8.32-6.52-7.07-11.81z"
    />
    <path
        d="m624.83 146.23c0.84-1.24 3.27-0.03 2.5 1.39-0.86 1.2-3.25-0.01-2.5-1.39z"
    />
    <path
        d="m601.14 150.11c1.29 0.67 1.29 1.35-0.03 2.03-1.3-0.67-1.3-1.35 0.03-2.03z"
    />
    <path
        d="m600.4 154.15c1.4-0.44 1.88 0.04 1.45 1.45-1.41 0.43-1.89-0.05-1.45-1.45z"
    />
    <path
        d="m652 154.22c0.56-1.07 2.42-1.07 3 0 0.34 1.81-3.35 1.81-3 0z"
    />
    <path
        d="m176.4 160.16c16.02-0.61 31.93-3.72 47.99-3.11-15.87 2.26-31.95 4.19-47.99 3.11z"
    />
    <path
        d="m604.66 158.18c1.61-0.49 2.19 2.27 0.63 2.65-1.55 0.39-2.04-2.2-0.63-2.65z"
    />
    <path
        d="m192.5 165.41c11.27-4.32 23.63-3.24 35.36-5.42-0.32 3.63-0.52 7.29-0.73 10.93-6.68 1.02-13.76 1.43-19.69 4.98-13.45 0.94-26.93 2.16-40.3 4.15 2.56-5.35 4.86-10.83 7.82-15.98 0.88 0.29 1.76 0.58 2.64 0.87-1.18 2.08-2.28 4.2-3.31 6.37 5.67-0.25 10.96-2.26 16.4-3.61 9.77-0.37 19.56-0.7 29.28-1.84 2.89-0.33 5.54-1.63 8.03-3.07-11.92-0.39-23.64 2.02-35.5 2.62z"
    />
    <path
        d="m641.53 163.12c1.41-2.18 3.16 1.9 0.57 1.29-0.14-0.32-0.42-0.97-0.57-1.29z"
    />
    <path
        d="m184.28 163.99c1.64 0.05 3.28 0.1 4.93 0.15-1.59 1.04-3.18 2.08-4.78 3.11-0.05-1.09-0.09-2.17-0.15-3.26z"
    />
    <path
        d="m500.84 165.49c15.86-1.09 31.96-2.83 47.74 0.04-2.32 0.94-4.69 1.88-7.22 2-6.4 0.08-12.7 2.02-19.11 0.94-2.95 2.32-6.57 3.27-10.27 1.74-4.56-1.96-8.58 0.8-12.82 1.75-3.9-0.55-7.44-2.64-11.36-3.07-4.51 0.32-8.64 3.45-13.24 2.73-3.86 0.26-6.22-2.63-8.53-5.06 11.59-0.59 23.21-0.73 34.81-1.07z"
    />
    <path
        d="m541.7 170.75c5.87-0.41 10.21-5.51 16.18-5.53 1.55 7.44 3.03 14.96 2.25 22.6-14.6 1.26-29.15 3.92-43.85 3.66-12.22-0.74-24.46-1.6-36.7-1.24 9.93 0.89 19.9 1.43 29.84 2.34-12.09 1.47-24.35 1.39-36.3 4.02-1.98 1.02-4.03 1.95-5.99 2.93 0.62-5.09 1.23-10.18 1.9-15.26 13.32-0.93 26.58-2.6 39.97-2.28 14.2-0.54 29.1 1.43 42.79-3.45-27.24 1.77-54.59 1.28-81.82 3.55-0.68-2.9-1.27-5.79-1.94-8.68 11.47 1.41 23.17-2.22 34.31 2.05-9.01 0.61-19.06-0.88-27.03 4.43 22.56-3.57 45.53-2.14 68.13-5.37-7.86-0.17-15.71-0.33-23.55 0.2 0.99-1.22 1.98-2.43 2.99-3.65 6.19 1.92 12.6 0.77 18.82-0.32m-43.67 15.16c-8.26 0.25-16.56 0.99-24.76-0.33-1.14 1.08-2.28 2.16-3.42 3.25 18.38-0.64 36.73-1.74 55.12-2.19 9.56-0.57 19.34-0.15 28.6-2.95-18.47 1.63-37.04 1.23-55.54 2.22z"
    />
    <path
        d="m179.32 166.18c0.87-1.38 3.24 0.07 2.15 1.43-0.87 1.4-3.23-0.07-2.15-1.43z"
    />
    <path
        d="m577.7 166.28c2.4 0.71 4.72 1.74 6.6 3.44-2.41-0.72-4.73-1.74-6.6-3.44z"
    />
    <path
        d="m352.1 167.27c0.86-1.08 2.93-1.08 3.8 0 0.02 1.73-3.83 1.73-3.8 0z"
    />
    <path
        d="m606.34 167.66c1.13-1.03 3.02 0.86 2 2-1.16 1.07-3.08-0.85-2-2z"
    />
    <path
        d="m266.45 169.54c17.09-2.32 34.41-1.62 51.56-0.41-0.4 0.79-0.79 1.59-1.17 2.39-2.47-0.5-5.03-1.01-7.49-1.45-1.17 1.24-3.51 3.71-4.68 4.95-3.6-1.65-7.19-3.29-10.76-5-1.59 1.31-3.18 2.61-4.78 3.92-2.62-1.31-5.15-2.96-8.05-3.57-3.43 1.1-6.01 3.78-9.21 5.33-2.97-0.69-4.41-3.58-5.42-6.16z"
    />
    <path
        d="m323.49 169.25c0.85-1.58 3.93-0.44 2.84 1.32-0.85 1.61-3.92 0.44-2.84-1.32z"
    />
    <path
        d="m432.52 170.77c2.52-0.43 7.55-1.3 10.07-1.74 0.82 1.19 1.65 2.37 2.48 3.56-4.22-0.33-8.41-0.95-12.55-1.82z"
    />
    <path
        d="m590.25 169.68c1.58-0.02 1.53 2.74 0 2.81-1.61-0.05-1.51-2.67 0-2.81z"
    />
    <path
        d="m328.81 170.18c7.05-0.12 14.11-0.19 21.17-0.25-2.03 1.99-3.97 4.07-5.9 6.16-3.02-1.66-5.9-3.75-9.25-4.68-2.71-0.07-5.03 1.76-7.45 2.76 0.49-1.33 0.97-2.65 1.43-3.99z"
    />
    <path
        d="m108.03 173.11c6.84-2.17 14.13-1.79 21.22-2.15-2.13 1.34-4.27 2.63-6.4 3.95 1.49-0.15 2.99-0.29 4.49-0.44-6.41 5.12-11.77 11.56-18.41 16.37-7.5 1.93-15.49 1.51-23.17 2.15 7.31-6.74 14.02-14.27 22.27-19.88z"
    />
    <path
        d="m136.26 171.17c6.65-0.08 13.3-0.13 19.96-0.14-5.52 6.8-11.79 12.92-17.68 19.39-7.95-0.69-15.87 1.09-23.83 0.68 6.63-7.22 14.05-13.64 21.55-19.93z"
    />
    <path
        d="m142.48 191.84c6.97-7.98 13.89-16.53 23.23-21.85-1.79 4.79-3.72 9.54-5.85 14.19 10.62-0.77 21.12-2.84 31.79-3.14-2.67 3.13-5.59 6.24-9.39 7.98-12.91 3.68-26.5 3.07-39.78 2.82z"
    />
    <path
        d="m252.04 172.55c3.6-0.5 7.19-0.76 10.83-0.84-3.28 2.16-7.52 4.15-10.83 0.84z"
    />
    <path
        d="m353.45 172c2.77-0.01 8.33-0.02 11.1-0.03-3.7 0.19-7.41 0.41-11.1 0.03z"
    />
    <path
        d="m63.76 194.77c11.64-9.79 23.1-22.83 39.53-22.93-7.44 6.65-14.36 13.95-22.19 20.14-5.3 2.58-11.6 1.83-17.34 2.79z"
    />
    <path
        d="m248.16 172.16c4-0.91-0.91 4 0 0z"
    />
    <path
        d="m310.82 173.49c3.86 0.88 7.7 0.11 11.51-0.54-6.15 8.5-12.83 16.66-20.06 24.25-4.96 3.66-11.33 4.29-17.16 5.61-0.32-0.9-0.64-1.8-0.95-2.7 9.04-8.71 18.63-16.91 26.66-26.62z"
    />
    <path
        d="m364.84 171.96c1.56 0.14 3.13 0.28 4.71 0.43 0.17 1.24 0.35 2.49 0.52 3.74-1.73-1.4-3.47-2.8-5.23-4.17z"
    />
    <path
        d="m457.14 172.11c1.29 0.67 1.29 1.35-0.03 2.03-1.3-0.67-1.3-1.35 0.03-2.03z"
    />
    <path
        d="m502.53 175.05c4.49-4.25 10.66-1.81 15.93-0.68-5.32 0.28-10.61 0.86-15.93 0.68z"
    />
    <path
        d="m240.11 174.89c1.89-0.54 3.78-1.06 5.69-1.55-1.53 2.08-3.43 3.95-5.69 1.55z"
    />
    <path
        d="m272.76 179.75c3.18-2.24 6.35-4.51 9.58-6.69-5.96 10.8-15.4 18.99-22.73 28.78-4.46 0-8.9 0.03-13.35 0.02 3.19-6.03 6.88-11.93 12.18-16.33 3.12-2.55 6.04-5.33 8.64-8.42 1.89 0.89 3.78 1.76 5.68 2.64z"
    />
    <path
        d="m429.53 173.12c1.41-2.18 3.16 1.9 0.57 1.29-0.14-0.32-0.42-0.97-0.57-1.29z"
    />
    <path
        d="m645.67 173.15c0.79-1.2 2.9 0.08 2.04 1.32-0.79 1.15-2.87-0.12-2.04-1.32z"
    />
    <path
        d="m214.3 176c6.58-0.57 13.18-0.93 19.76-1.48 1.55 2.53 3.36 4.89 5.38 7.07-3.48 5.51-6.13 11.59-10.09 16.79-5.33 2.37-11.51 1.22-17.2 1.66 2.88-9.34 11.91-14.77 15.49-23.67-6.17 1.27-9.87 6.73-12.87 11.78-2.25-1.39-4.21-4.13-7.14-3.62-5.39 0.52-10.69 1.58-16.03 2.4 1.73-2.25 3.02-5.23 5.79-6.38 5.68-0.6 11.39-0.7 17.09-0.98-0.06-1.2-0.12-2.39-0.18-3.57z"
    />
    <path
        d="m250.48 177.9c4.99-0.98 10.21-1.05 14.89-3.31-9.62 7.04-17.94 16.03-22.97 26.92-1.41-0.64-2.84-1.27-4.26-1.89 0.92-1.57 1.85-3.14 2.78-4.71-2.32 1.19-4.64 2.39-7.02 3.47 3.59-8.07 8.36-16.42 16.58-20.48z"
    />
    <path
        d="m285.24 176.76c5.8-0.88 11.76-3.02 17.33 0.16-7.24 9.02-16.75 15.86-24.07 24.8-4.33 0.07-8.64 0.16-12.96 0.23 5.6-9.14 13.39-16.59 19.7-25.19z"
    />
    <path
        d="m350.68 174.39c5.99 1.11 12.06 1.82 17.99 3.29-6.22 9.91-14.51 19.01-24.56 25.12-13.17 1.46-26.45-0.62-39.63-1.12 4.78-7.75 10.68-14.75 16.6-21.65 2.48-2.99 6.68-3.08 10.21-4.03 5.07-1.34 9.59 2.4 14.52 2.86 1.89-1.17 3.33-2.9 4.87-4.47m-15.27 10.98c-3.26 0.56-5.51 3.67-6.34 6.67 0.11 3.3 2.83 5.88 5.53 7.43 4.67 3 11.17 0.48 14.08-3.83 1.71-7.11-6.66-13.18-13.27-10.27z"
    />
    <path
        d="m444.78 174.72c3.41-0.04 6.89-0.04 10.32 0.09-0.47 1.67-0.94 3.33-1.39 5-3.57-0.45-6.45-2.64-8.93-5.09z"
    />
    <path
        d="m460.04 174.51c1.64 0.07 1.19 2.73-0.23 2.82-1.66-0.07-1.26-2.79 0.23-2.82z"
    />
    <path
        d="m380.12 178.53c3.93 0.78-2.3 3.43 0 0z"
    />
    <path
        d="m384.98 177.97c0.96 0.42 1.92 0.84 2.89 1.26 0.06 1.25 0.12 2.49 0.19 3.74-0.76 0.01-2.29 0.03-3.05 0.03-0.01-1.67-0.03-3.35-0.03-5.03z"
    />
    <path
        d="m403.18 179.32c1.35-1.08 2.82 1.28 1.43 2.15-1.36 1.09-2.81-1.28-1.43-2.15z"
    />
    <path
        d="m421.53 179.12c1.41-2.18 3.16 1.9 0.57 1.29-0.14-0.32-0.42-0.97-0.57-1.29z"
    />
    <path
        d="m588.67 178.89c2.33 1.22 4.54 2.67 6.6 4.31-2.36-1.18-4.58-2.62-6.6-4.31z"
    />
    <path
        d="m409.4 180.15c1.4-0.44 1.88 0.04 1.45 1.45-1.4 0.43-1.89-0.05-1.45-1.45z"
    />
    <path
        d="m564.25 180.7c0.94 2.1 1.88 4.21 2.84 6.32-0.79-0.01-2.36-0.04-3.15-0.05 0.1-2.09 0.2-4.18 0.31-6.27z"
    />
    <path
        d="m582.4 181.15c1.4-0.44 1.88 0.04 1.45 1.45-1.41 0.43-1.89-0.05-1.45-1.45z"
    />
    <path
        d="m635.54 181.27c0.87-1.14 2.83 0.32 1.92 1.46-0.88 1.14-2.85-0.32-1.92-1.46z"
    />
    <path
        d="m410.15 183.4c3.99-0.82-0.85 3.98 0 0z"
    />
    <path
        d="m405.15 184.4c3.99-0.82-0.85 3.98 0 0z"
    />
    <path
        d="m428.36 184.33c3.15 0.87 6.19 2.1 9 3.77-3.17-0.79-6.22-2.04-9-3.77z"
    />
    <path
        d="m598.93 184.37c1.2-0.97 3.36-0.32 4.12 0.94-0.48 1.77-4.39 0.85-4.12-0.94z"
    />
    <path
        d="m616.15 185.4c3.99-0.82-0.86 3.98 0 0z"
    />
    <path
        d="m393.18 186.37c1.5-0.35 2.29 2.29 0.65 2.58-1.55 0.36-2.31-2.25-0.65-2.58z"
    />
    <path
        d="m381.14 186.18c1.74 2.16 2.33 4.86 2.38 7.58-1.15-2.4-1.91-4.97-2.38-7.58z"
    />
    <path
        d="m176.19 194.4c10.8-2.09 21.28-5.7 32.32-6.56 0.01 5.73 0.48 11.43 1.24 17.11 6.07-1.2 12.24-1.81 18.37-2.67-0.83 2.44-1.64 4.9-2.41 7.36-3.92 0.38-7.89 0.57-11.75-0.36-12.52-2.8-25.95-2.32-37.77-7.79 10.14 0.11 20.04 2.71 30.16 3.12 0.21-0.57 0.62-1.7 0.82-2.26-9.65-0.77-19.34-1.99-28.56-5.05 8.31-1.14 16.8-0.71 25.03-2.42-9.31-1.39-18.76-0.77-27.8 1.72 0.08-0.55 0.26-1.65 0.35-2.2z"
    />
    <path
        d="m334.79 189.93c1.95-0.37 3.88-0.95 5.88-0.98 1.22 1.17 3.65 3.53 4.87 4.71-2.08 0.7-4.16 1.36-6.21 2.14-1.49-1.98-3.02-3.92-4.54-5.87z"
    />
    <path
        d="m638.14 189.11c1.29 0.67 1.28 1.35-0.03 2.03-1.31-0.67-1.3-1.35 0.03-2.03z"
    />
    <path
        d="m355.02 200.23c2.84-3.54 5.73-7.04 8.78-10.39 1.34 0.6 2.7 1.19 4.05 1.79-4.61 2.33-8.6 5.66-12.83 8.6z"
    />
    <path
        d="m418.16 190.16c4-0.91-0.91 4 0 0z"
    />
    <path
        d="m550.53 190.12c1.41-2.19 3.16 1.9 0.57 1.29-0.14-0.32-0.42-0.97-0.57-1.29z"
    />
    <path
        d="m421.14 191.11c1.29 0.67 1.29 1.35-0.03 2.03-1.3-0.67-1.29-1.35 0.03-2.03z"
    />
    <path
        d="m453.47 191.41c1.18-1.27 3.39 0.72 2.22 2.02-1.18 1.22-3.41-0.73-2.22-2.02z"
    />
    <path
        d="m541.8 191.17c0.45-1.27 2.85-0.76 2.4 0.66-0.47 1.27-2.86 0.76-2.4-0.66z"
    />
    <path
        d="m548.63 192.61c3.05-0.65 6.24-1.26 9.33-1.87 0 0.9-0.01 2.71-0.01 3.61-3.17-0.53-6.21-1.09-9.32-1.74z"
    />
    <path
        d="m393.58 191.54c0.35 2.63 0.35 5.29 0 7.92-0.12-2.64-0.12-5.28 0-7.92z"
    />
    <path
        d="m404.15 193.4c3.99-0.82-0.85 3.98 0 0z"
    />
    <path
        d="m109.15 195.16c9.17-0.45 18.35-0.9 27.54-0.9-2.57 1.78-4.27 5.15-7.5 5.89-8.65 1.87-17.53 2.37-26.34 2.94 2.11-2.63 4.21-5.28 6.3-7.93z"
    />
    <path
        d="m142.17 194.26c7.53 0.14 15.04 0.51 22.51 1.52-8.68 1.09-17.3 2.56-25.93 3.97 1.67-1.02 3.37-2 5.07-2.97-0.55-0.84-1.1-1.68-1.65-2.52z"
    />
    <path
        d="m381.06 193.84c0.59 0.18 1.78 0.54 2.38 0.72 0.18 0.6 0.54 1.79 0.72 2.38-0.79 0.02-2.37 0.05-3.16 0.06 0.01-0.79 0.04-2.37 0.06-3.16z"
    />
    <path
        d="m604.53 194.12c1.41-2.19 3.16 1.9 0.57 1.29-0.14-0.32-0.42-0.97-0.57-1.29z"
    />
    <path
        d="m75.11 203.19c8.41-6.39 19.45-6.85 29.56-7.98-2.38 2.7-4.76 5.71-8.18 7.13-7.09 0.82-14.25 1.26-21.38 0.85z"
    />
    <path
        d="m139.29 195.53c0.78-1.15 2.85 0.12 2.04 1.32-0.8 1.2-2.91-0.09-2.04-1.32z"
    />
    <path
        d="m398.18 195.32c1.46-1.17 3.11 1.36 1.64 2.36-1.47 1.16-3.12-1.36-1.64-2.36z"
    />
    <path
        d="m478.44 198.33c6.81-1.8 13.82-3.04 20.89-2.92-6.75 2.11-13.8 3.49-20.89 2.92z"
    />
    <path
        d="m364.09 203.79c1.6-2.8 3.2-5.59 4.96-8.29 1.24 4.98-0.41 7.75-4.96 8.29z"
    />
    <path
        d="m408.17 196.17c1.62-0.52 2.18 0.03 1.66 1.66-1.63 0.52-2.19-0.04-1.66-1.66z"
    />
    <path
        d="m443.47 196.77c2.8-0.32 5.6-0.58 8.41-0.83 0.45 1 0.91 2.01 1.37 3.02-3.32-0.47-6.63-1.02-9.78-2.19z"
    />
    <path
        d="m66.1 197.27c0.86-1.08 2.93-1.08 3.8 0 0.02 1.73-3.82 1.73-3.8 0z"
    />
    <path
        d="m504.64 198.47c8.07-1.92 16.47-1.32 24.7-1.31-8.18 1.28-16.44 1.72-24.7 1.31z"
    />
    <path
        d="m551.59 198.63c1.93-0.48 3.89-0.94 5.84-1.38 0.16 0.79 0.47 2.36 0.63 3.15-2.2-0.48-4.37-1.01-6.47-1.77z"
    />
    <path
        d="m564.06 202.67c7.75 0.53 15.28-1.73 21.86-5.74 1.57 6.5 3.01 13.02 4.21 19.6-8.58-1.86-15.37-7.76-23.49-10.72 6.51 6.25 16.32 8.09 21.9 15.34-10.74-3.64-19.24-11.56-28.94-17.18 1.47 1.88 3.05 3.67 4.66 5.44-2.77 0.97-5.32 2.45-7.81 3.97 7.39 6.34 15.58 11.6 23.68 16.96-6.99-2.06-12.97-6.45-19.81-8.9 0.07 1.2 0.14 2.4 0.23 3.6-9.1-0.54-18.13-1.55-27.11-3.02-13.34-1.58-26.74-2.69-39.98-5 0.37-0.7 0.75-1.4 1.14-2.09-6.68 0.45-13.43-0.6-20.05 0.61 19.61 2.36 39.04 6.61 58.89 6.48-19.31 3.3-38.45-2.09-57.74-1.39 5.49 1.16 11.12 1.33 16.7 1.93-17.68 0.45-35.36 0.88-53.03 1.55-12.67-0.83-25.37 0.07-38.05-0.42-14.57-0.95-29.15-2.35-43.77-2.09-6.23 0.25-12.5-0.1-18.6-1.41 0.7 0.56 1.4 1.13 2.11 1.7-12.71-0.64-25.45-0.43-38.16-0.03 1.07-0.65 2.15-1.29 3.23-1.93-11.11 3.4-22.54 5.6-33.81 8.37-0.79 1.87-1.58 3.74-2.38 5.61-1.01-0.61-2.02-1.22-3.02-1.82 0.71 1.7 1.43 3.39 2.14 5.09-3.47-1.2-6.92-2.42-10.38-3.61 0.46-1.42 0.92-2.85 1.36-4.27-2.03-2.38-4.05-4.76-6.08-7.13 3.17 0.69 6.3 1.3 9.51 1.88-0.62-1.8-1.23-3.61-1.9-5.39 0.03 1.54 0.09 3.09 0.14 4.64-10.07-3.67-18.46-10.5-27.94-15.31 8.25 7.76 19.84 12.49 24.78 23.31-9.45-3.21-17.18-9.74-24.44-16.38 0.6-0.95 1.19-1.9 1.79-2.85-1.62 0.32-3.23 0.64-4.85 0.96 0.8-2.8 1.64-5.59 2.42-8.39 6.68 2.14 13.56 3.56 20.51 1.46 1.25 2.41 1.07 7.25 4.48 8.25 9.61 2.93 19.77 4.5 29.82 3.7-10-1.06-19.43-4.61-29.08-7.17 0.45 1.22 0.89 2.45 1.33 3.68-1.77-1.92-3.43-3.93-5.06-5.97 11.74-2.01 23.61-3.73 35.55-2.55 25.83 0 51.62 3.4 77.43 0.93 0.82 2.92 1.15 6.15 2.95 8.68 5.45 3.58 12.58 1.46 18.68 2.1 3.58-4.56 9.36-7.28 15.25-5.77 5.74 2.16 10.5-2.44 16.08-1.72 11.78 1.02 23.58 0.15 35.37-0.06 25.34 2.45 50.82 1.89 76.24 1.8 5.25 0.17 10.42-0.9 15.45-2.28-28.6 0.81-57.29 1.34-85.84-0.95 4.42-2.29 9.24-4 14.33-3.69 29.04-0.6 58.13-0.2 87.1-2.41m-268.43 7.56c5.31 2.35 10.96 3.94 16.7 4.81-5.18-2.74-10.88-4.3-16.7-4.81m16.82 4.23c2.26 0.88 4.62 1.61 7.07 1.62-2.33-0.66-4.68-1.21-7.07-1.62m89.12 0.36c6.06 1.24 12.28 1.44 18.43 2.08 18.43 1.43 36.83 4.59 55.37 3.67-9.57-1.59-19.3-1.88-28.93-3-14.92-1.28-29.86-4.37-44.87-2.75m99.43-0.6c-0.35 1.81 3.34 1.81 3 0-0.58-1.07-2.44-1.07-3 0m7.1 0.05c-0.03 1.73 3.82 1.73 3.8 0-0.87-1.08-2.94-1.08-3.8 0m-187.69 1.34c-0.98 1.24 1.14 2.9 2.18 1.78 0.98-1.24-1.15-2.9-2.18-1.78m3.86 1.93c3.69 1.06 7.45 2.01 11.31 2.25-3.67-1.23-7.41-2.42-11.31-2.25m-36.22 1.26c3.21 0.65 6.32 1.68 9.36 2.92-0.27-0.42-0.8-1.26-1.07-1.68-0.34-0.52-1.01-1.57-1.35-2.09-1.73 0.21-5.2 0.63-6.94 0.85m-3 0.41c-0.15 1.86 3.52 1.35 3-0.41-0.74-0.96-2.52-0.66-3 0.41m11.29 0.83c0.4 1.37 2.94 1.24 2.97-0.29-0.27-1.52-2.98-1.23-2.97 0.29m-5.81 0.08c0.15 0.32 0.43 0.97 0.57 1.29 2.6 0.61 0.85-3.48-0.57-1.29z"
    />
    <path
        d="m415.21 198.4c2.83 0.46 5.59 1.29 8.26 2.36-2.9-0.48-5.64-1.12-8.26-2.36z"
    />
    <path
        d="m501.53 198.12c1.41-2.19 3.16 1.9 0.57 1.29-0.14-0.32-0.42-0.97-0.57-1.29z"
    />
    <path
        d="m383.14 199.11c1.3 0.67 1.29 1.35-0.03 2.03-1.3-0.67-1.29-1.35 0.03-2.03z"
    />
    <path
        d="m397.54 199.27c0.87-1.14 2.83 0.32 1.92 1.46-0.88 1.14-2.84-0.32-1.92-1.46z"
    />
    <path
        d="m539.7 200.97c3.54-0.71 7.13-1.41 10.74-1.68-3.55 0.76-7.15 1.23-10.74 1.68z"
    />
    <path
        d="m50.36 204.59c7.28-3.17 15.38-3.56 23.21-4-6.96 4.18-15.36 4.11-23.21 4z"
    />
    <path
        d="m140.67 202.82c8.18-1.11 17.8-5.51 25.44-0.66-8.46 0.67-16.95 0.94-25.44 0.66z"
    />
    <path
        d="m362.06 200.39c1.93 1.03-1.08 3.58-2.31 2.19-0.7-1.29 1.12-2.54 2.31-2.19z"
    />
    <path
        d="m450.8 201.17c0.45-1.27 2.85-0.76 2.4 0.66-0.46 1.27-2.86 0.76-2.4-0.66z"
    />
    <path
        d="m592.15 202.4c3.99-0.82-0.86 3.98 0 0z"
    />
    <path
        d="m435.27 204.99c0.58 0.14 1.73 0.4 2.31 0.53 0 0.49 0.01 1.47 0.01 1.96-1.19 0.23-2.38 0.46-3.57 0.69 0.41-1.06 0.83-2.12 1.25-3.18z"
    />
    <path
        d="m457.8 205.17c0.45-1.27 2.85-0.76 2.4 0.66-0.46 1.27-2.86 0.76-2.4-0.66z"
    />
    <path
        d="m176.69 207.01c5.54 1.38 11.04 2.92 16.64 4.03-3.66 0.7-7.41 0.89-11.13 0.57-2.23-0.97-3.76-2.99-5.51-4.6z"
    />
    <path
        d="m443.53 207.12c1.41-2.19 3.16 1.9 0.57 1.29-0.14-0.32-0.42-0.97-0.57-1.29z"
    />
    <path
        d="m606.29 207.53c0.77-1.15 2.85 0.12 2.04 1.32-0.81 1.19-2.91-0.09-2.04-1.32z"
    />
    <path
        d="m394.14 209.13c1.51 0.44 0.44 2.71-0.89 2.13-1.52-0.45-0.42-2.65 0.89-2.13z"
    />
    <path
        d="m193.3 211c6.31-0.7 12.67-0.68 19.02-0.72-6.29 0.77-12.71 1.86-19.02 0.72z"
    />
    <path
        d="m564.26 209.41c7.93 5.5 16.26 10.81 25.72 13.25-0.5-1.74-1-3.46-1.51-5.19 1.71 1.56 3.37 3.16 4.98 4.82-0.57 0.02-1.73 0.07-2.31 0.09 0.16 0.93 0.33 1.86 0.51 2.8-10.01-3.44-20.12-7.81-27.39-15.77z"
    />
    <path
        d="m560.93 210.66c6.37 3.76 12.08 8.59 18.88 11.65 5.27 2.92 11.42 3.5 16.82 6.11-9.11 1.38-17.35-3.51-24.58-8.46-4-2.75-7.86-5.71-11.12-9.3z"
    />
    <path
        d="m560.15 213.4c3.99-0.82-0.86 3.98 0 0z"
    />
    <path
        d="m380.54 215.13c2.97-0.08 5.99-0.13 8.96 0.23-2.99 0.13-5.99 0.2-8.96-0.23z"
    />
    <path
        d="m564.34 216.66c1.13-1.03 3.02 0.86 2 2-1.16 1.07-3.08-0.85-2-2z"
    />
    <path
        d="m235.15 220.4c3.99-0.82-0.85 3.98 0 0z"
    />
    <path
        d="m344.08 225.31c1.27-1.04 3.56-1.04 4.84 0-0.45 1.61-4.4 1.61-4.84 0z"
    />
    <path
        d="m478.53 225.12c1.41-2.19 3.16 1.9 0.57 1.29-0.14-0.32-0.42-0.97-0.57-1.29z"
    />
    <path
        d="m512.53 226.12c1.41-2.19 3.16 1.9 0.57 1.29-0.14-0.32-0.42-0.97-0.57-1.29z"
    />
    <path
        d="m521.22 225.87c2.01-0.26 1.77 2.82-0.11 2.59-2.03 0.23-1.73-2.74 0.11-2.59z"
    />
    <path
        d="m524.01 225.9c7.46 0.09 14.92 0.17 22.38 0.41-7.44 0.55-14.86 1.07-22.3 1.58-0.02-0.49-0.06-1.49-0.08-1.99z"
    />
    <path
        d="m243.34 227.66c1.14-1.03 3.03 0.86 2 2-1.15 1.07-3.08-0.85-2-2z"
    />
    <path
        d="m564.15 229.67c1.19-0.82 2.46 1.25 1.32 2.04-1.24 0.86-2.53-1.24-1.32-2.04z"
    />
    <path
        d="m543 229.97c2.66 0.02 5.33 0.02 8 0v1.06c-2.67-0.03-5.34-0.03-8 0v-1.06z"
    />
    <path
        d="m552.8 230.17c0.45-1.27 2.85-0.76 2.4 0.66-0.47 1.27-2.86 0.76-2.4-0.66z"
    />
    <path
        d="m252.92 233.02c5.13 1.98 10.26 4.01 15.55 5.55 0.41 3.05 0.98 6.07 1.62 9.08-2.08 0.09-4.49 1.12-6.33-0.32-4.91-3.61-7.73-9.22-10.84-14.31z"
    />
    <path
        d="m319.57 233.66c5.94-0.22 11.9-0.37 17.86-0.32-5.96 0.2-11.91 0.36-17.86 0.32z"
    />
    <path
        d="m289.1 234.24c1.86 1.18-1.26 3.23-2.19 1.58-0.54-1.21 1.22-2.07 2.19-1.58z"
    />
  </g
  >
  <g
      id="#000000ff"
      fill="#000000"
    >
    <path
        d="m773.97 6.92c8.73 1.67 17.87 2.38 26.06 6.08 6.05 2.21 6.54 9.49 10.8 13.59-1.71 6.59-4.9 12.72-9 18.13-16.49 24.2-28.76 51.11-46.67 74.37-3.45 4.78-6.72 9.99-11.8 13.24 0.54-2.38 1.02-4.82 2.07-7.04 13.49-13.41 23.11-29.95 32.68-46.22 7.31-12.68 15.61-24.8 22.06-37.98 2.59-5.31 5.74-10.79 5.64-16.9-2.07-11.15-15.78-12.88-25.1-12.36-5 3.54-8.22 9.17-11.77 14.05-14.67 22.83-28.98 45.98-45.75 67.35-2.78 3.34-2.5 7.81-2.51 11.87-1.43-0.95-2.85-1.91-4.26-2.87-0.3 4.41 0.56 8.85 2.28 12.92 2.25 6.35 9.39 8.42 13.32 13.48 3.71-1.4 8.35-2.22 10.65-5.87 10.43-15.63 20.62-31.41 30.95-47.11 8.05-12.31 13.71-25.98 21.93-38.19 1.7-3.37 4.88-6.36 5.12-10.29-0.83-3.24-3.27-5.91-5.55-8.22-5.05-2.73-11.14-2.62-16.62-3.87 5.53-0.45 11.63-0.89 16.64 1.86 3.56 3.76 9.72 8.65 6.38 14.64-6.67 10.76-13.63 21.39-19.03 32.88-11.17 20.99-26.21 39.67-37.06 60.83-2.79 2.69-6.68 3.6-10.19 4.96 1.7 1.46 3.35 3 4.92 4.6 1.14-0.86 2.28-1.73 3.44-2.58-1.22 2-2.53 3.95-3.9 5.85-3.86-4.3-9.86-4.08-15.15-3.51 0.45 4.76 1.81 9.93-0.5 14.41-2.97 6.29-8.07 12.32-15.12 13.97-7.62 2.02-15.25-0.46-22.75-1.72-6.5-1.12-13.23 1.84-19.52-0.52-4.26 10.87-7.81 22.01-11.92 32.94 0.55-0.13 1.63-0.38 2.17-0.51-1.73 3.46-2.93 7.25-5.45 10.25-2.83 3.59-6.69 6.1-10.27 8.85-8.81 8.39-21.88 9.06-32.74 13.32-3.07 1.73-4.56 5.58-8.08 6.6-2.82 0.5-5.66-0.27-8.41-0.79 0.69 0.77 1.39 1.53 2.09 2.3-9.38-1.79-19.13-0.77-28.14 2.26-8.37 3.05-17.42 1.35-26.12 1.51-17.96 0.5-35.84-1.82-53.79-1.53-31.67 0.16-63.35-0.1-95.02 0.08-12.4-0.25-24.51 3.31-36.92 2.72-25.49-2.8-51.12-0.52-76.65 0.15-1.11 6.06-3.57 12.17-8.95 15.65-5.49 0.84-10.21-2.59-14.14-5.88-6.79-6-11.29-13.99-17.28-20.7-3.72-5.1-9.13-8.44-13.48-12.91-13.06-0.43-26 2.06-39.03 1.73-3.79-1.26-9.73 1.15-12.28-2.77-0.92-1.25-1.79-2.53-2.67-3.8-44.63-0.62-89.26 0.13-133.89-0.37 11.44-11.03 24.29-20.44 36.14-31.02 5.09-4.12 10.13-9.59 17.07-10.18 21.36-0.6 42.73-0.87 64.11-0.51 4.54-0.57 9.71 1.05 13.94-1.21 3.52-2.64 5.47-6.79 7.84-10.41 18.34-2.71 36.95-2.87 55.45-3.27 2.21-2.48 4.29-5.41 7.86-6.05 9.75-3.64 20.24-4.35 30.44-6.05-0.08-1.54-0.14-3.07-0.19-4.6 0.65-0.17 1.95-0.49 2.6-0.66 0.94 2.15 1.89 4.29 2.79 6.45 6.87-4.96 11.64-12.13 16.74-18.77 6.8-0.97 11.63 3.9 16.01 8.21 6.47 0.27 13.05-1.02 19.49-0.17 3.76 1.91 2.17-3.41 0 0 17.02-4.07 34.58-3.1 51.9-4.34 36.98-4.89 74.47-4.77 111.71-3.85 16.84 0.22 33.52 3.35 50.41 2.42 10-0.7 20.05 0.24 29.69 3.04-0.08-0.53-0.23-1.58-0.31-2.11 3.25 1.03 6.49 2.08 9.73 3.18 1.8-2.44 3.43-5.01 5.16-7.5 9.22 0.22 17.41 5.73 26.73 5.12 9.78 0 19.62 0.98 29.13 3.31 5.1 1.25 8.84 5.39 13.72 7.05 7.21 0.79 14.46-0.66 21.52-2.07 2.41-5.9 5.1-12.35 11.11-15.45 7.05-4.62 15.93-4.85 23.86-2.65-1.54-5.03-1.69-10.33-2.95-15.42 5.04-5.77 8.33-12.81 13.27-18.68 10.6-13.15 20.95-26.52 30.56-40.41 7.6-12.1 15.24-24.18 22.75-36.33m-18.88 34.15c-8.02 13.02-17.68 24.91-27.03 36.97-5.99 7.68-12.61 15.14-16.33 24.27 6.81-6.09 12.06-13.67 17.76-20.76 15.11-21.51 29.5-43.52 43.65-65.68-7.75 7.05-12.49 16.5-18.05 25.2m-43.69 62.08c-0.44 1.4 0.04 1.88 1.45 1.45 0.43-1.41-0.05-1.89-1.45-1.45m-0.85 2.91c2 3.83 4.01 7.66 6.27 11.36-1.1-4.24-2.46-8.75-6.27-11.36m5.07 11.51c1.07 5.27 4.25 9.66 7.21 14.01-0.09-2.24 0.36-4.59-0.26-6.77-2.02-2.67-4.52-4.95-6.95-7.24m-25.44 4.56c7.01-1.77 14.15-1.79 21.23-0.47-6.68-2.81-15.06-4.27-21.23 0.47m21.97 0.27c-0.86 3.98 3.99-0.82 0 0m-14.49 1.88c2.16 0.89 4.35 1.74 6.53 2.6-3.97-0.19-7.94-0.97-11.88-0.43-3.22 2.55-4.53 6.9-8.14 9.13 1.76 4.43 5.22 8.34 5.29 13.3 0.47 2.4-0.4 6.28 2.85 6.82 7.58 1.36 15.6-0.89 21.27-6.09 1.97-3.48 3.25-7.31 4.59-11.07-3.66-1.44-8.3-1.72-10.6-5.27-2.28-2.85-2.14-6.65-2.33-10.09-2.56 0.35-5.07 0.7-7.58 1.1m-115.25 2.33c3.94 1.01 8.03 1.13 12.07 0.8-3.9-1.14-8.06-1.2-12.07-0.8m-286.8 0.8c-1.12 1.03 0.53 3.16 1.78 2.18 1.11-1.03-0.54-3.16-1.78-2.18m196.39-0.19c-0.35 1.81 3.34 1.81 3 0-0.58-1.07-2.44-1.07-3 0m-111.4 2.49c5.29-0.18 10.58-0.42 15.86-0.86-5.29 0.16-10.59 0.51-15.86 0.86m160.93-0.59c0.15 0.32 0.43 0.97 0.57 1.29 2.59 0.61 0.84-3.47-0.57-1.29m170.22-0.33c1.3 1.64 2.72 3.18 4.23 4.64-1.33-1.63-2.73-3.18-4.23-4.64m14.53 0.74c2.32 0.7 4.72 1.13 7.13 1.44-2.35-0.6-4.74-1.08-7.13-1.44m-355.2 0.72c0.23 1.62 3.24 1.85 4.38 0.95 0-1.85-3.28-2-4.38-0.95m172.65 3.52c2.55 0.36 5.1 0.72 7.66 1.07-1.18-1.68-2.37-3.35-3.56-5.02-1.38 1.31-2.74 2.63-4.1 3.95m-254.2-2.65c0.15 0.32 0.43 0.97 0.57 1.29 2.6 0.61 0.85-3.47-0.57-1.29m265.39 0.95c0.73 1.72 1.47 3.43 2.21 5.16-4.14 0.26-8.32 0.19-12.46 0.26 13.52 5.12 27.15 11.83 41.89 11.92-9.67-7.24-20.85-12.06-31.64-17.34m28.22 0.05c-1.5 0.39-0.69 2.71 0.73 2.16 1.49-0.37 0.64-2.71-0.73-2.16m-19.34 1.05c-0.46 1.42 1.93 1.93 2.4 0.66 0.45-1.42-1.95-1.93-2.4-0.66m7.21 0.83c-0.71 1.2-1.44 2.4-2.18 3.58 6.16 3.03 12.14 6.42 18.18 9.69-0.42-2.37 0.23-5.35-1.59-7.19-4.54-2.58-9.56-4.19-14.41-6.08m-97.01 1.22c-0.35 1.81 3.34 1.81 3 0-0.58-1.07-2.44-1.07-3 0m65.53 1.9c0.15 0.32 0.43 0.97 0.57 1.29 2.59 0.61 0.84-3.47-0.57-1.29m-72.53 0.85v1.06c2.66-0.02 5.33-0.02 8 0v-1.06c-2.67 0.02-5.34 0.02-8 0m69.1 0.16c-0.66 0.78-1.3 1.57-1.94 2.35-5.21-0.7-10.52-0.19-15.74-0.14 7.24 4.16 14.8 7.8 22.67 10.59 7.14 2.54 14.14 5.8 21.74 6.72l-0.04 1.84c-14.92-4.43-29.97-9.11-43.56-16.87-1.73-0.87-3.4-1.99-5.34-2.31-11.19-0.67-22.33 0.84-33.48 1.53 6.18 2.99 12.83 4.9 18.87 8.2-6.76-1.78-13.36-4.07-19.88-6.55-10.37-4.25-21.92-1.95-32.76-2.24 7.65 2.67 15.43 5.09 22.73 8.66-9.12-1.13-17.43-5.34-26.1-8.07-11.16-1.85-22.53-0.33-33.59 1.51 7.54 3.69 15.61 6.09 23.57 8.71-6.23-1.14-12.64-2.03-18.3-5.02-4.45-2.01-8.65-5.49-13.92-4.4-8.89-0.32-17.71 1.13-26.6 0.81-24.46-0.41-49.62-1.87-73.35 5.23 0.44 1.53 0.9 3.07 1.32 4.61-9.44-0.64-18.98-1.33-27.92-4.67-1.36 1.68-2.76 3.34-4.17 4.97-1.32-2.73-2.37-5.57-3.23-8.47-9.75 1.65-19.55 3.21-29.03 6.08-3.13 0.65-2 4.41-2.17 6.74-3.46 2.36-4.24 6.49-3.38 10.56 3.57-0.91 7.19-1.74 10.69-2.93-0.36 0.81-0.72 1.63-1.07 2.44 10.66-0.65 21.3-1.62 31.92-2.76 16.07-0.69 32.15-0.2 48.22 0.18 15.87-0.21 31.91-2.69 47.58 1.18-0.14-0.46-0.42-1.37-0.56-1.83 9.38 2.19 19.01 4.58 28.72 3.48 35.1-3.46 70.33-5.15 105.58-5.91 17.93-2.43 35.99-0.29 53.99-0.61 8.79 0.03 17.53-1.38 26.34-0.59 0.31-3.02 0.73-6.02 1.1-9.04-4.24-1.02-8.46-2.02-12.68-3.07 0.06 0.56 0.19 1.69 0.25 2.25-12.03-4.75-24.28-8.89-36.48-13.16m61.44 0.59c-0.44 1.69 2.49 2.77 3.68 1.8 0.39-1.69-2.5-2.76-3.68-1.8m-277.96 2c3.3-0.05 6.52-0.27 9.84-0.44-3.27 0.07-6.6 0.23-9.84 0.44m50.22-0.55c-0.46 1.42 1.94 1.93 2.4 0.66 0.45-1.42-1.95-1.93-2.4-0.66m339.25 15.88c-6.79 4.41-15.06 3.36-22.4 1.28 8.2 3.67 18.42 5.59 26.53 0.81 5.52-4.4 8.39-11.49 9.05-18.38-3.01 6.45-5.84 13.65-13.18 16.29m-117.66-14.87c0.09 1.95 0.21 3.9 0.35 5.85 1.8-1.92 1.17-4.01-0.35-5.85m10.52 2.13c-0.64 1.73 3.05 2.79 3.29 0.89-0.35-1.29-2.37-1.92-3.29-0.89m68.37-0.47c-1.25 5.29 0.94 11.43 7.07 11.81-0.99-2.08-2.03-4.12-3.15-6.12 0.49-1.78 0.94-3.57 1.32-5.37-1.75-0.11-3.5-0.21-5.24-0.32m-45.45 3.39c-0.75 1.38 1.64 2.59 2.5 1.39 0.77-1.42-1.66-2.63-2.5-1.39m-23.69 3.88c-1.33 0.68-1.33 1.36-0.03 2.03 1.32-0.68 1.32-1.36 0.03-2.03m-0.74 4.04c-0.44 1.4 0.04 1.88 1.45 1.45 0.43-1.41-0.05-1.89-1.45-1.45m51.6 0.07c-0.35 1.81 3.34 1.81 3 0-0.58-1.07-2.44-1.07-3 0m-475.6 5.94c16.04 1.08 32.12-0.85 47.99-3.11-16.06-0.61-31.97 2.5-47.99 3.11m428.26-1.98c-1.41 0.45-0.92 3.04 0.63 2.65 1.56-0.38 0.98-3.14-0.63-2.65m-412.16 7.23c11.86-0.6 23.58-3.01 35.5-2.62-2.49 1.44-5.14 2.74-8.03 3.07-9.72 1.14-19.51 1.47-29.28 1.84-5.44 1.35-10.73 3.36-16.4 3.61 1.03-2.17 2.13-4.29 3.31-6.37-0.88-0.29-1.76-0.58-2.64-0.87-2.96 5.15-5.26 10.63-7.82 15.98 13.37-1.99 26.85-3.21 40.3-4.15 5.93-3.55 13.01-3.96 19.69-4.98 0.21-3.64 0.41-7.3 0.73-10.93-11.73 2.18-24.09 1.1-35.36 5.42m449.03-2.29c0.15 0.32 0.43 0.97 0.57 1.29 2.59 0.61 0.84-3.47-0.57-1.29m-457.25 0.87c0.06 1.09 0.1 2.17 0.15 3.26 1.6-1.03 3.19-2.07 4.78-3.11-1.65-0.05-3.29-0.1-4.93-0.15m316.56 1.5c-11.6 0.34-23.22 0.48-34.81 1.07 2.31 2.43 4.67 5.32 8.53 5.06 4.6 0.72 8.73-2.41 13.24-2.73 3.92 0.43 7.46 2.52 11.36 3.07 4.24-0.95 8.26-3.71 12.82-1.75 3.7 1.53 7.32 0.58 10.27-1.74 6.41 1.08 12.71-0.86 19.11-0.94 2.53-0.12 4.9-1.06 7.22-2-15.78-2.87-31.88-1.13-47.74-0.04m40.86 5.26c-6.22 1.09-12.63 2.24-18.82 0.32-1.01 1.22-2 2.43-2.99 3.65 7.84-0.53 15.69-0.37 23.55-0.2-22.6 3.23-45.57 1.8-68.13 5.37 7.97-5.31 18.02-3.82 27.03-4.43-11.14-4.27-22.84-0.64-34.31-2.05 0.67 2.89 1.26 5.78 1.94 8.68 27.23-2.27 54.58-1.78 81.82-3.55-13.69 4.88-28.59 2.91-42.79 3.45-13.39-0.32-26.65 1.35-39.97 2.28-0.67 5.08-1.28 10.17-1.9 15.26 1.96-0.98 4.01-1.91 5.99-2.93 11.95-2.63 24.21-2.55 36.3-4.02-9.94-0.91-19.91-1.45-29.84-2.34 12.24-0.36 24.48 0.5 36.7 1.24 14.7 0.26 29.25-2.4 43.85-3.66 0.78-7.64-0.7-15.16-2.25-22.6-5.97 0.02-10.31 5.12-16.18 5.53m-362.38-4.57c-1.08 1.36 1.28 2.83 2.15 1.43 1.09-1.36-1.28-2.81-2.15-1.43m398.38 0.1c1.87 1.7 4.19 2.72 6.6 3.44-1.88-1.7-4.2-2.73-6.6-3.44m-225.6 0.99c-0.03 1.73 3.82 1.73 3.8 0-0.87-1.08-2.94-1.08-3.8 0m254.24 0.39c-1.08 1.15 0.84 3.07 2 2 1.02-1.14-0.87-3.03-2-2m-339.89 1.88c1.01 2.58 2.45 5.47 5.42 6.16 3.2-1.55 5.78-4.23 9.21-5.33 2.9 0.61 5.43 2.26 8.05 3.57 1.6-1.31 3.19-2.61 4.78-3.92 3.57 1.71 7.16 3.35 10.76 5 1.17-1.24 3.51-3.71 4.68-4.95 2.46 0.44 5.02 0.95 7.49 1.45 0.38-0.8 0.77-1.6 1.17-2.39-17.15-1.21-34.47-1.91-51.56 0.41m57.04-0.29c-1.08 1.76 1.99 2.93 2.84 1.32 1.09-1.76-1.99-2.9-2.84-1.32m109.03 1.52c4.14 0.87 8.33 1.49 12.55 1.82-0.83-1.19-1.66-2.37-2.48-3.56-2.52 0.44-7.55 1.31-10.07 1.74m157.73-1.09c-1.51 0.14-1.61 2.76 0 2.81 1.53-0.07 1.58-2.83 0-2.81m-261.44 0.5c-0.46 1.34-0.94 2.66-1.43 3.99 2.42-1 4.74-2.83 7.45-2.76 3.35 0.93 6.23 3.02 9.25 4.68 1.93-2.09 3.87-4.17 5.9-6.16-7.06 0.06-14.12 0.13-21.17 0.25m-220.78 2.93c-8.25 5.61-14.96 13.14-22.27 19.88 7.68-0.64 15.67-0.22 23.17-2.15 6.64-4.81 12-11.25 18.41-16.37-1.5 0.15-3 0.29-4.49 0.44 2.13-1.32 4.27-2.61 6.4-3.95-7.09 0.36-14.38-0.02-21.22 2.15m28.23-1.94c-7.5 6.29-14.92 12.71-21.55 19.93 7.96 0.41 15.88-1.37 23.83-0.68 5.89-6.47 12.16-12.59 17.68-19.39-6.66 0.01-13.31 0.06-19.96 0.14m6.22 20.67c13.28 0.25 26.87 0.86 39.78-2.82 3.8-1.74 6.72-4.85 9.39-7.98-10.67 0.3-21.17 2.37-31.79 3.14 2.13-4.65 4.06-9.4 5.85-14.19-9.34 5.32-16.26 13.87-23.23 21.85m109.56-19.29c3.31 3.31 7.55 1.32 10.83-0.84-3.64 0.08-7.23 0.34-10.83 0.84m101.41-0.55c3.69 0.38 7.4 0.16 11.1-0.03-2.77 0.01-8.33 0.02-11.1 0.03m-289.69 22.77c5.74-0.96 12.04-0.21 17.34-2.79 7.83-6.19 14.75-13.49 22.19-20.14-16.43 0.1-27.89 13.14-39.53 22.93m184.4-22.61c-0.91 4 4-0.91 0 0m62.66 1.33c-8.03 9.71-17.62 17.91-26.66 26.62 0.31 0.9 0.63 1.8 0.95 2.7 5.83-1.32 12.2-1.95 17.16-5.61 7.23-7.59 13.91-15.75 20.06-24.25-3.81 0.65-7.65 1.42-11.51 0.54m54.02-1.53c1.76 1.37 3.5 2.77 5.23 4.17-0.17-1.25-0.35-2.5-0.52-3.74-1.58-0.15-3.15-0.29-4.71-0.43m92.3 0.15c-1.33 0.68-1.33 1.36-0.03 2.03 1.32-0.68 1.32-1.36 0.03-2.03m45.39 2.94c5.32 0.18 10.61-0.4 15.93-0.68-5.27-1.13-11.44-3.57-15.93 0.68m-262.42-0.16c2.26 2.4 4.16 0.53 5.69-1.55-1.91 0.49-3.8 1.01-5.69 1.55m32.65 4.86c-1.9-0.88-3.79-1.75-5.68-2.64-2.6 3.09-5.52 5.87-8.64 8.42-5.3 4.4-8.99 10.3-12.18 16.33 4.45 0.01 8.89-0.02 13.35-0.02 7.33-9.79 16.77-17.98 22.73-28.78-3.23 2.18-6.4 4.45-9.58 6.69m156.77-6.63c0.15 0.32 0.43 0.97 0.57 1.29 2.59 0.61 0.84-3.47-0.57-1.29m216.14 0.03c-0.83 1.2 1.25 2.47 2.04 1.32 0.86-1.24-1.25-2.52-2.04-1.32m-431.37 2.85c0.06 1.18 0.12 2.37 0.18 3.57-5.7 0.28-11.41 0.38-17.09 0.98-2.77 1.15-4.06 4.13-5.79 6.38 5.34-0.82 10.64-1.88 16.03-2.4 2.93-0.51 4.89 2.23 7.14 3.62 3-5.05 6.7-10.51 12.87-11.78-3.58 8.9-12.61 14.33-15.49 23.67 5.69-0.44 11.87 0.71 17.2-1.66 3.96-5.2 6.61-11.28 10.09-16.79-2.02-2.18-3.83-4.54-5.38-7.07-6.58 0.55-13.18 0.91-19.76 1.48m36.18 1.9c-8.22 4.06-12.99 12.41-16.58 20.48 2.38-1.08 4.7-2.28 7.02-3.47-0.93 1.57-1.86 3.14-2.78 4.71 1.42 0.62 2.85 1.25 4.26 1.89 5.03-10.89 13.35-19.88 22.97-26.92-4.68 2.26-9.9 2.33-14.89 3.31m34.76-1.14c-6.31 8.6-14.1 16.05-19.7 25.19 4.32-0.07 8.63-0.16 12.96-0.23 7.32-8.94 16.83-15.78 24.07-24.8-5.57-3.18-11.53-1.04-17.33-0.16m65.44-2.37c-1.54 1.57-2.98 3.3-4.87 4.47-4.93-0.46-9.45-4.2-14.52-2.86-3.53 0.95-7.73 1.04-10.21 4.03-5.92 6.9-11.82 13.9-16.6 21.65 13.18 0.5 26.46 2.58 39.63 1.12 10.05-6.11 18.34-15.21 24.56-25.12-5.93-1.47-12-2.18-17.99-3.29m94.1 0.33c2.48 2.45 5.36 4.64 8.93 5.09 0.45-1.67 0.92-3.33 1.39-5-3.43-0.13-6.91-0.13-10.32-0.09m15.26-0.21c-1.49 0.03-1.89 2.75-0.23 2.82 1.42-0.09 1.87-2.75 0.23-2.82m-79.92 4.02c-2.3 3.43 3.93 0.78 0 0m4.86-0.56c0 1.68 0.02 3.36 0.03 5.03 0.76 0 2.29-0.02 3.05-0.03-0.07-1.25-0.13-2.49-0.19-3.74-0.97-0.42-1.93-0.84-2.89-1.26m18.2 1.35c-1.38 0.87 0.07 3.24 1.43 2.15 1.39-0.87-0.08-3.23-1.43-2.15m18.35-0.2c0.15 0.32 0.43 0.97 0.57 1.29 2.59 0.61 0.84-3.47-0.57-1.29m167.14-0.23c2.02 1.69 4.24 3.13 6.6 4.31-2.06-1.64-4.27-3.09-6.6-4.31m-179.27 1.26c-0.44 1.4 0.05 1.88 1.45 1.45 0.43-1.41-0.05-1.89-1.45-1.45m154.85 0.55c-0.11 2.09-0.21 4.18-0.31 6.27 0.79 0.01 2.36 0.04 3.15 0.05-0.96-2.11-1.9-4.22-2.84-6.32m18.15 0.45c-0.44 1.4 0.04 1.88 1.45 1.45 0.43-1.41-0.05-1.89-1.45-1.45m53.14 0.12c-0.93 1.14 1.04 2.6 1.92 1.46 0.91-1.14-1.05-2.6-1.92-1.46m-225.39 2.13c-0.85 3.98 3.99-0.82 0 0m-5 1c-0.85 3.98 3.99-0.82 0 0m23.21-0.07c2.78 1.73 5.83 2.98 9 3.77-2.81-1.67-5.85-2.9-9-3.77m170.57 0.04c-0.27 1.79 3.64 2.71 4.12 0.94-0.76-1.26-2.92-1.91-4.12-0.94m17.22 1.03c-0.86 3.98 3.99-0.82 0 0m-222.97 0.97c-1.66 0.33-0.9 2.94 0.65 2.58 1.64-0.29 0.85-2.93-0.65-2.58m-12.04-0.19c0.47 2.61 1.23 5.18 2.38 7.58-0.05-2.72-0.64-5.42-2.38-7.58m-204.95 8.22c-0.09 0.55-0.27 1.65-0.35 2.2 9.04-2.49 18.49-3.11 27.8-1.72-8.23 1.71-16.72 1.28-25.03 2.42 9.22 3.06 18.91 4.28 28.56 5.05-0.2 0.56-0.61 1.69-0.82 2.26-10.12-0.41-20.02-3.01-30.16-3.12 11.82 5.47 25.25 4.99 37.77 7.79 3.86 0.93 7.83 0.74 11.75 0.36 0.77-2.46 1.58-4.92 2.41-7.36-6.13 0.86-12.3 1.47-18.37 2.67-0.76-5.68-1.23-11.38-1.24-17.11-11.04 0.86-21.52 4.47-32.32 6.56m461.95-5.29c-1.33 0.68-1.34 1.36-0.03 2.03 1.31-0.68 1.32-1.36 0.03-2.03m-283.12 11.12c4.23-2.94 8.22-6.27 12.83-8.6-1.35-0.6-2.71-1.19-4.05-1.79-3.05 3.35-5.94 6.85-8.78 10.39m63.14-10.07c-0.91 4 4-0.91 0 0m132.37-0.04c0.15 0.32 0.43 0.97 0.57 1.29 2.59 0.61 0.84-3.48-0.57-1.29m-129.39 0.99c-1.32 0.68-1.33 1.36-0.03 2.03 1.32-0.68 1.32-1.36 0.03-2.03m32.33 0.3c-1.19 1.29 1.04 3.24 2.22 2.02 1.17-1.3-1.04-3.29-2.22-2.02m88.33-0.24c-0.46 1.42 1.93 1.93 2.4 0.66 0.45-1.42-1.95-1.93-2.4-0.66m6.83 1.44c3.11 0.65 6.15 1.21 9.32 1.74 0-0.9 0.01-2.71 0.01-3.61-3.09 0.61-6.28 1.22-9.33 1.87m-155.05-1.07c-0.12 2.64-0.12 5.28 0 7.92 0.35-2.63 0.35-5.29 0-7.92m10.57 1.86c-0.85 3.98 3.99-0.82 0 0m-295 1.76c-2.09 2.65-4.19 5.3-6.3 7.93 8.81-0.57 17.69-1.07 26.34-2.94 3.23-0.74 4.93-4.11 7.5-5.89-9.19 0-18.37 0.45-27.54 0.9m33.02-0.9c0.55 0.84 1.1 1.68 1.65 2.52-1.7 0.97-3.4 1.95-5.07 2.97 8.63-1.41 17.25-2.88 25.93-3.97-7.47-1.01-14.98-1.38-22.51-1.52m238.89-0.42c-0.02 0.79-0.05 2.37-0.06 3.16 0.79-0.01 2.37-0.04 3.16-0.06-0.18-0.59-0.54-1.78-0.72-2.38-0.6-0.18-1.79-0.54-2.38-0.72m223.47 0.28c0.15 0.32 0.43 0.97 0.57 1.29 2.59 0.61 0.84-3.48-0.57-1.29m-529.42 9.07c7.13 0.41 14.29-0.03 21.38-0.85 3.42-1.42 5.8-4.43 8.18-7.13-10.11 1.13-21.15 1.59-29.56 7.98m64.18-7.66c-0.87 1.23 1.24 2.52 2.04 1.32 0.81-1.2-1.26-2.47-2.04-1.32m258.89-0.21c-1.48 1 0.17 3.52 1.64 2.36 1.47-1-0.18-3.53-1.64-2.36m80.26 3.01c7.09 0.57 14.14-0.81 20.89-2.92-7.07-0.12-14.08 1.12-20.89 2.92m-114.35 5.46c4.55-0.54 6.2-3.31 4.96-8.29-1.76 2.7-3.36 5.49-4.96 8.29m44.08-7.62c-0.53 1.62 0.03 2.18 1.66 1.66 0.52-1.63-0.04-2.18-1.66-1.66m35.3 0.6c3.15 1.17 6.46 1.72 9.78 2.19-0.46-1.01-0.92-2.02-1.37-3.02-2.81 0.25-5.61 0.51-8.41 0.83m-377.37 0.5c-0.02 1.73 3.82 1.73 3.8 0-0.87-1.08-2.94-1.08-3.8 0m438.54 1.2c8.26 0.41 16.52-0.03 24.7-1.31-8.23-0.01-16.63-0.61-24.7 1.31m46.95 0.16c2.1 0.76 4.27 1.29 6.47 1.77-0.16-0.79-0.47-2.36-0.63-3.15-1.95 0.44-3.91 0.9-5.84 1.38m12.47 4.04c-28.97 2.21-58.06 1.81-87.1 2.41-5.09-0.31-9.91 1.4-14.33 3.69 28.55 2.29 57.24 1.76 85.84 0.95-5.03 1.38-10.2 2.45-15.45 2.28-25.42 0.09-50.9 0.65-76.24-1.8-11.79 0.21-23.59 1.08-35.37 0.06-5.58-0.72-10.34 3.88-16.08 1.72-5.89-1.51-11.67 1.21-15.25 5.77-6.1-0.64-13.23 1.48-18.68-2.1-1.8-2.53-2.13-5.76-2.95-8.68-25.81 2.47-51.6-0.93-77.43-0.93-11.94-1.18-23.81 0.54-35.55 2.55 1.63 2.04 3.29 4.05 5.06 5.97-0.44-1.23-0.88-2.46-1.33-3.68 9.65 2.56 19.08 6.11 29.08 7.17-10.05 0.8-20.21-0.77-29.82-3.7-3.41-1-3.23-5.84-4.48-8.25-6.95 2.1-13.83 0.68-20.51-1.46-0.78 2.8-1.62 5.59-2.42 8.39 1.62-0.32 3.23-0.64 4.85-0.96-0.6 0.95-1.19 1.9-1.79 2.85 7.26 6.64 14.99 13.17 24.44 16.38-4.94-10.82-16.53-15.55-24.78-23.31 9.48 4.81 17.87 11.64 27.94 15.31-0.05-1.55-0.11-3.1-0.14-4.64 0.67 1.78 1.28 3.59 1.9 5.39-3.21-0.58-6.34-1.19-9.51-1.88 2.03 2.37 4.05 4.75 6.08 7.13-0.44 1.42-0.9 2.85-1.36 4.27 3.46 1.19 6.91 2.41 10.38 3.61-0.71-1.7-1.43-3.39-2.14-5.09 1 0.6 2.01 1.21 3.02 1.82 0.8-1.87 1.59-3.74 2.38-5.61 11.27-2.77 22.7-4.97 33.81-8.37-1.08 0.64-2.16 1.28-3.23 1.93 12.71-0.4 25.45-0.61 38.16 0.03-0.71-0.57-1.41-1.14-2.11-1.7 6.1 1.31 12.37 1.66 18.6 1.41 14.62-0.26 29.2 1.14 43.77 2.09 12.68 0.49 25.38-0.41 38.05 0.42 17.67-0.67 35.35-1.1 53.03-1.55-5.58-0.6-11.21-0.77-16.7-1.93 19.29-0.7 38.43 4.69 57.74 1.39 8.98 1.47 18.01 2.48 27.11 3.02-0.09-1.2-0.16-2.4-0.23-3.6 6.84 2.45 12.82 6.84 19.81 8.9-8.1-5.36-16.29-10.62-23.68-16.96 2.49-1.52 5.04-3 7.81-3.97-1.61-1.77-3.19-3.56-4.66-5.44 9.7 5.62 18.2 13.54 28.94 17.18-5.58-7.25-15.39-9.09-21.9-15.34 8.12 2.96 14.91 8.86 23.49 10.72-1.2-6.58-2.64-13.1-4.21-19.6-6.58 4.01-14.11 6.27-21.86 5.74m-148.85-4.27c2.62 1.24 5.36 1.88 8.26 2.36-2.67-1.07-5.43-1.9-8.26-2.36m86.32-0.28c0.15 0.32 0.43 0.97 0.57 1.29 2.59 0.61 0.84-3.48-0.57-1.29m-118.39 0.99c-1.32 0.68-1.33 1.36-0.03 2.03 1.32-0.68 1.33-1.36 0.03-2.03m14.4 0.16c-0.92 1.14 1.04 2.6 1.92 1.46 0.91-1.14-1.05-2.6-1.92-1.46m142.16 1.7c3.59-0.45 7.19-0.92 10.74-1.68-3.61 0.27-7.2 0.97-10.74 1.68m-489.34 3.62c7.85 0.11 16.25 0.18 23.21-4-7.83 0.44-15.93 0.83-23.21 4m90.31-1.77c8.49 0.28 16.98 0.01 25.44-0.66-7.64-4.85-17.26-0.45-25.44 0.66m221.39-2.43c-1.19-0.35-3.01 0.9-2.31 2.19 1.23 1.39 4.24-1.16 2.31-2.19m88.74 0.78c-0.46 1.42 1.94 1.93 2.4 0.66 0.45-1.42-1.95-1.93-2.4-0.66m141.35 1.23c-0.86 3.98 3.99-0.82 0 0m-156.88 2.59c-0.42 1.06-0.84 2.12-1.25 3.18 1.19-0.23 2.38-0.46 3.57-0.69 0-0.49-0.01-1.47-0.01-1.96-0.58-0.13-1.73-0.39-2.31-0.53m22.53 0.18c-0.46 1.42 1.94 1.93 2.4 0.66 0.45-1.42-1.95-1.93-2.4-0.66m-281.11 1.84c1.75 1.61 3.28 3.63 5.51 4.6 3.72 0.32 7.47 0.13 11.13-0.57-5.6-1.11-11.1-2.65-16.64-4.03m266.84 0.11c0.15 0.32 0.43 0.97 0.57 1.29 2.59 0.61 0.84-3.48-0.57-1.29m162.76 0.41c-0.87 1.23 1.23 2.51 2.04 1.32 0.81-1.2-1.27-2.47-2.04-1.32m-212.15 1.6c-1.31-0.52-2.41 1.68-0.89 2.13 1.33 0.58 2.4-1.69 0.89-2.13m-200.84 1.87c6.31 1.14 12.73 0.05 19.02-0.72-6.35 0.04-12.71 0.02-19.02 0.72m370.96-1.59c7.27 7.96 17.38 12.33 27.39 15.77-0.18-0.94-0.35-1.87-0.51-2.8 0.58-0.02 1.74-0.07 2.31-0.09-1.61-1.66-3.27-3.26-4.98-4.82 0.51 1.73 1.01 3.45 1.51 5.19-9.46-2.44-17.79-7.75-25.72-13.25m-3.33 1.25c3.26 3.59 7.12 6.55 11.12 9.3 7.23 4.95 15.47 9.84 24.58 8.46-5.4-2.61-11.55-3.19-16.82-6.11-6.8-3.06-12.51-7.89-18.88-11.65m-0.78 2.74c-0.86 3.98 3.99-0.82 0 0m-179.61 1.73c2.97 0.43 5.97 0.36 8.96 0.23-2.97-0.36-5.99-0.31-8.96-0.23m183.8 1.53c-1.08 1.15 0.84 3.07 2 2 1.02-1.14-0.87-3.03-2-2m-329.19 3.74c-0.85 3.98 3.99-0.82 0 0m108.93 4.91c0.44 1.61 4.39 1.61 4.84 0-1.28-1.04-3.57-1.04-4.84 0m134.45-0.19c0.15 0.32 0.43 0.97 0.57 1.29 2.59 0.61 0.84-3.48-0.57-1.29m34 1c0.15 0.32 0.43 0.97 0.57 1.29 2.59 0.61 0.84-3.48-0.57-1.29m8.69-0.25c-1.84-0.15-2.14 2.82-0.11 2.59 1.88 0.23 2.12-2.85 0.11-2.59m2.79 0.03c0.02 0.5 0.06 1.5 0.08 1.99 7.44-0.51 14.86-1.03 22.3-1.58-7.46-0.24-14.92-0.32-22.38-0.41m-280.67 1.76c-1.08 1.15 0.85 3.07 2 2 1.03-1.14-0.86-3.03-2-2m320.81 2.01c-1.21 0.8 0.08 2.9 1.32 2.04 1.14-0.79-0.13-2.86-1.32-2.04m-21.15 0.3v1.06c2.66-0.03 5.33-0.03 8 0v-1.06c-2.67 0.02-5.34 0.02-8 0m9.8 0.2c-0.46 1.42 1.93 1.93 2.4 0.66 0.45-1.42-1.95-1.93-2.4-0.66m-299.88 2.85c3.11 5.09 5.93 10.7 10.84 14.31 1.84 1.44 4.25 0.41 6.33 0.32-0.64-3.01-1.21-6.03-1.62-9.08-5.29-1.54-10.42-3.57-15.55-5.55m66.65 0.64c5.95 0.04 11.9-0.12 17.86-0.32-5.96-0.05-11.92 0.1-17.86 0.32m-30.47 0.58c-0.97-0.49-2.73 0.37-2.19 1.58 0.93 1.65 4.05-0.4 2.19-1.58z"
    />
    <path
        d="m534.16 140.48c0.99-1.74 4.21-1.83 4.44 0.5-1.11-0.12-3.33-0.37-4.44-0.5z"
    />
    <path
        d="m376.39 145.28c2.96-0.36 5.88-0.51 8.89-0.57-1.13 0.7-2.25 1.41-3.37 2.1 6.81 2.37 13.77 4.37 20.4 7.24-9.06-1.44-17.98-4.1-25.92-8.77z"
    />
    <path
        d="m348.67 144.95c2.65 0.78 5.21 1.82 7.66 3.1-2.65-0.78-5.22-1.82-7.66-3.1z"
    />
    <path
        d="m313.72 147.08c3.85 1.11 7.68 2.31 11.51 3.52-1.5 0.23-3 0.45-4.49 0.68 6.39-0.2 12.66 1.18 18.7 3.15-7.63-0.38-15.21-1.31-22.81-1.97 4.98 1.76 10.11 3.65 15.48 3.58-0.06 0.53-0.2 1.58-0.27 2.11-8.77-2.26-17.7-3.77-26.69-4.7-0.05-0.48-0.15-1.45-0.19-1.94 5.04 0.53 10.07 0.02 15.1-0.47-2.15-1.27-4.28-2.57-6.34-3.96z"
    />
    <path
        d="m333 149.22c0.57-1.07 2.42-1.07 3 0 0.34 1.81-3.35 1.81-3 0z"
    />
    <path
        d="m338.8 149.17c0.45-1.27 2.85-0.76 2.4 0.66-0.46 1.27-2.86 0.76-2.4-0.66z"
    />
    <path
        d="m361.53 149.12c1.41-2.18 3.16 1.9 0.57 1.29-0.14-0.32-0.42-0.97-0.57-1.29z"
    />
    <path
        d="m472.29 150.53c0.78-1.15 2.85 0.12 2.04 1.32s-2.91-0.09-2.04-1.32z"
    />
    <path
        d="m500.53 150.12c1.41-2.18 3.16 1.9 0.57 1.29-0.14-0.32-0.42-0.97-0.57-1.29z"
    />
    <path
        d="m504.54 151.27c0.87-1.14 2.83 0.32 1.92 1.46-0.88 1.14-2.85-0.32-1.92-1.46z"
    />
    <path
        d="m478.44 152.65c0.75-1.2 3.25-0.27 2.65 1.17-0.77 1.27-3.35 0.33-2.65-1.17z"
    />
    <path
        d="m248.1 159.62c6.38-5.5 15.57-4.41 23.32-3.6-6.78 0.82-13.84 0.79-20.21 3.47 4.86 2.33 10.31 2.22 15.54 1.67-5.54 4.53-13.04 1.17-18.65-1.54z"
    />
    <path
        d="m335 156.22c0.57-1.07 2.42-1.07 3 0 0.34 1.81-3.35 1.81-3 0z"
    />
    <path
        d="m352.53 159.12c1.41-2.18 3.16 1.9 0.57 1.29-0.14-0.32-0.42-0.97-0.57-1.29z"
    />
    <path
        d="m386.02 161.46c2.38 1.14 4.69 2.43 6.89 3.88-2.48-0.09-4.95-0.22-7.41-0.39 1.5-0.03 2.99-0.02 4.49-0.03-1.33-1.14-2.67-2.29-3.97-3.46z"
    />
    <path
        d="m498.03 185.91c18.5-0.99 37.07-0.59 55.54-2.22-9.26 2.8-19.04 2.38-28.6 2.95-18.39 0.45-36.74 1.55-55.12 2.19 1.14-1.09 2.28-2.17 3.42-3.25 8.2 1.32 16.5 0.58 24.76 0.33z"
    />
    <path
        d="m335.41 185.37c6.61-2.91 14.98 3.16 13.27 10.27-2.91 4.31-9.41 6.83-14.08 3.83-2.7-1.55-5.42-4.13-5.53-7.43 0.83-3 3.08-6.11 6.34-6.67m-0.62 4.56c1.52 1.95 3.05 3.89 4.54 5.87 2.05-0.78 4.13-1.44 6.21-2.14-1.22-1.18-3.65-3.54-4.87-4.71-2 0.03-3.93 0.61-5.88 0.98z"
    />
    <path
        d="m295.63 210.23c5.82 0.51 11.52 2.07 16.7 4.81-5.74-0.87-11.39-2.46-16.7-4.81z"
    />
    <path
        d="m312.45 214.46c2.39 0.41 4.74 0.96 7.07 1.62-2.45-0.01-4.81-0.74-7.07-1.62z"
    />
    <path
        d="m401.57 214.82c15.01-1.62 29.95 1.47 44.87 2.75 9.63 1.12 19.36 1.41 28.93 3-18.54 0.92-36.94-2.24-55.37-3.67-6.15-0.64-12.37-0.84-18.43-2.08z"
    />
    <path
        d="m474.55 215.54c6.62-1.21 13.37-0.16 20.05-0.61-0.39 0.69-0.77 1.39-1.14 2.09 13.24 2.31 26.64 3.42 39.98 5-19.85 0.13-39.28-4.12-58.89-6.48z"
    />
    <path
        d="m501 214.22c0.56-1.07 2.42-1.07 3 0 0.34 1.81-3.35 1.81-3 0z"
    />
    <path
        d="m508.1 214.27c0.86-1.08 2.93-1.08 3.8 0 0.02 1.73-3.83 1.73-3.8 0z"
    />
    <path
        d="m320.41 215.61c1.03-1.12 3.16 0.54 2.18 1.78-1.04 1.12-3.16-0.54-2.18-1.78z"
    />
    <path
        d="m324.27 217.54c3.9-0.17 7.64 1.02 11.31 2.25-3.86-0.24-7.62-1.19-11.31-2.25z"
    />
    <path
        d="m288.05 218.8c1.74-0.22 5.21-0.64 6.94-0.85 0.34 0.52 1.01 1.57 1.35 2.09 0.27 0.42 0.8 1.26 1.07 1.68-3.04-1.24-6.15-2.27-9.36-2.92z"
    />
    <path
        d="m285.05 219.21c0.48-1.07 2.26-1.37 3-0.41 0.52 1.76-3.15 2.27-3 0.41z"
    />
    <path
        d="m296.34 220.04c-0.01-1.52 2.7-1.81 2.97-0.29-0.03 1.53-2.57 1.66-2.97 0.29z"
    />
    <path
        d="m290.53 220.12c1.42-2.19 3.17 1.9 0.57 1.29-0.14-0.32-0.42-0.97-0.57-1.29z"
    />
  </g
  >
  <metadata
    >
    <rdf:RDF
      >
      <cc:Work
        >
        <dc:format
          >image/svg+xml</dc:format
        >
        <dc:type
            rdf:resource="http://purl.org/dc/dcmitype/StillImage"
        />
        <cc:license
            rdf:resource="http://creativecommons.org/licenses/publicdomain/"
        />
        <dc:publisher
          >
          <cc:Agent
              rdf:about="http://openclipart.org/"
            >
            <dc:title
              >Openclipart</dc:title
            >
          </cc:Agent
          >
        </dc:publisher
        >
        <dc:title
          >Cutter</dc:title
        >
        <dc:date
          >2010-08-31T07:07:10</dc:date
        >
        <dc:description
          >Cutter,Drawing.Freehand</dc:description
        >
        <dc:source
          >https://openclipart.org/detail/82993/cutter-by-aungkarns</dc:source
        >
        <dc:creator
          >
          <cc:Agent
            >
            <dc:title
              >aungkarns</dc:title
            >
          </cc:Agent
          >
        </dc:creator
        >
        <dc:subject
          >
          <rdf:Bag
            >
            <rdf:li
              >black and white</rdf:li
            >
            <rdf:li
              >bujung</rdf:li
            >
            <rdf:li
              >cutter</rdf:li
            >
            <rdf:li
              >drawing</rdf:li
            >
            <rdf:li
              >exacto</rdf:li
            >
            <rdf:li
              >freehand</rdf:li
            >
            <rdf:li
              >knife</rdf:li
            >
            <rdf:li
              >razor</rdf:li
            >
            <rdf:li
              >sketch</rdf:li
            >
          </rdf:Bag
          >
        </dc:subject
        >
      </cc:Work
      >
      <cc:License
          rdf:about="http://creativecommons.org/licenses/publicdomain/"
        >
        <cc:permits
            rdf:resource="http://creativecommons.org/ns#Reproduction"
        />
        <cc:permits
            rdf:resource="http://creativecommons.org/ns#Distribution"
        />
        <cc:permits
            rdf:resource="http://creativecommons.org/ns#DerivativeWorks"
        />
      </cc:License
      >
    </rdf:RDF
    >
  </metadata
  >
</svg
>
