<?xml version="1.0" encoding="UTF-8" standalone="no"?>
<!-- Created with Inkscape (http://www.inkscape.org/) -->

<svg
   xmlns:dc="http://purl.org/dc/elements/1.1/"
   xmlns:cc="http://creativecommons.org/ns#"
   xmlns:rdf="http://www.w3.org/1999/02/22-rdf-syntax-ns#"
   xmlns:svg="http://www.w3.org/2000/svg"
   xmlns="http://www.w3.org/2000/svg"
   xmlns:xlink="http://www.w3.org/1999/xlink"
   xmlns:sodipodi="http://sodipodi.sourceforge.net/DTD/sodipodi-0.dtd"
   xmlns:inkscape="http://www.inkscape.org/namespaces/inkscape"
   id="svg3844"
   version="1.1"
   inkscape:version="0.48.4 r9939"
   width="155"
   height="190"
   sodipodi:docname="purplehighlighter.svg">
  <metadata
     id="metadata3850">
    <rdf:RDF>
      <cc:Work
         rdf:about="">
        <dc:format>image/svg+xml</dc:format>
        <dc:type
           rdf:resource="http://purl.org/dc/dcmitype/StillImage" />
        <dc:title></dc:title>
      </cc:Work>
    </rdf:RDF>
  </metadata>
  <defs
     id="defs3848">
    <linearGradient
       id="linearGradient4405">
      <stop
         id="stop4407"
         offset="0"
         style="stop-color:#ffffff;stop-opacity:0.09803922;" />
      <stop
         id="stop4409"
         offset="1"
         style="stop-color:#ffffff;stop-opacity:0.19607843;" />
    </linearGradient>
    <linearGradient
       id="linearGradient4391">
      <stop
         style="stop-color:#000000;stop-opacity:1;"
         offset="0"
         id="stop4393" />
      <stop
         style="stop-color:#191919;stop-opacity:1;"
         offset="1"
         id="stop4395" />
    </linearGradient>
    <linearGradient
       id="linearGradient4375">
      <stop
         style="stop-color:#00ffff;stop-opacity:1;"
         offset="0"
         id="stop4377" />
      <stop
         style="stop-color:#00c8c8;stop-opacity:1;"
         offset="1"
         id="stop4379" />
    </linearGradient>
    <linearGradient
       inkscape:collect="always"
       xlink:href="#linearGradient4375"
       id="linearGradient4383"
       x1="55"
       y1="156"
       x2="115"
       y2="196"
       gradientUnits="userSpaceOnUse" />
    <radialGradient
       inkscape:collect="always"
       xlink:href="#linearGradient4391"
       id="radialGradient4397"
       cx="50"
       cy="205.64632"
       fx="50"
       fy="205.64632"
       r="32.768204"
       gradientTransform="matrix(1.9836302,-0.1525869,0.06143534,0.79897856,-61.815462,44.322345)"
       gradientUnits="userSpaceOnUse" />
    <linearGradient
       inkscape:collect="always"
       xlink:href="#linearGradient4405"
       id="linearGradient4413"
       x1="60"
       y1="96"
       x2="165"
       y2="96"
       gradientUnits="userSpaceOnUse" />
    <linearGradient
       inkscape:collect="always"
       xlink:href="#linearGradient4375"
       id="linearGradient4421"
       gradientUnits="userSpaceOnUse"
       x1="55"
       y1="156"
       x2="115"
       y2="196" />
    <radialGradient
       inkscape:collect="always"
       xlink:href="#linearGradient4391"
       id="radialGradient4423"
       gradientUnits="userSpaceOnUse"
       gradientTransform="matrix(1.9836302,-0.1525869,0.06143534,0.79897856,-61.815462,44.322345)"
       cx="50"
       cy="205.64632"
       fx="50"
       fy="205.64632"
       r="32.768204" />
    <linearGradient
       inkscape:collect="always"
       xlink:href="#linearGradient4405"
       id="linearGradient4425"
       gradientUnits="userSpaceOnUse"
       x1="60"
       y1="96"
       x2="165"
       y2="96" />
  </defs>
  <sodipodi:namedview
     pagecolor="#ffffff"
     bordercolor="#666666"
     borderopacity="1"
     objecttolerance="10"
     gridtolerance="10"
     guidetolerance="10"
     inkscape:pageopacity="0"
     inkscape:pageshadow="2"
     inkscape:window-width="1600"
     inkscape:window-height="837"
     id="namedview3846"
     showgrid="false"
     inkscape:zoom="1.8561553"
     inkscape:cx="9.024329"
     inkscape:cy="63.450834"
     inkscape:window-x="-8"
     inkscape:window-y="-8"
     inkscape:window-maximized="1"
     inkscape:current-layer="g4415">
    <inkscape:grid
       type="xygrid"
       id="grid4373"
       empspacing="5"
       visible="true"
       enabled="true"
       snapvisiblegridlinesonly="true" />
  </sodipodi:namedview>
  <g
     id="g4415"
     transform="translate(-40,-26)">
    <path
       sodipodi:nodetypes="ccccc"
       inkscape:connector-curvature="0"
       id="rect3854"
       d="m 160,26 35,35 -80,135 c -5,-1 -59,-38 -60,-40 z"
       style="fill:url(#linearGradient4421);fill-opacity:1;stroke:none" />
    <path
       sodipodi:nodetypes="ccssc"
       inkscape:connector-curvature="0"
       id="rect4385"
       d="m 55,156 60,40 c 0,0 -20,-5 -40,10 -6.666667,5 -29.287465,2.14577 -25,-5 15,-25 5,-45 5,-45 z"
       style="fill:url(#radialGradient4423);fill-opacity:1;stroke:none" />
    <path
       sodipodi:nodetypes="ccccc"
       inkscape:connector-curvature="0"
       id="rect4388"
       d="m 50,201 25,5 -10,10 -25,0 z"
       style="fill:#00c8c8;fill-opacity:1;stroke:none" />
    <path
       style="fill:url(#linearGradient4425);fill-opacity:1;stroke:none"
       d="m 160,31 5,5 c 0,0 -90,115 -95,125 0,0 -10,0 -10,-5 z"
       id="path4399"
       inkscape:connector-curvature="0"
       sodipodi:nodetypes="ccccc" />
  </g>
</svg>
