<?xml version="1.0" encoding="UTF-8" standalone="no"?>
<!-- Created with Inkscape (http://www.inkscape.org/) -->
<svg
    xmlns:inkscape="http://www.inkscape.org/namespaces/inkscape"
    xmlns:rdf="http://www.w3.org/1999/02/22-rdf-syntax-ns#"
    xmlns="http://www.w3.org/2000/svg"
    xmlns:cc="http://creativecommons.org/ns#"
    xmlns:dc="http://purl.org/dc/elements/1.1/"
    xmlns:sodipodi="http://sodipodi.sourceforge.net/DTD/sodipodi-0.dtd"
    xmlns:svg="http://www.w3.org/2000/svg"
    xmlns:ns1="http://sozi.baierouge.fr"
    xmlns:xlink="http://www.w3.org/1999/xlink"
    id="svg2"
    sodipodi:docname="DHARMA-V3.svg"
    viewBox="0 0 765 765"
    version="1.1"
    inkscape:version="0.48.0 r9654"
  >
  <defs
      id="defs4"
    >
    <filter
        id="filter3751"
        inkscape:menu="Bevels"
        height="1"
        width="1"
        color-interpolation-filters="sRGB"
        y="0"
        x="0"
        inkscape:menu-tooltip="Soft bevel, slightly depressed middle"
        inkscape:label="Button"
      >
      <feGaussianBlur
          id="feGaussianBlur3753"
          result="result0"
          stdDeviation="2.3"
          in="SourceAlpha"
      />
      <feMorphology
          id="feMorphology3755"
          result="result1"
          radius="6.6"
          in="SourceAlpha"
      />
      <feGaussianBlur
          id="feGaussianBlur3757"
          stdDeviation="8.9"
          in="result1"
      />
      <feColorMatrix
          id="feColorMatrix3759"
          values="1 0 0 0 0 0 1 0 0 0 0 0 1 0 0 0 0 0 0.3 0"
          result="result91"
      />
      <feComposite
          id="feComposite3761"
          operator="out"
          result="result2"
          in2="result91"
          in="result0"
      />
      <feGaussianBlur
          id="feGaussianBlur3763"
          stdDeviation="1.7"
          result="result4"
      />
      <feDiffuseLighting
          id="feDiffuseLighting3765"
          result="result92"
          surfaceScale="10"
        >
        <feDistantLight
            id="feDistantLight3767"
            elevation="45"
            azimuth="225"
        />
      </feDiffuseLighting
      >
      <feBlend
          id="feBlend3769"
          result="result93"
          in2="SourceGraphic"
          mode="multiply"
      />
      <feComposite
          id="feComposite3771"
          operator="in"
          in2="SourceAlpha"
          result="result3"
      />
      <feSpecularLighting
          id="feSpecularLighting3773"
          result="result94"
          surfaceScale="5"
          specularExponent="17.9"
          in="result4"
        >
        <feDistantLight
            id="feDistantLight3775"
            elevation="45"
            azimuth="225"
        />
      </feSpecularLighting
      >
      <feComposite
          id="feComposite3777"
          operator="atop"
          in2="result3"
      />
    </filter
    >
  </defs
  >
  <sodipodi:namedview
      id="base"
      fit-margin-left="0"
      inkscape:snap-center="true"
      inkscape:zoom="0.29689067"
      borderopacity="1.0"
      inkscape:snap-intersection-paths="true"
      inkscape:cx="-68.132652"
      inkscape:cy="-85.332379"
      inkscape:object-paths="true"
      inkscape:window-maximized="1"
      showgrid="false"
      fit-margin-right="0"
      units="in"
      inkscape:snap-midpoints="true"
      showguides="true"
      bordercolor="#666666"
      inkscape:window-x="-4"
      inkscape:guide-bbox="true"
      inkscape:snap-smooth-nodes="true"
      inkscape:object-nodes="true"
      inkscape:window-y="-4"
      fit-margin-bottom="0"
      inkscape:window-width="1280"
      inkscape:pageopacity="0.0"
      inkscape:pageshadow="2"
      pagecolor="#ffffff"
      inkscape:snap-object-midpoints="true"
      inkscape:document-units="px"
      inkscape:current-layer="layer1"
      inkscape:window-height="1005"
      fit-margin-top="0"
    >
    <sodipodi:guide
        id="guide3768"
        position="-438.59443,-176.97794"
        orientation="0,1"
    />
    <inkscape:grid
        id="grid2995"
        enabled="true"
        visible="true"
        snapvisiblegridlinesonly="true"
        units="mm"
        type="xygrid"
        empspacing="4"
    />
  </sodipodi:namedview
  >
  <g
      id="layer1"
      inkscape:label="DHARMA"
      inkscape:groupmode="layer"
      transform="translate(-368.5 392.95)"
    >
    <path
        id="path3135"
        style="filter:url(#filter3751);fill:#cccccc"
        inkscape:connector-curvature="0"
        d="m683.87-81.625c39.308-37.079 101.23-35.272 138.31 4.0355 37.079 39.308 35.272 101.23-4.0355 138.31-39.308 37.079-101.23 35.272-138.31-4.0355-36.739-38.948-35.35-100.19 3.1183-137.43m-49.619-213.17-3.4545 3.4516-158.91 159.21-3.4546 3.4516v5.1774 224.79 4.746l3.4546 3.8831 158.91 158.77 3.4545 3.4516h5.182 224.98 5.1818l3.4547-3.4516 158.91-158.77 3.4547-3.8831v-4.746-224.79-5.1774l-3.4547-3.4516-158.91-158.77-3.4547-3.8831h-5.1818-224.98-5.182zm10.364 24.593h214.62l152 151.87v214l-151.57 151.87h-215.48l-151.57-151.87v-214l152-151.87zm21.591 20.71 10.364 24.593h150.71l10.364-24.593h-171.44zm-22.455 9.0605-51.819 52.206 17.273 17.258 44.478-44.871-9.9322-24.593zm216.35 0.43076-10.364 24.161 44.478 44.44 17.273-17.258-51.388-51.343zm-174.89 35.811 9.9321 24.161h44.478v-24.161h-54.41zm79.024 0v24.161h44.478l9.9321-24.161h-54.41zm-101.48 9.0605-94.57 94.488 24.614 9.9234 79.888-79.819-9.9319-24.593zm178.34 0-9.932 24.593 31.092 31.065 17.273-17.258-38.433-38.399zm-266.87 24.161-51.388 51.343 24.614 10.355 44.046-44.44-17.273-17.258zm354.96 0-17.273 17.258 44.478 44.44 24.614-9.9234-51.82-51.774zm-225.41 12.081 10.364 24.161h75.57l10.364-24.161h-96.298zm-22.455 9.0605-67.797 67.738 24.182 10.355 53.547-53.5-9.932-24.593zm141.21 0-9.932 24.593 17.705 17.69 17.273-17.258-25.046-25.024zm74.706 10.786-17.273 17.258 31.092 31.065 24.614-9.9234-38.433-38.399zm-31.955 31.928-17.273 17.258 18.137 18.121 24.182-10.355-25.046-25.024zm-351.94 10.355v170.86l24.614-10.355v-150.15l-24.614-10.355zm477.17 0-24.614 10.355v150.15l24.614 10.355v-170.86zm-431.83 18.984v54.363h24.614v-44.44l-24.614-9.9234zm386.49 0-24.614 9.9234v113.04l24.614 9.9234v-132.89zm-341.14 18.552v35.811h24.182v-25.887l-24.182-9.9234zm295.8 0-24.614 10.355v25.456h24.614v-35.811zm-295.8 59.972v35.811l24.182-9.9234v-25.887h-24.182zm271.19 0v25.456l24.614 10.355v-35.811h-24.614zm-316.53 0.43076v53.932l24.614-9.9234v-44.008h-24.614zm79.024 47.891-24.182 10.355 67.797 68.17 9.932-25.024-53.547-53.5zm228.44 0-53.547 53.932 9.932 24.593 67.797-68.17-24.182-10.355zm-273.78 18.984-24.614 9.9234 38.865 38.831 17.705-17.258-31.955-31.496zm319.12 0-80.32 79.819 9.932 24.593 95.002-94.488-24.614-9.9234zm-364.03 18.552-24.614 10.355 51.819 51.343 17.273-16.827-44.478-44.871zm408.94 0-106.66 106.57 10.364 24.161 120.91-120.81-24.614-9.9234zm-242.26 25.456-10.364 24.593h35.842l0.4321-24.593h-25.91zm50.092 0v24.593h35.842l-10.364-24.593h-25.478zm-123.07 4.746-17.273 17.258 38.865 38.399 9.9319-24.593-31.523-31.065zm-31.955 31.496-17.273 17.69 51.819 51.774 9.9322-24.593-44.478-44.871zm85.934 9.0605-10.364 24.593h134.3l-10.364-24.593h-113.57zm-18.569 45.303-10.364 24.161h73.411v-24.161h-63.047zm87.229 0v24.161h73.843l-10.364-24.161h-63.479z"
    />
  </g
  >
  <metadata
    >
    <rdf:RDF
      >
      <cc:Work
        >
        <dc:format
          >image/svg+xml</dc:format
        >
        <dc:type
            rdf:resource="http://purl.org/dc/dcmitype/StillImage"
        />
        <cc:license
            rdf:resource="http://creativecommons.org/licenses/publicdomain/"
        />
        <dc:publisher
          >
          <cc:Agent
              rdf:about="http://openclipart.org/"
            >
            <dc:title
              >Openclipart</dc:title
            >
          </cc:Agent
          >
        </dc:publisher
        >
        <dc:title
          >DHARMA-V3</dc:title
        >
        <dc:date
          >2010-12-16T16:58:48</dc:date
        >
        <dc:description
        />
        <dc:source
          >https://openclipart.org/detail/101047/dharma-v3-by-ovideva</dc:source
        >
        <dc:creator
          >
          <cc:Agent
            >
            <dc:title
              >ovideva</dc:title
            >
          </cc:Agent
          >
        </dc:creator
        >
        <dc:subject
          >
          <rdf:Bag
            >
            <rdf:li
              >dharma</rdf:li
            >
            <rdf:li
              >texture</rdf:li
            >
          </rdf:Bag
          >
        </dc:subject
        >
      </cc:Work
      >
      <cc:License
          rdf:about="http://creativecommons.org/licenses/publicdomain/"
        >
        <cc:permits
            rdf:resource="http://creativecommons.org/ns#Reproduction"
        />
        <cc:permits
            rdf:resource="http://creativecommons.org/ns#Distribution"
        />
        <cc:permits
            rdf:resource="http://creativecommons.org/ns#DerivativeWorks"
        />
      </cc:License
      >
    </rdf:RDF
    >
  </metadata
  >
</svg
>
