<svg width="100%" height="100%" viewBox="0 0 1600 900"
   xmlns="http://www.w3.org/2000/svg"
   xmlns:xlink="http://www.w3.org/1999/xlink">
   
  <!-- Comment out or delete meta tags for embedding in a web page -->
  <meta name="apple-mobile-web-app-capable" content="yes" />
  <meta name="mobile-web-app-capable" content="yes" />
  <title>Digital Art Frame 2</title>

  <desc>
    Digital Art Frame 2
    
    Added support for colored backgrounds and limit the number of images 
    by appending bg=black and/or a=number to the url query string.
    Fixed an issue with only passing an uploader without a query string
    
    Pass a query string to the SVG image <!-- of the form: ?q=query&u=user&s=sort&t=timeout   -->
    where query is an Openclipart query search, user is a specific uploader, 
    sort is one of (date,favorites,downloads) and timeout is the time in seconds to display image
    
    any or all of the query parameters need not be passed.
    
    Embed in a web page by copying the SVG code and placing it in a div with an aspect ratio
    of 16:9, i.e.
    <!-- <div style="width:320px;height:180;float:right;margin:0 20px 10px 20px;">
           insert SVG image code here
           
           then comment out or delete meta tags above
           Might also want to change the "load" event listener and comment out or delete
           the Titleframe needed for uploading to openclipart
           Change change the displayTitles variable to false to remove titles displayed on frame,
           Change the default query, and adjust the timeout variable
         </div>
    -->
    
    Jay Nick
    steamcoded.org
  </desc>
  
  <script type="application/x-javascript"><![CDATA[
    var DigitalArtFramer = new function()
    {
      var displayTitles = true;
      var query="";
      var uploader="";
      var sortby="date";
      var amount=20;           //max = 20
      var timeout=120000;      //default to 2 minutes = 120,000 ms
      var ids="";
      var imgids;
      var url;
      var bg="none";
      
      var qs = location.search;
      if(qs.length!=0)
      {
        qs = qs.replace("?","");
        var params = qs.split("&");
        for(var i=0;i<params.length;i++)
        {
          var values = params[i].split("=");
          if(values[0]=="q") query = values[1];
          if(values[0]=="u") uploader = values[1];
          if(values[0]=="ids") ids = values[1];
          
          if(values[0]=="s") sortby = values[1];
          if(values[0]=="t") timeout = values[1]*1000;
          if(values[0]=="a") amount = Number(values[1]);
          if(amount<1 || amount>20) amount=20;
          
          if(values[0]=="bg") bg = values[1];
          bg = bg.replace("%23","#");
        }
      }
      
      if(query.length==0 && uploader.length==0 && ids.length==0)
      {
        //default query - comment out variable ids to get the other default query
        ids = "234082,173665,176191,173839,204711,173682,20655,189650,189339,188775,234083,189188,101785,9280,173821,100807,173818,206340,96331,227698";
        
        query="pixabay+landscape+water";   //Open Clip Art Query String
        uploader="GDJ";              //Open Clip Art Contributor's Name
        sortby="downloads";          //allowed values: date, downloads, favorites
      }
      
      if(ids.length>0)
      {
        url = "https://openclipart.org/search/json/?byids="+ids+"&amount="+amount;
        imgids = ids.split(",");
      }
      else
        url = "https://openclipart.org/search/json/?query="+(query+" "+uploader).trim()+"&amount="+amount+"&sort="+sortby;

      var xmlHTTP = new XMLHttpRequest();
      
      var json;
      var index=0;
      var timerID;
      var title;
      var artist;
      
      //window.addEventListener("load", init);
      window.addEventListener("load", function(e) {setTimeout(init,1000);});  // Required for openclipart to capture default image - replace with line above
      
      function init()
      {
        var node;

        node = document.getElementById("DAFprev");
        node.addEventListener("click", function(e) {advance(-2)});
        node = document.getElementById("DAFnext");
        node.addEventListener("click", function(e) {advance(0)});
        node = document.getElementById("DAFpause");
        node.addEventListener("click", function(e) {clearTimeout(timerID);});
        node = document.getElementById("DAFimg");
        node.addEventListener("load", imageLoaded);
                
        sendRequest();
      }
      
      function advance(increment)
      {
        clearTimeout(timerID);
        index+=increment;
        if(index<0) index=amount-1;
        displayImage()
      }
      
      function imageLoaded()
      {
        clearTimeout(timerID);
        
        if(displayTitles)
        {
          document.getElementById("DAFtitle").firstChild.nodeValue = title;
          document.getElementById("DAFartist").firstChild.nodeValue = artist;
        }
        
        timerID = setTimeout(displayImage,timeout);
      }
      
      function displayImage()
      {
        if(!(index<amount)) index=0;
        if(!(index<json.info.results)) index=0;
        
        var idx = index;

        if(ids.length>0 && imgids.length==amount)
        {
          for(var i=0;i<amount;i++)
          {
            var id = json.payload[i].id;
            if(id==imgids[index])
            {
              idx = i;
              break;
            }
          }
        }
        
        var node = document.getElementById("DAFimg");
        if(ids.length>0 || uploader.length==0 || json.payload[idx].uploader==uploader)
        {
          var imageURL = json.payload[idx].svg.url;
          title = json.payload[idx].title;
          artist = json.payload[idx].uploader;

          node.setAttribute("xlink:href",imageURL);

          var detail = json.payload[idx].detail_link;
          node = document.getElementById("DAFlink");
          node.setAttribute("xlink:href",detail);

          document.getElementById("DAFtitle").firstChild.nodeValue = " ";
          document.getElementById("DAFartist").firstChild.nodeValue = " ";        
        }
        else
        {
          index++;
          timerID = setTimeout(displayImage,100);
          return;
        }
        
        index++;
        timerID = setTimeout(imageLoaded,1000);
      }

      /**************************************************
      * Send Request
      **************************************************/
      function sendRequest()
      {
         xmlHTTP.onload = processResponse;
         xmlHTTP.open("GET",url,true);
         xmlHTTP.send();
      }
      
      /**************************************************
      * Process Response
      **************************************************/
      function processResponse()
      {
        try
        {
          if(this.status == 200)
          {
          	json = JSON.parse(this.responseText);
          	var results = json.info.results;
          	if(results < amount) amount = results;

            var node = document.getElementById("DAFtitleframe");
            if(node!=null) node.setAttribute("style","display:none;");
            
            node = document.getElementById("DAFbg");
            node.setAttribute("style","fill:"+bg);

            displayImage();
          }
        }
        catch(e) {}
      }
    }();
  ]]>
  </script>
  
  <rect id="DAFbg" x="1" y="1" width="1598" height="898" style="fill:white;" />

  <a id="DAFlink" xlink:href="" target="_blank">
    <image id="DAFimg" x="32.75" y="32.75" width="1534.5" height="834.5" xlink:href="" />
  </a>

<!-- Titleframe needed for openclipart upload - can be commented out or deleted -->
<g id="DAFtitleframe" transform="translate(200,70) scale(2.5)">
  <g style="fill:#666;" transform="translate(-87,3)">
	<path d="M105.3,6.4h27.2c2.3,0,4.8,0.3,7.4,0.8c2.6,0.5,5.2,1.4,7.8,2.5c2.6,1.2,5,2.7,7.4,4.6c2.4,1.9,4.5,4.1,6.2,6.8
		c1.8,2.6,3.2,5.7,4.3,9.1c1.1,3.4,1.6,7.3,1.6,11.6c0,4.3-0.5,8.2-1.6,11.6c-1.1,3.4-2.5,6.5-4.3,9.1c-1.8,2.6-3.9,4.9-6.2,6.8
		c-2.4,1.9-4.8,3.4-7.4,4.6c-2.6,1.2-5.1,2-7.8,2.5c-2.6,0.5-5.1,0.8-7.4,0.8h-27.2V6.4z M113.7,69.4h16c4.1,0,7.8-0.5,11.3-1.6
		c3.5-1.1,6.5-2.7,9-4.9c2.5-2.2,4.5-5.1,6-8.6c1.5-3.5,2.2-7.6,2.2-12.5c0-4.9-0.7-9-2.2-12.5c-1.5-3.5-3.5-6.3-6-8.6
		c-2.5-2.2-5.5-3.9-9-4.9c-3.5-1.1-7.2-1.6-11.3-1.6h-16V69.4z"/>
	<path d="M178.2,12.1c0-1.5,0.6-2.9,1.7-4c1.1-1.1,2.4-1.7,4-1.7s3,0.6,4,1.7c1.1,1.1,1.7,2.5,1.7,4c0,1.7-0.5,3-1.6,4.1
		c-1.1,1.1-2.4,1.6-4.1,1.6c-1.7,0-3-0.5-4.1-1.6C178.7,15.1,178.2,13.8,178.2,12.1z M180,30.4h7.8v46.8H180V30.4z"/>
	<path d="M250,75.1c0,8.5-2.2,15-6.6,19.4c-4.4,4.4-10.7,6.7-18.9,6.7c-4.6,0-8.8-0.7-12.5-2c-3.7-1.3-7.2-3.6-10.5-6.9l5.6-6.4
		c2.5,2.7,5.1,4.7,7.8,6c2.8,1.4,6,2,9.6,2c3.5,0,6.4-0.5,8.6-1.5c2.3-1,4.1-2.4,5.5-4.2c1.3-1.8,2.3-3.8,2.8-6
		c0.5-2.3,0.8-4.6,0.8-7.1v-6H242c-1.9,3-4.3,5.2-7.3,6.6s-6.1,2.1-9.2,2.1c-3.7,0-7-0.6-10.1-1.8c-3.1-1.2-5.7-2.9-7.9-5
		c-2.2-2.1-3.9-4.7-5.1-7.6c-1.2-2.9-1.8-6.1-1.8-9.6c0-3.8,0.6-7.2,1.8-10.3c1.2-3.1,2.9-5.6,5-7.8c2.2-2.1,4.8-3.7,7.9-4.8
		c3.1-1.1,6.5-1.7,10.2-1.7c1.6,0,3.2,0.2,4.8,0.5c1.6,0.4,3.1,0.9,4.6,1.7c1.5,0.8,2.9,1.7,4.1,2.9c1.2,1.2,2.2,2.5,3,4.1h0.2v-8
		h7.8V75.1z M209,53.8c0,2.4,0.4,4.6,1.3,6.7c0.9,2,2.1,3.8,3.6,5.3s3.2,2.7,5.2,3.5c2,0.9,4.1,1.3,6.4,1.3c2.7,0,5-0.5,7.1-1.4
		c2.1-0.9,3.8-2.2,5.2-3.8c1.4-1.6,2.5-3.4,3.2-5.4c0.7-2,1.1-4.2,1.1-6.4c0-2.5-0.4-4.9-1.2-7c-0.8-2.1-1.9-3.9-3.4-5.5
		c-1.5-1.5-3.2-2.7-5.3-3.5c-2.1-0.8-4.3-1.2-6.8-1.2c-2.5,0-4.7,0.4-6.8,1.3c-2,0.9-3.8,2.1-5.2,3.7c-1.4,1.6-2.5,3.4-3.4,5.5
		C209.4,49.1,209,51.3,209,53.8z"/>
	<path d="M263.3,12.1c0-1.5,0.5-2.9,1.7-4c1.1-1.1,2.5-1.7,4-1.7s3,0.6,4,1.7c1.1,1.1,1.7,2.5,1.7,4c0,1.7-0.5,3-1.6,4.1
		c-1.1,1.1-2.4,1.6-4.1,1.6c-1.7,0-3-0.5-4.1-1.6C263.8,15.1,263.3,13.8,263.3,12.1z M265.1,30.4h7.8v46.8h-7.8V30.4z"/>
	<path d="M314,37h-13.8v23.4c0,1.5,0,3,0.1,4.2c0.1,1.3,0.3,2.4,0.8,3.4c0.5,1,1.2,1.7,2.1,2.3c0.9,0.6,2.3,0.8,4,0.8
		c1.1,0,2.3-0.1,3.5-0.4c1.2-0.3,2.3-0.7,3.4-1.2l0.3,7.1c-1.3,0.6-2.8,1-4.5,1.3c-1.6,0.3-3.2,0.4-4.7,0.4c-2.8,0-5-0.4-6.7-1.1
		c-1.7-0.7-3-1.8-3.9-3.1c-0.9-1.3-1.5-3-1.9-5c-0.3-2-0.4-4.1-0.4-6.5V37h-10.2v-6.6h10.2V17.1h7.8v13.3H314V37z"/>
	<path d="M323,36.4c2.4-2.5,5.2-4.3,8.5-5.5c3.3-1.2,6.7-1.8,10.1-1.8c6.9,0,11.9,1.6,15,4.9c3.1,3.3,4.6,8.2,4.6,14.9v20.1
		c0,1.3,0.1,2.7,0.2,4.1c0.1,1.4,0.3,2.8,0.5,4h-7.5c-0.3-1.1-0.4-2.2-0.5-3.5c0-1.3,0-2.5,0-3.5h-0.2c-1.5,2.4-3.6,4.4-6.2,5.9
		c-2.6,1.5-5.6,2.3-9.2,2.3c-2.4,0-4.6-0.3-6.8-0.9c-2.1-0.6-3.9-1.5-5.5-2.6c-1.6-1.2-2.8-2.6-3.8-4.4c-0.9-1.7-1.4-3.7-1.4-6
		c0-3.9,1-6.9,3-9.1s4.5-3.8,7.5-4.9c3-1.1,6.2-1.7,9.6-2c3.4-0.3,6.6-0.4,9.5-0.4h3v-1.4c0-3.4-1-6-3-7.7c-2-1.7-4.9-2.6-8.6-2.6
		c-2.5,0-5,0.4-7.4,1.2c-2.4,0.8-4.6,2.1-6.5,3.8L323,36.4z M345.6,54.7c-5,0-9,0.7-11.9,2.1c-2.9,1.4-4.4,3.7-4.4,6.9
		c0,2.9,1,5,3,6.2c2,1.2,4.4,1.8,7.4,1.8c2.3,0,4.2-0.4,5.9-1.1c1.7-0.8,3.1-1.8,4.2-3c1.1-1.3,2-2.8,2.6-4.5c0.6-1.7,0.9-3.5,1-5.5
		v-3H345.6z"/>
	<path d="M376.2,1.6h7.8v75.6h-7.8V1.6z"/>
  </g>
  <g style="fill:#ffcc00;" transform="translate(-90,0)">
	<path d="M105.3,6.4h27.2c2.3,0,4.8,0.3,7.4,0.8c2.6,0.5,5.2,1.4,7.8,2.5c2.6,1.2,5,2.7,7.4,4.6c2.4,1.9,4.5,4.1,6.2,6.8
		c1.8,2.6,3.2,5.7,4.3,9.1c1.1,3.4,1.6,7.3,1.6,11.6c0,4.3-0.5,8.2-1.6,11.6c-1.1,3.4-2.5,6.5-4.3,9.1c-1.8,2.6-3.9,4.9-6.2,6.8
		c-2.4,1.9-4.8,3.4-7.4,4.6c-2.6,1.2-5.1,2-7.8,2.5c-2.6,0.5-5.1,0.8-7.4,0.8h-27.2V6.4z M113.7,69.4h16c4.1,0,7.8-0.5,11.3-1.6
		c3.5-1.1,6.5-2.7,9-4.9c2.5-2.2,4.5-5.1,6-8.6c1.5-3.5,2.2-7.6,2.2-12.5c0-4.9-0.7-9-2.2-12.5c-1.5-3.5-3.5-6.3-6-8.6
		c-2.5-2.2-5.5-3.9-9-4.9c-3.5-1.1-7.2-1.6-11.3-1.6h-16V69.4z"/>
	<path d="M178.2,12.1c0-1.5,0.6-2.9,1.7-4c1.1-1.1,2.4-1.7,4-1.7s3,0.6,4,1.7c1.1,1.1,1.7,2.5,1.7,4c0,1.7-0.5,3-1.6,4.1
		c-1.1,1.1-2.4,1.6-4.1,1.6c-1.7,0-3-0.5-4.1-1.6C178.7,15.1,178.2,13.8,178.2,12.1z M180,30.4h7.8v46.8H180V30.4z"/>
	<path d="M250,75.1c0,8.5-2.2,15-6.6,19.4c-4.4,4.4-10.7,6.7-18.9,6.7c-4.6,0-8.8-0.7-12.5-2c-3.7-1.3-7.2-3.6-10.5-6.9l5.6-6.4
		c2.5,2.7,5.1,4.7,7.8,6c2.8,1.4,6,2,9.6,2c3.5,0,6.4-0.5,8.6-1.5c2.3-1,4.1-2.4,5.5-4.2c1.3-1.8,2.3-3.8,2.8-6
		c0.5-2.3,0.8-4.6,0.8-7.1v-6H242c-1.9,3-4.3,5.2-7.3,6.6s-6.1,2.1-9.2,2.1c-3.7,0-7-0.6-10.1-1.8c-3.1-1.2-5.7-2.9-7.9-5
		c-2.2-2.1-3.9-4.7-5.1-7.6c-1.2-2.9-1.8-6.1-1.8-9.6c0-3.8,0.6-7.2,1.8-10.3c1.2-3.1,2.9-5.6,5-7.8c2.2-2.1,4.8-3.7,7.9-4.8
		c3.1-1.1,6.5-1.7,10.2-1.7c1.6,0,3.2,0.2,4.8,0.5c1.6,0.4,3.1,0.9,4.6,1.7c1.5,0.8,2.9,1.7,4.1,2.9c1.2,1.2,2.2,2.5,3,4.1h0.2v-8
		h7.8V75.1z M209,53.8c0,2.4,0.4,4.6,1.3,6.7c0.9,2,2.1,3.8,3.6,5.3s3.2,2.7,5.2,3.5c2,0.9,4.1,1.3,6.4,1.3c2.7,0,5-0.5,7.1-1.4
		c2.1-0.9,3.8-2.2,5.2-3.8c1.4-1.6,2.5-3.4,3.2-5.4c0.7-2,1.1-4.2,1.1-6.4c0-2.5-0.4-4.9-1.2-7c-0.8-2.1-1.9-3.9-3.4-5.5
		c-1.5-1.5-3.2-2.7-5.3-3.5c-2.1-0.8-4.3-1.2-6.8-1.2c-2.5,0-4.7,0.4-6.8,1.3c-2,0.9-3.8,2.1-5.2,3.7c-1.4,1.6-2.5,3.4-3.4,5.5
		C209.4,49.1,209,51.3,209,53.8z"/>
	<path d="M263.3,12.1c0-1.5,0.5-2.9,1.7-4c1.1-1.1,2.5-1.7,4-1.7s3,0.6,4,1.7c1.1,1.1,1.7,2.5,1.7,4c0,1.7-0.5,3-1.6,4.1
		c-1.1,1.1-2.4,1.6-4.1,1.6c-1.7,0-3-0.5-4.1-1.6C263.8,15.1,263.3,13.8,263.3,12.1z M265.1,30.4h7.8v46.8h-7.8V30.4z"/>
	<path d="M314,37h-13.8v23.4c0,1.5,0,3,0.1,4.2c0.1,1.3,0.3,2.4,0.8,3.4c0.5,1,1.2,1.7,2.1,2.3c0.9,0.6,2.3,0.8,4,0.8
		c1.1,0,2.3-0.1,3.5-0.4c1.2-0.3,2.3-0.7,3.4-1.2l0.3,7.1c-1.3,0.6-2.8,1-4.5,1.3c-1.6,0.3-3.2,0.4-4.7,0.4c-2.8,0-5-0.4-6.7-1.1
		c-1.7-0.7-3-1.8-3.9-3.1c-0.9-1.3-1.5-3-1.9-5c-0.3-2-0.4-4.1-0.4-6.5V37h-10.2v-6.6h10.2V17.1h7.8v13.3H314V37z"/>
	<path d="M323,36.4c2.4-2.5,5.2-4.3,8.5-5.5c3.3-1.2,6.7-1.8,10.1-1.8c6.9,0,11.9,1.6,15,4.9c3.1,3.3,4.6,8.2,4.6,14.9v20.1
		c0,1.3,0.1,2.7,0.2,4.1c0.1,1.4,0.3,2.8,0.5,4h-7.5c-0.3-1.1-0.4-2.2-0.5-3.5c0-1.3,0-2.5,0-3.5h-0.2c-1.5,2.4-3.6,4.4-6.2,5.9
		c-2.6,1.5-5.6,2.3-9.2,2.3c-2.4,0-4.6-0.3-6.8-0.9c-2.1-0.6-3.9-1.5-5.5-2.6c-1.6-1.2-2.8-2.6-3.8-4.4c-0.9-1.7-1.4-3.7-1.4-6
		c0-3.9,1-6.9,3-9.1s4.5-3.8,7.5-4.9c3-1.1,6.2-1.7,9.6-2c3.4-0.3,6.6-0.4,9.5-0.4h3v-1.4c0-3.4-1-6-3-7.7c-2-1.7-4.9-2.6-8.6-2.6
		c-2.5,0-5,0.4-7.4,1.2c-2.4,0.8-4.6,2.1-6.5,3.8L323,36.4z M345.6,54.7c-5,0-9,0.7-11.9,2.1c-2.9,1.4-4.4,3.7-4.4,6.9
		c0,2.9,1,5,3,6.2c2,1.2,4.4,1.8,7.4,1.8c2.3,0,4.2-0.4,5.9-1.1c1.7-0.8,3.1-1.8,4.2-3c1.1-1.3,2-2.8,2.6-4.5c0.6-1.7,0.9-3.5,1-5.5
		v-3H345.6z"/>
	<path d="M376.2,1.6h7.8v75.6h-7.8V1.6z"/>
  </g>

<!-- Openclipart logo is a derivative work from https://openclipart.org/detail/177067/openclipart-scissors-logo-guide-horizontal -->  
<g id="openclipartLogo" transform="translate(101.4,111.4) scale(0.6)">
  <g transform="translate(-134.8 -485.11)">
    <g fill="#666" transform="matrix(2.4048 0 0 2.4048 -560.81 151.28)">
      <g transform="matrix(.35796 0 0 .35796 265.08 -13.487)">
        <path d="m242.24 457.26c2.9343 0.00004 5.5779 0.4891 7.9307 1.4672 2.3792 0.97816 4.3883 2.366 6.0273 4.1636 1.6654 1.7976 2.9343 3.9786 3.8067 6.5428 0.89876 2.5378 1.3482 5.3796 1.3482 8.5254-0.00004 3.1723-0.44945 6.0273-1.3482 8.5651-0.87241 2.5378-2.1413 4.7055-3.8067 6.5031-1.639 1.7976-3.6481 3.1855-6.0273 4.1636-2.3528 0.95168-4.9963 1.4275-7.9307 1.4275s-5.5911-0.47584-7.9703-1.4275c-2.3528-0.97811-4.3619-2.366-6.0273-4.1636s-2.9476-3.9653-3.8464-6.5031c-0.89881-2.5378-1.3482-5.3928-1.3482-8.5651 0-3.1458 0.4494-5.9876 1.3482-8.5254 0.89881-2.5642 2.1809-4.7451 3.8464-6.5428 1.6654-1.7976 3.6745-3.1854 6.0273-4.1636 2.3792-0.97807 5.0359-1.4671 7.9703-1.4672m0 35.847c3.9653 0 6.9261-1.3218 8.8823-3.9653 1.9562-2.67 2.9343-6.3842 2.9343-11.143-0.00004-4.7848-0.97815-8.5122-2.9343-11.182-1.9563-2.67-4.917-4.0049-8.8823-4.005-2.0091 0.00004-3.7539 0.3437-5.2342 1.031-1.4804 0.68735-2.7229 1.6787-3.7274 2.974-0.97812 1.2954-1.7183 2.8947-2.2206 4.798-0.47585 1.8769-0.71377 4.005-0.71376 6.3842-0.00001 2.3792 0.23791 4.5073 0.71376 6.3842 0.50227 1.8769 1.2425 3.4631 2.2206 4.7584 1.0045 1.2689 2.247 2.247 3.7274 2.9343 1.4804 0.68733 3.2251 1.031 5.2342 1.031" />
        <path d="m271.6 511.66v-53.77h4.2032c1.0045 0.00004 1.639 0.48909 1.9034 1.4672l0.5948 4.7584c1.7183-2.0884 3.6745-3.767 5.8687-5.036 2.2206-1.2689 4.7716-1.9033 7.6531-1.9034 2.2999 0.00004 4.3883 0.44944 6.2652 1.3482 1.8769 0.87241 3.4762 2.181 4.798 3.9257 1.3217 1.7183 2.3395 3.8596 3.0533 6.4238 0.71372 2.5643 1.0706 5.5118 1.0706 8.8427-0.00004 2.9608-0.39658 5.7233-1.1896 8.2875-0.7931 2.5378-1.9298 4.7452-3.4102 6.6221-1.4804 1.8505-3.3045 3.3177-5.4722 4.4015-2.1413 1.0574-4.5602 1.5861-7.2566 1.5861-2.485 0-4.613-0.40975-6.3842-1.2292-1.7448-0.8195-3.2912-1.9827-4.6394-3.4895v17.765h-7.0583m17.884-48.774c-2.2999 0.00003-4.3222 0.52874-6.067 1.5861-1.7183 1.0574-3.3044 2.5511-4.7584 4.4808v19.43c1.2953 1.7448 2.7096 2.974 4.2429 3.6878 1.5597 0.71377 3.2912 1.0706 5.1946 1.0706 3.7274 0 6.5956-1.335 8.6048-4.005 2.0091-2.67 3.0136-6.4767 3.0136-11.42-0.00004-2.6171-0.23796-4.8641-0.71376-6.7411-0.44944-1.8769-1.1103-3.4102-1.9827-4.5998-0.8724-1.216-1.943-2.1016-3.2119-2.6568-1.2689-0.55512-2.7097-0.83269-4.3222-0.83272" />
        <path d="m332.95 457.26c2.4056 0.00004 4.6262 0.40979 6.6617 1.2292 2.0355 0.79311 3.7935 1.9563 5.2739 3.4895 1.4804 1.5069 2.6303 3.3838 3.4498 5.6308 0.8459 2.2206 1.2689 4.7584 1.2689 7.6134-0.00004 1.1103-0.119 1.8505-0.35688 2.2206-0.23796 0.37011-0.68736 0.55516-1.3482 0.55514h-26.726c0.0529 2.5378 0.39652 4.7452 1.031 6.6221 0.63444 1.8769 1.5068 3.4498 2.6171 4.7187 1.1103 1.2425 2.432 2.1809 3.9653 2.8154 1.5332 0.60802 3.2516 0.91203 5.1549 0.91202 1.7712 0.00001 3.2912-0.19826 4.5601-0.5948 1.2953-0.42296 2.4056-0.87236 3.3309-1.3482 0.92521-0.47583 1.6918-0.91201 2.2999-1.3086 0.63442-0.42296 1.1763-0.63445 1.6258-0.63446 0.58155 0.00001 1.031 0.22471 1.3482 0.67411l1.9827 2.5775c-0.87241 1.0574-1.9166 1.9827-3.1326 2.7757-1.2161 0.76663-2.5246 1.4011-3.9257 1.9034-1.3747 0.50227-2.8022 0.87237-4.2826 1.1103-1.4804 0.26435-2.9476 0.39653-4.4015 0.39653-2.7758 0-5.34-0.46262-7.6927-1.3879-2.3263-0.95168-4.3486-2.3263-6.0669-4.1239-1.6919-1.824-3.0137-4.0711-3.9653-6.7411-0.95168-2.67-1.4275-5.7365-1.4275-9.1996 0-2.8021 0.42297-5.4192 1.2689-7.8513 0.87236-2.432 2.1148-4.5337 3.7274-6.3049 1.6126-1.7976 3.582-3.1987 5.9083-4.2032 2.3263-1.0309 4.9434-1.5464 7.8514-1.5465m0.15861 5.1946c-3.4102 0.00004-6.0934 0.99137-8.0496 2.974-1.9562 1.9562-3.1723 4.6791-3.6481 8.1686h21.849c-0.00004-1.639-0.22474-3.1326-0.67411-4.4808-0.44943-1.3746-1.1103-2.551-1.9827-3.5291-0.8724-1.0045-1.943-1.7712-3.2119-2.2999-1.2425-0.55511-2.67-0.83268-4.2826-0.83272" />
        <path d="m360.34 498.06v-40.169h4.2032c1.0045 0.00004 1.639 0.48909 1.9034 1.4672l0.55514 4.3619c1.7447-1.9298 3.6877-3.4894 5.829-4.6791 2.1677-1.1896 4.6658-1.7844 7.4945-1.7844 2.1941 0.00004 4.1239 0.37014 5.7894 1.1103 1.6918 0.7138 3.0929 1.7448 4.2032 3.093 1.1367 1.3218 1.9958 2.9212 2.5775 4.798 0.58155 1.877 0.87234 3.9521 0.87238 6.2256v25.576h-7.0583v-25.576c-0.00003-3.0401-0.70057-5.3928-2.1016-7.0583-1.3747-1.6918-3.4895-2.5378-6.3445-2.5378-2.0884 0.00003-4.0446 0.50231-5.8687 1.5068-1.7976 1.0046-3.4631 2.366-4.9963 4.0843v29.581h-7.0583" />
        <path d="m433.35 465.03c-0.21152 0.29083-0.423 0.51553-0.63446 0.67411-0.21151 0.15864-0.51552 0.23795-0.91202 0.23792-0.39656 0.00003-0.83275-0.15858-1.3086-0.47584-0.44943-0.34363-1.031-0.71373-1.7447-1.1103-0.71379-0.3965-1.5862-0.75338-2.6171-1.0706-1.0046-0.34363-2.247-0.51546-3.7274-0.51549-1.9562 0.00003-3.6878 0.35691-5.1946 1.0706-1.5068 0.68735-2.7758 1.6919-3.8067 3.0136-1.0046 1.3218-1.7712 2.9212-2.2999 4.798-0.50228 1.8769-0.75342 3.9786-0.75341 6.3049-0.00001 2.4321 0.27756 4.5998 0.83272 6.5031 0.55513 1.8769 1.335 3.4631 2.3395 4.7584 1.0045 1.2689 2.2206 2.247 3.6481 2.9343 1.4539 0.66089 3.0797 0.99133 4.8774 0.99133 1.7183 0 3.1326-0.19826 4.2429-0.5948 1.1103-0.42296 2.0355-0.88558 2.7757-1.3879 0.74017-0.50227 1.3482-0.95167 1.824-1.3482 0.47581-0.42296 0.95165-0.63445 1.4275-0.63446 0.60799 0.00001 1.0574 0.22471 1.3482 0.67411l1.9827 2.5775c-1.7448 2.1413-3.9257 3.7142-6.5428 4.7187-2.6171 0.97811-5.3796 1.4672-8.2875 1.4672-2.5114 0-4.8509-0.46262-7.0186-1.3879-2.1413-0.92524-4.005-2.2602-5.5911-4.005-1.5861-1.7712-2.8418-3.9389-3.7671-6.5031-0.89882-2.5642-1.3482-5.4854-1.3482-8.7634 0-2.9872 0.40975-5.7497 1.2293-8.2875 0.84593-2.5378 2.062-4.7187 3.6481-6.5428 1.6126-1.8504 3.5952-3.2912 5.948-4.3222 2.3527-1.0309 5.0492-1.5464 8.0893-1.5465 2.8021 0.00004 5.2871 0.46266 7.4548 1.3879 2.1677 0.89884 4.0842 2.181 5.7497 3.8464l-1.8637 2.5378" />
        <path d="m452.44 439.65v58.409h-7.0583v-58.409h7.0583" />
        <path d="m474.35 457.89v40.169h-7.0583v-40.169h7.0583m1.5861-12.61c-0.00002 0.68737-0.14541 1.335-0.43619 1.943-0.26437 0.58163-0.63446 1.1103-1.1103 1.5861-0.44941 0.44945-0.97812 0.80633-1.5861 1.0706-0.60803 0.2644-1.2557 0.39658-1.943 0.39653-0.68733 0.00005-1.335-0.13213-1.943-0.39653-0.58159-0.26431-1.1103-0.62119-1.5861-1.0706-0.44941-0.47579-0.80629-1.0045-1.0706-1.5861-0.26436-0.60797-0.39654-1.2556-0.39653-1.943-0.00001-0.68727 0.13217-1.3349 0.39653-1.943 0.26435-0.6344 0.62123-1.1763 1.0706-1.6258 0.47583-0.47578 1.0045-0.84588 1.5861-1.1103 0.60801-0.2643 1.2557-0.39647 1.943-0.39653 0.68731 0.00006 1.335 0.13223 1.943 0.39653 0.60801 0.26441 1.1367 0.63451 1.5861 1.1103 0.47583 0.44946 0.84592 0.99139 1.1103 1.6258 0.29078 0.60807 0.43617 1.2557 0.43619 1.943" />
        <path d="m488.41 511.66v-53.77h4.2032c1.0045 0.00004 1.639 0.48909 1.9034 1.4672l0.5948 4.7584c1.7183-2.0884 3.6745-3.767 5.8687-5.036 2.2206-1.2689 4.7716-1.9033 7.6531-1.9034 2.2999 0.00004 4.3883 0.44944 6.2652 1.3482 1.8769 0.87241 3.4762 2.181 4.798 3.9257 1.3217 1.7183 2.3395 3.8596 3.0533 6.4238 0.71372 2.5643 1.0706 5.5118 1.0706 8.8427-0.00004 2.9608-0.39657 5.7233-1.1896 8.2875-0.7931 2.5378-1.9298 4.7452-3.4102 6.6221-1.4804 1.8505-3.3045 3.3177-5.4722 4.4015-2.1413 1.0574-4.5602 1.5861-7.2566 1.5861-2.485 0-4.613-0.40975-6.3842-1.2292-1.7448-0.8195-3.2912-1.9827-4.6394-3.4895v17.765h-7.0583m17.884-48.774c-2.2999 0.00003-4.3222 0.52874-6.067 1.5861-1.7183 1.0574-3.3045 2.5511-4.7584 4.4808v19.43c1.2953 1.7448 2.7096 2.974 4.2429 3.6878 1.5597 0.71377 3.2912 1.0706 5.1946 1.0706 3.7274 0 6.5956-1.335 8.6048-4.005 2.0091-2.67 3.0136-6.4767 3.0136-11.42-0.00003-2.6171-0.23795-4.8641-0.71376-6.7411-0.44944-1.8769-1.1103-3.4102-1.9827-4.5998-0.8724-1.216-1.943-2.1016-3.2119-2.6568-1.2689-0.55512-2.7097-0.83269-4.3222-0.83272" />
        <path d="m563.36 498.06h-3.1326c-0.68736 0-1.2425-0.10574-1.6654-0.31722-0.423-0.21148-0.70057-0.66089-0.83272-1.3482l-0.79306-3.7274c-1.0574 0.95168-2.0884 1.8108-3.093 2.5775-1.0046 0.7402-2.062 1.3746-3.1723 1.9034-1.1103 0.50227-2.2999 0.88559-3.5688 1.1499-1.2425 0.26436-2.6304 0.39654-4.1636 0.39654-1.5597 0-3.0269-0.21149-4.4015-0.63446-1.3482-0.4494-2.5246-1.1103-3.5291-1.9827-1.0046-0.87237-1.8108-1.9694-2.4188-3.2912-0.58159-1.3482-0.87238-2.9343-0.87237-4.7584-0.00001-1.5861 0.43618-3.1062 1.3086-4.5601 0.87236-1.4804 2.2734-2.7889 4.2032-3.9257 1.9562-1.1367 4.5072-2.062 7.6531-2.7757 3.1458-0.74017 6.9922-1.1631 11.539-1.2689v-3.1326c-0.00003-3.1194-0.67413-5.4721-2.0223-7.0583-1.3218-1.6125-3.2912-2.4188-5.9083-2.4188-1.7183 0.00003-3.1723 0.22473-4.3619 0.6741-1.1632 0.423-2.1809 0.91206-3.0533 1.4672-0.84595 0.52875-1.5861 1.0178-2.2206 1.4672-0.60803 0.423-1.216 0.63449-1.824 0.63446-0.47585 0.00003-0.89882-0.11893-1.2689-0.35688-0.34367-0.26433-0.62124-0.58155-0.83272-0.95168l-1.2689-2.2602c2.2206-2.1412 4.613-3.7406 7.1772-4.798s5.406-1.5861 8.5254-1.5861c2.247 0.00004 4.2429 0.37013 5.9876 1.1103 1.7447 0.74023 3.2119 1.7712 4.4015 3.093s2.0884 2.9212 2.6964 4.798c0.60798 1.877 0.91199 3.9389 0.91202 6.1859v25.695m-18.32-4.3222c1.2424 0 2.3792-0.11896 3.4102-0.35688 1.031-0.26435 1.9958-0.62123 2.8947-1.0706 0.92522-0.47583 1.7976-1.0442 2.6171-1.7051 0.84591-0.66088 1.6654-1.4143 2.4585-2.2602v-8.3668c-3.2516 0.10576-6.0141 0.37011-8.2875 0.79306-2.2735 0.39655-4.124 0.92526-5.5515 1.5861-1.4275 0.6609-2.4717 1.4408-3.1326 2.3395-0.63446 0.89882-0.95168 1.9034-0.95167 3.0136-0.00001 1.0574 0.17182 1.9695 0.51549 2.7361 0.34365 0.76663 0.80627 1.4011 1.3879 1.9034 0.58157 0.47585 1.2689 0.83273 2.062 1.0706 0.79305 0.21149 1.6522 0.31723 2.5775 0.31723" />
        <path d="m575.75 498.06v-40.169h4.0446c0.76661 0.00004 1.2953 0.14543 1.5861 0.43618 0.29078 0.29083 0.48904 0.79311 0.5948 1.5068l0.47583 6.2652c1.3746-2.8021 3.0665-4.9831 5.0756-6.5428 2.0355-1.5861 4.4147-2.3792 7.1376-2.3792 1.1103 0.00004 2.1148 0.13221 3.0136 0.39653 0.89878 0.23796 1.7315 0.58162 2.4982 1.031l-0.91202 5.2739c-0.18508 0.66092-0.59483 0.99136-1.2292 0.99133-0.37013 0.00003-0.93849-0.11893-1.7051-0.35688-0.76666-0.26432-1.8373-0.3965-3.2119-0.39653-2.4585 0.00003-4.5205 0.71379-6.1859 2.1413-1.639 1.4276-3.0137 3.5027-4.1239 6.2256v25.576h-7.0583" />
        <path d="m621.45 498.7c-3.1723 0-5.6176-0.88559-7.3358-2.6568-1.6919-1.7712-2.5378-4.3222-2.5378-7.6531v-24.585h-4.8377c-0.42297 0.00004-0.77985-0.11892-1.0706-0.35688-0.29079-0.26432-0.43618-0.66085-0.43618-1.1896v-2.8154l6.5824-0.83272 1.6258-12.411c0.0529-0.39648 0.2247-0.7137 0.5155-0.95168 0.29078-0.2643 0.66087-0.39648 1.1103-0.39653h3.5688v13.839h11.499v5.1153h-11.499v24.109c-0.00001 1.6919 0.40974 2.9476 1.2292 3.7671 0.81949 0.81951 1.8769 1.2293 3.1723 1.2292 0.74018 0.00001 1.3746-0.0925 1.9034-0.27757 0.55513-0.21148 1.031-0.43618 1.4275-0.67411 0.39651-0.23791 0.72695-0.4494 0.99133-0.63445 0.29077-0.21148 0.5419-0.31722 0.75341-0.31723 0.37008 0.00001 0.70052 0.22471 0.99133 0.67411l2.062 3.3705c-1.2161 1.1367-2.6832 2.0355-4.4015 2.6964-1.7183 0.63445-3.4895 0.95168-5.3135 0.95168" />
      </g>
      <path d="m297.99 139.75c-2.738-0.0235-5.5491 1.1792-6.3721 3.424-1.2231 2.7085 0.73965 5.8728 4.0912 6.848 0.0107 0.003 0.0262-0.003 0.0361 0 3.6549 1.321 8.2037 1.966 12.165 6.0645l1.4844 1.5379-1.3396 1.3638c-3.9726 4.0915-8.5062 4.721-12.165 6.0355-0.008 0.004-0.0268-0.004-0.0361 0-3.3422 0.96569-5.2807 4.1147-4.0911 6.819 0.004 0.008-0.004 0.0206 0 0.029 1.0168 2.7366 5.0102 3.9482 8.2185 3.2209 0.0107-0.002 0.0253 0.002 0.0361 0 3.2858-0.5728 5.976-3.2462 5.2135-5.9485-0.3762-1.3332-0.8576-1.9523-1.3034-2.3214-0.22289-0.1845-0.41738-0.29975-0.54307-0.40623-0.12567-0.10647-0.65445-0.40286-0.65445-0.40286 0.32719-0.23815 0.51831-0.35082 0.7992-0.52567 0.41968-0.27348 1.1528-0.6095 2.0999-1.0156 1.8775-0.80507 4.6426-1.9418 7.8202-3.7722 5.7472 3.2669 13.215 7.4978 17.342 9.8367 4.1274 2.3389 8.3518 1.1592 10.101 0.087l-22.135-12.992 22.262-13.119c-3.4505-2.128-7.3879-1.2268-10.011 0.0544-5.8311 3.3072-11.681 6.5986-17.523 9.8947-2.6641-1.4561-5.5228-2.7912-8.0012-3.8592-0.94794-0.40839-1.6794-0.74079-2.0999-1.0156-0.21027-0.1374-0.74219-0.43525-0.74219-0.43525 0.48627-0.28342 1.0015-0.80569 1.3758-1.2042 0.37431-0.39851 0.81484-0.98864 1.0681-2.0167 0.66952-2.7182-1.929-5.3987-5.2135-5.9775-0.63478-0.14047-1.3207-0.16111-1.8826-0.20311zm-0.36203 2.2923c1.2221-0.0574 2.4834 0.27683 3.2946 0.92854 1.2153 0.97634 1.4468 2.3212 0.97754 3.424s-1.594 1.918-3.186 1.9151h-0.0361c-1.4592 0.0676-2.8824-0.60642-3.7291-1.5959-0.84671-0.9895-1.0881-2.2201-0.25342-3.2789v-0.029c0.57665-0.87841 1.7113-1.3064 2.9326-1.3638zm0.94131 24.693c0.10825-0.002 0.21997-0.004 0.28964 0 1.5923-0.00008 2.7195 0.81265 3.186 1.9151 0.46652 1.1024 0.24055 2.4498-0.97754 3.424-0.81209 0.64951-2.1082 1.0149-3.3308 0.95755-1.2227-0.0574-2.322-0.51314-2.8964-1.3928l-0.0361-0.029c-0.80543-1.0268-0.57158-2.1885 0.21723-3.1628 0.7888-0.97437 2.1417-1.6916 3.5481-1.712z" />
    </g>
  </g>
</g>

<g id="openclipartLogo" transform="translate(100,110) scale(0.6)">
  <g transform="translate(-134.8 -485.11)">
    <g fill="#4e9a06" transform="matrix(2.4048 0 0 2.4048 -560.81 151.28)">
      <g transform="matrix(.35796 0 0 .35796 265.08 -13.487)">
        <path d="m242.24 457.26c2.9343 0.00004 5.5779 0.4891 7.9307 1.4672 2.3792 0.97816 4.3883 2.366 6.0273 4.1636 1.6654 1.7976 2.9343 3.9786 3.8067 6.5428 0.89876 2.5378 1.3482 5.3796 1.3482 8.5254-0.00004 3.1723-0.44945 6.0273-1.3482 8.5651-0.87241 2.5378-2.1413 4.7055-3.8067 6.5031-1.639 1.7976-3.6481 3.1855-6.0273 4.1636-2.3528 0.95168-4.9963 1.4275-7.9307 1.4275s-5.5911-0.47584-7.9703-1.4275c-2.3528-0.97811-4.3619-2.366-6.0273-4.1636s-2.9476-3.9653-3.8464-6.5031c-0.89881-2.5378-1.3482-5.3928-1.3482-8.5651 0-3.1458 0.4494-5.9876 1.3482-8.5254 0.89881-2.5642 2.1809-4.7451 3.8464-6.5428 1.6654-1.7976 3.6745-3.1854 6.0273-4.1636 2.3792-0.97807 5.0359-1.4671 7.9703-1.4672m0 35.847c3.9653 0 6.9261-1.3218 8.8823-3.9653 1.9562-2.67 2.9343-6.3842 2.9343-11.143-0.00004-4.7848-0.97815-8.5122-2.9343-11.182-1.9563-2.67-4.917-4.0049-8.8823-4.005-2.0091 0.00004-3.7539 0.3437-5.2342 1.031-1.4804 0.68735-2.7229 1.6787-3.7274 2.974-0.97812 1.2954-1.7183 2.8947-2.2206 4.798-0.47585 1.8769-0.71377 4.005-0.71376 6.3842-0.00001 2.3792 0.23791 4.5073 0.71376 6.3842 0.50227 1.8769 1.2425 3.4631 2.2206 4.7584 1.0045 1.2689 2.247 2.247 3.7274 2.9343 1.4804 0.68733 3.2251 1.031 5.2342 1.031" />
        <path d="m271.6 511.66v-53.77h4.2032c1.0045 0.00004 1.639 0.48909 1.9034 1.4672l0.5948 4.7584c1.7183-2.0884 3.6745-3.767 5.8687-5.036 2.2206-1.2689 4.7716-1.9033 7.6531-1.9034 2.2999 0.00004 4.3883 0.44944 6.2652 1.3482 1.8769 0.87241 3.4762 2.181 4.798 3.9257 1.3217 1.7183 2.3395 3.8596 3.0533 6.4238 0.71372 2.5643 1.0706 5.5118 1.0706 8.8427-0.00004 2.9608-0.39658 5.7233-1.1896 8.2875-0.7931 2.5378-1.9298 4.7452-3.4102 6.6221-1.4804 1.8505-3.3045 3.3177-5.4722 4.4015-2.1413 1.0574-4.5602 1.5861-7.2566 1.5861-2.485 0-4.613-0.40975-6.3842-1.2292-1.7448-0.8195-3.2912-1.9827-4.6394-3.4895v17.765h-7.0583m17.884-48.774c-2.2999 0.00003-4.3222 0.52874-6.067 1.5861-1.7183 1.0574-3.3044 2.5511-4.7584 4.4808v19.43c1.2953 1.7448 2.7096 2.974 4.2429 3.6878 1.5597 0.71377 3.2912 1.0706 5.1946 1.0706 3.7274 0 6.5956-1.335 8.6048-4.005 2.0091-2.67 3.0136-6.4767 3.0136-11.42-0.00004-2.6171-0.23796-4.8641-0.71376-6.7411-0.44944-1.8769-1.1103-3.4102-1.9827-4.5998-0.8724-1.216-1.943-2.1016-3.2119-2.6568-1.2689-0.55512-2.7097-0.83269-4.3222-0.83272" />
        <path d="m332.95 457.26c2.4056 0.00004 4.6262 0.40979 6.6617 1.2292 2.0355 0.79311 3.7935 1.9563 5.2739 3.4895 1.4804 1.5069 2.6303 3.3838 3.4498 5.6308 0.8459 2.2206 1.2689 4.7584 1.2689 7.6134-0.00004 1.1103-0.119 1.8505-0.35688 2.2206-0.23796 0.37011-0.68736 0.55516-1.3482 0.55514h-26.726c0.0529 2.5378 0.39652 4.7452 1.031 6.6221 0.63444 1.8769 1.5068 3.4498 2.6171 4.7187 1.1103 1.2425 2.432 2.1809 3.9653 2.8154 1.5332 0.60802 3.2516 0.91203 5.1549 0.91202 1.7712 0.00001 3.2912-0.19826 4.5601-0.5948 1.2953-0.42296 2.4056-0.87236 3.3309-1.3482 0.92521-0.47583 1.6918-0.91201 2.2999-1.3086 0.63442-0.42296 1.1763-0.63445 1.6258-0.63446 0.58155 0.00001 1.031 0.22471 1.3482 0.67411l1.9827 2.5775c-0.87241 1.0574-1.9166 1.9827-3.1326 2.7757-1.2161 0.76663-2.5246 1.4011-3.9257 1.9034-1.3747 0.50227-2.8022 0.87237-4.2826 1.1103-1.4804 0.26435-2.9476 0.39653-4.4015 0.39653-2.7758 0-5.34-0.46262-7.6927-1.3879-2.3263-0.95168-4.3486-2.3263-6.0669-4.1239-1.6919-1.824-3.0137-4.0711-3.9653-6.7411-0.95168-2.67-1.4275-5.7365-1.4275-9.1996 0-2.8021 0.42297-5.4192 1.2689-7.8513 0.87236-2.432 2.1148-4.5337 3.7274-6.3049 1.6126-1.7976 3.582-3.1987 5.9083-4.2032 2.3263-1.0309 4.9434-1.5464 7.8514-1.5465m0.15861 5.1946c-3.4102 0.00004-6.0934 0.99137-8.0496 2.974-1.9562 1.9562-3.1723 4.6791-3.6481 8.1686h21.849c-0.00004-1.639-0.22474-3.1326-0.67411-4.4808-0.44943-1.3746-1.1103-2.551-1.9827-3.5291-0.8724-1.0045-1.943-1.7712-3.2119-2.2999-1.2425-0.55511-2.67-0.83268-4.2826-0.83272" />
        <path d="m360.34 498.06v-40.169h4.2032c1.0045 0.00004 1.639 0.48909 1.9034 1.4672l0.55514 4.3619c1.7447-1.9298 3.6877-3.4894 5.829-4.6791 2.1677-1.1896 4.6658-1.7844 7.4945-1.7844 2.1941 0.00004 4.1239 0.37014 5.7894 1.1103 1.6918 0.7138 3.0929 1.7448 4.2032 3.093 1.1367 1.3218 1.9958 2.9212 2.5775 4.798 0.58155 1.877 0.87234 3.9521 0.87238 6.2256v25.576h-7.0583v-25.576c-0.00003-3.0401-0.70057-5.3928-2.1016-7.0583-1.3747-1.6918-3.4895-2.5378-6.3445-2.5378-2.0884 0.00003-4.0446 0.50231-5.8687 1.5068-1.7976 1.0046-3.4631 2.366-4.9963 4.0843v29.581h-7.0583" />
        <path d="m433.35 465.03c-0.21152 0.29083-0.423 0.51553-0.63446 0.67411-0.21151 0.15864-0.51552 0.23795-0.91202 0.23792-0.39656 0.00003-0.83275-0.15858-1.3086-0.47584-0.44943-0.34363-1.031-0.71373-1.7447-1.1103-0.71379-0.3965-1.5862-0.75338-2.6171-1.0706-1.0046-0.34363-2.247-0.51546-3.7274-0.51549-1.9562 0.00003-3.6878 0.35691-5.1946 1.0706-1.5068 0.68735-2.7758 1.6919-3.8067 3.0136-1.0046 1.3218-1.7712 2.9212-2.2999 4.798-0.50228 1.8769-0.75342 3.9786-0.75341 6.3049-0.00001 2.4321 0.27756 4.5998 0.83272 6.5031 0.55513 1.8769 1.335 3.4631 2.3395 4.7584 1.0045 1.2689 2.2206 2.247 3.6481 2.9343 1.4539 0.66089 3.0797 0.99133 4.8774 0.99133 1.7183 0 3.1326-0.19826 4.2429-0.5948 1.1103-0.42296 2.0355-0.88558 2.7757-1.3879 0.74017-0.50227 1.3482-0.95167 1.824-1.3482 0.47581-0.42296 0.95165-0.63445 1.4275-0.63446 0.60799 0.00001 1.0574 0.22471 1.3482 0.67411l1.9827 2.5775c-1.7448 2.1413-3.9257 3.7142-6.5428 4.7187-2.6171 0.97811-5.3796 1.4672-8.2875 1.4672-2.5114 0-4.8509-0.46262-7.0186-1.3879-2.1413-0.92524-4.005-2.2602-5.5911-4.005-1.5861-1.7712-2.8418-3.9389-3.7671-6.5031-0.89882-2.5642-1.3482-5.4854-1.3482-8.7634 0-2.9872 0.40975-5.7497 1.2293-8.2875 0.84593-2.5378 2.062-4.7187 3.6481-6.5428 1.6126-1.8504 3.5952-3.2912 5.948-4.3222 2.3527-1.0309 5.0492-1.5464 8.0893-1.5465 2.8021 0.00004 5.2871 0.46266 7.4548 1.3879 2.1677 0.89884 4.0842 2.181 5.7497 3.8464l-1.8637 2.5378" />
        <path d="m452.44 439.65v58.409h-7.0583v-58.409h7.0583" />
        <path d="m474.35 457.89v40.169h-7.0583v-40.169h7.0583m1.5861-12.61c-0.00002 0.68737-0.14541 1.335-0.43619 1.943-0.26437 0.58163-0.63446 1.1103-1.1103 1.5861-0.44941 0.44945-0.97812 0.80633-1.5861 1.0706-0.60803 0.2644-1.2557 0.39658-1.943 0.39653-0.68733 0.00005-1.335-0.13213-1.943-0.39653-0.58159-0.26431-1.1103-0.62119-1.5861-1.0706-0.44941-0.47579-0.80629-1.0045-1.0706-1.5861-0.26436-0.60797-0.39654-1.2556-0.39653-1.943-0.00001-0.68727 0.13217-1.3349 0.39653-1.943 0.26435-0.6344 0.62123-1.1763 1.0706-1.6258 0.47583-0.47578 1.0045-0.84588 1.5861-1.1103 0.60801-0.2643 1.2557-0.39647 1.943-0.39653 0.68731 0.00006 1.335 0.13223 1.943 0.39653 0.60801 0.26441 1.1367 0.63451 1.5861 1.1103 0.47583 0.44946 0.84592 0.99139 1.1103 1.6258 0.29078 0.60807 0.43617 1.2557 0.43619 1.943" />
        <path d="m488.41 511.66v-53.77h4.2032c1.0045 0.00004 1.639 0.48909 1.9034 1.4672l0.5948 4.7584c1.7183-2.0884 3.6745-3.767 5.8687-5.036 2.2206-1.2689 4.7716-1.9033 7.6531-1.9034 2.2999 0.00004 4.3883 0.44944 6.2652 1.3482 1.8769 0.87241 3.4762 2.181 4.798 3.9257 1.3217 1.7183 2.3395 3.8596 3.0533 6.4238 0.71372 2.5643 1.0706 5.5118 1.0706 8.8427-0.00004 2.9608-0.39657 5.7233-1.1896 8.2875-0.7931 2.5378-1.9298 4.7452-3.4102 6.6221-1.4804 1.8505-3.3045 3.3177-5.4722 4.4015-2.1413 1.0574-4.5602 1.5861-7.2566 1.5861-2.485 0-4.613-0.40975-6.3842-1.2292-1.7448-0.8195-3.2912-1.9827-4.6394-3.4895v17.765h-7.0583m17.884-48.774c-2.2999 0.00003-4.3222 0.52874-6.067 1.5861-1.7183 1.0574-3.3045 2.5511-4.7584 4.4808v19.43c1.2953 1.7448 2.7096 2.974 4.2429 3.6878 1.5597 0.71377 3.2912 1.0706 5.1946 1.0706 3.7274 0 6.5956-1.335 8.6048-4.005 2.0091-2.67 3.0136-6.4767 3.0136-11.42-0.00003-2.6171-0.23795-4.8641-0.71376-6.7411-0.44944-1.8769-1.1103-3.4102-1.9827-4.5998-0.8724-1.216-1.943-2.1016-3.2119-2.6568-1.2689-0.55512-2.7097-0.83269-4.3222-0.83272" />
        <path d="m563.36 498.06h-3.1326c-0.68736 0-1.2425-0.10574-1.6654-0.31722-0.423-0.21148-0.70057-0.66089-0.83272-1.3482l-0.79306-3.7274c-1.0574 0.95168-2.0884 1.8108-3.093 2.5775-1.0046 0.7402-2.062 1.3746-3.1723 1.9034-1.1103 0.50227-2.2999 0.88559-3.5688 1.1499-1.2425 0.26436-2.6304 0.39654-4.1636 0.39654-1.5597 0-3.0269-0.21149-4.4015-0.63446-1.3482-0.4494-2.5246-1.1103-3.5291-1.9827-1.0046-0.87237-1.8108-1.9694-2.4188-3.2912-0.58159-1.3482-0.87238-2.9343-0.87237-4.7584-0.00001-1.5861 0.43618-3.1062 1.3086-4.5601 0.87236-1.4804 2.2734-2.7889 4.2032-3.9257 1.9562-1.1367 4.5072-2.062 7.6531-2.7757 3.1458-0.74017 6.9922-1.1631 11.539-1.2689v-3.1326c-0.00003-3.1194-0.67413-5.4721-2.0223-7.0583-1.3218-1.6125-3.2912-2.4188-5.9083-2.4188-1.7183 0.00003-3.1723 0.22473-4.3619 0.6741-1.1632 0.423-2.1809 0.91206-3.0533 1.4672-0.84595 0.52875-1.5861 1.0178-2.2206 1.4672-0.60803 0.423-1.216 0.63449-1.824 0.63446-0.47585 0.00003-0.89882-0.11893-1.2689-0.35688-0.34367-0.26433-0.62124-0.58155-0.83272-0.95168l-1.2689-2.2602c2.2206-2.1412 4.613-3.7406 7.1772-4.798s5.406-1.5861 8.5254-1.5861c2.247 0.00004 4.2429 0.37013 5.9876 1.1103 1.7447 0.74023 3.2119 1.7712 4.4015 3.093s2.0884 2.9212 2.6964 4.798c0.60798 1.877 0.91199 3.9389 0.91202 6.1859v25.695m-18.32-4.3222c1.2424 0 2.3792-0.11896 3.4102-0.35688 1.031-0.26435 1.9958-0.62123 2.8947-1.0706 0.92522-0.47583 1.7976-1.0442 2.6171-1.7051 0.84591-0.66088 1.6654-1.4143 2.4585-2.2602v-8.3668c-3.2516 0.10576-6.0141 0.37011-8.2875 0.79306-2.2735 0.39655-4.124 0.92526-5.5515 1.5861-1.4275 0.6609-2.4717 1.4408-3.1326 2.3395-0.63446 0.89882-0.95168 1.9034-0.95167 3.0136-0.00001 1.0574 0.17182 1.9695 0.51549 2.7361 0.34365 0.76663 0.80627 1.4011 1.3879 1.9034 0.58157 0.47585 1.2689 0.83273 2.062 1.0706 0.79305 0.21149 1.6522 0.31723 2.5775 0.31723" />
        <path d="m575.75 498.06v-40.169h4.0446c0.76661 0.00004 1.2953 0.14543 1.5861 0.43618 0.29078 0.29083 0.48904 0.79311 0.5948 1.5068l0.47583 6.2652c1.3746-2.8021 3.0665-4.9831 5.0756-6.5428 2.0355-1.5861 4.4147-2.3792 7.1376-2.3792 1.1103 0.00004 2.1148 0.13221 3.0136 0.39653 0.89878 0.23796 1.7315 0.58162 2.4982 1.031l-0.91202 5.2739c-0.18508 0.66092-0.59483 0.99136-1.2292 0.99133-0.37013 0.00003-0.93849-0.11893-1.7051-0.35688-0.76666-0.26432-1.8373-0.3965-3.2119-0.39653-2.4585 0.00003-4.5205 0.71379-6.1859 2.1413-1.639 1.4276-3.0137 3.5027-4.1239 6.2256v25.576h-7.0583" />
        <path d="m621.45 498.7c-3.1723 0-5.6176-0.88559-7.3358-2.6568-1.6919-1.7712-2.5378-4.3222-2.5378-7.6531v-24.585h-4.8377c-0.42297 0.00004-0.77985-0.11892-1.0706-0.35688-0.29079-0.26432-0.43618-0.66085-0.43618-1.1896v-2.8154l6.5824-0.83272 1.6258-12.411c0.0529-0.39648 0.2247-0.7137 0.5155-0.95168 0.29078-0.2643 0.66087-0.39648 1.1103-0.39653h3.5688v13.839h11.499v5.1153h-11.499v24.109c-0.00001 1.6919 0.40974 2.9476 1.2292 3.7671 0.81949 0.81951 1.8769 1.2293 3.1723 1.2292 0.74018 0.00001 1.3746-0.0925 1.9034-0.27757 0.55513-0.21148 1.031-0.43618 1.4275-0.67411 0.39651-0.23791 0.72695-0.4494 0.99133-0.63445 0.29077-0.21148 0.5419-0.31722 0.75341-0.31723 0.37008 0.00001 0.70052 0.22471 0.99133 0.67411l2.062 3.3705c-1.2161 1.1367-2.6832 2.0355-4.4015 2.6964-1.7183 0.63445-3.4895 0.95168-5.3135 0.95168" />
      </g>
      <path d="m297.99 139.75c-2.738-0.0235-5.5491 1.1792-6.3721 3.424-1.2231 2.7085 0.73965 5.8728 4.0912 6.848 0.0107 0.003 0.0262-0.003 0.0361 0 3.6549 1.321 8.2037 1.966 12.165 6.0645l1.4844 1.5379-1.3396 1.3638c-3.9726 4.0915-8.5062 4.721-12.165 6.0355-0.008 0.004-0.0268-0.004-0.0361 0-3.3422 0.96569-5.2807 4.1147-4.0911 6.819 0.004 0.008-0.004 0.0206 0 0.029 1.0168 2.7366 5.0102 3.9482 8.2185 3.2209 0.0107-0.002 0.0253 0.002 0.0361 0 3.2858-0.5728 5.976-3.2462 5.2135-5.9485-0.3762-1.3332-0.8576-1.9523-1.3034-2.3214-0.22289-0.1845-0.41738-0.29975-0.54307-0.40623-0.12567-0.10647-0.65445-0.40286-0.65445-0.40286 0.32719-0.23815 0.51831-0.35082 0.7992-0.52567 0.41968-0.27348 1.1528-0.6095 2.0999-1.0156 1.8775-0.80507 4.6426-1.9418 7.8202-3.7722 5.7472 3.2669 13.215 7.4978 17.342 9.8367 4.1274 2.3389 8.3518 1.1592 10.101 0.087l-22.135-12.992 22.262-13.119c-3.4505-2.128-7.3879-1.2268-10.011 0.0544-5.8311 3.3072-11.681 6.5986-17.523 9.8947-2.6641-1.4561-5.5228-2.7912-8.0012-3.8592-0.94794-0.40839-1.6794-0.74079-2.0999-1.0156-0.21027-0.1374-0.74219-0.43525-0.74219-0.43525 0.48627-0.28342 1.0015-0.80569 1.3758-1.2042 0.37431-0.39851 0.81484-0.98864 1.0681-2.0167 0.66952-2.7182-1.929-5.3987-5.2135-5.9775-0.63478-0.14047-1.3207-0.16111-1.8826-0.20311zm-0.36203 2.2923c1.2221-0.0574 2.4834 0.27683 3.2946 0.92854 1.2153 0.97634 1.4468 2.3212 0.97754 3.424s-1.594 1.918-3.186 1.9151h-0.0361c-1.4592 0.0676-2.8824-0.60642-3.7291-1.5959-0.84671-0.9895-1.0881-2.2201-0.25342-3.2789v-0.029c0.57665-0.87841 1.7113-1.3064 2.9326-1.3638zm0.94131 24.693c0.10825-0.002 0.21997-0.004 0.28964 0 1.5923-0.00008 2.7195 0.81265 3.186 1.9151 0.46652 1.1024 0.24055 2.4498-0.97754 3.424-0.81209 0.64951-2.1082 1.0149-3.3308 0.95755-1.2227-0.0574-2.322-0.51314-2.8964-1.3928l-0.0361-0.029c-0.80543-1.0268-0.57158-2.1885 0.21723-3.1628 0.7888-0.97437 2.1417-1.6916 3.5481-1.712z" />
    </g>
  </g>
</g>
<!-- End of Openclipart logo-->  

  <g style="fill:#666" transform="translate(93,173)">
	<path d="M112,6.4h43.9v7.8h-35.5v23.4h33v7.8h-33v31.8H112V6.4z"/>
	<path d="M166.2,41.5c0-2.1-0.1-4.1-0.2-6c-0.1-1.9-0.2-3.6-0.2-5.1h7.4c0,1.3,0,2.5,0.1,3.8c0.1,1.3,0.1,2.6,0.1,3.9h0.2
		c0.5-1.1,1.3-2.2,2.2-3.3c1-1.1,2.1-2,3.5-2.9c1.3-0.8,2.8-1.5,4.5-2c1.7-0.5,3.5-0.8,5.4-0.8c0.5,0,1.1,0,1.6,0.1
		c0.5,0.1,1.1,0.2,1.6,0.4l-0.5,7.9c-1.3-0.4-2.7-0.6-4.2-0.6c-4.8,0-8.3,1.6-10.4,4.7C175,44.8,174,49,174,54.4v22.8h-7.8V41.5z"/>
	<path d="M200.8,36.4c2.4-2.5,5.2-4.3,8.6-5.5c3.3-1.2,6.6-1.8,10-1.8c6.9,0,11.9,1.6,15,4.9c3.1,3.3,4.6,8.2,4.6,14.9v20.1
		c0,1.3,0.1,2.7,0.2,4.1c0.1,1.4,0.3,2.8,0.5,4h-7.5c-0.3-1.1-0.4-2.2-0.5-3.5c0-1.3,0-2.5,0-3.5h-0.2c-1.5,2.4-3.6,4.4-6.1,5.9
		c-2.6,1.5-5.6,2.3-9.2,2.3c-2.4,0-4.6-0.3-6.8-0.9c-2.1-0.6-3.9-1.5-5.5-2.6c-1.6-1.2-2.8-2.6-3.8-4.4c-0.9-1.7-1.4-3.7-1.4-6
		c0-3.9,1-6.9,3-9.1s4.5-3.8,7.4-4.9c3-1.1,6.2-1.7,9.6-2c3.4-0.3,6.6-0.4,9.5-0.4h3v-1.4c0-3.4-1-6-3.1-7.7c-2-1.7-4.9-2.6-8.5-2.6
		c-2.5,0-5,0.4-7.5,1.2c-2.4,0.8-4.6,2.1-6.4,3.8L200.8,36.4z M223.4,54.7c-5,0-9,0.7-11.9,2.1c-2.9,1.4-4.4,3.7-4.4,6.9
		c0,2.9,1,5,2.9,6.2c2,1.2,4.4,1.8,7.4,1.8c2.3,0,4.2-0.4,6-1.1c1.7-0.8,3.1-1.8,4.2-3c1.1-1.3,2-2.8,2.6-4.5c0.6-1.7,0.9-3.5,1-5.5
		v-3H223.4z"/>
	<path d="M253.3,41.5c0-2.1-0.1-4.1-0.2-6c-0.1-1.9-0.2-3.6-0.2-5.1h7.4c0,1.3,0,2.5,0.1,3.8c0.1,1.3,0.1,2.6,0.1,3.9h0.2
		c0.5-1.1,1.3-2.2,2.2-3.3c1-1.1,2.1-2,3.4-2.9c1.3-0.8,2.8-1.5,4.5-2s3.5-0.8,5.4-0.8c2.5,0,4.7,0.3,6.3,1c1.7,0.6,3.1,1.4,4.2,2.3
		c1.1,0.9,2,1.9,2.7,2.9c0.6,1,1.2,2,1.6,2.8c1.7-2.8,3.7-5,6-6.5c2.3-1.6,5.2-2.4,8.8-2.4c3.3,0,6.1,0.5,8.4,1.4
		c2.3,0.9,4.1,2.2,5.5,3.9s2.4,3.8,3,6.2c0.6,2.4,0.9,5.1,0.9,8.1v28.4h-7.8v-28c0-1.6-0.2-3.2-0.5-4.7c-0.3-1.5-0.9-2.9-1.8-4.1
		c-0.9-1.2-2-2.2-3.5-2.9c-1.5-0.7-3.3-1.1-5.6-1.1c-1.7,0-3.2,0.3-4.7,1c-1.5,0.7-2.8,1.6-3.8,2.8s-2,2.6-2.6,4.4
		c-0.6,1.7-1,3.6-1,5.6v27h-7.8V50.7c0-5.2-0.7-8.9-2.1-11c-1.4-2.2-3.7-3.2-6.9-3.2c-2.5,0-4.7,0.4-6.6,1.3
		c-1.8,0.9-3.3,2.1-4.5,3.7c-1.2,1.6-2,3.5-2.6,5.7c-0.6,2.2-0.8,4.6-0.8,7.3v22.8h-7.8V41.5z"/>
	<path d="M380.3,68.7c-2.8,3.6-5.9,6.1-9.2,7.5c-3.3,1.4-7.2,2.2-11.6,2.2c-3.7,0-7-0.7-9.9-2c-2.9-1.3-5.4-3-7.5-5.2
		c-2-2.2-3.6-4.8-4.7-7.8c-1.1-3-1.6-6.2-1.6-9.6c0-3.6,0.6-6.9,1.8-9.9c1.2-3,2.9-5.6,5-7.8c2.1-2.2,4.7-3.9,7.6-5.1
		c2.9-1.2,6.1-1.8,9.6-1.8c3.3,0,6.3,0.5,9,1.6c2.7,1.1,5.1,2.7,7,4.8c2,2.1,3.5,4.7,4.5,7.7c1.1,3,1.6,6.5,1.6,10.4v2.5h-37.8
		c0.1,2,0.6,3.9,1.5,5.8c0.8,1.8,1.9,3.4,3.2,4.8c1.3,1.4,2.9,2.5,4.7,3.2s3.8,1.2,5.9,1.2c3.4,0,6.3-0.6,8.6-1.8
		c2.3-1.2,4.4-3,6.3-5.3L380.3,68.7z M373.6,49.6c-0.1-4-1.4-7.2-3.9-9.6c-2.5-2.4-5.9-3.6-10.2-3.6c-4.3,0-7.8,1.2-10.5,3.6
		c-2.7,2.4-4.3,5.6-4.8,9.6H373.6z"/>
  </g>

  <g style="fill:#ffcc00;" transform="translate(90,170)">
	<path d="M112,6.4h43.9v7.8h-35.5v23.4h33v7.8h-33v31.8H112V6.4z"/>
	<path d="M166.2,41.5c0-2.1-0.1-4.1-0.2-6c-0.1-1.9-0.2-3.6-0.2-5.1h7.4c0,1.3,0,2.5,0.1,3.8c0.1,1.3,0.1,2.6,0.1,3.9h0.2
		c0.5-1.1,1.3-2.2,2.2-3.3c1-1.1,2.1-2,3.5-2.9c1.3-0.8,2.8-1.5,4.5-2c1.7-0.5,3.5-0.8,5.4-0.8c0.5,0,1.1,0,1.6,0.1
		c0.5,0.1,1.1,0.2,1.6,0.4l-0.5,7.9c-1.3-0.4-2.7-0.6-4.2-0.6c-4.8,0-8.3,1.6-10.4,4.7C175,44.8,174,49,174,54.4v22.8h-7.8V41.5z"/>
	<path d="M200.8,36.4c2.4-2.5,5.2-4.3,8.6-5.5c3.3-1.2,6.6-1.8,10-1.8c6.9,0,11.9,1.6,15,4.9c3.1,3.3,4.6,8.2,4.6,14.9v20.1
		c0,1.3,0.1,2.7,0.2,4.1c0.1,1.4,0.3,2.8,0.5,4h-7.5c-0.3-1.1-0.4-2.2-0.5-3.5c0-1.3,0-2.5,0-3.5h-0.2c-1.5,2.4-3.6,4.4-6.1,5.9
		c-2.6,1.5-5.6,2.3-9.2,2.3c-2.4,0-4.6-0.3-6.8-0.9c-2.1-0.6-3.9-1.5-5.5-2.6c-1.6-1.2-2.8-2.6-3.8-4.4c-0.9-1.7-1.4-3.7-1.4-6
		c0-3.9,1-6.9,3-9.1s4.5-3.8,7.4-4.9c3-1.1,6.2-1.7,9.6-2c3.4-0.3,6.6-0.4,9.5-0.4h3v-1.4c0-3.4-1-6-3.1-7.7c-2-1.7-4.9-2.6-8.5-2.6
		c-2.5,0-5,0.4-7.5,1.2c-2.4,0.8-4.6,2.1-6.4,3.8L200.8,36.4z M223.4,54.7c-5,0-9,0.7-11.9,2.1c-2.9,1.4-4.4,3.7-4.4,6.9
		c0,2.9,1,5,2.9,6.2c2,1.2,4.4,1.8,7.4,1.8c2.3,0,4.2-0.4,6-1.1c1.7-0.8,3.1-1.8,4.2-3c1.1-1.3,2-2.8,2.6-4.5c0.6-1.7,0.9-3.5,1-5.5
		v-3H223.4z"/>
	<path d="M253.3,41.5c0-2.1-0.1-4.1-0.2-6c-0.1-1.9-0.2-3.6-0.2-5.1h7.4c0,1.3,0,2.5,0.1,3.8c0.1,1.3,0.1,2.6,0.1,3.9h0.2
		c0.5-1.1,1.3-2.2,2.2-3.3c1-1.1,2.1-2,3.4-2.9c1.3-0.8,2.8-1.5,4.5-2s3.5-0.8,5.4-0.8c2.5,0,4.7,0.3,6.3,1c1.7,0.6,3.1,1.4,4.2,2.3
		c1.1,0.9,2,1.9,2.7,2.9c0.6,1,1.2,2,1.6,2.8c1.7-2.8,3.7-5,6-6.5c2.3-1.6,5.2-2.4,8.8-2.4c3.3,0,6.1,0.5,8.4,1.4
		c2.3,0.9,4.1,2.2,5.5,3.9s2.4,3.8,3,6.2c0.6,2.4,0.9,5.1,0.9,8.1v28.4h-7.8v-28c0-1.6-0.2-3.2-0.5-4.7c-0.3-1.5-0.9-2.9-1.8-4.1
		c-0.9-1.2-2-2.2-3.5-2.9c-1.5-0.7-3.3-1.1-5.6-1.1c-1.7,0-3.2,0.3-4.7,1c-1.5,0.7-2.8,1.6-3.8,2.8s-2,2.6-2.6,4.4
		c-0.6,1.7-1,3.6-1,5.6v27h-7.8V50.7c0-5.2-0.7-8.9-2.1-11c-1.4-2.2-3.7-3.2-6.9-3.2c-2.5,0-4.7,0.4-6.6,1.3
		c-1.8,0.9-3.3,2.1-4.5,3.7c-1.2,1.6-2,3.5-2.6,5.7c-0.6,2.2-0.8,4.6-0.8,7.3v22.8h-7.8V41.5z"/>
	<path d="M380.3,68.7c-2.8,3.6-5.9,6.1-9.2,7.5c-3.3,1.4-7.2,2.2-11.6,2.2c-3.7,0-7-0.7-9.9-2c-2.9-1.3-5.4-3-7.5-5.2
		c-2-2.2-3.6-4.8-4.7-7.8c-1.1-3-1.6-6.2-1.6-9.6c0-3.6,0.6-6.9,1.8-9.9c1.2-3,2.9-5.6,5-7.8c2.1-2.2,4.7-3.9,7.6-5.1
		c2.9-1.2,6.1-1.8,9.6-1.8c3.3,0,6.3,0.5,9,1.6c2.7,1.1,5.1,2.7,7,4.8c2,2.1,3.5,4.7,4.5,7.7c1.1,3,1.6,6.5,1.6,10.4v2.5h-37.8
		c0.1,2,0.6,3.9,1.5,5.8c0.8,1.8,1.9,3.4,3.2,4.8c1.3,1.4,2.9,2.5,4.7,3.2s3.8,1.2,5.9,1.2c3.4,0,6.3-0.6,8.6-1.8
		c2.3-1.2,4.4-3,6.3-5.3L380.3,68.7z M373.6,49.6c-0.1-4-1.4-7.2-3.9-9.6c-2.5-2.4-5.9-3.6-10.2-3.6c-4.3,0-7.8,1.2-10.5,3.6
		c-2.7,2.4-4.3,5.6-4.8,9.6H373.6z"/>
  </g>

  <g style="fill:#4e9a06" transform="translate(0,280)">
	<path d="M164.8,16.6l7.7-13.8h0.9h1.7l-2.4,17h-1.7L173,5.1h0l-8.2,14.7h-0.9l-4.1-14.7h0l-2.1,14.7h-1.7l2.4-17h1.7h0.9
		L164.8,16.6z"/>
	<path d="M178.7,19.8h-1.6l1.6-11.2h1.6L178.7,19.8z M181.2,4.2c0,0.3-0.2,0.6-0.5,0.8c-0.3,0.2-0.6,0.3-0.8,0.3s-0.5-0.1-0.7-0.3
		c-0.2-0.2-0.3-0.5-0.2-0.8c0-0.3,0.2-0.6,0.5-0.8c0.3-0.2,0.6-0.3,0.8-0.3s0.5,0.1,0.7,0.3C181.2,3.6,181.2,3.9,181.2,4.2z"/>
	<path d="M183.7,12c0.1-0.5,0.1-1,0.2-1.5c0.1-0.5,0.1-1.2,0.2-2h1.6l-0.3,2.1h0c0.2-0.3,0.4-0.6,0.6-0.9c0.2-0.3,0.5-0.5,0.8-0.8
		c0.3-0.2,0.7-0.4,1.1-0.5c0.4-0.1,0.9-0.2,1.4-0.2c0.4,0,0.8,0,1.2,0.1L190,9.9c-0.2-0.1-0.5-0.1-0.9-0.1c-0.6,0-1.1,0.1-1.6,0.3
		c-0.5,0.2-0.9,0.5-1.2,0.9c-0.3,0.4-0.6,0.7-0.8,1.2c-0.2,0.4-0.3,0.8-0.4,1.2l-0.9,6.3h-1.6L183.7,12z"/>
	<path d="M191.7,12c0.1-0.5,0.1-1,0.2-1.5c0.1-0.5,0.1-1.2,0.2-2h1.6l-0.3,2.1h0c0.2-0.3,0.4-0.6,0.6-0.9c0.2-0.3,0.5-0.5,0.8-0.8
		c0.3-0.2,0.7-0.4,1.1-0.5c0.4-0.1,0.9-0.2,1.4-0.2c0.4,0,0.8,0,1.2,0.1L198,9.9c-0.2-0.1-0.5-0.1-0.9-0.1c-0.6,0-1.1,0.1-1.6,0.3
		c-0.5,0.2-0.9,0.5-1.2,0.9c-0.3,0.4-0.6,0.7-0.8,1.2c-0.2,0.4-0.3,0.8-0.4,1.2l-0.9,6.3h-1.6L191.7,12z"/>
	<path d="M210.1,14.1c-0.1,0.8-0.4,1.6-0.8,2.4c-0.4,0.7-0.9,1.3-1.5,1.9c-0.6,0.5-1.3,0.9-2.1,1.2c-0.8,0.3-1.6,0.4-2.5,0.4
		c-0.9,0-1.6-0.1-2.3-0.4c-0.7-0.3-1.3-0.7-1.7-1.2c-0.5-0.5-0.8-1.2-1-1.9c-0.2-0.7-0.2-1.5-0.1-2.4c0.1-0.8,0.4-1.6,0.8-2.4
		c0.4-0.7,0.9-1.3,1.5-1.9c0.6-0.5,1.3-0.9,2.1-1.2c0.8-0.3,1.6-0.4,2.4-0.4c0.9,0,1.7,0.1,2.4,0.4c0.7,0.3,1.3,0.7,1.7,1.2
		c0.5,0.5,0.8,1.2,1,1.9C210.2,12.5,210.2,13.3,210.1,14.1z M208.4,14.1c0.1-0.6,0.1-1.2,0-1.8c-0.1-0.5-0.3-1-0.7-1.4
		c-0.3-0.4-0.7-0.7-1.2-0.9c-0.5-0.2-1.1-0.3-1.7-0.3c-0.7,0-1.3,0.1-1.8,0.3c-0.6,0.2-1,0.5-1.5,0.9c-0.4,0.4-0.8,0.9-1,1.4
		c-0.3,0.5-0.5,1.1-0.6,1.8c-0.1,0.6-0.1,1.2,0,1.8s0.3,1,0.6,1.4c0.3,0.4,0.7,0.7,1.2,0.9c0.5,0.2,1.1,0.3,1.7,0.3
		c0.7,0,1.3-0.1,1.8-0.3c0.6-0.2,1-0.5,1.5-0.9c0.4-0.4,0.8-0.9,1-1.4S208.3,14.8,208.4,14.1z"/>
	<path d="M213.5,12c0.1-0.5,0.1-1,0.2-1.5c0.1-0.5,0.1-1.2,0.2-2h1.6l-0.3,2.1h0c0.2-0.3,0.4-0.6,0.6-0.9c0.2-0.3,0.5-0.5,0.8-0.8
		c0.3-0.2,0.7-0.4,1.1-0.5c0.4-0.1,0.9-0.2,1.4-0.2c0.4,0,0.8,0,1.2,0.1l-0.6,1.6c-0.2-0.1-0.5-0.1-0.9-0.1c-0.6,0-1.1,0.1-1.6,0.3
		c-0.5,0.2-0.9,0.5-1.2,0.9c-0.3,0.4-0.6,0.7-0.8,1.2c-0.2,0.4-0.3,0.8-0.4,1.2l-0.9,6.3h-1.6L213.5,12z"/>
	<path d="M234,10h-3.2l-0.9,6.6c-0.1,0.4-0.1,0.8,0,1c0,0.3,0.1,0.5,0.2,0.6s0.3,0.2,0.5,0.3c0.2,0.1,0.4,0.1,0.7,0.1
		c0.3,0,0.6,0,0.8-0.1c0.3-0.1,0.6-0.2,0.8-0.3l-0.1,1.5c-0.6,0.3-1.4,0.4-2.2,0.4c-0.3,0-0.6,0-0.9-0.1s-0.6-0.2-0.8-0.5
		c-0.2-0.2-0.4-0.5-0.6-0.9c-0.1-0.4-0.1-0.9,0-1.5l1-7.1h-2.4l0.2-1.4h2.4l0.4-3.2h1.6L231,8.5h3.2L234,10z"/>
	<path d="M247,14.1c-0.1,0.8-0.4,1.6-0.8,2.4c-0.4,0.7-0.9,1.3-1.5,1.9c-0.6,0.5-1.3,0.9-2.1,1.2c-0.8,0.3-1.6,0.4-2.5,0.4
		c-0.9,0-1.6-0.1-2.3-0.4c-0.7-0.3-1.3-0.7-1.7-1.2c-0.5-0.5-0.8-1.2-1-1.9c-0.2-0.7-0.2-1.5-0.1-2.4c0.1-0.8,0.4-1.6,0.8-2.4
		c0.4-0.7,0.9-1.3,1.5-1.9c0.6-0.5,1.3-0.9,2.1-1.2c0.8-0.3,1.6-0.4,2.4-0.4c0.9,0,1.7,0.1,2.4,0.4c0.7,0.3,1.3,0.7,1.7,1.2
		c0.5,0.5,0.8,1.2,1,1.9C247,12.5,247.1,13.3,247,14.1z M245.2,14.1c0.1-0.6,0.1-1.2,0-1.8c-0.1-0.5-0.3-1-0.7-1.4
		c-0.3-0.4-0.7-0.7-1.2-0.9c-0.5-0.2-1.1-0.3-1.7-0.3c-0.7,0-1.3,0.1-1.8,0.3c-0.6,0.2-1,0.5-1.5,0.9c-0.4,0.4-0.8,0.9-1,1.4
		c-0.3,0.5-0.5,1.1-0.6,1.8c-0.1,0.6-0.1,1.2,0,1.8s0.3,1,0.6,1.4c0.3,0.4,0.7,0.7,1.2,0.9c0.5,0.2,1.1,0.3,1.7,0.3
		c0.7,0,1.3-0.1,1.8-0.3c0.6-0.2,1-0.5,1.5-0.9c0.4-0.4,0.8-0.9,1-1.4S245.1,14.8,245.2,14.1z"/>
	<path d="M260.2,17.8l4.8-9.3h1.9l-7.6,14.2c-0.5,0.9-1,1.6-1.6,2.1c-0.6,0.5-1.4,0.8-2.4,0.8c-0.2,0-0.5,0-0.7,0
		c-0.2,0-0.5-0.1-0.7-0.1l0.4-1.5c0.2,0.1,0.4,0.2,0.6,0.2s0.4,0.1,0.6,0.1c0.6,0,1-0.2,1.4-0.5c0.4-0.4,0.7-0.8,1.1-1.5l1.1-2.2
		l-3-11.4h2L260.2,17.8z"/>
	<path d="M279.4,14.1c-0.1,0.8-0.4,1.6-0.8,2.4c-0.4,0.7-0.9,1.3-1.5,1.9c-0.6,0.5-1.3,0.9-2.1,1.2c-0.8,0.3-1.6,0.4-2.5,0.4
		c-0.9,0-1.6-0.1-2.3-0.4c-0.7-0.3-1.3-0.7-1.7-1.2c-0.5-0.5-0.8-1.2-1-1.9c-0.2-0.7-0.2-1.5-0.1-2.4c0.1-0.8,0.4-1.6,0.8-2.4
		c0.4-0.7,0.9-1.3,1.5-1.9c0.6-0.5,1.3-0.9,2.1-1.2c0.8-0.3,1.6-0.4,2.4-0.4c0.9,0,1.7,0.1,2.4,0.4c0.7,0.3,1.3,0.7,1.7,1.2
		c0.5,0.5,0.8,1.2,1,1.9C279.5,12.5,279.5,13.3,279.4,14.1z M277.7,14.1c0.1-0.6,0.1-1.2,0-1.8c-0.1-0.5-0.3-1-0.7-1.4
		c-0.3-0.4-0.7-0.7-1.2-0.9c-0.5-0.2-1.1-0.3-1.7-0.3s-1.3,0.1-1.8,0.3s-1,0.5-1.5,0.9c-0.4,0.4-0.8,0.9-1,1.4
		c-0.3,0.5-0.5,1.1-0.6,1.8s-0.1,1.2,0,1.8s0.3,1,0.6,1.4c0.3,0.4,0.7,0.7,1.2,0.9s1.1,0.3,1.7,0.3c0.7,0,1.3-0.1,1.8-0.3
		s1-0.5,1.5-0.9c0.4-0.4,0.8-0.9,1-1.4S277.6,14.8,277.7,14.1z"/>
	<path d="M289.6,19.8c0-0.3,0-0.6,0.1-0.9c0-0.3,0.1-0.6,0.1-0.9h0c-0.2,0.3-0.5,0.6-0.8,0.8c-0.3,0.3-0.6,0.5-1,0.7
		s-0.7,0.3-1.1,0.4c-0.4,0.1-0.8,0.2-1.1,0.2c-1.4,0-2.4-0.4-3-1.1c-0.6-0.8-0.8-1.8-0.6-3.3l1-7.1h1.6l-0.9,6.2
		c-0.1,0.6-0.1,1.2-0.1,1.7s0.1,0.9,0.3,1.2c0.2,0.3,0.5,0.6,0.8,0.7s0.8,0.3,1.4,0.3c0,0,0.2,0,0.4,0c0.2,0,0.4-0.1,0.7-0.2
		c0.3-0.1,0.5-0.2,0.9-0.4c0.3-0.2,0.6-0.4,0.9-0.8c0.3-0.3,0.5-0.7,0.7-1.2c0.2-0.5,0.4-1.1,0.5-1.8l0.8-5.8h1.6l-1.2,8.8
		c0,0.3-0.1,0.7-0.1,1.2s-0.1,0.9-0.1,1.3H289.6z"/>
	<path d="M296.1,12c0.1-0.5,0.1-1,0.2-1.5c0.1-0.5,0.1-1.2,0.2-2h1.6l-0.3,2.1h0c0.2-0.3,0.4-0.6,0.6-0.9c0.2-0.3,0.5-0.5,0.8-0.8
		c0.3-0.2,0.7-0.4,1.1-0.5c0.4-0.1,0.9-0.2,1.4-0.2c0.4,0,0.8,0,1.2,0.1l-0.6,1.6c-0.2-0.1-0.5-0.1-0.9-0.1c-0.6,0-1.1,0.1-1.6,0.3
		s-0.9,0.5-1.2,0.9c-0.3,0.4-0.6,0.7-0.8,1.2c-0.2,0.4-0.3,0.8-0.4,1.2l-0.9,6.3H295L296.1,12z"/>
	<path d="M315.5,19.8h-1.7L316,4.3h-5.7l0.2-1.6h5.6h1.7h5.7l-0.2,1.6h-5.7L315.5,19.8z"/>
	<path d="M329.2,17.2L329.2,17.2l7.7-14.4h1.9l-9,17h-1.7l-4.1-17h1.9L329.2,17.2z"/>
  </g>
</g>
<!-- end of Titleframe needed for openclipart upload -->

<!-- Frame is a derivative work from https://openclipart.org/detail/216999/picture-frame -->  
  <defs>
    <linearGradient id="linearGradient4152">
      <stop style="stop-color:#6e410e;stop-opacity:1;" offset="0" />
      <stop offset="0.285" style="stop-color:#dc821b;stop-opacity:1;" />
      <stop offset="0.571" style="stop-color:#945713;stop-opacity:1;" />
      <stop style="stop-color:#de841d;stop-opacity:1;" offset="1" />
    </linearGradient>
    <linearGradient id="linearGradient4202">
      <stop offset="0" style="stop-color:#8a5212;stop-opacity:1;" />
      <stop style="stop-color:#e58d29;stop-opacity:1;" offset="0.285" />
      <stop style="stop-color:#af6717;stop-opacity:1;" offset="0.57" />
      <stop offset="1" style="stop-color:#e59335;stop-opacity:1;" />
    </linearGradient>
    <linearGradient id="linearGradient4174">
      <stop style="stop-color:#a26015;stop-opacity:1;" offset="0" />
      <stop offset="0.377" style="stop-color:#e58f2d;stop-opacity:1;" />
      <stop offset="0.693" style="stop-color:#af6717;stop-opacity:1;" />
      <stop style="stop-color:#e48f2e;stop-opacity:1;" offset="1" />
    </linearGradient>
    <linearGradient xlink:href="#linearGradient4152" id="DAFtop" x1="4.24" y1="-0.01034" x2="4.24" y2="0.5159" gradientUnits="userSpaceOnUse" />
    <linearGradient xlink:href="#linearGradient4152" id="DAFleft" x1="0.004344" y1="5.5" x2="0.42" y2="5.5" gradientUnits="userSpaceOnUse" />
    <linearGradient xlink:href="#linearGradient4202" id="DAFright" x1="8.494" y1="5.5" x2="8.08" y2="5.5" gradientUnits="userSpaceOnUse" />
    <linearGradient xlink:href="#linearGradient4202" id="DAFbottom" x1="4.247" y1="11" x2="4.247" y2="10.461" gradientUnits="userSpaceOnUse" />
  </defs>
  <g transform="scale(81.85)" style="stroke:#000000;stroke-width:0.01112212;stroke-linecap:round;stroke-miterlimit:2.5999999">
    <path style="fill:url(#DAFleft);" d="m 0,11 0.4,-0.4 0,-10.2 -0.4,-0.4 0,11 z" />
    <path style="fill:url(#DAFtop);" d="m 0,0 0.4,0.4 18.75,0 0.4,-0.4 -19.55,0 z" />
    <path style="fill:url(#DAFright);" d="m 19.55,0 -0.4,0.4 0,10.2 0.4,0.4 0,-11 z" />
    <path style="fill:url(#DAFbottom);" d="m 19.55,11 -0.4,-0.4 -18.75,0 -0.4,0.4 19.55,0 z" />
    <g style="fill:white;opacity:0.01;">
      <rect id="DAFpause" x="0" y="9" width="19.55" height="2" />
      <rect id="DAFprev" x="0" y="0" width="2" height="11" />
      <rect id="DAFnext" x="17.55" y="0" width="2" height="11" />
    </g>
  </g>
<!-- End of Frame -->  

  <text id="DAFtitle" x="800" y="26" style="font-size:24px;fill:yellow;text-anchor:middle;font-family:Arial;"> </text>
  <text id="DAFartist" x="800" y="892" style="font-size:24px;fill:yellow;text-anchor:middle;font-family:Arial;"> </text>
  
</svg>