<?xml version="1.0" encoding="UTF-8" standalone="no"?>
<svg
   xmlns:dc="http://purl.org/dc/elements/1.1/"
   xmlns:cc="http://creativecommons.org/ns#"
   xmlns:rdf="http://www.w3.org/1999/02/22-rdf-syntax-ns#"
   xmlns:svg="http://www.w3.org/2000/svg"
   xmlns="http://www.w3.org/2000/svg"
   xmlns:sodipodi="http://sodipodi.sourceforge.net/DTD/sodipodi-0.dtd"
   xmlns:inkscape="http://www.inkscape.org/namespaces/inkscape"
   height="463.81128"
   preserveAspectRatio="xMidYMid meet"
   version="1.0"
   viewBox="0 0 755.5 371.04902"
   width="944.375"
   id="svg2"
   inkscape:version="0.47 r22583"
   sodipodi:docname="dominoes03.svg">
  <title
     id="title3301">Tiled Dominoes</title>
  <defs
     id="defs491" />
  <sodipodi:namedview
     pagecolor="#ffffff"
     bordercolor="#666666"
     borderopacity="1"
     objecttolerance="10"
     gridtolerance="10"
     guidetolerance="10"
     inkscape:pageopacity="0"
     inkscape:pageshadow="2"
     inkscape:window-width="1280"
     inkscape:window-height="753"
     id="namedview489"
     showgrid="false"
     inkscape:zoom="1"
     inkscape:cx="562.51813"
     inkscape:cy="197.92878"
     inkscape:window-x="-4"
     inkscape:window-y="-4"
     inkscape:window-maximized="1"
     inkscape:current-layer="svg2" />
  <metadata
     id="metadata4">Generated by BlendScave from Blender file domino4 using render engine BLENDER_RENDER with bitmap traces Created by potrace 1.11, written by Peter Selinger 2001-2013
<rdf:RDF>
  <cc:Work
     rdf:about="">
    <dc:format>image/svg+xml</dc:format>
    <dc:type
       rdf:resource="http://purl.org/dc/dcmitype/StillImage" />
    <dc:title>Tiled Dominoes</dc:title>
    <cc:license
       rdf:resource="http://creativecommons.org/publicdomain/zero/1.0/" />
    <dc:date>2014-04-25</dc:date>
    <dc:creator>
      <cc:Agent>
        <dc:title>mazeo</dc:title>
      </cc:Agent>
    </dc:creator>
    <dc:publisher>
      <cc:Agent>
        <dc:title>openclipart.org</dc:title>
      </cc:Agent>
    </dc:publisher>
    <dc:source>http://www.blendswap.com/blends/view/39264</dc:source>
    <dc:language>en</dc:language>
    <dc:subject>
      <rdf:Bag>
        <rdf:li>domino</rdf:li>
        <rdf:li>dominoes</rdf:li>
        <rdf:li>tile</rdf:li>
        <rdf:li>tiled</rdf:li>
        <rdf:li>pips</rdf:li>
        <rdf:li>games</rdf:li>
        <rdf:li>recreation</rdf:li>
      </rdf:Bag>
    </dc:subject>
    <dc:description>A perspective view of some dominoes tiled end-to-end.</dc:description>
    <dc:contributor>
      <cc:Agent>
        <dc:title>mazeo, metalix</dc:title>
      </cc:Agent>
    </dc:contributor>
  </cc:Work>
  <cc:License
     rdf:about="http://creativecommons.org/licenses/publicdomain/">
    <cc:permits
       rdf:resource="http://creativecommons.org/ns#Reproduction" />
    <cc:permits
       rdf:resource="http://creativecommons.org/ns#Distribution" />
    <cc:permits
       rdf:resource="http://creativecommons.org/ns#DerivativeWorks" />
  </cc:License>
</rdf:RDF>
</metadata>
  <g
     id="objDomino_5-3"
     transform="translate(-21.75,-109.92142)">
    <g
       id="objDomino_5-3_omcblack">
      <g
         id="objDomino_5-3_matblack"
         transform="matrix(0.1,0,0,-0.1,0,600)"
         style="fill:#1e1e1e;stroke:#1e1e1e;stroke-width:5">
        <path
           d="m 5122,3035 c -5,-10 3,-74 20,-167 c 17,-92 25,-167 22,-189 c -11,-64 -14,-63 510,-100 l 469,-33 l 18,23 c 27,33 24,66 -23,238 c -32,115 -48,158 -62,165 c -17,9 -808,77 -908,78 c -23,0 -40,-6 -46,-15 z m 193,-81 c 21,-22 14,-38 -17,-42 c -30,-4 -60,22 -52,43 c 8,20 49,19 69,-1 z m 206,-15 c 16,-16 18,-23 8,-35 c -16,-20 -35,-18 -60,7 c -16,16 -18,23 -8,35 c 16,20 35,18 60,-7 z m 467,-31 c 23,-23 14,-48 -17,-48 c -32,0 -56,22 -47,45 c 6,18 47,20 64,3 z m -557,-47 c 28,-23 16,-45 -21,-39 c -31,4 -50,35 -30,48 c 21,13 25,13 51,-9 z m 479,-36 c 17,-21 5,-45 -23,-45 c -28,0 -47,17 -47,42 c 0,23 52,25 70,3 z m -569,-35 c 25,-14 25,-47 -1,-55 c -26,-8 -60,11 -60,34 c 0,32 24,40 61,21 z m 219,-25 c 17,-21 5,-45 -23,-45 c -29,0 -52,24 -43,45 c 7,19 50,19 66,0 z m 271,-26 c 13,-25 4,-39 -25,-39 c -26,0 -46,17 -46,41 c 0,33 53,31 71,-2 z"
           id="objDomino_5-3_matblack_p0001" />
      </g>
      <g
         id="objDomino_5-3_shadblack"
         transform="matrix(0.1,0,0,-0.1,0,600)"
         style="fill:#000000;fill-opacity:0.2;stroke:none">
        <path
           d="m 5120,3028 c -10,-20 -10,-21 3,-6 c 9,11 32,18 73,21 l 59,3 l -62,2 c -56,2 -63,0 -73,-20 z"
           id="objDomino_5-3_shadblack_p0001" />
        <path
           d="m 5313,3033 c 15,-2 37,-2 50,0 c 12,2 0,4 -28,4 c -27,0 -38,-2 -22,-4 z"
           id="objDomino_5-3_shadblack_p0002" />
        <path
           d="m 5443,3023 c 15,-2 37,-2 50,0 c 12,2 0,4 -28,4 c -27,0 -38,-2 -22,-4 z"
           id="objDomino_5-3_shadblack_p0003" />
        <path
           d="m 5573,3013 c 15,-2 37,-2 50,0 c 12,2 0,4 -28,4 c -27,0 -38,-2 -22,-4 z"
           id="objDomino_5-3_shadblack_p0004" />
        <path
           d="m 5708,3003 c 12,-2 32,-2 45,0 c 12,2 2,4 -23,4 c -25,0 -35,-2 -22,-4 z"
           id="objDomino_5-3_shadblack_p0005" />
        <path
           d="m 5833,2993 c 15,-2 37,-2 50,0 c 12,2 0,4 -28,4 c -27,0 -38,-2 -22,-4 z"
           id="objDomino_5-3_shadblack_p0006" />
        <path
           d="m 5963,2983 c 15,-2 37,-2 50,0 c 12,2 0,4 -28,4 c -27,0 -38,-2 -22,-4 z"
           id="objDomino_5-3_shadblack_p0007" />
        <path
           d="m 5166,2685 c -26,-68 -18,-69 508,-106 l 469,-33 l 20,25 c 19,23 19,24 1,26 c -11,2 -215,16 -454,33 c -479,33 -498,35 -521,56 c -15,13 -17,13 -23,-1 z"
           id="objDomino_5-3_shadblack_p0008" />
      </g>
    </g>
    <g
       id="objDomino_5-3_omcwhite">
      <g
         id="objDomino_5-3_matwhite"
         transform="matrix(0.1,0,0,-0.1,0,600)"
         style="fill:#ffffff;stroke:#ffffff;stroke-width:5">
        <path
           d="m 5246,2955 c -8,-21 22,-47 52,-43 c 31,4 38,20 17,42 c -20,20 -61,21 -69,1 z"
           id="objDomino_5-3_matwhite_p0001" />
        <path
           d="m 5461,2946 c -10,-12 -8,-19 8,-35 c 25,-25 44,-27 60,-7 c 10,12 8,19 -8,35 c -25,25 -44,27 -60,7 z"
           id="objDomino_5-3_matwhite_p0002" />
        <path
           d="m 5924,2905 c -9,-23 15,-45 47,-45 c 31,0 40,25 17,48 c -17,17 -58,15 -64,-3 z"
           id="objDomino_5-3_matwhite_p0003" />
        <path
           d="m 5380,2870 c -20,-13 -1,-44 30,-48 c 37,-6 49,16 21,39 c -26,22 -30,22 -51,9 z"
           id="objDomino_5-3_matwhite_p0004" />
        <path
           d="m 5840,2822 c 0,-25 19,-42 47,-42 c 28,0 40,24 23,45 c -18,22 -70,20 -70,-3 z"
           id="objDomino_5-3_matwhite_p0005" />
        <path
           d="m 5287,2793 c -14,-13 -6,-43 13,-53 c 27,-15 60,-3 60,20 c 0,28 -54,53 -73,33 z"
           id="objDomino_5-3_matwhite_p0006" />
        <path
           d="m 5494,2765 c -9,-21 14,-45 43,-45 c 28,0 40,24 23,45 c -16,19 -59,19 -66,0 z"
           id="objDomino_5-3_matwhite_p0007" />
        <path
           d="m 5773,2763 c -16,-6 -17,-35 -1,-51 c 14,-14 54,-16 63,-2 c 15,25 -30,63 -62,53 z"
           id="objDomino_5-3_matwhite_p0008" />
      </g>
      <g
         id="objDomino_5-3_specwhite"
         transform="matrix(0.1,0,0,-0.1,0,600)"
         style="fill:#ffffff;fill-opacity:0.5;stroke:none">
        <path
           d="m 5265,2950 c -3,-5 -1,-10 4,-10 c 6,0 11,5 11,10 c 0,6 -2,10 -4,10 c -3,0 -8,-4 -11,-10 z"
           id="objDomino_5-3_specwhite_p0001" />
        <path
           d="m 5478,2933 c 7,-3 16,-2 19,1 c 4,3 -2,6 -13,5 c -11,0 -14,-3 -6,-6 z"
           id="objDomino_5-3_specwhite_p0002" />
        <path
           d="m 5945,2900 c -3,-5 1,-10 10,-10 c 9,0 13,5 10,10 c -3,6 -8,10 -10,10 c -2,0 -7,-4 -10,-10 z"
           id="objDomino_5-3_specwhite_p0003" />
        <path
           d="m 5860,2820 c 0,-5 7,-10 16,-10 c 8,0 12,5 9,10 c -3,6 -10,10 -16,10 c -5,0 -9,-4 -9,-10 z"
           id="objDomino_5-3_specwhite_p0004" />
        <path
           d="m 5298,2773 c 7,-3 16,-2 19,1 c 4,3 -2,6 -13,5 c -11,0 -14,-3 -6,-6 z"
           id="objDomino_5-3_specwhite_p0005" />
        <path
           d="m 5510,2760 c 0,-5 7,-7 15,-4 c 8,4 15,8 15,10 c 0,2 -7,4 -15,4 c -8,0 -15,-4 -15,-10 z"
           id="objDomino_5-3_specwhite_p0006" />
        <path
           d="m 5778,2743 c 7,-3 16,-2 19,1 c 4,3 -2,6 -13,5 c -11,0 -14,-3 -6,-6 z"
           id="objDomino_5-3_specwhite_p0007" />
      </g>
      <g
         id="objDomino_5-3_shadwhite"
         transform="matrix(0.1,0,0,-0.1,0,600)"
         style="fill:#000000;fill-opacity:0.2;stroke:none">
        <path
           d="m 5345,2770 c 3,-5 8,-10 11,-10 c 2,0 4,5 4,10 c 0,6 -5,10 -11,10 c -5,0 -7,-4 -4,-10 z"
           id="objDomino_5-3_shadwhite_p0001" />
      </g>
    </g>
  </g>
  <g
     id="objDomino_2-6"
     transform="translate(-21.75,-109.92142)">
    <g
       id="objDomino_2-6_omcblack">
      <g
         id="objDomino_2-6_matblack"
         transform="matrix(0.1,0,0,-0.1,0,600)"
         style="fill:#1e1e1e;stroke:#1e1e1e;stroke-width:5">
        <path
           d="m 1911,3212 c -12,-23 -51,-290 -51,-352 c 0,-63 15,-77 92,-84 c 77,-7 895,-46 960,-46 c 70,0 75,12 84,211 c 7,180 4,213 -25,228 c -18,10 -835,61 -976,61 c -61,0 -76,-3 -84,-18 z m 428,-90 c 13,-25 -4,-42 -41,-42 c -30,0 -44,19 -34,45 c 8,22 63,19 75,-3 z m 272,-2 c 43,-24 8,-71 -41,-55 c -25,8 -26,40 -2,54 c 21,13 20,13 43,1 z m 124,-17 c 16,-16 16,-18 -4,-34 c -11,-9 -30,-15 -40,-12 c -28,7 -36,35 -15,50 c 24,17 39,16 59,-4 z m 120,-23 c 0,-21 -5,-26 -31,-28 c -19,-2 -36,3 -44,12 c -19,24 5,48 44,44 c 26,-2 31,-7 31,-28 z m -781,-113 c 27,-20 17,-51 -17,-55 c -27,-3 -57,12 -57,29 c 0,12 30,39 44,39 c 7,0 20,-6 30,-13 z m 539,-39 c 8,-12 7,-21 -2,-32 c -18,-22 -58,-20 -71,3 c -21,41 49,69 73,29 z m 116,-6 c 13,-24 -4,-42 -40,-42 c -30,0 -46,25 -28,46 c 16,20 57,17 68,-4 z m 105,5 c 28,-21 17,-51 -21,-55 c -40,-4 -62,27 -37,52 c 19,19 35,20 58,3 z"
           id="objDomino_2-6_matblack_p0001" />
      </g>
      <g
         id="objDomino_2-6_shadblack"
         transform="matrix(0.1,0,0,-0.1,0,600)"
         style="fill:#000000;fill-opacity:0.2;stroke:none">
        <path
           d="m 1910,3209 c -6,-11 -9,-28 -7,-37 c 3,-12 5,-11 6,5 c 0,12 11,29 23,37 c 18,13 19,16 6,16 c -10,0 -22,-9 -28,-21 z"
           id="objDomino_2-6_shadblack_p0001" />
        <path
           d="m 2058,3223 c 17,-2 47,-2 65,0 c 17,2 3,4 -33,4 c -36,0 -50,-2 -32,-4 z"
           id="objDomino_2-6_shadblack_p0002" />
        <path
           d="m 2227,3213 c 18,-2 50,-2 70,0 c 21,2 7,4 -32,4 c -38,0 -55,-2 -38,-4 z"
           id="objDomino_2-6_shadblack_p0003" />
        <path
           d="m 2418,3203 c 18,-2 45,-2 60,0 c 15,2 0,4 -33,4 c -33,0 -45,-2 -27,-4 z"
           id="objDomino_2-6_shadblack_p0004" />
        <path
           d="m 2588,3193 c 17,-2 47,-2 65,0 c 17,2 3,4 -33,4 c -36,0 -50,-2 -32,-4 z"
           id="objDomino_2-6_shadblack_p0005" />
        <path
           d="m 2757,3183 c 18,-2 50,-2 70,0 c 21,2 7,4 -32,4 c -38,0 -55,-2 -38,-4 z"
           id="objDomino_2-6_shadblack_p0006" />
        <path
           d="m 2936,3171 c 17,-4 37,-11 45,-15 c 8,-4 5,0 -5,8 c -11,9 -31,16 -45,15 c -24,-1 -24,-2 5,-8 z"
           id="objDomino_2-6_shadblack_p0007" />
        <path
           d="m 1892,3120 c 0,-19 2,-27 5,-17 c 2,9 2,25 0,35 c -3,9 -5,1 -5,-18 z"
           id="objDomino_2-6_shadblack_p0008" />
        <path
           d="m 2994,3030 c 0,-63 1,-89 3,-57 c 2,31 2,83 0,115 c -2,31 -3,5 -3,-58 z"
           id="objDomino_2-6_shadblack_p0009" />
        <path
           d="m 2329,3083 c -13,-16 -12,-17 4,-4 c 16,13 21,21 13,21 c -2,0 -10,-8 -17,-17 z"
           id="objDomino_2-6_shadblack_p0010" />
        <path
           d="m 2630,3088 c 0,-9 -6,-19 -12,-21 c -10,-4 -10,-6 0,-6 c 14,-1 28,26 18,36 c -3,4 -6,-1 -6,-9 z"
           id="objDomino_2-6_shadblack_p0011" />
        <path
           d="m 1882,3050 c 0,-19 2,-27 5,-17 c 2,9 2,25 0,35 c -3,9 -5,1 -5,-18 z"
           id="objDomino_2-6_shadblack_p0012" />
        <path
           d="m 2730,3065 c -11,-13 -10,-14 4,-9 c 9,3 16,10 16,15 c 0,13 -6,11 -20,-6 z"
           id="objDomino_2-6_shadblack_p0013" />
        <path
           d="m 2851,3057 c -13,-21 -12,-21 5,-5 c 10,10 16,20 13,22 c -3,3 -11,-5 -18,-17 z"
           id="objDomino_2-6_shadblack_p0014" />
        <path
           d="m 1872,2980 c 0,-19 2,-27 5,-17 c 2,9 2,25 0,35 c -3,9 -5,1 -5,-18 z"
           id="objDomino_2-6_shadblack_p0015" />
        <path
           d="m 2442,2960 c 0,-14 2,-19 5,-12 c 2,6 2,18 0,25 c -3,6 -5,1 -5,-13 z"
           id="objDomino_2-6_shadblack_p0016" />
        <path
           d="m 2091,2943 c 0,-12 -9,-27 -18,-32 c -10,-6 -13,-11 -7,-11 c 18,0 36,27 31,47 c -4,14 -5,14 -6,-4 z"
           id="objDomino_2-6_shadblack_p0017" />
        <path
           d="m 1862,2878 c -1,-47 2,-71 13,-81 c 20,-20 58,-23 604,-49 l 474,-22 l 18,23 c 11,13 19,35 18,50 c -1,25 -1,25 -8,-5 c -4,-17 -11,-36 -15,-42 c -12,-19 -36,-14 -36,7 c 0,26 -3,26 -560,52 c -250,12 -465,25 -477,30 c -17,6 -23,18 -26,56 c -3,41 -4,38 -5,-19 z"
           id="objDomino_2-6_shadblack_p0018" />
        <path
           d="m 2612,2900 c -7,-11 -8,-20 -3,-20 c 9,0 24,30 18,36 c -1,2 -8,-6 -15,-16 z"
           id="objDomino_2-6_shadblack_p0019" />
        <path
           d="m 2847,2891 c -4,-17 -3,-21 5,-13 c 5,5 8,16 6,23 c -3,8 -7,3 -11,-10 z"
           id="objDomino_2-6_shadblack_p0020" />
        <path
           d="m 2720,2885 c -11,-13 -10,-14 4,-9 c 9,3 16,10 16,15 c 0,13 -6,11 -20,-6 z"
           id="objDomino_2-6_shadblack_p0021" />
      </g>
    </g>
    <g
       id="objDomino_2-6_omcwhite">
      <g
         id="objDomino_2-6_matwhite"
         transform="matrix(0.1,0,0,-0.1,0,600)"
         style="fill:#ffffff;stroke:#ffffff;stroke-width:5">
        <path
           d="m 2264,3125 c -10,-26 4,-45 34,-45 c 37,0 54,17 41,42 c -12,22 -67,25 -75,3 z"
           id="objDomino_2-6_matwhite_p0001" />
        <path
           d="m 2568,3119 c -24,-14 -23,-46 2,-54 c 49,-16 84,31 41,55 c -23,12 -22,12 -43,-1 z"
           id="objDomino_2-6_matwhite_p0002" />
        <path
           d="m 2676,3107 c -21,-15 -13,-43 15,-50 c 10,-3 29,3 40,12 c 20,16 20,18 4,34 c -20,20 -35,21 -59,4 z"
           id="objDomino_2-6_matwhite_p0003" />
        <path
           d="m 2780,3096 c -19,-24 5,-48 44,-44 c 26,2 31,7 31,28 c 0,21 -5,26 -31,28 c -19,2 -36,-3 -44,-12 z"
           id="objDomino_2-6_matwhite_p0004" />
        <path
           d="m 2016,2964 c -9,-8 -16,-19 -16,-23 c 0,-17 30,-32 57,-29 c 34,4 44,35 17,55 c -23,17 -39,16 -58,-3 z"
           id="objDomino_2-6_matwhite_p0005" />
        <path
           d="m 2546,2935 c -12,-12 -13,-21 -6,-36 c 13,-23 53,-25 71,-3 c 29,35 -32,71 -65,39 z"
           id="objDomino_2-6_matwhite_p0006" />
        <path
           d="m 2661,2926 c -18,-21 -2,-46 28,-46 c 36,0 53,18 40,42 c -11,21 -52,24 -68,4 z"
           id="objDomino_2-6_matwhite_p0007" />
        <path
           d="m 2776,2924 c -25,-25 -3,-56 37,-52 c 38,4 49,34 21,55 c -23,17 -39,16 -58,-3 z"
           id="objDomino_2-6_matwhite_p0008" />
      </g>
      <g
         id="objDomino_2-6_shadwhite"
         transform="matrix(0.1,0,0,-0.1,0,600)"
         style="fill:#000000;fill-opacity:0.2;stroke:none">
        <path
           d="m 2324,3106 c 1,-18 4,-22 13,-14 c 6,5 9,16 6,24 c -8,23 -21,16 -19,-10 z"
           id="objDomino_2-6_shadwhite_p0001" />
        <path
           d="m 2610,3108 c 0,-7 5,-20 10,-28 c 8,-12 10,-11 10,7 c 0,12 -4,25 -10,28 c -5,3 -10,0 -10,-7 z"
           id="objDomino_2-6_shadwhite_p0002" />
        <path
           d="m 2720,3084 c 0,-22 2,-24 14,-14 c 8,6 12,18 9,26 c -9,23 -23,16 -23,-12 z"
           id="objDomino_2-6_shadwhite_p0003" />
        <path
           d="m 2836,3102 c -8,-13 5,-53 15,-46 c 12,7 12,41 0,49 c -5,3 -12,2 -15,-3 z"
           id="objDomino_2-6_shadwhite_p0004" />
        <path
           d="m 2063,2941 c 1,-17 7,-29 12,-28 c 14,5 12,50 -2,54 c -8,3 -12,-6 -10,-26 z"
           id="objDomino_2-6_shadwhite_p0005" />
        <path
           d="m 2600,2915 c 0,-15 4,-24 10,-20 c 6,3 10,12 10,20 c 0,8 -4,17 -10,20 c -6,4 -10,-5 -10,-20 z"
           id="objDomino_2-6_shadwhite_p0006" />
        <path
           d="m 2710,2904 c 0,-22 2,-24 14,-14 c 8,6 12,18 9,26 c -9,23 -23,16 -23,-12 z"
           id="objDomino_2-6_shadwhite_p0007" />
        <path
           d="m 2826,2903 c 9,-36 12,-39 20,-19 c 7,20 -1,46 -16,46 c -6,0 -8,-11 -4,-27 z"
           id="objDomino_2-6_shadwhite_p0008" />
      </g>
    </g>
  </g>
  <g
     id="objDomino_0-2"
     transform="translate(-21.75,-109.92142)">
    <g
       id="objDomino_0-2_omcblack">
      <g
         id="objDomino_0-2_matblack"
         transform="matrix(0.1,0,0,-0.1,0,600)"
         style="fill:#1e1e1e;stroke:#1e1e1e;stroke-width:5">
        <path
           d="m 2987,1839 c -30,-18 -35,-48 -48,-283 c -14,-262 -12,-270 63,-280 c 73,-10 999,-47 1078,-44 l 75,3 l 19,39 c 18,37 18,49 7,244 c -7,113 -17,216 -22,228 c -4,13 -18,28 -29,34 c -13,7 -233,23 -563,41 c -628,33 -557,31 -580,18 z m 1027,-162 c 28,-44 -52,-74 -81,-30 c -13,19 -12,24 6,42 c 23,23 57,17 75,-12 z m -270,-193 c 48,-18 38,-84 -12,-84 c -34,0 -52,16 -52,47 c 0,31 32,49 64,37 z"
           id="objDomino_0-2_matblack_p0001" />
      </g>
      <g
         id="objDomino_0-2_shadblack"
         transform="matrix(0.1,0,0,-0.1,0,600)"
         style="fill:#000000;fill-opacity:0.2;stroke:none">
        <path
           d="m 2982,1834 c -12,-8 -22,-20 -22,-26 c 0,-7 6,-3 14,7 c 10,14 31,21 73,26 l 58,6 l -50,2 c -32,0 -59,-5 -73,-15 z"
           id="objDomino_0-2_shadblack_p0001" />
        <path
           d="m 3187,1833 c 18,-2 50,-2 70,0 c 21,2 7,4 -32,4 c -38,0 -55,-2 -38,-4 z"
           id="objDomino_0-2_shadblack_p0002" />
        <path
           d="m 3377,1823 c 18,-2 50,-2 70,0 c 21,2 7,4 -32,4 c -38,0 -55,-2 -38,-4 z"
           id="objDomino_0-2_shadblack_p0003" />
        <path
           d="m 3567,1813 c 18,-2 50,-2 70,0 c 21,2 7,4 -32,4 c -38,0 -55,-2 -38,-4 z"
           id="objDomino_0-2_shadblack_p0004" />
        <path
           d="m 3757,1803 c 18,-2 50,-2 70,0 c 21,2 7,4 -32,4 c -38,0 -55,-2 -38,-4 z"
           id="objDomino_0-2_shadblack_p0005" />
        <path
           d="m 3938,1793 c 23,-2 59,-2 80,0 c 20,2 1,4 -43,4 c -44,0 -61,-2 -37,-4 z"
           id="objDomino_0-2_shadblack_p0006" />
        <path
           d="m 2947,1693 c -20,-309 -20,-361 -4,-387 c 22,-33 16,-32 567,-56 c 611,-26 634,-26 654,2 c 9,12 16,25 16,28 c 0,3 -33,4 -72,2 c -94,-4 -1107,44 -1131,53 c -36,15 -39,38 -27,246 c 7,110 10,203 7,205 c -2,2 -7,-40 -10,-93 z"
           id="objDomino_0-2_shadblack_p0007" />
        <path
           d="m 4083,1783 c 9,-2 23,-2 30,0 c 6,3 -1,5 -18,5 c -16,0 -22,-2 -12,-5 z"
           id="objDomino_0-2_shadblack_p0008" />
        <path
           d="m 4141,1763 c 7,-12 15,-20 18,-17 c 3,2 -3,12 -13,22 c -17,16 -18,16 -5,-5 z"
           id="objDomino_0-2_shadblack_p0009" />
        <path
           d="m 4162,1700 c 0,-19 2,-27 5,-17 c 2,9 2,25 0,35 c -3,9 -5,1 -5,-18 z"
           id="objDomino_0-2_shadblack_p0010" />
        <path
           d="m 4021,1663 c -1,-6 -4,-20 -7,-30 c -5,-17 -5,-17 6,0 c 6,10 9,23 6,30 c -3,9 -5,9 -5,0 z"
           id="objDomino_0-2_shadblack_p0011" />
        <path
           d="m 3572,1610 c 0,-19 2,-27 5,-17 c 2,9 2,25 0,35 c -3,9 -5,1 -5,-18 z"
           id="objDomino_0-2_shadblack_p0012" />
        <path
           d="m 4173,1565 c 0,-27 2,-38 4,-22 c 2,15 2,37 0,50 c -2,12 -4,0 -4,-28 z"
           id="objDomino_0-2_shadblack_p0013" />
        <path
           d="m 3572,1440 c 0,-19 2,-27 5,-17 c 2,9 2,25 0,35 c -3,9 -5,1 -5,-18 z"
           id="objDomino_0-2_shadblack_p0014" />
        <path
           d="m 4183,1400 c 0,-30 2,-43 4,-27 c 2,15 2,39 0,55 c -2,15 -4,2 -4,-28 z"
           id="objDomino_0-2_shadblack_p0015" />
        <path
           d="m 4182,1320 c 0,-14 2,-19 5,-12 c 2,6 2,18 0,25 c -3,6 -5,1 -5,-13 z"
           id="objDomino_0-2_shadblack_p0016" />
      </g>
    </g>
    <g
       id="objDomino_0-2_omcwhite">
      <g
         id="objDomino_0-2_matwhite"
         transform="matrix(0.1,0,0,-0.1,0,600)"
         style="fill:#ffffff;stroke:#ffffff;stroke-width:5">
        <path
           d="m 3939,1689 c -18,-18 -19,-23 -6,-42 c 29,-44 109,-14 81,30 c -18,29 -52,35 -75,12 z"
           id="objDomino_0-2_matwhite_p0001" />
        <path
           d="m 3698,1479 c -21,-12 -24,-49 -6,-67 c 35,-35 101,4 79,47 c -16,30 -44,37 -73,20 z"
           id="objDomino_0-2_matwhite_p0002" />
      </g>
      <g
         id="objDomino_0-2_shadwhite"
         transform="matrix(0.1,0,0,-0.1,0,600)"
         style="fill:#000000;fill-opacity:0.2;stroke:none">
        <path
           d="m 3970,1693 c 1,-10 36,-53 44,-53 c 11,0 6,36 -6,48 c -13,13 -38,16 -38,5 z"
           id="objDomino_0-2_shadwhite_p0001" />
        <path
           d="m 3730,1471 c 0,-5 7,-14 15,-21 c 8,-7 15,-20 15,-29 c 1,-14 2,-14 11,1 c 7,12 6,24 -1,38 c -11,20 -40,28 -40,11 z"
           id="objDomino_0-2_shadwhite_p0002" />
      </g>
    </g>
  </g>
  <g
     id="objDomino_2-5"
     transform="translate(-21.75,-109.92142)">
    <g
       id="objDomino_2-5_omcblack">
      <g
         id="objDomino_2-5_matblack"
         transform="matrix(0.1,0,0,-0.1,0,600)"
         style="fill:#1e1e1e;stroke:#1e1e1e;stroke-width:5">
        <path
           d="m 4362,2678 c -25,-31 -22,-98 22,-465 c 25,-209 46,-385 46,-389 c 1,-31 22,-35 290,-49 c 166,-9 278,-11 283,-6 c 25,25 17,109 -48,476 c -58,332 -70,383 -90,404 c -21,21 -34,24 -166,32 c -217,12 -325,11 -337,-3 z m 176,-100 c 19,-19 14,-46 -8,-53 c -39,-12 -94,44 -57,58 c 22,10 53,7 65,-5 z m 240,-10 c 19,-19 14,-46 -8,-53 c -21,-7 -70,17 -70,33 c 0,15 24,32 45,32 c 12,0 26,-5 33,-12 z m -107,-89 c 19,-19 20,-23 5,-37 c -20,-20 -69,-6 -74,22 c -8,37 37,47 69,15 z m -101,-84 c 27,-32 -15,-58 -64,-39 c -16,6 -22,35 -9,47 c 12,13 60,7 73,-8 z m 238,-7 c 18,-18 15,-48 -5,-49 c -47,-3 -80,18 -70,45 c 8,19 58,21 75,4 z m -210,-220 c 34,-34 -12,-73 -57,-48 c -20,10 -28,40 -14,53 c 11,11 58,8 71,-5 z m 282,-203 c 22,-26 8,-50 -29,-50 c -37,0 -58,22 -48,49 c 8,20 60,21 77,1 z"
           id="objDomino_2-5_matblack_p0001" />
      </g>
      <g
         id="objDomino_2-5_shadblack"
         transform="matrix(0.1,0,0,-0.1,0,600)"
         style="fill:#000000;fill-opacity:0.2;stroke:none">
        <path
           d="m 4362,2678 c -25,-31 -22,-98 22,-465 c 25,-209 46,-385 46,-389 c 1,-31 22,-35 290,-49 c 180,-10 277,-12 284,-5 c 5,5 8,12 5,14 c -2,2 -112,7 -244,11 c -266,8 -299,15 -309,62 c -9,40 -96,759 -96,789 c 0,16 8,28 23,34 c 15,6 17,9 6,9 c -9,1 -21,-5 -27,-11 z"
           id="objDomino_2-5_shadblack_p0001" />
        <path
           d="m 4478,2683 c 23,-2 61,-2 85,0 c 23,2 4,4 -43,4 c -47,0 -66,-2 -42,-4 z"
           id="objDomino_2-5_shadblack_p0002" />
        <path
           d="m 4693,2673 c 20,-2 54,-2 75,0 c 20,2 3,4 -38,4 c -41,0 -58,-2 -37,-4 z"
           id="objDomino_2-5_shadblack_p0003" />
        <path
           d="m 4877,2619 c 4,-13 8,-18 11,-10 c 2,7 -1,18 -6,23 c -8,8 -9,4 -5,-13 z"
           id="objDomino_2-5_shadblack_p0004" />
        <path
           d="m 4548,2553 c 5,-21 7,-23 10,-9 c 2,10 0,22 -6,28 c -6,6 -7,0 -4,-19 z"
           id="objDomino_2-5_shadblack_p0005" />
        <path
           d="m 4892,2560 c 0,-14 2,-19 5,-12 c 2,6 2,18 0,25 c -3,6 -5,1 -5,-13 z"
           id="objDomino_2-5_shadblack_p0006" />
        <path
           d="m 4791,2534 c 0,-11 3,-14 6,-6 c 3,7 2,16 -1,19 c -3,4 -6,-2 -5,-13 z"
           id="objDomino_2-5_shadblack_p0007" />
        <path
           d="m 4902,2510 c 0,-14 2,-19 5,-12 c 2,6 2,18 0,25 c -3,6 -5,1 -5,-13 z"
           id="objDomino_2-5_shadblack_p0008" />
        <path
           d="m 4912,2450 c 0,-14 2,-19 5,-12 c 2,6 2,18 0,25 c -3,6 -5,1 -5,-13 z"
           id="objDomino_2-5_shadblack_p0009" />
        <path
           d="m 4922,2390 c 0,-14 2,-19 5,-12 c 2,6 2,18 0,25 c -3,6 -5,1 -5,-13 z"
           id="objDomino_2-5_shadblack_p0010" />
        <path
           d="m 4932,2335 c 0,-16 2,-22 5,-12 c 2,9 2,23 0,30 c -3,6 -5,-1 -5,-18 z"
           id="objDomino_2-5_shadblack_p0011" />
        <path
           d="m 4941,2284 c 0,-11 3,-14 6,-6 c 3,7 2,16 -1,19 c -3,4 -6,-2 -5,-13 z"
           id="objDomino_2-5_shadblack_p0012" />
        <path
           d="m 4952,2220 c 0,-14 2,-19 5,-12 c 2,6 2,18 0,25 c -3,6 -5,1 -5,-13 z"
           id="objDomino_2-5_shadblack_p0013" />
        <path
           d="m 4962,2165 c 0,-16 2,-22 5,-12 c 2,9 2,23 0,30 c -3,6 -5,-1 -5,-18 z"
           id="objDomino_2-5_shadblack_p0014" />
        <path
           d="m 4971,2114 c 0,-11 3,-14 6,-6 c 3,7 2,16 -1,19 c -3,4 -6,-2 -5,-13 z"
           id="objDomino_2-5_shadblack_p0015" />
        <path
           d="m 4982,2050 c 0,-14 2,-19 5,-12 c 2,6 2,18 0,25 c -3,6 -5,1 -5,-13 z"
           id="objDomino_2-5_shadblack_p0016" />
        <path
           d="m 4992,1995 c 0,-16 2,-22 5,-12 c 2,9 2,23 0,30 c -3,6 -5,-1 -5,-18 z"
           id="objDomino_2-5_shadblack_p0017" />
        <path
           d="m 5002,1935 c 0,-16 2,-22 5,-12 c 2,9 2,23 0,30 c -3,6 -5,-1 -5,-18 z"
           id="objDomino_2-5_shadblack_p0018" />
        <path
           d="m 4891,1934 c 0,-11 3,-14 6,-6 c 3,7 2,16 -1,19 c -3,4 -6,-2 -5,-13 z"
           id="objDomino_2-5_shadblack_p0019" />
        <path
           d="m 5011,1884 c 0,-11 3,-14 6,-6 c 3,7 2,16 -1,19 c -3,4 -6,-2 -5,-13 z"
           id="objDomino_2-5_shadblack_p0020" />
      </g>
    </g>
    <g
       id="objDomino_2-5_omcwhite">
      <g
         id="objDomino_2-5_matwhite"
         transform="matrix(0.1,0,0,-0.1,0,600)"
         style="fill:#ffffff;stroke:#ffffff;stroke-width:5">
        <path
           d="m 4473,2583 c -37,-14 18,-70 57,-58 c 22,7 27,34 8,53 c -12,12 -43,15 -65,5 z"
           id="objDomino_2-5_matwhite_p0001" />
        <path
           d="m 4712,2568 c -17,-17 -15,-26 13,-44 c 28,-19 65,-11 65,15 c 0,23 -19,41 -45,41 c -12,0 -26,-5 -33,-12 z"
           id="objDomino_2-5_matwhite_p0002" />
        <path
           d="m 4612,2491 c -22,-13 -10,-45 21,-55 c 21,-8 31,-6 43,6 c 15,14 14,18 -5,37 c -23,23 -38,26 -59,12 z"
           id="objDomino_2-5_matwhite_p0003" />
        <path
           d="m 4497,2403 c -13,-12 -7,-41 9,-47 c 49,-19 91,7 64,39 c -13,15 -61,21 -73,8 z"
           id="objDomino_2-5_matwhite_p0004" />
        <path
           d="m 4733,2384 c -10,-27 23,-48 70,-45 c 20,1 23,31 5,49 c -17,17 -67,15 -75,-4 z"
           id="objDomino_2-5_matwhite_p0005" />
        <path
           d="m 4527,2173 c -14,-13 -6,-43 14,-53 c 45,-25 91,14 57,48 c -13,13 -60,16 -71,5 z"
           id="objDomino_2-5_matwhite_p0006" />
        <path
           d="m 4803,1964 c -10,-27 11,-49 48,-49 c 37,0 51,24 29,50 c -17,20 -69,19 -77,-1 z"
           id="objDomino_2-5_matwhite_p0007" />
      </g>
      <g
         id="objDomino_2-5_specwhite"
         transform="matrix(0.1,0,0,-0.1,0,600)"
         style="fill:#ffffff;fill-opacity:0.5;stroke:none">
        <path
           d="m 4720,2549 c 0,-5 5,-7 10,-4 c 6,3 10,8 10,11 c 0,2 -4,4 -10,4 c -5,0 -10,-5 -10,-11 z"
           id="objDomino_2-5_specwhite_p0001" />
        <path
           d="m 4530,2149 c 0,-5 5,-7 10,-4 c 6,3 10,8 10,11 c 0,2 -4,4 -10,4 c -5,0 -10,-5 -10,-11 z"
           id="objDomino_2-5_specwhite_p0002" />
        <path
           d="m 4817,1953 c -4,-3 -7,-11 -7,-17 c 0,-6 5,-5 12,2 c 6,6 9,14 7,17 c -3,3 -9,2 -12,-2 z"
           id="objDomino_2-5_specwhite_p0003" />
      </g>
      <g
         id="objDomino_2-5_shadwhite"
         transform="matrix(0.1,0,0,-0.1,0,600)"
         style="fill:#000000;fill-opacity:0.2;stroke:none">
        <path
           d="m 4533,2555 c 7,-13 14,-20 15,-14 c 5,14 -6,39 -17,39 c -5,0 -4,-11 2,-25 z"
           id="objDomino_2-5_shadwhite_p0001" />
        <path
           d="m 4770,2563 c 0,-4 5,-15 10,-23 c 8,-13 10,-13 10,2 c 0,9 -4,20 -10,23 c -5,3 -10,3 -10,-2 z"
           id="objDomino_2-5_shadwhite_p0002" />
        <path
           d="m 4662,2465 c 6,-13 15,-22 19,-19 c 11,6 -8,44 -21,44 c -6,0 -5,-10 2,-25 z"
           id="objDomino_2-5_shadwhite_p0003" />
        <path
           d="m 4562,2380 c 14,-22 24,-19 15,5 c -4,8 -11,15 -17,15 c -6,0 -6,-7 2,-20 z"
           id="objDomino_2-5_shadwhite_p0004" />
        <path
           d="m 4806,2377 c 3,-10 9,-15 12,-12 c 3,3 0,11 -7,18 c -10,9 -11,8 -5,-6 z"
           id="objDomino_2-5_shadwhite_p0005" />
        <path
           d="m 4580,2172 c 0,-5 7,-15 15,-22 c 8,-7 15,-8 15,-2 c 0,5 -7,15 -15,22 c -8,7 -15,8 -15,2 z"
           id="objDomino_2-5_shadwhite_p0006" />
        <path
           d="m 4861,1954 c 13,-14 25,-20 27,-14 c 5,15 -17,40 -36,40 c -12,0 -10,-6 9,-26 z"
           id="objDomino_2-5_shadwhite_p0007" />
      </g>
    </g>
  </g>
  <g
     id="objDomino_4-6"
     transform="translate(-21.75,-109.92142)">
    <g
       id="objDomino_4-6_omcblack">
      <g
         id="objDomino_4-6_matblack"
         transform="matrix(0.1,0,0,-0.1,0,600)"
         style="fill:#1e1e1e;stroke:#1e1e1e;stroke-width:5">
        <path
           d="m 4280,4885 c -14,-17 -14,-81 0,-270 c 16,-216 17,-220 43,-221 c 33,-2 147,-14 182,-19 c 17,-3 63,-7 103,-10 c 74,-5 112,-17 112,-35 c 0,-22 19,-8 25,18 c 8,39 -53,484 -68,500 c -8,7 -86,20 -187,32 c -210,24 -195,23 -210,5 z m 139,-69 c 9,-11 8,-15 -5,-20 c -23,-9 -54,2 -54,20 c 0,18 44,19 59,0 z m 187,-17 c 3,-6 1,-16 -5,-22 c -12,-12 -61,6 -61,23 c 0,13 57,13 66,-1 z m -177,-82 c 14,-17 5,-27 -24,-27 c -24,0 -49,22 -38,33 c 11,12 50,8 62,-6 z m 175,-13 c 9,-3 16,-12 16,-20 c 0,-18 -44,-18 -59,-1 c -18,23 7,35 43,21 z m -173,-114 c 28,-16 23,-30 -10,-30 c -31,0 -47,13 -36,30 c 8,13 21,13 46,0 z m 195,-25 c 15,-12 16,-16 5,-24 c -25,-16 -70,6 -56,29 c 9,14 28,12 51,-5 z m -181,-45 c 0,-8 -8,-16 -18,-18 c -21,-4 -49,16 -41,30 c 9,15 59,5 59,-12 z m 192,-15 c 3,-9 3,-18 0,-22 c -11,-10 -57,7 -57,22 c 0,20 49,20 57,0 z m -191,-30 c 16,-13 17,-16 4,-25 c -20,-13 -23,-13 -45,3 c -19,14 -13,37 9,37 c 7,0 21,-7 32,-15 z m 193,-14 c 16,-11 8,-41 -12,-41 c -21,0 -51,26 -43,38 c 8,14 35,15 55,3 z"
           id="objDomino_4-6_matblack_p0001" />
      </g>
      <g
         id="objDomino_4-6_shadblack"
         transform="matrix(0.1,0,0,-0.1,0,600)"
         style="fill:#000000;fill-opacity:0.2;stroke:none">
        <path
           d="m 4280,4885 c -14,-17 -14,-81 0,-270 c 14,-184 20,-229 30,-219 c 4,5 -1,113 -11,239 c -11,127 -17,235 -15,242 c 3,6 20,13 38,16 l 33,4 l -31,1 c -17,1 -37,-5 -44,-13 z"
           id="objDomino_4-6_shadblack_p0001" />
        <path
           d="m 4393,4883 c 9,-2 25,-2 35,0 c 9,3 1,5 -18,5 c -19,0 -27,-2 -17,-5 z"
           id="objDomino_4-6_shadblack_p0002" />
        <path
           d="m 4488,4873 c 12,-2 30,-2 40,0 c 9,3 -1,5 -23,4 c -22,0 -30,-2 -17,-4 z"
           id="objDomino_4-6_shadblack_p0003" />
        <path
           d="m 4573,4863 c 9,-2 25,-2 35,0 c 9,3 1,5 -18,5 c -19,0 -27,-2 -17,-5 z"
           id="objDomino_4-6_shadblack_p0004" />
        <path
           d="m 4658,4850 c 12,-5 22,-17 23,-27 c 0,-11 3,-13 6,-5 c 7,17 -15,42 -36,41 c -11,0 -9,-3 7,-9 z"
           id="objDomino_4-6_shadblack_p0005" />
        <path
           d="m 4692,4765 c 0,-16 2,-22 5,-12 c 2,9 2,23 0,30 c -3,6 -5,-1 -5,-18 z"
           id="objDomino_4-6_shadblack_p0006" />
        <path
           d="m 4702,4690 c 0,-19 2,-27 5,-17 c 2,9 2,25 0,35 c -3,9 -5,1 -5,-18 z"
           id="objDomino_4-6_shadblack_p0007" />
        <path
           d="m 4712,4620 c 0,-14 2,-19 5,-12 c 2,6 2,18 0,25 c -3,6 -5,1 -5,-13 z"
           id="objDomino_4-6_shadblack_p0008" />
        <path
           d="m 4722,4540 c 0,-19 2,-27 5,-17 c 2,9 2,25 0,35 c -3,9 -5,1 -5,-18 z"
           id="objDomino_4-6_shadblack_p0009" />
        <path
           d="m 4445,4510 c -3,-5 -1,-10 4,-10 c 6,0 11,5 11,10 c 0,6 -2,10 -4,10 c -3,0 -8,-4 -11,-10 z"
           id="objDomino_4-6_shadblack_p0010" />
        <path
           d="m 4732,4470 c 0,-14 2,-19 5,-12 c 2,6 2,18 0,25 c -3,6 -5,1 -5,-13 z"
           id="objDomino_4-6_shadblack_p0011" />
        <path
           d="m 4645,4430 c -3,-5 -1,-10 4,-10 c 6,0 11,5 11,10 c 0,6 -2,10 -4,10 c -3,0 -8,-4 -11,-10 z"
           id="objDomino_4-6_shadblack_p0012" />
        <path
           d="m 4743,4385 c 0,-22 2,-30 4,-17 c 2,12 2,30 0,40 c -3,9 -5,-1 -4,-23 z"
           id="objDomino_4-6_shadblack_p0013" />
      </g>
    </g>
    <g
       id="objDomino_4-6_omcwhite">
      <g
         id="objDomino_4-6_matwhite"
         transform="matrix(0.1,0,0,-0.1,0,600)"
         style="fill:#ffffff;stroke:#ffffff;stroke-width:5">
        <path
           d="m 4360,4816 c 0,-18 31,-29 54,-20 c 13,5 14,9 5,20 c -15,19 -59,18 -59,0 z"
           id="objDomino_4-6_matwhite_p0001" />
        <path
           d="m 4540,4800 c 0,-17 49,-35 61,-23 c 6,6 8,16 5,22 c -9,14 -66,14 -66,1 z"
           id="objDomino_4-6_matwhite_p0002" />
        <path
           d="m 4367,4723 c -11,-11 14,-33 38,-33 c 29,0 38,10 24,27 c -12,14 -51,18 -62,6 z"
           id="objDomino_4-6_matwhite_p0003" />
        <path
           d="m 4557,4703 c -4,-3 -2,-12 4,-20 c 15,-17 59,-17 59,1 c 0,21 -47,35 -63,19 z"
           id="objDomino_4-6_matwhite_p0004" />
        <path
           d="m 4385,4590 c -11,-17 5,-30 36,-30 c 33,0 38,14 10,30 c -25,13 -38,13 -46,0 z"
           id="objDomino_4-6_matwhite_p0005" />
        <path
           d="m 4575,4570 c -14,-23 31,-45 56,-29 c 11,8 10,12 -5,24 c -23,17 -42,19 -51,5 z"
           id="objDomino_4-6_matwhite_p0006" />
        <path
           d="m 4386,4532 c -8,-14 20,-34 41,-30 c 28,5 22,33 -9,36 c -14,2 -29,-1 -32,-6 z"
           id="objDomino_4-6_matwhite_p0007" />
        <path
           d="m 4580,4505 c 0,-15 46,-32 57,-22 c 3,4 3,13 0,22 c -8,20 -57,20 -57,0 z"
           id="objDomino_4-6_matwhite_p0008" />
        <path
           d="m 4394,4478 c -4,-6 1,-17 11,-25 c 22,-16 25,-16 45,-3 c 13,9 12,12 -4,25 c -24,18 -42,19 -52,3 z"
           id="objDomino_4-6_matwhite_p0009" />
        <path
           d="m 4584,4458 c -8,-12 22,-38 43,-38 c 20,0 28,30 12,41 c -20,12 -47,11 -55,-3 z"
           id="objDomino_4-6_matwhite_p0010" />
      </g>
    </g>
  </g>
  <g
     id="objDomino_5-5"
     transform="translate(-21.75,-109.92142)">
    <g
       id="objDomino_5-5_omcblack">
      <g
         id="objDomino_5-5_matblack"
         transform="matrix(0.1,0,0,-0.1,0,600)"
         style="fill:#1e1e1e;stroke:#1e1e1e;stroke-width:5">
        <path
           d="m 4100,3069 c -9,-31 -8,-81 3,-202 c 17,-195 14,-191 148,-200 c 75,-6 96,-4 109,8 c 19,17 109,19 338,6 c 123,-7 146,-11 165,-29 c 18,-17 42,-21 138,-27 c 64,-4 125,-4 136,-1 c 33,11 35,74 8,226 c -13,74 -26,146 -28,160 c -2,14 -14,30 -28,37 c -25,12 -759,63 -906,63 l -72,0 l -11,-41 z m 191,-39 c 23,-13 25,-48 3,-57 c -23,-9 -64,14 -64,36 c 0,28 28,38 61,21 z m 228,-28 c 19,-36 -32,-58 -63,-27 c -8,9 -13,22 -10,30 c 9,22 61,19 73,-3 z m 255,-5 c 21,-16 18,-50 -5,-55 c -9,-1 -26,6 -40,16 c -20,17 -21,22 -10,36 c 16,19 31,20 55,3 z m 223,-25 c 9,-11 10,-19 2,-29 c -17,-19 -43,-16 -65,8 c -18,20 -18,21 0,34 c 20,15 45,10 63,-13 z m -577,-47 c 17,-21 5,-45 -23,-45 c -29,0 -52,24 -43,45 c 7,19 50,19 66,0 z m 478,-24 c 20,-12 10,-45 -14,-49 c -23,-3 -59,31 -49,47 c 7,13 45,14 63,2 z m -578,-56 c 21,-25 4,-47 -32,-43 c -28,2 -34,8 -36,31 c -3,24 0,27 26,27 c 16,0 35,-7 42,-15 z m 211,-5 c 23,-13 25,-33 4,-50 c -31,-26 -87,25 -58,53 c 9,10 31,9 54,-3 z m 279,-25 c 17,-21 5,-45 -23,-45 c -29,0 -52,24 -43,45 c 7,19 50,19 66,0 z m 224,-18 c 9,-14 7,-21 -7,-32 c -30,-22 -83,9 -70,42 c 8,20 63,13 77,-10 z"
           id="objDomino_5-5_matblack_p0001" />
      </g>
      <g
         id="objDomino_5-5_shadblack"
         transform="matrix(0.1,0,0,-0.1,0,600)"
         style="fill:#000000;fill-opacity:0.2;stroke:none">
        <path
           d="m 4100,3069 c -9,-31 -8,-81 3,-202 c 17,-195 14,-191 148,-200 c 75,-6 96,-4 109,8 c 19,17 109,19 338,6 c 123,-7 146,-11 165,-29 c 18,-17 42,-21 138,-27 c 126,-8 159,-3 159,23 c 0,15 -2,15 -10,2 c -8,-13 -10,-13 -10,2 c 0,20 -12,21 -520,48 c -449,24 -456,25 -474,53 c -9,14 -19,81 -27,176 c -12,146 -11,155 6,167 c 16,12 17,14 2,14 c -11,0 -20,-14 -27,-41 z"
           id="objDomino_5-5_shadblack_p0001" />
        <path
           d="m 4248,3103 c 18,-2 45,-2 60,0 c 15,2 0,4 -33,4 c -33,0 -45,-2 -27,-4 z"
           id="objDomino_5-5_shadblack_p0002" />
        <path
           d="m 4393,3093 c 9,-2 23,-2 30,0 c 6,3 -1,5 -18,5 c -16,0 -22,-2 -12,-5 z"
           id="objDomino_5-5_shadblack_p0003" />
        <path
           d="m 4888,3063 c 17,-2 47,-2 65,0 c 17,2 3,4 -33,4 c -36,0 -50,-2 -32,-4 z"
           id="objDomino_5-5_shadblack_p0004" />
        <path
           d="m 5038,3053 c 6,-2 18,-2 25,0 c 6,3 1,5 -13,5 c -14,0 -19,-2 -12,-5 z"
           id="objDomino_5-5_shadblack_p0005" />
        <path
           d="m 5081,3047 c 2,-1 13,-9 24,-17 c 19,-14 19,-14 6,3 c -7,9 -18,17 -24,17 c -6,0 -8,-1 -6,-3 z"
           id="objDomino_5-5_shadblack_p0006" />
        <path
           d="m 4307,2991 c -4,-17 -3,-21 5,-13 c 5,5 8,16 6,23 c -3,8 -7,3 -11,-10 z"
           id="objDomino_5-5_shadblack_p0007" />
        <path
           d="m 4791,2964 c 0,-11 3,-14 6,-6 c 3,7 2,16 -1,19 c -3,4 -6,-2 -5,-13 z"
           id="objDomino_5-5_shadblack_p0008" />
        <path
           d="m 4906,2863 c -6,-14 -5,-15 5,-6 c 7,7 10,15 7,18 c -3,3 -9,-2 -12,-12 z"
           id="objDomino_5-5_shadblack_p0009" />
        <path
           d="m 4326,2813 c -6,-14 -5,-15 5,-6 c 7,7 10,15 7,18 c -3,3 -9,-2 -12,-12 z"
           id="objDomino_5-5_shadblack_p0010" />
      </g>
    </g>
    <g
       id="objDomino_5-5_omcwhite">
      <g
         id="objDomino_5-5_matwhite"
         transform="matrix(0.1,0,0,-0.1,0,600)"
         style="fill:#ffffff;stroke:#ffffff;stroke-width:5">
        <path
           d="m 4243,3033 c -22,-8 -14,-43 11,-55 c 31,-14 56,-4 56,21 c 0,29 -36,47 -67,34 z"
           id="objDomino_5-5_matwhite_p0001" />
        <path
           d="m 4446,3005 c -3,-8 2,-21 10,-30 c 31,-31 82,-9 63,27 c -12,22 -64,25 -73,3 z"
           id="objDomino_5-5_matwhite_p0002" />
        <path
           d="m 4719,2994 c -11,-14 -10,-19 10,-36 c 14,-10 31,-17 40,-16 c 23,5 26,39 5,55 c -24,17 -39,16 -55,-3 z"
           id="objDomino_5-5_matwhite_p0003" />
        <path
           d="m 4934,2985 c -18,-13 -18,-14 0,-34 c 22,-24 48,-27 65,-8 c 23,29 -34,65 -65,42 z"
           id="objDomino_5-5_matwhite_p0004" />
        <path
           d="m 4354,2925 c -9,-21 14,-45 43,-45 c 28,0 40,24 23,45 c -16,19 -59,19 -66,0 z"
           id="objDomino_5-5_matwhite_p0005" />
        <path
           d="m 4835,2899 c -10,-16 26,-50 49,-47 c 24,4 34,37 14,49 c -18,12 -56,11 -63,-2 z"
           id="objDomino_5-5_matwhite_p0006" />
        <path
           d="m 4252,2833 c 2,-23 8,-29 36,-31 c 22,-2 34,2 38,12 c 9,24 -14,46 -48,46 c -26,0 -29,-3 -26,-27 z"
           id="objDomino_5-5_matwhite_p0007" />
        <path
           d="m 4477,2843 c -29,-28 27,-79 58,-53 c 8,7 15,18 15,26 c 0,23 -56,44 -73,27 z"
           id="objDomino_5-5_matwhite_p0008" />
        <path
           d="m 4744,2815 c -9,-21 14,-45 43,-45 c 28,0 40,24 23,45 c -16,19 -59,19 -66,0 z"
           id="objDomino_5-5_matwhite_p0009" />
        <path
           d="m 4957,2807 c -13,-33 40,-64 70,-42 c 14,11 16,18 7,32 c -14,23 -69,30 -77,10 z"
           id="objDomino_5-5_matwhite_p0010" />
      </g>
      <g
         id="objDomino_5-5_shadwhite"
         transform="matrix(0.1,0,0,-0.1,0,600)"
         style="fill:#000000;fill-opacity:0.2;stroke:none">
        <path
           d="m 4290,3018 c 0,-7 5,-20 10,-28 c 8,-12 10,-11 10,7 c 0,12 -4,25 -10,28 c -5,3 -10,0 -10,-7 z"
           id="objDomino_5-5_shadwhite_p0001" />
        <path
           d="m 4510,3001 c 0,-6 4,-13 10,-16 c 6,-3 7,1 4,9 c -7,18 -14,21 -14,7 z"
           id="objDomino_5-5_shadwhite_p0002" />
        <path
           d="m 4990,2971 c 0,-6 4,-13 10,-16 c 6,-3 7,1 4,9 c -7,18 -14,21 -14,7 z"
           id="objDomino_5-5_shadwhite_p0003" />
        <path
           d="m 4412,2906 c 1,-13 6,-22 10,-20 c 11,7 10,32 -2,39 c -6,3 -9,-4 -8,-19 z"
           id="objDomino_5-5_shadwhite_p0004" />
        <path
           d="m 4897,2880 c 3,-11 7,-20 9,-20 c 2,0 4,9 4,20 c 0,11 -4,20 -9,20 c -5,0 -7,-9 -4,-20 z"
           id="objDomino_5-5_shadwhite_p0005" />
        <path
           d="m 4310,2829 c 7,-11 14,-18 17,-15 c 8,8 -5,36 -17,36 c -7,0 -7,-6 0,-21 z"
           id="objDomino_5-5_shadwhite_p0006" />
        <path
           d="m 4530,2833 c 0,-4 5,-15 10,-23 c 8,-13 10,-13 10,2 c 0,9 -4,20 -10,23 c -5,3 -10,3 -10,-2 z"
           id="objDomino_5-5_shadwhite_p0007" />
        <path
           d="m 5020,2803 c 0,-4 5,-15 10,-23 c 8,-13 10,-13 10,2 c 0,9 -4,20 -10,23 c -5,3 -10,3 -10,-2 z"
           id="objDomino_5-5_shadwhite_p0008" />
      </g>
    </g>
  </g>
  <g
     id="objDomino_1-3"
     transform="translate(-21.75,-109.92142)">
    <g
       id="objDomino_1-3_omcblack">
      <g
         id="objDomino_1-3_matblack"
         transform="matrix(0.1,0,0,-0.1,0,600)"
         style="fill:#1e1e1e;stroke:#1e1e1e;stroke-width:5">
        <path
           d="m 6116,2971 c -15,-29 -14,-37 24,-173 c 22,-79 40,-157 40,-175 c 0,-22 6,-36 21,-43 c 11,-6 225,-30 475,-53 c 451,-42 487,-42 490,-11 c 0,5 4,20 8,34 c 9,31 -85,315 -114,344 c -17,17 -66,24 -392,57 c -205,20 -410,40 -455,44 l -81,7 l -16,-31 z m 395,-81 c 28,-16 25,-50 -5,-50 c -23,0 -56,23 -56,39 c 0,22 30,27 61,11 z m -64,-88 c 9,-11 10,-19 2,-29 c -16,-19 -36,-16 -60,8 c -16,16 -18,23 -8,35 c 14,17 48,10 66,-14 z m 465,-39 c 27,-24 23,-43 -10,-43 c -32,0 -52,16 -52,42 c 0,23 37,24 62,1 z m -552,-28 c 19,-23 8,-50 -20,-47 c -32,3 -54,26 -47,46 c 8,20 51,21 67,1 z"
           id="objDomino_1-3_matblack_p0001" />
      </g>
      <g
         id="objDomino_1-3_shadblack"
         transform="matrix(0.1,0,0,-0.1,0,600)"
         style="fill:#000000;fill-opacity:0.2;stroke:none">
        <path
           d="m 6116,2972 c -14,-27 -12,-39 25,-173 c 21,-79 39,-158 39,-176 c 0,-22 6,-36 21,-43 c 11,-6 225,-30 475,-53 c 467,-43 484,-43 490,-4 c 2,13 -5,17 -30,17 c -17,0 -225,18 -461,40 c -438,41 -467,46 -479,87 c -19,68 -66,279 -66,298 c 0,21 6,24 43,28 l 42,4 l -42,1 c -37,2 -44,-1 -57,-26 z"
           id="objDomino_1-3_shadblack_p0001" />
        <path
           d="m 6268,2983 c 12,-2 30,-2 40,0 c 9,3 -1,5 -23,4 c -22,0 -30,-2 -17,-4 z"
           id="objDomino_1-3_shadblack_p0002" />
        <path
           d="m 6368,2973 c 12,-2 30,-2 40,0 c 9,3 -1,5 -23,4 c -22,0 -30,-2 -17,-4 z"
           id="objDomino_1-3_shadblack_p0003" />
        <path
           d="m 6473,2963 c 9,-2 25,-2 35,0 c 9,3 1,5 -18,5 c -19,0 -27,-2 -17,-5 z"
           id="objDomino_1-3_shadblack_p0004" />
        <path
           d="m 6578,2953 c 12,-2 30,-2 40,0 c 9,3 -1,5 -23,4 c -22,0 -30,-2 -17,-4 z"
           id="objDomino_1-3_shadblack_p0005" />
        <path
           d="m 6678,2943 c 12,-2 30,-2 40,0 c 9,3 -1,5 -23,4 c -22,0 -30,-2 -17,-4 z"
           id="objDomino_1-3_shadblack_p0006" />
        <path
           d="m 6778,2933 c 12,-2 30,-2 40,0 c 9,3 -1,5 -23,4 c -22,0 -30,-2 -17,-4 z"
           id="objDomino_1-3_shadblack_p0007" />
        <path
           d="m 6883,2923 c 9,-2 25,-2 35,0 c 9,3 1,5 -18,5 c -19,0 -27,-2 -17,-5 z"
           id="objDomino_1-3_shadblack_p0008" />
        <path
           d="m 6983,2913 c 9,-2 23,-2 30,0 c 6,3 -1,5 -18,5 c -16,0 -22,-2 -12,-5 z"
           id="objDomino_1-3_shadblack_p0009" />
      </g>
    </g>
    <g
       id="objDomino_1-3_omcwhite">
      <g
         id="objDomino_1-3_matwhite"
         transform="matrix(0.1,0,0,-0.1,0,600)"
         style="fill:#ffffff;stroke:#ffffff;stroke-width:5">
        <path
           d="m 6457,2893 c -19,-18 14,-53 49,-53 c 17,0 24,6 24,20 c 0,28 -54,53 -73,33 z"
           id="objDomino_1-3_matwhite_p0001" />
        <path
           d="m 6381,2816 c -10,-12 -8,-19 8,-35 c 24,-24 44,-27 60,-8 c 8,10 7,18 -2,29 c -18,24 -52,31 -66,14 z"
           id="objDomino_1-3_matwhite_p0002" />
        <path
           d="m 6850,2762 c 0,-26 20,-42 52,-42 c 33,0 37,19 10,43 c -25,23 -62,22 -62,-1 z"
           id="objDomino_1-3_matwhite_p0003" />
        <path
           d="m 6293,2734 c -7,-20 15,-43 47,-46 c 28,-3 39,24 20,47 c -16,20 -59,19 -67,-1 z"
           id="objDomino_1-3_matwhite_p0004" />
      </g>
      <g
         id="objDomino_1-3_specwhite"
         transform="matrix(0.1,0,0,-0.1,0,600)"
         style="fill:#ffffff;fill-opacity:0.5;stroke:none">
        <path
           d="m 6480,2880 c 0,-5 7,-10 16,-10 c 8,0 12,5 9,10 c -3,6 -10,10 -16,10 c -5,0 -9,-4 -9,-10 z"
           id="objDomino_1-3_specwhite_p0001" />
        <path
           d="m 6405,2800 c 3,-5 11,-10 16,-10 c 6,0 7,5 4,10 c -3,6 -11,10 -16,10 c -6,0 -7,-4 -4,-10 z"
           id="objDomino_1-3_specwhite_p0002" />
        <path
           d="m 6880,2756 c 0,-2 7,-6 15,-10 c 8,-3 15,-1 15,4 c 0,6 -7,10 -15,10 c -8,0 -15,-2 -15,-4 z"
           id="objDomino_1-3_specwhite_p0003" />
        <path
           d="m 6310,2726 c 0,-2 9,-6 20,-9 c 11,-3 20,-1 20,4 c 0,5 -9,9 -20,9 c -11,0 -20,-2 -20,-4 z"
           id="objDomino_1-3_specwhite_p0004" />
      </g>
    </g>
  </g>
  <g
     id="objDomino_0-4"
     transform="translate(-21.75,-109.92142)">
    <g
       id="objDomino_0-4_omcblack">
      <g
         id="objDomino_0-4_matblack"
         transform="matrix(0.1,0,0,-0.1,0,600)"
         style="fill:#1e1e1e;stroke:#1e1e1e;stroke-width:5">
        <path
           d="m 1712,1872 c -40,-6 -50,-39 -72,-247 c -23,-204 -23,-296 -1,-318 c 9,-9 159,-12 631,-12 c 581,0 620,1 637,18 c 16,16 18,43 21,250 c 2,142 -1,243 -7,259 c -7,20 -21,30 -48,37 c -36,9 -1113,22 -1161,13 z m 183,-105 c 26,-20 13,-65 -22,-73 c -33,-9 -57,6 -61,36 c -7,42 45,64 83,37 z m 266,-6 c 19,-16 22,-23 13,-37 c -16,-28 -39,-38 -67,-30 c -22,5 -27,12 -27,37 c 0,21 6,32 23,39 c 31,12 32,12 58,-9 z m -277,-243 c 21,-34 -23,-75 -67,-64 c -58,14 -34,90 26,84 c 17,-2 35,-11 41,-20 z m 266,8 c 19,-24 8,-60 -23,-70 c -33,-12 -61,1 -65,31 c -6,43 60,72 88,39 z"
           id="objDomino_0-4_matblack_p0001" />
      </g>
      <g
         id="objDomino_0-4_shadblack"
         transform="matrix(0.1,0,0,-0.1,0,600)"
         style="fill:#000000;fill-opacity:0.2;stroke:none">
        <path
           d="m 1798,1873 c 39,-2 105,-2 145,0 c 39,1 7,3 -73,3 c -80,0 -112,-2 -72,-3 z"
           id="objDomino_0-4_shadblack_p0001" />
        <path
           d="m 1676,1848 c -9,-12 -16,-34 -15,-48 c 1,-27 4,-22 13,23 c 4,16 16,32 29,37 c 16,6 18,9 5,9 c -9,1 -24,-9 -32,-21 z"
           id="objDomino_0-4_shadblack_p0002" />
        <path
           d="m 2408,1863 c 84,-2 219,-2 300,0 c 81,1 12,3 -153,3 c -165,0 -231,-2 -147,-3 z"
           id="objDomino_0-4_shadblack_p0003" />
        <path
           d="m 2868,1853 c 7,-3 16,-2 19,1 c 4,3 -2,6 -13,5 c -11,0 -14,-3 -6,-6 z"
           id="objDomino_0-4_shadblack_p0004" />
        <path
           d="m 2894,1839 c -4,-7 -3,-9 4,-5 c 5,3 13,0 15,-6 c 4,-9 6,-10 6,-1 c 1,17 -16,25 -25,12 z"
           id="objDomino_0-4_shadblack_p0005" />
        <path
           d="m 2921,1755 c -2,-33 -3,-131 -2,-218 c 1,-92 -3,-166 -9,-177 c -10,-19 -28,-19 -629,-17 c -498,2 -621,5 -634,15 c -10,9 -18,34 -20,70 c -2,36 -4,26 -3,-25 c 1,-53 6,-87 14,-95 c 19,-19 1215,-24 1251,-5 c 14,7 28,26 33,44 c 5,18 7,130 5,250 c -1,120 -4,191 -6,158 z"
           id="objDomino_0-4_shadblack_p0006" />
        <path
           d="m 1653,1730 c 0,-25 2,-35 4,-22 c 2,12 2,32 0,45 c -2,12 -4,2 -4,-23 z"
           id="objDomino_0-4_shadblack_p0007" />
        <path
           d="m 2302,1730 c 0,-19 2,-27 5,-17 c 2,9 2,25 0,35 c -3,9 -5,1 -5,-18 z"
           id="objDomino_0-4_shadblack_p0008" />
        <path
           d="m 1911,1738 c -1,-9 -8,-24 -17,-32 c -8,-9 -11,-16 -5,-16 c 14,0 34,38 27,53 c -2,7 -5,5 -5,-5 z"
           id="objDomino_0-4_shadblack_p0009" />
        <path
           d="m 2160,1705 c -8,-9 -8,-15 -2,-15 c 12,0 26,19 19,26 c -2,2 -10,-2 -17,-11 z"
           id="objDomino_0-4_shadblack_p0010" />
        <path
           d="m 1643,1635 c 0,-22 2,-30 4,-17 c 2,12 2,30 0,40 c -3,9 -5,-1 -4,-23 z"
           id="objDomino_0-4_shadblack_p0011" />
        <path
           d="m 2293,1560 c 0,-36 2,-50 4,-32 c 2,17 2,47 0,65 c -2,17 -4,3 -4,-33 z"
           id="objDomino_0-4_shadblack_p0012" />
        <path
           d="m 1633,1545 c 0,-22 2,-30 4,-17 c 2,12 2,30 0,40 c -3,9 -5,-1 -4,-23 z"
           id="objDomino_0-4_shadblack_p0013" />
        <path
           d="m 1891,1501 c -1,-8 -8,-23 -18,-33 c -9,-10 -11,-18 -5,-18 c 15,0 35,38 28,53 c -3,8 -5,7 -5,-2 z"
           id="objDomino_0-4_shadblack_p0014" />
        <path
           d="m 2161,1495 c 0,-12 -5,-26 -11,-33 c -5,-7 -3,-6 6,2 c 9,7 14,22 11,32 c -4,17 -5,17 -6,-1 z"
           id="objDomino_0-4_shadblack_p0015" />
      </g>
    </g>
    <g
       id="objDomino_0-4_omcwhite">
      <g
         id="objDomino_0-4_matwhite"
         transform="matrix(0.1,0,0,-0.1,0,600)"
         style="fill:#ffffff;stroke:#ffffff;stroke-width:5">
        <path
           d="m 1826,1767 c -21,-16 -18,-55 5,-70 c 26,-16 68,0 75,30 c 11,43 -40,69 -80,40 z"
           id="objDomino_0-4_matwhite_p0001" />
        <path
           d="m 2103,1770 c -17,-7 -23,-18 -23,-39 c 0,-51 65,-56 94,-7 c 9,14 6,21 -13,37 c -26,21 -27,21 -58,9 z"
           id="objDomino_0-4_matwhite_p0002" />
        <path
           d="m 1796,1521 c -23,-26 -13,-59 21,-67 c 28,-7 50,2 67,29 c 27,43 -52,77 -88,38 z"
           id="objDomino_0-4_matwhite_p0003" />
        <path
           d="m 2075,1524 c -20,-20 -16,-53 7,-68 c 25,-16 72,4 76,32 c 7,47 -48,70 -83,36 z"
           id="objDomino_0-4_matwhite_p0004" />
      </g>
      <g
         id="objDomino_0-4_shadwhite"
         transform="matrix(0.1,0,0,-0.1,0,600)"
         style="fill:#000000;fill-opacity:0.2;stroke:none">
        <path
           d="m 1865,1771 c -4,-8 10,-54 23,-71 c 5,-7 22,24 22,42 c 0,20 -36,43 -45,29 z"
           id="objDomino_0-4_shadwhite_p0001" />
        <path
           d="m 2144,1742 c 8,-16 12,-33 8,-38 c -3,-5 2,-1 13,9 c 15,14 17,21 9,35 c -6,9 -19,19 -28,20 c -16,3 -16,1 -2,-26 z"
           id="objDomino_0-4_shadwhite_p0002" />
        <path
           d="m 1845,1518 c 4,-13 8,-33 9,-45 c 1,-20 2,-20 19,-6 c 29,27 16,73 -21,73 c -10,0 -12,-6 -7,-22 z"
           id="objDomino_0-4_shadwhite_p0003" />
        <path
           d="m 2120,1531 c 0,-19 27,-71 33,-64 c 14,14 6,53 -13,63 c -11,6 -20,7 -20,1 z"
           id="objDomino_0-4_shadwhite_p0004" />
      </g>
    </g>
  </g>
  <g
     id="objDomino_1-1"
     transform="translate(-21.75,-109.92142)">
    <g
       id="objDomino_1-1_omcblack">
      <g
         id="objDomino_1-1_matblack"
         transform="matrix(0.1,0,0,-0.1,0,600)"
         style="fill:#1e1e1e;stroke:#1e1e1e;stroke-width:5">
        <path
           d="m 7011,3041 c -12,-16 -21,-36 -21,-44 c 0,-27 30,-87 44,-87 c 26,0 45,-37 96,-185 c 42,-121 50,-155 42,-176 c -7,-21 -1,-48 30,-135 c 58,-160 49,-154 269,-170 c 251,-18 246,-19 274,12 c 14,15 25,35 25,46 c 0,15 -261,644 -290,698 c -16,30 -59,39 -250,55 c -101,8 -188,15 -192,15 c -3,0 -16,-13 -27,-29 z m 324,-165 c 13,-21 -10,-37 -39,-27 c -29,11 -45,39 -27,50 c 18,11 52,-1 66,-23 z m 129,-357 c 26,-12 40,-35 30,-50 c -17,-27 -93,14 -81,44 c 8,20 17,21 51,6 z"
           id="objDomino_1-1_matblack_p0001" />
      </g>
      <g
         id="objDomino_1-1_shadblack"
         transform="matrix(0.1,0,0,-0.1,0,600)"
         style="fill:#000000;fill-opacity:0.2;stroke:none">
        <path
           d="m 7011,3041 c -12,-16 -21,-36 -21,-44 c 0,-31 28,-79 54,-93 c 26,-13 28,-12 21,4 c -25,62 -45,128 -41,139 c 3,6 22,14 43,16 l 38,4 l -37,1 c -30,2 -40,-3 -57,-27 z"
           id="objDomino_1-1_shadblack_p0001" />
        <path
           d="m 7158,3053 c 12,-2 32,-2 45,0 c 12,2 2,4 -23,4 c -25,0 -35,-2 -22,-4 z"
           id="objDomino_1-1_shadblack_p0002" />
        <path
           d="m 7283,3043 c 15,-2 37,-2 50,0 c 12,2 0,4 -28,4 c -27,0 -38,-2 -22,-4 z"
           id="objDomino_1-1_shadblack_p0003" />
        <path
           d="m 7398,3033 c 6,-2 18,-2 25,0 c 6,3 1,5 -13,5 c -14,0 -19,-2 -12,-5 z"
           id="objDomino_1-1_shadblack_p0004" />
        <path
           d="m 7470,3000 c 6,-11 13,-20 16,-20 c 2,0 0,9 -6,20 c -6,11 -13,20 -16,20 c -2,0 0,-9 6,-20 z"
           id="objDomino_1-1_shadblack_p0005" />
        <path
           d="m 7490,2965 c 0,-5 5,-17 10,-25 c 5,-8 10,-10 10,-5 c 0,6 -5,17 -10,25 c -5,8 -10,11 -10,5 z"
           id="objDomino_1-1_shadblack_p0006" />
        <path
           d="m 7540,2845 c 0,-5 5,-17 10,-25 c 5,-8 10,-10 10,-5 c 0,6 -5,17 -10,25 c -5,8 -10,11 -10,5 z"
           id="objDomino_1-1_shadblack_p0007" />
        <path
           d="m 7570,2775 c 0,-5 5,-17 10,-25 c 5,-8 10,-10 10,-5 c 0,6 -5,17 -10,25 c -5,8 -10,11 -10,5 z"
           id="objDomino_1-1_shadblack_p0008" />
        <path
           d="m 7600,2705 c 0,-5 5,-17 10,-25 c 5,-8 10,-10 10,-5 c 0,6 -5,17 -10,25 c -5,8 -10,11 -10,5 z"
           id="objDomino_1-1_shadblack_p0009" />
        <path
           d="m 7630,2635 c 0,-5 5,-17 10,-25 c 5,-8 10,-10 10,-5 c 0,6 -5,17 -10,25 c -5,8 -10,11 -10,5 z"
           id="objDomino_1-1_shadblack_p0010" />
        <path
           d="m 7181,2570 c -1,-15 -5,-30 -10,-35 c -13,-14 65,-224 94,-254 c 21,-22 35,-24 206,-37 c 251,-18 246,-19 274,12 c 14,15 25,32 25,38 c 0,6 -4,5 -9,-3 c -8,-12 -40,-12 -227,2 c -254,18 -241,12 -289,139 c -58,152 -64,165 -64,138 z"
           id="objDomino_1-1_shadblack_p0011" />
        <path
           d="m 7680,2515 c 0,-5 5,-17 10,-25 c 5,-8 10,-10 10,-5 c 0,6 -5,17 -10,25 c -5,8 -10,11 -10,5 z"
           id="objDomino_1-1_shadblack_p0012" />
        <path
           d="m 7710,2445 c 0,-5 5,-17 10,-25 c 5,-8 10,-10 10,-5 c 0,6 -5,17 -10,25 c -5,8 -10,11 -10,5 z"
           id="objDomino_1-1_shadblack_p0013" />
        <path
           d="m 7740,2375 c 0,-5 5,-17 10,-25 c 5,-8 10,-10 10,-5 c 0,6 -5,17 -10,25 c -5,8 -10,11 -10,5 z"
           id="objDomino_1-1_shadblack_p0014" />
      </g>
    </g>
    <g
       id="objDomino_1-1_omcwhite">
      <g
         id="objDomino_1-1_matwhite"
         transform="matrix(0.1,0,0,-0.1,0,600)"
         style="fill:#ffffff;stroke:#ffffff;stroke-width:5">
        <path
           d="m 7269,2899 c -18,-11 -2,-39 27,-50 c 29,-10 52,6 39,27 c -14,22 -48,34 -66,23 z"
           id="objDomino_1-1_matwhite_p0001" />
        <path
           d="m 7413,2513 c -12,-30 64,-71 81,-44 c 10,15 -4,38 -30,50 c -34,15 -43,14 -51,-6 z"
           id="objDomino_1-1_matwhite_p0002" />
      </g>
      <g
         id="objDomino_1-1_specwhite"
         transform="matrix(0.1,0,0,-0.1,0,600)"
         style="fill:#ffffff;fill-opacity:0.5;stroke:none">
        <path
           d="m 7310,2880 c 0,-5 5,-10 10,-10 c 6,0 10,5 10,10 c 0,6 -4,10 -10,10 c -5,0 -10,-4 -10,-10 z"
           id="objDomino_1-1_specwhite_p0001" />
        <path
           d="m 7465,2490 c 3,-5 11,-10 16,-10 c 6,0 7,5 4,10 c -3,6 -11,10 -16,10 c -6,0 -7,-4 -4,-10 z"
           id="objDomino_1-1_specwhite_p0002" />
      </g>
    </g>
  </g>
  <g
     id="objDomino_6-5"
     transform="translate(-21.75,-109.92142)">
    <g
       id="objDomino_6-5_omcblack">
      <g
         id="objDomino_6-5_matblack"
         transform="matrix(0.1,0,0,-0.1,0,600)"
         style="fill:#1e1e1e;stroke:#1e1e1e;stroke-width:5">
        <path
           d="m 3040,3165 c -18,-21 -27,-373 -11,-403 c 6,-12 25,-23 44,-27 c 17,-3 247,-16 509,-30 c 330,-18 484,-23 497,-16 c 10,6 22,23 26,38 c 10,42 -15,344 -31,370 c -18,28 -19,29 -510,58 c -487,30 -507,30 -524,10 z m 195,-95 c 0,-21 -5,-26 -33,-28 c -34,-3 -50,14 -38,44 c 4,10 16,14 38,12 c 28,-2 33,-7 33,-28 z m 112,3 c 3,-8 -1,-22 -10,-31 c -13,-13 -21,-13 -42,-4 c -14,6 -25,18 -25,26 c 0,33 65,40 77,9 z m 107,2 c 30,-30 -6,-61 -52,-44 c -24,9 -30,44 -9,52 c 23,10 46,7 61,-8 z m 281,-35 c 0,-19 -6,-26 -26,-28 c -29,-3 -54,20 -45,44 c 4,10 16,14 38,12 c 28,-2 33,-7 33,-28 z m 219,-3 c 9,-14 7,-21 -7,-32 c -34,-25 -77,3 -63,41 c 8,21 56,15 70,-9 z m -116,-69 c 7,-7 12,-20 12,-30 c 0,-23 -52,-25 -70,-3 c -25,30 30,61 58,33 z m -610,-50 c 17,-17 15,-45 -4,-52 c -42,-16 -81,12 -64,45 c 12,21 50,25 68,7 z m 112,-13 c 19,-23 4,-45 -29,-45 c -32,0 -48,24 -30,46 c 15,18 43,18 59,-1 z m 110,-3 c 31,-25 18,-54 -23,-50 c -41,4 -59,34 -33,54 c 25,18 29,18 56,-4 z m 286,-16 c 15,-12 17,-18 8,-33 c -23,-37 -87,-10 -71,31 c 8,20 37,21 63,2 z m 218,-9 c 24,-18 17,-51 -12,-55 c -28,-4 -52,14 -52,38 c 0,29 35,38 64,17 z"
           id="objDomino_6-5_matblack_p0001" />
      </g>
      <g
         id="objDomino_6-5_shadblack"
         transform="matrix(0.1,0,0,-0.1,0,600)"
         style="fill:#000000;fill-opacity:0.2;stroke:none">
        <path
           d="m 3040,3165 c -18,-21 -27,-373 -11,-403 c 6,-12 25,-23 44,-27 c 17,-3 247,-16 509,-30 c 330,-18 484,-23 497,-16 c 18,10 37,58 26,69 c -3,3 -5,-2 -5,-10 c 0,-9 -9,-26 -21,-39 l -21,-24 l 5,22 c 4,19 0,23 -27,27 c -17,3 -242,16 -499,30 c -418,22 -471,27 -489,43 c -20,17 -20,26 -15,173 c 3,85 9,163 12,172 c 6,14 23,18 98,21 l 92,3 l -91,2 c -71,2 -94,-1 -104,-13 z"
           id="objDomino_6-5_shadblack_p0001" />
        <path
           d="m 3313,3163 c 15,-2 39,-2 55,0 c 15,2 2,4 -28,4 c -30,0 -43,-2 -27,-4 z"
           id="objDomino_6-5_shadblack_p0002" />
        <path
           d="m 3483,3153 c 15,-2 39,-2 55,0 c 15,2 2,4 -28,4 c -30,0 -43,-2 -27,-4 z"
           id="objDomino_6-5_shadblack_p0003" />
        <path
           d="m 3643,3143 c 15,-2 39,-2 55,0 c 15,2 2,4 -28,4 c -30,0 -43,-2 -27,-4 z"
           id="objDomino_6-5_shadblack_p0004" />
        <path
           d="m 3798,3133 c 17,-2 47,-2 65,0 c 17,2 3,4 -33,4 c -36,0 -50,-2 -32,-4 z"
           id="objDomino_6-5_shadblack_p0005" />
        <path
           d="m 3953,3123 c 15,-2 37,-2 50,0 c 12,2 0,4 -28,4 c -27,0 -38,-2 -22,-4 z"
           id="objDomino_6-5_shadblack_p0006" />
        <path
           d="m 4041,3117 c 2,-1 13,-9 24,-17 c 19,-14 19,-14 6,3 c -7,9 -18,17 -24,17 c -6,0 -8,-1 -6,-3 z"
           id="objDomino_6-5_shadblack_p0007" />
        <path
           d="m 3232,3052 c -11,-25 -11,-25 4,-10 c 9,9 15,21 13,27 c -2,6 -10,-2 -17,-17 z"
           id="objDomino_6-5_shadblack_p0008" />
        <path
           d="m 4082,3060 c 0,-14 2,-19 5,-12 c 2,6 2,18 0,25 c -3,6 -5,1 -5,-13 z"
           id="objDomino_6-5_shadblack_p0009" />
        <path
           d="m 3342,3050 c -7,-11 -8,-20 -3,-20 c 9,0 24,30 18,36 c -1,2 -8,-6 -15,-16 z"
           id="objDomino_6-5_shadblack_p0010" />
        <path
           d="m 3456,3033 c -6,-14 -5,-15 5,-6 c 7,7 10,15 7,18 c -3,3 -9,-2 -12,-12 z"
           id="objDomino_6-5_shadblack_p0011" />
        <path
           d="m 3736,3023 c -6,-14 -5,-15 5,-6 c 7,7 10,15 7,18 c -3,3 -9,-2 -12,-12 z"
           id="objDomino_6-5_shadblack_p0012" />
        <path
           d="m 3956,3015 c -9,-26 -7,-32 5,-12 c 6,10 9,21 6,23 c -2,3 -7,-2 -11,-11 z"
           id="objDomino_6-5_shadblack_p0013" />
        <path
           d="m 3845,2940 c 0,-15 3,-26 8,-23 c 4,2 7,13 7,23 c 0,10 -3,21 -7,23 c -5,3 -8,-8 -8,-23 z"
           id="objDomino_6-5_shadblack_p0014" />
        <path
           d="m 4092,2940 c 0,-14 2,-19 5,-12 c 2,6 2,18 0,25 c -3,6 -5,1 -5,-13 z"
           id="objDomino_6-5_shadblack_p0015" />
        <path
           d="m 3241,2888 c -1,-10 -5,-18 -11,-18 c -5,0 -10,-5 -10,-12 c 0,-8 6,-7 16,4 c 9,9 14,22 11,30 c -4,9 -6,7 -6,-4 z"
           id="objDomino_6-5_shadblack_p0016" />
        <path
           d="m 3342,2870 c -7,-11 -8,-20 -3,-20 c 9,0 24,30 18,36 c -1,2 -8,-6 -15,-16 z"
           id="objDomino_6-5_shadblack_p0017" />
        <path
           d="m 3746,2855 c -9,-26 -7,-32 5,-12 c 6,10 9,21 6,23 c -2,3 -7,-2 -11,-11 z"
           id="objDomino_6-5_shadblack_p0018" />
        <path
           d="m 3967,2841 c -4,-17 -3,-21 5,-13 c 5,5 8,16 6,23 c -3,8 -7,3 -11,-10 z"
           id="objDomino_6-5_shadblack_p0019" />
      </g>
    </g>
    <g
       id="objDomino_6-5_omcwhite">
      <g
         id="objDomino_6-5_matwhite"
         transform="matrix(0.1,0,0,-0.1,0,600)"
         style="fill:#ffffff;stroke:#ffffff;stroke-width:5">
        <path
           d="m 3164,3086 c -12,-30 4,-47 38,-44 c 28,2 33,7 33,28 c 0,21 -5,26 -33,28 c -22,2 -34,-2 -38,-12 z"
           id="objDomino_6-5_matwhite_p0001" />
        <path
           d="m 3286,3088 c -24,-13 -20,-37 9,-50 c 21,-9 29,-9 42,4 c 30,30 -12,68 -51,46 z"
           id="objDomino_6-5_matwhite_p0002" />
        <path
           d="m 3393,3083 c -21,-8 -15,-43 9,-52 c 46,-17 82,14 52,44 c -15,15 -38,18 -61,8 z"
           id="objDomino_6-5_matwhite_p0003" />
        <path
           d="m 3664,3056 c -9,-24 16,-47 45,-44 c 20,2 26,9 26,28 c 0,21 -5,26 -33,28 c -22,2 -34,-2 -38,-12 z"
           id="objDomino_6-5_matwhite_p0004" />
        <path
           d="m 3884,3046 c -14,-38 29,-66 63,-41 c 14,11 16,18 7,32 c -14,24 -62,30 -70,9 z"
           id="objDomino_6-5_matwhite_p0005" />
        <path
           d="m 3780,2965 c -18,-21 4,-45 41,-45 c 21,0 29,5 29,18 c 0,38 -46,56 -70,27 z"
           id="objDomino_6-5_matwhite_p0006" />
        <path
           d="m 3160,2911 c -7,-15 -6,-23 6,-35 c 25,-26 74,-17 74,13 c 0,40 -61,57 -80,22 z"
           id="objDomino_6-5_matwhite_p0007" />
        <path
           d="m 3281,2906 c -18,-22 -2,-46 30,-46 c 33,0 48,22 29,45 c -16,19 -44,19 -59,1 z"
           id="objDomino_6-5_matwhite_p0008" />
        <path
           d="m 3394,2906 c -26,-20 -8,-50 33,-54 c 41,-4 54,25 23,50 c -27,22 -31,22 -56,4 z"
           id="objDomino_6-5_matwhite_p0009" />
        <path
           d="m 3673,2884 c -16,-41 48,-68 71,-31 c 9,15 7,21 -8,33 c -26,19 -55,18 -63,-2 z"
           id="objDomino_6-5_matwhite_p0010" />
        <path
           d="m 3903,2883 c -17,-6 -16,-38 1,-53 c 21,-17 60,-8 64,14 c 6,31 -32,53 -65,39 z"
           id="objDomino_6-5_matwhite_p0011" />
      </g>
      <g
         id="objDomino_6-5_shadwhite"
         transform="matrix(0.1,0,0,-0.1,0,600)"
         style="fill:#000000;fill-opacity:0.2;stroke:none">
        <path
           d="m 3220,3070 c 0,-18 4,-29 10,-25 c 6,3 10,15 10,25 c 0,10 -4,22 -10,25 c -6,4 -10,-7 -10,-25 z"
           id="objDomino_6-5_shadwhite_p0001" />
        <path
           d="m 3330,3065 c 0,-15 4,-24 10,-20 c 6,3 10,12 10,20 c 0,8 -4,17 -10,20 c -6,4 -10,-5 -10,-20 z"
           id="objDomino_6-5_shadwhite_p0002" />
        <path
           d="m 3448,3054 c 3,-17 7,-22 12,-13 c 9,13 2,39 -10,39 c -4,0 -5,-12 -2,-26 z"
           id="objDomino_6-5_shadwhite_p0003" />
        <path
           d="m 3727,3040 c 3,-11 7,-20 9,-20 c 2,0 4,9 4,20 c 0,11 -4,20 -9,20 c -5,0 -7,-9 -4,-20 z"
           id="objDomino_6-5_shadwhite_p0004" />
        <path
           d="m 3940,3036 c 0,-8 5,-18 10,-21 c 6,-3 10,1 10,9 c 0,8 -4,18 -10,21 c -5,3 -10,-1 -10,-9 z"
           id="objDomino_6-5_shadwhite_p0005" />
        <path
           d="m 3830,2958 c 0,-7 5,-20 10,-28 c 8,-12 10,-11 10,7 c 0,12 -4,25 -10,28 c -5,3 -10,0 -10,-7 z"
           id="objDomino_6-5_shadwhite_p0006" />
        <path
           d="m 3213,2906 c 4,-10 7,-22 7,-27 c 0,-5 5,-9 11,-9 c 15,0 7,43 -10,48 c -10,3 -12,0 -8,-12 z"
           id="objDomino_6-5_shadwhite_p0007" />
        <path
           d="m 3328,2884 c 3,-17 8,-22 15,-15 c 11,11 3,41 -11,41 c -5,0 -7,-12 -4,-26 z"
           id="objDomino_6-5_shadwhite_p0008" />
        <path
           d="m 3450,2886 c 0,-9 5,-16 10,-16 c 6,0 10,4 10,9 c 0,6 -4,13 -10,16 c -5,3 -10,-1 -10,-9 z"
           id="objDomino_6-5_shadwhite_p0009" />
        <path
           d="m 3730,2876 c 0,-8 5,-18 10,-21 c 6,-3 10,1 10,9 c 0,8 -4,18 -10,21 c -5,3 -10,-1 -10,-9 z"
           id="objDomino_6-5_shadwhite_p0010" />
        <path
           d="m 3950,2868 c 0,-7 5,-20 10,-28 c 8,-12 10,-11 10,7 c 0,12 -4,25 -10,28 c -5,3 -10,0 -10,-7 z"
           id="objDomino_6-5_shadwhite_p0011" />
      </g>
    </g>
  </g>
  <g
     id="objDomino_3-4"
     transform="translate(-21.75,-109.92142)">
    <g
       id="objDomino_3-4_omcblack">
      <g
         id="objDomino_3-4_matblack"
         transform="matrix(0.1,0,0,-0.1,0,600)"
         style="fill:#1e1e1e;stroke:#1e1e1e;stroke-width:5">
        <path
           d="m 377,1933 c -9,-2 -23,-17 -31,-31 C 324,1859 220,1492 220,1456 c 0,-45 18,-93 38,-102 c 24,-10 1242,-49 1275,-40 c 15,3 33,16 41,29 c 17,26 76,383 76,461 c 0,93 37,86 -578,112 c -531,23 -660,26 -695,17 z m 468,-123 c 17,-18 17,-21 1,-45 c -27,-41 -96,-30 -96,16 c 0,20 36,49 61,49 c 9,0 24,-9 34,-20 z m 350,-35 c 0,-23 -7,-33 -27,-43 c -35,-16 -68,-1 -68,31 c 0,33 20,48 60,45 c 32,-3 35,-6 35,-33 z m 275,4 c 21,-37 -38,-81 -80,-59 c -42,22 -13,80 40,80 c 19,0 33,-7 40,-21 z m -784,-96 c 6,-20 2,-31 -16,-45 c -25,-21 -43,-22 -71,-8 c -42,23 -8,80 47,80 c 28,0 35,-4 40,-27 z m -182,-99 c 22,-21 20,-31 -9,-59 c -28,-29 -57,-32 -79,-9 c -23,22 -20,40 10,63 c 32,25 57,27 78,5 z m 641,-49 c 0,-59 -85,-74 -93,-16 c -5,34 16,52 57,49 c 33,-3 36,-6 36,-33 z m 283,-4 c 5,-29 -24,-61 -54,-61 c -31,0 -56,37 -43,62 c 23,42 91,41 97,-1 z"
           id="objDomino_3-4_matblack_p0001" />
      </g>
      <g
         id="objDomino_3-4_shadblack"
         transform="matrix(0.1,0,0,-0.1,0,600)"
         style="fill:#000000;fill-opacity:0.2;stroke:none">
        <path
           d="m 377,1933 c -9,-2 -23,-17 -31,-31 C 329,1869 220,1495 220,1472 c 1,-9 29,81 64,201 c 34,120 70,225 79,235 c 14,13 43,18 135,23 l 117,5 l -110,1 c -60,0 -118,-1 -128,-4 z"
           id="objDomino_3-4_shadblack_p0001" />
        <path
           d="m 723,1923 c 26,-2 67,-2 90,0 c 23,2 2,3 -48,3 c -49,0 -68,-1 -42,-3 z"
           id="objDomino_3-4_shadblack_p0002" />
        <path
           d="m 963,1913 c 26,-2 67,-2 90,0 c 23,2 2,3 -48,3 c -49,0 -68,-1 -42,-3 z"
           id="objDomino_3-4_shadblack_p0003" />
        <path
           d="m 1203,1903 c 26,-2 68,-2 95,0 c 26,2 4,3 -48,3 c -52,0 -74,-1 -47,-3 z"
           id="objDomino_3-4_shadblack_p0004" />
        <path
           d="m 1448,1893 c 23,-2 61,-2 85,0 c 23,2 4,4 -43,4 c -47,0 -66,-2 -42,-4 z"
           id="objDomino_3-4_shadblack_p0005" />
        <path
           d="m 1608,1879 c 14,-5 20,-13 16,-20 c -4,-7 -3,-9 3,-6 c 7,5 11,-13 11,-51 c 0,-40 -2,-51 -8,-37 c -6,13 -7,3 -4,-30 c 3,-36 2,-45 -5,-30 c -7,15 -9,6 -5,-30 c 3,-36 2,-44 -5,-30 c -7,14 -8,4 -6,-35 c 4,-45 3,-50 -5,-25 c -8,27 -9,26 -5,-11 c 6,-55 -6,-146 -15,-119 c -4,12 -7,2 -6,-26 c 1,-51 -19,-86 -39,-69 c -6,5 -14,8 -17,5 c -5,-6 -1201,33 -1245,40 c -18,3 -37,13 -42,23 c -14,23 -14,3 0,-36 c 6,-17 18,-34 27,-38 c 24,-10 1242,-49 1275,-40 c 15,3 33,16 41,29 c 17,26 76,383 76,461 c 0,54 -19,87 -51,85 c -8,0 -4,-4 9,-10 z"
           id="objDomino_3-4_shadblack_p0006" />
        <path
           d="m 982,1770 c 0,-14 2,-19 5,-12 c 2,6 2,18 0,25 c -3,6 -5,1 -5,-13 z"
           id="objDomino_3-4_shadblack_p0007" />
        <path
           d="m 836,1752 l -19,-27 l 24,22 c 12,12 21,24 18,27 c -2,2 -13,-8 -23,-22 z"
           id="objDomino_3-4_shadblack_p0008" />
        <path
           d="m 1201,1768 c -1,-9 -11,-24 -23,-32 c -12,-9 -18,-16 -12,-16 c 17,0 47,38 41,52 c -4,9 -6,7 -6,-4 z"
           id="objDomino_3-4_shadblack_p0009" />
        <path
           d="m 1454,1729 c -19,-22 -19,-22 4,-10 c 12,6 22,16 22,21 c 0,15 -5,12 -26,-11 z"
           id="objDomino_3-4_shadblack_p0010" />
        <path
           d="m 962,1680 c 0,-14 2,-19 5,-12 c 2,6 2,18 0,25 c -3,6 -5,1 -5,-13 z"
           id="objDomino_3-4_shadblack_p0011" />
        <path
           d="m 691,1668 c -1,-9 -11,-24 -23,-32 c -12,-9 -18,-16 -12,-16 c 17,0 47,38 41,52 c -4,9 -6,7 -6,-4 z"
           id="objDomino_3-4_shadblack_p0012" />
        <path
           d="m 942,1590 c 0,-14 2,-19 5,-12 c 2,6 2,18 0,25 c -3,6 -5,1 -5,-13 z"
           id="objDomino_3-4_shadblack_p0013" />
        <path
           d="m 493,1523 c -12,-13 -19,-23 -14,-23 c 10,0 46,39 40,43 c -2,2 -14,-7 -26,-20 z"
           id="objDomino_3-4_shadblack_p0014" />
        <path
           d="m 1150,1535 c 0,-10 -8,-27 -17,-37 c -16,-18 -16,-18 0,-12 c 18,6 34,50 23,61 c -3,4 -6,-2 -6,-12 z"
           id="objDomino_3-4_shadblack_p0015" />
        <path
           d="m 1430,1525 c 0,-10 -8,-27 -17,-37 c -16,-18 -16,-18 0,-12 c 18,6 34,50 23,61 c -3,4 -6,-2 -6,-12 z"
           id="objDomino_3-4_shadblack_p0016" />
      </g>
    </g>
    <g
       id="objDomino_3-4_omcwhite">
      <g
         id="objDomino_3-4_matwhite"
         transform="matrix(0.1,0,0,-0.1,0,600)"
         style="fill:#ffffff;stroke:#ffffff;stroke-width:5">
        <path
           d="m 772,1814 c -40,-28 -22,-74 30,-74 c 18,0 33,8 44,25 c 16,24 16,27 -1,45 c -22,24 -43,25 -73,4 z"
           id="objDomino_3-4_matwhite_p0001" />
        <path
           d="m 1112,1798 c -19,-19 -14,-56 8,-68 c 33,-18 75,8 75,45 c 0,27 -3,30 -35,33 c -19,2 -41,-3 -48,-10 z"
           id="objDomino_3-4_matwhite_p0002" />
        <path
           d="m 1386,1784 c -22,-21 -20,-51 4,-64 c 25,-13 51,-6 74,19 c 39,43 -37,86 -78,45 z"
           id="objDomino_3-4_matwhite_p0003" />
        <path
           d="m 597,1692 c -22,-25 -21,-49 2,-62 c 28,-14 46,-13 71,8 c 18,14 22,25 16,45 c -5,23 -12,27 -40,27 c -19,0 -40,-8 -49,-18 z"
           id="objDomino_3-4_matwhite_p0004" />
        <path
           d="m 426,1579 c -30,-23 -33,-41 -10,-63 c 22,-23 51,-20 79,9 c 29,28 31,38 9,59 c -21,22 -46,20 -78,-5 z"
           id="objDomino_3-4_matwhite_p0005" />
        <path
           d="m 1061,1556 c -17,-20 -10,-56 12,-70 c 28,-18 72,12 72,49 c 0,27 -3,30 -36,33 c -23,2 -40,-2 -48,-12 z"
           id="objDomino_3-4_matwhite_p0006" />
        <path
           d="m 1363,1559 c -33,-12 -45,-42 -27,-67 c 19,-27 55,-28 78,-3 c 36,40 0,89 -51,70 z"
           id="objDomino_3-4_matwhite_p0007" />
      </g>
      <g
         id="objDomino_3-4_shadwhite"
         transform="matrix(0.1,0,0,-0.1,0,600)"
         style="fill:#000000;fill-opacity:0.2;stroke:none">
        <path
           d="m 820,1795 c 5,-14 7,-32 4,-40 c -9,-24 4,-18 22,10 c 13,20 14,28 4,40 c -21,26 -41,19 -30,-10 z"
           id="objDomino_3-4_shadwhite_p0001" />
        <path
           d="m 1165,1788 c 4,-13 7,-31 6,-41 c 0,-15 3,-16 15,-7 c 19,16 18,56 -2,64 c -25,9 -27,8 -19,-16 z"
           id="objDomino_3-4_shadwhite_p0002" />
        <path
           d="m 1431,1783 c 1,-10 4,-29 8,-41 c 6,-24 6,-24 24,-4 c 15,16 16,24 7,41 c -13,25 -40,28 -39,4 z"
           id="objDomino_3-4_shadwhite_p0003" />
        <path
           d="m 644,1666 c 1,-43 2,-44 21,-32 c 25,16 31,42 15,61 c -24,29 -38,17 -36,-29 z"
           id="objDomino_3-4_shadwhite_p0004" />
        <path
           d="m 467,1586 c -2,-6 0,-19 5,-29 c 5,-10 7,-25 4,-33 c -9,-23 12,-16 29,10 c 8,13 13,30 10,39 c -8,19 -43,29 -48,13 z"
           id="objDomino_3-4_shadwhite_p0005" />
        <path
           d="m 1114,1549 c 4,-13 8,-32 7,-42 c 0,-15 3,-16 15,-6 c 21,17 14,63 -10,67 c -16,3 -18,0 -12,-19 z"
           id="objDomino_3-4_shadwhite_p0006" />
        <path
           d="m 1380,1546 c 0,-8 5,-18 10,-21 c 6,-3 10,-15 10,-27 c 0,-17 2,-18 16,-8 c 23,20 14,64 -13,68 c -15,2 -23,-2 -23,-12 z"
           id="objDomino_3-4_shadwhite_p0007" />
      </g>
    </g>
  </g>
  <g
     id="objDomino_2-2"
     transform="translate(-21.75,-109.92142)">
    <g
       id="objDomino_2-2_omcblack">
      <g
         id="objDomino_2-2_matblack"
         transform="matrix(0.1,0,0,-0.1,0,600)"
         style="fill:#1e1e1e;stroke:#1e1e1e;stroke-width:5">
        <path
           d="m 4209,1788 c -36,-29 -40,-74 -25,-291 c 8,-113 20,-215 26,-226 c 6,-11 27,-25 48,-30 c 44,-12 1070,-56 1105,-47 c 15,3 30,20 42,46 c 18,41 18,42 -15,233 c -41,237 -46,253 -97,266 c -21,5 -229,19 -463,30 c -234,12 -465,24 -515,27 c -67,4 -94,2 -106,-8 z m 439,-114 c 24,-17 29,-43 10,-62 c -17,-17 -38,-15 -60,5 c -21,19 -23,44 -6,61 c 16,16 29,15 56,-4 z m 554,-31 c 42,-38 0,-90 -48,-58 c -23,15 -33,53 -17,68 c 12,12 46,7 65,-10 z m -767,-197 c 32,-49 -23,-89 -67,-49 c -21,19 -23,44 -6,61 c 20,20 56,14 73,-12 z m 567,-30 c 15,-35 4,-56 -30,-56 c -33,0 -52,16 -52,45 c 0,29 8,35 42,35 c 20,0 32,-7 40,-24 z"
           id="objDomino_2-2_matblack_p0001" />
      </g>
      <g
         id="objDomino_2-2_specblack"
         transform="matrix(0.1,0,0,-0.1,0,600)"
         style="fill:#ffffff;fill-opacity:0.5;stroke:none">
        <path
           d="m 5328,1705 c 5,-11 12,-27 15,-35 c 5,-13 6,-13 6,1 c 1,8 -6,24 -15,35 c -15,19 -15,19 -6,-1 z"
           id="objDomino_2-2_specblack_p0002" />
        <path
           d="m 5352,1620 c 0,-14 2,-19 5,-12 c 2,6 2,18 0,25 c -3,6 -5,1 -5,-13 z"
           id="objDomino_2-2_specblack_p0003" />
      </g>
      <g
         id="objDomino_2-2_shadblack"
         transform="matrix(0.1,0,0,-0.1,0,600)"
         style="fill:#000000;fill-opacity:0.2;stroke:none">
        <path
           d="m 4208,1788 c -35,-28 -39,-75 -24,-291 c 8,-113 20,-215 26,-226 c 6,-11 27,-25 48,-30 c 44,-12 1070,-56 1105,-47 c 13,3 29,17 35,31 c 11,24 11,26 -9,20 c -27,-9 -1063,34 -1111,46 c -21,6 -42,19 -48,29 c -13,24 -42,404 -34,437 c 7,25 22,31 94,36 c 42,3 42,4 -11,5 c -32,1 -62,-3 -71,-10 z"
           id="objDomino_2-2_shadblack_p0001" />
        <path
           d="m 4408,1783 c 23,-2 59,-2 80,0 c 20,2 1,4 -43,4 c -44,0 -61,-2 -37,-4 z"
           id="objDomino_2-2_shadblack_p0002" />
        <path
           d="m 4608,1773 c 23,-2 59,-2 80,0 c 20,2 1,4 -43,4 c -44,0 -61,-2 -37,-4 z"
           id="objDomino_2-2_shadblack_p0003" />
        <path
           d="m 4798,1763 c 23,-2 59,-2 80,0 c 20,2 1,4 -43,4 c -44,0 -61,-2 -37,-4 z"
           id="objDomino_2-2_shadblack_p0004" />
        <path
           d="m 4968,1753 c 7,-3 16,-2 19,1 c 4,3 -2,6 -13,5 c -11,0 -14,-3 -6,-6 z"
           id="objDomino_2-2_shadblack_p0005" />
        <path
           d="m 5028,1753 c 18,-2 45,-2 60,0 c 15,2 0,4 -33,4 c -33,0 -45,-2 -27,-4 z"
           id="objDomino_2-2_shadblack_p0006" />
        <path
           d="m 5178,1743 c 17,-2 47,-2 65,0 c 17,2 3,4 -33,4 c -36,0 -50,-2 -32,-4 z"
           id="objDomino_2-2_shadblack_p0007" />
        <path
           d="m 5306,1728 c 12,-5 27,-20 32,-32 c 6,-11 11,-15 11,-8 c 1,6 -8,21 -19,32 c -11,11 -26,20 -32,19 c -7,0 -3,-5 8,-11 z"
           id="objDomino_2-2_shadblack_p0008" />
        <path
           d="m 5352,1645 c 0,-16 2,-22 5,-12 c 2,9 2,23 0,30 c -3,6 -5,-1 -5,-18 z"
           id="objDomino_2-2_shadblack_p0009" />
        <path
           d="m 4671,1634 c 0,-11 3,-14 6,-6 c 3,7 2,16 -1,19 c -3,4 -6,-2 -5,-13 z"
           id="objDomino_2-2_shadblack_p0010" />
        <path
           d="m 5221,1604 c 0,-11 3,-14 6,-6 c 3,7 2,16 -1,19 c -3,4 -6,-2 -5,-13 z"
           id="objDomino_2-2_shadblack_p0011" />
        <path
           d="m 5361,1594 c 0,-11 3,-14 6,-6 c 3,7 2,16 -1,19 c -3,4 -6,-2 -5,-13 z"
           id="objDomino_2-2_shadblack_p0012" />
        <path
           d="m 5372,1535 c 0,-16 2,-22 5,-12 c 2,9 2,23 0,30 c -3,6 -5,-1 -5,-18 z"
           id="objDomino_2-2_shadblack_p0013" />
        <path
           d="m 5381,1484 c 0,-11 3,-14 6,-6 c 3,7 2,16 -1,19 c -3,4 -6,-2 -5,-13 z"
           id="objDomino_2-2_shadblack_p0014" />
        <path
           d="m 5391,1424 c 0,-11 3,-14 6,-6 c 3,7 2,16 -1,19 c -3,4 -6,-2 -5,-13 z"
           id="objDomino_2-2_shadblack_p0015" />
        <path
           d="m 5402,1365 c 0,-16 2,-22 5,-12 c 2,9 2,23 0,30 c -3,6 -5,-1 -5,-18 z"
           id="objDomino_2-2_shadblack_p0016" />
        <path
           d="m 5413,1295 c 0,-22 2,-30 4,-17 c 2,12 2,30 0,40 c -3,9 -5,-1 -4,-23 z"
           id="objDomino_2-2_shadblack_p0017" />
      </g>
    </g>
    <g
       id="objDomino_2-2_omcwhite">
      <g
         id="objDomino_2-2_matwhite"
         transform="matrix(0.1,0,0,-0.1,0,600)"
         style="fill:#ffffff;stroke:#ffffff;stroke-width:5">
        <path
           d="m 4592,1678 c -17,-17 -15,-42 6,-61 c 22,-20 43,-22 60,-5 c 19,19 14,45 -10,62 c -27,19 -40,20 -56,4 z"
           id="objDomino_2-2_matwhite_p0001" />
        <path
           d="m 5137,1653 c -16,-15 -6,-53 17,-68 c 48,-32 90,20 48,58 c -19,17 -53,22 -65,10 z"
           id="objDomino_2-2_matwhite_p0002" />
        <path
           d="m 4362,1458 c -17,-17 -15,-42 6,-61 c 25,-23 59,-21 72,4 c 24,43 -43,92 -78,57 z"
           id="objDomino_2-2_matwhite_p0003" />
        <path
           d="m 4927,1433 c -11,-11 -8,-48 5,-61 c 17,-17 67,-15 75,4 c 11,29 -14,64 -45,64 c -16,0 -32,-3 -35,-7 z"
           id="objDomino_2-2_matwhite_p0004" />
      </g>
      <g
         id="objDomino_2-2_specwhite"
         transform="matrix(0.1,0,0,-0.1,0,600)"
         style="fill:#ffffff;fill-opacity:0.5;stroke:none">
        <path
           d="m 4590,1644 c 0,-8 5,-12 10,-9 c 6,3 10,10 10,16 c 0,5 -4,9 -10,9 c -5,0 -10,-7 -10,-16 z"
           id="objDomino_2-2_specwhite_p0001" />
        <path
           d="m 5140,1610 c 0,-13 7,-20 18,-20 c 24,0 32,8 25,26 c -8,22 -43,17 -43,-6 z"
           id="objDomino_2-2_specwhite_p0002" />
        <path
           d="m 4364,1429 c -3,-6 -1,-16 5,-22 c 8,-8 11,-5 11,11 c 0,24 -5,28 -16,11 z"
           id="objDomino_2-2_specwhite_p0003" />
        <path
           d="m 4936,1413 c -12,-12 -6,-43 9,-43 c 8,0 15,9 15,19 c 0,21 -13,34 -24,24 z"
           id="objDomino_2-2_specwhite_p0004" />
      </g>
      <g
         id="objDomino_2-2_shadwhite"
         transform="matrix(0.1,0,0,-0.1,0,600)"
         style="fill:#000000;fill-opacity:0.2;stroke:none">
        <path
           d="m 4640,1661 c 5,-11 15,-23 20,-26 c 14,-9 12,19 -2,33 c -19,19 -30,14 -18,-7 z"
           id="objDomino_2-2_shadwhite_p0001" />
        <path
           d="m 5170,1653 c 0,-5 12,-20 26,-34 c 23,-21 26,-22 23,-5 c -4,19 -49,56 -49,39 z"
           id="objDomino_2-2_shadwhite_p0002" />
        <path
           d="m 4390,1464 c 0,-3 11,-19 24,-35 c 29,-34 46,-21 22,16 c -15,22 -46,35 -46,19 z"
           id="objDomino_2-2_shadwhite_p0003" />
        <path
           d="m 4980,1415 c 13,-14 25,-25 27,-25 c 9,0 1,20 -13,34 c -26,26 -39,18 -14,-9 z"
           id="objDomino_2-2_shadwhite_p0004" />
      </g>
    </g>
  </g>
  <g
     id="objDomino_1-5"
     transform="translate(-21.75,-109.92142)">
    <g
       id="objDomino_1-5_omcblack">
      <g
         id="objDomino_1-5_matblack"
         transform="matrix(0.1,0,0,-0.1,0,600)"
         style="fill:#1e1e1e;stroke:#1e1e1e;stroke-width:5">
        <path
           d="m 4290,3751 c -7,-28 -5,-117 9,-335 c 10,-164 22,-300 26,-304 c 10,-11 499,-39 510,-30 c 15,13 -61,627 -81,649 c -20,22 -35,25 -224,44 c -231,22 -227,23 -240,-24 z m 271,-121 c 32,-18 23,-40 -15,-40 c -37,0 -51,12 -42,35 c 6,18 29,19 57,5 z m -87,-246 c 9,-3 16,-15 16,-25 c 0,-14 -7,-19 -27,-19 c -37,0 -57,14 -50,34 c 7,16 33,21 61,10 z m 220,-20 c 9,-3 16,-15 16,-25 c 0,-24 -51,-27 -70,-4 c -22,27 12,45 54,29 z m -103,-64 c 25,-14 24,-37 -1,-45 c -23,-7 -60,10 -60,29 c 0,27 26,34 61,16 z m -90,-76 c 6,-7 8,-18 4,-24 c -10,-16 -61,-12 -76,6 c -11,14 -11,18 4,29 c 20,14 51,10 68,-11 z m 213,-10 c 9,-3 16,-15 16,-26 c 0,-16 -6,-19 -37,-16 c -31,2 -39,7 -41,26 c -3,18 1,22 21,22 c 14,0 32,-3 41,-6 z"
           id="objDomino_1-5_matblack_p0001" />
      </g>
      <g
         id="objDomino_1-5_shadblack"
         transform="matrix(0.1,0,0,-0.1,0,600)"
         style="fill:#000000;fill-opacity:0.2;stroke:none">
        <path
           d="m 4290,3751 c -7,-28 -5,-117 9,-334 c 10,-162 22,-300 25,-306 c 4,-6 22,-11 39,-10 c 28,0 29,1 11,9 c -12,5 -25,14 -29,20 c -8,13 -47,570 -43,615 c 2,21 10,31 28,36 l 25,7 l -27,1 c -23,1 -29,-4 -38,-38 z"
           id="objDomino_1-5_shadblack_p0001" />
        <path
           d="m 4761,3704 c 0,-11 3,-14 6,-6 c 3,7 2,16 -1,19 c -3,4 -6,-2 -5,-13 z"
           id="objDomino_1-5_shadblack_p0002" />
        <path
           d="m 4772,3645 c 0,-16 2,-22 5,-12 c 2,9 2,23 0,30 c -3,6 -5,-1 -5,-18 z"
           id="objDomino_1-5_shadblack_p0003" />
        <path
           d="m 4782,3565 c 0,-16 2,-22 5,-12 c 2,9 2,23 0,30 c -3,6 -5,-1 -5,-18 z"
           id="objDomino_1-5_shadblack_p0004" />
        <path
           d="m 4793,3475 c 0,-22 2,-30 4,-17 c 2,12 2,30 0,40 c -3,9 -5,-1 -4,-23 z"
           id="objDomino_1-5_shadblack_p0005" />
        <path
           d="m 4802,3395 c 0,-16 2,-22 5,-12 c 2,9 2,23 0,30 c -3,6 -5,-1 -5,-18 z"
           id="objDomino_1-5_shadblack_p0006" />
        <path
           d="m 4491,3354 c 0,-11 3,-14 6,-6 c 3,7 2,16 -1,19 c -3,4 -6,-2 -5,-13 z"
           id="objDomino_1-5_shadblack_p0007" />
        <path
           d="m 4812,3315 c 0,-16 2,-22 5,-12 c 2,9 2,23 0,30 c -3,6 -5,-1 -5,-18 z"
           id="objDomino_1-5_shadblack_p0008" />
        <path
           d="m 4822,3225 c 0,-16 2,-22 5,-12 c 2,9 2,23 0,30 c -3,6 -5,-1 -5,-18 z"
           id="objDomino_1-5_shadblack_p0009" />
        <path
           d="m 4832,3145 c 0,-16 2,-22 5,-12 c 2,9 2,23 0,30 c -3,6 -5,-1 -5,-18 z"
           id="objDomino_1-5_shadblack_p0010" />
      </g>
    </g>
    <g
       id="objDomino_1-5_omcwhite">
      <g
         id="objDomino_1-5_matwhite"
         transform="matrix(0.1,0,0,-0.1,0,600)"
         style="fill:#ffffff;stroke:#ffffff;stroke-width:5">
        <path
           d="m 4504,3625 c -9,-23 5,-35 42,-35 c 38,0 47,22 15,40 c -28,14 -51,13 -57,-5 z"
           id="objDomino_1-5_matwhite_p0001" />
        <path
           d="m 4413,3374 c -7,-20 13,-34 50,-34 c 20,0 27,5 27,19 c 0,32 -65,45 -77,15 z"
           id="objDomino_1-5_matwhite_p0002" />
        <path
           d="m 4635,3360 c -11,-18 15,-40 46,-40 c 22,0 29,5 29,19 c 0,28 -60,45 -75,21 z"
           id="objDomino_1-5_matwhite_p0003" />
        <path
           d="m 4537,3303 c -13,-12 -7,-32 13,-43 c 25,-13 60,-4 60,15 c 0,24 -56,46 -73,28 z"
           id="objDomino_1-5_matwhite_p0004" />
        <path
           d="m 4433,3235 c -15,-11 -15,-15 -4,-29 c 15,-18 66,-22 76,-6 c 17,27 -43,56 -72,35 z"
           id="objDomino_1-5_matwhite_p0005" />
        <path
           d="m 4652,3198 c 2,-19 10,-24 41,-26 c 31,-3 37,0 37,16 c 0,22 -18,32 -57,32 c -20,0 -24,-4 -21,-22 z"
           id="objDomino_1-5_matwhite_p0006" />
      </g>
      <g
         id="objDomino_1-5_shadwhite"
         transform="matrix(0.1,0,0,-0.1,0,600)"
         style="fill:#000000;fill-opacity:0.2;stroke:none">
        <path
           d="m 4596,3275 c 4,-8 8,-15 10,-15 c 2,0 4,7 4,15 c 0,8 -4,15 -10,15 c -5,0 -7,-7 -4,-15 z"
           id="objDomino_1-5_shadwhite_p0001" />
        <path
           d="m 4490,3221 c 0,-5 5,-13 10,-16 c 6,-3 10,-2 10,4 c 0,5 -4,13 -10,16 c -5,3 -10,2 -10,-4 z"
           id="objDomino_1-5_shadwhite_p0002" />
        <path
           d="m 4721,3184 c 0,-11 3,-14 6,-6 c 3,7 2,16 -1,19 c -3,4 -6,-2 -5,-13 z"
           id="objDomino_1-5_shadwhite_p0003" />
      </g>
    </g>
  </g>
  <g
     id="objDomino_1-6"
     transform="translate(-21.75,-109.92142)">
    <g
       id="objDomino_1-6_omcblack">
      <g
         id="objDomino_1-6_matblack"
         transform="matrix(0.1,0,0,-0.1,0,600)"
         style="fill:#1e1e1e;stroke:#1e1e1e;stroke-width:5">
        <path
           d="m 4296,4385 c -11,-11 -16,-34 -16,-73 c 0,-63 29,-491 35,-508 c 2,-6 64,-16 146,-23 c 211,-19 269,-28 290,-47 c 18,-16 19,-15 30,12 c 6,16 11,43 11,59 c 1,41 -51,451 -63,497 c -12,47 -30,56 -121,63 c -40,3 -89,8 -108,11 c -19,3 -56,7 -82,9 c -25,1 -60,6 -76,10 c -21,4 -34,1 -46,-10 z m 143,-74 c 19,-12 5,-31 -23,-31 c -25,0 -51,22 -39,33 c 9,10 45,8 62,-2 z m 201,-26 c 10,-12 9,-16 -4,-21 c -24,-9 -66,4 -66,21 c 0,20 53,20 70,0 z m -194,-36 c 10,-18 -13,-32 -40,-25 c -37,9 -34,36 3,36 c 17,0 33,-5 37,-11 z m 200,-20 c 10,-18 -13,-32 -40,-25 c -37,9 -34,36 3,36 c 17,0 33,-5 37,-11 z m -191,-50 c 0,-19 -42,-24 -61,-8 c -14,12 -14,14 1,25 c 20,15 60,3 60,-17 z m 200,-19 c 0,-19 -41,-25 -60,-10 c -22,18 -8,32 28,28 c 20,-2 32,-8 32,-18 z m -86,-199 c 19,-12 6,-41 -18,-41 c -23,0 -54,28 -46,41 c 8,11 46,11 64,0 z"
           id="objDomino_1-6_matblack_p0001" />
      </g>
      <g
         id="objDomino_1-6_shadblack"
         transform="matrix(0.1,0,0,-0.1,0,600)"
         style="fill:#000000;fill-opacity:0.2;stroke:none">
        <path
           d="m 4296,4384 c -11,-10 -16,-34 -16,-72 c 0,-67 29,-491 35,-509 c 6,-18 45,-16 45,2 c 0,8 -4,15 -9,15 c -16,0 -20,28 -41,290 l -19,255 l 20,18 c 12,9 17,17 11,17 c -6,0 -18,-7 -26,-16 z"
           id="objDomino_1-6_shadblack_p0001" />
        <path
           d="m 4435,4280 c -3,-5 -1,-10 4,-10 c 6,0 11,5 11,10 c 0,6 -2,10 -4,10 c -3,0 -8,-4 -11,-10 z"
           id="objDomino_1-6_shadblack_p0002" />
        <path
           d="m 4732,4260 c 0,-14 2,-19 5,-12 c 2,6 2,18 0,25 c -3,6 -5,1 -5,-13 z"
           id="objDomino_1-6_shadblack_p0003" />
        <path
           d="m 4447,4233 c -4,-3 -7,-11 -7,-17 c 0,-6 5,-5 12,2 c 6,6 9,14 7,17 c -3,3 -9,2 -12,-2 z"
           id="objDomino_1-6_shadblack_p0004" />
        <path
           d="m 4645,4210 c -3,-5 -1,-10 4,-10 c 6,0 11,5 11,10 c 0,6 -2,10 -4,10 c -3,0 -8,-4 -11,-10 z"
           id="objDomino_1-6_shadblack_p0005" />
        <path
           d="m 4742,4185 c 0,-16 2,-22 5,-12 c 2,9 2,23 0,30 c -3,6 -5,-1 -5,-18 z"
           id="objDomino_1-6_shadblack_p0006" />
        <path
           d="m 4752,4100 c 0,-19 2,-27 5,-17 c 2,9 2,25 0,35 c -3,9 -5,1 -5,-18 z"
           id="objDomino_1-6_shadblack_p0007" />
        <path
           d="m 4762,4020 c 0,-19 2,-27 5,-17 c 2,9 2,25 0,35 c -3,9 -5,1 -5,-18 z"
           id="objDomino_1-6_shadblack_p0008" />
        <path
           d="m 4772,3950 c 0,-14 2,-19 5,-12 c 2,6 2,18 0,25 c -3,6 -5,1 -5,-13 z"
           id="objDomino_1-6_shadblack_p0009" />
        <path
           d="m 4782,3870 c 0,-14 2,-19 5,-12 c 2,6 2,18 0,25 c -3,6 -5,1 -5,-13 z"
           id="objDomino_1-6_shadblack_p0010" />
        <path
           d="m 4766,3733 c -6,-14 -5,-15 5,-6 c 7,7 10,15 7,18 c -3,3 -9,-2 -12,-12 z"
           id="objDomino_1-6_shadblack_p0011" />
      </g>
    </g>
    <g
       id="objDomino_1-6_omcwhite">
      <g
         id="objDomino_1-6_matwhite"
         transform="matrix(0.1,0,0,-0.1,0,600)"
         style="fill:#ffffff;stroke:#ffffff;stroke-width:5">
        <path
           d="m 4377,4313 c -12,-11 14,-33 39,-33 c 28,0 42,19 23,31 c -17,10 -53,12 -62,2 z"
           id="objDomino_1-6_matwhite_p0001" />
        <path
           d="m 4570,4285 c 0,-17 42,-30 66,-21 c 13,5 14,9 4,21 c -17,20 -70,20 -70,0 z"
           id="objDomino_1-6_matwhite_p0002" />
        <path
           d="m 4380,4245 c 0,-18 48,-31 62,-17 c 16,16 0,32 -33,32 c -19,0 -29,-5 -29,-15 z"
           id="objDomino_1-6_matwhite_p0003" />
        <path
           d="m 4580,4225 c 0,-18 48,-31 62,-17 c 16,16 0,32 -33,32 c -19,0 -29,-5 -29,-15 z"
           id="objDomino_1-6_matwhite_p0004" />
        <path
           d="m 4395,4196 c -15,-11 -15,-13 -1,-25 c 19,-16 61,-11 61,8 c 0,20 -40,32 -60,17 z"
           id="objDomino_1-6_matwhite_p0005" />
        <path
           d="m 4586,4172 c -9,-15 20,-34 46,-30 c 35,5 29,32 -9,36 c -17,2 -34,-1 -37,-6 z"
           id="objDomino_1-6_matwhite_p0006" />
        <path
           d="m 4505,3961 c -8,-13 23,-41 46,-41 c 24,0 37,29 18,41 c -18,11 -56,11 -64,0 z"
           id="objDomino_1-6_matwhite_p0007" />
      </g>
      <g
         id="objDomino_1-6_specwhite"
         transform="matrix(0.1,0,0,-0.1,0,600)"
         style="fill:#ffffff;fill-opacity:0.5;stroke:none">
        <path
           d="m 4525,3960 c -3,-5 -1,-10 4,-10 c 6,0 11,5 11,10 c 0,6 -2,10 -4,10 c -3,0 -8,-4 -11,-10 z"
           id="objDomino_1-6_specwhite_p0001" />
      </g>
    </g>
  </g>
</svg>
