<?xml version="1.0" encoding="UTF-8" standalone="no"?>
<!-- Created with Inkscape (http://www.inkscape.org/) -->
<svg
    xmlns:dc="http://purl.org/dc/elements/1.1/"
    xmlns:cc="http://creativecommons.org/ns#"
    xmlns:rdf="http://www.w3.org/1999/02/22-rdf-syntax-ns#"
    xmlns:svg="http://www.w3.org/2000/svg"
    xmlns="http://www.w3.org/2000/svg"
    xmlns:xlink="http://www.w3.org/1999/xlink"
    xmlns:sodipodi="http://sodipodi.sourceforge.net/DTD/sodipodi-0.dtd"
    xmlns:inkscape="http://www.inkscape.org/namespaces/inkscape"
    xmlns:ns1="http://sozi.baierouge.fr"
    width="3019.5522"
    height="922.12531"
    id="svg2"
    version="1.1"
    inkscape:version="0.48.4 r9939"
    sodipodi:docname="eh-full-frontside.svg"
    inkscape:export-filename="/home/klaas/Documents/EACzc/eQ-mulus/eh-full-frontside.png"
    inkscape:export-xdpi="35.77"
    inkscape:export-ydpi="35.77"
  >
  <title
      id="title4130"
    >Echo Hotel</title
  >
  <defs
      id="defs4"
    >
    <linearGradient
        id="linearGradient4048"
      >
      <stop
          style="stop-color:#a42a00;stop-opacity:1;"
          offset="0"
          id="stop4050"
      />
      <stop
          id="stop4052"
          offset="0.63088447"
          style="stop-color:#d16f4d;stop-opacity:1;"
      />
      <stop
          style="stop-color:#ffa69a;stop-opacity:1;"
          offset="1"
          id="stop4054"
      />
    </linearGradient
    >
    <linearGradient
        id="linearGradient4032"
      >
      <stop
          id="stop4034"
          offset="0"
          style="stop-color:#a42a00;stop-opacity:1;"
      />
      <stop
          style="stop-color:#d16f4d;stop-opacity:1;"
          offset="0.53154039"
          id="stop4036"
      />
      <stop
          id="stop4038"
          offset="1"
          style="stop-color:#ffa69a;stop-opacity:1;"
      />
    </linearGradient
    >
    <linearGradient
        id="linearGradient4014"
      >
      <stop
          style="stop-color:#a42a00;stop-opacity:1;"
          offset="0"
          id="stop4016"
      />
      <stop
          id="stop4028"
          offset="0.5"
          style="stop-color:#d16f4d;stop-opacity:1;"
      />
      <stop
          style="stop-color:#ffa69a;stop-opacity:1;"
          offset="1"
          id="stop4018"
      />
    </linearGradient
    >
    <linearGradient
        id="linearGradient3995"
      >
      <stop
          style="stop-color:#ffffff;stop-opacity:1;"
          offset="0"
          id="stop3997"
      />
      <stop
          id="stop3999"
          offset="1"
          style="stop-color:#ffffff;stop-opacity:0;"
      />
    </linearGradient
    >
    <linearGradient
        id="linearGradient3985"
      >
      <stop
          id="stop3987"
          offset="0"
          style="stop-color:#ffffff;stop-opacity:1;"
      />
      <stop
          style="stop-color:#666a6d;stop-opacity:0.35344827;"
          offset="0.32499984"
          id="stop3989"
      />
      <stop
          id="stop3991"
          offset="1"
          style="stop-color:#161e23;stop-opacity:0;"
      />
    </linearGradient
    >
    <linearGradient
        id="linearGradient3942"
      >
      <stop
          id="stop3944"
          offset="0"
          style="stop-color:#fdfdfd;stop-opacity:1;"
      />
      <stop
          id="stop3946"
          offset="1"
          style="stop-color:#959595;stop-opacity:1;"
      />
    </linearGradient
    >
    <linearGradient
        id="linearGradient3918"
      >
      <stop
          id="stop3920"
          offset="0"
          style="stop-color:#c2d3da;stop-opacity:1;"
      />
      <stop
          id="stop3922"
          offset="1"
          style="stop-color:#d8eee0;stop-opacity:0;"
      />
    </linearGradient
    >
    <linearGradient
        id="linearGradient3856"
      >
      <stop
          style="stop-color:#d8eeef;stop-opacity:1;"
          offset="0"
          id="stop3858"
      />
      <stop
          style="stop-color:#d8eeef;stop-opacity:0;"
          offset="1"
          id="stop3860"
      />
    </linearGradient
    >
    <linearGradient
        id="linearGradient4355"
      >
      <stop
          style="stop-color:#7a624a;stop-opacity:1;"
          offset="0"
          id="stop4357"
      />
      <stop
          style="stop-color:#101200;stop-opacity:1;"
          offset="1"
          id="stop4359"
      />
    </linearGradient
    >
    <linearGradient
        id="linearGradient4345"
      >
      <stop
          style="stop-color:#a1bdc1;stop-opacity:1;"
          offset="0"
          id="stop4347"
      />
      <stop
          style="stop-color:#ebffff;stop-opacity:1;"
          offset="1"
          id="stop4349"
      />
    </linearGradient
    >
    <linearGradient
        inkscape:collect="always"
        id="linearGradient4337"
      >
      <stop
          style="stop-color:#454230;stop-opacity:1;"
          offset="0"
          id="stop4339"
      />
      <stop
          style="stop-color:#454230;stop-opacity:0;"
          offset="1"
          id="stop4341"
      />
    </linearGradient
    >
    <linearGradient
        id="linearGradient4309"
      >
      <stop
          style="stop-color:#b1c8d0;stop-opacity:1;"
          offset="0"
          id="stop4311"
      />
      <stop
          id="stop4317"
          offset="0.9343009"
          style="stop-color:#d8e3e7;stop-opacity:1;"
      />
      <stop
          style="stop-color:#ffffff;stop-opacity:1;"
          offset="1"
          id="stop4313"
      />
    </linearGradient
    >
    <linearGradient
        id="linearGradient4233"
      >
      <stop
          style="stop-color:#fdb886;stop-opacity:1;"
          offset="0"
          id="stop4235"
      />
      <stop
          style="stop-color:#fde086;stop-opacity:1;"
          offset="1"
          id="stop4237"
      />
    </linearGradient
    >
    <linearGradient
        id="linearGradient4217"
      >
      <stop
          style="stop-color:#cbecf1;stop-opacity:1;"
          offset="0"
          id="stop4219"
      />
      <stop
          style="stop-color:#cbecf1;stop-opacity:0.5258621;"
          offset="1"
          id="stop4221"
      />
    </linearGradient
    >
    <linearGradient
        inkscape:collect="always"
        id="linearGradient4209"
      >
      <stop
          style="stop-color:#4e6461;stop-opacity:1;"
          offset="0"
          id="stop4211"
      />
      <stop
          style="stop-color:#4e6461;stop-opacity:0;"
          offset="1"
          id="stop4213"
      />
    </linearGradient
    >
    <linearGradient
        id="linearGradient4180"
      >
      <stop
          style="stop-color:#d7d7d7;stop-opacity:0;"
          offset="0"
          id="stop4182"
      />
      <stop
          style="stop-color:#f0f0f0;stop-opacity:1;"
          offset="1"
          id="stop4184"
      />
    </linearGradient
    >
    <linearGradient
        id="linearGradient3948"
      >
      <stop
          style="stop-color:#ffffff;stop-opacity:1;"
          offset="0"
          id="stop3950"
      />
      <stop
          id="stop3956"
          offset="0.32499984"
          style="stop-color:#666a6d;stop-opacity:1;"
      />
      <stop
          style="stop-color:#161e23;stop-opacity:1;"
          offset="1"
          id="stop3952"
      />
    </linearGradient
    >
    <linearGradient
        id="linearGradient3937"
      >
      <stop
          id="stop3939"
          offset="0"
          style="stop-color:#ac2500;stop-opacity:1;"
      />
      <stop
          style="stop-color:#8c1d00;stop-opacity:1;"
          offset="0.7717784"
          id="stop3941"
      />
      <stop
          id="stop3943"
          offset="0.86162198"
          style="stop-color:#ff5223;stop-opacity:1;"
      />
      <stop
          id="stop3945"
          offset="1"
          style="stop-color:#ff9e84;stop-opacity:1;"
      />
    </linearGradient
    >
    <linearGradient
        id="linearGradient3917"
      >
      <stop
          style="stop-color:#ac2500;stop-opacity:1;"
          offset="0"
          id="stop3919"
      />
      <stop
          id="stop3925"
          offset="0.83548439"
          style="stop-color:#8c1d00;stop-opacity:1;"
      />
      <stop
          style="stop-color:#ff5223;stop-opacity:1;"
          offset="0.92374724"
          id="stop3927"
      />
      <stop
          style="stop-color:#ff9e84;stop-opacity:1;"
          offset="1"
          id="stop3921"
      />
    </linearGradient
    >
    <linearGradient
        id="linearGradient3880"
      >
      <stop
          style="stop-color:#e7e7e7;stop-opacity:1;"
          offset="0"
          id="stop3882"
      />
      <stop
          style="stop-color:#ffffff;stop-opacity:1;"
          offset="1"
          id="stop3884"
      />
    </linearGradient
    >
    <linearGradient
        id="linearGradient3872"
      >
      <stop
          style="stop-color:#e2e2e2;stop-opacity:1;"
          offset="0"
          id="stop3874"
      />
      <stop
          style="stop-color:#333333;stop-opacity:1;"
          offset="1"
          id="stop3876"
      />
    </linearGradient
    >
    <linearGradient
        inkscape:collect="always"
        xlink:href="#linearGradient3872"
        id="linearGradient3878"
        x1="730.72931"
        y1="1202.2925"
        x2="730.63684"
        y2="1209.0294"
        gradientUnits="userSpaceOnUse"
    />
    <linearGradient
        inkscape:collect="always"
        xlink:href="#linearGradient3880"
        id="linearGradient3886"
        x1="727.24573"
        y1="1202.3407"
        x2="728.49811"
        y2="1187.5923"
        gradientUnits="userSpaceOnUse"
    />
    <linearGradient
        inkscape:collect="always"
        xlink:href="#linearGradient3917"
        id="linearGradient3923"
        x1="3384.3354"
        y1="557.9599"
        x2="3365.4341"
        y2="507.63327"
        gradientUnits="userSpaceOnUse"
    />
    <linearGradient
        inkscape:collect="always"
        xlink:href="#linearGradient3937"
        id="linearGradient3935"
        x1="3515.1951"
        y1="502.4808"
        x2="3500.8159"
        y2="461.02124"
        gradientUnits="userSpaceOnUse"
    />
    <linearGradient
        inkscape:collect="always"
        xlink:href="#linearGradient3948-7"
        id="linearGradient3954-7"
        x1="2481.6165"
        y1="778.50256"
        x2="2516.2058"
        y2="886.98755"
        gradientUnits="userSpaceOnUse"
    />
    <linearGradient
        id="linearGradient3948-7"
      >
      <stop
          style="stop-color:#ffffff;stop-opacity:1;"
          offset="0"
          id="stop3950-7"
      />
      <stop
          id="stop3956-9"
          offset="0.32499984"
          style="stop-color:#666a6d;stop-opacity:1;"
      />
      <stop
          style="stop-color:#161e23;stop-opacity:1;"
          offset="1"
          id="stop3952-0"
      />
    </linearGradient
    >
    <linearGradient
        inkscape:collect="always"
        xlink:href="#linearGradient3948"
        id="linearGradient4018"
        gradientUnits="userSpaceOnUse"
        x1="3418.6765"
        y1="476.63089"
        x2="3453.2659"
        y2="580.39911"
    />
    <linearGradient
        inkscape:collect="always"
        xlink:href="#linearGradient3948-7"
        id="linearGradient4026"
        gradientUnits="userSpaceOnUse"
        x1="2481.6165"
        y1="778.50256"
        x2="2520.9226"
        y2="893.27655"
    />
    <linearGradient
        inkscape:collect="always"
        xlink:href="#linearGradient4180"
        id="linearGradient4186"
        x1="2307.4792"
        y1="1235.3889"
        x2="2307.7495"
        y2="1240.3719"
        gradientUnits="userSpaceOnUse"
    />
    <radialGradient
        inkscape:collect="always"
        xlink:href="#linearGradient4209"
        id="radialGradient4215"
        cx="703.22949"
        cy="704.40588"
        fx="703.22949"
        fy="704.40588"
        r="20.771688"
        gradientTransform="matrix(1.1746304,-0.01372436,0.00398911,0.34141739,-125.65628,472.28336)"
        gradientUnits="userSpaceOnUse"
    />
    <radialGradient
        inkscape:collect="always"
        xlink:href="#linearGradient4217"
        id="radialGradient4223"
        cx="694.71387"
        cy="699.28186"
        fx="694.71387"
        fy="699.28186"
        r="21.070164"
        gradientTransform="matrix(2.3161359,-0.01657793,6.6090381e-4,0.09233621,-914.80002,646.22972)"
        gradientUnits="userSpaceOnUse"
    />
    <linearGradient
        inkscape:collect="always"
        xlink:href="#linearGradient4233"
        id="linearGradient4239"
        x1="985.10571"
        y1="1171.6741"
        x2="808.70471"
        y2="1207.7529"
        gradientUnits="userSpaceOnUse"
    />
    <linearGradient
        inkscape:collect="always"
        xlink:href="#linearGradient4233"
        id="linearGradient4247"
        x1="-712.26074"
        y1="621.28809"
        x2="-837.02277"
        y2="682.15405"
        gradientUnits="userSpaceOnUse"
    />
    <linearGradient
        inkscape:collect="always"
        xlink:href="#linearGradient4309"
        id="linearGradient4315"
        x1="2386.3135"
        y1="1085.4209"
        x2="2245.4602"
        y2="1055.082"
        gradientUnits="userSpaceOnUse"
    />
    <linearGradient
        inkscape:collect="always"
        xlink:href="#linearGradient4337"
        id="linearGradient4343"
        x1="-397.71259"
        y1="952.05371"
        x2="-399.96201"
        y2="865.45105"
        gradientUnits="userSpaceOnUse"
        gradientTransform="translate(29.408072,-159.25394)"
    />
    <linearGradient
        inkscape:collect="always"
        xlink:href="#linearGradient4345"
        id="linearGradient4351"
        x1="547.83398"
        y1="779.92798"
        x2="-672.4762"
        y2="586.47784"
        gradientUnits="userSpaceOnUse"
    />
    <radialGradient
        inkscape:collect="always"
        xlink:href="#linearGradient4355"
        id="radialGradient4365"
        cx="974.21259"
        cy="1267.479"
        fx="974.21259"
        fy="1267.479"
        r="28.313402"
        gradientTransform="matrix(1.3463371,0.00373505,-0.00263504,0.90695216,-334.07074,116.04426)"
        gradientUnits="userSpaceOnUse"
    />
    <radialGradient
        inkscape:collect="always"
        xlink:href="#linearGradient3856"
        id="radialGradient3862"
        cx="1291.6259"
        cy="1242.3309"
        fx="1291.6259"
        fy="1242.3309"
        r="188.94965"
        gradientTransform="matrix(1,0,0,0.2686567,0,908.5704)"
        gradientUnits="userSpaceOnUse"
    />
    <linearGradient
        inkscape:collect="always"
        xlink:href="#linearGradient4337-8"
        id="linearGradient4343-9"
        x1="-397.71259"
        y1="952.05371"
        x2="-399.96201"
        y2="865.45105"
        gradientUnits="userSpaceOnUse"
        gradientTransform="translate(29.408072,-159.25394)"
    />
    <linearGradient
        inkscape:collect="always"
        id="linearGradient4337-8"
      >
      <stop
          style="stop-color:#454230;stop-opacity:1;"
          offset="0"
          id="stop4339-0"
      />
      <stop
          style="stop-color:#454230;stop-opacity:0;"
          offset="1"
          id="stop4341-8"
      />
    </linearGradient
    >
    <radialGradient
        inkscape:collect="always"
        xlink:href="#linearGradient3856"
        id="radialGradient3903"
        cx="505.36804"
        cy="712.79297"
        fx="505.36804"
        fy="712.79297"
        r="379.79691"
        gradientTransform="matrix(-1.6933483,-0.12334279,0.00521081,-0.07153819,1305.4348,799.87684)"
        gradientUnits="userSpaceOnUse"
    />
    <linearGradient
        inkscape:collect="always"
        xlink:href="#linearGradient3918"
        id="linearGradient3916"
        x1="668.27808"
        y1="699.10999"
        x2="611.56445"
        y2="760.32001"
        gradientUnits="userSpaceOnUse"
    />
    <linearGradient
        inkscape:collect="always"
        xlink:href="#linearGradient3942"
        id="linearGradient3940"
        x1="771.75922"
        y1="1208.3743"
        x2="776.13574"
        y2="1256.3708"
        gradientUnits="userSpaceOnUse"
    />
    <linearGradient
        inkscape:collect="always"
        xlink:href="#linearGradient3948-7-6"
        id="linearGradient4026-7"
        gradientUnits="userSpaceOnUse"
        x1="2481.6165"
        y1="778.50256"
        x2="2520.9226"
        y2="893.27655"
    />
    <linearGradient
        id="linearGradient3948-7-6"
      >
      <stop
          style="stop-color:#ffffff;stop-opacity:1;"
          offset="0"
          id="stop3950-7-1"
      />
      <stop
          id="stop3956-9-7"
          offset="0.32499984"
          style="stop-color:#666a6d;stop-opacity:1;"
      />
      <stop
          style="stop-color:#161e23;stop-opacity:1;"
          offset="1"
          id="stop3952-0-0"
      />
    </linearGradient
    >
    <radialGradient
        inkscape:collect="always"
        xlink:href="#linearGradient3995"
        id="radialGradient3993"
        cx="2312.5571"
        cy="311.04071"
        fx="2312.5571"
        fy="311.04071"
        r="899.54443"
        gradientTransform="matrix(1.3514126,-0.44528302,0.10475405,0.31792352,-725.43224,1706.3868)"
        gradientUnits="userSpaceOnUse"
    />
    <linearGradient
        inkscape:collect="always"
        xlink:href="#linearGradient4032"
        id="linearGradient4030"
        gradientUnits="userSpaceOnUse"
        x1="2389.5874"
        y1="933.42297"
        x2="2387.9753"
        y2="925.7641"
    />
    <linearGradient
        inkscape:collect="always"
        xlink:href="#linearGradient4048"
        id="linearGradient4046"
        x1="2443.3911"
        y1="923.54706"
        x2="2441.9907"
        y2="916.69427"
        gradientUnits="userSpaceOnUse"
    />
    <linearGradient
        inkscape:collect="always"
        xlink:href="#linearGradient3995"
        id="linearGradient4098"
        x1="2206.4827"
        y1="965.72119"
        x2="2423.5452"
        y2="949.59711"
        gradientUnits="userSpaceOnUse"
    />
    <linearGradient
        inkscape:collect="always"
        xlink:href="#linearGradient3995"
        id="linearGradient4106"
        x1="2460.0337"
        y1="910.8493"
        x2="2462.2429"
        y2="926.97339"
        gradientUnits="userSpaceOnUse"
    />
  </defs
  >
  <sodipodi:namedview
      id="base"
      pagecolor="#3eb0ce"
      bordercolor="#666666"
      borderopacity="1.0"
      inkscape:pageopacity="0"
      inkscape:pageshadow="2"
      inkscape:zoom="0.46186273"
      inkscape:cx="1329.7784"
      inkscape:cy="461.06265"
      inkscape:document-units="px"
      inkscape:current-layer="layer3"
      showgrid="false"
      fit-margin-top="5"
      fit-margin-left="5"
      fit-margin-right="5"
      fit-margin-bottom="5"
      inkscape:window-width="1920"
      inkscape:window-height="1028"
      inkscape:window-x="1916"
      inkscape:window-y="-4"
      inkscape:window-maximized="1"
  />
  <g
      inkscape:groupmode="layer"
      id="layer3"
      inkscape:label="rwing"
      style="display:inline"
      sodipodi:insensitive="true"
      transform="translate(-653.60195,-417.28033)"
    >
    <path
        style="fill:url(#linearGradient3878);fill-opacity:1;stroke:none"
        d="m 793.31821,1201.1089 0.9104,7.8294 -98.8689,-1.6388 c -9.78066,-0.5662 -25.25697,-5.4471 -29.67888,-10.9247 z"
        id="path3867"
        inkscape:connector-curvature="0"
        sodipodi:nodetypes="ccccc"
    />
    <path
        style="fill:url(#linearGradient3886);fill-opacity:1;stroke:none"
        d="m 793.50029,1200.9268 c -41.10942,0.5834 -75.56634,2.2215 -117.63206,0.8165 -0.8436,-0.028 -3.69312,-1.15 -4.54295,-1.1807 l -12.38138,-8.5577 c -1.75673,-5.3083 3.64322,-5.249 7.36467,-6.4486 l 21.76797,-2.8374 13.97514,9.3092 c 2.79607,2.0099 11.47323,0.7248 20.61988,0.7051 l 92.86029,-4.5519 z"
        id="path3865"
        inkscape:connector-curvature="0"
        sodipodi:nodetypes="cscccccccc"
    />
    <path
        style="fill:#f59c77;fill-opacity:1;stroke:none"
        inkscape:transform-center-x="4.734054"
        d="m 659.3142,1191.992 31.64408,-7.4047 4.94748,3.2487 -31.64411,7.5867 z"
        id="rect3888"
        inkscape:connector-curvature="0"
        sodipodi:nodetypes="ccccc"
    />
    <path
        style="fill:#f59c77;fill-opacity:1;stroke:none"
        inkscape:transform-center-x="4.8282783"
        d="m 665.77503,1196.8476 32.27392,-7.5292 5.04596,3.3033 -32.27396,7.7142 z"
        id="rect3888-7"
        inkscape:connector-curvature="0"
        sodipodi:nodetypes="ccccc"
        inkscape:transform-center-y="-1.0499194e-05"
    />
  </g
  >
  <g
      inkscape:groupmode="layer"
      id="layer6"
      inkscape:label="cockpit"
      style="display:inline"
      transform="translate(-653.60195,-417.28033)"
    >
    <path
        style="fill:#4f7595;fill-opacity:0.60194176;stroke:none"
        d="m 929.51259,1122.5027 c 148.29481,-51.802 309.93321,-80.1394 489.40251,-58.6813 l 32.2747,35.7956 -60.4418,76.2857 -407.24856,1.7605 z"
        id="path4109"
        inkscape:connector-curvature="0"
        sodipodi:nodetypes="cccccc"
    />
    <path
        style="fill:#3b5870;fill-opacity:1;stroke:none"
        d="m 1347.9106,1155.3643 c 26.797,-47.3259 54.863,-109.5632 75.699,-86.8484 l 18.5988,26.9615 -10.9703,70.4495 z"
        id="path4115"
        inkscape:connector-curvature="0"
        sodipodi:nodetypes="ccccc"
    />
    <path
        style="fill:none;stroke:#263949;stroke-width:1.60000002;stroke-linecap:butt;stroke-linejoin:miter;stroke-miterlimit:4;stroke-opacity:1;stroke-dasharray:none"
        d="m 1423.6096,1067.9291 c -299.4557,-8.3425 -386.1651,30.0546 -485.2948,65.7231"
        id="path4123"
        inkscape:connector-curvature="0"
        sodipodi:nodetypes="cc"
    />
    <path
        style="fill:#3b5870;fill-opacity:1;stroke:none"
        d="m 1017.5346,1175.3159 c -6.863,-20.3358 -3.1323,-58.5875 -28.16703,-55.1604 l -56.3341,5.8681 61.61542,51.6396 z"
        id="path4113"
        inkscape:connector-curvature="0"
        sodipodi:nodetypes="ccccc"
    />
    <path
        style="fill:none;stroke:#263949;stroke-width:1.60000002;stroke-linecap:butt;stroke-linejoin:miter;stroke-miterlimit:4;stroke-opacity:1;stroke-dasharray:none"
        d="m 1242.2842,1072.6236 -20.5385,94.4769"
        id="path4117"
        inkscape:connector-curvature="0"
    />
    <path
        style="fill:none;stroke:#263949;stroke-width:1.60000002;stroke-linecap:butt;stroke-linejoin:miter;stroke-miterlimit:4;stroke-opacity:1;stroke-dasharray:none"
        d="m 1222.9193,1069.6895 -34.0351,96.2374"
        id="path4119"
        inkscape:connector-curvature="0"
    />
    <path
        style="fill:none;stroke:#263949;stroke-width:1.60000002;stroke-linecap:butt;stroke-linejoin:miter;stroke-miterlimit:4;stroke-opacity:1;stroke-dasharray:none"
        d="m 947.117,1135.9994 c 138.3649,-59.3501 303.6785,-70.4172 479.4266,-62.789"
        id="path4121"
        inkscape:connector-curvature="0"
        sodipodi:nodetypes="cc"
    />
    <path
        style="fill:#3b5870;fill-opacity:1;stroke:none"
        d="m 1192.9919,1153.6038 c -10.6834,-10.7281 -13.9439,-23.3119 -5.8682,-38.7297 4.9411,-25.8116 18.7239,-16.2561 29.3407,-19.3648 11.9671,0.1069 7.9424,10.875 6.4549,19.9516 -1.5904,15.0135 12.6985,6.9253 28.285,2.0784 l -1.6297,-7.1468 12.6124,-2.4157 0.9918,5.8388 c 5.459,-1.3562 8.5572,-2.899 12.5538,-0.7019 3.0577,0.7968 -1.1737,25.8198 -1.7605,38.7297 z"
        id="path4111"
        inkscape:connector-curvature="0"
        sodipodi:nodetypes="ccccscccccc"
    />
  </g
  >
  <g
      inkscape:label="body"
      inkscape:groupmode="layer"
      id="layer1"
      transform="translate(983.54085,92.357491)"
      style="display:inline"
    >
    <path
        sodipodi:type="arc"
        style="fill:url(#radialGradient4365);fill-opacity:1;stroke:none"
        id="path4353"
        sodipodi:cx="966.85999"
        sodipodi:cy="1273.2148"
        sodipodi:rx="27.813402"
        sodipodi:ry="20.928898"
        d="m 994.67339,1273.2148 c 0,11.5588 -12.45249,20.9289 -27.8134,20.9289 -15.36092,0 -27.81341,-9.3701 -27.81341,-20.9289 0,-11.5587 12.45249,-20.9289 27.81341,-20.9289 15.36091,0 27.8134,9.3702 27.8134,20.9289 z"
        transform="matrix(1.011875,0,0,1.0355182,-1642.2907,-554.17164)"
    />
    <path
        transform="translate(-1637.1428,-509.63782)"
        style="fill:#10150e;fill-opacity:1;stroke:none"
        d="m 1361.679,1286.666 26.8077,-0.7344 -11.0168,23.8698 -28.6438,2.2033 z"
        id="rect4230"
        inkscape:connector-curvature="0"
        sodipodi:nodetypes="ccccc"
    />
    <path
        sodipodi:type="arc"
        style="fill:#090708;fill-opacity:1;stroke:none"
        id="path4228"
        sodipodi:cx="1409.4187"
        sodipodi:cy="1305.2111"
        sodipodi:rx="40.027782"
        sodipodi:ry="29.194576"
        d="m 1449.4465,1305.2111 c 0,16.1237 -17.9211,29.1945 -40.0278,29.1945 -22.1067,0 -40.0278,-13.0708 -40.0278,-29.1945 0,-16.1238 17.9211,-29.1946 40.0278,-29.1946 22.1067,0 40.0278,13.0708 40.0278,29.1946 z"
        transform="translate(-1637.1428,-509.63782)"
    />
    <path
        style="fill:url(#linearGradient4315);fill-opacity:1;stroke:none"
        d="m 2269.0938,950.0625 -57.7931,247.5793 c 22.8519,50.4676 71.3202,38.0396 121.5729,39.5773 l 70.7826,-13.0941 -25.5312,-267 z"
        transform="translate(-1637.1428,-509.63782)"
        id="path4249"
        inkscape:connector-curvature="0"
        sodipodi:nodetypes="cccccc"
    />
    <path
        style="fill:url(#linearGradient4351);fill-opacity:1;stroke:none"
        d="m -705.71903,611.66778 c 24.93835,2.2854 53.14432,24.1766 81.47929,46.8418 124.7126,-17.5795 255.43,-26.1519 394.0073,-22.9344 l 12.7065,-8.2131 c 1.4054,-30.9533 9.6084,-69.4018 -5.2125,-74.3931 102.302,25.682 208.022103,63.1188 334.9537,88.9325 137.9771,28.06 299.3646,37.065 462.8281,46.1984 49.70405,-2.62914 79.07577,14.14638 119.6276,38.7849 l -49.4389,3.4206 c -260.1677,4.1403 -482.9136,3.8241 -719.143197,29.2563 -74.796503,8.0525 -111.153403,10.7036 -256.323203,22.2022 -145.1699,11.4986 -387.78613,-19.4405 -534.40992,-58.2906 5.4813,-8.6867 0.72259,-22.8871 -3.0314,-24.8069 z"
        id="path3836"
        inkscape:connector-curvature="0"
        sodipodi:nodetypes="cccccscccszccc"
    />
    <path
        style="fill:url(#linearGradient4343);fill-opacity:1;stroke:none;display:inline"
        d="m -705.21908,612.16778 c 24.9384,2.2854 53.1443,24.1766 81.4793,46.8418 124.7126,-17.5795 255.43,-26.1519 394.00732,-22.9344 l 12.7065,-8.2131 c 1.4054,-30.9533 9.6084,-69.4018 -5.2125,-74.3931 102.302,25.682 208.022106,63.1188 334.95371,88.9325 137.97708,28.06 299.36457,37.065 462.82807,46.1984 49.7041,-2.62914 79.0758,14.14638 119.6276,38.7849 l -49.4389,3.4206 c -260.1677,4.1403 -482.91359,3.8241 -719.143178,29.2563 -74.796502,8.0525 -111.153402,10.7036 -256.323222,22.2022 -145.1699,11.4986 -387.7861,-19.4405 -534.40988,-58.2906 5.4813,-8.6867 0.7226,-22.8871 -3.0314,-24.8069 z"
        id="path3836-0"
        inkscape:connector-curvature="0"
        sodipodi:nodetypes="cccccscccszccc"
    />
    <path
        sodipodi:type="arc"
        style="fill:url(#linearGradient3940);fill-opacity:1;stroke:none"
        id="path3844"
        sodipodi:cx="776.29382"
        sodipodi:cy="1221.6838"
        sodipodi:rx="13.200727"
        sodipodi:ry="12.563451"
        d="m 789.49455,1221.6838 c 0,6.9386 -5.91017,12.5635 -13.20073,12.5635 -7.29056,0 -13.20072,-5.6249 -13.20072,-12.5635 0,-6.9386 5.91016,-12.5634 13.20072,-12.5634 7.29056,0 13.20073,5.6248 13.20073,12.5634 z"
        transform="matrix(0.33950992,-0.08983859,0.11441512,0.97291944,-1269.0674,-407.75422)"
    />
    <path
        transform="translate(-1637.1428,-509.63782)"
        style="fill:#ff5832;fill-opacity:1;stroke:none"
        d="m 2367.9548,975.70008 11.636,1.79737 22.1676,228.49895 -12.8343,1.1982 z"
        id="rect4028"
        inkscape:connector-curvature="0"
        sodipodi:nodetypes="ccccc"
    />
    <g
        transform="matrix(1.2772614,0,0.1643676,2.3971246,-2469.7602,-1992.8763)"
        style="font-size:40px;font-style:normal;font-weight:normal;line-height:125%;letter-spacing:0px;word-spacing:0px;fill:#1772b9;fill-opacity:1;stroke:none;font-family:Sans"
        id="text4043"
      >
      <path
          d="m 2307.3847,1077.3308 0.1287,3.3203 -15.8718,-0.2741 -0.1995,9.1811 10.1654,-0.068 -0.079,3.9372 -10.1125,-0.3427 -0.099,9.3329 15.8198,0.4112 -0.4969,3.1832 -21.8319,-0.3427 0.3687,-29.0233 z"
          id="path4048"
          inkscape:connector-curvature="0"
          sodipodi:nodetypes="ccccccccccccc"
          style="fill:#1772b9;fill-opacity:1;stroke:none"
      />
      <path
          d="m 2314.2421,1077.4679 5.7372,0.068 -0.097,12.707 8.2552,0.2746 0.7314,-12.6383 5.9856,0.137 -2.3998,28.8175 -5.4623,-0.206 0.7152,-12.4475 -7.8694,-0.2742 -0.724,12.5161 -5.8747,0 z"
          id="path4050"
          inkscape:connector-curvature="0"
          sodipodi:nodetypes="ccccccccccccc"
          style="fill:#1772b9;fill-opacity:1;stroke:none"
      />
    </g
    >
    <path
        style="fill:#000000;stroke:#000000;stroke-width:0.94540322"
        d="m 660.3017,732.80451 c -0.1996,0.6234 -0.3126,0.037 -0.3126,0.7039 10e-5,4.7332 5.2959,8.5624 11.8438,8.5624 6.5479,0 11.875,-3.8292 11.875,-8.5624 0,-0.6673 -0.5483,-0.5159 -0.7479,-1.1393 z"
        id="path4173"
        inkscape:connector-curvature="0"
        sodipodi:nodetypes="ccsscc"
    />
    <path
        transform="translate(-1637.1428,-509.63782)"
        style="fill:url(#linearGradient4186);fill-opacity:1;stroke:none"
        d="m 2280.9636,1235.334 54.2147,-1.9714 -12.4858,9.2287 -27.4087,0.8022 z"
        id="rect4169"
        inkscape:connector-curvature="0"
        sodipodi:nodetypes="ccccc"
    />
    <path
        inkscape:connector-curvature="0"
        style="fill:url(#radialGradient4215);fill-opacity:1;stroke:none;display:inline"
        d="m 675.14961,699.65489 39.63648,-0.79827 c 3.53694,1.23059 1.76606,6.27197 -4.93476,8.68804 -5.07918,0.0265 -16.22256,-0.71211 -34.70172,-7.88977 z"
        id="rect4171-3"
        sodipodi:nodetypes="cccc"
    />
    <rect
        style="fill:url(#radialGradient4223);fill-opacity:1;stroke:none"
        id="rect4207"
        width="42.015327"
        height="5.5089726"
        x="673.70618"
        y="696.52734"
        ry="2.4669456"
    />
    <path
        transform="translate(-1637.1428,-509.63782)"
        style="fill:#8198a5;fill-opacity:1;stroke:none"
        d="m 1386.6506,1285.9316 124.4901,-12.4857 13.9546,18.7286 -126.6935,13.2202 z"
        id="rect4225"
        inkscape:connector-curvature="0"
        sodipodi:nodetypes="ccccc"
    />
    <path
        style="fill:url(#radialGradient3903);fill-opacity:1;stroke:none;display:inline"
        d="m -63.42288,597.69441 0,161 c 232.5344,-24.3637 452.6565,-24.168 709.1563,-28.25 l 49.4375,-3.4062 c -40.5518,-24.6385 -69.9209,-41.4104 -119.625,-38.7812 -163.4635,-9.1334 -324.8354,-18.1276 -462.8125,-46.1876 -63.2517,-12.8633 -121.2371,-28.632 -176.1563,-44.375 z"
        id="path3836-0-0"
        inkscape:connector-curvature="0"
    />
    <g
        transform="matrix(0.9047934,0.03158715,-0.02588001,1.1043212,0,0)"
        style="font-size:42.13792419px;font-style:normal;font-weight:normal;line-height:125%;letter-spacing:0px;word-spacing:0px;fill:#378ec3;fill-opacity:1;stroke:none;font-family:Sans"
        id="text4290"
      >
      <path
          d="m 273.47737,619.00298 5.89655,-0.34422 c 4.00639,-0.23231 5.1527,-3.56545 5.1772,-5.56263 -0.81341,-5.06255 -4.08169,-6.54665 -9.99402,-6.59763 l -3.67071,-0.0632 c 1.60957,4.16263 2.18662,7.26581 2.59098,12.56765 z m 1.07973,-16.34689 c 9.79597,0.26302 13.90484,3.416 14.10889,11.2654 0.27772,5.41924 -3.91382,8.80126 -7.89478,8.53971 l -7.27337,0.15446 c -0.71896,5.25366 0.13888,9.37289 -2.55969,16.3454 l -4.67571,0 c 2.25229,-10.03212 5.74808,-19.20805 -2.2604,-36.30497 z"
          style="font-size:47.40516281px;font-variant:normal;font-stretch:normal;fill:#378ec3;fill-opacity:1;stroke:none;font-family:Sans;-inkscape-font-specification:Adobe Helvetica"
          id="path4295"
          inkscape:connector-curvature="0"
          sodipodi:nodetypes="cccccccccccccc"
      />
      <path
          d="m 296.88078,603.10388 c 4.06075,2.95433 5.19063,9.01646 6.04764,15.36793 l 11.9597,0.14388 c -1.49331,-7.35723 -3.8079,-11.30318 -5.92756,-16.05883 l 4.6757,0 c 6.8058,8.82141 6.05818,22.66369 5.36864,36.46737 l -4.6757,0 c 0.35818,-4.70111 1.00234,-8.08767 0.55892,-16.47354 l -11.9597,-0.14388 c 0.85583,8.13411 -0.011,12.8218 -1.10146,17.06194 l -4.6757,0 c 2.60495,-16.29352 0.7912,-28.2533 -4.94618,-36.36487 z"
          style="font-size:47.40516281px;font-variant:normal;font-stretch:normal;fill:#378ec3;fill-opacity:1;stroke:none;font-family:Sans;-inkscape-font-specification:Adobe Helvetica"
          id="path4297"
          inkscape:connector-curvature="0"
          sodipodi:nodetypes="ccccccccccccc"
      />
      <path
          d="m 349.29054,616.95597 0,3.79611 -22.12738,-0.0677 0,-3.79611 z"
          style="font-size:47.40516281px;font-variant:normal;font-stretch:normal;fill:#378ec3;fill-opacity:1;stroke:none;font-family:Sans;-inkscape-font-specification:Adobe Helvetica"
          id="path4299"
          inkscape:connector-curvature="0"
          sodipodi:nodetypes="ccccc"
      />
      <path
          d="m 363.72167,610.40317 -2.48524,-0.29113 -5.06042,4.22739 -2.14832,-6.03083 5.27025,-3.64335 4.95188,-0.12248 c 9.7611,9.98426 5.64333,26.67387 5.56551,35.41988 l -6.23413,0.27135 c 2.37191,-9.53975 2.64934,-18.90576 0.14047,-29.83083 z"
          style="font-size:47.40516281px;font-variant:normal;font-stretch:normal;fill:#378ec3;fill-opacity:1;stroke:none;font-family:Sans;-inkscape-font-specification:Adobe Helvetica"
          id="path4301"
          inkscape:connector-curvature="0"
          sodipodi:nodetypes="ccccccccc"
      />
      <path
          d="m 382.64229,621.32587 c 0.15064,4.43766 -1.2637,14.47314 5.60512,14.60293 7.55961,-1.51545 6.71078,-9.83315 6.733,-14.31156 -0.15106,-4.44098 -2.45582,-11.66284 -9.48609,-12.05234 -7.03028,-0.38949 -2.83017,7.27972 -2.85203,11.76097 z m 16.46147,0.53632 c -0.0161,7.03539 -1.20751,17.62353 -10.85635,17.77014 -10.93493,-0.94815 -9.96912,-11.58287 -10.01142,-17.85652 0.008,-7.03829 -5.04165,-16.55072 4.62176,-16.69835 10.91378,0.96404 16.20354,10.52215 16.24601,16.78473 z"
          style="font-size:47.40516281px;font-variant:normal;font-stretch:normal;fill:#378ec3;fill-opacity:1;stroke:none;font-family:Sans;-inkscape-font-specification:Adobe Helvetica"
          id="path4303"
          inkscape:connector-curvature="0"
          sodipodi:nodetypes="ccczcccccc"
      />
      <path
          d="m 410.6136,630.78287 c 0.005,3.79413 1.53365,5.60564 6.2007,5.66703 10.17478,-2.06101 6.25412,-12.11624 0.52397,-12.45889 -5.33864,0.47693 -6.69273,3.38649 -6.72467,6.79186 z m 10.1151,-17.81841 c -1.7196,-2.06913 -4.34699,-4.46086 -6.76555,-4.47245 -6.00278,0.38805 -2.56849,8.09465 -2.86109,12.82694 1.81223,-2.4765 3.64641,-2.04637 6.9037,-2.0738 8.17364,0.30539 8.92169,5.33676 8.97777,10.56333 -0.0411,6.11431 -5.04908,11.11884 -12.10251,11.20228 -11.10773,-0.8835 -8.926,-11.15376 -8.97079,-17.5538 0.038,-7.90538 -1.33859,-17.89885 5.09282,-18.13312 6.43141,-0.23428 13.06809,4.63257 13.75595,7.39104 z"
          style="font-size:47.40516281px;font-variant:normal;font-stretch:normal;fill:#378ec3;fill-opacity:1;stroke:none;font-family:Sans;-inkscape-font-specification:Adobe Helvetica"
          id="path4305"
          inkscape:connector-curvature="0"
          sodipodi:nodetypes="ccccccccccczcc"
      />
      <path
          d="m 449.09317,605.73583 c 2.48887,1.62021 2.64656,5.91674 2.55549,8.21926 -2.69891,9.74417 -5.293,17.30839 -13.11879,27.1992 l -6.69723,0.16644 c 7.07572,-9.54109 13.01198,-19.43065 13.75465,-30.90847 l -13.79204,0.26351 -1.97585,-4.56595 z"
          style="font-size:47.40516281px;font-variant:normal;font-stretch:normal;fill:#378ec3;fill-opacity:1;stroke:none;font-family:Sans;-inkscape-font-specification:Adobe Helvetica"
          id="path4307"
          inkscape:connector-curvature="0"
          sodipodi:nodetypes="cccccccc"
      />
    </g
    >
    <path
        sodipodi:type="arc"
        style="fill:url(#radialGradient3862);fill-opacity:1;stroke:none"
        id="path3086"
        sodipodi:cx="1291.6259"
        sodipodi:cy="1242.3309"
        sodipodi:rx="188.94965"
        sodipodi:ry="50.762589"
        d="m 1480.5755,1242.3309 c 0,28.0354 -84.5956,50.7626 -188.9496,50.7626 -104.3541,0 -188.9497,-22.7272 -188.9497,-50.7626 0,-28.0354 84.5956,-50.7626 188.9497,-50.7626 104.354,0 188.9496,22.7272 188.9496,50.7626 z"
        transform="matrix(2.0149253,0,0,1,-2947.2265,-552.76012)"
    />
    <path
        transform="translate(-1637.1428,-509.63782)"
        style="fill:url(#linearGradient4239);fill-opacity:1;stroke:none"
        d="m 810.60858,1202.9252 139.47286,-50.852 c 7.86613,-2.5008 8.99214,-1.2103 11.25574,-0.5597 l 35.26958,25.0585 c 1.0426,5.9958 1.15912,11.4128 -5.52417,12.58 l -180.10679,21.6664 c -5.13325,0.4165 -6.03978,-5.9193 -0.36722,-7.8932 z"
        id="rect4036"
        inkscape:connector-curvature="0"
        sodipodi:nodetypes="ccccccc"
    />
    <path
        style="fill:url(#linearGradient4247);fill-opacity:1;stroke:none"
        d="m -837.34836,682.4765 120.6626,-64.81574 c 7.98379,2.1191 13.69178,5.50617 3.67242,9.20892 -44.46251,20.6735 -79.77183,35.15112 -124.33502,55.60682 z"
        id="rect4038"
        inkscape:connector-curvature="0"
        sodipodi:nodetypes="cccc"
    />
    <path
        style="fill:url(#linearGradient3916);fill-opacity:1;stroke:none"
        d="m 563.79065,687.72205 20.56882,-1.38691 13.65972,-5.1414 c 15.36473,-5.03066 52.11577,2.51483 64.22448,13.4595 l 34.30089,32.70322 -44.44939,3.43788 -81.46696,1.75168 z"
        id="rect3907"
        inkscape:connector-curvature="0"
        sodipodi:nodetypes="cccccccc"
    />
    <path
        style="fill:none;stroke:#000000;stroke-width:0.55000001;stroke-linecap:butt;stroke-linejoin:miter;stroke-miterlimit:4;stroke-opacity:0.53398061;stroke-dasharray:none;display:inline"
        d="m 1422.3751,1064.106 c 11.4781,10.804 2.8942,49.5394 3.8771,74.7744 l -18.832,12.1854 c -127.8471,-2.2031 -259.8726,5.3433 -396.5813,23.8171 -23.37476,-19.6132 -45.32865,-36.2704 -85.29811,-49.8497"
        id="path4125"
        inkscape:connector-curvature="0"
        transform="translate(-1637.1428,-509.63782)"
        sodipodi:nodetypes="ccccc"
    />
    <path
        style="fill:none;stroke:#5f5f5f;stroke-width:0.5;stroke-linecap:butt;stroke-linejoin:miter;stroke-miterlimit:4;stroke-opacity:0.41262135;stroke-dasharray:none"
        d="m 2347.1179,956.94702 7.0366,288.50318"
        id="path4128"
        inkscape:connector-curvature="0"
        transform="translate(-1637.1428,-509.63782)"
        sodipodi:nodetypes="cc"
    />
  </g
  >
  <g
      inkscape:groupmode="layer"
      id="layer5"
      inkscape:label="stabilo"
      sodipodi:insensitive="true"
      transform="translate(-653.60195,-417.28033)"
    >
    <path
        style="fill:#5c5f5f;fill-opacity:1;stroke:none"
        d="m 2294.4556,960.02774 86.2638,-1.61241 171.7214,-44.3412 c -8.3471,-14.52772 -62.4764,-5.62359 -175.3493,14.91476 l -95.5351,24.18612 z"
        id="path4006"
        inkscape:connector-curvature="0"
        sodipodi:nodetypes="cccccc"
    />
    <path
        style="fill:url(#linearGradient4098);fill-opacity:1;stroke:none"
        d="m 2294.4556,960.02774 86.2638,-1.61241 171.7214,-44.3412 c -8.3471,-14.52772 -62.4764,-5.62359 -175.3493,14.91476 l -95.5351,24.18612 z"
        id="path4006-4"
        inkscape:connector-curvature="0"
        sodipodi:nodetypes="cccccc"
    />
    <path
        style="fill:url(#linearGradient4106);fill-opacity:1;stroke:none"
        d="m 2359.355,923.34547 1.2093,10.88375 c 58.9377,-7.34067 153.0649,-32.94049 191.8765,-20.15509 -8.3471,-14.52772 -62.4764,-5.62359 -175.3493,14.91476 l -28.2171,-27.00781 z"
        id="path4006-5"
        inkscape:connector-curvature="0"
        sodipodi:nodetypes="cccccc"
    />
    <path
        style="fill:url(#linearGradient4030);fill-opacity:1;stroke:none"
        d="m 2375.8822,927.77959 21.3644,-2.82172 c -0.8017,7.18636 5.6038,10.76917 13.3023,13.70547 l -18.5426,3.22481 c -8.4418,-3.37086 -14.1319,-7.51293 -16.1241,-14.10856 z"
        id="rect4008"
        inkscape:connector-curvature="0"
    />
    <path
        style="fill:url(#linearGradient4046);fill-opacity:1;stroke:none"
        d="m 2432.7196,918.91136 19.3489,-2.82171 c -2.4555,5.12213 3.8206,8.10781 7.6589,11.68995 l -22.1706,4.03102 c -2.3938,-3.85324 -9.185,-5.19367 -4.8372,-12.89926 z"
        id="rect4010"
        inkscape:connector-curvature="0"
    />
  </g
  >
  <g
      inkscape:groupmode="layer"
      id="layer4"
      inkscape:label="lwing"
      style="display:inline"
      sodipodi:insensitive="true"
      transform="translate(-653.60195,-417.28033)"
    >
    <path
        style="fill:#59655c;fill-opacity:1;stroke:none;display:inline"
        d="M 1443.0465,1156.2708 C 1951.3565,968.72918 2627.6914,764.69598 3226.857,569.01336 l 350.5285,-126.78568 c 29.978,-7.26596 59.9559,-18.45576 89.9339,-13.00906 3.574,16.76744 -28.3246,27.30318 -45.3462,40.45245 l -346.5468,150.5855 c -524.6761,181.92327 -1047.8928,368.5168 -1579.922,526.91073 -45.4217,13.5228 -57.9686,19.4839 -9.6195,29.0122 -88.8948,-1.4391 -187.1237,3.225 -242.8384,-19.9087 z"
        id="path3838"
        inkscape:connector-curvature="0"
        sodipodi:nodetypes="ccccccscc"
    />
    <path
        style="fill:url(#linearGradient4018);fill-opacity:1;stroke:none;display:inline"
        d="m 3654.3438,422.28125 c -10.3608,-0.0467 -27.9072,1.67604 -56.875,6.75 -119.1876,38.93325 -241.1889,81.65193 -364.0626,125.5 l 5.4063,14.21875 C 3455.9807,498.85829 3620.3232,445.73996 3666,430 c 2.9335,-2.65244 5.6116,-7.64087 -11.6562,-7.71875 z"
        id="path3909"
        inkscape:connector-curvature="0"
    />
    <path
        style="fill:url(#linearGradient3935);fill-opacity:1;stroke:none;display:inline"
        d="m 3452.1669,477.55712 85.3156,-28.75807 c -5.836,3.57592 6.9499,26.28169 13.4204,38.3441 l -85.0759,35.46829 c -7.3613,-13.66159 -20.034,-40.56875 -13.6601,-45.05432 z"
        id="rect3911"
        inkscape:connector-curvature="0"
        sodipodi:nodetypes="ccccc"
    />
    <path
        style="fill:url(#linearGradient3923);fill-opacity:1;stroke:none;display:inline"
        d="m 3317.0038,525.24759 86.7536,-31.63388 c -7.9866,7.42207 7.5854,31.23415 15.098,48.88873 l -80.283,33.79073 c -10.0654,-16.37612 -28.9413,-40.8032 -21.5686,-51.04558 z"
        id="rect3913"
        inkscape:connector-curvature="0"
        sodipodi:nodetypes="ccccc"
    />
    <path
        style="fill:url(#linearGradient4026);fill-opacity:1;stroke:none;display:inline"
        d="m 3233.4062,554.53125 c -2.7428,0.9788 -5.475,1.95759 -8.2187,2.9375 -554.5504,180.10872 -1112.4915,348.36976 -1662.5,544.37505 -49.2492,13.4155 -79.1973,29.205 -118,47.8437 -5.1843,0.9724 -7.3658,7.2106 -1.2813,7.0625 121.8621,-50.9623 1179.8158,-389.8832 1795.4063,-588 l -5.4063,-14.21875 z"
        id="path3909-8"
        inkscape:connector-curvature="0"
    />
    <path
        style="fill:url(#radialGradient3993);fill-opacity:1;stroke:none;display:inline"
        d="m 3233.4062,554.5312 c -2.7428,0.9788 -5.475,1.95759 -8.2187,2.9375 -554.5504,180.10872 -1112.4914,348.36976 -1662.4999,544.3751 -49.2492,13.4155 -79.1973,29.205 -118,47.8437 -5.1843,0.9724 -7.3658,7.2106 -1.2813,7.0625 121.8621,-50.9623 1179.8157,-389.88325 1795.4062,-588.00005 l -5.4063,-14.21875 z"
        id="path3909-8-2"
        inkscape:connector-curvature="0"
    />
  </g
  >
  <metadata
    >
    <rdf:RDF
      >
      <cc:Work
        >
        <dc:format
          >image/svg+xml</dc:format
        >
        <dc:type
            rdf:resource="http://purl.org/dc/dcmitype/StillImage"
        />
        <cc:license
            rdf:resource="http://creativecommons.org/licenses/publicdomain/"
        />
        <dc:publisher
          >
          <cc:Agent
              rdf:about="http://openclipart.org/"
            >
            <dc:title
              >Openclipart</dc:title
            >
          </cc:Agent
          >
        </dc:publisher
        >
        <dc:title
          >Shempp-Hirth Duo Discus</dc:title
        >
        <dc:date
          >2014-07-06T05:23:29</dc:date
        >
        <dc:description
          >The Shempp-Hirth Duo Discus glider plane "EH", owned by Eindhoven Aeroclub (http://www.eaczc.nl).</dc:description
        >
        <dc:source
          >https://openclipart.org/detail/194630/shempp-hirth-duo-discus-by-klaasvangend-194630</dc:source
        >
        <dc:creator
          >
          <cc:Agent
            >
            <dc:title
              >klaasvangend</dc:title
            >
          </cc:Agent
          >
        </dc:creator
        >
        <dc:subject
          >
          <rdf:Bag
            >
            <rdf:li
              >glider plane</rdf:li
            >
            <rdf:li
              >soaring plane</rdf:li
            >
            <rdf:li
              >Shempp-Hirth</rdf:li
            >
            <rdf:li
              >high performance two seat glider</rdf:li
            >
            <rdf:li
              >sail plane</rdf:li
            >
            <rdf:li
              >Dui Discus</rdf:li
            >
          </rdf:Bag
          >
        </dc:subject
        >
      </cc:Work
      >
      <cc:License
          rdf:about="http://creativecommons.org/licenses/publicdomain/"
        >
        <cc:permits
            rdf:resource="http://creativecommons.org/ns#Reproduction"
        />
        <cc:permits
            rdf:resource="http://creativecommons.org/ns#Distribution"
        />
        <cc:permits
            rdf:resource="http://creativecommons.org/ns#DerivativeWorks"
        />
      </cc:License
      >
    </rdf:RDF
    >
  </metadata
  >
</svg
>
