<?xml version="1.0" standalone="no"?>
<!DOCTYPE svg PUBLIC "-//W3C//DTD SVG 20010904//EN"
 "http://www.w3.org/TR/2001/REC-SVG-20010904/DTD/svg10.dtd">
<svg version="1.0" xmlns="http://www.w3.org/2000/svg"
 width="726.000000pt" height="960.000000pt" viewBox="0 0 726.000000 960.000000"
 preserveAspectRatio="xMidYMid meet">
<metadata>
Created by potrace 1.12, written by Peter Selinger 2001-2015
</metadata>
<g transform="translate(0.000000,960.000000) scale(0.100000,-0.100000)"
fill="#000000" stroke="none">
<path d="M3275 9442 c-3 -9 -21 -11 -59 -9 -41 3 -56 0 -60 -10 -4 -10 -18
-14 -45 -12 -22 2 -46 -3 -55 -10 -10 -8 -28 -11 -45 -8 -21 5 -31 2 -35 -10
-5 -12 -16 -14 -50 -10 -34 5 -45 3 -50 -9 -4 -10 -16 -14 -35 -12 -16 1 -36
-4 -45 -11 -10 -9 -30 -12 -55 -8 -30 4 -41 1 -46 -10 -4 -11 -14 -14 -39 -10
-26 4 -36 1 -40 -10 -5 -12 -17 -14 -51 -11 -33 4 -45 2 -50 -9 -3 -9 -13 -13
-25 -10 -10 3 -25 -2 -32 -10 -8 -10 -23 -13 -44 -10 -23 4 -34 1 -38 -9 -4
-10 -18 -14 -41 -12 -22 1 -40 -3 -45 -11 -4 -8 -15 -11 -23 -8 -9 3 -21 -1
-28 -9 -7 -9 -21 -13 -30 -11 -10 3 -24 -2 -30 -10 -7 -8 -21 -12 -30 -10 -10
3 -24 -2 -30 -10 -7 -8 -21 -12 -31 -10 -10 3 -25 -1 -33 -10 -9 -8 -23 -12
-35 -8 -11 4 -20 2 -20 -4 0 -13 -66 -45 -78 -37 -6 3 -16 -1 -23 -10 -8 -9
-21 -13 -35 -10 -15 4 -24 1 -28 -10 -3 -9 -13 -14 -20 -11 -8 3 -17 -1 -20
-10 -4 -8 -13 -13 -21 -9 -8 3 -15 1 -15 -4 0 -14 -62 -41 -81 -35 -10 3 -19
-1 -22 -10 -4 -8 -13 -12 -20 -9 -8 3 -17 -2 -21 -11 -3 -10 -13 -15 -20 -12
-8 3 -17 -1 -20 -10 -4 -8 -12 -13 -20 -10 -7 3 -19 -4 -27 -14 -16 -23 -68
-51 -80 -44 -4 3 -16 -6 -25 -20 -9 -14 -22 -24 -28 -22 -6 2 -19 -7 -29 -20
-11 -13 -24 -22 -30 -20 -6 2 -24 -12 -40 -30 -16 -19 -34 -32 -39 -31 -13 5
-178 -161 -178 -178 0 -7 -14 -23 -30 -36 -17 -12 -30 -29 -30 -38 0 -9 -96
-111 -212 -226 -117 -115 -211 -213 -210 -218 2 -5 -6 -15 -17 -22 -23 -17
-75 -119 -67 -132 3 -6 -1 -16 -10 -23 -14 -11 -15 -29 -9 -126 6 -90 4 -114
-7 -118 -18 -7 -16 -538 3 -561 8 -10 10 -42 7 -104 -4 -71 -3 -90 9 -94 11
-5 13 -18 8 -60 -4 -44 -2 -55 11 -60 13 -5 16 -16 12 -51 -4 -33 -2 -45 10
-50 11 -4 13 -16 10 -50 -4 -33 -2 -45 10 -50 10 -4 13 -15 9 -39 -4 -26 -1
-36 10 -40 12 -5 14 -15 10 -40 -4 -26 -1 -36 10 -40 12 -5 14 -15 10 -40 -4
-25 -1 -36 10 -40 10 -4 13 -14 9 -30 -4 -17 -1 -26 10 -30 11 -4 14 -13 10
-30 -4 -17 -1 -26 10 -30 10 -4 14 -14 11 -26 -3 -10 2 -25 10 -31 8 -7 12
-21 10 -30 -3 -10 2 -24 10 -30 8 -7 12 -21 10 -30 -3 -10 1 -23 9 -30 8 -6
14 -26 14 -45 0 -18 4 -36 10 -39 5 -3 10 -17 10 -30 0 -13 5 -27 10 -30 6 -3
10 -21 10 -40 0 -19 5 -37 10 -40 6 -3 10 -16 10 -29 0 -12 5 -27 11 -33 6 -6
9 -21 7 -34 -2 -18 -9 -24 -27 -23 -37 1 -81 -43 -81 -82 0 -18 -4 -36 -10
-39 -5 -3 -10 -26 -10 -50 0 -24 -4 -47 -10 -50 -14 -8 -14 -412 0 -420 6 -3
10 -17 10 -30 0 -13 5 -27 10 -30 6 -3 10 -14 10 -24 0 -10 22 -62 50 -116 28
-54 50 -104 50 -111 0 -8 9 -29 20 -49 11 -20 20 -44 20 -55 0 -10 5 -22 10
-25 6 -3 10 -17 10 -29 0 -13 6 -29 14 -35 16 -14 15 -36 -2 -53 -7 -7 -12
-22 -12 -34 0 -13 -5 -26 -10 -29 -6 -3 -10 -21 -10 -40 0 -19 -4 -37 -10 -40
-13 -8 -13 -332 0 -340 6 -3 10 -19 10 -35 0 -16 9 -45 20 -65 11 -20 20 -44
20 -54 0 -10 9 -26 20 -36 11 -10 20 -23 20 -30 0 -6 18 -28 39 -49 l39 -38
124 3 c104 3 123 2 123 -11 0 -8 5 -19 12 -23 8 -5 11 -24 9 -50 -2 -23 1 -48
7 -56 6 -7 10 -29 8 -48 -1 -19 3 -41 10 -49 16 -20 16 -119 -1 -139 -7 -8
-10 -21 -7 -29 3 -8 -1 -20 -9 -27 -9 -7 -13 -21 -11 -31 3 -10 1 -20 -3 -23
-12 -7 -40 -65 -40 -81 0 -7 -9 -29 -20 -49 -11 -20 -20 -44 -20 -55 0 -10 -4
-22 -10 -25 -5 -3 -10 -15 -10 -25 0 -11 -9 -36 -21 -56 -11 -20 -18 -43 -15
-50 3 -7 1 -16 -4 -19 -5 -3 -23 -34 -39 -68 -16 -34 -41 -73 -55 -86 -14 -14
-26 -30 -26 -36 0 -6 -18 -29 -40 -50 -22 -21 -40 -44 -40 -50 0 -7 -9 -20
-20 -30 -11 -10 -20 -23 -20 -30 0 -7 -9 -20 -20 -30 -11 -10 -20 -23 -20 -30
0 -7 -9 -20 -20 -30 -11 -10 -20 -23 -20 -30 0 -7 -9 -20 -20 -30 -11 -10 -20
-23 -20 -30 0 -7 -9 -20 -20 -30 -11 -10 -20 -23 -20 -30 0 -6 -13 -24 -30
-40 -16 -16 -30 -34 -30 -40 0 -6 -18 -29 -40 -50 -22 -21 -40 -44 -40 -50 0
-14 -182 -195 -196 -195 -7 0 -17 -6 -24 -14 -6 -8 -18 -12 -26 -9 -8 3 -23
-2 -33 -11 -10 -9 -20 -13 -24 -10 -8 9 -77 -24 -77 -37 0 -5 -11 -7 -24 -3
-17 4 -27 1 -34 -12 -6 -10 -16 -15 -25 -11 -9 3 -21 -1 -27 -9 -7 -8 -20 -14
-29 -14 -9 0 -29 -6 -44 -12 l-27 -13 0 -852 0 -853 3630 0 3630 0 0 765 0
765 -47 1 c-27 1 -53 1 -59 0 -7 -1 -14 6 -18 14 -5 13 -21 16 -86 14 -51 -1
-85 2 -94 10 -9 8 -40 12 -80 10 -40 -1 -71 2 -80 10 -9 7 -37 11 -70 10 -34
-2 -61 2 -70 11 -10 8 -31 11 -55 7 -29 -3 -41 -1 -45 9 -4 10 -16 13 -41 9
-26 -3 -38 0 -42 11 -3 8 -10 14 -17 13 -23 -4 -66 21 -66 38 0 10 -7 31 -15
47 -8 15 -15 34 -15 41 0 7 -18 47 -40 90 -22 43 -40 83 -40 90 0 6 -22 56
-50 110 -27 54 -50 103 -50 109 0 14 -122 259 -139 279 -6 8 -8 17 -5 20 8 8
-105 237 -117 237 -4 0 -6 7 -3 15 4 9 -1 18 -11 21 -9 4 -14 12 -11 19 3 8
-2 16 -11 19 -8 4 -13 13 -9 21 3 8 1 15 -4 15 -11 0 -40 57 -40 80 0 9 -5 21
-11 27 -8 8 -8 13 0 17 6 4 11 23 11 42 0 22 6 37 16 41 10 4 14 13 10 28 -4
16 -1 25 10 29 10 4 14 14 11 26 -3 10 2 25 10 31 8 7 12 21 10 30 -3 10 2 24
10 30 8 7 12 21 10 31 -3 10 -1 20 3 23 13 8 40 66 40 86 0 10 5 21 10 24 6 3
10 15 10 25 0 11 9 36 21 56 11 20 18 43 15 50 -3 7 -1 16 4 19 12 7 40 65 40
81 0 7 9 30 21 50 11 20 18 42 15 50 -3 7 2 18 10 25 9 7 13 21 11 30 -3 10 1
23 9 30 8 6 14 22 14 35 0 12 5 26 11 29 6 4 9 24 8 45 -2 21 3 45 10 53 7 9
11 27 9 40 -1 13 3 32 11 41 9 11 12 32 9 67 -4 38 -2 52 9 56 11 4 13 15 9
39 -6 29 -3 36 29 60 20 15 34 32 32 37 -2 6 12 24 30 40 18 16 33 35 33 41 0
7 9 21 20 31 11 10 20 23 20 30 0 7 9 20 20 30 11 10 20 28 20 41 0 13 5 26
10 29 6 3 10 52 10 110 0 58 -4 107 -10 110 -5 3 -10 14 -10 24 0 19 -47 118
-60 126 -4 3 -6 13 -3 23 2 10 -2 24 -11 31 -8 7 -12 19 -9 27 3 8 -1 21 -8
30 -14 17 -13 103 2 119 5 5 9 51 9 101 0 51 4 96 10 99 6 4 10 68 10 160 0
92 4 156 10 160 6 4 10 81 10 199 l0 192 -27 26 c-16 14 -49 35 -75 47 -27 13
-51 27 -54 32 -3 6 -17 14 -30 19 -25 10 -34 53 -14 65 6 3 10 25 10 49 0 23
5 47 12 54 7 7 11 33 9 62 -2 38 1 52 13 56 13 5 15 16 10 60 -5 43 -4 55 9
60 12 4 14 18 10 70 -4 53 -2 65 12 70 14 6 15 17 10 80 -6 63 -5 75 9 80 14
5 15 22 10 129 -5 105 -3 123 10 128 23 9 23 179 0 198 -13 10 -15 27 -11 87
4 58 2 75 -9 79 -11 4 -13 17 -10 48 4 34 2 44 -11 49 -12 5 -14 16 -9 52 4
36 2 46 -10 51 -13 5 -15 15 -10 50 4 34 2 45 -10 50 -12 4 -14 14 -10 39 5
25 3 35 -10 42 -13 7 -15 17 -11 41 5 23 3 33 -8 38 -12 4 -14 14 -9 39 5 26
2 35 -10 40 -10 4 -14 13 -11 23 6 19 -21 81 -35 81 -5 0 -7 7 -4 15 4 8 -1
17 -9 21 -9 3 -13 12 -11 19 3 7 -4 18 -15 25 -11 6 -30 32 -42 58 -12 26 -28
51 -35 55 -8 4 -14 15 -14 23 0 8 -13 28 -29 43 -16 16 -27 32 -24 35 3 3 -24
33 -60 67 -37 34 -67 69 -67 80 0 11 -5 16 -13 13 -7 -2 -48 32 -91 76 -43 44
-84 80 -91 80 -7 0 -35 24 -63 54 -28 29 -54 51 -57 48 -3 -3 -24 13 -45 36
-22 23 -46 42 -54 42 -7 0 -32 20 -55 45 -23 25 -46 43 -50 40 -5 -3 -22 10
-38 28 -16 18 -34 32 -39 30 -6 -2 -19 6 -29 17 -10 11 -24 20 -30 20 -7 0
-20 11 -29 25 -9 14 -22 23 -28 19 -5 -4 -20 4 -32 17 -26 30 -71 53 -84 45
-5 -3 -15 1 -22 9 -7 9 -21 13 -35 9 -15 -4 -24 0 -29 11 -4 12 -14 14 -41 9
-27 -5 -36 -3 -41 11 -6 14 -15 16 -50 10 -34 -5 -45 -3 -50 9 -4 10 -15 13
-40 9 -25 -4 -35 -2 -40 10 -4 12 -16 14 -60 10 -42 -5 -55 -3 -59 10 -5 11
-16 14 -46 10 -25 -4 -45 -1 -55 8 -12 9 -36 13 -75 11 -44 -3 -60 0 -64 10
-4 11 -19 13 -58 10 -39 -3 -56 0 -65 11 -10 12 -27 14 -72 10 -47 -5 -61 -3
-65 9 -5 12 -20 14 -75 10 -49 -3 -74 -1 -85 8 -10 9 -41 12 -91 11 -43 -1
-81 2 -89 9 -20 16 -393 19 -400 2z m273 -272 c3 -17 0 -21 -12 -17 -10 4 -16
1 -16 -9 0 -12 7 -14 31 -9 16 4 85 7 151 7 73 0 128 4 139 11 14 9 26 8 51
-2 18 -7 47 -16 63 -20 l30 -8 -32 -7 c-56 -13 -37 -23 56 -29 49 -4 101 -11
116 -17 24 -9 32 -7 55 15 21 20 36 25 78 25 51 0 53 -1 59 -31 3 -19 15 -35
29 -41 13 -6 24 -17 24 -25 0 -7 4 -13 8 -13 15 0 32 24 32 45 0 50 64 72 124
45 22 -10 52 -22 66 -26 14 -4 42 -18 63 -31 29 -18 37 -29 32 -43 -8 -26 7
-32 78 -33 34 0 71 -6 82 -12 11 -7 55 -13 99 -13 92 -2 116 -16 116 -68 0
-31 4 -35 88 -76 84 -42 87 -44 87 -78 0 -27 4 -35 20 -38 51 -8 65 -13 65
-27 0 -8 -5 -15 -10 -15 -22 0 23 -49 51 -55 27 -6 29 -10 29 -51 0 -27 5 -45
13 -46 45 -7 187 -1 187 7 0 22 20 -22 20 -45 0 -29 56 -90 82 -90 25 0 35
-30 16 -44 -31 -23 -31 -52 2 -79 16 -14 30 -35 30 -46 0 -12 7 -21 15 -21 9
0 15 9 15 25 0 14 4 25 10 25 17 0 30 -38 24 -69 -5 -26 -1 -35 31 -64 26 -24
38 -44 40 -66 1 -18 7 -37 14 -44 15 -15 14 -50 -1 -65 -10 -10 -8 -14 9 -18
12 -4 25 -16 29 -28 l7 -21 10 23 c12 26 25 28 34 5 4 -10 0 -21 -9 -26 -12
-8 -13 -17 -6 -47 7 -25 6 -51 -2 -78 -10 -40 -13 -42 -48 -42 -20 0 -50 -7
-66 -15 -15 -8 -37 -15 -48 -15 -10 0 -16 -4 -13 -10 3 -5 46 -10 95 -10 95 0
123 -12 113 -49 -3 -10 3 -31 12 -45 16 -24 16 -28 0 -52 -10 -15 -14 -32 -9
-42 17 -40 13 -144 -7 -188 -11 -24 -24 -44 -29 -44 -14 0 -13 -27 1 -36 6 -3
22 -1 35 7 33 17 39 6 25 -41 -11 -38 -14 -40 -51 -40 -22 0 -40 5 -40 10 0 6
-4 10 -10 10 -15 0 -12 -21 5 -40 11 -13 13 -24 5 -51 -6 -18 -10 -46 -10 -61
0 -38 -19 -45 -41 -17 -27 34 -33 67 -19 95 12 21 10 28 -13 62 -30 43 -35 87
-11 96 9 3 31 6 50 6 19 0 34 5 34 10 0 6 -13 10 -30 10 -19 0 -30 5 -30 14 0
17 -18 31 -27 22 -3 -3 0 -12 6 -20 17 -21 -3 -30 -47 -20 -20 4 -44 8 -52 8
-9 1 -21 20 -29 48 -8 27 -22 50 -34 55 -14 6 -20 21 -23 52 -2 23 -1 48 3 54
7 11 10 44 13 187 0 30 6 58 13 62 8 5 5 14 -12 32 -24 25 -52 26 -31 1 8 -9
8 -15 0 -20 -5 -3 -10 -15 -10 -27 0 -11 -9 -37 -19 -57 -11 -20 -22 -44 -25
-54 -5 -15 -9 -16 -27 -6 -19 10 -21 17 -16 61 6 48 4 54 -33 101 -37 46 -40
54 -40 113 0 34 -5 66 -11 69 -11 7 -8 113 4 132 4 6 0 19 -10 28 -14 14 -14
20 -4 37 10 17 9 23 -5 39 -22 24 -44 24 -44 0 0 -10 -7 -24 -15 -31 -12 -10
-18 -6 -35 23 -13 22 -32 38 -48 42 -37 8 -66 31 -57 45 5 9 10 9 18 1 14 -14
27 -14 27 -1 0 14 -58 42 -65 30 -3 -5 -12 -7 -20 -3 -9 3 -21 0 -28 -6 -13
-10 -131 -6 -150 6 -5 3 -1 13 8 23 17 19 11 50 -11 50 -14 0 -18 -12 -15 -38
4 -29 -136 -44 -159 -16 -16 18 -49 18 -69 0 -17 -14 -135 -36 -236 -43 -33
-2 -70 -9 -82 -15 -18 -9 -27 -6 -53 16 -17 14 -37 26 -43 26 -17 0 -57 -42
-57 -59 0 -9 -8 -32 -19 -51 -28 -53 -33 -115 -10 -142 23 -26 24 -69 3 -110
-15 -29 -15 -32 4 -50 17 -18 24 -19 54 -9 42 14 64 7 72 -22 11 -41 6 -98
-10 -122 -15 -23 -15 -27 0 -50 18 -28 47 -32 66 -10 10 12 9 20 -5 41 -16 25
-16 27 12 62 32 40 57 81 58 97 2 31 51 103 84 123 34 22 50 45 65 99 4 11 13
27 21 33 21 17 99 22 164 10 46 -8 57 -7 73 6 14 13 27 15 65 9 62 -10 96 -11
159 -1 61 10 84 -7 84 -60 0 -28 5 -36 25 -44 27 -10 34 -44 11 -53 -23 -9
-64 -100 -56 -122 11 -28 69 -82 110 -103 31 -15 36 -23 42 -69 8 -53 37 -120
59 -133 8 -6 8 -13 -1 -30 -10 -19 -10 -25 2 -34 8 -6 20 -25 27 -42 10 -26
10 -36 -1 -53 -11 -19 -10 -27 15 -70 15 -27 27 -63 27 -79 0 -35 32 -95 68
-130 16 -15 21 -29 17 -42 -4 -13 -1 -22 8 -26 8 -3 32 -31 53 -62 21 -31 44
-61 51 -65 7 -4 13 -14 13 -22 0 -7 11 -27 25 -43 18 -22 25 -42 25 -72 0 -36
6 -47 36 -75 l35 -32 -15 -114 c-10 -79 -12 -117 -4 -126 14 -18 23 -388 13
-558 -6 -97 18 -230 48 -259 11 -12 13 -25 6 -62 -5 -26 -5 -52 0 -58 4 -6 11
-31 14 -54 5 -41 3 -45 -24 -60 -36 -21 -38 -36 -4 -28 24 6 26 4 25 -26 -1
-18 2 -54 6 -80 8 -60 -13 -74 -54 -35 -15 14 -46 30 -69 37 -44 11 -57 34
-25 44 23 8 28 81 6 90 -8 3 -14 14 -14 25 0 24 -44 56 -61 46 -8 -5 -10 -31
-7 -81 4 -55 1 -77 -9 -85 -17 -15 -17 -34 3 -64 15 -22 14 -24 -10 -40 -23
-16 -27 -16 -50 2 -14 10 -26 26 -26 35 -1 48 -42 68 -55 27 -8 -25 12 -69 32
-69 10 0 12 -9 7 -35 -10 -57 3 -65 113 -62 90 2 96 1 114 -22 21 -26 25 -56
9 -66 -5 -3 -10 -15 -10 -25 0 -10 -20 -40 -44 -66 -36 -38 -45 -56 -49 -93
-5 -57 -29 -121 -51 -136 -29 -22 -13 -95 21 -95 9 0 25 -7 35 -17 17 -15 19
-15 38 2 11 10 28 15 40 12 12 -3 39 5 65 20 50 28 59 59 29 102 -13 18 -14
28 -5 47 16 35 14 69 -5 85 -13 10 -14 25 -9 83 4 39 12 77 17 84 7 8 7 16 -1
26 -17 21 -2 66 25 78 20 10 29 7 52 -13 15 -13 31 -31 37 -39 13 -21 6 -132
-10 -150 -21 -25 -27 -58 -12 -67 24 -14 37 -50 37 -100 0 -41 5 -54 28 -76
33 -32 52 -35 52 -7 0 14 5 18 16 13 13 -5 15 -1 11 23 -6 33 -21 176 -21 214
-1 14 3 30 7 37 4 6 3 14 -3 18 -5 3 -10 22 -10 40 0 24 -6 38 -20 45 -17 9
-19 17 -14 48 4 28 2 41 -10 51 -9 7 -16 25 -16 40 0 14 -6 37 -13 51 -19 36
-21 193 -3 233 25 56 25 64 3 98 -18 30 -20 48 -18 144 2 144 18 258 43 320
11 28 21 51 23 53 5 6 105 -50 105 -59 0 -5 5 -9 10 -9 6 0 22 -11 34 -24 19
-19 25 -36 27 -89 3 -44 0 -70 -9 -79 -8 -8 -12 -56 -12 -164 0 -91 -4 -155
-10 -159 -6 -3 -10 -48 -10 -100 0 -52 -4 -97 -10 -100 -6 -4 -10 -70 -10
-167 0 -175 11 -228 71 -352 34 -70 38 -125 9 -151 -11 -10 -20 -23 -20 -30 0
-7 -9 -20 -20 -30 -11 -10 -20 -24 -20 -30 0 -7 -7 -18 -15 -25 -13 -11 -18
-10 -28 2 -15 19 -47 31 -47 18 0 -6 9 -10 20 -10 11 0 20 -2 20 -4 0 -2 3
-12 7 -21 5 -14 2 -16 -18 -10 -21 7 -22 6 -10 -9 14 -17 8 -30 -31 -67 -11
-10 -18 -31 -18 -53 0 -20 -4 -36 -10 -36 -6 0 -10 -27 -10 -60 0 -33 -4 -60
-10 -60 -5 0 -10 -15 -10 -34 0 -19 -4 -38 -10 -41 -5 -3 -10 -28 -10 -56 0
-27 -4 -49 -10 -49 -5 0 -10 -11 -10 -24 0 -14 -4 -28 -10 -31 -6 -3 -10 -19
-10 -36 0 -16 -4 -29 -10 -29 -5 0 -10 -9 -10 -20 0 -11 -9 -35 -20 -55 -11
-20 -20 -47 -20 -60 0 -14 -4 -25 -10 -25 -5 0 -10 -9 -10 -20 0 -11 -4 -20
-10 -20 -5 0 -10 -8 -10 -18 0 -10 -9 -37 -20 -60 -11 -22 -20 -50 -20 -61 0
-11 -5 -23 -10 -26 -6 -3 -10 -15 -10 -25 0 -11 -9 -35 -20 -55 -11 -20 -20
-44 -20 -55 0 -10 -4 -22 -10 -25 -5 -3 -10 -15 -10 -26 0 -10 -4 -28 -10 -39
-6 -11 -14 -29 -20 -40 -5 -11 -10 -31 -10 -44 0 -14 -4 -28 -10 -31 -6 -3
-10 -21 -10 -40 0 -18 -4 -35 -10 -37 -5 -2 -10 -64 -11 -146 -1 -117 -3 -141
-14 -132 -10 9 -15 6 -21 -12 -4 -13 -8 -26 -9 -30 -1 -18 -17 -19 -30 -2 -8
10 -15 14 -15 7 0 -11 -57 -82 -117 -147 -10 -10 -25 -30 -34 -45 -8 -14 -33
-34 -55 -44 -21 -11 -53 -32 -70 -49 -28 -26 -38 -29 -80 -27 -49 3 -49 3 -54
-31 -4 -26 -15 -41 -45 -62 -22 -15 -46 -27 -54 -28 -8 0 -22 -7 -32 -16 -10
-9 -25 -14 -35 -12 -15 3 -13 7 10 34 31 38 32 45 6 62 -21 13 -27 61 -10 78
6 6 14 25 19 42 9 28 7 32 -10 32 -21 0 -39 -35 -39 -74 0 -13 -9 -33 -20 -46
-11 -13 -20 -33 -20 -46 0 -31 -16 -38 -51 -23 -28 11 -32 10 -52 -14 -13 -15
-48 -35 -82 -47 -113 -40 -117 -43 -131 -77 -12 -27 -21 -34 -54 -39 -29 -5
-49 -17 -71 -41 -26 -30 -35 -34 -61 -29 -17 3 -48 1 -70 -6 -32 -9 -44 -9
-74 5 -28 14 -34 21 -29 37 5 15 0 23 -19 31 -30 14 -56 6 -63 -21 -16 -60
-213 -70 -213 -10 0 26 -24 26 -48 0 -10 -11 -32 -23 -50 -26 -29 -6 -31 -5
-29 22 1 20 -3 29 -13 29 -10 0 -15 -10 -15 -30 -1 -24 -5 -31 -25 -33 -14 -2
-31 -9 -37 -14 -8 -6 -31 -7 -58 -4 -29 5 -45 4 -45 -3 0 -6 -9 -11 -20 -11
-11 0 -37 -9 -57 -20 -42 -22 -84 -26 -115 -9 -14 8 -23 8 -31 0 -6 -6 -38
-11 -70 -11 -54 0 -64 4 -101 35 -22 19 -48 41 -56 47 -10 9 -42 12 -96 10
l-81 -3 -6 28 c-4 21 -16 32 -45 44 -28 12 -45 27 -58 55 -13 27 -26 40 -44
42 -14 2 -29 8 -35 13 -15 15 -52 10 -59 -7 -11 -29 -6 -69 13 -104 14 -27 16
-40 8 -57 -14 -31 -26 -29 -78 10 -31 24 -58 36 -93 39 -26 3 -61 15 -77 27
-15 12 -42 21 -58 21 -24 0 -34 7 -46 31 -24 46 -52 69 -84 69 -21 0 -37 9
-58 34 -15 19 -60 52 -99 73 -95 51 -144 95 -137 122 4 16 -2 23 -36 37 -23 9
-41 20 -41 26 0 5 -20 30 -44 56 -43 46 -54 72 -58 141 -2 23 -9 36 -24 43
-11 5 -26 25 -33 44 -7 18 -25 43 -41 54 -47 34 -50 32 -65 -63 -6 -35 -3 -40
50 -91 61 -58 67 -82 27 -102 -22 -11 -20 -24 5 -24 22 0 93 -63 93 -83 0 -10
15 -38 33 -62 17 -24 40 -56 50 -70 11 -15 28 -25 42 -25 15 0 26 -7 30 -20 3
-11 10 -20 15 -20 5 0 17 -14 25 -30 9 -17 27 -35 41 -40 13 -5 27 -18 31 -27
11 -33 149 -153 174 -153 10 0 24 -8 31 -17 7 -10 38 -31 68 -46 82 -42 138
-85 155 -118 9 -17 26 -31 43 -34 15 -4 34 -10 42 -16 8 -5 25 -13 37 -19 12
-5 31 -27 42 -49 16 -30 28 -41 53 -46 18 -3 42 -10 53 -14 45 -18 93 -31 116
-31 14 0 29 -4 34 -9 6 -5 37 -11 70 -14 33 -3 94 -9 135 -15 41 -6 131 -13
200 -15 69 -3 138 -10 153 -16 16 -6 39 -11 52 -11 14 0 26 -7 29 -18 8 -23
39 -25 270 -22 91 1 120 5 185 29 47 17 89 26 108 24 17 -3 46 2 64 10 21 10
82 18 162 23 98 5 130 10 134 21 3 8 12 12 19 9 7 -3 16 -1 19 4 4 6 17 7 29
4 17 -4 29 1 44 20 11 14 24 26 30 26 12 0 26 -30 23 -47 -3 -19 29 -16 36 3
3 8 38 36 77 62 39 25 77 54 84 64 7 10 19 18 26 18 8 0 57 43 110 95 52 52
103 95 111 95 9 0 18 8 22 17 3 10 33 45 67 79 34 33 72 80 86 103 14 24 47
66 75 94 27 29 57 69 67 89 11 24 26 40 42 44 14 3 26 12 26 18 0 7 11 22 25
34 13 12 27 34 31 49 3 15 7 33 9 39 5 16 63 44 79 38 15 -6 38 -88 25 -92
-14 -5 -11 -37 7 -82 17 -42 45 -55 41 -19 -4 36 18 32 33 -5 7 -20 20 -38 27
-41 8 -2 12 -9 8 -14 -3 -5 -1 -12 4 -16 18 -10 41 -68 35 -87 -3 -10 -1 -18
5 -18 6 0 11 -6 11 -12 0 -7 27 -67 60 -133 33 -65 60 -124 60 -130 0 -7 23
-56 50 -110 28 -54 50 -104 50 -110 0 -7 18 -47 40 -90 22 -43 40 -83 40 -89
0 -24 52 -116 66 -116 8 0 14 -4 14 -9 0 -5 9 -11 21 -14 13 -3 20 -12 18 -24
-4 -26 20 -133 37 -164 7 -14 23 -79 35 -145 11 -65 29 -134 39 -154 21 -41
38 -101 50 -177 5 -31 18 -74 29 -97 11 -22 27 -70 35 -105 9 -35 36 -95 60
-135 37 -59 48 -89 66 -181 19 -94 51 -185 91 -258 6 -11 8 -21 5 -24 -8 -8
-1437 -6 -1444 2 -4 3 -2 9 4 13 5 4 17 19 27 34 10 16 27 28 44 30 14 2 28 9
31 16 6 18 -67 16 -74 -2 -3 -8 -23 -21 -44 -30 -41 -16 -61 -37 -42 -44 7 -2
10 -8 6 -13 -7 -13 -194 -12 -194 1 0 6 6 10 13 10 7 0 19 8 28 18 8 9 30 29
49 44 31 24 33 29 22 52 -17 39 -65 36 -105 -6 -39 -42 -67 -88 -67 -110 0
-17 -55 -18 -1010 -18 -832 0 -1010 2 -1010 13 0 8 -10 23 -23 35 -21 19 -23
29 -19 77 5 65 -23 122 -66 131 -53 11 -113 36 -140 59 -15 13 -52 31 -82 39
-30 9 -75 24 -100 32 -113 40 -174 50 -203 36 -12 -6 -28 -12 -35 -14 -8 -2
-2 -12 16 -25 20 -15 55 -24 117 -32 79 -10 92 -14 117 -41 29 -32 105 -70
141 -70 12 0 36 -9 52 -20 17 -11 37 -20 46 -20 25 0 42 -27 48 -73 5 -34 12
-44 36 -56 35 -17 67 -53 56 -64 -4 -4 -353 -6 -777 -5 l-769 3 -3 28 c-3 28
-1 31 91 117 7 6 17 15 22 20 32 32 67 60 75 60 6 0 16 16 24 35 11 26 21 35
39 35 14 0 30 -7 37 -15 19 -22 30 -18 30 11 0 16 5 24 13 21 6 -2 11 -16 10
-31 -1 -18 3 -26 14 -26 15 0 83 -33 112 -55 8 -5 30 -15 50 -21 35 -10 37 -9
74 33 40 44 45 57 24 59 -91 8 -125 28 -162 98 -17 31 -17 39 -6 74 23 70 -5
97 -67 68 -69 -33 -175 -108 -218 -155 -137 -150 -205 -221 -248 -261 -27 -25
-61 -57 -77 -73 l-27 -27 -596 2 -597 3 1 750 0 750 21 3 c12 2 37 12 56 23
18 10 42 19 53 19 10 0 22 4 25 10 3 5 17 10 30 10 13 0 27 5 30 10 3 6 15 10
25 10 11 0 35 9 55 20 20 11 44 20 55 20 10 0 22 4 25 10 3 5 15 10 26 10 10
0 29 6 42 12 31 18 217 200 217 213 0 6 18 29 40 50 22 21 40 44 40 50 0 6 14
24 30 40 17 16 30 34 30 40 0 7 9 20 20 30 11 10 20 23 20 30 0 7 9 20 20 30
11 10 20 23 20 30 0 7 9 20 20 30 11 10 20 23 20 30 0 7 9 20 20 30 11 10 20
23 20 30 0 7 9 20 20 30 11 10 20 23 20 30 0 6 18 29 40 50 22 21 40 44 40 50
0 6 14 24 30 40 17 16 30 35 30 42 0 7 5 13 10 13 6 0 10 7 10 15 0 8 9 30 20
50 11 20 20 42 20 50 0 8 9 30 20 50 11 20 20 44 20 55 0 10 4 22 10 25 5 3
10 15 10 25 0 11 9 35 20 55 11 20 20 42 20 50 0 8 9 30 20 50 11 20 20 44 20
55 0 10 4 22 10 25 5 3 10 17 10 30 0 13 5 27 10 30 5 3 10 17 10 30 0 13 5
27 10 30 13 8 13 192 0 200 -5 3 -10 30 -10 60 0 30 -4 57 -10 60 -5 3 -10 26
-10 50 0 24 -5 47 -10 50 -6 3 -10 25 -10 49 0 23 -4 46 -9 51 -5 6 -11 21
-13 35 -3 24 -7 25 -77 28 -42 2 -79 -2 -85 -8 -5 -5 -28 -10 -50 -10 -31 0
-47 7 -73 32 -18 18 -33 37 -33 43 0 7 -9 20 -20 30 -11 10 -20 26 -20 36 0
10 -9 34 -20 54 -11 20 -20 49 -20 65 0 16 -5 32 -10 35 -13 8 -13 92 0 97 6
2 11 20 12 40 1 20 7 39 14 42 7 3 10 14 7 24 -2 11 0 23 6 26 14 9 15 302 1
311 -5 3 -10 17 -10 30 0 13 -4 27 -10 30 -5 3 -10 15 -10 25 0 11 -9 35 -20
55 -11 20 -20 41 -20 49 0 7 -22 57 -50 111 -27 54 -50 106 -50 116 0 10 -5
21 -10 24 -6 3 -10 17 -10 30 0 13 -5 27 -10 30 -13 8 -13 172 0 180 6 3 10
26 10 50 0 24 4 47 10 50 5 3 10 21 10 39 0 51 35 78 99 74 31 -2 51 -8 51
-15 0 -14 98 -111 120 -118 9 -3 23 -18 32 -33 28 -47 68 -200 68 -259 0 -76
18 -141 41 -148 10 -4 19 -15 19 -25 0 -32 12 -51 36 -61 34 -12 33 -63 -2
-85 -24 -16 -25 -21 -21 -83 2 -36 11 -88 19 -116 17 -56 13 -115 -8 -115 -8
0 -14 -4 -14 -10 0 -5 4 -10 9 -10 14 0 71 -116 71 -145 0 -14 6 -25 14 -25
19 0 19 101 0 147 -14 32 -14 37 1 53 10 11 14 23 11 29 -4 5 -2 46 3 91 6 54
5 92 -2 115 -8 29 -7 38 7 54 12 13 14 21 6 26 -6 4 -9 17 -6 29 6 24 -1 36
-29 52 -17 10 -20 20 -17 75 14 323 -2 532 -49 644 -4 11 -13 47 -19 80 -7 33
-20 95 -31 138 -18 72 -32 179 -32 237 0 41 27 146 42 163 11 15 10 18 -13 27
-14 5 -39 7 -56 4 -27 -6 -30 -4 -30 18 0 13 6 32 13 42 13 17 14 16 26 -12
12 -28 16 -30 45 -25 48 9 63 20 96 67 20 30 30 57 30 82 0 38 22 74 45 74 7
0 15 17 19 38 3 20 8 55 11 77 15 102 16 106 39 115 14 5 25 19 28 35 9 44 -1
63 -37 69 -31 6 -34 10 -41 53 -4 25 -2 61 4 81 7 23 8 41 1 54 -13 24 -15 23
-49 -13 -32 -36 -60 -34 -60 3 0 31 35 60 78 64 49 4 64 34 43 86 -5 13 -12
36 -16 51 -5 26 -7 27 -26 13 -15 -10 -29 -12 -52 -5 -48 14 -54 25 -32 64 14
27 16 38 7 47 -17 17 -15 26 6 32 16 5 17 14 12 74 -4 37 -6 93 -5 125 0 31
-2 57 -7 57 -4 0 -8 -4 -8 -10 0 -5 -9 -10 -20 -10 -17 0 -20 -7 -20 -39 0
-22 -4 -42 -9 -46 -6 -3 -3 -17 6 -34 11 -17 14 -35 9 -47 -8 -18 -9 -17 -20
6 -10 24 -13 25 -64 17 -34 -6 -52 -13 -52 -23 0 -14 21 -21 75 -26 22 -2 31
-9 33 -24 3 -19 -3 -23 -45 -29 -73 -10 -93 -16 -87 -26 3 -5 16 -6 30 -3 17
4 26 1 30 -10 3 -9 10 -13 16 -10 13 8 48 -25 48 -47 0 -21 -26 -31 -92 -33
-33 -1 -52 3 -55 11 -9 22 -23 14 -23 -13 0 -19 4 -25 15 -20 24 9 75 -5 75
-20 0 -9 12 -14 35 -14 25 0 35 -4 35 -15 0 -21 -27 -30 -45 -15 -9 7 -29 9
-58 5 -41 -6 -43 -8 -39 -36 6 -41 48 -72 87 -65 45 8 57 -4 49 -51 -4 -30
-13 -44 -30 -52 -14 -6 -27 -18 -31 -28 -4 -9 -14 -24 -24 -34 -23 -23 -42
-90 -29 -103 6 -6 10 -19 10 -29 0 -17 5 -18 42 -13 42 6 57 6 88 5 8 0 22 1
29 3 17 4 36 -72 27 -108 -6 -22 -34 -35 -37 -16 -1 4 -3 22 -5 41 -5 43 -10
48 -31 29 -10 -8 -35 -22 -55 -31 -26 -12 -38 -25 -43 -46 -3 -16 -15 -37 -25
-46 -11 -10 -17 -21 -15 -25 3 -4 -2 -13 -10 -20 -9 -8 -15 -30 -15 -56 0 -40
-2 -44 -24 -44 -19 0 -26 7 -30 28 -3 15 -5 34 -4 42 3 38 -3 48 -32 52 l-30
5 6 -47 c5 -36 2 -50 -11 -64 -12 -12 -21 -14 -30 -6 -19 15 -38 95 -32 129 5
22 0 34 -19 51 -13 13 -24 33 -24 44 0 36 12 66 26 66 7 0 16 5 19 10 7 11
-42 35 -63 31 -25 -4 -42 21 -42 63 0 23 5 47 10 52 13 13 -3 94 -25 127 -15
24 -16 84 0 79 5 -1 10 -9 10 -17 0 -8 4 -15 9 -15 5 0 9 38 10 85 1 82 1 84
-21 78 -21 -5 -23 -2 -23 38 0 56 -8 67 -50 71 -53 5 -53 37 0 67 23 13 40 30
40 40 0 24 37 71 56 71 8 0 14 5 14 10 0 6 -7 10 -15 10 -8 0 -17 11 -21 25
-3 13 -12 29 -20 36 -20 16 -17 45 5 66 10 10 22 38 26 63 10 59 51 137 76
143 11 3 19 9 18 14 -3 14 13 47 34 67 13 13 18 28 15 53 -3 28 0 38 20 51 80
56 151 119 184 165 22 28 74 86 116 127 42 42 90 92 105 113 15 20 36 37 46
37 10 0 21 3 25 8 4 4 37 14 74 23 62 14 96 39 55 39 -10 1 -29 7 -43 14 l-25
14 34 19 c19 10 42 26 53 36 10 9 24 17 31 17 6 0 21 7 31 15 11 8 34 15 51
15 31 0 137 46 144 62 6 17 108 55 164 62 39 5 57 12 57 22 0 8 -4 14 -10 14
-5 0 -10 9 -10 19 0 15 7 20 33 19 39 0 84 9 116 25 19 9 25 9 28 0 5 -15 59
-17 68 -3 3 6 15 10 25 10 12 0 17 5 14 13 -8 22 16 33 101 46 44 7 93 19 108
26 30 15 57 10 70 -12 14 -22 34 -15 55 21 17 28 27 35 64 39 23 3 69 11 100
18 53 11 57 14 52 36 -4 14 -2 23 5 23 6 0 11 -6 11 -14 0 -30 27 -39 74 -23
26 9 61 13 84 10 25 -3 50 0 70 11 35 18 72 21 72 6 0 -5 7 -10 15 -10 8 0 15
5 15 10 0 6 -7 10 -15 10 -23 0 -18 17 8 24 12 3 45 6 74 6 42 0 53 4 58 19 5
16 13 18 48 14 23 -3 47 -12 54 -20 16 -20 40 -10 55 22 14 30 32 28 36 -5z
m1887 -1220 c8 -14 -13 -50 -30 -50 -21 0 -27 17 -15 40 11 21 35 27 45 10z
m653 -933 c4 -20 -9 -22 -26 -5 -17 17 -15 27 6 24 9 -2 18 -10 20 -19z
m-5088 -647 c0 -19 -7 -33 -20 -40 -13 -7 -19 -18 -16 -28 2 -9 7 -28 11 -41
5 -17 4 -22 -6 -19 -8 3 -13 13 -11 22 2 11 -5 20 -17 23 -18 4 -21 13 -21 52
0 57 3 61 47 61 30 0 33 -3 33 -30z m58 -86 l-4 -29 -12 28 c-13 31 -7 56 10
39 5 -5 8 -22 6 -38z m4741 -1128 c7 -8 8 -17 3 -20 -5 -3 -7 -16 -5 -30 7
-33 -12 -41 -53 -21 -36 17 -36 23 -1 63 24 25 40 28 56 8z m-815 -2922 c20
-8 11 -24 -15 -24 -19 0 -25 11 -12 23 8 8 8 8 27 1z m-95 -107 c17 -21 -19
-48 -71 -54 -47 -6 -77 -33 -78 -69 0 -33 -95 -77 -152 -70 -23 3 -47 2 -52
-2 -27 -17 -81 -30 -110 -25 -36 5 -101 -19 -114 -43 -8 -15 -11 -15 -33 -1
-29 19 -63 7 -41 -15 21 -21 13 -29 -24 -22 -20 4 -66 2 -103 -4 -162 -26
-255 -30 -431 -16 -96 8 -211 16 -255 18 -81 4 -135 18 -135 35 0 16 -74 38
-111 34 -39 -5 -62 12 -38 29 10 7 3 8 -23 5 -29 -5 -45 1 -84 26 -76 52 -107
67 -136 67 -26 0 -28 3 -28 43 0 66 6 69 85 42 39 -13 77 -24 86 -25 8 0 25
-13 37 -30 13 -17 29 -30 36 -30 7 0 21 -9 31 -20 10 -11 24 -20 30 -20 7 0
18 -7 26 -16 8 -10 22 -14 38 -11 14 3 42 -2 61 -10 55 -24 166 -25 217 -2 35
16 56 18 125 13 65 -5 91 -3 122 10 86 36 225 49 482 47 199 -2 287 10 343 46
18 11 38 14 77 9 49 -6 54 -4 54 13 0 21 32 37 51 25 7 -4 17 0 23 8 21 28 76
37 95 15z m1636 -647 c3 -5 35 -10 70 -10 35 0 67 -4 70 -10 3 -5 42 -10 86
-10 46 0 79 -4 79 -10 0 -6 36 -10 89 -10 50 0 93 -4 96 -10 3 -5 30 -10 60
-10 l53 0 4 -97 c3 -54 4 -222 3 -373 -1 -219 1 -278 12 -288 11 -11 13 -72
11 -305 l-3 -292 -135 0 c-164 1 -192 7 -185 38 9 34 8 54 -6 157 -11 89 -14
157 -9 215 2 17 9 25 22 25 35 0 19 50 -26 80 -56 38 -61 53 -37 104 27 54 21
87 -31 175 -21 36 -38 73 -39 81 -1 8 -9 -10 -19 -40 -9 -30 -23 -55 -31 -55
-25 0 -73 162 -61 207 2 11 12 18 21 16 11 -2 17 -16 19 -51 3 -42 6 -47 27
-47 22 0 23 3 17 38 -4 20 -7 66 -7 102 0 57 2 65 18 62 14 -3 18 2 15 20 -2
13 -11 24 -23 26 -11 2 -34 15 -52 28 -17 13 -35 24 -39 24 -24 0 -44 36 -44
82 0 26 -4 48 -10 48 -13 0 -42 58 -35 70 3 6 -1 10 -9 10 -9 0 -16 5 -16 10
0 6 9 10 19 10 11 0 23 -4 26 -10z"/>
<path d="M3840 9045 c0 -16 27 -32 37 -21 7 7 -16 36 -28 36 -5 0 -9 -7 -9
-15z"/>
<path d="M4360 8951 c0 -5 7 -14 15 -21 18 -15 42 1 31 19 -8 13 -46 15 -46 2z"/>
<path d="M4023 8363 c-30 -20 -29 -37 2 -57 33 -22 34 -21 30 25 -3 49 -5 50
-32 32z"/>
<path d="M3887 8252 c-19 -21 -22 -48 -6 -57 17 -11 58 4 69 26 23 41 -31 67
-63 31z"/>
<path d="M4188 8253 c-22 -24 -23 -43 -3 -43 18 0 28 21 23 46 -3 14 -5 14
-20 -3z"/>
<path d="M2880 8212 c0 -29 -29 -62 -55 -62 -15 0 -30 -9 -37 -21 -18 -29
-111 -71 -142 -63 -13 3 -27 1 -30 -5 -4 -6 -16 -11 -26 -11 -11 0 -36 -11
-57 -26 -32 -21 -37 -30 -35 -58 2 -20 -4 -40 -15 -53 -20 -23 -80 -46 -87
-34 -6 9 -66 8 -82 -2 -7 -4 -15 -32 -19 -64 -5 -43 -13 -63 -34 -82 -32 -31
-66 -86 -74 -122 -4 -14 -23 -47 -43 -74 -31 -39 -39 -60 -45 -114 -4 -36 -11
-78 -14 -93 -8 -29 15 -78 36 -78 16 0 119 93 119 109 0 7 30 43 68 80 37 36
80 82 96 101 90 109 139 154 166 152 14 -2 37 5 49 15 22 18 23 20 7 58 -21
49 -16 61 28 69 22 4 52 23 81 51 25 25 53 45 63 45 9 0 33 16 52 35 19 19 40
35 47 35 7 0 13 9 13 21 0 12 -4 18 -11 13 -13 -8 -29 13 -29 39 0 13 8 17 38
17 28 0 45 7 62 25 13 14 29 25 36 25 14 0 27 28 18 41 -3 5 5 18 18 29 l23
20 -55 -2 c-51 -3 -55 -5 -58 -30 -2 -14 -10 -32 -17 -38 -12 -10 -17 -7 -25
15 -5 14 -10 33 -10 41 0 8 -4 14 -10 14 -5 0 -10 -8 -10 -18z"/>
<path d="M3302 8213 c2 -11 14 -19 31 -21 22 -3 27 1 27 17 0 17 -6 21 -31 21
-24 0 -30 -4 -27 -17z"/>
<path d="M4040 8159 c-9 -16 -9 -24 -1 -32 12 -12 31 6 31 30 0 22 -19 24 -30
2z"/>
<path d="M3835 8151 c-9 -16 21 -24 42 -12 10 6 13 11 6 11 -6 0 -18 3 -26 6
-8 3 -18 1 -22 -5z"/>
<path d="M3310 8126 l-23 -25 27 -7 c33 -8 50 7 41 35 -8 27 -16 26 -45 -3z"/>
<path d="M3420 8125 c-11 -13 -11 -20 0 -40 15 -28 30 -33 30 -10 0 8 7 15 15
15 20 0 19 13 -3 33 -23 21 -26 21 -42 2z"/>
<path d="M4120 8101 c-13 -39 -13 -39 -37 -24 -22 15 -28 14 -103 -21 -61 -29
-87 -36 -110 -31 -19 4 -30 3 -30 -4 0 -7 -12 -16 -26 -22 -26 -9 -26 -10 -9
-29 18 -20 17 -21 -5 -45 -14 -14 -40 -28 -61 -31 -26 -4 -40 -13 -45 -28 -6
-16 -8 -12 -11 23 -3 34 1 51 22 82 l26 39 -31 6 c-34 7 -41 36 -14 66 14 14
14 20 4 33 -22 27 -47 18 -63 -23 -17 -42 -42 -68 -51 -54 -9 15 -55 1 -61
-19 -8 -23 -15 -24 -41 -5 -32 24 -114 -4 -114 -39 0 -7 -13 -30 -29 -52 -26
-36 -36 -42 -83 -48 -29 -4 -58 -14 -64 -23 -7 -10 -33 -18 -65 -22 -44 -4
-53 -8 -51 -22 4 -24 -15 -23 -28 2 -6 11 -16 20 -22 20 -6 0 -19 6 -27 14 -9
7 -45 19 -81 25 -59 10 -66 9 -86 -9 -17 -17 -26 -19 -49 -10 -30 11 -48 4
-26 -10 19 -11 8 -90 -13 -102 -16 -9 -23 -43 -8 -36 4 2 21 10 37 17 17 7 41
19 55 26 14 7 56 16 94 20 68 8 69 7 63 -15 -4 -14 3 -35 18 -59 14 -22 26
-60 31 -96 3 -33 10 -69 14 -80 10 -25 49 -30 87 -10 15 8 37 15 48 15 24 1
59 27 74 58 9 18 20 22 56 22 24 0 47 5 50 10 3 6 16 10 29 10 26 0 166 67
166 79 0 5 10 11 23 15 12 3 31 19 41 37 16 26 22 30 45 24 14 -4 43 -7 64 -7
41 0 52 -22 16 -33 -16 -5 -20 -13 -16 -31 2 -14 0 -27 -4 -30 -16 -10 -9 -43
12 -54 25 -14 57 4 91 51 13 17 33 35 46 40 13 5 30 21 39 36 9 16 33 42 54
58 26 21 38 38 39 56 0 18 18 46 55 85 30 33 53 64 50 71 -7 19 23 39 38 24 7
-7 12 -17 12 -24 0 -7 10 -13 21 -15 20 -3 21 0 17 45 -5 43 -33 93 -53 93 -4
0 -13 -18 -20 -39z"/>
<path d="M3151 8056 c-28 -8 -50 -22 -60 -37 -8 -13 -24 -34 -35 -46 -10 -13
-17 -25 -14 -28 5 -6 89 52 100 69 5 8 11 7 20 -2 19 -19 45 -14 52 11 14 51
11 52 -63 33z"/>
<path d="M5037 8033 c-10 -3 -16 -10 -14 -16 5 -17 52 -15 52 2 0 16 -12 21
-38 14z"/>
<path d="M5630 8020 c-13 -8 -13 -11 0 -25 14 -13 19 -13 34 -2 33 24 1 49
-34 27z"/>
<path d="M1760 8004 c0 -11 80 -37 88 -29 10 10 -15 26 -51 32 -21 3 -37 2
-37 -3z"/>
<path d="M2076 8001 c-4 -6 -18 -11 -31 -11 -48 0 -43 -33 6 -45 21 -5 27 -2
38 21 12 27 1 58 -13 35z"/>
<path d="M1823 7908 c-26 -12 -28 -21 -13 -49 12 -22 50 -26 50 -5 0 22 45 47
59 33 9 -9 16 -9 30 0 24 15 33 6 19 -17 -9 -14 -9 -22 0 -33 10 -11 6 -23
-19 -56 -24 -33 -30 -51 -28 -81 2 -22 0 -42 -4 -46 -4 -4 -7 -18 -7 -31 0
-21 -4 -24 -27 -21 -24 3 -29 8 -33 43 l-5 40 -60 -2 c-82 -3 -86 -1 -74 39
10 37 -6 58 -47 58 -23 0 -34 -17 -34 -54 0 -13 -14 -41 -31 -62 -17 -22 -38
-52 -46 -69 -18 -36 -62 -74 -84 -75 -22 0 -38 -20 -45 -57 -5 -24 -1 -36 16
-53 25 -25 21 -59 -11 -89 -30 -28 -21 -55 19 -58 30 -3 42 6 108 70 41 41 74
80 74 88 0 9 7 24 15 35 8 10 15 26 15 35 0 9 11 20 25 23 30 8 70 44 79 73 7
22 39 39 55 29 5 -3 7 -23 4 -45 -5 -37 -4 -39 30 -45 30 -6 35 -11 40 -43 4
-25 0 -50 -13 -80 l-19 -43 26 -20 c39 -30 45 -17 38 76 l-7 84 30 31 c17 18
39 56 48 85 14 45 21 54 40 54 29 0 42 20 20 32 -21 12 -23 98 -2 98 7 0 16 9
19 20 3 12 14 20 25 20 19 0 20 2 6 30 -14 28 -18 29 -61 23 -30 -4 -47 -2
-52 6 -10 16 -140 23 -168 9z"/>
<path d="M1504 7873 c-3 -10 -10 -26 -15 -35 -6 -12 -6 -18 2 -18 16 0 38 31
39 53 0 9 -5 17 -10 17 -6 0 -13 -8 -16 -17z"/>
<path d="M4912 7838 c2 -15 11 -24 26 -26 24 -4 30 16 10 36 -20 20 -40 14
-36 -10z"/>
<path d="M1736 7794 c-7 -18 0 -34 15 -34 5 0 9 11 9 25 0 28 -15 34 -24 9z"/>
<path d="M1354 7665 c0 -14 6 -23 11 -22 14 5 13 39 -1 44 -7 2 -11 -6 -10
-22z"/>
<path d="M4399 7447 c-14 -31 14 -100 39 -95 10 2 16 11 14 23 -11 79 -16 95
-29 95 -7 0 -18 -10 -24 -23z"/>
<path d="M5762 7438 c7 -19 38 -22 38 -4 0 10 -9 16 -21 16 -12 0 -19 -5 -17
-12z"/>
<path d="M760 7375 c0 -10 10 -15 34 -15 45 0 55 16 15 24 -45 9 -49 8 -49 -9z"/>
<path d="M5920 7356 c0 -20 5 -36 10 -36 6 0 10 9 10 20 0 11 7 20 15 20 8 0
15 5 15 10 0 6 -4 10 -9 10 -5 0 -16 3 -25 6 -13 5 -16 -1 -16 -30z"/>
<path d="M4142 7249 c-25 -41 -28 -65 -10 -71 26 -9 46 25 39 67 l-6 40 -23
-36z"/>
<path d="M4399 7225 c-11 -24 -18 -48 -15 -53 3 -5 26 -9 51 -10 34 0 48 4 55
18 6 10 10 21 10 25 0 8 -63 65 -72 65 -4 0 -17 -20 -29 -45z"/>
<path d="M4928 7193 c-2 -4 -3 -28 -3 -53 0 -33 4 -45 15 -45 11 0 15 11 15
39 0 30 5 41 20 47 16 6 16 8 3 8 -9 1 -23 4 -31 7 -8 3 -17 2 -19 -3z"/>
<path d="M4000 7095 c0 -19 27 -19 60 0 25 14 24 14 -17 15 -32 0 -43 -4 -43
-15z"/>
<path d="M2036 7039 c-19 -19 -19 -19 6 -19 25 0 43 21 31 34 -10 9 -16 6 -37
-15z"/>
<path d="M3744 7043 c-3 -10 -14 -35 -24 -56 -18 -36 -18 -41 -4 -63 20 -30
21 -30 48 3 31 40 37 71 20 104 -17 33 -32 37 -40 12z"/>
<path d="M2270 6996 c0 -11 9 -16 26 -16 31 0 28 23 -4 28 -15 2 -22 -2 -22
-12z"/>
<path d="M2907 7003 c-14 -25 -16 -67 -5 -80 15 -19 20 -94 6 -110 -6 -7 -25
-13 -42 -13 l-31 0 25 -15 c14 -8 31 -17 38 -21 18 -9 61 12 69 33 4 10 10 20
13 23 4 3 10 15 14 27 6 18 2 22 -23 28 -28 6 -30 9 -26 41 2 19 7 39 10 44
11 18 -6 50 -25 50 -10 0 -21 -3 -23 -7z"/>
<path d="M2826 6958 c-43 -22 -38 -35 14 -40 30 -3 35 0 38 21 5 36 -9 41 -52
19z"/>
<path d="M3323 6920 c-3 -11 -9 -20 -14 -20 -16 0 -9 -15 12 -29 27 -16 37 -3
31 39 -5 34 -21 40 -29 10z"/>
<path d="M4113 6924 c-8 -20 21 -49 41 -41 21 8 21 43 0 51 -25 9 -34 7 -41
-10z"/>
<path d="M3545 6743 c-41 -10 -39 -23 4 -23 28 0 41 4 39 12 -5 14 -16 17 -43
11z"/>
<path d="M960 6709 c0 -23 5 -32 21 -36 19 -5 20 -10 14 -64 l-7 -59 36 0 c30
0 37 5 51 34 9 19 23 37 31 40 9 4 14 21 14 51 0 42 -2 45 -27 46 -16 1 -33 1
-40 0 -6 -1 -14 3 -18 9 -3 5 -22 10 -41 10 -31 0 -34 -2 -34 -31z"/>
<path d="M4858 6701 c-33 -37 -98 -49 -170 -32 -69 15 -169 14 -194 -3 -11 -8
-42 -17 -69 -22 -54 -8 -197 -57 -232 -80 -12 -8 -30 -14 -38 -14 -9 0 -34
-18 -56 -40 -24 -24 -52 -42 -74 -46 -50 -9 -61 -26 -41 -68 9 -19 16 -47 16
-63 0 -50 13 -58 48 -33 26 19 34 21 46 10 9 -7 23 -9 32 -6 9 4 22 2 29 -4
10 -8 17 -6 27 9 21 29 65 43 139 42 41 0 100 9 154 24 72 20 93 30 113 55 18
23 30 30 45 26 12 -3 41 4 66 15 55 24 110 26 168 5 24 -8 95 -17 164 -20 66
-4 125 -9 130 -12 5 -3 9 -16 9 -30 0 -26 4 -29 60 -38 50 -9 83 -37 82 -72 0
-41 15 -54 62 -54 45 0 82 29 72 57 -3 8 1 24 9 36 27 39 19 72 -27 112 -24
20 -52 55 -63 78 -15 30 -33 49 -70 69 -28 15 -60 27 -73 27 -28 1 -216 56
-254 75 -59 30 -82 29 -110 -3z"/>
<path d="M3347 6660 c3 -30 9 -59 14 -64 11 -13 69 32 69 54 0 14 -11 22 -39
30 -22 6 -42 16 -44 23 -3 6 -3 -13 0 -43z"/>
<path d="M2695 6338 c-16 -4 -86 -6 -154 -4 -119 4 -125 3 -145 -19 -12 -13
-41 -29 -66 -36 -25 -7 -51 -19 -58 -26 -19 -19 -32 -16 -32 7 0 11 -6 20 -14
20 -7 0 -27 3 -44 6 -28 6 -31 4 -34 -22 -3 -28 -5 -29 -51 -26 -39 3 -52 -1
-77 -22 -17 -14 -47 -28 -68 -31 -93 -16 -92 -15 -92 -46 0 -24 -9 -34 -60
-66 -79 -50 -93 -86 -60 -159 12 -27 23 -50 24 -50 0 -1 30 5 66 13 36 9 83
16 105 17 61 2 115 25 159 67 22 22 43 39 47 39 4 0 29 18 54 40 25 22 56 42
68 44 99 19 147 30 179 42 45 16 284 10 430 -12 54 -8 133 -15 175 -15 112 -2
128 -8 128 -44 0 -22 4 -30 17 -29 21 2 65 -53 73 -92 4 -16 11 -41 17 -56 9
-24 6 -32 -16 -59 -29 -34 -33 -57 -12 -65 25 -9 10 -150 -21 -195 -30 -46
-47 -138 -28 -158 19 -20 42 -7 50 28 9 44 72 94 108 87 20 -4 27 -2 27 10 0
27 40 74 63 75 l22 0 -22 11 c-25 12 -31 46 -12 65 8 8 9 28 1 73 -8 44 -8 68
0 85 9 21 7 28 -18 54 -16 17 -34 31 -40 31 -5 0 -30 29 -54 65 -23 36 -50 71
-60 78 -9 7 -20 28 -24 47 -3 19 -16 44 -27 56 -11 12 -23 41 -26 63 -9 64
-41 74 -266 91 -70 6 -144 14 -165 18 -20 5 -50 5 -67 0z"/>
<path d="M4800 6225 c-7 -9 -19 -14 -27 -11 -7 3 -20 -6 -29 -19 -9 -14 -25
-25 -36 -25 -24 0 -60 -19 -71 -36 -5 -9 -26 -14 -54 -14 -38 0 -53 6 -76 28
-45 43 -104 38 -187 -16 -36 -23 -75 -46 -87 -52 -31 -13 -48 -47 -33 -65 15
-18 5 -35 -21 -35 -53 0 13 -59 69 -62 48 -2 52 1 67 44 8 25 24 39 72 64 54
29 63 31 74 18 7 -8 11 -34 11 -57 -2 -53 30 -148 55 -163 10 -6 42 -25 71
-42 35 -21 66 -32 90 -32 33 1 41 6 78 58 79 110 91 155 55 225 l-19 38 24 9
c36 14 78 -7 152 -77 64 -61 72 -76 47 -90 -19 -11 -21 -49 -4 -91 12 -29 12
-35 -2 -45 -9 -7 -14 -17 -12 -24 7 -19 -15 -24 -57 -13 -61 17 -84 1 -75 -53
14 -81 33 -92 100 -60 29 14 40 15 55 5 28 -17 44 -15 60 9 17 24 23 30 63 61
23 16 28 27 24 47 -3 15 -2 33 3 40 11 19 71 6 93 -19 14 -17 21 -19 38 -9 19
10 21 17 15 68 -4 35 -12 60 -22 66 -44 27 -56 43 -61 81 -5 36 -10 43 -47 60
-27 13 -41 25 -41 38 0 14 -10 22 -32 28 -20 5 -38 20 -52 43 -11 19 -27 35
-35 35 -7 0 -27 7 -42 15 -16 8 -40 15 -54 15 -15 0 -30 4 -35 9 -6 5 -28 12
-51 16 -31 5 -44 2 -54 -10z m-126 -248 c8 -12 5 -21 -8 -36 -23 -25 -61 -27
-70 -5 -7 20 2 56 17 66 14 9 49 -5 61 -25z"/>
<path d="M3994 6165 c-4 -11 -10 -12 -18 -6 -19 16 -38 -4 -39 -43 -1 -36 -23
-56 -47 -41 -12 7 -48 -65 -43 -87 3 -13 -2 -16 -23 -15 -27 2 -27 2 -30 -73
-2 -41 -6 -90 -9 -107 -4 -20 -2 -33 5 -33 5 0 10 -14 10 -30 0 -17 9 -47 20
-67 11 -21 20 -50 20 -66 0 -15 6 -40 14 -55 20 -41 26 -118 10 -139 -7 -10
-14 -26 -14 -35 0 -22 42 -50 64 -42 12 5 16 0 16 -18 0 -13 5 -29 10 -34 15
-15 1 -44 -21 -44 -23 0 -26 -35 -4 -44 10 -4 19 2 24 16 7 20 8 19 19 -8 6
-16 10 -47 7 -68 -3 -35 1 -46 37 -88 39 -48 43 -49 89 -47 26 2 53 -2 61 -8
7 -6 24 -13 38 -15 13 -1 30 -13 36 -25 6 -13 18 -31 27 -41 10 -10 17 -26 17
-35 0 -9 8 -24 19 -34 27 -27 35 -71 16 -99 -9 -14 -13 -34 -10 -47 8 -29 -16
-85 -49 -116 -23 -21 -31 -23 -83 -17 -57 6 -58 6 -85 -28 -22 -28 -26 -40
-21 -71 7 -40 -8 -59 -39 -49 -13 4 -18 0 -18 -15 0 -25 8 -26 34 -6 11 9 41
15 68 15 26 0 48 4 48 10 0 15 74 58 114 65 27 5 36 12 36 27 0 30 17 54 54
77 31 20 36 29 56 116 22 93 22 95 4 151 -10 32 -33 78 -51 103 -18 25 -39 57
-45 71 -7 14 -27 39 -44 55 -34 33 -74 118 -74 160 0 21 4 25 19 20 11 -3 22
-1 26 5 3 5 -1 10 -9 10 -9 0 -18 13 -22 36 -3 19 -18 49 -32 65 -23 28 -24
35 -18 95 l7 66 -40 36 c-32 31 -43 51 -61 117 -14 49 -23 112 -24 165 -1 82
-2 85 -28 98 -26 12 -27 16 -24 68 2 31 11 63 19 72 8 9 17 34 20 55 5 32 3
37 -14 37 -11 0 -22 -7 -25 -15z"/>
<path d="M3840 6136 c0 -32 18 -43 38 -23 13 13 13 19 2 31 -19 24 -40 19 -40
-8z"/>
<path d="M2725 5949 c-58 -21 -104 -30 -166 -34 -49 -2 -113 -13 -147 -24 -34
-12 -75 -21 -92 -21 -23 0 -30 -4 -30 -20 0 -13 -7 -20 -18 -20 -24 0 -132
-58 -132 -71 0 -5 -5 -15 -10 -22 -6 -7 -21 -28 -33 -47 -12 -19 -32 -37 -42
-39 -35 -6 -45 -22 -45 -73 0 -43 -4 -54 -30 -78 -16 -15 -30 -37 -30 -49 0
-12 -6 -21 -15 -21 -13 0 -12 -6 5 -39 22 -43 36 -53 63 -39 18 9 24 58 7 58
-5 0 -10 5 -10 10 0 13 26 13 48 -1 15 -9 31 -7 76 10 61 22 96 26 112 12 11
-11 124 -2 124 10 0 5 -18 9 -40 9 -25 0 -40 5 -41 13 -5 54 5 168 17 193 16
34 105 124 123 124 16 0 39 -40 56 -98 11 -37 25 -59 51 -78 19 -15 42 -40 50
-56 16 -31 44 -36 84 -13 14 7 37 11 52 8 23 -4 29 -1 37 19 5 13 16 30 25 37
9 7 16 25 16 39 0 13 9 40 21 59 16 25 19 42 14 66 -13 64 -11 91 7 95 22 4
139 -51 162 -77 17 -19 20 -19 43 -4 20 14 24 22 21 62 -3 45 -3 46 -78 88
-93 53 -139 55 -255 12z m-61 -174 c9 -25 -11 -65 -34 -65 -25 0 -34 21 -26
55 7 29 50 36 60 10z"/>
<path d="M5703 5913 c-20 -8 -15 -29 11 -46 28 -19 36 -13 36 25 0 28 -15 35
-47 21z"/>
<path d="M4153 5804 c-16 -42 24 -69 57 -39 22 20 24 18 122 -79 38 -36 59
-49 89 -53 21 -3 39 -3 39 0 0 3 -13 19 -30 37 -16 17 -35 46 -41 65 -12 33
-32 45 -76 45 -12 0 -27 9 -33 19 -8 16 -20 19 -66 18 -34 -1 -58 -6 -61 -13z"/>
<path d="M3069 5734 c-7 -8 -25 -22 -40 -30 -16 -8 -33 -29 -40 -49 -10 -26
-21 -38 -48 -46 -51 -16 -51 -17 -35 -47 7 -15 14 -35 14 -44 0 -28 21 -32 43
-9 18 18 20 25 10 50 -16 44 10 67 87 76 56 6 90 24 90 45 0 12 -50 70 -60 70
-4 0 -13 -7 -21 -16z"/>
<path d="M4680 5620 c-13 -9 -12 -13 9 -30 28 -24 41 -25 67 -5 10 8 28 15 39
15 18 0 18 1 3 16 -12 13 -20 14 -36 5 -14 -7 -23 -8 -27 -1 -8 13 -36 13 -55
0z"/>
<path d="M3485 5579 c-10 -29 6 -41 51 -37 29 2 40 8 42 22 5 23 -14 36 -55
36 -23 0 -33 -5 -38 -21z"/>
<path d="M5673 5573 c-4 -10 2 -23 17 -35 l23 -19 -28 -29 c-23 -24 -26 -32
-15 -45 14 -16 46 -20 54 -6 3 5 23 12 43 16 21 4 41 9 46 12 4 3 -8 24 -28
48 -19 24 -35 48 -35 53 0 25 -68 30 -77 5z"/>
<path d="M2416 5491 c-19 -21 -32 -116 -17 -125 12 -8 91 37 91 52 0 6 -7 12
-16 12 -12 0 -15 9 -12 37 4 44 -18 55 -46 24z"/>
<path d="M3420 5471 c0 -36 15 -39 60 -16 31 16 40 35 16 35 -7 0 -28 3 -45 6
-29 6 -31 5 -31 -25z"/>
<path d="M2811 5461 c-12 -22 -5 -31 25 -31 29 0 39 16 24 35 -17 20 -37 19
-49 -4z"/>
<path d="M3384 5353 c-70 -52 -91 -64 -108 -57 -8 3 -17 1 -21 -5 -3 -6 1 -11
9 -11 21 0 20 -8 -2 -45 -11 -18 -21 -60 -25 -104 -4 -53 -12 -83 -27 -103
-11 -15 -29 -61 -39 -102 -10 -41 -22 -80 -27 -87 -22 -36 1 -187 47 -304 23
-60 11 -144 -25 -175 -9 -7 -16 -18 -16 -24 0 -7 -23 -17 -51 -22 -46 -8 -54
-13 -74 -49 -17 -31 -31 -42 -61 -51 -21 -6 -44 -19 -49 -30 -18 -34 -49 -64
-67 -64 -10 0 -26 -8 -36 -17 -10 -10 -35 -31 -55 -48 -25 -20 -37 -38 -37
-55 0 -13 -12 -36 -26 -50 -32 -31 -74 -96 -74 -115 0 -7 -4 -15 -9 -17 -5 -1
-21 -34 -35 -72 l-26 -69 36 6 c35 6 35 6 29 -24 -7 -33 -3 -35 55 -17 35 11
40 17 40 42 0 16 8 38 17 48 9 10 20 43 24 74 9 70 27 91 72 86 22 -2 39 2 50
12 8 9 26 16 39 16 30 0 48 17 48 45 0 32 39 60 85 60 34 0 40 3 43 23 2 13
17 32 35 43 l32 19 8 -30 c8 -33 37 -42 37 -12 0 10 18 33 39 50 l39 32 8 101
7 100 36 23 c20 13 47 27 61 31 31 9 60 34 60 52 0 10 -19 13 -77 13 -88 0
-97 4 -107 43 -3 15 -13 27 -20 27 -16 0 -46 53 -46 82 0 10 5 18 10 18 6 0
10 25 10 56 0 38 8 75 24 113 14 31 27 67 30 81 10 49 28 62 92 65 32 1 69 3
81 4 14 1 25 11 32 32 6 17 22 44 36 61 14 16 25 41 25 55 0 30 47 77 96 95
51 18 44 38 -15 38 -39 0 -56 5 -78 26 -25 22 -26 24 -6 19 52 -14 38 54 -17
77 -72 32 -81 31 -136 -9z m94 -102 c7 -50 -31 -48 -44 2 -6 26 -4 28 17 25
16 -2 25 -11 27 -27z m-45 -71 c21 0 22 -23 1 -44 -20 -20 -24 -20 -53 4 -29
25 -22 55 12 46 12 -3 30 -6 40 -6z"/>
<path d="M4306 5215 c-4 -11 1 -15 19 -15 16 0 25 6 25 15 0 8 -9 15 -19 15
-10 0 -21 -7 -25 -15z"/>
<path d="M4570 5091 c0 -23 25 -45 41 -35 8 5 7 9 -4 16 -9 5 -14 15 -11 23 4
9 0 15 -10 15 -9 0 -16 -8 -16 -19z"/>
<path d="M1764 5026 c-3 -9 -3 -27 0 -40 3 -14 2 -28 -4 -31 -5 -3 -10 -21
-10 -38 0 -18 -7 -42 -15 -54 -16 -23 -11 -53 10 -53 8 0 17 -5 21 -11 9 -15
-16 -59 -33 -59 -7 0 -16 -7 -20 -16 -8 -23 22 -44 63 -44 27 0 32 4 38 31 3
17 6 42 6 55 0 13 6 27 13 31 7 4 18 21 25 36 8 18 18 27 30 25 9 -1 27 5 40
13 18 13 22 22 16 44 -5 21 -20 33 -65 54 -38 17 -59 33 -61 46 -4 25 -46 33
-54 11z"/>
<path d="M5573 4983 c-7 -3 -13 -20 -13 -39 0 -29 3 -34 24 -34 13 0 29 7 36
16 11 13 10 19 -11 38 -13 13 -30 22 -36 19z"/>
<path d="M2820 4970 c0 -14 26 -23 41 -15 8 6 7 10 -2 16 -19 12 -39 11 -39
-1z"/>
<path d="M4040 4914 c0 -9 7 -14 17 -12 25 5 28 28 4 28 -12 0 -21 -6 -21 -16z"/>
<path d="M1607 4893 c-4 -3 -7 -26 -7 -50 0 -42 1 -43 34 -43 28 0 35 4 40 26
10 39 -43 92 -67 67z"/>
<path d="M2309 4853 c-1 -16 -1 -32 0 -37 1 -4 -3 -14 -9 -21 -13 -15 -7 -20
38 -30 28 -6 32 -10 32 -39 0 -56 52 -84 96 -52 22 17 12 23 -41 28 -29 3 -30
5 -33 61 -3 53 -13 70 -27 47 -3 -5 -14 -9 -23 -9 -15 1 -15 2 1 6 13 3 16 11
11 31 -9 37 -13 42 -30 42 -8 0 -14 -11 -15 -27z"/>
<path d="M4030 4808 c0 -7 -21 -24 -48 -38 -36 -19 -54 -37 -75 -78 -16 -30
-39 -57 -52 -62 -13 -5 -25 -15 -28 -22 -4 -9 -15 -3 -37 20 -24 26 -34 31
-45 22 -15 -12 -50 1 -70 26 -5 6 -28 15 -50 19 -22 3 -59 13 -83 21 -50 16
-138 7 -191 -21 -26 -13 -31 -22 -31 -50 0 -51 63 -100 85 -65 3 6 28 10 55
10 27 0 52 5 55 10 8 13 95 13 95 0 0 -5 12 -17 26 -26 24 -16 27 -16 54 -1
37 22 57 21 102 -3 46 -24 162 -23 202 3 14 10 37 17 51 17 17 0 25 5 25 18 0
23 46 57 88 67 29 6 31 9 26 33 -10 39 -11 41 -59 63 -24 11 -46 27 -49 35 -7
17 -46 19 -46 2z"/>
<path d="M2531 4791 c-14 -9 -9 -41 7 -41 17 0 45 27 38 38 -9 14 -26 15 -45
3z"/>
<path d="M6085 4571 c-3 -5 -1 -12 5 -16 5 -3 10 -15 10 -26 0 -19 11 -25 23
-13 6 6 -19 64 -28 64 -2 0 -6 -4 -10 -9z"/>
<path d="M1633 4558 c-5 -7 -17 -30 -27 -50 -9 -21 -23 -38 -31 -38 -25 0 -17
-21 21 -56 41 -40 47 -41 74 -14 21 21 27 65 10 75 -5 3 -10 26 -10 51 0 45
-16 59 -37 32z"/>
<path d="M5770 4489 c-19 -10 -39 -20 -44 -21 -5 -2 -3 -21 4 -42 11 -35 13
-36 30 -21 17 15 20 15 43 1 25 -17 57 -13 57 8 0 6 3 21 6 32 4 17 0 23 -20
28 -14 3 -26 13 -26 21 0 18 -6 18 -50 -6z"/>
<path d="M4410 4446 c-4 -11 -3 -34 3 -50 7 -20 7 -34 -2 -47 -15 -25 -14 -29
5 -29 9 0 22 -8 29 -17 11 -15 15 -15 29 -4 21 18 31 8 17 -17 -6 -11 -26 -23
-46 -26 -31 -6 -40 -3 -65 21 -72 71 -66 68 -119 54 -26 -7 -59 -9 -72 -6 -13
3 -39 0 -57 -8 l-33 -14 25 -17 c22 -14 24 -20 16 -36 -20 -37 -12 -56 30 -70
31 -10 43 -11 52 -2 20 20 76 15 90 -8 13 -20 43 -26 64 -12 6 4 15 22 19 39
9 43 17 47 55 26 24 -14 30 -23 27 -41 -3 -15 2 -26 15 -33 10 -6 23 -21 28
-34 11 -28 49 -38 125 -33 48 3 50 4 55 37 6 41 31 61 54 42 22 -18 20 -43 -5
-74 -20 -26 -20 -27 -2 -51 24 -33 35 -37 78 -25 49 14 68 6 94 -41 22 -39 25
-61 19 -143 -3 -38 -2 -39 40 -54 64 -21 85 -15 93 27 3 19 11 48 18 63 16 41
14 68 -9 92 -11 12 -24 43 -29 70 -6 35 -17 54 -35 68 -14 10 -26 26 -26 35
-1 23 -43 69 -66 74 -11 2 -29 23 -42 50 -16 35 -29 49 -50 54 -53 12 -57 14
-67 36 -11 25 -79 43 -126 33 -31 -7 -45 15 -29 45 6 10 10 21 10 23 0 8 -74
20 -138 22 -57 2 -65 0 -72 -19z m130 -60 c0 -27 -24 -56 -46 -56 -8 0 -14 -4
-14 -10 0 -14 -26 -12 -38 3 -13 15 -4 31 21 40 11 4 21 16 24 27 3 13 14 20
29 20 19 0 24 -5 24 -24z"/>
<path d="M1190 4439 c-30 -19 -31 -22 -17 -36 19 -20 70 -21 91 -3 23 18 20
27 -12 44 -26 13 -32 13 -62 -5z"/>
<path d="M3980 4326 c-10 -13 -9 -21 5 -43 l18 -26 18 24 c10 13 18 31 16 39
-3 21 -41 24 -57 6z"/>
<path d="M1757 4313 c-3 -4 -4 -19 -3 -33 2 -37 31 -33 31 4 0 28 -18 46 -28
29z"/>
<path d="M3520 4292 c0 -12 -4 -24 -10 -27 -14 -9 -12 -23 3 -22 6 1 28 -6 47
-15 19 -8 49 -20 65 -25 20 -6 29 -15 27 -26 -2 -9 2 -17 8 -17 5 0 10 9 10
21 0 11 14 33 30 47 20 18 30 36 30 55 0 27 -1 28 -42 21 -59 -8 -76 -8 -125
1 -39 7 -43 6 -43 -13z"/>
<path d="M5670 4301 c0 -9 24 -21 41 -21 5 0 9 7 9 15 0 9 -9 15 -25 15 -14 0
-25 -4 -25 -9z"/>
<path d="M1310 4249 c-19 -34 -9 -64 23 -67 29 -4 34 -11 15 -30 -9 -9 -9 -15
0 -24 19 -19 46 3 50 41 3 25 -1 34 -16 38 -12 3 -22 16 -26 34 -6 34 -30 38
-46 8z"/>
<path d="M3335 4199 c-4 -21 -14 -43 -22 -48 -13 -7 -10 -12 15 -30 35 -24 35
-24 85 -10 29 8 37 15 37 33 0 26 -18 45 -72 74 l-36 21 -7 -40z"/>
<path d="M5473 4176 c3 -8 3 -17 0 -20 -4 -3 -7 -16 -9 -29 -3 -36 -38 -121
-53 -131 -12 -7 -11 -11 4 -22 14 -10 16 -21 12 -51 -5 -25 -2 -42 8 -53 11
-12 12 -24 6 -46 -5 -16 -14 -45 -20 -65 -6 -19 -11 -45 -11 -57 0 -11 -4 -24
-10 -27 -5 -3 -10 -39 -10 -80 0 -59 -3 -76 -17 -83 -15 -9 -14 -12 5 -37 35
-44 26 -78 -23 -87 -28 -5 -32 -44 -5 -53 12 -4 26 -18 32 -31 7 -15 17 -23
26 -19 8 3 21 0 29 -6 7 -7 16 -9 20 -6 3 4 12 2 20 -5 7 -6 16 -8 19 -5 6 5
7 17 18 137 3 30 8 67 10 82 3 15 1 30 -4 33 -6 3 -10 21 -10 39 0 45 41 90
75 82 18 -5 27 -1 35 14 9 17 8 20 -14 20 -38 0 -54 9 -75 43 -17 29 -18 41
-9 137 5 58 10 132 11 165 2 57 3 60 31 65 39 7 53 31 40 67 -9 25 -14 28 -46
25 -20 -2 -39 1 -43 7 -10 17 -48 14 -42 -3z"/>
<path d="M2244 4145 c-9 -14 -14 -32 -10 -40 8 -22 49 -18 75 6 21 20 21 22 5
40 -24 26 -50 24 -70 -6z"/>
<path d="M1718 4103 c-9 -10 -19 -36 -22 -58 -6 -35 -4 -44 19 -65 26 -24 27
-24 40 -6 8 10 18 15 23 12 16 -9 34 21 30 50 -2 15 -12 32 -23 38 -10 6 -26
19 -35 29 -15 18 -16 18 -32 0z"/>
<path d="M2063 4060 c-7 -10 -10 -26 -7 -34 5 -12 9 -11 25 5 22 22 25 49 6
49 -7 0 -18 -9 -24 -20z"/>
<path d="M3795 4057 c-17 -13 -17 -15 3 -35 12 -12 29 -22 38 -22 24 0 54 19
54 35 0 31 -62 45 -95 22z"/>
<path d="M1547 4053 c-12 -12 -7 -37 13 -63 10 -14 22 -22 26 -18 4 4 2 14 -4
21 -9 10 -9 16 0 25 8 8 8 15 -2 27 -14 16 -23 19 -33 8z"/>
<path d="M1800 3901 c0 -19 23 -35 34 -24 7 8 -12 43 -24 43 -6 0 -10 -9 -10
-19z"/>
<path d="M1915 3883 c-28 -30 -32 -39 -20 -46 8 -4 15 -19 15 -32 0 -26 9 -32
26 -16 5 5 20 11 34 14 24 4 24 4 -2 6 -34 1 -38 21 -5 21 13 0 28 5 35 12 17
17 15 65 -4 72 -30 12 -45 6 -79 -31z"/>
<path d="M4018 3903 c-21 -5 -24 -29 -5 -36 6 -2 0 -8 -15 -12 -14 -4 -28 -15
-31 -25 -3 -12 -21 -23 -48 -30 -24 -7 -47 -17 -51 -23 -8 -14 -183 -11 -220
4 -19 8 -32 8 -47 -1 -14 -7 -27 -8 -40 -1 -26 15 -115 6 -142 -13 -30 -21
-82 -20 -126 0 -41 20 -63 11 -123 -47 -21 -20 -52 -40 -69 -44 -22 -5 -31
-12 -31 -26 0 -11 -14 -28 -32 -39 -18 -11 -46 -31 -61 -45 -15 -14 -41 -28
-58 -32 -16 -3 -29 -9 -29 -13 0 -18 53 -70 72 -70 10 0 28 -4 38 -10 12 -6
36 -5 76 6 53 14 63 13 102 -1 36 -14 50 -15 93 -5 27 7 61 10 74 7 30 -5 49
15 51 54 1 21 -3 29 -16 29 -9 0 -25 9 -35 20 -18 20 -18 21 2 48 19 26 25 27
144 34 132 8 226 3 247 -14 6 -6 12 -23 12 -39 0 -44 35 -62 94 -49 26 6 52 8
57 5 5 -4 9 -1 9 4 0 6 -6 11 -13 11 -20 0 -49 36 -45 56 7 39 154 76 354 88
78 5 108 3 136 -8 43 -18 78 -64 78 -101 0 -27 1 -27 48 -21 26 4 66 17 90 29
41 21 44 21 72 5 29 -16 30 -16 50 10 12 15 32 33 45 42 l23 15 -39 40 c-21
22 -39 45 -39 52 0 23 -97 63 -155 63 -21 0 -33 7 -40 21 -10 23 -46 39 -131
58 -79 18 -138 -18 -84 -51 29 -18 25 -31 -7 -25 -16 4 -43 9 -61 13 -26 5
-30 9 -21 20 19 24 -1 38 -22 15 -33 -36 -89 -25 -81 15 4 25 -7 29 -50 17z"/>
<path d="M4197 3593 c-21 -16 -36 -37 -37 -49 0 -18 8 -22 53 -28 81 -9 95 -8
117 14 28 28 25 47 -12 70 -45 27 -78 25 -121 -7z"/>
<path d="M2117 3564 c-4 -4 -7 -16 -7 -26 0 -10 -7 -18 -15 -18 -22 0 -19 -39
5 -58 11 -10 26 -33 35 -54 14 -35 14 -37 -10 -52 -31 -21 -31 -31 1 -61 22
-20 23 -26 13 -43 -19 -30 5 -55 47 -50 22 3 30 0 27 -8 -2 -7 0 -22 6 -33 9
-16 18 -19 41 -14 25 4 30 2 30 -13 0 -11 -5 -26 -10 -34 -8 -12 -13 -13 -30
-2 -29 18 -32 16 -28 -25 2 -30 7 -38 23 -38 26 0 35 -13 35 -55 0 -41 13 -65
29 -56 15 10 14 32 -5 68 -12 24 -14 36 -6 49 6 9 9 25 6 35 -3 11 -1 37 4 59
8 37 6 43 -26 83 -28 35 -40 42 -69 42 -39 0 -41 18 -5 35 27 12 28 21 2 37
-17 11 -20 24 -20 85 0 48 -5 76 -14 86 -8 7 -16 25 -18 38 -3 23 -27 37 -41
23z"/>
<path d="M2610 3523 c0 -4 11 -18 24 -32 15 -16 28 -45 33 -76 l8 -50 52 -3
c47 -3 52 -6 62 -32 7 -23 16 -30 36 -30 30 0 43 25 27 51 -7 10 -12 27 -12
38 0 28 -20 39 -75 43 -50 3 -50 3 -59 45 -7 29 -16 43 -30 47 -29 8 -66 7
-66 -1z"/>
<path d="M1920 3500 c0 -23 31 -27 49 -6 9 11 8 15 -5 20 -29 11 -44 6 -44
-14z"/>
<path d="M4842 3478 c5 -15 48 -18 48 -3 0 6 -11 11 -26 13 -18 3 -25 0 -22
-10z"/>
<path d="M4755 3429 c-4 -5 -1 -23 5 -40 14 -34 46 -39 85 -13 32 21 31 30 -5
49 -34 17 -76 20 -85 4z"/>
<path d="M3895 3389 c-38 -4 -84 -5 -102 -2 -19 3 -46 -2 -69 -13 -21 -10 -55
-17 -77 -17 -43 2 -117 -23 -117 -40 0 -5 12 -26 26 -45 25 -32 30 -34 71 -29
24 2 45 1 48 -3 7 -11 205 -51 217 -44 14 9 8 47 -9 59 -9 7 -13 17 -9 23 11
18 45 14 73 -8 27 -21 69 -19 88 5 12 15 62 28 76 19 6 -4 5 -11 -3 -21 -10
-12 -9 -18 7 -29 36 -26 60 -9 48 34 -4 16 2 24 28 36 29 13 45 22 79 44 11 7
-26 21 -43 16 -9 -3 -32 -1 -50 4 -46 14 -200 20 -282 11z"/>
<path d="M2893 3345 c-28 -27 -29 -51 -4 -65 47 -25 73 7 51 61 -14 34 -18 34
-47 4z"/>
<path d="M5157 3273 c-14 -13 -7 -73 7 -73 11 0 13 9 9 38 -7 43 -7 44 -16 35z"/>
<path d="M3312 3234 c-19 -13 -8 -34 18 -34 10 0 24 -8 30 -17 8 -13 13 -14
16 -5 3 6 11 12 18 12 7 0 27 11 46 25 31 23 32 25 12 26 -81 5 -127 3 -140
-7z"/>
<path d="M4897 3243 c-23 -23 5 -93 37 -93 17 0 29 70 14 87 -11 14 -40 17
-51 6z"/>
<path d="M2717 3203 c-3 -16 -16 -32 -28 -38 -14 -6 -26 -24 -32 -44 -11 -46
-3 -64 25 -56 31 9 48 33 48 66 0 14 9 38 20 52 20 26 20 26 1 36 -27 15 -28
15 -34 -16z"/>
<path d="M5477 3194 c-11 -11 -8 -82 3 -89 21 -13 41 17 38 54 -3 34 -24 52
-41 35z"/>
<path d="M5091 3151 c-7 -13 -8 -28 -1 -45 11 -29 20 -32 38 -14 18 18 15 42
-7 62 -19 17 -20 17 -30 -3z"/>
<path d="M4954 3125 c-9 -22 0 -50 16 -50 21 0 26 51 5 59 -9 3 -18 0 -21 -9z"/>
<path d="M5283 3134 c-7 -3 -13 -10 -13 -15 0 -5 -9 -18 -20 -29 -13 -13 -20
-33 -20 -57 0 -23 -9 -51 -26 -74 -24 -36 -25 -38 -10 -74 9 -21 16 -47 16
-59 0 -11 7 -30 15 -40 8 -11 15 -26 15 -34 0 -8 11 -27 25 -43 23 -29 24 -29
35 -9 6 11 18 20 26 20 13 0 15 11 11 69 -4 51 -2 73 8 81 10 8 14 40 14 108
0 53 2 111 3 127 3 28 0 30 -32 32 -19 1 -41 0 -47 -3z"/>
<path d="M2140 3060 c0 -11 7 -20 15 -20 8 0 15 9 15 20 0 11 -7 20 -15 20 -8
0 -15 -9 -15 -20z"/>
<path d="M4147 3026 c-23 -37 -27 -50 -19 -78 7 -28 13 -33 37 -33 22 0 31 5
33 20 2 11 10 27 18 36 11 12 12 26 6 55 -12 57 -39 57 -75 0z"/>
<path d="M4591 3031 c-8 -5 -11 -17 -7 -28 8 -24 62 -28 71 -5 12 31 -32 53
-64 33z"/>
<path d="M2782 3007 c-17 -18 -19 -26 -10 -35 11 -11 98 -18 98 -8 0 5 -57 66
-62 66 -3 0 -14 -10 -26 -23z"/>
<path d="M1446 2978 c-22 -37 -24 -182 -5 -528 11 -208 27 -315 63 -420 8 -25
25 -90 37 -145 29 -134 56 -208 94 -258 23 -31 38 -68 54 -136 12 -52 31 -111
40 -130 10 -20 21 -52 25 -72 3 -20 15 -44 26 -54 10 -9 28 -48 39 -85 12 -38
32 -82 46 -98 14 -17 25 -34 25 -39 0 -6 16 -40 35 -76 19 -36 35 -72 35 -79
0 -7 9 -30 20 -51 11 -20 20 -47 20 -60 0 -27 37 -99 56 -110 8 -4 14 -18 14
-30 0 -12 7 -30 15 -40 7 -11 11 -25 9 -31 -9 -23 93 -86 139 -86 44 0 51 14
28 56 -25 47 -54 115 -70 166 -7 20 -21 48 -32 62 -25 32 -57 121 -66 181 -4
29 -11 45 -22 48 -11 2 -24 26 -35 60 -10 31 -24 61 -32 68 -20 17 -18 29 13
61 23 24 24 29 12 44 -9 12 -14 46 -14 113 -1 99 -17 166 -45 188 -11 8 -15
33 -16 91 -1 56 -6 86 -17 103 -10 13 -17 42 -17 64 0 23 -8 53 -20 70 -11 17
-20 41 -20 54 0 14 -7 32 -15 41 -10 11 -20 63 -30 156 -8 76 -22 164 -31 194
-18 60 -19 71 -9 145 7 46 5 54 -21 84 l-28 34 -13 -29 c-17 -40 -16 -85 2
-128 12 -27 13 -42 5 -56 -8 -14 -8 -32 0 -61 11 -41 11 -43 -26 -80 -41 -42
-80 -57 -100 -37 -7 7 -18 56 -24 108 -7 52 -16 109 -21 125 -6 17 -14 93 -19
169 -5 77 -15 161 -22 188 -10 42 -9 58 5 114 14 50 15 69 6 87 -17 32 -51 67
-66 67 -7 0 -19 -10 -27 -22z m268 -985 c4 -3 16 -24 26 -47 26 -59 17 -140
-17 -155 -13 -6 -26 -11 -27 -11 -9 0 -26 67 -26 104 -1 23 -7 52 -15 66 -8
14 -14 33 -15 43 0 16 5 18 33 12 17 -4 36 -10 41 -12z"/>
<path d="M2925 2913 c-14 -15 -25 -30 -25 -34 0 -11 49 -32 63 -26 20 7 31 68
15 79 -20 12 -25 10 -53 -19z"/>
<path d="M3914 2905 c-4 -18 -17 -28 -45 -37 -21 -6 -39 -16 -39 -21 0 -16
-140 -1 -154 17 -10 14 -14 14 -36 1 -25 -14 -34 -18 -76 -35 -12 -5 -24 -21
-27 -37 -10 -46 -21 -54 -83 -63 -33 -4 -69 -11 -81 -15 -15 -5 -23 -3 -23 4
0 6 -4 11 -10 11 -5 0 -10 -11 -10 -24 0 -14 -5 -28 -11 -32 -8 -4 -7 -9 2
-15 21 -13 26 -11 32 11 11 43 37 10 37 -47 0 -13 13 -32 30 -45 34 -25 63
-69 74 -112 7 -28 7 -28 32 21 35 65 46 138 28 182 -23 54 -14 64 53 56 51 -6
56 -5 40 7 -17 13 -18 18 -6 56 14 48 19 50 45 21 24 -28 75 -49 116 -49 18 0
44 -9 58 -20 43 -33 58 -27 53 23 -4 36 -1 48 21 74 20 24 25 37 20 62 -8 37
-31 41 -40 6z"/>
<path d="M2523 2878 c-14 -16 -83 -30 -163 -32 -32 -1 -35 -4 -35 -31 0 -28 3
-30 42 -33 32 -2 47 2 62 17 26 26 55 26 101 2 27 -15 39 -16 58 -8 17 8 28 8
41 0 14 -9 21 -9 30 0 19 19 12 47 -14 57 -27 10 -33 26 -12 33 6 2 -12 6 -41
8 -41 3 -57 0 -69 -13z"/>
<path d="M4206 2891 c-3 -4 4 -17 15 -26 18 -17 21 -17 35 -3 9 9 13 21 10 27
-8 13 -53 15 -60 2z"/>
<path d="M3221 2846 l-22 -23 23 -7 c37 -9 88 -7 88 5 0 49 -53 64 -89 25z"/>
<path d="M4966 2848 c-14 -56 -3 -84 28 -72 11 4 16 19 16 50 0 36 -3 44 -19
44 -11 0 -21 -9 -25 -22z"/>
<path d="M4270 2804 c-19 -49 7 -67 47 -32 10 8 31 18 46 22 45 11 26 31 -31
34 -49 3 -53 1 -62 -24z"/>
<path d="M2928 2735 c-13 -29 3 -55 34 -55 26 0 33 26 14 55 -21 32 -33 32
-48 0z"/>
<path d="M4417 2743 c-8 -10 -18 -30 -22 -44 -5 -21 -1 -31 21 -48 33 -26 50
-27 64 -1 10 19 7 80 -5 100 -10 16 -40 12 -58 -7z"/>
<path d="M2400 2728 c0 -19 37 -46 65 -50 27 -3 31 -7 36 -45 6 -51 14 -61 37
-47 20 13 26 118 8 133 -15 12 -146 19 -146 9z"/>
<path d="M4524 2589 c-10 -17 17 -29 38 -16 10 7 18 15 18 19 0 12 -48 9 -56
-3z"/>
<path d="M2835 2572 c-16 -2 -33 -7 -38 -11 -9 -9 19 -81 32 -81 15 0 42 50
39 73 -2 18 -9 21 -33 19z"/>
<path d="M5767 2470 c3 -12 0 -20 -7 -20 -9 0 -10 -10 -6 -35 5 -27 2 -44 -13
-69 -12 -18 -21 -43 -21 -55 0 -12 -4 -30 -9 -40 -6 -10 -12 -73 -15 -142 -9
-210 -18 -293 -34 -329 -11 -25 -15 -65 -14 -145 1 -116 -22 -341 -38 -360 -5
-6 -12 -60 -16 -120 -5 -88 -10 -114 -25 -128 -25 -23 -24 -49 1 -72 11 -10
20 -27 20 -39 0 -11 12 -30 26 -41 25 -20 26 -23 14 -59 -6 -20 -9 -52 -6 -70
5 -26 2 -37 -20 -57 -26 -24 -74 -119 -74 -146 0 -40 -80 -150 -112 -155 -28
-4 -36 -28 -9 -28 11 0 23 5 26 10 3 6 16 10 29 10 26 0 42 17 70 73 11 20 23
37 28 37 5 0 28 20 50 45 44 49 82 59 93 26 12 -39 29 -43 92 -22 55 19 58 22
59 53 0 18 6 46 12 61 7 16 12 33 12 39 0 6 9 26 21 44 16 26 26 33 42 29 34
-9 56 14 50 52 -7 43 -40 44 -86 3 -19 -16 -41 -30 -50 -30 -9 0 -17 -13 -21
-35 -7 -37 -38 -65 -72 -65 -17 0 -26 10 -38 47 -19 57 -20 81 -2 158 8 33 22
91 30 129 11 44 24 74 36 83 14 10 18 21 14 42 -4 17 1 41 12 62 14 28 17 57
16 154 -1 66 -6 136 -12 155 -17 58 -12 135 12 192 21 48 23 68 21 213 0 100
-7 191 -17 243 -9 46 -16 133 -17 193 -1 108 -1 110 -25 120 -33 12 -33 12
-27 -11z"/>
<path d="M2648 2453 c-8 -9 -3 -15 17 -23 14 -5 30 -10 35 -10 11 0 19 25 12
37 -10 13 -51 11 -64 -4z"/>
<path d="M2694 2347 c-3 -9 2 -27 14 -42 17 -22 21 -23 33 -9 10 13 8 19 -14
41 -23 23 -27 24 -33 10z"/>
<path d="M3927 2293 c-14 -14 -7 -43 11 -43 23 0 64 29 57 41 -7 10 -58 12
-68 2z"/>
<path d="M1176 2241 c-9 -16 -16 -41 -16 -54 0 -13 -6 -32 -14 -43 -13 -17
-12 -22 16 -51 27 -28 29 -34 20 -65 -6 -18 -13 -49 -16 -69 -4 -21 -15 -48
-26 -62 -25 -31 -25 -53 -2 -59 15 -4 20 -25 31 -114 8 -60 19 -116 26 -124
14 -18 19 -156 6 -165 -5 -3 -12 -24 -16 -46 -5 -27 -19 -54 -41 -77 -19 -20
-34 -44 -34 -53 0 -9 -7 -19 -14 -22 -8 -3 -18 -23 -22 -44 -8 -45 -20 -63
-44 -63 -10 0 -30 -16 -44 -35 -23 -29 -27 -43 -24 -88 3 -49 5 -52 32 -55 15
-2 40 -1 53 3 20 5 22 9 13 20 -6 7 -10 29 -8 47 3 28 7 34 31 36 16 2 31 11
34 20 19 61 85 192 95 192 5 0 13 -12 19 -27 5 -16 16 -41 23 -57 13 -26 14
-27 20 -8 4 11 16 22 26 25 13 3 20 14 20 30 0 31 -16 44 -24 20 -2 -10 -2 -2
1 18 2 20 0 46 -6 58 -9 16 -8 26 5 46 14 21 15 40 9 118 -3 50 -8 119 -9 152
-5 118 -26 266 -41 288 -9 15 -14 42 -12 80 2 41 -1 58 -12 62 -11 4 -11 9 4
25 17 19 17 21 0 41 -13 14 -19 36 -20 71 0 60 -17 73 -39 29z m102 -944 c3
-12 -4 -17 -23 -17 -23 0 -25 2 -15 21 13 23 33 21 38 -4z"/>
<path d="M984 1795 c-12 -23 -15 -38 -9 -43 6 -4 19 -24 29 -45 12 -22 23 -34
28 -29 12 12 -4 144 -18 149 -6 2 -19 -13 -30 -32z"/>
<path d="M2275 1718 c9 -39 11 -42 24 -33 6 3 11 19 11 36 0 23 -4 29 -21 29
-18 0 -20 -4 -14 -32z"/>
<path d="M359 1602 c-15 -10 -23 -11 -34 -2 -7 6 -16 7 -18 3 -3 -5 7 -14 23
-21 15 -7 31 -19 33 -26 9 -23 -11 -89 -29 -99 -16 -9 -16 -11 2 -24 18 -14
17 -14 -11 -11 -29 3 -30 2 -29 -42 0 -25 4 -108 9 -185 7 -121 6 -145 -9
-172 -9 -19 -25 -33 -38 -35 -20 -3 -24 -11 -29 -58 -3 -30 -13 -69 -22 -87
-21 -39 -21 -43 -3 -43 16 0 26 -21 27 -58 1 -34 22 -95 35 -99 9 -3 26 45 40
117 4 19 12 44 19 55 12 19 28 130 44 305 5 47 14 98 20 114 9 24 9 32 -4 46
-18 20 -13 40 22 86 13 17 23 37 23 45 0 8 9 25 20 39 14 18 20 41 20 80 0 46
-4 57 -22 69 -30 19 -65 20 -89 3z"/>
<path d="M5333 1603 c-7 -3 -13 -11 -13 -20 0 -17 41 -14 47 3 4 13 -16 23
-34 17z"/>
<path d="M926 1563 c10 -42 17 -49 25 -27 14 35 10 54 -11 54 -17 0 -19 -4
-14 -27z"/>
<path d="M4660 1525 c-9 -11 -16 -12 -26 -4 -17 14 -54 -6 -54 -30 0 -25 40
-35 55 -14 11 15 13 14 24 -5 6 -12 17 -22 24 -22 15 0 34 48 29 73 -4 21 -35
22 -52 2z"/>
<path d="M4382 1452 c-23 -7 46 -64 69 -57 13 4 19 2 19 -9 0 -19 8 -20 40 -1
14 8 35 14 48 15 15 0 22 6 22 20 0 11 -6 22 -12 25 -22 6 -172 13 -186 7z"/>
<path d="M3014 1418 c2 -7 10 -30 17 -50 14 -45 43 -51 61 -14 17 38 5 57 -32
50 -23 -5 -30 -3 -30 10 0 9 -5 16 -11 16 -6 0 -8 -6 -5 -12z"/>
<path d="M791 1407 c-14 -14 -14 -44 1 -53 6 -4 37 -6 69 -5 32 1 60 -2 64 -8
7 -13 65 26 65 44 0 6 -10 16 -22 22 -30 14 -163 14 -177 0z"/>
<path d="M4352 1333 c-18 -2 -30 -8 -28 -12 7 -10 76 -1 76 10 0 5 -3 8 -7 7
-5 0 -23 -3 -41 -5z"/>
<path d="M706 1283 c10 -46 13 -53 23 -53 6 0 15 8 20 18 8 15 4 23 -20 41
l-30 22 7 -28z"/>
<path d="M3268 1297 c-18 -7 -29 -20 -34 -40 -5 -24 -1 -35 24 -60 35 -34 62
-31 62 7 0 19 9 30 34 43 33 17 34 19 18 38 -19 22 -63 27 -104 12z"/>
<path d="M4053 1273 c-53 -4 -58 -8 -47 -37 8 -20 28 -21 44 -1 8 9 30 15 56
15 32 0 44 4 44 15 0 9 -8 14 -22 13 -13 -1 -47 -3 -75 -5z"/>
<path d="M4492 1241 c-19 -24 -29 -46 -26 -55 14 -37 -51 -88 -71 -56 -4 6
-11 7 -17 4 -7 -4 -5 -10 6 -16 9 -5 16 -18 16 -29 0 -18 5 -19 68 -13 60 6
70 10 96 41 15 19 46 41 67 49 54 22 67 74 18 74 -10 0 -19 4 -19 8 0 9 -66
32 -92 32 -8 0 -29 -18 -46 -39z"/>
<path d="M3434 1119 c3 -17 6 -37 6 -45 0 -7 16 -16 36 -20 28 -5 40 -2 58 15
23 22 61 28 71 11 9 -14 38 -12 61 4 30 22 11 29 -80 31 -60 1 -91 6 -109 18
-39 26 -50 22 -43 -14z"/>
<path d="M1356 1113 c-3 -3 -6 -13 -6 -21 0 -8 -7 -29 -16 -47 -17 -36 -16
-76 2 -82 19 -6 55 81 48 116 -7 33 -17 45 -28 34z"/>
<path d="M774 1094 c3 -9 6 -18 6 -20 0 -14 41 -1 50 16 10 18 8 20 -26 20
-29 0 -35 -3 -30 -16z"/>
<path d="M3763 1043 c-42 -28 -29 -44 32 -41 36 2 55 7 55 16 0 6 -8 12 -17
12 -9 0 -24 6 -32 14 -14 12 -19 12 -38 -1z"/>
<path d="M4245 1036 c-20 -15 -15 -43 10 -53 24 -9 65 14 65 36 0 31 -43 41
-75 17z"/>
<path d="M2814 1033 c-6 -5 -14 -23 -17 -41 l-7 -33 43 3 c41 3 42 4 42 38 0
30 -4 35 -25 38 -14 1 -30 -1 -36 -5z"/>
<path d="M687 1023 c-12 -19 -11 -62 2 -76 12 -15 16 -15 42 4 16 11 29 26 29
33 0 29 -60 60 -73 39z"/>
<path d="M3356 1023 c-10 -11 7 -33 23 -29 18 6 43 -6 41 -20 0 -5 7 -11 17
-13 10 -2 31 -14 46 -27 29 -25 44 -28 71 -18 46 18 -8 64 -80 69 -26 1 -53 9
-58 17 -12 15 -51 29 -60 21z"/>
<path d="M3967 983 c-12 -12 -19 -13 -37 -3 -16 8 -25 9 -33 1 -14 -14 32 -59
73 -71 38 -11 50 -6 50 19 0 9 5 22 11 28 8 8 2 15 -19 26 -27 13 -32 13 -45
0z"/>
<path d="M6035 990 c-8 -14 5 -81 21 -107 10 -16 11 -29 4 -48 -13 -34 -13
-35 4 -35 23 0 27 29 16 110 -5 41 -10 78 -10 83 0 10 -28 9 -35 -3z"/>
<path d="M4440 980 c-56 -9 -110 -29 -110 -41 0 -5 14 -16 31 -25 35 -18 79
-7 79 20 0 17 21 26 61 26 16 0 29 4 29 9 0 9 -26 22 -38 20 -4 -1 -27 -5 -52
-9z"/>
<path d="M5250 879 c-10 -23 -9 -32 11 -58 24 -32 52 -38 108 -22 23 6 50 55
38 67 -3 3 -37 13 -76 23 l-70 17 -11 -27z"/>
<path d="M4352 794 c-23 -19 -32 -34 -32 -56 0 -19 4 -28 13 -25 6 2 25 -3 40
-12 25 -14 29 -14 37 -1 5 8 10 34 10 57 0 58 -24 71 -68 37z"/>
<path d="M1110 792 c0 -5 -10 -12 -22 -16 -13 -3 -29 -19 -37 -38 -18 -41 -19
-121 -2 -142 16 -19 60 -21 65 -3 2 6 7 21 11 32 12 34 9 169 -3 173 -7 2 -12
-1 -12 -6z"/>
<path d="M1277 733 c-13 -12 -7 -54 9 -60 25 -9 35 10 22 40 -13 28 -20 32
-31 20z"/>
<path d="M2640 689 c-17 -30 -5 -49 30 -49 28 0 30 3 30 35 0 31 -3 35 -25 35
-14 0 -29 -8 -35 -21z"/>
<path d="M4770 651 c0 -39 14 -46 30 -17 14 26 7 46 -16 46 -9 0 -14 -10 -14
-29z"/>
<path d="M1346 656 c3 -8 1 -17 -5 -21 -31 -19 3 -72 39 -60 23 7 26 29 8 68
-13 27 -52 40 -42 13z"/>
<path d="M5040 610 c0 -39 25 -50 52 -22 28 27 17 52 -22 52 -27 0 -30 -3 -30
-30z"/>
<path d="M4242 585 c-6 -14 -9 -31 -7 -38 3 -7 -1 -34 -9 -61 -14 -45 -13 -52
6 -97 17 -37 27 -49 44 -49 27 0 40 15 49 57 3 18 20 47 36 64 40 43 36 71
-13 83 -21 5 -38 15 -38 22 0 10 -41 44 -53 44 -2 0 -9 -11 -15 -25z"/>
<path d="M6115 540 c-14 -22 -29 -40 -35 -40 -5 0 -29 -18 -54 -39 -25 -22
-59 -42 -76 -45 -16 -3 -43 -9 -60 -12 -20 -4 -40 -20 -61 -48 l-30 -43 -92
-6 c-105 -6 -144 -21 -184 -74 -26 -34 -26 -36 -8 -49 10 -8 42 -14 72 -14 45
0 55 4 69 25 12 19 25 25 51 25 19 0 42 4 51 9 9 5 39 12 66 16 39 6 48 5 44
-6 -3 -8 -20 -16 -39 -19 -29 -4 -34 -9 -34 -31 0 -16 -10 -35 -25 -47 l-25
-21 45 -2 c69 -3 84 0 100 21 8 10 34 26 58 35 26 11 49 29 60 47 9 17 41 46
70 64 29 19 54 40 57 47 2 6 6 23 9 37 3 14 18 33 33 42 24 14 32 14 60 3 29
-13 42 -38 48 -95 2 -23 15 -41 25 -35 5 3 24 -2 41 -11 27 -14 38 -14 77 -3
41 11 46 11 58 -6 8 -10 14 -27 14 -37 0 -14 6 -16 28 -12 24 5 29 1 39 -27
16 -41 33 -28 26 19 -3 20 -11 32 -20 32 -12 0 -14 7 -8 33 18 72 10 95 -52
152 -42 39 -75 59 -123 75 -35 12 -88 34 -118 51 -33 18 -68 29 -92 29 -35 0
-43 -4 -65 -40z"/>
<path d="M3521 481 c-23 -15 -5 -44 23 -37 14 3 36 2 50 -4 21 -8 27 -6 36 10
9 17 7 22 -15 30 -32 12 -75 13 -94 1z"/>
<path d="M2370 222 c0 -22 32 -69 60 -87 19 -13 29 -26 26 -37 -2 -9 3 -19 11
-22 17 -7 174 23 187 35 24 22 -70 79 -159 97 -93 20 -125 23 -125 14z"/>
</g>
</svg>
