<?xml version="1.0" encoding="UTF-8" standalone="no"?>
<svg
   xmlns:dc="http://purl.org/dc/elements/1.1/"
   xmlns:cc="http://creativecommons.org/ns#"
   xmlns:rdf="http://www.w3.org/1999/02/22-rdf-syntax-ns#"
   xmlns:svg="http://www.w3.org/2000/svg"
   xmlns="http://www.w3.org/2000/svg"
   xmlns:sodipodi="http://sodipodi.sourceforge.net/DTD/sodipodi-0.dtd"
   xmlns:inkscape="http://www.inkscape.org/namespaces/inkscape"
   enable-background="new 0 0 512 512"
   height="512px"
   id="Layer_1"
   version="1.1"
   viewBox="0 0 512 512"
   width="512px"
   xml:space="preserve"
   inkscape:version="0.91 r13725"
   sodipodi:docname="euro-bag.svg"><metadata
     id="metadata4209"><rdf:RDF><cc:Work
         rdf:about=""><dc:format>image/svg+xml</dc:format><dc:type
           rdf:resource="http://purl.org/dc/dcmitype/StillImage" /><dc:title></dc:title></cc:Work></rdf:RDF></metadata><defs
     id="defs4207" /><sodipodi:namedview
     pagecolor="#ffffff"
     bordercolor="#666666"
     borderopacity="1"
     objecttolerance="10"
     gridtolerance="10"
     guidetolerance="10"
     inkscape:pageopacity="0"
     inkscape:pageshadow="2"
     inkscape:window-width="1600"
     inkscape:window-height="876"
     id="namedview4205"
     showgrid="false"
     inkscape:zoom="1.4824219"
     inkscape:cx="256"
     inkscape:cy="256"
     inkscape:window-x="0"
     inkscape:window-y="24"
     inkscape:window-maximized="1"
     inkscape:current-layer="Layer_1" /><path
     d="m 335.211,161.639 0.036,0.031 c -0.113,-0.125 -0.189,-0.246 -0.303,-0.369 -4.839,-6.736 -9.676,-13.212 -14.397,-19.37 -6.236,-10.43 -9.523,-23.12 -1.892,-41.427 l 0,-0.012 L 344.979,37.504 303.654,18.67 307.884,0 204.072,0 l 5.442,23.789 -42.511,13.716 26.304,62.988 0,0.012 c 13.018,31.139 -5.615,46.01 -16.556,61.166 C 122.598,236.552 61.98,343.759 61.98,408.389 c 0,107.167 83.237,103.598 194.02,103.598 110.768,0 194.021,3.569 194.021,-103.598 0,-64.642 -60.675,-171.848 -114.81,-246.75 m -105.285,-52.586 52.982,0 0,33.434 -52.982,0 z"
     id="path4203"
     inkscape:connector-curvature="0"
     sodipodi:nodetypes="cccccccccccccccssscccccc" /><g
     style="font-style:normal;font-weight:normal;font-size:275.13644409px;line-height:125%;font-family:sans-serif;letter-spacing:0px;word-spacing:0px;fill:#ffffff;fill-opacity:1;stroke:none;stroke-width:1px;stroke-linecap:butt;stroke-linejoin:miter;stroke-opacity:1"
     id="text4211"><path
       d="m 265.03279,458.81538 q -29.71473,0 -46.22292,-17.88387 -16.50818,-18.159 -16.50818,-49.24942 l 0,-22.56119 -13.20655,0 0,-24.48714 13.20655,0 0,-20.08496 -13.20655,0 0,-24.76228 13.20655,0 0,-14.85737 q 0,-32.74124 15.68277,-49.7997 15.68278,-17.05846 47.04833,-17.05846 29.16447,0 43.47156,16.78332 14.58223,16.78333 15.13251,48.14888 l -47.04833,0 0,-3.85191 q 0,-9.90491 -2.2011,-14.85737 -2.20109,-5.22759 -9.35464,-5.22759 -7.42868,0 -9.62977,5.22759 -2.20109,5.2276 -2.20109,14.85737 l 0,20.63524 42.37101,0 0,24.76228 -42.37101,0 0,20.08496 42.37101,0 0,24.48714 -42.37101,0 0,27.23851 q 0,6.32814 3.30163,11.00545 3.30164,4.67732 8.52923,4.67732 5.2276,0 8.2541,-4.67732 3.30164,-4.67731 3.30164,-11.00545 l 0,-3.0265 47.04833,-0.82541 q -0.27514,29.98987 -15.68278,48.14887 -15.1325,18.15901 -42.92129,18.15901 z"
       style="font-style:normal;font-variant:normal;font-weight:normal;font-stretch:normal;font-family:Anton;-inkscape-font-specification:Anton;fill:#ffffff"
       id="path4235" /></g></svg>