<?xml version="1.0" encoding="UTF-8" standalone="no"?>
<!-- Created with Inkscape (http://www.inkscape.org/) -->

<svg
   xmlns:dc="http://purl.org/dc/elements/1.1/"
   xmlns:cc="http://creativecommons.org/ns#"
   xmlns:rdf="http://www.w3.org/1999/02/22-rdf-syntax-ns#"
   xmlns:svg="http://www.w3.org/2000/svg"
   xmlns="http://www.w3.org/2000/svg"
   xmlns:sodipodi="http://sodipodi.sourceforge.net/DTD/sodipodi-0.dtd"
   xmlns:inkscape="http://www.inkscape.org/namespaces/inkscape"
   width="261.50461mm"
   height="98.445152mm"
   viewBox="0 0 926.59113 348.8214"
   id="svg4274"
   version="1.1"
   inkscape:version="0.91 r13725"
   sodipodi:docname="expensive-car-for-important-people01.svg">
  <defs
     id="defs4276">
    <filter
       height="1.0624814"
       y="-0.031240722"
       width="1.0389683"
       x="-0.019484125"
       id="filter4380-3"
       style="color-interpolation-filters:sRGB"
       inkscape:collect="always">
      <feGaussianBlur
         id="feGaussianBlur4382-1"
         stdDeviation="0.92284171"
         inkscape:collect="always" />
    </filter>
    <filter
       height="1.0682721"
       y="-0.034136046"
       width="1.0370106"
       x="-0.018505229"
       id="filter4372-9"
       style="color-interpolation-filters:sRGB"
       inkscape:collect="always">
      <feGaussianBlur
         id="feGaussianBlur4374-6"
         stdDeviation="1.0424806"
         inkscape:collect="always" />
    </filter>
    <filter
       id="filter4265-5"
       inkscape:label="Roughen"
       style="color-interpolation-filters:sRGB">
      <feTurbulence
         id="feTurbulence4267-5"
         result="turbulence"
         baseFrequency="0.013 0.013"
         seed="1"
         numOctaves="5"
         type="fractalNoise" />
      <feDisplacementMap
         result="fbSourceGraphic"
         id="feDisplacementMap4269-3"
         xChannelSelector="R"
         yChannelSelector="G"
         scale="6.6"
         in2="turbulence"
         in="SourceGraphic" />
      <feColorMatrix
         id="feColorMatrix4271-2"
         values="0 0 0 -1 0 0 0 0 -1 0 0 0 0 -1 0 0 0 0 1 0"
         in="fbSourceGraphic"
         result="fbSourceGraphicAlpha" />
      <feTurbulence
         result="turbulence"
         baseFrequency="0.013 0.013"
         seed="1"
         numOctaves="5"
         type="fractalNoise"
         id="feTurbulence4273-3" />
      <feDisplacementMap
         xChannelSelector="R"
         yChannelSelector="G"
         scale="8.4"
         in="fbSourceGraphic"
         in2="turbulence"
         id="feDisplacementMap4275-5" />
    </filter>
    <filter
       id="filter4293-4"
       inkscape:label="Roughen"
       style="color-interpolation-filters:sRGB">
      <feTurbulence
         id="feTurbulence4295-5"
         result="turbulence"
         baseFrequency="0.013 0.013"
         seed="1"
         numOctaves="5"
         type="fractalNoise" />
      <feDisplacementMap
         id="feDisplacementMap4297-3"
         xChannelSelector="R"
         yChannelSelector="G"
         scale="15.5"
         in2="turbulence"
         in="SourceGraphic" />
    </filter>
    <filter
       id="filter4307-8"
       inkscape:label="Roughen"
       style="color-interpolation-filters:sRGB">
      <feTurbulence
         id="feTurbulence4309-8"
         result="turbulence"
         baseFrequency="0.013 0.013"
         seed="1"
         numOctaves="5"
         type="fractalNoise" />
      <feDisplacementMap
         id="feDisplacementMap4311-7"
         xChannelSelector="R"
         yChannelSelector="G"
         scale="15.5"
         in2="turbulence"
         in="SourceGraphic" />
    </filter>
    <filter
       id="filter4313-4"
       inkscape:label="Roughen"
       style="color-interpolation-filters:sRGB">
      <feTurbulence
         id="feTurbulence4315-9"
         result="turbulence"
         baseFrequency="0.013 0.013"
         seed="1"
         numOctaves="5"
         type="fractalNoise" />
      <feDisplacementMap
         id="feDisplacementMap4317-3"
         xChannelSelector="R"
         yChannelSelector="G"
         scale="15.5"
         in2="turbulence"
         in="SourceGraphic" />
    </filter>
    <filter
       id="filter6094"
       inkscape:label="Roughen"
       style="color-interpolation-filters:sRGB">
      <feTurbulence
         id="feTurbulence6096"
         result="turbulence"
         baseFrequency="0.013 0.013"
         seed="1"
         numOctaves="5"
         type="fractalNoise" />
      <feDisplacementMap
         id="feDisplacementMap6098"
         xChannelSelector="R"
         yChannelSelector="G"
         scale="15.5"
         in2="turbulence"
         in="SourceGraphic" />
    </filter>
  </defs>
  <sodipodi:namedview
     id="base"
     pagecolor="#ffffff"
     bordercolor="#666666"
     borderopacity="1.0"
     inkscape:pageopacity="0.0"
     inkscape:pageshadow="2"
     inkscape:zoom="0.35"
     inkscape:cx="1182.5813"
     inkscape:cy="-251.30359"
     inkscape:document-units="px"
     inkscape:current-layer="layer1"
     showgrid="false"
     fit-margin-top="0"
     fit-margin-left="0"
     fit-margin-right="0"
     fit-margin-bottom="0"
     inkscape:window-width="1536"
     inkscape:window-height="841"
     inkscape:window-x="-8"
     inkscape:window-y="48"
     inkscape:window-maximized="1" />
  <metadata
     id="metadata4279">
    <rdf:RDF>
      <cc:Work
         rdf:about="">
        <dc:format>image/svg+xml</dc:format>
        <dc:type
           rdf:resource="http://purl.org/dc/dcmitype/StillImage" />
        <dc:title></dc:title>
      </cc:Work>
    </rdf:RDF>
  </metadata>
  <g
     inkscape:label="Layer 1"
     inkscape:groupmode="layer"
     id="layer1"
     transform="translate(1294.7241,67.762796)">
    <g
       transform="translate(-2596.186,-1064.639)"
       id="g6051">
      <g
         transform="matrix(0.70571139,0,0,0.70571139,1524.0457,902.46059)"
         id="g4360">
        <path
           style="opacity:1;fill:#cccccc;fill-opacity:1;fill-rule:nonzero;stroke:none;stroke-width:0.25025496;stroke-linecap:round;stroke-linejoin:round;stroke-miterlimit:4;stroke-dasharray:none;stroke-opacity:1;filter:url(#filter4380-3)"
           id="path4356-7"
           d="m 860.53556,498.80318 c 4.16872,-1.37395 8.48251,-2.26513 12.82914,-2.84924 1.40921,-0.18937 2.82553,-0.32146 4.23829,-0.48218 6.04516,-0.5248 12.1339,-0.51578 18.19126,-0.20542 3.80559,0.19499 6.10619,0.45612 9.93435,0.81823 8.57633,1.02233 17.10086,2.56565 25.48333,4.65355 1.53748,0.38296 3.06362,0.81033 4.59549,1.21553 9.15173,2.66265 18.03102,6.48172 25.59669,12.377 1.51099,1.1774 2.88723,2.51818 4.3308,3.77727 1.17547,1.33941 2.45731,2.59243 3.52628,4.01826 2.87041,3.82865 4.65719,8.00316 4.89512,12.81539 0.1752,3.54271 -0.35391,4.80115 -1.12918,8.19269 -0.50127,1.31912 -0.92071,2.67236 -1.50408,3.95732 -2.00903,4.42533 -5.12501,8.66603 -8.94403,11.70458 -0.85624,0.68121 -1.79932,1.24531 -2.69901,1.86798 -1.10432,0.56402 -2.17087,1.20909 -3.3129,1.69208 -6.16397,2.60683 -13.53206,3.44274 -20.1622,3.58087 -1.95622,0.0407 -3.91279,-0.0582 -5.86922,-0.0873 -6.58284,-0.42075 -13.29625,-1.25477 -19.35762,-4.03591 -3.46843,-1.59145 -3.83746,-2.16845 -6.93098,-4.5511 -0.78425,-0.89675 -1.64993,-1.72836 -2.3528,-2.69031 -2.64962,-3.62638 -4.02699,-8.19385 -3.97008,-12.67481 0.0138,-1.08998 0.20878,-2.1701 0.31322,-3.25515 0.26269,-1.02905 0.45475,-2.07877 0.78809,-3.08717 0.94904,-2.87091 2.50608,-5.59074 4.41838,-7.92726 1.71956,-2.101 2.37342,-2.5009 4.4436,-4.27751 4.13645,-3.11288 8.96704,-5.0052 14.08099,-5.76742 4.01518,-0.59844 5.32799,-0.39842 9.40036,-0.31805 4.94745,0.48277 9.88882,1.57009 14.28828,3.98057 2.5521,1.39827 4.57192,2.71543 6.13361,5.16634 0.54748,0.85916 0.81125,1.86907 1.21684,2.80361 0.0816,0.98653 0.29804,1.97114 0.24484,2.95964 -0.22002,4.08671 -2.5565,8.61656 -5.15121,11.70332 -0.56814,0.67587 -1.23352,1.26362 -1.85036,1.89542 -2.41818,2.0586 -5.27841,3.39239 -8.40844,3.94271 -2.38097,0.41863 -3.1137,0.29682 -5.54279,0.27244 -4.64352,-0.42193 -9.23071,-1.82152 -12.95624,-4.71765 -0.44068,-0.34253 -0.78546,-0.79307 -1.17821,-1.18961 -0.74127,-1.01666 -1.17769,-2.04781 -0.68162,-3.28885 0.29885,-0.74722 0.69046,-1.01445 1.24227,-1.54153 0.10724,-0.10649 1.61266,1.41085 1.50536,1.51729 l 0,0 c -0.12574,0.10063 -0.85281,0.62861 -0.84665,0.85838 0.0121,0.44845 0.45966,0.78661 0.70541,1.06871 0.36743,0.28258 0.7227,0.58179 1.10235,0.84776 3.14748,2.20488 6.94043,3.2793 10.71076,3.74268 0.86443,0.0397 1.72792,0.12529 2.59321,0.11919 2.85131,-0.0202 5.76024,-0.5456 8.17938,-2.13921 0.55807,-0.36762 1.04747,-0.83017 1.57117,-1.24526 0.52269,-0.57444 1.08705,-1.11362 1.56808,-1.72337 1.11049,-1.40768 2.25906,-3.29242 3.03065,-4.89371 0.6923,-1.43673 1.57325,-3.62047 1.71909,-5.26723 0.064,-0.7226 -0.11673,-1.44614 -0.17503,-2.16921 -0.34529,-0.69506 -0.57225,-1.46267 -1.0357,-2.08515 -1.00019,-1.3434 -2.77323,-2.69543 -4.26025,-3.44686 -4.14046,-2.09215 -8.68758,-3.24239 -13.25732,-3.88542 -1.50661,-0.0677 -3.0118,-0.20962 -4.51997,-0.20305 -5.13372,0.0223 -10.32894,0.95223 -14.8851,3.40559 -0.90713,0.48847 -1.74122,1.10187 -2.61182,1.65279 -1.89298,1.54896 -2.552,1.93257 -4.1067,3.80471 -1.73323,2.08709 -3.14132,4.57507 -3.98867,7.15447 -0.29344,0.89329 -0.45752,1.82399 -0.68625,2.73598 -0.0881,0.95312 -0.25739,1.9022 -0.2643,2.85936 -0.0286,3.96499 1.22539,7.97781 3.6451,11.13393 0.63881,0.83325 1.41895,1.54794 2.12844,2.32193 2.07726,1.69603 2.3068,2.07422 5.03877,3.30115 1.17057,0.52571 2.39221,0.93839 3.62338,1.30001 4.79901,1.40953 9.79721,1.92457 14.7701,2.22092 1.8921,0.0426 3.78369,0.13868 5.67624,0.12757 3.65664,-0.0215 7.36345,-0.23715 10.99273,-0.70054 3.12838,-0.39944 5.45258,-0.79923 8.37661,-1.85952 1.05545,-0.38273 2.05152,-0.91306 3.07715,-1.3696 0.81129,-0.55074 1.66759,-1.04039 2.43388,-1.65225 3.49684,-2.79233 6.22015,-6.87901 8.09618,-10.89634 0.54305,-1.16312 0.95221,-2.38422 1.42831,-3.57635 0.67291,-2.97749 1.15404,-4.11973 0.95574,-7.21907 -0.27416,-4.28396 -2.06044,-7.89286 -4.73764,-11.19062 -1.04728,-1.29001 -2.28178,-2.41603 -3.42261,-3.62409 -1.408,-1.15868 -2.76477,-2.38245 -4.22381,-3.47605 -6.90385,-5.17463 -14.67894,-9.16188 -22.98324,-11.51931 -1.5021,-0.3919 -2.99742,-0.81101 -4.50631,-1.17568 -3.05963,-0.73938 -6.51054,-1.43018 -9.59482,-2.02394 -5.15789,-0.99302 -10.33763,-1.86952 -15.54695,-2.54896 -1.68553,-0.20129 -3.36743,-0.43562 -5.05658,-0.60387 -7.48745,-0.74582 -15.03691,-0.85385 -22.54411,-0.37074 -3.58561,0.31517 -4.53153,0.36408 -8.03726,0.80154 -2.66503,0.33254 -5.30085,0.80654 -7.95312,1.21844 -0.39725,0.0616 -0.796,0.11336 -1.19398,0.17016 -0.13757,0.0481 -0.81815,-1.89731 -0.68058,-1.94544 z"
           inkscape:connector-curvature="0" />
        <path
           inkscape:connector-curvature="0"
           d="m 859.93654,485.90487 c 5.67806,1.94833 11.40971,3.38718 17.0998,4.49553 1.84475,0.35931 3.68302,0.65711 5.52453,0.98565 7.83555,1.22858 15.58166,1.88111 23.20605,2.20239 4.79008,0.20184 7.64696,0.168 12.4204,0.19046 10.6368,-0.17931 21.06627,-0.93108 31.16714,-2.2908 1.85267,-0.24936 3.67882,-0.54834 5.5183,-0.82257 10.9238,-1.90139 21.18706,-5.09052 29.21501,-10.68145 1.60339,-1.11662 2.99083,-2.42566 4.48624,-3.63849 1.13243,-1.32939 2.42352,-2.55321 3.3969,-3.98819 2.61365,-3.85324 3.7545,-8.20067 2.75115,-13.4104 -0.73867,-3.83534 -1.7537,-5.26206 -3.66083,-9.03632 -0.9958,-1.48972 -1.89693,-3.00764 -2.98818,-4.4691 -3.75776,-5.03325 -8.87437,-9.986 -14.55917,-13.70733 -1.27456,-0.83429 -2.62783,-1.55061 -3.9418,-2.32593 -1.55845,-0.73378 -3.09082,-1.55162 -4.67527,-2.20134 -8.55186,-3.50672 -18.15542,-5.21769 -26.63047,-6.08922 -2.50054,-0.25709 -4.96366,-0.36238 -7.44553,-0.54354 -8.26314,-0.25835 -16.58029,-0.0813 -23.53914,2.28521 -3.98198,1.35416 -4.295,1.94177 -7.5851,4.19752 -0.75464,0.89033 -1.63061,1.70095 -2.26397,2.67108 -2.38763,3.65719 -2.90074,8.47668 -1.61206,13.35806 0.31335,1.18737 0.85471,2.38374 1.28213,3.57562 0.6136,1.14817 1.14295,2.31113 1.84086,3.44451 1.98701,3.22674 4.70674,6.35525 7.77453,9.10535 2.75859,2.47292 3.69923,2.97914 6.81597,5.13724 6.10899,3.83674 12.77005,6.42103 19.48497,7.80662 5.27216,1.08787 6.88856,1.01307 12.04928,1.36864 6.1651,0.0129 12.15838,-0.63249 17.10289,-2.77647 2.86829,-1.24366 5.08122,-2.45698 6.40338,-4.95364 0.46354,-0.87519 0.52509,-1.94526 0.78758,-2.9179 -0.16389,-1.06446 -0.15572,-2.11215 -0.49169,-3.19341 -1.38924,-4.4702 -5.59218,-9.65275 -9.73205,-13.29336 -0.90647,-0.79712 -1.91276,-1.50898 -2.86923,-2.26347 -3.63617,-2.50277 -7.63811,-4.26506 -11.77078,-5.20429 -3.14367,-0.71446 -4.04308,-0.66164 -7.12774,-0.89937 -5.79483,-0.046 -11.25263,0.97764 -15.20769,3.7233 -0.46782,0.32473 -0.78432,0.77741 -1.17649,1.1661 -0.6674,1.02547 -0.94291,2.09986 0.0252,3.50406 0.58314,0.84548 1.15403,1.17881 1.99932,1.8123 0.16544,0.12751 1.66935,-1.35955 1.5039,-1.48703 l 0,0 c -0.18732,-0.12316 -1.25591,-0.77669 -1.31043,-1.02599 -0.10631,-0.4866 0.37146,-0.80582 0.60762,-1.08601 0.3909,-0.26748 0.7618,-0.55437 1.17277,-0.80243 3.40702,-2.05648 7.94233,-2.81282 12.6147,-2.90681 1.08929,0.0508 2.16495,0.0517 3.26778,0.15241 3.63406,0.33214 7.47859,1.22022 10.98975,3.2172 0.81,0.46068 1.55835,1.01717 2.33747,1.52574 0.82112,0.68184 1.68565,1.32984 2.46332,2.04558 1.7953,1.65232 3.76855,3.82784 5.18511,5.65394 1.27098,1.63844 2.98481,4.11014 3.61738,5.91766 0.27756,0.79313 0.24397,1.56066 0.36601,2.34101 -0.25075,0.71866 -0.33124,1.52912 -0.75207,2.15594 -0.9082,1.35279 -2.79761,2.63089 -4.48604,3.28668 -4.70131,1.8258 -10.17579,2.5826 -15.81671,2.78512 -1.89897,-0.0903 -3.77594,-0.0996 -5.69703,-0.27079 -6.53923,-0.58269 -13.40311,-2.15962 -19.86722,-5.32446 -1.287,-0.63013 -2.51494,-1.38822 -3.77242,-2.08233 -2.82945,-1.89116 -3.77224,-2.38021 -6.2589,-4.58618 -2.77221,-2.45927 -5.23946,-5.31933 -7.01792,-8.21783 -0.61587,-1.00381 -1.0773,-2.03424 -1.61594,-3.05134 -0.37083,-1.04657 -0.84386,-2.09757 -1.11245,-3.13969 -1.11262,-4.31695 -0.60596,-8.54641 1.61673,-11.71698 0.58677,-0.83707 1.3856,-1.52977 2.07843,-2.29467 2.18317,-1.61929 2.37265,-2.00578 5.51634,-3.04346 1.34698,-0.44462 2.78963,-0.76073 4.25829,-1.02024 5.72465,-1.01147 11.94559,-1.02811 18.19366,-0.80957 2.39637,0.15954 4.77752,0.26072 7.189,0.47869 4.6593,0.4212 9.43514,1.05903 14.17953,1.958 4.08962,0.77489 7.15593,1.46269 11.16485,2.93435 1.44705,0.53122 2.85861,1.21656 4.28773,1.82484 1.18196,0.68745 2.40458,1.31334 3.54585,2.06239 5.20801,3.41838 9.78289,8.16087 13.26087,12.73572 1.00668,1.32453 1.85888,2.69758 2.78837,4.04637 1.66456,3.31265 2.58675,4.60775 3.17569,7.9582 0.81374,4.63107 -0.47979,8.36313 -2.99178,11.65981 -0.9826,1.28957 -2.24798,2.38037 -3.37186,3.57061 -1.47735,1.10745 -2.87186,2.2913 -4.43181,3.3224 -7.38135,4.87889 -16.19372,8.37112 -26.12194,10.0326 -1.80522,0.26296 -3.59437,0.55635 -5.41565,0.78891 -3.69301,0.47159 -7.89716,0.84777 -11.66105,1.15826 -6.29442,0.51929 -12.64829,0.90944 -19.09328,1.08196 -2.09037,0.0356 -4.16718,0.10763 -6.27112,0.10694 -9.32613,-0.003 -18.90429,-0.70679 -28.58912,-2.04906 -4.64862,-0.73296 -5.86568,-0.88908 -10.44582,-1.74638 -3.48177,-0.6517 -6.9648,-1.45414 -10.45189,-2.19081 -0.52227,-0.11028 -1.04376,-0.20992 -1.56564,-0.31501 -0.18815,-0.0673 -0.52621,1.97524 -0.33807,2.04255 z"
           id="path4358-0"
           style="opacity:1;fill:#cccccc;fill-opacity:1;fill-rule:nonzero;stroke:none;stroke-width:1.5;stroke-linecap:round;stroke-linejoin:round;stroke-miterlimit:4;stroke-dasharray:none;stroke-opacity:1;filter:url(#filter4372-9)" />
      </g>
      <path
         style="fill:#006680;fill-opacity:1;fill-rule:evenodd;stroke:none;stroke-width:1px;stroke-linecap:butt;stroke-linejoin:miter;stroke-opacity:1"
         d="m 2133.4612,1261.9666 c 1.7297,-1.4513 1.1658,-3.6065 2.1088,-5.2238 0.088,-1.849 -0.5767,-4.3883 0.5937,-6.213 0.2091,-1.8451 1.1449,-3.7495 0.873,-5.878 -0.098,-2.3534 0.6606,-4.7409 -0.4576,-7.1538 -1.8431,-0.3102 -4.0052,-1.1355 -6.6839,-1.2701 -2.8246,-0.1009 -6.0899,-1.3271 -9.1184,-1.8315 -3.0562,-0.7513 -5.9764,-1.8949 -8.3825,-1.9289 -2.925,-1.1639 -5.9205,-1.4788 -8.9317,-2.7009 -3.7367,-1.0632 -7.5438,-0.7417 -11.1696,-1.9374 -3.3531,-1.0266 -6.9508,-1.9838 -10.2745,-2.5727 -3.0924,-0.9097 -5.9367,0.2604 -5.0317,2.5512 -0.9625,1.2455 -3.2374,2.3276 -2.9989,4.5989 -0.1946,2.0842 -1.0374,4.0036 -1.9075,5.8498 0.2388,2.3712 -0.4658,4.5694 -0.3046,6.926 -1.3067,1.4249 -2.7873,4.5482 1.4567,5.1792 2.9641,1.2298 6.1196,1.7701 9.2763,2.658 2.811,0.1696 5.2457,0 8.582,0.82 2.8883,0.9622 5.8698,0.9785 8.8214,1.6096 3.0871,0.2824 5.6198,1.7975 8.6792,1.9156 3.6772,0.3088 7.1979,0.8707 10.7999,2.1119 2.3539,0.5703 5.2155,1.2741 7.3765,1.5037 2.194,1.2239 5.3567,1.8696 6.6933,0.9862 z m -13.1687,-2.3715 -0.026,0.1102 z m -38.7928,-6.8446 c -0.698,-0.2027 0.049,0.4475 0,0 z m -1.7849,-0.5779 c -0.1802,0.1626 0.2371,-5e-4 0,0 z m -6e-4,0.096 c -0.2282,0.4939 0.4481,-0.085 0,0 z m -0.016,0.01 -5e-4,0.096 z m 0,0.1 c 0.084,0.2304 0.048,0.1326 0,0 z m -0.03,-0.088 0,-0.015 z m 0,-0.015 0,-0.077 z m -0.3905,-0.055 c 0.3039,0.2436 0.2177,-0.1923 0,0 z m -4.8787,-1.4664 c 0.06,0.1501 0.4032,-0.061 0,0 z m 0.1758,0.041 c 0.1965,0.077 0.2929,-0.1966 0,0 z m -0.7007,-0.341 c 0.021,-0.1629 -0.228,0.089 0,0 z m -2.3376,-4.9689 c 0.098,-0.1109 -0.2814,0 0,0 z m 0.3145,-1.1153 c -0.1994,-0.022 0.1477,0.1615 0,0 z m -0.062,0.013 c -0.227,-0.485 -0.4043,0.1739 0,0 z m -0.031,-0.3844 c -0.2949,-0.3655 0.024,0.242 0,0 z m 5.1612,-15.9749 c 0.2084,-0.4518 -0.9661,-0.062 0,0 z m 0.058,-0.5545 c -0.1356,-0.2734 -0.4268,0.138 0,0 z m 0.077,-0.128 -0.018,-0.036 z m 16.7046,0.9487 c 0.097,0.3606 0.4182,-0.1809 0,0 z m 39.757,8.5987 c 0.1161,-0.217 -0.1655,-0.015 0,0 z m -0.026,-0.087 -0.082,-0.1251 z m 0.011,-0.022 c 0.3318,0.478 0.327,-0.2557 0,0 z m 0.7702,0.1297 c 0.033,0.5706 0.7162,-0.3909 0,0 z m 0.3173,0.1208 c -0.4867,0.1879 0.4041,-0.067 0,0 z m 0.888,0.1596 c 0.1407,-0.029 -0.2946,-0.1192 0,0 z m -1.055,23.5718 c 0.031,0.1211 0.2481,-0.021 0,0 z m 0.05,0.063 -0.053,-3e-4 z m -4.3463,-0.3718 c -0.7038,-0.1711 0.7996,-0.5926 0,0 z m 0.7514,-1.0327 -0.099,-0.035 z m -0.1323,-0.021 c -0.2925,0.063 0.042,-0.1434 0,0 z m 0.018,-0.024 c -0.2038,-0.044 0.173,-0.1202 0,0 z m -0.3109,0.1585 c -0.2151,-0.4051 0.3174,-0.217 0,0 z m 0.096,-0.089 c 0.6684,-0.5937 -0.4743,0.1631 0,0 z m 0.1212,-0.6332 c -1.4068,-0.1359 -1.8222,-0.384 0,0 z m 5.5828,-21.3087 c -0.1599,0.3964 -0.4637,-0.4674 0,0 z m -30.1519,19.2436 c -0.3452,-0.056 0.07,-0.1086 0,0 z m -24.7368,-4.1142 c -0.2094,0.1102 -0.078,-0.2325 0,0 z"
         id="path4321-6"
         inkscape:connector-curvature="0"
         sodipodi:nodetypes="cccccccccccccccccccccccccccccccccccccccccccccccccccccccccccccccccccccccccccccccccccccccccccccccccccccccccccc" />
      <path
         transform="matrix(0.70571139,0,0,0.70571139,1482.0457,902.46059)"
         sodipodi:nodetypes="ssssssccssssssss"
         inkscape:connector-curvature="0"
         id="path4170-0"
         d="m 229.85714,346.39579 c 19.87481,-33.7594 14.29725,-100.20181 40.76504,-138.4699 12.98731,-18.77753 54.84522,-28.67254 86.37781,-34.54569 45.70358,-8.51259 89.26515,-7.7928 135.75019,-7.14285 45.13709,0.6311 94.81997,-0.54204 138.53553,10.71428 10.62895,2.73685 22.17491,5.87514 30,13.57143 17.08499,16.80376 21.6037,42.83561 30.71428,64.99999 17.65955,31.30513 20.37688,74.5377 39.96411,99.70415 31.14312,22.19041 119.64752,30.99658 143.16798,58.86729 14.60013,17.30051 33.47735,49.17401 25.71428,62.85715 -9.07574,15.99684 -109.13549,7.40217 -139.30068,8.48477 -97.86826,3.51241 -195.16744,-8.91157 -293.06635,-11.42857 -114.25689,-2.93757 -526.026214,9.18892 -614.30576,-2.77048 -13.99543,-1.89599 6.56822,-40.54462 15.71429,-58.57144 7.73916,-15.25382 21.7344,-31.43875 35.173316,-42.02031 22.76802,-17.92711 317.172624,-11.3008 324.795964,-24.24982 z"
         style="fill:#ac9393;fill-opacity:1;fill-rule:evenodd;stroke:none;stroke-width:1px;stroke-linecap:butt;stroke-linejoin:miter;stroke-opacity:1;filter:url(#filter4265-5)" />
      <ellipse
         transform="matrix(0.59411818,-0.38085713,0.38085713,0.59411818,1240.0515,892.58063)"
         ry="81.428574"
         rx="75"
         cy="632.40564"
         cx="60.397915"
         id="path4289-2"
         style="opacity:1;fill:#483737;fill-opacity:1;fill-rule:nonzero;stroke:none;stroke-width:0.30000001;stroke-linecap:round;stroke-linejoin:round;stroke-miterlimit:4;stroke-dasharray:none;stroke-opacity:1;filter:url(#filter4293-4)" />
      <ellipse
         style="opacity:1;fill:#483737;fill-opacity:1;fill-rule:nonzero;stroke:none;stroke-width:0.30000001;stroke-linecap:round;stroke-linejoin:round;stroke-miterlimit:4;stroke-dasharray:none;stroke-opacity:1;filter:url(#filter4307-8)"
         id="ellipse4291-3"
         cx="285.66757"
         cy="797.1767"
         rx="75"
         ry="81.428574"
         transform="matrix(0.59411818,-0.38085713,0.38085713,0.59411818,1457.0434,888.54799)" />
      <ellipse
         transform="matrix(0.59411818,-0.38085713,0.38085713,0.59411818,1402.3651,729.25885)"
         ry="52.935017"
         rx="48.755932"
         cy="706.08606"
         cx="-273.34439"
         id="ellipse4305-9"
         style="opacity:1;fill:#916f6f;fill-opacity:1;fill-rule:nonzero;stroke:none;stroke-width:0.30000001;stroke-linecap:round;stroke-linejoin:round;stroke-miterlimit:4;stroke-dasharray:none;stroke-opacity:1;filter:url(#filter4313-4)" />
      <ellipse
         style="opacity:1;fill:#916f6f;fill-opacity:1;fill-rule:nonzero;stroke:none;stroke-width:0.30000001;stroke-linecap:round;stroke-linejoin:round;stroke-miterlimit:4;stroke-dasharray:none;stroke-opacity:1;filter:url(#filter4313-4)"
         id="ellipse4319-8"
         cx="-273.34439"
         cy="706.08606"
         rx="48.755932"
         ry="52.935017"
         transform="matrix(0.59411818,-0.38085713,0.38085713,0.59411818,1832.0785,738.33228)" />
      <path
         inkscape:connector-curvature="0"
         id="path4336-2"
         d="m 1411.1937,1176.8391 c -4.1887,0.163 -8.3928,0.76 -12.517,1.2096 -3.2746,-0.4444 -6.4483,0.7617 -9.5746,1.4843 -4.5157,1.8507 -4.4103,7.2906 -7.2326,10.5754 -1.7325,3.8752 -2.7106,8.0687 -5.1381,11.5925 -1.9044,3.7317 -3.8059,7.4207 -6.066,10.9654 -1.9453,4.7234 5.2645,3.9943 8.5817,4.7019 3.8391,0.2392 6.9789,-0.1565 10.7763,0.365 3.2946,0.4525 7.3313,1.507 10.6671,2.012 2.8775,0.4355 6.4,0.829 8.5567,1.2712"
         style="opacity:1;fill:#ffd42a;fill-opacity:1;fill-rule:nonzero;stroke:none;stroke-width:8;stroke-linecap:butt;stroke-linejoin:round;stroke-miterlimit:4;stroke-dasharray:none;stroke-dashoffset:0" />
      <path
         inkscape:connector-curvature="0"
         id="path4325-5"
         d="m 2092.9538,1227.284 c 5.1292,0.4937 5.7985,1.5917 10.5122,1.3706 2.6898,-0.1262 5.0332,0.1654 7.791,0.6424 2.8539,0.4338 5.845,-0.1973 7.7932,0.095 2.1449,0.3216 4.4317,-0.683 6.8951,0.1775 -0.028,-1.8995 -0.8934,-4.8168 -1.6828,-6.9909 -2.0891,-3.4555 -1.9298,-7.0865 -3.4349,-11.2027 -0.7617,-2.0833 -2.602,-5.9969 -3.8036,-8.8113 -0.7624,-4.1751 -2.5451,-8.0141 -4.3989,-11.8018 -0.9317,-2.7073 -0.9589,-5.4915 -4.1937,-6.5913 -0.7326,-0.325 -1.5358,-0.4726 -2.3348,-0.4793 l 0,0 c -3.3415,-0.061 -6.2008,2.1289 -9.5286,2.1094 -4.387,0.6828 -2.1258,0.5881 -6.4453,1.6448"
         style="opacity:1;fill:#d85454;fill-opacity:1;fill-rule:nonzero;stroke:none;stroke-width:8;stroke-linecap:butt;stroke-linejoin:round;stroke-miterlimit:4;stroke-dasharray:none;stroke-dashoffset:0" />
      <g
         transform="matrix(0.70571139,0,0,0.64545164,1482.0457,913.78314)"
         id="g4338">
        <path
           style="opacity:1;fill:#80b3ff;fill-opacity:1;fill-rule:nonzero;stroke:none;stroke-width:8;stroke-linecap:butt;stroke-linejoin:round;stroke-miterlimit:4;stroke-dasharray:none;stroke-dashoffset:0"
           d="m 369.18262,191.59297 c -16.46049,-0.0115 -45.26354,6.89585 -60.2156,11.23219 -21.05908,9.3211 -19.41011,22.28411 -31.15524,36.17474 -5.97323,15.57122 5.96332,33.32585 -3.67426,47.92086 -6.91734,15.11499 2.75128,26.75379 -6.04627,41.34219 -6.45862,18.89448 14.50453,21.28287 31.35067,22.26944 19.11068,-1.05509 34.34647,-4.15918 53.43927,-4.12321 16.56478,0.0312 37.19322,1.96484 53.99642,2.17394 8.84415,0.11006 34.19607,9.63429 43.09955,-9.27655 5.68809,-12.08139 4.07584,-41.70062 1.95853,-74.27682 2.26137,-38.06594 9.48817,-58.90739 -2.72829,-63.96535 -16.09122,-6.66221 -71.14256,-11.15906 -80.02478,-9.47143 z"
           id="path4332-4"
           inkscape:connector-curvature="0"
           sodipodi:nodetypes="ccccccssscsc" />
        <path
           style="opacity:1;fill:#80b3ff;fill-opacity:1;fill-rule:nonzero;stroke:none;stroke-width:8;stroke-linecap:butt;stroke-linejoin:round;stroke-miterlimit:4;stroke-dasharray:none;stroke-dashoffset:0"
           d="m 491.54545,347.65429 c 30.6337,1.80614 44.98808,3.32394 73.14063,2.51481 16.06475,-0.46171 30.06085,0.60523 46.53182,2.3507 17.0449,1.58725 34.90914,-0.72194 46.54415,0.34689 12.81096,1.17687 26.46837,-2.49878 41.18073,0.64975 -0.16615,-6.95046 -5.33548,-17.62456 -10.05006,-25.57934 -12.47722,-12.64366 -10.0974,-27.3578 -19.08622,-42.41901 -4.54928,-7.62269 -3.34654,-25.80965 -10.52328,-36.1073 -4.55327,-15.27635 -4.53709,-25.45584 -15.60845,-39.31493 -11.01423,-6.14353 -37.01354,-15.06496 -58.99158,-14.44239 -19.95731,-0.2225 -41.32023,-2.21043 -61.19513,-2.28197 -26.20132,2.49856 -12.69601,2.15188 -38.49424,6.01842"
           id="path4328-9"
           inkscape:connector-curvature="0"
           sodipodi:nodetypes="cscsccsccccc" />
      </g>
    </g>
  </g>
</svg>
