<?xml version="1.0" encoding="UTF-8" standalone="no"?>
<!-- Created with Inkscape (http://www.inkscape.org/) -->
<svg
    xmlns:dc="http://purl.org/dc/elements/1.1/"
    xmlns:cc="http://creativecommons.org/ns#"
    xmlns:rdf="http://www.w3.org/1999/02/22-rdf-syntax-ns#"
    xmlns:svg="http://www.w3.org/2000/svg"
    xmlns="http://www.w3.org/2000/svg"
    xmlns:sodipodi="http://sodipodi.sourceforge.net/DTD/sodipodi-0.dtd"
    xmlns:inkscape="http://www.inkscape.org/namespaces/inkscape"
    xmlns:ns1="http://sozi.baierouge.fr"
    xmlns:xlink="http://www.w3.org/1999/xlink"
    width="756.38892"
    height="756.38892"
    id="svg2"
    version="1.1"
    inkscape:version="0.48.4 r9939"
    sodipodi:docname="fabricatorz-logo-simple-black-white.svg"
  >
  <defs
      id="defs4"
    >
    <inkscape:perspective
        sodipodi:type="inkscape:persp3d"
        inkscape:vp_x="0 : 0.5 : 1"
        inkscape:vp_y="0 : 1000 : 0"
        inkscape:vp_z="1 : 0.5 : 1"
        inkscape:persp3d-origin="0.5 : 0.33333333 : 1"
        id="perspective3172"
    />
    <inkscape:perspective
        id="perspective3187"
        inkscape:persp3d-origin="372.04724 : 350.78739 : 1"
        inkscape:vp_z="744.09448 : 526.18109 : 1"
        inkscape:vp_y="0 : 1000 : 0"
        inkscape:vp_x="0 : 526.18109 : 1"
        sodipodi:type="inkscape:persp3d"
    />
    <inkscape:perspective
        sodipodi:type="inkscape:persp3d"
        inkscape:vp_x="0 : 0.5 : 1"
        inkscape:vp_y="0 : 1000 : 0"
        inkscape:vp_z="1 : 0.5 : 1"
        inkscape:persp3d-origin="0.5 : 0.33333333 : 1"
        id="perspective3172-4"
    />
    <inkscape:perspective
        id="perspective3187-2"
        inkscape:persp3d-origin="372.04724 : 350.78739 : 1"
        inkscape:vp_z="744.09448 : 526.18109 : 1"
        inkscape:vp_y="0 : 1000 : 0"
        inkscape:vp_x="0 : 526.18109 : 1"
        sodipodi:type="inkscape:persp3d"
    />
    <clipPath
        id="clipPath3149"
        clipPathUnits="userSpaceOnUse"
      >
      <path
          id="path3151"
          d="m 774.52441,-30.27148 c 0,0 -761.99902,0 -761.99902,0 0,0 0,-38.01758 0,-38.01758 0,0 761.99902,0 761.99902,0 0,0 0,38.01758 0,38.01758 z"
      />
    </clipPath
    >
    <clipPath
        id="clipPath3113"
        clipPathUnits="userSpaceOnUse"
      >
      <path
          id="path3115"
          d="m 13.3374,90.48438 754.52289,0 0,-60.33204 -754.52289,0 0,60.33204 z"
      />
    </clipPath
    >
    <inkscape:perspective
        sodipodi:type="inkscape:persp3d"
        inkscape:vp_x="0 : 0.5 : 1"
        inkscape:vp_y="0 : 1000 : 0"
        inkscape:vp_z="1 : 0.5 : 1"
        inkscape:persp3d-origin="0.5 : 0.33333333 : 1"
        id="perspective3021"
    />
    <inkscape:perspective
        id="perspective3011"
        inkscape:persp3d-origin="372.04724 : 350.78739 : 1"
        inkscape:vp_z="744.09448 : 526.18109 : 1"
        inkscape:vp_y="0 : 1000 : 0"
        inkscape:vp_x="0 : 526.18109 : 1"
        sodipodi:type="inkscape:persp3d"
    />
  </defs
  >
  <sodipodi:namedview
      id="base"
      pagecolor="#ffffff"
      bordercolor="#666666"
      borderopacity="1.0"
      inkscape:pageopacity="0.0"
      inkscape:pageshadow="2"
      inkscape:zoom="0.49497474"
      inkscape:cx="1100.3917"
      inkscape:cy="457.36893"
      inkscape:document-units="px"
      inkscape:current-layer="layer1"
      showgrid="false"
      fit-margin-top="0"
      fit-margin-left="0"
      fit-margin-right="0"
      fit-margin-bottom="0"
      inkscape:window-width="1920"
      inkscape:window-height="1022"
      inkscape:window-x="0"
      inkscape:window-y="25"
      inkscape:window-maximized="1"
      inkscape:snap-page="true"
      inkscape:snap-bbox="true"
      inkscape:snap-bbox-edge-midpoints="true"
      inkscape:bbox-nodes="true"
      inkscape:bbox-paths="true"
  />
  <g
      inkscape:label="Layer 1"
      inkscape:groupmode="layer"
      id="layer1"
      transform="translate(3.1944442,-159.88203)"
      style="opacity:1"
    >
    <g
        transform="translate(-262.14314,-257.14283)"
        id="layer1-6"
        inkscape:label="Layer 1"
      >
      <g
          transform="matrix(2.7013889,0,0,2.7013889,19839.971,-6640.9674)"
          id="g5083"
        >
        <path
            sodipodi:nodetypes="ccccc"
            id="path4944"
            d="m -7248.5018,2612.7272 280,0 0,280 -280,0 z"
            style="fill:#000000;fill-opacity:1;stroke:none"
            inkscape:connector-curvature="0"
        />
        <path
            style="fill:#ffffff;fill-opacity:1;stroke:none"
            d="m -7208.497,2652.7272 0,40 80,0 0,40 -80,0 0,40 80,0 0,40 -80,0 0,40 200,0 0,-40 -80,0 0,-40 80,0 0,-40 -80,0 0,-40 80,0 0,-40 -80,0 -40,0 -80,0 z"
            id="path4942"
            inkscape:connector-curvature="0"
        />
      </g
      >
    </g
    >
    <g
        style="fill:#ffffff;fill-opacity:1"
        id="g4948"
        transform="matrix(0.77414716,0,0,-0.77414716,10.784363,871.51404)"
    />
    <g
        style="fill:#ffffff;fill-opacity:1"
        id="g4950"
        transform="matrix(0.77414716,0,0,-0.77414716,10.784363,871.51404)"
    />
    <g
        transform="matrix(-0.49994011,0,0,0.125,1098.745,202.30253)"
        id="g3881"
        inkscape:label="Layer 1"
      >
      <g
          transform="matrix(2.7013889,0,0,2.7013889,19839.971,-6640.9674)"
          id="g3883"
        >
        <path
            style="fill:#ffffff;fill-opacity:1;stroke:none"
            d="M -7088.497,2692.7272 -7008.497,2692.7272 -7008.497,2652.7272 -7088.497,2652.7272 z"
            id="path3885"
            inkscape:connector-curvature="0"
            sodipodi:nodetypes="ccccc"
        />
      </g
      >
    </g
    >
    <g
        transform="matrix(-0.49994011,0,0,0.125,450.42463,729.07337)"
        id="g3893"
        inkscape:label="Layer 1"
      >
      <g
          transform="matrix(2.7013889,0,0,2.7013889,19839.971,-6640.9674)"
          id="g3895"
        >
        <path
            style="fill:#ffffff;fill-opacity:1;stroke:none"
            d="M -7088.497,2692.7272 -7008.497,2692.7272 -7008.497,2652.7272 -7088.497,2652.7272 z"
            id="path3897"
            inkscape:connector-curvature="0"
            sodipodi:nodetypes="ccccc"
        />
      </g
      >
    </g
    >
    <g
        inkscape:label="Layer 1"
        id="g3899"
        transform="matrix(-0.49994011,0,0,0.125,450.42463,202.30253)"
      >
      <g
          id="g3901"
          transform="matrix(2.7013889,0,0,2.7013889,19839.971,-6640.9674)"
        >
        <path
            sodipodi:nodetypes="ccccc"
            inkscape:connector-curvature="0"
            id="path3903"
            d="M -7088.497,2692.7272 -7008.497,2692.7272 -7008.497,2652.7272 -7088.497,2652.7272 z"
            style="fill:#ffffff;fill-opacity:1;stroke:none"
        />
      </g
      >
    </g
    >
    <g
        transform="matrix(-0.49994011,0,0,0.125,1098.745,729.07337)"
        id="g3905"
        inkscape:label="Layer 1"
      >
      <g
          transform="matrix(2.7013889,0,0,2.7013889,19839.971,-6640.9674)"
          id="g3907"
        >
        <path
            style="fill:#ffffff;fill-opacity:1;stroke:none"
            d="M -7088.497,2692.7272 -7008.497,2692.7272 -7008.497,2652.7272 -7088.497,2652.7272 z"
            id="path3909"
            inkscape:connector-curvature="0"
            sodipodi:nodetypes="ccccc"
        />
      </g
      >
    </g
    >
  </g
  >
  <metadata
    >
    <rdf:RDF
      >
      <cc:Work
        >
        <dc:format
          >image/svg+xml</dc:format
        >
        <dc:type
            rdf:resource="http://purl.org/dc/dcmitype/StillImage"
        />
        <cc:license
            rdf:resource="http://creativecommons.org/licenses/publicdomain/"
        />
        <dc:publisher
          >
          <cc:Agent
              rdf:about="http://openclipart.org/"
            >
            <dc:title
              >Openclipart</dc:title
            >
          </cc:Agent
          >
        </dc:publisher
        >
        <dc:title
          >Fabricatorz Stencils</dc:title
        >
        <dc:date
          >2014-06-06T15:06:11</dc:date
        >
        <dc:description
          >A set of stencils of the fabricatorz symbol for use to cut out on acetate and then use spray paint, markers or other material for applying. DISCLAIMER: These are only to be used on your property and or property you have authorization to apply these too. er </dc:description
        >
        <dc:source
          >https://openclipart.org/detail/194043/fabricatorz-stencils-by-jonphillips-194043</dc:source
        >
        <dc:creator
          >
          <cc:Agent
            >
            <dc:title
              >jonphillips</dc:title
            >
          </cc:Agent
          >
        </dc:creator
        >
        <dc:subject
          >
          <rdf:Bag
            >
            <rdf:li
              >fabricatorz</rdf:li
            >
            <rdf:li
              >graffiti</rdf:li
            >
            <rdf:li
              >king</rdf:li
            >
            <rdf:li
              >spraypaint</rdf:li
            >
            <rdf:li
              >stencil</rdf:li
            >
            <rdf:li
              >stenciler</rdf:li
            >
            <rdf:li
              >stickshift</rdf:li
            >
            <rdf:li
              >streetart</rdf:li
            >
            <rdf:li
              >upload2openclipart</rdf:li
            >
            <rdf:li
              >wang</rdf:li
            >
          </rdf:Bag
          >
        </dc:subject
        >
      </cc:Work
      >
      <cc:License
          rdf:about="http://creativecommons.org/licenses/publicdomain/"
        >
        <cc:permits
            rdf:resource="http://creativecommons.org/ns#Reproduction"
        />
        <cc:permits
            rdf:resource="http://creativecommons.org/ns#Distribution"
        />
        <cc:permits
            rdf:resource="http://creativecommons.org/ns#DerivativeWorks"
        />
      </cc:License
      >
    </rdf:RDF
    >
  </metadata
  >
</svg
>
