<?xml version="1.0" encoding="UTF-8" standalone="no"?>
<!-- Created with Inkscape (http://www.inkscape.org/) -->

<svg
   xmlns:dc="http://purl.org/dc/elements/1.1/"
   xmlns:cc="http://creativecommons.org/ns#"
   xmlns:rdf="http://www.w3.org/1999/02/22-rdf-syntax-ns#"
   xmlns:svg="http://www.w3.org/2000/svg"
   xmlns="http://www.w3.org/2000/svg"
   xmlns:sodipodi="http://sodipodi.sourceforge.net/DTD/sodipodi-0.dtd"
   xmlns:inkscape="http://www.inkscape.org/namespaces/inkscape"
   width="744.09448"
   height="500"
   viewBox="0 0 744.09449 500.00001"
   id="svg2"
   version="1.1"
   inkscape:version="0.91 r13725"
   sodipodi:docname="fish2.svg">
  <defs
     id="defs4">
    <inkscape:path-effect
       effect="powerstroke"
       id="path-effect4157"
       is_visible="true"
       offset_points="0,0.5"
       sort_points="true"
       interpolator_type="Linear"
       interpolator_beta="0.2"
       start_linecap_type="zerowidth"
       linejoin_type="round"
       miter_limit="4"
       end_linecap_type="zerowidth"
       cusp_linecap_type="round" />
    <inkscape:path-effect
       effect="powerstroke"
       id="path-effect4153"
       is_visible="true"
       offset_points="0,0.5"
       sort_points="true"
       interpolator_type="Linear"
       interpolator_beta="0.2"
       start_linecap_type="zerowidth"
       linejoin_type="round"
       miter_limit="4"
       end_linecap_type="zerowidth"
       cusp_linecap_type="round" />
    <inkscape:path-effect
       effect="powerstroke"
       id="path-effect4149"
       is_visible="true"
       offset_points="0,0.5"
       sort_points="true"
       interpolator_type="Linear"
       interpolator_beta="0.2"
       start_linecap_type="zerowidth"
       linejoin_type="round"
       miter_limit="4"
       end_linecap_type="zerowidth"
       cusp_linecap_type="round" />
  </defs>
  <sodipodi:namedview
     id="base"
     pagecolor="#ffffff"
     bordercolor="#666666"
     borderopacity="1.0"
     inkscape:pageopacity="0.0"
     inkscape:pageshadow="2"
     inkscape:zoom="0.37306202"
     inkscape:cx="222.98022"
     inkscape:cy="386.7676"
     inkscape:document-units="px"
     inkscape:current-layer="layer1"
     showgrid="false"
     units="px"
     inkscape:window-width="1366"
     inkscape:window-height="705"
     inkscape:window-x="-8"
     inkscape:window-y="-8"
     inkscape:window-maximized="1" />
  <metadata
     id="metadata7">
    <rdf:RDF>
      <cc:Work
         rdf:about="">
        <dc:format>image/svg+xml</dc:format>
        <dc:type
           rdf:resource="http://purl.org/dc/dcmitype/StillImage" />
        <dc:title></dc:title>
      </cc:Work>
    </rdf:RDF>
  </metadata>
  <g
     inkscape:label="Layer 1"
     inkscape:groupmode="layer"
     id="layer1"
     transform="translate(0,-552.36216)">
    <path
       style="fill:#ff1493;fill-rule:evenodd;stroke:#000000;stroke-width:1.62138784px;stroke-linecap:butt;stroke-linejoin:miter;stroke-opacity:1"
       d="m 614.39084,803.80346 10.01509,-10.46912 0.59838,-18.49749 -16.65707,-0.51788 -10.7058,12.81935 z"
       id="path4163"
       inkscape:connector-curvature="0"
       sodipodi:nodetypes="cccccc" />
    <path
       sodipodi:nodetypes="cccccc"
       inkscape:connector-curvature="0"
       id="path4165"
       d="m 597.46877,786.49735 10.01509,-10.46913 0.59838,-18.49749 -16.65707,-0.51787 -10.7058,12.81934 z"
       style="fill:#ff1493;fill-rule:evenodd;stroke:#000000;stroke-width:1.62138784px;stroke-linecap:butt;stroke-linejoin:miter;stroke-opacity:1" />
    <path
       style="fill:#ff1493;fill-rule:evenodd;stroke:#000000;stroke-width:1.20873415px;stroke-linecap:butt;stroke-linejoin:miter;stroke-opacity:1"
       d="m 580.18062,769.48722 7.28157,-8.00256 0.43506,-14.13941 -12.11067,-0.39586 -7.78374,9.79907 z"
       id="path4167"
       inkscape:connector-curvature="0"
       sodipodi:nodetypes="cccccc" />
    <path
       sodipodi:nodetypes="cccccc"
       inkscape:connector-curvature="0"
       id="path4169"
       d="m 592.61322,734.90218 -4.65484,7.24233 4.59251,7.69779 8.95947,-0.9736 4.33268,-7.82031 z"
       style="fill:#ff1493;fill-rule:evenodd;stroke:#000000;stroke-width:0.97420937px;stroke-linecap:butt;stroke-linejoin:miter;stroke-opacity:1" />
    <path
       style="fill:#ff1493;fill-rule:evenodd;stroke:#000000;stroke-width:0.97420937px;stroke-linecap:butt;stroke-linejoin:miter;stroke-opacity:1"
       d="m 605.73644,741.52551 -4.65484,7.24232 4.10413,6.41364 9.44786,0.31055 4.39372,-7.97139 z"
       id="path4171"
       inkscape:connector-curvature="0"
       sodipodi:nodetypes="cccccc" />
    <path
       style="fill:#b0c4de;fill-rule:evenodd;stroke:#000000;stroke-width:9.56618881;stroke-linecap:round;stroke-linejoin:round;stroke-miterlimit:4;stroke-dasharray:none;stroke-opacity:1"
       d="m 54.581368,692.70247 c 0,0 173.267402,337.97853 312.194792,341.84923 86.05931,2.3977 188.21653,-110.19074 261.53704,-209.88004 6.06823,-8.25058 -106.86086,-107.00285 -101.21315,-115.00422 8.35663,-11.83924 135.02482,67.26374 142.32248,56.36369 34.71592,-51.85284 56.51578,-90.42111 56.51578,-90.42111 0,0 -220.36795,-141.02429 -323.24593,-109.39174 C 228.1942,619.87233 54.581368,1034.5517 54.581368,1034.5517 c 31.073353,-127.68124 19.975762,-236.72689 0,-341.84923 z"
       id="path4159"
       inkscape:connector-curvature="0"
       sodipodi:nodetypes="csssscscc" />
    <ellipse
       style="opacity:1;fill:#696969;fill-opacity:0.72670803;fill-rule:nonzero;stroke:#000000;stroke-width:4.55934286;stroke-linecap:round;stroke-linejoin:round;stroke-miterlimit:4;stroke-dasharray:none;stroke-dashoffset:0;stroke-opacity:1"
       id="path4161"
       cx="542.21301"
       cy="630.31494"
       rx="22.102287"
       ry="29.911804" />
    <ellipse
       style="opacity:1;fill:#696969;fill-opacity:0.72670803;fill-rule:nonzero;stroke:#000000;stroke-width:4.55934286;stroke-linecap:round;stroke-linejoin:round;stroke-miterlimit:4;stroke-dasharray:none;stroke-dashoffset:0;stroke-opacity:1"
       id="path4173"
       cx="658.25"
       cy="671.33691"
       rx="4.1441789"
       ry="7.691607" />
    <path
       style="fill:none;fill-rule:evenodd;stroke:#000000;stroke-width:9.24191093;stroke-linecap:butt;stroke-linejoin:miter;stroke-miterlimit:4;stroke-dasharray:none;stroke-opacity:1"
       d="m 456.56669,617.49565 c 0,0 -63.53034,83.84517 -56.63709,133.32118 8.30379,59.60016 107.74863,123.06573 107.74863,123.06573"
       id="path4175"
       inkscape:connector-curvature="0"
       sodipodi:nodetypes="csc" />
    <ellipse
       style="opacity:1;fill:#fffff0;fill-opacity:0.72670803;fill-rule:nonzero;stroke:#000000;stroke-width:9.24191093;stroke-linecap:round;stroke-linejoin:round;stroke-miterlimit:4;stroke-dasharray:none;stroke-dashoffset:0;stroke-opacity:1"
       id="path4177"
       cx="540.83167"
       cy="624.33264"
       rx="11.051144"
       ry="17.092461" />
  </g>
</svg>
