<?xml version="1.0" encoding="UTF-8" standalone="no"?>
<!-- Created with Inkscape (http://www.inkscape.org/) -->

<svg
   xmlns:dc="http://purl.org/dc/elements/1.1/"
   xmlns:cc="http://creativecommons.org/ns#"
   xmlns:rdf="http://www.w3.org/1999/02/22-rdf-syntax-ns#"
   xmlns:svg="http://www.w3.org/2000/svg"
   xmlns="http://www.w3.org/2000/svg"
   xmlns:sodipodi="http://sodipodi.sourceforge.net/DTD/sodipodi-0.dtd"
   xmlns:inkscape="http://www.inkscape.org/namespaces/inkscape"
   width="401.39041mm"
   height="454.17065mm"
   viewBox="0 0 1422.2495 1609.2661"
   id="svg2"
   version="1.1"
   inkscape:version="0.91 r13725"
   sodipodi:docname="fivehourweek.svg">
  <defs
     id="defs4" />
  <sodipodi:namedview
     id="base"
     pagecolor="#ffffff"
     bordercolor="#666666"
     borderopacity="1.0"
     inkscape:pageopacity="0.0"
     inkscape:pageshadow="2"
     inkscape:zoom="0.25"
     inkscape:cx="781.14744"
     inkscape:cy="863.13569"
     inkscape:document-units="px"
     inkscape:current-layer="layer1"
     showgrid="false"
     fit-margin-top="0"
     fit-margin-left="0"
     fit-margin-right="0"
     fit-margin-bottom="0"
     inkscape:window-width="1600"
     inkscape:window-height="877"
     inkscape:window-x="-8"
     inkscape:window-y="-8"
     inkscape:window-maximized="1" />
  <metadata
     id="metadata7">
    <rdf:RDF>
      <cc:Work
         rdf:about="">
        <dc:format>image/svg+xml</dc:format>
        <dc:type
           rdf:resource="http://purl.org/dc/dcmitype/StillImage" />
        <dc:title></dc:title>
      </cc:Work>
    </rdf:RDF>
  </metadata>
  <g
     inkscape:label="Layer 1"
     inkscape:groupmode="layer"
     id="layer1"
     transform="translate(-471.0047,51.26646)">
    <rect
       style="opacity:1;fill:#e00918;fill-opacity:1;fill-rule:nonzero;stroke:none;stroke-width:23.32299995;stroke-miterlimit:4;stroke-dasharray:none;stroke-opacity:1"
       id="rect4214"
       width="1422.2495"
       height="1609.2661"
       x="471.0047"
       y="-51.26646" />
    <g
       id="g4169"
       transform="translate(1300.1757,256.82588)"
       style="fill:#fdf003;fill-opacity:1;stroke:none">
      <ellipse
         ry="267.67773"
         rx="276.98825"
         cy="436.9202"
         cx="-135.40034"
         id="path4149"
         style="opacity:1;fill:#fdf003;fill-opacity:1;fill-rule:nonzero;stroke:none;stroke-width:26.87087822;stroke-miterlimit:4;stroke-dasharray:none;stroke-opacity:0" />
      <path
         inkscape:connector-curvature="0"
         id="path4155"
         d="m -597.5,114.8622 18.57143,-21.071425 186.78571,151.785715 -20.35714,22.5 z"
         style="fill:#fdf003;fill-opacity:1;fill-rule:evenodd;stroke:none;stroke-width:1px;stroke-linecap:butt;stroke-linejoin:miter;stroke-opacity:1" />
      <path
         inkscape:connector-curvature="0"
         id="path4157"
         d="M -291.07143,127.71935 -262.5,114.14792 -350,-89.780654 l -32.85714,12.142857 z"
         style="fill:#fdf003;fill-opacity:1;fill-rule:evenodd;stroke:none;stroke-width:1px;stroke-linecap:butt;stroke-linejoin:miter;stroke-opacity:1" />
      <path
         inkscape:connector-curvature="0"
         id="path4159"
         d="m -157.14286,-159.42351 28.21429,-0.71429 5.71428,240.714289 -31.07142,0.714286 z"
         style="fill:#fdf003;fill-opacity:1;fill-rule:evenodd;stroke:none;stroke-width:1px;stroke-linecap:butt;stroke-linejoin:miter;stroke-opacity:1" />
      <path
         inkscape:connector-curvature="0"
         id="path4161"
         d="m 0.71428572,102.71935 26.07142828,17.5 121.428576,-202.500004 -22.85715,-16.785715 z"
         style="fill:#fdf003;fill-opacity:1;fill-rule:evenodd;stroke:none;stroke-width:1px;stroke-linecap:butt;stroke-linejoin:miter;stroke-opacity:1" />
      <path
         inkscape:connector-curvature="0"
         id="path4163"
         d="M 131.42857,215.93363 340,97.362203 356.07143,125.57649 147.5,241.64792 Z"
         style="fill:#fdf003;fill-opacity:1;fill-rule:evenodd;stroke:none;stroke-width:1px;stroke-linecap:butt;stroke-linejoin:miter;stroke-opacity:1" />
      <path
         inkscape:connector-curvature="0"
         id="path4165"
         d="m 197.85714,393.43363 296.07143,-27.5 2.85715,30 -298.21429,26.42857 z"
         style="fill:#fdf003;fill-opacity:1;fill-rule:evenodd;stroke:none;stroke-width:1px;stroke-linecap:butt;stroke-linejoin:miter;stroke-opacity:1" />
      <path
         inkscape:connector-curvature="0"
         id="path4167"
         d="m 144.28571,604.14792 231.42858,73.21428 8.57142,-29.64285 -230.35714,-71.78572 z"
         style="fill:#fdf003;fill-opacity:1;fill-rule:evenodd;stroke:none;stroke-width:1px;stroke-linecap:butt;stroke-linejoin:miter;stroke-opacity:1" />
    </g>
    <g
       id="g4185"
       transform="translate(1299.4491,287.22007)">
      <g
         id="g4190">
        <path
           sodipodi:nodetypes="cccccccccccccccccccc"
           style="fill:#000000;fill-opacity:1;fill-rule:evenodd;stroke:#000000;stroke-width:1px;stroke-linecap:butt;stroke-linejoin:miter;stroke-opacity:1"
           d="m -267.14286,438.8927 c 0.98831,-3.19639 3.19538,-4.85331 7.13636,-4.73776 3.68056,0.1803 6.14837,1.04584 6.74123,4.63574 l -1.02044,16.42867 15.71428,20 c 17.56705,24.28967 20.63401,28.29587 45.71429,40 40.75869,17.34388 87.45605,9.59663 111.428568,-2.85715 l 12.857143,-5 -0.764052,-14.22491 c -0.231477,-1.47375 0.200296,-3.06661 1.305792,-4.66584 l 0.783686,-0.93737 c 3.211426,-2.1877 4.883979,-2.3313 7.917603,-0.46012 8.748574,7.43373 6.004623,29.90592 2.819659,38.77961 -5.080201,5.99034 -9.941893,-5.45267 -10.634116,-7.77708 -32.680665,18.0478 -52.866933,21.58475 -76.836723,21.63272 -54.07424,-4.31006 -85.58778,-25.69703 -108.16328,-65.20415 l -4.79594,-12.2449 c -0.0631,8.56705 -0.43554,9.4302 -6.63263,14.38776 -8.44182,-2.11842 -7.14286,-7.02917 -6.4286,-18.36735 z"
           id="path4179"
           inkscape:connector-curvature="0" />
        <path
           sodipodi:nodetypes="cccccccc"
           style="fill:#000000;fill-opacity:1;fill-rule:evenodd;stroke:#000000;stroke-width:1px;stroke-linecap:butt;stroke-linejoin:miter;stroke-opacity:1"
           d="m -196.42857,301.64792 c -8.81393,13.8437 -12.98123,28.67961 -17.14286,44.28571 -1.6796,7.77189 -2.1335,13.05198 0,18.57143 4.61003,5.38576 8.92256,6.02036 15.71429,4.28572 7.07863,-6.28619 10.07767,-13.65802 13.57143,-22.14286 3.79569,-7.65916 6.82868,-15.64315 10,-23.57143 0.77486,-7.58686 3.22326,-13.12553 -0.4082,-19.08155 -7.49264,-9.64349 -15.47252,-8.4835 -21.73466,-2.34702 z"
           id="path4181"
           inkscape:connector-curvature="0" />
        <path
           sodipodi:nodetypes="cccsccccc"
           style="fill:#000000;fill-opacity:1;fill-rule:evenodd;stroke:#000000;stroke-width:1px;stroke-linecap:butt;stroke-linejoin:miter;stroke-opacity:1"
           d="m -60.714286,378.07649 -5.714285,17.14286 c -1.953849,10.37111 -1.20431,21.42857 11.428571,21.42857 4.915945,0.0829 8.775348,-1.90351 10.306195,-3.30634 5.115932,-4.68811 3.792639,-3.85395 8.979519,-15.26509 l 8.571429,-21.42857 c 2.130421,-7.33483 4.387683,-14.60789 2.142857,-22.14286 -2.222291,-8.873 -7.82762,-11.86599 -17.959204,-7.34698 -10.003312,8.28252 -13.071305,18.94876 -17.755082,30.91841 z"
           id="path4183"
           inkscape:connector-curvature="0" />
      </g>
    </g>
    <g
       id="g4210"
       transform="translate(1394.5433,362.48891)">
      <path
         sodipodi:nodetypes="cccccccccccccccccccc"
         inkscape:connector-curvature="0"
         id="path4147"
         d="m -456.46649,969.73547 30.44645,107.99893 c 79.36675,12.8377 129.69008,8.2799 201.0615,-15.5106 59.25637,-25.8238 76.90302,-36.4342 118.58521,-95.19651 36.433003,-71.71161 44.164189,-107.94146 3.85729,-187.84884 -24.83025,-40.05025 -36.8028,-50.25407 -70.16655,-65.65275 -39.4026,-15.00113 -69.41443,-15.52842 -110.29655,-14.93602 l -5.17017,1.14897 10.91483,-86.16922 151.08329,4.02122 19.5317,-121.21135 -306.18793,-1.72339 -25.85078,328.59196 43.65908,-9.19137 c 47.01051,-7.2098 80.16997,-14.87997 123.67333,1.23113 24.54717,11.6656 28.32264,19.29215 37.3398,42.18178 18.54338,82.38568 -13.80284,97.448 -100.69469,116.28737 l -34.46768,3.4467 -36.19107,-0.57437 z"
         style="fill:#000000;fill-opacity:1;fill-rule:evenodd;stroke:#000000;stroke-width:1.13737559px;stroke-linecap:butt;stroke-linejoin:miter;stroke-opacity:1" />
      <path
         sodipodi:nodetypes="cccccccccccccccccccc"
         inkscape:connector-curvature="0"
         id="path4147-3"
         d="m -501.67982,892.60614 26.76904,94.95441 c 69.7806,11.2872 114.02573,7.2799 176.7767,-13.6371 52.09921,-22.70471 67.61444,-32.03348 104.26213,-83.69839 32.03252,-63.05007 38.8299,-94.90397 3.3914,-165.1599 -21.83118,-35.21286 -32.35765,-44.18424 -61.69163,-57.72302 -34.64344,-13.18924 -61.03034,-13.65285 -96.9746,-13.132 l -4.5457,1.0102 9.5965,-75.76145 132.835,3.53553 17.1726,-106.57109 -269.20564,-1.51523 -22.72844,288.90364 38.3858,-8.0812 c 41.33245,-6.33898 70.48681,-13.08272 108.7357,1.08243 21.58229,10.25659 24.90175,16.96198 32.82978,37.08694 16.30367,72.43489 -12.13568,85.67794 -88.53247,102.24183 l -30.30458,3.0304 -31.8198,-0.505 z"
         style="fill:#ffffff;fill-opacity:1;fill-rule:evenodd;stroke:none;stroke-width:1px;stroke-linecap:butt;stroke-linejoin:miter;stroke-opacity:1" />
    </g>
  </g>
</svg>
