<?xml version="1.0" encoding="utf-8"?>
<!-- Generator: Adobe Illustrator 18.0.0, SVG Export Plug-In . SVG Version: 6.00 Build 0)  -->
<!DOCTYPE svg PUBLIC "-//W3C//DTD SVG 1.1//EN" "http://www.w3.org/Graphics/SVG/1.1/DTD/svg11.dtd">
<svg version="1.1" id="Layer_2" xmlns="http://www.w3.org/2000/svg" xmlns:xlink="http://www.w3.org/1999/xlink" x="0px" y="0px"
	 width="384px" height="237px" viewBox="0 0 384 237" style="enable-background:new 0 0 384 237;" xml:space="preserve">
<style type="text/css">
	.st0{fill:#0080FF;}
	.st1{fill:#FFFFFF;stroke:#000000;stroke-width:0.5;stroke-miterlimit:10;}
</style>
<rect class="st0" width="384" height="237"/>
<g>
	<g>
		<path class="st1" d="M119.7,118.5c0,0.3,0,0.5,0,0.8h8c0-0.3,0-0.5,0-0.8c0-1.5,0.1-3.1,0.2-4.6l15,0.2c2.2-25.2,23.4-45,49.2-45
			c13.9,0,26.5,5.8,35.5,15h9.2c-10.3-13.4-26.5-22-44.7-22c-25.1,0-46.4,16.5-53.7,39.2H130c7.5-27.2,32.5-47.2,62-47.2
			c29.6,0,54.5,20,62,47.2h-8.3c-1.4-4.3-3.3-8.4-5.6-12.2h-8.4c5.2,7.1,8.6,15.6,9.4,24.9h23.1c-2.3-37.9-33.8-68-72.2-68
			c-34,0-62.6,23.6-70.3,55.2h-5.1c-0.9,4.1-1.5,8.3-1.8,12.5h5C119.7,115.4,119.7,117,119.7,118.5z"/>
		<path class="st1" d="M241.1,124.1c-2.8,24.6-23.7,43.8-49,43.8c-25.4,0-46.3-19.1-49-43.8h-7c2.8,28.5,26.9,50.8,56.1,50.8
			c24.7,0,45.8-16,53.3-38.2h8.4c-7.9,26.7-32.5,46.2-61.7,46.2c-33.5,0-61.1-25.8-64.1-58.5h-8c3,37.2,34.2,66.5,72.1,66.5
			c33.6,0,62-23.1,70.1-54.2h5.1c1-4.1,1.6-8.2,1.9-12.5H241.1z"/>
	</g>
	<path class="st1" d="M223.3,103.4H198V83.5h-12v19.9h-25.3v12h23.6c-5.7,7.2-15.9,16.7-22,21.1l7.9,9.1c6.8-5,15.5-13.2,21.7-20.7
		c6.2,7.5,15,15.6,21.7,20.7l7.9-9.1c-6-4.5-16.3-13.9-22-21.1h23.6V103.4z"/>
</g>
</svg>
