<?xml version="1.0" encoding="utf-8"?>
<!-- Generator: Adobe Illustrator 18.0.0, SVG Export Plug-In . SVG Version: 6.00 Build 0)  -->
<!DOCTYPE svg PUBLIC "-//W3C//DTD SVG 1.1//EN" "http://www.w3.org/Graphics/SVG/1.1/DTD/svg11.dtd">
<svg version="1.1" id="Layer_2" xmlns="http://www.w3.org/2000/svg" xmlns:xlink="http://www.w3.org/1999/xlink" x="0px" y="0px"
	 width="137px" height="88px" viewBox="0 0 137 88" style="enable-background:new 0 0 137 88;" xml:space="preserve">
<style type="text/css">
	.st0{fill:#880016;}
	.st1{fill:#FFFFFF;stroke:#000000;stroke-width:0.25;stroke-miterlimit:10;}
</style>
<rect class="st0" width="137" height="88"/>
<path class="st1" d="M83.9,44c8.4-2.3,17.3-6.9,25-15.4l-9.6-9.3C93.7,25.8,86.8,30,78.6,31.9v-6.5H58.4v6.5
	c-8.1-1.9-15.1-6.1-20.8-12.6L28,28.6c7.8,8.5,16.6,13.1,25,15.4c-8.4,2.3-17.3,6.9-25,15.4l9.6,9.3C45.5,59.6,55.9,55,68.5,55
	c12.6,0,23,4.6,30.9,13.7l9.6-9.3C101.2,50.9,92.3,46.3,83.9,44z"/>
</svg>
