<?xml version="1.0" encoding="UTF-8" standalone="no"?>
<!-- Created with Inkscape (http://www.inkscape.org/) -->

<svg
   xmlns:dc="http://purl.org/dc/elements/1.1/"
   xmlns:cc="http://creativecommons.org/ns#"
   xmlns:rdf="http://www.w3.org/1999/02/22-rdf-syntax-ns#"
   xmlns:svg="http://www.w3.org/2000/svg"
   xmlns="http://www.w3.org/2000/svg"
   xmlns:sodipodi="http://sodipodi.sourceforge.net/DTD/sodipodi-0.dtd"
   xmlns:inkscape="http://www.inkscape.org/namespaces/inkscape"
   id="svg4187"
   version="1.1"
   inkscape:version="0.91 r13725"
   width="708.75"
   height="962.8125"
   viewBox="0 0 708.75 962.8125"
   sodipodi:docname="Flask3.svg">
  <metadata
     id="metadata4193">
    <rdf:RDF>
      <cc:Work
         rdf:about="">
        <dc:format>image/svg+xml</dc:format>
        <dc:type
           rdf:resource="http://purl.org/dc/dcmitype/StillImage" />
        <dc:title></dc:title>
      </cc:Work>
    </rdf:RDF>
  </metadata>
  <defs
     id="defs4191" />
  <sodipodi:namedview
     pagecolor="#ffffff"
     bordercolor="#666666"
     borderopacity="1"
     objecttolerance="10"
     gridtolerance="10"
     guidetolerance="10"
     inkscape:pageopacity="0"
     inkscape:pageshadow="2"
     inkscape:window-width="1600"
     inkscape:window-height="837"
     id="namedview4189"
     showgrid="false"
     inkscape:zoom="0.69587796"
     inkscape:cx="354.375"
     inkscape:cy="481.40625"
     inkscape:window-x="-8"
     inkscape:window-y="-8"
     inkscape:window-maximized="1"
     inkscape:current-layer="svg4187" />
  <path
     style="fill:#000000"
     d="m 300.46875,961.75594 c -1.54688,-0.48731 -8.50781,-1.10944 -15.46875,-1.38263 -7.68891,-0.30168 -14.67998,-1.10643 -17.8125,-2.0504 -2.83594,-0.85453 -5.78906,-1.58007 -6.5625,-1.61232 -0.77344,-0.0319 -3.09375,-0.35025 -5.15625,-0.70687 -2.0625,-0.35653 -7.68361,-0.88144 -12.49136,-1.16634 -5.55342,-0.32916 -10.1691,-1.16063 -12.65625,-2.2801 -2.15319,-0.969 -5.25959,-1.77131 -6.90312,-1.78275 -1.64353,-0.0113 -3.83064,-0.47165 -4.86024,-1.02262 -1.02961,-0.55107 -2.75834,-1.00191 -3.84163,-1.00191 -1.08329,0 -2.90399,-0.61116 -4.04601,-1.35816 -1.79788,-1.176 -7.01344,-2.42437 -15.67014,-3.75075 -3.49263,-0.53512 -31.7241,-7.91269 -46.875,-12.24957 -2.32031,-0.66418 -5.48437,-1.8792 -7.03125,-2.70004 -1.54687,-0.82083 -3.67252,-1.49503 -4.72365,-1.4982 -1.05113,-0.003 -3.58238,-0.86141 -5.625,-1.90718 -2.04262,-1.04577 -5.61229,-2.47616 -7.9326,-3.17865 -2.32031,-0.70249 -7.93513,-3.01092 -12.47737,-5.12985 -4.54225,-2.11893 -8.42006,-3.8526 -8.61735,-3.8526 -1.46275,0 -16.495963,-7.92131 -17.829288,-9.39462 -0.923501,-1.02046 -2.399449,-1.85538 -3.279882,-1.85538 -1.456041,0 -6.359043,-3.24622 -10.530485,-6.97211 -0.902344,-0.80596 -2.292614,-1.46539 -3.089489,-1.46539 -0.796875,0 -2.484375,-1.03552 -3.75,-2.30114 -1.265625,-1.26563 -2.301136,-2.08064 -2.301136,-1.81116 0,1.65966 -17.539054,-12.55329 -18.089767,-14.65922 -0.245395,-0.93839 -2.181837,-2.59164 -4.303203,-3.67388 -2.121367,-1.08224 -3.85703,-2.36198 -3.85703,-2.84389 0,-0.4819 -3.058594,-4.04263 -6.796875,-7.91273 -8.799655,-9.10996 -12.495348,-14.30323 -13.803118,-19.39646 -0.58187,-2.26615 -1.651256,-5.66579 -2.376414,-7.55475 -1.7435171,-4.54167 -1.002973,-10.51271 2.538964,-20.47177 1.558746,-4.38281 3.677361,-10.5 4.708032,-13.59375 2.939432,-8.82324 6.170033,-17.00317 9.580505,-24.25797 3.615241,-7.69039 4.995659,-11.01435 12.312714,-29.64828 2.935851,-7.47656 5.650918,-14.01563 6.033481,-14.53125 0.382564,-0.51563 2.281245,-4.94531 4.219293,-9.84375 1.938047,-4.89844 4.521529,-10.98911 5.74107,-13.53483 1.219541,-2.54572 2.217348,-5.08322 2.217348,-5.63888 0,-0.55567 0.784703,-2.48062 1.743782,-4.27767 0.95908,-1.79705 2.073378,-4.31483 2.476217,-5.59506 0.402839,-1.28023 2.149387,-5.39529 3.881218,-9.14459 1.731831,-3.74929 3.148783,-7.00711 3.148783,-7.23959 0,-0.44931 4.283802,-10.0018 8.047098,-17.9443 1.245971,-2.62965 2.265402,-5.24742 2.265402,-5.81728 0,-0.56987 1.218493,-3.69177 2.707763,-6.93758 1.48927,-3.2458 3.258287,-7.37803 3.93115,-9.18272 0.672861,-1.80469 1.461742,-3.49219 1.753067,-3.75 0.291324,-0.25781 1.335558,-2.78906 2.32052,-5.625 0.984961,-2.83594 2.298647,-6 2.919303,-7.03125 0.620653,-1.03125 1.89855,-4.08984 2.839772,-6.79688 0.941231,-2.70703 2.049853,-4.92187 2.463619,-4.92187 0.413765,0 0.752306,-0.64553 0.752306,-1.4345 0,-2.0891 7.32791,-19.33725 15.57061,-36.64946 1.74866,-3.67273 3.17939,-6.98697 3.17939,-7.36496 0,-0.67426 10.83262,-27.33513 14.102,-34.70733 0.91466,-2.0625 2.58094,-6.49219 3.70285,-9.84375 1.12192,-3.35156 2.62162,-7.35938 3.33269,-8.90625 0.71107,-1.54688 3.64522,-8.70714 6.52033,-15.91172 2.87513,-7.20456 6.26578,-14.95692 7.53481,-17.22745 1.26903,-2.27053 2.30732,-4.52013 2.30732,-4.9991 0,-0.86567 1.5057,-4.36169 6.67334,-15.49451 1.48591,-3.20115 2.70166,-6.08605 2.70166,-6.41086 0,-0.32483 1.26562,-3.32498 2.8125,-6.66701 1.54687,-3.34203 2.8125,-6.24542 2.8125,-6.45197 0,-0.20656 1.00589,-2.60291 2.23531,-5.32522 1.22941,-2.72231 3.48811,-7.90279 5.01932,-11.51216 12.96676,-30.56525 16.73794,-39.26104 20.32875,-46.875 1.70221,-3.60938 3.64273,-8.03906 4.31228,-9.84375 0.66955,-1.80469 1.57162,-3.68203 2.0046,-4.17188 0.43298,-0.48984 0.78724,-1.43793 0.78724,-2.10687 0,-0.66893 1.19513,-3.85409 2.65585,-7.07812 1.46073,-3.22404 3.61355,-8.18219 4.78407,-11.01813 1.1705,-2.83594 2.70342,-6.42188 3.40648,-7.96875 0.70307,-1.54688 2.09099,-4.92188 3.08429,-7.5 1.54653,-4.01408 4.34699,-10.53255 7.65257,-17.8125 0.46826,-1.03125 2.38503,-5.67188 4.25951,-10.3125 3.6686,-9.08235 8.41582,-20.40399 9.82745,-23.4375 2.66498,-5.72686 9.72016,-22.07615 10.8706,-25.19088 0.73708,-1.99561 1.99635,-4.89735 2.79838,-6.4483 2.1293,-4.1176 3.84788,-10.64407 4.62916,-17.57957 1.13847,-10.10629 1.0322,-163.124706 -0.11328,-163.124863 -0.54377,-7.5e-5 -2.6007,-1.4767 -4.57097,-3.281387 -1.97026,-1.804688 -3.95113,-3.28125 -4.40194,-3.28125 -0.45082,0 -0.81967,-0.354158 -0.81967,-0.787017 0,-0.43286 -1.02495,-1.254017 -2.27768,-1.824794 -5.42179,-2.470336 -8.50773,-19.860499 -4.15635,-23.422279 1.08997,-0.892188 3.24403,-2.741708 4.78678,-4.110043 1.54276,-1.368336 4.02364,-2.721938 5.51309,-3.008005 3.96859,-0.762222 4.82445,-1.037952 7.08815,-2.283574 C 262.39275,15.507054 263.98051,15 264.79484,15 c 0.81433,0 2.21316,-0.412252 3.10851,-0.916115 1.36915,-0.7705 22.37568,-6.4115574 25.8321,-6.9369064 0.60956,-0.092649 1.58656,-0.4675589 2.1711,-0.8331314 1.37539,-0.8601787 13.40521,-2.6975216 20.03095,-3.059378 11.3078,-0.6175604 20.31947,-1.5040708 23.4375,-2.30562958 3.57879,-0.92000901 53.02739,-0.62204369 55.3125,0.33329978 0.77344,0.3233533 5.625,1.0108753 10.78125,1.5278268 5.15625,0.5169515 11.69531,1.318035 14.53125,1.7801857 2.83594,0.4621506 7.47656,1.1529716 10.3125,1.5351576 2.83594,0.3821862 5.57812,1.0197998 6.09375,1.4169194 0.51562,0.3971196 3.35576,1.167175 6.31141,1.7112342 4.73685,0.8719329 19.42142,5.4152689 24.62609,7.6191959 1.03125,0.436685 3.14062,1.066367 4.6875,1.399294 4.89992,1.054585 10.78125,11.708239 10.78125,19.52954 0,2.43249 -4.44899,8.611829 -7.86669,10.926292 -1.16016,0.785656 -3.10889,2.378166 -4.33052,3.538912 -1.22163,1.160745 -3.62081,3.059182 -5.33153,4.21875 l -3.11038,2.108303 0.46889,6.5625 c 0.67405,9.433689 1.34937,40.81254 1.91877,89.15503 0.5673,48.16304 1.49695,58.36069 6.51608,71.47693 6.22995,16.28043 8.92288,24.24975 8.92288,26.40595 0,0.99622 0.80181,3.23886 1.7818,4.98366 0.97999,1.74479 2.86184,6.16648 4.1819,9.82598 1.32006,3.65949 2.80101,7.41273 3.291,8.34054 2.47551,4.68731 6.40912,13.96339 14.17086,33.41702 4.69993,11.77969 8.93285,22.11562 9.40651,22.96875 1.01442,1.82717 5.89964,13.77298 12.32769,30.14489 2.5306,6.44531 5.16575,12.98437 5.85589,14.53125 0.69014,1.54687 2.62261,6.60937 4.29437,11.25 1.67176,4.64062 3.59664,9.71375 4.27749,11.2736 0.68086,1.55986 2.54419,6.20048 4.14073,10.3125 1.59654,4.11202 3.47438,8.76574 4.17298,10.3416 1.82488,4.11649 11.22391,28.15818 13.17385,33.6973 0.90759,2.57812 2.65416,6.91387 3.88129,9.63501 1.22712,2.72112 2.23114,5.27284 2.23114,5.6705 0,0.39765 1.68097,4.4994 3.73549,9.115 2.05452,4.61559 3.74202,9.38924 3.75,10.6081 0.008,1.21885 0.81547,3.7501 1.79442,5.625 0.97895,1.87489 3.31805,7.56673 5.198,12.64854 1.87995,5.08181 4.20478,10.98806 5.1663,13.125 0.96151,2.13694 3.02256,7.26035 4.5801,11.38535 1.55753,4.125 3.85929,9.82031 5.11502,12.65625 1.25575,2.83594 4.70298,11.48437 7.66054,19.21875 2.95755,7.73437 5.9161,15.32812 6.57456,16.875 0.65845,1.54687 1.93357,4.92187 2.8336,7.5 1.61561,4.62793 9.29152,23.41092 12.74902,31.19695 0.97924,2.2052 1.78045,4.44319 1.78045,4.97332 0,0.53012 0.80005,2.73367 1.77788,4.89679 3.26244,7.21696 4.78462,11.18146 4.78462,12.46145 0,0.69756 1.26562,4.0316 2.8125,7.40899 1.54687,3.37739 2.8125,6.38279 2.8125,6.67867 0,0.29588 0.60879,1.86735 1.35287,3.49215 2.20216,4.80874 8.02213,20.18002 8.02213,21.18746 0,0.51145 1.00373,3.15725 2.23052,5.87956 3.55051,7.87879 10.89448,26.89996 10.89448,28.21712 0,0.66071 0.36986,1.60207 0.82192,2.09191 0.45205,0.48985 1.75089,3.63282 2.8863,6.98438 1.13542,3.35156 2.61597,7.35937 3.29011,8.90625 0.67414,1.54687 2.18327,5.34375 3.35362,8.4375 1.17035,3.09375 2.484,6.02578 2.91922,6.51562 0.43524,0.48985 0.79133,2.07188 0.79133,3.51563 0,1.44375 0.42187,2.625 0.9375,2.625 0.51562,0 0.9375,0.59815 0.9375,1.32922 0,0.73108 1.04673,3.41321 2.32605,5.96029 2.98833,5.94962 9.42332,21.61595 11.75042,28.60699 0.99369,2.98526 2.45175,6.34867 3.24012,7.47423 0.78838,1.12556 1.43341,2.70288 1.43341,3.50516 0,1.37902 7.05838,18.39123 9.72386,23.43661 1.5198,2.87676 1.09637,12.95585 -0.76801,18.28125 -0.72206,2.0625 -1.58947,5.12109 -1.92758,6.79687 -0.33811,1.67579 -0.9539,3.04688 -1.36841,3.04688 -0.41453,0 -1.01442,0.73828 -1.33309,1.64062 -1.9675,5.57096 -8.2762,14.66844 -13.22119,19.06562 -3.08724,2.74525 -6.58672,6.14836 -7.77662,7.56248 -1.1899,1.41411 -4.35929,4.16881 -7.04308,6.12155 -5.78721,4.2108 -5.95399,4.33524 -9.56713,7.13869 -3.47106,2.69321 -15.06041,10.25696 -18.41134,12.0161 -1.36061,0.71428 -4.40803,2.49239 -6.77205,3.95135 -2.36401,1.45896 -7.15703,3.66652 -10.65116,4.9057 -3.49412,1.23918 -6.98576,2.61685 -7.7592,3.0615 -0.77344,0.44466 -4.57031,1.74372 -8.4375,2.88682 -3.86719,1.14311 -8.00032,2.47409 -9.18473,2.95772 -1.18442,0.48364 -2.94726,0.87935 -3.91741,0.87935 -0.97017,0 -2.43561,0.67168 -3.25655,1.49261 -0.82094,0.82094 -4.28838,2.07758 -7.70543,2.79252 -3.41704,0.71493 -6.95724,1.97359 -7.86711,2.79701 -0.90987,0.82342 -2.21866,1.58256 -2.90842,1.68698 -0.68975,0.10442 -1.79544,0.52795 -2.45707,0.94117 -0.66164,0.41322 -2.64045,0.9296 -4.39736,1.14752 -1.75692,0.21791 -4.37965,0.8853 -5.82828,1.48308 -1.44864,0.59779 -3.0171,0.99649 -3.48548,0.88602 -0.46837,-0.11049 -1.10119,0.13779 -1.40625,0.55172 -1.11057,1.50693 -7.19872,3.95156 -10.39841,4.17543 -1.80469,0.12628 -3.70313,0.51928 -4.21875,0.87328 -0.95278,0.65419 -6.53002,2.09072 -15,3.86353 -2.57813,0.53963 -5.32031,1.203 -6.09375,1.47422 -2.51197,0.88079 -4.16079,1.24172 -7.5,1.64166 -1.80469,0.21619 -6.23438,0.84872 -9.84375,1.40569 -3.60938,0.55697 -9.9375,1.19765 -14.0625,1.42387 -4.125,0.22613 -9.60938,0.66057 -12.1875,0.96544 -2.57813,0.30488 -7.21875,0.71213 -10.3125,0.90506 -8.34191,0.52013 -24.54105,2.19319 -30.82926,3.18394 -3.03422,0.47813 -10.48247,0.87984 -16.55165,0.89278 -6.0692,0.0131 -12.02416,0.23963 -13.23325,0.50363 -10.12761,2.21137 -103.52696,4.97831 -109.07334,3.23128 z m 167.8125,-20.99513 c 14.18933,-1.52897 30.67285,-3.66997 38.90625,-5.05345 14.5182,-2.43953 22.95487,-4.05137 24.73793,-4.72624 1.08945,-0.41235 5.14488,-1.0604 9.01207,-1.44011 11.42078,-1.12139 25.06224,-4.91058 32.8125,-9.11435 3.86719,-2.09757 8.50781,-4.58173 10.3125,-5.52035 l 3.28125,-1.7066 -2.8125,-0.0252 c -1.54688,-0.0139 -5.447,0.80065 -8.66694,1.81011 -3.21995,1.00946 -6.49485,1.58963 -7.27756,1.28927 -0.78272,-0.30035 -1.96235,-0.0986 -2.62139,0.44837 -1.38313,1.1479 -5.49472,1.97387 -10.87506,2.1847 -2.15554,0.0845 -3.96149,0.68168 -4.23767,1.40139 -0.2647,0.68981 -1.3745,1.25421 -2.4662,1.25421 -2.27551,0 -12.4252,2.31009 -18.82475,4.28456 -2.38952,0.73724 -5.63159,1.34044 -7.2046,1.34044 -1.57301,0 -4.04764,0.47521 -5.49917,1.05603 -1.45154,0.58081 -3.69385,1.20378 -4.98291,1.38439 -2.98024,0.41755 -13.57788,2.12253 -16.60565,2.67157 -1.26879,0.23007 -2.83532,0.85687 -3.48117,1.39289 -0.64585,0.536 -2.82412,0.91807 -4.8406,0.84904 -2.01648,-0.0691 -6.40852,0.39114 -9.76008,1.02263 -7.61804,1.43537 -14.49295,2.18954 -24.58928,2.69757 -3.36364,0.16922 -3.45554,0.26363 -2.43578,2.50172 0.77211,1.69463 1.59364,2.20191 3.02678,1.86881 1.08186,-0.25134 7.87328,-1.0935 15.09203,-1.87134 z m -144.90972,-7.82505 c 0.51562,-0.96345 0.68728,-2.00195 0.38145,-2.30778 -0.30582,-0.30583 -0.034,-4.68552 0.60392,-9.73264 0.63797,-5.04713 1.30337,-12.76253 1.47866,-17.14534 0.60908,-15.22924 1.36282,-27.66986 1.81761,-30 0.25159,-1.28906 0.66641,-18.79688 0.9218,-38.90625 0.2554,-20.10938 0.69804,-49.64063 0.98365,-65.625 0.2856,-15.98438 0.69822,-39.39844 0.91692,-52.03125 0.2187,-12.63281 0.61769,-28.45313 0.88666,-35.15625 0.26896,-6.70313 0.71657,-18.51563 0.9947,-26.25 0.27813,-7.73438 0.68983,-15.11719 0.91489,-16.40625 0.22507,-1.28906 0.8914,-11.20313 1.48076,-22.03125 0.58935,-10.82813 1.20412,-21.375 1.36615,-23.4375 1.56692,-19.94626 0.48233,-32.34375 -2.8296,-32.34375 -3.02443,0 -3.42562,1.77835 -4.6528,20.625 -1.40011,21.50257 -2.67918,39.79424 -3.73668,53.4375 -0.82189,10.60336 -2.44764,47.97612 -2.85475,65.625 -0.23194,10.05469 -0.86317,27.5625 -1.40275,38.90625 -0.53957,11.34375 -1.41361,29.69531 -1.9423,40.78125 -0.5287,11.08594 -1.33169,23.53125 -1.78442,27.65625 -0.45274,4.125 -1.0515,12.77344 -1.3306,19.21875 -0.27908,6.44531 -0.73057,14.03906 -1.00329,16.875 -0.27273,2.83594 -0.70609,8.10937 -0.96302,11.71875 -0.25693,3.60937 -0.64128,8.67187 -0.8541,11.25 -1.31964,15.98648 -1.63605,31.2204 -0.66097,31.82304 0.5787,0.35765 0.84131,0.99144 0.5836,1.40843 -1.50232,2.4308 -1.27845,29.90162 0.25475,31.26023 3.15525,2.79595 9.11415,3.24605 10.42976,0.78781 z m 23.58099,0.10784 c 3.84009,-4.24246 4.51282,-25.84746 4.61949,-148.3561 0.0523,-60.07031 0.17702,-121.45313 0.27717,-136.40625 0.17197,-25.67993 -0.56837,-51.13696 -1.53323,-52.72045 -0.2403,-0.39438 -0.35271,-5.35767 -0.24981,-11.02955 0.16558,-9.12616 -0.74682,-15.4698 -2.2248,-15.46822 -0.27368,3e-4 -0.61307,5.80108 -0.75422,12.89063 -0.14115,7.08955 -0.6661,18.16353 -1.16657,24.60884 -1.48035,19.06492 -1.74615,24.60651 -2.36078,49.21875 -0.32191,12.89062 -0.72987,28.28906 -0.90656,34.21875 -0.1767,5.92969 -0.56711,20.69531 -0.86758,32.8125 -1.1272,45.45683 -1.51843,58.87352 -2.00931,68.90625 -0.27752,5.67187 -0.66357,16.85156 -0.85788,24.84375 -0.57505,23.651 -1.45149,43.02855 -2.35338,52.03125 -2.81573,28.10685 -2.9442,60.40371 -0.25555,64.24229 1.35625,1.93631 8.94427,2.08431 10.64301,0.20756 z m 24.58962,-5.38735 c 1.11097,-6.70463 1.17715,-12.82658 0.33948,-31.40625 -0.40682,-9.02344 -0.91175,-28.42969 -1.12206,-43.125 -0.21031,-14.69531 -0.81299,-35.15625 -1.33925,-45.46875 -0.52628,-10.3125 -0.97105,-32.03906 -0.9884,-48.28125 -0.0216,-20.16233 -0.47085,-33.10036 -1.41626,-40.78125 -3.35671,-27.27112 -4.18599,-28.99509 -4.24656,-8.82813 -0.0655,21.81277 -0.78603,75.51655 -1.33222,99.29688 -1.00971,43.96115 -1.54072,63.46277 -1.87624,68.90625 -3.17272,51.4744 -2.78176,55.10893 5.87919,54.65446 l 5.3256,-0.27946 0.77672,-4.6875 z m 21.23219,4.23918 c 3.19398,-1.70937 4.7838,-23.9385 2.29592,-32.10215 -0.27035,-0.88714 -0.65346,-7.84807 -0.85137,-15.46875 -0.1979,-7.62068 -0.83539,-20.81672 -1.41665,-29.32453 -0.58126,-8.50781 -1.2374,-19.6875 -1.4581,-24.84375 -0.2207,-5.15625 -0.78438,-11.90625 -1.25263,-15 -0.46825,-3.09375 -0.83702,-6.67969 -0.81947,-7.96875 0.0493,-3.62085 -1.07333,-28.59377 -1.68577,-37.5 -0.30138,-4.38281 -1.20518,-9.86719 -2.00843,-12.1875 -0.80326,-2.32031 -1.79282,-5.90625 -2.19902,-7.96875 -0.4062,-2.0625 -1.19354,-5.54046 -1.74964,-7.72881 -0.96505,-3.79751 -1.64766,-11.06884 -1.84876,-19.69307 -0.0511,-2.1914 -0.49189,-3.98437 -0.97954,-3.98437 -0.85123,0 -0.50731,88.50302 0.34932,89.88907 0.21076,0.34101 0.62761,16.22032 0.92633,35.28735 0.9948,63.49705 1.70093,84.95179 2.89204,87.87045 0.75614,1.85282 6.85487,2.30283 9.80577,0.72356 z m -129.43918,-3.06731 c 0.97546,-2.60873 2.09191,-11.36774 2.47956,-19.45312 0.60396,-12.59688 1.47886,-24.11847 2.31368,-30.46875 2.06637,-15.71813 6.39751,-68.03785 7.06238,-85.3125 0.23814,-6.1875 0.66649,-12.9375 0.95188,-15 0.28539,-2.0625 0.71213,-6.07031 0.94832,-8.90625 0.52795,-6.33947 2.0634,-23.53483 3.22295,-36.09375 0.47607,-5.15625 1.11074,-12.32813 1.41036,-15.9375 1.82812,-22.0218 2.575,-30.73428 2.85305,-33.28125 0.14073,-1.28906 1.1441,-12.46875 2.22974,-24.84375 1.08562,-12.375 2.36391,-25.45313 2.84064,-29.0625 0.47672,-3.60938 1.54503,-15.21094 2.37402,-25.78125 0.82899,-10.57031 1.76985,-21.11719 2.0908,-23.4375 0.32095,-2.32031 0.52484,-4.49454 0.45309,-4.83163 -0.11126,-0.5227 1.54375,-8.39289 3.26279,-15.51578 0.58889,-2.44009 0.62835,-2.42804 -14.70341,-4.48986 -10.99389,-1.47846 -19.42195,-2.92994 -36.09375,-6.21605 -17.43309,-3.43617 -24.35278,-4.50057 -24.91004,-3.83173 -0.85424,1.02532 -2.97829,8.61927 -3.72634,13.32255 -0.70145,4.41023 -4.21862,18.19771 -5.26143,20.625 -0.33227,0.77344 -0.72453,2.00519 -0.87169,2.73724 -0.26166,1.30169 -2.55427,8.89728 -7.80439,25.85651 -1.43661,4.64063 -3.06592,10.125 -3.62067,12.1875 -0.55476,2.0625 -2.05286,7.33594 -3.3291,11.71875 -1.27625,4.38281 -3.06247,10.83298 -3.96939,14.3337 -0.90691,3.50073 -2.0037,6.58422 -2.43731,6.85221 -0.43361,0.26798 -0.79729,1.62251 -0.80816,3.01005 -0.0109,1.38753 -1.10574,5.47592 -2.43301,9.08529 -1.32729,3.60938 -2.81321,8.85653 -3.30207,11.66033 -0.48887,2.80381 -1.86232,7.65538 -3.05212,10.78125 -1.18979,3.12588 -2.91314,8.84748 -3.82967,12.71467 -0.91652,3.86719 -2.19235,7.88514 -2.83519,8.92879 -0.64284,1.04365 -1.1688,2.99087 -1.1688,4.32714 0,1.33629 -0.65088,4.4902 -1.44641,7.00871 -0.79552,2.51851 -2.35242,7.74317 -3.45976,11.61036 -1.10733,3.86719 -2.57343,8.50781 -3.25801,10.3125 -0.68456,1.80469 -1.76664,6.23438 -2.40462,9.84375 -0.63798,3.60938 -1.48386,6.98438 -1.87974,7.5 -0.39588,0.51563 -1.83169,5.36719 -3.19068,10.78125 -1.359,5.41406 -3.32731,13.00781 -4.37402,16.875 -1.04672,3.86719 -2.24246,8.35258 -2.65721,9.96755 -0.41474,1.61496 -1.04847,3.41263 -1.40828,3.99481 -0.35981,0.58217 -1.65106,5.16709 -2.86944,10.1887 -1.21838,5.02161 -3.88208,15.03644 -5.91933,22.25519 -2.03724,7.21875 -4.00936,15.02344 -4.38248,17.34375 -0.37312,2.32031 -1.21766,5.48438 -1.87674,7.03125 -0.65908,1.54688 -2.15723,6.60938 -3.32923,11.25 -1.172,4.64063 -2.45889,9.07031 -2.85977,9.84375 -1.05144,2.02862 -3.66865,13.58435 -3.66865,16.19815 0,2.00296 9.40402,7.23935 13.00115,7.23935 0.78391,0 3.87385,-8.58803 3.87385,-10.76677 0,-1.17026 2.27614,-8.3695 5.19163,-16.42073 1.88349,-5.2013 7.25989,-26.00363 10.2977,-39.84375 1.24493,-5.67188 2.8801,-13.12378 3.63372,-16.55978 2.21226,-10.0866 5.3078,-14.73688 6.54049,-9.82545 0.53604,2.13578 -0.25154,5.95917 -4.08331,19.82273 -0.99761,3.60937 -2.48347,9.30469 -3.30193,12.65625 -1.9945,8.16741 -8.13372,31.99552 -11.23176,43.59375 -1.37731,5.15625 -3.05305,11.60744 -3.72388,14.33598 l -1.21968,4.96097 3.40164,1.70287 c 8.64728,4.32885 8.22424,4.69381 11.84464,-10.21857 2.45557,-10.11445 8.00577,-32.0352 9.3761,-37.03125 1.83755,-6.69951 2.93963,-11.38704 4.1879,-17.8125 1.07559,-5.53661 3.40027,-16.01564 4.3675,-19.6875 0.27165,-1.03125 1.02674,-4.5107 1.67797,-7.7321 1.33103,-6.58415 4.0701,-10.71127 5.46024,-8.22724 0.90671,1.6202 0.80673,2.28384 -2.54563,16.89684 -1.30119,5.67187 -3.05044,13.47656 -3.88724,17.34375 -0.8368,3.86719 -2.12131,9.5625 -2.85447,12.65625 -2.16145,9.12073 -2.97027,12.75095 -4.38642,19.6875 -2.10062,10.28923 -4.07965,18.90818 -6.66822,29.041 -1.31422,5.14442 -2.38949,9.64927 -2.38949,10.01077 0,0.93881 10.44182,4.72333 11.13891,4.03716 0.31891,-0.31391 1.07327,-3.1764 1.67636,-6.36109 0.60308,-3.18469 3.03136,-13.59503 5.39615,-23.13409 2.36481,-9.53906 5.17045,-20.92969 6.23475,-25.3125 1.06432,-4.38281 3.17989,-13.03125 4.70129,-19.21875 1.52139,-6.1875 2.97811,-12.72656 3.23714,-14.53125 0.25904,-1.80469 0.85652,-4.75781 1.32774,-6.5625 1.33659,-5.11888 2.70238,-11.39341 3.29558,-15.14018 0.54391,-3.43543 2.79149,-6.31042 3.99355,-5.10835 1.1916,1.1916 0.37373,7.52211 -2.50987,19.42703 -1.57663,6.50911 -2.8666,12.64739 -2.8666,13.64062 0,0.99324 -0.3538,2.20666 -0.78623,2.6965 -0.43244,0.48985 -1.29919,3.84375 -1.92615,7.45313 -1.41938,8.1715 -5.72799,27.22457 -10.60019,46.875 -6.77804,27.33705 -6.31523,24.84304 -4.61123,24.84952 0.83466,0.003 2.77282,0.66032 4.30705,1.46032 1.53422,0.8 3.56944,1.25058 4.5227,1.0013 0.98993,-0.25887 2.55697,0.37053 3.65414,1.4677 1.05652,1.05652 3.02911,1.98219 4.38354,2.05706 1.35445,0.0749 2.88449,0.38938 3.40012,0.6989 1.76868,1.06171 13.34732,2.97912 14.74686,2.44207 1.23814,-0.47513 2.40493,-5.90992 3.06774,-14.28937 0.18819,-2.37918 3.82376,-25.47041 5.75653,-36.5625 0.80861,-4.64062 1.65075,-9.97532 1.87141,-11.85488 0.22067,-1.87955 0.98075,-6.52018 1.68907,-10.3125 0.70832,-3.79231 2.6057,-14.067 4.21639,-22.83262 1.61069,-8.76562 3.5193,-17.83594 4.24136,-20.15625 0.72205,-2.32031 1.60111,-6.07818 1.95346,-8.35082 0.35235,-2.27263 1.20863,-5.43669 1.90284,-7.03125 1.78803,-4.10697 1.80561,6.29053 0.0284,16.78832 -2.12012,12.52328 -7.22325,39.23567 -7.61741,39.87343 -0.41765,0.67579 -4.70753,26.06174 -5.61905,33.25157 -0.32686,2.57813 -0.9664,6.16406 -1.4212,7.96875 -0.4548,1.80469 -1.28549,7.07813 -1.84599,11.71875 -0.5605,4.64063 -1.21207,9.49219 -1.44794,10.78125 -0.23588,1.28906 -0.69254,4.51348 -1.01484,7.16538 -0.65428,5.38372 -1.58578,4.63467 8.0869,6.50303 2.19439,0.42387 2.93492,0.16607 3.36625,-1.17187 0.30414,-0.94341 0.90931,-2.55904 1.34481,-3.59029 0.43549,-1.03125 1.06974,-4.77974 1.40944,-8.32999 0.3397,-3.55024 1.19042,-8.4018 1.8905,-10.78125 0.70009,-2.37944 2.14054,-10.65439 3.20101,-18.38876 1.06047,-7.73438 2.15268,-15.32813 2.42713,-16.875 0.27445,-1.54688 0.52013,-3.65625 0.54593,-4.6875 0.0258,-1.03125 0.4386,-3.77344 0.91732,-6.09375 0.47872,-2.32031 1.04484,-6.53906 1.25804,-9.375 0.21321,-2.83594 1.28161,-11.48438 2.37423,-19.21875 1.09262,-7.73438 2.35353,-16.80469 2.80201,-20.15625 2.92534,-21.86121 3.74983,-27.32573 4.24342,-28.1244 0.30571,-0.49464 0.93237,-3.96667 1.39257,-7.7156 1.87284,-15.25685 3.77462,-29.45207 4.2416,-31.66 0.27265,-1.28906 0.67737,-3.82031 0.8994,-5.625 0.22203,-1.80469 0.84723,-6.65625 1.38935,-10.78125 0.54212,-4.125 1.2309,-9.39844 1.53063,-11.71875 0.29973,-2.32031 0.78698,-4.85156 1.08278,-5.625 0.29581,-0.77344 0.64267,-2.67188 0.7708,-4.21875 0.91189,-11.00916 3.56961,-30.47021 5.05721,-37.03125 0.52609,-2.32031 1.39411,-7.59375 1.92893,-11.71875 0.53483,-4.125 1.36447,-9.60938 1.84365,-12.1875 1.17218,-6.3066 3.69808,-21.42213 4.19956,-25.13107 0.5744,-4.24821 2.08499,-14.18116 4.30483,-28.30643 1.05343,-6.70313 2.32739,-15.5625 2.83105,-19.6875 1.06739,-8.74212 1.60323,-10.78125 2.83315,-10.78125 1.35302,0 2.64325,4.11848 2.24205,7.1567 -0.19516,1.47787 -0.56483,5.42924 -0.82151,8.7808 -0.96222,12.56447 -3.58428,34.27225 -4.31141,35.69372 -0.41497,0.81123 -1.02395,4.81904 -1.3533,8.90625 -0.32934,4.0872 -0.9759,8.90784 -1.43683,10.71253 -0.46091,1.80469 -1.51864,10.45312 -2.35052,19.21875 -0.83187,8.76562 -2.13468,21 -2.89515,27.1875 -0.76046,6.1875 -1.59313,13.99219 -1.85039,17.34375 -0.25725,3.35156 -0.87056,8.20312 -1.36291,10.78125 -0.49234,2.57812 -1.14389,8.6726 -1.44787,13.54327 -0.30398,4.87068 -0.72864,9.14047 -0.9437,9.48843 -0.21504,0.34796 -0.65486,3.95661 -0.97737,8.01923 -0.3225,4.06261 -0.73649,7.6358 -0.91998,7.9404 -0.18348,0.30461 -0.58576,4.31242 -0.89395,8.90625 -0.30818,4.59383 -0.96452,10.67273 -1.45853,13.50867 -0.494,2.83594 -1.52669,10.85156 -2.29485,17.8125 -0.76816,6.96094 -1.99534,15.39844 -2.72706,18.75 -0.73172,3.35156 -1.76094,11.15625 -2.28714,17.34375 -0.52622,6.1875 -1.63331,15.89062 -2.4602,21.5625 -3.9826,27.31773 -5.17233,36.13561 -5.69201,42.1875 -0.30995,3.60937 -1.16033,9.9375 -1.88975,14.0625 -2.34208,13.24498 -2.82627,29.77506 -0.92775,31.67357 2.65967,2.65967 13.45399,2.28609 14.4964,-0.5017 z M 195.9375,915.58375 c 0,-1.1836 1.27657,-7.72399 3.86509,-19.8025 0.55251,-2.57813 1.84304,-8.69531 2.86783,-13.59375 1.0248,-4.89844 2.26248,-10.80469 2.7504,-13.125 0.48792,-2.32031 1.09735,-5.69531 1.35428,-7.5 0.25693,-1.80469 0.70665,-4.33594 0.99936,-5.625 0.29271,-1.28906 0.71204,-3.39844 0.93183,-4.6875 0.21979,-1.28906 0.80702,-4.45313 1.30495,-7.03125 0.49794,-2.57813 1.08069,-6.20125 1.29504,-8.05138 1.58205,-13.65629 7.53858,-36.91817 9.19176,-35.89644 1.24013,0.76643 0.41049,11.36811 -1.64171,20.97907 -0.82575,3.86719 -2.08787,10.61719 -2.80471,15 -3.40142,20.79647 -13.05533,69.68852 -14.09117,71.36456 -0.3188,0.51582 -0.78935,2.2831 -1.04567,3.92727 -0.69672,4.46914 -4.97728,7.94527 -4.97728,4.04192 z m -15.36238,11.76047 c 0.0684,-1.30649 -0.4461,-2.03172 -1.44139,-2.03172 -0.85127,0 -7.84426,-2.10938 -15.53998,-4.6875 -14.02647,-4.69898 -18.28125,-5.55616 -18.28125,-3.68303 0,1.55934 2.68778,3.87077 3.74281,3.21872 0.51958,-0.32112 0.94469,-0.11218 0.94469,0.46431 0,0.57649 0.37237,0.81802 0.8275,0.53673 0.74329,-0.45938 8.87184,1.93059 13.70375,4.02919 9.7736,4.24488 15.89137,5.06597 16.04387,2.1533 z m 241.41916,0.61988 c 0.43423,-0.68494 0.84331,-2.30004 0.90906,-3.5891 0.20354,-3.98972 -0.15837,-13.41331 -0.53875,-14.02878 -0.19859,-0.32132 -0.65232,-5.62833 -1.00831,-11.79334 -0.35598,-6.16502 -0.83519,-11.53124 -1.06491,-11.92493 -0.22974,-0.39368 -0.80358,-5.45618 -1.27522,-11.25 -0.47164,-5.79381 -1.51769,-17.2842 -2.32456,-25.5342 -0.80687,-8.25 -1.83751,-20.48438 -2.29029,-27.1875 -0.4528,-6.70313 -1.03701,-13.66406 -1.29825,-15.46875 -0.26125,-1.80469 -0.73641,-6.02344 -1.05592,-9.375 -1.1108,-11.65194 -1.67141,-15.51481 -3.40149,-23.4375 -0.95708,-4.38281 -2.43176,-11.34375 -3.27706,-15.46875 -0.84531,-4.125 -2.14968,-8.67376 -2.89861,-10.10835 -0.74892,-1.43459 -1.59976,-4.91506 -1.89073,-7.73437 -0.72691,-7.04305 -1.92175,-6.4794 -1.55457,0.73334 0.84862,16.66996 2.63604,85.9229 3.68397,142.73438 0.52204,28.30193 1.51493,38.23853 4.388,43.91437 1.06679,2.10746 13.51132,1.70523 14.89764,-0.48152 z m 19.94155,0.0874 c 0.46314,-0.42177 0.93742,-3.21449 1.05394,-6.20603 0.11652,-2.99155 0.52274,-7.02082 0.90272,-8.95394 0.37998,-1.93313 0.19573,-7.62844 -0.40943,-12.65625 -0.60515,-5.02782 -1.29393,-13.36023 -1.53059,-18.51648 -0.23667,-5.15625 -0.81614,-11.90625 -1.28771,-15 -0.47157,-3.09375 -1.3548,-10.6875 -1.96273,-16.875 -1.47183,-14.9804 -3.3199,-27.7178 -5.10083,-35.15625 -3.13265,-13.0843 -5.06548,-23.29181 -5.68309,-30.01308 -0.35469,-3.86 -0.82086,-7.32027 -1.03593,-7.68952 -0.21508,-0.36923 -0.58599,-3.95517 -0.82423,-7.96875 -0.66983,-11.28384 -2.8354,-28.2936 -3.71401,-29.17221 -1.27871,-1.2787 -1.47596,4.0275 -0.57701,15.52091 0.55565,7.10402 1.25124,19.03359 1.54575,26.51015 0.29451,7.47656 0.71572,14.47664 0.93601,15.55574 0.22031,1.07909 0.64513,8.67284 0.94408,16.875 0.29894,8.20215 0.73526,16.38957 0.9696,18.19426 0.68565,5.28034 1.15765,11.82068 1.82677,25.3125 0.34523,6.96094 0.81958,14.76562 1.05413,17.34375 0.23457,2.57812 0.39066,6.07754 0.3469,7.77647 -0.0438,1.69893 0.40598,8.44893 0.99945,15 0.59346,6.55107 1.00699,15.64943 0.91893,20.21859 -0.20604,10.69027 4.72025,15.27949 10.62728,9.90014 z m 28.50726,-7.42647 c 2.23125,-3.29468 2.34799,-5.87013 0.59497,-13.125 -0.31148,-1.28906 -0.95908,-8.25 -1.43911,-15.46875 -0.48002,-7.21875 -1.02121,-14.39063 -1.20263,-15.9375 -0.18142,-1.54688 -0.60256,-5.13281 -0.93586,-7.96875 -0.3333,-2.83594 -0.79725,-7.26563 -1.031,-9.84375 -0.23374,-2.57813 -1.05612,-7.85156 -1.82751,-11.71875 -0.77139,-3.86719 -1.41927,-8.52891 -1.43974,-10.35938 -0.0204,-1.83046 -0.38797,-3.7289 -0.81667,-4.21875 -1.07068,-1.22338 -2.71717,-7.43803 -3.46486,-13.07812 -0.34179,-2.57813 -1.18051,-6.65472 -1.86382,-9.05911 -0.68331,-2.40439 -1.05954,-4.55446 -0.83606,-4.77793 0.22347,-0.22348 -0.21463,-1.89246 -0.97357,-3.70884 -0.75893,-1.81637 -1.65357,-6.20537 -1.98809,-9.75331 -0.54705,-5.80211 -8.36316,-40.50108 -9.344,-41.48191 -0.42361,-0.42362 0.18067,9.93571 0.94971,16.2811 0.24997,2.0625 0.70924,6.91406 1.02059,10.78125 0.31136,3.86719 0.91317,8.71875 1.33735,10.78125 0.42419,2.0625 0.8159,7.125 0.87046,11.25 0.0546,4.125 0.54637,11.08594 1.09288,15.46875 0.54652,4.38281 1.1729,9.65625 1.39198,11.71875 0.21907,2.0625 0.6281,5.85937 0.90895,8.4375 0.28085,2.57812 0.70632,7.42969 0.9455,10.78125 0.23917,3.35156 0.88082,9.04687 1.42586,12.65625 0.54505,3.60937 1.20031,9.09375 1.45612,12.1875 0.25582,3.09375 1.3086,13.00781 2.33953,22.03125 1.03092,9.02344 2.08541,18.9375 2.34331,22.03125 0.82013,9.83816 0.8965,9.99161 4.80968,9.66409 2.73813,-0.22918 3.91437,-0.96907 5.67603,-3.57034 z m 36.21693,-5.7014 c -0.0629,-3.59828 -1.67223,-15.95788 -3.46899,-26.64235 -0.60697,-3.60938 -1.16875,-7.82813 -1.2484,-9.375 -0.16356,-3.17656 -0.50456,-5.51968 -3.20624,-22.03125 -1.05461,-6.44531 -2.72839,-16.99219 -3.71951,-23.4375 -3.44163,-22.38089 -4.70318,-29.55681 -6.01577,-34.21875 -0.72589,-2.57813 -2.22026,-8.00869 -3.32083,-12.0679 -1.10057,-4.05923 -2.58019,-8.76654 -3.28806,-10.46069 -0.70786,-1.69416 -1.57161,-5.96672 -1.91944,-9.4946 -0.34783,-3.52787 -0.82928,-7.469 -1.0699,-8.75806 -0.24061,-1.28906 -0.5988,-3.75739 -0.79598,-5.48517 -0.37515,-3.28736 -1.4194,-5.28476 -1.4194,-2.71496 0,0.81804 0.81403,7.32195 1.80895,14.45311 0.99492,7.13117 2.26077,16.97358 2.81299,21.87202 0.55223,4.89844 2.04174,17.76562 3.31004,28.59375 3.66619,31.30008 5.3993,47.15279 6.20082,56.71875 0.41044,4.89844 0.95511,10.17187 1.21037,11.71875 0.75132,4.55287 2.40454,16.4008 3.20596,22.97574 0.40899,3.35542 0.45999,7.48754 0.11334,9.18252 l -0.6303,3.08176 5.74954,-0.27626 5.74954,-0.27626 -0.0587,-3.35765 z m 25.6105,-1.04218 c 11.18325,-2.34655 12.15973,-3.30049 9.891,-9.66267 -0.73548,-2.0625 -2.17552,-10.28906 -3.20009,-18.28125 -1.02457,-7.99219 -2.86318,-18.75 -4.0858,-23.90625 -1.22263,-5.15625 -2.87522,-12.53906 -3.67245,-16.40625 -0.79721,-3.86719 -2.50366,-12.09375 -3.79211,-18.28125 -1.28844,-6.1875 -2.97157,-14.625 -3.74029,-18.75 -0.76871,-4.125 -2.63616,-14.03906 -4.1499,-22.03125 -1.51373,-7.99219 -3.4564,-18.53906 -4.31703,-23.4375 -0.86065,-4.89844 -2.81842,-15.65625 -4.3506,-23.90625 -1.53219,-8.25 -3.4175,-18.58594 -4.18959,-22.96875 -0.77209,-4.38281 -2.01366,-10.71094 -2.75905,-14.0625 -0.74539,-3.35156 -2.19048,-10.73438 -3.2113,-16.40625 -1.02083,-5.67188 -2.30758,-12.42188 -2.85945,-15 -0.55188,-2.57813 -1.42056,-7.69354 -1.9304,-11.36759 -0.50985,-3.67405 -1.78747,-11.2678 -2.83915,-16.875 -1.0517,-5.6072 -2.54044,-13.78085 -3.30834,-18.16366 -0.76789,-4.38281 -1.97283,-9.86719 -2.67764,-12.1875 -1.80455,-5.94075 -2.45034,-9.62947 -3.2826,-18.75 -0.63787,-6.99034 -3.86672,-23.38936 -6.70055,-34.03157 l -0.94873,-3.56283 -4.8701,0.28158 c -4.22968,0.24455 -4.84452,0.52813 -4.67551,2.15657 0.10702,1.03125 1.1011,7.78125 2.20907,15 2.05023,13.358 3.37576,23.456 4.18411,31.875 0.24753,2.57812 0.87215,6.79687 1.38802,9.375 0.51588,2.57812 1.56322,9.11719 2.32741,14.53125 0.7642,5.41406 1.60766,10.89844 1.87435,12.1875 0.2667,1.28906 0.7338,5.08594 1.038,8.4375 0.3042,3.35156 1.17568,9.67969 1.93662,14.0625 3.47347,20.00608 4.85318,29.28758 4.5718,30.7551 -0.16753,0.87376 0.51195,6.65115 1.50996,12.83865 0.998,6.1875 2.19068,14.41406 2.65037,18.28125 0.45971,3.86719 1.48188,11.25566 2.2715,16.41883 0.78963,5.16318 1.70062,11.70224 2.02443,14.53125 0.3238,2.82902 0.99365,7.02888 1.48854,9.33303 0.49489,2.30415 1.1258,6.72937 1.40203,9.83383 0.27623,3.10445 0.64938,5.88255 0.82923,6.17356 0.17985,0.291 1.19863,6.20172 2.26395,13.13492 1.06533,6.9332 2.3481,14.7152 2.8506,17.29333 1.0912,5.5984 1.54685,8.61296 2.33809,15.46875 0.3273,2.83594 0.97065,7.26562 1.42966,9.84375 0.45902,2.57812 1.04051,7.21875 1.29222,10.3125 0.2517,3.09375 1.09598,9.21094 1.87615,13.59375 0.78018,4.38281 1.87918,11.55469 2.44224,15.9375 0.56305,4.38281 1.21424,9.02344 1.44708,10.3125 0.23282,1.28906 0.65662,4.875 0.94175,7.96875 2.07969,22.56507 1.04228,21.46586 17.0825,18.10017 z m 28.35448,-6.21337 c 8.43587,-2.06654 11.20104,-5.06044 11.32321,-12.25981 0.0403,-2.37297 0.12406,-5.79105 0.18621,-7.59574 0.0621,-1.80469 -0.58335,-5.60156 -1.43444,-8.4375 -0.85108,-2.83594 -1.77145,-6.63281 -2.04526,-8.4375 -0.44253,-2.91666 -4.14502,-18.35789 -7.19338,-30 -0.60755,-2.32031 -1.65534,-6.53906 -2.32844,-9.375 -0.67308,-2.83594 -2.25722,-9.16406 -3.52029,-14.0625 -1.26308,-4.89844 -2.96275,-11.64844 -3.77706,-15 -2.74061,-11.27987 -5.26815,-21.05022 -7.27579,-28.125 -1.09741,-3.86719 -2.74441,-10.40625 -3.66001,-14.53125 -0.91559,-4.125 -3.41962,-14.25 -5.5645,-22.5 -2.14487,-8.25 -4.94329,-19.64063 -6.21871,-25.3125 -1.27541,-5.67188 -3.31785,-14.32031 -4.53874,-19.21875 -1.2209,-4.89844 -2.49814,-10.59375 -2.83832,-12.65625 -0.34018,-2.0625 -1.63012,-7.125 -2.86653,-11.25 -1.23641,-4.125 -3.31678,-12.77344 -4.62304,-19.21875 -1.30625,-6.44531 -3.18321,-15.09375 -4.17101,-19.21875 -0.9878,-4.125 -4.35426,-18.67969 -7.48103,-32.34375 -3.12677,-13.66406 -6.30305,-27.11497 -7.0584,-29.89091 -0.75535,-2.77594 -1.65706,-7.31785 -2.00381,-10.09312 l -0.63045,-5.04596 -3.40573,0.35437 -3.40573,0.35436 0.13244,5.05125 c 0.0728,2.7782 0.58703,7.16063 1.14263,9.73876 1.01417,4.706 2.62284,14.96998 3.306,21.09375 0.20133,1.80469 1.04961,7.28906 1.88506,12.1875 0.83546,4.89844 2.3821,13.96875 3.43698,20.15625 1.05489,6.1875 2.49238,15.04687 3.19445,19.6875 0.70206,4.64062 1.50231,9.70312 1.77833,11.25 0.27602,1.54687 1.16489,6.98184 1.97528,12.07772 0.81038,5.09586 1.6931,9.62066 1.9616,10.0551 0.2685,0.43444 0.72647,3.43697 1.01773,6.67228 0.29125,3.23532 1.32641,10.52302 2.30035,16.1949 0.97394,5.67187 2.39869,14.53125 3.16611,19.6875 2.79675,18.7912 4.4025,28.19072 5.33235,31.21387 0.52254,1.69888 1.28081,5.28481 1.68506,7.96875 1.72661,11.4637 7.65375,43.05367 8.49141,45.2569 0.50214,1.32071 0.91297,3.70281 0.91297,5.29357 0,2.38997 3.45274,19.37114 7.48843,36.82941 0.47678,2.0625 1.49919,6.49219 2.27204,9.84375 0.77285,3.35156 1.64435,8.41406 1.93666,11.25 0.29232,2.83594 0.90939,6.21094 1.37128,7.5 0.46188,1.28906 1.08236,4.45313 1.37884,7.03125 1.3425,11.67401 2.43652,18.33925 3.26408,19.88628 0.49319,0.92192 1.38861,3.62035 1.98983,5.99651 1.25375,4.95508 0.97694,4.91409 13.11134,1.94151 z M 121.96928,888.2254 c 0.8988,-3.57866 2.96049,-10.93634 4.58153,-16.3504 5.76143,-19.24253 9.18762,-31.47632 10.23967,-36.5625 1.15971,-5.60676 5.85678,-22.99447 11.01652,-40.78125 4.93028,-16.99579 6.10087,-21.25601 6.82627,-24.84375 0.3649,-1.80469 1.09309,-4.125 1.61822,-5.15625 0.52513,-1.03125 1.93146,-6.09375 3.12516,-11.25 1.19371,-5.15625 2.58348,-9.91006 3.08838,-10.56401 0.5049,-0.65396 1.28182,-2.86881 1.72649,-4.92188 2.06876,-9.55173 2.41982,-10.88223 3.3349,-12.63911 0.87602,-1.68189 3.45498,-11.3175 4.62446,-17.27806 0.24584,-1.25293 0.71643,-2.71406 1.04579,-3.24697 0.32935,-0.5329 0.89242,-2.67183 1.25127,-4.75319 0.35885,-2.08136 2.00833,-8.42491 3.66551,-14.09678 1.65718,-5.67188 4.04437,-13.89844 5.30485,-18.28125 1.2605,-4.38281 2.6653,-9.23438 3.12177,-10.78125 0.45648,-1.54688 2.35523,-8.50781 4.21945,-15.46875 1.86421,-6.96094 4.2006,-15.1875 5.19198,-18.28125 1.72733,-5.39041 5.87065,-19.40508 7.48342,-25.3125 0.42231,-1.54688 2.93084,-10.19531 5.57452,-19.21875 5.14188,-17.55031 8.49056,-30.28626 8.49056,-32.29184 0,-0.67964 -1.87404,-1.70746 -4.16514,-2.28437 -5.55587,-1.39897 -6.14736,-1.33752 -6.14736,0.63871 0,0.92812 -0.37517,2.08828 -0.83371,2.57812 -0.45853,0.48985 -1.53222,3.42188 -2.38596,6.51563 -1.60569,5.81865 -5.04361,15.23185 -6.16314,16.875 -0.35131,0.51562 -1.19154,3.04687 -1.86719,5.625 -0.67565,2.57812 -1.52013,5.10937 -1.87663,5.625 -0.35651,0.51562 -1.84787,4.52344 -3.31415,8.90625 -1.46627,4.38281 -2.96631,8.39062 -3.33342,8.90625 -0.36712,0.51562 -1.17361,2.83594 -1.79222,5.15625 -0.6186,2.32031 -1.94287,5.90625 -2.94283,7.96875 -0.99996,2.0625 -3.25428,7.75781 -5.0096,12.65625 -7.21225,20.1266 -11.75219,32.44984 -12.60633,34.21875 -0.49797,1.03125 -1.52728,3.77344 -2.28737,6.09375 -1.51917,4.63747 -10.46573,29.52114 -14.99938,41.71875 -5.73192,15.42146 -8.3587,22.796 -8.7707,24.62323 -0.26332,1.16778 -0.85025,2.35283 -1.30431,2.63345 -0.45406,0.28063 -0.82651,1.22361 -0.82766,2.09553 -9.4e-4,0.87191 -1.84222,6.43685 -4.09125,12.36654 -2.24903,5.92969 -7.15354,19.85156 -10.89889,30.9375 -3.74535,11.08594 -7.55496,21.84375 -8.4658,23.90625 -1.59304,3.60727 -3.66784,9.19825 -9.3934,25.3125 -1.46566,4.125 -4.400826,11.92969 -6.522576,17.34375 -2.121759,5.41406 -4.845333,12.63865 -6.052393,16.05466 -3.226192,9.13017 -3.86634,10.03842 -7.309211,10.37041 -2.950811,0.28454 -2.798761,0.44691 4.883927,5.21555 9.189849,5.70414 8.946146,5.63595 9.199552,2.57402 0.106875,-1.29132 1.211869,-4.77179 2.455551,-7.73437 1.24367,-2.96259 3.18797,-8.44572 4.32064,-12.18475 1.13267,-3.73904 2.42158,-7.02208 2.86423,-7.29566 0.44265,-0.27357 0.57819,-1.08803 0.30118,-1.80992 -0.27702,-0.72188 0.96985,-5.45446 2.77081,-10.51685 3.90691,-10.98208 11.89689,-36.03116 11.88537,-37.26138 -0.0287,-3.0672 6.13077,-17.22985 8.28029,-19.03909 l 2.49037,-2.09612 0.61657,2.30545 c 1.28992,4.82319 -1.1236,16.58969 -5.41581,26.40348 -0.71063,1.6248 -1.29206,3.59373 -1.29206,4.3754 0,0.78167 -0.84375,3.38961 -1.875,5.79542 -1.03125,2.40581 -1.875,4.94457 -1.875,5.6417 0,0.69711 -0.48155,2.45511 -1.07011,3.90664 -0.58856,1.45154 -1.20682,3.27197 -1.37391,4.04541 -0.16709,0.77344 -0.79155,3.72656 -1.38769,6.5625 -0.59614,2.83594 -1.43313,6 -1.85997,7.03125 -0.42685,1.03125 -1.68626,5.25 -2.7987,9.375 -1.11245,4.125 -2.99721,10.45313 -4.18836,14.0625 -5.24804,15.90242 -5.28933,15.60282 2.78892,20.23551 6.04152,3.46466 6.16164,3.40017 8.1091,-4.35386 z m 501.90437,-5.18145 c 5.13832,-2.10706 10.83363,-4.98423 12.65625,-6.39374 1.82262,-1.40949 4.81817,-3.46878 6.65678,-4.5762 5.37363,-3.23658 6.99366,-5.46151 5.78317,-7.9425 -1.03583,-2.12301 -2.90013,-7.1868 -7.67627,-20.85026 -1.44192,-4.125 -3.57696,-10.03125 -4.74453,-13.125 -1.16758,-3.09375 -4.31847,-11.95312 -7.00197,-19.6875 -5.80776,-16.73911 -8.7376,-25.08187 -10.37089,-29.53125 -0.66248,-1.80469 -3.1769,-9.60937 -5.58761,-17.34375 -2.41071,-7.73437 -4.80614,-15.11719 -5.32316,-16.40625 -1.2959,-3.23101 -5.17487,-14.98027 -12.07093,-36.5625 -3.21273,-10.05469 -6.1547,-18.70312 -6.5377,-19.21875 -0.38302,-0.51562 -1.43561,-3.46875 -2.33909,-6.5625 -0.9035,-3.09375 -2.15302,-6.89062 -2.77672,-8.4375 -0.6237,-1.54687 -2.77948,-7.83056 -4.79061,-13.96375 -2.5608,-7.80945 -4.14828,-11.28386 -5.29725,-11.59372 -0.90234,-0.24336 -1.64062,-0.81514 -1.64062,-1.27062 0,-0.45549 -0.67897,-0.82816 -1.50882,-0.82816 -2.03128,0 -1.44114,3.13125 3.26881,17.34375 2.05051,6.1875 4.84668,15.04687 6.21373,19.6875 1.36705,4.64062 2.84243,9.49219 3.27863,10.78125 0.43621,1.28906 2.13299,6.77344 3.77065,12.1875 3.7143,12.27946 6.07785,19.90735 12.05535,38.90625 5.17798,16.45767 14.42873,47.79656 17.15761,58.125 0.95363,3.60937 3.6691,12.04687 6.03437,18.75 5.64516,15.99822 6.6078,19.90312 5.24305,21.26787 -2.11191,2.11191 -5.97725,-4.83955 -8.95883,-16.11162 -0.61374,-2.32031 -1.59263,-5.0625 -2.17532,-6.09375 -0.58267,-1.03125 -2.2027,-5.67188 -3.60004,-10.3125 -1.39736,-4.64063 -2.91775,-8.83828 -3.37867,-9.32813 -0.46091,-0.48984 -0.84062,-1.9664 -0.84379,-3.28125 -0.003,-1.31484 -0.636,-3.599 -1.40625,-5.07591 -0.77026,-1.47691 -1.40048,-3.10065 -1.40048,-3.60832 0,-0.50766 -0.57353,-2.25241 -1.2745,-3.87721 -2.7337,-6.33645 -3.413,-8.2509 -3.413,-9.6186 0,-0.78098 -1.45915,-4.45253 -3.24256,-8.15902 -1.78341,-3.70648 -4.34069,-10.11406 -5.68285,-14.23906 -1.34216,-4.125 -2.83614,-8.23255 -3.31994,-9.1279 -0.48381,-0.89535 -0.87965,-2.32571 -0.87965,-3.17857 0,-0.85286 -0.80283,-3.28437 -1.78406,-5.40335 -2.98271,-6.44113 -5.71594,-13.85717 -5.71594,-15.50895 0,-0.85936 -0.39834,-1.96326 -0.88521,-2.45311 -0.48686,-0.48984 -1.98273,-4.89843 -3.32417,-9.79687 -1.34142,-4.89844 -2.90584,-10.59375 -3.47649,-12.65625 -5.50496,-19.89684 -12.39983,-37.68608 -16.0956,-41.52776 -4.92102,-5.11532 -10.35325,-8.5429 -9.6,-6.05732 0.27461,0.90617 0.89752,3.33508 1.38422,5.39758 1.93249,8.18922 4.83984,18.22168 7.60712,26.25 1.59956,4.64062 3.73191,11.35452 4.73855,14.91977 1.00664,3.56525 2.73502,9.4715 3.84086,13.125 4.34199,14.3452 10.11309,34.04769 11.14501,38.04898 0.46542,1.80469 3.23435,11.29687 6.15318,21.09375 2.91882,9.79687 5.67659,19.38485 6.12838,21.30661 0.45178,1.92175 2.70204,9.9201 5.00057,17.77409 2.29852,7.854 4.01597,14.44316 3.81655,14.64258 -0.19942,0.19942 -1.2118,-2.52549 -2.24975,-6.05535 -1.03794,-3.52986 -3.21796,-10.84762 -4.84447,-16.26168 -1.62653,-5.41406 -3.50902,-11.74219 -4.18333,-14.0625 -0.67429,-2.32031 -2.09894,-6.67808 -3.16586,-9.68392 -1.06693,-3.00585 -1.88589,-5.74803 -1.81992,-6.09375 0.066,-0.34572 -0.63944,-2.31608 -1.56757,-4.37858 -0.92814,-2.0625 -1.78612,-5.20958 -1.90663,-6.99352 -0.12051,-1.78395 -0.69191,-3.40113 -1.26977,-3.59376 -1.4088,-0.4696 -1.32503,0.67302 0.4067,5.54753 3.7446,10.54041 9.77843,31.81789 16.31701,57.53975 1.44181,5.67187 3.72773,13.6758 5.0798,17.78649 1.35208,4.1107 2.45832,8.41002 2.45832,9.55405 0,1.14403 0.41092,2.33401 0.91314,2.6444 1.37071,0.84715 3.73269,9.43991 4.74088,17.24713 0.49146,3.80577 1.50667,8.14857 2.25602,9.65068 0.74936,1.50211 1.64436,4.61096 1.98891,6.90856 0.78336,5.22379 1.12119,5.23277 13.0372,0.34639 z m 40.28553,-8.32608 c 1.98998,-1.01455 3.99585,-1.61119 4.45749,-1.32588 0.88995,0.55001 4.44593,-1.9701 10.60208,-7.51367 2.0625,-1.85727 3.97545,-3.37719 4.25099,-3.37759 1.78794,-0.003 6.77737,-12.21773 7.85044,-19.21948 0.65902,-4.30006 -0.7556,-7.80558 -1.88099,-4.66122 -0.36393,1.01679 -1.27047,2.55904 -2.01453,3.42723 -0.74406,0.86818 -1.4455,2.91704 -1.55876,4.553 -0.11376,1.64314 -0.91312,3.37027 -1.78592,3.85871 -0.86899,0.4863 -1.57998,1.78621 -1.57998,2.88868 0,1.91768 -12.0499,14.45905 -19.77977,20.5865 -3.82935,3.03552 -3.41764,3.25975 1.43895,0.78372 z M 80.625,869.57536 c 0,-2.2857 0.547932,-3.91114 3.882787,-11.51827 0.958217,-2.18579 1.742213,-4.44101 1.742213,-5.0116 0,-0.57059 0.609466,-2.15722 1.354369,-3.52584 0.744903,-1.36862 2.692565,-6.49621 4.328138,-11.39465 2.664421,-7.97976 3.788081,-10.94372 6.575202,-17.34375 0.854213,-1.96152 2.572271,-6.78456 5.510301,-15.46875 1.44272,-4.26443 9.25042,-24.38514 12.18695,-31.40625 0.43132,-1.03125 1.49442,-3.98437 2.36244,-6.5625 0.86802,-2.57812 1.94667,-5.53125 2.397,-6.5625 0.45033,-1.03125 2.28418,-6.09375 4.07522,-11.25 1.79103,-5.15625 4.59406,-12.96094 6.22895,-17.34375 1.63489,-4.38281 3.95861,-10.92187 5.16385,-14.53125 1.20524,-3.60937 3.71745,-10.57031 5.5827,-15.46875 1.86526,-4.89844 5.85889,-15.86719 8.87474,-24.375 3.01585,-8.50781 6.40225,-17.78906 7.52533,-20.625 1.12308,-2.83594 3.23136,-8.53125 4.68506,-12.65625 3.2186,-9.13304 7.48296,-20.13496 16.17022,-41.71875 3.63186,-9.02344 7.61861,-19.14844 8.85945,-22.5 1.24084,-3.35156 3.23814,-8.20312 4.43843,-10.78125 1.2003,-2.57812 2.50604,-6.16391 2.90165,-7.96843 0.39561,-1.80451 1.46601,-4.96857 2.37868,-7.03125 4.76914,-10.77855 5.06806,-11.8186 3.65393,-12.71342 -1.87916,-1.18908 -5.81937,-1.113 -5.07098,0.0979 0.33263,0.53822 0.19043,1.48744 -0.316,2.10938 -0.50643,0.62194 -2.19874,4.71675 -3.76068,9.09956 -3.39814,9.53519 -7.35808,19.53706 -8.62479,21.78415 -0.50471,0.89535 -0.91766,2.09722 -0.91766,2.67082 0,0.5736 -0.58143,2.3723 -1.29206,3.9971 -0.71063,1.6248 -2.02592,5.06356 -2.92287,7.64168 -1.90823,5.48489 -7.02979,18.78965 -10.8265,28.125 -6.91577,17.00453 -15.85274,39.9554 -20.6258,52.96875 -1.4184,3.86719 -3.72414,9.98438 -5.12385,13.59375 -1.39971,3.60938 -3.52802,9.51563 -4.72959,13.125 -4.73357,14.21912 -11.77585,33.69135 -12.52501,34.63223 -0.43475,0.54602 -1.5086,3.49632 -2.38632,6.5562 -0.87772,3.05988 -2.36973,7.27863 -3.31559,9.375 -0.94585,2.09637 -2.23754,5.49907 -2.87041,7.56157 -0.63287,2.0625 -1.75934,5.43132 -2.50328,7.48628 -0.74394,2.05495 -2.41349,6.90651 -3.7101,10.78125 -1.29663,3.87473 -2.92769,8.09966 -3.62457,9.38872 -0.69688,1.28906 -2.20219,5.08594 -3.34514,8.4375 -1.14294,3.35156 -2.35158,6.51563 -2.68586,7.03125 -0.334275,0.51563 -1.409569,3.46875 -2.389538,6.5625 -0.979959,3.09375 -2.322712,6.45715 -2.983884,7.47423 -0.661172,1.01706 -1.202128,2.60132 -1.202128,3.52055 0,0.91922 -1.725012,5.78238 -3.833361,10.80702 -2.108349,5.02463 -5.285625,13.35445 -7.060613,18.5107 -6.266849,18.20487 -5.901835,17.48123 -8.656869,17.16221 -3.380416,-0.39142 -3.752365,-4.76765 -1.005759,-11.8334 2.941564,-7.5673 5.72362,-14.9792 10.269585,-27.36006 2.177244,-5.92969 5.004905,-13.3125 6.283689,-16.40625 1.278784,-3.09375 2.970908,-7.3125 3.760275,-9.375 0.789362,-2.0625 1.975356,-5.01562 2.635544,-6.5625 0.660178,-1.54687 2.093362,-5.47723 3.184846,-8.73413 1.091493,-3.2569 2.330413,-6.6319 2.753153,-7.5 2.34013,-4.80548 3.80266,-8.6432 4.88877,-12.82837 0.66905,-2.57812 2.64372,-8.0625 4.38812,-12.1875 1.74442,-4.125 4.59091,-11.50781 6.32554,-16.40625 4.92533,-13.90867 14.57546,-39.21652 17.51644,-45.9375 0.56407,-1.28906 1.11647,-2.97656 1.22755,-3.75 0.30522,-2.12509 4.85418,-15.48337 5.95042,-17.47372 0.52862,-0.95977 1.84348,-4.27628 2.92192,-7.37003 1.75384,-5.0313 7.50954,-19.43101 10.92372,-27.32918 0.70237,-1.6248 1.27703,-3.4658 1.27703,-4.0911 0,-0.62532 0.79761,-2.67093 1.77247,-4.54583 0.97485,-1.87489 4.37462,-9.73701 7.55504,-17.47139 3.18042,-7.73437 6.39061,-15.44791 7.13378,-17.14118 0.74317,-1.69328 1.35297,-3.59172 1.35514,-4.21875 0.002,-0.62704 1.05684,-3.21548 2.34375,-5.75208 1.28689,-2.53661 2.33982,-5.08412 2.33982,-5.66115 0,-0.57702 0.84375,-2.7041 1.875,-4.72684 1.03125,-2.02274 1.875,-4.05209 1.875,-4.50967 0,-0.45758 0.56796,-2.16135 1.26213,-3.78615 3.48088,-8.1475 4.11297,-11.86043 2.01912,-11.86043 -1.0625,0 -1.40625,-1.14583 -1.40625,-4.6875 0,-5.70827 -1.46098,-6.16254 -2.37726,-0.73918 -0.36689,2.17158 -0.98756,4.59736 -1.37927,5.39062 -1.05095,2.12829 -2.39324,5.49704 -4.49695,11.28606 -1.86786,5.14003 -9.75888,25.83389 -13.58456,35.625 -1.10809,2.83594 -2.50599,6 -3.10643,7.03125 -0.60045,1.03125 -2.03579,4.82812 -3.18965,8.4375 -1.15387,3.60937 -2.4676,6.96328 -2.91941,7.45312 -0.4518,0.48985 -0.82147,1.4652 -0.82147,2.16744 0,0.70223 -0.99321,3.46552 -2.20713,6.14062 -1.21392,2.6751 -3.58711,8.66069 -5.27375,13.30132 -1.68664,4.64062 -4.49031,12.03282 -6.23037,16.42711 -1.74006,4.39429 -3.16375,8.59894 -3.16375,9.34366 0,1.82908 -6.61965,19.68773 -11.64521,31.41673 -1.24363,2.90246 -2.58957,6.45676 -8.52025,22.5 -6.99261,18.91594 -11.56927,30.78383 -17.500899,45.38227 -1.971,4.85086 -3.583641,9.39175 -3.583641,10.09084 0,0.6991 -0.372656,2.00364 -0.828122,2.89899 -1.898181,3.73141 -7.469662,17.21337 -10.552101,25.53415 -1.050575,2.83594 -3.326503,8.74219 -5.057618,13.125 -14.109494,35.72223 -14.748427,46.33204 -3.249659,53.96233 4.194863,2.78361 4.6875,2.78235 4.6875,-0.012 z m 591.01594,-20.8044 c 0.62434,-1.62702 -1.3087,-7.9068 -4.14559,-13.46758 -1.02869,-2.01641 -1.87035,-4.33064 -1.87035,-5.14277 0,-0.81212 -0.61054,-2.41095 -1.35676,-3.55297 -0.74621,-1.14201 -2.89491,-6.71702 -4.77488,-12.38889 -2.86653,-8.64833 -9.61264,-26.71022 -12.60561,-33.75 -0.43843,-1.03125 -1.94288,-5.03906 -3.34321,-8.90625 -1.40033,-3.86719 -3.08993,-8.29688 -3.75467,-9.84375 -1.1697,-2.72198 -2.69872,-6.76737 -5.138,-13.59375 -0.64486,-1.80469 -1.95535,-5.34142 -2.91218,-7.85939 C 630.78286,737.74762 630,735.06671 630,734.308 c 0,-0.7587 -1.05469,-3.47928 -2.34375,-6.04575 -1.28906,-2.56647 -2.34375,-5.39102 -2.34375,-6.27678 0,-0.88575 -0.37894,-2.01125 -0.84209,-2.5011 -0.86371,-0.91349 -5.02257,-11.22665 -6.21898,-15.42187 -0.36762,-1.28906 -0.99989,-2.76563 -1.40503,-3.28125 -0.40514,-0.51563 -1.56369,-3.25781 -2.57455,-6.09375 -1.01086,-2.83594 -3.21535,-8.74219 -4.89887,-13.125 -5.74062,-14.9449 -8.57542,-22.96599 -9.11158,-25.78125 -0.2946,-1.54688 -1.08536,-3.65625 -1.75724,-4.6875 -1.22592,-1.88162 -4.19066,-9.86338 -8.53149,-22.96875 -1.28091,-3.86719 -3.76752,-10.45169 -5.5258,-14.63223 -1.75828,-4.18054 -3.19687,-8.09648 -3.19687,-8.70212 0,-0.60562 -1.30781,-4.49241 -2.90625,-8.6373 -1.59844,-4.14488 -2.90625,-8.98401 -2.90625,-10.75361 0,-1.76961 -0.36822,-3.44504 -0.81828,-3.72319 -0.45005,-0.27814 -1.29527,-2.28087 -1.87827,-4.45051 -0.58299,-2.16963 -1.35889,-4.15573 -1.72421,-4.41354 -0.36532,-0.25781 -1.75548,-3.63281 -3.08924,-7.5 -1.33377,-3.86719 -3.18071,-9.14062 -4.1043,-11.71875 -6.3327,-17.67708 -5.49876,-16.26656 -8.37425,-14.16395 -1.4348,1.04914 -1.56196,1.57286 -0.64901,2.67289 1.68373,2.02877 20.82506,57.08267 20.82506,59.89659 0,0.68516 0.81669,3.36326 1.81488,5.95135 1.84959,4.79564 3.86661,10.74438 6.20472,18.29937 0.71809,2.32031 2.5404,7.59375 4.0496,11.71875 1.50918,4.125 5.69653,15.9375 9.30519,26.25 8.30193,23.72442 9.11228,25.96867 11.84798,32.8125 1.23667,3.09375 4.01675,11.10938 6.17796,17.8125 2.16121,6.70313 5.10723,15.14063 6.54671,18.75 1.43949,3.60938 4.34222,11.625 6.45053,17.8125 2.10831,6.1875 4.71121,13.78125 5.78421,16.875 1.07301,3.09375 3.71403,10.89844 5.86894,17.34375 2.15492,6.44531 4.23444,11.85938 4.62115,12.03125 0.38672,0.17188 0.70313,1.06796 0.70313,1.99129 0,0.92334 1.03401,3.52885 2.2978,5.79001 2.39599,4.28689 3.46492,7.12598 12.34515,32.78893 l 5.38782,15.57025 3.0259,-1.78532 c 1.66423,-0.98193 3.27716,-2.44013 3.58427,-3.24045 z m -18.53824,-0.52557 c -0.7702,-1.69903 -1.66989,-4.43109 -1.99929,-6.07123 -0.48418,-2.41071 -3.29091,-6.46236 -3.29091,-4.75057 0,0.66173 2.6623,8.30823 3.67154,10.54516 0.46526,1.03125 1.14425,2.71875 1.50885,3.75 0.39203,1.10883 0.83602,1.41341 1.08654,0.74539 0.23301,-0.62129 -0.20652,-2.51973 -0.97673,-4.21875 z m 29.63167,-11.71177 c 2.90771,-3.83245 3.12196,-5.31295 1.27981,-8.84348 -0.70771,-1.35636 -2.1942,-5.36417 -3.30329,-8.90625 -1.10908,-3.54207 -2.69351,-8.54951 -3.52095,-11.12764 -1.53077,-4.7696 -7.82462,-21.14017 -10.09211,-26.25 -0.68643,-1.54687 -1.80828,-4.71094 -2.493,-7.03125 -0.68472,-2.32031 -1.52228,-4.42969 -1.86125,-4.6875 -0.33897,-0.25781 -1.75884,-3.79374 -3.15527,-7.85762 -1.39644,-4.06387 -3.51967,-9.54825 -4.7183,-12.1875 -3.69282,-8.13118 -5.18251,-11.99983 -5.18251,-13.45876 0,-0.76994 -1.47656,-4.5529 -3.28125,-8.40657 -1.80469,-3.85367 -3.28125,-7.43266 -3.28125,-7.95331 0,-0.52064 -0.60133,-2.27601 -1.33628,-3.90081 -4.12143,-9.11143 -6.17994,-13.93922 -8.4549,-19.82918 -1.39411,-3.60937 -3.51964,-8.88281 -4.72341,-11.71875 -1.20377,-2.83594 -2.86365,-7.1853 -3.68864,-9.66526 -0.82498,-2.47996 -2.69356,-7.12058 -4.15239,-10.3125 -1.45882,-3.19191 -3.20097,-7.28005 -3.87143,-9.08474 -0.67045,-1.80469 -3.53477,-8.55469 -6.36513,-15 -2.83037,-6.44531 -5.51479,-12.5625 -5.96538,-13.59375 -0.45058,-1.03125 -2.33043,-6.09375 -4.17745,-11.25 -10.24924,-28.61244 -10.44304,-29.12927 -14.11549,-37.64168 -0.70097,-1.6248 -1.2745,-3.33061 -1.2745,-3.7907 0,-0.46008 -1.83806,-5.45883 -4.08458,-11.10832 -2.24653,-5.64948 -5.51606,-14.43183 -7.26563,-19.51632 -3.11346,-9.04812 -4.66323,-11.21079 -6.62667,-9.24735 -0.67613,0.67613 -0.0485,3.37781 2.04359,8.79636 1.66069,4.30128 4.85063,13.30488 7.08877,20.00801 6.44987,19.31712 13.83522,39.93397 14.95293,41.74248 0.31234,0.50537 0.92127,2.9216 1.35321,5.36944 0.43192,2.44782 1.72488,6.77089 2.87323,9.60683 1.14835,2.83594 3.25334,8.32031 4.67775,12.1875 1.42442,3.86719 3.74277,9.98437 5.1519,13.59375 1.40913,3.60937 3.25897,8.46094 4.11074,10.78125 0.85178,2.32031 1.81033,4.64062 2.13012,5.15625 0.31979,0.51562 1.01561,2.41406 1.54626,4.21875 0.53065,1.80469 2.29433,6.86719 3.9193,11.25 1.62497,4.38281 3.32761,9.16979 3.78365,10.63774 0.45604,1.46793 1.21656,3.15544 1.69007,3.75 0.47349,0.59455 1.79961,4.24507 2.94694,8.11226 1.14732,3.86719 2.45432,7.875 2.90446,8.90625 0.45014,1.03125 1.703,4.40625 2.78414,7.5 2.06263,5.90227 3.07889,8.48087 5.17278,13.125 7.34423,16.28909 7.77117,17.35095 12.62771,31.40625 1.15806,3.35156 2.85445,7.78125 3.76976,9.84375 0.9153,2.0625 1.8815,4.59375 2.14709,5.625 0.2656,1.03125 2.23628,6.72656 4.37929,12.65625 2.143,5.92969 4.74838,13.3125 5.78972,16.40625 1.04135,3.09375 2.85234,8.15625 4.02442,11.25 10.25833,27.07716 9.57413,26.06693 13.84342,20.43987 z M 37.291859,834.60937 c 1.255774,-5.71898 8.367018,-25.64324 9.588331,-26.86456 0.51277,-0.51277 0.93231,-1.69741 0.93231,-2.63253 0,-0.93512 0.372358,-2.43278 0.827462,-3.32813 0.455104,-0.89535 2.177046,-5.0029 3.826538,-9.1279 1.649492,-4.125 3.617625,-8.92772 4.373629,-10.67272 0.756005,-1.74498 2.254112,-5.7528 3.329128,-8.90625 1.075015,-3.15344 2.264142,-6.15541 2.642502,-6.67103 0.378361,-0.51563 1.860748,-4.52344 3.294193,-8.90625 1.433446,-4.38281 3.855724,-10.71094 5.382842,-14.0625 1.527119,-3.35156 3.596701,-8.16913 4.599073,-10.70572 1.002371,-2.53658 2.594626,-6.33346 3.538344,-8.4375 4.153512,-9.26036 7.425525,-17.22913 8.499733,-20.70053 0.638229,-2.0625 2.41729,-6.49219 3.953468,-9.84375 1.536177,-3.35156 3.619969,-8.20313 4.630641,-10.78125 1.010672,-2.57813 2.656556,-6.40273 3.657517,-8.49911 1.00096,-2.09639 1.81993,-4.21752 1.81993,-4.71363 0,-0.49611 2.35961,-6.37463 5.2436,-13.06339 2.88397,-6.68875 5.67438,-13.63793 6.20092,-15.44262 0.52654,-1.80469 1.72601,-4.96875 2.66548,-7.03125 3.1888,-7.00058 6.515,-15.40807 6.515,-16.46766 0,-0.58047 0.8157,-2.20094 1.81267,-3.60105 0.99696,-1.40012 2.10774,-3.78555 2.46839,-5.30097 0.36065,-1.51543 1.61122,-4.8647 2.77906,-7.44282 4.38377,-9.67772 5.89209,-13.48709 6.55013,-16.54286 0.37245,-1.72955 1.91735,-5.88683 3.4331,-9.23839 1.51575,-3.35156 3.82296,-8.83594 5.12713,-12.1875 1.30417,-3.35156 2.99697,-7.4873 3.76178,-9.19052 2.41846,-5.38588 5.00524,-13.52296 5.00524,-15.74466 0,-1.17792 0.42187,-2.4024 0.9375,-2.72107 0.51562,-0.31867 0.9375,-1.62727 0.9375,-2.90798 0,-1.2807 1.47656,-5.06326 3.28125,-8.40569 1.80469,-3.34241 3.28125,-6.93343 3.28125,-7.98003 0,-1.04661 0.79089,-3.67274 1.75754,-5.83586 0.96665,-2.16312 3.95407,-9.83919 6.6387,-17.05794 2.68463,-7.21875 6.11249,-15.79116 7.61746,-19.04978 1.50497,-3.25863 2.7389,-6.42269 2.74207,-7.03125 0.003,-0.60856 0.55596,-2.16116 1.22841,-3.45022 0.67244,-1.28906 1.99952,-4.66406 2.94906,-7.5 0.94953,-2.83594 2.31078,-6.51847 3.02498,-8.18342 0.7142,-1.66494 1.90019,-4.7324 2.63553,-6.81658 0.73534,-2.08418 2.02839,-5.36258 2.87346,-7.28533 3.60761,-8.20838 7.90779,-19.48299 7.90779,-20.73339 0,-0.9347 2.1105,-6.23379 3.86445,-9.70293 0.45268,-0.89535 0.82305,-2.09722 0.82305,-2.67082 0,-0.5736 0.56982,-2.3723 1.26627,-3.9971 0.69644,-1.6248 2.20685,-5.48543 3.35645,-8.57918 3.02926,-8.15219 7.48184,-19.55778 14.0905,-36.09375 3.19411,-7.99219 7.25376,-18.32813 9.02145,-22.96875 1.7677,-4.64063 3.61944,-9.28125 4.11497,-10.3125 0.49553,-1.03125 3.03635,-7.33071 5.64625,-13.99879 2.60992,-6.66808 5.08506,-12.57433 5.50033,-13.125 0.41527,-0.55067 1.71937,-3.95434 2.898,-7.56371 1.97263,-6.04094 12.0537,-32.21124 14.08425,-36.5625 3.38095,-7.24504 6.96367,-18.19172 8.4379,-25.78125 2.51108,-12.92743 3.40949,-19.69324 2.7555,-20.75142 -0.40461,-0.65467 -0.5029,-1.56691 -0.21842,-2.02721 0.49807,-0.80591 0.54064,-42.83139 0.0609,-60.19012 -0.12823,-4.64063 -0.11455,-13.07812 0.0304,-18.75 0.14497,-5.67187 0.26289,-20.22656 0.26203,-32.34375 -8.5e-4,-12.117188 0.21358,-22.732358 0.47651,-23.589268 0.3536,-1.152407 -0.32478,-1.748796 -2.60578,-2.290823 -3.93751,-0.935663 -3.72769,-0.871692 -5.70239,-1.73857 -2.39813,-1.052765 -2.25409,-2.27787 -2.87511,24.454589 -0.31294,13.470694 -0.7803,25.072252 -1.03858,25.781252 -0.92233,2.53181 -1.74392,75.59506 -0.88949,79.10157 1.34733,5.52936 0.92828,29.31091 -0.61949,35.15625 -3.34184,12.62085 -4.47497,15.92013 -6.39279,18.61346 -1.08472,1.52336 -1.97223,3.23839 -1.97223,3.81119 0,1.32364 -6.37641,17.38949 -10.07624,25.38785 -1.55035,3.35156 -4.2964,9.67969 -6.10234,14.0625 -11.17371,27.11743 -13.82136,33.64429 -13.82136,34.07191 0,0.26326 -1.47656,3.67532 -3.28125,7.58234 -1.80469,3.90702 -3.28125,7.39057 -3.28125,7.74122 0,0.35065 -0.80116,2.35278 -1.78034,4.44917 -0.97919,2.09638 -2.95387,6.5538 -4.38817,9.90536 -1.43429,3.35156 -3.04042,6.66366 -3.56918,7.3602 -0.52876,0.69655 -1.05125,1.87877 -1.16109,2.62717 -0.10984,0.74838 -3.81974,9.74746 -8.24421,19.99796 -4.42449,10.25048 -8.04451,18.92201 -8.04451,19.27005 0,0.34804 -1.2208,3.22437 -2.71291,6.39184 -4.28836,9.10346 -7.59959,16.55189 -7.59959,17.09487 0,0.27446 -1.024,2.68773 -2.27558,5.36284 -1.25156,2.6751 -3.82934,8.66069 -5.72839,13.30132 -1.89906,4.64062 -3.98578,9.49219 -4.63719,10.78125 -1.43892,2.84752 -4.89373,10.87876 -9.27556,21.5625 -1.79757,4.38281 -3.99236,9.65625 -4.87731,11.71875 -0.88495,2.0625 -2.33452,5.64844 -3.22124,7.96875 -0.88674,2.32031 -2.58992,6.4206 -3.78486,9.11176 -1.81331,4.08383 -1.98725,5.24662 -1.05174,7.03125 1.3646,2.60324 1.60177,5.96286 0.66384,9.40386 -0.53964,1.97979 -0.37606,2.57813 0.70484,2.57813 0.77417,0 1.6769,0.70183 2.00607,1.55962 0.62822,1.63713 -2.23219,9.68081 -3.44475,9.68686 -0.38672,0.002 -0.70313,0.45152 -0.70313,0.99908 0,0.54755 -1.00202,3.18427 -2.22671,5.85937 -1.22471,2.6751 -3.77639,8.87163 -5.67044,13.77007 -4.24021,10.96619 -6.08434,15.47112 -9.81676,23.98103 -1.6011,3.65049 -2.91109,6.98478 -2.91109,7.40953 0,3.77777 -6.57532,13.35407 -8.39644,12.22857 -1.25919,-0.77823 -1.27458,0.70985 -0.0203,1.96413 0.65267,0.65267 0.0882,3.17892 -1.76992,7.92187 -1.50049,3.82999 -4.30802,11.18237 -6.23895,16.33862 -1.93092,5.15625 -4.29852,11.14482 -5.26133,13.30794 -0.9628,2.16312 -1.75056,4.18462 -1.75056,4.49222 0,0.30761 -1.26562,3.26628 -2.812498,6.57484 -1.546875,3.30856 -2.8125,6.26776 -2.8125,6.57601 0,1.01097 -8.635977,20.58953 -9.484446,21.50212 -0.45543,0.48984 -0.830652,1.75546 -0.833829,2.8125 -0.0032,1.05703 -0.586273,3.03442 -1.295768,4.39421 -0.709495,1.35978 -2.030355,4.73478 -2.935243,7.5 -0.904888,2.76521 -2.468041,6.66516 -3.473672,8.66655 -1.005631,2.00139 -2.387542,5.37639 -3.070912,7.5 -0.68337,2.12361 -4.701797,12.29861 -8.929838,22.61111 -4.228042,10.3125 -8.426547,20.64844 -9.330014,22.96875 -3.646259,9.36444 -5.036462,12.70014 -5.665404,13.59375 -0.362909,0.51563 -0.961476,2.20313 -1.330149,3.75 -0.368672,1.54688 -1.248378,4.07813 -1.9549,5.625 -0.706524,1.54688 -2.122697,5.13281 -3.147053,7.96875 -1.024356,2.83594 -4.906555,12.96094 -8.627108,22.5 -7.513267,19.26313 -7.800322,21.23429 -4.086092,28.05856 3.191315,5.86349 3.66593,5.89267 4.893788,0.30082 z M 370.52547,549.9376 c 0.37495,-0.56724 0.40951,-1.8751 0.0768,-2.90635 -0.33271,-1.03125 -0.52026,-3.25405 -0.41679,-4.93958 0.23155,-3.77194 0.37611,-3.7249 -13.23236,-4.30621 l -11.0156,-0.47055 0,6.41639 0,6.41639 3.67504,0.62089 c 2.02128,0.3415 5.08459,0.39689 6.80737,0.12309 1.72279,-0.27379 3.70871,-0.14159 4.41315,0.29378 1.64978,1.01962 8.8023,0.0988 9.69241,-1.24785 z m 38.79499,0.86532 c 0.57156,-0.18137 1.3183,-2.07509 1.65941,-4.20827 0.99977,-6.25226 0.32455,-6.51372 -18.57219,-7.19126 l -16.47018,-0.59054 0,6.18578 0,6.18577 9.60937,0.26718 c 9.8184,0.27298 21.90862,-0.0569 23.77359,-0.64866 z m 24.27329,0.003 c 4.125,-0.27928 12.35156,-0.71303 18.28125,-0.96387 21.95872,-0.92894 22.49983,-1.09976 21.01388,-6.63343 -0.50355,-1.87526 -1.17101,-1.95406 -17.94638,-2.11887 -9.58285,-0.0941 -22.80484,-0.35636 -29.3822,-0.5827 -13.51041,-0.46494 -13.41126,-0.51671 -12.44939,6.50093 0.64856,4.73176 1.4142,5.16116 8.29534,4.65234 2.57812,-0.19063 8.0625,-0.57511 12.1875,-0.8544 z m -91.84747,-6.61862 c -0.0493,-3.28241 -0.3077,-6.18615 -0.57429,-6.45274 -0.6758,-0.67579 -25.72007,-1.85711 -32.87681,-1.55077 -1.7377,0.0743 -3.55411,10.83614 -2.06903,12.25835 0.4428,0.42406 6.48435,1.03749 13.42567,1.36317 6.94131,0.32568 12.70673,0.67852 12.81204,0.78408 0.10531,0.10557 2.25709,0.0511 4.78174,-0.12107 l 4.59027,-0.31299 -0.0896,-5.96803 z m -40.57539,-1.27679 c 0.7829,-5.43993 -0.0991,-7.59782 -3.10536,-7.59782 -0.93767,0 -2.00668,-0.48833 -2.37555,-1.08517 -0.45138,-0.73035 -0.0621,-0.92604 1.19057,-0.59846 4.83038,1.26317 5.96322,-3.17907 7.31505,-28.68462 l 0.54126,-10.212 -18.54031,0.62419 c -18.47452,0.62197 -46.07885,2.40217 -50.99659,3.28877 -0.3197,0.0576 -1.08584,2.1087 -1.70252,4.55791 -0.61667,2.44922 -1.75189,6.77344 -2.52271,9.60938 -0.77082,2.83594 -2.59037,9.79687 -4.04345,15.46875 l -2.64198,10.3125 1.99598,0.78484 c 1.09778,0.43165 4.31628,1.15221 7.15222,1.60123 2.83594,0.44902 9.16406,1.6484 14.0625,2.66526 10.9414,2.27135 15.18853,2.70443 34.21875,3.48932 8.25,0.34028 15.19037,0.78726 15.42304,0.99329 1.68827,1.49507 3.37799,-0.69294 4.0291,-5.21726 z m 194.66768,3.68528 c 7.79552,-1.12689 8.11451,-1.52986 6.26026,-7.90823 l -1.52621,-5.24987 -3.95818,-0.006 c -2.17701,-0.003 -7.43866,-0.27656 -11.69257,-0.6077 -7.4741,-0.58182 -7.73437,-0.53431 -7.73437,1.41186 0,1.78855 0.51847,2.01396 4.63217,2.01396 2.54769,0 4.85794,0.3653 5.13388,0.81177 0.27593,0.44648 1.62916,0.59625 3.00716,0.33282 1.67883,-0.32092 2.29493,-0.1383 1.86735,0.55354 -0.35096,0.56786 -1.25386,0.7962 -2.00644,0.50741 -0.76505,-0.29358 -1.62268,0.13779 -1.94527,0.97845 -0.42067,1.09622 -1.81958,1.50351 -5.16415,1.50351 -4.76789,0 -5.0927,0.36193 -3.9963,4.45313 0.6502,2.42625 6.04732,2.80609 17.12267,1.20509 z m 22.36414,-3.3283 c 13.98595,-2.42105 16.80456,-4.13471 13.55453,-8.24089 -0.48768,-0.61615 -1.39824,-3.30319 -2.02346,-5.9712 -1.3439,-5.7349 -0.97726,-5.55161 -13.83777,-6.91813 C 502.11285,520.67264 502.5,520.64829 502.5,522.9797 c 0,2.95156 2.98668,4.55658 9.55792,5.13635 13.66262,1.20545 14.11535,6.25895 0.56071,6.25895 l -6.60301,0 0.51773,2.57812 c 0.67905,3.38148 2.35297,7.73438 2.97427,7.73438 0.27035,0 4.18314,-0.63904 8.69509,-1.42009 z M 220.2475,536.37133 c 0.51617,-0.96446 1.33442,-3.39024 1.81835,-5.39062 2.42881,-10.0398 5.02477,-19.63377 5.53671,-20.46208 0.31547,-0.51046 0.64522,-1.99616 0.73276,-3.30155 0.0876,-1.3054 0.48923,-3.59696 0.89265,-5.09239 l 0.73349,-2.71895 -11.47016,0.67092 c -14.63634,0.8561 -13.32809,-0.0199 -17.3552,11.62036 -1.90693,5.5119 -4.32396,12.47236 -5.37117,15.4677 -2.32919,6.66218 -2.90879,6.12378 9.30083,8.63958 12.87094,2.65208 14.04245,2.69583 15.18174,0.56703 z m 326.315,-0.11351 c 3.35156,-1.01907 6.30469,-1.92668 6.5625,-2.0169 0.25781,-0.0902 1.23089,-0.36334 2.1624,-0.60694 1.01565,-0.26559 1.48477,-0.98721 1.17187,-1.80261 -0.28697,-0.74785 -0.52177,-2.00969 -0.52177,-2.80409 0,-1.17209 -0.26284,-1.22623 -1.39432,-0.28719 -0.81414,0.67568 -2.08192,0.85958 -3.04687,0.44194 -2.159,-0.93442 -3.71469,-1.32336 -8.00354,-2.00097 -1.94617,-0.30749 -3.76404,-0.92402 -4.03971,-1.37007 -1.78141,-2.88238 -6.21307,-0.74687 -5.61272,2.70463 1.63658,9.40874 3.50387,10.5451 12.72216,7.7422 z m -74.83104,-0.42606 c 2.63559,-3.66581 -1.98055,-4.79883 -23.13771,-5.67905 -11.47388,-0.47736 -17.93538,-0.87805 -30.70313,-1.90394 -2.96484,-0.23823 -5.43872,-0.11745 -5.49751,0.26842 -1.09899,7.21282 -3.01724,6.69332 27.15147,7.35311 13.74267,0.30057 25.11653,0.67397 25.27526,0.82979 0.66833,0.65616 6.32666,-0.0548 6.91162,-0.86833 z m -68.88004,-1.23439 c 5.17746,0.23493 5.44112,0.13744 5.67269,-2.09737 0.40036,-3.86373 -0.85088,-4.6375 -8.25984,-5.10797 -3.84066,-0.24387 -11.0963,-0.70674 -16.12365,-1.0286 L 375,525.77826 l 0,3.72032 c 0,4.25238 0.25123,4.36886 10.30896,4.77933 3.33506,0.13612 6.69322,0.59975 7.46256,1.0303 0.77236,0.43223 2.12684,0.39317 3.02444,-0.0872 0.8941,-0.47851 4.06905,-0.75914 7.05546,-0.62364 z m -39.3358,-1.14707 5.85938,-0.0128 0,-3.16646 c 0,-4.56964 -1.2074,-5.08716 -12.66206,-5.42724 l -10.30669,-0.306 -0.28344,4.39355 -0.28345,4.39355 4.03345,0.37909 c 2.21839,0.20851 4.87719,0.23961 5.90844,0.0691 1.03125,-0.1705 4.51172,-0.31576 7.73437,-0.3228 z m -21.92264,-2.10834 c 1.70084,-6.34759 1.05687,-7.27946 -5.03048,-7.27946 -4.52007,0 -5.625,-0.29325 -5.625,-1.49288 0,-1.21477 0.91687,-1.43589 4.92187,-1.18698 5.92241,0.36808 7.15794,-0.27331 6.55928,-3.40502 -0.60796,-3.18032 2.34463,-2.21597 3.15982,1.03204 0.65768,2.62038 23.66305,3.64853 23.9076,1.06846 0.547,-5.77079 -0.83481,-8.20312 -4.66019,-8.20312 -1.96673,0 -3.83123,-0.25535 -4.14331,-0.56743 -1.47439,-1.47439 -14.13664,-0.57266 -14.3709,1.0234 -0.39328,2.67961 -1.36557,2.89582 -3.03999,0.676 -1.43639,-1.90428 -3.39634,-2.48641 -9.99043,-2.96731 -2.52848,-0.1844 2.34206,-1.88783 5.43346,-1.90031 l 3.55846,-0.0143 -0.27721,-6.32813 -0.27721,-6.32812 -15,-0.46875 c -8.25,-0.25781 -15.47572,-0.33796 -16.05715,-0.1781 -1.15574,0.31776 -1.90182,5.91987 -2.70808,20.33435 -0.2884,5.15625 -0.72786,10.68946 -0.97657,12.29602 -0.8811,5.69164 -0.97886,5.65866 17.32581,5.84379 16.64553,0.16835 16.7239,0.15949 17.29022,-1.9541 z M 191.27492,526.875 c 0.84848,-2.32031 1.84045,-4.88542 2.20437,-5.70022 6.32604,-14.164 6.43398,-18.67478 0.44686,-18.67478 -4.38384,0 -6.77158,0.57917 -19.49619,4.72897 l -5.1013,1.66366 -3.11155,7.73146 c -1.71135,4.25231 -3.00171,7.771 -2.86746,7.81932 0.13425,0.0483 1.25271,0.65585 2.48547,1.35009 3.33695,1.87924 17.9739,5.66723 21.14036,5.47104 2.35854,-0.14612 2.97956,-0.78016 4.29944,-4.38954 z m 376.39808,0.27507 c 2.05329,-1.39558 4.78794,-2.55574 6.077,-2.57812 7.14165,-0.12402 1.63838,-4.56129 -7.03125,-5.66928 -2.0625,-0.2636 -5.28769,-0.72801 -7.16709,-1.03203 l -3.4171,-0.55277 1.45001,4.54419 c 2.63924,8.2711 4.36703,9.17675 10.08843,5.28801 z m -69.11213,-2.70086 c 0.45232,-3.16585 -1.56459,-3.89959 -12.64055,-4.59851 -11.84794,-0.74764 -12.59057,-0.55331 -11.63395,3.04441 1.04208,3.91911 23.72906,5.37158 24.2745,1.5541 z m 54.52069,-3.31808 c -2.15725,-5.90196 -1.26914,-5.24057 -7.92531,-5.90204 -3.09375,-0.30745 -7.84445,-0.8152 -10.55709,-1.12834 -5.52124,-0.63735 -6.25974,2.99648 -0.90027,4.42982 1.33218,0.35628 3.38878,1.32484 4.57023,2.15236 1.18145,0.82752 3.21436,1.52814 4.51761,1.55695 1.30324,0.0288 4.26796,0.84899 6.58827,1.82262 5.75963,2.41681 5.68342,2.47709 3.70656,-2.93137 z m -83.75539,0.89036 c -0.32764,-1.63819 -0.69678,-3.06813 -0.82031,-3.17765 -0.39933,-0.35404 -15.93283,-1.54977 -24.13086,-1.85753 -11.05454,-0.41501 -26.1212,-1.31344 -29.75344,-1.77421 -3.58558,-0.45486 -4.34698,0.43325 -3.5362,4.1247 0.75607,3.44233 1.17957,3.52331 22.50839,4.3041 9.28125,0.33977 17.05078,0.78455 17.26563,0.98842 0.21484,0.20388 4.59179,0.37068 9.72656,0.37068 l 9.33593,0 -0.5957,-2.97851 z m -62.07554,-3.2242 c -0.62144,-5.01035 1.93044,-4.31806 -20.2975,-5.50643 l -12.89063,-0.68918 0,4.26189 c 0,5.06691 -1.33105,4.7121 19.39231,5.16916 l 14.23605,0.31398 -0.44023,-3.54942 z m 169.24607,-7.85937 c -2.4086,-9.10618 -8.79546,-26.86279 -11.20776,-31.15957 -0.50267,-0.89535 -0.91394,-2.30683 -0.91394,-3.13661 0,-0.82978 -0.62594,-2.62847 -1.39098,-3.99709 -1.40971,-2.52191 -11.05733,-25.9259 -10.68721,-25.9259 0.1106,0 -0.4521,-1.47656 -1.25044,-3.28125 -0.79834,-1.80469 -1.98615,-4.75781 -2.63958,-6.5625 -0.65343,-1.80469 -1.73727,-4.54688 -2.40853,-6.09375 -0.67127,-1.54688 -3.78387,-9.35156 -6.91689,-17.34375 -3.13301,-7.99219 -6.10644,-15.2638 -6.60763,-16.15915 -0.50118,-0.89535 -0.91124,-2.18749 -0.91124,-2.87143 0,-0.68393 -0.99668,-3.32637 -2.21486,-5.87209 -1.21818,-2.54572 -2.7532,-6.31608 -3.41116,-8.37858 -1.53878,-4.8236 -2.19619,-6.533 -4.59305,-11.94291 -1.08263,-2.4436 -1.96843,-4.68159 -1.96843,-4.97331 0,-0.46811 -2.21807,-5.74961 -4.70735,-11.20878 -1.24026,-2.72 -13.14068,-33.08425 -17.26906,-44.0625 -4.23681,-11.26663 -9.61784,-24.37918 -11.40871,-27.8009 -0.71631,-1.36862 -1.30238,-3.12226 -1.30238,-3.89698 0,-0.77472 -1.24889,-4.19213 -2.77531,-7.59424 -1.52642,-3.4021 -4.28243,-10.71877 -6.12448,-16.25925 -1.84204,-5.5405 -4.14373,-11.78679 -5.11487,-13.88064 -0.97114,-2.09386 -3.52436,-9.0548 -5.67383,-15.46875 -2.14948,-6.41396 -4.29421,-12.06252 -4.76608,-12.55237 -1.25785,-1.30578 -0.99376,-4.47617 0.54181,-6.5045 0.89738,-1.18534 1.06016,-2.29324 0.4927,-3.35353 -0.46608,-0.87087 -1.1209,-14.11261 -1.45515,-29.42608 -0.33426,-15.31348 -0.74218,-28.99188 -0.90651,-30.39647 -0.56136,-4.79828 -1.86375,-56.903663 -1.7189,-68.768666 l 0.14455,-11.839876 -2.49384,0.806656 c -1.37162,0.443661 -4.82982,1.044648 -7.68491,1.335528 l -5.19107,0.528871 0.17296,27.379348 c 0.0951,15.058639 0.44882,45.730909 0.78597,68.160599 0.61701,41.04716 0.43213,44.01256 -2.66968,42.82228 -1.3057,-0.50105 -1.51653,-3.17016 -1.62134,-20.52724 -0.0663,-10.97321 -0.1846,-26.62815 -0.26299,-34.78876 -0.0784,-8.16061 0.18793,-15.04168 0.59177,-15.29127 0.40385,-0.24959 0.26386,-1.33278 -0.31109,-2.40707 -0.68102,-1.27249 -1.13823,-11.46351 -1.3118,-29.239984 -0.36284,-37.157737 -0.14939,-34.017937 -2.3519,-34.593908 -4.88444,-1.277311 -4.79829,-2.069576 -4.61775,42.463452 0.0408,10.05469 0.0348,19.33594 -0.0133,20.625 -0.0481,1.28906 -0.18222,18.15828 -0.29807,37.48714 -0.19233,32.08713 -0.34782,35.1698 -1.78802,35.44718 -3.33996,0.64327 -3.59131,-2.47973 -3.05439,-37.94896 0.61287,-40.4865 0.58544,-35.79294 0.40933,-70.018303 l -0.13926,-27.064191 -3.44415,0.569499 c -1.89426,0.313225 -4.07695,0.574071 -4.85039,0.579659 -1.20601,0.0087 -1.37628,2.446474 -1.19579,17.119693 0.11575,9.410243 0.20476,20.484533 0.19779,24.609533 -0.007,4.125 0.0615,9.39844 0.15213,11.71875 0.0907,2.32031 0.1472,5.0625 0.12571,6.09375 -0.31345,15.03967 -0.12807,48.14333 0.33074,59.0625 0.64438,15.33532 -0.2458,20.86031 -2.92873,18.17738 -1.16097,-1.16097 -1.43654,-11.14447 -1.8353,-66.49049 -0.55461,-76.979567 -0.17154,-69.878173 -3.7528,-69.569392 -4.40061,0.379429 -16.3277,0.946615 -22.29861,1.060398 -4.98872,0.09507 -5.34856,0.243592 -4.48761,1.852284 1.03384,1.931764 1.27727,38.71093 0.66163,99.96982 -0.28893,28.75021 -0.0757,40.44584 0.84621,46.40625 1.10774,7.16206 2.43954,21.37275 3.7341,39.84375 0.54082,7.71647 1.10411,14.20766 2.39993,27.65625 2.55375,26.50388 3.82553,40.95388 3.75429,42.65625 -0.0431,1.03125 0.33252,5.46094 0.83481,9.84375 0.5023,4.38281 1.16352,11.34375 1.46939,15.46875 0.30587,4.125 0.96388,11.92969 1.46225,17.34375 2.27806,24.74793 3.66113,39.20339 4.08127,42.65625 0.89482,7.35389 1.54703,14.22091 2.40413,25.3125 0.47813,6.1875 1.09367,12.72656 1.36787,14.53125 0.27419,1.80469 0.67791,6.3325 0.89716,10.06182 0.21924,3.72931 0.67388,7.22594 1.0103,7.77029 0.33643,0.54435 0.76708,3.82122 0.95701,7.28194 0.46522,8.47686 1.41599,15.18206 2.16572,15.27337 0.33833,0.0412 3.25066,0.18063 6.47183,0.30981 3.22118,0.12919 6.11108,0.48928 6.422,0.8002 1.44994,1.44994 -1.00473,2.22659 -6.84057,2.16434 l -6.37561,-0.068 0.24968,4.21875 c 0.47734,8.06551 1.20736,10.30853 3.37235,10.36164 1.80512,0.0442 12.4644,0.59872 44.5506,2.31727 l 10.67263,0.57163 -0.58171,-2.17215 c -0.31993,-1.19467 -0.58746,-3.3323 -0.5945,-4.75027 -0.0102,-2.0615 -0.44488,-2.57812 -2.16905,-2.57812 -1.18594,0 -2.59567,-0.43942 -3.13275,-0.9765 -0.53708,-0.53708 -2.90068,-1.06442 -5.25246,-1.17187 -2.35177,-0.10746 -4.11084,-0.46382 -3.90904,-0.79192 0.2018,-0.3281 -0.51454,-0.82704 -1.59187,-1.10877 -4.05971,-1.06165 -0.53792,-2.38381 6.2784,-2.35708 3.89392,0.0153 7.33502,-0.22741 7.64691,-0.53929 0.55755,-0.55755 -0.36102,-5.36378 -6.91463,-36.17957 -3.99106,-18.76638 -5.53395,-26.78317 -7.39761,-38.4375 -0.78331,-4.89844 -1.81019,-9.96094 -2.28196,-11.25 -0.47176,-1.28906 -1.75362,-8.03906 -2.84859,-15 -1.09495,-6.96094 -3.40649,-19.82813 -5.13674,-28.59375 -1.73026,-8.76563 -3.6325,-18.89063 -4.2272,-22.5 -0.59472,-3.60938 -1.68484,-8.70895 -2.4225,-11.3324 -0.73767,-2.62344 -1.34121,-5.8987 -1.34121,-7.27834 0,-1.37965 -0.38426,-3.24101 -0.85392,-4.13636 -0.68469,-1.30525 -3.52252,-16.3368 -4.28967,-22.72165 -0.0929,-0.77344 -0.65806,-3.72656 -1.25584,-6.5625 -2.77357,-13.158 -4.88875,-25.58682 -4.43217,-26.04339 0.27656,-0.27657 0.11125,-0.97468 -0.36735,-1.55136 -0.47862,-0.57668 -1.50019,-4.83425 -2.27018,-9.46126 -2.47768,-14.88888 -4.38878,-25.07151 -4.84359,-25.80741 -0.72673,-1.17588 0.60438,-3.69908 1.95144,-3.69908 1.94916,0 2.2023,0.85073 5.08254,17.08059 1.48976,8.39474 3.82292,21.16941 5.18477,28.38816 1.36186,7.21875 2.66724,14.60156 2.90085,16.40625 0.23359,1.80469 0.81691,4.54687 1.29627,6.09375 0.85307,2.75287 3.28364,14.58466 4.71842,22.96875 0.39706,2.32031 2.00406,10.33594 3.57109,17.8125 1.56703,7.47656 3.74678,18.44531 4.84389,24.375 1.0971,5.92969 2.80343,14.57812 3.79184,19.21875 2.50979,11.78365 4.75135,24.22623 5.6579,31.40625 0.42317,3.35156 1.63348,10.04239 2.68955,14.8685 1.05609,4.82612 1.67662,9.16881 1.37895,9.65044 -0.29766,0.48164 -0.12719,1.38456 0.37884,2.0065 0.87048,1.06988 3.38148,12.27738 4.34921,19.41206 0.24478,1.80469 1.09054,5.8125 1.87947,8.90625 1.52662,5.98658 4.87927,22.4936 5.04589,24.84375 0.60466,8.5293 0.26546,8.33878 17.02418,9.56244 6.33308,0.46242 6.63293,-0.68585 3.23153,-12.37494 -0.82523,-2.83594 -1.85746,-6.63281 -2.29384,-8.4375 -0.43638,-1.80469 -1.85238,-7.07813 -3.14665,-11.71875 -1.29429,-4.64063 -2.57074,-9.49219 -2.83657,-10.78125 -0.26583,-1.28906 -1.80316,-7.40625 -3.41629,-13.59375 -1.61312,-6.1875 -3.51964,-13.78125 -4.2367,-16.875 -0.71706,-3.09375 -4.08924,-16.59375 -7.49373,-30 -3.40449,-13.40625 -6.60624,-26.48438 -7.115,-29.0625 -0.50875,-2.57813 -1.90168,-7.64063 -3.09538,-11.25 -1.19371,-3.60938 -2.68827,-9.09375 -3.32125,-12.1875 -0.63299,-3.09375 -1.50862,-6.46875 -1.94586,-7.5 -0.95995,-2.26411 -9.00684,-34.10851 -10.77898,-42.65625 -0.69485,-3.35156 -1.71351,-7.57031 -2.26369,-9.375 -1.21881,-3.99802 -2.14055,-8.34328 -2.23725,-10.54688 -0.0396,-0.90234 -0.3137,-1.64062 -0.60911,-1.64062 -0.2954,0 -0.59431,-0.73828 -0.66423,-1.64063 -0.0699,-0.90234 -0.74859,-3.53906 -1.50817,-5.85937 -0.75957,-2.32031 -2.30007,-8.22656 -3.42334,-13.125 -1.12326,-4.89844 -2.68852,-11.22656 -3.47835,-14.0625 -2.13954,-7.68218 -2.45422,-10.02898 -1.42968,-10.66218 2.18545,-1.35068 4.5288,4.72167 9.17959,23.78718 0.81758,3.35156 2.96657,11.78906 4.77554,18.75 1.80898,6.96094 4.51337,17.61769 6.00977,23.68167 1.49639,6.06399 4.222,16.0942 6.05692,22.28936 2.8188,9.51704 5.4787,20.45175 6.38124,26.23295 0.12217,0.7825 0.47169,1.83719 0.77675,2.34375 0.30504,0.50656 1.06069,3.45227 1.67922,6.54602 0.61853,3.09375 2.40947,10.47656 3.97986,16.40625 2.93278,11.07387 3.96156,15.27485 7.1172,29.0625 1.00312,4.38281 3.15233,12.98392 4.77602,19.11356 1.6237,6.12965 2.73271,11.36427 2.46449,11.63249 -0.26822,0.26823 -0.0916,0.96498 0.3926,1.54835 0.48415,0.58337 1.2819,2.73156 1.77277,4.77376 0.9968,4.1471 6.49087,25.23569 10.12637,38.86934 1.3062,4.89844 2.9613,11.4375 3.67799,14.53125 0.7167,3.09375 1.883,7.52344 2.59178,9.84375 l 1.28869,4.21875 5.52605,0.59399 c 3.03933,0.3267 8.64402,0.9202 12.45485,1.31891 l 6.9288,0.72492 -0.67264,-3.66267 c -0.36995,-2.01445 -1.90738,-7.18098 -3.4165,-11.48116 -1.50912,-4.30018 -2.50653,-8.20252 -2.21646,-8.67187 0.29008,-0.46935 0.14743,-0.85337 -0.31698,-0.85337 -0.46442,0 -1.61577,-2.63672 -2.55856,-5.85938 -0.94279,-3.22265 -2.23198,-6.91406 -2.86485,-8.20312 -0.95518,-1.94551 -3.50004,-9.57971 -3.75019,-11.25 -0.0386,-0.25781 -0.51909,-1.52344 -1.06771,-2.8125 -0.54863,-1.28906 -1.70139,-4.875 -2.5617,-7.96875 -0.8603,-3.09375 -1.93482,-6.46875 -2.38781,-7.5 -3.64426,-8.2962 -5.67014,-14.1407 -8.77408,-25.3125 -1.14608,-4.125 -2.55365,-8.34375 -3.12794,-9.375 -0.57428,-1.03125 -1.19277,-2.92969 -1.37441,-4.21875 -0.18164,-1.28906 -0.58864,-2.55469 -0.90442,-2.8125 -0.51715,-0.42219 -4.75029,-13.43837 -7.9273,-24.375 -2.39609,-8.24839 -8.05288,-26.80508 -9.85961,-32.34375 -1.0092,-3.09375 -2.06213,-6.89063 -2.33987,-8.4375 -0.27773,-1.54688 -0.90161,-3.21328 -1.38639,-3.70313 -0.48478,-0.48984 -0.88142,-2.04697 -0.88142,-3.46029 0,-1.41332 -0.37526,-2.8016 -0.83392,-3.08506 -0.45865,-0.28347 -1.0622,-1.89039 -1.34121,-3.57095 -0.52732,-3.17613 -5.7352,-19.46612 -7.27092,-22.74307 -0.48329,-1.03125 -1.26711,-3.77344 -1.74182,-6.09375 -1.31605,-6.43266 -3.3688,-13.42815 -7.56529,-25.78125 -2.10196,-6.1875 -4.19956,-12.9375 -4.66135,-15 -0.46179,-2.0625 -1.52564,-5.85938 -2.36412,-8.4375 -3.92844,-12.07897 -4.10453,-14.34498 -0.90861,-11.6926 2.11151,1.7524 3.50994,5.48285 7.95888,21.23117 2.15956,7.64441 4.59364,16.21924 5.40908,19.05518 0.81543,2.83594 1.57496,5.66783 1.68785,6.29308 0.11287,0.62526 1.06556,3.78932 2.11707,7.03125 1.89561,5.84436 4.16879,14.1196 4.00014,14.56197 -0.0483,0.12654 0.72342,2.44685 1.71477,5.15625 2.05389,5.61335 4.09435,12.64419 4.31748,14.87684 0.0832,0.83223 0.51614,2.09786 0.96211,2.8125 0.44599,0.71465 0.88817,1.80824 0.98264,2.43018 0.21328,1.40416 3.0297,10.39495 4.05094,12.93168 0.41516,1.03125 2.33337,7.35938 4.26269,14.0625 1.92932,6.70313 5.3044,17.67188 7.50016,24.375 2.19578,6.70313 6.18931,19.14844 8.87453,27.65625 2.68521,8.50781 6.28981,19.47656 8.01021,24.375 1.72041,4.89844 3.62484,10.80469 4.23206,13.125 0.60724,2.32031 1.64655,5.27344 2.3096,6.5625 0.66304,1.28906 1.5139,3.82031 1.89079,5.625 0.37688,1.80469 1.00737,3.70313 1.40106,4.21875 0.93643,1.22642 10.33078,28.51674 10.10533,29.35567 -0.0952,0.35438 0.49359,1.90995 1.30849,3.45683 1.20744,2.29196 4.07089,10.77987 5.06037,15 1.14644,4.88957 2.25325,5.97331 6.68635,6.54697 2.47549,0.32035 7.13761,1.13116 10.36026,1.80182 3.22266,0.67066 5.84435,0.96498 5.82599,0.65405 -0.1633,-2.7643 -5.44244,-20.74352 -6.49729,-22.12784 -1.24197,-1.62989 -8.46932,-21.10842 -8.46932,-22.82579 0,-0.90363 -0.44402,-2.08698 -0.98671,-2.62967 -0.54269,-0.54269 -1.09645,-2.01601 -1.23058,-3.27403 -0.13413,-1.25803 -0.48912,-2.69136 -0.78887,-3.18517 -0.29975,-0.49382 -1.67741,-4.27284 -3.06147,-8.39784 -3.996,-11.90953 -7.1017,-20.49138 -8.05312,-22.2529 -0.48359,-0.89535 -0.87925,-2.47738 -0.87925,-3.51563 0,-1.03824 -0.46701,-1.88772 -1.0378,-1.88772 -0.57079,0 -0.80016,-0.6193 -0.50969,-1.37622 0.29045,-0.75693 0.1859,-1.58772 -0.23234,-1.84621 -0.41824,-0.25849 -1.69815,-3.11965 -2.84423,-6.35814 -1.14609,-3.23851 -2.68772,-7.22559 -3.42584,-8.8602 -0.73812,-1.63463 -1.60365,-4.28012 -1.9234,-5.87889 -0.31977,-1.59877 -0.94876,-3.13391 -1.39779,-3.41143 -0.44902,-0.27751 -0.81641,-1.44049 -0.81641,-2.58439 0,-1.1439 -0.61374,-2.95606 -1.36387,-4.02702 -1.50766,-2.1525 -4.2261,-9.47634 -4.24749,-11.44337 -0.007,-0.69004 -1.28711,-4.00595 -2.84357,-7.36868 -1.55646,-3.36275 -2.74678,-6.59504 -2.64516,-7.18289 0.10162,-0.58784 -0.49255,-2.54537 -1.32038,-4.35006 -1.63796,-3.57077 -2.83976,-6.67165 -2.96731,-7.65625 -0.0445,-0.34375 -0.39738,-0.9414 -0.7841,-1.32812 -0.38671,-0.38672 -0.70312,-1.65235 -0.70312,-2.8125 0,-1.16016 -0.33231,-2.25 -0.73845,-2.42188 -0.85298,-0.36097 -4.88655,-9.86301 -4.88655,-11.51142 0,-0.60783 -0.82844,-2.81982 -1.84097,-4.91552 -1.01254,-2.09571 -3.3333,-8.18667 -5.15725,-13.53547 -1.82396,-5.3488 -5.86666,-17.1079 -8.9838,-26.13134 -3.11713,-9.02344 -5.76527,-16.82813 -5.88474,-17.34375 -0.11947,-0.51563 -0.54568,-1.46326 -0.94712,-2.10585 -0.40146,-0.64259 -0.87985,-1.90822 -1.0631,-2.8125 -0.35528,-1.75319 -3.33393,-10.22346 -8.60799,-24.47817 -1.78493,-4.82434 -3.11618,-9.88684 -2.95831,-11.25 l 0.28703,-2.47848 1.69405,2.49511 c 1.85329,2.72964 5.24175,11.40781 8.71525,22.32053 1.22598,3.85173 2.82797,8.28142 3.55996,9.84375 0.73199,1.56234 1.81636,4.73905 2.40974,7.05936 1.25095,4.89173 3.61627,12.01667 4.67866,14.09327 0.71943,1.40625 2.05739,6.73256 2.04896,8.15675 -0.002,0.3953 0.54802,1.35154 1.22303,2.12498 0.67501,0.77344 1.87964,3.51563 2.67697,6.09375 2.29372,7.41676 8.95294,25.94868 10.48284,29.17271 0.76584,1.61388 1.524,3.72586 1.68482,4.69331 0.16082,0.96744 0.79912,2.68047 1.41844,3.80672 0.61931,1.12626 1.14035,2.60282 1.15784,3.28125 0.0175,0.67844 0.84693,2.92101 1.84319,4.98351 0.99626,2.0625 1.8257,4.61484 1.84319,5.67188 0.0175,1.05703 0.40159,2.32265 0.85354,2.8125 0.71349,0.77332 4.54725,10.437 4.91109,12.37932 0.3452,1.84278 2.71135,8.38744 4.99784,13.8238 6.496,15.44483 14.65292,38.40384 14.88074,41.88429 0.0566,0.86449 0.35143,1.41819 0.6552,1.23044 0.50954,-0.3149 4.12782,9.33692 10.02018,26.72902 3.27442,9.66488 5.88886,16.64085 7.92858,21.15536 0.94717,2.09639 1.72474,4.41671 1.72791,5.15625 0.003,0.73956 0.62022,2.52262 1.3712,3.96237 0.75099,1.43974 1.65579,4.18193 2.01067,6.09375 0.35488,1.91181 1.17299,4.31977 1.81803,5.35102 0.64502,1.03125 1.47474,3.35156 1.84381,5.15625 0.36905,1.80469 0.93781,3.70173 1.2639,4.21565 0.32608,0.51391 1.64756,3.84602 2.93662,7.40466 l 2.34375,6.47028 9.94585,2.90783 c 10.34919,3.02575 12.98219,4.43601 13.08233,7.00699 0.0363,0.93071 0.42388,0.61185 0.99383,-0.81749 0.64526,-1.6182 0.58908,-3.64893 -0.18156,-6.5625 z m -51.05315,3.55321 c -0.32302,-0.84175 -2.19921,-1.67517 -4.48386,-1.99175 -3.44822,-0.47781 -12.92446,-1.9278 -19.16281,-2.93217 -1.54647,-0.24898 -2.10938,0.12087 -2.10938,1.38588 0,3.14784 2.62988,4.66586 8.27009,4.77366 2.92801,0.056 7.85491,0.38799 10.94866,0.73783 6.06803,0.68617 7.40322,0.28311 6.5373,-1.97345 z m -29.51885,-0.94515 c -0.0485,-4.54929 -0.86681,-5.11188 -9.20062,-6.32489 -4.47168,-0.65087 -9.4981,-1.52258 -11.16984,-1.93715 -3.692,-0.91554 -4.00884,-0.49162 -3.34296,4.47288 0.60085,4.47966 0.0653,4.30613 14.5856,4.72666 6.95325,0.20138 9.13755,-0.023 9.12782,-0.9375 z m -90.43364,-8.90334 C 404.32712,493.93641 406.19255,495 388.57899,495 l -15.44778,0 0.0989,6.49732 0.0989,6.49734 3.41361,0.44524 c 1.8775,0.24487 4.86809,0.49819 6.64576,0.56292 1.77767,0.0648 3.32849,0.21011 3.44625,0.32306 0.11776,0.11295 4.49631,0.32581 9.73011,0.47301 l 9.51599,0.26764 -0.58967,-5.42389 z m -36.84249,-2.9718 c -0.0829,-3.29198 -0.31541,-6.15019 -0.5168,-6.35157 -1.19597,-1.19596 -20.48815,-0.62542 -21.26333,0.62884 -0.6178,0.99962 -0.67031,10.55302 -0.0653,11.86362 0.0395,0.0855 5.00473,0.0855 11.03389,0 l 10.96211,-0.15548 -0.15065,-5.98541 z M 179.64775,498.4061 c 1.99843,-0.70478 5.95381,-1.55119 8.78975,-1.88093 13.45811,-1.56475 13.0189,-1.39514 15.0269,-5.80296 1.01645,-2.23126 1.8481,-4.69848 1.8481,-5.48272 0,-0.78423 0.59227,-2.81128 1.31615,-4.50456 0.72388,-1.69327 1.84518,-4.97712 2.49179,-7.29743 0.6466,-2.32031 1.68014,-5.0625 2.29673,-6.09375 0.61661,-1.03125 1.36778,-3.14062 1.66929,-4.6875 1.38307,-7.09597 7.12814,-25.4834 10.54503,-33.75 0.63938,-1.54687 1.84722,-5.21681 2.68408,-8.15541 0.83686,-2.9386 1.9379,-5.60022 2.44675,-5.9147 0.50885,-0.31449 0.92518,-1.59305 0.92518,-2.84125 0,-2.11765 1.99717,-8.43774 3.70139,-11.71316 0.41124,-0.79037 1.03488,-2.89974 1.38589,-4.6875 0.35101,-1.78776 1.20817,-4.72704 1.90481,-6.53173 2.09243,-5.42058 7.07041,-21.56243 7.07041,-22.92691 0,-0.69946 1.42942,-5.63564 3.17647,-10.96929 1.74706,-5.33366 4.54315,-14.12724 6.21353,-19.5413 1.67038,-5.41406 3.78935,-11.74219 4.70882,-14.0625 0.91947,-2.32031 4.26522,-12.23438 7.435,-22.03125 3.16978,-9.79688 6.3264,-19.07813 7.0147,-20.625 0.6883,-1.54688 2.19682,-5.97656 3.35227,-9.84375 1.15545,-3.86719 2.56667,-8.29688 3.13604,-9.84375 0.56937,-1.54688 1.05123,-3.02344 1.07079,-3.28125 0.13141,-1.73231 7.38991,-23.46988 10.3305,-30.9375 0.71064,-1.80469 1.32362,-5.39063 1.36217,-7.96875 0.0385,-2.57813 0.49909,-7.85156 1.02342,-11.71875 0.94339,-6.95806 0.9972,-12.47417 0.74523,-76.40625 -0.0711,-18.04687 0.13601,-39.617461 0.4603,-47.934635 0.67194,-17.233632 0.79594,-16.913492 -6.59804,-17.033402 l -4.85006,-0.07866 -0.0478,5.335845 c -0.0263,2.934715 -0.0851,36.526068 -0.13068,74.647448 -0.071,59.39477 -0.28424,69.79015 -1.49027,72.65625 -0.77408,1.83956 -1.49886,6.08683 -1.61062,9.4384 -0.18809,5.64027 -1.70558,10.195 -6.32074,18.97165 -0.47081,0.89535 -0.85602,2.06083 -0.85602,2.58996 0,0.52912 -2.35852,6.54656 -5.24114,13.37209 -2.88263,6.82553 -6.29711,15.15223 -7.58774,18.5038 -11.47958,29.8106 -12.86004,33.28051 -13.42704,33.75 -0.31136,0.25781 -3.00259,6.79687 -5.98051,14.53125 -2.97793,7.73437 -7.04075,18.07031 -9.0285,22.96875 -6.50297,16.02542 -9.61014,23.83789 -11.18582,28.125 -0.85281,2.32031 -2.19845,5.48437 -2.99033,7.03125 -0.79188,1.54687 -2.19961,5.34375 -3.12829,8.4375 -0.92868,3.09375 -1.99,6.04687 -2.35846,6.5625 -0.36848,0.51562 -2.46884,5.78906 -4.66747,11.71875 -4.14983,11.19204 -5.51438,14.76767 -12.52223,32.8125 -2.30283,5.92968 -5.97263,15.42187 -8.15509,21.09375 -2.18246,5.67187 -4.33582,10.71328 -4.78525,11.20312 -0.44942,0.48985 -0.81713,1.54743 -0.81713,2.3502 0,0.80276 -1.47656,5.22071 -3.28125,9.81767 -4.37615,11.14704 -4.35854,11.19892 2.929,8.62885 z m 45.17961,-5.82413 c 8.05651,-0.70146 6.96858,0.96416 12.50463,-19.14447 4.13294,-15.01208 10.06639,-33.1364 10.12818,-30.9375 0.0605,2.1518 -2.57549,15.37629 -3.57011,17.91113 -0.76293,1.94439 -2.15592,7.87903 -5.85062,24.92589 -1.37806,6.35824 -1.51622,6.21803 5.47619,5.55714 3.48046,-0.32896 12.44531,-0.82548 19.92187,-1.1034 7.47656,-0.2779 17.8125,-0.66726 22.96875,-0.86523 5.15625,-0.19799 11.5301,-0.38878 14.16412,-0.424 l 4.78911,-0.064 1.18236,-11.48437 c 0.65029,-6.31641 1.3246,-13.17188 1.49845,-15.23438 0.80309,-9.52754 1.34552,-16.52448 1.81695,-23.4375 0.28131,-4.125 0.90256,-11.08594 1.38055,-15.46875 1.42334,-13.0509 1.82527,-18.32188 2.85269,-37.41147 0.53852,-10.006 1.12796,-18.4435 1.30985,-18.75 0.18189,-0.30651 0.60774,-5.40884 0.94634,-11.33853 0.70409,-12.3303 1.30883,-20.38912 1.93461,-25.78125 0.79759,-6.87247 2.32141,-25.53447 3.78923,-46.40625 0.23571,-3.35156 0.83818,-9.89062 1.33885,-14.53125 1.02086,-9.46235 2.90414,-30.35919 3.37959,-37.5 0.95405,-14.32864 1.66825,-116.21589 0.98073,-139.907973 -0.11763,-4.0533 0.19722,-6.915853 0.78236,-7.113168 0.65784,-0.221827 0.62743,-0.764827 -0.0926,-1.654527 -0.58952,-0.728382 -1.0114,-3.961286 -0.9375,-7.184229 0.10546,-4.599262 -0.16816,-5.88418 -1.27189,-5.972772 -0.77344,-0.06208 -4.22065,-0.227338 -7.66049,-0.367235 -3.43983,-0.139898 -6.74744,-0.559178 -7.35025,-0.931732 -0.6028,-0.372554 -3.80011,-0.809977 -7.10513,-0.972053 l -6.00916,-0.294682 -0.0912,5.324186 c -0.0502,2.928302 -0.22241,8.488247 -0.38276,12.355435 -0.16035,3.867187 -0.35064,33.92578 -0.42285,66.79687 -0.0804,36.60294 -0.47302,59.76563 -1.01299,59.76563 -0.48492,0 -0.84223,0.94922 -0.79401,2.10937 0.24477,5.88973 -1.74138,13.69132 -9.48719,37.26563 -4.659,14.17969 -8.82294,26.625 -9.25319,27.65625 -0.43023,1.03125 -2.77098,7.99219 -5.20166,15.46875 -2.43068,7.47656 -5.4047,16.33594 -6.60894,19.6875 -1.20424,3.35156 -4.58979,13.6875 -7.52344,22.96875 -7.3638,23.297 -14.59418,45.47705 -15.739,48.28125 -0.52627,1.28906 -1.11311,3.16365 -1.30409,4.16575 -0.19099,1.00211 -1.36683,4.64851 -2.61298,8.10312 -1.24614,3.4546 -2.00977,6.53704 -1.69695,6.84986 0.31282,0.31282 0.0766,0.56877 -0.52498,0.56877 -0.60156,0 -1.11227,0.73828 -1.1349,1.64062 -0.0226,0.90235 -0.67345,3.32813 -1.44626,5.39063 -0.77281,2.0625 -1.62285,4.80469 -1.88899,6.09375 -0.26613,1.28906 -0.88357,2.48525 -1.37208,2.6582 -0.48851,0.17295 -0.65672,0.68898 -0.3738,1.14675 0.28291,0.45777 -1.431,6.43346 -3.80871,13.2793 -2.37771,6.84585 -4.73954,14.1345 -5.24851,16.197 -0.50898,2.0625 -1.47097,4.59375 -2.13776,5.625 -0.6668,1.03125 -1.50762,3.5625 -1.8685,5.625 -0.86263,4.93015 -3.37941,12.81541 -4.56957,14.31674 -0.5196,0.65545 -1.07023,2.55389 -1.22362,4.21875 -0.1534,1.66486 -0.93807,4.59549 -1.74372,6.51252 -2.7826,6.62111 -2.25315,7.55789 3.9258,6.94611 2.96484,-0.29355 8.47699,-0.80245 12.24923,-1.1309 z m 178.77536,-8.27408 c -0.25256,-3.81817 -0.85443,-9.82989 -1.33748,-13.35938 -1.00231,-7.32353 -1.69,-14.4014 -2.44525,-25.16726 -0.28937,-4.125 -0.74481,-8.23061 -1.01208,-9.12359 -0.26728,-0.89297 -0.64477,-5.32266 -0.83889,-9.84375 -0.19412,-4.52108 -0.95112,-12.64985 -1.68222,-18.06391 -0.7311,-5.41406 -1.33431,-11.10937 -1.34047,-12.65625 -0.007,-1.54687 -0.46545,-6.82031 -1.02067,-11.71875 -0.55522,-4.89844 -1.08428,-12.28125 -1.17572,-16.40625 -0.0914,-4.125 -0.51567,-10.03125 -0.94276,-13.125 -0.4271,-3.09375 -1.02034,-9.63197 -1.31833,-14.52938 -0.29798,-4.89742 -0.90982,-10.38179 -1.35962,-12.1875 -0.71524,-2.87129 -1.12046,-7.59431 -2.53387,-29.53312 -0.44972,-6.98047 -0.45728,-7.05405 -1.34902,-13.125 -0.45442,-3.09375 -1.06062,-9.42187 -1.3471,-14.0625 -0.28648,-4.64062 -0.92591,-11.17969 -1.42095,-14.53125 -0.49504,-3.35156 -1.11519,-10.3125 -1.3781,-15.46875 -0.26291,-5.15625 -0.67536,-11.27344 -0.91656,-13.59375 -1.38677,-13.34033 -1.66151,-15.52893 -2.02409,-16.12456 -0.40499,-0.6653 -0.4147,-51.7396 -0.021,-110.2086 l 0.21627,-32.1144 -6.41827,0.239404 -6.41826,0.239406 0.51182,7.5 c 0.89149,13.063279 0.38727,124.07019 -0.58979,129.84375 -1.23728,7.31135 -0.63963,47.98809 1.60473,109.21875 0.2646,7.21875 0.67674,19.66406 0.91586,27.65625 0.23912,7.99219 0.65517,20.01562 0.92454,26.71875 0.62591,15.57544 1.27505,33.41843 1.92704,52.96875 0.28373,8.50781 0.90662,25.7397 1.38419,38.2931 0.47756,12.55338 0.83184,23.10026 0.78727,23.4375 -0.67528,5.10988 -0.99573,5.0317 22.8751,5.58074 l 8.20283,0.18866 -0.45919,-6.94211 z m -36.52504,4.85896 c 0.972,-0.96421 0.46728,-34.99454 -0.85899,-57.91685 -0.34309,-5.92969 -0.86691,-19.00781 -1.16406,-29.0625 -0.29713,-10.05469 -0.64054,-19.75781 -0.76314,-21.5625 -0.21007,-3.09261 -0.81602,-23.35162 -2.01891,-67.5 -0.288,-10.57031 -0.69313,-23.85937 -0.90028,-29.53125 -1.27502,-34.91044 -1.80539,-52.07462 -1.72366,-55.78125 0.2467,-11.18709 1.58694,-29.68413 2.24163,-30.9375 0.40401,-0.77344 0.78852,-7.52344 0.85448,-15 0.14709,-16.67366 0.73775,-41.38341 1.01966,-42.65625 0.1142,-0.51562 0.1489,-1.14844 0.0772,-1.40625 -0.0718,-0.25781 -0.32715,-11.22656 -0.56748,-24.375 -0.83427,-45.642501 -0.36188,-43.32177 -8.86938,-43.57222 -6.48532,-0.19092 -7.46101,0.133878 -5.70866,1.900345 0.53466,0.538981 0.60368,5.332439 0.17478,12.140625 -0.79803,12.667894 -0.60686,94.70448 0.23924,102.65625 0.30175,2.83594 0.13293,7.6875 -0.37515,10.78125 -1.06984,6.51432 -1.02413,4.13357 -0.91813,47.8125 0.045,18.5625 -0.22124,57.79688 -0.59174,87.1875 -0.37051,29.39063 -0.7063,76.64063 -0.74621,105 l -0.0726,51.5625 6.09375,0.46875 c 8.55324,0.65794 13.77981,0.58331 14.57768,-0.20815 z m -25.5638,-1.06115 c 0.21434,-0.59094 0.27941,-5.08008 0.1446,-9.97585 -0.13482,-4.89577 0.11695,-9.12518 0.55949,-9.39868 0.44254,-0.2735 0.49707,-1.96319 0.1212,-3.75485 -0.37588,-1.79167 -0.59993,-17.39038 -0.49787,-34.66382 0.10205,-17.27344 0.40129,-76.00911 0.66498,-130.52371 0.26369,-54.5146 0.82102,-99.65523 1.23852,-100.3125 0.41751,-0.65727 0.76525,-30.15822 0.77277,-65.55766 l 0.0137,-64.36261 -6.5625,0.101459 -6.5625,0.10146 0.35037,11.761156 c 1.11613,37.465835 0.23808,155.073365 -1.17485,157.359525 -0.31872,0.5157 -0.99879,7.41236 -1.51127,15.32589 -0.51248,7.91353 -1.35456,18.60699 -1.87129,23.76324 -1.4257,14.22664 -1.72157,17.87221 -2.35429,29.00902 -0.32057,5.64245 -0.72074,10.49401 -0.88925,10.78125 -0.16853,0.28723 -0.58495,5.58473 -0.92538,11.77223 -0.76925,13.98134 -2.23291,34.23993 -2.87869,39.84375 -0.53286,4.62406 -1.24738,14.18643 -2.73203,36.5625 -0.35923,5.41406 -1.20647,14.48438 -1.88279,20.15625 -0.67631,5.67188 -1.29791,12.42188 -1.38133,15 -0.0834,2.57813 -0.59964,9.11719 -1.14716,14.53125 -0.54752,5.41406 -1.10536,11.32031 -1.23966,13.125 -0.13428,1.80469 -0.56466,6.94759 -0.95639,11.42867 l -0.71222,8.14742 4.55936,0.35253 c 10.63568,0.82237 26.47095,0.48453 26.8545,-0.57292 z M 376.32235,64.304978 c 10.8891,-0.952803 22.63608,-1.669417 32.8964,-2.006816 5.67187,-0.186513 12.84375,-0.968164 15.9375,-1.737003 3.09375,-0.768838 6.89062,-1.590432 8.4375,-1.825764 1.54687,-0.235332 3.44531,-0.658178 4.21875,-0.939657 0.77344,-0.28148 3.55307,-0.690125 6.17696,-0.9081 2.62389,-0.217975 5.89016,-1.129814 7.25839,-2.026308 1.36822,-0.896494 3.17131,-1.367654 4.00686,-1.047022 0.83555,0.320631 2.94049,-0.295449 4.67764,-1.369066 1.73715,-1.073618 3.56512,-1.700699 4.06215,-1.393514 0.49705,0.307185 2.78365,-1.181215 5.08136,-3.307557 9.19838,-8.512361 9.84947,-19.535647 1.46645,-24.82762 -4.61494,-2.913285 -37.6532,-12.165901 -39.49462,-11.060768 -0.36908,0.221506 -2.90033,-0.237837 -5.625,-1.020761 C 422.69802,10.052097 416.88281,9.1989009 412.5,8.9390304 403.94078,8.4315279 399.41392,7.9781322 393.93322,7.0794414 387.24565,5.9828561 346.7387,6.6576193 341.48437,7.9531319 339.96828,8.3269426 339.375,8.0571175 339.375,6.9937828 c 0,-0.8136918 -0.34932,-1.2635491 -0.77626,-0.9996829 -1.31437,0.8123291 -19.89129,3.408486 -27.86352,3.8939789 -4.15032,0.2527452 -8.58001,0.6876882 -9.84375,0.9665392 -1.26375,0.278851 -3.98522,0.597707 -6.04772,0.708568 -2.0625,0.110861 -4.37074,0.590241 -5.12942,1.065289 -0.75868,0.475048 -2.5053,0.777934 -3.88137,0.673081 -1.50258,-0.114493 -2.71858,0.373881 -3.04428,1.222651 -0.3331,0.868037 -1.74727,1.413293 -3.66551,1.413293 -1.71775,0 -3.52395,0.352146 -4.0138,0.782546 -1.07295,0.942747 -7.65622,3.263726 -13.82592,4.874424 -18.56544,4.846806 -14.52622,28.865306 5.4353,32.320046 2.0625,0.356957 5.50158,1.46794 7.6424,2.468852 2.14081,1.00091 6.29411,1.994733 9.22954,2.208493 2.93544,0.213759 5.8633,0.825315 6.50637,1.359013 0.64306,0.533697 1.4295,0.710069 1.74763,0.391938 0.54779,-0.547792 9.30018,0.479456 21.74906,2.552635 3.09375,0.515219 13.38172,1.11639 22.86216,1.335935 9.48043,0.219545 17.35464,0.517455 17.49824,0.662021 0.38852,0.391134 15.80951,-0.01454 22.3682,-0.588426 z m -7.19847,-17.993595 c -0.32707,-0.327076 -10.63485,-0.722737 -22.90615,-0.879246 -29.09478,-0.371078 -48.37823,-2.040236 -54.27305,-4.697828 -1.59449,-0.71885 -4.26328,-1.41095 -5.93064,-1.537999 -1.66737,-0.127049 -3.2393,-0.567086 -3.49317,-0.977859 -0.25387,-0.410773 -1.87232,-1.336304 -3.59655,-2.056735 -1.72424,-0.720431 -3.96297,-2.137868 -4.97496,-3.149858 -1.01199,-1.01199 -2.37057,-2.016846 -3.01908,-2.233013 -0.75661,-0.252203 -0.94392,-1.133981 -0.52276,-2.460937 0.95885,-3.021052 4.55232,-2.660321 7.41737,0.744592 2.33636,2.776611 4.36261,3.664432 4.36261,1.91152 0,-0.495539 -0.89795,-1.737545 -1.99544,-2.760016 -2.15546,-2.008113 -1.83102,-4.776504 0.55977,-4.776504 2.72857,0 5.18567,3.553696 5.18567,7.5 0,3.660714 0.0781,3.75 3.28125,3.75 4.08652,0 4.53147,-3.549975 1.17576,-9.380648 -1.57098,-2.729645 -1.83528,-3.928578 -1.04112,-4.72275 2.66584,-2.665833 8.27416,6.304414 7.30009,11.67613 -0.47322,2.609656 0.8467,3.831253 4.98714,4.615662 2.45504,0.465106 3.07434,0.263099 3.18825,-1.039957 0.3181,-3.638688 -0.41461,-7.375181 -2.18469,-11.140853 -1.992,-4.237792 -1.69943,-5.945084 1.01876,-5.945084 2.69088,0 5.23915,6.876467 5.24139,14.143804 l 0.002,6.244335 5.15625,0.14211 c 2.83594,0.07816 7.05469,0.307384 9.375,0.509386 4.39385,0.382518 21.15191,0.749504 27.66262,0.605784 l 3.75641,-0.08292 -0.79812,-11.640566 c -0.79929,-11.657805 -0.0268,-16.550441 2.66039,-16.849016 1.32127,-0.146808 1.7452,24.22951 0.46305,26.625232 -0.9039,1.688956 -0.68597,1.87758 2.31647,2.004975 1.82283,0.07734 3.84157,0.182813 4.4861,0.234375 1.2678,0.101423 1.60156,-3.574901 1.57056,-17.299171 -0.015,-6.620968 0.28359,-8.290964 1.71356,-9.585072 1.67448,-1.515377 1.73514,-1.188549 1.83607,9.892921 0.15111,16.591822 0.15659,16.616322 3.70939,16.616322 1.63361,0 3.58529,0.236032 4.33707,0.524516 1.13658,0.436147 1.48124,-1.611014 2.04575,-12.150783 0.47303,-8.831835 1.06431,-12.995178 1.94999,-13.730225 1.42361,-1.181491 3.56789,-0.326527 2.7006,1.076779 -0.30703,0.496775 -0.66922,6.399613 -0.80488,13.117418 l -0.24666,12.214191 9.46146,-0.598967 c 34.13695,-2.161072 37.11466,-2.895639 37.12295,-9.157789 0.0144,-10.845932 3.30325,-13.606862 4.34428,-3.646882 0.33614,3.216083 0.93352,6.046639 1.32748,6.290125 1.59508,0.985808 3.41992,-0.755774 3.49322,-3.333828 0.0954,-3.355814 2.20738,-7.987024 3.48604,-7.644337 1.20291,0.322386 0.68725,4.564335 -0.96636,7.949561 l -1.28397,2.628529 3.2875,-0.522468 c 1.80813,-0.287357 4.50835,-1.153789 6.00049,-1.925404 3.50905,-1.8146 5.27521,-1.774998 6.00804,0.134714 1.20243,3.133498 -9.13128,8.761156 -16.18827,8.816 -2.91221,0.02263 -6.89385,0.611535 -8.84806,1.308672 -1.95423,0.697137 -4.38225,1.050704 -5.39563,0.785703 -1.01336,-0.265002 -2.49143,0.05676 -3.28459,0.715026 -0.84954,0.705057 -4.4108,1.262308 -8.66688,1.356158 -3.97362,0.08762 -7.93743,0.477884 -8.80845,0.867252 -0.87103,0.389368 -2.33669,0.286535 -3.25705,-0.228518 -0.98512,-0.551306 -2.2982,-0.602049 -3.1926,-0.123376 -1.81802,0.97297 -27.459,2.129348 -28.31154,1.276816 z M 343.17493,32.162149 c -0.14174,-7.550553 -0.54921,-9.845337 -2.37515,-13.376313 -2.15465,-4.166645 -0.34429,-6.355839 2.35545,-2.848336 2.33736,3.036715 2.95688,6.478611 2.60206,14.456534 -0.36743,8.26164 -2.43391,9.676531 -2.58236,1.768115 z m -31.31745,-0.521524 c -0.86131,-7.170783 -0.73955,-11.829611 0.363,-13.889757 1.35671,-2.535034 2.47422,-2.259454 3.1012,0.764757 0.29398,1.417969 1.03037,4.922063 1.63645,7.786876 1.05659,4.99432 1.00559,5.312725 -1.23872,7.734375 -3.10329,3.348509 -3.17742,3.302511 -3.86193,-2.396251 z M 419.0625,29.592281 c 0,-5.298061 1.44882,-10.643454 2.5786,-9.513675 0.82343,0.823422 1.30026,9.698278 0.67158,12.499519 -0.99782,4.446057 -3.25018,2.376879 -3.25018,-2.985844 z"
     id="path4197"
     inkscape:connector-curvature="0" />
</svg>
