<?xml version="1.0" encoding="UTF-8" standalone="no"?>
<svg xmlns:rdf="http://www.w3.org/1999/02/22-rdf-syntax-ns#" xmlns="http://www.w3.org/2000/svg" height="246.56" viewBox="0 0 259.6875 246.5625" width="259.69" version="1.1" xmlns:cc="http://creativecommons.org/ns#" xmlns:dc="http://purl.org/dc/elements/1.1/">
<path d="m1.7201 242.99c-0.0851-1.9-0.2422-17.59-0.349-34.87-0.1069-17.27-0.48614-70.95-0.8429-119.29l-0.64864-87.892 10.607-0.13984c5.834-0.07664 12.083-0.11334 13.888-0.08156 16.185 0.285 104.96 0.25961 162.42-0.04655l71.013-0.37831 0.046 31.026c0.0253 17.064 0.0911 43.26 0.14625 58.214 0.0551 14.953 0.0671 45.961 0.0267 68.906-0.0405 22.945 0.0711 43.195 0.248 45 0.59231 6.0439 0.60316 41.436 0.0128 42.026-0.3206 0.32061-58.144 0.67459-128.5 0.78662l-127.92 0.19-0.1499-3.46zm33.106-0.78186c3.292-0.58706 4.3878-4.0857 1.2797-4.0857-2.1538 0-3.2938-1.5714-3.2938-4.5403 0-0.86597 3.1313-4.5016 6.9585-8.0792 6.914-6.463 6.9498-6.5216 5.6009-9.1301-1.7013-3.2899-2.4785-3.2994-3.9016-0.0472-5.6947 13.014-16.889 19.268-14.829 8.2851 0.62928-3.3543-1.9277-5.0914-5.4852-3.7262-2.0427 0.78387-4.2813-1.2752-4.2813-3.9379 0-3.286 4.677-7.9559 11.625-11.607 6.5823-3.4591 8.0066-5.3152 3.3666-4.3872-3.4007 0.68015-7.32 3.3121-13.585 9.123-7.2074 6.6847-10.06 6.3735-8.4578-0.9227 0.53458-2.4339 0.32752-2.716-2.2739-3.0978-3.3593-0.49304-3.0914-2.3503-2.8667 19.872 0.10174 10.063 0.51601 15.683 1.1866 16.097 1.1593 0.7165 25.118 0.86924 28.957 0.18461zm27.503-0.51257c6.5893-7.4946 4.9059-17.414-4.1575-24.498l-5.7811-4.5183 0.75784 3.5808c1.3421 6.3416 0.43497 16.287-1.9275 21.133-1.3822 2.8349-1.7932 4.578-1.1428 4.8467 1.0634 0.43929 11.806-0.0381 12.251-0.54441zm45.952 0.22392c4.6406-0.1663 7.3828-0.48435 6.0938-0.7068-4.2898-0.74029-23.841-5.9262-28.412-7.5365-3.5493-1.2502-4.6606-1.337-5.234-0.4091-0.55122 0.89189-1.3697 0.93407-3.3698 0.17364-2.8121-1.0692-3.7227-0.53606-9.9303 5.8137l-2.4814 2.5383 6.1983 0.27424c7.5544 0.33425 25.703 0.26217 37.136-0.14749zm79.879-1.5469c1.4251-4.3306-10.649-6.4045-21.667-3.7216-5.2042 1.2672-12.204 2.9178-15.556 3.6681l-6.0938 1.364 13.949 0.0597c7.6721 0.0328 14.069 0.18093 14.216 0.32911 0.75771 0.76596 14.861-0.81571 15.152-1.6992zm24.26 1.4999c2.858 0 2.8814-1.6456 0.082-5.7706-3.5612-5.2478-4.4674-8.8634-3.4072-13.595 1.8995-8.4758-2.183-7.5841-12.473 2.7246-2.4449 2.4492-4.9202 4.4531-5.5007 4.4531-1.1969 0-0.66549 5.4877 0.9244 9.5465 0.93509 2.3872 1.2383 2.4903 5.9542 2.0262 2.7329-0.269 6.0237-0.0562 7.3127 0.47301 1.2891 0.52915 2.9056 0.77753 3.5923 0.55196s2.2687-0.41013 3.5156-0.41013zm-168.09-1.26c7.5774-3.168 9.8007-18.006 4.1367-27.607-1.0016-1.6978-1.9929-2.9151-2.2029-2.7051-0.20999 0.20999 0.33044 1.6228 1.201 3.1396 2.503 4.3611-2.0977 14.127-7.8647 16.695-2.9405 1.3092-3.4527 3.301-0.84884 3.301 4.2227 0 4.9961 3.0118 1.7453 6.7969-1.7317 2.0163-0.39756 2.1483 3.8335 0.37935zm210.97-8.0789c-0.0938-4.9176-0.19995-11.367-0.23593-14.332-0.0783-6.4537-3.2862-7.7012-7.2322-2.8125l-2.0809 2.5781-5.0461-4.9526c-3.9856-3.9117-5.8215-5.0385-8.7355-5.3612-2.0292-0.22472-2.8456-0.16791-1.8144 0.12625 10.904 3.1102 17.856 14.769 12.188 20.438-1.8047 1.8047-3.2812 3.6888-3.2812 4.1868 0 0.49807-0.85083 1.1756-1.8907 1.5057-1.0399 0.33005-2.7398 2.2644-3.7776 4.2986l-1.8868 3.6985 11.982-0.21623 11.982-0.21622-0.17051-8.9411zm-35.06 5.9297-2.2728-2.473 3.75 0.57935c2.0625 0.31864 4.9777 0.86076 6.4782 1.2047l2.7282 0.62537-2.7282-3.4637c-1.5005-1.905-4.0944-4.3188-5.7642-5.364s-4.4051-4.1892-6.0784-6.9868c-3.4279-5.7311-4.0674-6.0975-4.7165-2.7023-1.347 7.0463 4.9537 21.053 9.4703 21.053 1.031 0 0.79976-0.65991-0.86655-2.473zm-58.523-3.5622c16.751-4.7161 34.219-12.737 34.219-15.714 0-0.41303 0.58952-0.75097 1.31-0.75097 0.72054 0 3.499-1.793 6.1744-3.9844 29.082-23.821 43.889-56.519 43.196-95.391-0.37-20.427-8.65-43.994-22.59-64.258-10.58-15.38-39.91-36.733-55.78-40.611-2.05-0.498-6.67-1.736-10.28-2.751-27.45-7.7137-63.198-2.0835-90.966 14.328-10.101 5.971-22.952 17.48-29.323 26.263-1.87 2.578-3.696 4.902-4.057 5.164-0.837 0.607-6.96 11.239-9.926 17.235-25.634 51.82-3.516 119.15 48.953 149.02 2.5809 1.4692 5.1145 3.012 5.6301 3.4284 1.9578 1.5809 17.038 7.347 20.625 7.8864 2.0625 0.31012 4.8075 0.99018 6.1 1.5112 9.4844 3.8236 40.955 3.0598 56.712-1.3763zm-54.468-14.693c-3.5256-1.4122-6.7391-2.3644-7.1412-2.1158-0.40211 0.24852-1.8921-0.17709-3.3112-0.9458-1.419-0.76871-5.8065-2.8976-9.7498-4.7308-11.544-5.3668-29.503-20.044-35.283-28.836-0.88516-1.3464-2.9275-4.285-4.5386-6.5302-13.159-18.34-19.328-46.45-15.396-70.17 9.323-56.261 67.13-92.834 123.79-78.328 10.792 2.7628 21.332 7.733 31.005 14.621 1.42 1.005 2.97 1.827 3.44 1.827 2.9655 0 19.598 18.468 25.119 27.891 0.98182 1.6758 2.052 3.0469 2.3781 3.0469 0.32614 0 1.3637 1.793 2.3057 3.9844 0.94201 2.1914 2.6652 6.1496 3.8292 8.7959 1.1641 2.6463 2.4114 6.4432 2.7718 8.4375 0.36043 1.9943 1.0034 4.3023 1.4287 5.1289 0.42535 0.8266 1.0317 5.2328 1.3474 9.7917 0.31573 4.5588 0.90703 8.945 1.314 9.7471 0.98665 1.9445-0.44709 15.656-2.3056 22.049-0.817 2.8104-1.6903 6.2396-1.9407 7.6204-0.25038 1.3808-1.4728 4.9282-2.7166 7.8832-1.2437 2.955-2.4536 6.4327-2.6885 7.7284-0.75575 4.1678-11.686 18.922-21.36 28.834-7.1848 7.3612-25.74 19.097-30.391 19.223-0.55143 0.0149-2.1335 0.76802-3.5156 1.6736-1.3822 0.90564-2.513 1.4446-2.513 1.1978 0-0.24683-1.637 0.1288-3.6378 0.83473-12.285 4.3343-42.809 5.1191-52.236 1.3431zm27.534-3.1785c-0.2298-2.7766-1.3673-2.9166-4.2382-0.52166-2.8612 2.3869-2.6673 2.8654 1.1614 2.8654 2.9155 0 3.2497-0.25455 3.0768-2.3438zm-19.94-0.47151c0.3196-0.51713 0.29386-2.8557-0.0572-5.1969-0.69994-4.6675-2.56-5.2398-3.0646-0.94293-0.58619 4.9915 1.4078 8.9131 3.1218 6.1398zm29.159-1.2499c2.9911-2.5728 2.3628-4.3723-1.5265-4.3723-1.7338 0-3.077 0.65923-3.6947 1.8134-2.5843 4.8288 0.70703 6.4419 5.2212 2.5589zm3.652 1.2527c-0.31868-0.51563-0.97639-0.9375-1.4616-0.9375-0.4852 0-0.88217 0.42187-0.88217 0.9375 0 0.51562 0.65771 0.9375 1.4616 0.9375 0.80387 0 1.2008-0.42188 0.88217-0.9375zm-24.6-2.3817c3.0812-2.8571 3.3648-6.5012 0.62028-7.97-3.4215-1.8311-4.6142-0.49575-4.6142 5.166 0 5.8678 0.39258 6.1434 3.994 2.804zm41.38-4.3349c-0.8545-1.3826-3.0909-0.838-4.0698 0.99102-0.75791 1.4162-0.52794 2.0563 1.1389 3.1702 2.105 1.4067 4.3778-1.8201 2.9309-4.1612zm-58.05 1.53c4.6575-4.6575 4.456-6.485-0.62537-5.6724-5.7062 0.91246-9.5824 6.03-6.1946 8.1785 2.1438 1.3596 3.4251 0.88883 6.82-2.5061zm49.724 1.4318c2.1522-2.3782 1.3939-3.1601-2.2819-2.3527-2.8966 0.63622-3.8878 2.7329-1.7077 3.6126 1.9413 0.78333 2.2202 0.69525 3.9896-1.2599zm-20.319-4.4474c2.4071-1.9336 4.5875-3.7794 4.8453-4.1019 0.25781-0.32247 3.2059-3.6136 6.5513-7.3137 12.621-13.959 12.383-28.338-0.85212-51.379-3.3012-5.747-6.6978-8.2032-5.2106-3.768 0.38904 1.1602 0.81929 3.9509 0.95613 6.2017 0.1917 3.1532 0.88448 4.673 3.0187 6.6222 2.873 2.6241 6.401 11.339 5.5199 13.635-0.27664 0.72093-0.0847 3.9981 0.42673 7.2826 0.81098 5.2091 0.68876 6.534-0.95685 10.373-2.5024 5.8378-3.2844 5.554-2.524-0.91589l0.62493-5.3171-1.9772 2.5136c-2.47 3.1401-3.3667 2.6185-4.1793-2.4311-0.74941-4.6567-2.4933-7.7151-5.2361-9.183-1.7953-0.96081-1.7552-0.74442 0.46875 2.5284 2.7046 3.9802 3.0901 8.8966 1.1243 14.337-1.3954 3.8619-3.6285 5.0609-3.3568 1.8023 0.36844-4.4189 0.11205-4.744-2.3354-2.9613-1.9025 1.3858-2.2164 2.2246-1.7707 4.7313 0.70137 3.9443-0.21002 3.8848-7.1824-0.46875-6.9043-4.311-12.563-13.999-11.965-20.485 0.28-3.0371 0.47754-3.3386 1.1668-1.781 0.45634 1.0312 1.4017 2.7702 2.1009 3.8644l1.2712 1.9894 2.7833-2.6c3.7858-3.5364 3.6516-7.238-0.31551-8.7034-1.2652-0.46737-1.4704-1.0222-0.81256-2.1977 0.63292-1.131 0.39345-2.0946-0.85304-3.4326-2.3378-2.5093-4.2008-0.9164-4.8838 4.1759-0.83669 6.238-2.5402 6.751-2.5341 0.76322 0.0127-12.402 10.923-26.9 26.245-34.876 9.0388-4.7048 13.425-7.8965 12.626-9.1884-0.76196-1.2329-4.0437 0.15569-5.4536 2.3076-0.74362 1.1349-3.0896 2.6369-5.2133 3.3378-2.1237 0.70088-4.3444 1.8564-4.9348 2.5678-0.68473 0.82504-2.0039 1.0891-3.6426 0.72916-3.3087-0.72671-8.3191 3.4793-11.04 9.2676-1.0541 2.2424-3.7645 5.9289-6.0231 8.1921-3.8759 3.8838-6.8414 9.5427-5.8453 11.154 0.24821 0.40163-0.16356 2.2018-0.91505 4.0003-1.0122 2.4226-1.1321 4.0869-0.46253 6.4215 0.4971 1.7333 0.90382 3.2597 0.90382 3.392 0 0.13231-1.0547 0.24056-2.3438 0.24056-2.9591 0-2.9946 1.2329-0.0903 3.1359 1.2394 0.81209 3.5495 3.7083 5.1336 6.436 3.1274 5.3852 13.337 16.605 16.788 18.448 2.2116 1.1815 3.8982 0.68551 9.2979-2.734 4.8181-3.0512 3.6892 2.0752-1.6429 7.4609-6.5542 6.62-4.3066 11.553 2.6996 5.9249zm-39.77 1.053c1.27-3.3095-2.4045-5.1162-5.5961-2.7516-1.7982 1.3323-1.7976 1.3653 0.05519 2.7827 2.4603 1.8822 4.8118 1.869 5.5409-0.031zm74.07 0.95603c0.81562-0.31298 1.4829-0.97513 1.4829-1.4715 0-1.3036-3.9991-0.52433-4.4578 0.86863-0.42028 1.2762 0.65323 1.4937 2.9749 0.60283zm-17.789-4.9969c1.7143-1.8943 1.2998-3.8091-0.82456-3.8091-1.8054 0-3.637 2.5631-3.0063 4.2068 0.73012 1.9026 1.8547 1.7859 3.8308-0.39775zm-67.137-1.4896c0.96651-2.1212 0.83302-2.48-1.2812-3.4433-3.3035-1.5052-4.9363 0.13387-3.4289 3.4421 1.3785 3.0255 3.3319 3.026 4.7101 0.00093zm80.257-0.64486c1.3173-1.8807 1.313-2.1541-0.0457-2.9145-1.9078-1.0676-4.6045 1.422-3.8029 3.5109 0.78873 2.0554 2.1377 1.8464 3.8487-0.5964zm-6.9723-0.32374c0-0.80387-0.42188-1.2008-0.9375-0.88217-0.51563 0.31868-0.9375 0.97639-0.9375 1.4616 0 0.48519 0.42187 0.88217 0.9375 0.88217 0.51562 0 0.9375-0.65771 0.9375-1.4616zm22.229 0.32477c3.6028-1.3028 3.8394-3.8425 0.40363-4.331-2.3184-0.32963-7.022 3.2437-6.1426 4.6666 0.67196 1.0872 2.0226 1.0083 5.739-0.33558zm-79.632-0.91397c-0.57748-1.7324-2.0343-1.8534-4.0418-0.33542-1.7424 1.3175-1.676 1.3906 1.2879 1.4189 2.0055 0.0191 2.9921-0.36902 2.7539-1.0835zm72.168-0.9961c-0.44239-1.3272-1.95-1.1813-2.4219 0.23438-0.17188 0.51562 0.39062 0.9375 1.25 0.9375s1.3867-0.52734 1.1719-1.1719zm21.288-6.4063c3.9134-4.1298 2.9145-4.8871-1.7517-1.328-1.69 1.2891-3.5603 2.3438-4.1562 2.3438-0.59586 0-1.0834 0.80425-1.0834 1.7872 0 2.6796 2.8964 1.5183 6.9912-2.8029zm-116.01 2.3009c0.63343-1.9003-5.947-4.328-8.095-2.9865-1.6125 1.0071-1.6908 1.3662-0.56799 2.6066 1.4968 1.6535 8.1414 1.9449 8.663 0.37999zm40.116 0.58983c0.31868-0.51563-0.26435-0.9375-1.2956-0.9375s-2.1357 0.42187-2.4544 0.9375c-0.31868 0.51562 0.26435 0.9375 1.2956 0.9375s2.1357-0.42188 2.4544-0.9375zm-22.584-1.7819c2.2992-2.5406 0.27061-3.3986-3.1951-1.3513-1.565 0.91-2.831 1.99-2.831 2.4 0 1.4646 4.4361 0.69202 6.0095-1.0466zm79.997-0.77023c0.17725-0.53176-0.38938-1.2399-1.2592-1.5737-1.9884-0.76302-5.6583 2.2394-3.9943 3.2678 1.3123 0.81106 4.7925-0.31117 5.2535-1.6941zm-65.383 0.0247c1.6694-1.5659-7.9089-3.5265-11.005-2.2526-0.12386 0.0509 0.50895 0.95397 1.4062 2.0067 1.5187 1.7818 7.79 1.9425 9.5987 0.24595zm50.085-0.90241c0.29758-0.77546-0.077-2.2923-0.83231-3.3707-1.0466-1.4942-1.4713-1.6434-1.7849-0.62695-0.22633 0.73358-0.66429 2.1101-0.97324 3.059-1.0987 3.3744 2.3134 4.2664 3.5904 0.93862zm4.9699-0.94805c0.20276-0.60901-0.36546-0.98948-1.2777-0.85559-0.90358 0.13262-1.8198 0.77189-2.036 1.4206-0.23985 0.71957 0.25839 1.0532 1.2778 0.85559 0.919-0.17815 1.8352-0.81743 2.036-1.4206zm14.888-1.9306c-0.95299-0.95298-1.7393 0.48177-0.95739 1.7469 0.59065 0.95571 0.81148 0.95645 1.129 0.004 0.21712-0.65136 0.13988-1.4392-0.17164-1.7507zm-111.27-1.33c1.0337-1.1096 3.4714-2.2761 5.4171-2.5924 2.3158-0.37643 3.6458-1.1367 3.8508-2.2014 0.64104-3.3287-7.6973-1.0735-8.5853 2.322-0.35925 1.3738-0.97795 1.6875-2.4232 1.2288-3.0257-0.96031-6.0531 0.28798-4.6879 1.933 1.5923 1.9186 4.2656 1.6316 6.4285-0.68996zm120.77 1.0927c0.64454-0.007 1.1719-0.85655 1.1719-1.8878 0-2.111-0.70416-2.2738-4.1577-0.9607-3.0898 1.1748-3.3546 4.2464-0.29541 3.4266 1.1602-0.31092 2.6367-0.57106 3.2812-0.5781zm-99.269-2.4372c1.7962-0.57682-0.4431-3.2006-2.7315-3.2006-1.694 0-4.6397 2.3203-4.6397 3.6546 0 0.68247 4.7417 0.39039 7.3712-0.45404zm109.11-1.3128c0.38672-0.007 0.70313-0.88457 0.70313-1.9501 0-2.9884-5.0405-2.163-5.473 0.89627-0.27446 1.9412-0.0242 2.1619 1.875 1.6534 1.2054-0.32275 2.5081-0.59259 2.8948-0.59963zm-97.331-0.84407c0.91512-1.4807-2.0092-3.022-4.5322-2.3887-1.3384 0.33591-2.4334 0.95596-2.4334 1.3779 0 1.4693 6.1322 2.3592 6.9656 1.0108zm81.984-0.50575c3.7223-0.86982 6.7396-3.2642 15.385-12.208 9.3081-9.6298 9.9141-13.907 1.3569-9.5779-5.724 2.8961-9.5797 3.1995-10.894 0.85742-0.87184-1.553-1.0824-1.5456-3.9423 0.13907l-3.0213 1.7797 0.55137-2.1084c1.034-3.9539-2.6538-8.6224-4.4787-5.6697-0.97731 1.5813-5.1562 1.114-5.1562-0.57657 0-1.3909-0.18669-1.3918-2.2946-0.0106-2.2442 1.4705-5.2054 1.2141-5.2054-0.45063 0-0.46046-1.0547-0.8372-2.3438-0.8372-1.7311 0-2.3438 0.49799-2.3438 1.9051 0 1.0478-0.53909 3.2626-1.198 4.9219-0.90488 2.2787-0.96021 4.2227-0.22614 7.946l0.97183 4.9293 3.4398-3.4398c3.6116-3.6116 13.981-5.4314 20.963-3.6789 5.1302 1.2876 0.26021 4.2889-6.9865 4.3058-8.4994 0.0198-9.6625 0.92885-5.7548 4.498 4.0145 3.6666 3.0286 5.4627-1.6285 2.9667-5.7326-3.0725-10.518-1.8694-10.518 2.6443 0 1.6216 8.2846 2.0927 12.436 0.70709 2.1835-0.72877 5.6576-1.5964 7.7201-1.9282l3.75-0.60316-3.0469 2.0362c-4.3644 2.9168-4.2042 3.0111 2.4655 1.4526zm-121.67-1.21c3.3854-1.9998 3.4735-3.7776 0.24791-5.004-1.9023-0.72324-2.8412-0.60942-4.0582 0.49196-1.9945 1.805-3.7794 1.8437-3.7794 0.082 0-1.9951-1.7983-2.7524-2.4574-1.0348-1.4304 3.7275 6.0762 7.8105 10.047 5.4648zm63.478-2.33c1.608-1.608 1.39-2.625-0.5625-2.625-0.92812 0-2.1654-0.47789-2.7495-1.062-0.58409-0.58409-1.8286-0.76411-2.7656-0.40003-1.5391 0.59803-1.4496 0.88168 0.92676 2.937 2.993 2.5887 3.581 2.7199 5.1508 1.15zm-30.552-4.1623c2.9522-0.4478 6.5041-2.7223 5.3258-3.4104-0.20238-0.11818-1.7185-1.1601-3.369-2.3153-2.4074-1.6849-3.4738-1.9207-5.3906-1.1919-2.9687 1.1287-3.305-0.73851-0.57751-3.2069 1.2819-1.1601 2.6133-1.4639 4.5506-1.0384 3.3417 0.73397 5.8331-2.3484 5.8105-7.1887-0.0228-4.8886-1.4907-6.3874-3.5962-3.6717-1.4684 1.894-2.0191 2.0616-3.7429 1.139-1.7758-0.95038-2.3744-0.6794-4.931 2.2324-2.0532 2.3384-3.6967 3.3141-5.5826 3.3141-1.634 0-3.6279 0.95517-5.1304 2.4576-2.0559 2.0559-3.0529 2.3778-6.0997 1.9691-2.4753-0.332-3.9909-0.0682-4.731 0.82362-0.59893 0.72166-1.6701 1.3121-2.3804 1.3121s-1.2915 0.59114-1.2915 1.3136c0 1.8777 6.1298 5.2397 9.663 5.2998 1.6463 0.028 4.8917 0.84563 7.212 1.8168 4.0735 1.705 5.1262 1.7305 14.261 0.3449zm110.25-0.37c3.2376-1.9739 3.5486-3.9556 0.7074-4.5064-1.8501-0.35869-6.1668 3.2603-6.1668 5.1701 0 1.7617 1.8502 1.5368 5.4594-0.66372zm-149.52-3.99c0.93694 0.57907 0.18205-1.0493-1.4908-3.2156-0.96982-1.256-6.3222 0.86126-6.3222 2.5008 0 3.1595 1.0902 3.6822 3.9952 1.9156 1.597-0.97117 3.315-1.5115 3.8178-1.2008zm159.06-5.17c0-1.1531-0.33749-1.1008-1.875 0.29061-1.0312 0.93327-1.875 2.3297-1.875 3.1031 0 1.1531 0.33749 1.1008 1.875-0.29061 1.0312-0.93327 1.875-2.3297 1.875-3.1031zm-162.59-2.1c4.2486-2.9231 5.4458-5.5812 2.5127-5.5784-1.4274 0.00093-8.6719 6.647-8.6719 7.9551 0 1.1627 2.311 0.27091 6.1592-2.3767zm73.346-1.08c1.4854-1.4854 1.43-4.0173-0.11605-5.3004-1.8267-1.516-3.1924 0.31868-2.7057 3.6348 0.44454 3.0288 1.0822 3.4052 2.8218 1.6656zm-59.812-1.7428c0-0.4852-0.84375-0.88217-1.875-0.88217-2.0682 0-2.5532 1.4755-0.70312 2.1391 1.4181 0.50868 2.5781-0.0569 2.5781-1.2569zm148.94-1.3616c1.5532-1.472 0.63948-3.2706-1.6616-3.2706-2.1192 0-5.1698 3.2942-4.3217 4.6666 0.73326 1.1864 4.0829 0.40494 5.9832-1.396zm-170.51-1.59c0-1.5145-0.27723-1.7853-1.0433-1.0192-0.57382 0.57381-0.75986 1.5019-0.41342 2.0625 0.97 1.57 1.457 1.23 1.457-1.04zm31.605 0.54638c0.33479-1.0214-5.2253-2.676-6.0893-1.8121-0.23916 0.23916-0.17417 1.1141 0.14441 1.9443 0.65556 1.7084 5.376 1.6034 5.9448-0.13222zm-10.746-3.5931c3.2321-0.69139 3.3244-2.6873 0.19026-4.1153-5.3159-2.4221-9.7393-0.28893-7.8769 3.7986 0.9204 2.02 1.4845 2.3219 3.1162 1.6674 1.0958-0.43956 3.1525-1.0474 4.5705-1.3507zm126.33 0.46868c0-1.4242-1.2564-1.8172-2.9358-0.91849-2.5134 1.3451-2.1593 2.5644 0.59201 2.0385 1.2891-0.24642 2.3438-0.75041 2.3438-1.12zm-111.5-0.08c5.0606-2.7084 1.2486-6.7566-4.3558-4.6258l-2.5413 0.96618 2.1749 2.3151c2.5033 2.6647 2.3416 2.6186 4.7222 1.3446zm121.53-0.81c1.5492-2.4806-1.0884-4.8172-4.6573-4.1257-4.482 0.86835-4.1177 4.3418 0.55069 5.2506 1.1227 0.21855 2.2562 0.45481 2.5189 0.52503 0.26269 0.0702 0.97716-0.67224 1.5877-1.6499zm-112.75-0.97c1.2322-1.3616 1.4001-2.2289 0.68032-3.515-0.69984-1.2506-0.59092-2.1103 0.40705-3.2131 1.4928-1.6495 0.86417-4.5893-0.98138-4.5893-2.3096 0-4.492 3.4468-3.434 5.4238 0.53858 1.0064 0.84249 1.9907 0.67536 2.1874-2.9383 3.4581-0.37016 7.0464 2.6526 3.7063zm69.91 0.87c0-0.51563-0.42188-0.9375-0.9375-0.9375-0.51563 0-0.9375 0.42187-0.9375 0.9375 0 0.51562 0.42187 0.9375 0.9375 0.9375 0.51562 0 0.9375-0.42188 0.9375-0.9375zm-118.64-1.94c-0.80366-1.3004-1.3662-1.0579-1.3662 0.58886 0 0.80387 0.42876 1.1966 0.95279 0.87272 0.52404-0.32387 0.71008-0.98158 0.41342-1.4616zm10.655-3.6422c0.4562-4.6633-1.3596-5.6765-2.5362-1.4152-0.5376 1.947-0.74367 3.9183-0.45794 4.3806 1.0436 1.6886 2.6992 0.0489 2.9941-2.9654zm73.32 1.9969c1.7727-1.4354 1.9711-2.1327 1.2352-4.3405l-0.87678-2.6303-2.6577 2.286c-4.3554 3.7464-2.1332 8.274 2.2993 4.6848zm37.705-0.53241c1.8723-1.4213 2.1563-3.8906 0.56091-4.8766-1.2871-0.79549-3.6078 2.09-3.6078 4.4858 0 1.9959 0.79762 2.0982 3.0469 0.39077zm18.516-0.15653c0-0.22738-0.42188-0.41342-0.9375-0.41342-0.51563 0-0.9375 0.44677-0.9375 0.99283s0.42187 0.7321 0.9375 0.41342c0.51562-0.31868 0.9375-0.76545 0.9375-0.99283zm9.4493-0.28508 2.157-1.7467-2.0436-1.0937c-2.9392-1.573-8.2349 1.8524-6.1252 3.962 1.1456 1.1456 3.8304 0.64471 6.0118-1.1217zm-144.91-2.05c0.672-2.12-0.927-4.64-2.942-4.64-1.5291 0-1.6117 0.91068-0.37716 4.1577 1.1016 2.8973 2.4887 3.1 3.3187 0.48479zm174.88-0.18939c2.1993-2.6363 2.3216-5.9358 0.2494-6.731-2.1377-0.82029-3.7875 1.1075-4.557 5.3248-0.76779 4.2079 1.3843 4.9105 4.3076 1.4062zm-164.58-5.2346v-5.3123l2.9615 0.28292c3.6886 0.35237 4.7418-1.1121 2.1204-2.9482-5.2821-3.6997-9.8929 2.0432-7.611 9.4796 1.8158 5.9174 2.529 5.4938 2.529-1.5021zm105.5 0.78c0.49916 0 0.90756-0.42188 0.90756-0.9375 0-1.5084-1.729-1.0835-3.7287 0.91624-1.1104 1.1104-1.6158 2.4738-1.2603 3.4001 0.49077 1.2789 0.81653 1.1205 1.8837-0.91623 0.70966-1.3544 1.6987-2.4626 2.1978-2.4626zm51.028 3.4235c1.7612-1.2878 1.3014-3.4477-0.72251-3.3937-1.8671 0.0499-4.6257 2.593-3.9676 3.6578 0.83851 1.3567 2.6098 1.257 4.6901-0.26416zm-91.283-2.7204c1.1493-1.6758 3.1554-4.207 4.458-5.625 1.6051-1.7473 1.9342-2.5685 1.021-2.5483-1.9475 0.0431-4.0227 1.8784-6.0615 5.3608-0.98109 1.6758-2.1147 3.0469-2.5192 3.0469-0.40445 0-0.73537 0.63281-0.73537 1.4062 0 2.2981 1.6069 1.611 3.837-1.6406zm51.007 2.1094c-0.31868-0.51563-0.97639-0.9375-1.4616-0.9375-0.4852 0-0.88217 0.42187-0.88217 0.9375 0 0.51562 0.65771 0.9375 1.4616 0.9375 0.80387 0 1.2008-0.42188 0.88217-0.9375zm-93.9-4.7853c-1.6943-1.6943-2.2649-1.8051-4.1368-0.80329l-2.1714 1.1621 2.7485 2.1916c3.7639 3.0012 6.8792 0.76916 3.5597-2.5504zm-9.8327 3.016c1.0026-0.63531 0.85189-1.0941-0.72119-2.1959-2.2708-1.5906-6.6399-1.1138-6.6399 0.72456 0 1.896 5.0866 2.9127 7.3611 1.4714zm129.94-0.43c1.794-1.3118 1.2934-3.4235-0.81158-3.4235-0.66309 0-1.9047 0.77252-2.7592 1.7167-2.5219 2.7866 0.26941 4.1208 3.5708 1.7068zm-64.995-1.7044c-0.78878-2.1323-4.4204-4.0506-5.2198-2.7572-0.64207 1.0389 2.9846 4.7882 4.6316 4.7882 0.98002 0 1.1379-0.54508 0.58821-2.031zm47.687 1.0518c1.1751-0.79422 0.87262-1.4083-1.8406-3.7365-2.9397-2.5225-3.3832-2.6474-4.6875-1.32-2.44 2.4832 3.513 7.0943 6.5281 5.0565zm-76.759-2.3741c1.6024-0.99033-0.22473-2.2718-3.2187-2.2574-3.5256 0.0169-5.8265 1.2448-4.9599 2.647 0.59473 0.96229 6.4419 0.68375 8.1786-0.38961zm105.66-3.5494c0.35086-1.7765-1.8479-2.0284-4.644-0.53194-1.4562 0.77936-1.6362 1.2893-0.80722 2.2882 1.3404 1.6151 5.0195 0.42986 5.4512-1.7562zm-16.475 0.91013c1.091-0.82818 1.6406-2.527 1.6406-5.0711 0-4.8902 1.4664-5.7642 4.3868-2.6145l2.3121 2.4934 3.8473-2.142c9.048-5.0375 3.198-18.548-8.0312-18.548-3.0279 0-6.7439-3.0249-6.0232-4.903 0.41822-1.0898 1.5513-1.3436 4.6095-1.0324 2.8045 0.28543 4.9697-0.10903 7.0213-1.2791 1.6315-0.93047 4.6901-2.6496 6.7969-3.8202 6.11-3.3951 2.5575-13.453-4.2893-12.144-2.2806 0.43596-2.2297 0.18582 0.87323-4.2931 1.6928-2.4435 1.7127-2.7482 0.28284-4.3281-2.7312-3.018-9.2415-0.14893-13.126 5.7848-2.5197 3.8484-3.6633 3.2184-3.1076-1.7119 0.32605-2.8927 1.2818-5.1232 2.9344-6.8482 3.0482-3.1816 3.0337-4.1403-0.14914-9.8687-3.6062-6.4903-6.0958-7.1578-10.158-2.7234l-3.2 3.47-3.27-3.569c-2.1602-2.3584-3.7765-3.3747-4.7642-2.9957-0.82215 0.31549-2.3041 0.57361-3.2931 0.57361-2.4519 0-2.2572 1.3736 0.5656 3.9911 1.5852 1.4699 2.7456 4.0302 3.5227 7.7723 1.3866 6.6775 2.2599 8.2364 4.1977 7.4928 3.803-1.4594 6.9099 5.2989 5.2623 11.447-0.87416 3.2619-1.7673 2.5331-3.1591-2.5781-0.70205-2.5781-1.5936-4.6875-1.9813-4.6875-1.2579 0-1.9849 3.9088-0.92434 4.9694 5.0513 5.0513-3.4992 10.638-8.9952 5.8771-3.4552-2.993-1.8854-5.2985 2.4846-3.649 3.9719 1.4992 4.2546 0.4011 0.8113-3.1515-2.32-2.396-2.65-3.109-1.4-3.109 1.5037 0 1.5088-0.1571 0.0761-2.3438-0.84462-1.2891-2.274-2.3438-3.1764-2.3438-0.90241 0-2.7325-0.85879-4.0669-1.9084-8.6206-6.781-15.537-1.5023-11.751 8.9681 1.1372 3.145 1.0763 3.5058-0.83838 4.9628-5.3458 4.0681 2.5353 12.161 11.95 12.272l3.2812 0.0386-2.1606-1.6625c-3.5468-2.729-0.32095-4.9193 6.0148-4.0839l4.7917 0.63179-1.3042 4.4523c-1.33 4.5403-6.1898 8.089-9.3939 6.8594-0.6676-0.25618-3.9594 1.2846-7.3152 3.424-9.0548 5.7727-8.0303 10.558 2.1236 9.9183l4.4313-0.27905v4.9842c0 5.714 1.3361 7.0767 6.0199 6.1399 4.7922-0.95843 7.8949-5.4847 7.2059-10.512-0.62368-4.5502 0.68445-10.726 2.9041-13.71 1.2995-1.7472 1.367-1.4558 0.8274 3.5735-0.52554 4.8984-0.4373 5.3256 0.83697 4.0513 0.78344-0.78345 1.4244-2.0529 1.4244-2.821 0-5.0626 2.0176-5.4188 4.7959-0.84676 1.175 1.9336 2.5805 3.84 3.1233 4.2366 1.34 0.97876-2.0545 3.531-3.8036 2.8598-3.5506-1.3625-5.8092 7.3386-2.9278 11.279 2.748 3.7581 8.3134 5.271 11.234 3.0538zm-23.551-18.911c-1.961-2.493-1.8002-4.3682 0.61612-7.1837 2.1162-2.4658 3.0134-1.13 3.0134 4.4864 0 5.6608-0.8195 6.2698-3.6296 2.6973zm19.747-2.5607c-2.1064-2.2422-2.7315-5.7572-1.1929-6.7081 0.47433-0.29316 1.6952 0.52569 2.713 1.8197s2.5796 2.3527 3.4707 2.3527c1.458 0 1.4834 0.20579 0.25359 2.058-1.9206 2.8926-2.8926 2.9811-5.2444 0.47772zm1.67-13.15c0-2.0624 2.0182-3.31 6.5182-4.0296 4.5563-0.72857 4.656 0.54585 0.21922 2.8021-4.5383 2.3079-6.7374 2.7085-6.7374 1.2276zm-3.75-5.266c0-0.97217 6.5827-6.6308 7.7136-6.6308 1.5777 0 0.58503 2.5947-1.9055 4.9809-2.57 2.47-5.81 3.39-5.81 1.66zm-2.2784-3.1151c0.414-1.1602 0.77961-4.6406 0.81246-7.7344 0.0675-6.3611 1.5108-8.223 2.5435-3.2812 0.71438 3.4185 0.3818 6.1859-1.2675 10.547-1.1767 3.1114-3.1931 3.564-2.0885 0.46875zm-135.7 41.255c-0.47092-3.3158-5.4558-3.5869-5.4558-0.29664 0 2.0605 0.41329 2.406 2.8777 2.406 2.448 0 2.833-0.31494 2.5781-2.1094zm39.31-0.42859c0.645-1.38 1.172-3.07 1.172-3.74 0-1.7213 3.6926-1.5223 4.367 0.23528 0.64636 1.6844 5.0181 1.1205 8.5236-1.0995 5.8534-3.7069-1.0764-18.058-7.4789-15.488-5.1273 2.058-5.8415 2.1547-8.4864 1.1491-1.8237-0.69337-2.5503-1.6282-2.5503-3.2812 0-3.3238 1.4203-3.7246 3.2583-0.91946 1.2121 1.8499 2.0693 2.274 3.6182 1.7902 1.1164-0.34873 2.8735-0.73993 3.9048-0.86935 3.1092-0.39019 1.6653-1.8859-2.9596-3.0657-3.9096-0.99733-5.8912-2.4021-5.9323-4.2053-0.05826-2.5511 10.093-1.6828 14.193 1.214 9.0158 6.3709 17.424-7.1253 9.6221-15.444-3.9267-4.1866-4.1479-4.6744-2.7966-6.1676 2.9-3.2 1.51-7.567-2.41-7.567-6.079 0-14.87 5.906-14.87 9.989 0 1.2771-0.49289 3.243-1.0953 4.3687-1.8947 3.5403-1.5569 7.1836 0.62657 6.7573 5.7325-1.1194 7.9421-1.2912 8.3393-0.64857 0.83547 1.3518-0.8409 2.7127-4.1205 3.345-1.8047 0.34797-4.4836 0.8822-5.9531 1.1872l-2.6719 0.55451 0.32811-5.2777c0.18046-2.9027 0.0117-5.2771-0.37502-5.2764-1.3656 0.0028-0.66733-2.6247 2.5462-9.5798 4.7068-10.187 5.1356-13.962 1.8773-16.525-4.687-3.689-9.902-2.418-13.211 3.217-1.16 1.975-5.041-0.276-5.041-2.923 0-2.0294-5.9145-2.5952-7.3014-0.6985-1.7207 2.3532-1.0268 6.13 1.342 7.304 4.939 2.449 6.088 5.142 2.193 5.142-2.2645 0 2.6284 12.455 5.0906 12.959 1.2783 0.26125 1.2297-0.27982-0.35827-3.9844-1.5229-3.5527-1.6024-4.2867-0.46455-4.2867 0.75511 0 1.3729 0.44677 1.3729 0.99283s0.37407 0.76164 0.83128 0.47907c3.0428-1.8805 5.2471 7.5349 2.4248 10.357-1.2752 1.2752-2.3186 2.6516-2.3186 3.0585 0 0.40695-1.1602 1.8379-2.5781 3.1799-1.418 1.342-3.1221 3.0992-3.787 3.905-0.66486 0.80573-1.9874 1.465-2.9391 1.465-0.95162 0-2.3635 0.96657-3.1376 2.1479-0.77406 1.1814-3.3054 4.1009-5.6253 6.4878-4.1209 4.2401-4.1665 4.3528-1.9817 4.9012 2.6845 0.67376 2.9826 2.4005 0.41439 2.4005-1.002 0-2.4852 0.94703-3.2959 2.1045-2.0292 2.8971 1.529 4.1746 7.4646 2.68 5.8443-1.4716 6.0907-1.3857 6.0907 2.1241 0 2.8931 0.2803 3.2041 3.3353 3.6998 5.6307 0.91374 6.248 0.23607 6.248-6.8584 0-3.2144-0.15723-3.518-2.0833-4.0216-2.4007-0.62779-2.3713-2.7988 0.10732-7.9188 2.4577-5.0769 1.7722-6.2114-1.0217-1.6908-4.2191 6.8267-8.4802 6.6542-5.5434-0.22438 2.7086-6.3442 5.9938-8.7277 3.6947-2.6807-1.1687 3.074-0.8106 3.0897 2.4092 0.10568 2.9381-2.7229 4.9188-1.8438 3.1773 1.4102-1.5445 2.886-0.53361 3.3929 2.0206 1.0132 2.3082-2.1504 4.531-0.85463 4.531 2.6415 0 0.77056 0.93816 2.3996 2.0848 3.6202 1.7678 1.8817 1.8747 2.352 0.70312 3.0929-1.9971 1.2629-2.4883 1.138-4.7447-1.2069l-2.0298-2.1094 0.5227 7.3711c0.75481 10.644 7.4227 16.43 10.729 9.3097zm-7.654-39.514c-0.572-0.927-1.525-12.318-1.03-12.318 0.17998 0 0.9858-0.25271 1.7907-0.56158 1.2292-0.47167 1.4072 0.16622 1.1122 3.9844-0.19318 2.5003 0.07372 5.0679 0.5931 5.7059 1.0589 1.3006 0.34678 3.9963-1.0557 3.9963-0.50138 0-1.136-0.36313-1.4103-0.80696zm32.076 36.132c-0.15477-1.0435-0.75003-2.0514-1.3228-2.2397-1.4204-0.46708-4.3834 4.2373-3.7342 5.929 0.82144 2.1406 5.4237-1.2168 5.057-3.6892zm45.616 4.1144c0.29666-0.48 0.10685-1.14-0.42181-1.4668-1.3365-0.82602-4.8418 0.4051-4.1839 1.4695 0.69702 1.1278 3.9082 1.1259 4.6057-0.003zm-119.67-1.97c2.3501-2.1895 2.7934-6.526 0.66714-6.526-1.4939 0-3.662 2.935-4.6747 6.3281-0.81161 2.7194 1.1946 2.8185 4.0075 0.19785zm187.44-5.12c0.44557-3.9531 0.31345-4.3747-1.2761-4.0719-1.4644 0.27894-1.8222 1.3157-2.0546 5.9536-0.35535 7.092 2.5011 5.4782 3.3307-1.8818zm-8.5314 4.4299c1.5756-1.2647 1.8391-2.0822 1.2021-3.7292-1.5433-3.9904-5.5637-1.4946-5.5637 3.454 0 2.3488 1.6487 2.4528 4.3616 0.27515zm-69.049-0.68227c0-0.77344-0.42188-1.4062-0.9375-1.4062-0.51563 0-0.9375 0.63281-0.9375 1.4062 0 0.77344 0.42187 1.4062 0.9375 1.4062 0.51562 0 0.9375-0.63281 0.9375-1.4062zm-11.445-3.3176c0.65652-1.0512 1.5582-1.6861 2.0036-1.4108 0.44549 0.27533 2.2247-0.0986 3.9537-0.83105 2.3758-1.0064 2.7761-1.475 1.6388-1.9187-1.6236-0.63335-11.434 3.3164-12.493 5.0297-0.40178 0.65009 0.17362 1.0422 1.5295 1.0422 1.1955 0 2.7107-0.86012 3.3672-1.9114zm-15.508-6.1449c3.5869-5.9088 3.0396-8.2406-1.3869-5.9092-3.2869 1.7312-5.0288 7.4718-2.91 9.5905 1.115 1.115 1.6782 0.63248 4.2969-3.6813zm-79.766-1.7874c-0.43226-2.5917-1.1746-3.037-4.0233-2.4136-2.1224 0.46446-2.3491 0.83749-1.6476 2.7109 1.0924 2.9173 6.1627 2.6514 5.6708-0.29732zm70.639-3.2299c-1.5164-5.7486-2.396-6.9231-4.8358-6.4578-3.206 0.6114-2.5422 4.0463 1.588 8.218 4.7093 4.7566 4.9347 4.6344 3.2478-1.7602zm111.5 3.7773c1.31-2.13-1.29-5.71-4.14-5.71-3.3644 0-3.7529 1.8953-0.9607 4.6875 1.9905 1.9905 4.2301 2.4361 5.1076 1.0162zm-175.73-3.83c0-0.51563-0.42188-0.9375-0.9375-0.9375s-0.9375 0.42187-0.9375 0.9375 0.42188 0.9375 0.9375 0.9375 0.9375-0.42187 0.9375-0.9375zm82.3-2.9955c-1.6469-2.4804-3.5497-3.2785-3.5497-1.4889 0 1.6811 1.8848 3.5469 3.5831 3.5469 1.1423 0 1.1376-0.2945-0.0334-2.058zm-93.362-1.69c1.8697 0 1.9365-0.13533 1.1184-2.2671-0.77836-2.0284-2.1654-1.8599-4.2234 0.51308-1.8076 2.0842-1.4441 4.6155 0.39826 2.7732 0.56055-0.56055 1.7786-1.0192 2.7067-1.0192zm101.59-0.40564c1.404-1.0363 1.5665-1.6002 0.71095-2.4682-1.5437-1.5663-4.0474-0.38672-4.0474 1.907 0 2.249 0.85484 2.3929 3.3364 0.56128zm77.944-1.0926c0.36926-1.1078-7.4436-5.0642-10-5.0642-3.1249 0-2.8797 1.5101 0.50754 3.1254 1.7985 0.85765 3.4962 2.1488 3.7726 2.8691 0.55929 1.4575 5.1746 0.70691 5.7203-0.93029zm-96.458-1.9539c0.50504-3.5476-3.179-4.6506-4.3465-1.3014-1.0884 3.1223-0.56427 4.0086 2.1416 3.6213 1.1405-0.16325 2.0312-1.1005 2.2048-2.3199zm-63.887-2.8182c2.1597-1.7698 5.478-3.646 7.3738-4.1695l3.447-0.95176-3.1411-1.5698c-5.0196-2.5085-4.8552-5.261 0.27403-4.5885 4.0212 0.52727 4.0426 0.51542 1.5012-0.83127-2.578-1.3661-3.3051-2.7491-1.7546-3.3375 1.241-0.47093-0.54998-4.4851-2.3008-5.157-0.83731-0.32131-2.542-1.6038-3.7881-2.85-5.1433-5.1433-13.092 0.06284-9.4668 6.2003 1.5127 2.5608 1.5236 2.8894 0.13285 4.0166-5.3751 4.3564-6.963 7.4319-6.963 13.486 0 5.1534 8.2647 5.0142 14.686-0.24729zm169.06 1.5276c0-1.5773-0.3653-2.6421-0.81177-2.3661-0.75522 0.46674-0.34324 5.234 0.45231 5.234 0.1977 0 0.35946-1.2905 0.35946-2.8678zm-81.685-2.1403c0.57429-0.69197 0.79792-1.5044 0.49696-1.8053-1.2084-1.2084-1.3355-9.3717-0.16786-10.779 0.71056-0.85644 1.2001-3.997 1.2001-7.6992 0-12.259 5.9087-17.369 15.703-13.58 2.3768 0.91953 2.1955-3.4607-0.23437-5.6596-1.0618-0.96095-1.875-2.8875-1.875-4.4422 0-1.7771-0.41331-2.6092-1.1719-2.3594-1.7828 0.58714-1.9464 4.1731-0.29768 6.5269 3.4498 4.9253-1.2085 4.9581-5.7251 0.04027-2.7708-3.0169-3.1456-3.9631-2.642-6.6698 0.67-3.554-2.18-7.633-5.32-7.633-0.94 0-1.71-0.568-1.71-1.262 0-4.9713-3.8278-8.1204-6.9761-5.7392-1.0009 0.75704-2.5684 1.3764-3.4833 1.3764-0.91492 0-2.9582 1.2656-4.5406 2.8125s-3.2974 2.8125-3.811 2.8125-2.2302 1.4766-3.8148 3.2812c-1.5845 1.8047-3.4349 3.2812-4.112 3.2812-0.67706 0-1.4438 0.52734-1.7039 1.1719-0.37829 0.9375-0.48766 0.9375-0.54687 0-0.12692-2.0096-2.6385-1.2813-3.2331 0.9375-1.0559 3.94-0.59657 12.665 0.80865 15.362 0.87545 1.6797 1.1867 3.8301 0.83123 5.7424-0.32253 1.735-0.11606 3.6021 0.4774 4.3172 1.536 1.8508 5.7293 9.9142 5.7293 11.017 0 1.174 5.2781 5.7305 7.7551 6.6948 1.433 0.5579 1.7034 0.38984 1.2546-0.7798-0.31468-0.82003-0.57214-1.8953-0.57214-2.3894 0-0.49415-1.7527-2.5168-3.8948-4.4948-2.8134-2.5978-3.719-4.0545-3.2617-5.2462 0.6026-1.5703 0.72258-1.5689 2.4886 0.02925 2.3866 2.1598 2.8179-5.3691 0.45702-7.9778-1.5217-1.6814-3.5989-10.936-2.7594-12.295 1.1244-1.8193 2.2834-0.64246 3.5099 3.5639 2.08 7.1335 7.1816 2.8002 5.7413-4.8769-0.66268-3.5324 0.23111-7.3224 1.5366-6.5155 0.4785 0.29573 0.87 1.5675 0.87 2.8261 0 4.1061 1.7137 2.4082 2.8944-2.8678 1.2725-5.686 2.2944-6.4256 3.7151-2.6887 1.0694 2.8128 0.4869 5.331-2.0747 8.9688l-1.7816 2.5301 3.3109 0.62112c4.5367 0.85109 4.1865 2.7137-1.1422 6.0762-4.4234 2.7912-7.7344 7.296-7.7344 10.523 0 2.1246 2.9978 3.4201 3.6101 1.5601 0.92842-2.8205 6.5271-7.4343 9.0212-7.4343 3.7914 0 2.6673 2.8214-2.1922 5.502-4.0358 2.2263-6.9814 6.708-6.033 9.1792 0.35171 0.91651 0.9658 0.85104 2.7048-0.28837 3.8785-2.5413 5.7067-0.88107 2.8147 2.556-3.1596 3.7549-3.2464 6.3856-0.1916 5.8016 1.2286-0.23487 2.5191 0.0346 2.8678 0.59876 0.84832 1.3726 1.9468 1.2932 3.2129-0.23235zm-105.79-1.58c1.049-1.96 0.558-3.73-1.034-3.73-1.0569 0-2.7065 3.8796-2.0928 4.9219 0.74091 1.2583 2.0905 0.74407 3.1262-1.1913zm77.168 0.57979c0.51248-1.3355-0.0694-2.4354-1.2883-2.4354-0.36955 0-0.89255 0.84375-1.1622 1.875-0.56234 2.1504 1.6465 2.6556 2.4505 0.56041zm107.58-3.3729c1.7321 0 0.80775-1.9415-1.4041-2.9493-3.3932-1.546-9.5259 4.1319-6.7346 6.2352 1.5852 1.1945 2.0734 1.0895 4.5251-0.97343 1.5115-1.2718 3.1376-2.3124 3.6137-2.3124zm-181.95-7.323c0-3.4823-2.4476-5.5106-3.1712-2.6278-0.34991 1.3941-0.38746 2.9373-0.08344 3.4292 0.953 1.542 3.255 0.972 3.255-0.801zm179.06-6.5912c0-1.9254-4.2864-4.3705-5.1661-2.947-0.30008 0.48552-0.0893 1.7352 0.46825 2.7771 1.292 2.4141 4.6979 2.5372 4.6979 0.16986zm-174.94-9.483c-0.51022-3.1907-0.24767-3.885 2.3417-6.1921 1.604-1.4292 2.9164-3.3927 2.9164-4.3633 0-0.97064 1.0755-2.7616 2.3901-3.9798 1.5357-1.4232 2.0212-2.443 1.3582-2.8528-3.8744-2.3945-14.031 17.999-10.649 21.382 1.3612 1.3612 2.1802-0.63038 1.6424-3.9938zm15.995 0.65993c-1.3146-4.3351-8.5739-9.5765-7.6887-5.5515 0.18955 0.86192 0.84375 1.4627 1.4538 1.3351 0.61002-0.12761 2.0615 1.2383 3.2256 3.0353 2.404 3.7112 3.9621 4.3227 3.0094 1.1811zm153.92-0.392c0.48609-1.9367 0.149-2.8898-1.4922-4.2188-3.9286-3.1812-4.6588-2.1561-2.3686 3.3249 1.6829 4.0277 2.9979 4.3321 3.8609 0.89382zm-13.014-7.5762c0.57393-1.7237-2.2787-1.4306-2.9437 0.30248-0.39453 1.0281-0.0937 1.3828 0.99388 1.1719 0.85782-0.16637 1.7352-0.82983 1.9498-1.4744zm-102.99-4.344c0.83599-1.0073 0.7214-1.4329-0.51338-1.9068-1.455-0.55833-3.0957 0.75177-3.1314 2.5004-0.02428 1.19 2.5066 0.77779 3.6448-0.59364zm108.61-1.126c-0.89339-0.8934-2.6845 0.55369-2.0187 1.631 0.39573 0.64032 0.92011 0.62414 1.5934-0.04915 0.55196-0.55196 0.74335-1.2638 0.4253-1.5818zm-147.66-3.351c-0.24738-0.94597 0.12291-1.8767 0.83282-2.0935 4.1052-1.2532 4.4924-1.5291 3.9883-2.8427-0.29675-0.77333-1.3802-1.6729-2.4077-1.999-3.4952-1.1093-8.4289 5.7171-5.4586 7.5528 0.51562 0.31867 0.9375 1.4789 0.9375 2.5783 0 1.9162 0.05276 1.9267 1.2765 0.25307 0.7021-0.96018 1.0761-2.5122 0.83114-3.449zm141.82-0.811c1.1251-1.2432 1.3992-2.2149 0.79513-2.8189-0.60405-0.60405-1.6402 0.0499-3.0059 1.8972-2.4325 3.2901-0.61741 4.0469 2.2108 0.92178zm-36.11-0.971c0-0.485-0.42-0.882-0.94-0.882-0.51563 0-0.9375 0.65771-0.9375 1.4616 0 0.80387 0.42187 1.2008 0.9375 0.88217 0.51562-0.31867 0.9375-0.97638 0.9375-1.4616zm-69.44-0.33458c0.87894-1.0591 0.71978-1.4486-0.78729-1.9269-2.1863-0.69392-6.0256 1.0474-5.2119 2.3639 0.83443 1.3501 4.753 1.0647 5.9992-0.43694zm-19.176-0.709c1.3267-0.60447 2.2608-1.5537 2.0758-2.1094-0.63771-1.9156-3.2535-1.5685-5.9323 0.7871-3.1076 2.7326-0.90006 3.4895 3.8565 1.3223zm78.296-2.182c0-0.71258-0.42188-1.5563-0.9375-1.875-0.53381-0.32992-0.9375 0.47746-0.9375 1.875s0.40369 2.2049 0.9375 1.875c0.51562-0.31867 0.9375-1.1624 0.9375-1.875zm43.67 0.46875c0.21563 0 0.39207-0.59154 0.39207-1.3145 0-1.4206-5.3088-3.6791-6.6702-2.8377-2.4492 1.5137 1.6396 5.5324 4.6375 4.558 0.6867-0.2232 1.425-0.40582 1.6406-0.40582zm-28.278-2.4441c2.0485-0.7861 1.8595-4.4246-0.333-6.4087-1.9417-1.7572-4.0357-1.2661-3.2567 0.76386 0.25876 0.67431-0.18154 1.7671-0.97844 2.4285-1.8967 1.5741-1.8334 2.6099 0.19171 3.1392 2.5853 0.67561 2.8068 0.67952 4.3764 0.07719zm14.985-2.0957c0.7-1.132-2.12-4.835-3.69-4.835-1.268 0-4.8374 4.4157-4.0798 5.0472 2.7658 2.3055 6.2733 2.2098 7.7701-0.212zm-97.358 0.70807c0.34644-0.56055 0.20569-1.4434-0.31277-1.9619-1.0659-1.0659-4.894 0.55835-4.894 2.0765 0 1.2433 4.4277 1.1458 5.2067-0.11467zm-14.834-3.354c0.522-1.593-3.346-2.542-4.947-1.214-0.748 0.621-1.361 1.527-1.361 2.012 0 1.2591 5.8768 0.51582 6.3075-0.79776zm18.536 0.623c-0.31867-0.51562-0.76545-0.9375-0.99283-0.9375s-0.41342 0.42188-0.41342 0.9375 0.44677 0.9375 0.99283 0.9375 0.7321-0.42188 0.41342-0.9375zm11.001-1.3162c1.1863-1.7698 0.7915-2.4338-1.4471-2.4338-2.7866 0-5.8181 2.2105-4.9525 3.6112 0.7718 1.2488 5.3361 0.40901 6.3995-1.1774zm-38.652-0.145c0-0.22738-0.42188-0.41342-0.9375-0.41342s-0.9375 0.44677-0.9375 0.99283 0.42188 0.7321 0.9375 0.41342c0.51562-0.31867 0.9375-0.76545 0.9375-0.99283zm19.687-0.882c0.6419-0.77344 1.7482-1.4062 2.4585-1.4062 0.80995 0 1.2915-1.0486 1.2915-2.8125 0-3.3279-1.3716-3.6608-2.8967-0.70312-0.5982 1.1602-1.9522 3.0586-3.0089 4.2188-1.5538 1.706-1.643 2.1094-0.46639 2.1094 0.80018 0 1.9801-0.63281 2.622-1.4062zm77.812-0.43576c0-1.9052-2.5288-3.783-5.0946-3.783-1.4761 0-2.1061 3.7368-0.84288 5 1.5259 1.5259 5.9375 0.62171 5.9375-1.217zm-51.57-0.446c0-0.74301-0.39273-1.5936-0.87272-1.8903-1.1146-0.68885-2.2356 1.0667-1.471 2.3037 0.86209 1.3949 2.3438 1.1335 2.3438-0.41342zm-29.608-1.0931c3.009-1.1547 1.2005-5.0559-2.3438-5.0559-0.98618 0-1.1776 4.0582-0.23582 5 0.76093 0.76093 0.7434 0.76055 2.5796 0.05595zm15.937-4.2437c-1.4429-2.3347-4.7487 0.0027-3.7361 2.6416 0.51181 1.3338 0.76248 1.316 2.4047-0.17019 1.0083-0.91254 1.6075-2.0246 1.3314-2.4714zm19.081 2.8723c4.0656-1.4173 5.2324-5.5595 1.566-5.5595-1.772 0-5.1009 3.365-5.1009 5.1562 0 1.6766-0.0889 1.6665 3.5349 0.40324zm73.35-0.403c0-0.77344-0.63281-1.4062-1.4062-1.4062-1.464 0-1.86 1.1088-0.78125 2.1875 1.0787 1.0787 2.1875 0.68273 2.1875-0.78125zm-38.871-0.52534c0.50258-0.81319-1.1458-6.5059-1.8838-6.5059-0.11832 0-1.5732 0.47344-3.2331 1.0521l-3.018 1.0521 2.5848 2.6979c2.705 2.8234 4.5149 3.379 5.5502 1.7038zm31.22-0.76773c0.9731-0.6168 0.57557-1.5697-1.7688-4.2398-3.4685-3.9504-5.256-3.9543-4.786-0.01035 0.54476 4.5718 3.2648 6.3355 6.5548 4.2501zm-11.04-1.5727c2.4245-2.1941 1.2598-5.103-2.0432-5.103-2.4643 0-2.7032 0.28991-2.7032 3.2812 0 3.6674 1.9008 4.397 4.7464 1.8217zm-94.45-0.79c0.27688-0.72154 2.115-1.8083 4.0847-2.415 1.9697-0.60669 4.1791-1.2958 4.9099-1.5314 0.82006-0.26434 0.99456-0.76236 0.45588-1.301-1.009-1.01-12.565 4.165-12.565 5.628 0 1.4203 2.5435 1.1096 3.1153-0.38056zm25.95-0.094c0-0.77344-0.63281-1.4062-1.4062-1.4062-0.77344 0-1.4062 0.63281-1.4062 1.4062 0 0.77344 0.63281 1.4062 1.4062 1.4062 0.77344 0 1.4062-0.63281 1.4062-1.4062zm7.5-0.41342c0-1.3873-1.3707-1.8867-3.5873-1.307-2.9842 0.7804-2.4856 2.1892 0.77481 2.1892 1.5469 0 2.8125-0.39698 2.8125-0.88217zm53.438-1.0482c0-0.4852-0.42188-0.88217-0.9375-0.88217-0.51563 0-0.9375 0.65771-0.9375 1.4616 0 0.80387 0.42187 1.2008 0.9375 0.88217 0.51562-0.31867 0.9375-0.97638 0.9375-1.4616zm-4.6875-3.2483c0-0.72487-0.85001-1.7728-1.8889-2.3289-2.6085-1.396-3.8524 1.6058-1.4066 3.3942 1.8933 1.3844 3.2955 0.93107 3.2955-1.0654zm-40.781-0.45925c0-0.91439-0.94002-1.3934-2.7344-1.3934-3.0723 0-4.3785 1.9437-1.7706 2.6348 2.7534 0.72966 4.505 0.247 4.505-1.2414zm-25.945-1.256c0.23852-1.2385-0.1462-1.6232-1.3847-1.3847-0.94325 0.18165-1.8636 1.102-2.0453 2.0453-0.23852 1.2385 0.1462 1.6232 1.3847 1.3847 0.94325-0.18165 1.8636-1.102 2.0453-2.0453zm47.975-3.161c0-0.69145-0.69579-2.8257-1.5462-4.7427l-1.5462-3.4855-0.61704 3.3131c-0.33939 1.8222-0.95055 3.8527-1.3582 4.5122-1.3382 2.1652 2.374 5.3438 3.8629 3.3076 0.6626-0.90616 1.2047-2.2133 1.2047-2.9047zm-37.189-0.02508c0.6514-3.4221-0.63592-4.0676-2.2177-1.1119-0.77137 1.4413-0.7457 2.2842 0.10061 3.3039 1.3712 1.6522 1.3889 1.6339 2.1171-2.192zm-5.938 0.703c0-0.51562-0.63281-0.9375-1.4062-0.9375-0.77344 0-1.4062 0.42188-1.4062 0.9375s0.63281 0.9375 1.4062 0.9375c0.77344 0 1.4062-0.42188 1.4062-0.9375zm14.062-0.46875c0-0.9375-0.9375-1.4062-2.8125-1.4062s-2.8125 0.46875-2.8125 1.4062c0 0.9375 0.9375 1.4062 2.8125 1.4062s2.8125-0.46875 2.8125-1.4062zm42.87-0.468c1.311-1.0312 3.05-1.875 3.8644-1.875 1.321 0 1.3134-0.16729-0.0702-1.5509-1.8945-1.8945-5.744 0.06641-6.6067 3.3655-0.63056 2.4113-0.18821 2.4208 2.8125 0.06038zm13.381 0.57804c0-0.71333-1.1602-1.5198-2.5781-1.7922-3.0261-0.58131-3.4732-0.31164-2.7234 1.6425 0.69595 1.8136 5.3015 1.9437 5.3015 0.14972zm-17.485-3.8893c-0.29047-0.75692-0.79938-1.382-1.1309-1.389-0.33155-0.007-1.552-0.26718-2.7122-0.57809-2.9861-0.80026-2.6592 1.1804 0.46513 2.8174 2.8949 1.5168 4.1638 1.1974 3.378-0.8503zm-42.5-0.494c0-0.54606-0.42187-0.7321-0.9375-0.41342-0.51562 0.31867-0.9375 0.76545-0.9375 0.99283s0.42188 0.41342 0.9375 0.41342c0.51563 0 0.9375-0.44677 0.9375-0.99283zm25.551-0.17905c0.21712-0.64453-0.27507-1.6858-1.0938-2.3139-1.9515-1.4973-5.4418-1.5148-5.9598-0.02981-0.78843 2.2603 0.4813 3.5156 3.556 3.5156 1.7066 0 3.2805-0.52734 3.4976-1.1719zm-12.75-1.2123c0.30533-0.79568 0.30561-1.6962 0.00063-2.0012-0.83844-0.83845-6.2926 1.6662-5.7036 2.6192 0.85653 1.3859 5.1109 0.9249 5.703-0.61798zm67.658 201.45c-0.37956-1.9572-1.7583-2.4319-3.5844-1.2343-1.25 0.81979-1.25 1.0248 0 1.8454 2.1655 1.4215 3.9205 1.1223 3.5844-0.61108zm-115.5-2.65c1.5941-1.5941 1.1267-2.8654-1.284-3.4931-1.2801-0.33331-1.6779 0.17222-1.7551 2.2306-0.11071 2.9517 0.92117 3.3804 3.0391 1.2625zm165.34 0.57635c0-0.45249-0.63281-1.3479-1.4062-1.9898-1.3346-1.1076-2.0035-4.6875-0.87587-4.6875 0.29171 0 1.2782 0.40022 2.1922 0.88937 1.7988 0.96271 5.7149 0.31473 5.7149-0.94564 0-1.6833-10.642-10.818-14.347-12.315-4.0463-1.6349-9.4931-2.2378-8.9298-0.98849 3.999 8.8693 8.6182 16.948 10.319 18.047 4.2088 2.7195 7.3326 3.5672 7.3326 1.9898zm-204.22-5.11c0.85243-0.64847 3.1232-4.0414 5.0462-7.5399s4.2415-6.8262 5.1521-7.3949c1.5645-0.97702 1.5479-1.18-0.30066-3.6803-2.1714-2.937-3.6382-3.2904-5.5835-1.3451-0.7156 0.7156-3.6067 2.6023-6.4247 4.1927-9.5763 5.4045-11.786 9.3585-4.5873 8.2074 4.4564-0.71261 6.0923 0.86332 4.6994 4.5271-1.6635 4.3752-1.0298 5.3368 1.9985 3.0331zm186.89-5.7305c-3.8506-5.8011-5.1564-7.0062-5.1564-4.7584 0 2.4123 2.5655 6.7096 5.2806 8.8454 3.7642 2.9609 3.7263 1.7141-0.12423-4.087zm29.501-10.568c2.9924 1.1295 5.6549-0.2334 5.6549-2.8948 0-2.0396-2.7811-4.8809-4.7775-4.8809-0.92091 0-1.8987-0.36295-2.1729-0.80656-0.91367-1.4784-8.5259-1.9293-13.057-0.77354l-4.4734 1.1412 3.9162 2.7976c2.1539 1.5387 5.4472 4.1413 7.3183 5.7836l3.4021 2.986 0.74841-2.1844c0.67326-1.9651 1.0187-2.0824 3.4405-1.1682zm-227.79-4.82c1.8047-1.7251 4.5217-3.7814 6.0379-4.5695 6.0351-3.137-0.47114-4.8454-10.472-2.7497-8.3134 1.7422-13.434 6.569-5.8959 5.558 4.4214-0.59303 5.7505 1.2126 3.3819 4.5942-4.4449 6.346-1.3228 5.0729 6.9476-2.833zm210.09-7.258c6.3917-3.2149 14.256-3.634 18.455-0.98349 2.1536 1.3595 4.1109 2.4718 4.3496 2.4718 0.23867 0 0.35252-3.9023 0.25301-8.6719l-0.18094-8.6719-5.625 0.33544c-7.837 0.46735-14.936 3.3009-17.511 6.9894-1.1472 1.6432-2.3394 3.1986-2.6492 3.4564-0.30987 0.25781-1.537 2.0705-2.7269 4.0282l-2.1634 3.5595 2.6817-0.64417c1.4749-0.3543 3.7778-1.1955 5.1176-1.8694zm-220.83-1.93c6.7608-3.0952 12.763-3.6437 18.066-1.6509 6.1678 2.3175 6.3184 1.2615 0.86791-6.0859-1.6829-2.2685-3.8978-4.5888-4.922-5.1562s-3.8172-2.4027-6.2066-4.0785c-4.5022-3.1576-7.418-3.6968-11.532-2.1326-2.1497 0.8173-4.1214 21.586-2.0493 21.586 0.1955 0 2.7946-1.1167 5.7759-2.4815zm244.2-39.52c0.0303-26.26-0.19638-50.036-0.51337-53.852-0.11781-1.418-0.26693-8.2973-0.33138-15.287l-0.12-12.712-2.78 1.645c-5.4168 3.1998-6.5705 10.901-3.3508 22.367 2.2064 7.8574 2.3096 37.931 0.16904 49.219-2.9169 15.381-2.2012 20.727 4.1022 30.642 2.4477 3.8501 2.7999 1.1051 2.8266-22.025zm-13.564 21.294c0.34869-0.56418 1.6392-0.83363 2.8678-0.59876 2.5931 0.49572 2.7933-0.56186 0.82183-4.342-0.77025-1.4769-1.4005-3.2699-1.4005-3.9844 0-2.7361-1.5329-1.1248-2.5546 2.6853-0.58764 2.1914-1.3531 4.7227-1.701 5.625-0.68936 1.788 0.92865 2.2939 1.9664 0.61485zm-219.84-2.0211c-0.45776-1.1602-1.867-4.4216-3.1316-7.2477l-2.2993-5.1383-2.0014 4.1425c-2.3951 4.9573-2.3716 4.7278-0.48459 4.7278 0.83427 0 2.9583 1.2656 4.7201 2.8125 3.8364 3.3684 4.2876 3.4676 3.1968 0.70312zm-8.349-13.21c1.9485-3.7817 1.9287-4.0785-1.1075-16.552-0.43926-1.8047-1.302-7.7009-1.9173-13.103-1.1278-9.91-1.0651-10.99 2.015-34.718 0.841-6.481-0.023-8.692-5.8402-14.936-3.2381-3.475-4.324 34.464-2.1806 76.184l0.66618 12.968 3.254-3.1247c1.7897-1.7186 4.0896-4.7464 5.1108-6.7285zm3.5417-78.1c0.60387-2.3982 1.7513-5.6238 2.5498-7.1679 1.3729-2.6549 1.3575-2.7699-0.28353-2.1162-0.95445 0.38026-3.7517 1.3536-6.2162 2.163-2.4644 0.8094-4.3589 1.7199-4.2098 2.0234 4.4744 9.1104 6.7857 10.554 8.1597 5.0977zm230.42-10.2c-0.11124-0.06521-1.6788-0.6869-3.4835-1.3815-1.8047-0.69464-4.4672-2.0802-5.9167-3.0789-2.6036-1.794-2.5879-1.7251 1.2983 5.6979l3.9337 7.5139 2.1852-4.3164c1.2019-2.374 2.0942-4.3697 1.983-4.4349zm-236.78-0.946c8.1084-2.1011 14.734-6.7129 19.004-13.227 1.9783-3.0185 4.4595-6.4357 5.5137-7.5938 2.7805-3.0546 1.4426-3.4941-3.2342-1.0625-5.184 2.696-19.583 3.372-24.859 1.167-1.829-0.764-3.4912-1.224-3.6935-1.021-0.5028 0.502 0.7518 23.179 1.2824 23.179 0.23305 0 2.927-0.64866 5.9865-1.4415zm243.39-11.674c0.33052-10.585 0.50985-10.332-6.0972-8.6106-4.9339 1.2855-6.4848 1.2928-14.143 0.06689-4.731-0.75728-8.5941-1.1509-8.5847-0.8746 0.0929 2.7366 9.5034 13.056 11.969 13.125 0.66267 0.01854 2.2553 0.72197 3.5391 1.5632 8.827 5.7836 13.024 4.1229 13.317-5.2696zm-229.46-11.729c1.841-1.0524 1.9838-1.3469 0.66578-1.373-4.8699-0.09641-12.314-7.0492-11.231-10.49 0.34643-1.1011-2.4508-2.846-3.5114-2.1905-0.56866 0.35145-0.96232 1.5479-0.87479 2.6588 0.40604 5.1538-0.057505 6.3393-2.8609 7.3166-5.4886 1.9133-3.7355 3.1855 6.0938 4.4219 9.143 1.1501 9.1039 1.1512 11.719-0.3436zm226.79-1.9746c1.7997-0.89781 2.8252-2.0098 2.5397-2.7539-0.26339-0.68639-0.95083-3.0006-1.5276-5.1427l-1.0488-3.8948-5.3621 5.1146c-2.9492 2.813-6.2975 5.4115-7.4407 5.7743-3.9327 1.2482-2.0679 2.4084 3.8711 2.4084 3.5857 0 7.1491-0.59832 8.9683-1.5059zm-15.303-3.2939c3.2013-1.6086 6.6702-3.8235 7.7088-4.9219s3.1582-3.3682 4.7104-5.044c1.56-1.675 3.49-3.046 4.3-3.046 1.2746 0 1.4782-1.7772 1.4768-12.891l-0.001-12.891-14.061-0.13757c-11.064-0.10825-14.061 0.12518-14.061 1.0952 0 2.6434 1.2321 4.1986 3.3262 4.1986 2.6211 0 3.7507 1.5435 3.3571 4.5872-0.26698 2.0646-0.0484 2.1952 2.7413 1.6372 3.8404-0.76808 5.5754 0.63519 5.5754 4.5092 0 2.802 0.18845 2.9764 2.8017 2.5929 8.8455-1.2982 3.0999 9.8838-8.0476 15.662-4.7166 2.4448-6.5542 3.9275-6.7725 5.4646-0.38628 2.7198 0.00044 2.6744 6.9454-0.81542zm-229.88-5.008c-0.5321-1.386 3.1793-8.004 4.4893-8.004 2.3603 0 4.5699 2.2486 5.6052 5.704 1.9278 6.4345 11.306 10.303 14.793 6.1021 1.3316-1.6045-7.0716-8.4664-14.224-11.615-4.9035-2.1587-5.1285-2.703-2.9842-7.2218 1.408-2.9671 3.5191-4.1786 7.3298-4.2062 0.97212-0.007 2.7412-1.0634 3.9312-2.3475 3.0452-3.2858 4.7387-2.1886 5.4998 3.5634 1.4774 11.166 7.1099 16.423 12.172 11.361 2.278-2.278 1.9443-2.9062-5.4144-10.194-8.471-8.388-9.256-10.452-4.7-12.356 6.482-2.7078 3.409-3.6192-13.121-3.8909-12.035-0.1978-15.733 0.0186-16.022 0.9375-0.2064 0.6571-0.5736 9.3464-0.8159 19.31l-0.44048 18.116 2.1752-2.0435c1.1964-1.1239 1.973-2.5704 1.7259-3.2145zm221.74 1.699c1.9987-1.8822 6.2778-4.7299 9.5093-6.3281 9.1932-4.5469 10.733-9.1679 1.7701-5.3121-5.8411 2.5128-6.5022 2.0576-3.8542-2.6538 2.1836-3.8852 2.6381-6.6587 1.0911-6.6587-2.3365 0-7.603 4.5729-9.4991 8.2481-1.1433 2.2161-3.6896 5.4846-5.6583 7.2632-4.1846 3.7805-4.203 3.8605-1.5411 6.6939 2.7537 2.9311 3.9312 2.7509 8.1822-1.2525zm-185.99-0.956c9.838-8.224 11.061-27.606 2.019-32.008-3.692-1.7978-6.247-0.6676-6.247 2.7624 0 2.3859-0.28442 2.7222-1.875 2.2174-3.2235-1.0231-2.0969 1.2328 3.1709 6.3491 7.7953 7.5711 8.3527 8.7747 6.245 13.483-4.5 10.05-16.916 2.999-16.916-9.607 0-1.7788-0.42134-2.3097-1.6406-2.0673-1.0883 0.2164-1.5426 1.0245-1.3494 2.4004 0.25995 1.8513-0.0169 2.0126-2.5758 1.5008-2.6206-0.52411-5.6842 0.74702-5.6842 2.3584 0 0.3266 2.0039 1.5156 4.4531 2.6423 4.1081 1.8898 7.8034 5.0061 13.092 11.04 2.6197 2.9893 2.4135 3.0196 7.308-1.0718zm167.77-6.048c-1.1576-3.6473-0.49755-12.914 1.4682-20.613 2.3535-9.2179 3.7441-8.248-10.957-7.6432-11.7 0.48136-12.358 0.61208-12.724 2.5309-0.95913 5.0174 0.35815 8.5913 4.7537 12.897 14.135 13.848 18.893 17.343 17.46 12.828zm7.4589-2.4647c2.311-4.4778 7.7741-10.685 11.82-13.43 5.3554-3.6335-1.9158-6.3355-8.3761-3.1127-4.0783 2.0345-4.5169 1.1729-1.0626-2.0874 3.4136-3.2219 3.6495-5.0417 0.65355-5.0417-6.253 0-11.313 18.52-7.1738 26.255 1.3742 2.5677 1.531 2.4698 4.1389-2.5833zm-156.26-4.307c2.707-1.982 4.922-4.03 4.922-4.551 0-0.52173 1.0748-2.2259 2.3884-3.7871 1.997-2.3733 2.3427-3.6246 2.1094-7.6353l-0.279-4.7978-9.0671 0.0046c-10.616 0.00539-10.858 0.14549-8.8628 5.1317 1.7779 4.4434 1.9998 12.378 0.42829 15.315-0.60242 1.1256-1.1298 3.1371-1.1719 4.4698-0.08827 2.7936 0.24149 2.6501 9.5328-4.1506zm162.08 2.4712c0.28925-1.139 1.1173-2.5618 1.8402-3.1617 0.72285-0.59991 1.3143-1.4866 1.3143-1.9705 0-0.48385-1.6875 1.07-3.75 3.4531-2.0625 2.383-3.75 4.7326-3.75 5.2212 0 1.6541 3.8158-1.4563 4.3456-3.5421zm-146.58-10.973c1.4204-1.0776 1.4592-1.3457 0.2615-1.8053-1.1996-0.46031-4.2734 1.5025-4.2734 2.7288 0 0.84386 2.4152 0.28798 4.0119-0.92341zm108.49-2.348c0-4.1888-1.0096-5.0232-3.3817-2.7948-2.0577 1.9331-2.0965 2.1531-0.58331 3.3023 2.3361 1.7741 3.965 1.5656 3.965-0.50746zm-90.94-4.331c11.947-2.8324 25.874-5.0625 31.797-5.0915 3.3086-0.016207 5.7079-0.33721 5.3317-0.71335-0.75696-0.75696-52.562-0.45397-55.175 0.3227-2.4024 0.71389-2.0045 2.7112 0.9375 4.7065 5.06 3.4326 5.767 3.4646 17.108 0.7756zm86.521-2.2851 3.9481-3.7266-6.5625-0.099605c-3.6094-0.054783-7.8281-0.2333-9.375-0.39671s-8.7188-0.0529-15.938 0.24557l-13.125 0.54267 7.9688 1.1925c4.3828 0.65589 11.977 2.228 16.875 3.4936 11.765 3.0397 11.653 3.0483 16.208-1.2515z"/>
</svg>
