<?xml version="1.0" encoding="UTF-8" standalone="no"?>
<svg
    xmlns:dc="http://purl.org/dc/elements/1.1/"
    xmlns:cc="http://creativecommons.org/ns#"
    xmlns:rdf="http://www.w3.org/1999/02/22-rdf-syntax-ns#"
    xmlns:svg="http://www.w3.org/2000/svg"
    xmlns="http://www.w3.org/2000/svg"
    xmlns:sodipodi="http://sodipodi.sourceforge.net/DTD/sodipodi-0.dtd"
    xmlns:inkscape="http://www.inkscape.org/namespaces/inkscape"
    xmlns:ns1="http://sozi.baierouge.fr"
    xmlns:xlink="http://www.w3.org/1999/xlink"
    version="1.0"
    width="450.00006"
    height="449.99997"
    viewBox="0 0 360.00005 359.99998"
    preserveAspectRatio="xMidYMid meet"
    id="svg2985"
    inkscape:version="0.48.4 r9939"
    sodipodi:docname="Flower_petal_16_petal_template_3.svg"
  >
  <defs
      id="defs2997"
  />
  <sodipodi:namedview
      pagecolor="#ffffff"
      bordercolor="#666666"
      borderopacity="1"
      objecttolerance="10"
      gridtolerance="10"
      guidetolerance="10"
      inkscape:pageopacity="0"
      inkscape:pageshadow="2"
      inkscape:window-width="1680"
      inkscape:window-height="1000"
      id="namedview2995"
      showgrid="false"
      fit-margin-top="0"
      fit-margin-left="0"
      fit-margin-right="0"
      fit-margin-bottom="0"
      inkscape:zoom="0.4299245"
      inkscape:cx="903.125"
      inkscape:cy="903.12505"
      inkscape:window-x="-8"
      inkscape:window-y="-8"
      inkscape:window-maximized="1"
      inkscape:current-layer="svg2985"
  />
  <g
      transform="matrix(0.02496533,0,0,-0.02498265,-2.2468797,361.49895)"
      id="g2989"
      style="fill:#000000;stroke:none"
    >
    <path
        d="m 6600,14450 c 0,-18 -7,-20 -55,-20 -48,0 -55,-2 -55,-20 0,-16 -7,-20 -35,-20 -24,0 -35,-5 -35,-15 0,-8 -9,-15 -20,-15 -13,0 -20,-7 -20,-20 0,-13 -7,-20 -20,-20 -13,0 -20,-7 -20,-20 0,-13 -7,-20 -20,-20 -16,0 -20,-7 -20,-35 0,-24 -5,-35 -15,-35 -11,0 -15,-11 -15,-40 0,-33 -3,-40 -20,-40 -16,0 -20,-7 -20,-35 0,-28 -4,-35 -20,-35 -18,0 -20,-7 -20,-60 0,-53 -2,-60 -20,-60 -19,0 -20,-7 -20,-90 0,-73 -3,-90 -15,-90 -13,0 -15,-25 -16,-162 -1,-90 -4,-151 -6,-135 -2,15 -10,27 -16,27 -11,0 -28,21 -79,98 -9,14 -20,50 -24,79 -5,45 -10,54 -35,65 -16,7 -29,21 -29,30 0,10 -4,18 -10,18 -5,0 -10,11 -10,25 0,14 -4,25 -10,25 -5,0 -10,9 -10,20 0,11 -4,20 -10,20 -5,0 -10,9 -10,20 0,11 -4,20 -10,20 -5,0 -10,-5 -10,-11 0,-6 -7,-4 -15,5 -8,8 -15,24 -15,35 0,12 -4,21 -10,21 -5,0 -10,9 -10,20 0,22 -16,27 -22,8 -7,-21 -38,17 -38,46 0,14 -4,26 -10,26 -5,0 -10,-4 -10,-10 0,-5 -7,-10 -15,-10 -9,0 -15,9 -15,25 0,21 -5,25 -30,25 -23,0 -30,4 -30,20 0,11 -4,20 -10,20 -5,0 -10,9 -10,20 0,11 -4,20 -10,20 -5,0 -10,-4 -10,-10 0,-18 -18,-11 -25,10 -6,20 -35,28 -35,10 0,-5 -4,-10 -10,-10 -5,0 -10,9 -10,20 0,22 -16,27 -22,8 -4,-10 -9,-9 -20,3 -20,20 -175,20 -187,0 -7,-10 -9,-11 -13,-1 -5,17 -226,-75 -254,-107 -12,-13 -35,-26 -53,-29 -26,-6 -31,-11 -31,-35 0,-26 -4,-29 -30,-29 -26,0 -30,-3 -30,-29 0,-16 -5,-31 -11,-33 -5,-2 -13,-22 -16,-46 -4,-32 -10,-42 -24,-42 -11,0 -19,-4 -19,-10 0,-5 5,-10 10,-10 6,0 10,-8 10,-19 0,-15 -10,-20 -50,-25 -47,-6 -50,-8 -50,-36 0,-19 -5,-30 -14,-30 -8,0 -16,-6 -19,-12 -3,-9 -12,-5 -27,12 -15,17 -24,21 -27,13 -3,-7 -18,-13 -34,-13 -16,0 -29,-4 -29,-10 0,-5 -7,-10 -15,-10 -8,0 -15,9 -15,20 0,22 -15,27 -24,8 -5,-10 -7,-10 -12,0 -3,6 -19,12 -35,12 -22,0 -29,5 -29,20 0,11 -4,20 -10,20 -5,0 -10,-4 -10,-10 0,-5 -7,-10 -15,-10 -8,0 -15,6 -15,13 0,12 -99,14 -185,4 -69,-9 -309,-112 -299,-129 3,-4 -8,-11 -25,-14 -26,-6 -31,-11 -31,-35 0,-24 -4,-29 -25,-29 -21,0 -25,-5 -25,-30 0,-16 -4,-30 -10,-30 -5,0 -10,-7 -10,-15 0,-8 -4,-15 -10,-15 -5,0 -10,-16 -10,-35 0,-28 -4,-35 -20,-35 -11,0 -20,-4 -20,-10 0,-5 5,-10 10,-10 15,0 12,-67 -2,-74 -10,-5 -10,-7 0,-12 14,-7 17,-64 2,-64 -15,0 -12,-48 3,-53 8,-3 4,-12 -13,-27 -17,-15 -21,-24 -12,-27 6,-3 12,-13 12,-24 0,-10 5,-19 10,-19 6,0 10,-11 10,-25 0,-14 -4,-25 -10,-25 -5,0 -10,-9 -10,-20 0,-11 5,-20 10,-20 6,0 10,-13 10,-30 0,-16 5,-30 10,-30 6,0 10,-7 10,-15 0,-8 5,-15 11,-15 7,0 9,-14 6,-37 -3,-28 3,-56 24,-105 16,-36 29,-74 29,-83 0,-10 8,-34 19,-54 23,-44 63,-145 91,-225 22,-65 25,-80 9,-53 -5,9 -15,17 -20,17 -6,0 -26,12 -44,26 -20,15 -39,23 -46,18 -8,-4 -9,-3 -5,4 4,7 3,12 -3,12 -5,0 -71,61 -147,135 -86,84 -140,131 -145,124 -4,-8 -23,4 -53,32 -100,96 -110,102 -119,77 -2,-8 -21,5 -47,32 -26,27 -45,40 -47,33 -7,-19 -27,-16 -43,7 -16,22 -46,27 -53,8 -3,-9 -11,-6 -24,10 -21,23 -53,30 -53,11 0,-6 -6,-5 -15,3 -45,41 -47,41 -57,27 -7,-11 -11,-11 -15,-1 -2,6 -13,12 -23,12 -10,0 -21,-6 -23,-12 -4,-10 -6,-10 -6,0 -1,6 -10,12 -20,12 -11,0 -22,-6 -25,-12 -5,-10 -7,-10 -12,0 -8,16 -32,15 -50,-3 -9,-8 -25,-15 -36,-15 -11,0 -33,-14 -49,-31 -15,-17 -36,-29 -46,-27 -26,4 -213,-179 -194,-191 11,-7 5,-17 -24,-46 -30,-28 -35,-39 -25,-45 11,-7 6,-16 -21,-41 -21,-20 -29,-34 -21,-36 16,-6 16,-30 0,-37 -10,-5 -10,-7 0,-12 6,-3 12,-18 12,-34 0,-16 6,-31 13,-34 10,-5 10,-7 0,-12 -17,-7 -17,-31 0,-37 7,-2 -5,-20 -31,-45 -42,-40 -53,-67 -30,-74 7,-3 3,-13 -12,-28 -15,-15 -25,-19 -28,-12 -7,23 -34,12 -74,-30 -25,-26 -43,-38 -45,-30 -3,6 -11,12 -18,12 -7,0 -16,-6 -19,-12 -5,-10 -7,-10 -12,0 -3,6 -18,12 -34,12 -16,0 -31,6 -34,13 -5,10 -7,10 -12,0 -3,-7 -12,-13 -19,-13 -7,0 -15,6 -18,13 -2,7 -16,-1 -36,-22 -25,-27 -34,-32 -41,-21 -6,10 -17,5 -45,-25 -29,-29 -39,-35 -46,-24 -12,19 -195,-168 -191,-194 2,-10 -10,-31 -27,-46 -17,-16 -31,-38 -31,-49 0,-11 -7,-27 -15,-36 -18,-18 -19,-42 -3,-50 10,-5 10,-7 1,-12 -17,-7 -17,-41 0,-47 10,-4 10,-6 0,-6 -7,-1 -13,-10 -13,-20 0,-11 6,-22 13,-24 9,-4 9,-8 -2,-15 -14,-10 -14,-12 27,-57 8,-9 9,-15 3,-15 -19,0 -12,-32 11,-53 16,-13 19,-21 11,-24 -20,-7 -15,-37 7,-53 23,-16 26,-36 8,-43 -8,-2 5,-21 32,-47 27,-26 40,-45 33,-47 -26,-9 -20,-19 77,-120 24,-26 39,-48 32,-51 -14,-4 52,-78 161,-177 66,-59 44,-91 -31,-45 -18,11 -41,20 -52,20 -11,0 -50,14 -87,30 -75,34 -83,36 -83,15 0,-8 -9,-15 -20,-15 -11,0 -20,4 -20,9 0,5 -18,12 -40,16 -22,4 -40,11 -40,16 0,5 -11,9 -25,9 -14,0 -25,5 -25,10 0,6 -4,10 -10,10 -5,0 -10,-9 -10,-20 0,-13 -7,-20 -20,-20 -11,0 -20,5 -20,10 0,6 -9,10 -20,10 -11,0 -20,5 -20,10 0,6 -11,10 -25,10 -14,0 -25,-4 -25,-10 0,-5 -9,-10 -20,-10 -11,0 -20,5 -20,10 0,6 -9,10 -20,10 -13,0 -20,-7 -20,-20 0,-11 -4,-20 -10,-20 -5,0 -10,5 -10,10 0,6 -6,10 -14,10 -8,0 -16,6 -19,13 -3,8 -12,4 -27,-13 -15,-17 -24,-21 -27,-12 -3,6 -13,12 -24,12 -10,0 -19,5 -19,10 0,6 -4,10 -10,10 -5,0 -10,-8 -10,-19 0,-15 -10,-20 -45,-25 -25,-4 -45,-11 -45,-17 0,-5 -13,-9 -29,-9 -24,0 -30,-5 -35,-30 -3,-18 -12,-30 -21,-30 -21,0 -45,-24 -45,-44 0,-9 -4,-16 -10,-16 -5,0 -10,-7 -10,-15 0,-18 -20,-20 -20,-2 -1,18 -29,-35 -30,-55 0,-9 -15,-49 -34,-88 -26,-54 -33,-79 -29,-106 4,-22 2,-34 -6,-34 -6,0 -11,-9 -11,-20 0,-11 -4,-20 -10,-20 -5,0 -10,-9 -10,-20 0,-13 7,-20 20,-20 11,0 20,-4 20,-10 0,-5 -4,-10 -10,-10 -5,0 -10,-7 -10,-15 0,-8 -4,-15 -10,-15 -5,0 -10,-4 -10,-10 0,-5 9,-10 20,-10 16,0 20,-7 20,-30 0,-16 5,-30 10,-30 6,0 10,-13 10,-30 0,-16 5,-30 10,-30 6,0 10,-7 10,-15 0,-8 5,-15 10,-15 6,0 10,-9 10,-20 0,-11 -4,-20 -10,-20 -5,0 -10,-13 -10,-29 0,-16 -6,-32 -12,-34 -13,-5 -3,-16 27,-32 6,-3 5,-7 -2,-11 -7,-3 -13,-14 -13,-25 0,-14 -7,-19 -30,-19 -23,0 -30,-4 -30,-20 0,-11 -4,-20 -10,-20 -5,0 -10,-5 -10,-11 0,-14 -25,-39 -39,-39 -6,0 -11,-4 -11,-10 0,-5 -11,-10 -25,-10 -14,0 -25,-4 -25,-10 0,-5 -9,-10 -20,-10 -11,0 -20,-4 -20,-10 0,-5 -11,-10 -25,-10 -16,0 -25,-6 -25,-16 0,-21 -20,-39 -53,-48 -18,-4 -27,-13 -27,-26 0,-11 -4,-20 -10,-20 -5,0 -10,-9 -10,-20 0,-13 -7,-20 -19,-20 -14,0 -29,-20 -54,-72 -56,-118 -64,-147 -47,-159 11,-8 12,-12 3,-16 -7,-2 -13,-18 -13,-34 0,-16 -4,-29 -10,-29 -5,0 -10,-9 -10,-20 0,-14 7,-20 23,-21 12,0 16,-3 10,-6 -7,-2 -13,-13 -13,-24 0,-10 -4,-19 -10,-19 -5,0 -10,-4 -10,-10 0,-5 9,-10 20,-10 13,0 20,-7 20,-20 0,-11 -4,-20 -10,-20 -5,0 -10,-4 -10,-10 0,-5 9,-10 20,-10 11,0 20,-4 20,-10 0,-5 -5,-10 -12,-10 -6,0 0,-10 13,-21 16,-15 20,-23 12,-26 -20,-7 -15,-23 7,-23 11,0 20,-4 20,-10 0,-5 7,-10 15,-10 8,0 15,-4 15,-10 0,-5 -4,-10 -10,-10 -22,0 -8,-20 17,-26 35,-9 64,-35 45,-42 -19,-6 -14,-22 8,-22 11,0 20,-4 20,-10 0,-5 9,-10 20,-10 22,0 27,-16 8,-22 -17,-6 14,-38 35,-38 27,0 47,-12 47,-27 0,-17 24,-43 39,-43 6,0 11,-4 11,-10 0,-5 7,-10 15,-10 8,0 15,-4 15,-10 0,-5 12,-10 26,-10 34,0 63,-28 43,-41 -11,-7 -9,-9 8,-9 12,0 25,-4 28,-10 3,-5 15,-10 26,-10 10,0 19,-4 19,-10 0,-5 9,-10 20,-10 11,0 20,-4 20,-10 0,-5 14,-10 30,-10 17,0 30,-4 30,-10 0,-5 7,-10 15,-10 8,0 15,-4 15,-9 0,-5 8,-11 18,-14 93,-29 347,-120 382,-136 25,-12 36,-19 25,-15 -40,12 -312,17 -319,5 -5,-7 -66,-11 -192,-11 -157,0 -184,-2 -184,-15 0,-12 -17,-15 -90,-15 -83,0 -90,-1 -90,-20 0,-18 -7,-20 -60,-20 -53,0 -60,-2 -60,-20 0,-16 -7,-20 -35,-20 -28,0 -35,-4 -35,-20 0,-17 -7,-20 -40,-20 -29,0 -40,-4 -40,-15 0,-10 -11,-15 -35,-15 -28,0 -35,-4 -35,-20 0,-13 -7,-20 -20,-20 -13,0 -20,-7 -20,-20 0,-11 -7,-20 -15,-20 -8,0 -15,-9 -15,-20 0,-13 -7,-20 -20,-20 -16,0 -20,-7 -20,-35 0,-28 -4,-35 -20,-35 -18,0 -20,-7 -20,-55 0,-48 -2,-55 -20,-55 -19,0 -20,-7 -20,-130 0,-123 1,-130 20,-130 18,0 20,-7 20,-55 0,-48 2,-55 20,-55 16,0 20,-7 20,-35 0,-28 4,-35 20,-35 13,0 20,-7 20,-20 0,-11 7,-20 15,-20 8,0 15,-9 15,-20 0,-13 7,-20 20,-20 13,0 20,-7 20,-20 0,-13 7,-20 20,-20 18,0 20,-7 20,-55 0,-42 3,-55 15,-55 10,0 15,-11 15,-35 0,-24 -5,-35 -15,-35 -12,0 -15,-13 -15,-55 0,-48 -2,-55 -20,-55 -13,0 -20,-7 -20,-20 0,-13 -7,-20 -20,-20 -13,0 -20,-7 -20,-20 0,-11 -7,-20 -15,-20 -8,0 -15,-9 -15,-20 0,-13 -7,-20 -20,-20 -16,0 -20,-7 -20,-35 0,-28 -4,-35 -20,-35 -18,0 -20,-7 -20,-55 0,-48 -2,-55 -20,-55 -19,0 -20,-7 -20,-130 0,-123 1,-130 20,-130 18,0 20,-7 20,-55 0,-48 2,-55 20,-55 16,0 20,-7 20,-35 0,-28 4,-35 20,-35 13,0 20,-7 20,-20 0,-11 7,-20 15,-20 8,0 15,-9 15,-20 0,-13 7,-20 20,-20 13,0 20,-7 20,-20 0,-16 7,-20 35,-20 24,0 35,-5 35,-15 0,-11 11,-15 40,-15 33,0 40,-3 40,-20 0,-16 7,-20 35,-20 28,0 35,-4 35,-20 0,-18 7,-20 60,-20 53,0 60,-2 60,-20 0,-19 7,-20 90,-20 70,0 90,-3 90,-14 0,-11 33,-15 153,-22 128,-7 146,-9 115,-18 -21,-5 -38,-13 -38,-18 0,-5 -10,-13 -22,-18 -33,-14 -62,-33 -70,-46 -4,-6 -26,-17 -49,-24 -22,-8 -44,-21 -47,-29 -8,-22 -33,-40 -54,-41 -10,0 -18,-4 -18,-10 0,-5 -9,-10 -20,-10 -11,0 -20,-4 -20,-10 0,-5 -11,-10 -25,-10 -16,0 -25,-6 -25,-15 0,-8 5,-15 10,-15 6,0 10,-4 10,-10 0,-5 -13,-10 -30,-10 -16,0 -30,-4 -30,-10 0,-5 -5,-10 -11,-10 -18,0 -46,-33 -31,-38 19,-6 14,-22 -8,-22 -11,0 -20,-4 -20,-10 0,-5 -10,-10 -22,-10 -18,0 -20,-2 -9,-9 12,-8 12,-12 -2,-25 -8,-9 -25,-16 -36,-16 -12,0 -21,-4 -21,-10 0,-5 5,-10 10,-10 6,0 10,-9 10,-20 0,-16 -7,-20 -30,-20 -25,0 -30,-4 -30,-25 0,-18 -5,-25 -20,-25 -11,0 -20,-4 -20,-10 0,-5 5,-10 12,-10 6,0 0,-10 -13,-21 -16,-15 -20,-23 -11,-26 19,-7 14,-23 -8,-23 -13,0 -20,-7 -20,-20 0,-11 5,-20 10,-20 6,0 10,-11 10,-25 0,-14 -4,-25 -10,-25 -5,0 -10,-9 -10,-20 0,-11 5,-20 10,-20 6,0 10,-13 10,-29 0,-16 6,-32 13,-34 6,-3 2,-6 -10,-6 -23,-1 -32,-25 -13,-36 6,-3 10,-13 10,-20 0,-13 18,-57 67,-162 9,-20 23,-33 34,-33 12,0 21,-10 25,-25 3,-14 10,-25 15,-25 5,0 9,-9 9,-20 0,-16 7,-20 30,-20 27,0 30,-3 30,-30 0,-23 5,-30 19,-30 11,0 22,6 24,13 3,6 6,2 6,-9 1,-17 9,-22 43,-27 24,-3 44,-11 46,-16 2,-6 15,-11 28,-11 17,0 24,-6 24,-20 0,-11 5,-20 10,-20 6,0 10,-13 10,-30 0,-27 3,-30 30,-30 20,0 30,-5 30,-15 0,-8 5,-15 10,-15 6,0 10,-9 10,-20 0,-13 -7,-20 -20,-20 -11,0 -20,-4 -20,-10 0,-5 5,-10 10,-10 6,0 10,-9 10,-20 0,-11 5,-20 10,-20 6,0 10,-11 10,-25 0,-14 -4,-25 -10,-25 -5,0 -10,-13 -10,-30 0,-16 -4,-30 -10,-30 -5,0 -10,-9 -10,-20 0,-11 -4,-20 -10,-20 -5,0 -10,-11 -10,-25 0,-18 -5,-25 -20,-25 -11,0 -20,-4 -20,-10 0,-5 5,-10 10,-10 6,0 10,-9 10,-20 0,-11 5,-20 10,-20 6,0 10,-4 10,-10 0,-5 -9,-10 -20,-10 -13,0 -20,-7 -20,-20 0,-11 5,-20 10,-20 6,0 10,-11 10,-24 0,-13 6,-27 13,-29 9,-4 9,-8 -2,-15 -18,-13 -12,-36 40,-155 31,-71 47,-97 61,-97 11,0 18,-7 18,-20 0,-11 5,-20 10,-20 6,0 10,-9 10,-20 0,-16 7,-20 30,-20 24,0 30,-4 30,-21 0,-25 31,-60 38,-41 6,20 22,14 23,-10 0,-13 3,-17 6,-10 8,20 43,14 43,-8 0,-22 16,-27 23,-7 3,8 12,4 27,-13 15,-17 24,-21 27,-12 5,14 53,17 53,2 0,-5 9,-10 20,-10 11,0 20,5 20,10 0,6 9,10 20,10 11,0 20,-4 20,-10 0,-5 16,-10 35,-10 19,0 35,5 35,10 0,6 5,10 10,10 6,0 10,-9 10,-20 0,-13 7,-20 20,-20 11,0 20,5 20,10 0,6 9,10 20,10 11,0 20,5 20,10 0,6 7,10 15,10 8,0 15,-9 15,-20 0,-11 5,-20 10,-20 6,0 10,5 10,10 0,6 9,10 20,10 11,0 20,5 20,10 0,6 14,10 30,10 17,0 30,5 30,10 0,6 7,10 15,10 8,0 15,5 15,10 0,6 9,10 20,10 13,0 20,-7 20,-20 0,-22 11,-25 38,-11 77,38 107,51 140,57 20,4 42,13 47,20 8,11 79,41 332,141 7,3 13,0 13,-6 0,-6 -6,-11 -13,-11 -14,0 -109,-68 -115,-83 -2,-4 -19,-26 -39,-49 -19,-23 -43,-58 -53,-77 -11,-20 -60,-79 -109,-131 -50,-52 -86,-97 -80,-100 5,-4 -11,-29 -36,-56 -24,-27 -54,-59 -65,-71 -11,-13 -16,-23 -10,-23 23,0 8,-34 -33,-72 -26,-26 -37,-43 -29,-46 8,-2 0,-15 -20,-34 -21,-20 -28,-33 -20,-35 17,-6 15,-31 -3,-49 -9,-9 -13,-25 -9,-38 3,-14 -1,-29 -10,-39 -19,-19 -21,-43 -3,-51 9,-5 9,-7 0,-12 -7,-3 -13,-14 -13,-24 0,-10 6,-21 13,-23 10,-4 10,-6 0,-6 -7,-1 -13,-10 -13,-20 0,-11 6,-22 13,-24 9,-4 9,-8 -2,-15 -12,-9 -12,-13 3,-28 11,-10 16,-27 13,-41 -3,-18 4,-34 29,-59 20,-19 34,-43 34,-57 0,-17 8,-28 28,-36 16,-7 35,-21 43,-33 8,-11 36,-43 62,-71 36,-36 51,-47 57,-37 6,9 18,2 46,-26 23,-24 39,-34 41,-26 7,19 37,14 53,-8 8,-11 24,-20 36,-20 12,0 25,-6 28,-12 5,-11 7,-11 12,0 3,6 18,12 34,12 16,0 31,6 34,13 5,9 7,9 12,0 7,-17 31,-17 37,0 2,7 20,-5 45,-31 40,-42 67,-53 74,-30 3,7 13,3 28,-12 15,-15 19,-25 12,-28 -23,-7 -12,-34 30,-74 26,-25 38,-43 31,-45 -17,-6 -17,-30 0,-37 9,-5 9,-7 0,-12 -7,-3 -13,-18 -13,-34 0,-16 -6,-31 -12,-34 -10,-5 -10,-7 0,-12 6,-3 12,-16 12,-28 0,-12 9,-28 20,-36 22,-16 27,-46 8,-53 -8,-2 2,-19 27,-42 23,-23 34,-40 27,-43 -7,-2 -12,-9 -12,-15 0,-20 174,-181 192,-178 10,1 33,-13 52,-32 25,-26 41,-33 59,-30 14,3 31,-2 41,-13 15,-15 19,-15 28,-3 7,11 11,11 15,2 6,-17 40,-17 46,0 4,10 6,10 6,0 1,-7 10,-13 20,-13 11,0 22,6 25,13 5,9 7,9 12,0 8,-18 32,-16 51,3 10,9 25,13 39,10 13,-4 29,0 38,9 18,18 43,20 49,3 2,-8 15,-1 35,20 19,20 32,28 34,20 3,-8 20,3 46,29 38,41 72,56 72,33 0,-6 10,-2 23,10 91,82 122,107 125,100 4,-11 34,16 189,172 121,122 150,132 70,25 -33,-44 -47,-76 -61,-135 -10,-42 -25,-94 -32,-115 -17,-46 -17,-47 1,-47 8,0 15,-9 15,-20 0,-11 -4,-20 -9,-20 -5,0 -12,-18 -16,-40 -4,-22 -11,-40 -16,-40 -5,0 -9,-11 -9,-25 0,-14 -4,-25 -10,-25 -5,0 -10,-4 -10,-10 0,-5 9,-10 20,-10 11,0 20,-4 20,-10 0,-5 -4,-10 -10,-10 -5,0 -10,-13 -10,-30 0,-16 -4,-30 -10,-30 -5,0 -10,-11 -10,-25 0,-14 5,-25 10,-25 6,0 10,-9 10,-20 0,-11 -4,-20 -10,-20 -5,0 -10,-9 -10,-20 0,-13 7,-20 20,-20 11,0 20,-4 20,-10 0,-5 -4,-10 -10,-10 -5,0 -10,-6 -10,-14 0,-8 -6,-16 -12,-19 -9,-3 -5,-12 12,-27 17,-15 21,-24 13,-27 -7,-3 -13,-13 -13,-23 0,-10 -6,-21 -12,-23 -7,-3 -3,-6 8,-6 18,-1 23,-9 28,-51 4,-27 11,-50 16,-50 6,0 10,-11 10,-25 0,-16 6,-25 16,-25 18,0 44,-23 44,-40 0,-17 26,-40 44,-40 9,0 16,-4 16,-10 0,-5 7,-10 15,-10 8,0 15,-4 15,-10 0,-5 -4,-10 -10,-10 -22,0 -8,-18 18,-23 15,-3 67,-24 117,-47 55,-26 91,-38 93,-31 5,14 52,15 52,1 0,-5 9,-10 20,-10 11,0 20,-4 20,-10 0,-5 9,-10 20,-10 13,0 20,7 20,20 0,11 5,20 10,20 6,0 10,-4 10,-10 0,-5 7,-10 15,-10 8,0 15,-4 15,-10 0,-5 5,-10 10,-10 6,0 10,9 10,20 0,16 7,20 30,20 17,0 30,5 30,10 0,6 14,10 30,10 17,0 30,5 30,10 0,6 7,10 15,10 8,0 15,5 15,10 0,6 9,10 20,10 11,0 20,-4 20,-10 0,-5 13,-10 29,-10 16,0 32,-6 34,-12 5,-13 16,-3 32,27 3,6 7,5 11,-2 3,-7 14,-13 25,-13 14,0 19,-7 19,-30 0,-23 4,-30 20,-30 11,0 20,-4 20,-10 0,-5 5,-10 11,-10 14,0 39,-25 39,-39 0,-6 5,-11 10,-11 6,0 10,-11 10,-25 0,-14 5,-25 10,-25 6,0 10,-9 10,-20 0,-11 5,-20 10,-20 6,0 10,-11 10,-25 0,-16 6,-25 16,-25 21,0 39,-20 48,-53 4,-18 13,-27 26,-27 11,0 20,-4 20,-10 0,-5 9,-10 20,-10 14,0 20,-7 20,-22 0,-22 36,-48 67,-48 7,0 13,-4 13,-10 0,-5 9,-10 20,-10 11,0 20,-4 20,-10 0,-5 9,-10 19,-10 11,0 23,-4 26,-10 9,-14 62,-12 69,3 5,9 7,9 12,0 3,-7 19,-13 35,-13 16,0 29,-4 29,-10 0,-5 9,-10 20,-10 14,0 20,7 21,23 0,12 3,16 6,10 2,-7 13,-13 23,-13 10,0 20,-6 23,-12 3,-9 12,-5 27,12 15,17 24,21 27,13 7,-20 23,-15 23,7 0,11 5,20 10,20 6,0 10,-5 10,-12 0,-6 10,0 21,13 15,16 23,20 26,12 7,-20 23,-15 23,7 0,11 5,20 10,20 6,0 10,7 10,15 0,9 8,14 22,12 15,-1 23,4 26,17 6,27 34,55 40,38 6,-19 22,-14 22,8 0,11 5,20 10,20 6,0 10,9 10,20 0,22 16,27 22,8 6,-17 38,14 38,35 0,33 13,47 41,47 24,0 29,4 29,25 0,14 5,25 10,25 6,0 10,7 10,15 0,8 5,15 10,15 6,0 10,12 10,26 0,34 28,63 41,43 7,-11 9,-9 9,9 0,12 5,22 10,22 6,0 10,9 10,20 0,11 3,20 8,20 10,0 32,50 32,72 0,10 5,18 10,18 6,0 10,9 10,20 0,11 5,20 10,20 6,0 10,11 10,25 0,14 4,25 9,25 5,0 15,29 22,65 7,36 16,65 21,65 4,0 8,9 8,20 0,11 5,20 10,20 6,0 10,9 10,20 0,11 5,20 10,20 6,0 10,11 10,25 0,14 5,25 10,25 6,0 10,9 10,20 0,11 5,20 11,20 6,0 8,-8 5,-17 -15,-53 -16,-78 -2,-173 9,-60 16,-170 16,-262 0,-134 2,-158 15,-158 12,0 15,-16 15,-85 0,-78 2,-85 20,-85 18,0 20,-7 20,-60 0,-53 2,-60 20,-60 16,0 20,-7 20,-35 0,-28 4,-35 20,-35 17,0 20,-7 20,-40 0,-29 4,-40 15,-40 10,0 15,-11 15,-35 0,-28 4,-35 20,-35 13,0 20,-7 20,-20 0,-13 7,-20 20,-20 11,0 20,-7 20,-15 0,-8 9,-15 20,-15 13,0 20,-7 20,-20 0,-16 7,-20 35,-20 28,0 35,-4 35,-20 0,-18 7,-20 55,-20 48,0 55,-2 55,-20 0,-19 7,-20 135,-20 128,0 135,1 135,20 0,18 7,20 55,20 48,0 55,2 55,20 0,16 7,20 35,20 28,0 35,4 35,20 0,13 7,20 20,20 11,0 20,7 20,15 0,8 9,15 20,15 13,0 20,7 20,20 0,11 7,20 15,20 8,0 15,9 15,20 0,18 7,20 60,20 47,0 60,3 60,15 0,10 10,15 30,15 20,0 30,-5 30,-15 0,-12 13,-15 55,-15 48,0 55,-2 55,-20 0,-13 7,-20 20,-20 13,0 20,-7 20,-20 0,-13 7,-20 20,-20 11,0 20,-7 20,-15 0,-8 9,-15 20,-15 13,0 20,-7 20,-20 0,-16 7,-20 35,-20 28,0 35,-4 35,-20 0,-18 7,-20 55,-20 48,0 55,-2 55,-20 0,-19 7,-20 135,-20 128,0 135,1 135,20 0,18 7,20 55,20 48,0 55,2 55,20 0,16 7,20 35,20 28,0 35,4 35,20 0,13 7,20 20,20 11,0 20,7 20,15 0,8 9,15 20,15 13,0 20,7 20,20 0,13 7,20 20,20 16,0 20,7 20,35 0,24 5,35 15,35 11,0 15,11 15,40 0,33 3,40 20,40 16,0 20,7 20,35 0,28 4,35 20,35 18,0 20,7 20,60 0,53 2,60 20,60 18,0 20,7 20,85 0,69 3,85 15,85 13,0 15,28 16,193 l 1,192 17,-80 c 17,-80 76,-209 91,-200 5,3 14,-11 20,-30 6,-19 18,-35 26,-35 22,0 44,-25 44,-49 0,-12 5,-21 10,-21 6,0 10,-9 10,-20 0,-11 5,-20 10,-20 6,0 10,-11 10,-25 0,-16 6,-25 15,-25 8,0 15,5 15,10 0,6 5,10 10,10 6,0 10,-11 10,-25 0,-14 5,-25 10,-25 6,0 10,-7 10,-16 0,-22 32,-53 38,-36 6,19 22,14 22,-8 0,-11 5,-20 10,-20 6,0 10,-10 10,-22 0,-18 2,-20 9,-9 8,12 12,12 25,-2 9,-8 16,-25 16,-36 0,-12 5,-21 10,-21 6,0 10,5 10,10 0,6 9,10 20,10 16,0 20,-7 20,-30 0,-25 4,-30 25,-30 18,0 25,-5 25,-20 0,-11 5,-20 10,-20 6,0 10,5 10,12 0,6 10,0 21,-13 15,-16 23,-20 26,-11 7,19 23,14 23,-8 0,-13 7,-20 20,-20 11,0 20,5 20,10 0,6 11,10 25,10 14,0 25,-4 25,-10 0,-5 9,-10 20,-10 11,0 20,5 20,10 0,6 13,10 29,10 16,0 32,6 34,13 3,6 6,2 6,-10 1,-19 7,-23 31,-23 17,0 30,5 30,10 0,6 8,10 18,10 22,0 72,22 72,33 0,4 9,7 20,7 11,0 20,5 20,10 0,6 14,10 30,10 27,0 30,3 30,30 0,23 5,31 25,36 14,3 25,10 25,15 0,5 9,9 20,9 16,0 20,7 20,30 0,27 3,30 30,30 23,0 30,4 30,20 0,11 -4,20 -10,20 -5,0 -10,5 -10,10 0,6 8,10 19,10 14,0 20,10 25,40 3,22 11,40 16,40 6,0 10,13 10,29 0,27 3,29 50,35 47,6 50,8 50,36 0,19 5,30 14,30 8,0 16,6 19,13 3,8 12,4 27,-13 15,-17 24,-21 27,-12 3,6 13,12 24,12 10,0 19,5 19,10 0,6 11,10 25,10 14,0 25,-4 25,-10 0,-5 14,-10 30,-10 17,0 30,-4 30,-10 0,-5 9,-10 20,-10 11,0 20,-4 20,-10 0,-5 11,-10 25,-10 16,0 25,-6 25,-15 0,-12 7,-14 28,-9 15,4 29,11 30,16 6,14 22,9 22,-8 0,-13 7,-15 43,-9 23,4 45,12 49,18 4,6 13,4 24,-7 17,-18 65,-15 72,5 2,5 14,9 27,9 13,0 27,5 30,10 3,6 15,10 26,10 10,0 19,5 19,10 0,6 9,10 20,10 11,0 20,5 20,10 0,6 7,10 15,10 10,0 15,10 15,30 0,28 3,30 50,36 28,4 50,10 50,15 0,5 -4,9 -10,9 -5,0 -10,9 -10,20 0,14 7,20 21,20 25,0 60,31 41,38 -20,6 -14,22 11,23 12,0 16,3 10,6 -21,8 -15,43 7,43 22,0 27,16 8,23 -9,3 -5,12 12,27 17,15 21,24 13,27 -15,5 -18,53 -3,53 6,0 10,9 10,20 0,11 -4,20 -10,20 -5,0 -10,9 -10,20 0,11 5,20 10,20 6,0 10,20 10,45 0,25 5,45 10,45 6,0 10,9 10,20 0,11 -4,20 -10,20 -5,0 -10,9 -10,20 0,11 -4,20 -10,20 -5,0 -10,7 -10,15 0,8 9,15 20,15 11,0 20,5 20,10 0,6 -4,10 -10,10 -5,0 -10,9 -10,20 0,11 -4,20 -10,20 -5,0 -10,14 -10,30 0,17 -4,30 -10,30 -5,0 -10,7 -10,15 0,8 -4,15 -10,15 -5,0 -10,9 -10,20 0,13 7,20 20,20 16,0 18,4 12,18 -44,89 -53,113 -59,145 -3,20 -10,37 -14,37 -5,0 -9,9 -9,19 0,11 -4,23 -10,26 -5,3 -10,15 -10,26 0,10 -4,19 -10,19 -5,0 -10,8 -10,18 0,22 -22,72 -32,72 -5,0 -8,11 -8,24 0,14 -4,28 -10,31 -5,3 -10,15 -10,25 0,10 -4,20 -9,22 -4,2 -11,21 -14,43 -4,22 -4,34 -1,27 3,-6 9,-10 14,-7 4,3 20,-8 33,-25 14,-16 30,-30 35,-30 5,0 19,-11 32,-25 13,-14 27,-25 31,-25 8,0 108,-89 133,-118 14,-17 86,-88 130,-129 20,-19 36,-27 38,-21 3,7 25,-8 51,-32 80,-77 97,-91 97,-80 0,23 34,8 72,-33 26,-26 43,-37 46,-29 2,8 15,0 34,-20 20,-21 33,-28 35,-20 6,17 31,15 49,-3 9,-9 25,-13 38,-9 14,3 29,-1 39,-10 19,-19 43,-21 51,-3 5,9 7,9 12,0 3,-7 14,-13 24,-13 10,0 21,6 23,13 4,9 6,9 6,0 1,-17 38,-17 44,0 4,9 8,9 15,-2 9,-12 13,-12 28,3 10,11 27,16 41,13 18,-3 34,4 59,29 34,35 59,43 66,22 3,-7 13,0 24,17 18,29 36,47 116,117 37,33 48,63 26,70 -7,3 4,20 27,43 25,23 35,40 28,42 -20,7 -15,37 7,53 11,8 20,24 20,36 0,12 6,25 13,28 10,5 10,7 0,12 -7,3 -13,18 -13,34 0,16 -6,31 -12,34 -10,5 -10,7 0,12 6,3 12,12 12,19 0,7 -6,15 -12,18 -8,2 4,20 30,45 42,40 53,67 30,74 -7,3 -3,13 12,28 15,15 25,19 28,12 7,-23 34,-12 74,31 25,25 43,37 45,30 6,-17 30,-17 37,0 5,9 7,9 12,0 3,-7 18,-13 34,-13 16,0 31,-6 34,-12 5,-10 7,-10 12,0 3,6 16,12 28,12 12,0 28,9 36,20 16,22 46,27 53,8 2,-8 18,2 41,26 28,28 40,35 46,26 6,-10 21,1 57,37 26,28 54,60 62,71 8,12 27,26 43,33 20,8 28,19 28,36 0,14 14,38 34,57 25,25 32,41 29,59 -3,13 1,30 9,38 18,19 22,80 6,91 -10,6 -10,8 0,8 6,0 12,9 12,19 0,11 -6,22 -12,25 -10,5 -10,7 0,12 17,8 15,32 -4,51 -9,10 -13,25 -10,39 4,13 0,29 -9,38 -18,18 -20,43 -2,49 7,2 0,15 -21,35 -20,19 -28,32 -20,34 8,3 -3,20 -29,46 -41,38 -56,72 -33,72 11,0 -3,17 -79,96 -32,34 -40,48 -31,54 16,10 -49,86 -148,176 -63,57 -77,83 -25,47 33,-24 72,-34 131,-36 23,-1 42,-5 42,-9 0,-5 8,-8 19,-8 10,0 31,-7 47,-15 19,-10 30,-11 35,-4 8,13 119,-9 119,-23 0,-4 11,-8 25,-8 14,0 25,-4 25,-10 0,-5 5,-10 10,-10 6,0 10,6 10,14 0,11 9,13 38,9 20,-3 38,-10 40,-15 5,-12 52,-10 52,2 0,6 9,10 20,10 11,0 20,-4 20,-10 0,-5 9,-10 20,-10 11,0 20,5 20,10 0,14 47,12 54,-2 5,-11 7,-11 12,0 7,16 81,16 87,0 3,-7 6,-3 6,8 1,18 9,23 51,28 28,4 50,11 50,16 0,6 11,10 25,10 16,0 25,6 25,16 0,18 23,44 40,44 17,0 40,26 40,44 0,9 5,16 10,16 6,0 10,7 10,15 0,8 5,15 10,15 6,0 10,-4 10,-10 0,-21 18,-9 25,17 3,14 24,62 46,107 40,82 47,106 29,106 -5,0 -10,11 -10,25 0,14 5,25 10,25 6,0 10,9 10,20 0,11 5,20 10,20 6,0 10,9 10,20 0,13 -7,20 -20,20 -11,0 -20,5 -20,10 0,6 5,10 10,10 6,0 10,9 10,19 0,11 6,22 13,24 6,3 2,6 -10,6 -19,1 -23,7 -23,31 0,17 -4,30 -10,30 -5,0 -10,14 -10,30 0,17 -4,30 -10,30 -5,0 -10,7 -10,15 0,8 -4,15 -10,15 -5,0 -10,9 -10,20 0,11 5,20 10,20 6,0 10,13 10,29 0,16 6,32 13,34 12,5 2,16 -28,32 -6,3 -5,7 3,11 6,3 12,14 12,25 0,14 7,19 30,19 23,0 30,4 30,20 0,11 5,20 10,20 6,0 10,9 10,20 0,13 9,22 25,26 14,3 25,10 25,15 0,5 11,9 25,9 14,0 25,5 25,10 0,6 9,10 20,10 11,0 20,5 20,10 0,6 11,10 25,10 16,0 25,6 25,16 0,18 23,44 40,44 14,0 40,25 40,39 0,6 5,11 10,11 6,0 10,9 10,20 0,11 7,20 15,20 8,0 15,-4 15,-10 0,-5 5,-10 10,-10 6,0 10,11 10,25 0,14 5,25 10,25 6,0 10,9 10,20 0,11 3,20 8,20 10,0 32,50 32,72 0,10 5,18 10,18 6,0 10,9 10,19 0,11 6,22 13,24 12,5 2,16 -28,32 -6,3 -5,7 3,11 6,3 12,19 12,35 0,16 5,29 10,29 6,0 10,9 10,20 0,14 -7,20 -22,21 -13,0 -17,3 -10,6 6,2 12,13 12,24 0,10 5,19 10,19 6,0 10,5 10,10 0,6 -9,10 -20,10 -13,0 -20,7 -20,20 0,11 5,20 10,20 6,0 10,5 10,10 0,6 -9,10 -20,10 -11,0 -20,5 -20,10 0,6 5,10 12,10 6,0 0,10 -13,21 -16,15 -20,23 -11,26 19,7 14,23 -8,23 -11,0 -20,5 -20,10 0,6 -7,10 -16,10 -10,0 -13,6 -10,18 8,23 -4,38 -36,46 -26,6 -40,26 -18,26 6,0 10,5 10,10 0,6 -9,10 -20,10 -11,0 -20,5 -20,10 0,6 -9,10 -20,10 -22,0 -27,16 -8,22 17,6 -15,38 -37,38 -16,0 -45,22 -45,35 0,10 -28,35 -39,35 -6,0 -11,5 -11,10 0,6 -9,10 -20,10 -11,0 -20,4 -20,9 0,5 -16,16 -36,26 -28,13 -33,19 -23,26 11,7 11,9 -2,9 -9,0 -78,29 -155,65 -76,36 -144,65 -150,65 -6,0 -37,13 -70,28 -32,16 -74,35 -92,43 -19,8 -31,20 -30,29 4,18 38,21 341,27 182,3 217,6 217,18 0,12 17,15 85,15 78,0 85,2 85,20 0,18 7,20 60,20 53,0 60,2 60,20 0,16 7,20 35,20 28,0 35,4 35,20 0,17 7,20 40,20 29,0 40,4 40,15 0,10 11,15 35,15 28,0 35,4 35,20 0,13 7,20 20,20 13,0 20,7 20,20 0,11 7,20 15,20 8,0 15,9 15,20 0,13 7,20 20,20 16,0 20,7 20,35 0,28 4,35 20,35 18,0 20,7 20,55 0,48 2,55 20,55 19,0 20,7 20,130 0,123 -1,130 -20,130 -18,0 -20,7 -20,55 0,48 -2,55 -20,55 -16,0 -20,7 -20,35 0,28 -4,35 -20,35 -13,0 -20,7 -20,20 0,11 -7,20 -15,20 -8,0 -15,9 -15,20 0,13 -7,20 -20,20 -13,0 -20,7 -20,20 0,13 -7,20 -20,20 -18,0 -20,7 -20,55 0,42 -3,55 -15,55 -10,0 -15,11 -15,35 0,24 5,35 15,35 12,0 15,13 15,55 0,48 2,55 20,55 13,0 20,7 20,20 0,13 7,20 20,20 13,0 20,7 20,20 0,11 7,20 15,20 8,0 15,9 15,20 0,13 7,20 20,20 16,0 20,7 20,35 0,28 4,35 20,35 18,0 20,7 20,55 0,48 2,55 20,55 19,0 20,7 20,130 0,123 -1,130 -20,130 -18,0 -20,7 -20,55 0,48 -2,55 -20,55 -16,0 -20,7 -20,35 0,28 -4,35 -20,35 -13,0 -20,7 -20,20 0,11 -7,20 -15,20 -8,0 -15,9 -15,20 0,13 -7,20 -20,20 -13,0 -20,7 -20,20 0,16 -7,20 -35,20 -24,0 -35,5 -35,15 0,11 -11,15 -40,15 -33,0 -40,3 -40,20 0,16 -7,20 -35,20 -28,0 -35,4 -35,20 0,18 -7,20 -60,20 -53,0 -60,2 -60,20 0,18 -7,20 -85,20 -69,0 -85,3 -85,15 0,13 -24,15 -152,16 -84,1 -143,4 -132,6 12,2 24,12 27,22 2,10 17,21 32,25 32,8 57,30 47,41 -4,5 -2,5 5,2 6,-4 17,-1 25,6 7,8 31,17 52,21 41,8 66,26 66,48 0,15 44,38 72,38 10,0 18,5 18,10 0,6 9,10 20,10 11,0 20,5 20,10 0,6 9,10 20,10 22,0 27,15 8,23 -8,3 -6,6 5,6 9,1 17,6 17,11 0,6 9,10 20,10 11,0 20,5 20,10 0,6 9,10 20,10 22,0 27,16 8,22 -21,7 17,38 46,38 14,0 26,5 26,10 0,6 -4,10 -10,10 -5,0 -10,7 -10,15 0,9 9,15 25,15 21,0 25,5 25,30 0,23 4,30 20,30 11,0 20,5 20,10 0,6 9,10 20,10 22,0 27,15 8,23 -13,5 -3,16 27,32 6,3 5,7 -2,11 -20,9 -15,24 7,24 22,0 27,16 8,22 -10,4 -9,9 3,20 21,21 20,175 -2,189 -11,8 -11,12 -1,16 14,5 16,34 4,48 -5,6 -15,29 -22,53 -7,23 -17,42 -22,42 -4,0 -8,7 -8,15 0,21 -32,85 -43,85 -16,0 -37,29 -43,59 -6,26 -11,31 -35,31 -26,0 -29,4 -29,30 0,27 -3,30 -30,30 -16,0 -30,5 -30,10 0,6 -7,10 -15,10 -8,0 -15,5 -15,10 0,6 -13,10 -30,10 -20,0 -30,5 -30,15 0,8 -4,15 -10,15 -5,0 -10,-4 -10,-10 0,-5 -9,-10 -20,-10 -16,0 -20,7 -20,30 0,17 -4,30 -10,30 -5,0 -10,9 -10,20 0,15 -7,20 -25,20 -18,0 -25,5 -25,20 0,11 -5,20 -12,20 -6,0 0,10 13,21 16,15 20,23 12,26 -7,3 -13,18 -13,34 0,16 -4,29 -10,29 -5,0 -10,7 -10,15 0,8 9,15 20,15 22,0 27,25 8,34 -10,5 -10,7 0,12 6,3 12,19 12,35 0,19 5,29 15,29 11,0 14,7 9,25 -5,19 -2,25 10,25 9,0 16,5 16,10 0,6 -4,10 -10,10 -5,0 -10,14 -10,30 0,17 5,30 10,30 14,0 13,47 -1,52 -7,2 -11,24 -11,48 0,55 -68,225 -103,255 -13,12 -26,38 -30,58 -6,33 -11,37 -36,37 -24,0 -29,4 -29,25 0,21 -5,25 -30,25 -16,0 -30,5 -30,10 0,6 -7,10 -15,10 -8,0 -15,5 -15,10 0,6 -16,10 -35,10 -28,0 -35,4 -35,20 0,11 -4,20 -10,20 -5,0 -10,-4 -10,-10 0,-15 -67,-12 -74,3 -5,10 -7,10 -12,0 -7,-15 -64,-18 -64,-3 0,15 -48,12 -53,-2 -3,-9 -12,-5 -27,12 -15,17 -24,21 -27,13 -3,-7 -13,-13 -24,-13 -10,0 -19,-4 -19,-10 0,-5 -11,-10 -25,-10 -14,0 -25,5 -25,10 0,6 -9,10 -20,10 -11,0 -20,-4 -20,-10 0,-5 -13,-10 -30,-10 -16,0 -30,-3 -30,-8 0,-13 -60,-34 -82,-29 -12,4 -44,-4 -74,-18 -28,-13 -68,-27 -88,-30 -20,-4 -36,-11 -36,-16 0,-5 -9,-9 -19,-9 -11,0 -23,-4 -26,-10 -3,-5 -15,-10 -26,-10 -10,0 -19,-4 -19,-10 0,-5 -11,-10 -24,-10 -14,0 -28,-4 -31,-10 -3,-5 -15,-10 -26,-10 -10,0 -19,-4 -19,-10 0,-5 -9,-10 -19,-10 -11,0 -22,-4 -25,-9 -3,-5 -22,-12 -42,-15 -19,-4 -51,-16 -70,-27 -42,-23 -39,-23 -41,1 -1,11 13,32 35,50 62,51 92,82 92,96 0,8 4,14 10,14 10,0 32,23 95,96 22,25 52,60 68,77 15,16 27,33 27,38 0,4 17,18 38,30 48,30 65,46 51,51 -6,2 10,26 35,53 25,28 55,60 66,72 23,26 25,40 8,46 -8,2 5,21 32,47 27,26 40,45 33,47 -19,7 -16,27 7,43 22,16 27,46 8,53 -9,3 -6,11 10,24 23,21 30,53 11,53 -6,0 -5,6 3,15 41,45 41,47 27,57 -11,7 -11,11 -1,15 6,2 12,13 12,23 0,10 -6,21 -12,23 -10,4 -10,6 0,6 6,1 12,10 12,20 0,11 -6,22 -12,25 -10,5 -10,7 0,12 16,8 15,32 -3,50 -8,9 -15,25 -15,36 0,11 -14,33 -31,49 -17,15 -29,36 -28,46 4,26 -179,213 -190,195 -6,-10 -16,-5 -42,20 -19,18 -45,34 -58,35 -12,1 -32,12 -43,25 -14,15 -22,19 -25,11 -3,-7 -11,-13 -18,-13 -7,0 -16,6 -19,13 -5,10 -7,10 -12,0 -3,-7 -18,-13 -34,-13 -16,0 -31,-6 -34,-12 -5,-10 -7,-10 -12,0 -3,6 -12,12 -19,12 -7,0 -15,-6 -18,-12 -2,-8 -20,4 -45,30 -26,27 -49,42 -60,40 -26,-4 -51,19 -45,42 4,14 -8,32 -38,61 -27,26 -39,44 -31,46 6,3 12,11 12,18 0,7 -6,16 -12,19 -10,5 -10,7 0,12 6,3 12,18 12,34 0,16 6,31 13,34 10,5 10,7 0,12 -7,3 -13,12 -13,19 0,7 6,15 13,18 7,2 -1,16 -22,36 -27,25 -32,34 -21,41 11,7 6,16 -23,43 -27,24 -36,39 -31,51 5,13 -18,41 -90,111 -53,52 -96,90 -96,85 0,-20 -33,-9 -60,20 -15,17 -37,30 -48,30 -11,0 -27,7 -36,15 -18,18 -42,19 -50,3 -5,-10 -7,-10 -12,0 -3,6 -14,12 -24,12 -10,0 -21,-6 -23,-12 -4,-10 -6,-10 -6,0 -1,6 -10,12 -20,12 -11,0 -22,-6 -24,-12 -4,-10 -8,-10 -15,1 -9,12 -12,12 -26,0 -37,-33 -46,-39 -46,-29 0,18 -32,11 -53,-12 -13,-16 -21,-19 -24,-10 -7,19 -37,14 -53,-8 -16,-23 -36,-26 -43,-7 -2,7 -21,-6 -47,-33 -26,-27 -45,-40 -47,-32 -6,17 -20,15 -46,-8 -12,-11 -44,-40 -71,-65 -27,-24 -52,-42 -56,-40 -5,3 -53,-39 -108,-92 -123,-120 -130,-126 -142,-118 -13,8 -13,42 0,50 6,3 10,16 10,28 0,36 72,227 85,227 7,0 16,19 19,45 4,25 11,45 17,45 5,0 9,9 9,20 0,11 5,20 10,20 15,0 12,67 -2,74 -10,5 -10,7 0,12 6,3 12,19 12,35 0,16 5,29 10,29 6,0 10,7 10,15 0,8 -9,15 -20,15 -11,0 -20,5 -20,10 0,6 5,10 10,10 6,0 10,9 10,20 0,11 5,20 10,20 6,0 10,5 10,10 0,6 -9,10 -20,10 -13,0 -20,7 -20,20 0,11 5,20 10,20 6,0 10,11 10,25 0,14 -4,25 -10,25 -5,0 -10,9 -10,20 0,11 5,20 10,20 6,0 10,9 10,20 0,11 -4,20 -10,20 -5,0 -10,11 -10,25 0,14 -4,25 -10,25 -5,0 -12,22 -16,49 -6,44 -9,50 -35,55 -17,3 -29,12 -29,21 0,21 -24,45 -44,45 -9,0 -16,5 -16,10 0,6 -6,10 -14,10 -8,0 -16,10 -18,22 -2,15 -13,26 -33,32 -16,5 -64,24 -105,42 -78,35 -110,42 -110,24 0,-5 -9,-10 -20,-10 -11,0 -20,5 -20,10 0,6 -7,10 -15,10 -8,0 -15,5 -15,10 0,6 -9,10 -20,10 -13,0 -20,-7 -20,-20 0,-11 -4,-20 -10,-20 -5,0 -10,5 -10,10 0,6 -9,10 -19,10 -11,0 -22,6 -24,13 -3,6 -6,2 -6,-10 -1,-16 -7,-23 -21,-23 -11,0 -20,5 -20,10 0,6 -4,10 -10,10 -5,0 -10,-9 -10,-20 0,-15 -7,-20 -29,-20 -16,0 -32,-6 -34,-12 -4,-10 -8,-9 -16,2 -9,13 -11,12 -11,-3 0,-17 -6,-18 -52,-12 -29,4 -57,13 -61,19 -6,8 -10,8 -14,-1 -2,-7 -20,-13 -39,-13 -31,0 -34,3 -34,30 0,23 -4,30 -20,30 -11,0 -20,5 -20,10 0,6 -9,10 -19,10 -20,0 -35,25 -25,41 3,5 -2,9 -10,9 -9,0 -16,9 -16,20 0,11 5,20 10,20 6,0 10,5 10,10 0,6 -9,10 -20,10 -16,0 -20,7 -20,30 0,17 -4,30 -10,30 -5,0 -10,5 -10,11 0,16 -26,39 -44,39 -11,0 -16,9 -16,30 0,25 -4,30 -25,30 -14,0 -25,5 -25,10 0,6 -9,10 -20,10 -22,0 -27,16 -7,23 6,2 10,6 7,9 -6,6 -229,108 -235,108 -3,0 -5,-7 -5,-15 0,-8 -9,-15 -20,-15 -11,0 -20,5 -20,10 0,6 -13,10 -29,10 -16,0 -32,6 -35,13 -5,10 -7,10 -12,0 -7,-15 -74,-18 -74,-3 0,6 -4,10 -10,10 -5,0 -10,-9 -10,-20 0,-22 -16,-27 -23,-7 -3,8 -12,4 -26,-13 -19,-20 -24,-22 -31,-10 -8,12 -10,10 -10,-7 0,-19 -6,-23 -30,-23 -16,0 -30,-5 -30,-11 0,-18 -33,-46 -38,-31 -8,24 -20,11 -27,-28 -7,-39 -19,-52 -27,-28 -6,17 -38,-14 -38,-36 0,-11 -9,-16 -30,-16 -20,0 -30,-5 -30,-15 0,-8 -4,-15 -10,-15 -5,0 -10,-13 -10,-30 0,-25 -4,-30 -25,-30 -18,0 -25,-5 -25,-20 0,-11 -4,-20 -10,-20 -5,0 -10,-9 -10,-20 0,-11 -4,-20 -10,-20 -5,0 -10,-7 -10,-15 0,-8 -4,-15 -10,-15 -5,0 -10,-13 -10,-30 0,-23 -5,-30 -19,-30 -13,0 -26,-14 -40,-42 -50,-105 -131,-290 -131,-299 0,-6 -19,-51 -42,-101 -37,-79 -43,-87 -50,-67 -5,12 -8,39 -8,58 0,20 -3,145 -6,279 -5,195 -9,242 -20,242 -11,0 -14,21 -14,90 0,83 -1,90 -20,90 -18,0 -20,7 -20,60 0,53 -2,60 -20,60 -16,0 -20,7 -20,35 0,28 -4,35 -20,35 -17,0 -20,7 -20,40 0,29 -4,40 -15,40 -10,0 -15,11 -15,35 0,28 -4,35 -20,35 -13,0 -20,7 -20,20 0,13 -7,20 -20,20 -13,0 -20,7 -20,20 0,13 -7,20 -20,20 -11,0 -20,7 -20,15 0,10 -11,15 -35,15 -28,0 -35,4 -35,20 0,18 -7,20 -55,20 -48,0 -55,2 -55,20 0,19 -7,20 -135,20 -128,0 -135,-1 -135,-20 0,-18 -7,-20 -55,-20 -48,0 -55,-2 -55,-20 0,-16 -7,-20 -35,-20 -24,0 -35,-5 -35,-15 0,-8 -9,-15 -20,-15 -13,0 -20,-7 -20,-20 0,-13 -7,-20 -20,-20 -13,0 -20,-7 -20,-20 0,-13 -7,-20 -20,-20 -13,0 -20,-7 -20,-20 0,-18 -7,-20 -55,-20 -42,0 -55,-3 -55,-15 0,-9 -9,-15 -25,-15 -16,0 -25,6 -25,15 0,12 -13,15 -60,15 -53,0 -60,2 -60,20 0,11 -7,20 -15,20 -8,0 -15,9 -15,20 0,13 -7,20 -20,20 -13,0 -20,7 -20,20 0,13 -7,20 -20,20 -11,0 -20,7 -20,15 0,10 -11,15 -35,15 -28,0 -35,4 -35,20 0,18 -7,20 -55,20 -48,0 -55,2 -55,20 0,19 -7,20 -135,20 -128,0 -135,-1 -135,-20 z m 230,-40 c 0,-18 7,-20 55,-20 42,0 55,-3 55,-15 0,-10 11,-15 35,-15 28,0 35,-4 35,-20 0,-13 7,-20 20,-20 13,0 20,-7 20,-20 0,-13 7,-20 20,-20 13,0 20,-7 20,-20 0,-13 7,-20 20,-20 11,0 20,-7 20,-15 0,-10 11,-15 35,-15 28,0 35,-4 35,-20 0,-19 7,-20 105,-20 98,0 105,1 105,20 0,16 7,20 35,20 24,0 35,5 35,15 0,8 9,15 20,15 13,0 20,7 20,20 0,13 7,20 20,20 13,0 20,7 20,20 0,11 7,20 15,20 8,0 15,9 15,20 0,17 7,20 40,20 29,0 40,4 40,15 0,12 13,15 55,15 48,0 55,2 55,20 0,19 7,20 95,20 88,0 95,-1 95,-20 0,-18 7,-20 55,-20 42,0 55,-3 55,-15 0,-11 11,-15 40,-15 33,0 40,-3 40,-20 0,-11 7,-20 15,-20 8,0 15,-9 15,-20 0,-13 7,-20 20,-20 13,0 20,-7 20,-20 0,-13 7,-20 20,-20 16,0 20,-7 20,-35 0,-28 4,-35 20,-35 17,0 20,-7 20,-40 0,-29 4,-40 15,-40 10,0 15,-11 15,-35 0,-28 4,-35 20,-35 18,0 20,-7 20,-75 0,-68 2,-75 20,-75 18,0 20,-7 20,-75 0,-68 2,-75 20,-75 20,0 20,-7 20,-282 0,-160 -5,-303 -11,-328 -28,-122 -139,-683 -139,-704 0,-13 -30,-165 -66,-338 -36,-172 -69,-344 -74,-383 -8,-70 -50,-270 -114,-550 -64,-274 -212,-1022 -205,-1029 2,-2 13,-6 24,-10 19,-6 23,4 49,128 15,73 29,151 31,172 1,22 17,111 34,199 49,241 172,847 250,1235 39,190 84,413 100,495 17,83 49,231 71,330 22,99 45,216 51,260 6,44 14,82 20,83 5,2 9,12 9,23 0,10 5,19 10,19 6,0 10,7 10,15 0,8 5,15 10,15 6,0 10,14 10,30 0,17 5,30 10,30 6,0 10,9 10,20 0,11 5,20 10,20 6,0 10,9 10,20 0,11 5,20 10,20 6,0 10,7 10,15 0,23 198,425 209,425 6,0 11,9 11,20 0,11 5,20 10,20 6,0 10,9 10,20 0,11 5,20 10,20 6,0 10,11 10,25 0,22 3,25 25,19 22,-5 25,-3 25,20 0,14 5,26 10,26 6,0 10,9 10,20 0,11 5,20 10,20 6,0 10,9 10,20 0,16 7,20 30,20 17,0 30,5 30,11 0,11 25,39 35,39 12,0 35,29 35,44 0,11 9,16 30,16 27,0 30,3 30,30 0,23 5,30 19,30 11,0 22,-6 24,-12 3,-8 6,-6 6,5 1,12 9,17 31,17 17,0 30,5 30,10 0,6 9,10 20,10 11,0 20,5 20,10 0,6 9,10 20,10 11,0 20,-4 20,-10 0,-5 7,-10 15,-10 8,0 15,5 15,10 0,6 14,10 30,10 17,0 30,-4 30,-10 0,-5 13,-10 29,-10 16,0 32,-6 34,-12 3,-7 6,-3 6,10 1,15 7,22 21,22 11,0 20,-4 20,-10 0,-5 9,-10 20,-10 11,0 20,-4 20,-9 0,-6 20,-13 45,-17 41,-6 45,-9 45,-35 0,-22 5,-29 20,-29 11,0 20,-4 20,-10 0,-5 7,-10 16,-10 22,0 53,-32 36,-38 -23,-7 -12,-21 23,-28 35,-6 46,-19 23,-27 -9,-3 -5,-12 12,-27 17,-15 21,-24 13,-27 -20,-7 -15,-23 7,-23 22,0 28,-35 8,-43 -7,-3 -3,-6 10,-6 18,-1 22,-7 22,-31 0,-26 4,-30 26,-30 24,0 26,-3 21,-29 -6,-28 -4,-29 38,-36 25,-3 45,-10 45,-16 0,-5 9,-9 20,-9 11,0 20,-4 20,-10 0,-5 11,-10 24,-10 13,0 27,-6 30,-12 5,-10 7,-10 12,0 3,7 24,12 49,12 25,0 45,-5 48,-12 3,-7 6,-3 6,10 1,18 7,22 30,22 16,0 32,6 35,13 5,10 7,10 12,0 8,-18 24,-16 24,2 0,9 9,15 25,15 14,0 25,5 25,10 0,6 9,10 20,10 11,0 20,-4 20,-10 0,-5 9,-10 20,-10 11,0 20,5 20,10 0,12 47,14 52,2 7,-19 56,-22 73,-5 12,11 19,13 24,5 3,-6 26,-14 49,-18 23,-4 42,-10 42,-15 0,-5 7,-9 16,-9 22,0 53,-32 36,-38 -19,-6 -14,-22 8,-22 11,0 20,-4 20,-10 0,-5 7,-10 15,-10 8,0 15,-4 15,-10 0,-5 9,-10 20,-10 11,0 20,-4 20,-10 0,-5 -5,-10 -11,-10 -6,0 -4,-7 5,-15 8,-8 26,-15 40,-15 14,0 26,-4 26,-10 0,-5 -4,-10 -10,-10 -5,0 -10,-9 -10,-20 0,-11 5,-20 10,-20 6,0 10,-9 10,-20 0,-11 5,-20 10,-20 6,0 10,-11 10,-25 0,-16 6,-25 15,-25 12,0 14,-7 9,-27 -4,-16 -12,-31 -17,-35 -7,-4 -5,-11 4,-20 19,-19 19,-266 1,-277 -7,-4 -12,-21 -11,-37 1,-16 -37,-136 -84,-266 -79,-219 -103,-269 -166,-348 -11,-14 -21,-30 -21,-37 0,-6 -17,-33 -37,-60 -20,-26 -73,-104 -118,-173 -44,-69 -92,-141 -108,-161 -15,-20 -27,-41 -27,-47 0,-6 -16,-32 -36,-58 -20,-26 -66,-93 -102,-148 -35,-56 -81,-123 -102,-151 -21,-27 -45,-66 -54,-85 -9,-19 -27,-48 -41,-64 -13,-15 -63,-88 -110,-162 -48,-74 -90,-134 -95,-134 -4,0 -20,-25 -35,-55 -16,-30 -35,-62 -44,-72 -27,-29 -101,-141 -101,-152 0,-6 -3,-11 -7,-11 -5,0 -21,-20 -36,-45 -16,-25 -47,-66 -68,-92 -21,-26 -39,-52 -39,-58 -1,-10 -12,-25 -97,-138 -24,-31 -43,-63 -43,-72 0,-8 -4,-15 -10,-15 -5,0 -25,-28 -46,-62 -20,-34 -46,-75 -59,-90 -12,-14 -32,-46 -44,-70 -11,-24 -32,-56 -46,-72 -13,-16 -37,-49 -53,-75 -15,-25 -32,-53 -37,-62 -20,-33 -99,-145 -122,-172 -29,-36 -29,-41 1,-55 23,-10 28,-6 75,58 28,37 51,72 51,78 0,5 23,40 51,78 28,38 62,90 75,116 13,26 28,49 34,53 6,4 8,11 4,17 -6,9 39,80 78,122 9,10 29,43 44,72 15,30 30,54 34,54 7,0 93,123 116,166 6,12 40,59 74,105 34,46 66,95 72,109 5,14 20,36 33,50 13,14 52,70 88,125 36,55 88,131 116,169 28,38 51,74 51,81 0,6 15,29 34,51 18,21 59,80 91,129 32,50 81,122 110,160 28,39 56,82 62,96 6,15 25,42 40,60 31,36 93,124 93,133 0,2 26,41 58,86 31,45 67,100 80,123 13,23 41,65 62,92 20,28 61,87 91,133 39,61 58,82 72,80 14,-2 23,8 35,37 9,22 19,42 24,43 4,2 8,12 8,23 0,11 21,39 47,62 25,23 88,81 139,130 58,55 100,87 114,87 13,0 42,21 73,52 28,29 52,47 55,40 8,-24 16,-19 99,58 17,16 28,20 31,12 6,-18 26,-14 42,8 16,22 46,27 53,8 2,-8 16,0 36,21 22,23 35,31 40,23 5,-8 11,-5 21,8 16,22 45,26 54,8 5,-10 7,-10 12,0 3,6 14,12 25,12 10,0 19,-6 20,-12 0,-10 2,-10 6,0 2,6 13,12 23,12 10,0 21,-6 24,-12 5,-10 7,-10 12,0 9,18 38,14 54,-8 16,-23 36,-26 43,-7 2,7 21,-6 46,-32 32,-33 45,-41 51,-31 6,10 13,8 31,-9 100,-91 109,-101 109,-125 0,-16 7,-27 19,-31 23,-7 35,-37 26,-64 -4,-13 3,-28 22,-47 17,-17 23,-29 15,-32 -16,-5 -16,-29 1,-36 10,-5 10,-7 0,-12 -7,-3 -13,-14 -13,-24 0,-10 6,-21 13,-24 10,-5 10,-7 0,-12 -7,-3 -13,-16 -13,-29 0,-13 -6,-25 -12,-28 -8,-2 0,-16 21,-36 27,-25 32,-34 21,-41 -11,-7 -6,-15 21,-39 46,-42 69,-64 102,-102 22,-25 30,-30 37,-20 6,11 14,8 34,-12 22,-22 32,-25 59,-20 17,3 36,11 40,17 6,8 10,7 14,-1 2,-7 13,-13 23,-13 10,0 21,6 24,13 5,10 7,10 12,0 7,-16 31,-17 36,-1 4,12 11,9 55,-32 12,-11 17,-12 21,-2 3,9 13,6 35,-10 18,-12 34,-26 35,-30 2,-4 15,-8 28,-8 32,0 153,-118 133,-130 -9,-6 -1,-19 29,-48 44,-42 51,-57 30,-65 -9,-3 -6,-11 10,-24 24,-22 29,-48 10,-57 -10,-5 -10,-7 0,-12 6,-3 12,-14 12,-25 0,-10 -6,-19 -12,-20 -10,0 -10,-2 0,-6 6,-2 12,-13 12,-23 0,-10 -6,-21 -12,-24 -10,-5 -10,-7 0,-12 18,-9 14,-38 -8,-54 -13,-10 -16,-16 -8,-21 8,-5 0,-18 -23,-40 -21,-20 -29,-34 -21,-36 19,-7 14,-37 -8,-53 -22,-16 -26,-36 -8,-42 8,-3 4,-14 -12,-31 -14,-15 -35,-38 -47,-52 -26,-27 -29,-41 -11,-47 8,-3 -9,-26 -40,-56 -28,-28 -52,-56 -52,-62 0,-19 -402,-444 -432,-457 -15,-7 -31,-19 -34,-27 -5,-13 -113,-90 -176,-126 -15,-8 -60,-39 -100,-68 -40,-29 -87,-60 -104,-70 -50,-28 -324,-211 -345,-231 -11,-10 -37,-27 -57,-37 -20,-11 -81,-49 -135,-86 -54,-38 -101,-68 -106,-68 -4,0 -56,-34 -116,-75 -60,-41 -112,-75 -116,-75 -3,0 -49,-29 -100,-64 -52,-36 -121,-79 -155,-96 -33,-18 -85,-54 -115,-81 -30,-27 -59,-49 -65,-49 -6,0 -21,-12 -35,-26 -32,-34 -130,-103 -199,-139 -30,-15 -76,-43 -102,-62 -26,-19 -65,-44 -86,-56 -22,-12 -74,-47 -117,-77 -43,-30 -85,-59 -94,-65 -54,-32 -124,-77 -139,-90 -9,-8 -25,-21 -36,-28 -15,-11 -17,-17 -7,-35 12,-22 12,-22 74,17 34,22 90,60 124,85 34,25 66,46 71,46 6,0 31,16 56,35 26,19 106,75 178,123 174,116 233,157 307,216 33,27 69,54 80,60 38,22 170,116 175,125 3,4 29,20 58,34 30,15 62,34 73,45 35,32 113,82 129,82 8,0 18,5 22,11 3,6 38,32 78,57 39,25 80,54 90,64 11,10 27,18 35,18 9,0 50,26 91,56 41,31 91,64 110,73 19,9 37,19 40,22 3,3 34,25 70,49 36,24 72,50 80,58 8,8 28,21 45,28 16,7 64,37 105,68 41,30 86,61 100,68 14,7 63,40 109,73 46,33 88,63 95,66 6,3 22,12 35,18 17,9 26,10 31,2 4,-8 15,-4 33,12 27,23 640,250 710,262 20,4 37,11 37,16 0,5 11,9 25,9 14,0 25,5 25,10 0,6 5,10 10,10 6,0 10,-9 10,-20 0,-11 5,-20 10,-20 6,0 10,5 10,10 0,6 11,10 25,10 14,0 25,5 25,10 0,6 9,10 20,10 11,0 20,5 20,10 0,6 9,10 20,10 11,0 20,-4 20,-10 0,-5 16,-10 35,-10 19,0 35,5 35,10 0,6 5,10 10,10 6,0 10,-9 10,-20 0,-11 5,-20 10,-20 6,0 10,5 10,10 0,6 14,10 30,10 17,0 30,-4 30,-10 0,-5 11,-10 25,-10 14,0 25,5 25,10 0,6 9,10 20,10 13,0 20,-7 20,-20 0,-22 15,-27 24,-7 5,10 7,10 12,0 3,-7 19,-13 35,-13 19,0 29,-5 29,-15 0,-18 17,-20 22,-3 6,17 38,-14 38,-36 0,-11 9,-16 30,-16 27,0 30,-3 30,-30 0,-16 5,-30 10,-30 6,0 10,-7 10,-15 0,-9 9,-15 25,-15 18,0 25,-5 25,-20 0,-11 5,-20 10,-20 6,0 10,-13 10,-30 0,-16 5,-30 10,-30 6,0 10,-7 10,-15 0,-8 5,-15 10,-15 6,0 10,-9 10,-20 0,-11 -4,-20 -10,-20 -5,0 -10,-13 -10,-30 0,-16 5,-30 10,-30 6,0 10,-16 10,-35 0,-19 -4,-35 -10,-35 -5,0 -10,-9 -10,-20 0,-11 5,-20 10,-20 6,0 10,-9 10,-20 0,-11 -4,-20 -10,-20 -5,0 -10,-11 -10,-25 0,-14 -4,-25 -10,-25 -5,0 -10,-9 -10,-20 0,-11 -4,-20 -10,-20 -5,0 -10,-13 -10,-30 0,-23 -4,-30 -20,-30 -11,0 -20,-7 -20,-15 0,-8 5,-15 10,-15 6,0 10,-11 10,-25 0,-14 -4,-25 -10,-25 -5,0 -10,-13 -10,-30 0,-16 5,-30 10,-30 6,0 10,-7 10,-15 0,-8 5,-15 10,-15 6,0 10,-13 10,-30 0,-16 5,-30 10,-30 6,0 10,-9 10,-20 0,-11 5,-20 10,-20 6,0 10,-9 10,-20 0,-22 15,-27 23,-7 8,17 27,-11 27,-40 0,-13 5,-23 10,-23 6,0 10,5 10,10 0,6 9,10 20,10 13,0 20,-7 20,-20 0,-22 16,-27 23,-7 3,8 12,4 26,-13 19,-20 24,-22 31,-10 8,12 10,10 10,-7 0,-19 6,-23 30,-23 23,0 30,-5 30,-19 0,-21 22,-33 45,-25 9,4 15,0 15,-10 0,-9 5,-16 10,-16 6,0 10,-13 10,-30 0,-25 4,-30 25,-30 18,0 25,-5 25,-20 0,-11 5,-20 10,-20 6,0 10,-11 10,-25 0,-14 5,-25 10,-25 6,0 10,-9 10,-20 0,-11 5,-20 10,-20 6,0 10,-13 10,-30 0,-16 -4,-30 -10,-30 -5,0 -10,-7 -10,-15 0,-8 5,-15 10,-15 6,0 10,-13 10,-30 0,-16 5,-30 10,-30 6,0 10,-4 10,-10 0,-5 -9,-10 -20,-10 -13,0 -20,-7 -20,-20 0,-11 5,-20 10,-20 6,0 10,-7 10,-15 0,-8 -4,-15 -10,-15 -5,0 -10,-13 -10,-30 0,-16 -4,-30 -10,-30 -5,0 -10,-9 -10,-20 0,-11 -4,-20 -10,-20 -5,0 -10,-11 -10,-25 0,-18 -5,-25 -20,-25 -11,0 -20,-4 -20,-10 0,-5 -7,-10 -15,-10 -18,0 -20,-17 -3,-22 21,-7 -17,-38 -46,-38 -14,0 -26,-4 -26,-10 0,-5 5,-10 10,-10 6,0 10,-7 10,-15 0,-10 -10,-15 -30,-15 -27,0 -30,-3 -30,-30 0,-20 -5,-30 -15,-30 -8,0 -15,-4 -15,-10 0,-5 -9,-10 -20,-10 -11,0 -20,-4 -20,-10 0,-5 -13,-10 -30,-10 -25,0 -30,-4 -30,-25 0,-18 -5,-25 -20,-25 -11,0 -20,-4 -20,-10 0,-5 -7,-10 -15,-10 -8,0 -15,-4 -15,-10 0,-5 -13,-10 -29,-10 -19,0 -30,-6 -34,-17 -2,-10 -40,-36 -83,-58 -44,-22 -80,-43 -82,-47 -2,-5 -17,-8 -33,-8 -16,0 -29,-4 -29,-8 0,-4 -42,-16 -92,-26 -51,-11 -108,-27 -127,-37 -18,-10 -59,-20 -90,-24 -31,-3 -229,-39 -441,-80 -397,-76 -1022,-195 -1260,-239 -74,-14 -246,-48 -382,-76 -136,-27 -265,-50 -286,-50 -21,0 -42,-3 -45,-7 -4,-3 -22,-8 -39,-10 -18,-2 -44,-7 -58,-13 -14,-5 -41,-12 -60,-14 -19,-3 -127,-25 -240,-51 -113,-25 -212,-45 -221,-45 -11,0 -14,-7 -11,-29 l 4,-28 106,24 c 59,13 136,27 172,32 70,8 565,106 615,121 17,5 71,14 120,20 50,6 119,17 155,26 36,8 79,17 96,20 17,2 71,13 120,24 49,12 107,23 129,26 22,3 44,9 50,14 9,7 81,23 115,25 8,1 26,4 40,8 14,4 45,9 70,11 25,2 52,6 60,9 30,12 590,127 617,127 15,0 102,16 193,36 91,19 248,52 350,73 l 185,38 218,-5 c 204,-4 217,-5 217,-23 0,-17 8,-19 70,-19 63,0 70,-2 70,-20 0,-18 7,-20 75,-20 68,0 75,-2 75,-20 0,-16 7,-20 35,-20 24,0 35,-5 35,-15 0,-11 11,-15 40,-15 33,0 40,-3 40,-20 0,-16 7,-20 35,-20 28,0 35,-4 35,-20 0,-13 7,-20 20,-20 13,0 20,-7 20,-20 0,-13 7,-20 20,-20 11,0 20,-7 20,-15 0,-8 7,-15 15,-15 11,0 15,-11 15,-40 0,-33 3,-40 20,-40 18,0 20,-7 20,-55 0,-48 2,-55 20,-55 19,0 20,-7 20,-90 0,-83 -1,-90 -20,-90 -18,0 -20,-7 -20,-55 0,-48 -2,-55 -20,-55 -17,0 -20,-7 -20,-40 0,-29 -4,-40 -15,-40 -8,0 -15,-7 -15,-15 0,-8 -9,-15 -20,-15 -13,0 -20,-7 -20,-20 0,-13 -7,-20 -20,-20 -13,0 -20,-7 -20,-20 0,-11 -7,-20 -15,-20 -10,0 -15,-11 -15,-35 0,-28 -4,-35 -20,-35 -19,0 -20,-7 -20,-115 0,-108 1,-115 20,-115 16,0 20,-7 20,-35 0,-24 5,-35 15,-35 8,0 15,-9 15,-20 0,-13 7,-20 20,-20 13,0 20,-7 20,-20 0,-13 7,-20 20,-20 11,0 20,-7 20,-15 0,-8 7,-15 15,-15 11,0 15,-11 15,-40 0,-33 3,-40 20,-40 18,0 20,-7 20,-55 0,-48 2,-55 20,-55 19,0 20,-7 20,-90 0,-83 -1,-90 -20,-90 -18,0 -20,-7 -20,-55 0,-48 -2,-55 -20,-55 -17,0 -20,-7 -20,-40 0,-29 -4,-40 -15,-40 -8,0 -15,-7 -15,-15 0,-8 -9,-15 -20,-15 -13,0 -20,-7 -20,-20 0,-13 -7,-20 -20,-20 -13,0 -20,-7 -20,-20 0,-16 -7,-20 -35,-20 -28,0 -35,-4 -35,-20 0,-17 -7,-20 -40,-20 -29,0 -40,-4 -40,-15 0,-10 -11,-15 -35,-15 -28,0 -35,-4 -35,-20 0,-18 -7,-20 -75,-20 -68,0 -75,-2 -75,-20 0,-18 -7,-20 -70,-20 -63,0 -70,-2 -70,-20 0,-20 -7,-20 -292,-20 -323,0 -299,-3 -698,81 -129,27 -262,54 -295,60 -72,13 -350,70 -535,110 -74,17 -164,34 -200,39 -36,5 -210,40 -388,79 -178,39 -335,71 -350,71 -15,0 -175,31 -357,69 -181,38 -361,74 -400,80 -38,6 -80,13 -91,17 -16,4 -23,0 -27,-17 -4,-13 -5,-25 -3,-26 7,-7 561,-123 586,-123 14,0 129,-23 255,-51 316,-69 389,-84 555,-113 47,-8 195,-38 330,-66 135,-29 277,-56 315,-60 39,-5 158,-27 265,-50 417,-88 467,-98 531,-105 45,-4 73,-13 87,-26 12,-10 26,-19 32,-19 5,0 10,-4 10,-10 0,-5 9,-10 20,-10 11,0 20,-4 20,-10 0,-5 14,-10 30,-10 17,0 30,-4 30,-10 0,-5 9,-10 19,-10 11,0 21,-5 23,-11 2,-5 22,-13 46,-16 23,-3 42,-10 42,-14 0,-5 7,-9 16,-9 26,0 345,-158 364,-180 9,-11 25,-20 34,-20 9,0 16,-4 16,-10 0,-5 9,-10 20,-10 11,0 20,-4 20,-10 0,-5 7,-10 15,-10 8,0 15,-4 15,-10 0,-5 -5,-10 -11,-10 -6,0 -4,-7 5,-15 8,-8 24,-15 35,-15 12,0 21,-4 21,-10 0,-5 7,-10 16,-10 18,0 44,-23 44,-40 0,-14 25,-40 39,-40 6,0 11,-11 11,-25 0,-16 6,-25 16,-25 18,0 44,-23 44,-40 0,-14 25,-40 39,-40 6,0 11,-11 11,-25 0,-14 5,-25 10,-25 6,0 10,-9 10,-20 0,-11 5,-20 10,-20 6,0 10,-13 10,-30 0,-16 5,-30 10,-30 6,0 10,-9 10,-20 0,-11 -4,-20 -10,-20 -5,0 -10,-7 -10,-15 0,-8 5,-15 10,-15 6,0 10,-13 10,-30 0,-16 -4,-30 -10,-30 -15,0 -12,-67 3,-74 10,-5 10,-7 0,-12 -7,-3 -13,-19 -13,-35 0,-16 -4,-29 -10,-29 -5,0 -10,-9 -10,-20 0,-11 -4,-20 -9,-20 -5,0 -12,-11 -15,-25 -6,-24 -26,-36 -26,-15 0,6 -4,10 -10,10 -5,0 -10,-7 -10,-15 0,-8 -4,-15 -10,-15 -5,0 -10,-12 -10,-26 0,-29 -31,-67 -38,-46 -7,23 -21,12 -28,-23 -6,-35 -19,-46 -27,-22 -3,8 -12,4 -27,-13 -15,-17 -24,-21 -27,-12 -7,19 -23,14 -23,-8 0,-11 -7,-20 -15,-20 -8,0 -15,5 -15,10 0,6 -4,10 -10,10 -5,0 -10,-10 -10,-22 0,-18 -2,-20 -9,-9 -8,12 -12,12 -25,-2 -9,-8 -16,-22 -16,-30 0,-18 -24,-29 -45,-21 -9,4 -15,0 -15,-10 0,-9 -4,-16 -9,-16 -5,0 -11,-23 -15,-50 -4,-27 -11,-50 -16,-50 -6,0 -10,-7 -10,-15 0,-8 -4,-15 -10,-15 -5,0 -10,-9 -10,-20 0,-11 5,-20 10,-20 6,0 10,-18 10,-40 0,-22 -4,-40 -10,-40 -5,0 -10,-4 -10,-10 0,-5 10,-10 23,-10 17,0 19,-2 8,-9 -12,-8 -12,-12 3,-26 10,-10 14,-25 11,-36 -4,-13 -2,-19 9,-19 19,0 22,-36 4,-43 -7,-3 -3,-6 10,-6 15,-1 22,-7 22,-21 0,-11 -4,-20 -10,-20 -5,0 -10,-9 -10,-20 0,-11 5,-20 10,-20 6,0 10,-13 10,-30 0,-16 -4,-30 -10,-30 -5,0 -10,-6 -10,-14 0,-8 -6,-16 -12,-19 -9,-3 -5,-12 12,-27 17,-15 21,-24 13,-27 -7,-3 -13,-13 -13,-24 0,-10 -4,-19 -9,-19 -5,0 -12,-20 -15,-45 -6,-38 -11,-46 -34,-52 -32,-8 -52,-26 -52,-47 0,-9 -4,-16 -10,-16 -5,0 -10,-7 -10,-15 0,-18 -16,-20 -23,-2 -8,19 -27,-13 -27,-45 0,-16 -4,-28 -10,-28 -5,0 -10,5 -10,10 0,6 -9,10 -20,10 -13,0 -20,-7 -20,-20 0,-22 -16,-27 -23,-7 -3,8 -12,4 -26,-13 -19,-20 -24,-22 -31,-10 -8,12 -10,10 -10,-7 0,-16 -6,-23 -20,-23 -11,0 -20,5 -20,10 0,6 -13,10 -30,10 -16,0 -30,-4 -30,-10 0,-5 -7,-10 -15,-10 -8,0 -15,5 -15,10 0,6 -9,10 -20,10 -11,0 -20,-4 -20,-10 0,-15 -57,-12 -64,3 -4,8 -8,9 -11,1 -7,-13 -108,2 -113,17 -5,12 -59,12 -64,0 -4,-11 -88,9 -88,21 0,4 -26,7 -57,6 -36,-1 -58,3 -61,10 -2,7 -17,12 -33,12 -16,0 -29,5 -29,10 0,6 -7,10 -15,10 -8,0 -15,5 -15,10 0,6 -9,10 -20,10 -11,0 -20,4 -20,9 0,5 -22,11 -49,15 -27,4 -51,10 -53,14 -2,5 -32,28 -68,52 -36,24 -74,52 -84,62 -11,10 -25,18 -32,18 -7,0 -56,29 -108,65 -53,36 -104,69 -114,73 -24,10 -163,101 -181,119 -8,9 -33,23 -55,33 -23,9 -55,28 -71,42 -17,14 -84,60 -150,103 -66,43 -138,93 -159,111 -22,19 -45,34 -52,34 -7,0 -37,19 -66,43 -55,44 -110,85 -140,102 -9,6 -53,37 -99,70 -45,33 -89,65 -98,70 -57,36 -109,72 -128,90 -13,11 -47,34 -77,50 -30,17 -89,55 -132,85 -44,30 -99,66 -124,78 -25,13 -61,36 -80,50 -56,44 -120,82 -135,82 -7,0 -15,3 -17,8 -4,10 -193,133 -242,157 -21,11 -41,27 -45,36 -7,19 -66,71 -102,90 -34,18 -180,119 -197,136 -20,19 -40,16 -48,-9 -5,-16 -1,-26 14,-36 11,-7 33,-25 49,-38 15,-13 47,-34 71,-45 24,-12 55,-32 70,-44 15,-12 74,-53 132,-90 58,-38 133,-90 168,-117 35,-26 69,-48 76,-48 7,0 26,-12 41,-26 16,-14 85,-63 154,-108 69,-45 148,-99 174,-119 27,-20 54,-37 60,-37 6,0 36,-20 66,-44 31,-24 103,-73 161,-110 58,-36 119,-78 135,-92 17,-14 48,-34 71,-44 22,-10 47,-24 55,-31 24,-23 81,-63 159,-111 41,-26 106,-69 144,-97 38,-28 73,-51 79,-51 6,0 33,-18 61,-39 28,-21 96,-68 152,-103 55,-36 122,-82 148,-102 27,-20 63,-43 80,-50 17,-7 43,-24 57,-37 14,-13 88,-66 163,-117 75,-51 134,-97 131,-102 -4,-6 -1,-10 4,-10 6,0 40,-30 76,-67 80,-83 72,-74 151,-152 54,-52 65,-67 60,-87 -5,-19 4,-34 51,-80 31,-32 52,-59 45,-62 -11,-3 -7,-9 56,-77 23,-26 29,-55 11,-55 -6,0 4,-14 22,-32 22,-19 29,-33 22,-35 -20,-7 -15,-34 10,-56 15,-13 18,-21 10,-24 -19,-7 -16,-27 7,-43 22,-16 26,-45 8,-54 -10,-5 -10,-7 0,-12 6,-3 12,-14 12,-25 0,-10 -6,-19 -12,-19 -10,0 -10,-2 -2,-8 11,-6 18,-47 15,-78 -1,-5 -11,-21 -23,-34 -15,-16 -18,-25 -10,-28 7,-2 -5,-20 -28,-42 -22,-21 -40,-46 -40,-55 0,-9 -20,-40 -45,-67 -25,-28 -45,-54 -45,-59 0,-14 -38,-11 -44,4 -5,9 -7,9 -12,0 -3,-7 -19,-27 -36,-45 -22,-24 -31,-29 -38,-18 -8,13 -11,12 -57,-30 -12,-11 -17,-12 -21,-2 -5,16 -29,16 -36,0 -5,-10 -7,-10 -12,0 -7,16 -41,16 -47,0 -4,-9 -8,-10 -14,-2 -4,6 -23,14 -40,17 -27,5 -37,2 -60,-20 -17,-18 -28,-23 -31,-15 -6,19 -36,14 -52,-9 -19,-28 -71,-80 -99,-99 -23,-16 -28,-46 -9,-52 8,-3 3,-14 -14,-31 -23,-23 -26,-33 -21,-60 3,-17 11,-36 17,-40 8,-6 7,-10 -1,-14 -7,-2 -13,-13 -13,-23 0,-10 6,-21 13,-24 10,-5 10,-7 0,-12 -16,-7 -17,-31 -1,-36 12,-4 9,-10 -31,-54 -12,-13 -12,-17 -1,-24 11,-7 6,-15 -18,-38 -18,-17 -38,-33 -45,-36 -9,-5 -9,-7 1,-12 23,-11 12,-35 -37,-83 -26,-26 -51,-54 -55,-62 -4,-11 -7,-11 -12,-1 -10,22 -35,13 -74,-28 -23,-24 -40,-35 -43,-27 -2,7 -16,-1 -37,-23 -21,-22 -35,-30 -37,-22 -3,6 -18,12 -34,12 -16,0 -29,6 -30,13 0,9 -2,9 -6,0 -6,-17 -40,-17 -47,0 -5,9 -7,9 -12,0 -9,-19 -38,-15 -54,7 -16,23 -36,26 -43,8 -3,-9 -11,-6 -24,10 -22,24 -49,29 -56,10 -2,-8 -16,-1 -35,21 -18,18 -32,28 -32,22 0,-18 -29,-12 -55,12 -14,12 -36,32 -49,44 -16,14 -26,18 -28,11 -3,-7 -30,14 -61,45 -32,31 -62,57 -68,57 -20,0 -108,76 -280,243 -93,91 -169,172 -169,180 0,8 -4,17 -8,19 -5,2 -28,32 -52,68 -24,36 -46,67 -49,70 -18,15 -39,60 -46,97 -5,31 -12,44 -28,49 -25,8 -37,20 -56,55 -7,15 -50,75 -95,134 -44,60 -85,115 -91,124 -21,34 -60,88 -96,131 -21,25 -48,64 -61,86 -31,56 -121,188 -130,192 -5,2 -8,8 -8,14 0,12 -67,124 -90,151 -8,10 -28,42 -45,71 -48,86 -107,179 -132,209 -13,16 -23,34 -23,41 0,7 -39,68 -87,137 -47,68 -102,150 -120,182 -19,32 -40,60 -47,63 -8,3 -25,29 -40,58 -15,29 -35,62 -44,72 -30,33 -102,139 -102,151 0,6 -3,13 -7,15 -10,4 -100,136 -131,192 -13,22 -42,66 -65,96 -23,30 -42,57 -43,58 -2,2 -12,1 -23,-3 -37,-12 -35,-16 92,-188 20,-28 37,-56 37,-62 0,-5 27,-46 60,-90 33,-44 67,-96 76,-115 9,-19 20,-37 24,-40 3,-3 26,-34 50,-70 24,-36 50,-71 57,-78 8,-8 20,-28 27,-45 7,-18 37,-63 66,-102 29,-38 58,-83 65,-100 7,-16 25,-43 39,-60 14,-16 33,-45 41,-63 9,-17 26,-43 39,-55 13,-13 27,-35 31,-48 10,-32 63,-109 75,-109 6,0 10,-4 10,-9 0,-18 147,-248 178,-281 8,-8 21,-30 30,-50 15,-36 102,-159 102,-144 0,15 31,-35 35,-56 4,-21 16,-39 52,-80 38,-42 103,-134 103,-145 0,-5 27,-46 60,-90 33,-44 67,-96 76,-115 9,-19 23,-38 29,-42 7,-5 27,-32 43,-62 17,-29 37,-59 45,-67 8,-8 22,-38 31,-67 10,-28 22,-52 27,-52 5,0 9,-7 9,-15 0,-8 5,-15 10,-15 6,0 10,-13 10,-30 0,-16 5,-30 10,-30 6,0 10,-9 10,-20 0,-11 5,-20 10,-20 6,0 10,-11 10,-25 0,-14 5,-25 10,-25 6,0 10,-9 10,-20 0,-11 4,-20 9,-20 5,0 11,-23 15,-50 4,-28 11,-50 16,-50 6,0 10,-11 10,-25 0,-14 5,-25 10,-25 6,0 10,-9 10,-20 0,-11 5,-20 10,-20 6,0 10,-13 10,-30 0,-16 5,-30 10,-30 6,0 10,-7 10,-15 0,-8 5,-15 10,-15 6,0 10,-13 10,-30 0,-16 4,-30 9,-30 10,0 20,-41 31,-135 4,-38 13,-71 19,-73 14,-5 15,-62 1,-62 -5,0 -10,-13 -10,-30 0,-16 5,-30 10,-30 6,0 10,-7 10,-15 0,-8 5,-15 10,-15 6,0 10,-13 10,-30 0,-16 -4,-30 -10,-30 -15,0 -12,-60 3,-61 10,0 10,-2 0,-6 -15,-6 -18,-83 -3,-83 6,0 10,-4 10,-10 0,-5 -9,-10 -20,-10 -13,0 -20,-7 -20,-20 0,-11 5,-20 10,-20 6,0 10,-11 10,-25 0,-14 -4,-25 -10,-25 -5,0 -10,-9 -10,-20 0,-11 -7,-20 -15,-20 -8,0 -15,-4 -15,-10 0,-5 5,-10 10,-10 6,0 10,-9 10,-20 0,-11 -4,-20 -10,-20 -5,0 -10,-5 -10,-11 0,-19 -28,-39 -54,-39 -14,0 -26,-4 -26,-10 0,-5 5,-10 10,-10 6,0 10,-9 10,-20 0,-16 -7,-20 -30,-20 -16,0 -30,-4 -30,-10 0,-5 -7,-10 -15,-10 -9,0 -15,-9 -15,-25 0,-18 -5,-25 -20,-25 -11,0 -20,-4 -20,-10 0,-5 -13,-10 -30,-10 -16,0 -30,-4 -30,-10 0,-5 -7,-10 -15,-10 -8,0 -15,-4 -15,-10 0,-5 -9,-10 -20,-10 -11,0 -20,5 -20,10 0,6 -16,10 -35,10 -19,0 -35,-4 -35,-10 0,-5 -11,-10 -25,-10 -14,0 -25,5 -25,10 0,6 -9,10 -20,10 -11,0 -20,-4 -20,-10 0,-5 -9,-10 -20,-10 -13,0 -20,7 -20,20 0,11 -4,20 -10,20 -5,0 -10,-4 -10,-10 0,-5 -7,-10 -15,-10 -8,0 -15,9 -15,20 0,22 -16,27 -23,8 -3,-9 -12,-5 -27,12 -15,17 -24,21 -27,13 -7,-20 -23,-15 -23,7 0,11 -4,20 -10,20 -5,0 -10,-4 -10,-10 0,-5 -11,-10 -25,-10 -14,0 -25,5 -25,10 0,6 -13,10 -30,10 -16,0 -30,-4 -30,-10 0,-5 -9,-10 -20,-10 -11,0 -20,-4 -20,-10 0,-5 -11,-10 -25,-10 -14,0 -25,-4 -25,-10 0,-5 -9,-10 -20,-10 -11,0 -20,-4 -20,-10 0,-5 -9,-10 -20,-10 -22,0 -27,-16 -8,-22 20,-7 -16,-38 -44,-39 -13,0 -17,-3 -10,-6 20,-8 14,-43 -8,-43 -11,0 -20,-4 -20,-10 0,-5 5,-10 12,-10 6,0 0,-10 -13,-21 -16,-15 -20,-23 -11,-26 19,-7 14,-23 -8,-23 -15,0 -20,-7 -20,-25 0,-20 -5,-25 -26,-25 -24,0 -26,-3 -20,-30 5,-27 3,-30 -19,-30 -14,0 -25,-4 -25,-10 0,-5 -7,-10 -16,-10 -8,0 -22,-7 -30,-15 -9,-8 -11,-15 -5,-15 6,0 11,-4 11,-10 0,-5 -9,-10 -20,-10 -11,0 -20,-4 -20,-10 0,-5 -11,-10 -25,-10 -14,0 -25,-4 -25,-10 0,-5 -9,-10 -20,-10 -11,0 -20,-4 -20,-10 0,-5 -13,-10 -30,-10 -16,0 -30,5 -30,10 0,6 -11,10 -25,10 -14,0 -25,-4 -25,-10 0,-5 -9,-10 -20,-10 -11,0 -20,-4 -20,-10 0,-5 -4,-10 -10,-10 -5,0 -10,9 -10,20 0,13 -7,20 -20,20 -11,0 -20,-4 -20,-10 0,-5 -11,-10 -25,-10 -14,0 -25,5 -25,10 0,6 -9,10 -20,10 -11,0 -20,5 -20,10 0,6 -11,10 -25,10 -18,0 -25,5 -25,20 0,11 -4,20 -10,20 -5,0 -10,-5 -10,-11 0,-6 -7,-4 -15,5 -8,8 -15,19 -15,25 0,6 -13,11 -30,11 -27,0 -30,3 -30,30 0,26 -3,30 -29,30 -23,0 -30,5 -34,29 -5,22 -13,30 -36,34 -22,5 -31,12 -31,27 0,11 -4,20 -10,20 -5,0 -10,9 -10,21 0,19 -21,49 -35,49 -10,0 -35,28 -35,39 0,6 -4,11 -10,11 -5,0 -10,12 -10,26 0,29 -31,67 -38,46 -6,-19 -22,-14 -22,8 0,11 -4,20 -10,20 -5,0 -10,7 -10,15 0,8 -4,15 -9,15 -5,0 -11,23 -15,50 -4,28 -11,50 -16,50 -6,0 -10,11 -10,24 0,13 -4,26 -9,28 -17,6 -81,349 -81,436 0,59 -3,81 -12,80 -13,-3 -45,121 -47,180 -1,18 -5,40 -11,50 -14,26 -87,385 -120,592 -7,41 -39,193 -71,338 -33,144 -59,273 -59,286 0,22 -65,327 -125,591 -14,60 -25,121 -25,136 0,14 -16,97 -35,184 -19,87 -32,161 -30,165 3,5 -9,73 -25,152 -43,199 -39,187 -62,180 -15,-4 -19,-10 -14,-31 3,-14 11,-57 17,-96 6,-38 33,-176 59,-305 27,-129 54,-262 61,-295 7,-33 11,-71 11,-84 -1,-14 2,-27 7,-30 5,-3 12,-46 15,-96 3,-49 10,-91 16,-93 5,-2 10,-21 10,-42 0,-41 49,-282 59,-290 3,-3 7,-27 9,-53 1,-26 9,-59 18,-72 9,-14 13,-33 9,-44 -3,-11 1,-33 9,-49 8,-15 16,-55 17,-88 2,-32 7,-66 11,-74 10,-19 122,-560 138,-665 7,-44 37,-192 67,-330 61,-279 61,-279 69,-637 6,-257 6,-258 -15,-258 -19,0 -21,-6 -21,-70 0,-63 -2,-70 -20,-70 -18,0 -20,-7 -20,-75 0,-68 -2,-75 -20,-75 -16,0 -20,-7 -20,-35 0,-24 -5,-35 -15,-35 -11,0 -15,-11 -15,-40 0,-33 -3,-40 -20,-40 -16,0 -20,-7 -20,-35 0,-28 -4,-35 -20,-35 -13,0 -20,-7 -20,-20 0,-13 -7,-20 -20,-20 -13,0 -20,-7 -20,-20 0,-11 -7,-20 -15,-20 -8,0 -15,-7 -15,-15 0,-11 -11,-15 -40,-15 -33,0 -40,-3 -40,-20 0,-18 -7,-20 -55,-20 -48,0 -55,-2 -55,-20 0,-19 -7,-20 -95,-20 -88,0 -95,1 -95,20 0,18 -7,20 -55,20 -48,0 -55,2 -55,20 0,17 -7,20 -40,20 -29,0 -40,4 -40,15 0,8 -7,15 -15,15 -8,0 -15,9 -15,20 0,13 -7,20 -20,20 -13,0 -20,7 -20,20 0,13 -7,20 -20,20 -11,0 -20,7 -20,15 0,10 -11,15 -35,15 -28,0 -35,4 -35,20 0,19 -7,20 -110,20 -103,0 -110,-1 -110,-20 0,-16 -7,-20 -35,-20 -24,0 -35,-5 -35,-15 0,-8 -9,-15 -20,-15 -13,0 -20,-7 -20,-20 0,-13 -7,-20 -20,-20 -13,0 -20,-7 -20,-20 0,-11 -7,-20 -15,-20 -8,0 -15,-7 -15,-15 0,-11 -11,-15 -40,-15 -33,0 -40,-3 -40,-20 0,-18 -7,-20 -55,-20 -48,0 -55,-2 -55,-20 0,-19 -7,-20 -95,-20 -88,0 -95,1 -95,20 0,18 -7,20 -55,20 -48,0 -55,2 -55,20 0,17 -7,20 -40,20 -29,0 -40,4 -40,15 0,8 -7,15 -15,15 -8,0 -15,9 -15,20 0,13 -7,20 -20,20 -13,0 -20,7 -20,20 0,13 -7,20 -20,20 -16,0 -20,7 -20,35 0,28 -4,35 -20,35 -17,0 -20,7 -20,40 0,29 -4,40 -15,40 -10,0 -15,11 -15,35 0,28 -4,35 -20,35 -18,0 -20,7 -20,75 0,68 -2,75 -20,75 -18,0 -20,7 -20,70 0,63 -2,70 -20,70 -19,0 -20,7 -20,258 l 0,257 36,175 c 21,96 41,177 45,180 4,3 9,28 11,55 4,52 24,157 113,595 30,146 62,306 70,355 9,50 46,232 81,405 36,173 70,347 76,385 5,39 41,219 78,400 84,408 110,539 110,552 0,6 -10,13 -23,15 -23,4 -24,-1 -89,-316 -37,-177 -77,-377 -89,-446 -12,-69 -46,-240 -75,-380 -30,-141 -54,-270 -54,-288 0,-17 -6,-49 -14,-69 -16,-42 -115,-562 -126,-663 -7,-60 -58,-277 -96,-410 -9,-30 -23,-93 -31,-139 -8,-47 -21,-90 -28,-98 -7,-7 -16,-32 -20,-55 -12,-79 -17,-98 -26,-98 -5,0 -9,-13 -9,-30 0,-16 -4,-30 -10,-30 -5,0 -10,-9 -10,-20 0,-11 -4,-20 -10,-20 -5,0 -10,-9 -10,-20 0,-11 -4,-20 -10,-20 -5,0 -10,-11 -10,-25 0,-14 -4,-25 -9,-25 -5,0 -15,-29 -22,-65 -7,-36 -16,-65 -21,-65 -4,0 -8,-9 -8,-20 0,-11 -4,-20 -10,-20 -5,0 -10,-9 -10,-20 0,-11 -4,-20 -10,-20 -5,0 -10,-11 -10,-25 0,-14 -4,-25 -10,-25 -5,0 -10,-9 -10,-20 0,-11 -4,-20 -10,-20 -5,0 -10,-9 -10,-20 0,-11 -4,-20 -10,-20 -5,0 -10,-9 -10,-19 0,-30 -11,-51 -27,-51 -19,0 -43,-25 -43,-44 0,-9 -4,-16 -10,-16 -5,0 -10,-9 -10,-20 0,-11 -4,-20 -10,-20 -5,0 -10,-7 -10,-15 0,-9 -8,-14 -22,-12 -18,2 -24,-4 -26,-25 -2,-16 -8,-28 -13,-28 -5,0 -9,-7 -9,-16 0,-18 -23,-44 -40,-44 -14,0 -40,-25 -40,-39 0,-6 -11,-11 -25,-11 -16,0 -25,-6 -25,-16 0,-18 -23,-44 -40,-44 -14,0 -40,-25 -40,-39 0,-6 -11,-11 -25,-11 -14,0 -25,-4 -25,-10 0,-5 -9,-10 -20,-10 -11,0 -20,-4 -20,-10 0,-5 -13,-10 -30,-10 -16,0 -30,-4 -30,-10 0,-5 -9,-10 -20,-10 -11,0 -20,5 -20,10 0,6 -7,10 -15,10 -8,0 -15,-4 -15,-10 0,-5 -13,-10 -30,-10 -16,0 -30,5 -30,10 0,15 -67,12 -74,-2 -5,-11 -7,-11 -12,0 -3,6 -19,12 -35,12 -16,0 -29,5 -29,10 0,6 -9,10 -20,10 -11,0 -20,4 -20,9 0,5 -11,12 -25,15 -24,6 -36,26 -15,26 6,0 10,5 10,10 0,6 -7,10 -15,10 -8,0 -15,5 -15,10 0,6 -12,10 -26,10 -29,0 -67,31 -46,38 23,7 12,20 -23,26 -35,7 -46,20 -22,29 8,3 4,12 -13,27 -17,15 -21,24 -12,27 19,7 14,23 -8,23 -22,0 -28,25 -7,33 6,3 2,6 -10,6 -25,1 -31,17 -11,23 15,5 -13,38 -32,38 -19,0 -47,33 -32,38 17,5 15,22 -3,22 -8,0 -15,4 -15,9 0,5 -22,11 -50,15 -27,4 -50,11 -50,16 0,6 -7,10 -15,10 -8,0 -15,5 -15,10 0,6 -9,10 -20,10 -11,0 -20,-4 -20,-10 0,-5 -18,-10 -40,-10 -22,0 -40,5 -40,10 0,6 -4,10 -10,10 -5,0 -10,-10 -10,-22 0,-18 -2,-20 -9,-9 -8,12 -12,12 -26,-3 -10,-10 -25,-14 -36,-11 -13,4 -19,2 -19,-9 0,-9 -9,-16 -20,-16 -11,0 -20,5 -20,10 0,6 -4,10 -10,10 -5,0 -10,-9 -10,-20 0,-11 -7,-20 -15,-20 -8,0 -15,5 -15,10 0,6 -9,10 -20,10 -11,0 -20,-4 -20,-10 0,-5 -13,-10 -30,-10 -16,0 -30,5 -30,10 0,6 -6,10 -14,10 -8,0 -16,6 -19,13 -3,8 -12,4 -27,-13 -15,-17 -24,-21 -27,-12 -3,6 -13,12 -24,12 -10,0 -19,4 -19,9 0,5 -20,12 -45,15 -38,6 -46,11 -52,34 -8,32 -26,52 -47,52 -9,0 -16,5 -16,10 0,6 -7,10 -15,10 -18,0 -20,16 -2,23 19,8 -13,27 -45,27 -21,0 -28,5 -28,20 0,11 5,20 10,20 6,0 10,5 10,10 0,6 -9,10 -20,10 -22,0 -27,16 -7,23 8,3 4,12 -13,26 -20,19 -22,24 -10,31 12,8 10,10 -7,10 -16,0 -23,6 -23,20 0,11 5,20 10,20 6,0 10,14 10,30 0,17 -4,30 -10,30 -5,0 -10,7 -10,15 0,8 5,15 10,15 6,0 10,9 10,20 0,11 -7,20 -15,20 -12,0 -14,7 -9,28 4,15 12,30 17,34 6,4 4,12 -5,22 -16,15 -13,66 3,66 5,0 9,14 9,30 0,17 5,30 10,30 6,0 10,9 10,20 0,11 -4,20 -10,20 -5,0 -10,11 -10,25 0,14 5,25 10,25 6,0 10,9 10,20 0,11 5,20 10,20 6,0 10,14 10,30 0,17 -4,30 -10,30 -5,0 -10,7 -10,15 0,8 5,15 10,15 6,0 10,11 10,25 0,14 5,25 10,25 6,0 10,9 10,20 0,11 5,20 10,20 6,0 10,7 10,15 0,8 5,15 10,15 6,0 10,14 10,30 0,17 5,30 10,30 6,0 10,9 10,19 0,11 10,32 23,48 30,36 117,162 117,169 0,8 81,126 102,148 9,10 26,38 37,61 11,23 26,49 33,56 8,8 33,46 57,84 24,39 48,72 53,73 4,2 8,11 8,19 0,8 26,52 57,97 32,44 69,102 83,127 35,65 121,189 131,189 4,0 11,10 15,23 8,27 59,103 89,134 12,12 30,39 41,60 10,21 35,58 55,83 20,25 68,92 107,150 38,58 81,118 94,133 14,16 37,52 52,80 16,29 36,61 45,72 10,11 36,47 58,80 21,33 56,86 77,117 21,31 48,69 62,85 13,15 31,44 40,63 9,19 28,51 43,70 43,58 111,159 111,165 0,8 80,126 102,149 9,10 26,38 37,61 11,23 26,49 33,56 7,8 40,53 72,101 50,73 57,90 46,103 -7,8 -18,15 -24,15 -11,-1 -99,-118 -126,-169 -8,-16 -40,-63 -70,-106 -30,-43 -59,-85 -65,-94 -5,-9 -23,-38 -39,-64 -16,-27 -34,-54 -41,-60 -20,-21 -75,-105 -75,-116 0,-5 -6,-16 -13,-23 -22,-22 -120,-170 -146,-221 -14,-26 -32,-55 -40,-65 -18,-20 -91,-129 -91,-137 0,-2 -26,-43 -57,-90 -32,-47 -65,-98 -73,-113 -18,-32 -61,-95 -71,-102 -3,-3 -28,-36 -54,-75 -26,-38 -76,-107 -111,-153 -35,-45 -64,-86 -64,-90 0,-8 -69,-114 -80,-122 -5,-4 -42,-58 -75,-111 -34,-54 -120,-175 -127,-177 -4,-2 -8,-9 -8,-15 0,-12 -66,-116 -80,-127 -11,-9 -70,-98 -70,-107 0,-5 -17,-31 -37,-59 -71,-96 -107,-149 -108,-159 0,-5 -9,-10 -20,-10 -10,0 -28,-14 -40,-30 -28,-42 -360,-358 -386,-367 -11,-4 -43,-31 -71,-60 -29,-30 -53,-48 -55,-41 -4,12 -9,9 -78,-54 -26,-24 -55,-30 -55,-12 0,6 -14,-4 -32,-22 -19,-22 -33,-29 -35,-21 -7,19 -34,14 -56,-10 -13,-16 -21,-19 -24,-10 -7,18 -27,15 -43,-8 -16,-22 -45,-26 -54,-7 -5,9 -7,9 -12,0 -7,-17 -44,-17 -45,0 0,9 -2,9 -6,0 -2,-7 -17,-13 -33,-13 -16,0 -30,-6 -33,-12 -2,-8 -16,0 -37,22 -21,22 -35,30 -37,23 -3,-8 -20,3 -43,27 -39,41 -64,50 -74,28 -5,-10 -8,-10 -12,1 -4,8 -29,36 -55,62 -49,48 -60,72 -36,83 9,5 9,7 0,12 -7,3 -27,19 -45,36 -24,22 -29,31 -18,38 13,8 12,11 -30,57 -11,12 -12,17 -2,21 16,5 16,29 0,36 -10,5 -10,7 0,12 16,7 16,41 -1,47 -8,4 -9,8 -1,14 6,4 14,23 17,40 5,27 2,37 -21,60 -17,17 -22,28 -14,31 19,6 14,36 -9,52 -28,19 -80,71 -99,99 -16,23 -46,28 -52,9 -3,-8 -14,-3 -31,15 -23,22 -33,25 -60,20 -17,-3 -36,-11 -40,-17 -6,-8 -10,-7 -14,2 -2,6 -13,12 -23,12 -10,0 -21,-6 -24,-12 -5,-11 -7,-11 -12,0 -7,15 -31,16 -36,0 -4,-12 -10,-9 -54,31 -13,12 -17,12 -24,1 -7,-11 -15,-6 -38,18 -17,18 -33,38 -36,45 -5,9 -7,9 -12,0 -11,-24 -35,-13 -83,36 -26,26 -54,51 -62,55 -11,4 -11,7 -1,12 22,10 13,35 -28,74 -24,23 -35,40 -27,43 7,2 -1,16 -23,37 -22,21 -30,35 -22,37 6,3 12,18 12,34 0,16 6,29 13,30 9,0 9,2 0,6 -17,6 -17,40 0,47 9,5 9,7 0,12 -19,9 -15,38 7,54 23,16 26,36 8,43 -9,3 -6,11 10,24 24,22 29,49 10,56 -8,2 -1,16 21,35 18,18 28,32 22,32 -18,0 -12,29 11,55 13,14 33,36 45,49 14,16 18,26 11,28 -7,3 14,30 45,61 31,32 57,63 57,70 0,14 73,113 115,157 110,114 157,160 165,160 5,0 11,8 14,18 3,9 42,42 86,71 44,30 80,58 80,62 0,4 22,21 49,38 27,17 59,41 72,52 13,11 39,27 58,35 18,8 60,34 92,58 33,25 95,66 138,92 43,25 104,66 137,90 32,24 64,44 70,44 6,0 44,25 85,55 41,30 109,75 152,101 43,25 99,62 125,82 26,20 67,46 92,58 25,12 56,32 70,44 14,12 79,56 145,98 66,41 138,90 159,109 22,18 46,33 54,33 8,0 31,12 51,27 20,16 63,45 96,67 33,21 62,42 65,46 3,3 27,17 54,31 28,13 65,39 83,57 18,17 37,32 43,32 5,0 10,5 10,11 0,5 4,8 8,5 5,-3 31,13 59,34 28,21 54,36 57,33 3,-4 6,-2 6,4 0,6 53,45 118,87 65,42 132,87 148,101 16,14 45,32 64,41 19,10 63,37 97,62 51,38 60,49 52,63 -14,27 -28,32 -48,17 -73,-53 -180,-127 -213,-145 -21,-12 -66,-43 -101,-69 -34,-26 -76,-53 -94,-60 -17,-7 -37,-19 -45,-27 -7,-7 -42,-33 -78,-57 -36,-24 -67,-47 -70,-50 -3,-4 -21,-14 -40,-24 -19,-9 -65,-38 -101,-66 -36,-27 -84,-59 -106,-72 -59,-34 -179,-116 -193,-133 -7,-8 -18,-15 -24,-15 -7,0 -53,-30 -102,-66 -49,-36 -98,-70 -110,-74 -11,-5 -27,-15 -35,-22 -21,-21 -170,-121 -199,-134 -14,-6 -45,-26 -70,-45 -59,-44 -128,-89 -137,-89 -5,0 -51,-31 -103,-70 -52,-38 -108,-76 -125,-84 -16,-7 -61,-37 -100,-66 -38,-29 -83,-59 -100,-67 -41,-19 -125,-76 -187,-128 -9,-7 -19,-11 -22,-8 -3,4 -6,1 -6,-5 0,-7 -7,-12 -16,-12 -8,0 -34,-11 -57,-24 -65,-38 -448,-188 -464,-182 -8,3 -11,1 -8,-4 3,-6 -3,-10 -14,-10 -12,0 -21,-4 -21,-10 0,-5 -13,-10 -30,-10 -16,0 -30,-3 -30,-8 0,-17 -69,-36 -134,-36 -46,-1 -71,-5 -74,-14 -4,-14 -62,-17 -62,-2 0,6 -13,10 -30,10 -16,0 -30,-4 -30,-10 0,-5 -7,-10 -15,-10 -8,0 -15,-4 -15,-10 0,-5 -13,-10 -30,-10 -16,0 -30,5 -30,10 0,15 -57,12 -64,-2 -5,-10 -7,-10 -12,0 -7,14 -74,17 -74,2 0,-5 -4,-10 -10,-10 -5,0 -10,9 -10,20 0,13 -7,20 -20,20 -11,0 -20,-4 -20,-10 0,-5 -7,-10 -15,-10 -8,0 -15,5 -15,10 0,6 -13,10 -30,10 -20,0 -30,5 -30,15 0,8 -4,15 -10,15 -5,0 -10,-4 -10,-10 0,-5 -9,-10 -20,-10 -11,0 -20,5 -20,10 0,6 -5,10 -11,10 -19,0 -39,28 -39,54 0,14 -4,26 -10,26 -5,0 -10,-4 -10,-10 0,-5 -9,-10 -20,-10 -16,0 -20,7 -20,30 0,17 -4,30 -10,30 -5,0 -10,7 -10,15 0,9 -9,15 -25,15 -18,0 -25,5 -25,20 0,11 -4,20 -10,20 -5,0 -10,14 -10,30 0,17 -4,30 -10,30 -5,0 -10,7 -10,15 0,8 -4,15 -10,15 -5,0 -10,9 -10,20 0,11 5,20 10,20 6,0 10,16 10,35 0,19 -4,35 -10,35 -5,0 -10,11 -10,25 0,14 5,25 10,25 6,0 10,9 10,20 0,11 -4,20 -10,20 -5,0 -10,9 -10,20 0,13 7,20 20,20 11,0 20,5 20,10 0,6 -4,10 -10,10 -5,0 -10,7 -10,15 0,8 9,15 20,15 22,0 27,16 8,23 -9,3 -5,12 12,27 17,15 21,24 13,27 -17,6 -16,23 1,23 18,0 16,162 -2,168 -7,2 -12,15 -12,28 0,13 -4,24 -10,24 -5,0 -10,9 -10,20 0,11 -4,20 -10,20 -5,0 -10,9 -10,20 0,22 -16,27 -22,8 -7,-19 -38,16 -38,41 0,12 -4,21 -10,21 -5,0 -10,-4 -10,-10 0,-5 -7,-10 -15,-10 -8,0 -15,9 -15,20 0,22 -15,27 -23,8 -3,-7 -6,-3 -6,10 -1,15 -7,22 -21,22 -11,0 -20,-4 -20,-10 0,-5 -4,-10 -10,-10 -5,0 -10,9 -10,20 0,15 -7,20 -25,20 -20,0 -25,5 -25,26 0,24 -3,26 -30,20 -27,-5 -30,-3 -30,19 0,14 -4,25 -10,25 -5,0 -10,7 -10,16 0,8 -7,22 -15,30 -8,9 -15,11 -15,5 0,-6 -4,-11 -10,-11 -5,0 -10,9 -10,20 0,11 -4,20 -10,20 -5,0 -10,11 -10,25 0,14 -4,25 -10,25 -5,0 -10,9 -10,20 0,11 -4,20 -10,20 -5,0 -10,14 -10,30 0,17 5,30 10,30 6,0 10,11 10,25 0,14 -4,25 -10,25 -5,0 -10,9 -10,20 0,11 -4,20 -10,20 -5,0 -10,5 -10,10 0,6 9,10 20,10 13,0 20,7 20,20 0,11 -4,20 -10,20 -5,0 -10,11 -10,25 0,14 5,25 10,25 6,0 10,9 10,20 0,11 5,20 10,20 6,0 10,11 10,25 0,18 5,25 20,25 11,0 20,5 20,10 0,6 -5,10 -11,10 -6,0 -4,7 5,15 8,8 24,15 35,15 12,0 21,5 21,10 0,6 -4,10 -10,10 -5,0 -10,9 -10,20 0,16 7,20 30,20 27,0 30,3 30,29 0,23 5,30 22,33 13,2 24,11 26,22 5,25 26,46 46,46 9,0 16,5 16,10 0,6 9,10 21,10 24,0 44,17 53,48 4,13 16,22 27,22 10,0 19,5 19,10 0,6 12,10 28,10 17,0 34,9 46,25 20,27 117,85 141,85 8,0 15,4 15,9 0,5 12,11 27,14 16,3 55,12 88,20 196,48 418,97 438,97 13,0 176,34 362,75 185,41 349,75 364,75 14,0 123,20 241,45 118,24 278,56 355,70 77,15 316,60 530,100 215,41 431,81 480,89 50,9 192,37 316,62 224,47 226,48 221,72 -4,20 -9,23 -31,19 -14,-2 -60,-10 -101,-17 -107,-18 -348,-66 -535,-106 -88,-20 -189,-39 -225,-44 -76,-11 -94,-14 -385,-75 -121,-26 -258,-53 -305,-61 -47,-8 -236,-46 -420,-85 -184,-38 -347,-69 -363,-69 -15,0 -174,-32 -355,-71 -408,-88 -434,-90 -764,-79 -132,4 -148,7 -148,23 0,15 -10,17 -75,17 -68,0 -75,2 -75,20 0,18 -7,20 -75,20 -68,0 -75,2 -75,20 0,16 -7,20 -35,20 -24,0 -35,5 -35,15 0,11 -11,15 -40,15 -33,0 -40,3 -40,20 0,16 -7,20 -35,20 -28,0 -35,4 -35,20 0,13 -7,20 -20,20 -13,0 -20,7 -20,20 0,13 -7,20 -20,20 -11,0 -20,7 -20,15 0,8 -7,15 -15,15 -11,0 -15,11 -15,40 0,33 -3,40 -20,40 -18,0 -20,7 -20,55 0,48 -2,55 -20,55 -19,0 -20,7 -20,90 0,83 1,90 20,90 18,0 20,7 20,55 0,48 2,55 20,55 17,0 20,7 20,40 0,29 4,40 15,40 8,0 15,7 15,15 0,8 9,15 20,15 13,0 20,7 20,20 0,13 7,20 20,20 13,0 20,7 20,20 0,11 7,20 15,20 10,0 15,11 15,35 0,28 4,35 20,35 19,0 20,7 20,115 0,108 -1,115 -20,115 -16,0 -20,7 -20,35 0,24 -5,35 -15,35 -8,0 -15,9 -15,20 0,13 -7,20 -20,20 -13,0 -20,7 -20,20 0,13 -7,20 -20,20 -11,0 -20,7 -20,15 0,8 -7,15 -15,15 -11,0 -15,11 -15,40 0,33 -3,40 -20,40 -18,0 -20,7 -20,55 0,48 -2,55 -20,55 -19,0 -20,7 -20,90 0,83 1,90 20,90 18,0 20,7 20,55 0,48 2,55 20,55 17,0 20,7 20,40 0,29 4,40 15,40 8,0 15,7 15,15 0,8 9,15 20,15 13,0 20,7 20,20 0,13 7,20 20,20 13,0 20,7 20,20 0,16 7,20 35,20 28,0 35,4 35,20 0,17 7,20 40,20 29,0 40,4 40,15 0,10 11,15 35,15 28,0 35,4 35,20 0,18 7,20 75,20 68,0 75,2 75,20 0,18 7,20 75,20 68,0 75,2 75,20 0,20 7,20 270,20 268,0 271,0 433,-34 246,-51 512,-103 607,-119 47,-7 209,-39 360,-69 151,-31 329,-66 395,-78 66,-12 234,-47 372,-76 139,-30 265,-54 280,-54 42,0 414,-79 443,-94 14,-8 68,-21 120,-30 152,-27 303,-56 328,-63 21,-5 23,-3 20,23 l -3,28 -290,63 c -159,34 -324,67 -365,71 -75,9 -459,91 -535,114 -22,7 -47,11 -56,10 -10,-2 -20,1 -23,7 -6,9 -23,13 -131,26 -22,3 -105,19 -185,35 -214,45 -517,100 -549,100 -31,0 -226,40 -489,101 -130,30 -210,55 -328,104 -85,36 -160,65 -165,65 -5,0 -9,5 -9,10 0,6 -10,10 -22,10 -27,0 -162,42 -166,52 -2,5 -12,8 -23,8 -10,0 -19,5 -19,10 0,6 -11,10 -25,10 -14,0 -25,5 -25,10 0,6 -9,10 -20,10 -11,0 -20,5 -20,10 0,6 -9,10 -20,10 -11,0 -20,5 -20,10 0,6 -9,10 -19,10 -30,0 -51,11 -51,27 0,19 -25,43 -44,43 -9,0 -16,5 -16,10 0,6 -9,10 -20,10 -11,0 -20,5 -20,10 0,6 -7,10 -15,10 -9,0 -14,8 -12,23 2,17 -4,23 -25,25 -16,2 -28,8 -28,13 0,5 -7,9 -16,9 -18,0 -44,23 -44,40 0,14 -25,40 -39,40 -6,0 -11,11 -11,25 0,16 -6,25 -16,25 -18,0 -44,23 -44,40 0,16 -26,40 -43,40 -10,0 -17,15 -21,45 -4,25 -11,45 -17,45 -5,0 -9,14 -9,30 0,17 -4,30 -10,30 -5,0 -10,9 -10,20 0,11 5,20 10,20 6,0 10,7 10,15 0,8 -4,15 -10,15 -5,0 -10,14 -10,30 0,17 5,30 10,30 15,0 12,67 -2,74 -10,5 -10,7 0,12 6,3 12,19 12,35 0,16 4,29 9,29 5,0 11,14 15,31 7,35 37,71 44,51 5,-17 22,-15 22,3 0,8 5,15 10,15 6,0 10,12 10,26 0,29 31,67 38,46 7,-23 20,-12 26,23 7,35 20,46 29,23 3,-9 12,-5 27,12 15,17 24,21 27,13 7,-20 23,-15 23,7 0,22 25,28 33,8 3,-7 6,-3 6,10 1,24 17,30 23,10 5,-15 38,13 38,32 0,19 33,47 38,32 5,-17 22,-15 22,3 0,8 4,15 9,15 5,0 11,23 15,50 4,28 11,50 16,50 6,0 10,7 10,15 0,8 5,15 10,15 6,0 10,9 10,20 0,11 -4,20 -10,20 -5,0 -10,18 -10,40 0,22 5,40 10,40 6,0 10,5 10,10 0,6 -10,10 -22,10 -18,0 -20,2 -9,9 12,8 12,12 -3,26 -10,10 -14,25 -11,36 4,13 2,19 -9,19 -9,0 -16,9 -16,20 0,11 5,20 10,20 6,0 10,5 10,10 0,6 -9,10 -20,10 -11,0 -20,7 -20,15 0,8 5,15 10,15 6,0 10,9 10,20 0,11 -4,20 -10,20 -5,0 -10,14 -10,30 0,17 5,30 10,30 6,0 10,6 10,14 0,8 6,16 13,19 8,3 4,12 -13,27 -17,15 -21,24 -12,27 6,3 12,13 12,24 0,10 4,19 9,19 5,0 12,20 15,45 6,38 11,46 34,52 32,8 52,26 52,47 0,9 5,16 10,16 6,0 10,7 10,15 0,8 5,15 10,15 6,0 10,-5 10,-11 0,-6 7,-4 15,5 8,8 15,26 15,40 0,14 5,26 10,26 6,0 10,-4 10,-10 0,-5 9,-10 20,-10 13,0 20,7 20,20 0,22 16,27 23,8 3,-9 11,-5 26,11 11,13 21,19 21,13 0,-7 5,-12 10,-12 6,0 10,9 10,20 0,13 7,20 20,20 11,0 20,-4 20,-10 0,-5 14,-10 30,-10 17,0 30,5 30,10 0,6 7,10 15,10 8,0 15,-4 15,-10 0,-5 9,-10 20,-10 11,0 20,7 20,15 0,12 7,14 28,9 15,-4 30,-12 34,-17 4,-6 12,-4 22,5 15,16 66,13 66,-3 0,-5 9,-9 20,-9 11,0 20,-4 20,-10 0,-5 11,-10 25,-10 14,0 25,5 25,10 0,6 14,10 30,10 17,0 30,-4 30,-10 0,-5 9,-10 20,-10 11,0 20,-4 20,-10 0,-5 11,-10 25,-10 14,0 25,5 25,10 0,6 9,10 20,10 11,0 20,-4 20,-10 0,-5 7,-10 15,-10 8,0 15,-4 15,-10 0,-5 14,-10 30,-10 17,0 30,-4 30,-10 0,-5 7,-10 15,-10 8,0 15,-4 15,-10 0,-5 9,-10 20,-10 11,0 20,-4 20,-9 0,-4 19,-11 42,-14 24,-3 44,-11 46,-16 2,-6 10,-11 18,-11 8,0 43,-19 77,-42 34,-24 65,-42 68,-41 7,2 90,-55 187,-127 85,-64 227,-161 275,-188 22,-13 70,-45 106,-72 36,-28 82,-57 101,-66 19,-10 37,-20 40,-24 3,-3 34,-26 70,-50 36,-24 71,-50 78,-57 8,-8 28,-20 45,-27 18,-7 59,-33 92,-58 33,-25 76,-53 95,-64 19,-10 82,-51 140,-89 58,-39 119,-76 136,-84 18,-7 40,-20 50,-30 25,-22 165,-111 176,-111 5,0 7,-4 3,-9 -3,-6 21,-28 54,-50 33,-23 63,-45 66,-51 3,-5 31,-22 60,-36 30,-15 62,-34 72,-43 20,-19 137,-91 147,-91 9,0 145,-98 175,-126 14,-13 30,-24 34,-24 8,0 85,-56 97,-70 10,-13 99,-70 108,-70 5,0 22,-11 37,-24 16,-14 57,-41 91,-61 34,-20 65,-43 68,-51 8,-20 43,-17 55,4 8,15 -1,26 -53,64 -35,26 -85,59 -112,73 -26,14 -51,29 -54,33 -3,5 -63,47 -135,94 -71,47 -143,98 -160,112 -16,14 -49,35 -71,45 -23,11 -48,26 -55,34 -8,7 -77,55 -154,107 -76,51 -148,102 -160,113 -11,11 -36,26 -55,34 -19,8 -55,30 -80,48 -25,18 -63,42 -85,54 -76,41 -107,62 -186,126 -44,36 -85,65 -92,65 -7,0 -39,23 -72,50 -33,28 -63,50 -67,50 -12,0 -204,125 -230,149 -11,11 -40,29 -63,40 -23,11 -49,27 -57,35 -8,8 -75,54 -149,102 -74,47 -147,97 -163,111 -15,13 -42,30 -60,37 -17,7 -53,31 -80,54 -26,22 -71,52 -100,68 -55,29 -133,94 -129,106 2,5 -3,8 -10,8 -8,0 -22,10 -33,21 -10,12 -26,24 -35,28 -19,8 -279,298 -279,312 0,6 -24,33 -52,61 -31,30 -48,53 -40,56 24,8 19,16 -58,99 -16,17 -20,28 -12,31 18,6 14,26 -8,42 -22,16 -27,46 -7,53 7,2 -1,16 -22,36 -23,22 -31,35 -23,40 8,5 5,11 -8,21 -22,16 -26,45 -7,54 9,5 9,7 0,12 -7,3 -13,14 -13,25 0,10 6,19 13,20 10,0 10,2 0,6 -17,6 -17,40 0,47 9,5 9,7 0,12 -20,9 -15,35 9,57 16,13 19,21 11,24 -22,8 -15,23 29,65 30,29 38,42 29,48 -20,12 101,130 134,130 14,0 25,4 25,8 0,5 8,19 19,30 20,24 47,29 53,10 4,-12 11,-9 55,32 12,11 17,12 21,2 5,-16 29,-16 36,1 5,10 7,10 12,0 3,-7 14,-13 24,-13 10,0 21,6 23,13 4,8 8,9 14,1 4,-6 23,-14 40,-17 27,-5 37,-2 59,20 20,20 28,23 34,12 7,-10 15,-5 37,20 33,38 56,60 102,102 26,23 31,33 21,39 -10,6 -7,14 13,34 22,22 25,32 20,59 -3,17 -11,36 -17,40 -8,6 -7,10 2,14 16,6 16,40 0,47 -10,5 -10,7 0,12 15,7 16,31 0,36 -12,4 -9,11 32,55 11,12 12,17 2,21 -19,6 -14,33 10,53 11,11 25,19 30,19 4,0 8,11 8,25 0,33 118,154 130,134 6,-9 20,0 51,32 25,26 44,39 46,32 7,-19 27,-16 43,7 16,22 45,26 54,8 5,-10 7,-10 12,0 3,6 14,12 25,12 10,0 19,-6 20,-12 0,-10 2,-10 6,0 2,6 13,12 23,12 10,0 21,-6 24,-12 5,-10 7,-10 12,0 9,18 38,14 54,-8 10,-13 16,-16 21,-8 5,8 18,0 40,-23 20,-21 34,-29 36,-21 7,19 37,14 53,-8 16,-22 36,-26 42,-8 3,8 14,4 31,-12 15,-14 38,-35 52,-47 27,-26 41,-29 47,-11 3,8 26,-9 56,-40 28,-28 56,-52 63,-52 6,0 27,-9 45,-21 19,-11 34,-18 34,-14 0,4 18,-13 40,-37 22,-24 48,-51 59,-62 10,-10 43,-43 74,-73 80,-81 93,-94 138,-138 23,-22 48,-54 57,-71 10,-18 43,-69 75,-115 32,-45 64,-96 71,-113 7,-18 19,-39 27,-47 8,-8 20,-24 27,-34 6,-11 29,-46 50,-79 20,-32 42,-64 47,-70 6,-6 16,-23 24,-36 8,-14 33,-49 55,-79 23,-30 50,-69 62,-88 11,-19 41,-61 68,-93 26,-33 57,-76 69,-98 29,-51 119,-186 128,-192 4,-3 13,-21 21,-40 8,-19 31,-56 52,-83 20,-26 36,-52 36,-57 0,-6 5,-10 10,-10 6,0 10,-6 10,-14 0,-7 7,-19 16,-26 8,-8 21,-27 28,-45 7,-17 20,-38 29,-46 8,-9 29,-39 47,-67 17,-29 36,-52 40,-52 5,0 12,-10 16,-22 7,-24 58,-103 81,-126 22,-22 73,-100 73,-111 0,-5 6,-16 13,-23 22,-22 117,-158 127,-181 9,-23 33,-59 108,-165 23,-34 42,-63 42,-66 0,-2 26,-41 58,-86 31,-44 64,-94 73,-111 20,-36 64,-103 84,-127 8,-9 23,-28 33,-42 17,-21 22,-23 36,-11 16,13 14,49 -4,61 -10,7 -112,156 -132,193 -10,18 -41,65 -70,105 -29,40 -60,85 -68,100 -24,42 -95,143 -129,182 -17,19 -31,39 -31,43 0,9 -47,76 -65,92 -15,13 -75,102 -75,110 0,4 -30,52 -67,107 -38,55 -77,116 -88,134 -11,18 -44,62 -73,97 -29,35 -60,77 -70,94 -25,46 -124,187 -134,191 -4,2 -8,10 -8,18 0,7 -30,57 -66,110 -36,52 -68,103 -71,112 -7,20 -112,181 -130,200 -6,6 -15,22 -19,34 -7,22 -52,98 -65,108 -7,6 -79,119 -79,124 0,8 -111,165 -120,171 -6,4 -10,15 -10,26 0,13 -4,18 -12,13 -6,-4 -9,-3 -5,2 8,13 -17,65 -47,96 -14,15 -26,34 -26,43 0,8 -4,15 -10,15 -5,0 -10,14 -10,30 0,17 -4,30 -8,30 -5,0 -17,26 -27,58 -10,31 -24,71 -30,87 -28,68 -124,373 -130,413 -4,23 -11,42 -16,42 -5,0 -9,11 -9,25 0,14 -4,25 -10,25 -5,0 -10,5 -10,10 0,6 9,10 20,10 11,0 20,5 20,10 0,6 -4,10 -10,10 -5,0 -10,14 -10,30 0,17 -4,30 -10,30 -5,0 -10,7 -10,15 0,8 -4,15 -10,15 -5,0 -10,9 -10,20 0,11 5,20 10,20 15,0 12,77 -2,83 -7,3 -3,6 10,6 21,1 33,21 12,21 -5,0 -10,14 -10,30 0,17 5,30 10,30 6,0 10,11 10,25 0,14 -4,25 -10,25 -5,0 -10,9 -10,20 0,13 7,20 20,20 22,0 27,15 8,24 -10,5 -10,7 0,12 6,3 12,21 12,40 0,26 4,34 18,34 14,0 14,2 3,9 -12,8 -12,12 2,25 8,9 23,16 31,16 11,0 16,9 16,30 0,27 3,30 30,30 17,0 30,5 30,10 0,6 7,10 15,10 8,0 15,7 15,16 0,9 26,27 68,46 51,24 79,31 120,30 30,-2 52,2 52,8 0,5 16,10 35,10 19,0 35,-4 35,-10 0,-5 9,-10 20,-10 11,0 20,5 20,10 0,6 9,10 20,10 11,0 20,-4 20,-10 0,-5 11,-10 25,-10 14,0 25,-4 25,-10 0,-5 9,-10 20,-10 11,0 20,-4 20,-10 0,-5 14,-10 30,-10 23,0 30,-4 30,-20 0,-11 5,-20 10,-20 6,0 10,5 10,10 0,6 11,10 25,10 14,0 25,-4 25,-10 0,-5 14,-10 30,-10 17,0 30,5 30,10 0,6 9,10 20,10 11,0 20,5 20,10 0,6 11,10 25,10 14,0 25,5 25,10 0,6 9,10 20,10 11,0 20,5 20,10 0,6 9,10 20,10 22,0 27,16 8,22 -20,7 16,38 44,39 13,0 17,3 11,6 -21,8 -15,43 7,43 22,0 27,16 8,23 -9,3 -5,12 12,27 17,15 21,24 13,27 -20,7 -15,23 7,23 15,0 20,7 20,25 0,18 5,25 19,25 21,0 33,22 25,45 -4,9 0,15 10,15 9,0 16,5 16,10 0,6 14,10 30,10 25,0 30,4 30,25 0,18 5,25 20,25 11,0 20,5 20,10 0,6 11,10 25,10 14,0 25,5 25,10 0,6 9,10 20,10 11,0 20,5 20,10 0,6 14,10 30,10 17,0 30,-4 30,-10 0,-5 7,-10 15,-10 8,0 15,5 15,10 0,6 14,10 30,10 17,0 30,5 30,10 0,6 5,10 10,10 6,0 10,-9 10,-20 0,-13 7,-20 20,-20 11,0 20,5 20,10 0,6 7,10 15,10 8,0 15,-4 15,-10 0,-5 14,-10 30,-10 17,0 30,-4 30,-10 0,-5 9,-10 20,-10 11,0 20,-4 20,-10 0,-5 14,-10 30,-10 23,0 30,-4 30,-20 0,-11 5,-20 10,-20 6,0 10,-7 10,-15 0,-18 17,-20 22,-3 7,21 38,-17 38,-46 0,-14 5,-26 10,-26 6,0 10,5 10,10 0,6 7,10 15,10 10,0 15,-10 15,-30 0,-27 3,-30 30,-30 20,0 30,-5 30,-15 0,-8 5,-15 10,-15 6,0 10,-9 10,-20 0,-11 5,-20 10,-20 6,0 10,-13 10,-30 0,-25 4,-30 25,-30 16,0 25,-6 25,-15 0,-8 5,-15 10,-15 6,0 10,-9 10,-20 0,-11 5,-20 10,-20 6,0 10,-13 10,-30 0,-18 5,-30 13,-30 7,0 44,-71 84,-157 74,-166 113,-305 113,-410 0,-28 4,-53 8,-55 4,-2 20,-61 34,-133 15,-71 48,-229 73,-350 26,-121 50,-252 55,-291 5,-38 22,-124 39,-190 38,-150 76,-341 91,-464 6,-52 16,-111 21,-131 5,-20 9,-48 9,-62 0,-15 7,-47 16,-72 8,-26 19,-70 24,-98 5,-29 27,-130 50,-226 22,-95 40,-186 40,-201 0,-25 66,-355 119,-600 12,-52 21,-104 21,-117 0,-18 6,-23 26,-23 22,0 25,3 20,23 -6,22 -22,106 -72,377 -15,80 -31,152 -35,160 -11,21 -79,397 -80,440 0,50 -32,204 -45,221 -6,8 -18,52 -27,99 -9,47 -30,153 -47,236 -16,83 -30,162 -30,175 0,13 -20,116 -44,229 -68,315 -96,455 -96,480 0,42 -112,555 -126,577 -11,18 -14,82 -14,313 0,283 0,290 20,290 18,0 20,7 20,75 0,68 2,75 20,75 18,0 20,7 20,75 0,68 2,75 20,75 16,0 20,7 20,35 0,24 5,35 15,35 11,0 15,11 15,40 0,33 3,40 20,40 16,0 20,7 20,35 0,28 4,35 20,35 13,0 20,7 20,20 0,13 7,20 20,20 13,0 20,7 20,20 0,11 7,20 15,20 8,0 15,9 15,20 0,17 7,20 40,20 29,0 40,4 40,15 0,12 13,15 55,15 48,0 55,2 55,20 0,19 7,20 95,20 88,0 95,-1 95,-20 z"
        id="path2991"
        inkscape:connector-curvature="0"
    />
    <path
        d="m 7075,9450 c -22,-4 -58,-11 -80,-14 -22,-3 -58,-9 -80,-12 -84,-12 -281,-66 -383,-105 -135,-51 -348,-162 -472,-245 -120,-80 -281,-223 -400,-356 -93,-104 -210,-262 -210,-284 0,-7 -3,-14 -7,-16 -10,-4 -41,-59 -104,-182 -100,-196 -161,-395 -209,-681 -25,-150 -28,-422 -5,-541 8,-44 17,-101 20,-129 4,-27 18,-93 31,-145 14,-52 27,-102 29,-110 2,-8 4,-16 5,-17 2,-2 4,-7 5,-13 1,-5 3,-11 5,-12 1,-2 3,-11 5,-22 6,-32 47,-128 94,-221 25,-49 44,-93 43,-97 -1,-5 2,-8 6,-8 5,0 9,-6 9,-13 0,-6 12,-31 26,-54 15,-24 27,-47 27,-53 0,-6 6,-13 13,-16 8,-3 14,-11 14,-18 0,-18 105,-166 162,-229 112,-123 216,-227 227,-227 7,0 29,-19 49,-42 20,-24 34,-36 30,-28 -3,8 1,6 10,-5 9,-11 21,-19 26,-17 6,1 8,-2 5,-7 -3,-5 6,-17 20,-26 18,-12 24,-13 19,-4 -4,8 5,1 20,-16 14,-16 23,-23 19,-15 -4,8 7,0 25,-17 18,-18 37,-33 43,-33 6,0 38,-17 72,-37 130,-80 416,-201 566,-240 115,-30 278,-56 340,-54 33,1 41,-2 30,-9 -10,-6 48,-10 180,-10 124,0 190,4 180,10 -10,6 1,9 35,8 93,-1 314,42 443,86 39,14 72,23 72,20 0,-2 10,2 23,10 12,8 63,31 112,51 50,20 104,46 121,56 17,10 34,16 37,12 4,-3 7,-1 7,6 0,7 5,9 10,6 6,-3 10,-1 10,5 0,6 5,8 10,5 6,-3 10,-2 10,3 0,6 18,17 39,25 22,9 42,21 46,27 4,7 27,20 52,31 24,10 42,22 39,27 -2,4 5,14 17,22 19,11 21,11 12,-1 -5,-8 -2,-6 8,4 9,11 17,16 17,13 0,-4 11,1 25,10 14,9 23,19 21,23 -2,3 8,15 22,25 15,12 22,14 17,5 -11,-17 40,30 168,158 128,128 175,179 158,168 -9,-5 -7,2 5,17 10,14 22,24 25,22 4,-2 14,7 23,21 9,14 14,25 11,25 -4,0 2,13 11,29 10,17 21,28 26,25 5,-3 16,12 24,33 9,21 22,45 29,53 42,48 191,376 238,525 46,146 79,322 78,420 0,37 2,45 9,30 5,-12 9,56 9,180 0,116 -4,192 -9,180 -6,-14 -8,-6 -8,30 0,28 -2,64 -5,81 -3,18 -8,51 -11,75 -15,96 -64,294 -83,332 -7,15 -11,27 -9,27 5,0 -19,62 -53,135 -11,22 -27,58 -36,80 -15,37 -66,131 -133,247 -15,26 -36,55 -47,63 -11,9 -13,14 -5,10 8,-4 2,6 -15,20 -16,15 -24,24 -16,20 9,-5 8,1 -4,19 -9,14 -21,23 -26,20 -5,-3 -8,-1 -7,5 2,5 -6,17 -17,26 -11,9 -13,13 -5,9 21,-11 -137,161 -201,219 -30,27 -70,64 -89,82 -56,53 -131,106 -141,99 -5,-3 -8,0 -7,6 3,14 -261,172 -273,164 -5,-3 -9,-1 -9,4 0,13 -268,126 -350,148 -259,67 -444,94 -650,93 -96,-1 -193,-5 -215,-9 z m 533,-47 c 50,-8 92,-19 92,-23 0,-12 -111,-524 -114,-527 -2,-2 -67,4 -144,14 -133,16 -151,16 -279,1 -75,-10 -140,-15 -145,-12 -4,3 -8,20 -8,39 0,27 -78,414 -96,476 -14,50 460,72 694,32 z m -736,-60 c 3,-21 26,-141 52,-266 27,-126 46,-230 43,-233 -2,-3 -53,-18 -114,-34 -143,-38 -274,-95 -371,-162 -24,-17 -45,-28 -46,-26 -1,1 -13,20 -25,41 -13,21 -28,43 -35,50 -22,22 -86,121 -86,134 0,6 -4,13 -8,15 -5,2 -28,32 -52,68 -24,36 -54,78 -67,93 -29,36 -29,58 0,76 155,99 430,216 607,261 100,25 97,25 102,-17 z m 1144,-41 c 123,-43 391,-173 447,-216 15,-11 15,-17 4,-37 -17,-32 -118,-181 -133,-196 -6,-7 -21,-32 -33,-56 -11,-24 -29,-52 -39,-63 -10,-10 -32,-40 -50,-66 -18,-27 -36,-48 -40,-48 -4,0 -34,18 -67,40 -82,55 -221,114 -341,146 -54,14 -103,29 -107,33 -4,4 10,92 33,195 22,104 40,201 40,216 0,16 5,51 11,78 l 12,49 61,-13 c 33,-7 125,-35 202,-62 z M 6140,8968 c 0,-9 58,-99 70,-108 14,-11 80,-115 80,-127 0,-6 4,-13 8,-15 5,-1 27,-31 50,-65 l 41,-61 -27,-18 c -99,-64 -326,-291 -370,-370 -7,-13 -31,-1 -141,70 -73,48 -142,95 -153,106 -11,10 -45,31 -74,46 -29,15 -62,36 -73,48 l -20,21 72,95 c 92,122 255,286 382,381 l 100,76 27,-35 c 16,-19 28,-39 28,-44 z m 2483,5 c 108,-78 296,-265 389,-389 l 76,-101 -33,-26 c -19,-15 -38,-27 -42,-27 -9,0 -114,-69 -123,-80 -10,-12 -99,-70 -109,-70 -5,0 -16,-6 -23,-13 -7,-7 -38,-30 -68,-50 -53,-36 -55,-37 -70,-18 -8,10 -35,44 -60,76 -54,69 -236,245 -290,281 -23,15 -37,31 -33,38 37,61 159,245 173,261 11,11 31,43 47,72 34,61 64,103 77,103 5,0 45,-26 89,-57 z M 7495,8781 c 236,-32 403,-87 555,-183 171,-108 207,-135 303,-227 120,-116 171,-177 250,-304 160,-255 226,-488 226,-802 0,-314 -66,-547 -226,-802 -79,-126 -130,-188 -248,-302 -200,-192 -412,-312 -676,-380 l -156,-41 -223,0 -222,0 -137,36 c -157,42 -204,59 -322,119 -281,143 -541,403 -684,684 -59,117 -76,163 -121,326 l -39,140 0,220 0,220 39,140 c 45,163 62,209 121,326 120,236 330,466 547,600 146,90 171,105 248,136 103,43 222,73 370,93 164,23 227,23 395,1 z M 5555,8410 c 11,-9 49,-37 85,-61 36,-23 71,-49 78,-56 7,-7 18,-13 23,-13 10,0 99,-57 109,-70 3,-3 27,-21 53,-39 43,-30 47,-35 34,-49 -17,-19 -83,-149 -121,-235 -22,-51 -43,-117 -75,-243 l -11,-41 -222,48 c -123,27 -239,49 -258,49 -59,1 -62,6 -40,95 44,181 168,471 264,618 20,30 44,30 81,-3 z m 3617,-62 c 119,-215 197,-414 242,-620 6,-26 4,-28 -26,-28 -18,0 -138,-23 -267,-50 -128,-28 -236,-48 -239,-46 -2,3 -18,54 -34,113 -35,129 -93,265 -148,348 -44,66 -47,75 -26,75 8,0 36,16 61,36 26,19 97,68 159,108 61,40 133,89 159,109 27,20 54,37 61,37 7,0 33,-37 58,-82 z M 5444,7601 c 103,-23 206,-41 228,-41 l 39,0 -8,-62 c -9,-70 -11,-370 -3,-462 l 5,-59 -245,-53 c -135,-29 -252,-53 -261,-53 -48,-2 -72,482 -34,690 l 17,96 36,-8 c 21,-4 122,-26 226,-48 z m 3991,17 c 3,-18 12,-105 20,-192 13,-143 13,-178 -1,-330 -9,-94 -19,-185 -22,-202 l -7,-30 -265,56 -265,57 2,34 c 13,204 14,366 4,443 -7,48 -10,90 -7,93 3,3 38,9 78,14 40,5 152,26 248,48 96,21 183,39 192,40 12,1 19,-9 23,-31 z M 5760,6812 c 15,-56 38,-126 50,-155 33,-78 110,-230 126,-248 13,-14 11,-18 -13,-34 -15,-10 -50,-35 -78,-55 -27,-21 -69,-49 -91,-62 -23,-13 -77,-48 -119,-78 -43,-30 -91,-62 -108,-71 -30,-16 -32,-15 -48,5 -9,11 -52,91 -96,176 -75,143 -167,388 -186,496 -6,30 -5,30 52,42 31,7 68,12 82,12 13,0 105,18 204,39 99,22 184,38 189,37 5,-1 21,-48 36,-104 z m 3480,32 c 19,-3 66,-10 104,-16 l 68,-12 -6,-46 c -16,-124 -196,-553 -275,-656 l -16,-20 -37,20 c -20,12 -71,46 -114,76 -42,30 -94,65 -116,77 -21,12 -66,42 -99,67 -34,26 -69,50 -77,55 -13,8 -9,19 27,74 57,89 115,222 147,342 14,55 28,103 30,106 2,4 77,-9 166,-28 90,-19 179,-36 198,-39 z M 5993,6327 c 3,-7 41,-56 86,-109 73,-87 213,-217 283,-262 l 27,-18 -42,-60 c -23,-34 -52,-78 -64,-99 -11,-21 -44,-69 -72,-106 -28,-38 -58,-83 -67,-102 -9,-19 -25,-44 -35,-55 -11,-11 -19,-24 -19,-28 0,-20 -215,156 -320,262 -106,107 -230,262 -230,288 0,14 54,54 101,76 20,9 46,26 57,36 22,21 273,188 283,189 4,1 9,-5 12,-12 z m 2760,-61 c 63,-41 136,-91 162,-111 26,-20 62,-42 79,-50 17,-8 44,-25 59,-38 l 28,-23 -63,-89 c -81,-115 -288,-322 -403,-403 l -89,-63 -23,28 c -13,15 -30,42 -38,59 -8,17 -30,53 -50,79 -47,61 -185,273 -185,284 0,5 19,21 43,36 55,36 286,267 322,323 15,23 31,42 36,42 4,0 60,-33 122,-74 z M 6555,5837 c 127,-64 197,-91 300,-117 50,-13 94,-26 98,-30 4,-4 -11,-92 -33,-196 -23,-104 -45,-222 -50,-263 -6,-41 -11,-76 -13,-78 -2,-2 -46,8 -98,21 -201,51 -619,243 -619,285 0,8 17,37 39,65 21,28 73,104 115,169 42,65 85,127 96,139 11,12 25,34 32,49 11,24 15,26 28,15 8,-8 56,-34 105,-59 z m 1687,-23 c 21,-28 48,-69 60,-91 13,-22 48,-75 78,-117 30,-43 64,-94 76,-114 l 20,-37 -20,-16 c -101,-77 -503,-246 -658,-277 -55,-11 -53,-15 -68,98 -5,41 -27,155 -48,253 l -39,177 56,16 c 159,43 229,69 337,125 66,33 123,64 128,69 6,6 15,1 24,-13 8,-12 32,-45 54,-73 z m -919,-152 c 133,2 249,7 257,11 13,6 24,-37 70,-260 l 55,-268 -30,-7 c -16,-3 -109,-13 -205,-22 -159,-15 -190,-15 -335,-1 -184,18 -225,24 -225,35 0,5 23,113 50,240 28,127 50,245 50,260 0,28 1,28 36,19 20,-6 138,-9 277,-7 z"
        id="path2993"
        inkscape:connector-curvature="0"
    />
  </g
  >
  <metadata
    >
    <rdf:RDF
      >
      <cc:Work
        >
        <dc:format
          >image/svg+xml</dc:format
        >
        <dc:type
            rdf:resource="http://purl.org/dc/dcmitype/StillImage"
        />
        <cc:license
            rdf:resource="http://creativecommons.org/licenses/publicdomain/"
        />
        <dc:publisher
          >
          <cc:Agent
              rdf:about="http://openclipart.org/"
            >
            <dc:title
              >Openclipart</dc:title
            >
          </cc:Agent
          >
        </dc:publisher
        >
        <dc:title
          >Flower 16 petal template</dc:title
        >
        <dc:date
          >2014-01-30T22:43:13</dc:date
        >
        <dc:description
          > A 16 petal symmetrical template for a flower. Possible daisy, aster, or other simple flower.</dc:description
        >
        <dc:source
          >https://openclipart.org/detail/190497/flower-16-petal-template-by-baj-190497</dc:source
        >
        <dc:creator
          >
          <cc:Agent
            >
            <dc:title
              >BAJ</dc:title
            >
          </cc:Agent
          >
        </dc:creator
        >
        <dc:subject
          >
          <rdf:Bag
            >
            <rdf:li
              >Easter</rdf:li
            >
            <rdf:li
              >aster</rdf:li
            >
            <rdf:li
              >bouquet</rdf:li
            >
            <rdf:li
              >daisy</rdf:li
            >
            <rdf:li
              >floral</rdf:li
            >
            <rdf:li
              >flower</rdf:li
            >
            <rdf:li
              >sixteen</rdf:li
            >
            <rdf:li
              >spring</rdf:li
            >
            <rdf:li
              >summer</rdf:li
            >
            <rdf:li
              >symmetrical</rdf:li
            >
            <rdf:li
              >template</rdf:li
            >
            <rdf:li
              >yellow</rdf:li
            >
          </rdf:Bag
          >
        </dc:subject
        >
      </cc:Work
      >
      <cc:License
          rdf:about="http://creativecommons.org/licenses/publicdomain/"
        >
        <cc:permits
            rdf:resource="http://creativecommons.org/ns#Reproduction"
        />
        <cc:permits
            rdf:resource="http://creativecommons.org/ns#Distribution"
        />
        <cc:permits
            rdf:resource="http://creativecommons.org/ns#DerivativeWorks"
        />
      </cc:License
      >
    </rdf:RDF
    >
  </metadata
  >
</svg
>
