<?xml version="1.0" standalone="yes"?>

	<svg
		xmlns="http://www.w3.org/2000/svg"
		xmlns:xlink="http://www.w3.org/1999/xlink"
		xmlns:svg="http://www.w3.org/2000/svg"
		xmlns:dc="http://purl.org/dc/elements/1.1/"
		xmlns:cc="http://web.resource.org/cc/"
		xmlns:rdf="http://www.w3.org/1999/02/22-rdf-syntax-ns#"
	 width="1000" height="662">
<path style="fill:#201207; stroke:none;" d="M0 0L0 62C0 66.7644 -2.4268 80.8371 3 82L2 73C9.79956 71.857 15.0864 58.8049 5 58L5 57C9.05772 56.8802 13.4659 54.1806 16 58L17 58L16 36L22 36L24 23L26 18C40.4845 17.8291 34.8141 11.2285 37 2L41 3C40.0538 -1.41577 34.7698 0 31 0L0 0z"/>
<path style="fill:#2e82c5; stroke:none;" d="M41 3L37 2C33.9461 10.5711 40.0545 17.5511 26 18L24 23L22 36L16 36L17 58L16 58L16 55L5 57L5 58C14.9397 59.637 8.92009 71.1941 2 73L3 82C-2.22805 83.1203 0 94.5186 0 99L0 154C3.45315 151.591 3.84247 147.94 3 144L7 144L7 143C4.23718 137.657 8.72931 124.7 14 122L13 116L14 110L25 97L30 98L30 84L35 82L33 85L37 86L40 71C49.4996 67.5519 50.2006 52.2675 51 44L55 44L56 34L60 35L64 24L67 24C66.8586 19.6492 68.6159 17.8844 73 18L68 4L67 4L67 7L63 2C58.3972 0.487305 42.3888 -3.4809 41 3z"/>
<path style="fill:#201207; stroke:none;" d="M60 0L63 2C63.2372 5.25104 65.9326 8.95563 67 4L68 4L73 20C77.3244 22.1951 89.3895 30.2378 87 36L87 37L93 39L91 45L97 39L95 39L95 37L101 35L109 50C112.97 51.9289 112.949 54.0505 109 56L111 62L112 62L112 59L113 59L113 63L114 63C119.085 54.6891 127.363 66.9941 135 67L135 62L147 64L151 73L152 73L152 69L162 69L160 51L164 50L161 25L158 17L162 11L158 2L161 3C159.793 -2.63483 142.133 0 137 0L60 0z"/>
<path style="fill:#e1c5aa; stroke:none;" d="M161 0L162 24L166 25L164 27L168 34L162 47C166.578 53.0196 161.411 63.0005 171 65C168.746 71.0205 169.833 74.2377 172 80L173 80L174 76L172 76L172 65L181 67L180 64L185 62L185 54C180.648 51.3696 182.717 48.689 187 48L187 47L184 47L185 39L185 38L172 23L176 20L173 19L175 17L175 16L170 7C166.881 5.10516 167.144 3.36383 168 0L161 0z"/>
<path style="fill:#2e82c5; stroke:none;" d="M170 7L175 16L175 17C173.14 18.8602 173.434 19.4493 176 20L172 23C173.61 27.4943 180.499 36.4994 185 38L185 39L184 47L188 47C187.997 42.0967 188.457 37.8963 184 35L180 23L182 18L176 17C178.511 12.4862 177.574 9.7088 176 5L179 1C176.082 0.653564 172.118 -0.768738 169.287 0.476868C165.42 2.17828 166.792 6.05676 170 7z"/>
<path style="fill:#201207; stroke:none;" d="M175 0L175 1L179 1L176 5L176 17L182 18L180 23L184 35C192.118 41.7914 185.804 49.6201 184.444 56.9167C184.096 58.7884 185.775 58.7362 187 59L184 62L186 69L181 70L181 71C189.083 77.5785 184.486 80.7854 186.567 88.6998C188.367 95.543 192.932 96.8609 191 105L196 105C192.003 117.838 200.266 120.947 206 131L210 130L214.276 142.015L217 157L210 160L210 155L206 159L205 159C199.474 155.975 180.385 152.999 179 161L178 161C175.792 157.979 174.196 158.356 171 160L170 157L157 156L157 160L146 152C147.891 142.432 153.974 138.64 152 128L156 128C155.511 123.751 154.297 122.343 150 122L147 107L139 97C131.566 99.3198 124.242 99.3292 125 109L117 114L120 118L119 119L116 117L113 127C105.325 128.67 107.611 139.918 109 146L112 145C113.59 149.765 117.545 150.248 122 149L121 155L127 154L123 158C123.003 162.187 122.081 167.948 127 169L124 174L124 175L128 178C125.749 181.214 124.786 186.191 128 189L128 202L133 201C129.285 212.397 122.278 222.404 114 231L112 226L111 226L108 239L110 239L109 247L106 246L107 252C102.962 250.995 98.375 250.299 97 255C91.0025 254.322 84.5511 271.589 91 273L89 281C83.239 285.043 73.1729 300.41 66 287L57 292L58 289L51 287L43 294L37 303C41.6337 304.794 46.5217 305.877 48 311L43 312L42 309L36 312C36.6122 316.223 35.0104 317.849 31 319L33 330L25 335L21 334L23 341L16 338L16 343C11.6581 342.256 9.32139 343.239 7 347C-1.33959 346.293 0 355.008 0 361C0 371.961 -2.18722 381.755 11 384L9 386L9 387L13 392L14 392L14 388L17 388L18 396L31 400L30 404C33.7728 407.068 34.7778 410.217 35 415C41.2065 413.328 43.3339 411.481 49 416C44.0819 418.707 38.6099 423.177 41 429C37.2115 431.428 33.8407 439.514 34 444L30 444L24 453L24 466L27 471L30 470L31 471L30 474L39.0833 482.083L42 489L37 493C37.7086 502.76 30.8753 509.221 36 519L33 518L31 528L34 528C34.3093 533.239 34.0671 537.209 39 540L38 551L47 554L46 557L49 562L51 560L52 560L54 562L54 563L52 564L52 565L58 568L62 587L66 587L69 597L74 596L75 601L79 600C79.9138 604.264 93.5267 603.91 98 605L97 608L109 608L106 613L110 615L111 615L115 612L116 615C123.03 613.785 126.065 616.633 129 623C137.416 621.707 139.26 629.327 142 636C150.014 632.855 154.233 632.164 163 633C165.917 625.225 166.91 621.112 174 616L184 625C189.445 625.4 188.502 629.24 191.738 632.394C197.653 638.161 202.344 633.03 201 644L192 652L196 653L197 662L201 659L200 662L334 662L334 661L334 648L337 648L342 641L342 645L344 645L344 639L355 637C355.991 630.781 359.208 632.922 364 632L365 635L366 635C370.512 626.157 378.694 618.348 379 608L383 608L383 605C388.454 604.436 391.203 602.714 390 597L394 596L407 574L405.66 569.674L415.571 568.061L432 552L432 551L432 550L430 550L432 543L435 544L437 529C441.899 527.358 440.682 521.496 441 517L426.737 527.82L411 530C412.277 522.993 403.971 509.785 412 505L410 488L407 488C408.452 477.944 412.278 464.244 410.508 454.229C409.569 448.914 404.575 452.694 404 456L403 456L402 448L406 442C412.129 439.847 415.933 428.065 416 422C420.569 420.622 422.794 416.461 424 412L420 412L420 402C423.822 400.67 424.426 397.8 425 394L421 394L424 392L424 389L418 385L417 366L411 366L413 356L404 353C403.744 348.326 402.694 345.394 398 344L394 325C387.932 323.192 389.667 319.867 391 315C382.295 313.501 377.327 308.819 376 300L340 284L340 278L343 272C349.801 270.968 371.325 267.288 374 262L368 257L368 252L380 254L383 246L384 246L387 248L387 241L393 243L393 248C391.124 248.63 388.416 250.014 390.658 252.345C397.211 259.155 407.454 253.757 409 246C413.85 246.539 418.296 244.821 420 240L426 239C424.372 234.087 421.014 235.57 417 237L417 232L414 232L413 223L427 223C427.001 217.199 426.256 211.092 432 208L428 175L424 176L422 158L418 158L416 144C409.137 141.913 412.675 128.938 411.621 123C411 119.498 408.809 115.581 410.913 112.148C413.519 107.896 419.128 109.982 422 106C432.007 110.874 434.063 95.5063 433 89L436 86C442.39 89.152 443.69 96.3654 443 103C450.528 101.195 454.847 95.1306 459 89L454 86L488 87L487 96L502 89C503.834 83.2488 509.164 84.8118 514 86L514 99L519 98L513 106C513.947 109.116 533.465 118.348 524.837 123.584C523.106 124.635 520.859 125.193 519 126L521 131L515 130L515 134L510 134L510 138L505 138L505 142C509.253 140.355 519.293 133.237 522 137L527 133L528 136C536.281 135.065 541.749 130.87 543 143C550.173 139.995 546.383 135.898 546.715 130.08C547.432 117.475 544.411 105.451 547 93C540.382 89.0464 544.691 80.3914 544.66 74C544.605 62.8129 534.966 52.9164 536 42L530 43C530.36 46.297 532.772 49.7715 532.472 53C532.152 56.4455 529.138 59.506 528.417 63C527.427 67.7924 528.846 73.0422 528.361 77.9722C528.006 81.5836 525.037 85.9365 530 87C528.825 93.6977 528.82 100.674 536 103L535 111C522.188 118.125 528.335 104.375 527.042 97.2593C526.231 92.8008 521.959 90.422 521 86L514 85L516 80L506 81C505.445 76.1752 503.468 75.2385 499 74L499 66L483 62C482.204 58.2841 479.363 59 476 59L470.237 48.564L475 32L471 31L470 28L470 27C474.146 21.179 471.949 15.0657 470 9L454 6L453 1L444 0L445 5L442 8L446 8L446 20C441.523 17.8731 437.199 12.3161 432 15L431 15L419 13L421 11L419 8L419 7L422 0L175 0z"/>
<path style="fill:#e1c5aa; stroke:none;" d="M422 0L419 7L419 8L423 14L431 15L432 15L446 15L439 0L422 0z"/>
<path style="fill:#e4b048; stroke:none;" d="M439 0L442 7L445 3L439 0z"/>
<path style="fill:#2e82c5; stroke:none;" d="M443.333 0.666687L443.667 1.33331L443.333 0.666687M448 2L453 1L454 6L470 9C471.344 15.7753 472.879 20.119 470 27L470 28L471 31L486 31C486.908 25.2963 493.314 16.6096 498.375 13.5818C501.832 11.5137 504.738 14.9761 503 18L503 30L509 32L507 34L508 41L512 41L520 63L516 63L519 72L524 74L527 72L524 80L530 90L527 87C527.96 72.1838 533.493 57.0162 530 43L536 42L538 32L536 32L540 22L541 0L516 1L524 12L524 13L519 21L519 22L521 27C512.25 24.231 501.259 24.6933 508 13L506 9C510.387 7.54413 509.985 4.15039 510 0L464 0L448 2z"/>
<path style="fill:#201207; stroke:none;" d="M510 0C509.951 4.16046 509.83 6.88806 506 9L508 13C498.962 24.0413 513.084 25.2441 521 27L519 22L519 21L524 13L524 12L518 1L510 0z"/>
<path style="fill:#e31516; stroke:none;" d="M541 0L540 22C535.39 23.5451 536.603 27.8004 536 32L538 32C531.313 48.4404 544.23 58.2291 544.425 74C544.499 80.0186 539.588 90.3431 547 93C543.178 104.932 547.055 117.671 546.387 130.08C546.057 136.22 549.622 138.86 543 143C542.19 127.42 533.406 138.853 527 133L522 137C520.842 131.594 508.841 139.831 505 142L505 138L510 138L510 134L515 134L515 130L521 131L519 126C526.957 123.447 530.592 116.938 521.451 111.113C517.791 108.78 515.335 110.588 513 106C517.227 104.806 518.103 102.075 519 98L514 99L514 86C509.215 84.4875 503.102 82.6563 502 89L487 96L488 87L454 86L459 89L443 103C444.224 96.7088 442.828 88.0271 436 86L433 89C433.376 95.7406 432.16 108.993 422 106C418.724 109.093 412.334 108.09 410.269 112.148C408.535 115.553 410.691 119.624 411.39 123C412.645 129.056 408.368 142.744 416 144L418 158L422 158L424 176L428 175L432 208C425.684 210.046 427 217.489 427 223L413 223L414 232L417 232L417 237C421.141 236.043 423.631 234.734 426 239L420 240C417.574 244.128 413.72 245.884 409 246C407.855 249.523 405.988 253.777 401.95 254.667C398.23 255.488 386.119 252.109 393 248L393 243L387 241L387 248L384 246L383 246L380 254L368 252L368 257L374 262C369.499 267.777 350.745 269.917 343 272L342 278L345 282L349 281C350.607 287.247 354.864 293.15 360 297C365.351 290.245 374.78 288.936 376 299L381 299L382 292C384.33 294.009 386.268 297.49 389.304 298.471C399.887 301.892 407.685 284.153 413.263 278.88C418.674 273.766 429.434 274.249 429 266L435 267C434.226 263.013 432.977 260.314 429 259L431 250L437 253C438.407 248.365 444.726 246.144 446.4 252.188C449.756 264.31 436.802 283.311 457 286L463 295L470 294C469.987 290.806 470.403 288.729 467 288L468 285L474 293C468.97 294.078 471.594 300.136 472 304L486.104 300.194L496 302C491.893 307.808 491.419 312.719 500 313L501 321C492.713 322.852 493.153 330.594 493 338L504 341C505.182 344.103 507.453 344.819 509.154 347.405C510.667 349.706 509.085 352.244 511.322 354.469C522.698 365.787 537.005 357.785 549 354L565 326C558.23 323.404 550.967 319.12 544 324L540 322C540.83 316.646 539.353 315.176 534 315L534 312L548.961 315.468L565 318L566 318C570.418 313.569 571.783 309.044 570 303L573 303L573 302C570.683 298.497 570.909 296.589 573 293C567.799 283.813 575.712 278.876 576 270C571.185 267.244 574.771 264.098 579 264L580 250L576 250L577 244L571 238C575.692 236.995 574.272 226.075 569.778 225.417C567.826 225.131 552.776 225.863 551.333 226.75C548.139 228.715 546.429 235.136 541.972 235.778C537.057 236.485 539.202 230.871 541.028 229.083C545.593 224.613 549.994 223.975 556 224L555 218L547 222L545 217L542 221L541 221L544 213L543 213L532 216L534 207C538.222 207.419 540.146 204.68 544.039 203.569C551.598 201.412 556.755 204.129 557 194C554.402 192.737 552.022 191.336 552.023 188.035C552.025 184.15 555.383 180.304 556.619 176.715C558.983 169.845 557.306 154.772 566 152C565.611 144.869 565.308 141.897 572 138L570 134L574 136C581.691 116.611 588.659 94.3397 600.657 76.7646C604.748 70.7719 599.009 62.4088 608 61L613.258 49.7145L612.647 40.9962L618 22L621 21L620 8L626 6L625 32L625 49L620 47L618 53L622 53L625 58L625 65L626 65L636 49L638 49L638 79L633 78L635 84L640 108L640 109L642 123C649.984 123.261 648.866 128.159 652 134C647.788 136.844 651.427 140.341 653 144L658 144C658.256 148.674 659.306 151.606 664 153L664 158L667 155C677.532 158.371 673.629 140.255 674 134L671 133L675 124L676 113C683.537 111.37 682.435 103.747 680 98C684.656 95.198 682.965 88.7286 682 84C686.901 80.9114 687.283 58.6932 684 54C688.488 51.0269 689.576 46.1523 690 41L693 41C692.864 32.5411 695.661 26.082 700.3 19.1288C702.653 15.6031 706.07 14.5283 706 10L711 11L714 0L541 0z"/>
<path style="fill:#e4b048; stroke:none;" d="M711 11L706 10C703.291 21.5637 692.11 26.8284 693 41L690 41L684 54C686.965 59.366 686.333 79.8705 682 84L683 94L686 94L689 84C696.218 83.6785 697.876 75.9303 699 70C707.572 72.2441 713.867 71.2501 712 61C716.24 60.6837 718.794 61.438 719 66L731 66C730.775 60.7941 732.372 52.8007 736 49L743 58L746 57L745 50L749 50L748 47L751 47L750 52C755.347 50.0219 756.567 52.2949 761 55L762 52L763 48C761.383 39.3762 778.565 30.3483 769 20L769 19C772.845 16.0305 775.145 14.9007 780 16L777 20L775 25L778 38L775 39L775 40L780 39L782 40C782.886 36.1093 781.952 34.6591 778 34L778 33L784 24L784 20L788 20L789 0L731 0C720.571 0 711.046 -2.11273 711 11z"/>
<path style="fill:#e1c5aa; stroke:none;" d="M789 0L788 20L784 20L784 24L778 33L778 34C781.521 35.0754 782.32 36.3394 782 40L780 39L775 40L775 39L778 38L775 25L777 20L780 16C775.162 14.5862 772.48 15.3859 769 19L769 20C771.216 23.6442 771.403 32.7427 769.139 36.6212C766.365 41.3721 760.328 41.3759 763 48C760.92 49.3054 760.059 50.1807 762 52L762 53L761 55C757.01 51.4958 755.166 49.3247 750 52L751 47L748 47L749 50L745 50L743 58L736 49C731.717 51.937 730.18 61.0867 731 66L719 66C719.752 60.9674 716.394 60.1917 712 61C713.161 71.1345 707.397 71.3523 699 70C697.613 75.5482 695.675 83.201 689 84L680 98C682.057 104.593 681.512 116.408 678.682 122.83C677.186 126.225 670.542 130.486 674 134L673 138L678 137L679 146L674 146C674.043 158.219 679.649 153.402 687.906 156.546C691.224 157.809 692.975 161.288 696 163L695 166L699 167L698 174L681.039 180.389L674 176L679 189L679 190L679 191L681 205L688 205L688 201L703 198L703 193C710.375 193.468 722.867 189.447 727 196C735.142 193.208 738.157 190.353 746 196L747 190L778 186C777.751 176.135 784.944 179.398 789.961 173.721C792.314 171.059 796.575 163.419 800.785 163.48C803.161 163.514 803.568 166.279 804 168L817 168C817.896 164.391 819.342 163.684 823 164C822.741 159.258 821.137 152.765 828 156L829 156C831.618 152.091 833.082 148.796 838 148L838 145L843 145L843 138L838 133L829 132L835 128C832.813 119.595 845.601 105.766 839 101L839 99L844 98L846 88C860.908 84.1636 861.139 61.5544 865 49L862 45L857 43L860 38C863.297 38.3464 866.161 39.8932 867 36L870 37C869.936 34.0066 870.054 32.6544 867 32L867 31L872 31C871.452 24.1291 869.562 18.9954 863 16L862 19C855.809 15.4264 848.249 10.5903 848 3L851 1L852 1L859 3L859 0L789 0z"/>
<path style="fill:#e31516; stroke:none;" d="M859 0L859 3C855.969 3.276 848.91 4.802 852.047 9.49072C855.497 14.6482 866.841 12.2814 871.501 15.7724C875.604 18.8466 876.427 35.7344 877 41L881 41C879.352 45.3015 880.873 47.2847 885 49L880 53L889 68L885 68L888 89C893.646 91.7014 897.474 90.0261 903 88L903 83L909 83C909.726 77.2932 910.505 72.1022 917 71L925 61L925 50L929 50L931 42L930 39L934 31L940 33C938.075 28.1569 939.794 25.8356 945 26C948.765 20.1047 948.409 10.2004 956 9L955 0L859 0z"/>
<path style="fill:#e4b048; stroke:none;" d="M955 0L956 9C948.353 9.59064 947.799 19.7724 945 26C939.339 25.0756 936.773 28.007 940 33L934 31L930 39L931 42C927.874 44.2619 928.177 46.3977 929 50L925 50L925 61C920.613 62.9481 917.973 66.3048 917 71C910.768 71.449 910.026 75.5939 909 81C913.1 80.2548 915.715 79.1068 917 75L926 78L924 88L935 82L934 87L942 87L943 91L948 89L947 92L958 97L958 98C951.584 98.5131 951.972 104.002 958 105L956 101L961 100L962 100L965 111L964 114L967 116L971 112L974 118L972 128L973 124L967 125L968 129L963 130L962 127L961 127L960 134L964 133C966.618 136.643 969.631 135.018 973 133L975 137C984.518 133.633 990.833 134.081 996 144C1002.79 140.258 1000 126.818 1000 120L1000 54C999.997 46.7451 999.258 35.4637 990 35L982 18L979 19C980.236 11.5834 968.797 8.20172 966 1L960 3C959.346 -0.053833 957.993 0.064209 955 0z"/>
<path style="fill:#2e82c5; stroke:none;" d="M960 3L966 1L979 19L982 18L981 21C986.777 24.6623 988.092 28.7978 990 35C995.507 35.7276 997.371 40.1577 999 45L1000 45L999.736 16.0046L994 3L989 3L989 2L992 0C986.128 0 961.278 -2.96228 960 3z"/>
<path style="fill:#201207; stroke:none;" d="M989 2L989 3L994 3L999 14L1000 14L1000 0L989 2z"/>
<path style="fill:#2e82c5; stroke:none;" d="M422.333 1.66669L422.667 2.33331L422.333 1.66669z"/>
<path style="fill:#201207; stroke:none;" d="M540 1L540 8L541 8L540 1z"/>
<path style="fill:#e4b048; stroke:none;" d="M851 1L848 3C848.047 6.98572 848.06 9.4162 852 11C851.401 7.38281 851.751 5.80621 855 4L855 3L851 1z"/>
<path style="fill:#2e82c5; stroke:none;" d="M158 2L159 11L160 11L160 2L158 2M442 6L445 3L442 6z"/>
<path style="fill:#e4b048; stroke:none;" d="M620 8L621 14L625 17L626 17L626 6L620 8z"/>
<path style="fill:#2e82c5; stroke:none;" d="M444 8L444 13L445 13L446 8L444 8M421 10L419 11L419 13L423 14L421 10z"/>
<path style="fill:#e4b048; stroke:none;" d="M486 31L475 33L470 44L471 49L476 49L478 53L477 57L481 54L482 54L483 62L499 66L499 74C503.066 75.5457 505.076 76.57 506 81L508 79L516 80L514 85L521 86C522.078 93.3979 529.156 95.9835 525 104L525 105C528.888 109.123 528.296 113.654 535 111L536 103L530 105C530.019 97.7112 529.897 85.144 524 80L527 72L524 74L519 72L516 63L520 63L518.397 52.3788L512 41L508 41L507 34L509 34L509 32L503 30L503 18C505.775 15.5333 502.83 11.1973 499.204 12.3271C493.625 14.0659 486.495 25.5661 486 31M852 11L852 12L862 19L863 16C868.898 19.9241 871.094 24.0273 872 31L867 31L867 32L870 32L870 37L867 36L860 38L857 43L862 45L865 49C858.973 62.59 861.691 81.4854 846 88L844 98L839 99L839 101C844.061 106.45 836.878 111.662 836 118L837 118L846 114L850 117C851.719 115.292 851.96 114.777 853 117L854 117C859.884 109.583 863.154 114.981 870 117L857 127L853 125L847 127L846 131C840.091 131.054 838.384 132.738 836 126L829 132C832.432 134.353 834.18 134.763 838 133L843 138L843 145L838 145L838 148C832.698 148.419 831.215 151.504 829 156L828 156C820.947 150.707 822.498 159.783 823 164C819.196 163.151 816.932 163.844 817 168C811.848 164.776 809.468 166.319 804 168C801.946 155.223 791.388 172.686 787.74 175.056C784.847 176.936 781.008 176.043 778.832 179.23C777.444 181.262 777.835 183.705 778 186L747 190L747 194L754 193C756.254 195.254 758.27 195.407 759 192L779 201L786 197C791.995 198.149 807.795 197.285 809 190C817.078 191.355 821.155 190.037 828 186L837 211C846.046 211.714 848.354 213.98 855 219L854 223C844.166 219.516 843.793 222.577 843 232L850 234L851 243L850 248C855.306 247.12 860.624 242.025 865.961 243.323C871.82 244.747 876.166 252.586 870 256L869 269C864.016 268.106 862.342 270.136 862 275L854 280L851 290L846 290L843 297L856 318L869 320L867 325C876.861 323.867 888.421 326.519 894 316L892 306L893 299L887 295L891 279C897.513 277.827 899.527 270.521 897 265L905 259L900 259L900 263C895.097 261.244 890.58 260.447 889 255L883 264L886 264L884 271L879 270C879.842 264.193 884.667 255.653 883.138 250.054C880.915 241.914 866.75 242.227 873 232L873 237L879 240L896 239L895 236L899 237L899 235C906.179 236.857 911.886 234.024 918.714 235C925.544 235.977 932.441 243.58 939 238L940 238L943 238L953 234L952 231C956.581 226.373 936.969 214.87 941 207L941 206L928 192L921 169L915 153L918 151L922 153L926 144L929 145L930 139L926 144C915.893 142.836 907.076 141.112 910 129C906.719 125.052 903.677 121.207 905 116L899 119C900.153 111.648 901.428 99.2278 894 95L896 91L888 89C890.66 83.5115 886.928 73.6947 885 68L889 68L880 53L885 49C881.517 46.8445 879.641 45.1364 881 41L877 41L872.181 15.642L852 11z"/>
<path style="fill:#2e82c5; stroke:none;" d="M162 13L158 17L161 25L162 46L163 46L168 34L166 25L162 24L162 13z"/>
<path style="fill:#e4b048; stroke:none;" d="M436 14L436 15L440 15L436 14z"/>
<path style="fill:#2e82c5; stroke:none;" d="M442 14L440 16L442 19L443 19L442 14z"/>
<path style="fill:#e4b048; stroke:none;" d="M443 14L443 20L446 20L445 14L443 14z"/>
<path style="fill:#2e82c5; stroke:none;" d="M619 14L620 25C623.249 24.9999 622 29.2853 622 32C617.91 33.2015 618.566 44.0238 619 48L625 40L625 32L622 21L625 14L619 14z"/>
<path style="fill:#e4b048; stroke:none;" d="M67 24L64 24L60 35L56 34L55 44L51 44C49.4795 53.0152 48.8575 65.6584 40 71L37 86L33 85L35 82L30 84L30 98L25 97L14 110L13 116L14 122C8.94516 123.583 2.9721 139.107 7 143L7 144L3 144C3.52536 149.117 0.77309 152.288 0.132716 157.09C-2.04703 173.434 -3.96637 201.132 7 214C1.41611 216.247 3.08174 229.177 2 235L3 236L7 234L9 244C4.67169 244.927 5.75926 249.606 7 253C-4.94759 256.822 0 285.021 0 295L3 290L7 290C9.34968 284.408 16.4375 272.136 22 271L21 268L28 269L23 265L21 236C18.0904 233.874 18.8985 231.607 21 229L21 228C19.4909 225.393 15.376 205.363 22 210L28 204L28 203C25.1223 199.933 24.1471 195.562 28 193L28 192L22 191L27 181L26 176L27 176L31 178C30.6687 173.005 30.8975 163.97 26 162C29.0703 157.344 30.2612 149.819 36 149L32 139L42 136L43 128L42 126L45 126L45 125L41 124L41 123C49.1559 122.061 45.2881 111.647 47 105L51 106L58 102L59 101L57 96L60 95L57 90L64 91L63 83L82 69C81.8649 64.939 81.4151 62.8266 77 63L77 53L87 50C83.8189 46.1575 81.5734 43.8162 86 40L86 47L91 46L91 44C88.1791 41.0844 87.2967 38.7995 89 35L81.8889 25.5L75.2778 24.3055L75 22L72 17C67.8365 18.3498 66.241 19.4828 67 24z"/>
<path style="fill:#2e82c5; stroke:none;" d="M85 17L86 29L98 33L87 17L85 17M75 20L73 22L73 23L79 25L75 20z"/>
<path style="fill:#e4b048; stroke:none;" d="M623 20L624 25L625 20L623 20z"/>
<path style="fill:#201207; stroke:none;" d="M619 21L611.826 41.9854L612.692 49.7145L608 61C598.05 61.759 604.86 70.5987 600.106 76.7646C593.752 85.0056 592.265 94.2563 588.138 103.83C585.961 108.881 581.784 111.913 579.297 116.576C576.94 120.995 575.491 130.634 574 136L570 134L572 138C564.348 141.08 565.152 144.87 566 152C556.605 153.633 558.735 170.176 556.286 176.715C554.87 180.494 551.199 184.773 551.622 188.995C551.945 192.217 554.298 193.216 557 194C556.49 203.307 542.211 206.239 534 207L532 216C540.96 214.345 562.671 212.493 559 200C568.467 201.545 564.746 212.046 562 218L555 216L556 224C550.428 223.78 546.616 223.833 542.059 227.599C540.052 229.257 536.016 235.065 541.11 235.941C545.679 236.726 548.443 229.806 551.545 227.73C553.937 226.129 567.857 225.319 570.427 226.577C574.522 228.58 574.227 235.846 571 238C572.025 241.714 573.195 243.178 577 244L576 250L580 250L579 264C574.267 263.258 570.009 268.045 576 270C575.368 278.53 566.67 284.298 573 293C569.886 296.599 570.48 299.212 573 303L570 303L570 304C571.652 309.766 569.355 313.385 566 318L565 318C561.281 313.737 554.781 315.461 549.911 315.262C544.644 315.047 539.399 312.427 534 312L534 315C538.968 315.38 540.253 317.093 540 322L544 324C552.035 319.531 557.352 324.171 565 326L549 354C543.8 355.072 539.816 358.377 534.911 359.701C519.119 363.961 510.413 352.046 504 341L493 338C493.316 330.63 493.136 323.526 501 321L500 313C491.428 312.348 493.208 307.744 496 302L485.209 299.808L472 304C471.667 299.779 469.994 295.607 474 293C473.408 289.308 470.561 282.887 467 288L470 294L463 295L457 286C436.667 281.392 451.065 264.118 446.475 251.344C444.43 245.65 437.799 248.214 437 253L431 250L429 259L435 267L429 266C428.934 274.3 422.73 271.078 417.71 274.684C408.044 281.629 403.203 296.902 390 299L392 302L396 314C401.998 313.325 404.274 309.786 405 304L412 302C411.263 310.763 421.665 310.856 428 309C430.439 316.53 435.606 312.999 440.502 317.514C443.424 320.208 442.678 324.314 445.161 327.126C447.323 329.574 452.519 331.33 449.953 335.586C448.244 338.421 443.913 339.438 441.455 341.573C438.486 344.151 437.106 345.816 433.014 346.21C429.091 346.587 425.966 348.709 422 349L426 354L433 368L443 366L444 371L461.985 372.486L472.093 366.318L488 368L488 376L491 374L492 374L496 376L496 380C489.915 381.806 489.122 387.275 489 393C498.172 394.702 501.849 394.454 507 403L519 400C519.131 405.416 520.485 408.615 526 410C531.703 402.407 539.201 408.913 547 409C547.016 413.421 546.849 416.711 551 419C549.653 425.621 546.959 436.666 555 439L555 445L560 449L555.194 457.194L545 473L542 478L531 482C530.398 485.764 532.862 491.495 529.677 494.177C523.613 499.286 522.419 491.449 518.772 488.6C513.379 484.385 508.328 486.287 507 478C500.222 478.515 494.495 487.084 503 490L502 497C513.769 500.54 501.135 507.846 506.897 514.187C509.771 517.35 515.368 515.994 519.001 516.347C527.911 517.213 537.192 519.721 546 520C547.739 514.546 553.154 515.863 558 515L558 526L562 526L565 530L565 533L562 533L562 538L558 538L557 556L550 555L550 551L541 555L542 564C547.422 564.685 562.71 562.571 554 571L554 573L557 574L551 593C552.097 602.69 543.548 604.393 536 603L536 608L535 608L532 606L533 611C537.234 612.274 538.326 614.773 539 619C532.553 618.582 528.526 615.675 527 624C544.971 628.695 523.323 648.269 516 652L515 662L612 662L612 657L610 653C605.464 651.685 603.522 648.633 603 644L596 636C591.912 636.248 589.795 635.858 588 632L584 632L587 628C585.547 621.112 566.737 615.795 576 606L573 605L574 601C571.737 595.838 591.286 594.257 595 598L602 593L605 598L613 596L614 631L618 629L624 655L630 657L627 661C633.588 662.947 656.103 665.206 659 658L656 657L652 629L656 629C655.779 624.606 654.152 619.276 654.798 615.005C656.094 606.434 661.022 604.75 658 595L665 595L661 586L665 587C668.61 578.144 679.086 572.674 686 566L685 563L689 563L693 552L697 548L694 549L696 544C690.891 538.511 699.63 525.229 700 518L711 512L715 513L715 511L711 511L721 503L718 487L721 491L732 488C733.772 490.682 735.228 490.682 737 488L734 489L733 478L741 479L744.157 468.08L734 442L730 442L723 409C712.388 408.417 700.433 390.608 710 382L709 374L713 374L713 373L708 368L709 359L704 359L697 383L700 386L696 386C696.674 391.972 693.309 399.979 687 401L682 422C673.54 426.871 676.148 438.442 666 439L662 453C648.193 451.457 656.88 437.109 649 432L653 416L648 415L648 422L645 426C639.859 426.282 637.079 427.783 636 433L630 432L632 459L632 460L632 461L634 466C637.383 471.13 636.16 474.347 635 480C639.095 484.133 636.113 489.675 636 495L639 494L641 500L629 506C630.622 510.476 634.146 515.086 628 517C627.434 524.103 625.226 529.211 619 533L622 541C600.238 537.617 602.759 522.07 594.278 506C592.07 501.816 592.96 492.638 590 492C591.613 487.035 590.16 482.278 590.154 477.17C590.15 473.664 592.253 470.564 592.211 467C592.092 456.886 587.617 449.552 583.258 441.05C580.973 436.594 584.266 432.906 579 430C579.577 424.453 577.668 408.068 573 405L574 388L570 387L572 379C567.127 377.516 567.48 374.532 568 370L583 370L587 363C586.798 359.093 587.094 357.212 591 356L590 340C599.221 338.418 594.89 331.048 595.403 325.05C595.669 321.939 597.646 319.211 598 316C603.4 314.412 607.623 295.563 602 292L604 281L608 280L605 262L611 261C610.889 253.796 613.696 247.799 614.377 241C614.776 237.008 612.536 233.052 612.961 229C613.516 223.727 615.808 217.175 611 213L614 207L609 195C614.443 192.255 614.319 186.388 616 181L610 168L612 154L608 154L613.894 132.997L615 117C628.453 123.47 608.742 143.089 625 147L627 142C629.746 126.424 634.319 110.364 632.819 93.9861C632.318 88.5223 629.136 84.2386 628 79L625 84L622 84C620.517 93.2443 616.771 94.0652 621 104C618.387 105.598 616.281 107.52 619 110L614 114L613 110L615 106L612 106L611 100L617 87L614 87L616 66C620.305 65.0775 620.725 45.5418 620.778 41C620.826 36.8199 616.567 34.2662 622 32L620 25L621 21L619 21z"/>
<path style="fill:#2e82c5; stroke:none;" d="M100 35L95 37L97 39L95 51L110 60L108 62L115 68L113 73L121 80L122 74L130 76L130 81L125 81L125 82L128 87L125 86C126.991 92.0932 131.922 99.4938 139 97C140.731 101.368 142.291 105.468 147 107L150 122C153.941 122.642 155.193 124.127 156 128L152 128L146 152L157 160L157 156C162.15 157.263 164.808 159.725 170 157L171 160L178 161L179 161C181.354 153.525 198.797 156.741 205 159L206 159L210 155L210 160L217 157L214.788 142.015L210 130L206 131C201.454 119.859 193.279 118.434 196 105L191 105C193.353 97.0367 189.114 95.3706 186.984 88.6998C184.598 81.2281 190.633 76.3373 181 71L181 70L186 69L184 62L181 67L179 64L172 65L172 76L174 76L173 80L172 80L171 65C164.08 62.5689 164.725 56.3571 164 50L160 51L162 69L152 69L152 73L151 73L147 64L135 62L135 67C132.591 66.9984 129.352 67.4766 127.218 66.1111C124.227 64.1974 117.065 52.5237 114 63L113 63L113 59L112 59L112 62L111 62L109 56C113.49 54.5665 113.514 51.4033 109 50L100 35M87 37L91 44L93 39L87 37z"/>
<path style="fill:#da0aa8; stroke:none;" d="M233 39L234 45L227 45L227 50L215 55L214 54L215 50C203.492 50.009 199.128 54.9338 200 66L213 64L216.204 87.8248L223 94L233 89L232 85C248.467 80.0331 239.061 66.0417 238.434 54.9113C238.14 49.6994 240.233 44.5221 240 39L233 39z"/>
<path style="fill:#e1c5aa; stroke:none;" d="M87 50L77 53L77 63C81.1398 63.0793 81.7338 65.14 82 69L63 83L64 91L57 90L60 95L57 96L59 101L58 102L51 106L47 105C44.5457 111.538 48.6795 121.397 41 123L41 124L45 125L45 126L42 126L43 128L40 128L42 136L32 139L36 149C30.2795 149.457 28.2415 157.063 26 162C30.422 164.739 30.353 172.919 31 178L27 176L26 176L27 181C22.4965 183.52 22.4218 186.231 22 191L28 192L28 193L25 193C25.0894 196.906 24.4433 200.758 28 203L28 204L22 210L20 208C16.2694 213.712 17.1437 222.378 21 228L21 229C17.9957 230.686 16.9838 235.135 21 236L23 265L28 269L21 268L22 271C16.1579 271.658 8.55578 284.082 7 290L3 290C-3.1694 305.781 0 326.123 0 343L5 341L6 341L7 343L8 343L11 338L15 340C18.0399 335.1 26.4266 330.448 32 329C31.7205 322.49 29.7178 316.933 38 316L36 312L43 311L44 311L47 309C44.3484 304.255 38.212 302.472 33 302L33 296L47 294L46 290L66 287L73 292L71 288L80 284L81 289L82 289L86 269C83.7726 260.743 96.7859 251.732 100 245L109 247L110 239C107.798 236.237 107.111 228.483 109.772 225.531C111.765 223.32 115.421 225.465 117.946 224.47C121.606 223.027 127.169 216.713 128.276 212.981C130.912 204.1 119.581 192.312 126 186L122.79 163L118 150L112 145L108 147L103 132L107 132C107.401 127.913 108.997 126.629 113 126C110.659 119.501 113.594 118.792 116 113L120 114L120 106L124 107L123 100C127.413 100.693 130.622 98.1969 132 94L118 80L113 73L115 68C111.54 65.7596 109.146 64.3608 110 60L95 51L95 43L86 47L86 40C80.525 43.0275 83.2215 46.699 87 50z"/>
<path style="fill:#e4b048; stroke:none;" d="M622 40L620 47L625 49L624 40L622 40z"/>
<path style="fill:#2e82c5; stroke:none;" d="M470 46L476 59L484 60L482 54L481 54L477 57L478 53L476 49L470 46M182.647 49.0425C179.584 51.4398 184.534 55.8115 187.203 53.1682C189.922 50.4753 185.226 47.0234 182.647 49.0425z"/>
<path style="fill:#e4b048; stroke:none;" d="M636 49C631.733 56.058 640.87 62.0165 633 66C635.325 73.9493 626.327 71.6536 626.688 77.7693C627.262 87.4769 635.586 99.2767 638 109C644.967 106.211 634.574 90.8552 635 84L633 78L638 79L638 49L636 49M618 53L618 54L621 66L625 65L625 58L622 53L618 53z"/>
<path style="fill:#201207; stroke:none;" d="M626 70C632.923 68.9044 633.234 60.0938 633 54C626.076 56.5953 625.05 63.3447 626 70z"/>
<path style="fill:#2e82c5; stroke:none;" d="M633.148 59.0864C629.541 61.042 631.995 66.5756 635.686 64.8241C639.309 63.1048 637.159 56.9121 633.148 59.0864M185 59L185 61L187 61L187 59L185 59M619 63L616 66L614 87L617 87L611 100L612 106L615 106L613 110L614 114L619 110C617.4 107.168 618.701 106.11 621 104L618.013 94.0146L622 84L625 84L627 80C626.716 72.4194 636.656 74.0518 633 66L626 70L625 65L621 66L619 63z"/>
<path style="fill:#e4b048; stroke:none;" d="M814 67L817 69L814 67z"/>
<path style="fill:#201207; stroke:none;" d="M122 74L123 86L128 87L125 82L125 81L130 81L130 76L122 74z"/>
<path style="fill:#e1c5aa; stroke:none;" d="M917 75C914.357 80.0848 908.588 82.6335 903 83L903 88C898.599 89.0554 895.949 90.8807 894 95C900.775 100.723 899.514 110.816 899 119L905 116C903.315 121.014 905.989 125.759 910 129C905.901 141.458 916.048 143.274 926 144C928.702 139.078 933.618 137.474 939 137L938 134L944 136L949 137L950 137L952 133C957.95 134.084 960.785 133.543 961 127L962 127L963 130L968 129L967 125L973 124L972 128L974 118L971 112L967 116L964 114L965 111L962 100L961 100L956 101L958 105C952.551 103.372 951.9 98.8702 958 98L958 97L947 92L948 89L943 91L942 87L934 87L935 82L924 88L926 78L917 75z"/>
<path style="fill:#e4b048; stroke:none;" d="M795 78L795 80L797 80L797 78L795 78z"/>
<path style="fill:#201207; stroke:none;" d="M131 82L129 87C132.469 88.665 133.015 90.2269 133 94L138 92L133 82L131 82z"/>
<path style="fill:#e4b048; stroke:none;" d="M730 87L730 91L731 91L730 87z"/>
<path style="fill:#e1c5aa; stroke:none;" d="M158 94L160 102L155 114L164 117L163 113C167.424 109.982 169.13 104.112 170 99L164 93L158 94z"/>
<path style="fill:#2e82c5; stroke:none;" d="M633 96L631.771 122.286L627 142L625 147C609.383 140.877 629.995 121.338 615 117L613.719 132.576L608 154L612 154L610 168L612.643 178.686L620 184C623.782 183.311 626.726 182.505 629 186L630 186L633 183L633 186L634 186L635 186C636.386 180.53 637.713 159.409 648 169L649 169L648 165L654 166C654.98 154.515 652.344 139.074 645 130L647 124C640.377 121.989 642 114.724 642 109L638 109L633 96z"/>
<path style="fill:#e4b048; stroke:none;" d="M128 98L128 99L134 99L128 98z"/>
<path style="fill:#2e82c5; stroke:none;" d="M123 100L125 106L126 101L123 100M530 101L532 105L530 101z"/>
<path style="fill:#e31516; stroke:none;" d="M526 105C525.515 109.218 528.117 118.368 533 112C528.313 111.784 528.359 108.366 526 105z"/>
<path style="fill:#2e82c5; stroke:none;" d="M120 106L121 110L125 107L120 106z"/>
<path style="fill:#e31516; stroke:none;" d="M854 117L853 117L853 114L850 117L846 114C838.905 115.884 825.536 127.267 839.328 132.265C841.271 132.969 843.99 131.194 846 131L847 127L853 125L857 127L870 117C864.107 114.171 858.327 108.755 854 117z"/>
<path style="fill:#2e82c5; stroke:none;" d="M116 113L113 122L116 117L119 119L120 118L118 113L116 113z"/>
<path style="fill:#e4b048; stroke:none;" d="M676 113L675 124C671.972 125.971 671.328 127.457 672 131C678.999 125.691 679.646 121.249 679 113L676 113M111 118L113 124L114 118L111 118z"/>
<path style="fill:#da0aa8; stroke:none;" d="M426 127L425 133L434 128L436 128L439 137C434.783 137.904 436 142.356 436 146C443.312 148.591 446.908 145.781 447 138L450 138L450 134L445 134L448 129L454 129L454 121L426 127z"/>
<path style="fill:#e4b048; stroke:none;" d="M643 123L643 124L647 124L645 130L648 138L649 138L652 134C649.542 128.21 650.414 123.247 643 123M107 132L108 132L113 127C108.756 125.407 106.635 127.788 107 132M671.333 131.667L671.667 132.333L671.333 131.667z"/>
<path style="fill:#2e82c5; stroke:none;" d="M103 132C103.543 136.272 103.497 140.507 108 142L107 132L103 132z"/>
<path style="fill:#e31516; stroke:none;" d="M952 133C945.795 140.48 930.175 134.792 929 145L926 144L922 153L918 151L915 153C915.448 158.451 916.102 165.978 921 169L928 192L941 206L941 207C933.887 213.877 954.393 224.458 952 231L953 234L943 238L940 238L939 238L931 242L931 247L920 251C910.684 240.619 903.447 262.073 897 265C898.73 270.534 897.093 277.117 891 279L887 295L893 299L892 306L894 316C886.093 325.895 877.83 322.663 867 325L869 320L856 318C855.764 306.961 846.818 305.916 843 297L846 290L851 290L854 280L862 275C862.637 270.461 864.372 268.748 869 269L870 256C876.96 253.69 872.472 244.806 866.911 243.318C860.971 241.728 855.46 246.335 850 248L851 243L850 234L843 232C844.55 222.77 844.32 220.847 854 223L855 219C849.367 212.655 845.757 211.376 837 211L828 186L809 190C806.841 197.176 792.472 197.318 786 197L779 201L759 192C757.334 194.394 756.66 194.122 754 193L746 196L745 196C739.931 192.302 732.405 193.801 727 196C723.567 189.926 714.943 193.281 710 196L704 194L704 199L692.714 205.112L682.213 206.329L668 220L663 219C662.78 221.904 662.456 225.391 659 224L658 224L658 230L664 234L661 243L661 244L661 245L661 255L664 256L664 257L650 260L648 270L640 271L643 280C638.552 280.953 631.219 315.493 623 297L622 297L618 300L616 334L621 334C618.605 338.627 612.283 345.004 618 350C613.979 360.221 612.241 372.245 616.598 382.911C620.109 391.506 632.132 410.537 625 420L628 432L636 433C637.618 428.356 640.148 426.542 645 426L648 422L648 415L653 416L649 432C655.825 438.684 648.425 452.254 662 453L666 439C675.629 438.766 674.894 427.905 682 422L687 401C693.547 400.482 697.45 392.054 696 386L700 386L697 383L704 359L709 359L708 368L713 373L713 374L709 374L710 382C697.856 388.779 713.131 408.761 723 409L730 442L734 442C734.008 452.635 740.924 460.417 745 470L746 470L749 467L750 454C752.682 452.228 752.682 450.772 750 449L752 444C745.624 435.207 753.554 420.312 765 422C769.854 416.617 773.729 419.815 780 420L782 414L787 418L786 421C790.359 420.761 793.516 420.345 795 425L791 424L796 426C799.799 429.63 803.443 420.764 807 427L811 426C812 429.036 812.863 429.494 816 429L818 436L827 436L822 440L822 447L820 445L819 445L815 451L826 456C829.295 452.812 831.73 452.593 836 454L830 449L830 448C840.011 446.803 845.943 457.61 856 460L875 460L869 479C867.627 492.72 853.722 488.186 845 489.747C837.676 491.058 832.856 494.655 825 494C822.877 504.181 814.508 494.827 810 501L809 498L800 496C794.479 501.637 782.138 499.344 775 498L770 503C770 510.257 756.583 507.084 752.333 511.333C747.646 516.02 743.533 521.207 738 525.5C734.341 528.339 728.312 528.313 725.167 531.167C718.089 537.589 709.49 550.179 700 553L699 592C689.865 593.889 694.298 599.545 695 606L692 606L689 611C689.361 618.212 688.243 624.701 695 629L697 619L704 629C702.563 637.228 704.815 643.546 706.992 651.039C708.022 654.588 706.6 658.461 710.344 660.821C717.253 665.176 733.96 662 742 662C744.829 662 748.966 662.694 751.427 660.972C754.921 658.528 754.836 651.81 755 648C766.295 655.743 771.191 640.549 783 640L783.042 660.258L796 662L831 662C828.817 647.83 831.612 633.086 837 620C833.34 615.92 836.818 611.833 837 607L848 607L853 610L853 615L857 614C859.269 621.615 866.893 616.784 863 613L863 612L863 611L868 606L867 603L871 602L878 595L880 602C867.656 602.684 873.547 616.09 884.957 614.276C892.509 613.075 888.905 604.078 896 602L892 593L896 590L895 586L886 586L891 576L902 569L904.353 550.279L897 545L896 545L887 549L887 535L886 533C882.155 531.224 881.72 528.981 881 525L885 524L884 522L891 517L902 520C899.559 512.326 899.015 510.878 901 503C904.945 504.129 915.296 503.079 918 500L919 500L912 503C913.614 508.171 917.477 511.706 923 511L924 512L923 516L925 516L928 542L934 541L934 542L937 559L936 567L945 566C944.448 563.745 942.517 560.46 943.326 558.149C945.605 551.645 951.63 558.151 952 562L961 560L958 565L958 566L962 569L966 568L971 572L971 569L980 568C980.263 571.41 980.679 572.901 984 574C986.242 568.25 989.021 566.954 995 568L996 565L1000 567L999.397 552.414L990 539C982.279 536.755 976.31 518.353 978 511C973.198 506.763 974.607 501.451 972.157 496.054C968.837 488.739 955.858 473.811 961 465L956 448L956 447C962.213 441.073 956.478 437.595 955.008 431C952.748 420.859 951.118 406.292 953 396C950.687 394.692 948.998 393.181 950.372 390.255C952.446 385.837 957.454 382.689 960.267 378.792C964.233 373.297 965.246 367.135 972 364L970 358C974.48 357.04 976.442 349.973 975 346C982.961 342.685 987.609 333.045 987 325L984 325L982.843 316.12L985.339 310.196L981.518 299.996L987 276L998 265L992 260C993.068 255.106 994.518 251.236 1000 251L1000 192C1000 183.727 1002.07 173.978 994 169L994 168C1003.7 167.227 1000 149.253 1000 142L996 144C992.624 133.327 983.615 132.872 975 137L973 133C969.4 134.511 967.16 135.664 964 133L952 133z"/>
<path style="fill:#e4b048; stroke:none;" d="M938 134L939 137L931 138L931 139L949 137L949 136L944 136L938 134M674 146L679 146L678 137C673.613 138.456 674.015 141.85 674 146z"/>
<path style="fill:#da0aa8; stroke:none;" d="M510 141C508.956 147.488 501.381 146.929 496 149L497 154C494.302 155.375 491.749 158.07 496 159L496 160L494 160L494 161C502.588 160.923 513.506 157.678 515 148C520.708 147.813 522.38 145.935 519 141L517 141L517 145L510 141z"/>
<path style="fill:#e4b048; stroke:none;" d="M106 142L106 144L108 144L108 142L106 142z"/>
<path style="fill:#2e82c5; stroke:none;" d="M108 144L110 147L108 144z"/>
<path style="fill:#e1c5aa; stroke:none;" d="M149 148L149 149L149 150C155.284 153.245 156.557 149.756 158 144L149 148z"/>
<path style="fill:#e4b048; stroke:none;" d="M652 144L654 166L648 165L649 169L648 169C639.018 156.557 635.632 183.259 633 186L633 183L632 183L631 183L630 186L629 186L629 183L620 184L616 181L613 194L616 195L614 211L616 211C612.081 219.124 619.211 227.811 619.54 236.001C619.86 243.962 615.59 248.152 614.404 255.039C612.526 265.947 615.698 280.527 610 291L610 292L613 297C604.425 298.815 604.847 309.863 603 317C609.095 322.633 604.915 334.189 605 342L600 341L597 344L598 354C585.72 360.728 586.107 373.953 569 374L570 387C577.413 391.876 574.808 397.724 573 405C577.164 409.503 579.319 423.769 579 430L584 436L588 434C586.729 429.397 584.676 428.259 580 428C587.527 419.39 586.01 410.755 577 404L581 403L582 397C573.9 391.102 582.128 374.596 591 374L590 368C594.797 368.92 598.14 368.2 599 363L604 363C604.725 368.23 606.325 373.185 611 376L608 378L611 402L612 402L616 395C611.259 391.897 615.627 386.66 615.905 382.003C616.621 369.996 614.705 361.954 618 350C613.059 343.478 619.151 339.859 621 334L616 334C618.53 322.655 620.796 311.746 618 300L622 297L623 297C629.263 316.038 639.654 282.169 643 280L640 271L648 270L650 260L664 257L664 256L661 255C662.45 251.577 664.149 247.755 661 245L661 244L661 243L664 234L658 230L658 224L659 224C662.28 227.464 662.918 221.492 663 219L668 220C669.218 216.533 678.792 208.035 682.228 206.639C689.112 203.841 695.14 207.693 699 199L688 201L688 205L681 205L679 191L679 190L679 189L674 176C683.069 183.189 688.125 178.335 698 174L699 167L695 166L696 163C687.611 155.975 683.107 157.174 673 154L667 155L664 158L664 153C659.936 150.995 658.497 148.464 658 144L652 144M118 149C115.918 154.642 118.376 157.662 123 161L124 156L118 149z"/>
<path style="fill:#2e82c5; stroke:none;" d="M121 149L120 155L121 155L121 149M121 155L121 156L126 158L127 154L121 155z"/>
<path style="fill:#e31516; stroke:none;" d="M839 157L837 165L830 167L830 169L834 173L844 170C845.678 159.347 849.853 160.983 839 157z"/>
<path style="fill:#2e82c5; stroke:none;" d="M166 171L167 171L167 161L164 164L163 161C154.692 164.478 161.359 168.034 166 171z"/>
<path style="fill:#e4b048; stroke:none;" d="M999 166L994 168L994 169L1000 174L999 166z"/>
<path style="fill:#2e82c5; stroke:none;" d="M126.333 169.667L126.667 170.333L126.333 169.667M125.333 171.667L125.667 172.333L125.333 171.667z"/>
<path style="fill:#e1c5aa; stroke:none;" d="M837 176L837 183L845 181C844.371 175.497 842.118 174.671 837 176z"/>
<path style="fill:#2e82c5; stroke:none;" d="M124 175L125 176L124 175M125 176L125 184L126 184L128 178L125 176z"/>
<path style="fill:#e4b048; stroke:none;" d="M124 186C122.887 189.801 122.62 192.562 126 195L126 186L124 186z"/>
<path style="fill:#e31516; stroke:none;" d="M250 192C248.136 197.846 238.425 197.649 233 199L230 196L233 216C224.142 209.159 216.085 216.959 206 215C208.778 219.247 211.844 220.654 210 226C215.374 227.659 215.77 232.064 217 237L200 236L199 236C201.391 247.537 213.717 247.506 218 256C225.377 257.839 230.569 265.221 235 271L236 271L236 267L242 268C242.062 273.489 243.296 278.238 249 280C248.28 284.501 246.43 285.494 242 285L241 288C232.999 283.74 222 285.291 224 274L223 274C218.538 277.32 213.004 272.99 208 272L208 275C202.611 271.883 201.359 265.501 196.71 261.375C194.816 259.694 191.207 258.376 190.331 255.827C188.764 251.269 194.386 251.193 197 252L198 251L198 249L193 245L193 244L195 240L191 234C186.949 233.36 185.352 231.85 184 228L190 228L192 234L196 233L193 231L194 226L187 227L186 218C174.601 219.778 169.369 207.511 160 204C157.884 208.371 159.626 211.061 162 215L166 214L174.594 220.603L177 231L175 231L164 220C157.651 221.71 148.852 223.598 150 231L154 231L147 238L149 250L167 251L168 244C171.458 245.402 176.152 248.673 172 252C175.184 257.175 180.307 257.952 186 258L186 269L192 271C191.283 275.619 194.072 277.862 194.156 282.039C194.283 288.322 186.625 296.756 197 299L195 303L196 308L205 310L201 318L195 316C196.111 321.277 197.141 324.235 203 323L214 343L220 343L220 339L223 339L223 335C227.328 338.01 244.581 340.675 249.687 338.382C253.842 336.516 253.83 330.843 259 329L258 324L265 322L265 318C261.54 317.403 256.242 317.134 254.461 313.478C250.61 305.57 259.803 296.174 267 296L266 285L269 285C270.447 278.062 280.446 274.601 287 275C290.968 266.133 287.75 258.486 287 249L282 252L282 248L285 248L288 240L291 241L292 238C294.24 238.09 295.19 236.385 294.093 234.116C292.101 229.998 284.776 222.652 290.477 217.69C292.297 216.106 295.593 217.543 297.032 215.565C299.01 212.847 295.194 211.157 299 209L299 208C294.178 205.343 289.239 204.941 288 199L283 194L276 191L276 206L269 205L271 199L268.954 190.423L258 187L258 190L253 186C248.417 186.15 243.357 189.792 250 192z"/>
<path style="fill:#e4b048; stroke:none;" d="M54 191L58 188L54 191z"/>
<path style="fill:#2e82c5; stroke:none;" d="M126 189L126 193L127 193L128 189L126 189z"/>
<path style="fill:#e31516; stroke:none;" d="M908 193L905 192L904 198L899 199L896 215C900.349 216.458 902.255 218.311 902 223L904 223L903 227L912 225L912 220C916.591 221.838 917.841 224.142 918 229C928.495 228.182 924.374 207.707 917 204L915 208L911 200L914 199C913.66 196.147 909.556 185.598 908 193z"/>
<path style="fill:#e4b048; stroke:none;" d="M717 192L717 193L725 192L717 192M70 192L74 195L70 192M732 194C736.199 193.848 740.058 195.866 743 192L732 194z"/>
<path style="fill:#2e82c5; stroke:none;" d="M609 195L614 207L611 213C615.064 218.331 613.016 223.066 612.518 228.961C612.179 232.976 614.424 237.001 613.938 241C613.085 248.009 610.271 253.571 611 261L605 262L608 280L604 281L602 292C606.55 296.437 603.239 313.383 598 316C596.602 323.208 598.013 337.5 590 340C588.137 347.594 588.467 348.612 591 356C586.535 356.747 586.354 358.836 587 363C583.449 364.039 583.248 366.531 583 370L568 370C567.311 373.781 566.505 376.726 570 379L569 374C585.718 373.989 586.678 362.979 598 354L597 344L600 341L605 342C604.977 334.948 609.8 321.16 603 317C605.473 309.71 604.632 299.983 613 297L610 292L610 291C616.225 282.581 613.663 265.696 614.614 256.015C615.34 248.633 620.475 243.7 619.671 235.004C618.92 226.883 613.286 219.39 616 211L614 211L616 195L609 195z"/>
<path style="fill:#e4b048; stroke:none;" d="M703 193L701 198L701 199C704.054 198.346 703.936 196.993 704 194L709 194L703 193z"/>
<path style="fill:#2e82c5; stroke:none;" d="M126 195L126 198L127 198L126 195z"/>
<path style="fill:#e4b048; stroke:none;" d="M710.667 195.333L711.333 195.667L710.667 195.333z"/>
<path style="fill:#201207; stroke:none;" d="M265 196C250.272 197.655 264.802 213.775 265 196z"/>
<path style="fill:#e4b048; stroke:none;" d="M127 199L129 211L130 211C131.448 205.914 130.242 203.066 127 199z"/>
<path style="fill:#e31516; stroke:none;" d="M559 200C559.769 203.799 561.266 206.432 557 208L557 211L560 211L555 215L555 216L562 218C565.635 212.407 568.501 200.758 559 200z"/>
<path style="fill:#e1c5aa; stroke:none;" d="M861 200L862 205C852.403 209.492 858.252 213.706 856 221L859 219L860 219L863 220C861.26 214.904 862.164 209.88 867 207L867 201L861 200z"/>
<path style="fill:#2e82c5; stroke:none;" d="M129 202L132 205L133 201L129 202z"/>
<path style="fill:#e31516; stroke:none;" d="M383 204L383 208L378 208L378 218L375 218L382 230L384 241L397 236L396 228L392 228C391.755 221.786 392.272 216.538 397 212L397 209C391.902 205.03 389.632 203.222 383 204z"/>
<path style="fill:#2e82c5; stroke:none;" d="M0 205L0 259L7 253C6.11405 249.226 5.49889 246.272 9 244L7 234L3 236L2 235C3.43184 229.005 1.96625 217.129 7 214L0 205z"/>
<path style="fill:#da0aa8; stroke:none;" d="M555 208L555 213L544 213L541 221L542 221L545 217L547 222C552.3 221.228 557.607 215.678 560 211L555 208z"/>
<path style="fill:#e31516; stroke:none;" d="M546 213L546 214L555 213L555 209L546 213z"/>
<path style="fill:#e4b048; stroke:none;" d="M128 212L128 215L129 215L128 212M110 231L111 226L112 226L114 231C122.165 225.046 103.741 220.262 110 231z"/>
<path style="fill:#da0aa8; stroke:none;" d="M184 228C184.903 232.331 186.625 233.662 191 234L195 240L193 244L193 245L198 251L197 252L195 252C192.789 248.979 188.635 252.606 189.56 255.866C190.314 258.521 193.946 259.668 195.866 261.319C200.598 265.39 202.1 273.055 208 275L208 272C212.472 273.21 219.318 278.213 223 274L224 274C220.677 284.951 232.817 284.826 241 288L242 285C246.749 285.988 248.617 284.918 249 280C244.009 277.459 242.163 273.461 242 268L236 267L236 271L235 271C231.718 264.763 225.317 257.041 218 256C215.37 247.335 201.322 246.465 199 235L195 232L192 234L190 228L184 228z"/>
<path style="fill:#e4b048; stroke:none;" d="M81 229L81 233L87 231L87 230L81 229z"/>
<path style="fill:#e1c5aa; stroke:none;" d="M872 232C866.407 242.805 880.058 241.77 882.667 250.054C884.346 255.388 879.494 264.202 879 270L884 271L886 264L883 264L889 255C889.918 260.756 894.857 261.791 900 263L900 259L905 259C904.99 250.115 913.174 245.711 921 249L921 245L935 242C927.837 231.214 909.386 237.007 899 235L899 237L895 236L896 239L879 240L873 237L872 232z"/>
<path style="fill:#e4b048; stroke:none;" d="M107 234L109 237L107 234z"/>
<path style="fill:#da0aa8; stroke:none;" d="M238 242C238.862 253.298 249.948 244.19 238 242z"/>
<path style="fill:#e31516; stroke:none;" d="M341 248L338 245L315 248C316.564 252.749 320.311 253.858 325 254L325 257L340 262L340 260C349.903 262.357 351.562 259.395 349.33 250.83C348.617 248.094 349.36 244.842 346.502 243.083C342.937 240.887 341.375 245.447 341 248z"/>
<path style="fill:#e4b048; stroke:none;" d="M929 244L921 245L920 251L931 244L929 244M100 245C96.1474 250.621 90.2332 253.837 90 261L97 255L105 247L100 245z"/>
<path style="fill:#2e82c5; stroke:none;" d="M105.333 246.667L105.667 247.333L105.333 246.667z"/>
<path style="fill:#e4b048; stroke:none;" d="M912 247L912 248L920 248L912 247z"/>
<path style="fill:#2e82c5; stroke:none;" d="M101 251L107 252L105 248L101 251z"/>
<path style="fill:#e4b048; stroke:none;" d="M906 253L909 250L906 253M992 260L998 265L987 276L986 283L990 279L995 279L996 271L999 274C1000.87 269.548 1001.69 256.758 999.397 252.337C996.164 246.112 992.305 257.79 992 260M827 262C826.632 269.923 822.917 271.673 816 274C815.418 266.218 807.454 262.727 809 272L805 273L807 279L788 289L791 295L788 293L781 298L784 299L780 304L788 308L790 308L791 302C797.57 303.349 800.697 303.795 807 301L809 289L833 282C832.39 276.855 834.108 274.264 838 271L835 261L827 262M87 262L86 269L84 286L85 286L89 281L91 273L89 269L89 262L87 262z"/>
<path style="fill:#2e82c5; stroke:none;" d="M87 264L87 269L89 269L89 264L87 264z"/>
<path style="fill:#e31516; stroke:none;" d="M152 264L156 273L157 264L152 264z"/>
<path style="fill:#e1c5aa; stroke:none;" d="M996 271L995 279L990 279L985 283L989 307L984 313L984 314L989 315L986 323L986 324C990.346 331.379 979.656 342.937 978 351L981 350C982.002 355.445 969.072 373.331 963 373L957 390L952 389L951 396L953 396L953 418L954.831 431.985L960.307 441.039L960 461L964 461L963 465L967 465C965.701 470.522 966.569 482.924 973 484C971.601 497.229 978.424 506.311 982.924 517.964C984.553 522.183 982.39 525.709 983.357 529.791C984.505 534.633 990.983 543.622 994 548C1004.02 544.202 1000.16 522.832 999.92 514C998.987 479.037 1000 444.001 1000 409L994 410L994 407L995 407C1001.56 408.798 1000 399.033 1000 395C1000 381.866 1001.37 367.761 998 355C1001.7 351.77 1000.7 344.561 996 343C998.079 340.996 1001.19 338.833 997 338L997 337C999.985 333.615 999.998 325.472 1000 321L1000 286C1000 280.432 1001.19 274.373 996 271M874 276L870 285L877 285L876 276L874 276z"/>
<path style="fill:#da0aa8; stroke:none;" d="M340 278L340 284L352 288L349 281L345 282L345 278L340 278z"/>
<path style="fill:#e4b048; stroke:none;" d="M71 288L71 290L76 291L76 288L81 288L80 284L71 288z"/>
<path style="fill:#2e82c5; stroke:none;" d="M85 284L82 289C84.7221 287.914 86.0029 286.947 85 284z"/>
<path style="fill:#e4b048; stroke:none;" d="M57 292L61 288L57 292z"/>
<path style="fill:#2e82c5; stroke:none;" d="M66.3333 288.667L66.6667 289.333L66.3333 288.667M76 288L73 291L73 292L81 288L76 288z"/>
<path style="fill:#e4b048; stroke:none;" d="M983 288C981.742 295.571 979.713 302.191 984 309L989 307L987 288L983 288M49 289L46 290L47 293L49 289z"/>
<path style="fill:#2e82c5; stroke:none;" d="M67.6667 290.333L68.3333 290.667L67.6667 290.333z"/>
<path style="fill:#da0aa8; stroke:none;" d="M208 291L200 304L207 299L214 298C212.906 294.003 212.342 291.724 208 291M360 298L376 300C376.807 309.174 381.875 314.085 391 315C388.85 319.84 387.316 323.909 394 325L398 344C402.064 346.005 403.503 348.536 404 353L413 356L411 366L417 366L418 385L424 389L424 392L421 394L425 394L420 402L420 412L424 412L416 422C415.999 430.142 415.145 439.454 406 442L402 448L403 456L404 456C405.312 451.847 407.858 451.228 412 451L411 447C418.557 450.487 420.91 446.864 428 445L427 458L431 457L437 466C442.374 469.023 437.295 471.792 436 476C431.753 474.875 429.853 473.558 430 469C422.097 470.323 424.873 484.822 425 491L431 491L431 485L435 489C440.438 487.308 443.811 483.702 444 478L451 480L445 486C445.524 492.278 444.673 495.9 441 501L446 501C446.695 505.661 449.099 509.383 453 512L452 505L455 505L455 500L467 503L465 508L469 511C481.231 508.208 479.914 505.855 476 496L487 496L487 494C480.187 490.89 478.841 487.565 476 481L482 480L482 483L487 482C483.882 473.572 490.763 474.058 497 476L502 469C502.96 473.48 507.369 471.183 511 471L515 466L517 457C520.725 456.956 529.312 453.872 523.258 449.031C521.085 447.294 516.625 448.156 514 448C511.203 452.438 505.802 451.987 501 452L501 447L487.039 447.235L478 443L480 435L503 435L503 438C507.278 437.274 508.53 434.908 510 431L518 431L518 435L524 435L527 417L512 422L509 420L510 423L496 420L496 423L490 419L483 419L483 421C475.216 419.383 472.948 416.938 469 410L473 411C476.685 404.191 474.517 400.344 467 403L465 397L471 396L470 391L475 392L472 386L490 384L490 380C478.484 375.112 464.575 387.949 457 375L455 375L453 382C449.167 380.988 447.164 379.873 446 376C437.302 375.368 427.122 362.411 426 354C418.282 349.402 422.406 341.22 430 340L428 336L432 333C436.568 333.891 443.26 334.226 446 330L437 330L432 322L431 328L417 324L417 320C410.408 318.917 398.179 324.821 398 314L392 302L382 292L381 299L376 299C375.486 288.718 362.692 288.934 360 298z"/>
<path style="fill:#2e82c5; stroke:none;" d="M71.6667 292.333L72.3333 292.667L71.6667 292.333z"/>
<path style="fill:#e4b048; stroke:none;" d="M33 296L33 302C36.4029 301.271 35.9865 299.194 36 296L41 297L44 294L33 296z"/>
<path style="fill:#2e82c5; stroke:none;" d="M41 294L41 297L42 297L43 294L41 294M44.6667 294.333L45.3333 294.667L44.6667 294.333M36 296L36 302L41 297L36 296z"/>
<path style="fill:#e31516; stroke:none;" d="M410 302L405 304C403.905 309.041 399.07 311.744 397.97 316.15C395.956 324.219 413.815 319.745 417 320L417 324L431 328L432 322L437 330L446 330C442.309 333.769 437.031 333.537 432 333L428 336L430 340C423.633 340.584 421.403 343.746 421 350L444.053 340.268L450.793 333.911L441.957 318.279L428 309C421.459 310.503 412.774 310.098 412 302L410 302z"/>
<path style="fill:#e4b048; stroke:none;" d="M47 307L44 310L44 311L48 311L47 307z"/>
<path style="fill:#2e82c5; stroke:none;" d="M43.6667 311.333L44.3333 311.667L43.6667 311.333z"/>
<path style="fill:#e4b048; stroke:none;" d="M982 314L984 325L987 327L988 327L986 324L986 323L989 315L982 314z"/>
<path style="fill:#2e82c5; stroke:none;" d="M31 319L37 316L31 319z"/>
<path style="fill:#e4b048; stroke:none;" d="M32 326L22 334L25 335L33 330L32 326M998 330L997 337L997 338C1000.99 337.146 1000 333.51 1000 330L998 330z"/>
<path style="fill:#da0aa8; stroke:none;" d="M110 332C110.017 336.973 112.05 341.459 108 345L118 357L110 350L104 351L106 366L114 364L114 367L123 368L121 371L119 379L126 382L122 385L106 377L107 381L111 381L110 384C112.874 386.651 122.389 394.778 113.981 397.268C110.934 398.17 107.381 396.278 104 397C98.5209 388.109 95.1388 384.716 85 386L87 392L83 392L83 402L78 402L77 398L75 398C72.2577 410.8 68.8901 425.472 72 438L79 435L80 435L80 439L87 439L90 447L85 448L87 454L90 454L94 467L85 465L92 471L92 477L102 484L102 496L102 497C110.024 506.809 109.484 527.891 123 533L122 539C124.577 540.252 126.597 543.135 129.259 543.978C137.467 546.579 148.181 542.446 144 556L140 555L137 560L142 559L141 565L148 563L148 558L156 560L156 554L159 561L172 554L172 568L176 568C173.205 575.826 176.162 586.2 179 594C183.854 592.837 185.573 593.883 185 599C197.585 601.856 208.715 570.809 192 568L192 557L187 556L188 551L184 551C183.455 544.094 183.419 528.639 178 524L181.224 505.015L188.258 494.826L192 475L188 473L193 452L188 452L188 450L195 446C190.262 442.933 177.122 426.765 186 424C188.342 413.458 179.679 415.26 176 406C180.005 403.616 181.306 399.469 182 395C176.492 394.125 174.56 390.014 173 385C167.172 385.302 167.253 383.008 166 378L162 379L157 368L162 368L160 356L156 356L152 352C155.97 343.345 142.106 337.369 135 335L141 348C136.172 346.777 131.754 348.76 130 343L123 343L117 333L110 332z"/>
<path style="fill:#e31516; stroke:none;" d="M163 335C164.691 342.505 165.655 352.469 156 353L156 356C160.763 356.659 163.426 357.857 166 362L168 362L168 357C173.19 355.888 169.574 350.691 169 347L174 347L163 335z"/>
<path style="fill:#e4b048; stroke:none;" d="M15 339L23 341L20 336L15 339M11 338L8 343L7 343L6 341L5 341L1 344L7 347L14 342L13 338L11 338z"/>
<path style="fill:#2e82c5; stroke:none;" d="M14 340L16 343L14 340z"/>
<path style="fill:#e31516; stroke:none;" d="M199 340L196 346L191 345L191 352L211 354L208 342L201 340L199 340z"/>
<path style="fill:#e4b048; stroke:none;" d="M996 343L1000 344L1000 340L996 343z"/>
<path style="fill:#2e82c5; stroke:none;" d="M0 343L0 349L4 345L0 343z"/>
<path style="fill:#e4b048; stroke:none;" d="M979 344L975 346C975.762 350.492 973.9 355.527 970 358L972 364C966.382 365.602 962.434 371.267 962 377L963 377L963 373C969.305 374.131 982.533 355.629 981 350L978 351L979 344M993 348L993 350L997 350L997 348L993 348z"/>
<path style="fill:#e31516; stroke:none;" d="M369 354L361 361C353.724 359.273 331.65 363.652 331 372C321.568 372.001 310.565 377.397 304 384L304 385L309 385C309.872 390.225 313.345 389.984 318 390L316 385C322.787 384.305 331.422 381.583 332 374L338 374C339.082 367.21 349.797 363.902 356 363L354 371L361 370C361.023 367.411 360.611 363.603 362.742 361.657C364.061 360.454 380.55 358.646 369 354z"/>
<path style="fill:#e4b048; stroke:none;" d="M998 355L998 363C1000.55 360.768 1000.55 357.232 998 355z"/>
<path style="fill:#da0aa8; stroke:none;" d="M344 364L357 360C352.077 357.094 347.405 360.073 344 364M362 360C367.244 371.253 350.075 372.2 342 374C339.584 383.688 330.146 381.684 331 393L336 396L343 395C345.002 391.139 350.115 380.571 353.299 378.12C360.487 372.588 374.549 369.967 377 361L362 360z"/>
<path style="fill:#201207; stroke:none;" d="M361 362L361 368C365.201 366.604 365.201 363.396 361 362z"/>
<path style="fill:#e1c5aa; stroke:none;" d="M599 363C597.581 367.712 594.641 368.441 590 368L591 374C582.018 374.038 579.078 380.608 579.778 389C580.07 392.508 577.746 396.084 582 397L581 403L577 404C585.485 412.973 586.465 417.495 580 428C584.397 428.495 586.303 429.912 588 434L584 437L588 436C590.225 444.543 592.969 451.141 596.327 459.015C598.125 463.232 596.651 467.068 602 468C600.719 474.899 597.611 492.505 604 497L603 501L605 510L611 511L607 517L607 518L611 532C621.641 531.191 618.531 521.193 625 517L623 511C630.244 509.051 629.256 504.375 629 498L634 496L631 492L635 491L635 489L631 488L630 469L625 467C627.438 458.969 623.073 457.385 620.573 450.871C618.962 446.676 618.665 439.669 618 435L621 434L616 428L620 423L620 422L612 414L611 406L614 405L608 378L611 376L604 363L599 363z"/>
<path style="fill:#e31516; stroke:none;" d="M435 368C436.247 373.908 440.265 375.818 446 376C446.714 380.317 448.835 381.331 453 382L455 375L457 375C462.027 387.824 472.948 378.436 482.13 377.599C484.828 377.353 487.449 379.313 490 380L490 384L491 384L496 380L496 376L492 374L491 374L488 376L488 368L471.184 366.318L461.985 372.142L444 371L443 366L435 368M163 369C165.226 377.42 169.488 374.311 172 368L163 369z"/>
<path style="fill:#da0aa8; stroke:none;" d="M272 368C274.582 374.66 285.842 382.928 291 374L272 368z"/>
<path style="fill:#e31516; stroke:none;" d="M303 376L309 369L303 376M364 370L351 378L351 379C359.27 383.58 390.448 393.484 387 373L379 375L379 372L378 372L374 372L373 372L373 376L366 376L366 375L370 372L364 370z"/>
<path style="fill:#e4b048; stroke:none;" d="M904 376L905 380L894 379L894 386L899 387C904.512 383.249 910.204 391.673 913 396L902 399L901 395L896 397L891 390L887 398L899 409L899 410L896 413L902 417L899 416L898 419L896 419C892.645 414.347 885.952 415.667 881 417L876 413L864 424L864 428L870 430L870 428L876 431C880.021 426.739 885.61 430.885 891 431L891 434L900 432L899 429C904.615 429.443 912.746 431.856 915 425C919.332 424.656 920.741 423.1 922 419L925 422L926 422C929.184 419.257 933.844 415.249 929 412L930 415L925 413L924 405C928.913 406.367 933.743 405.957 934 400C939.395 398.095 935.866 385.571 937 380C931.469 380.728 924.039 380.641 923 387L919 387L919 378L914 378L915 371L904 376z"/>
<path style="fill:#2e82c5; stroke:none;" d="M0 379L2 382L0 379z"/>
<path style="fill:#e4b048; stroke:none;" d="M959 380C954.012 383.696 948.386 389.545 950 396L952 389L957 390L959 380M0 382L0 390L11 386L0 382z"/>
<path style="fill:#da0aa8; stroke:none;" d="M290 393L285 398L281 397L281 398L282 406L286 405L285 402L291 403L294 390L295 390L295 398L297 404C302.116 402.52 303.54 399.067 304 394L299 394L304 384C297.093 382.784 291.152 385.563 290 393z"/>
<path style="fill:#e31516; stroke:none;" d="M472 386L475 392L470 391L471 396L465 397L467 403C474.369 401.367 475.502 404.179 473 411L469 410C471.964 417.452 475.188 420.018 483 421L483 419L490 419L496 423L496 420L510 423L509 420L512 422L527 417L524 435L518 435L518 431L510 431L503 438L503 435L480 435L478 443L487.039 447.898L501 447L501 452C505.326 452 512.883 453.239 514 448C516.515 448.402 520.395 447.676 522.566 449.066C528.889 453.117 520.7 456.88 517 457L515 466L511 471L502 469C498.232 470.384 497.305 472.044 497 476C490.954 473.439 482.642 473.583 487 482L482 483L482 480L476 481C478.159 487.856 479.754 491.74 487 494L487 496L476 496C478.619 506.445 480.674 506.499 469 511L465 508L467 503L455 500L455 505L452 505L453 512L446 501L441 501C445.351 496.509 446.003 492.077 445 486L451 480L444 478C443.575 483.504 439.744 486.594 435 489L431 485L431 491L425 491C424.952 484.738 422.732 471.257 430 469C429.175 473.921 431.352 475.253 436 476C437.917 472.201 443.481 468.138 437 466C437.408 461.247 434.641 459.569 431 457L427 458L428 445L411 447C411.144 449.662 411.819 450.636 409 451L409 452C413.845 459.551 407.766 478.999 407 488L410 488L412 505C403.372 507.901 411.701 523.889 411 530L426.737 528.258L441 517C440.447 521.469 441.185 526.569 437 529L435 544L432 543L432 550L432 551L432 552C425.933 555.473 421.647 564.852 414.778 568.306C411.781 569.812 407.98 566.844 405.333 568.722C402.403 570.802 404.639 573.494 407 574L394 596L390 597C390.606 602.368 388.065 604.079 383 605L383 608L379 608C378.631 616.4 373.377 619.613 369.542 626.139C368.329 628.203 366.698 635.72 364 632C358.82 632.189 355.516 630.368 355 637L344 639L344 645L342 645L342 641L337 648L334 648L333.086 660.297L346 662L385 662C383.57 657.649 380.195 657.105 376 658L378 651L372 651L384.272 639.775L385.974 624.976L393.934 613.286L407 599L409 601L410 601L411 601L415 599L416 590L416 589L424 592L421 601L426 606C430.02 607.051 431.428 608.92 432 613L429 613L429 629L432 629C432.795 634.042 435.961 642.47 441 644L439 652L441 652L440 656L442 662L515 662L516 652C524.388 649.386 545.366 626.698 527 624C529.247 616.529 532.634 618.813 539 619C538.591 614.506 537.726 611.782 533 611L532 606L535 608L536 608L536 603C543.616 605.313 553.062 602.814 551 593C556.938 589.393 555.326 580.23 557 574L554 573L554 571C565.619 563.443 546.416 564.349 542 564L541 555L550 551L550 555L557 556L558 538L562 538L565 533L565 530L562 530L562 526L558 526L558 515C553.029 515.526 547.05 513.959 546 520C537.104 519.361 528.138 516.833 519.001 516.16C515.619 515.911 510.008 516.77 507.268 514.132C501.235 508.323 515.085 499.398 502 497L503 490C495.932 485.958 500.378 479.03 507 478C507.763 486.33 512.338 484.58 517.891 488.6C521.934 491.526 524.028 500.627 530.396 494.182C533.13 491.415 530.772 485.559 531 482L542 478L545 473L555.141 457.999L560 449L555 445L555 439C547.491 435.35 550.227 426.061 551 419L547 409C539.768 408.786 530.383 401.3 526 410C521.078 408.039 519.288 405.251 519 400L507 403C503.021 393.518 498.148 394.15 489 393L490 384L472 386z"/>
<path style="fill:#da0aa8; stroke:none;" d="M364 384L364 389L360 389L357 398L350 401L349 420L353 420L353 416C360.709 415.573 363.668 409.137 364 402L368 402L373 391C371.765 386.623 368.231 385.014 364 384z"/>
<path style="fill:#201207; stroke:none;" d="M616 384C614.471 387.475 610.377 393.795 616 395C610.499 400.702 613.706 403.638 618 409L621 400L622 400L623 403L624 403C623.487 395.482 622.955 388.155 616 384z"/>
<path style="fill:#e1c5aa; stroke:none;" d="M11 565L13 563L14 568L18 568L18 571L12 571C13.7123 574.968 15.7225 576.422 20 577L20 585C22.1579 585.978 22.5007 586.188 21 588L21 589C23.9064 592.514 26.4186 600.636 32 597C32.895 600.243 33.5344 601.826 37 602L39 607C44.2974 606.748 46.2582 608.578 50 612L48 619L55 614C54.3728 617.317 53.0637 620.156 57 621L56 626L64 627L63 624L67 630L68 630L71 627L70 633L75 633C73.4169 638.26 70.555 644.719 78 646L85 658L86 658L88 656L87 659C109.48 665.058 135.489 662 159 662C166.145 662 180.032 665.071 183 657L192 657L192 656L189 655L193 648C198.722 646.866 198.301 641.829 198 637L196 635L188 635L188 631C183.766 628.83 182.143 625.52 181 621L178 622C174.155 617.648 172.391 624.848 173 628L170 628L167 636L160 632C156.336 637.842 145.27 637.995 139 638L135 631L138 629C131.892 625.953 127.831 621.204 125 615L120 617L119 617L99 611L99 608L92 609L93 603C87.5513 604.798 82.558 605.678 79 600L75 601L74 596L69 597L65 595C63.9423 585.192 55.0644 578.283 58 568L53 565L47 565L42 551L38 551L30.8989 525.999L33 511L28 510L28 503C35.5758 503.794 44.7974 482.635 35 481L30 474L31 471L30 470L25 471L25 467L21 467L25 446L34 443L34 434L35 434L36 438L37 438L41 429L41 417L30 417L30 416L33 415L31 409L28 410L26 403L28 399L21 399L22 395L18 396L17 388L14 388L14 392L13 392L10 385C-6.04499 386.126 0 417.699 0 429L0 508C0 519.191 -2.5933 534.033 0.31713 544.83C2.11219 551.49 8.23789 558.399 11 565z"/>
<path style="fill:#e4b048; stroke:none;" d="M964 388L964 393L965 393L968 390L964 388z"/>
<path style="fill:#e31516; stroke:none;" d="M98 389L104 397L116 398L116 397L108 391L98 389M294 390L292 396L295 397L294 390z"/>
<path style="fill:#da0aa8; stroke:none;" d="M323 390L320 406L330 407L335 398L331 398L331 402L330 402L327 397L329 391L323 390z"/>
<path style="fill:#2e82c5; stroke:none;" d="M574 391L576 397L574 391z"/>
<path style="fill:#e4b048; stroke:none;" d="M329 392L327 397L330 402L331 402L331 398L336 398C335.274 393.804 332.939 392.958 329 392z"/>
<path style="fill:#e31516; stroke:none;" d="M303 407L308 394C303.065 395.597 299.178 402.842 303 407M182 395L176 406C178.411 415.617 187.348 413.513 186 424C176.305 425.617 189.434 443.529 195 446L188 450L188 452L193 454L206 440L213.806 446.417L225 469L228 469C230.093 464.094 229.973 458.984 236 458L243.191 437.871L240 416L227 413L226 416L222 415L222 422L216 426L213 419L210 419L210 413L203 407C198.459 407.144 196.856 405.541 197 401L195 399L194 399L187 401L182 395z"/>
<path style="fill:#e4b048; stroke:none;" d="M22 396L21 399L24 399L22 396z"/>
<path style="fill:#201207; stroke:none;" d="M292 396L292 401L296 399L292 396z"/>
<path style="fill:#2e82c5; stroke:none;" d="M24 397L28 399L28 398L24 397z"/>
<path style="fill:#e1c5aa; stroke:none;" d="M278 398C277.929 402.388 276.699 405.599 281 408L280 404L283 398L278 398z"/>
<path style="fill:#e4b048; stroke:none;" d="M296 398L297 402L298 402L298 398L296 398M28 399L26 403L28 410L31 409L33 415L34 415L33 405L30 404L30 399L28 399z"/>
<path style="fill:#2e82c5; stroke:none;" d="M295 399L292 401L292 402L297 402L295 399z"/>
<path style="fill:#e4b048; stroke:none;" d="M952 399L953 407L954 407L952 399z"/>
<path style="fill:#2e82c5; stroke:none;" d="M621 400L618 412L624 412L624 415L616 412L623 448L629 451L633 456L632 459C636.402 455.072 630.182 447.498 628.942 442.985C627.864 439.062 629.002 435.782 630 432L625 420C630.387 415.292 625.285 403.886 621 400z"/>
<path style="fill:#da0aa8; stroke:none;" d="M196 403L201 408L200 402L196 403z"/>
<path style="fill:#e4b048; stroke:none;" d="M276.333 403.667L276.667 404.333L276.333 403.667M280 404L282 408L280 404M296 404L296 405L301 408L298 408L300 413L302 413C303.376 407.776 301.318 404.83 296 404z"/>
<path style="fill:#e1c5aa; stroke:none;" d="M292 410L301 408C297.915 403.639 293.421 405.319 292 410z"/>
<path style="fill:#e4b048; stroke:none;" d="M611 406L612 414L615 418C617.445 412.755 619.602 404.566 611 406z"/>
<path style="fill:#2e82c5; stroke:none;" d="M32 406L34 415L30 416L30 417L42 417L41 412L39 412L35 415L32 406M318 407L323 410L324 407L318 407z"/>
<path style="fill:#e1c5aa; stroke:none;" d="M322 412L329 407C324.606 405.979 323.252 407.923 322 412z"/>
<path style="fill:#2e82c5; stroke:none;" d="M329 407L324 413L329 413L329 407z"/>
<path style="fill:#e4b048; stroke:none;" d="M994 407L994 410L995 410L1000 407L994 407z"/>
<path style="fill:#2e82c5; stroke:none;" d="M279.667 408.333L280.333 408.667L279.667 408.333z"/>
<path style="fill:#e4b048; stroke:none;" d="M953 411L954 417L956 417L955 411L953 411M41 412L41 422L49 416L41 412z"/>
<path style="fill:#2e82c5; stroke:none;" d="M322 412L321 414L323 414L322 412z"/>
<path style="fill:#201207; stroke:none;" d="M617 412L624 415L624 412L617 412z"/>
<path style="fill:#2e82c5; stroke:none;" d="M360 414L357 416L359 421L347 418C348.189 423.549 356.602 422.462 361 422L359 419L359 418L360 414z"/>
<path style="fill:#e4b048; stroke:none;" d="M782 414L780 420C774.124 419.619 768.838 415.743 765 422C753.867 419.227 743.731 436.771 752 444L750 449C751.89 451.211 751.89 451.789 750 454L749 467C741.679 469.432 746.508 479.909 746 486C755.753 488.983 755.208 501.769 754 510C759.11 508.832 768.992 509.165 770 503L775 498C782.79 499.919 792.256 500.289 800 498C789.12 490.821 775.894 501.632 765 494L770 494C770.963 490.956 776.295 481.372 778 485C783.411 484.945 787.419 486.84 790 481L800 482L801 478L810 479L814 474L828 470L829 470L830 472L834 470L834 480L834 481C829.905 482.468 829.262 485.933 829 490C823.771 489.05 821.167 491.361 819 496L812 496L809 492L803 493L803 498L810 501C815.379 496.283 823.859 503.914 825 494C832.734 495.276 837.414 491.778 844.576 490.167C853.141 488.241 868.657 493.351 869 479C874.22 475.337 873.696 465.896 875 460L856 460C846.415 456.73 839.728 445.867 830 448L830 449L836 454C831.976 452.009 828.671 452.189 826 456L825 453L815 451L819 445L820 445L822 447L822 440L827 436L818 436L816 429L811 426L807 427C804.812 420.296 800.414 427.488 796 426L791 424L795 425C794.084 419.727 790.51 420.47 786 421L787 418L782 414M36 416L36 417L40 417L36 416z"/>
<path style="fill:#e1c5aa; stroke:none;" d="M353 416L353 420L359 421L353 416z"/>
<path style="fill:#201207; stroke:none;" d="M84 418L84 422L92 421L84 418z"/>
<path style="fill:#2e82c5; stroke:none;" d="M43 420L42 422L44 422L43 420z"/>
<path style="fill:#e4b048; stroke:none;" d="M619 423L616 428L621 434L618 435C618.34 439.729 618.517 446.55 619.982 450.871C622.254 457.569 626.8 458.756 625 467L630 469L631 488L635 489L635 491L631 492L634 496L629 498L629 503C635.342 500.359 641.781 484.413 635 480L636 476L630 475L633 456L629 451L623 448C624.608 440.975 622.37 429.415 619 423z"/>
<path style="fill:#e1c5aa; stroke:none;" d="M443 428L443 430L445 430L445 428L443 428z"/>
<path style="fill:#e31516; stroke:none;" d="M415 429L409 442C412.803 439.012 416.652 434.017 415 429z"/>
<path style="fill:#e4b048; stroke:none;" d="M945 432L932 436L927 439L921 444C927.466 452.964 949.278 442.874 952 434L945 432z"/>
<path style="fill:#2e82c5; stroke:none;" d="M37.3333 433.667L37.6667 434.333L37.3333 433.667M34 434L34 439L35 439L34 434M583 434L583 442L583 434z"/>
<path style="fill:#e4b048; stroke:none;" d="M587 436C582.577 441.508 585.145 446.953 592 448L587 436M958 437L958 440L960 440L960 437L958 437M960 442L956 447L956 448L960 459C962.605 453.579 963.946 447.202 960 442z"/>
<path style="fill:#2e82c5; stroke:none;" d="M30 443L30 444L34 444L30 443z"/>
<path style="fill:#e4b048; stroke:none;" d="M29 445L25 446L25 452C28.0695 450.455 30.2236 448.538 29 445z"/>
<path style="fill:#da0aa8; stroke:none;" d="M531 447L531 448L534 448L532 455C542.22 452.864 540.845 447.43 531 447z"/>
<path style="fill:#2e82c5; stroke:none;" d="M587 447C591.937 458.348 589.661 465.967 589.676 477.17C589.683 482.262 591.23 486.941 590 492L591.038 500L599 513L601 505L601 504L596.857 486.039L594 455L591 448L587 447z"/>
<path style="fill:#e4b048; stroke:none;" d="M904 448L905 452L900 453L900 457L906 457L907 454L915 456L918 447L904 448z"/>
<path style="fill:#da0aa8; stroke:none;" d="M398 449L398 456L402 456L400 449L398 449z"/>
<path style="fill:#e4b048; stroke:none;" d="M23 453L21 467L25 467C24.6148 461.995 27.6211 456.336 23 453M591 453L594 455C591.425 466.23 595.325 476.549 596.857 487.015C597.75 493.111 596.397 499.218 601 504L601 505L600 512L597 513C598.859 523.936 602.862 535.942 614 540L614 535C628.814 533.03 623.167 519.37 628 510L623 511L625 517C618.907 518.306 621.108 531.278 611 532C610.837 525.936 612.373 522.106 607 518L607 517L611 511L605 510C605.849 506.296 606.319 503.347 603 501L604 497C598.206 490.835 601.001 475.905 602 468L591 453z"/>
<path style="fill:#2e82c5; stroke:none;" d="M632 461L630 475L637 476L634 466L632 461z"/>
<path style="fill:#e4b048; stroke:none;" d="M960 461L961 465L961.791 474.424L965.39 488.035L972.525 498.005L978 511C976.1 517.488 978.602 522.109 981 528C985.253 525.029 984.338 520.386 982.557 516.039C978.048 505.034 972.553 496.447 973 484C967.101 482.168 966.035 470.509 967 465L963 465L964 461L960 461M999 462L999 466L1000 466L999 462M885 464L887 470C893.401 468.189 891.048 463.004 885 464z"/>
<path style="fill:#e31516; stroke:none;" d="M191 466L189 474C191.81 471.438 193.446 469.331 191 466z"/>
<path style="fill:#2e82c5; stroke:none;" d="M25 467L25 471L26 471L27 467L25 467z"/>
<path style="fill:#e1c5aa; stroke:none;" d="M814 474L810 479L801 478L800 482L790 481C786.579 486.225 783.358 484.189 778 485L776 482L770 494L765 494C773.018 501.871 791.933 496.161 803 497L803 493L809 492L812 496L819 496C821.746 491.905 823.886 489.678 829 490L834 481L834 480L834 470L829 470L814 474z"/>
<path style="fill:#e31516; stroke:none;" d="M203 479C203.049 484.221 199.8 486.72 195 488L191 477L188.549 492.961L184 501L188 506L192 506L192 510C202.274 508.842 200.002 521.003 191 521L194 538L201 538L200 533L206 533C206.186 539.266 215.3 546.59 208 550L209 555L207 557L198 555L204 564L201 564L201 571L220 555L218 552L220 544L227 546L236 529L240 529L241 548L238 548L238 551L242 551L244 569L241 570C241.628 575.038 240.684 581.418 236 584L241 594L235 595L231 601L226 613L217 605C216.544 612.924 219.175 617.668 225 623L221 627L225 627C226.33 630.958 228.474 630.397 232 629L232 615L237 617C237.237 613.539 240.426 609.931 236 609L246 594C261.614 591.889 252.856 612.205 263 621L261 641L269 643L268 638L278 640L288 620C295.488 621.179 293.968 626.596 288 629C293.917 632.09 306.44 623.362 299 618L305 603C308.935 605.052 310.02 607.627 310 612L313 613L311 618L314 629L318 629L317 620L320 620L318 602C325.567 596.316 322 575.635 322 567C327.366 570.917 334.235 591.374 330 597L330 613L334 629L345 624C345.057 620.634 346.915 616.856 343 616L348 608L353 611C357.626 603.776 353.058 594.611 364 592C363.9 583.532 355.588 571.178 351 564L356 563L351 555L339 562C347.487 573.63 344.468 579.138 341 592C335.23 589.872 336.851 586.042 338 581L331 577L327 560C325.379 555.141 326.418 551.532 331 549L329 536L340 541L344 536L352 541C351.413 542.706 350.143 544.996 351.157 546.774C352.638 549.371 356.523 548.965 358.686 550.742C362.854 554.165 363.308 562.709 357 563C357.089 570.431 364.025 574.239 370 578L373 575L373 571L368 570L370 566C380.003 567.551 376.572 555.529 375 549L371 549L371 548L375 547L372 540L377 540L374 537L376 523C381.085 521.916 390.218 511.054 386 506L386 505C388.325 501.727 386.556 499.181 383 498L383 497C385.479 494.115 381.415 490.296 378.043 490.296C370.778 490.297 374.085 498.393 365 494C365.956 503.476 357.073 507.638 349.111 502.444C346.697 500.87 347.39 497.448 344.889 495.944C342.386 494.44 341.467 495.834 341 498L336 490L328 492L323 484L322 484L321 488L314 487L315 492L298.91 489.133L284.001 488.241L268.274 479.89L263 490L265 493L245 493C244.352 484.661 229.459 468.767 220.058 471.318C216.249 472.351 216.4 476.199 213.571 478.227C210.948 480.107 206.065 479.008 203 479M452 478L456 484L460 489L470 488C468.115 481.031 455.809 462.488 452 478z"/>
<path style="fill:#2e82c5; stroke:none;" d="M742 471L741 479L733 478L734 489L737 488C734.789 489.89 734.211 489.89 732 488L721 491L718 487L721 503L711 511L714 510L715 511L715 513L711 512L700 518C699.365 524.381 690.027 540.068 696 544L694 549L697 548L693 552L689 563L685 563L686 566C679.001 570.611 667.388 578.893 665 587L661 586L665 595L658 595L654.473 615.005L656 629L652 629L656 657L659 658L658 662L669 662L669 661L665 661L671 648L668 645C675.61 644.407 675.421 633.795 679 628L679 627L679 610L677 604L681 604L684 587L688 587L690 578C694.326 584.091 690.001 593.585 690 601L691 601C691.408 595.705 694.079 593.577 699 592L696.434 579.089L700 553C710.632 550.006 717.512 537.8 726.259 531.531C735.261 525.079 746.083 522.676 752.331 512.267C756.837 504.759 756.857 487.826 746 486C746.885 480.638 747.038 474.179 742 471z"/>
<path style="fill:#e31516; stroke:none;" d="M392 476L391 491L388 490L388 500C395.082 499.435 394.951 492.906 395 487C400.589 485.137 397.113 481.135 393 480L392 476z"/>
<path style="fill:#2e82c5; stroke:none;" d="M35 477L35 481L39 481L39 480L35 477z"/>
<path style="fill:#e4b048; stroke:none;" d="M999 486L999 489L1000 489L999 486z"/>
<path style="fill:#2e82c5; stroke:none;" d="M36 501L37 501L37 493L42 489C35.7533 491.685 34.0549 494.59 36 501z"/>
<path style="fill:#da0aa8; stroke:none;" d="M392 490L390 496L394 490L392 490z"/>
<path style="fill:#201207; stroke:none;" d="M115 492L120 500L115 499L112 510L118 511L125.263 503.812L121 493L115 492z"/>
<path style="fill:#2e82c5; stroke:none;" d="M637 494L629 503L630 506L641 500L639 494L637 494z"/>
<path style="fill:#e4b048; stroke:none;" d="M993 496L996 500L996 496L993 496z"/>
<path style="fill:#da0aa8; stroke:none;" d="M487 498L488 506L491 498L487 498z"/>
<path style="fill:#e4b048; stroke:none;" d="M918 500L901 503C898.208 510.599 898.561 512.708 902 520L891 517L884 522L885 524L881 525C881.33 529.179 881.597 531.756 886 533L887 535L887 549C890.63 548.817 895.145 548.99 896 545L897 545L904.173 551.133L902 569L891 576L886 586L895 586L896 590L892 593L896 602C888.271 603.279 892.265 613.238 883.985 614.08C873.589 615.138 868.263 603.323 880 602L878 595C874.006 596.392 871.713 597.679 871 602L867 603L868 606L863 611L863 612L863 613C865.693 618.616 859.442 619.115 857 614L853 615L853 610L848 607L837 607C836.469 611.541 832.282 616.848 837 620C829.785 632.152 830.063 647.285 830 661C839.123 663.697 850.511 662 860 662L919 662C925.436 662 942.662 664.964 947 660C950.448 660.004 951.887 659.312 953 656C960.373 655.831 968.37 653.094 974 659L996 648L1000 650L1000 587C1000 580.03 1002.41 569.379 996 565L995 568C988.945 566.575 985.65 567.776 984 574L980 568L971 569L971 572L966 568L962 569L958 566L958 565L961 560L952 562C952.448 556.713 944.553 551.598 942.747 558.148C942.051 560.672 944.114 563.73 945 566L936 567L937 559C942.145 553.715 931.014 547.504 934 542L934 541L928 542L925 516L923 516L924 512L923 511C917.668 510.914 914.352 507.606 912 503C914.535 502.99 919.356 503.598 918 500z"/>
<path style="fill:#2e82c5; stroke:none;" d="M28 503L28 510L33 511L35 502L28 503M629 508L624 528C627.76 525.59 627.818 521.216 628 517C633.999 515.996 632.478 511.488 629 508z"/>
<path style="fill:#201207; stroke:none;" d="M463 517C460.333 524.452 458.55 530.239 467 534L464 538L480 535C478.943 531.508 477.582 530.568 474 530L471 516L467 509C463.268 509.666 456.132 515.528 463 517M428 510C428.412 515.332 430.856 516.717 436 517L435 510L432 512L431 512L430 512L428 510z"/>
<path style="fill:#e4b048; stroke:none;" d="M999.333 510.667L999.667 511.333L999.333 510.667z"/>
<path style="fill:#2e82c5; stroke:none;" d="M33 513L31 518L36 519L33 513M31 520L30 527L31 527L31 520M11 529L12 529L15 524L11 529M32 528L34 535L35 535L34 528L32 528z"/>
<path style="fill:#da0aa8; stroke:none;" d="M305 528C300.636 533.992 301.495 544.649 293 546L286 568C275.095 569.739 286.899 577.515 282 583C282.326 585.53 284.078 589.637 285 585L286 585L286 601L282 601L282 605L278 604L270 616C270 620.91 268.459 628.052 274 630L275 621C281.433 617.827 288.13 610.148 285 603L288 606L296 605L305.222 592.873L295 577L299 576L299 583L310 580C309.538 570.13 319.541 575.774 321 565L318 565L316 560L320 540L320 539L317 536L310 537L311 531L307 528L305 528M476 534L473 544L479 544L479 549L459 552L462 544L458 534L452 533L449 542C451.361 546.512 435.441 554.952 445 557L448 579L439 576L437 582L432 580C433.276 590.32 433.584 599.907 437.174 609.911C438.528 613.686 441.897 616.274 443.135 620.089C444.073 622.978 442.706 626.081 443.693 628.852C445.623 634.269 450.206 630.638 451 627C455.375 626.662 457.097 625.331 458 621L452 618L456 618L453 611L470 608L470 604L464 600L480 602L480 582L474 583C473.126 578.849 473.701 568.923 480 574L476 574L477 580L485 578L494 588L502 587C504.673 590.241 509.497 590.962 512.687 593.835C514.562 595.523 515.121 598.35 517.313 599.678C521.68 602.325 526.088 597.9 528 604C531.32 602.258 532.301 600.118 530 597L530 596L533 586L527 587L519 584L516 576L517 572L510 575C508.824 571.395 507.234 571.422 504 573L504 569L498 567L500 563L511 565L512 562L502 560L502 554C505.215 555.248 510.046 558.536 511 554L512 554L512 559L517 557L525 563C526.963 559.56 526.493 554.558 522 554C521.027 548.763 521.883 541.906 516 540L519 552C513.776 552.2 511.899 548.43 510 544C503.672 544.182 500.322 545.688 496 540C498.851 539.386 498.854 538.697 498 536L488.7 532.684L476 534M271 533L266 539L262 539L263 545L272 543L271 533z"/>
<path style="fill:#e4b048; stroke:none;" d="M985 533C984.863 536.56 985.573 537.911 989 539L985 533z"/>
<path style="fill:#2e82c5; stroke:none;" d="M614 535L614 540L622 541C620.995 536.093 618.917 534.747 614 535z"/>
<path style="fill:#da0aa8; stroke:none;" d="M329 536L331 549C325.804 550.728 324.738 555.358 327 560L324 561L331 577L338 581C336.43 585.954 334.691 590.623 341 592C345.703 580.939 348.385 571.341 339 562L351 555C353.213 556.792 354.282 558.652 356.032 560.852C361.504 567.732 362.387 557.053 360.852 553.109C359.124 548.67 354.207 550.183 351.863 546.774C350.714 545.103 351.647 542.783 352 541L344 536L340 541C339.219 537.355 332.602 536.255 329 536z"/>
<path style="fill:#e4b048; stroke:none;" d="M37 539L38 549L39 549L37 539z"/>
<path style="fill:#2e82c5; stroke:none;" d="M621 551L616 553C616.695 556.727 617.121 568.694 619.778 570.968C622.06 572.921 624.987 570.741 627.17 569.876C637.773 565.672 636.125 560.514 640 551L637 550C637.903 545.713 636.74 544.207 634 541C628.519 542.494 620.716 544.192 621 551z"/>
<path style="fill:#e4b048; stroke:none;" d="M999 543L994 549L1000 551L999 543M0 547L0 568C5.17166 569.819 6.09842 572.502 3 577L3 578L4 587L9 587L10 595L15 596L15 598C11.2225 599.677 10.3482 606.003 15 607L14 603L15 603L19 605L18 612L24 611L20 613L29 621C22.9528 630.934 40.6323 640.482 47 634L48 634L50 641L56 656L61 653L58 655L66 662L92 662L87 659L88 656L86 658L85 658L78 646C71.3858 643.922 73.8777 638.301 75 633L70 633L71 627L68 630L67 630L63 624L64 627L56 626L57 621L55 614L48 619L50 612C46.7177 607.861 44.3888 606.159 39 607L37 602L32 597C26.0569 599.408 24.634 591.944 21 589L21 588C23.5234 586.583 22.4584 585.517 20 585L20 577L12 571L18 571L18 568L14 568L13 563L11 565C9.08362 558.507 6.40581 550.221 0 547z"/>
<path style="fill:#2e82c5; stroke:none;" d="M42 552C43.0004 555.036 43.8628 555.494 47 555L42 552M47 558L47 565L54 563L54 562L52 560L51 560L49 562L49 558L47 558M0 568C0 589.993 -0.294502 612.009 0.00385802 634C0.0928622 640.56 4.30277 654.517 10 658L9 662L66 662C64.8248 656.18 58.0122 659.519 61 653L56 656C54.9856 651.385 54.9922 642.46 50 641L48 634L47 634C38.7174 638.236 24.0514 631.099 29 621L20 613L24 611L18 612L19 605L15 603L14 603L15 607C11.1144 604.478 11.9723 600.968 15 598L15 596L10 595L9 587L4 587L3 578C6.41083 573.238 6.26144 569.306 0 568M57 570L56 575L58 575L57 570z"/>
<path style="fill:#e4b048; stroke:none;" d="M690 578L688 587L684 587L681 604L677 604L679 610L679 627L679 628C674.305 633.364 675.918 643.737 668 645L671 648C667.317 652.294 665.14 655.213 665 661L698 662L693 658L689.902 635.834L689 611C692.054 610.346 691.936 608.993 692 606L695 606L693 595L691 601L690 601C690.005 594.017 695.232 583.124 690 578z"/>
<path style="fill:#2e82c5; stroke:none;" d="M59 579L59 583L60 583L59 579M62 587L65 591L66 587L62 587z"/>
<path style="fill:#da0aa8; stroke:none;" d="M416 589L416 590L415 599L411 601L410 601L409 601L407 599L386.098 623.1L383.753 639.761L372 651L378 651L375 653L376 658C380.219 657.578 382.907 658.169 385 662L407 662C406.074 656.09 407.611 650.18 412 646C413.099 649.321 414.59 649.737 418 650C415.644 663.516 428.415 652.329 430 662L442 662L440 656L441 652L439 652L441 644C436.239 641.599 433.411 634.066 432 629L429 629L429 613L432 613C431.692 608.624 430.448 606.654 426 606C425.272 602.649 424.403 601.588 421 601L424 592L416 589z"/>
<path style="fill:#e4b048; stroke:none;" d="M65 593L69 595L69 594L65 593z"/>
<path style="fill:#e31516; stroke:none;" d="M596 597L599 596L600 599L605 596L602 593L596 597M583 596C586.491 599.16 589.965 597.733 594 596L583 596z"/>
<path style="fill:#e1c5aa; stroke:none;" d="M582 597C581.917 601.372 579.15 602.842 575 603L573 609L577 608C579.416 612.996 581.171 617.795 587 619L587 626C600.923 627.924 593.594 643.131 607 645L617 662L623 662L620 640L618 636L613 638L614 628L609 609C610.02 606.101 610.228 604.692 607 604L609 598L600 599L599 596L594 596L582 597z"/>
<path style="fill:#e4b048; stroke:none;" d="M606 597L606 598L609 598L607 604L609 609L612 614L613 614L613 596L606 597z"/>
<path style="fill:#e31516; stroke:none;" d="M572 601L573 603L578 604L582 598C577.87 596.272 574.189 597.031 572 601z"/>
<path style="fill:#e4b048; stroke:none;" d="M580 598L579 602L582 598L580 598z"/>
<path style="fill:#2e82c5; stroke:none;" d="M84 603C86.3778 606.676 88.847 605.182 92 603L84 603z"/>
<path style="fill:#e4b048; stroke:none;" d="M93 603L92 609L98 605L93 603M573 603L573 605L575 605L575 603L573 603z"/>
<path style="fill:#2e82c5; stroke:none;" d="M102 608L105 613L109 608L102 608z"/>
<path style="fill:#e4b048; stroke:none;" d="M99 611L104 611C101.85 608.925 100.795 608.44 99 611M575 608L576 616L581 618C580.369 613.44 579.288 610.123 575 608z"/>
<path style="fill:#2e82c5; stroke:none;" d="M574 609C574.257 614.878 578.035 626.085 585 619L576 616L574 609M112 613L112 614L116 614L112 613z"/>
<path style="fill:#e4b048; stroke:none;" d="M117 615L117 616L119 617L120 617L124 615L117 615z"/>
<path style="fill:#2e82c5; stroke:none;" d="M125.333 616.667L125.667 617.333L125.333 616.667M173 616C168.684 619.131 165.619 621.49 165 627L170 624L171 627L172 627C172.975 623.757 174.277 619.835 178 622L179 622L181 620L173 616M611 617L611 627L615 630C616.786 624.16 615.917 620.812 611 617z"/>
<path style="fill:#e4b048; stroke:none;" d="M583 622L586 626L587 626L587 619L583 622M611 619L612 625L611 619z"/>
<path style="fill:#201207; stroke:none;" d="M697 619C697 623.371 695.439 628.61 693 628L695 636C692.752 647.231 700.371 651.508 702 662L711 662L711 661C704.237 654.48 703.423 638.046 704 629L697 619z"/>
<path style="fill:#da0aa8; stroke:none;" d="M288 620L284 624L285 630C291.983 628.789 299.012 620.841 288 620z"/>
<path style="fill:#2e82c5; stroke:none;" d="M181 621L183 624L181 621M130 623L138 629L139 628C136.971 623.537 134.931 621.691 130 623z"/>
<path style="fill:#e4b048; stroke:none;" d="M169 624C164.977 627.533 161.367 632.241 167 636L170 628L173 628L169 624M182 624C182.916 627.811 184.199 629.828 188 631L188 635L196 635L198 637L200 644L201 644L203 639L200 638L202 635L188 631L188 627L182 624z"/>
<path style="fill:#2e82c5; stroke:none;" d="M184 627L188 627L188 631L190 631C189.716 627.425 187.193 622.749 184 627z"/>
<path style="fill:#e4b048; stroke:none;" d="M587 626L587 628L592 628L596 639C601.051 631.463 594.139 626.589 587 626z"/>
<path style="fill:#2e82c5; stroke:none;" d="M692 627L693 658L698 662L702 662L695 636L692 627M585 628L584 632L588 632C588.99 635.504 590.384 636.645 594 636L592 628L585 628M138 629L135 631L139 638L154 633L154 632L142 636L138 629M617 629L613 630L618 641L619 641L617 629z"/>
<path style="fill:#e4b048; stroke:none;" d="M144 638L160 635C155.956 629.3 147.429 633.674 144 638M611 633L613 638L618 636L611 633z"/>
<path style="fill:#2e82c5; stroke:none;" d="M200 637L203 639L202 636L200 637z"/>
<path style="fill:#201207; stroke:none;" d="M0 640L0 662C4.44279 661.997 8.15023 662.602 10 658L0 640M755 648L752 662L784 662L784 661L783 640C770.744 640.262 766.779 653.684 755 648z"/>
<path style="fill:#2e82c5; stroke:none;" d="M619 642L625 654C625.473 648.724 623.335 644.93 619 642z"/>
<path style="fill:#e31516; stroke:none;" d="M260 644L260 649L265 649L260 644z"/>
<path style="fill:#e4b048; stroke:none;" d="M602 645C603.951 649.263 605.081 652.216 610 653L612 657C611.384 661.025 613.201 661.705 617 662L607 645L602 645z"/>
<path style="fill:#e31516; stroke:none;" d="M410 646C408.479 649.499 404.423 656.79 407.184 660.397C410.292 664.457 425.23 662 430 662C429.172 651.62 416.776 662.992 418 650L412 646L410 646z"/>
<path style="fill:#2e82c5; stroke:none;" d="M193.333 648.667L193.667 649.333L193.333 648.667z"/>
<path style="fill:#e31516; stroke:none;" d="M974 659C969.828 652.39 959.592 655.516 953 656L947 660L961 662L1000 662L1000 650L996 648L974 659z"/>
<path style="fill:#e4b048; stroke:none;" d="M621 650L623 662L628 662L621 650M190 651L189 655L193 656L192 651L190 651z"/>
<path style="fill:#2e82c5; stroke:none;" d="M193 653L192 658L196 653L193 653z"/>
<path style="fill:#da0aa8; stroke:none;" d="M194 656L187 662L196 662L194 656z"/>
<path style="fill:#2e82c5; stroke:none;" d="M625 656L626 660L630 657L625 656M183 657L181 662L187 662L188 658L183 657z"/>
<path style="fill:#e4b048; stroke:none;" d="M188 657L188 658L192 658L188 657z"/>
<path style="fill:#da0aa8; stroke:none;" d="M197 662L201 659L197 662z"/>
</svg>
