<?xml version="1.0" encoding="UTF-8" standalone="no"?>
<svg id="svg8757" xmlns:rdf="http://www.w3.org/1999/02/22-rdf-syntax-ns#" xmlns="http://www.w3.org/2000/svg" height="615.34mm" width="465.38mm" version="1.1" xmlns:cc="http://creativecommons.org/ns#" xmlns:dc="http://purl.org/dc/elements/1.1/" viewBox="0 0 1648.973 2180.3216">
<g id="layer1" transform="translate(-1205.2 -1359.9)">
<path id="path9268" d="m2025.2 1428.9l-3.1503 1.7969c-13.227 7.5447-23.627 9.2819-34.2 5.7121-6.0427-2.0403-8.5518-3.3972-27.377-14.804-21.33-12.925-32.619-10.803-62.678 11.782-4.8623 3.6531-9.3336 6.9973-9.9358 7.4312-0.822 0.5923 0.3728 0.3164 4.7926-1.1061 22.763-7.3265 40.976-5.8392 67.257 5.4933 17.618 7.5972 25.655 8.4724 38.057 4.1438 11.115-3.8795 18.462-9.2431 26.203-19.129l1.0327-1.3192m258.66 0l-3.1503 1.7969c-13.227 7.5447-23.627 9.2819-34.2 5.7121-6.0427-2.0403-8.5518-3.3972-27.377-14.804-21.33-12.925-32.619-10.803-62.678 11.782-4.8623 3.6531-9.3336 6.9973-9.9358 7.4312-0.822 0.5923 0.3728 0.3164 4.7926-1.1061 22.763-7.3265 40.976-5.8392 67.257 5.4933 17.618 7.5972 25.655 8.4724 38.057 4.1438 11.115-3.8795 18.462-9.2431 26.203-19.129l1.0327-1.3192m256.85 56.746l-3.7852 0.01c-15.221 0.4243-25.726-2.6227-33.944-10.171-4.6971-4.3144-6.9848-7.0721-20.655-24.324-15.49-19.548-31.361-22.461-65.618-6.9666-5.5413 2.5064-10.755 4.9138-11.43 5.2231-0.921 0.4221 0.3491 0.3533 4.9669-0.1301 23.783-2.4896 42.643 4.0177 63.327 23.798 13.866 13.26 20.198 16.965 33.259 18.355 11.707 1.2453 20.702-0.1326 32.186-5.2067l1.6922-0.5832m186.85 186.05l-3.174-2.0364c-13.079-7.7977-20.168-16.087-23.055-26.866-1.6503-6.1606-1.9986-9.7712-4.2568-31.667-2.5586-24.809-14.16-35.776-51.352-41.284-6.0161-0.891-11.698-1.6879-12.433-1.7937-1.0028-0.1445 0.1013 0.4844 4.2451 2.579 21.341 10.788 33.562 26.489 40.376 54.285 4.5684 18.634 7.7874 25.267 18.069 33.442 9.2148 7.327 17.535 11.051 29.927 13.071l1.6535 0.2695m57.715 256.6l-1.7969-3.1503c-7.5447-13.227-9.1402-23.708-5.7705-34.346 1.9259-6.0801 3.462-9.1901 13.54-28.759 11.419-22.173 7.4362-37.877-20.846-62.65-4.5748-4.0072-8.9232-7.7574-9.484-8.2437-0.7654-0.6637-0.1775 0.4641 2.1736 4.4679 12.108 20.62 14.062 40.493 4.5738 67.494-6.361 18.101-7.1676 25.55-2.839 37.952 3.8795 11.115 9.2431 18.462 19.129 26.203l1.3192 1.0327m0 258.66l-1.7969-3.1503c-7.5447-13.227-9.2819-23.627-5.7121-34.2 2.0403-6.0427 3.3972-8.5518 14.804-27.377 12.925-21.33 10.803-32.619-11.782-62.678-3.6531-4.8623-6.9973-9.3336-7.4312-9.9359-0.5923-0.8219-0.3164 0.3729 1.1061 4.7927 7.3265 22.763 5.8392 40.976-5.4933 67.257-7.5972 17.618-8.4724 25.655-4.1438 38.057 3.8795 11.115 9.2431 18.462 19.129 26.203l1.3192 1.0327m0 258.66l-1.7969-3.1503c-7.5447-13.227-9.2819-23.627-5.7121-34.2 2.0403-6.0427 3.3972-8.5518 14.804-27.377 12.925-21.33 10.803-32.619-11.782-62.678-3.6531-4.8623-6.9973-9.3336-7.4312-9.9359-0.5923-0.8219-0.3164 0.3729 1.1061 4.7927 7.3265 22.763 5.8392 40.976-5.4933 67.257-7.5972 17.618-8.4724 25.655-4.1438 38.057 3.8795 11.115 9.2431 18.462 19.129 26.203l1.3192 1.0327m0 258.66l-1.7969-3.1503c-7.5447-13.227-9.2819-23.627-5.7121-34.2 2.0403-6.0427 3.3972-8.5518 14.804-27.377 12.925-21.33 10.803-32.619-11.782-62.678-3.6531-4.8623-6.9973-9.3336-7.4312-9.9359-0.5923-0.8219-0.3164 0.3729 1.1061 4.7927 7.3265 22.763 5.8392 40.976-5.4933 67.257-7.5972 17.618-8.4724 25.655-4.1438 38.057 3.8795 11.115 9.2431 18.462 19.129 26.203l1.3192 1.0327m0 258.66l-1.7969-3.1503c-7.5447-13.227-9.2819-23.627-5.7121-34.2 2.0403-6.0427 3.3972-8.5518 14.804-27.377 12.925-21.33 10.803-32.619-11.782-62.678-3.6531-4.8623-6.9973-9.3336-7.4312-9.9358-0.5923-0.822-0.3164 0.3728 1.1061 4.7926 7.3265 22.763 5.8392 40.976-5.4933 67.257-7.5972 17.618-8.4724 25.655-4.1438 38.057 3.8795 11.115 9.2431 18.462 19.129 26.203l1.3192 1.0327m-53.274 257.34l-0.145-3.6237c-0.6093-15.215 2.2095-25.804 9.657-34.114 4.2565-4.7496 6.9023-7.1047 23.985-20.987 19.355-15.729 22.334-32.028 5.9887-65.887-2.644-5.4769-5.1021-10.566-5.4198-11.237-0.4336-0.9156-0.3324 0.3567 0.2087 4.9681 2.7864 23.75-3.5485 42.52-22.812 63.686-12.914 14.189-16.787 20.48-17.857 33.572-0.9587 11.734 0.4857 20.676 5.699 32.099l0.6957 1.5239m-183.24 189.85l1.9884-3.2144c7.6386-13.173 15.781-20.456 26.525-23.473 6.1402-1.7244 9.6906-2.192 31.558-4.713 24.776-2.8564 35.996-14.782 40.612-52.095 0.7467-6.0358 1.436-11.646 1.5331-12.382 0.1324-1.0045-0.486 0.054-2.4807 4.2472-10.273 21.593-25.968 34.086-53.68 41.233-18.578 4.7919-25.096 8.1979-33.147 18.577-7.2152 9.3026-10.79 17.746-12.66 30.162l-0.2494 1.6566m-255.87 61.226l3.1503-1.7968c13.227-7.5448 23.762-9.1687 34.441-5.9331 6.1038 1.8493 9.3892 3.5035 29.205 13.087 22.453 10.858 38.143 7.0821 62.203-21.809 3.8919-4.6734 7.5079-9.0171 7.9872-9.5839 0.6541-0.7736-0.4622-0.1552-4.4364 2.2456-20.468 12.365-40.184 14.406-67.414 5.5992-18.255-5.904-25.559-6.6876-37.933-2.2812-11.091 3.9493-18.43 9.2671-26.17 19.153l-1.0327 1.3191m-258.66 0l3.1503-1.7968c13.227-7.5448 23.627-9.282 34.2-5.7122 6.0427 2.0403 8.5518 3.3972 27.377 14.804 21.33 12.925 32.619 10.803 62.678-11.782 4.8623-3.6532 9.3337-6.9974 9.9359-7.4313 0.822-0.5923-0.3729-0.3164-4.7927 1.1062-22.763 7.3264-40.976 5.8391-67.257-5.4934-17.618-7.5972-25.655-8.4724-38.057-4.1438-11.115 3.8795-18.462 9.2431-26.203 19.129l-1.0327 1.3191m-258.66 0l3.1503-1.7968c13.227-7.5448 23.627-9.282 34.2-5.7122 6.0427 2.0403 8.5518 3.3972 27.377 14.804 21.33 12.925 32.619 10.803 62.678-11.782 4.8623-3.6532 9.3337-6.9974 9.9359-7.4313 0.822-0.5923-0.3729-0.3164-4.7927 1.1062-22.763 7.3264-40.976 5.8391-67.257-5.4934-17.618-7.5972-25.655-8.4724-38.057-4.1438-11.115 3.8795-18.462 9.2431-26.203 19.129l-1.0327 1.3191m-256.85-56.746s3.7851-0.01 3.7851-0.01c15.221-0.4242 25.726 2.6227 33.944 10.172 4.6971 4.3143 6.9847 7.0721 20.655 24.324 15.489 19.548 31.361 22.462 65.618 6.9666 5.5412-2.5064 10.755-4.9138 11.43-5.2231 0.921-0.4221-0.3491-0.3532-4.967 0.1302-23.783 2.4895-42.643-4.0177-63.327-23.798-13.866-13.26-20.198-16.965-33.259-18.355-11.707-1.2453-20.702 0.1326-32.186 5.2067l-1.6922 0.5832m-186.85-186.05l3.1739 2.0364c13.079 7.7977 20.168 16.087 23.055 26.866 1.6503 6.1606 1.9987 9.7712 4.2568 31.667 2.5587 24.809 14.16 35.776 51.352 41.284 6.0161 0.891 11.698 1.6878 12.433 1.7936 1.0028 0.1445-0.1014-0.4843-4.2452-2.5789-21.341-10.788-33.562-26.489-40.376-54.285-4.5684-18.634-7.7874-25.267-18.069-33.442-9.2148-7.3271-17.535-11.051-29.927-13.071l-1.6535-0.2694m-57.715-256.6l1.7968 3.1503c7.5448 13.227 9.1403 23.708 5.7706 34.346-1.9259 6.08-3.462 9.1901-13.54 28.759-11.419 22.173-7.4363 37.877 20.846 62.65 4.5749 4.0072 8.9232 7.7574 9.484 8.2437 0.7654 0.6637 0.1776-0.464-2.1735-4.4679-12.108-20.62-14.062-40.493-4.5738-67.494 6.361-18.101 7.1675-25.55 2.839-37.952-3.8795-11.115-9.2432-18.462-19.129-26.203l-1.3191-1.0327m0-258.66l1.7968 3.1503c7.5448 13.227 9.282 23.627 5.7122 34.2-2.0403 6.0426-3.3972 8.5518-14.804 27.377-12.925 21.33-10.803 32.619 11.782 62.678 3.6532 4.8623 6.9974 9.3337 7.4313 9.9359 0.5922 0.822 0.3164-0.3729-1.1062-4.7927-7.3264-22.763-5.8391-40.976 5.4934-67.257 7.5971-17.618 8.4723-25.655 4.1438-38.057-3.8795-11.115-9.2432-18.462-19.129-26.203l-1.3191-1.0327m0-258.66l1.7968 3.1503c7.5448 13.227 9.282 23.627 5.7122 34.2-2.0403 6.0426-3.3972 8.5518-14.804 27.377-12.925 21.33-10.803 32.619 11.782 62.678 3.6532 4.8623 6.9974 9.3337 7.4313 9.9359 0.5922 0.822 0.3164-0.3729-1.1062-4.7927-7.3264-22.763-5.8391-40.976 5.4934-67.257 7.5971-17.618 8.4723-25.655 4.1438-38.057-3.8795-11.115-9.2432-18.462-19.129-26.203l-1.3191-1.0327m0-258.66l1.7968 3.1503c7.5448 13.227 9.282 23.627 5.7122 34.2-2.0403 6.0426-3.3972 8.5518-14.804 27.377-12.925 21.33-10.803 32.619 11.782 62.678 3.6532 4.8623 6.9974 9.3336 7.4313 9.9359 0.5922 0.822 0.3164-0.3729-1.1062-4.7927-7.3264-22.763-5.8391-40.976 5.4934-67.257 7.5971-17.618 8.4723-25.655 4.1438-38.057-3.8795-11.115-9.2432-18.462-19.129-26.203l-1.3191-1.0327m0-258.66l1.7968 3.1503c7.5448 13.227 9.282 23.627 5.7122 34.2-2.0403 6.0427-3.3972 8.5519-14.804 27.377-12.925 21.33-10.803 32.619 11.782 62.678 3.6532 4.8623 6.9974 9.3336 7.4313 9.9359 0.5922 0.822 0.3164-0.3729-1.1062-4.7927-7.3264-22.763-5.8391-40.976 5.4934-67.257 7.5971-17.618 8.4723-25.655 4.1438-38.057-3.8795-11.115-9.2432-18.462-19.129-26.203l-1.3191-1.0327m53.273-257.34l0.145 3.6238c0.6094 15.215-2.2095 25.804-9.657 34.114-4.2565 4.7496-6.9022 7.1047-23.985 20.987-19.355 15.729-22.334 32.028-5.9886 65.887 2.6439 5.4769 5.1021 10.566 5.4198 11.237 0.4336 0.9157 0.3323-0.3566-0.2087-4.9681-2.7864-23.75 3.5485-42.52 22.812-63.686 12.914-14.189 16.787-20.48 17.857-33.572 0.9587-11.734-0.4857-20.676-5.6991-32.099l-0.6957-1.524m183.24-189.85s-1.9883 3.2144-1.9883 3.2144c-7.6386 13.173-15.781 20.456-26.525 23.473-6.1403 1.7245-9.6907 2.192-31.558 4.713-24.777 2.8565-35.996 14.782-40.612 52.095-0.7467 6.0357-1.4361 11.646-1.5331 12.382-0.1325 1.0044 0.4859-0.054 2.4807-4.2473 10.273-21.593 25.968-34.085 53.68-41.233 18.578-4.7919 25.096-8.1979 33.147-18.577 7.2153-9.3026 10.79-17.746 12.66-30.162l0.2493-1.6566m255.87-61.226l-3.1503 1.7969c-13.227 7.5447-23.762 9.1686-34.441 5.933-6.1039-1.8492-9.3892-3.5034-29.205-13.087-22.453-10.858-38.143-7.0822-62.203 21.809-3.8919 4.6734-7.5079 9.0171-7.9872 9.5839-0.6542 0.7736 0.4621 0.1552 4.4363-2.2456 20.468-12.364 40.184-14.406 67.414-5.5992 18.255 5.9041 25.559 6.6876 37.934 2.2812 11.091-3.9493 18.43-9.2671 26.17-19.153l1.0327-1.3192m244.42 15.677c0.0004-0.026-0.014-0.041-0.044-0.042-0.157-0.01-2.1324 0.9876-4.3893 2.2098-17.412 9.4291-26.519 9.6876-48.208 1.3689-22.589-8.6639-39.381-10.434-59.507-6.2713-3.6802 0.7611-12.035 3.1601-12.455 3.5761-0.2901 0.2877 9.198 9.04 13.1 12.084 31.323 24.435 62.28 25.964 91.599 4.5231 5.7284-4.189 19.892-16.636 19.904-17.448m258.66 0c0.0004-0.026-0.014-0.041-0.044-0.042-0.157-0.01-2.1324 0.9876-4.3893 2.2098-17.412 9.4291-26.519 9.6876-48.208 1.3689-22.589-8.6639-39.381-10.434-59.507-6.2713-3.6802 0.7611-12.035 3.1601-12.455 3.5761-0.2901 0.2877 9.198 9.04 13.1 12.084 31.323 24.435 62.28 25.964 91.599 4.5231 5.7284-4.189 19.892-16.636 19.904-17.448m250.93 48.219c0.012-0.023 0.01-0.043-0.02-0.057-0.1371-0.077-2.3306-0.075-4.8949 0.033-19.783 0.838-26.904-2.3599-44.522-17.499-18.349-15.767-34.706-22.286-55.255-22.608-3.7576-0.059-12.452 0.6452-12.944 0.9722-0.3403 0.2261 7.0172 10.632 10.162 14.452 25.248 30.67 46.958 39.826 82.451 32.11 6.9346-1.5076 24.647-6.683 25.022-7.4036m186.23 174.09c0.023-0.013 0.028-0.033 0.014-0.059-0.075-0.1383-1.9421-1.3231-4.1495-2.6326-17.03-10.103-21.568-16.479-28.017-38.795-6.7161-23.242-17.103-37.5-34.21-48.891-3.128-2.0829-10.817-6.2003-11.408-6.1922-0.4086 0.01 0.1445 12.743 0.7218 17.658 4.6343 39.455 17.972 58.579 51.913 71.514 6.6313 2.5272 24.432 7.8055 25.135 7.3981m62.812 247.17c0.026 0.0003 0.041-0.014 0.042-0.044 0.01-0.157-0.9876-2.1324-2.2098-4.3893-9.4291-17.412-9.3102-25.552-2.7906-47.847 6.7902-23.221 5.9082-40.81-2.3032-59.65-1.5015-3.445-5.7394-11.069-6.2407-11.381-0.3467-0.2162-6.7755 10.788-8.952 15.232-17.472 35.677-16.641 59.104 4.9828 88.288 4.2249 5.7019 16.659 19.78 17.471 19.791m0 258.66c0.026 0.0003 0.041-0.014 0.042-0.044 0.01-0.157-0.9876-2.1324-2.2098-4.3893-9.4291-17.412-9.6876-26.52-1.3689-48.208 8.6639-22.589 10.434-39.381 6.2713-59.507-0.7611-3.6802-3.1601-12.035-3.5761-12.455-0.2877-0.2901-9.04 9.198-12.084 13.1-24.435 31.323-25.964 62.28-4.5231 91.599 4.189 5.7284 16.636 19.892 17.448 19.904m0 258.66c0.026 0.0003 0.041-0.014 0.042-0.044 0.01-0.157-0.9876-2.1324-2.2098-4.3893-9.4291-17.412-9.6876-26.52-1.3689-48.208 8.6639-22.589 10.434-39.381 6.2713-59.507-0.7611-3.6802-3.1601-12.035-3.5761-12.455-0.2877-0.2901-9.04 9.198-12.084 13.1-24.435 31.323-25.964 62.28-4.5231 91.599 4.189 5.7284 16.636 19.892 17.448 19.904m0 258.66c0.026 0.0003 0.041-0.014 0.042-0.044 0.01-0.157-0.9876-2.1324-2.2098-4.3893-9.4291-17.412-9.6876-26.52-1.3689-48.208 8.6639-22.589 10.434-39.381 6.2713-59.507-0.7611-3.6802-3.1601-12.035-3.5761-12.455-0.2877-0.2901-9.04 9.198-12.084 13.1-24.435 31.323-25.964 62.28-4.5231 91.599 4.189 5.7284 16.636 19.892 17.448 19.904m0 258.66c0.026 0.0003 0.041-0.014 0.042-0.044 0.01-0.157-0.9876-2.1324-2.2098-4.3893-9.4291-17.412-9.6876-26.519-1.3689-48.208 8.6639-22.589 10.434-39.381 6.2713-59.507-0.7611-3.6802-3.1601-12.035-3.5761-12.455-0.2877-0.2901-9.04 9.198-12.084 13.1-24.435 31.323-25.964 62.28-4.5231 91.599 4.189 5.7284 16.636 19.892 17.448 19.904m-45.116 251.66c0.023 0.012 0.043 0.01 0.057-0.021 0.075-0.138 0.03-2.3393-0.1097-4.902-1.0794-19.771 1.8794-26.991 16.8-44.794 15.54-18.543 21.687-35.026 21.752-55.578 0.012-3.758-0.8371-12.439-1.1763-12.923-0.2346-0.3346-10.5 7.1415-14.282 10.334-30.353 25.629-38.967 47.528-30.817 82.924 1.5924 6.9156 7.0506 24.594 7.7757 24.96m-171.2 188.89c0.014 0.023 0.033 0.028 0.059 0.013 0.1374-0.076 1.2945-1.9347 2.5503-4.1731 9.6879-17.269 16.154-21.913 38.391-28.629 23.16-6.9949 37.155-17.707 48.34-34.948 2.0452-3.1527 6.0293-10.916 6.007-11.506-0.015-0.4083-12.692 0.3221-17.6 0.9582-39.396 5.1063-58.16 18.92-70.684 53.015-2.4469 6.6614-7.4797 24.572-7.0639 25.27m-246.16 66.427c-0.0003 0.026 0.014 0.041 0.044 0.042 0.157 0.01 2.1323-0.9875 4.3892-2.2097 17.412-9.4292 25.396-9.631 47.771-3.3921 23.304 6.4978 40.855 5.2347 59.591-3.2111 3.426-1.5444 10.978-5.9097 11.278-6.4186 0.2075-0.352-10.847-6.6039-15.318-8.7249-35.892-17.026-59.28-15.649-88.189 6.3405-5.6483 4.2963-19.554 16.762-19.566 17.574m-258.66 0c-0.0003 0.026 0.014 0.041 0.044 0.042 0.1569 0.01 2.1323-0.9875 4.3892-2.2097 17.412-9.4292 26.52-9.6876 48.208-1.369 22.589 8.6639 39.381 10.434 59.507 6.2714 3.6801-0.7611 12.035-3.1602 12.455-3.5762 0.2902-0.2877-9.198-9.04-13.1-12.084-31.323-24.435-62.28-25.964-91.599-4.5231-5.7284 4.1889-19.892 16.636-19.904 17.448m-258.66 0c-0.0003 0.026 0.014 0.041 0.044 0.042 0.1569 0.01 2.1323-0.9875 4.3892-2.2097 17.412-9.4292 26.52-9.6876 48.208-1.369 22.589 8.6639 39.381 10.434 59.507 6.2714 3.6801-0.7611 12.035-3.1602 12.455-3.5762 0.2902-0.2877-9.198-9.04-13.1-12.084-31.323-24.435-62.28-25.964-91.599-4.5231-5.7284 4.1889-19.892 16.636-19.904 17.448m-250.93-48.219c-0.012 0.023-0.01 0.043 0.02 0.057 0.1371 0.077 2.3306 0.075 4.8949-0.033 19.783-0.838 26.904 2.3599 44.522 17.499 18.349 15.767 34.706 22.286 55.255 22.608 3.7575 0.059 12.452-0.6451 12.944-0.9722 0.3403-0.2261-7.0173-10.632-10.162-14.452-25.248-30.67-46.958-39.826-82.451-32.11-6.9346 1.5076-24.647 6.6829-25.022 7.4036m-186.23-174.09c-0.023 0.013-0.028 0.033-0.014 0.059 0.075 0.1382 1.942 1.323 4.1494 2.6325 17.03 10.103 21.568 16.479 28.017 38.795 6.7161 23.242 17.103 37.5 34.21 48.891 3.1279 2.0828 10.817 6.2003 11.408 6.1921 0.4085-0.01-0.1445-12.743-0.7218-17.658-4.6343-39.455-17.972-58.579-51.913-71.514-6.6314-2.5272-24.432-7.8054-25.136-7.3981m-62.812-247.17c-0.026-0.0003-0.041 0.014-0.042 0.044-0.01 0.1569 0.9875 2.1323 2.2097 4.3892 9.4292 17.412 9.3103 25.552 2.7907 47.847-6.7903 23.221-5.9082 40.81 2.3032 59.65 1.5015 3.445 5.7393 11.069 6.2407 11.381 0.3467 0.2162 6.7754-10.788 8.952-15.232 17.472-35.677 16.641-59.104-4.9829-88.288-4.2248-5.7019-16.659-19.78-17.471-19.791m0-258.66c-0.026-0.0003-0.041 0.014-0.042 0.044-0.01 0.1569 0.9875 2.1323 2.2097 4.3892 9.4292 17.412 9.6876 26.52 1.369 48.208-8.6639 22.589-10.434 39.381-6.2714 59.507 0.7611 3.6801 3.1602 12.035 3.5762 12.455 0.2877 0.2902 9.0399-9.198 12.084-13.1 24.435-31.323 25.964-62.28 4.5231-91.599-4.1889-5.7284-16.636-19.892-17.448-19.904m0-258.66c-0.026-0.0003-0.041 0.014-0.042 0.044-0.01 0.1569 0.9875 2.1323 2.2097 4.3892 9.4292 17.412 9.6876 26.52 1.369 48.208-8.6639 22.589-10.434 39.381-6.2714 59.507 0.7611 3.6801 3.1602 12.035 3.5762 12.455 0.2877 0.2901 9.0399-9.198 12.084-13.1 24.435-31.323 25.964-62.28 4.5231-91.599-4.1889-5.7284-16.636-19.892-17.448-19.904m0-258.66c-0.026-0.0003-0.041 0.014-0.042 0.044-0.01 0.1569 0.9875 2.1323 2.2097 4.3892 9.4292 17.412 9.6876 26.52 1.369 48.208-8.6639 22.589-10.434 39.381-6.2714 59.507 0.7611 3.6801 3.1602 12.035 3.5762 12.455 0.2877 0.2901 9.0399-9.198 12.084-13.1 24.435-31.323 25.964-62.28 4.5231-91.599-4.1889-5.7284-16.636-19.892-17.448-19.904m0-258.66c-0.026-0.0003-0.041 0.014-0.042 0.044-0.01 0.1569 0.9875 2.1323 2.2097 4.3892 9.4292 17.412 9.6876 26.52 1.369 48.208-8.6639 22.589-10.434 39.381-6.2714 59.507 0.7611 3.6801 3.1602 12.035 3.5762 12.455 0.2877 0.2901 9.0399-9.198 12.084-13.1 24.435-31.323 25.964-62.28 4.5231-91.599-4.1889-5.7284-16.636-19.892-17.448-19.904m45.116-251.66c-0.023-0.012-0.043-0.01-0.057 0.021-0.075 0.138-0.03 2.3393 0.1097 4.9021 1.0794 19.771-1.8793 26.991-16.8 44.794-15.54 18.542-21.687 35.026-21.752 55.578-0.012 3.7579 0.837 12.439 1.1763 12.923 0.2346 0.3345 10.5-7.1416 14.282-10.334 30.353-25.629 38.967-47.528 30.817-82.924-1.5924-6.9156-7.0505-24.594-7.7757-24.96m171.2-188.89c-0.013-0.023-0.033-0.027-0.059-0.013-0.1373 0.076-1.2945 1.9347-2.5502 4.1731-9.688 17.269-16.154 21.913-38.391 28.629-23.16 6.9948-37.155 17.707-48.34 34.948-2.0453 3.1528-6.0293 10.916-6.0071 11.506 0.015 0.4083 12.692-0.3221 17.6-0.9582 39.396-5.1063 58.16-18.92 70.684-53.015 2.447-6.6613 7.4798-24.572 7.0639-25.27m246.16-66.427c0.0004-0.026-0.014-0.041-0.044-0.042-0.157-0.01-2.1324 0.9876-4.3893 2.2098-17.412 9.4291-25.395 9.631-47.771 3.392-23.304-6.4978-40.855-5.2347-59.591 3.2111-3.426 1.5444-10.978 5.9097-11.278 6.4187-0.2075 0.352 10.847 6.6039 15.318 8.7248 35.892 17.026 59.28 15.649 88.189-6.3405 5.6483-4.2962 19.554-16.762 19.566-17.574m192.1-56.168c-1.3517-25.528-46.009-38.374-56.158-19.266-3.5834 9.8811-2.548 19.566-0.8636 30.069 3.167 19.748 2.1698 28.495-2.7619 39.035l-1.1019 2.3548 2.0367-1.7301c4.3882-3.7282 10.246-11.106 12.759-16.07 3.6705-7.2499 4.4095-12.114 4.1412-27.264-0.3064-17.3 12.424-26.768 26.281-19.544 8.8229 4.5996 12.1 20.314 6.7392 32.317l-0.8871 1.9852s1.897-2.1276 1.897-2.1276c5.6036-6.2856 7.9542-13.151 7.9181-19.76m258.66 0c-1.3517-25.528-46.009-38.374-56.158-19.266-3.5834 9.8811-2.548 19.566-0.8636 30.069 3.167 19.748 2.1698 28.495-2.7619 39.035l-1.1019 2.3548 2.0367-1.7301c4.3882-3.7282 10.246-11.106 12.759-16.07 3.6705-7.2499 4.4095-12.114 4.1412-27.264-0.3063-17.3 12.424-26.768 26.281-19.544 8.8229 4.5996 12.1 20.314 6.7392 32.317l-0.8871 1.9852s1.897-2.1276 1.897-2.1276c5.6036-6.2856 7.9542-13.151 7.9181-19.76m273.71 25.646c6.7206-24.665-43.608-51.674-57.26-34.889-5.4264 9.0017-6.2833 18.704-6.6618 29.334-0.7115 19.988-3.5739 28.289-10.333 37.762 0 0-1.51 2.1162-1.51 2.1162l2.3162-1.3327c4.9908-2.8718 12.657-8.776 16.191-13.074 5.1614-6.2763 6.9421-10.863 9.9801-25.708 3.4691-16.952 22.489-22.187 33.79-11.396 7.196 6.8714 6.5073 23.167-2.1035 33.101l-1.4246 1.6426 2.8571-1.351c7.2391-4.3016 12.12-9.919 14.158-16.206m235.64 162.8c18.939-17.171-8.5201-66.83-29.09-60.124-9.4393 4.6235-15.418 12.312-21.498 21.041-11.432 16.412-18.335 21.847-29.152 26.139 0 0-2.4166 0.9587-2.4166 0.9587l2.6688 0.1369c5.7505 0.2947 15.385-0.5354 20.684-2.2369 7.7369-2.4847 11.993-5.0878 22.71-15.8 12.238-12.232 30.374-7.015 34.072 8.1673 2.355 9.6671-6.7154 23.494-19.366 27.071l-2.3577 0.2837s3.1142 0.4002 3.1142 0.4002c8.4162 0.2741 15.53-1.8349 20.632-6.037m110.29 264.79c25.238-4.0674 28.98-61.127 8.0511-66.61-10.44-1.215-19.627 2.0196-29.461 6.0741-18.491 7.6234-27.232 8.4534-38.653 6.2199l-2.5514-0.4991 2.1717 1.5573c4.6795 3.3552 13.226 7.8899 18.601 9.329 7.8496 2.1015 12.762 1.8244 27.533-1.5532 16.868-3.8569 29.515 11.317 24.362 26.07-3.2809 9.3933-18.399 15.511-31.004 11.776l-2.0846-0.6181 2.3587 1.6004c6.9683 4.7276 14.109 7.3941 20.676 6.6531m3.0575 264.51c25.528-1.3517 38.374-46.009 19.266-56.158-9.8811-3.5834-19.566-2.548-30.069-0.8636-19.748 3.167-28.495 2.1697-39.035-2.7619l-2.3548-1.1019 1.7302 2.0366c3.7281 4.3883 11.106 10.246 16.07 12.759 7.2499 3.6705 12.114 4.4094 27.264 4.1412 17.3-0.3064 26.768 12.424 19.544 26.281-4.5996 8.8229-20.314 12.1-32.317 6.7392 0 0-1.9852-0.8871-1.9852-0.8871l2.1276 1.897c6.2856 5.6036 13.151 7.9542 19.76 7.9181m0 258.66c25.528-1.3517 38.374-46.009 19.266-56.158-9.8811-3.5834-19.566-2.548-30.069-0.8636-19.748 3.167-28.495 2.1697-39.035-2.7619l-2.3548-1.1019 1.7302 2.0366c3.7281 4.3883 11.106 10.246 16.07 12.759 7.2499 3.6705 12.114 4.4094 27.264 4.1412 17.3-0.3064 26.768 12.424 19.544 26.281-4.5996 8.8229-20.314 12.1-32.317 6.7392 0 0-1.9852-0.8871-1.9852-0.8871l2.1276 1.897c6.2856 5.6036 13.151 7.9542 19.76 7.9181m0 258.66c25.528-1.3517 38.374-46.009 19.266-56.158-9.8811-3.5834-19.566-2.548-30.069-0.8636-19.748 3.167-28.495 2.1697-39.035-2.7619l-2.3548-1.1019 1.7302 2.0366c3.7281 4.3883 11.106 10.246 16.07 12.759 7.2499 3.6705 12.114 4.4094 27.264 4.1412 17.3-0.3064 26.768 12.424 19.544 26.281-4.5996 8.8229-20.314 12.1-32.317 6.7392 0 0-1.9852-0.8871-1.9852-0.8871l2.1276 1.897c6.2856 5.6036 13.151 7.9542 19.76 7.9181m0 258.66c25.528-1.3517 38.374-46.009 19.266-56.158-9.8811-3.5834-19.566-2.548-30.069-0.8636-19.748 3.167-28.495 2.1697-39.035-2.7619l-2.3548-1.1019 1.7302 2.0366c3.7281 4.3883 11.106 10.246 16.07 12.759 7.2499 3.6705 12.114 4.4094 27.264 4.1412 17.3-0.3064 26.768 12.424 19.544 26.281-4.5996 8.8229-20.314 12.1-32.317 6.7392 0 0-1.9852-0.8871-1.9852-0.8871l2.1276 1.897c6.2856 5.6036 13.151 7.9542 19.76 7.9181m-23.288 273.39c24.746 6.4151 50.962-44.299 34.008-57.74-9.0688-5.3135-18.781-6.0491-29.415-6.2946-19.995-0.4616-28.348-3.2231-37.905-9.863l-2.135-1.4835s1.3616 2.2994 1.3616 2.2994c2.934 4.9545 8.9829 12.556 13.325 16.036 6.3402 5.0828 10.948 6.806 25.83 9.6585 16.994 3.2574 22.549 22.236 11.898 33.67-6.7817 7.2807-23.068 6.7998-33.108-1.6872l-1.6602-1.4041s1.5162 2.4137 1.5162 2.4137c4.4796 7.1304 9.9719 12.434 16.284 14.394m-159.23 238.09c17.396 18.732 66.593-9.4563 59.641-29.945-4.7361-9.3833-12.06-15.771-20.932-21.64-16.681-11.036-22.444-17.69-26.865-28.454l-0.9876-2.4049-0.1049 2.6702c-0.2259 5.7537 0.8748 15.254 2.7027 20.51 2.6692 7.6751 5.3403 11.835 16.306 22.293 12.521 11.942 7.0309 30.766-8.1061 34.646-9.6382 2.4708-23.081-6.7414-26.959-19.302l-0.6411-2.0777s-0.025 2.8503-0.025 2.8503c-0.072 8.4204 1.7076 15.804 5.9705 20.855m-263 114.3c4.3839 25.185 61.447 28.052 66.668 7.0557 1.0849-10.455-2.2638-19.6-6.4405-29.384-7.8531-18.394-8.7964-27.141-6.7052-38.589l0.4674-2.5575-1.5302 2.1909c-3.2967 4.7209-7.712 13.373-9.0839 18.766-2.0033 7.8752-1.665 12.784 1.8966 27.512 4.0671 16.818-10.928 29.735-25.744 24.768-9.4338-3.163-15.738-18.187-12.161-30.838l0.5919-2.0922s-1.5707 2.3786-1.5707 2.3786c-4.6399 7.027-7.2116 14.232-6.3882 20.79m-265.16 3.9474c1.3517 25.528 46.009 38.374 56.158 19.266 3.5833-9.8812 2.548-19.566 0.8636-30.069-3.167-19.748-2.1698-28.494 2.7619-39.035l1.1019-2.3548-2.0367 1.7302c-4.3882 3.7281-10.246 11.106-12.759 16.07-3.6706 7.2499-4.4095 12.114-4.1412 27.264 0.3063 17.3-12.424 26.767-26.281 19.544-8.8229-4.5997-12.1-20.314-6.7393-32.318l0.8872-1.9851-1.897 2.1275c-5.6036 6.2856-7.9543 13.151-7.9182 19.76m-258.66 0c1.3517 25.528 46.009 38.374 56.158 19.266 3.5833-9.8812 2.548-19.566 0.8636-30.069-3.167-19.748-2.1698-28.494 2.7619-39.035l1.1019-2.3548-2.0367 1.7302c-4.3882 3.7281-10.246 11.106-12.759 16.07-3.6706 7.2499-4.4095 12.114-4.1412 27.264 0.3063 17.3-12.424 26.767-26.281 19.544-8.8229-4.5997-12.1-20.314-6.7393-32.318l0.8872-1.9851-1.897 2.1275c-5.6036 6.2856-7.9543 13.151-7.9182 19.76m-273.71-25.646c-6.7207 24.665 43.608 51.674 57.26 34.889 5.4265-9.0017 6.2834-18.704 6.6618-29.334 0.7116-19.988 3.574-28.289 10.333-37.762l1.5101-2.1163-2.3163 1.3327c-4.9908 2.8718-12.656 8.776-16.191 13.074-5.1615 6.2763-6.9421 10.863-9.9801 25.708-3.4691 16.952-22.489 22.187-33.79 11.396-7.196-6.8715-6.5073-23.167 2.1034-33.101l1.4246-1.6427-2.857 1.3511c-7.2392 4.3015-12.12 9.919-14.158 16.206m-235.64-162.8c-18.939 17.171 8.5202 66.83 29.09 60.124 9.4393-4.6235 15.418-12.312 21.498-21.04 11.432-16.412 18.335-21.847 29.152-26.139 0 0 2.4166-0.9586 2.4166-0.9586l-2.6688-0.137c-5.7505-0.2947-15.386 0.5355-20.684 2.237-7.7368 2.4846-11.993 5.0877-22.71 15.799-12.238 12.232-30.373 7.0151-34.072-8.1673-2.3551-9.6671 6.7153-23.494 19.365-27.071l2.3577-0.2838s-3.1141-0.4002-3.1141-0.4002c-8.4163-0.274-15.53 1.835-20.632 6.037m-110.29-264.79c-25.238 4.0674-28.98 61.127-8.051 66.61 10.44 1.2151 19.627-2.0195 29.461-6.0741 18.491-7.6234 27.232-8.4534 38.653-6.2199l2.5515 0.4991-2.1717-1.5573c-4.6795-3.3552-13.226-7.8899-18.602-9.329-7.8496-2.1014-12.762-1.8244-27.533 1.5532-16.868 3.8569-29.515-11.317-24.362-26.07 3.281-9.3933 18.399-15.511 31.004-11.776l2.0846 0.6181-2.3587-1.6004c-6.9683-4.7276-14.109-7.3941-20.676-6.6531m-3.0574-264.51c-25.528 1.3517-38.374 46.009-19.266 56.158 9.8812 3.5833 19.566 2.548 30.069 0.8636 19.748-3.1671 28.494-2.1698 39.035 2.7619l2.3548 1.1018-1.7302-2.0366c-3.7282-4.3882-11.106-10.246-16.07-12.759-7.2498-3.6706-12.114-4.4095-27.264-4.1412-17.3 0.3063-26.767-12.424-19.544-26.281 4.5997-8.8229 20.314-12.1 32.317-6.7393 0 0 1.9852 0.8871 1.9852 0.8871l-2.1275-1.8969c-6.2856-5.6036-13.151-7.9543-19.76-7.9182m0-258.66c-25.528 1.3517-38.374 46.009-19.266 56.158 9.8812 3.5833 19.566 2.548 30.069 0.8636 19.748-3.1671 28.494-2.1698 39.035 2.7619l2.3548 1.1018-1.7302-2.0366c-3.7282-4.3882-11.106-10.246-16.07-12.759-7.2498-3.6706-12.114-4.4095-27.264-4.1412-17.3 0.3063-26.767-12.424-19.544-26.281 4.5997-8.8229 20.314-12.1 32.317-6.7393 0 0 1.9852 0.8871 1.9852 0.8871l-2.1275-1.8969c-6.2856-5.6036-13.151-7.9543-19.76-7.9182m0-258.66c-25.528 1.3517-38.374 46.009-19.266 56.158 9.8812 3.5834 19.566 2.5481 30.069 0.8637 19.748-3.1671 28.494-2.1698 39.035 2.7619l2.3548 1.1018-1.7302-2.0366c-3.7282-4.3882-11.106-10.246-16.07-12.759-7.2498-3.6706-12.114-4.4095-27.264-4.1412-17.3 0.3063-26.767-12.424-19.544-26.281 4.5997-8.8229 20.314-12.1 32.317-6.7393 0 0 1.9852 0.8871 1.9852 0.8871l-2.1275-1.8969c-6.2856-5.6036-13.151-7.9543-19.76-7.9182m0-258.66c-25.528 1.3517-38.374 46.009-19.266 56.158 9.8812 3.5834 19.566 2.5481 30.069 0.8637 19.748-3.1671 28.494-2.1698 39.035 2.7619l2.3548 1.1018-1.7302-2.0366c-3.7282-4.3882-11.106-10.246-16.07-12.759-7.2498-3.6706-12.114-4.4095-27.264-4.1412-17.3 0.3063-26.767-12.424-19.544-26.281 4.5997-8.8229 20.314-12.1 32.317-6.7393 0 0 1.9852 0.8871 1.9852 0.8871l-2.1275-1.8969c-6.2856-5.6036-13.151-7.9543-19.76-7.9182m23.288-273.39c-24.746-6.415-50.962 44.299-34.008 57.74 9.0688 5.3135 18.78 6.049 29.415 6.2945 19.995 0.4617 28.348 3.2231 37.905 9.863l2.135 1.4835s-1.3616-2.2994-1.3616-2.2994c-2.9341-4.9545-8.983-12.556-13.325-16.036-6.3402-5.0828-10.948-6.806-25.83-9.6585-16.994-3.2574-22.549-22.236-11.898-33.67 6.7816-7.2807 23.068-6.7997 33.107 1.6872l1.6603 1.4041s-1.5162-2.4137-1.5162-2.4137c-4.4796-7.1303-9.972-12.434-16.284-14.394m159.23-238.09c-17.397-18.732-66.593 9.4563-59.641 29.944 4.7362 9.3833 12.06 15.771 20.932 21.64 16.681 11.036 22.444 17.69 26.865 28.454l0.9875 2.405 0.105-2.6703c0.2258-5.7536-0.8749-15.254-2.7028-20.51-2.6691-7.6752-5.3403-11.835-16.306-22.293-12.521-11.942-7.0309-30.765 8.1061-34.646 9.6382-2.4707 23.081 6.7414 26.959 19.302l0.641 2.0777s0.025-2.8503 0.025-2.8503c0.072-8.4204-1.7075-15.804-5.9704-20.854m263.06-114.28c-4.384-25.185-61.447-28.052-66.668-7.0558-1.085 10.455 2.2638 19.6 6.4405 29.384 7.8531 18.394 8.7963 27.141 6.7051 38.589l-0.4673 2.5574s1.5301-2.1909 1.5301-2.1909c3.2968-4.7208 7.712-13.373 9.0839-18.766 2.0034-7.8752 1.6651-12.784-1.8966-27.511-4.0671-16.818 10.928-29.735 25.744-24.768 9.4337 3.1629 15.738 18.187 12.161 30.838l-0.592 2.0923s1.5708-2.3786 1.5708-2.3786c4.6398-7.0271 7.2116-14.232 6.3882-20.79m205.59 55.353l-2.0366 1.7302c-4.3882 3.7281-10.246 11.106-12.759 16.07-3.6705 7.2499-4.4094 12.114-4.1412 27.264 0.3064 17.3-12.424 26.768-26.281 19.544-8.8229-4.5996-12.1-20.314-6.7392-32.317l0.8871-1.9852-1.8969 2.1276c-5.6037 6.2856-7.9543 13.151-7.9182 19.76 1.3517 25.528 46.009 38.374 56.158 19.266 3.5834-9.8811 2.548-19.566 0.8637-30.069-3.1671-19.748-2.1698-28.495 2.7618-39.035l1.1019-2.3548m258.66 0l-2.0366 1.7302c-4.3882 3.7281-10.246 11.106-12.759 16.07-3.6705 7.2499-4.4094 12.114-4.1412 27.264 0.3064 17.3-12.424 26.768-26.281 19.544-8.8229-4.5996-12.1-20.314-6.7393-32.317l0.8871-1.9852-1.8969 2.1276c-5.6036 6.2856-7.9543 13.151-7.9182 19.76 1.3517 25.528 46.009 38.374 56.158 19.266 3.5834-9.8811 2.5481-19.566 0.8637-30.069-3.1671-19.748-2.1698-28.495 2.7619-39.035l1.1018-2.3548m257.52 7.8973l-2.3162 1.3327c-4.9908 2.8718-11.702 9.2468-14.962 13.757-4.7594 6.5864-5.8408 11.374-7.7573 26.404-2.1886 17.164-11.442 25.096-24.662 16.765-8.4178-5.3048-9.807-21.108-3.6292-32.712l1.0222-1.9191-2.0395 1.9913c-6.0247 5.8832-8.2309 12.662-8.5688 19.263-0.095 25.564 31.882 41.492 45.323 24.538 5.3135-9.0688 6.049-18.781 6.2945-29.415 0.4617-19.995 3.0263-28.416 9.7853-37.89l1.51-2.1163m225.33 115.34l-2.6688-0.1369c-5.7505-0.2947-14.87 1.4187-20.057 3.4342-7.5743 2.9432-11.106 6.3718-20.888 17.943-11.171 13.214-23.499 14.81-30.023 0.6107-4.1539-9.0412 3.2723-23.028 14.789-29.367l1.905-1.0481-2.7963 0.5526c-8.2609 1.6328-13.397 6.4873-17.227 11.874-13.808 21.514 4.7811 52.728 25.185 45.531 9.3259-4.8482 14.616-13.112 20.591-21.912 11.234-16.547 17.957-22.23 28.774-26.522l2.4165-0.9587m127.17 218.88l-2.1717-1.5573c-4.6795-3.3552-13.262-6.8298-18.717-7.9316-7.9652-1.6089-12.775-0.6165-27.253 3.8537-16.533 5.1046-27.648-0.092-25.514-15.572 1.3584-9.8567 15.162-17.65 28.281-16.808l2.1699 0.1397-2.6552-1.0366c-7.8443-3.0621-14.733-1.7187-20.856 0.7696-23.2 10.737-24.758 45.632-3.7624 50.853 10.455 1.085 19.6-2.2637 29.383-6.4404 18.394-7.8531 27.122-9.0026 38.543-6.7691l2.5515 0.4991m12.95 256.76s-1.7301-2.0366-1.7301-2.0366c-3.7282-4.3883-11.106-10.246-16.07-12.759-7.2499-3.6705-12.114-4.4094-27.264-4.1412-17.3 0.3064-26.768-12.424-19.544-26.281 4.5996-8.8229 20.314-12.1 32.317-6.7392 0 0 1.9852 0.8871 1.9852 0.8871l-2.1276-1.897c-6.2856-5.6036-13.151-7.9542-19.76-7.9181-25.528 1.3517-38.374 46.009-19.266 56.158 9.8811 3.5834 19.566 2.548 30.069 0.8636 19.748-3.167 28.495-2.1697 39.035 2.7619l2.3548 1.1019m0 258.66s-1.7301-2.0366-1.7301-2.0366c-3.7282-4.3883-11.106-10.246-16.07-12.759-7.2499-3.6705-12.114-4.4094-27.264-4.1412-17.3 0.3064-26.768-12.424-19.544-26.281 4.5996-8.8229 20.314-12.1 32.317-6.7392 0 0 1.9852 0.8871 1.9852 0.8871l-2.1276-1.8969c-6.2856-5.6037-13.151-7.9543-19.76-7.9182-25.528 1.3517-38.374 46.009-19.266 56.158 9.8811 3.5834 19.566 2.548 30.069 0.8636 19.748-3.167 28.495-2.1697 39.035 2.7619l2.3548 1.1019m0 258.66s-1.7301-2.0366-1.7301-2.0366c-3.7282-4.3883-11.106-10.246-16.07-12.759-7.2499-3.6705-12.114-4.4094-27.264-4.1412-17.3 0.3064-26.768-12.424-19.544-26.281 4.5996-8.8229 20.314-12.1 32.317-6.7392 0 0 1.9852 0.8871 1.9852 0.8871l-2.1276-1.8969c-6.2856-5.6037-13.151-7.9543-19.76-7.9182-25.528 1.3517-38.374 46.009-19.266 56.158 9.8811 3.5834 19.566 2.548 30.069 0.8636 19.748-3.167 28.495-2.1697 39.035 2.7619l2.3548 1.1019m0 258.66s-1.7301-2.0366-1.7301-2.0366c-3.7282-4.3883-11.106-10.246-16.07-12.759-7.2499-3.6705-12.114-4.4094-27.264-4.1412-17.3 0.3064-26.768-12.424-19.544-26.281 4.5996-8.8229 20.314-12.1 32.317-6.7392 0 0 1.9852 0.8871 1.9852 0.8871l-2.1276-1.8969c-6.2856-5.6037-13.151-7.9543-19.76-7.9182-25.528 1.3517-38.374 46.009-19.266 56.158 9.8811 3.5834 19.566 2.548 30.069 0.8637 19.748-3.1671 28.495-2.1698 39.035 2.7618l2.3548 1.1019m-6.661 257.68s-1.3616-2.2994-1.3616-2.2994c-2.934-4.9544-9.425-11.59-13.976-14.793-6.6456-4.6764-11.462-5.6997-26.516-7.4277-17.19-1.9731-25.316-11.132-17.152-24.456 5.1985-8.4838 20.967-10.072 32.648-4.041 0 0 1.9318 0.998 1.9318 0.998l-2.0169-2.0143c-5.9584-5.9502-12.78-8.0717-19.384-8.3265-25.563 0.2268-41.261 33.552-23.976 46.564 9.1989 5.0849 18.926 5.5771 29.563 5.5563 20.001-0.039 28.546 2.1156 38.104 8.7555l2.135 1.4835m-111.82 227.09l0.1049-2.6703c0.2259-5.7536-1.7417-14.718-3.8809-19.855-3.1238-7.5017-6.3401-11.225-18.028-20.868-13.347-11.012-15.165-23.377-1.0452-30.071 8.9907-4.2622 22.656 3.4097 29.271 14.77 0 0 1.3276 1.5458 1.3276 1.5458l-0.8535-2.4488c-1.8311-8.2192-6.4116-13.68-11.844-17.445-21.679-13.548-52.516 5.5274-45.076 25.843 4.9595 9.2672 12.858 14.966 21.799 20.728 16.812 10.835 22.816 17.3 27.237 28.065l0.9876 2.405m-216.88 130.55l1.5301-2.1908c3.2968-4.7209 6.4691-13.294 7.4353-18.774 1.4108-8.0026 0.7077-12.872-3.9417-27.294-5.3092-16.468-0.2737-27.733 15.232-25.79 9.8727 1.2368 17.83 14.927 17.149 28.055l-0.113 2.1714 1.0039-2.6678c2.9653-7.8813 1.5252-14.787-1.0381-20.879-11.021-23.066-47.05-23.837-51.747-2.7178-0.8247 10.478 2.7505 19.538 7.1691 29.214 8.308 18.194 9.8798 26.867 7.7885 38.315l-0.4673 2.5574m-256.5 14.662l2.0367-1.7301c4.3882-3.7282 10.246-11.106 12.759-16.07 3.6706-7.2498 4.4095-12.114 4.1412-27.264-0.3063-17.3 12.424-26.768 26.281-19.544 8.8229 4.5996 12.1 20.314 6.7393 32.317l-0.8872 1.9852s1.897-2.1276 1.897-2.1276c5.6036-6.2855 7.9543-13.151 7.9181-19.76-1.3516-25.528-46.009-38.374-56.158-19.266-3.5834 9.8812-2.548 19.566-0.8636 30.069 3.167 19.748 2.1698 28.495-2.7619 39.036l-1.1019 2.3547m-258.66 0l2.0367-1.7301c4.3882-3.7282 10.246-11.106 12.759-16.07 3.6706-7.2498 4.4095-12.114 4.1412-27.264-0.3063-17.3 12.424-26.768 26.281-19.544 8.8229 4.5996 12.1 20.314 6.7392 32.317l-0.8871 1.9852s1.897-2.1276 1.897-2.1276c5.6036-6.2855 7.9543-13.151 7.9181-19.76-1.3516-25.528-46.009-38.374-56.158-19.266-3.5834 9.8812-2.548 19.566-0.8636 30.069 3.167 19.748 2.1698 28.495-2.7619 39.036l-1.1019 2.3547m-257.52-7.8973l2.3163-1.3327c4.9908-2.8718 11.702-9.2467 14.962-13.757 4.7593-6.5865 5.8407-11.374 7.7573-26.404 2.1886-17.164 11.442-25.096 24.662-16.765 8.4177 5.3048 9.807 21.108 3.6292 32.712l-1.0222 1.9191 2.0395-1.9913c6.0247-5.8831 8.2309-12.662 8.5688-19.262 0.095-25.564-31.882-41.493-45.323-24.538-5.3135 9.0688-6.0491 18.78-6.2946 29.415-0.4616 19.995-3.0262 28.416-9.7852 37.89 0 0-1.5101 2.1162-1.5101 2.1162m-225.2-115.5l2.6688 0.1369c5.7505 0.2947 14.87-1.4187 20.057-3.4342 7.5743-2.9431 11.106-6.3718 20.888-17.943 11.171-13.214 23.499-14.81 30.023-0.6107 4.1539 9.0413-3.2723 23.028-14.789 29.367l-1.9051 1.0482 2.7964-0.5526c8.2608-1.6329 13.397-6.4873 17.227-11.874 13.808-21.514-4.7811-52.728-25.185-45.531-9.3258 4.8482-14.616 13.112-20.591 21.912-11.234 16.547-17.957 22.23-28.774 26.522 0 0-2.4166 0.9587-2.4166 0.9587m-127.2-218.9l2.1717 1.5573c4.6795 3.3553 13.262 6.8298 18.717 7.9316 7.9652 1.6089 12.775 0.6166 27.253-3.8537 16.533-5.1046 27.648 0.092 25.514 15.572-1.3584 9.8567-15.162 17.65-28.281 16.808l-2.1698-0.1397 2.6552 1.0367c7.8442 3.062 14.733 1.7187 20.856-0.7696 23.2-10.737 24.758-45.632 3.7624-50.853-10.455-1.085-19.6 2.2638-29.384 6.4405-18.394 7.853-27.122 9.0025-38.543 6.7691l-2.5515-0.4992m-12.95-256.76l1.7301 2.0367c3.7282 4.3882 11.106 10.246 16.07 12.759 7.2498 3.6706 12.114 4.4095 27.264 4.1412 17.3-0.3063 26.767 12.424 19.544 26.281-4.5996 8.8229-20.314 12.1-32.317 6.7392 0 0-1.9852-0.8871-1.9852-0.8871l2.1276 1.897c6.2855 5.6036 13.151 7.9542 19.76 7.9181 25.528-1.3517 38.374-46.009 19.266-56.158-9.8812-3.5834-19.566-2.548-30.069-0.8636-19.748 3.167-28.495 2.1698-39.036-2.7619l-2.3547-1.1019m0-258.66l1.7301 2.0367c3.7282 4.3882 11.106 10.246 16.07 12.759 7.2498 3.6706 12.114 4.4095 27.264 4.1412 17.3-0.3063 26.767 12.424 19.544 26.281-4.5996 8.8229-20.314 12.1-32.317 6.7392 0 0-1.9852-0.8871-1.9852-0.8871l2.1276 1.897c6.2855 5.6036 13.151 7.9542 19.76 7.9181 25.528-1.3517 38.374-46.009 19.266-56.158-9.8812-3.5834-19.566-2.548-30.069-0.8636-19.748 3.167-28.495 2.1698-39.036-2.7619l-2.3547-1.1019m0-258.66l1.7301 2.0367c3.7282 4.3882 11.106 10.246 16.07 12.759 7.2498 3.6706 12.114 4.4095 27.264 4.1412 17.3-0.3063 26.767 12.424 19.544 26.281-4.5996 8.8229-20.314 12.1-32.317 6.7392 0 0-1.9852-0.8871-1.9852-0.8871l2.1276 1.897c6.2855 5.6036 13.151 7.9542 19.76 7.9181 25.528-1.3517 38.374-46.009 19.266-56.158-9.8812-3.5834-19.566-2.548-30.069-0.8636-19.748 3.167-28.495 2.1698-39.036-2.7619l-2.3547-1.1019m0-258.66l1.7301 2.0367c3.7282 4.3882 11.106 10.246 16.07 12.759 7.2498 3.6706 12.114 4.4095 27.264 4.1412 17.3-0.3063 26.767 12.424 19.544 26.281-4.5996 8.8229-20.314 12.1-32.317 6.7392 0 0-1.9852-0.8871-1.9852-0.8871l2.1276 1.897c6.2855 5.6036 13.151 7.9542 19.76 7.9181 25.528-1.3517 38.374-46.009 19.266-56.158-9.8812-3.5834-19.566-2.548-30.069-0.8636-19.748 3.167-28.495 2.1698-39.036-2.7619l-2.3547-1.1019m6.6609-257.68s1.3616 2.2994 1.3616 2.2994c2.9341 4.9545 9.4251 11.59 13.976 14.793 6.6455 4.6765 11.462 5.6998 26.516 7.4277 17.19 1.9731 25.316 11.132 17.152 24.456-5.1985 8.4838-20.968 10.072-32.648 4.041 0 0-1.9318-0.998-1.9318-0.998l2.0168 2.0143c5.9584 5.9502 12.78 8.0717 19.384 8.3265 25.563-0.2268 41.261-33.552 23.976-46.564-9.199-5.0848-18.926-5.577-29.563-5.5563-20.001 0.039-28.546-2.1156-38.104-8.7555l-2.135-1.4835m111.82-227.09l-0.105 2.6702c-0.2258 5.7537 1.7417 14.718 3.8809 19.855 3.1238 7.5016 6.3401 11.225 18.028 20.868 13.346 11.012 15.165 23.377 1.0452 30.071-8.9907 4.2622-22.656-3.4097-29.271-14.77 0 0-1.3275-1.5458-1.3275-1.5458l0.8535 2.4487c1.8311 8.2192 6.4115 13.68 11.844 17.445 21.679 13.548 52.516-5.5274 45.076-25.843-4.9596-9.2671-12.858-14.966-21.799-20.728-16.812-10.835-22.816-17.3-27.237-28.065l-0.9875-2.4049m216.88-130.55l-1.5302 2.1909c-3.2968 4.7208-6.4691 13.294-7.4352 18.774-1.4109 8.0026-0.7077 12.872 3.9417 27.294 5.3092 16.468 0.2737 27.733-15.232 25.79-9.8726-1.2368-17.829-14.927-17.149-28.055l0.113-2.1715-1.0039 2.6678c-2.9652 7.8814-1.5251 14.787 1.0381 20.879 11.021 23.066 47.05 23.837 51.747 2.7178 0.8247-10.478-2.7504-19.538-7.169-29.214-8.3081-18.193-9.8798-26.867-7.7886-38.315l0.4674-2.5574m253.66-19.478c0.2901-0.2877-9.1986-9.0406-13.1-12.084-31.323-24.435-62.279-25.963-91.599-4.5225-5.9132 4.3241-20.815 17.448-19.86 17.49 0.1569 0.01 2.1323-0.9876 4.3892-2.2098 17.412-9.4291 26.52-9.6876 48.208-1.3689 22.589 8.6639 39.381 10.434 59.507 6.2713 3.6801-0.7611 12.035-3.1601 12.455-3.5761m258.66 0c0.2901-0.2877-9.1986-9.0406-13.1-12.084-31.323-24.435-62.279-25.963-91.599-4.5225-5.9132 4.3241-20.815 17.448-19.86 17.49 0.1569 0.01 2.1323-0.9876 4.3892-2.2098 17.412-9.4291 26.52-9.6876 48.208-1.3689 22.589 8.6639 39.381 10.434 59.507 6.2713 3.6801-0.7611 12.035-3.1601 12.455-3.5761m258.44 7.4619c0.3375-0.2304-7.6819-10.495-11.06-14.112-27.115-29.033-64.1-31.397-93.42-9.9568-5.9132 4.3241-20.815 17.448-19.86 17.49 0.1569 0.01 2.1323-0.9876 4.3892-2.2098 17.412-9.4291 26.754-9.9597 48.282-1.2334 22.421 9.0884 38.268 12.441 58.797 11.478 3.7539-0.1761 12.384-1.1235 12.872-1.4567m228.48 115.14c0.4085-0.01-0.8294-13.076-1.758-17.936-7.4549-39.02-37.962-62.531-74.086-58.743-7.2855 0.7639-27.075 5.1246-26.246 5.6019 0.1362 0.078 2.3678 0.1021 4.9343 0.087 19.8-0.115 29.114 4.7076 42.328 23.812 13.763 19.897 25.354 31.313 43.234 41.446 3.2695 1.8529 11.003 5.7476 11.593 5.7324m129.92 220.41c0.3493 0.2119 6.375-11.334 8.2708-15.905 15.218-36.695 1.8746-73.537-30.655-89.696-6.5607-3.259-25.503-10.238-25.059-9.3906 0.073 0.1391 1.9189 1.3695 4.0939 2.7322 16.78 10.512 21.841 19.695 22.742 42.907 0.9394 24.175 4.5864 39.945 13.954 58.237 1.713 3.3449 6.1481 10.809 6.6533 11.116m13.782 257.84c0.2877 0.2901 9.0406-9.1986 12.084-13.101 24.435-31.323 25.963-62.279 4.5225-91.599-4.3241-5.9131-17.448-20.815-17.49-19.86-0.01 0.157 0.9876 2.1324 2.2098 4.3893 9.4291 17.412 9.6876 26.52 1.3689 48.208-8.6639 22.589-10.434 39.381-6.2713 59.507 0.7611 3.6802 3.1601 12.035 3.5761 12.455m0 258.66c0.2877 0.2901 9.0406-9.1986 12.084-13.101 24.435-31.323 25.963-62.279 4.5225-91.599-4.3241-5.9131-17.448-20.815-17.49-19.86-0.01 0.157 0.9876 2.1324 2.2098 4.3893 9.4291 17.412 9.6876 26.52 1.3689 48.208-8.6639 22.589-10.434 39.381-6.2713 59.507 0.7611 3.6802 3.1601 12.035 3.5761 12.455m0 258.66c0.2877 0.2901 9.0406-9.1986 12.084-13.1 24.435-31.323 25.963-62.279 4.5225-91.599-4.3241-5.9131-17.448-20.815-17.49-19.86-0.01 0.157 0.9876 2.1324 2.2098 4.3893 9.4291 17.412 9.6876 26.52 1.3689 48.208-8.6639 22.589-10.434 39.381-6.2713 59.507 0.7611 3.6802 3.1601 12.035 3.5761 12.455m0 258.66c0.2877 0.2901 9.0406-9.1986 12.084-13.1 24.435-31.323 25.963-62.279 4.5225-91.599-4.3241-5.9131-17.448-20.815-17.49-19.86-0.01 0.157 0.9876 2.1324 2.2098 4.3893 9.4291 17.412 9.6876 26.52 1.3689 48.208-8.6639 22.589-10.434 39.381-6.2713 59.507 0.7611 3.6802 3.1601 12.035 3.5761 12.455m-6.2501 258.53c0.2346 0.3345 10.421-7.9409 13.952-11.408 28.344-27.834 30.346-63.842 8.9053-93.161-4.3241-5.9132-17.448-20.815-17.49-19.86-0.01 0.157 0.9876 2.1324 2.2098 4.3893 9.4291 17.412 9.7981 26.597 1.3434 48.233-8.8057 22.534-12.055 38.48-10.577 58.978 0.2702 3.7483 1.3183 12.346 1.6575 12.829m-111.57 230.23c0.02 0.4081 13.014-1.0111 17.863-1.998 38.928-7.9219 62.358-39.137 57.695-75.158-0.9405-7.2649-5.6111-26.849-6.0782-26.015-0.077 0.1371-0.076 2.3487 0 4.9141 0.5968 19.792-4.3721 29.009-23.152 42.68-19.559 14.239-30.869 25.891-40.787 43.891-1.8135 3.2914-5.5713 11.096-5.542 11.686m-218.39 133.34c-0.2075 0.352 11.535 6.1954 16.152 7.9772 37.062 14.303 73.277 0.7487 89.039-31.975 3.1789-6.5998 9.8903-25.69 9.0488-25.236-0.1383 0.075-1.3367 1.9514-2.6729 4.1428-10.308 16.906-19.352 22.225-42.551 23.411-24.162 1.2354-39.968 5.038-58.023 14.857-3.3013 1.7954-10.693 6.3144-10.993 6.8234m-257.63 15.543c-0.2902 0.2876 9.1986 9.0406 13.1 12.084 31.323 24.435 62.279 25.963 91.599 4.5225 5.9132-4.3241 20.815-17.448 19.86-17.49-0.157-0.01-2.1323 0.9876-4.3892 2.2098-17.412 9.4291-26.52 9.6876-48.208 1.369-22.589-8.6639-39.381-10.434-59.507-6.2714-3.6801 0.7611-12.035 3.1601-12.455 3.5762m-258.66 0c-0.2902 0.2876 9.1986 9.0406 13.1 12.084 31.323 24.435 62.279 25.963 91.599 4.5225 5.9132-4.3241 20.815-17.448 19.86-17.49-0.157-0.01-2.1323 0.9876-4.3892 2.2098-17.412 9.4291-26.52 9.6876-48.208 1.369-22.589-8.6639-39.381-10.434-59.507-6.2714-3.6801 0.7611-12.035 3.1601-12.455 3.5762m-258.44-7.462c-0.3374 0.2304 7.682 10.495 11.06 14.112 27.115 29.033 64.1 31.397 93.42 9.9568 5.9132-4.3241 20.815-17.448 19.86-17.49-0.157-0.01-2.1323 0.9876-4.3892 2.2098-17.412 9.4291-26.754 9.9598-48.282 1.2335-22.421-9.0885-38.268-12.441-58.797-11.478-3.7539 0.1761-12.384 1.1235-12.872 1.4566m-228.48-115.14c-0.4084 0.01 0.8294 13.076 1.7581 17.936 7.4549 39.02 37.962 62.531 74.086 58.743 7.2856-0.7639 27.075-5.1245 26.246-5.6018-0.1361-0.079-2.3677-0.1022-4.9343-0.087-19.8 0.115-29.114-4.7075-42.328-23.812-13.763-19.897-25.354-31.313-43.234-41.446-3.2694-1.8529-11.003-5.7477-11.593-5.7325m-130-220.2c-0.3494-0.2119-6.3751 11.334-8.2709 15.905-15.218 36.695-1.8746 73.537 30.655 89.696 6.5606 3.259 25.503 10.238 25.059 9.3907-0.073-0.1392-1.919-1.3696-4.094-2.7322-16.78-10.512-21.84-19.695-22.742-42.907-0.9393-24.175-4.5863-39.945-13.954-58.237-1.7129-3.3449-6.148-10.809-6.6532-11.116m-13.782-257.84c-0.2877-0.2902-9.0406 9.1986-12.084 13.1-24.435 31.323-25.963 62.279-4.5224 91.599 4.3241 5.9132 17.448 20.815 17.49 19.86 0.01-0.157-0.9876-2.1323-2.2098-4.3893-9.4291-17.412-9.6876-26.519-1.369-48.208 8.6639-22.589 10.434-39.381 6.2714-59.507-0.7611-3.6802-3.1601-12.035-3.5762-12.455m0-258.66c-0.2877-0.2901-9.0406 9.1987-12.084 13.101-24.435 31.323-25.963 62.279-4.5224 91.599 4.3241 5.9132 17.448 20.815 17.49 19.86 0.01-0.157-0.9876-2.1323-2.2098-4.3893-9.4291-17.412-9.6876-26.519-1.369-48.208 8.6639-22.589 10.434-39.381 6.2714-59.507-0.7611-3.6802-3.1601-12.035-3.5762-12.455m0-258.66c-0.2877-0.2901-9.0406 9.1987-12.084 13.101-24.435 31.323-25.963 62.279-4.5224 91.599 4.3241 5.9132 17.448 20.815 17.49 19.86 0.01-0.157-0.9876-2.1323-2.2098-4.3893-9.4291-17.412-9.6876-26.519-1.369-48.208 8.6639-22.589 10.434-39.381 6.2714-59.507-0.7611-3.6802-3.1601-12.035-3.5762-12.455m0-258.66c-0.2877-0.2901-9.0406 9.1987-12.084 13.101-24.435 31.323-25.963 62.279-4.5224 91.599 4.3241 5.9132 17.448 20.815 17.49 19.86 0.01-0.157-0.9876-2.1324-2.2098-4.3893-9.4291-17.412-9.6876-26.519-1.369-48.208 8.6639-22.589 10.434-39.381 6.2714-59.507-0.7611-3.6802-3.1601-12.035-3.5762-12.455m6.2501-258.53c-0.2346-0.3345-10.421 7.9409-13.952 11.408-28.344 27.834-30.346 63.842-8.9052 93.161 4.3241 5.9132 17.448 20.815 17.49 19.86 0.01-0.157-0.9876-2.1324-2.2098-4.3893-9.4291-17.412-9.7982-26.597-1.3434-48.233 8.8057-22.534 12.054-38.48 10.577-58.978-0.2701-3.7483-1.3182-12.346-1.6575-12.829m111.57-230.23c-0.02-0.4081-13.014 1.0111-17.863 1.998-38.928 7.922-62.358 39.137-57.695 75.158 0.9404 7.2649 5.611 26.849 6.0782 26.015 0.077-0.1371 0.076-2.3486 0-4.9141-0.5968-19.792 4.372-29.009 23.152-42.68 19.559-14.239 30.869-25.891 40.787-43.891 1.8136-3.2915 5.5714-11.096 5.5421-11.686m218.39-133.34c0.2075-0.352-11.535-6.1954-16.152-7.9772-37.062-14.303-73.277-0.7487-89.039 31.975-3.179 6.5998-9.8904 25.69-9.0489 25.236 0.1383-0.075 1.3368-1.9514 2.6729-4.1427 10.308-16.906 19.352-22.225 42.551-23.411 24.162-1.2354 39.968-5.038 58.023-14.857 3.3014-1.7954 10.693-6.3145 10.993-6.8235m256.37-11.182c0.019-0.2088-1.4431 0.1898-5.0342 1.3456-22.763 7.3265-40.976 5.8392-67.257-5.4933-17.618-7.5972-25.655-8.4724-38.057-4.1438-11.115 3.8795-18.462 9.2431-26.203 19.129l-1.0327 1.3192 3.1503-1.7969c13.227-7.5447 23.627-9.2819 34.2-5.7121 6.0427 2.0403 8.5519 3.3972 27.377 14.804 21.33 12.925 32.619 10.803 62.678-11.782 4.8623-3.6531 9.3336-6.9973 9.9359-7.4312 0.1541-0.1111 0.2372-0.1914 0.2415-0.2395m258.66 0c0.019-0.2088-1.4431 0.1898-5.0342 1.3456-22.763 7.3265-40.976 5.8392-67.257-5.4933-17.618-7.5972-25.655-8.4724-38.057-4.1438-11.115 3.8795-18.462 9.2431-26.203 19.129l-1.0327 1.3192 3.1503-1.7969c13.227-7.5447 23.627-9.2819 34.2-5.7121 6.0427 2.0403 8.5519 3.3972 27.377 14.804 21.33 12.925 32.619 10.803 62.678-11.782 4.8623-3.6531 9.3336-6.9973 9.9359-7.4312 0.1541-0.1111 0.2372-0.1914 0.2415-0.2395m257.67 7.162c0.056-0.2019-1.4145-0.06-5.1491 0.4732-23.673 3.3795-40.073 0.1483-66.134-11.678-17.471-7.9281-25.674-8.5774-38.076-4.2488-11.115 3.8795-18.462 9.2431-26.203 19.129l-1.0327 1.3192 3.1503-1.7969c13.227-7.5447 23.627-9.2819 34.2-5.7121 6.0427 2.0403 8.3444 3.1341 26.951 14.894 21.083 13.325 27.912 11.131 61.133-6.4738 5.3739-2.8476 10.209-5.3971 10.88-5.7147 0.1716-0.081 0.2679-0.1452 0.2809-0.1918m226.6 113.39c0.1568-0.1391-1.1623-0.8132-4.5881-2.393-21.715-10.014-33.709-21.589-49.304-45.585-10.455-16.087-17.593-21.329-30.546-23.51-11.609-1.9553-20.591-0.4529-31.883 5.0372l-1.3435 0.8231 3.456-0.3237c15.196-0.9798 24.819 2.3126 32.163 10.715 4.197 4.8022 5.2571 6.6627 14.606 26.59 10.593 22.579 17.389 24.283 54.844 27.555 6.0586 0.5294 11.548 1.0394 12.285 1.1276 0.1887 0.023 0.2753 0 0.3115-0.037m129.29 217.94c0.2071-0.032-0.5314-1.3125-2.5618-4.492-12.87-20.154-16.867-36.389-16.808-65.008 0.039-19.186-3.3252-27.364-12.986-36.264-8.6582-7.9771-17.059-11.538-29.534-12.956l-1.6646-0.189 3.1804 1.7429c13.354 7.3175 19.651 15.239 21.214 26.288 0.8934 6.3149 0.9423 8.3623-2.1225 30.16-3.4727 24.698 1.5169 30.036 31.286 53.001 4.8154 3.7148 9.1392 7.062 9.706 7.5413 0.145 0.1226 0.243 0.1838 0.2908 0.1763m13.957 256.75c0.2088 0.019-0.1898-1.4431-1.3456-5.0342-7.3265-22.763-5.8392-40.976 5.4933-67.257 7.5972-17.618 8.4724-25.655 4.1438-38.057-3.8795-11.115-9.2431-18.462-19.129-26.203l-1.3192-1.0327 1.7969 3.1503c7.5447 13.227 9.2819 23.627 5.7121 34.2-2.0403 6.0427-3.3972 8.5518-14.804 27.377-12.925 21.33-10.803 32.619 11.782 62.678 3.6531 4.8623 6.9973 9.3336 7.4312 9.9359 0.1111 0.1541 0.1914 0.2371 0.2395 0.2415m0 258.66c0.2088 0.019-0.1898-1.4431-1.3456-5.0342-7.3265-22.763-5.8392-40.976 5.4933-67.257 7.5972-17.618 8.4724-25.655 4.1438-38.057-3.8795-11.115-9.2431-18.462-19.129-26.203l-1.3192-1.0327 1.7969 3.1503c7.5447 13.227 9.2819 23.627 5.7121 34.2-2.0403 6.0427-3.3972 8.5518-14.804 27.377-12.925 21.33-10.803 32.619 11.782 62.678 3.6531 4.8623 6.9973 9.3336 7.4312 9.9359 0.1111 0.1541 0.1914 0.2371 0.2395 0.2415m0 258.66c0.2088 0.019-0.1898-1.4431-1.3456-5.0342-7.3265-22.763-5.8392-40.976 5.4933-67.257 7.5972-17.618 8.4724-25.655 4.1438-38.057-3.8795-11.115-9.2431-18.462-19.129-26.203l-1.3192-1.0327 1.7969 3.1503c7.5447 13.227 9.2819 23.627 5.7121 34.2-2.0403 6.0427-3.3972 8.5518-14.804 27.377-12.925 21.33-10.803 32.619 11.782 62.678 3.6531 4.8623 6.9973 9.3336 7.4312 9.9359 0.1111 0.1541 0.1914 0.2371 0.2395 0.2415m0 258.66c0.2088 0.019-0.1898-1.4431-1.3456-5.0342-7.3265-22.763-5.8392-40.976 5.4933-67.257 7.5972-17.618 8.4724-25.655 4.1438-38.057-3.8795-11.115-9.2431-18.462-19.129-26.203l-1.3192-1.0327 1.7969 3.1503c7.5447 13.227 9.2819 23.627 5.7121 34.2-2.0403 6.0427-3.3972 8.5518-14.804 27.377-12.925 21.33-10.803 32.619 11.782 62.678 3.6531 4.8623 6.9973 9.3336 7.4312 9.9359 0.1111 0.1541 0.1914 0.2371 0.2395 0.2415m-5.9875 257.85c0.2033 0.051 0.038-1.4551-0.5416-5.1827-3.6758-23.628-0.8361-40.083 10.661-66.291 7.7077-17.57 8.4879-25.662 4.1593-38.063-3.8795-11.115-9.2431-18.462-19.129-26.203l-1.3192-1.0327 1.7969 3.1503c7.5447 13.227 9.2819 23.627 5.7121 34.2-2.0403 6.0427-3.2905 8.4822-14.816 27.236-13.059 21.249-10.609 28.061 7.4101 61.059 2.9148 5.3377 5.533 10.189 5.8674 10.852 0.086 0.1695 0.1518 0.2641 0.1987 0.276m-109.88 228.32c0.1428 0.1535 0.8198-1.1507 2.3171-4.6133 9.4909-21.948 21.033-34.145 44.84-50.029 15.96-10.648 21.002-17.916 23.027-30.895 1.8141-11.632 0.186-20.551-5.5783-31.705l-0.7691-1.4883 0.3826 3.4595c1.1652 15.183-1.9113 24.896-10.224 32.341-4.7509 4.2549-6.5182 5.3854-26.332 14.974-22.45 10.865-24.43 17.875-26.805 55.398-0.3841 6.0696-0.796 11.48-0.8753 12.218-0.02 0.1889-0.016 0.3043 0.017 0.3397m-215.91 132.65c0.037 0.2062 1.3132-0.5136 4.4413-2.6224 19.828-13.367 36.174-17.195 64.786-17.838 19.181-0.4304 27.428-3.689 36.091-13.563 7.7645-8.8494 11.229-17.245 12.496-29.736l0.013-1.5684-1.5485 3.1029c-7.1556 13.441-15.047 19.845-26.054 21.677-6.2912 1.0469-8.4469 0.927-30.313-1.6034-24.775-2.867-29.695 1.9711-52.289 32.023-3.6548 4.8611-6.9889 9.2544-7.4539 9.8329-0.119 0.1481-0.1777 0.2476-0.1691 0.2952m-256.44 15.717c-0.019 0.2087 1.4431-0.1899 5.0342-1.3457 22.763-7.3265 40.976-5.8391 67.257 5.4934 17.618 7.5971 25.655 8.4723 38.057 4.1438 11.115-3.8796 18.462-9.2432 26.203-19.129l0.9368-1.3187-3.0544 1.7964c-13.227 7.5447-23.628 9.2819-34.2 5.7121-6.0427-2.0402-8.5518-3.3972-27.377-14.804-21.33-12.925-32.619-10.803-62.678 11.782-4.8623 3.6532-9.3337 6.9973-9.9359 7.4313-0.1541 0.111-0.2372 0.1913-0.2415 0.2395m-258.66 0c-0.019 0.2087 1.4431-0.1899 5.0342-1.3457 22.763-7.3265 40.976-5.8391 67.257 5.4934 17.618 7.5971 25.655 8.4723 38.057 4.1438 11.115-3.8796 18.462-9.2432 26.203-19.129l1.0327-1.3191-3.1503 1.7968c-13.227 7.5447-23.628 9.2819-34.2 5.7121-6.0427-2.0402-8.5518-3.3972-27.377-14.804-21.33-12.925-32.619-10.803-62.678 11.782-4.8623 3.6532-9.3337 6.9973-9.9359 7.4313-0.1541 0.111-0.2372 0.1913-0.2415 0.2395m-257.67-7.162c-0.056 0.2019 1.4144 0.06 5.1491-0.4732 23.672-3.3796 40.073-0.1484 66.134 11.678 17.471 7.9282 25.674 8.5774 38.076 4.2489 11.115-3.8796 18.462-9.2432 26.203-19.129l1.0327-1.3191-3.1503 1.7968c-13.227 7.5447-23.628 9.2819-34.2 5.7121-6.0427-2.0402-8.3443-3.1341-26.951-14.894-21.083-13.325-27.912-11.131-61.133 6.4738-5.3738 2.8477-10.209 5.3971-10.879 5.7148-0.1717 0.081-0.2679 0.1452-0.2809 0.1918m-226.6-113.39c-0.1568 0.139 1.1623 0.8131 4.5881 2.393 21.715 10.014 33.709 21.588 49.304 45.585 10.455 16.087 17.593 21.329 30.546 23.51 11.609 1.9553 20.591 0.4528 31.883-5.0373l1.3435-0.8231-3.4561 0.3237c-15.196 0.9799-24.819-2.3125-32.163-10.715-4.197-4.8022-5.2571-6.6627-14.606-26.59-10.593-22.579-17.389-24.283-54.844-27.556-6.0586-0.5294-11.548-1.0394-12.285-1.1276-0.1886-0.023-0.2752 0-0.3114 0.037m-129.29-217.94c-0.2071 0.032 0.5314 1.3125 2.5619 4.492 12.87 20.154 16.867 36.389 16.808 65.008-0.039 19.186 3.3253 27.364 12.986 36.264 8.6582 7.9771 17.059 11.538 29.534 12.956l1.6645 0.189-3.1804-1.7429c-13.354-7.3175-19.651-15.239-21.214-26.288-0.8935-6.3149-0.9424-8.3624 2.1225-30.16 3.4727-24.698-1.517-30.036-31.286-53.001-4.8153-3.7148-9.1391-7.062-9.7059-7.5413-0.1451-0.1227-0.2431-0.1838-0.2909-0.1764m-13.957-256.75c-0.2087-0.019 0.1899 1.4431 1.3457 5.0342 7.3264 22.763 5.8391 40.976-5.4934 67.257-7.5971 17.618-8.4723 25.655-4.1438 38.057 3.8796 11.115 9.2432 18.462 19.129 26.203l1.3191 1.0326s-1.7968-3.1502-1.7968-3.1502c-7.5448-13.227-9.2819-23.628-5.7121-34.2 2.0402-6.0427 3.3971-8.5518 14.804-27.377 12.925-21.33 10.803-32.619-11.782-62.678-3.6532-4.8624-6.9974-9.3337-7.4313-9.9359-0.111-0.1541-0.1913-0.2372-0.2395-0.2416m0-258.66c-0.2087-0.019 0.1899 1.4431 1.3457 5.0342 7.3264 22.763 5.8391 40.976-5.4934 67.257-7.5971 17.618-8.4723 25.655-4.1438 38.057 3.8796 11.115 9.2432 18.462 19.129 26.203l1.3191 1.0326s-1.7968-3.1502-1.7968-3.1502c-7.5448-13.227-9.2819-23.628-5.7121-34.2 2.0402-6.0427 3.3971-8.5518 14.804-27.377 12.925-21.33 10.803-32.619-11.782-62.678-3.6532-4.8624-6.9974-9.3337-7.4313-9.9359-0.111-0.1541-0.1913-0.2372-0.2395-0.2416m0-258.66c-0.2087-0.019 0.1899 1.4431 1.3457 5.0342 7.3264 22.763 5.8391 40.976-5.4934 67.257-7.5971 17.618-8.4723 25.655-4.1438 38.057 3.8796 11.115 9.2432 18.462 19.129 26.203l1.3191 1.0326s-1.7968-3.1502-1.7968-3.1502c-7.5448-13.227-9.2819-23.628-5.7121-34.2 2.0402-6.0427 3.3971-8.5518 14.804-27.377 12.925-21.33 10.803-32.619-11.782-62.678-3.6532-4.8624-6.9974-9.3337-7.4313-9.9359-0.111-0.1541-0.1913-0.2372-0.2395-0.2416m0-258.66c-0.2087-0.019 0.1899 1.4431 1.3457 5.0342 7.3264 22.763 5.8391 40.976-5.4934 67.257-7.5971 17.618-8.4723 25.655-4.1438 38.057 3.8796 11.115 9.2432 18.462 19.129 26.203l1.3191 1.0326s-1.7968-3.1502-1.7968-3.1502c-7.5448-13.227-9.2819-23.628-5.7121-34.2 2.0402-6.0427 3.3971-8.5518 14.804-27.377 12.925-21.33 10.803-32.619-11.782-62.678-3.6532-4.8623-6.9974-9.3336-7.4313-9.9358-0.111-0.1541-0.1913-0.2372-0.2395-0.2416m5.9875-257.85c-0.2032-0.051-0.038 1.455 0.5417 5.1826 3.6757 23.628 0.8361 40.083-10.661 66.291-7.7078 17.57-8.4879 25.662-4.1594 38.063 3.8796 11.115 9.2432 18.462 19.129 26.203l1.3191 1.0327-1.7968-3.1503c-7.5448-13.227-9.2819-23.627-5.7121-34.2 2.0402-6.0427 3.2905-8.4822 14.816-27.236 13.059-21.249 10.609-28.061-7.4101-61.059-2.9148-5.3378-5.5329-10.189-5.8673-10.852-0.086-0.1696-0.1519-0.2642-0.1988-0.276m109.88-228.32c-0.1428-0.1534-0.8197 1.1507-2.317 4.6133-9.491 21.948-21.033 34.145-44.84 50.029-15.96 10.648-21.003 17.916-23.027 30.895-1.8141 11.632-0.186 20.551 5.5782 31.705l0.7692 1.4882-0.3826-3.4594c-1.1653-15.183 1.9112-24.896 10.224-32.341 4.751-4.255 6.5182-5.3855 26.332-14.974 22.45-10.865 24.43-17.875 26.805-55.398 0.384-6.0696 0.7959-11.48 0.8753-12.218 0.02-0.1888 0.016-0.3043-0.017-0.3397m215.91-132.65c-0.038-0.2063-1.3133 0.5136-4.4414 2.6223-19.828 13.367-36.174 17.195-64.786 17.838-19.181 0.4305-27.428 3.689-36.091 13.563-7.7645 8.8493-11.229 17.244-12.496 29.736 0 0-0.013 1.5685-0.013 1.5685l1.5485-3.103c7.1555-13.441 15.046-19.845 26.054-21.677 6.2913-1.0469 8.447-0.9269 30.313 1.6034 24.775 2.8671 29.695-1.9711 52.289-32.023 3.6547-4.861 6.9888-9.2544 7.4539-9.8329 0.119-0.148 0.1777-0.2475 0.1691-0.2951"/>
</g>
</svg>
