<?xml version="1.0" standalone="yes"?>

<svg version="1.1" viewBox="0.0 0.0 296.0 310.0" fill="none" stroke="none" stroke-linecap="square" stroke-miterlimit="10" xmlns="http://www.w3.org/2000/svg" xmlns:xlink="http://www.w3.org/1999/xlink"><clipPath id="p.0"><path d="m0 0l296.0 0l0 310.0l-296.0 0l0 -310.0z" clip-rule="nonzero"></path></clipPath><g clip-path="url(#p.0)"><path fill="#000000" fill-opacity="0.0" d="m0 0l296.15747 0l0 310.6063l-296.15747 0z" fill-rule="nonzero"></path><path fill="#000000" d="m0 151.98425l0 0c0 -83.93858 65.6414 -151.98425 146.61417 -151.98425l0 0c38.884506 0 76.17639 16.01258 103.67189 44.515156c27.495499 28.502575 42.942276 67.16037 42.942276 107.4691l0 0c0 83.93858 -65.64139 151.98425 -146.61417 151.98425l0 0c-80.97276 0 -146.61417 -68.04567 -146.61417 -151.98425z" fill-rule="nonzero"></path><path stroke="#000000" stroke-width="2.0" stroke-linejoin="round" stroke-linecap="butt" d="m0 151.98425l0 0c0 -83.93858 65.6414 -151.98425 146.61417 -151.98425l0 0c38.884506 0 76.17639 16.01258 103.67189 44.515156c27.495499 28.502575 42.942276 67.16037 42.942276 107.4691l0 0c0 83.93858 -65.64139 151.98425 -146.61417 151.98425l0 0c-80.97276 0 -146.61417 -68.04567 -146.61417 -151.98425z" fill-rule="nonzero"></path><path fill="#ffffff" d="m85.97113 145.07349l0 0c0 -18.229744 7.558281 -33.007866 16.88189 -33.007866l0 0c4.477356 0 8.771332 3.4776 11.937294 9.667778c3.1659698 6.190178 4.9445953 14.585861 4.9445953 23.340088l0 0c0 18.229752 -7.558281 33.007874 -16.88189 33.007874l0 0c-9.323608 0 -16.88189 -14.778122 -16.88189 -33.007874z" fill-rule="nonzero"></path><path stroke="#000000" stroke-width="2.0" stroke-linejoin="round" stroke-linecap="butt" d="m85.97113 145.07349l0 0c0 -18.229744 7.558281 -33.007866 16.88189 -33.007866l0 0c4.477356 0 8.771332 3.4776 11.937294 9.667778c3.1659698 6.190178 4.9445953 14.585861 4.9445953 23.340088l0 0c0 18.229752 -7.558281 33.007874 -16.88189 33.007874l0 0c-9.323608 0 -16.88189 -14.778122 -16.88189 -33.007874z" fill-rule="nonzero"></path><path fill="#ffffff" d="m169.51706 145.07349l0 0c0 -18.229744 7.5582733 -33.007866 16.881897 -33.007866l0 0c4.477356 0 8.771317 3.4776 11.937286 9.667778c3.1659698 6.190178 4.9445953 14.585861 4.9445953 23.340088l0 0c0 18.229752 -7.5582733 33.007874 -16.881882 33.007874l0 0c-9.323624 0 -16.881897 -14.778122 -16.881897 -33.007874z" fill-rule="nonzero"></path><path stroke="#000000" stroke-width="2.0" stroke-linejoin="round" stroke-linecap="butt" d="m169.51706 145.07349l0 0c0 -18.229744 7.5582733 -33.007866 16.881897 -33.007866l0 0c4.477356 0 8.771317 3.4776 11.937286 9.667778c3.1659698 6.190178 4.9445953 14.585861 4.9445953 23.340088l0 0c0 18.229752 -7.5582733 33.007874 -16.881882 33.007874l0 0c-9.323624 0 -16.881897 -14.778122 -16.881897 -33.007874z" fill-rule="nonzero"></path><path fill="#ffffff" d="m62.70178 129.66904l0 0c-7.0622864 -9.532341 -0.11741257 -26.665382 15.511814 -38.267715c15.629219 -11.602325 34.024323 -13.280373 41.08661 -3.7480316l0 0c-10.70546 -0.4733734 -23.558678 4.11248 -34.69291 12.37796c-11.134232 8.265472 -19.2499 19.245842 -21.905514 29.637787z" fill-rule="nonzero"></path><path stroke="#000000" stroke-width="2.0" stroke-linejoin="round" stroke-linecap="butt" d="m62.70178 129.66904l0 0c-7.0622864 -9.532341 -0.11741257 -26.665382 15.511814 -38.267715c15.629219 -11.602325 34.024323 -13.280373 41.08661 -3.7480316l0 0c-10.70546 -0.4733734 -23.558678 4.11248 -34.69291 12.37796c-11.134232 8.265472 -19.2499 19.245842 -21.905514 29.637787z" fill-rule="nonzero"></path><path fill="#ffffff" d="m170.57584 90.7186l0 0c6.2099457 -10.088974 24.682602 -10.004372 41.259842 0.1889801c16.57724 10.193352 24.981598 26.63543 18.771652 36.72441l0 0c-3.5466003 -10.106934 -12.584106 -20.328827 -24.393707 -27.590553c-11.809586 -7.2617264 -25.012878 -10.715698 -35.637787 -9.322838z" fill-rule="nonzero"></path><path stroke="#000000" stroke-width="2.0" stroke-linejoin="round" stroke-linecap="butt" d="m170.57584 90.7186l0 0c6.2099457 -10.088974 24.682602 -10.004372 41.259842 0.1889801c16.57724 10.193352 24.981598 26.63543 18.771652 36.72441l0 0c-3.5466003 -10.106934 -12.584106 -20.328827 -24.393707 -27.590553c-11.809586 -7.2617264 -25.012878 -10.715698 -35.637787 -9.322838z" fill-rule="nonzero"></path><path fill="#ffffff" d="m75.25984 250.27286l0 0c0.01739502 -24.631027 31.970871 -44.59842 71.37009 -44.59842c39.3992 0 71.32448 19.967392 71.30708 44.59842l0 0c-16.830841 -14.037674 -43.254913 -22.29921 -71.322845 -22.29921c-28.067917 0 -54.503654 8.261536 -71.354324 22.29921z" fill-rule="nonzero"></path><path stroke="#000000" stroke-width="2.0" stroke-linejoin="round" stroke-linecap="butt" d="m75.25984 250.27286l0 0c0.01739502 -24.631027 31.970871 -44.59842 71.37009 -44.59842c39.3992 0 71.32448 19.967392 71.30708 44.59842l0 0c-16.830841 -14.037674 -43.254913 -22.29921 -71.322845 -22.29921c-28.067917 0 -54.503654 8.261536 -71.354324 22.29921z" fill-rule="nonzero"></path></g></svg>

