<?xml version="1.0" standalone="yes"?>
<svg xmlns="http://www.w3.org/2000/svg" xmlns:xlink="http://www.w3.org/1999/xlink" xmlns:svg="http://www.w3.org/2000/svg" xmlns:dc="http://purl.org/dc/elements/1.1/" xmlns:cc="http://web.resource.org/cc/" xmlns:rdf="http://www.w3.org/1999/02/22-rdf-syntax-ns#" width="500" height="511">
<path style="fill:#ffffff; stroke:none;" d="M0 0L0 511L500 511L500 0L0 0z"/>
<path style="fill:#e4b06b; stroke:none;" d="M75 17L75 18L88 18L75 17z"/>
<path style="fill:#eba995; stroke:none;" d="M68 18L68 19L72 19L68 18z"/>
<path style="fill:#f17d03; stroke:none;" d="M84 62L84 61C64.2151 61 46.0382 44.0135 67.0895 28.0432C77.8698 19.8649 87.5576 21.4193 100 23C85.8954 9.60483 53.7782 20.1412 45.8488 36C37.7104 52.2766 51.9242 66.6635 68 65.9606C73.5334 65.7187 78.8545 63.9179 84 62z"/>
<path style="fill:#f4d5a1; stroke:none;" d="M91.6667 18.3333L92.3333 18.6667L91.6667 18.3333z"/>
<path style="fill:#e4b06b; stroke:none;" d="M93 19L93 20L96 20L93 19z"/>
<path style="fill:#da9163; stroke:none;" d="M80 21L80 22L91 22L80 21z"/>
<path style="fill:#f4d5a1; stroke:none;" d="M59 22L59 23L62 23L59 22M91 22L91 23L97 23L91 22M99 24L102 22L99 24M74.6667 23.3333L75.3333 23.6667L74.6667 23.3333z"/>
<path style="fill:#9e8b6c; stroke:none;" d="M245 32L245 33L264 33L245 32z"/>
<path style="fill:#b3c8d8; stroke:none;" d="M81 33L81 34L89 34L81 33z"/>
<path style="fill:#cec7b5; stroke:none;" d="M237 33L237 34L240 34L237 33z"/>
<path style="fill:#55271a; stroke:none;" d="M189 65L198 59L196 64L201 64L201 65L191 71L191 75C186.593 76.5995 180.239 84.5118 183 89C194.852 73.2836 210.464 56.3394 229.015 48.6713C259.361 36.1276 298.67 48.4338 320.169 71.76C327.31 79.5082 333.952 90.2191 337.796 100C340.194 106.103 340.196 114.318 345 119C341.423 89.8799 330.313 64.2336 305 47.0926C276.637 27.8869 236.16 27.351 208 46.885C201.043 51.7106 192.662 57.1478 189 65z"/>
<path style="fill:#958c8e; stroke:none;" d="M270.667 33.3333L271.333 33.6667L270.667 33.3333z"/>
<path style="fill:#0389e5; stroke:none;" d="M74 38C86.6621 41.0075 91.7143 52.2721 103 57.1196C114.998 62.2733 121.999 57.2987 122 45C118.125 46.2238 114.179 49.4155 110 47.8665C101.336 44.6555 84.0252 22.8876 74 38z"/>
<path style="fill:#b3c8d8; stroke:none;" d="M90.6667 34.3333L91.3333 34.6667L90.6667 34.3333z"/>
<path style="fill:#8d7652; stroke:none;" d="M274 34L274 35L277 35L274 34z"/>
<path style="fill:#f4d5a1; stroke:none;" d="M59.3333 35.6667L59.6667 36.3333L59.3333 35.6667z"/>
<path style="fill:#b3c8d8; stroke:none;" d="M93.6667 35.3333L94.3333 35.6667L93.6667 35.3333z"/>
<path style="fill:#958c8e; stroke:none;" d="M230.667 35.3333L231.333 35.6667L230.667 35.3333z"/>
<path style="fill:#787065; stroke:none;" d="M278.667 35.3333L279.333 35.6667L278.667 35.3333z"/>
<path style="fill:#b1a699; stroke:none;" d="M282.667 36.3333L283.333 36.6667L282.667 36.3333z"/>
<path style="fill:#59b1de; stroke:none;" d="M72 37L77 39L77 38L72 37z"/>
<path style="fill:#e4b06b; stroke:none;" d="M44.3333 38.6667L44.6667 39.3333L44.3333 38.6667z"/>
<path style="fill:#b6b3b4; stroke:none;" d="M222.667 38.3333L223.333 38.6667L222.667 38.3333z"/>
<path style="fill:#cab3b6; stroke:none;" d="M288.667 38.3333L289.333 38.6667L288.667 38.3333z"/>
<path style="fill:#e4b06b; stroke:none;" d="M43 40L43 51L44 51L43 40z"/>
<path style="fill:#f4d5a1; stroke:none;" d="M57 40L57 49L58 49L57 40z"/>
<path style="fill:#b3c8d8; stroke:none;" d="M120.667 44.3333L121.333 44.6667L120.667 44.3333z"/>
<path style="fill:#2d2937; stroke:none;" d="M184 90C190.273 85.3829 194.397 78.4538 200.015 73.0895C216.565 57.2858 236.251 44.1845 260 46.0934C270.788 46.9605 282.418 49.2179 292 54.5146C298.065 57.8673 303.7 65.1884 311 64C306.212 54.7554 291.269 50.6731 282 47.9645C251.405 39.0238 223.709 46.2257 200.981 68.0903C195.062 73.785 185.3 81.5423 184 90z"/>
<path style="fill:#7a7b8a; stroke:none;" d="M244.667 46.3333L245.333 46.6667L244.667 46.3333z"/>
<path style="fill:#ffffff; stroke:none;" d="M184 115L337 116C322.377 96.5768 319.919 72.4873 298 57.7492C267.509 37.2475 229.716 45.6612 204.015 68.8449C197.869 74.3882 189.766 81.4249 186.164 89C183.092 95.4619 184.999 107.58 184 115z"/>
<path style="fill:#7a7b8a; stroke:none;" d="M261 46L261 47L264 47L261 46z"/>
<path style="fill:#b1a699; stroke:none;" d="M240.667 47.3333L241.333 47.6667L240.667 47.3333z"/>
<path style="fill:#958c8e; stroke:none;" d="M265.667 47.3333L266.333 47.6667L265.667 47.3333z"/>
<path style="fill:#b3c8d8; stroke:none;" d="M110 48L110 49L115 49L110 48z"/>
<path style="fill:#59b1de; stroke:none;" d="M122 48L122 52L123 52L122 48z"/>
<path style="fill:#958c8e; stroke:none;" d="M236.667 48.3333L237.333 48.6667L236.667 48.3333M273.667 48.3333L274.333 48.6667L273.667 48.3333z"/>
<path style="fill:#6a5d59; stroke:none;" d="M275 48L275 49L278 49L275 48z"/>
<path style="fill:#b6b3b4; stroke:none;" d="M278.667 49.3333L279.333 49.6667L278.667 49.3333z"/>
<path style="fill:#e4b06b; stroke:none;" d="M44 51L44 54L45 54L44 51z"/>
<path style="fill:#ab9b72; stroke:none;" d="M311 52L312 53L311 52z"/>
<path style="fill:#b1a699; stroke:none;" d="M199 53L200 54L199 53z"/>
<path style="fill:#7a7b8a; stroke:none;" d="M225 53L226 54L225 53z"/>
<path style="fill:#958c8e; stroke:none;" d="M290 53L291 54L290 53z"/>
<path style="fill:#f4d5a1; stroke:none;" d="M45.3333 54.6667L45.6667 55.3333L45.3333 54.6667z"/>
<path style="fill:#958c8e; stroke:none;" d="M292 54L293 55L292 54z"/>
<path style="fill:#f4d5a1; stroke:none;" d="M46.3333 56.6667L46.6667 57.3333L46.3333 56.6667M65.6667 57.3333L66.3333 57.6667L65.6667 57.3333z"/>
<path style="fill:#b3c8d8; stroke:none;" d="M102.667 57.3333L103.333 57.6667L102.667 57.3333z"/>
<path style="fill:#f4d5a1; stroke:none;" d="M67 58L67 59L72 60L72 59L67 58M72 60L72 61C76.7691 61 84.976 63.1462 88 59L72 60z"/>
<path style="fill:#b3c8d8; stroke:none;" d="M108 59L108 60L116 60L108 59z"/>
<path style="fill:#725135; stroke:none;" d="M191 75L191 71L201 65L201 64L196 64L198 59C186.393 62.1563 175.163 76.4194 169.138 86.2855C166.515 90.581 169.63 98.9403 175.741 97.2076C182.67 95.2427 183.927 79.2639 191 75z"/>
<path style="fill:#7a7b8a; stroke:none;" d="M214 60L215 61L214 60M301 60L302 61L301 60z"/>
<path style="fill:#f4d5a1; stroke:none;" d="M82.6667 62.3333L83.3333 62.6667L82.6667 62.3333z"/>
<path style="fill:#7a7b8a; stroke:none;" d="M210 63L211 64L210 63z"/>
<path style="fill:#ab9b72; stroke:none;" d="M322 63L323 64L322 63z"/>
<path style="fill:#e4b06b; stroke:none;" d="M56.6667 64.3333L57.3333 64.6667L56.6667 64.3333z"/>
<path style="fill:#f4d5a1; stroke:none;" d="M72 65L72 66L80 65L72 65z"/>
<path style="fill:#2a1812; stroke:none;" d="M309 64C322.499 82.4131 334.212 96.5057 341 119L333 117C335.296 123.326 344.053 125.193 350 126L351 122L344 115L345 119C340.923 113.358 340.59 106.397 338.185 100C334.986 91.4894 329.607 83.1737 324.078 76.0008C320.244 71.0273 315.659 64.5244 309 64z"/>
<path style="fill:#55271a; stroke:none;" d="M307 65C314.527 76.3903 322.368 86.5212 328.218 99C331.526 106.055 333.576 115.155 341 119C337.438 102.398 325.294 69.9868 307 65z"/>
<path style="fill:#f4d5a1; stroke:none;" d="M61 66L61 67L72 67L61 66z"/>
<path style="fill:#b1a699; stroke:none;" d="M310 69L311 70L310 69M327 69L328 70L327 69z"/>
<path style="fill:#7a7b8a; stroke:none;" d="M202 70L203 71L202 70z"/>
<path style="fill:#b1a699; stroke:none;" d="M180 72L181 73L180 72z"/>
<path style="fill:#958c8e; stroke:none;" d="M198 74L199 75L198 74M197 75L198 76L197 75z"/>
<path style="fill:#b1a699; stroke:none;" d="M331 75L332 76L331 75z"/>
<path style="fill:#7a7b8a; stroke:none;" d="M196 76L197 77L196 76M195 77L196 78L195 77z"/>
<path style="fill:#da9163; stroke:none;" d="M67 80L68 83L72 80L67 80z"/>
<path style="fill:#e4b06b; stroke:none;" d="M100 79L100 80L103 82C103.951 79.4934 102.348 79.2942 100 79z"/>
<path style="fill:#da9163; stroke:none;" d="M129 79L129 80L133 80L129 79z"/>
<path style="fill:#c2b088; stroke:none;" d="M31 85L40 82C36.1399 79.6625 33.557 81.7842 31 85z"/>
<path style="fill:#cd3a11; stroke:none;" d="M38 80L38 81L44 81L38 80z"/>
<path style="fill:#955b49; stroke:none;" d="M93 82L93 83L103 82L93 82z"/>
<path style="fill:#cd3a11; stroke:none;" d="M98 80L98 81L103 81L98 80z"/>
<path style="fill:#955b49; stroke:none;" d="M126 80L126 81C131.007 81.0592 134.138 81.5943 135 87C137.796 80.094 131.063 80.0039 126 80z"/>
<path style="fill:#8d7652; stroke:none;" d="M40 81L40 82L44 82L40 81z"/>
<path style="fill:#d45438; stroke:none;" d="M66 81L70 87L70 86L66 81z"/>
<path style="fill:#da9163; stroke:none;" d="M121 81L121 82L123 84L124 84L128 82L121 81z"/>
<path style="fill:#f4d5a1; stroke:none;" d="M128 81L128 82L134 82L128 81z"/>
<path style="fill:#eba995; stroke:none;" d="M89 85L90 86L94 83L89 85z"/>
<path style="fill:#cd3a11; stroke:none;" d="M121 82C119.299 87.8127 120.437 92.9621 127 94L127 93C122.838 89.7637 121.746 87.1198 123 82L121 82z"/>
<path style="fill:#ffffff; stroke:none;" d="M135 82C133.012 82.0013 130.977 81.9019 128.996 82.1049C114.327 83.6087 129.688 99.6338 134.297 87.0054C134.895 85.3669 134.907 83.7133 135 82z"/>
<path style="fill:#d9d1cd; stroke:none;" d="M136 82L136 86L137 86L136 82z"/>
<path style="fill:#ab9b72; stroke:none;" d="M172 82L173 83L172 82M335 82L336 83L335 82z"/>
<path style="fill:#cd3a11; stroke:none;" d="M68 84L68 86L70 86L70 84L68 84z"/>
<path style="fill:#eba995; stroke:none;" d="M119 84L119 88L120 88L119 84z"/>
<path style="fill:#7a7b8a; stroke:none;" d="M189 84L190 85L189 84z"/>
<path style="fill:#d45438; stroke:none;" d="M31 85C29.357 91.8023 33.9154 93.8528 40 94L40 93C34.874 91.9621 33.3109 89.3701 31 85z"/>
<path style="fill:#eba995; stroke:none;" d="M70.3333 85.6667L70.6667 86.3333L70.3333 85.6667z"/>
<path style="fill:#e4b06b; stroke:none;" d="M88.3333 85.6667L88.6667 86.3333L88.3333 85.6667z"/>
<path style="fill:#881e20; stroke:none;" d="M89.3333 85.6667L89.6667 86.3333L89.3333 85.6667z"/>
<path style="fill:#da9163; stroke:none;" d="M121 85L121 88L122 88L121 85z"/>
<path style="fill:#6a5d59; stroke:none;" d="M163 85L163 86L166 86L163 85z"/>
<path style="fill:#2a1812; stroke:none;" d="M174 113L182.442 100.907L184 88C181.216 90.1553 178.917 95.4752 175.741 96.6281C168.811 99.1431 168.329 88.8646 169 85C153.817 87.4202 165.961 108.166 174 113z"/>
<path style="fill:#eba995; stroke:none;" d="M61 87L62 91L63 91L67 87L61 87z"/>
<path style="fill:#d45438; stroke:none;" d="M89 87L103 91C101.21 85.6081 93.8457 86.4673 89 87z"/>
<path style="fill:#da9163; stroke:none;" d="M91 86L91 87L99 87L91 86z"/>
<path style="fill:#958c8e; stroke:none;" d="M162 86L163 87L162 86z"/>
<path style="fill:#cab3b6; stroke:none;" d="M134 87L134 91L136 87L134 87z"/>
<path style="fill:#da9163; stroke:none;" d="M60 88L60 92L61 92L60 88z"/>
<path style="fill:#cd3a11; stroke:none;" d="M61 88C61.381 92.8896 63.276 93.8449 68 94L68 93L61 88z"/>
<path style="fill:#da9163; stroke:none;" d="M103.333 88.6667L103.667 89.3333L103.333 88.6667z"/>
<path style="fill:#d9d1cd; stroke:none;" d="M91 89L91 90L100 92C101.608 87.7357 93.6675 89 91 89z"/>
<path style="fill:#79211c; stroke:none;" d="M160 89C155.068 98.4244 150.948 118.126 165 122L164 118L176 130L179 120C169.011 114.134 164.829 98.7896 160 89z"/>
<path style="fill:#958c8e; stroke:none;" d="M185 89L186 90L185 89z"/>
<path style="fill:#c2b088; stroke:none;" d="M101 90L99 94C101.242 92.7478 102.344 92.2804 101 90z"/>
<path style="fill:#9e8b6c; stroke:none;" d="M132 90L132 92L134 90L132 90z"/>
<path style="fill:#b6b3b4; stroke:none;" d="M184 90L184 93L185 93L184 90z"/>
<path style="fill:#cab3b6; stroke:none;" d="M36 92L36 93L44 93L36 92z"/>
<path style="fill:#eba995; stroke:none;" d="M125 92L125 93L131 93L125 92z"/>
<path style="fill:#955b49; stroke:none;" d="M131 92L132 93L131 92z"/>
<path style="fill:#da9163; stroke:none;" d="M32.6667 93.3333L33.3333 93.6667L32.6667 93.3333M68.6667 93.3333L69.3333 93.6667L68.6667 93.3333z"/>
<path style="fill:#d45438; stroke:none;" d="M89 97L99 93L89 97M124 94L124 95L131 94L124 94z"/>
<path style="fill:#5a533c; stroke:none;" d="M184 93L184 101L185 101L184 93z"/>
<path style="fill:#c2b088; stroke:none;" d="M35 94L35 95L39 95L35 94M63 94L63 95L68 95L63 94z"/>
<path style="fill:#da9163; stroke:none;" d="M85 96L89 96L85 96z"/>
<path style="fill:#cd3a11; stroke:none;" d="M83 97L83 98L89 97L83 97z"/>
<path style="fill:#b6b3b4; stroke:none;" d="M341 95L341 98L342 98L341 95z"/>
<path style="fill:#da9163; stroke:none;" d="M91 96L91 97L94 97L91 96z"/>
<path style="fill:#f17d03; stroke:none;" d="M85 97L85 98L88 98L85 97z"/>
<path style="fill:#7a7b8a; stroke:none;" d="M178 99L178 102L180 102L180 99L178 99z"/>
<path style="fill:#55271a; stroke:none;" d="M183 99L172 112L179 120L176 130L164 118L165 122L153 126L153 127L160 132L166 125C174.093 131.17 165.386 150.706 163.514 160C159.555 179.658 160.206 200.078 157.871 219.961C156.532 231.366 154.128 243.513 154 255L151 249L150 249L149 258L146 256L144 258C136.905 246.437 122.736 241.816 119 228L116 229L112 221L109 222C107.213 216.337 105.256 211.239 100 208L101 212L98 211L97 272L98 272L99 213L132.931 251.725L140 261L141 257L142 257L142 261L153 262L152 256C157.739 261.887 159.072 274.197 170 273L174 304L175 304L177 302C171.592 308.574 164.891 317.587 156 318L156 319C163.209 319.911 176.289 320.662 179 312L184 312C188.288 303.057 192 298.335 192 288L189 288L184 276L184 275C210.245 275 236.847 278.118 263 276.961C276.762 276.352 291.022 272.338 305 271.174C313.194 270.491 338.277 277.262 342 268L312 269L312 265L320 265L320 264L312 264L312 216L309 216L309 255L305 255L306 263L293 263L296 265L296 266C281.794 265.873 279.904 249.961 286 239L284 232L264 228.093L228 232L228 235L243 229.498L279 235C279 243.663 279.132 252.338 278.995 261C278.933 264.932 277.523 268.728 282 270L282 271L216 270L172.058 269.682L163 262L166 259L163 258C166.362 251.54 164.415 244.023 165.769 237.015C167.219 229.502 171.356 224.102 171.91 216C173.364 194.781 167.786 165.999 176.599 146.181C183.196 131.345 213.269 140.391 212 119L191 118.125L183.157 117.512L183 99z"/>
<path style="fill:#cab3b6; stroke:none;" d="M185 99L185 104L186 104L185 99z"/>
<path style="fill:#ab9b72; stroke:none;" d="M156 101L156 105L157 105L156 101z"/>
<path style="fill:#b6b3b4; stroke:none;" d="M329.333 101.667L329.667 102.333L329.333 101.667z"/>
<path style="fill:#b1a699; stroke:none;" d="M342 101L342 104L343 104L342 101z"/>
<path style="fill:#958c8e; stroke:none;" d="M185 104L185 108L186 108L185 104z"/>
<path style="fill:#cab3b6; stroke:none;" d="M330.333 104.667L330.667 105.333L330.333 104.667z"/>
<path style="fill:#ab9b72; stroke:none;" d="M343 108C343.458 114.813 346.745 117.289 353 119L343 108z"/>
<path style="fill:#958c8e; stroke:none;" d="M370.667 108.333L371.333 108.667L370.667 108.333z"/>
<path style="fill:#cec7b5; stroke:none;" d="M128 109L128 110L135 110L128 109z"/>
<path style="fill:#ab9b72; stroke:none;" d="M154 109L144 114L144 115L150 115L152 121L151 118L155 120L157 116L154 109z"/>
<path style="fill:#cec7b5; stroke:none;" d="M344.667 109.333L345.333 109.667L344.667 109.333z"/>
<path style="fill:#6a5d59; stroke:none;" d="M363 116L365 118L366 118L367 111L368 111L368 118L369 118L369 109C365.099 110.116 363.582 112.002 363 116z"/>
<path style="fill:#5a533c; stroke:none;" d="M369 111L372 110L374 118L365 115L363 116L363 113L351 113L354 121C361.697 120.523 369.322 119.728 376.999 118.999C379.155 118.795 383.368 118.695 383.824 115.83C384.456 111.859 371.09 108.71 369 111M120 114L117 118L119 121L126 120L126 119L124 118L130 113L129 119L135 116L139 117L144 115L144 114L136 114C133.35 106.015 125.352 113.592 120 114z"/>
<path style="fill:#cab3b6; stroke:none;" d="M184.333 110.667L184.667 111.333L184.333 110.667z"/>
<path style="fill:#c2b088; stroke:none;" d="M370 110L369 117L372 110L370 110z"/>
<path style="fill:#f4d5a1; stroke:none;" d="M367 111L366 118L368 118L367 111z"/>
<path style="fill:#958c8e; stroke:none;" d="M374 111L374 112L380 112L374 111z"/>
<path style="fill:#d9d1cd; stroke:none;" d="M334 112L336 115L334 112z"/>
<path style="fill:#cec7b5; stroke:none;" d="M349 112L349 113L361 113L349 112z"/>
<path style="fill:#b1a699; stroke:none;" d="M122 113L122 114L126 114L122 113z"/>
<path style="fill:#c2b088; stroke:none;" d="M128 113C126.774 115.891 126.332 117.158 129 119L130 113L128 113z"/>
<path style="fill:#b1a699; stroke:none;" d="M183 113C183.904 117.217 188.356 116 192 116L192 115L183 113z"/>
<path style="fill:#79211c; stroke:none;" d="M182 114C182.649 122.134 204.458 118.426 212 119C212.613 139.502 184.947 131.661 176.722 144.417C171.497 152.52 173.087 168.639 173 178C172.864 192.74 174.108 210.607 170.75 225C170.015 228.151 167.29 230.203 166.306 233.222C164.677 238.218 162.267 256.557 166 259L163 262L170.299 269.397L200 270L199 235L199.938 220.185L210 212L210 211C205.689 211.305 194.879 216.878 194 221L193 221L192 214C198.028 212.377 203.919 204.485 197 200L206 200L200 189L208 189C207.856 183.052 206.355 179.483 200 179L202 176L202 175L200 172L196 172L196 167L199 170L200 167L208 168C205.817 164.705 203.512 164.395 200 166L200 160C194.841 160.306 189.938 160.79 187 156L190 152L192 155L208 153L204 154L205 144L210 144C215.112 132.24 223.744 128.94 236 133L240 132L241 128L256 127L256 131L261 132L261 128L265 126L272 128C274.672 135.954 294.781 132 302 132L302 128L304 131L330.985 132.758L358 127L358 128L353 129L353 131L367 136L376 134L394 135L393 132L396 134L397 131L398 131L397 136L400 144L401 144L401 132L405 129L406 129L409 134L408.797 189.996L400 214L396 213C387.561 225.476 380.011 237.938 370.05 249.745C364.476 256.351 359.112 263.086 350 264L350 265L352 266L336.957 271.853L304 271.17L262 276.961L184 275L184 276L189 288L192 288L184 312L179 312C174.74 320.193 163.86 319.62 156 319L156 318L162 318L162 317L150 318L150 321L142 320L144 315C121.206 306.64 110.481 269.015 140 262L140 261L111.97 227.41L99 213C98.996 249.696 95.0556 286.262 96.0147 323C96.3466 335.714 106.854 349.915 120 351L120 352L116 353L116 354C172.663 356.433 230.106 352 287 352L344 352C355.794 352 367.484 353.171 379 349.502C392.616 345.163 409.7 333.326 413.829 319C416.661 309.178 414.788 297.979 414 288L413 288L412 308L411 308L407.754 205L412.791 188L413 159L414 159L415 275L416 275L417 267L418 267L418 272L419 272L422 247C419.109 241.966 423 231.104 423 225C423 203.959 424 183.089 424 162C424 154.663 427.805 139.174 421 135L421 134L443 133C436.947 126.719 428.07 126.158 420 125C414.964 129.725 408.676 130.718 409 122C395.538 112.375 381.286 122.714 367 123.972C363.156 124.311 352.75 126.733 351 123L350 123L350 126C343.921 124.354 336.494 122.795 333 117C297.365 116.977 261.703 115 226 115C213.71 115 192.852 120.035 182 114z"/>
<path style="fill:#b1a699; stroke:none;" d="M219 114L219 115L252 115L219 114z"/>
<path style="fill:#ffffff; stroke:none;" d="M372 114L372 117L373 117L372 114z"/>
<path style="fill:#2d2937; stroke:none;" d="M136 123L136 122L119 121L117 118L121 116C117.612 115.296 113.121 120.236 117.333 122.397C121.921 124.75 130.901 123 136 123z"/>
<path style="fill:#725135; stroke:none;" d="M139 117L135 116C132.377 120.042 128.238 118.535 124 118L124 119L126 119L126 120L122 120L122 121C130.375 121 149.611 126.841 150 115L139 117z"/>
<path style="fill:#787065; stroke:none;" d="M192 115L192 116L203 116L192 115z"/>
<path style="fill:#955b49; stroke:none;" d="M272 115L272 116L288 116L272 115z"/>
<path style="fill:#b1a699; stroke:none;" d="M288 115L288 116L304 116L288 115z"/>
<path style="fill:#cec7b5; stroke:none;" d="M304 115L304 116L317 116L304 115z"/>
<path style="fill:#ab9b72; stroke:none;" d="M371 115L369 117L369 118C371.993 117.936 373.346 118.054 374 115L373 115L372 117L371 115z"/>
<path style="fill:#d9d1cd; stroke:none;" d="M97 116L97 117L104 117L97 116z"/>
<path style="fill:#6a5d59; stroke:none;" d="M155 116L153 120L153 121L157 121L157 116L155 116z"/>
<path style="fill:#2a1812; stroke:none;" d="M157 116L155 124L152 122C154.045 127.088 158.365 125.86 163 125L157 116z"/>
<path style="fill:#6a5d59; stroke:none;" d="M323 116L323 117L337 117L323 116z"/>
<path style="fill:#2a1812; stroke:none;" d="M384 116L352 122C358.005 128.127 380.323 123.204 387 119L386 116L384 116z"/>
<path style="fill:#6a5d59; stroke:none;" d="M96 119L109 118C105.353 116.47 98.7579 115.844 96 119z"/>
<path style="fill:#9e8b6c; stroke:none;" d="M134.333 117.667L134.667 118.333L134.333 117.667z"/>
<path style="fill:#787065; stroke:none;" d="M353 117L353 121L352 121L352 118L347 118L353 126L353 117z"/>
<path style="fill:#725135; stroke:none;" d="M386 117L386 118L403 118L386 117z"/>
<path style="fill:#881e20; stroke:none;" d="M96 128L83 128L83 129L93 129L93 133C88.9224 132.902 82.7837 128.693 79.2886 129.792C73.5755 131.587 76.632 145.572 76 150C86.3242 161.018 73.7162 186.924 73.7137 200C73.7061 239.742 77.0125 282.919 89 321L90 321C90 289.367 92.3444 257.6 90.9606 226C90.0062 204.204 85.9109 177.376 91 156L92 156L98 208L102 208L109 222L112 221L116 229L119 228C121.028 241.097 135.934 248.598 144 258L145 258L146 256L149 258L152 243L146 242L146 238C154.667 237.325 151.755 227.491 152.039 221C152.828 202.993 156.703 185.788 159 168C155.116 169.366 155.093 172.184 155 176L154 176L154 172L151 173C151.008 161.055 154.705 150.906 159 140L160 140L158 150L159 150L159 147L164 150C167.511 143.31 174.691 129.383 166 125L160 132L153 124L152 124L152 126L151 126L151 122L155 124L151 118L152 121C150.291 122.274 149.013 124.535 146.856 125.116C140.114 126.932 116.418 127.109 116 118C106.887 118 93.9307 114.937 96 128z"/>
<path style="fill:#cec7b5; stroke:none;" d="M156 119L157 120L156 119z"/>
<path style="fill:#ffffff; stroke:none;" d="M352.333 119.667L352.667 120.333L352.333 119.667z"/>
<path style="fill:#958c8e; stroke:none;" d="M95 120L95 124L96 124L95 120z"/>
<path style="fill:#2a1812; stroke:none;" d="M149 121L120 123L120 124C125.007 125.48 151.273 127.934 149 121z"/>
<path style="fill:#9e8b6c; stroke:none;" d="M407 121L407 122L416 122L407 121z"/>
<path style="fill:#b1a699; stroke:none;" d="M422 121L422 122L428 122L422 121z"/>
<path style="fill:#955b49; stroke:none;" d="M151 122L151 126L152 126L151 122z"/>
<path style="fill:#2a1812; stroke:none;" d="M408 123C410.158 130.281 414.161 131.154 419 125L408 123z"/>
<path style="fill:#55271a; stroke:none;" d="M414 122L414 123L418 127L420 125L443 133L421 134L421 135L424 137L425 137C430.186 134.001 440.757 135.797 444 141C455.277 124.889 422.659 122 414 122z"/>
<path style="fill:#9e8b6c; stroke:none;" d="M430.667 122.333L431.333 122.667L430.667 122.333M437 125L438 126L437 125M90 126L90 127L96 128L90 126z"/>
<path style="fill:#881e20; stroke:none;" d="M264 126L261 128L261 132L256 131L256 127L241 128L240 132C237.74 130.048 236.65 129.909 236 133C224.933 127.484 213.197 132.117 210 144L205 144L204 154L208 153C203.171 157.829 194.932 154.408 190 152L187 156C189.063 161.133 195.143 160.773 200 160L200 166L202 164L208 168C203.929 167.23 201.486 166.223 199 170L196 167L196 172L200 172L202 175L202 176L200 179C205.773 179.899 207.695 183.426 208 189L200 189L206 200C202.4 198.361 200.119 197.213 197 200C202.742 205.624 198.126 211.339 192 214L194 216L193 221L194 221L194 218C199.522 217.4 202.475 214.029 207.285 211.829C218.873 206.527 235.039 196.669 248 196.04C263.23 195.301 278.271 199.089 292 205.475C299.05 208.754 303.93 215.419 312 216L312 264L320 264L320 265L312 265L312 267C326.242 267 343.545 268.735 356.871 262.721C362.67 260.105 366.708 254.416 370.694 249.745C380.609 238.128 389.647 226.758 396 213L400 214L408.811 190.985L409 134L406 129L405 129L405 132L401 132L401 144L400 144L397 136L398 131L397 131L396 134L393 132L394 135L376 134L367 136L353 131L353 129L358 128L358 127C338.657 127.325 320.612 137.085 302 128L302 132C294.326 132 275.961 135.681 272 128L264 126z"/>
<path style="fill:#b1a699; stroke:none;" d="M84.6667 127.333L85.3333 127.667L84.6667 127.333z"/>
<path style="fill:#6a5d59; stroke:none;" d="M81.6667 128.333L82.3333 128.667L81.6667 128.333z"/>
<path style="fill:#2a1812; stroke:none;" d="M81 129L81 130L93 133L93 129L81 129z"/>
<path style="fill:#958c8e; stroke:none;" d="M446.667 133.333L447.333 133.667L446.667 133.333z"/>
<path style="fill:#2a1812; stroke:none;" d="M446 134C445.275 145.28 455.838 156.354 467 159C465.886 150.762 456.447 147.498 451.228 141.826C448.994 139.398 448.455 136.052 446 134z"/>
<path style="fill:#725135; stroke:none;" d="M448 134C448.433 141.907 456.615 149.651 464 152C461.442 144.415 454.825 137.945 448 134z"/>
<path style="fill:#b1a699; stroke:none;" d="M75 135L75 142L76 142L75 135z"/>
<path style="fill:#787065; stroke:none;" d="M425 135L425 140L426 140L428 136L425 135z"/>
<path style="fill:#958c8e; stroke:none;" d="M429 136L429 137L439 137L429 136z"/>
<path style="fill:#b1a699; stroke:none;" d="M441 138L441 139L444 140L441 138M426.667 139.333L427.333 139.667L426.667 139.333z"/>
<path style="fill:#955b49; stroke:none;" d="M159 140C153.395 150.138 151.001 161.456 151 173L154 172L154 176L155 176L163 147L159 150L158 150L159 140z"/>
<path style="fill:#2a1812; stroke:none;" d="M425 140L424 195C433.174 190.491 425.21 169.339 427.417 161C428.597 156.539 433.157 156.933 434 153C431.205 153 431.735 151.52 432 149L436 151C435.546 145.17 432.131 144.971 427 144L428 140L425 140z"/>
<path style="fill:#55271a; stroke:none;" d="M428 140L427 144L434 145L428 140z"/>
<path style="fill:#7a7b8a; stroke:none;" d="M445 141L446 142L445 141z"/>
<path style="fill:#2d2937; stroke:none;" d="M67 143L67 144L69 148L75 150C75.0018 144.672 71.946 143.273 67 143z"/>
<path style="fill:#725135; stroke:none;" d="M65 144L65 150L69 144L65 144z"/>
<path style="fill:#9e8b6c; stroke:none;" d="M76 144L76 148L77 148L76 144z"/>
<path style="fill:#ab9b72; stroke:none;" d="M64 146L64 153L65 153L64 146z"/>
<path style="fill:#2a1812; stroke:none;" d="M166 146C150.129 176.113 158.147 211.512 150 243L152 243C150.745 247.246 149.899 252.342 154 255L161.208 177L166 146z"/>
<path style="fill:#958c8e; stroke:none;" d="M449 146L450 147L449 146z"/>
<path style="fill:#55271a; stroke:none;" d="M436 147L436 151L431 152L436 153L436 147z"/>
<path style="fill:#2a1812; stroke:none;" d="M65 154C71.3213 152.14 70.5643 155.132 69 160C80.1694 166.961 71.0894 188.207 71 199L74 199C75.2173 186.773 78 175.463 78 163C78 157.723 79.1114 151.911 75 148C70.3064 150.007 66.0624 146.773 65 154z"/>
<path style="fill:#55271a; stroke:none;" d="M68 152L68 160C70.7584 156.971 72.9579 153.618 68 152M78 152L78 168L79 168L78 152z"/>
<path style="fill:#9e8b6c; stroke:none;" d="M432 152L432 154L434 152L432 152z"/>
<path style="fill:#b1a699; stroke:none;" d="M434 153L438 156L437 152L434 153z"/>
<path style="fill:#6a5d59; stroke:none;" d="M51 167C50.1305 171.178 50.5518 173.257 55 174L54 170L63 156C66.0805 156.283 67.1442 156.03 68 153C59.5795 153.962 56.6784 159.178 54.3333 166C53.5534 168.269 52.4769 168.034 51 167z"/>
<path style="fill:#958c8e; stroke:none;" d="M465 153L466 154L465 153z"/>
<path style="fill:#2d2937; stroke:none;" d="M434 154L429 156L429 157L437 161L434 154z"/>
<path style="fill:#958c8e; stroke:none;" d="M458 154L459 155L458 154z"/>
<path style="fill:#cec7b5; stroke:none;" d="M68.3333 155.667L68.6667 156.333L68.3333 155.667z"/>
<path style="fill:#2d2937; stroke:none;" d="M438 155C438.793 160.138 441.86 163.073 446 166L438 155z"/>
<path style="fill:#9e8b6c; stroke:none;" d="M62 157C64.6278 158.397 66.1808 158.415 68 156L62 157z"/>
<path style="fill:#55271a; stroke:none;" d="M91 156C85.3375 175.157 90 201.983 90 222L91 222L91 195L92 195L93 247L92.3858 283L91.8302 309L93 320C86.7634 336.682 102.974 354.428 120 352L120 351L109 345C89.1692 343.144 95 312.028 95 299C95 262.452 98.0399 224.113 94.1736 188C93.1353 178.301 95.6384 164.725 91 156z"/>
<path style="fill:#ab9b72; stroke:none;" d="M435 156L445 167L438 156L435 156z"/>
<path style="fill:#6a5d59; stroke:none;" d="M467 156L467 159L468 159L467 156z"/>
<path style="fill:#958c8e; stroke:none;" d="M428.333 157.667L428.667 158.333L428.333 157.667z"/>
<path style="fill:#ffffff; stroke:none;" d="M429 157L427 194L436 191L433.53 170L434.471 160.148L429 157z"/>
<path style="fill:#958c8e; stroke:none;" d="M462 157L463 158L462 157z"/>
<path style="fill:#d9d1cd; stroke:none;" d="M60 162L65 160C62.72 157.697 61.3064 159.601 60 162z"/>
<path style="fill:#6a5d59; stroke:none;" d="M60 166L67 163L68 158L60 166z"/>
<path style="fill:#b6b3b4; stroke:none;" d="M441 158L441 159L445 159L441 158z"/>
<path style="fill:#b1a699; stroke:none;" d="M56 159L57 160L56 159z"/>
<path style="fill:#ffffff; stroke:none;" d="M63 159L59 165L63 159z"/>
<path style="fill:#55271a; stroke:none;" d="M413 159L410.015 254L415 310L416 310L418 267L417 267L416 275L415 275C415 250.73 412.982 226.347 414.039 202C414.55 190.246 417.563 169.875 413 159z"/>
<path style="fill:#cec7b5; stroke:none;" d="M428 159L428 172L429 172L428 159z"/>
<path style="fill:#b1a699; stroke:none;" d="M434 159L435 160L434 159z"/>
<path style="fill:#8d7652; stroke:none;" d="M442 159L446 163L444 167L444 168L444 176C452.479 173.094 451.692 159.317 442 159z"/>
<path style="fill:#b1a699; stroke:none;" d="M465.667 159.333L466.333 159.667L465.667 159.333z"/>
<path style="fill:#b6b3b4; stroke:none;" d="M68.6667 160.333L69.3333 160.667L68.6667 160.333z"/>
<path style="fill:#5a533c; stroke:none;" d="M427 160L427 178L428 178L427 160z"/>
<path style="fill:#958c8e; stroke:none;" d="M435 160L436 161L435 160z"/>
<path style="fill:#725135; stroke:none;" d="M437 160L445 169L437 160z"/>
<path style="fill:#ffffff; stroke:none;" d="M37 239L34 239C34 273.388 32.3333 307.863 49.8758 339C70.9265 376.364 105.174 393.85 143 409.696C193.073 430.673 247.475 451.335 302 455.09C323.709 456.584 345.283 467.149 367 465.436C374.138 464.873 382.405 457.376 389 454.414C410.843 444.6 439.773 439.066 451.136 416C469.058 379.617 452.992 345.562 440.836 310C434.179 290.524 429.247 270.208 422 251L421 251C420.889 264.384 418.003 277.663 417.09 291C416.325 302.159 417.383 314.097 411.19 324C398.916 343.627 377.595 350.729 356 353.285C336.688 355.572 316.45 354 297 354C269.31 354 241.622 355 214 355C191.008 355 168.185 358 145 358C131.957 358 114.199 356.193 103.286 348.182C91.0468 339.198 87.7887 319.941 85 306C77.9298 270.656 73 235.078 73 199L70 199L72 161C60.6441 162.757 63.9401 171.962 59.1921 179C54.715 185.637 46.4753 189.965 42.7284 197C36.6532 208.407 37 226.222 37 239z"/>
<path style="fill:#b6b3b4; stroke:none;" d="M72 161L72 164L73 164L72 161z"/>
<path style="fill:#9e8b6c; stroke:none;" d="M436 161L433 171L434 171L436 161z"/>
<path style="fill:#8d7652; stroke:none;" d="M64 162L59 169L66 163L64 162z"/>
<path style="fill:#2d2937; stroke:none;" d="M73 162L73 182L74 182L73 162z"/>
<path style="fill:#9e8b6c; stroke:none;" d="M53 163L48 165L48 166L55 166L53 163z"/>
<path style="fill:#ab9b72; stroke:none;" d="M58 163L55 173L61 167L61 166L58 163z"/>
<path style="fill:#2d2937; stroke:none;" d="M436 163L435 167L438 163L436 163z"/>
<path style="fill:#ab9b72; stroke:none;" d="M450 163C448.124 170.472 447.252 180.671 440 185L440 186L444 186L444 190L445 190C445.999 182.588 454.695 169.303 450 163M438 164C433.798 170.394 436.436 176.851 437 184L439 184L440 165L438 164z"/>
<path style="fill:#cec7b5; stroke:none;" d="M46.6667 165.333L47.3333 165.667L46.6667 165.333z"/>
<path style="fill:#b1a699; stroke:none;" d="M45 166L45 169L46 169L45 166z"/>
<path style="fill:#2d2937; stroke:none;" d="M46 166L43 177L44 177C44.0769 171.973 47.6695 167.126 53 169L55 166L46 166z"/>
<path style="fill:#ffffff; stroke:none;" d="M439 166C437.487 170.645 436.173 180.295 442 182C443.226 175.099 447.042 169.942 439 166z"/>
<path style="fill:#b1a699; stroke:none;" d="M50 167L47 168L47 169L50 167z"/>
<path style="fill:#6a5d59; stroke:none;" d="M434 167L436 183L437 183L436 167L434 167z"/>
<path style="fill:#d9d1cd; stroke:none;" d="M437 168L437 172L438 172L437 168z"/>
<path style="fill:#ffffff; stroke:none;" d="M41 190C47.766 188.909 56.9661 178.682 58 172C53.8418 173.167 51.4 173.557 50 169C43.2881 171.036 41.3259 183.636 41 190z"/>
<path style="fill:#2d2937; stroke:none;" d="M58 169L55 183C60.1668 180.35 63.4556 173.153 58 169z"/>
<path style="fill:#cab3b6; stroke:none;" d="M60 169L60 172L61 172L60 169z"/>
<path style="fill:#cec7b5; stroke:none;" d="M443 169L443 170L445 172L446 172L443 169z"/>
<path style="fill:#725135; stroke:none;" d="M71 170L71 192L72 192L71 170z"/>
<path style="fill:#958c8e; stroke:none;" d="M44 172L44 176L45 176L44 172z"/>
<path style="fill:#cec7b5; stroke:none;" d="M61 172L61 176L62 176L61 172z"/>
<path style="fill:#7a7b8a; stroke:none;" d="M41 173L44 179L41 173z"/>
<path style="fill:#d9d1cd; stroke:none;" d="M428 175L428 181L429 181L428 175z"/>
<path style="fill:#c2b088; stroke:none;" d="M57 176L58 179L57 176z"/>
<path style="fill:#b1a699; stroke:none;" d="M70 176L70 187L71 187L70 176z"/>
<path style="fill:#958c8e; stroke:none;" d="M434.333 176.667L434.667 177.333L434.333 176.667z"/>
<path style="fill:#6a5d59; stroke:none;" d="M443.333 176.667L443.667 177.333L443.333 176.667z"/>
<path style="fill:#2a1812; stroke:none;" d="M444 176L439 184L444 184L446 176L444 176z"/>
<path style="fill:#2d2937; stroke:none;" d="M40 178L38 188L39 188L43 178L40 178z"/>
<path style="fill:#d9d1cd; stroke:none;" d="M43 193C49.148 190.133 54.5475 184.33 57 178C51.0459 180.355 44.8408 186.816 43 193z"/>
<path style="fill:#958c8e; stroke:none;" d="M442.333 178.667L442.667 179.333L442.333 178.667M39.3333 179.667L39.6667 180.333L39.3333 179.667z"/>
<path style="fill:#b6b3b4; stroke:none;" d="M42.3333 181.667L42.6667 182.333L42.3333 181.667z"/>
<path style="fill:#958c8e; stroke:none;" d="M428 181L428 187L429 187L428 181z"/>
<path style="fill:#b1a699; stroke:none;" d="M435 181L435 185L436 185L435 181z"/>
<path style="fill:#7a7b8a; stroke:none;" d="M38.3333 182.667L38.6667 183.333L38.3333 182.667z"/>
<path style="fill:#958c8e; stroke:none;" d="M41.3333 183.667L41.6667 184.333L41.3333 183.667z"/>
<path style="fill:#787065; stroke:none;" d="M48 191L56 183L48 191z"/>
<path style="fill:#55271a; stroke:none;" d="M436 183L437 197L431 197L431 196L434 195L434 194C431.289 193.423 430.605 193.232 430 196C424.021 195.643 423.265 200.911 423.039 206C422.415 220.101 421.801 233.055 420 247L422 242L423 242C425.793 276.2 441.844 309.575 452.025 342C455.889 354.309 462.128 369.944 461.53 383C460.632 402.617 447.698 416.39 440 433L446 427C455.814 429.351 471.446 404.883 475 397L476 397C469.076 419.307 446.273 448.493 423.985 456.583C418.418 458.604 414.14 462.474 408 462L389 471L389 472L395 475L393 495C411.46 492.071 429.115 474.133 440.514 460.715C464.089 432.964 482.335 399.615 486.715 363C488.342 349.388 486.112 335.573 486 322L485 322L485 331L483 331L483 322L481 322L481 336L480 336C480 322.81 477.63 323.373 466 326L466 322L461 323L460 315L463 315L463 312L459 314C454.542 291.01 450.695 267.687 445.251 245C444.002 239.796 438.158 225.38 443 222L442 226L444 226L443 230L445 230L444 234L446 234L445 238C449.65 237.004 447.253 230.042 448 226L444 225L446 216L449 215L453 224L453 225L458 231L456 231L458 236L462 236L465 231L464 236C468.306 233.176 465.878 228.184 464.485 224C461.313 214.475 453.888 205.053 454 195L453 195L452 199L442 197L443 193L440 192L436 183z"/>
<path style="fill:#725135; stroke:none;" d="M438 184L440 192L443 195L444 195L444 186L440 186L440 185L442 184L438 184z"/>
<path style="fill:#787065; stroke:none;" d="M40.3333 185.667L40.6667 186.333L40.3333 185.667z"/>
<path style="fill:#5a533c; stroke:none;" d="M37 186C36.1924 196.246 42.432 201.898 48 190L43 193L40 187L37 186z"/>
<path style="fill:#b6b3b4; stroke:none;" d="M40.3333 187.667L40.6667 188.333L40.3333 187.667z"/>
<path style="fill:#cec7b5; stroke:none;" d="M70 187L70 199L71 199L70 187z"/>
<path style="fill:#c2b088; stroke:none;" d="M36 188L36 191L37 191L36 188z"/>
<path style="fill:#7a7b8a; stroke:none;" d="M436 188L436 191L437 191L436 188z"/>
<path style="fill:#d9d1cd; stroke:none;" d="M445 189L445 190L448 190L448 191L446 191L446 192L450 192L445 189z"/>
<path style="fill:#7a7b8a; stroke:none;" d="M427.333 190.667L427.667 191.333L427.333 190.667z"/>
<path style="fill:#958c8e; stroke:none;" d="M445 190C445.976 194.555 449.893 192.755 453 191L453 190L446 192L446 191L448 191L445 190z"/>
<path style="fill:#ab9b72; stroke:none;" d="M431 192L431 193L436 195L437 192L431 192z"/>
<path style="fill:#e4b06b; stroke:none;" d="M441 191L441 193L443 193L441 191z"/>
<path style="fill:#5a533c; stroke:none;" d="M451 191L451 192L455 194L451 191z"/>
<path style="fill:#8d7652; stroke:none;" d="M35 192L33 197L33 198L33 204L38 204L37 206L42 206C43.0966 199.604 38.3131 196.858 35 192z"/>
<path style="fill:#787065; stroke:none;" d="M451 192L452 197L453 197L451 192z"/>
<path style="fill:#8d7652; stroke:none;" d="M38 193L42 196L38 193z"/>
<path style="fill:#787065; stroke:none;" d="M426 193L427 194L426 193z"/>
<path style="fill:#9e8b6c; stroke:none;" d="M429 193L430 196L429 193z"/>
<path style="fill:#d9d1cd; stroke:none;" d="M432.667 193.333L433.333 193.667L432.667 193.333z"/>
<path style="fill:#ffffff; stroke:none;" d="M443 196L452 198L452 193L443 196z"/>
<path style="fill:#b6b3b4; stroke:none;" d="M34.3333 194.667L34.6667 195.333L34.3333 194.667z"/>
<path style="fill:#cab3b6; stroke:none;" d="M424 197L428 194L424 197z"/>
<path style="fill:#ab9b72; stroke:none;" d="M454 194L454 199L455 199L456 194L454 194z"/>
<path style="fill:#725135; stroke:none;" d="M91 195C91 225.679 90 256.397 90 287C90 298.093 86.8893 314.783 91 325L92 325L93 320C90.1833 316.263 91.7679 312.402 91.9606 308C92.3431 299.265 91.625 290.687 92.7114 282C95.2221 261.925 93 240.237 93 220C93 212.458 94.9853 201.653 91 195z"/>
<path style="fill:#ffffff; stroke:none;" d="M431 196L431 197L437 197L437 195L431 196z"/>
<path style="fill:#787065; stroke:none;" d="M442 195L446 197L446 196L442 195z"/>
<path style="fill:#79211c; stroke:none;" d="M234 199L234 200L262 198.286L300 210C284.293 195.197 253.511 193.463 234 199z"/>
<path style="fill:#8d7652; stroke:none;" d="M28 197L28 198L31 198L28 197M448 197L448 198L452 199L448 197z"/>
<path style="fill:#958c8e; stroke:none;" d="M25 199L28 202L28 198L25 199z"/>
<path style="fill:#55271a; stroke:none;" d="M28 198L28 200L34 203C35.4393 198.608 31.5946 198.118 28 198z"/>
<path style="fill:#725135; stroke:none;" d="M200 270C226.826 270 255.273 275.962 282 271L282 270L267 269L267 270L269 270L269 271L230 270C231.242 258.702 231.825 242.709 228 232L256 225.13L284 232L286 239C278.497 249.712 282.274 265.961 296 266L296 265L293 263L306 263L305 255L309 255C309 245.548 312.982 224.519 307.972 216.478C303.671 209.574 290.256 205.812 283 203.446C259.845 195.896 238.569 196.524 217 208.378C211.612 211.339 204.146 213.168 200.434 218.529C197.834 222.283 199 228.666 199 233C199 245.367 199.966 257.695 200 270z"/>
<path style="fill:#2a1812; stroke:none;" d="M409 198L411 308L412 308L411.015 274L411 198L409 198z"/>
<path style="fill:#55271a; stroke:none;" d="M38 199L37 203L40 199L38 199z"/>
<path style="fill:#2a1812; stroke:none;" d="M427 199L429 202L427 205L437 221L438 221C437.754 212.495 434.219 203.76 427 199z"/>
<path style="fill:#8d7652; stroke:none;" d="M24 200C24.3543 201.771 22.7419 204.968 22 202L21 202L22 207L24 203C27.0506 203.018 26.3295 201.095 24 200z"/>
<path style="fill:#ffffff; stroke:none;" d="M26 204L33 205L32 200L26 204z"/>
<path style="fill:#9e8b6c; stroke:none;" d="M32 200L32 202L34 202L34 200L32 200z"/>
<path style="fill:#c2b088; stroke:none;" d="M73 200L73 211L74 211L73 200z"/>
<path style="fill:#2a1812; stroke:none;" d="M95 200C95 235.964 95.8661 272.048 94.9853 308C94.6538 321.534 91.5549 340.545 108 346L108 345C94.7568 333.946 96 319.654 96 304C96 273.253 95.5817 241.642 98 211L101 212L95 200z"/>
<path style="fill:#55271a; stroke:none;" d="M408 200L408 264L409 264L409 220L408 200z"/>
<path style="fill:#8d7652; stroke:none;" d="M453.333 200.667L453.667 201.333L453.333 200.667z"/>
<path style="fill:#cec7b5; stroke:none;" d="M23.6667 201.333L24.3333 201.667L23.6667 201.333z"/>
<path style="fill:#55271a; stroke:none;" d="M19 202C16.4251 207.351 15.3131 215.411 21 219L23 210L24 210C22.1556 218.069 23.146 225.915 21.7407 233.91C16.9276 261.298 15.8374 294.161 25 321L28 320L32 328L37 328L42 335L46 341C45.6944 333.882 42.3965 329.509 40.5718 323C37.2767 311.247 34.3556 297.254 33.1698 285C30.6138 258.588 35.8814 233.729 38 208L24 203L21 210L20 210L21 202L19 202z"/>
<path style="fill:#cab3b6; stroke:none;" d="M22.3333 202.667L22.6667 203.333L22.3333 202.667z"/>
<path style="fill:#cec7b5; stroke:none;" d="M32 202L32 204L34 202L32 202z"/>
<path style="fill:#8d7652; stroke:none;" d="M425 202L430 207L430 206L425 202z"/>
<path style="fill:#b1a699; stroke:none;" d="M17 204L18 205L17 204z"/>
<path style="fill:#cec7b5; stroke:none;" d="M28 204L28 205L31 205L28 204z"/>
<path style="fill:#958c8e; stroke:none;" d="M33 204L38 207L38 204L33 204z"/>
<path style="fill:#2d2937; stroke:none;" d="M39 204L38 207L33 206L33 207L38 208L32 239L36 239L41 204L39 204z"/>
<path style="fill:#5a533c; stroke:none;" d="M28 205L28 206L33 206L28 205z"/>
<path style="fill:#9e8b6c; stroke:none;" d="M16 206L16 214L17 214L16 206z"/>
<path style="fill:#ab9b72; stroke:none;" d="M21 206L20 210L21 210L21 206z"/>
<path style="fill:#b1a699; stroke:none;" d="M457.333 206.667L457.667 207.333L457.333 206.667z"/>
<path style="fill:#725135; stroke:none;" d="M23 210C14.7449 227.022 17 249.371 17 268C17 300.139 21.5835 333.015 40.5694 360C73.614 406.967 135.057 426.769 187.961 438.747C214.152 444.677 239.735 452.829 267 454L267 453L245 447.25L194 434C193.389 429.906 172.537 424.538 168 424L168 421C155.218 420.308 137.956 409.881 126 404.719C120 402.129 113.743 397.771 107 399C107 391.27 89.992 381.661 83 377C79.6869 374.791 74.3151 373.356 73 375L66 367L67 365L64 360L56 355L48 339L46 341L42 335L37 328L32 328L28 320L25 321C18.725 296.808 17.9144 271.796 19.2091 247C19.7842 235.985 26.1515 220.653 23 210z"/>
<path style="fill:#ab9b72; stroke:none;" d="M459.333 210.667L459.667 211.333L459.333 210.667z"/>
<path style="fill:#9e8b6c; stroke:none;" d="M460.333 212.667L460.667 213.333L460.333 212.667z"/>
<path style="fill:#b1a699; stroke:none;" d="M461.333 214.667L461.667 215.333L461.333 214.667z"/>
<path style="fill:#725135; stroke:none;" d="M448 215L446 216L444 225L448 226L445 238L446 234L444 234L445 230L443 230L444 226L442 226L443 222C437.826 223.109 443.371 239.463 444.694 244C451.347 266.808 452.701 290.936 459 314L463 312L460 315L461 323L466 322L466 326C477.095 324.524 480 322.675 480 336L481 336L481 322L483 322L483 331L485 331C485.092 297.432 473.575 266.796 468 234L464 236L465 231L462 236L458 236L456 231L458 231L453 225L453 224C455.338 221.259 450.112 217.102 448 215z"/>
<path style="fill:#cec7b5; stroke:none;" d="M17.3333 216.667L17.6667 217.333L17.3333 216.667z"/>
<path style="fill:#955b49; stroke:none;" d="M74 216L74 224L75 224L74 216z"/>
<path style="fill:#8d7652; stroke:none;" d="M18 217L18 221L19 221L18 217z"/>
<path style="fill:#9e8b6c; stroke:none;" d="M462.333 217.667L462.667 218.333L462.333 217.667z"/>
<path style="fill:#b6b3b4; stroke:none;" d="M37.3333 218.667L37.6667 219.333L37.3333 218.667z"/>
<path style="fill:#5a533c; stroke:none;" d="M36 220L36 230L37 230L36 220z"/>
<path style="fill:#8d7652; stroke:none;" d="M463.333 220.667L463.667 221.333L463.333 220.667z"/>
<path style="fill:#b1a699; stroke:none;" d="M464.333 222.667L464.667 223.333L464.333 222.667z"/>
<path style="fill:#cec7b5; stroke:none;" d="M17 224L17 229L18 229L17 224z"/>
<path style="fill:#9e8b6c; stroke:none;" d="M74 224L74 232L75 232L74 224z"/>
<path style="fill:#787065; stroke:none;" d="M251 225L251 226L260 226L251 225z"/>
<path style="fill:#b1a699; stroke:none;" d="M465 225L465 228L466 228L465 225z"/>
<path style="fill:#ab9b72; stroke:none;" d="M243 227L243 228L248 228L243 227z"/>
<path style="fill:#ffffff; stroke:none;" d="M247 226L247 227L260 227L247 226z"/>
<path style="fill:#cab3b6; stroke:none;" d="M260 226L260 228L264 228L264 226L260 226z"/>
<path style="fill:#787065; stroke:none;" d="M248 227L248 229L260 228L248 227z"/>
<path style="fill:#ffffff; stroke:none;" d="M264 227L264 228L269 228L264 227z"/>
<path style="fill:#d9d1cd; stroke:none;" d="M267 228L267 229L271 229L267 228z"/>
<path style="fill:#8d7652; stroke:none;" d="M270 229L270 230L276 231L270 229z"/>
<path style="fill:#c2b088; stroke:none;" d="M466 228L466 231L467 231L466 228z"/>
<path style="fill:#6a5d59; stroke:none;" d="M234 232L234 233L246 230L234 232z"/>
<path style="fill:#b1a699; stroke:none;" d="M36 230L36 236L37 236L36 230z"/>
<path style="fill:#2a1812; stroke:none;" d="M230 235L231 269C241.761 262.724 262.647 265.034 275 265L275 267L267 267L267 268L277.397 266.972L279 258L279 235C260.758 229.747 248.248 228.917 230 235z"/>
<path style="fill:#d9d1cd; stroke:none;" d="M74 232L74 238L75 238L74 232z"/>
<path style="fill:#ab9b72; stroke:none;" d="M467.333 232.667L467.667 233.333L467.333 232.667z"/>
<path style="fill:#955b49; stroke:none;" d="M75 235L75 243L76 243L75 235z"/>
<path style="fill:#b1a699; stroke:none;" d="M468 235L468 238L469 238L468 235z"/>
<path style="fill:#787065; stroke:none;" d="M36 236L36 239L37 239L36 236z"/>
<path style="fill:#ab9b72; stroke:none;" d="M17 238L17 244L18 244L17 238z"/>
<path style="fill:#ffffff; stroke:none;" d="M146.667 238.333L147.333 238.667L146.667 238.333z"/>
<path style="fill:#ab9b72; stroke:none;" d="M148 238L148 239L151 240L148 238z"/>
<path style="fill:#cec7b5; stroke:none;" d="M469.333 238.667L469.667 239.333L469.333 238.667z"/>
<path style="fill:#6a5d59; stroke:none;" d="M33 239L33 251L34 251L33 239z"/>
<path style="fill:#9e8b6c; stroke:none;" d="M146 239L149 242L146 239z"/>
<path style="fill:#8d7652; stroke:none;" d="M148 239L151 242L148 239z"/>
<path style="fill:#958c8e; stroke:none;" d="M245 242L245 244L256 243L245 242z"/>
<path style="fill:#d9d1cd; stroke:none;" d="M256 242L256 243L263 243L256 242z"/>
<path style="fill:#2a1812; stroke:none;" d="M422 242C422.035 254.889 427.046 267.844 431 280L432 280C430.512 268.48 427.494 252.259 422 242z"/>
<path style="fill:#c2b088; stroke:none;" d="M470.333 242.667L470.667 243.333L470.333 242.667z"/>
<path style="fill:#cab3b6; stroke:none;" d="M75 243L75 248L76 248L75 243z"/>
<path style="fill:#2d2937; stroke:none;" d="M245 244L245 245L253 244L245 244z"/>
<path style="fill:#725135; stroke:none;" d="M244 245L243 245L241 249L243 261C246.657 259.021 248.94 259.275 251 263C254.914 262.887 262.501 262.323 265.397 259.397C269.037 255.72 267.161 246.657 262.891 244.318C255.697 240.377 249.812 249.323 244 245z"/>
<path style="fill:#ab9b72; stroke:none;" d="M244 245L251 247L251 246L244 245z"/>
<path style="fill:#ffffff; stroke:none;" d="M245 245L245 246L249 246L245 245z"/>
<path style="fill:#cec7b5; stroke:none;" d="M249.667 245.333L250.333 245.667L249.667 245.333z"/>
<path style="fill:#f4d5a1; stroke:none;" d="M260 245L260 246L264 246L260 245z"/>
<path style="fill:#ab9b72; stroke:none;" d="M266.333 246.667L266.667 247.333L266.333 246.667z"/>
<path style="fill:#c2b088; stroke:none;" d="M471.333 246.667L471.667 247.333L471.333 246.667z"/>
<path style="fill:#8d7652; stroke:none;" d="M241 247L241 249L243 249L243 247L241 247z"/>
<path style="fill:#787065; stroke:none;" d="M259 247L264 249L259 247z"/>
<path style="fill:#2a1812; stroke:none;" d="M263 247L264 258L265 258L263 247z"/>
<path style="fill:#d9d1cd; stroke:none;" d="M16 248L16 252L17 252L16 248z"/>
<path style="fill:#cec7b5; stroke:none;" d="M246 248L246 249L250 249L246 248z"/>
<path style="fill:#b1a699; stroke:none;" d="M421 248L422 252L423 252L421 248z"/>
<path style="fill:#2d2937; stroke:none;" d="M258 249L262 257C261.875 253.122 261.498 250.928 258 249z"/>
<path style="fill:#2a1812; stroke:none;" d="M248 250L248 253L249 253L250 250L248 250z"/>
<path style="fill:#8d7652; stroke:none;" d="M252 250L252 254L257 250L252 250z"/>
<path style="fill:#b6b3b4; stroke:none;" d="M472.333 250.667L472.667 251.333L472.333 250.667z"/>
<path style="fill:#d9d1cd; stroke:none;" d="M33 251L33 280L34 280L33 251z"/>
<path style="fill:#c2b088; stroke:none;" d="M16 252L16 256L17 256L16 252z"/>
<path style="fill:#9e8b6c; stroke:none;" d="M76 252L76 255L77 255L76 252z"/>
<path style="fill:#8d7652; stroke:none;" d="M472.333 252.667L472.667 253.333L472.333 252.667M250 253L249 257L250 253z"/>
<path style="fill:#55271a; stroke:none;" d="M246 254L249 257L246 254z"/>
<path style="fill:#b1a699; stroke:none;" d="M420 254L420 259L421 259L420 254z"/>
<path style="fill:#958c8e; stroke:none;" d="M423.333 254.667L423.667 255.333L423.333 254.667z"/>
<path style="fill:#8d7652; stroke:none;" d="M16 256L16 280L17 280L16 256z"/>
<path style="fill:#955b49; stroke:none;" d="M152 256L155 258L155 257L152 256z"/>
<path style="fill:#ab9b72; stroke:none;" d="M252 256L256 262L253 258L253 257L255 257L252 256z"/>
<path style="fill:#8d7652; stroke:none;" d="M473.333 256.667L473.667 257.333L473.333 256.667z"/>
<path style="fill:#c2b088; stroke:none;" d="M141 257L140 262C116.575 265.511 119.521 291.239 130 306L143 305L144 300L138 295L157 292L157 294L148 293L152 298C147.587 298.946 148.748 306.046 148 310L156 315L151 316L151 317C171.808 316.814 179.893 295.462 170.585 278.129C167.925 273.175 162.034 270.794 158.559 266.557C156.252 263.743 155.996 260.206 153 258L154 263L142 261L141 257z"/>
<path style="fill:#b6b3b4; stroke:none;" d="M424.333 258.667L424.667 259.333L424.333 258.667z"/>
<path style="fill:#b1a699; stroke:none;" d="M77 259L77 264L78 264L77 259z"/>
<path style="fill:#c2b088; stroke:none;" d="M244 259L244 261L250 260L244 259z"/>
<path style="fill:#ffffff; stroke:none;" d="M258 259L258 260L264 260L258 259z"/>
<path style="fill:#b1a699; stroke:none;" d="M474 259L474 262L475 262L474 259z"/>
<path style="fill:#725135; stroke:none;" d="M153 261L150 262L150 263L153 261z"/>
<path style="fill:#b1a699; stroke:none;" d="M425.333 261.667L425.667 262.333L425.333 261.667z"/>
<path style="fill:#9e8b6c; stroke:none;" d="M419 262L419 270L420 270L419 262z"/>
<path style="fill:#5a533c; stroke:none;" d="M266 265L266 266L275 266L266 265z"/>
<path style="fill:#2a1812; stroke:none;" d="M312 267L312 269C324.496 269 340.336 270.943 352 266L312 267z"/>
<path style="fill:#b6b3b4; stroke:none;" d="M426.333 265.667L426.667 266.333L426.333 265.667z"/>
<path style="fill:#725135; stroke:none;" d="M137 266C136.01 271.366 137.015 275.185 142 278C140.439 273.607 136.819 269.896 143 268L137 266z"/>
<path style="fill:#2d2937; stroke:none;" d="M236 266L236 267L247 267L236 266z"/>
<path style="fill:#6a5d59; stroke:none;" d="M247 266L247 267L259 267L247 266z"/>
<path style="fill:#958c8e; stroke:none;" d="M233 267L233 268L267 268C259.311 263.401 242.099 267 233 267z"/>
<path style="fill:#b3c8d8; stroke:none;" d="M264 266L264 267L275 267L264 266z"/>
<path style="fill:#5a533c; stroke:none;" d="M232 267L244 269L244 268L232 267z"/>
<path style="fill:#725135; stroke:none;" d="M286 267L286 268L309 268L286 267z"/>
<path style="fill:#cec7b5; stroke:none;" d="M230 269L230 270L267 270C256.652 265.658 241.116 269 230 269z"/>
<path style="fill:#f4d5a1; stroke:none;" d="M256 268L256 269L279 269L256 268z"/>
<path style="fill:#958c8e; stroke:none;" d="M427.333 268.667L427.667 269.333L427.333 268.667z"/>
<path style="fill:#55271a; stroke:none;" d="M248 270L248 271L269 271L248 270z"/>
<path style="fill:#955b49; stroke:none;" d="M418 272L418 275L419 275L418 272z"/>
<path style="fill:#c2b088; stroke:none;" d="M477.333 272.667L477.667 273.333L477.333 272.667z"/>
<path style="fill:#9e8b6c; stroke:none;" d="M146 273L149 275L149 274L146 273z"/>
<path style="fill:#5a533c; stroke:none;" d="M147 273L147 274L151 278L146 278L146 279L150 280L149 284C153.652 279.894 153.941 274.107 147 273z"/>
<path style="fill:#725135; stroke:none;" d="M166 273L170 276L170 273L169 273L166 273z"/>
<path style="fill:#8d7652; stroke:none;" d="M135 275L135 276L139 278C139.728 275.007 137.588 274.888 135 275z"/>
<path style="fill:#5a533c; stroke:none;" d="M153 290C155.517 288.368 160.623 268.792 163 284C165.546 280.279 161.649 272.059 156.603 275.284C154.007 276.943 153.827 286.872 153 290z"/>
<path style="fill:#9e8b6c; stroke:none;" d="M79 275L79 278L80 278L79 275z"/>
<path style="fill:#b1a699; stroke:none;" d="M418 275L418 278L419 278L418 275z"/>
<path style="fill:#725135; stroke:none;" d="M132 282L139 277C134.535 275.271 132.351 277.602 132 282z"/>
<path style="fill:#8d7652; stroke:none;" d="M154 277L154 286L155 286L154 277z"/>
<path style="fill:#b1a699; stroke:none;" d="M478 277L478 280L479 280L478 277z"/>
<path style="fill:#cec7b5; stroke:none;" d="M430.333 278.667L430.667 279.333L430.333 278.667z"/>
<path style="fill:#b1a699; stroke:none;" d="M16 280L16 285L17 285L16 280z"/>
<path style="fill:#7a7b8a; stroke:none;" d="M33 280L33 288L34 288L33 280z"/>
<path style="fill:#8d7652; stroke:none;" d="M121 280L121 286L122 286L121 280z"/>
<path style="fill:#5a533c; stroke:none;" d="M143 280L146 290L147 290L146 280L143 280z"/>
<path style="fill:#b6b3b4; stroke:none;" d="M431.333 281.667L431.667 282.333L431.333 281.667z"/>
<path style="fill:#cec7b5; stroke:none;" d="M479.333 281.667L479.667 282.333L479.333 281.667z"/>
<path style="fill:#d9d1cd; stroke:none;" d="M417 283L417 288L418 288L417 283z"/>
<path style="fill:#9e8b6c; stroke:none;" d="M479 283L479 286L480 286L479 283z"/>
<path style="fill:#b1a699; stroke:none;" d="M432.333 284.667L432.667 285.333L432.333 284.667z"/>
<path style="fill:#cec7b5; stroke:none;" d="M480.333 286.667L480.667 287.333L480.333 286.667z"/>
<path style="fill:#725135; stroke:none;" d="M162 287L160 293C163.475 291.845 164.168 289.995 162 287z"/>
<path style="fill:#787065; stroke:none;" d="M17 288L17 296L18 296L17 288z"/>
<path style="fill:#b3c8d8; stroke:none;" d="M34 288L34 291L35 291L34 288z"/>
<path style="fill:#c2b088; stroke:none;" d="M81.3333 288.667L81.6667 289.333L81.3333 288.667z"/>
<path style="fill:#b6b3b4; stroke:none;" d="M433.333 288.667L433.667 289.333L433.333 288.667z"/>
<path style="fill:#9e8b6c; stroke:none;" d="M480.333 288.667L480.667 289.333L480.333 288.667z"/>
<path style="fill:#8d7652; stroke:none;" d="M174 289L174 301L175 301L174 289z"/>
<path style="fill:#9e8b6c; stroke:none;" d="M416 289L416 292L417 292L416 289z"/>
<path style="fill:#cec7b5; stroke:none;" d="M481 290L481 293L482 293L481 290z"/>
<path style="fill:#958c8e; stroke:none;" d="M34 291L34 294L35 294L34 291z"/>
<path style="fill:#6a5d59; stroke:none;" d="M138 295C138.827 298.795 140.171 299.696 144 300L143 293L147 295L148 295L157 294L157 292C149.875 291.442 144.263 291.056 138 295z"/>
<path style="fill:#cec7b5; stroke:none;" d="M416 292L416 304L417 304L416 292z"/>
<path style="fill:#55271a; stroke:none;" d="M143 293L146 308L149 308L148 297L152 297L143 293z"/>
<path style="fill:#b1a699; stroke:none;" d="M35.3333 296.667L35.6667 297.333L35.3333 296.667z"/>
<path style="fill:#c2b088; stroke:none;" d="M482.333 296.667L482.667 297.333L482.333 296.667z"/>
<path style="fill:#9e8b6c; stroke:none;" d="M83.3333 297.667L83.6667 298.333L83.3333 297.667M148 297L148 304L149 304L152 298L148 297z"/>
<path style="fill:#8d7652; stroke:none;" d="M18 299L18 302L19 302L18 299z"/>
<path style="fill:#958c8e; stroke:none;" d="M36 301L36 304L37 304L36 301z"/>
<path style="fill:#8d7652; stroke:none;" d="M84 301L84 304L85 304L84 301z"/>
<path style="fill:#787065; stroke:none;" d="M173 301L171 309L172 309L177 302L175 304L174 304L173 301z"/>
<path style="fill:#cab3b6; stroke:none;" d="M483 301L483 304L484 304L483 301z"/>
<path style="fill:#6a5d59; stroke:none;" d="M144 302L143 309L148 309L148 308L144 302z"/>
<path style="fill:#958c8e; stroke:none;" d="M438.333 302.667L438.667 303.333L438.333 302.667z"/>
<path style="fill:#9e8b6c; stroke:none;" d="M141 304L141 312L136 310L138 307L131 306C135.561 312.324 142.299 316.048 150 317C149.204 313.284 146.363 314 143 314C146.346 310.587 149.54 311.175 154 312L154 311L143 309L141 304z"/>
<path style="fill:#787065; stroke:none;" d="M37.3333 306.667L37.6667 307.333L37.3333 306.667z"/>
<path style="fill:#8d7652; stroke:none;" d="M85 306L85 309L86 309L85 306z"/>
<path style="fill:#725135; stroke:none;" d="M138 306L136 310L141 312L138 306z"/>
<path style="fill:#c2b088; stroke:none;" d="M19.3333 307.667L19.6667 308.333L19.3333 307.667z"/>
<path style="fill:#cab3b6; stroke:none;" d="M484 307L484 310L485 310L484 307z"/>
<path style="fill:#b6b3b4; stroke:none;" d="M440.333 308.667L440.667 309.333L440.333 308.667z"/>
<path style="fill:#7a7b8a; stroke:none;" d="M38.3333 309.667L38.6667 310.333L38.3333 309.667z"/>
<path style="fill:#d9d1cd; stroke:none;" d="M415 310L415 314L416 314L415 310z"/>
<path style="fill:#8d7652; stroke:none;" d="M143 314L149 314L149 311L143 314z"/>
<path style="fill:#725135; stroke:none;" d="M149 311L150 317C146.191 316.162 143.142 315.741 142 320L150 321L150 318L155 318L155 317L151 317L151 316L156 315L156 313L149 311z"/>
<path style="fill:#cec7b5; stroke:none;" d="M20.3333 312.667L20.6667 313.333L20.3333 312.667z"/>
<path style="fill:#958c8e; stroke:none;" d="M39.3333 312.667L39.6667 313.333L39.3333 312.667z"/>
<path style="fill:#cab3b6; stroke:none;" d="M86.3333 312.667L86.6667 313.333L86.3333 312.667z"/>
<path style="fill:#2a1812; stroke:none;" d="M410 312L395 337L400 331L402 332L408 321C411.673 320.493 411.607 315.294 412 312L410 312z"/>
<path style="fill:#8d7652; stroke:none;" d="M21 314L21 317L22 317L21 314z"/>
<path style="fill:#787065; stroke:none;" d="M158 316L158 317C161.363 317 164.204 317.716 165 314L158 316z"/>
<path style="fill:#cec7b5; stroke:none;" d="M442.333 314.667L442.667 315.333L442.333 314.667z"/>
<path style="fill:#b1a699; stroke:none;" d="M485 314L485 317L486 317L485 314z"/>
<path style="fill:#2d2937; stroke:none;" d="M40 316C40.0427 331.484 52.1063 341.167 56 355L64 360L67 365L66 367L73 375L75 373L80 376L56.3472 348L40 316z"/>
<path style="fill:#cec7b5; stroke:none;" d="M414.333 316.667L414.667 317.333L414.333 316.667z"/>
<path style="fill:#958c8e; stroke:none;" d="M41.3333 318.667L41.6667 319.333L41.3333 318.667z"/>
<path style="fill:#8d7652; stroke:none;" d="M88.3333 318.667L88.6667 319.333L88.3333 318.667z"/>
<path style="fill:#cec7b5; stroke:none;" d="M486 320L486 323L487 323L486 320z"/>
<path style="fill:#cab3b6; stroke:none;" d="M89.3333 322.667L89.6667 323.333L89.3333 322.667z"/>
<path style="fill:#b6b3b4; stroke:none;" d="M445.333 322.667L445.667 323.333L445.333 322.667z"/>
<path style="fill:#6a5d59; stroke:none;" d="M486 323L486 330L487 330L486 323M43.3333 324.667L43.6667 325.333L43.3333 324.667z"/>
<path style="fill:#8d7652; stroke:none;" d="M90 324L90 327L91 327L90 324z"/>
<path style="fill:#cab3b6; stroke:none;" d="M446.333 325.667L446.667 326.333L446.333 325.667z"/>
<path style="fill:#7a7b8a; stroke:none;" d="M44.3333 326.667L44.6667 327.333L44.3333 326.667z"/>
<path style="fill:#d9d1cd; stroke:none;" d="M487 326L487 333L488 333L487 326z"/>
<path style="fill:#b6b3b4; stroke:none;" d="M447.333 328.667L447.667 329.333L447.333 328.667z"/>
<path style="fill:#9e8b6c; stroke:none;" d="M91 329L91 332L92 332L91 329M92 332L92 335L93 335L92 332z"/>
<path style="fill:#725135; stroke:none;" d="M487 333L487 359L488 359L487 333z"/>
<path style="fill:#cec7b5; stroke:none;" d="M27.3333 334.667L27.6667 335.333L27.3333 334.667z"/>
<path style="fill:#c2b088; stroke:none;" d="M28.3333 336.667L28.6667 337.333L28.3333 336.667z"/>
<path style="fill:#958c8e; stroke:none;" d="M450.333 336.667L450.667 337.333L450.333 336.667z"/>
<path style="fill:#cec7b5; stroke:none;" d="M29.3333 339.667L29.6667 340.333L29.3333 339.667z"/>
<path style="fill:#b6b3b4; stroke:none;" d="M453.333 346.667L453.667 347.333L453.333 346.667z"/>
<path style="fill:#9e8b6c; stroke:none;" d="M102.667 348.333L103.333 348.667L102.667 348.333z"/>
<path style="fill:#7a7b8a; stroke:none;" d="M454 349L454 352L455 352L454 349M373 350L373 351L376 351L373 350z"/>
<path style="fill:#958c8e; stroke:none;" d="M369 351L369 352L372 352L369 351M113.667 352.333L114.333 352.667L113.667 352.333z"/>
<path style="fill:#2a1812; stroke:none;" d="M128 354L128 355L356 353L335 352L290 352L128 354z"/>
<path style="fill:#958c8e; stroke:none;" d="M360 352L360 353L366 353L360 352z"/>
<path style="fill:#5a533c; stroke:none;" d="M248 353L248 354L272 354L248 353z"/>
<path style="fill:#6a5d59; stroke:none;" d="M272 353L272 354L304 354L272 353z"/>
<path style="fill:#958c8e; stroke:none;" d="M304 353L304 354L320 354L304 353z"/>
<path style="fill:#b6b3b4; stroke:none;" d="M320 353L320 354L336 354L320 353z"/>
<path style="fill:#d9d1cd; stroke:none;" d="M336 353L336 354L355 354L336 353z"/>
<path style="fill:#958c8e; stroke:none;" d="M455 353L455 356L456 356L455 353z"/>
<path style="fill:#cec7b5; stroke:none;" d="M118 354L118 355L122 355L118 354z"/>
<path style="fill:#787065; stroke:none;" d="M206.667 354.333L207.333 354.667L206.667 354.333z"/>
<path style="fill:#cec7b5; stroke:none;" d="M208 354L208 355L232 355L208 354z"/>
<path style="fill:#d9d1cd; stroke:none;" d="M123 355L123 356L137 358L137 356L123 355z"/>
<path style="fill:#6a5d59; stroke:none;" d="M133 355L133 356L140 356L133 355z"/>
<path style="fill:#5a533c; stroke:none;" d="M176 355L176 356L188 356L176 355z"/>
<path style="fill:#7a7b8a; stroke:none;" d="M188 355L188 356L195 356L188 355z"/>
<path style="fill:#b6b3b4; stroke:none;" d="M195 355L195 356L202 356L195 355M137 356L137 358L192 357L174 356L137 356z"/>
<path style="fill:#958c8e; stroke:none;" d="M456 357L456 360L457 360L456 357z"/>
<path style="fill:#d9d1cd; stroke:none;" d="M487 359L487 364L488 364L487 359z"/>
<path style="fill:#958c8e; stroke:none;" d="M457 361L457 364L458 364L457 361z"/>
<path style="fill:#c2b088; stroke:none;" d="M486 364L486 368L487 368L486 364z"/>
<path style="fill:#7a7b8a; stroke:none;" d="M458 365L458 368L459 368L458 365z"/>
<path style="fill:#958c8e; stroke:none;" d="M459.333 370.667L459.667 371.333L459.333 370.667z"/>
<path style="fill:#7a7b8a; stroke:none;" d="M460.333 374.667L460.667 375.333L460.333 374.667z"/>
<path style="fill:#b1a699; stroke:none;" d="M484.333 374.667L484.667 375.333L484.333 374.667z"/>
<path style="fill:#b6b3b4; stroke:none;" d="M460 376L460 379L461 379L460 376z"/>
<path style="fill:#958c8e; stroke:none;" d="M85 379L86 380L85 379M461 380L461 385L462 385L461 380M89 382L90 383L89 382z"/>
<path style="fill:#b1a699; stroke:none;" d="M93 385L94 386L93 385z"/>
<path style="fill:#cec7b5; stroke:none;" d="M27 386L27 388L30 388L30 386L27 386z"/>
<path style="fill:#b1a699; stroke:none;" d="M480 386L480 389L481 389L480 386z"/>
<path style="fill:#ab9b72; stroke:none;" d="M460.333 387.667L460.667 388.333L460.333 387.667z"/>
<path style="fill:#7a7b8a; stroke:none;" d="M459.333 392.667L459.667 393.333L459.333 392.667z"/>
<path style="fill:#b1a699; stroke:none;" d="M479.333 392.667L479.667 393.333L479.333 392.667z"/>
<path style="fill:#55271a; stroke:none;" d="M105 393L107 399C127.871 397.609 147.311 420.501 168 421L168 424L173 427L179 427L194 434L254 448L254 447C202.23 440.023 152.583 412.811 105 393z"/>
<path style="fill:#787065; stroke:none;" d="M458.333 396.667L458.667 397.333L458.333 396.667z"/>
<path style="fill:#ab9b72; stroke:none;" d="M478.333 396.667L478.667 397.333L478.333 396.667z"/>
<path style="fill:#2a1812; stroke:none;" d="M475 397C469.977 404.826 456.467 428.153 446 427C441.96 435.089 429.128 440.081 421 443.015C405.895 448.466 391.986 456.295 377 462C379.32 473.128 393.566 469.82 400.999 466.873C421.643 458.687 439.933 442.924 455 427L448 438C458.047 433.204 466.028 418.549 471.055 409C472.952 405.397 476.091 401.094 475 397z"/>
<path style="fill:#b1a699; stroke:none;" d="M83 398L84 399L83 398z"/>
<path style="fill:#cec7b5; stroke:none;" d="M457.333 398.667L457.667 399.333L457.333 398.667z"/>
<path style="fill:#b6b3b4; stroke:none;" d="M120.667 400.333L121.333 400.667L120.667 400.333z"/>
<path style="fill:#b1a699; stroke:none;" d="M477.333 400.667L477.667 401.333L477.333 400.667z"/>
<path style="fill:#d9d1cd; stroke:none;" d="M83 402L83 404L85 404L85 402L83 402z"/>
<path style="fill:#8d7652; stroke:none;" d="M456.333 402.667L456.667 403.333L456.333 402.667z"/>
<path style="fill:#cec7b5; stroke:none;" d="M476.333 403.667L476.667 404.333L476.333 403.667z"/>
<path style="fill:#787065; stroke:none;" d="M455.333 405.667L455.667 406.333L455.333 405.667M96.6667 406.333L97.3333 406.667L96.6667 406.333z"/>
<path style="fill:#cec7b5; stroke:none;" d="M475.333 406.667L475.667 407.333L475.333 406.667z"/>
<path style="fill:#cab3b6; stroke:none;" d="M474.333 408.667L474.667 409.333L474.333 408.667M142.667 409.333L143.333 409.667L142.667 409.333z"/>
<path style="fill:#c2b088; stroke:none;" d="M473.333 410.667L473.667 411.333L473.333 410.667z"/>
<path style="fill:#cec7b5; stroke:none;" d="M149.667 412.333L150.333 412.667L149.667 412.333M472.333 412.667L472.667 413.333L472.333 412.667M471.333 414.667L471.667 415.333L471.333 414.667z"/>
<path style="fill:#b6b3b4; stroke:none;" d="M156.667 415.333L157.333 415.667L156.667 415.333z"/>
<path style="fill:#958c8e; stroke:none;" d="M158.667 416.333L159.333 416.667L158.667 416.333z"/>
<path style="fill:#cec7b5; stroke:none;" d="M166.667 419.333L167.333 419.667L166.667 419.333M176.667 423.333L177.333 423.667L176.667 423.333z"/>
<path style="fill:#cab3b6; stroke:none;" d="M465.333 424.667L465.667 425.333L465.333 424.667z"/>
<path style="fill:#ab9b72; stroke:none;" d="M138.667 425.333L139.333 425.667L138.667 425.333z"/>
<path style="fill:#cab3b6; stroke:none;" d="M181.667 425.333L182.333 425.667L181.667 425.333z"/>
<path style="fill:#b1a699; stroke:none;" d="M445 425L446 426L445 425z"/>
<path style="fill:#cab3b6; stroke:none;" d="M464.333 426.667L464.667 427.333L464.333 426.667z"/>
<path style="fill:#b1a699; stroke:none;" d="M186.667 427.333L187.333 427.667L186.667 427.333z"/>
<path style="fill:#5a533c; stroke:none;" d="M454 427L431 448L425 455L425 456C435.524 454.575 443.529 444.464 449.255 436.385C451.393 433.37 454.518 430.863 454 427z"/>
<path style="fill:#b6b3b4; stroke:none;" d="M189.667 428.333L190.333 428.667L189.667 428.333z"/>
<path style="fill:#958c8e; stroke:none;" d="M150.667 429.333L151.333 429.667L150.667 429.333z"/>
<path style="fill:#cab3b6; stroke:none;" d="M192.667 429.333L193.333 429.667L192.667 429.333z"/>
<path style="fill:#b3c8d8; stroke:none;" d="M198.667 431.333L199.333 431.667L198.667 431.333z"/>
<path style="fill:#5a533c; stroke:none;" d="M439 431L400 449L400 450C410.319 449.528 421.87 444.145 430.985 439.472C434.349 437.748 439.145 435.114 439 431z"/>
<path style="fill:#787065; stroke:none;" d="M160.667 432.333L161.333 432.667L160.667 432.333z"/>
<path style="fill:#cab3b6; stroke:none;" d="M201.667 432.333L202.333 432.667L201.667 432.333z"/>
<path style="fill:#b1a699; stroke:none;" d="M204.667 433.333L205.333 433.667L204.667 433.333z"/>
<path style="fill:#ab9b72; stroke:none;" d="M166.667 434.333L167.333 434.667L166.667 434.333z"/>
<path style="fill:#cec7b5; stroke:none;" d="M208.667 434.333L209.333 434.667L208.667 434.333z"/>
<path style="fill:#b1a699; stroke:none;" d="M211.667 435.333L212.333 435.667L211.667 435.333z"/>
<path style="fill:#d9d1cd; stroke:none;" d="M138 436L138 438L141 438L141 436L138 436z"/>
<path style="fill:#787065; stroke:none;" d="M173.667 436.333L174.333 436.667L173.667 436.333z"/>
<path style="fill:#958c8e; stroke:none;" d="M214.667 436.333L215.333 436.667L214.667 436.333z"/>
<path style="fill:#b1a699; stroke:none;" d="M218.667 437.333L219.333 437.667L218.667 437.333z"/>
<path style="fill:#2d2937; stroke:none;" d="M183 438L183 439L192 440L183 438z"/>
<path style="fill:#958c8e; stroke:none;" d="M222.667 438.333L223.333 438.667L222.667 438.333z"/>
<path style="fill:#b1a699; stroke:none;" d="M184.667 439.333L185.333 439.667L184.667 439.333z"/>
<path style="fill:#cec7b5; stroke:none;" d="M226.667 439.333L227.333 439.667L226.667 439.333z"/>
<path style="fill:#6a5d59; stroke:none;" d="M188 440L188 441L192 441L188 440z"/>
<path style="fill:#b6b3b4; stroke:none;" d="M229.667 440.333L230.333 440.667L229.667 440.333z"/>
<path style="fill:#7a7b8a; stroke:none;" d="M421.667 440.333L422.333 440.667L421.667 440.333z"/>
<path style="fill:#ab9b72; stroke:none;" d="M232.667 441.333L233.333 441.667L232.667 441.333z"/>
<path style="fill:#8d7652; stroke:none;" d="M200.667 442.333L201.333 442.667L200.667 442.333z"/>
<path style="fill:#958c8e; stroke:none;" d="M235.667 442.333L236.333 442.667L235.667 442.333M416.667 442.333L417.333 442.667L416.667 442.333z"/>
<path style="fill:#787065; stroke:none;" d="M238 443L238 444L241 444L238 443z"/>
<path style="fill:#cab3b6; stroke:none;" d="M243.667 444.333L244.333 444.667L243.667 444.333z"/>
<path style="fill:#958c8e; stroke:none;" d="M411.667 444.333L412.333 444.667L411.667 444.333z"/>
<path style="fill:#cab3b6; stroke:none;" d="M209 445L209 446L212 446L209 445z"/>
<path style="fill:#8d7652; stroke:none;" d="M212 445L212 446L216 446L212 445z"/>
<path style="fill:#958c8e; stroke:none;" d="M246.667 445.333L247.333 445.667L246.667 445.333z"/>
<path style="fill:#b1a699; stroke:none;" d="M250.667 446.333L251.333 446.667L250.667 446.333z"/>
<path style="fill:#958c8e; stroke:none;" d="M406.667 446.333L407.333 446.667L406.667 446.333M254.667 447.333L255.333 447.667L254.667 447.333z"/>
<path style="fill:#d9d1cd; stroke:none;" d="M258 448L258 449L262 449L258 448z"/>
<path style="fill:#8d7652; stroke:none;" d="M229.667 449.333L230.333 449.667L229.667 449.333z"/>
<path style="fill:#5a533c; stroke:none;" d="M259 449L259 450L274 456.22L330 461.815L350 469L347 471L351 470C349.661 461.902 336.647 461.654 330 460.004C315.915 456.506 301.294 456.642 287 454.711C277.624 453.445 268.393 449.43 259 449z"/>
<path style="fill:#958c8e; stroke:none;" d="M398.667 449.333L399.333 449.667L398.667 449.333z"/>
<path style="fill:#787065; stroke:none;" d="M410 463C417.377 461.578 428.513 455.824 432 449C425.455 451.477 413.849 457.123 410 463z"/>
<path style="fill:#958c8e; stroke:none;" d="M232 450L232 451L235 451L232 450z"/>
<path style="fill:#55271a; stroke:none;" d="M236 450L236 451L305 468.756L344 485C343.623 479.07 344.457 472.154 350 469C345.128 462.044 327.07 460.527 319 459.975C291.061 458.066 263.807 452.198 236 450z"/>
<path style="fill:#6a5d59; stroke:none;" d="M352 465C364.58 476.584 388.628 457.96 400 451C391.306 448.463 376.79 461.339 369 464.711C364.24 466.77 357.168 465 352 465z"/>
<path style="fill:#b1a699; stroke:none;" d="M236 451L236 452L239 452L236 451z"/>
<path style="fill:#958c8e; stroke:none;" d="M269 451L269 452L272 452L269 451z"/>
<path style="fill:#787065; stroke:none;" d="M241.667 452.333L242.333 452.667L241.667 452.333z"/>
<path style="fill:#cec7b5; stroke:none;" d="M280 453L280 454L286 454L280 453z"/>
<path style="fill:#b1a699; stroke:none;" d="M246.667 454.333L247.333 454.667L246.667 454.333z"/>
<path style="fill:#958c8e; stroke:none;" d="M285 454L285 455L291 455L285 454z"/>
<path style="fill:#b6b3b4; stroke:none;" d="M249.667 455.333L250.333 455.667L249.667 455.333z"/>
<path style="fill:#787065; stroke:none;" d="M251 455L251 456L254 456L251 455z"/>
<path style="fill:#958c8e; stroke:none;" d="M294 455L294 456L299 456L294 455z"/>
<path style="fill:#d9d1cd; stroke:none;" d="M299 455L299 456L306 456L299 455z"/>
<path style="fill:#7a7b8a; stroke:none;" d="M386.667 455.333L387.333 455.667L386.667 455.333z"/>
<path style="fill:#787065; stroke:none;" d="M256.667 456.333L257.333 456.667L256.667 456.333z"/>
<path style="fill:#cec7b5; stroke:none;" d="M307 456L307 457L312 457L307 456z"/>
<path style="fill:#7a7b8a; stroke:none;" d="M384.667 456.333L385.333 456.667L384.667 456.333z"/>
<path style="fill:#787065; stroke:none;" d="M261 457L261 458L264 458L261 457z"/>
<path style="fill:#d9d1cd; stroke:none;" d="M315 457L315 458L320 458L315 457z"/>
<path style="fill:#b1a699; stroke:none;" d="M264.667 458.333L265.333 458.667L264.667 458.333z"/>
<path style="fill:#7a7b8a; stroke:none;" d="M320 458L320 459L323 459L320 458z"/>
<path style="fill:#ab9b72; stroke:none;" d="M269 459L269 460L272 460L269 459z"/>
<path style="fill:#cec7b5; stroke:none;" d="M328.667 459.333L329.333 459.667L328.667 459.333z"/>
<path style="fill:#b6b3b4; stroke:none;" d="M274 460L274 461L277 461L274 460z"/>
<path style="fill:#7a7b8a; stroke:none;" d="M331 460L331 461L334 461L331 460z"/>
<path style="fill:#8d7652; stroke:none;" d="M280.667 461.333L281.333 461.667L280.667 461.333z"/>
<path style="fill:#ab9b72; stroke:none;" d="M336.667 461.333L337.333 461.667L336.667 461.333z"/>
<path style="fill:#b6b3b4; stroke:none;" d="M283 462L283 463L286 463L283 462z"/>
<path style="fill:#b1a699; stroke:none;" d="M340.667 462.333L341.333 462.667L340.667 462.333z"/>
<path style="fill:#b6b3b4; stroke:none;" d="M438 462L438 464L440 462L438 462z"/>
<path style="fill:#958c8e; stroke:none;" d="M288.667 463.333L289.333 463.667L288.667 463.333z"/>
<path style="fill:#b6b3b4; stroke:none;" d="M344.667 463.333L345.333 463.667L344.667 463.333z"/>
<path style="fill:#8d7652; stroke:none;" d="M355 469L355 470L360 470L360 471L354 471L354 472L386 477L385 475L386 475L393 476L391 472L377 472L379 467L377 468L377 467L377 463C367.801 466.946 365.616 469.088 355 469z"/>
<path style="fill:#7a7b8a; stroke:none;" d="M292.667 464.333L293.333 464.667L292.667 464.333z"/>
<path style="fill:#b6b3b4; stroke:none;" d="M347.667 464.333L348.333 464.667L347.667 464.333M354 464L354 465L360 465L354 464z"/>
<path style="fill:#cec7b5; stroke:none;" d="M294.667 465.333L295.333 465.667L294.667 465.333z"/>
<path style="fill:#ab9b72; stroke:none;" d="M350 465L350 466L353 467L353 469C342.525 471.541 345.907 479.503 345 488C352.513 482.714 347.18 471.702 360 471L360 470L350 465z"/>
<path style="fill:#b1a699; stroke:none;" d="M363 465L363 466L366 466L363 465z"/>
<path style="fill:#f4d5a1; stroke:none;" d="M377.333 466.667L377.667 467.333L377.333 466.667z"/>
<path style="fill:#ffffff; stroke:none;" d="M351 467L351 469L353 469L353 467L351 467z"/>
<path style="fill:#5a533c; stroke:none;" d="M355 467L355 469L368 470L355 467z"/>
<path style="fill:#d9d1cd; stroke:none;" d="M435 467L434 470L435 467z"/>
<path style="fill:#787065; stroke:none;" d="M303.667 468.333L304.333 468.667L303.667 468.333z"/>
<path style="fill:#6a5d59; stroke:none;" d="M378 469L383 474L387 474L389 470L378 469z"/>
<path style="fill:#787065; stroke:none;" d="M306.667 469.333L307.333 469.667L306.667 469.333z"/>
<path style="fill:#7a7b8a; stroke:none;" d="M308.667 470.333L309.333 470.667L308.667 470.333z"/>
<path style="fill:#f4d5a1; stroke:none;" d="M377 470L383 472L377 470z"/>
<path style="fill:#cec7b5; stroke:none;" d="M432 470L432 472L434 470L432 470z"/>
<path style="fill:#b1a699; stroke:none;" d="M387.333 471.667L387.667 472.333L387.333 471.667z"/>
<path style="fill:#d9d1cd; stroke:none;" d="M388 471L390 474L388 471z"/>
<path style="fill:#7a7b8a; stroke:none;" d="M313.667 472.333L314.333 472.667L313.667 472.333z"/>
<path style="fill:#55271a; stroke:none;" d="M350 476L359 473L359 474C354.504 476.919 351.694 484.778 351 490L349 490L349 481L348 481L349.457 495.853L358 505L369.965 505.941L383 503L383 502C380.548 496.678 385.149 483.094 388 478C380.019 474.566 355.399 466.209 350 476z"/>
<path style="fill:#cab3b6; stroke:none;" d="M378 472L378 473L383 473L378 472z"/>
<path style="fill:#cec7b5; stroke:none;" d="M430 472L430 474L432 472L430 472z"/>
<path style="fill:#2a1812; stroke:none;" d="M349 490L351 490L359 474C349.005 469.973 349.001 483.749 349 490z"/>
<path style="fill:#7a7b8a; stroke:none;" d="M318.667 474.333L319.333 474.667L318.667 474.333z"/>
<path style="fill:#ab9b72; stroke:none;" d="M385 475C391.803 485.816 385.536 492.176 383 503L376 503L376 506L381 508L382 508C384.484 505.499 388.21 504.315 390.285 501.443C395.056 494.838 395 482.88 395 475L385 475z"/>
<path style="fill:#8d7652; stroke:none;" d="M344 476L342 485C344.661 496.175 346.067 500.908 358 505L348 486L347 486L345 488L344 476z"/>
<path style="fill:#5a533c; stroke:none;" d="M349 476L349 480L350 480L349 476z"/>
<path style="fill:#b1a699; stroke:none;" d="M422 478L422 480L424 478L422 478z"/>
<path style="fill:#2a1812; stroke:none;" d="M386 479L381 502C388.479 497.459 388.934 486.933 389 479L386 479z"/>
<path style="fill:#958c8e; stroke:none;" d="M334.667 481.333L335.333 481.667L334.667 481.333z"/>
<path style="fill:#cec7b5; stroke:none;" d="M413.667 484.333L414.333 484.667L413.667 484.333z"/>
<path style="fill:#958c8e; stroke:none;" d="M410 487L413 486L410 487z"/>
<path style="fill:#b1a699; stroke:none;" d="M342 488L342 494L343 494L342 488M399.667 492.333L400.333 492.667L399.667 492.333z"/>
<path style="fill:#cec7b5; stroke:none;" d="M391.333 498.667L391.667 499.333L391.333 498.667z"/>
<path style="fill:#b6b3b4; stroke:none;" d="M350 501L350 502L353 502L350 501z"/>
<path style="fill:#787065; stroke:none;" d="M358 505L358 506L364 506L364 504L358 505z"/>
<path style="fill:#5a533c; stroke:none;" d="M374 504L364 506L364 507L381 508L381 506L376 504L374 504z"/>
<path style="fill:#b1a699; stroke:none;" d="M358 506L358 507L364 507L358 506M364 507L364 508L368 508L364 507z"/>
<path style="fill:#958c8e; stroke:none;" d="M376 508L376 509L381 509L376 508z"/>
</svg>
