<?xml version="1.0" standalone="yes"?>

	<svg
		xmlns="http://www.w3.org/2000/svg"
		xmlns:xlink="http://www.w3.org/1999/xlink"
		xmlns:svg="http://www.w3.org/2000/svg"
		xmlns:dc="http://purl.org/dc/elements/1.1/"
		xmlns:cc="http://web.resource.org/cc/"
		xmlns:rdf="http://www.w3.org/1999/02/22-rdf-syntax-ns#"
	 width="75" height="81">
<path style="fill:#334d60; stroke:none;" d="M0 0L0 7L8 6L8 7L0 8L0 55L1 55L12 0L0 0z"/>
<path style="fill:#f8fbfc; stroke:none;" d="M12 0L1 55L2 55L21 0L12 0z"/>
<path style="fill:#9d7575; stroke:none;" d="M19 6L25 9L29 0C23.6847 0.0187836 20.2048 0.222672 19 6z"/>
<path style="fill:#f8fbfc; stroke:none;" d="M12 39C20.3151 36.4428 24.9287 23.9748 25 16C31.6954 14.8518 35.4158 5.67854 38 0C22.9491 0.0116272 15.1117 25.869 12 39z"/>
<path style="fill:#334d60; stroke:none;" d="M25 16C24.8081 24.1613 19.4628 35.1869 12 39L24 6L18 6L3 53L4 53L10 40L11 40L1 60L75 60L75 0C65.8978 0 46.1268 -3.75946 38.3395 1.02778C32.4053 4.67584 32.1939 13.7559 25 16z"/>
<path style="fill:#8c9eab; stroke:none;" d="M0 7L0 8L8 7L0 7M10.3333 8.66666L10.6667 9.33334L10.3333 8.66666z"/>
<path style="fill:#f8fbfc; stroke:none;" d="M26 17L26 37L32 37L32 30L36 30L36 25L32 25L32 23L38 23C37.1857 15.9252 31.8777 17 26 17M44.0432 17.7461C33.0149 22.0727 39.4138 40.0089 50.9954 35.9529C63.3655 31.6208 55.7384 13.1579 44.0432 17.7461M55 17C59.8387 26.0576 59.2662 27.8732 55 37C59.5494 36.851 61.4227 35.7496 64 32C65.8868 35.9663 67.6644 36.8559 72 37C68.8085 27.3744 68.0755 26.8755 71 17L65 17L64 21L55 17z"/>
<path style="fill:#334d60; stroke:none;" d="M46 21L46 33L49 33L49 21L46 21z"/>
<path style="fill:#8c9eab; stroke:none;" d="M7.33333 22.6667L7.66667 23.3333L7.33333 22.6667z"/>
<path style="fill:#9d7575; stroke:none;" d="M60 25L60 28L61 28L60 25z"/>
<path style="fill:#8c9eab; stroke:none;" d="M6.33333 27.6667L6.66667 28.3333L6.33333 27.6667M57 28L59 31L57 28M38.3333 29.6667L38.6667 30.3333L38.3333 29.6667z"/>
<path style="fill:#334d60; stroke:none;" d="M57 31L58 32L57 31z"/>
<path style="fill:#8c9eab; stroke:none;" d="M5.33333 32.6667L5.66667 33.3333L5.33333 32.6667z"/>
<path style="fill:#9d7575; stroke:none;" d="M55 34L58 32L55 34z"/>
<path style="fill:#8c9eab; stroke:none;" d="M40 33L41 34L40 33M12.3333 35.6667L12.6667 36.3333L12.3333 35.6667M4.33333 36.6667L4.66667 37.3333L4.33333 36.6667M44.6667 36.3333L45.3333 36.6667L44.6667 36.3333M49.6667 36.3333L50.3333 36.6667L49.6667 36.3333M73.3333 38.6667L73.6667 39.3333L73.3333 38.6667M65 39L65 40L68 40L65 39M10 40L11 41L10 40z"/>
<path style="fill:#f8fbfc; stroke:none;" d="M12 40L12 58L17 58L17 48L18 48C19.5004 53.2077 21.1501 57.5349 27 58L27 40L22 40L22 48C18.9732 43.7804 17.5398 40.4277 12 40M28 40L28 58L40 58L40 53L33 53L33 51L39 51L39 47L33 47L33 45L40 45L40 40L28 40M41 40C41.854 45.809 42.2123 56.8222 49 58L50 48L52 48L53 58L57 58L61 40C56.6204 41.5347 56.346 45.77 56 50L55 50C54.3983 45.3455 54.2334 40.9086 49 40L48 50C46.1467 45.6382 46.3055 40.9211 41 40z"/>
<path style="fill:#8c9eab; stroke:none;" d="M45.3333 40.6667L45.6667 41.3333L45.3333 40.6667M53.3333 40.6667L53.6667 41.3333L53.3333 40.6667M57.3333 40.6667L57.6667 41.3333L57.3333 40.6667z"/>
<path style="fill:#f8fbfc; stroke:none;" d="M69 54L61 52C62.8359 58.1017 73.5432 60.2674 73.5432 52.0031C73.5432 47.4687 68.0432 46.36 66 43L73 44C70.5654 39.5849 61.7513 37.9359 61.5725 44.9761C61.4613 49.3561 67.016 50.7138 69 54z"/>
<path style="fill:#8c9eab; stroke:none;" d="M74.3333 40.6667L74.6667 41.3333L74.3333 40.6667M3 41L3 44L4 44L3 41z"/>
<path style="fill:#f8fbfc; stroke:none;" d="M10 41L3 56L4 56C6.66476 51.6656 11.9697 46.2598 10 41z"/>
<path style="fill:#8c9eab; stroke:none;" d="M61 42L60 44L62 44L61 42z"/>
<path style="fill:#9d7575; stroke:none;" d="M66 43L66 46L67 46L68 43L66 43z"/>
<path style="fill:#8c9eab; stroke:none;" d="M19 44L20 45L19 44M56.3333 44.6667L56.6667 45.3333L56.3333 44.6667M46.3333 45.6667L46.6667 46.3333L46.3333 45.6667M54.3333 45.6667L54.6667 46.3333L54.3333 45.6667M2.33333 46.6667L2.66667 47.3333L2.33333 46.6667M20 46L21 47L20 46M42.3333 46.6667L42.6667 47.3333L42.3333 46.6667M59.3333 46.6667L59.6667 47.3333L59.3333 46.6667M50 48L50 50L52 50L52 48L50 48M55.3333 48.6667L55.6667 49.3333L55.3333 48.6667z"/>
<path style="fill:#9d7575; stroke:none;" d="M1 50L1 53L2 53L1 50M58.3333 51.6667L58.6667 52.3333L58.3333 51.6667M63.6667 51.3333L64.3333 51.6667L63.6667 51.3333z"/>
<path style="fill:#8c9eab; stroke:none;" d="M2 53L0 60L1 60L4 53L2 53M65 53L65 54L69 54L65 53M49.3333 54.6667L49.6667 55.3333L49.3333 54.6667M52.3333 54.6667L52.6667 55.3333L52.3333 54.6667M57 55L57 58L58 58L57 55M44.3333 56.6667L44.6667 57.3333L44.3333 56.6667M64.6667 57.3333L65.3333 57.6667L64.6667 57.3333z"/>
<path style="fill:#f8fbfc; stroke:none;" d="M0 60L0 61L75 61L52 60L0 60z"/>
<path style="fill:#8b1118; stroke:none;" d="M0 61L0 70L75 70L75 61L0 61z"/>
<path style="fill:#9d7575; stroke:none;" d="M26.6667 62.3333L27.3333 62.6667L26.6667 62.3333z"/>
<path style="fill:#f8fbfc; stroke:none;" d="M32 66L27 67L27 64L32 65C25.424 55.1813 25.2002 76.5018 32 66M35.5887 63.0856C32.9252 64.9858 35.4665 70.0152 38.4113 67.9144C41.0748 66.0142 38.5335 60.9848 35.5887 63.0856z"/>
<path style="fill:#8c9eab; stroke:none;" d="M42 62L42 63L44 65L45 65L48 63L42 62z"/>
<path style="fill:#f8fbfc; stroke:none;" d="M45 63L46 69L48 69L49 64L50 64L50 69L52 69L51 62L45 63M42 63L42 69L44 69L44 63L42 63z"/>
<path style="fill:#9d7575; stroke:none;" d="M27 64L27 67L28 67L27 64z"/>
<path style="fill:#8c9eab; stroke:none;" d="M33 64L33 68L34 68L33 64M35 64L35 67L36 67L35 64z"/>
<path style="fill:#8b1118; stroke:none;" d="M36 64L36 67L38 67L38 64L36 64z"/>
<path style="fill:#9d7575; stroke:none;" d="M40 64L40 67L41 67L40 64M44 65L44 69L45 69L44 65M48 65L48 69L49 69L48 65z"/>
<path style="fill:#f8fbfc; stroke:none;" d="M22 67L22 69L24 69L24 67L22 67z"/>
<path style="fill:#0c101b; stroke:none;" d="M0 70L0 81L15 81L17 76L16 81L44 81L43 73L45 81L49 75L51 75L51 81L75 81L75 70L0 70z"/>
<path style="fill:#334d60; stroke:none;" d="M43 73L44 81L45 81L43 73M49 75L47 80L47 81L51 81L51 75L49 75M15 76L15 81L16 81L17 76L15 76z"/>
</svg>
