<?xml version="1.0" encoding="utf-8"?>
<!-- Generator: Adobe Illustrator 17.0.0, SVG Export Plug-In . SVG Version: 6.00 Build 0)  -->
<!DOCTYPE svg PUBLIC "-//W3C//DTD SVG 1.1//EN" "http://www.w3.org/Graphics/SVG/1.1/DTD/svg11.dtd">
<svg
    xmlns="http://www.w3.org/2000/svg"
    xmlns:xlink="http://www.w3.org/1999/xlink"
    xmlns:svg="http://www.w3.org/2000/svg"
    xmlns:inkscape="http://www.inkscape.org/namespaces/inkscape"
    xmlns:sodipodi="http://sodipodi.sourceforge.net/DTD/sodipodi-0.dtd"
    xmlns:ns1="http://sozi.baierouge.fr"
    xmlns:dc="http://purl.org/dc/elements/1.1/"
    xmlns:cc="http://web.resource.org/cc/"
    xmlns:rdf="http://www.w3.org/1999/02/22-rdf-syntax-ns#"
    version="1.1"
    id="Layer_1"
    x="0px"
    y="0px"
    width="620.767px"
    height="589.535px"
    viewBox="0 0 620.767 589.535"
    enable-background="new 0 0 620.767 589.535"
    xml:space="preserve"
  >
<g
    >
	<g
      >
		<g
        >
			<path
            fill="#497775"
            d="M293.031,487.276l2.938,19.845l-43.009,4.864c0,0-3.632-10.22,6.441-14.765     c3.933-1.774,7.697-2.549,7.697-2.549l-0.661-4.429L293.031,487.276z"
        />
			<path
            fill="#231F20"
            d="M293.449,486.727l3.249,20.287l0.119,0.745l-0.766,0.096h0l-43.035,4.628l-0.405,0.044l-0.122-0.373     l0-0.001c-0.235-0.548-0.385-1.074-0.525-1.625c-0.127-0.548-0.245-1.102-0.304-1.666c-0.064-0.562-0.101-1.132-0.09-1.702     c0.012-0.572,0.046-1.144,0.143-1.715c0.057-0.575,0.25-1.129,0.386-1.693c0.187-0.549,0.403-1.096,0.661-1.618     c0.31-0.494,0.54-1.044,0.924-1.488c0.372-0.449,0.701-0.94,1.15-1.312c0.431-0.387,0.826-0.822,1.317-1.122     c0.482-0.309,0.926-0.69,1.445-0.924l1.55-0.767l1.526-0.544c0.512-0.177,1.009-0.372,1.535-0.533     c0.534-0.148,1.064-0.307,1.6-0.44c0.533-0.148,1.068-0.269,1.605-0.37c0.533-0.115,1.07-0.216,1.618-0.289l0,0l-0.263,0.377     l-0.825-4.404l0,0l-0.077-0.513l0.516-0.058L293.449,486.727z M292.601,487.827l-26.11,2.912l0.439-0.571l0,0l0.497,4.453     l0.036,0.32l-0.299,0.057l0,0l-1.521,0.5c-0.51,0.161-1.012,0.34-1.501,0.542c-0.491,0.198-0.989,0.37-1.482,0.553     c-0.494,0.194-0.986,0.433-1.479,0.647l-1.479,0.661l-1.315,0.74c-0.462,0.228-0.823,0.592-1.242,0.874     c-0.432,0.272-0.753,0.661-1.119,1c-0.386,0.325-0.641,0.756-0.955,1.138c-0.332,0.372-0.514,0.842-0.784,1.256     c-0.216,0.443-0.399,0.906-0.581,1.367c-0.127,0.482-0.313,0.948-0.376,1.45c-0.114,0.49-0.173,0.992-0.213,1.5     c-0.038,0.506-0.059,1.019-0.041,1.532c0.012,0.514,0.041,1.03,0.1,1.545c0.068,0.507,0.15,1.038,0.255,1.515l0,0.001     l-0.527-0.329l42.982-5.1h0l-0.647,0.841L292.601,487.827z"
        />
		</g
      >
		<g
        >
			<path
            fill="#FFE500"
            d="M267.466,495.792c-12.759-44.814-12.955-92.259-0.587-137.155c9.248,1.326,18.467,2.777,27.658,4.353     c-12.327,41.164-12.724,85.09-1.023,126.65"
        />
			<path
            fill="#231F20"
            d="M266.57,496.03c-0.98-2.732-1.89-5.484-2.784-8.24c-0.803-2.803-1.66-5.605-2.413-8.437     c-0.671-2.837-1.365-5.675-1.991-8.528l-1.617-8.614l-1.236-8.682c-0.33-2.905-0.572-5.82-0.859-8.73l-0.517-8.759l-0.144-8.773     l0.239-8.768c0.165-2.92,0.418-5.833,0.626-8.745l0.953-8.708l1.273-8.66l1.588-8.598l1.839-8.537l2.086-8.471l2.372-8.388     l0.232-0.81l0.795,0.138c4.604,0.803,9.209,1.578,13.824,2.293l13.859,2.065l1.003,0.15l-0.272,1.029l-2.045,7.721l-1.773,7.785     l-1.493,7.84l-1.215,7.882l-0.937,7.917l-0.655,7.941l-0.416,7.953l-0.165,7.96l0.099,7.961l0.317,7.955l0.599,7.939l0.869,7.918     l1.075,7.895l1.355,7.857l1.567,7.824l1.802,7.783l-1.785,0.503l-2.273-7.736l-1.958-7.827l-1.617-7.909l-1.336-7.967     l-0.984-8.018l-0.69-8.051l-0.403-8.072c-0.06-2.694-0.039-5.389-0.06-8.083l0.249-8.078l0.558-8.06l0.888-8.029l1.172-7.987     l1.452-7.938l1.734-7.877l2.01-7.807l2.282-7.727l0.731,1.179l-13.799-2.288c-4.605-0.736-9.219-1.411-13.836-2.061l1.026-0.671     l-1.95,8.424l-1.66,8.478c-0.47,2.841-0.906,5.686-1.328,8.531l-0.995,8.567l-0.721,8.585l-0.457,8.592     c-0.066,2.868-0.08,5.734-0.187,8.595l0.016,8.589l0.229,8.582l0.445,8.572l0.696,8.559l0.904,8.544l1.114,8.528l1.32,8.511     c0.546,2.807,0.98,5.646,1.48,8.48c0.593,2.835,1.172,5.675,1.684,8.533L266.57,496.03z"
        />
		</g
      >
	</g
    >
	<g
      >
		<g
        >
			<path
            fill="#497775"
            d="M204.233,493.591l2.938,19.845l-43.009,4.864c0,0-3.633-10.22,6.439-14.764     c3.933-1.775,7.699-2.55,7.699-2.55l-0.661-4.429L204.233,493.591z"
        />
			<path
            fill="#231F20"
            d="M204.652,493.041l3.249,20.287l0.119,0.745l-0.766,0.096h0l-43.035,4.628l-0.405,0.044l-0.123-0.373     l0-0.001c-0.235-0.548-0.385-1.074-0.525-1.625c-0.127-0.548-0.245-1.102-0.304-1.666c-0.064-0.562-0.101-1.132-0.09-1.703     c0.012-0.572,0.046-1.144,0.142-1.715c0.057-0.575,0.249-1.129,0.386-1.693c0.188-0.549,0.403-1.096,0.661-1.618     c0.31-0.494,0.54-1.044,0.924-1.488c0.372-0.449,0.702-0.94,1.15-1.312c0.431-0.387,0.826-0.821,1.318-1.122     c0.482-0.308,0.926-0.691,1.445-0.923c0.52-0.258,0.986-0.502,1.55-0.767l1.526-0.544c0.512-0.177,1.009-0.373,1.535-0.534     c0.534-0.148,1.064-0.307,1.6-0.44c0.533-0.148,1.068-0.269,1.605-0.37c0.533-0.115,1.07-0.216,1.618-0.289l0,0l-0.263,0.377     l-0.825-4.404l0,0l-0.077-0.513l0.516-0.058L204.652,493.041z M203.804,494.142l-26.11,2.913l0.439-0.571l0,0l0.497,4.453     l0.036,0.32l-0.299,0.057l0,0l-1.521,0.5c-0.511,0.161-1.012,0.34-1.501,0.541c-0.491,0.198-0.989,0.37-1.482,0.553     c-0.494,0.193-0.986,0.433-1.479,0.647l-1.479,0.661l-1.316,0.74c-0.463,0.227-0.823,0.592-1.243,0.873     c-0.432,0.272-0.753,0.66-1.119,0.999c-0.386,0.325-0.642,0.756-0.956,1.138c-0.332,0.372-0.514,0.842-0.784,1.256     c-0.216,0.443-0.399,0.906-0.581,1.367c-0.127,0.482-0.313,0.948-0.376,1.45c-0.114,0.49-0.173,0.992-0.212,1.5     c-0.038,0.506-0.059,1.019-0.041,1.532c0.012,0.514,0.042,1.03,0.101,1.545c0.068,0.507,0.15,1.038,0.256,1.515l0,0.001     l-0.527-0.329l42.982-5.1h0l-0.647,0.841L203.804,494.142z"
        />
		</g
      >
		<g
        >
			<path
            fill="#FFE500"
            d="M178.667,502.107c-12.759-44.813-12.953-92.259-0.585-137.154c9.246,1.326,18.467,2.776,27.658,4.353     c-12.329,41.163-12.726,85.09-1.022,126.649"
        />
			<path
            fill="#231F20"
            d="M177.772,502.345c-0.98-2.732-1.89-5.483-2.784-8.24c-0.805-2.803-1.662-5.605-2.413-8.437     c-0.673-2.837-1.365-5.675-1.991-8.528l-1.619-8.614l-1.234-8.682c-0.332-2.905-0.574-5.82-0.861-8.73l-0.517-8.759l-0.142-8.773     l0.237-8.768c0.165-2.919,0.418-5.833,0.628-8.745l0.951-8.709l1.275-8.659l1.586-8.599l1.839-8.536l2.086-8.471l2.374-8.389     l0.229-0.81l0.797,0.139c4.602,0.802,9.209,1.576,13.824,2.292l13.858,2.065l1.005,0.15l-0.274,1.029l-2.045,7.721l-1.771,7.786     l-1.493,7.839L200.1,400.8l-0.935,7.916l-0.655,7.941l-0.416,7.953l-0.165,7.96l0.097,7.961l0.317,7.955l0.599,7.941l0.869,7.917     l1.075,7.896l1.355,7.856l1.569,7.825l1.8,7.782l-1.785,0.503l-2.271-7.735l-1.96-7.827l-1.615-7.909l-1.336-7.967l-0.986-8.018     l-0.688-8.051l-0.404-8.072c-0.06-2.694-0.037-5.389-0.06-8.084l0.249-8.078l0.56-8.06l0.888-8.028l1.17-7.988l1.454-7.938     l1.734-7.877l2.008-7.806l2.284-7.728l0.729,1.179l-13.799-2.287c-4.604-0.736-9.217-1.412-13.834-2.061l1.026-0.672     l-1.952,8.424l-1.66,8.479c-0.471,2.84-0.904,5.685-1.328,8.53l-0.995,8.568l-0.719,8.584l-0.457,8.593     c-0.068,2.868-0.082,5.733-0.189,8.594l0.016,8.589l0.231,8.582l0.445,8.573l0.694,8.56l0.906,8.543l1.112,8.529l1.322,8.51     c0.546,2.807,0.98,5.646,1.48,8.481c0.593,2.835,1.172,5.675,1.682,8.533L177.772,502.345z"
        />
		</g
      >
	</g
    >
	<g
      >
		<g
        >
			<path
            fill="#F9ED32"
            d="M351.178,348.669c0,0,26.016,33.871,49.825,25.281l-0.49,7.609c0,0-29.698,10.555-56.452-15.708     L351.178,348.669z"
        />
			<path
            fill="#231F20"
            d="M351.574,348.363c1.54,1.893,3.2,3.717,4.901,5.483c1.703,1.767,3.448,3.494,5.261,5.144     c0.902,0.83,1.828,1.632,2.761,2.426c0.935,0.792,1.88,1.568,2.844,2.322c0.97,0.744,1.938,1.493,2.944,2.186     c0.989,0.718,2.018,1.375,3.041,2.039c1.04,0.636,2.082,1.269,3.157,1.839c0.526,0.307,1.069,0.581,1.614,0.85     c0.545,0.268,1.08,0.56,1.641,0.792l1.667,0.729l1.7,0.641c1.148,0.378,2.296,0.772,3.476,1.022     c1.166,0.318,2.361,0.493,3.552,0.666l1.799,0.159c0.6,0.022,1.202,0.007,1.803,0.014c0.603,0.027,1.199-0.073,1.799-0.106     l0.9-0.072l0.888-0.159c1.198-0.162,2.347-0.531,3.512-0.858l0.728-0.204l-0.06,0.707l0,0.001l-0.49,7.608l-0.022,0.337     l-0.31,0.103c-1.264,0.418-2.509,0.723-3.78,0.993c-1.268,0.263-2.544,0.48-3.826,0.65c-1.282,0.164-2.569,0.294-3.86,0.369     c-1.29,0.078-2.583,0.121-3.875,0.104c-1.292-0.002-2.585-0.056-3.873-0.157c-1.29-0.087-2.574-0.239-3.854-0.417     c-1.28-0.18-2.551-0.416-3.817-0.677c-1.259-0.291-2.522-0.573-3.759-0.949c-1.25-0.333-2.466-0.773-3.691-1.184     c-1.204-0.47-2.42-0.909-3.593-1.455c-1.194-0.498-2.339-1.096-3.497-1.671c-1.134-0.616-2.274-1.228-3.372-1.908     c-1.097-0.682-2.198-1.358-3.244-2.117c-1.075-0.717-2.095-1.509-3.114-2.301c-1.04-0.767-1.982-1.652-2.978-2.473     c-0.967-0.853-1.891-1.755-2.838-2.631l-0.245-0.226l0.133-0.322l7.438-17.956L351.574,348.363z M351.325,349.621l-6.802,16.421     l-0.112-0.548c0.934,0.863,1.845,1.753,2.799,2.595c0.981,0.808,1.91,1.682,2.934,2.437c1.004,0.78,2.008,1.56,3.066,2.266     c1.03,0.747,2.113,1.412,3.192,2.083c1.08,0.669,2.201,1.27,3.316,1.876c1.138,0.564,2.264,1.153,3.437,1.642     c1.152,0.536,2.348,0.967,3.53,1.43c1.204,0.403,2.399,0.836,3.626,1.163c1.215,0.369,2.456,0.646,3.692,0.932     c1.244,0.256,2.492,0.489,3.75,0.665c1.257,0.174,2.519,0.324,3.786,0.409c1.266,0.099,2.536,0.152,3.805,0.155     c1.27,0.017,2.54-0.026,3.807-0.102c1.268-0.073,2.531-0.201,3.79-0.362c1.258-0.167,2.51-0.38,3.751-0.637     c1.234-0.261,2.482-0.57,3.651-0.956l-0.331,0.439l0.49-7.608l0-0.001l0.669,0.502c-1.198,0.39-2.389,0.822-3.637,1.043     l-0.927,0.203l-0.942,0.114c-0.629,0.062-1.256,0.189-1.89,0.172c-0.632,0.008-1.266,0.036-1.898,0.027l-1.893-0.125     c-1.252-0.153-2.511-0.31-3.735-0.615c-1.238-0.254-2.434-0.654-3.631-1.039l-1.769-0.653l-1.73-0.741     c-0.582-0.237-1.135-0.532-1.699-0.805c-0.564-0.273-1.125-0.552-1.668-0.863c-1.103-0.593-2.168-1.248-3.23-1.906     c-1.043-0.685-2.092-1.364-3.097-2.102c-1.023-0.714-2.004-1.482-2.988-2.246c-0.975-0.775-1.937-1.564-2.875-2.382     c-0.933-0.822-1.859-1.652-2.759-2.51c-1.805-1.709-3.556-3.472-5.226-5.31C354.099,353.049,352.689,351.361,351.325,349.621z"
        />
		</g
      >
		<g
        >
			
				<ellipse
            transform="matrix(-0.9761 0.2173 -0.2173 -0.9761 905.2084 646.1577)"
            fill="#497775"
            cx="417.079"
            cy="372.847"
            rx="21.231"
            ry="14.358"
        />
			<path
            fill="#231F20"
            d="M396.834,377.315c0,0,0.13,0.421,0.374,1.211c0.123,0.395,0.365,0.78,0.591,1.29     c0.12,0.249,0.319,0.495,0.492,0.769c0.18,0.273,0.363,0.568,0.623,0.833c0.916,1.148,2.33,2.329,4.195,3.246     c1.854,0.927,4.132,1.646,6.687,1.925c2.55,0.291,5.362,0.217,8.248-0.333c0.704-0.162,1.474-0.305,2.147-0.486     c0.732-0.227,1.535-0.413,2.234-0.681c0.705-0.273,1.421-0.492,2.13-0.837l1.071-0.479c0.352-0.173,0.694-0.369,1.043-0.552     c2.779-1.487,5.358-3.549,7.285-6.074c0.941-1.276,1.665-2.684,2.1-4.141c0.235-0.727,0.327-1.478,0.374-2.218     c-0.014-0.37,0.018-0.744-0.022-1.111l-0.086-0.547l-0.04-0.274l-0.02-0.137l-0.01-0.069l-0.005-0.034     c0.012,0.04-0.033-0.138,0.025,0.081l-0.375-1.268c-0.136-0.383-0.299-0.622-0.432-0.946c-0.335-0.61-0.752-1.28-1.269-1.83     c-1.012-1.134-2.265-2.102-3.658-2.859c-2.816-1.468-6.026-2.242-9.174-2.41c-3.166-0.179-6.228,0.171-9.127,0.917     c-2.789,0.71-5.408,1.848-7.581,3.189c-2.196,1.336-3.953,2.954-5.239,4.58c-1.3,1.621-2.079,3.291-2.422,4.719     c-0.123,0.35-0.163,0.695-0.211,1.018c-0.04,0.323-0.116,0.625-0.119,0.909c0.01,0.567-0.039,1.054,0.015,1.443     c0.108,0.777,0.165,1.191,0.165,1.191L396.834,377.315z M395.867,377.569c0,0-0.069-0.458-0.2-1.317     c-0.063-0.43-0.022-0.968-0.036-1.597c0.001-0.315,0.077-0.646,0.118-1.004c0.048-0.357,0.092-0.739,0.219-1.122     c0.362-1.574,1.193-3.379,2.506-5.17c1.311-1.797,3.138-3.541,5.361-5.111c2.243-1.562,4.863-2.903,7.901-3.867     c2.918-0.936,6.252-1.535,9.697-1.534c3.449-0.027,7.094,0.606,10.489,2.262c1.693,0.829,3.294,1.982,4.623,3.46     c0.685,0.731,1.235,1.552,1.747,2.477c0.224,0.479,0.497,1.014,0.655,1.46l0.39,1.263c0.938,4.322-0.653,8.279-2.989,11.219     c-2.372,2.941-5.404,5.06-8.539,6.499c-0.393,0.179-0.779,0.368-1.173,0.535c-0.399,0.152-0.796,0.303-1.191,0.453     c-0.775,0.322-1.612,0.535-2.409,0.785c-0.806,0.249-1.552,0.372-2.317,0.561c-0.84,0.175-1.59,0.264-2.372,0.396     c-3.102,0.406-6.085,0.31-8.766-0.155c-2.679-0.478-5.074-1.283-7.023-2.353c-1.949-1.065-3.467-2.347-4.463-3.619     c-0.278-0.293-0.479-0.621-0.674-0.924c-0.189-0.308-0.396-0.572-0.534-0.863c-0.26-0.583-0.534-1.088-0.652-1.484     c-0.234-0.792-0.359-1.215-0.359-1.215L395.867,377.569z"
        />
		</g
      >
	</g
    >
	<g
      >
		<path
          fill="#FBB040"
          d="M196.756,63.984c10.945-1.943,2.978-1.394,10.59-19.73c2.939-7.076,11.336-20.801-8.07-29.568    c0,0-16.173-1.487-16.008,22.007C183.323,44.302,178.542,67.217,196.756,63.984z"
      />
		<path
          fill="#231F20"
          d="M196.665,63.473c1.245-0.242,2.484-0.475,3.661-0.807c0.579-0.17,1.148-0.373,1.554-0.662    c0.396-0.288,0.589-0.664,0.701-1.231c0.206-1.124,0.233-2.454,0.398-3.72c0.149-1.28,0.363-2.556,0.638-3.815    c0.541-2.522,1.325-4.974,2.204-7.381c0.45-1.201,0.909-2.391,1.427-3.569c0.502-1.167,1.001-2.319,1.452-3.479    c0.902-2.315,1.626-4.682,1.86-7.068c0.247-2.379-0.06-4.764-1.063-6.857c-0.498-1.044-1.118-2.036-1.891-2.922    c-0.776-0.88-1.618-1.717-2.581-2.435c-0.934-0.746-1.965-1.385-3.009-2l-1.615-0.855l-1.666-0.773l-0.006-0.003l0.425,0.112    c-1.123-0.07-2.505,0.086-3.721,0.404c-1.262,0.282-2.417,0.863-3.54,1.48c-0.515,0.38-1.061,0.725-1.552,1.141    c-0.451,0.46-0.964,0.862-1.375,1.364c-0.39,0.52-0.823,1.01-1.189,1.552l-0.987,1.714c-0.293,0.593-0.512,1.23-0.775,1.843    c-0.285,0.606-0.452,1.261-0.619,1.917c-0.164,0.656-0.372,1.301-0.505,1.967l-0.303,2.027c-0.267,1.342-0.235,2.733-0.33,4.106    c-0.078,1.334-0.089,2.87-0.223,4.259c-0.223,2.82-0.473,5.601-0.511,8.381c-0.022,2.769,0.107,5.558,0.808,8.186    c0.354,1.306,0.857,2.568,1.585,3.672c0.724,1.104,1.689,2.032,2.847,2.655c1.155,0.63,2.475,0.951,3.82,1.066    C193.935,63.889,195.312,63.687,196.665,63.473z M196.848,64.495c-1.429,0.18-2.866,0.375-4.332,0.265    c-1.455-0.087-2.937-0.398-4.278-1.085c-1.344-0.677-2.495-1.73-3.344-2.958c-0.856-1.228-1.44-2.604-1.858-4.002    c-0.825-2.81-1.024-5.704-1.077-8.554c-0.035-2.854,0.149-5.695,0.297-8.494c0.096-1.421,0.067-2.702,0.111-4.183    c0.06-1.437-0.006-2.878,0.236-4.315l0.269-2.159c0.124-0.716,0.326-1.424,0.487-2.137c0.164-0.714,0.329-1.428,0.623-2.112    c0.271-0.688,0.499-1.394,0.811-2.069l1.071-1.975c0.403-0.633,0.886-1.223,1.331-1.834c0.467-0.596,1.053-1.098,1.579-1.648    c0.568-0.508,1.204-0.943,1.814-1.405c1.314-0.781,2.69-1.498,4.178-1.879c1.499-0.412,2.939-0.653,4.631-0.591l0.2,0.007    l0.226,0.105l0.006,0.003l1.759,0.874l1.719,0.97c1.121,0.7,2.229,1.429,3.255,2.292c1.047,0.829,1.993,1.808,2.859,2.851    c0.865,1.05,1.576,2.242,2.131,3.497c0.551,1.26,0.916,2.603,1.081,3.959c0.16,1.358,0.131,2.72-0.035,4.046    c-0.335,2.659-1.189,5.161-2.185,7.535c-0.499,1.188-1.039,2.349-1.568,3.495c-0.532,1.128-1.016,2.291-1.487,3.45    c-0.921,2.328-1.747,4.695-2.334,7.115c-0.297,1.209-0.536,2.429-0.713,3.662c-0.199,1.241-0.237,2.458-0.519,3.822    c-0.125,0.67-0.553,1.503-1.224,1.929c-0.646,0.426-1.303,0.614-1.938,0.788C199.357,64.087,198.095,64.287,196.848,64.495z"
      />
	</g
    >
	<g
      >
		<path
          fill="#497775"
          d="M226.081,84.581c0,0,30.714-17.2,38.087-9.829l-8.599,41.159c0,0-25.187-3.072-28.873,6.757    c0,0,22.114-3.685,26.414,7.986l-3.686,38.702c0,0-22.114-12.287-29.486-0.615c0,0,24.573,2.457,27.03,10.444l-4.917,32.559    c0,0-24.573-14.13-25.8-8.601l1.229,11.057c0,0,18.43,3.072,21.502,7.986l-4.3,35.63l-19.657-1.229l-2.459,9.829l19.659,0.614    l-9.215,33.173l-13.513,11.057l-7.372-47.915l16.587-172.005L226.081,84.581z"
      />
		<path
          fill="#231F20"
          d="M225.679,83.862c2.936-1.798,5.91-3.482,8.937-5.119c1.52-0.802,3.052-1.589,4.611-2.328    c1.565-0.724,3.149-1.419,4.757-2.072c1.619-0.625,3.26-1.211,4.937-1.73c1.678-0.513,3.387-0.991,5.165-1.29    c1.778-0.3,3.613-0.503,5.565-0.367c0.974,0.084,1.981,0.258,2.999,0.617c1.015,0.356,2.046,0.954,2.882,1.81l0.001,0.001    l0.791,0.801l-0.265,0.963c-0.932,3.385-1.831,6.777-2.701,10.175l-2.552,10.206c-0.811,3.41-1.653,6.814-2.44,10.229    c-0.801,3.412-1.565,6.832-2.309,10.256l0,0l-0.093,0.444l-0.457-0.05c-2.558-0.281-5.161-0.419-7.747-0.447    c-2.589-0.022-5.18,0.075-7.741,0.375c-2.555,0.307-5.103,0.802-7.46,1.748c-1.171,0.478-2.293,1.075-3.25,1.859    c-0.954,0.781-1.725,1.765-2.146,2.898l-0.001,0.002l-0.551-0.669c1.223-0.382,2.448-0.621,3.69-0.865    c1.242-0.216,2.497-0.379,3.761-0.479c2.528-0.201,5.098-0.179,7.68,0.189c2.571,0.38,5.199,1.072,7.614,2.505    c1.206,0.704,2.337,1.62,3.282,2.729c0.935,1.113,1.68,2.414,2.115,3.789l0.002,0.005l0.147,0.402l-0.047,0.371l-2.436,19.292    l-2.499,19.286l0,0.004l0.035,0.665l-0.777-0.274c-2.509-0.887-5.001-1.798-7.494-2.614c-1.25-0.401-2.497-0.799-3.755-1.137    c-1.255-0.35-2.523-0.638-3.795-0.847c-2.534-0.429-5.126-0.581-7.563-0.064c-1.222,0.243-2.378,0.702-3.442,1.335    c-1.069,0.635-1.973,1.527-2.767,2.537l-0.003,0.005l-0.373-0.765c2.519,0.181,5.009,0.469,7.504,0.835    c2.492,0.371,4.977,0.829,7.447,1.433c2.469,0.608,4.922,1.364,7.314,2.47c1.192,0.565,2.372,1.217,3.481,2.097    c1.091,0.876,2.173,2.032,2.729,3.634l0.003,0.01l0.114,0.36l-0.062,0.336l-5.971,32.392l-0.001,0.007l-0.108,0.717l-0.635-0.359    c-4.12-2.325-8.338-4.521-12.649-6.464c-2.158-0.962-4.346-1.87-6.583-2.565c-1.116-0.34-2.253-0.636-3.375-0.75    c-0.557-0.056-1.119-0.057-1.595,0.066c-0.481,0.133-0.77,0.375-0.862,0.788l0.009-0.163l1.228,11.049l0.001,0.008l-0.415-0.438    c3.882,0.52,7.722,1.217,11.545,2.188c1.909,0.494,3.811,1.06,5.694,1.81c0.47,0.196,0.94,0.391,1.407,0.618    c0.467,0.224,0.934,0.458,1.395,0.741c0.462,0.273,0.922,0.573,1.37,0.952c0.451,0.354,0.886,0.817,1.279,1.363l0.006,0.01    l0.298,0.444l-0.08,0.534l-5.298,35.502l-0.001,0.008l-0.057,0.469l-0.471-0.029l-19.656-1.229l0.516-0.378l-2.457,9.822    l-0.001,0.007l-0.47-0.622l19.696-0.783l0.006,0l2.486,0.179l-0.717,2.226l-10.56,32.793l-0.002,0.005l-0.042,0.153l-0.123,0.1    l-13.513,11.057l-0.678,0.555l-0.133-0.865l-7.372-47.914l-0.01-0.062l0.006-0.062L218.213,91.29l0,0l0.014-0.182l0.146-0.138    c2.423-2.289,4.766-4.666,7.152-6.996l0.047-0.046L225.679,83.862z M226.535,85.275c-2.495,2.145-5.03,4.246-7.487,6.432    l0.16-0.32l0,0l-16.587,172.005l-0.004-0.124l7.372,47.914l-0.811-0.311l13.513-11.057l-0.165,0.253l0.001-0.005l7.867-33.541    l1.769,2.405l-0.006,0l-19.608-2.011l-0.651-0.067l0.182-0.555l0.002-0.007l2.457-9.822l0.101-0.404l0.415,0.026l19.656,1.229    l-0.527,0.439l0.001-0.008l3.301-35.743l0.218,0.978l-0.004-0.004c-0.159-0.252-0.353-0.538-0.647-0.809    c-0.269-0.277-0.604-0.543-0.957-0.794c-0.345-0.258-0.73-0.495-1.12-0.725c-0.388-0.233-0.799-0.447-1.209-0.661    c-1.663-0.835-3.439-1.54-5.244-2.177c-3.617-1.26-7.365-2.282-11.128-3.121l-0.391-0.087l-0.024-0.351l-0.001-0.008    l-1.228-11.049l-0.009-0.082l0.018-0.082c0.082-0.372,0.285-0.756,0.588-1.023c0.3-0.27,0.654-0.421,0.991-0.515    c0.68-0.172,1.326-0.154,1.948-0.096c1.245,0.128,2.42,0.439,3.574,0.79c2.304,0.717,4.515,1.636,6.697,2.608    c4.356,1.964,8.58,4.164,12.738,6.51l-0.743,0.359l0.001-0.007l3.86-32.711l0.052,0.695l-0.002-0.005    c-0.204-0.798-0.797-1.632-1.601-2.36c-0.802-0.733-1.779-1.374-2.808-1.947c-2.075-1.142-4.372-2.011-6.702-2.779    c-2.337-0.761-4.733-1.392-7.152-1.94c-2.418-0.543-4.87-1.014-7.317-1.375l-0.837-0.124l0.464-0.641l0.004-0.005    c0.652-1.243,1.581-2.377,2.722-3.269c1.131-0.908,2.471-1.545,3.848-1.954c2.78-0.812,5.664-0.752,8.411-0.376    c1.376,0.208,2.73,0.499,4.062,0.852c1.33,0.36,2.636,0.79,3.908,1.297c1.273,0.503,2.515,1.078,3.719,1.721    c1.206,0.644,2.369,1.346,3.479,2.18l-0.741,0.39l0.001-0.004l1.187-19.411l1.249-19.405l0.1,0.773l-0.002-0.004    c-0.434-0.932-0.94-1.804-1.645-2.538c-0.678-0.751-1.494-1.399-2.405-1.96c-1.828-1.114-4.009-1.863-6.278-2.371    c-2.275-0.511-4.651-0.804-7.055-0.985c-1.203-0.088-2.415-0.151-3.633-0.187c-1.218-0.062-2.45-0.05-3.665-0.056l-0.936-0.004    l0.385-0.665l0.001-0.002c0.489-1.32,1.388-2.454,2.447-3.319c1.063-0.871,2.271-1.507,3.509-2.013    c2.489-0.998,5.108-1.499,7.719-1.815c2.617-0.307,5.245-0.404,7.868-0.382c2.626,0.029,5.235,0.166,7.859,0.454l-0.55,0.394l0,0    c0.689-3.436,1.358-6.876,1.99-10.323c0.646-3.445,1.238-6.901,1.859-10.35l1.747-10.374c0.564-3.462,1.097-6.93,1.599-10.405    l0.526,1.763l-0.001,0c-0.383-0.334-0.86-0.607-1.451-0.807c-0.594-0.193-1.277-0.306-1.998-0.35    c-1.446-0.108-3.023,0.03-4.596,0.289c-3.162,0.525-6.373,1.421-9.523,2.505c-1.588,0.514-3.168,1.074-4.74,1.667    c-1.577,0.58-3.156,1.172-4.722,1.804C232.646,82.453,229.548,83.807,226.535,85.275z"
      />
	</g
    >
	<g
      >
		<path
          fill="#FFE500"
          d="M265.588,285.368c-22.374,0-32.159-0.076-48.295,11.522l5.972-201.72c0,0,16.591-51.759-55.076-42.469    c0,0-94.229,16.59-87.592,62.377c0,0,11.28,25.88,60.385-0.664c0,0,5.309,13.271-29.861,19.907c0,0,11.281,15.262,47.778-7.963    l12.755,241.68c-0.004,0.263-0.023,0.523-0.023,0.787c0,2.992,0.185,5.946,0.531,8.856l0.01,0.173l0.012-0.022    c5.058,41.855,44.941,74.451,93.405,74.451c51.89,0,93.955-37.365,93.955-83.457S317.478,285.368,265.588,285.368z"
      />
		<path
          fill="#231F20"
          d="M265.589,286.813c-4.237-0.015-8.458-0.029-12.66,0.057c-2.101,0.035-4.195,0.103-6.273,0.256    c-1.041,0.07-2.08,0.15-3.109,0.277l-1.549,0.165l-1.534,0.234c-1.029,0.133-2.035,0.361-3.048,0.57    c-1.019,0.185-1.998,0.515-3.004,0.754c-0.992,0.286-1.968,0.628-2.952,0.948c-0.959,0.389-1.934,0.745-2.885,1.16    c-0.94,0.441-1.908,0.831-2.832,1.316c-0.92,0.493-1.867,0.938-2.769,1.472c-0.901,0.534-1.819,1.043-2.71,1.6l-2.677,1.676    l-0.863,0.54l0.072-0.961l0-0.001l4.921-201.75l0.005-0.2l0.069-0.228l0.001-0.002c1.099-3.817,1.636-8.026,1.589-12.083    c-0.054-4.079-0.757-8.142-2.311-11.841c-1.54-3.702-3.99-6.975-7.095-9.509c-3.109-2.539-6.81-4.353-10.707-5.599    c-3.911-1.233-8.013-1.927-12.152-2.286c-4.145-0.338-8.333-0.343-12.515-0.127c-2.092,0.107-4.183,0.277-6.272,0.488    c-1.045,0.092-2.087,0.238-3.131,0.354l-0.782,0.092l-0.696,0.129l-1.545,0.302c-4.125,0.835-8.236,1.8-12.319,2.86    c-8.164,2.129-16.234,4.636-24.103,7.641c-7.861,3.011-15.55,6.503-22.723,10.823c-3.588,2.152-7.029,4.535-10.228,7.185    c-3.19,2.655-6.136,5.596-8.581,8.891c-2.446,3.284-4.38,6.938-5.463,10.837c-0.536,1.948-0.885,3.945-1.012,5.963    c-0.103,2.019-0.003,4.047,0.263,6.061l-0.104-0.365l0.001,0.001c0.202,0.448,0.557,1.052,0.903,1.559    c0.35,0.53,0.751,1.035,1.167,1.526c0.838,0.98,1.791,1.871,2.818,2.673c1.018,0.816,2.148,1.489,3.306,2.107    c0.593,0.285,1.175,0.594,1.795,0.824l0.919,0.372l0.944,0.311c1.258,0.417,2.561,0.72,3.878,0.947    c1.318,0.223,2.655,0.383,4.003,0.434c0.672,0.049,1.347,0.07,2.024,0.05c0.676-0.018,1.353,0.02,2.03-0.045l2.033-0.134    l2.028-0.243c1.356-0.14,2.693-0.444,4.04-0.667c1.33-0.323,2.679-0.571,3.997-0.956c1.32-0.373,2.651-0.713,3.951-1.166    c1.309-0.421,2.618-0.847,3.901-1.35c1.293-0.475,2.584-0.957,3.849-1.509c1.272-0.534,2.553-1.047,3.799-1.645    c1.248-0.59,2.522-1.129,3.751-1.762l3.706-1.863l0.514-0.258l0.189,0.512l0.002,0.005c0.31,0.916,0.348,1.765,0.294,2.645    c-0.063,0.87-0.266,1.722-0.57,2.527c-0.298,0.81-0.71,1.568-1.188,2.272c-0.464,0.717-1.023,1.357-1.599,1.972    c-1.168,1.22-2.503,2.247-3.899,3.153c-0.689,0.471-1.422,0.864-2.141,1.28c-0.738,0.377-1.466,0.78-2.224,1.112    c-0.747,0.359-1.507,0.683-2.274,0.991c-0.759,0.329-1.541,0.595-2.314,0.884c-0.771,0.297-1.563,0.525-2.344,0.791    c-0.781,0.267-1.578,0.472-2.367,0.711c-0.788,0.242-1.589,0.43-2.384,0.641c-0.795,0.215-1.596,0.402-2.398,0.582    c-1.6,0.386-3.215,0.689-4.826,1.018l0.309-0.789l0.002,0.002c0.627,0.716,1.495,1.376,2.37,1.901    c0.89,0.53,1.834,0.974,2.818,1.313c0.987,0.329,1.99,0.614,3.023,0.776c1.026,0.188,2.07,0.273,3.114,0.328l1.571,0.01    l1.571-0.075l1.568-0.156l1.561-0.233c1.035-0.19,2.073-0.373,3.093-0.65c1.027-0.241,2.039-0.548,3.049-0.859    c1.008-0.317,2.005-0.679,2.999-1.041c0.982-0.404,1.98-0.753,2.944-1.203c0.971-0.43,1.945-0.847,2.895-1.328    c0.958-0.46,1.911-0.927,2.846-1.438c0.942-0.494,1.88-0.993,2.799-1.534c0.923-0.531,1.853-1.047,2.755-1.618    c0.904-0.566,1.825-1.098,2.714-1.69l2.677-1.753l2.629-1.722l0.255,3.208l0,0.004l5.949,125.786l2.974,62.893l1.487,31.447    l0.744,15.723l0.186,3.931l0.094,1.999c-0.035,0.658-0.025,1.288-0.016,1.955c0.023,2.629,0.203,5.166,0.478,7.83l-0.943-0.204    l0.012-0.022l0.721-1.364l0.218,1.535l0.001,0.008c1.115,8.394,3.546,16.624,7.369,24.179c3.746,7.593,8.79,14.508,14.664,20.586    c5.916,6.041,12.659,11.279,20.009,15.457c3.66,2.112,7.459,3.987,11.377,5.571c3.908,1.602,7.908,2.992,11.996,4.061    c4.078,1.093,8.216,1.984,12.403,2.546c2.085,0.344,4.194,0.493,6.293,0.721c2.109,0.113,4.214,0.3,6.327,0.298    c8.453,0.201,16.905-0.63,25.141-2.49c16.452-3.693,32.023-11.558,44.34-23.051c6.153-5.732,11.486-12.35,15.638-19.646    c4.161-7.285,7.15-15.238,8.697-23.475c1.554-8.232,1.686-16.732,0.395-25.007c-1.287-8.278-4.019-16.319-7.969-23.711    c-3.945-7.399-9.09-14.149-15.089-20.019c-6-5.875-12.851-10.876-20.232-14.894c-7.382-4.021-15.295-7.06-23.458-9.082    C282.419,287.795,274.002,286.822,265.589,286.813z M265.588,283.923c8.641,0.023,17.291,1.038,25.681,3.137    c8.389,2.093,16.523,5.232,24.116,9.384c7.591,4.149,14.641,9.312,20.821,15.384c6.179,6.067,11.485,13.049,15.555,20.713    c4.075,7.657,6.894,15.996,8.213,24.579c1.324,8.58,1.172,17.381-0.452,25.908c-1.62,8.528-4.718,16.761-9.046,24.268    c-4.326,7.513-9.856,14.3-16.21,20.159c-12.72,11.747-28.706,19.704-45.53,23.393c-8.411,1.857-17.07,2.661-25.665,2.413    c-2.154-0.01-4.299-0.21-6.448-0.337c-2.139-0.242-4.287-0.407-6.411-0.767c-4.263-0.599-8.48-1.514-12.625-2.669    c-4.155-1.127-8.217-2.579-12.182-4.247c-3.974-1.649-7.825-3.593-11.531-5.776c-7.441-4.319-14.252-9.71-20.212-15.906    c-5.918-6.233-10.979-13.309-14.716-21.056c-3.813-7.708-6.206-16.086-7.258-24.603l-0.001-0.008l0.94,0.171l-0.012,0.022    l-0.75,1.457l-0.193-1.661c-0.296-2.551-0.517-5.25-0.566-7.869c-0.016-0.645-0.033-1.327-0.006-1.98l-0.114-1.931l-0.229-3.929    l-0.916-15.714l-1.831-31.428l-3.662-62.857l-7.325-125.714l0-0.004l2.884,1.486l-2.84,1.652    c-0.941,0.557-1.921,1.057-2.878,1.587c-0.955,0.535-1.942,1.018-2.921,1.513c-0.972,0.505-1.968,0.969-2.967,1.427    c-0.989,0.474-2.001,0.905-3.016,1.328c-1.005,0.442-2.039,0.824-3.068,1.214c-1.02,0.41-2.082,0.722-3.12,1.084    c-1.055,0.322-2.11,0.643-3.18,0.918c-1.072,0.269-2.144,0.532-3.235,0.728c-1.08,0.231-2.185,0.368-3.283,0.509l-1.657,0.158    l-1.665,0.077l-1.669-0.009l-1.669-0.099c-1.11-0.117-2.218-0.267-3.307-0.527c-1.094-0.233-2.16-0.595-3.201-1.007    c-1.039-0.422-2.035-0.955-2.97-1.582c-0.936-0.643-1.791-1.337-2.54-2.291l-0.003-0.004l-0.482-0.627l0.791-0.162    c1.598-0.326,3.202-0.627,4.786-1.009c0.796-0.178,1.589-0.363,2.375-0.576c0.787-0.209,1.581-0.395,2.359-0.634    c0.778-0.236,1.568-0.439,2.337-0.702c0.769-0.262,1.552-0.488,2.31-0.78c0.76-0.285,1.53-0.547,2.274-0.869    c0.753-0.302,1.498-0.62,2.228-0.97c0.743-0.325,1.449-0.717,2.169-1.084c0.697-0.404,1.411-0.785,2.074-1.24    c1.348-0.874,2.625-1.859,3.723-3.007c0.541-0.578,1.065-1.177,1.49-1.837c0.441-0.649,0.816-1.341,1.083-2.069    c0.274-0.724,0.454-1.482,0.509-2.245c0.058-0.747-0.009-1.568-0.226-2.206l-0.001-0.002l0.702,0.254l-3.678,1.978    c-1.22,0.672-2.489,1.251-3.731,1.882c-1.24,0.638-2.52,1.193-3.791,1.768c-1.264,0.593-2.558,1.117-3.855,1.636    c-1.287,0.545-2.604,1.015-3.924,1.481c-1.309,0.497-2.657,0.883-3.996,1.301c-1.335,0.43-2.712,0.724-4.068,1.093    c-1.381,0.269-2.748,0.618-4.149,0.804l-2.096,0.309l-2.116,0.199c-0.704,0.086-1.418,0.069-2.127,0.107    c-0.71,0.039-1.422,0.037-2.135,0.006c-1.425-0.016-2.855-0.145-4.276-0.345c-1.421-0.205-2.838-0.493-4.225-0.91l-1.041-0.312    l-1.022-0.379c-0.688-0.236-1.344-0.557-2.009-0.857c-1.306-0.648-2.59-1.37-3.766-2.256c-1.184-0.872-2.296-1.854-3.292-2.955    c-0.496-0.553-0.975-1.124-1.408-1.739c-0.444-0.631-0.829-1.207-1.222-2.013l-0.002-0.004l-0.078-0.173l-0.026-0.192    c-0.295-2.194-0.408-4.416-0.296-6.638c0.136-2.22,0.517-4.423,1.105-6.565c1.186-4.29,3.296-8.266,5.908-11.781    c2.613-3.528,5.717-6.626,9.042-9.401c3.334-2.768,6.89-5.234,10.576-7.452c7.37-4.45,15.198-8.011,23.176-11.08    c7.986-3.061,16.149-5.608,24.405-7.772c4.131-1.077,8.284-2.058,12.477-2.913l1.578-0.311l0.87-0.157l0.798-0.095    c1.065-0.12,2.125-0.269,3.194-0.365c2.133-0.218,4.273-0.394,6.419-0.507c4.291-0.226,8.61-0.229,12.926,0.118    c4.312,0.37,8.629,1.086,12.821,2.403c4.176,1.33,8.24,3.296,11.721,6.131c3.478,2.824,6.269,6.545,7.991,10.682    c1.742,4.136,2.504,8.593,2.568,12.989c0.031,2.202-0.102,4.397-0.383,6.572c-0.294,2.19-0.686,4.292-1.337,6.501l-0.002,0.005    l0.073-0.428l-7.024,201.688v0.001l-0.792-0.421l2.548-1.932c0.862-0.629,1.763-1.206,2.644-1.812    c0.883-0.605,1.822-1.127,2.733-1.696c0.916-0.561,1.887-1.032,2.832-1.553c0.961-0.489,1.961-0.903,2.943-1.358    c1.011-0.384,2.017-0.792,3.043-1.142c1.037-0.308,2.062-0.684,3.12-0.917c1.053-0.256,2.104-0.531,3.171-0.707l1.595-0.3    l1.602-0.228c1.069-0.164,2.139-0.262,3.208-0.359c2.14-0.202,4.277-0.316,6.408-0.396c2.132-0.088,4.259-0.105,6.381-0.126    L265.588,283.923z"
      />
	</g
    >
	<g
      >
		<path
          fill="#FBB040"
          d="M209.331,67.966c11.96,3.988,3.721,0.223,21.235-13.935c6.76-5.464,22.561-14.598,7.963-33.843    c0,0-15.317-10.238-27.87,13.271C206.593,41.075,189.423,61.328,209.331,67.966z"
      />
		<path
          fill="#231F20"
          d="M209.492,67.478c1.371,0.435,2.732,0.876,4.091,1.186c0.672,0.146,1.355,0.255,1.936,0.187    c0.572-0.072,0.998-0.365,1.422-0.875c0.826-1.022,1.57-2.326,2.421-3.496c0.841-1.192,1.745-2.343,2.7-3.446    c1.904-2.214,4.013-4.227,6.191-6.144c1.099-0.95,2.201-1.885,3.354-2.777c1.133-0.89,2.256-1.767,3.338-2.68    c2.16-1.82,4.175-3.792,5.715-6.057c1.549-2.25,2.551-4.821,2.69-7.48c0.072-1.325-0.009-2.664-0.3-3.979    c-0.297-1.31-0.686-2.613-1.258-3.858c-0.529-1.259-1.213-2.462-1.922-3.648l-1.149-1.737l-1.245-1.682l-0.003-0.004l0.319,0.301    c-1.115-0.696-2.585-1.285-3.988-1.63c-1.427-0.403-2.911-0.449-4.381-0.438c-0.728,0.101-1.467,0.152-2.189,0.304    c-0.706,0.218-1.442,0.344-2.131,0.626c-0.677,0.311-1.38,0.569-2.043,0.916l-1.926,1.187c-0.617,0.437-1.183,0.957-1.78,1.43    c-0.287,0.252-0.608,0.463-0.869,0.747l-0.793,0.841c-0.521,0.568-1.078,1.103-1.572,1.698l-1.401,1.865    c-0.994,1.2-1.715,2.608-2.553,3.93c-0.406,0.656-0.817,1.351-1.223,2.057c-0.43,0.716-0.858,1.392-1.295,2.067    c-1.743,2.692-3.497,5.334-5.037,8.092c-1.519,2.756-2.899,5.615-3.621,8.628c-0.353,1.501-0.534,3.04-0.402,4.546    c0.128,1.504,0.594,2.965,1.42,4.222c0.819,1.262,1.972,2.301,3.258,3.146C206.541,66.403,208.025,66.953,209.492,67.478z     M209.169,68.453c-1.518-0.588-3.055-1.165-4.449-2.066c-1.396-0.873-2.695-1.981-3.651-3.382    c-0.964-1.393-1.534-3.053-1.713-4.724c-0.185-1.676-0.021-3.355,0.32-4.967c0.7-3.233,2.069-6.217,3.561-9.079    c1.512-2.858,3.235-5.584,4.903-8.293c0.416-0.676,0.827-1.36,1.205-2.022c0.375-0.687,0.761-1.375,1.179-2.089    c0.838-1.395,1.553-2.863,2.57-4.158l1.434-1.998c0.51-0.644,1.093-1.236,1.638-1.856l0.833-0.92    c0.274-0.31,0.619-0.556,0.926-0.837c0.64-0.535,1.246-1.112,1.919-1.611l2.123-1.376c0.739-0.409,1.534-0.731,2.302-1.096    c0.782-0.337,1.63-0.517,2.445-0.778c0.833-0.195,1.695-0.283,2.545-0.411c1.716-0.064,3.458-0.032,5.131,0.393    c1.697,0.398,3.257,0.94,4.876,1.9l0.173,0.103l0.147,0.199l0.003,0.004l1.278,1.814l1.186,1.887    c0.736,1.297,1.444,2.616,1.998,4.021c0.594,1.383,1.005,2.86,1.303,4.356c0.294,1.502,0.358,3.06,0.235,4.598    c-0.129,1.539-0.487,3.062-1.05,4.491c-0.568,1.428-1.327,2.761-2.203,3.987c-1.758,2.456-3.952,4.484-6.222,6.31    c-1.137,0.914-2.301,1.779-3.448,2.638c-1.142,0.84-2.254,1.739-3.35,2.643c-2.178,1.828-4.284,3.746-6.18,5.849    c-0.951,1.048-1.851,2.139-2.694,3.276c-0.869,1.132-1.569,2.332-2.575,3.527c-0.482,0.594-1.329,1.173-2.207,1.235    c-0.855,0.074-1.607-0.09-2.331-0.258C211.892,69.4,210.526,68.918,209.169,68.453z"
      />
	</g
    >
	<g
      >
		
			<ellipse
          transform="matrix(0.9107 0.413 -0.413 0.9107 46.9304 -61.2746)"
          fill="#FFFFFF"
          stroke="#231F20"
          stroke-miterlimit="10"
          cx="165.202"
          cy="77.919"
          rx="10.949"
          ry="11.945"
      />
		<circle
          fill="#58595B"
          cx="163.545"
          cy="81.238"
          r="5.308"
      />
	</g
    >
	<g
      >
		<g
        >
			<path
            fill="#497775"
            d="M346.559,542.678l3.155,21.317l-46.197,5.225c0,0-3.902-10.978,6.917-15.86     c4.224-1.906,8.268-2.738,8.268-2.738l-0.71-4.757L346.559,542.678z"
        />
			<path
            fill="#231F20"
            d="M346.978,542.128l3.466,21.759l0.119,0.746l-0.766,0.095l0,0l-46.223,4.989l-0.405,0.044l-0.123-0.373     l0-0.001c-0.247-0.586-0.406-1.151-0.554-1.741c-0.134-0.588-0.257-1.181-0.319-1.785c-0.067-0.602-0.105-1.212-0.092-1.822     c0.014-0.612,0.051-1.224,0.156-1.834c0.062-0.615,0.268-1.207,0.414-1.809c0.201-0.586,0.431-1.171,0.707-1.729     c0.331-0.528,0.577-1.116,0.987-1.59c0.397-0.48,0.748-1.005,1.228-1.402c0.46-0.414,0.882-0.879,1.408-1.201     c0.516-0.33,0.989-0.74,1.544-0.99c0.556-0.277,1.056-0.539,1.656-0.823l1.638-0.588c0.55-0.191,1.083-0.403,1.646-0.577     c0.572-0.161,1.14-0.331,1.714-0.477c0.571-0.161,1.144-0.293,1.72-0.404c0.572-0.125,1.148-0.237,1.735-0.318l0,0l-0.263,0.377     l-0.873-4.732l0,0l-0.077-0.513l0.516-0.058L346.978,542.128z M346.13,543.229l-28.082,3.132l0.439-0.571l0,0l0.546,4.781     l0.036,0.319l-0.3,0.058l0,0c-0.547,0.161-1.091,0.352-1.638,0.529c-0.549,0.171-1.089,0.361-1.616,0.575     c-0.529,0.21-1.065,0.394-1.596,0.589c-0.531,0.207-1.061,0.462-1.591,0.691l-1.591,0.706l-1.422,0.796     c-0.499,0.245-0.889,0.637-1.342,0.94c-0.466,0.293-0.814,0.712-1.209,1.078c-0.416,0.351-0.694,0.816-1.034,1.229     c-0.359,0.402-0.556,0.911-0.847,1.358c-0.233,0.479-0.432,0.979-0.627,1.478c-0.137,0.521-0.337,1.025-0.404,1.567     c-0.122,0.53-0.184,1.072-0.226,1.619c-0.039,0.545-0.061,1.099-0.039,1.652c0.015,0.554,0.05,1.109,0.116,1.664     c0.076,0.546,0.166,1.117,0.284,1.631l0,0.001l-0.527-0.329l46.17-5.461h0l-0.647,0.841L346.13,543.229z"
        />
		</g
      >
		<g
        >
			<path
            fill="#FFE500"
            d="M319.099,551.826c-13.706-48.136-13.916-99.1-0.63-147.323c9.932,1.424,19.836,2.982,29.709,4.675     c-13.243,44.215-13.669,91.399-1.098,136.039"
        />
			<path
            fill="#231F20"
            d="M318.137,552.081c-1.052-2.936-2.03-5.891-2.99-8.851c-0.863-3.01-1.785-6.02-2.592-9.062     c-0.721-3.048-1.466-6.096-2.138-9.161l-1.738-9.253l-1.328-9.326c-0.356-3.12-0.614-6.251-0.923-9.377l-0.556-9.408     l-0.154-9.423l0.257-9.418c0.177-3.136,0.449-6.266,0.673-9.394l1.023-9.354l1.369-9.301l1.705-9.235l1.975-9.17l2.242-9.099     l2.549-9.01l0.247-0.87l0.855,0.149c4.944,0.862,9.891,1.694,14.849,2.462l14.886,2.218l1.079,0.16l-0.294,1.106l-2.197,8.293     l-1.903,8.362l-1.604,8.42l-1.306,8.467l-1.005,8.503l-0.704,8.53l-0.447,8.543l-0.177,8.55l0.105,8.551l0.34,8.545l0.644,8.529     l0.933,8.504l1.155,8.481l1.456,8.439l1.684,8.404l1.934,8.359l-1.917,0.54l-2.44-8.309l-2.103-8.407l-1.736-8.495l-1.435-8.557     l-1.057-8.613l-0.741-8.648l-0.434-8.671c-0.064-2.894-0.041-5.788-0.064-8.682l0.266-8.676l0.601-8.658l0.955-8.624l1.258-8.58     l1.561-8.526l1.862-8.462l2.158-8.386l2.453-8.3l0.784,1.266l-14.822-2.457c-4.946-0.79-9.901-1.516-14.861-2.213l1.102-0.721     l-2.096,9.049l-1.783,9.107c-0.505,3.051-0.972,6.107-1.427,9.163l-1.069,9.202l-0.774,9.221l-0.49,9.229     c-0.072,3.08-0.087,6.159-0.202,9.231l0.018,9.226l0.247,9.219l0.478,9.208l0.747,9.194l0.972,9.177l1.196,9.161l1.419,9.142     c0.587,3.015,1.052,6.064,1.588,9.109c0.638,3.045,1.26,6.096,1.808,9.166L318.137,552.081z"
        />
		</g
      >
	</g
    >
	<g
      >
		<g
        >
			<path
            fill="#497775"
            d="M240.389,542.678l3.155,21.317l-46.197,5.225c0,0-3.902-10.978,6.917-15.86     c4.225-1.906,8.268-2.738,8.268-2.738l-0.71-4.757L240.389,542.678z"
        />
			<path
            fill="#231F20"
            d="M240.808,542.128l3.466,21.759l0.119,0.746l-0.766,0.095l0,0l-46.224,4.989l-0.405,0.044l-0.123-0.373     l0-0.001c-0.247-0.586-0.406-1.151-0.554-1.742c-0.134-0.587-0.257-1.181-0.319-1.785c-0.067-0.602-0.105-1.212-0.092-1.822     c0.014-0.612,0.051-1.224,0.156-1.834c0.062-0.615,0.268-1.207,0.414-1.809c0.201-0.586,0.431-1.171,0.707-1.729     c0.331-0.528,0.577-1.116,0.987-1.59c0.397-0.48,0.748-1.005,1.228-1.402c0.46-0.414,0.882-0.879,1.408-1.201     c0.516-0.33,0.989-0.74,1.544-0.99c0.556-0.277,1.056-0.539,1.656-0.823l1.638-0.588c0.55-0.191,1.083-0.403,1.646-0.577     c0.572-0.161,1.14-0.331,1.714-0.477c0.571-0.161,1.144-0.293,1.72-0.404c0.572-0.125,1.148-0.237,1.735-0.318l0,0l-0.263,0.377     l-0.873-4.732l0,0l-0.077-0.513l0.516-0.058L240.808,542.128z M239.96,543.229l-28.082,3.132l0.439-0.571l0,0l0.546,4.781     l0.036,0.319l-0.3,0.058l0,0c-0.547,0.161-1.091,0.352-1.638,0.529c-0.549,0.171-1.089,0.361-1.616,0.575     c-0.529,0.21-1.065,0.394-1.596,0.589c-0.531,0.207-1.061,0.462-1.591,0.691l-1.591,0.705l-1.422,0.796     c-0.499,0.245-0.889,0.637-1.342,0.94c-0.466,0.293-0.814,0.712-1.209,1.078c-0.416,0.351-0.694,0.816-1.034,1.229     c-0.359,0.402-0.556,0.911-0.847,1.358c-0.233,0.479-0.432,0.979-0.627,1.478c-0.137,0.521-0.337,1.025-0.404,1.567     c-0.122,0.53-0.184,1.072-0.226,1.619c-0.039,0.545-0.061,1.099-0.039,1.652c0.015,0.554,0.05,1.109,0.116,1.664     c0.076,0.546,0.166,1.117,0.284,1.631l0,0.001l-0.527-0.329l46.17-5.461h0l-0.647,0.841L239.96,543.229z"
        />
		</g
      >
		<g
        >
			<path
            fill="#FFE500"
            d="M212.929,551.826c-13.706-48.136-13.916-99.1-0.63-147.323c9.932,1.424,19.835,2.982,29.709,4.675     c-13.243,44.215-13.669,91.399-1.098,136.039"
        />
			<path
            fill="#231F20"
            d="M211.967,552.081c-1.052-2.936-2.03-5.891-2.99-8.851c-0.863-3.01-1.785-6.02-2.591-9.062     c-0.721-3.048-1.466-6.096-2.139-9.161l-1.738-9.253l-1.328-9.326c-0.356-3.12-0.614-6.251-0.924-9.377l-0.556-9.408     l-0.153-9.423l0.257-9.418c0.177-3.136,0.449-6.266,0.673-9.394l1.023-9.354l1.369-9.301l1.705-9.235l1.975-9.17l2.242-9.099     l2.549-9.01l0.247-0.87l0.855,0.149c4.944,0.862,9.891,1.694,14.849,2.462l14.886,2.218l1.079,0.16l-0.294,1.106l-2.197,8.293     l-1.903,8.362l-1.604,8.42l-1.307,8.467l-1.005,8.503l-0.704,8.53l-0.447,8.543l-0.177,8.55l0.105,8.551l0.34,8.545l0.643,8.529     l0.933,8.504l1.155,8.481l1.456,8.439l1.684,8.404l1.934,8.359l-1.917,0.54l-2.44-8.309l-2.103-8.407l-1.736-8.495l-1.435-8.557     l-1.058-8.613l-0.741-8.648l-0.434-8.671c-0.064-2.894-0.041-5.788-0.064-8.682l0.266-8.676l0.601-8.658l0.955-8.624l1.258-8.58     l1.561-8.526l1.863-8.462l2.158-8.386l2.453-8.3l0.783,1.266l-14.822-2.457c-4.946-0.79-9.901-1.516-14.86-2.213l1.102-0.721     l-2.096,9.049l-1.783,9.107c-0.505,3.051-0.972,6.107-1.427,9.163l-1.069,9.202l-0.774,9.221l-0.49,9.229     c-0.072,3.08-0.088,6.159-0.202,9.231l0.018,9.226l0.247,9.219l0.478,9.208l0.747,9.194l0.972,9.177l1.196,9.161l1.419,9.142     c0.587,3.015,1.052,6.064,1.588,9.109c0.638,3.045,1.26,6.096,1.808,9.166L211.967,552.081z"
        />
		</g
      >
	</g
    >
	<g
      >
		<ellipse
          fill="#FFC60B"
          cx="303.428"
          cy="330.297"
          rx="21.317"
          ry="21.655"
      />
		<g
        >
			<path
            fill="#F7941E"
            d="M326.127,330.365c0,0-0.014,0.527-0.049,1.516c0.008,0.474-0.066,1.129-0.179,1.918     c-0.08,0.796-0.259,1.663-0.492,2.615c-0.472,1.906-1.238,4.22-2.663,6.607c-1.408,2.385-3.449,4.865-6.235,6.952     c-2.786,2.058-6.367,3.662-10.376,4.196c-0.498,0.088-1.007,0.086-1.518,0.13c-0.548,0.017-0.935,0.106-1.629,0.057     c-0.943-0.058-1.802-0.041-2.975-0.249c-2.247-0.281-4.238-0.94-6.287-1.822c-4.011-1.859-7.564-4.95-10.012-8.839     c-1.229-1.943-2.135-4.087-2.79-6.301c-0.278-1.125-0.56-2.245-0.672-3.398c-0.08-0.573-0.163-1.145-0.163-1.724l-0.054-1.831     c0.056-1.962,0.377-4.568,1.05-6.701c0.708-2.182,1.654-4.28,2.91-6.166c2.512-3.77,6.052-6.722,9.989-8.454     c3.898-1.743,8.276-2.269,11.997-1.771c4.04,0.547,7.417,2.024,10.222,3.973c2.759,1.981,4.819,4.361,6.274,6.671     c1.466,2.316,2.288,4.583,2.817,6.464c0.262,0.947,0.453,1.8,0.54,2.559c0.123,0.753,0.212,1.394,0.218,1.921     c0.053,1.048,0.082,1.608,0.082,1.608L326.127,330.365z M323.359,330.297c0,0-0.023-0.495-0.07-1.421     c0.004-0.465-0.074-1.03-0.183-1.693c-0.07-0.671-0.235-1.423-0.465-2.259c-0.441-1.662-1.168-3.671-2.529-5.663     c-1.32-2.003-3.186-4.039-5.638-5.669c-2.424-1.602-5.566-2.777-8.731-3.111c-3.464-0.324-6.946,0.18-10.249,1.716     c-3.278,1.523-6.192,4.066-8.227,7.255c-1.017,1.596-1.763,3.362-2.317,5.182c-0.521,1.904-0.715,3.51-0.76,5.765     c0.089,1.705,0.35,3.75,0.922,5.51c0.603,1.79,1.39,3.508,2.436,5.048c2.098,3.072,4.996,5.473,8.202,6.871     c1.567,0.693,3.311,1.26,4.847,1.449c0.696,0.168,1.73,0.179,2.642,0.236c0.644,0.005,1.588-0.02,2.35-0.081     c3.192-0.347,6.132-1.395,8.573-2.887c2.424-1.522,4.314-3.459,5.681-5.388c1.402-1.922,2.185-3.884,2.683-5.521     c0.259-0.828,0.436-1.569,0.513-2.202c0.119-0.625,0.21-1.178,0.224-1.695c0.064-0.987,0.099-1.513,0.099-1.513L323.359,330.297z     "
        />
		</g
      >
	</g
    >
	<g
      >
		<ellipse
          fill="#FFC60B"
          cx="225.979"
          cy="325.477"
          rx="21.763"
          ry="22.108"
      />
		<g
        >
			<path
            fill="#F7941E"
            d="M249.153,325.547c0,0-0.016,0.536-0.051,1.547c0.01,0.484-0.066,1.152-0.181,1.958     c-0.084,0.813-0.265,1.698-0.504,2.67c-0.482,1.946-1.264,4.308-2.718,6.745c-1.439,2.435-3.523,4.967-6.365,7.097     c-2.844,2.101-6.501,3.739-10.593,4.285c-0.509,0.089-1.028,0.086-1.551,0.132c-0.56,0.018-0.953,0.109-1.662,0.059     c-0.962-0.06-1.839-0.042-3.037-0.255c-2.294-0.287-4.327-0.959-6.419-1.859c-4.094-1.898-7.722-5.053-10.22-9.024     c-1.256-1.984-2.179-4.172-2.848-6.433c-0.286-1.148-0.572-2.292-0.686-3.468c-0.084-0.585-0.169-1.169-0.169-1.761l-0.054-1.87     c0.056-2.001,0.385-4.663,1.071-6.841c0.723-2.228,1.689-4.369,2.972-6.294c2.564-3.848,6.178-6.861,10.197-8.631     c3.979-1.779,8.449-2.316,12.248-1.809c4.125,0.56,7.572,2.068,10.436,4.057c2.817,2.022,4.921,4.451,6.406,6.81     c1.497,2.365,2.335,4.678,2.875,6.599c0.268,0.966,0.463,1.837,0.552,2.613c0.124,0.768,0.216,1.423,0.222,1.962     c0.055,1.069,0.084,1.641,0.084,1.641L249.153,325.547z M246.326,325.477c0,0-0.023-0.505-0.072-1.451     c0.006-0.473-0.076-1.052-0.185-1.728c-0.072-0.685-0.241-1.452-0.474-2.307c-0.453-1.696-1.194-3.747-2.584-5.782     c-1.347-2.044-3.252-4.123-5.754-5.787c-2.475-1.635-5.683-2.834-8.914-3.175c-3.538-0.33-7.092,0.184-10.465,1.752     c-3.346,1.554-6.32,4.15-8.398,7.407c-1.038,1.629-1.802,3.432-2.366,5.29c-0.533,1.944-0.731,3.584-0.778,5.886     c0.091,1.741,0.36,3.829,0.943,5.625c0.614,1.828,1.419,3.582,2.484,5.154c2.142,3.137,5.101,5.587,8.375,7.015     c1.6,0.708,3.381,1.286,4.948,1.48c0.711,0.172,1.767,0.183,2.698,0.241c0.657,0.006,1.621-0.021,2.399-0.082     c3.258-0.355,6.26-1.424,8.752-2.948c2.477-1.553,4.404-3.53,5.799-5.5c1.433-1.962,2.23-3.966,2.739-5.637     c0.264-0.846,0.445-1.602,0.525-2.247c0.12-0.639,0.214-1.203,0.227-1.731c0.066-1.007,0.101-1.544,0.101-1.544L246.326,325.477z     "
        />
		</g
      >
	</g
    >
	<g
      >
		<ellipse
          fill="#FFC60B"
          cx="189.243"
          cy="264.276"
          rx="17.537"
          ry="17.815"
      />
		<g
        >
			<path
            fill="#F7941E"
            d="M207.915,264.332c0,0-0.01,0.432-0.039,1.247c0.008,0.391-0.055,0.928-0.148,1.578     c-0.066,0.655-0.212,1.369-0.405,2.151c-0.389,1.568-1.019,3.471-2.191,5.435c-1.159,1.961-2.838,4.003-5.129,5.718     c-2.292,1.692-5.237,3.012-8.536,3.453c-0.408,0.073-0.826,0.07-1.248,0.106c-0.451,0.015-0.768,0.088-1.339,0.048     c-0.778-0.048-1.483-0.033-2.448-0.204c-1.847-0.231-3.486-0.774-5.173-1.498c-3.299-1.53-6.221-4.073-8.233-7.272     c-1.011-1.598-1.757-3.361-2.296-5.183c-0.229-0.924-0.461-1.847-0.552-2.796c-0.068-0.47-0.136-0.942-0.136-1.418l-0.045-1.507     c0.047-1.614,0.311-3.758,0.865-5.513c0.581-1.794,1.361-3.521,2.391-5.072c2.068-3.101,4.981-5.529,8.218-6.954     c3.208-1.433,6.81-1.867,9.87-1.457c3.323,0.451,6.101,1.665,8.408,3.268c2.269,1.629,3.966,3.587,5.16,5.487     c1.207,1.906,1.884,3.771,2.317,5.318c0.216,0.779,0.373,1.482,0.445,2.105c0.101,0.619,0.175,1.147,0.179,1.581     c0.045,0.861,0.068,1.322,0.068,1.322L207.915,264.332z M205.639,264.276c0,0-0.02-0.407-0.058-1.168     c0.004-0.383-0.06-0.848-0.15-1.394c-0.058-0.551-0.193-1.17-0.381-1.858c-0.365-1.368-0.962-3.02-2.082-4.659     c-1.085-1.647-2.621-3.323-4.637-4.663c-1.995-1.318-4.578-2.285-7.183-2.559c-2.85-0.265-5.714,0.149-8.432,1.412     c-2.694,1.253-5.093,3.344-6.767,5.968c-0.836,1.312-1.45,2.765-1.905,4.262c-0.43,1.567-0.589,2.887-0.628,4.743     c0.074,1.402,0.29,3.085,0.76,4.532c0.496,1.473,1.143,2.887,2.002,4.153c1.726,2.526,4.11,4.501,6.748,5.652     c1.289,0.571,2.724,1.036,3.987,1.192c0.574,0.139,1.423,0.148,2.173,0.194c0.529,0.004,1.307-0.017,1.932-0.066     c2.626-0.286,5.043-1.147,7.055-2.375c1.995-1.252,3.546-2.845,4.67-4.433c1.155-1.58,1.798-3.195,2.208-4.541     c0.212-0.681,0.36-1.291,0.422-1.811c0.097-0.514,0.173-0.97,0.185-1.395c0.053-0.812,0.08-1.245,0.08-1.245V264.276z"
        />
		</g
      >
	</g
    >
	<g
      >
		<ellipse
          fill="#FFC60B"
          cx="199.86"
          cy="124.924"
          rx="17.537"
          ry="17.815"
      />
		<g
        >
			<path
            fill="#F7941E"
            d="M218.532,124.981c0,0-0.01,0.432-0.039,1.247c0.008,0.391-0.054,0.928-0.148,1.578     c-0.066,0.655-0.212,1.369-0.404,2.151c-0.389,1.568-1.019,3.471-2.191,5.435c-1.159,1.961-2.838,4.003-5.129,5.718     c-2.292,1.692-5.237,3.012-8.536,3.453c-0.408,0.073-0.826,0.07-1.248,0.106c-0.451,0.015-0.768,0.088-1.34,0.048     c-0.778-0.048-1.483-0.033-2.448-0.204c-1.847-0.231-3.486-0.774-5.173-1.498c-3.299-1.53-6.221-4.073-8.233-7.272     c-1.011-1.598-1.757-3.361-2.296-5.183c-0.229-0.924-0.461-1.847-0.552-2.796c-0.068-0.47-0.136-0.942-0.136-1.418l-0.045-1.507     c0.047-1.614,0.311-3.758,0.865-5.513c0.581-1.794,1.361-3.521,2.391-5.072c2.069-3.101,4.981-5.529,8.218-6.954     c3.208-1.433,6.81-1.867,9.87-1.457c3.323,0.451,6.101,1.665,8.408,3.268c2.269,1.629,3.966,3.587,5.16,5.487     c1.207,1.906,1.884,3.771,2.317,5.318c0.216,0.779,0.373,1.482,0.445,2.105c0.101,0.619,0.175,1.147,0.179,1.581     c0.045,0.861,0.068,1.322,0.068,1.322L218.532,124.981z M216.255,124.924c0,0-0.02-0.407-0.058-1.168     c0.004-0.383-0.06-0.848-0.15-1.394c-0.058-0.551-0.193-1.17-0.381-1.858c-0.365-1.368-0.962-3.02-2.082-4.659     c-1.085-1.647-2.621-3.323-4.637-4.663c-1.995-1.318-4.578-2.285-7.183-2.559c-2.85-0.265-5.714,0.149-8.432,1.412     c-2.694,1.253-5.094,3.344-6.767,5.968c-0.836,1.312-1.45,2.765-1.905,4.262c-0.43,1.567-0.589,2.887-0.628,4.743     c0.074,1.402,0.29,3.085,0.76,4.532c0.496,1.473,1.143,2.887,2.002,4.153c1.726,2.526,4.11,4.501,6.748,5.652     c1.289,0.571,2.724,1.036,3.987,1.192c0.574,0.139,1.423,0.148,2.173,0.194c0.529,0.004,1.307-0.017,1.932-0.066     c2.627-0.286,5.043-1.147,7.055-2.375c1.995-1.252,3.546-2.845,4.67-4.433c1.155-1.58,1.798-3.195,2.208-4.541     c0.212-0.681,0.36-1.291,0.422-1.811c0.097-0.514,0.173-0.97,0.185-1.395c0.053-0.812,0.08-1.245,0.08-1.245V124.924z"
        />
		</g
      >
	</g
    >
	<g
      >
		<ellipse
          fill="#FFC60B"
          cx="126.842"
          cy="90.507"
          rx="9.591"
          ry="9.743"
      />
		<g
        >
			<path
            fill="#F7941E"
            d="M137.054,90.537c0,0-0.004,0.237-0.021,0.682c0.006,0.214-0.029,0.507-0.08,0.863     c-0.037,0.358-0.117,0.748-0.222,1.176c-0.212,0.857-0.558,1.898-1.198,2.973c-0.634,1.073-1.553,2.189-2.805,3.127     c-1.254,0.926-2.866,1.648-4.67,1.889c-0.224,0.04-0.451,0.039-0.682,0.058c-0.247,0.008-0.42,0.049-0.733,0.026     c-0.424-0.026-0.811-0.019-1.338-0.112c-1.011-0.126-1.907-0.424-2.83-0.819c-1.804-0.837-3.402-2.228-4.503-3.978     c-0.552-0.874-0.96-1.838-1.256-2.834c-0.124-0.505-0.251-1.01-0.301-1.529c-0.037-0.258-0.074-0.515-0.074-0.776l-0.025-0.824     c0.025-0.881,0.171-2.055,0.472-3.014c0.319-0.982,0.745-1.926,1.308-2.774c1.131-1.696,2.724-3.024,4.495-3.804     c1.753-0.784,3.725-1.021,5.399-0.797c1.816,0.247,3.336,0.911,4.598,1.787c1.24,0.891,2.169,1.962,2.823,3.002     c0.659,1.042,1.03,2.062,1.268,2.908c0.117,0.426,0.204,0.81,0.243,1.151c0.055,0.339,0.095,0.628,0.097,0.865     c0.025,0.47,0.037,0.723,0.037,0.723L137.054,90.537z M135.809,90.507c0,0-0.012-0.224-0.033-0.64     c0.004-0.209-0.031-0.464-0.082-0.762c-0.031-0.301-0.105-0.641-0.208-1.016c-0.2-0.749-0.527-1.653-1.139-2.549     c-0.593-0.9-1.433-1.817-2.535-2.55c-1.091-0.721-2.504-1.25-3.929-1.4c-1.559-0.146-3.124,0.081-4.611,0.772     c-1.474,0.685-2.786,1.829-3.702,3.264c-0.457,0.718-0.793,1.513-1.042,2.332c-0.235,0.856-0.323,1.578-0.342,2.593     c0.039,0.767,0.157,1.688,0.414,2.479c0.272,0.806,0.626,1.579,1.097,2.272c0.943,1.381,2.247,2.462,3.69,3.091     c0.706,0.312,1.489,0.567,2.181,0.652c0.313,0.076,0.778,0.081,1.188,0.106c0.29,0.002,0.715-0.009,1.057-0.036     c1.437-0.156,2.759-0.627,3.859-1.299c1.091-0.685,1.938-1.556,2.553-2.424c0.632-0.864,0.984-1.748,1.209-2.484     c0.115-0.373,0.196-0.707,0.23-0.991c0.054-0.282,0.095-0.531,0.101-0.763c0.029-0.444,0.045-0.681,0.045-0.681V90.507z"
        />
		</g
      >
	</g
    >
	<g
      >
		<ellipse
          fill="#FFC60B"
          cx="198.05"
          cy="82.887"
          rx="9.591"
          ry="9.743"
      />
		<g
        >
			<path
            fill="#F7941E"
            d="M208.261,82.918c0,0-0.004,0.237-0.021,0.682c0.006,0.214-0.029,0.507-0.08,0.863     c-0.037,0.358-0.117,0.749-0.222,1.176c-0.212,0.857-0.558,1.898-1.197,2.972c-0.634,1.073-1.553,2.189-2.805,3.127     c-1.254,0.926-2.866,1.648-4.67,1.889c-0.224,0.04-0.451,0.039-0.682,0.058c-0.247,0.008-0.42,0.049-0.733,0.026     c-0.424-0.026-0.811-0.018-1.338-0.112c-1.011-0.126-1.907-0.424-2.831-0.819c-1.804-0.837-3.402-2.228-4.502-3.978     c-0.552-0.874-0.96-1.838-1.256-2.834c-0.124-0.505-0.251-1.01-0.301-1.529c-0.037-0.258-0.074-0.515-0.074-0.776l-0.025-0.824     c0.025-0.882,0.171-2.055,0.472-3.014c0.319-0.982,0.745-1.925,1.308-2.774c1.131-1.696,2.724-3.024,4.495-3.804     c1.754-0.783,3.725-1.021,5.399-0.797c1.816,0.247,3.336,0.911,4.598,1.787c1.24,0.891,2.17,1.962,2.823,3.002     c0.659,1.042,1.03,2.062,1.268,2.908c0.117,0.426,0.204,0.81,0.243,1.151c0.055,0.339,0.095,0.628,0.097,0.865     c0.025,0.471,0.037,0.723,0.037,0.723L208.261,82.918z M207.017,82.887c0,0-0.012-0.224-0.033-0.64     c0.004-0.209-0.031-0.464-0.082-0.762c-0.031-0.301-0.105-0.641-0.208-1.016c-0.2-0.749-0.527-1.653-1.139-2.549     c-0.593-0.9-1.433-1.817-2.535-2.55c-1.091-0.721-2.504-1.25-3.929-1.4c-1.559-0.146-3.124,0.081-4.611,0.772     c-1.474,0.685-2.786,1.829-3.702,3.264c-0.457,0.718-0.793,1.512-1.042,2.332c-0.235,0.856-0.323,1.579-0.342,2.594     c0.039,0.767,0.157,1.687,0.414,2.479c0.272,0.806,0.626,1.579,1.096,2.272c0.943,1.381,2.247,2.462,3.69,3.091     c0.706,0.312,1.489,0.567,2.181,0.652c0.313,0.076,0.778,0.081,1.188,0.106c0.29,0.002,0.715-0.009,1.057-0.036     c1.437-0.156,2.759-0.627,3.859-1.299c1.091-0.685,1.938-1.556,2.553-2.424c0.632-0.864,0.984-1.748,1.209-2.483     c0.115-0.373,0.196-0.707,0.229-0.991c0.054-0.282,0.095-0.531,0.101-0.763c0.029-0.444,0.045-0.681,0.045-0.681V82.887z"
        />
		</g
      >
	</g
    >
	<g
      >
		<ellipse
          fill="#FFC60B"
          cx="190.785"
          cy="361.841"
          rx="9.591"
          ry="9.743"
      />
		<g
        >
			<path
            fill="#F7941E"
            d="M200.996,361.871c0,0-0.004,0.237-0.021,0.682c0.006,0.214-0.029,0.507-0.08,0.863     c-0.037,0.358-0.117,0.749-0.222,1.176c-0.212,0.857-0.558,1.898-1.197,2.973c-0.634,1.073-1.553,2.189-2.805,3.127     c-1.254,0.926-2.866,1.648-4.67,1.889c-0.224,0.04-0.451,0.039-0.682,0.058c-0.247,0.008-0.42,0.049-0.733,0.026     c-0.424-0.026-0.811-0.019-1.337-0.112c-1.011-0.126-1.907-0.424-2.831-0.82c-1.804-0.837-3.402-2.228-4.502-3.978     c-0.552-0.874-0.961-1.838-1.256-2.834c-0.124-0.505-0.251-1.01-0.301-1.529c-0.037-0.258-0.074-0.515-0.074-0.776l-0.025-0.824     c0.025-0.882,0.171-2.055,0.472-3.014c0.319-0.982,0.745-1.926,1.309-2.774c1.131-1.696,2.724-3.024,4.495-3.804     c1.753-0.783,3.725-1.021,5.399-0.797c1.816,0.247,3.336,0.911,4.598,1.788c1.24,0.891,2.169,1.961,2.823,3.002     c0.659,1.042,1.03,2.062,1.268,2.908c0.116,0.426,0.204,0.81,0.243,1.151c0.055,0.339,0.095,0.628,0.097,0.865     c0.025,0.471,0.037,0.723,0.037,0.723L200.996,361.871z M199.752,361.841c0,0-0.012-0.224-0.033-0.64     c0.004-0.209-0.031-0.464-0.082-0.762c-0.031-0.301-0.105-0.641-0.208-1.016c-0.2-0.748-0.527-1.652-1.139-2.549     c-0.593-0.9-1.433-1.817-2.535-2.55c-1.091-0.721-2.504-1.25-3.929-1.4c-1.559-0.146-3.124,0.081-4.611,0.772     c-1.474,0.685-2.786,1.829-3.702,3.264c-0.457,0.718-0.793,1.513-1.042,2.332c-0.235,0.856-0.323,1.579-0.342,2.594     c0.039,0.767,0.157,1.687,0.414,2.479c0.272,0.806,0.626,1.578,1.096,2.272c0.943,1.381,2.247,2.462,3.69,3.091     c0.706,0.312,1.489,0.567,2.181,0.652c0.313,0.076,0.778,0.081,1.188,0.106c0.29,0.002,0.715-0.009,1.057-0.036     c1.437-0.156,2.759-0.627,3.859-1.299c1.091-0.685,1.938-1.556,2.553-2.424c0.632-0.864,0.984-1.748,1.209-2.484     c0.115-0.373,0.196-0.707,0.229-0.99c0.054-0.282,0.095-0.531,0.101-0.763c0.029-0.444,0.045-0.681,0.045-0.681V361.841z"
        />
		</g
      >
	</g
    >
	<g
      >
		<ellipse
          fill="#FFC60B"
          cx="280.335"
          cy="426.622"
          rx="9.591"
          ry="9.743"
      />
		<g
        >
			<path
            fill="#F7941E"
            d="M290.546,426.652c0,0-0.004,0.237-0.021,0.682c0.006,0.214-0.029,0.507-0.08,0.863     c-0.037,0.358-0.116,0.749-0.222,1.176c-0.212,0.857-0.558,1.899-1.197,2.973c-0.634,1.073-1.553,2.189-2.805,3.127     c-1.254,0.926-2.866,1.648-4.67,1.889c-0.224,0.04-0.451,0.039-0.682,0.058c-0.247,0.008-0.42,0.049-0.733,0.026     c-0.424-0.026-0.811-0.019-1.337-0.112c-1.011-0.126-1.907-0.424-2.831-0.82c-1.804-0.837-3.402-2.228-4.502-3.978     c-0.552-0.874-0.961-1.838-1.256-2.834c-0.124-0.505-0.251-1.01-0.301-1.529c-0.037-0.258-0.074-0.515-0.074-0.776l-0.025-0.824     c0.025-0.882,0.171-2.055,0.472-3.014c0.319-0.982,0.745-1.926,1.309-2.774c1.131-1.696,2.724-3.024,4.495-3.804     c1.753-0.783,3.725-1.021,5.399-0.797c1.816,0.247,3.336,0.911,4.598,1.788c1.24,0.891,2.17,1.961,2.823,3.002     c0.659,1.042,1.03,2.062,1.268,2.908c0.116,0.426,0.204,0.81,0.243,1.151c0.055,0.339,0.095,0.628,0.097,0.865     c0.025,0.471,0.037,0.723,0.037,0.723L290.546,426.652z M289.302,426.622c0,0-0.012-0.224-0.033-0.64     c0.004-0.209-0.031-0.464-0.082-0.762c-0.031-0.301-0.105-0.641-0.208-1.016c-0.2-0.749-0.527-1.652-1.139-2.549     c-0.593-0.9-1.433-1.817-2.535-2.55c-1.091-0.721-2.504-1.25-3.929-1.4c-1.559-0.146-3.124,0.081-4.611,0.772     c-1.474,0.685-2.786,1.829-3.702,3.264c-0.457,0.718-0.793,1.513-1.042,2.332c-0.235,0.856-0.323,1.579-0.342,2.594     c0.039,0.767,0.157,1.687,0.414,2.479c0.272,0.806,0.626,1.579,1.096,2.272c0.943,1.381,2.247,2.462,3.69,3.091     c0.706,0.312,1.489,0.567,2.181,0.652c0.313,0.076,0.778,0.081,1.188,0.106c0.29,0.002,0.715-0.009,1.057-0.036     c1.437-0.156,2.759-0.627,3.859-1.299c1.091-0.685,1.938-1.556,2.553-2.424c0.632-0.864,0.984-1.748,1.209-2.483     c0.115-0.373,0.196-0.707,0.229-0.991c0.054-0.282,0.095-0.531,0.101-0.763c0.029-0.444,0.045-0.681,0.045-0.681V426.622z"
        />
		</g
      >
	</g
    >
	<g
      >
		<ellipse
          fill="#FFC60B"
          cx="269.717"
          cy="365.572"
          rx="9.591"
          ry="9.743"
      />
		<g
        >
			<path
            fill="#F7941E"
            d="M279.928,365.602c0,0-0.004,0.237-0.021,0.682c0.006,0.214-0.029,0.507-0.08,0.863     c-0.037,0.358-0.117,0.749-0.222,1.176c-0.212,0.857-0.558,1.898-1.197,2.972c-0.634,1.073-1.553,2.189-2.805,3.127     c-1.254,0.926-2.866,1.648-4.67,1.889c-0.224,0.04-0.451,0.039-0.682,0.058c-0.247,0.008-0.42,0.049-0.733,0.026     c-0.424-0.026-0.811-0.018-1.338-0.112c-1.011-0.126-1.907-0.424-2.831-0.819c-1.804-0.837-3.402-2.228-4.502-3.978     c-0.552-0.874-0.96-1.838-1.256-2.834c-0.124-0.505-0.251-1.01-0.301-1.529c-0.037-0.258-0.074-0.515-0.074-0.776l-0.025-0.824     c0.025-0.882,0.171-2.055,0.472-3.014c0.319-0.982,0.745-1.925,1.308-2.774c1.131-1.696,2.724-3.024,4.495-3.804     c1.754-0.783,3.725-1.021,5.399-0.797c1.816,0.247,3.336,0.911,4.598,1.787c1.24,0.891,2.17,1.962,2.823,3.002     c0.659,1.042,1.03,2.062,1.267,2.908c0.117,0.426,0.204,0.81,0.243,1.151c0.055,0.339,0.095,0.628,0.097,0.865     c0.025,0.471,0.037,0.723,0.037,0.723L279.928,365.602z M278.684,365.572c0,0-0.012-0.224-0.033-0.64     c0.004-0.209-0.031-0.464-0.082-0.762c-0.031-0.301-0.105-0.641-0.208-1.016c-0.2-0.749-0.527-1.652-1.139-2.549     c-0.593-0.9-1.433-1.817-2.535-2.55c-1.091-0.721-2.504-1.25-3.929-1.4c-1.559-0.146-3.124,0.081-4.611,0.772     c-1.474,0.685-2.786,1.829-3.702,3.264c-0.457,0.718-0.793,1.512-1.042,2.332c-0.235,0.856-0.323,1.579-0.342,2.594     c0.039,0.767,0.157,1.687,0.414,2.479c0.272,0.806,0.626,1.579,1.096,2.272c0.943,1.381,2.247,2.462,3.69,3.091     c0.706,0.312,1.489,0.567,2.181,0.652c0.313,0.076,0.778,0.081,1.188,0.106c0.29,0.002,0.715-0.009,1.057-0.036     c1.437-0.156,2.759-0.627,3.859-1.299c1.091-0.685,1.938-1.556,2.553-2.424c0.632-0.864,0.984-1.748,1.209-2.483     c0.115-0.373,0.196-0.707,0.229-0.991c0.054-0.282,0.095-0.531,0.101-0.763c0.029-0.444,0.045-0.681,0.045-0.681V365.572z"
        />
		</g
      >
	</g
    >
	<g
      >
		<ellipse
          fill="#FFC60B"
          cx="193.81"
          cy="192.525"
          rx="21.143"
          ry="21.478"
      />
		<g
        >
			<path
            fill="#F7941E"
            d="M216.324,192.592c0,0-0.014,0.522-0.049,1.504c0.01,0.471-0.064,1.12-0.177,1.902     c-0.08,0.79-0.257,1.651-0.488,2.594c-0.469,1.89-1.229,4.185-2.642,6.553c-1.396,2.365-3.421,4.825-6.182,6.895     c-2.764,2.04-6.314,3.632-10.292,4.162c-0.494,0.088-0.997,0.085-1.507,0.128c-0.542,0.017-0.925,0.106-1.614,0.057     c-0.937-0.057-1.788-0.041-2.951-0.247c-2.228-0.279-4.203-0.932-6.237-1.806c-3.978-1.844-7.502-4.91-9.928-8.767     c-1.219-1.927-2.117-4.052-2.767-6.249c-0.278-1.115-0.556-2.227-0.667-3.37c-0.082-0.568-0.163-1.136-0.163-1.711l-0.055-1.816     c0.056-1.946,0.375-4.531,1.042-6.647c0.702-2.164,1.641-4.245,2.885-6.115c2.492-3.739,6.003-6.666,9.907-8.385     c3.867-1.727,8.21-2.25,11.9-1.756c4.007,0.543,7.356,2.008,10.138,3.941c2.735,1.964,4.781,4.325,6.221,6.616     c1.454,2.298,2.271,4.546,2.794,6.412c0.26,0.939,0.449,1.785,0.537,2.539c0.122,0.746,0.21,1.382,0.216,1.905     c0.053,1.038,0.082,1.594,0.082,1.594L216.324,192.592z M213.578,192.525c0,0-0.023-0.491-0.07-1.409     c0.004-0.461-0.074-1.022-0.181-1.68c-0.07-0.665-0.233-1.411-0.461-2.241c-0.439-1.649-1.159-3.64-2.51-5.616     c-1.308-1.986-3.159-4.006-5.591-5.622c-2.405-1.589-5.519-2.755-8.659-3.085c-3.437-0.321-6.89,0.179-10.166,1.702     c-3.25,1.511-6.141,4.032-8.159,7.196c-1.009,1.582-1.75,3.334-2.298,5.139c-0.517,1.889-0.71,3.481-0.756,5.717     c0.089,1.691,0.348,3.72,0.916,5.465c0.599,1.775,1.378,3.48,2.415,5.007c2.082,3.046,4.955,5.428,8.136,6.815     c1.553,0.688,3.284,1.25,4.808,1.438c0.69,0.167,1.715,0.178,2.619,0.234c0.639,0.005,1.576-0.021,2.331-0.08     c3.167-0.345,6.081-1.383,8.505-2.863c2.405-1.51,4.277-3.43,5.632-5.344c1.392-1.905,2.168-3.852,2.661-5.476     c0.257-0.821,0.434-1.556,0.509-2.183c0.117-0.62,0.208-1.169,0.222-1.682c0.064-0.979,0.097-1.501,0.097-1.501V192.525z"
        />
		</g
      >
	</g
    >
	<g
      >
		<ellipse
          fill="#FFC60B"
          cx="318.146"
          cy="395.44"
          rx="28.682"
          ry="29.136"
      />
		<g
        >
			<path
            fill="#F7941E"
            d="M348.688,395.531c0,0-0.02,0.709-0.066,2.04c0.01,0.638-0.089,1.518-0.241,2.58     c-0.107,1.072-0.348,2.238-0.661,3.519c-0.638,2.564-1.666,5.677-3.585,8.889c-1.894,3.21-4.639,6.546-8.389,9.354     c-3.748,2.768-8.566,4.926-13.96,5.646c-0.669,0.119-1.355,0.116-2.041,0.176c-0.739,0.021-1.258,0.142-2.193,0.077     c-1.269-0.079-2.424-0.055-4.003-0.334c-3.023-0.379-5.702-1.264-8.459-2.451c-5.395-2.501-10.177-6.66-13.471-11.893     c-1.652-2.614-2.871-5.498-3.754-8.477c-0.373-1.512-0.753-3.021-0.904-4.572c-0.109-0.77-0.22-1.541-0.22-2.319l-0.074-2.465     c0.076-2.638,0.507-6.145,1.413-9.016c0.951-2.937,2.226-5.758,3.915-8.296c3.379-5.071,8.142-9.043,13.439-11.374     c5.245-2.345,11.136-3.052,16.142-2.383c5.436,0.736,9.979,2.723,13.752,5.344c3.713,2.665,6.485,5.867,8.441,8.977     c1.973,3.116,3.079,6.167,3.791,8.697c0.352,1.274,0.608,2.422,0.727,3.444c0.165,1.012,0.284,1.875,0.292,2.584     c0.072,1.41,0.111,2.164,0.111,2.164L348.688,395.531z M344.963,395.44c0,0-0.033-0.666-0.095-1.912     c0.004-0.625-0.099-1.387-0.245-2.278c-0.095-0.902-0.317-1.915-0.626-3.04c-0.593-2.237-1.573-4.939-3.404-7.62     c-1.775-2.694-4.287-5.435-7.586-7.628c-3.26-2.155-7.489-3.736-11.746-4.186c-4.662-0.436-9.347,0.243-13.791,2.309     c-4.409,2.05-8.33,5.471-11.068,9.762c-1.369,2.147-2.374,4.524-3.118,6.972c-0.702,2.562-0.962,4.723-1.024,7.757     c0.122,2.294,0.472,5.046,1.24,7.415c0.813,2.407,1.872,4.719,3.278,6.792c2.823,4.132,6.723,7.363,11.037,9.245     c2.107,0.932,4.454,1.694,6.52,1.95c0.937,0.226,2.329,0.24,3.554,0.318c0.867,0.006,2.138-0.028,3.163-0.109     c4.296-0.466,8.251-1.877,11.536-3.884c3.262-2.048,5.805-4.653,7.642-7.249c1.886-2.586,2.941-5.226,3.61-7.428     c0.348-1.115,0.585-2.111,0.69-2.963c0.161-0.841,0.284-1.585,0.301-2.281c0.086-1.327,0.134-2.034,0.134-2.034L344.963,395.44z"
        />
		</g
      >
	</g
    >
	<g
      >
		<ellipse
          fill="#FFC60B"
          cx="228.665"
          cy="403.53"
          rx="28.682"
          ry="29.136"
      />
		<g
        >
			<path
            fill="#F7941E"
            d="M259.208,403.622c0,0-0.019,0.709-0.066,2.04c0.01,0.638-0.089,1.518-0.241,2.58     c-0.107,1.072-0.348,2.238-0.661,3.519c-0.638,2.564-1.666,5.677-3.585,8.889c-1.893,3.21-4.638,6.546-8.389,9.354     c-3.748,2.768-8.566,4.926-13.96,5.646c-0.669,0.119-1.355,0.116-2.041,0.176c-0.739,0.021-1.258,0.142-2.193,0.077     c-1.269-0.079-2.424-0.054-4.003-0.334c-3.023-0.379-5.702-1.265-8.459-2.452c-5.395-2.501-10.177-6.659-13.471-11.893     c-1.653-2.614-2.871-5.498-3.754-8.477c-0.373-1.513-0.752-3.021-0.904-4.573c-0.109-0.77-0.22-1.541-0.22-2.319l-0.074-2.465     c0.076-2.638,0.507-6.145,1.413-9.016c0.951-2.937,2.226-5.758,3.915-8.296c3.379-5.071,8.142-9.043,13.439-11.374     c5.245-2.345,11.136-3.052,16.142-2.382c5.436,0.736,9.979,2.723,13.752,5.344c3.713,2.665,6.485,5.867,8.441,8.977     c1.973,3.116,3.079,6.167,3.791,8.697c0.352,1.274,0.609,2.422,0.727,3.444c0.165,1.012,0.284,1.875,0.292,2.584     c0.072,1.41,0.111,2.164,0.111,2.164L259.208,403.622z M255.483,403.53c0,0-0.033-0.666-0.095-1.912     c0.004-0.625-0.099-1.387-0.245-2.279c-0.095-0.902-0.317-1.915-0.626-3.039c-0.593-2.237-1.573-4.939-3.404-7.62     c-1.775-2.694-4.287-5.435-7.586-7.628c-3.26-2.155-7.489-3.737-11.746-4.186c-4.662-0.436-9.347,0.243-13.791,2.308     c-4.409,2.05-8.33,5.471-11.068,9.762c-1.369,2.147-2.374,4.524-3.118,6.973c-0.702,2.562-0.962,4.723-1.025,7.757     c0.123,2.294,0.472,5.046,1.24,7.415c0.813,2.407,1.872,4.719,3.278,6.792c2.823,4.132,6.723,7.363,11.036,9.245     c2.107,0.932,4.454,1.694,6.52,1.95c0.937,0.227,2.329,0.24,3.554,0.318c0.867,0.006,2.138-0.028,3.163-0.109     c4.296-0.467,8.251-1.877,11.536-3.884c3.262-2.048,5.805-4.653,7.642-7.249c1.886-2.586,2.942-5.226,3.61-7.428     c0.348-1.115,0.585-2.111,0.69-2.963c0.161-0.841,0.284-1.585,0.301-2.281c0.086-1.327,0.134-2.035,0.134-2.035L255.483,403.53z"
        />
		</g
      >
	</g
    >
</g
  >
<metadata
    ><rdf:RDF
      ><cc:Work
        ><dc:format
          >image/svg+xml</dc:format
        ><dc:type
            rdf:resource="http://purl.org/dc/dcmitype/StillImage"
        /><cc:license
            rdf:resource="http://creativecommons.org/licenses/publicdomain/"
        /><dc:publisher
          ><cc:Agent
              rdf:about="http://openclipart.org/"
            ><dc:title
              >Openclipart</dc:title
            ></cc:Agent
          ></dc:publisher
        ><dc:title
          >Giraffe ?????</dc:title
        ><dc:date
          >2014-06-02T15:44:13</dc:date
        ><dc:description
          >girafe ????? ??? ????? ????? ???? ?????? ????? ????? ???????? </dc:description
        ><dc:source
          >https://openclipart.org/detail/193960/giraffe-?????-by-osfor.org-193960</dc:source
        ><dc:creator
          ><cc:Agent
            ><dc:title
              >osfor.org</dc:title
            ></cc:Agent
          ></dc:creator
        ><dc:subject
          ><rdf:Bag
            ><rdf:li
              >animal</rdf:li
            ><rdf:li
              >girafe</rdf:li
            ><rdf:li
              >zoo</rdf:li
            ><rdf:li
              >????? ???? ??????</rdf:li
            ><rdf:li
              >??? ?????</rdf:li
            ><rdf:li
              >?????</rdf:li
            ><rdf:li
              >????? ????? ????????</rdf:li
            ></rdf:Bag
          ></dc:subject
        ></cc:Work
      ><cc:License
          rdf:about="http://creativecommons.org/licenses/publicdomain/"
        ><cc:permits
            rdf:resource="http://creativecommons.org/ns#Reproduction"
        /><cc:permits
            rdf:resource="http://creativecommons.org/ns#Distribution"
        /><cc:permits
            rdf:resource="http://creativecommons.org/ns#DerivativeWorks"
        /></cc:License
      ></rdf:RDF
    ></metadata
  ></svg
>
