<?xml version="1.0" encoding="UTF-8" standalone="no"?>

<svg
   xmlns:dc="http://purl.org/dc/elements/1.1/"
   xmlns:cc="http://creativecommons.org/ns#"
   xmlns:rdf="http://www.w3.org/1999/02/22-rdf-syntax-ns#"
   xmlns:svg="http://www.w3.org/2000/svg"
   xmlns="http://www.w3.org/2000/svg"
   xmlns:sodipodi="http://sodipodi.sourceforge.net/DTD/sodipodi-0.dtd"
   xmlns:inkscape="http://www.inkscape.org/namespaces/inkscape"
   id="svg2"
   version="1.1"
   inkscape:version="0.91 r13725"
   xml:space="preserve"
   width="1572.4087"
   height="1942.2798"
   viewBox="0 0 1572.4087 1942.2798"
   sodipodi:docname="Golden Cross Fixed.svg"><metadata
     id="metadata8"><rdf:RDF><cc:Work
         rdf:about=""><dc:format>image/svg+xml</dc:format><dc:type
           rdf:resource="http://purl.org/dc/dcmitype/StillImage" /><dc:title></dc:title></cc:Work></rdf:RDF></metadata><defs
     id="defs6"><clipPath
       clipPathUnits="userSpaceOnUse"
       id="clipPath16"><path
         d="m 0,179.998 1015.046,0 0,1300 -1015.046,0 0,-1300 z"
         id="path18"
         inkscape:connector-curvature="0" /></clipPath><linearGradient
       x1="0"
       y1="0"
       x2="1"
       y2="0"
       gradientUnits="userSpaceOnUse"
       gradientTransform="matrix(472,0,0,-472,1362.0784,969.98181)"
       spreadMethod="pad"
       id="linearGradient38"><stop
         style="stop-opacity:1;stop-color:#ba8b01"
         offset="0"
         id="stop40" /><stop
         style="stop-opacity:1;stop-color:#ffffcb"
         offset="0.16006448"
         id="stop42" /><stop
         style="stop-opacity:1;stop-color:#ffffcb"
         offset="0.184676"
         id="stop44" /><stop
         style="stop-opacity:1;stop-color:#ffffcb"
         offset="0.24921075"
         id="stop46" /><stop
         style="stop-opacity:1;stop-color:#ffffcb"
         offset="0.298625"
         id="stop48" /><stop
         style="stop-opacity:1;stop-color:#ecce76"
         offset="0.37317334"
         id="stop50" /><stop
         style="stop-opacity:1;stop-color:#ecce76"
         offset="0.430255"
         id="stop52" /><stop
         style="stop-opacity:1;stop-color:#a26f14"
         offset="0.489194"
         id="stop54" /><stop
         style="stop-opacity:1;stop-color:#a26f14"
         offset="0.5518536"
         id="stop56" /><stop
         style="stop-opacity:1;stop-color:#a26f14"
         offset="0.605108"
         id="stop58" /><stop
         style="stop-opacity:1;stop-color:#e4ba58"
         offset="0.64015476"
         id="stop60" /><stop
         style="stop-opacity:1;stop-color:#e4ba58"
         offset="0.669941"
         id="stop62" /><stop
         style="stop-opacity:1;stop-color:#a65b1a"
         offset="0.67913486"
         id="stop64" /><stop
         style="stop-opacity:1;stop-color:#a65b1a"
         offset="0.685658"
         id="stop66" /><stop
         style="stop-opacity:1;stop-color:#a65b1a"
         offset="0.71177907"
         id="stop68" /><stop
         style="stop-opacity:1;stop-color:#ffffcd"
         offset="0.774067"
         id="stop70" /><stop
         style="stop-opacity:1;stop-color:#ffffcd"
         offset="0.795678"
         id="stop72" /><stop
         style="stop-opacity:1;stop-color:#e5bd5d"
         offset="0.846758"
         id="stop74" /><stop
         style="stop-opacity:1;stop-color:#bb913b"
         offset="0.886051"
         id="stop76" /><stop
         style="stop-opacity:1;stop-color:#bb913b"
         offset="0.911591"
         id="stop78" /><stop
         style="stop-opacity:1;stop-color:#c5992e"
         offset="0.92032946"
         id="stop80" /><stop
         style="stop-opacity:1;stop-color:#c5992e"
         offset="0.950884"
         id="stop82" /><stop
         style="stop-opacity:1;stop-color:#7f470a"
         offset="1"
         id="stop84" /></linearGradient><linearGradient
       x1="0"
       y1="0"
       x2="1"
       y2="0"
       gradientUnits="userSpaceOnUse"
       gradientTransform="matrix(0,466.03613,466.03613,0,1598.0156,736.96387)"
       spreadMethod="pad"
       id="linearGradient100"><stop
         style="stop-opacity:1;stop-color:#c77627"
         offset="0"
         id="stop102" /><stop
         style="stop-opacity:1;stop-color:#e9a34a"
         offset="0.0484848"
         id="stop104" /><stop
         style="stop-opacity:1;stop-color:#ffdf9b"
         offset="0.11277245"
         id="stop106" /><stop
         style="stop-opacity:1;stop-color:#ffdf9b"
         offset="0.145455"
         id="stop108" /><stop
         style="stop-opacity:1;stop-color:#ffdf9b"
         offset="0.16301457"
         id="stop110" /><stop
         style="stop-opacity:1;stop-color:#fefdf6"
         offset="0.2"
         id="stop112" /><stop
         style="stop-opacity:1;stop-color:#fefdf6"
         offset="0.2190312"
         id="stop114" /><stop
         style="stop-opacity:1;stop-color:#fefdf6"
         offset="0.230303"
         id="stop116" /><stop
         style="stop-opacity:1;stop-color:#ffd481"
         offset="0.28359074"
         id="stop118" /><stop
         style="stop-opacity:1;stop-color:#ffd481"
         offset="0.315152"
         id="stop120" /><stop
         style="stop-opacity:1;stop-color:#ffd481"
         offset="0.35909985"
         id="stop122" /><stop
         style="stop-opacity:1;stop-color:#c67238"
         offset="0.436364"
         id="stop124" /><stop
         style="stop-opacity:1;stop-color:#853007"
         offset="0.4682708"
         id="stop126" /><stop
         style="stop-opacity:1;stop-color:#853007"
         offset="0.490909"
         id="stop128" /><stop
         style="stop-opacity:1;stop-color:#853007"
         offset="0.545455"
         id="stop130" /><stop
         style="stop-opacity:1;stop-color:#fdc25d"
         offset="0.612121"
         id="stop132" /><stop
         style="stop-opacity:1;stop-color:#ffd484"
         offset="0.636364"
         id="stop134" /><stop
         style="stop-opacity:1;stop-color:#fffffa"
         offset="0.727273"
         id="stop136" /><stop
         style="stop-opacity:1;stop-color:#fffffa"
         offset="0.806061"
         id="stop138" /><stop
         style="stop-opacity:1;stop-color:#ffd27a"
         offset="0.884848"
         id="stop140" /><stop
         style="stop-opacity:1;stop-color:#e39e45"
         offset="0.957576"
         id="stop142" /><stop
         style="stop-opacity:1;stop-color:#c78133"
         offset="1"
         id="stop144" /></linearGradient><clipPath
       clipPathUnits="userSpaceOnUse"
       id="clipPath152"><path
         d="m 1731.333,1073.741 0.5,0.5 0.5,0.5 0.5,0.5 0.5,0.5 -9.172,0 -8.171,0 -8.172,0 -8.172,0 -8.17,0 -8.172,0 -8.172,0 -8.171,0 -8.172,0 -8.172,0 -8.171,0 -8.172,0 -8.171,0 -8.171,0 -8.172,0 -7.182,0 0,1.822 0,5.426 0,5.427 0,5.427 0,5.427 0,5.425 0,5.427 0,5.427 0,5.427 0,5.425 0,5.427 0,5.427 0,5.427 0,5.426 0,5.426 0,5.427 0,5.427 0,4.825 0,4.825 0,4.825 0,4.825 0,4.826 0,4.826 0,4.825 0,5.815 0,0.02 -0.019,0 -8.961,0 -0.02,0 0,-0.02 0,-5.584 0,-4.593 0,-4.594 0,-4.594 0,-4.594 0,-4.594 0,-9.188 0,-4.452 0,-4.452 0,-4.453 0,-4.452 0,-9.21 0,-4.605 0,-4.605 0,-4.605 0,-4.605 0,-4.605 0,-4.604 0,-4.606 0,-4.604 0,-4.606 0,-4.604 0,-4.605 0,-4.605 0,-4.605 0,-3.615 -5.074,0 -6.065,0 -6.063,0 -6.064,0 -6.123,0 -6.122,0 -6.123,0 -6.122,0 -6.122,0 -6.122,0 -6.123,0 -6.122,0 -6.122,0 -6.122,0 -6.122,0 -6.123,0 -6.122,0 -6.122,0 -6.122,0 -6.124,0 -4.323,0 -5.313,0 -0.02,0 0,-0.019 0,-8.961 0,-0.02 0.02,0 6.824,0 5.833,0 5.834,0 5.834,0 5.833,0 5.834,0 5.833,0 5.834,0 44.525,0 38.676,0 0,-30.565 0,-26.716 0,-13.691 0,-13.692 0,-13.691 0,-13.692 0,-13.692 0,-13.691 0,-13.692 0,-13.691 0,-13.692 0,-13.692 0,-13.691 0,-13.692 0,-13.691 0,-13.692 0,-13.692 0,-13.691 0,-6.678 0,-6.678 0,-6.677 0,-6.677 0,-6.678 0,-6.678 0,-6.678 0,-7.668 0,-0.019 0.02,0 8.961,0 0.019,0 0,0.019 0,6.447 0,10.018 0,10.019 0,20.036 0,40.073 0,40.073 0,40.073 0,10.313 0,10.314 0,20.626 0,41.252 0,41.252 0,40.262 3.179,0 5.009,0 5.008,0 5.01,0 5.009,0 5.009,0 5.01,0 5.008,0 5.009,0 5.009,0 5.01,0 5.008,0 5.009,0 5.01,0 5.009,0 5.009,0 5.009,0 47.411,0 0.02,0 0,0.02 0,8.98 -0.5,-0.5 -0.5,-0.5 -0.5,-0.5 -0.5,-0.5 0,-5 -45.431,0 -5.009,0 -5.009,0 -5.009,0 -5.01,0 -5.009,0 -5.008,0 -5.01,0 -5.009,0 -5.009,0 -5.008,0 -5.01,0 -5.009,0 -5.009,0 -5.01,0 -5.008,0 -5.009,0 -5.159,0 -0.02,0 0,-0.019 0,-42.243 0,-41.252 0,-41.252 0,-20.626 0,-10.314 0,-10.313 0,-40.073 0,-40.073 0,-40.073 0,-20.036 0,-10.019 0,-10.018 0,-4.466 -5,0 0,5.687 0,6.678 0,6.678 0,6.678 0,6.677 0,6.677 0,6.678 0,6.678 0,13.691 0,13.692 0,13.692 0,13.691 0,13.692 0,13.691 0,13.692 0,13.692 0,13.691 0,13.692 0,13.691 0,13.692 0,13.692 0,13.691 0,13.692 0,13.691 0,26.716 0,32.546 0,0.019 -0.019,0 -40.657,0 -44.525,0 -5.834,0 -5.833,0 -5.834,0 -5.833,0 -5.834,0 -5.834,0 -5.833,0 -4.844,0 0,5 3.333,0 4.323,0 6.124,0 6.122,0 6.122,0 6.122,0 6.123,0 6.122,0 6.122,0 6.122,0 6.122,0 6.123,0 6.122,0 6.122,0 6.122,0 6.123,0 6.122,0 6.123,0 6.064,0 6.063,0 6.065,0 7.055,0 0.019,0 0,0.02 0,5.595 0,4.605 0,4.605 0,4.605 0,4.604 0,4.606 0,4.604 0,4.606 0,4.604 0,4.605 0,4.605 0,4.605 0,4.605 0,4.605 0,9.21 0,4.452 0,4.453 0,4.452 0,4.452 0,9.188 0,4.594 0,4.594 0,4.594 0,4.594 0,4.593 0,3.604 5,0 0,-3.835 0,-4.825 0,-4.826 0,-4.826 0,-4.825 0,-4.825 0,-4.825 0,-4.825 0,-5.427 0,-5.427 0,-5.426 0,-5.426 0,-5.427 0,-5.427 0,-5.427 0,-5.425 0,-5.427 0,-5.427 0,-5.427 0,-5.425 0,-5.427 0,-5.427 0,-5.427 0,-5.426 0,-3.802 0,-0.02 0.02,0 9.162,0 8.172,0 8.171,0 8.171,0 8.172,0 8.171,0 8.172,0 8.172,0 8.171,0 8.172,0 8.172,0 8.17,0 8.172,0 8.172,0 8.171,0 7.172,0 z"
         id="path154"
         inkscape:connector-curvature="0" /></clipPath><linearGradient
       x1="0"
       y1="0"
       x2="1"
       y2="0"
       gradientUnits="userSpaceOnUse"
       gradientTransform="matrix(111.078,0,0,111.078,-3.2612,1664.4054)"
       spreadMethod="pad"
       id="linearGradient40868"><stop
         style="stop-opacity:1;stop-color:#ba8b01"
         offset="0"
         id="stop40870" /><stop
         style="stop-opacity:1;stop-color:#ffffcb"
         offset="0.16006448"
         id="stop40872" /><stop
         style="stop-opacity:1;stop-color:#ffffcb"
         offset="0.184676"
         id="stop40874" /><stop
         style="stop-opacity:1;stop-color:#ffffcb"
         offset="0.24921075"
         id="stop40876" /><stop
         style="stop-opacity:1;stop-color:#ffffcb"
         offset="0.298625"
         id="stop40878" /><stop
         style="stop-opacity:1;stop-color:#ecce76"
         offset="0.37317334"
         id="stop40880" /><stop
         style="stop-opacity:1;stop-color:#ecce76"
         offset="0.430255"
         id="stop40882" /><stop
         style="stop-opacity:1;stop-color:#a26f14"
         offset="0.489194"
         id="stop40884" /><stop
         style="stop-opacity:1;stop-color:#a26f14"
         offset="0.5518536"
         id="stop40886" /><stop
         style="stop-opacity:1;stop-color:#a26f14"
         offset="0.605108"
         id="stop40888" /><stop
         style="stop-opacity:1;stop-color:#e4ba58"
         offset="0.64015476"
         id="stop40890" /><stop
         style="stop-opacity:1;stop-color:#e4ba58"
         offset="0.669941"
         id="stop40892" /><stop
         style="stop-opacity:1;stop-color:#a65b1a"
         offset="0.67913486"
         id="stop40894" /><stop
         style="stop-opacity:1;stop-color:#a65b1a"
         offset="0.685658"
         id="stop40896" /><stop
         style="stop-opacity:1;stop-color:#a65b1a"
         offset="0.71177907"
         id="stop40898" /><stop
         style="stop-opacity:1;stop-color:#ffffcd"
         offset="0.774067"
         id="stop40900" /><stop
         style="stop-opacity:1;stop-color:#ffffcd"
         offset="0.795678"
         id="stop40902" /><stop
         style="stop-opacity:1;stop-color:#e5bd5d"
         offset="0.846758"
         id="stop40904" /><stop
         style="stop-opacity:1;stop-color:#bb913b"
         offset="0.886051"
         id="stop40906" /><stop
         style="stop-opacity:1;stop-color:#bb913b"
         offset="0.911591"
         id="stop40908" /><stop
         style="stop-opacity:1;stop-color:#c5992e"
         offset="0.92032946"
         id="stop40910" /><stop
         style="stop-opacity:1;stop-color:#c5992e"
         offset="0.950884"
         id="stop40912" /><stop
         style="stop-opacity:1;stop-color:#7f470a"
         offset="1"
         id="stop40914" /></linearGradient><linearGradient
       x1="0"
       y1="0"
       x2="1"
       y2="0"
       gradientUnits="userSpaceOnUse"
       gradientTransform="matrix(0,-128.80881,-128.80881,0,1416.7479,1135.6454)"
       spreadMethod="pad"
       id="linearGradient40928"><stop
         style="stop-opacity:1;stop-color:#ba8b01"
         offset="0"
         id="stop40930" /><stop
         style="stop-opacity:1;stop-color:#ffffcb"
         offset="0.16006448"
         id="stop40932" /><stop
         style="stop-opacity:1;stop-color:#ffffcb"
         offset="0.184676"
         id="stop40934" /><stop
         style="stop-opacity:1;stop-color:#ffffcb"
         offset="0.24921075"
         id="stop40936" /><stop
         style="stop-opacity:1;stop-color:#ffffcb"
         offset="0.298625"
         id="stop40938" /><stop
         style="stop-opacity:1;stop-color:#ecce76"
         offset="0.37317334"
         id="stop40940" /><stop
         style="stop-opacity:1;stop-color:#ecce76"
         offset="0.430255"
         id="stop40942" /><stop
         style="stop-opacity:1;stop-color:#a26f14"
         offset="0.489194"
         id="stop40944" /><stop
         style="stop-opacity:1;stop-color:#a26f14"
         offset="0.5518536"
         id="stop40946" /><stop
         style="stop-opacity:1;stop-color:#a26f14"
         offset="0.605108"
         id="stop40948" /><stop
         style="stop-opacity:1;stop-color:#e4ba58"
         offset="0.64015476"
         id="stop40950" /><stop
         style="stop-opacity:1;stop-color:#e4ba58"
         offset="0.669941"
         id="stop40952" /><stop
         style="stop-opacity:1;stop-color:#a65b1a"
         offset="0.67913486"
         id="stop40954" /><stop
         style="stop-opacity:1;stop-color:#a65b1a"
         offset="0.685658"
         id="stop40956" /><stop
         style="stop-opacity:1;stop-color:#a65b1a"
         offset="0.71177907"
         id="stop40958" /><stop
         style="stop-opacity:1;stop-color:#ffffcd"
         offset="0.774067"
         id="stop40960" /><stop
         style="stop-opacity:1;stop-color:#ffffcd"
         offset="0.795678"
         id="stop40962" /><stop
         style="stop-opacity:1;stop-color:#e5bd5d"
         offset="0.846758"
         id="stop40964" /><stop
         style="stop-opacity:1;stop-color:#bb913b"
         offset="0.886051"
         id="stop40966" /><stop
         style="stop-opacity:1;stop-color:#bb913b"
         offset="0.911591"
         id="stop40968" /><stop
         style="stop-opacity:1;stop-color:#c5992e"
         offset="0.92032946"
         id="stop40970" /><stop
         style="stop-opacity:1;stop-color:#c5992e"
         offset="0.950884"
         id="stop40972" /><stop
         style="stop-opacity:1;stop-color:#7f470a"
         offset="1"
         id="stop40974" /></linearGradient><linearGradient
       x1="0"
       y1="0"
       x2="1"
       y2="0"
       gradientUnits="userSpaceOnUse"
       gradientTransform="matrix(138.868,0,0,138.868,-133.4053,1651.8334)"
       spreadMethod="pad"
       id="linearGradient40980"><stop
         style="stop-opacity:1;stop-color:#ba8b01"
         offset="0"
         id="stop40982" /><stop
         style="stop-opacity:1;stop-color:#ffffcb"
         offset="0.16006448"
         id="stop40984" /><stop
         style="stop-opacity:1;stop-color:#ffffcb"
         offset="0.184676"
         id="stop40986" /><stop
         style="stop-opacity:1;stop-color:#ffffcb"
         offset="0.24921075"
         id="stop40988" /><stop
         style="stop-opacity:1;stop-color:#ffffcb"
         offset="0.298625"
         id="stop40990" /><stop
         style="stop-opacity:1;stop-color:#ecce76"
         offset="0.37317334"
         id="stop40992" /><stop
         style="stop-opacity:1;stop-color:#ecce76"
         offset="0.430255"
         id="stop40994" /><stop
         style="stop-opacity:1;stop-color:#a26f14"
         offset="0.489194"
         id="stop40996" /><stop
         style="stop-opacity:1;stop-color:#a26f14"
         offset="0.5518536"
         id="stop40998" /><stop
         style="stop-opacity:1;stop-color:#a26f14"
         offset="0.605108"
         id="stop41000" /><stop
         style="stop-opacity:1;stop-color:#e4ba58"
         offset="0.64015476"
         id="stop41002" /><stop
         style="stop-opacity:1;stop-color:#e4ba58"
         offset="0.669941"
         id="stop41004" /><stop
         style="stop-opacity:1;stop-color:#a65b1a"
         offset="0.67913486"
         id="stop41006" /><stop
         style="stop-opacity:1;stop-color:#a65b1a"
         offset="0.685658"
         id="stop41008" /><stop
         style="stop-opacity:1;stop-color:#a65b1a"
         offset="0.71177907"
         id="stop41010" /><stop
         style="stop-opacity:1;stop-color:#ffffcd"
         offset="0.774067"
         id="stop41012" /><stop
         style="stop-opacity:1;stop-color:#ffffcd"
         offset="0.795678"
         id="stop41014" /><stop
         style="stop-opacity:1;stop-color:#e5bd5d"
         offset="0.846758"
         id="stop41016" /><stop
         style="stop-opacity:1;stop-color:#bb913b"
         offset="0.886051"
         id="stop41018" /><stop
         style="stop-opacity:1;stop-color:#bb913b"
         offset="0.911591"
         id="stop41020" /><stop
         style="stop-opacity:1;stop-color:#c5992e"
         offset="0.92032946"
         id="stop41022" /><stop
         style="stop-opacity:1;stop-color:#c5992e"
         offset="0.950884"
         id="stop41024" /><stop
         style="stop-opacity:1;stop-color:#7f470a"
         offset="1"
         id="stop41026" /></linearGradient><linearGradient
       x1="0"
       y1="0"
       x2="1"
       y2="0"
       gradientUnits="userSpaceOnUse"
       gradientTransform="matrix(-127.93398,0,0,127.93398,1662.0453,1250.8121)"
       spreadMethod="pad"
       id="linearGradient41040"><stop
         style="stop-opacity:1;stop-color:#ba8b01"
         offset="0"
         id="stop41042" /><stop
         style="stop-opacity:1;stop-color:#ffffcb"
         offset="0.16006448"
         id="stop41044" /><stop
         style="stop-opacity:1;stop-color:#ffffcb"
         offset="0.184676"
         id="stop41046" /><stop
         style="stop-opacity:1;stop-color:#ffffcb"
         offset="0.24921075"
         id="stop41048" /><stop
         style="stop-opacity:1;stop-color:#ffffcb"
         offset="0.298625"
         id="stop41050" /><stop
         style="stop-opacity:1;stop-color:#ecce76"
         offset="0.37317334"
         id="stop41052" /><stop
         style="stop-opacity:1;stop-color:#ecce76"
         offset="0.430255"
         id="stop41054" /><stop
         style="stop-opacity:1;stop-color:#a26f14"
         offset="0.489194"
         id="stop41056" /><stop
         style="stop-opacity:1;stop-color:#a26f14"
         offset="0.5518536"
         id="stop41058" /><stop
         style="stop-opacity:1;stop-color:#a26f14"
         offset="0.605108"
         id="stop41060" /><stop
         style="stop-opacity:1;stop-color:#e4ba58"
         offset="0.64015476"
         id="stop41062" /><stop
         style="stop-opacity:1;stop-color:#e4ba58"
         offset="0.669941"
         id="stop41064" /><stop
         style="stop-opacity:1;stop-color:#a65b1a"
         offset="0.67913486"
         id="stop41066" /><stop
         style="stop-opacity:1;stop-color:#a65b1a"
         offset="0.685658"
         id="stop41068" /><stop
         style="stop-opacity:1;stop-color:#a65b1a"
         offset="0.71177907"
         id="stop41070" /><stop
         style="stop-opacity:1;stop-color:#ffffcd"
         offset="0.774067"
         id="stop41072" /><stop
         style="stop-opacity:1;stop-color:#ffffcd"
         offset="0.795678"
         id="stop41074" /><stop
         style="stop-opacity:1;stop-color:#e5bd5d"
         offset="0.846758"
         id="stop41076" /><stop
         style="stop-opacity:1;stop-color:#bb913b"
         offset="0.886051"
         id="stop41078" /><stop
         style="stop-opacity:1;stop-color:#bb913b"
         offset="0.911591"
         id="stop41080" /><stop
         style="stop-opacity:1;stop-color:#c5992e"
         offset="0.92032946"
         id="stop41082" /><stop
         style="stop-opacity:1;stop-color:#c5992e"
         offset="0.950884"
         id="stop41084" /><stop
         style="stop-opacity:1;stop-color:#7f470a"
         offset="1"
         id="stop41086" /></linearGradient><linearGradient
       x1="0"
       y1="0"
       x2="1"
       y2="0"
       gradientUnits="userSpaceOnUse"
       gradientTransform="matrix(137.221,0,0,137.221,-132.1966,1548.5763)"
       spreadMethod="pad"
       id="linearGradient41092"><stop
         style="stop-opacity:1;stop-color:#ba8b01"
         offset="0"
         id="stop41094" /><stop
         style="stop-opacity:1;stop-color:#ffffcb"
         offset="0.16006448"
         id="stop41096" /><stop
         style="stop-opacity:1;stop-color:#ffffcb"
         offset="0.184676"
         id="stop41098" /><stop
         style="stop-opacity:1;stop-color:#ffffcb"
         offset="0.24921075"
         id="stop41100" /><stop
         style="stop-opacity:1;stop-color:#ffffcb"
         offset="0.298625"
         id="stop41102" /><stop
         style="stop-opacity:1;stop-color:#ecce76"
         offset="0.37317334"
         id="stop41104" /><stop
         style="stop-opacity:1;stop-color:#ecce76"
         offset="0.430255"
         id="stop41106" /><stop
         style="stop-opacity:1;stop-color:#a26f14"
         offset="0.489194"
         id="stop41108" /><stop
         style="stop-opacity:1;stop-color:#a26f14"
         offset="0.5518536"
         id="stop41110" /><stop
         style="stop-opacity:1;stop-color:#a26f14"
         offset="0.605108"
         id="stop41112" /><stop
         style="stop-opacity:1;stop-color:#e4ba58"
         offset="0.64015476"
         id="stop41114" /><stop
         style="stop-opacity:1;stop-color:#e4ba58"
         offset="0.669941"
         id="stop41116" /><stop
         style="stop-opacity:1;stop-color:#a65b1a"
         offset="0.67913486"
         id="stop41118" /><stop
         style="stop-opacity:1;stop-color:#a65b1a"
         offset="0.685658"
         id="stop41120" /><stop
         style="stop-opacity:1;stop-color:#a65b1a"
         offset="0.71177907"
         id="stop41122" /><stop
         style="stop-opacity:1;stop-color:#ffffcd"
         offset="0.774067"
         id="stop41124" /><stop
         style="stop-opacity:1;stop-color:#ffffcd"
         offset="0.795678"
         id="stop41126" /><stop
         style="stop-opacity:1;stop-color:#e5bd5d"
         offset="0.846758"
         id="stop41128" /><stop
         style="stop-opacity:1;stop-color:#bb913b"
         offset="0.886051"
         id="stop41130" /><stop
         style="stop-opacity:1;stop-color:#bb913b"
         offset="0.911591"
         id="stop41132" /><stop
         style="stop-opacity:1;stop-color:#c5992e"
         offset="0.92032946"
         id="stop41134" /><stop
         style="stop-opacity:1;stop-color:#c5992e"
         offset="0.950884"
         id="stop41136" /><stop
         style="stop-opacity:1;stop-color:#7f470a"
         offset="1"
         id="stop41138" /></linearGradient><linearGradient
       x1="0"
       y1="0"
       x2="1"
       y2="0"
       gradientUnits="userSpaceOnUse"
       gradientTransform="matrix(-127.17676,0,0,-127.17676,1661.6666,689.15149)"
       spreadMethod="pad"
       id="linearGradient41152"><stop
         style="stop-opacity:1;stop-color:#ba8b01"
         offset="0"
         id="stop41154" /><stop
         style="stop-opacity:1;stop-color:#ffffcb"
         offset="0.16006448"
         id="stop41156" /><stop
         style="stop-opacity:1;stop-color:#ffffcb"
         offset="0.184676"
         id="stop41158" /><stop
         style="stop-opacity:1;stop-color:#ffffcb"
         offset="0.24921075"
         id="stop41160" /><stop
         style="stop-opacity:1;stop-color:#ffffcb"
         offset="0.298625"
         id="stop41162" /><stop
         style="stop-opacity:1;stop-color:#ecce76"
         offset="0.37317334"
         id="stop41164" /><stop
         style="stop-opacity:1;stop-color:#ecce76"
         offset="0.430255"
         id="stop41166" /><stop
         style="stop-opacity:1;stop-color:#a26f14"
         offset="0.489194"
         id="stop41168" /><stop
         style="stop-opacity:1;stop-color:#a26f14"
         offset="0.5518536"
         id="stop41170" /><stop
         style="stop-opacity:1;stop-color:#a26f14"
         offset="0.605108"
         id="stop41172" /><stop
         style="stop-opacity:1;stop-color:#e4ba58"
         offset="0.64015476"
         id="stop41174" /><stop
         style="stop-opacity:1;stop-color:#e4ba58"
         offset="0.669941"
         id="stop41176" /><stop
         style="stop-opacity:1;stop-color:#a65b1a"
         offset="0.67913486"
         id="stop41178" /><stop
         style="stop-opacity:1;stop-color:#a65b1a"
         offset="0.685658"
         id="stop41180" /><stop
         style="stop-opacity:1;stop-color:#a65b1a"
         offset="0.71177907"
         id="stop41182" /><stop
         style="stop-opacity:1;stop-color:#ffffcd"
         offset="0.774067"
         id="stop41184" /><stop
         style="stop-opacity:1;stop-color:#ffffcd"
         offset="0.795678"
         id="stop41186" /><stop
         style="stop-opacity:1;stop-color:#e5bd5d"
         offset="0.846758"
         id="stop41188" /><stop
         style="stop-opacity:1;stop-color:#bb913b"
         offset="0.886051"
         id="stop41190" /><stop
         style="stop-opacity:1;stop-color:#bb913b"
         offset="0.911591"
         id="stop41192" /><stop
         style="stop-opacity:1;stop-color:#c5992e"
         offset="0.92032946"
         id="stop41194" /><stop
         style="stop-opacity:1;stop-color:#c5992e"
         offset="0.950884"
         id="stop41196" /><stop
         style="stop-opacity:1;stop-color:#7f470a"
         offset="1"
         id="stop41198" /></linearGradient><linearGradient
       x1="0"
       y1="0"
       x2="1"
       y2="0"
       gradientUnits="userSpaceOnUse"
       gradientTransform="matrix(109.735,0,0,109.735,-106.7207,1664)"
       spreadMethod="pad"
       id="linearGradient41204"><stop
         style="stop-opacity:1;stop-color:#ba8b01"
         offset="0"
         id="stop41206" /><stop
         style="stop-opacity:1;stop-color:#ffffcb"
         offset="0.16006448"
         id="stop41208" /><stop
         style="stop-opacity:1;stop-color:#ffffcb"
         offset="0.184676"
         id="stop41210" /><stop
         style="stop-opacity:1;stop-color:#ffffcb"
         offset="0.24921075"
         id="stop41212" /><stop
         style="stop-opacity:1;stop-color:#ffffcb"
         offset="0.298625"
         id="stop41214" /><stop
         style="stop-opacity:1;stop-color:#ecce76"
         offset="0.37317334"
         id="stop41216" /><stop
         style="stop-opacity:1;stop-color:#ecce76"
         offset="0.430255"
         id="stop41218" /><stop
         style="stop-opacity:1;stop-color:#a26f14"
         offset="0.489194"
         id="stop41220" /><stop
         style="stop-opacity:1;stop-color:#a26f14"
         offset="0.5518536"
         id="stop41222" /><stop
         style="stop-opacity:1;stop-color:#a26f14"
         offset="0.605108"
         id="stop41224" /><stop
         style="stop-opacity:1;stop-color:#e4ba58"
         offset="0.64015476"
         id="stop41226" /><stop
         style="stop-opacity:1;stop-color:#e4ba58"
         offset="0.669941"
         id="stop41228" /><stop
         style="stop-opacity:1;stop-color:#a65b1a"
         offset="0.67913486"
         id="stop41230" /><stop
         style="stop-opacity:1;stop-color:#a65b1a"
         offset="0.685658"
         id="stop41232" /><stop
         style="stop-opacity:1;stop-color:#a65b1a"
         offset="0.71177907"
         id="stop41234" /><stop
         style="stop-opacity:1;stop-color:#ffffcd"
         offset="0.774067"
         id="stop41236" /><stop
         style="stop-opacity:1;stop-color:#ffffcd"
         offset="0.795678"
         id="stop41238" /><stop
         style="stop-opacity:1;stop-color:#e5bd5d"
         offset="0.846758"
         id="stop41240" /><stop
         style="stop-opacity:1;stop-color:#bb913b"
         offset="0.886051"
         id="stop41242" /><stop
         style="stop-opacity:1;stop-color:#bb913b"
         offset="0.911591"
         id="stop41244" /><stop
         style="stop-opacity:1;stop-color:#c5992e"
         offset="0.92032946"
         id="stop41246" /><stop
         style="stop-opacity:1;stop-color:#c5992e"
         offset="0.950884"
         id="stop41248" /><stop
         style="stop-opacity:1;stop-color:#7f470a"
         offset="1"
         id="stop41250" /></linearGradient><linearGradient
       x1="0"
       y1="0"
       x2="1"
       y2="0"
       gradientUnits="userSpaceOnUse"
       gradientTransform="matrix(0,-128,128,0,1779.2833,1135)"
       spreadMethod="pad"
       id="linearGradient41264"><stop
         style="stop-opacity:1;stop-color:#ba8b01"
         offset="0"
         id="stop41266" /><stop
         style="stop-opacity:1;stop-color:#ffffcb"
         offset="0.16006448"
         id="stop41268" /><stop
         style="stop-opacity:1;stop-color:#ffffcb"
         offset="0.184676"
         id="stop41270" /><stop
         style="stop-opacity:1;stop-color:#ffffcb"
         offset="0.24921075"
         id="stop41272" /><stop
         style="stop-opacity:1;stop-color:#ffffcb"
         offset="0.298625"
         id="stop41274" /><stop
         style="stop-opacity:1;stop-color:#ecce76"
         offset="0.37317334"
         id="stop41276" /><stop
         style="stop-opacity:1;stop-color:#ecce76"
         offset="0.430255"
         id="stop41278" /><stop
         style="stop-opacity:1;stop-color:#a26f14"
         offset="0.489194"
         id="stop41280" /><stop
         style="stop-opacity:1;stop-color:#a26f14"
         offset="0.5518536"
         id="stop41282" /><stop
         style="stop-opacity:1;stop-color:#a26f14"
         offset="0.605108"
         id="stop41284" /><stop
         style="stop-opacity:1;stop-color:#e4ba58"
         offset="0.64015476"
         id="stop41286" /><stop
         style="stop-opacity:1;stop-color:#e4ba58"
         offset="0.669941"
         id="stop41288" /><stop
         style="stop-opacity:1;stop-color:#a65b1a"
         offset="0.67913486"
         id="stop41290" /><stop
         style="stop-opacity:1;stop-color:#a65b1a"
         offset="0.685658"
         id="stop41292" /><stop
         style="stop-opacity:1;stop-color:#a65b1a"
         offset="0.71177907"
         id="stop41294" /><stop
         style="stop-opacity:1;stop-color:#ffffcd"
         offset="0.774067"
         id="stop41296" /><stop
         style="stop-opacity:1;stop-color:#ffffcd"
         offset="0.795678"
         id="stop41298" /><stop
         style="stop-opacity:1;stop-color:#e5bd5d"
         offset="0.846758"
         id="stop41300" /><stop
         style="stop-opacity:1;stop-color:#bb913b"
         offset="0.886051"
         id="stop41302" /><stop
         style="stop-opacity:1;stop-color:#bb913b"
         offset="0.911591"
         id="stop41304" /><stop
         style="stop-opacity:1;stop-color:#c5992e"
         offset="0.92032946"
         id="stop41306" /><stop
         style="stop-opacity:1;stop-color:#c5992e"
         offset="0.950884"
         id="stop41308" /><stop
         style="stop-opacity:1;stop-color:#7f470a"
         offset="1"
         id="stop41310" /></linearGradient><linearGradient
       x1="0"
       y1="0"
       x2="1"
       y2="0"
       gradientUnits="userSpaceOnUse"
       gradientTransform="matrix(234.72485,234.72485,234.72485,-234.72485,1899.9659,1030.1445)"
       spreadMethod="pad"
       id="linearGradient41324"><stop
         style="stop-opacity:1;stop-color:#ba8b01"
         offset="0"
         id="stop41326" /><stop
         style="stop-opacity:1;stop-color:#ffffcb"
         offset="0.16006448"
         id="stop41328" /><stop
         style="stop-opacity:1;stop-color:#ffffcb"
         offset="0.184676"
         id="stop41330" /><stop
         style="stop-opacity:1;stop-color:#ffffcb"
         offset="0.24921075"
         id="stop41332" /><stop
         style="stop-opacity:1;stop-color:#ffffcb"
         offset="0.298625"
         id="stop41334" /><stop
         style="stop-opacity:1;stop-color:#ecce76"
         offset="0.37317334"
         id="stop41336" /><stop
         style="stop-opacity:1;stop-color:#ecce76"
         offset="0.430255"
         id="stop41338" /><stop
         style="stop-opacity:1;stop-color:#a26f14"
         offset="0.489194"
         id="stop41340" /><stop
         style="stop-opacity:1;stop-color:#a26f14"
         offset="0.5518536"
         id="stop41342" /><stop
         style="stop-opacity:1;stop-color:#a26f14"
         offset="0.605108"
         id="stop41344" /><stop
         style="stop-opacity:1;stop-color:#e4ba58"
         offset="0.64015476"
         id="stop41346" /><stop
         style="stop-opacity:1;stop-color:#e4ba58"
         offset="0.669941"
         id="stop41348" /><stop
         style="stop-opacity:1;stop-color:#a65b1a"
         offset="0.67913486"
         id="stop41350" /><stop
         style="stop-opacity:1;stop-color:#a65b1a"
         offset="0.685658"
         id="stop41352" /><stop
         style="stop-opacity:1;stop-color:#a65b1a"
         offset="0.71177907"
         id="stop41354" /><stop
         style="stop-opacity:1;stop-color:#ffffcd"
         offset="0.774067"
         id="stop41356" /><stop
         style="stop-opacity:1;stop-color:#ffffcd"
         offset="0.795678"
         id="stop41358" /><stop
         style="stop-opacity:1;stop-color:#e5bd5d"
         offset="0.846758"
         id="stop41360" /><stop
         style="stop-opacity:1;stop-color:#bb913b"
         offset="0.886051"
         id="stop41362" /><stop
         style="stop-opacity:1;stop-color:#bb913b"
         offset="0.911591"
         id="stop41364" /><stop
         style="stop-opacity:1;stop-color:#c5992e"
         offset="0.92032946"
         id="stop41366" /><stop
         style="stop-opacity:1;stop-color:#c5992e"
         offset="0.950884"
         id="stop41368" /><stop
         style="stop-opacity:1;stop-color:#7f470a"
         offset="1"
         id="stop41370" /></linearGradient><linearGradient
       x1="0"
       y1="0"
       x2="1"
       y2="0"
       gradientUnits="userSpaceOnUse"
       gradientTransform="matrix(236,0,0,-236,1858.0784,1188.757)"
       spreadMethod="pad"
       id="linearGradient41384"><stop
         style="stop-opacity:1;stop-color:#c78133"
         offset="0"
         id="stop41386" /><stop
         style="stop-opacity:1;stop-color:#e39e45"
         offset="0.042424"
         id="stop41388" /><stop
         style="stop-opacity:1;stop-color:#ffd27a"
         offset="0.115152"
         id="stop41390" /><stop
         style="stop-opacity:1;stop-color:#fffffa"
         offset="0.193939"
         id="stop41392" /><stop
         style="stop-opacity:1;stop-color:#fffffa"
         offset="0.272727"
         id="stop41394" /><stop
         style="stop-opacity:1;stop-color:#ffd484"
         offset="0.363636"
         id="stop41396" /><stop
         style="stop-opacity:1;stop-color:#fdc25d"
         offset="0.387879"
         id="stop41398" /><stop
         style="stop-opacity:1;stop-color:#853007"
         offset="0.454545"
         id="stop41400" /><stop
         style="stop-opacity:1;stop-color:#853007"
         offset="0.509091"
         id="stop41402" /><stop
         style="stop-opacity:1;stop-color:#853007"
         offset="0.5317292"
         id="stop41404" /><stop
         style="stop-opacity:1;stop-color:#c67238"
         offset="0.563636"
         id="stop41406" /><stop
         style="stop-opacity:1;stop-color:#ffd481"
         offset="0.64090015"
         id="stop41408" /><stop
         style="stop-opacity:1;stop-color:#ffd481"
         offset="0.684848"
         id="stop41410" /><stop
         style="stop-opacity:1;stop-color:#ffd481"
         offset="0.71640926"
         id="stop41412" /><stop
         style="stop-opacity:1;stop-color:#fefdf6"
         offset="0.769697"
         id="stop41414" /><stop
         style="stop-opacity:1;stop-color:#fefdf6"
         offset="0.7809688"
         id="stop41416" /><stop
         style="stop-opacity:1;stop-color:#fefdf6"
         offset="0.8"
         id="stop41418" /><stop
         style="stop-opacity:1;stop-color:#ffdf9b"
         offset="0.83698543"
         id="stop41420" /><stop
         style="stop-opacity:1;stop-color:#ffdf9b"
         offset="0.854545"
         id="stop41422" /><stop
         style="stop-opacity:1;stop-color:#ffdf9b"
         offset="0.88722749"
         id="stop41424" /><stop
         style="stop-opacity:1;stop-color:#e9a34a"
         offset="0.951515"
         id="stop41426" /><stop
         style="stop-opacity:1;stop-color:#c77627"
         offset="1"
         id="stop41428" /></linearGradient><linearGradient
       x1="0"
       y1="0"
       x2="1"
       y2="0"
       gradientUnits="userSpaceOnUse"
       gradientTransform="matrix(234.72485,-234.72485,-234.72485,-234.72485,2053.4658,1264.8694)"
       spreadMethod="pad"
       id="linearGradient41442"><stop
         style="stop-opacity:1;stop-color:#ba8b01"
         offset="0"
         id="stop41444" /><stop
         style="stop-opacity:1;stop-color:#ffffcb"
         offset="0.16006448"
         id="stop41446" /><stop
         style="stop-opacity:1;stop-color:#ffffcb"
         offset="0.184676"
         id="stop41448" /><stop
         style="stop-opacity:1;stop-color:#ffffcb"
         offset="0.24921075"
         id="stop41450" /><stop
         style="stop-opacity:1;stop-color:#ffffcb"
         offset="0.298625"
         id="stop41452" /><stop
         style="stop-opacity:1;stop-color:#ecce76"
         offset="0.37317334"
         id="stop41454" /><stop
         style="stop-opacity:1;stop-color:#ecce76"
         offset="0.430255"
         id="stop41456" /><stop
         style="stop-opacity:1;stop-color:#a26f14"
         offset="0.489194"
         id="stop41458" /><stop
         style="stop-opacity:1;stop-color:#a26f14"
         offset="0.5518536"
         id="stop41460" /><stop
         style="stop-opacity:1;stop-color:#a26f14"
         offset="0.605108"
         id="stop41462" /><stop
         style="stop-opacity:1;stop-color:#e4ba58"
         offset="0.64015476"
         id="stop41464" /><stop
         style="stop-opacity:1;stop-color:#e4ba58"
         offset="0.669941"
         id="stop41466" /><stop
         style="stop-opacity:1;stop-color:#a65b1a"
         offset="0.67913486"
         id="stop41468" /><stop
         style="stop-opacity:1;stop-color:#a65b1a"
         offset="0.685658"
         id="stop41470" /><stop
         style="stop-opacity:1;stop-color:#a65b1a"
         offset="0.71177907"
         id="stop41472" /><stop
         style="stop-opacity:1;stop-color:#ffffcd"
         offset="0.774067"
         id="stop41474" /><stop
         style="stop-opacity:1;stop-color:#ffffcd"
         offset="0.795678"
         id="stop41476" /><stop
         style="stop-opacity:1;stop-color:#e5bd5d"
         offset="0.846758"
         id="stop41478" /><stop
         style="stop-opacity:1;stop-color:#bb913b"
         offset="0.886051"
         id="stop41480" /><stop
         style="stop-opacity:1;stop-color:#bb913b"
         offset="0.911591"
         id="stop41482" /><stop
         style="stop-opacity:1;stop-color:#c5992e"
         offset="0.92032946"
         id="stop41484" /><stop
         style="stop-opacity:1;stop-color:#c5992e"
         offset="0.950884"
         id="stop41486" /><stop
         style="stop-opacity:1;stop-color:#7f470a"
         offset="1"
         id="stop41488" /></linearGradient><linearGradient
       x1="0"
       y1="0"
       x2="1"
       y2="0"
       gradientUnits="userSpaceOnUse"
       gradientTransform="matrix(236,0,0,-236,2094.0784,1188.757)"
       spreadMethod="pad"
       id="linearGradient41502"><stop
         style="stop-opacity:1;stop-color:#c78133"
         offset="0"
         id="stop41504" /><stop
         style="stop-opacity:1;stop-color:#e39e45"
         offset="0.042424"
         id="stop41506" /><stop
         style="stop-opacity:1;stop-color:#ffd27a"
         offset="0.115152"
         id="stop41508" /><stop
         style="stop-opacity:1;stop-color:#fffffa"
         offset="0.193939"
         id="stop41510" /><stop
         style="stop-opacity:1;stop-color:#fffffa"
         offset="0.272727"
         id="stop41512" /><stop
         style="stop-opacity:1;stop-color:#ffd484"
         offset="0.363636"
         id="stop41514" /><stop
         style="stop-opacity:1;stop-color:#fdc25d"
         offset="0.387879"
         id="stop41516" /><stop
         style="stop-opacity:1;stop-color:#853007"
         offset="0.454545"
         id="stop41518" /><stop
         style="stop-opacity:1;stop-color:#853007"
         offset="0.509091"
         id="stop41520" /><stop
         style="stop-opacity:1;stop-color:#853007"
         offset="0.5317292"
         id="stop41522" /><stop
         style="stop-opacity:1;stop-color:#c67238"
         offset="0.563636"
         id="stop41524" /><stop
         style="stop-opacity:1;stop-color:#ffd481"
         offset="0.64090015"
         id="stop41526" /><stop
         style="stop-opacity:1;stop-color:#ffd481"
         offset="0.684848"
         id="stop41528" /><stop
         style="stop-opacity:1;stop-color:#ffd481"
         offset="0.71640926"
         id="stop41530" /><stop
         style="stop-opacity:1;stop-color:#fefdf6"
         offset="0.769697"
         id="stop41532" /><stop
         style="stop-opacity:1;stop-color:#fefdf6"
         offset="0.7809688"
         id="stop41534" /><stop
         style="stop-opacity:1;stop-color:#fefdf6"
         offset="0.8"
         id="stop41536" /><stop
         style="stop-opacity:1;stop-color:#ffdf9b"
         offset="0.83698543"
         id="stop41538" /><stop
         style="stop-opacity:1;stop-color:#ffdf9b"
         offset="0.854545"
         id="stop41540" /><stop
         style="stop-opacity:1;stop-color:#ffdf9b"
         offset="0.88722749"
         id="stop41542" /><stop
         style="stop-opacity:1;stop-color:#e9a34a"
         offset="0.951515"
         id="stop41544" /><stop
         style="stop-opacity:1;stop-color:#c77627"
         offset="1"
         id="stop41546" /></linearGradient><linearGradient
       x1="0"
       y1="0"
       x2="1"
       y2="0"
       gradientUnits="userSpaceOnUse"
       gradientTransform="matrix(336.77515,-336.77515,-336.77515,-336.77515,1849.4408,1063.3945)"
       spreadMethod="pad"
       id="linearGradient41560"><stop
         style="stop-opacity:1;stop-color:#ba8b01"
         offset="0"
         id="stop41562" /><stop
         style="stop-opacity:1;stop-color:#ffffcb"
         offset="0.16006448"
         id="stop41564" /><stop
         style="stop-opacity:1;stop-color:#ffffcb"
         offset="0.184676"
         id="stop41566" /><stop
         style="stop-opacity:1;stop-color:#ffffcb"
         offset="0.24921075"
         id="stop41568" /><stop
         style="stop-opacity:1;stop-color:#ffffcb"
         offset="0.298625"
         id="stop41570" /><stop
         style="stop-opacity:1;stop-color:#ecce76"
         offset="0.37317334"
         id="stop41572" /><stop
         style="stop-opacity:1;stop-color:#ecce76"
         offset="0.430255"
         id="stop41574" /><stop
         style="stop-opacity:1;stop-color:#a26f14"
         offset="0.489194"
         id="stop41576" /><stop
         style="stop-opacity:1;stop-color:#a26f14"
         offset="0.5518536"
         id="stop41578" /><stop
         style="stop-opacity:1;stop-color:#a26f14"
         offset="0.605108"
         id="stop41580" /><stop
         style="stop-opacity:1;stop-color:#e4ba58"
         offset="0.64015476"
         id="stop41582" /><stop
         style="stop-opacity:1;stop-color:#e4ba58"
         offset="0.669941"
         id="stop41584" /><stop
         style="stop-opacity:1;stop-color:#a65b1a"
         offset="0.67913486"
         id="stop41586" /><stop
         style="stop-opacity:1;stop-color:#a65b1a"
         offset="0.685658"
         id="stop41588" /><stop
         style="stop-opacity:1;stop-color:#a65b1a"
         offset="0.71177907"
         id="stop41590" /><stop
         style="stop-opacity:1;stop-color:#ffffcd"
         offset="0.774067"
         id="stop41592" /><stop
         style="stop-opacity:1;stop-color:#ffffcd"
         offset="0.795678"
         id="stop41594" /><stop
         style="stop-opacity:1;stop-color:#e5bd5d"
         offset="0.846758"
         id="stop41596" /><stop
         style="stop-opacity:1;stop-color:#bb913b"
         offset="0.886051"
         id="stop41598" /><stop
         style="stop-opacity:1;stop-color:#bb913b"
         offset="0.911591"
         id="stop41600" /><stop
         style="stop-opacity:1;stop-color:#c5992e"
         offset="0.92032946"
         id="stop41602" /><stop
         style="stop-opacity:1;stop-color:#c5992e"
         offset="0.950884"
         id="stop41604" /><stop
         style="stop-opacity:1;stop-color:#7f470a"
         offset="1"
         id="stop41606" /></linearGradient><linearGradient
       x1="0"
       y1="0"
       x2="1"
       y2="0"
       gradientUnits="userSpaceOnUse"
       gradientTransform="matrix(236,0,0,-236,1858.0784,853.25696)"
       spreadMethod="pad"
       id="linearGradient41620"><stop
         style="stop-opacity:1;stop-color:#c78133"
         offset="0"
         id="stop41622" /><stop
         style="stop-opacity:1;stop-color:#e39e45"
         offset="0.042424"
         id="stop41624" /><stop
         style="stop-opacity:1;stop-color:#ffd27a"
         offset="0.115152"
         id="stop41626" /><stop
         style="stop-opacity:1;stop-color:#fffffa"
         offset="0.193939"
         id="stop41628" /><stop
         style="stop-opacity:1;stop-color:#fffffa"
         offset="0.272727"
         id="stop41630" /><stop
         style="stop-opacity:1;stop-color:#ffd484"
         offset="0.363636"
         id="stop41632" /><stop
         style="stop-opacity:1;stop-color:#fdc25d"
         offset="0.387879"
         id="stop41634" /><stop
         style="stop-opacity:1;stop-color:#853007"
         offset="0.454545"
         id="stop41636" /><stop
         style="stop-opacity:1;stop-color:#853007"
         offset="0.509091"
         id="stop41638" /><stop
         style="stop-opacity:1;stop-color:#853007"
         offset="0.5317292"
         id="stop41640" /><stop
         style="stop-opacity:1;stop-color:#c67238"
         offset="0.563636"
         id="stop41642" /><stop
         style="stop-opacity:1;stop-color:#ffd481"
         offset="0.64090015"
         id="stop41644" /><stop
         style="stop-opacity:1;stop-color:#ffd481"
         offset="0.684848"
         id="stop41646" /><stop
         style="stop-opacity:1;stop-color:#ffd481"
         offset="0.71640926"
         id="stop41648" /><stop
         style="stop-opacity:1;stop-color:#fefdf6"
         offset="0.769697"
         id="stop41650" /><stop
         style="stop-opacity:1;stop-color:#fefdf6"
         offset="0.7809688"
         id="stop41652" /><stop
         style="stop-opacity:1;stop-color:#fefdf6"
         offset="0.8"
         id="stop41654" /><stop
         style="stop-opacity:1;stop-color:#ffdf9b"
         offset="0.83698543"
         id="stop41656" /><stop
         style="stop-opacity:1;stop-color:#ffdf9b"
         offset="0.854545"
         id="stop41658" /><stop
         style="stop-opacity:1;stop-color:#ffdf9b"
         offset="0.88722749"
         id="stop41660" /><stop
         style="stop-opacity:1;stop-color:#e9a34a"
         offset="0.951515"
         id="stop41662" /><stop
         style="stop-opacity:1;stop-color:#c77627"
         offset="1"
         id="stop41664" /></linearGradient><linearGradient
       x1="0"
       y1="0"
       x2="1"
       y2="0"
       gradientUnits="userSpaceOnUse"
       gradientTransform="matrix(336.77515,336.77515,336.77515,-336.77515,2001.9408,726.61938)"
       spreadMethod="pad"
       id="linearGradient41678"><stop
         style="stop-opacity:1;stop-color:#ba8b01"
         offset="0"
         id="stop41680" /><stop
         style="stop-opacity:1;stop-color:#ffffcb"
         offset="0.16006448"
         id="stop41682" /><stop
         style="stop-opacity:1;stop-color:#ffffcb"
         offset="0.184676"
         id="stop41684" /><stop
         style="stop-opacity:1;stop-color:#ffffcb"
         offset="0.24921075"
         id="stop41686" /><stop
         style="stop-opacity:1;stop-color:#ffffcb"
         offset="0.298625"
         id="stop41688" /><stop
         style="stop-opacity:1;stop-color:#ecce76"
         offset="0.37317334"
         id="stop41690" /><stop
         style="stop-opacity:1;stop-color:#ecce76"
         offset="0.430255"
         id="stop41692" /><stop
         style="stop-opacity:1;stop-color:#a26f14"
         offset="0.489194"
         id="stop41694" /><stop
         style="stop-opacity:1;stop-color:#a26f14"
         offset="0.5518536"
         id="stop41696" /><stop
         style="stop-opacity:1;stop-color:#a26f14"
         offset="0.605108"
         id="stop41698" /><stop
         style="stop-opacity:1;stop-color:#e4ba58"
         offset="0.64015476"
         id="stop41700" /><stop
         style="stop-opacity:1;stop-color:#e4ba58"
         offset="0.669941"
         id="stop41702" /><stop
         style="stop-opacity:1;stop-color:#a65b1a"
         offset="0.67913486"
         id="stop41704" /><stop
         style="stop-opacity:1;stop-color:#a65b1a"
         offset="0.685658"
         id="stop41706" /><stop
         style="stop-opacity:1;stop-color:#a65b1a"
         offset="0.71177907"
         id="stop41708" /><stop
         style="stop-opacity:1;stop-color:#ffffcd"
         offset="0.774067"
         id="stop41710" /><stop
         style="stop-opacity:1;stop-color:#ffffcd"
         offset="0.795678"
         id="stop41712" /><stop
         style="stop-opacity:1;stop-color:#e5bd5d"
         offset="0.846758"
         id="stop41714" /><stop
         style="stop-opacity:1;stop-color:#bb913b"
         offset="0.886051"
         id="stop41716" /><stop
         style="stop-opacity:1;stop-color:#bb913b"
         offset="0.911591"
         id="stop41718" /><stop
         style="stop-opacity:1;stop-color:#c5992e"
         offset="0.92032946"
         id="stop41720" /><stop
         style="stop-opacity:1;stop-color:#c5992e"
         offset="0.950884"
         id="stop41722" /><stop
         style="stop-opacity:1;stop-color:#7f470a"
         offset="1"
         id="stop41724" /></linearGradient><linearGradient
       x1="0"
       y1="0"
       x2="1"
       y2="0"
       gradientUnits="userSpaceOnUse"
       gradientTransform="matrix(236,0,0,-236,2094.0784,853.25696)"
       spreadMethod="pad"
       id="linearGradient41738"><stop
         style="stop-opacity:1;stop-color:#c78133"
         offset="0"
         id="stop41740" /><stop
         style="stop-opacity:1;stop-color:#e39e45"
         offset="0.042424"
         id="stop41742" /><stop
         style="stop-opacity:1;stop-color:#ffd27a"
         offset="0.115152"
         id="stop41744" /><stop
         style="stop-opacity:1;stop-color:#fffffa"
         offset="0.193939"
         id="stop41746" /><stop
         style="stop-opacity:1;stop-color:#fffffa"
         offset="0.272727"
         id="stop41748" /><stop
         style="stop-opacity:1;stop-color:#ffd484"
         offset="0.363636"
         id="stop41750" /><stop
         style="stop-opacity:1;stop-color:#fdc25d"
         offset="0.387879"
         id="stop41752" /><stop
         style="stop-opacity:1;stop-color:#853007"
         offset="0.454545"
         id="stop41754" /><stop
         style="stop-opacity:1;stop-color:#853007"
         offset="0.509091"
         id="stop41756" /><stop
         style="stop-opacity:1;stop-color:#853007"
         offset="0.5317292"
         id="stop41758" /><stop
         style="stop-opacity:1;stop-color:#c67238"
         offset="0.563636"
         id="stop41760" /><stop
         style="stop-opacity:1;stop-color:#ffd481"
         offset="0.64090015"
         id="stop41762" /><stop
         style="stop-opacity:1;stop-color:#ffd481"
         offset="0.684848"
         id="stop41764" /><stop
         style="stop-opacity:1;stop-color:#ffd481"
         offset="0.71640926"
         id="stop41766" /><stop
         style="stop-opacity:1;stop-color:#fefdf6"
         offset="0.769697"
         id="stop41768" /><stop
         style="stop-opacity:1;stop-color:#fefdf6"
         offset="0.7809688"
         id="stop41770" /><stop
         style="stop-opacity:1;stop-color:#fefdf6"
         offset="0.8"
         id="stop41772" /><stop
         style="stop-opacity:1;stop-color:#ffdf9b"
         offset="0.83698543"
         id="stop41774" /><stop
         style="stop-opacity:1;stop-color:#ffdf9b"
         offset="0.854545"
         id="stop41776" /><stop
         style="stop-opacity:1;stop-color:#ffdf9b"
         offset="0.88722749"
         id="stop41778" /><stop
         style="stop-opacity:1;stop-color:#e9a34a"
         offset="0.951515"
         id="stop41780" /><stop
         style="stop-opacity:1;stop-color:#c77627"
         offset="1"
         id="stop41782" /></linearGradient><linearGradient
       x1="0"
       y1="0"
       x2="1"
       y2="0"
       gradientUnits="userSpaceOnUse"
       gradientTransform="matrix(0,466.03613,466.03613,0,2094.113,736.96387)"
       spreadMethod="pad"
       id="linearGradient41796"><stop
         style="stop-opacity:1;stop-color:#c77627"
         offset="0"
         id="stop41798" /><stop
         style="stop-opacity:1;stop-color:#e9a34a"
         offset="0.0484848"
         id="stop41800" /><stop
         style="stop-opacity:1;stop-color:#ffdf9b"
         offset="0.11277245"
         id="stop41802" /><stop
         style="stop-opacity:1;stop-color:#ffdf9b"
         offset="0.145455"
         id="stop41804" /><stop
         style="stop-opacity:1;stop-color:#ffdf9b"
         offset="0.16301457"
         id="stop41806" /><stop
         style="stop-opacity:1;stop-color:#fefdf6"
         offset="0.2"
         id="stop41808" /><stop
         style="stop-opacity:1;stop-color:#fefdf6"
         offset="0.2190312"
         id="stop41810" /><stop
         style="stop-opacity:1;stop-color:#fefdf6"
         offset="0.230303"
         id="stop41812" /><stop
         style="stop-opacity:1;stop-color:#ffd481"
         offset="0.28359074"
         id="stop41814" /><stop
         style="stop-opacity:1;stop-color:#ffd481"
         offset="0.315152"
         id="stop41816" /><stop
         style="stop-opacity:1;stop-color:#ffd481"
         offset="0.35909985"
         id="stop41818" /><stop
         style="stop-opacity:1;stop-color:#c67238"
         offset="0.436364"
         id="stop41820" /><stop
         style="stop-opacity:1;stop-color:#853007"
         offset="0.4682708"
         id="stop41822" /><stop
         style="stop-opacity:1;stop-color:#853007"
         offset="0.490909"
         id="stop41824" /><stop
         style="stop-opacity:1;stop-color:#853007"
         offset="0.545455"
         id="stop41826" /><stop
         style="stop-opacity:1;stop-color:#fdc25d"
         offset="0.612121"
         id="stop41828" /><stop
         style="stop-opacity:1;stop-color:#ffd484"
         offset="0.636364"
         id="stop41830" /><stop
         style="stop-opacity:1;stop-color:#fffffa"
         offset="0.727273"
         id="stop41832" /><stop
         style="stop-opacity:1;stop-color:#fffffa"
         offset="0.806061"
         id="stop41834" /><stop
         style="stop-opacity:1;stop-color:#ffd27a"
         offset="0.884848"
         id="stop41836" /><stop
         style="stop-opacity:1;stop-color:#e39e45"
         offset="0.957576"
         id="stop41838" /><stop
         style="stop-opacity:1;stop-color:#c78133"
         offset="1"
         id="stop41840" /></linearGradient><clipPath
       clipPathUnits="userSpaceOnUse"
       id="clipPath41848"><path
         d="m 2098.655,1204 -8.959,0 -0.02,0 0,-0.02 0,-5.583 0,-4.595 0,-4.593 0,-4.594 0,-4.594 0,-4.594 0,-9.188 0,-4.452 0,-4.452 0,-4.453 0,-4.452 0,-9.21 0,-4.604 0,-4.607 0,-4.604 0,-4.605 0,-4.605 0,-4.604 0,-4.605 0,-4.605 0,-4.606 0,-4.604 0,-4.605 0,-4.605 0,-4.605 0,-3.615 -5.074,0 -6.065,0 -6.065,0 -6.063,0 -6.123,0 -6.122,0 -6.122,0 -6.122,0 -6.122,0 -6.123,0 -6.122,0 -6.122,0 -6.123,0 -6.122,0 -6.122,0 -6.123,0 -6.122,0 -6.121,0 -6.124,0 -6.122,0 -4.323,0 -5.313,0 -0.02,0 0,-0.02 0,-8.96 0,-0.02 0.02,0 6.824,0 5.833,0 5.833,0 5.833,0 5.835,0 5.833,0 5.834,0 5.833,0 44.526,0 38.676,0 0,-30.566 0,-26.715 0,-13.692 0,-13.691 0,-13.691 0,-13.692 0,-13.692 0,-13.692 0,-13.691 0,-13.691 0,-13.692 0,-13.692 0,-13.691 0,-13.692 0,-13.692 0,-13.69 0,-13.693 0,-13.692 0,-6.678 0,-6.677 0,-6.677 0,-6.678 0,-6.677 0,-6.678 0,-6.678 0,-7.668 0,-0.019 0.02,0 8.959,0 0.021,0 0,0.019 0,6.447 0,10.019 0,10.017 0,20.037 0,40.074 0,40.072 0,40.073 0,10.313 0,10.314 0,20.626 0,41.251 0,41.253 0,40.262 3.178,0 5.009,0 5.009,0 5.009,0 5.009,0 5.01,0 5.008,0 5.01,0 5.009,0 5.009,0 5.008,0 5.01,0 5.009,0 5.008,0 5.011,0 5.008,0 5.009,0 47.411,0 0.02,0 0,0.02 0,8.98 c -0.334,-0.333 -0.499,-0.5 -0.499,-0.5 l 0,0 -0.501,-0.5 -0.5,-0.5 -0.499,-0.5 0,-5 -45.432,0 -5.009,0 -5.008,0 -5.011,0 -5.008,0 -5.009,0 -5.01,0 -5.008,0 -5.009,0 -5.009,0 -5.01,0 -5.008,0 -5.01,0 -5.009,0 -5.009,0 -5.009,0 -5.009,0 -5.159,0 -0.019,0 0,-0.019 0,-42.243 0,-41.253 0,-41.251 0,-20.626 0,-10.314 0,-10.313 0,-40.073 0,-40.072 0,-40.074 0,-20.037 0,-10.017 0,-10.019 0,-4.466 -5,0 0,5.687 0,6.678 0,6.678 0,6.677 0,6.678 0,6.677 0,6.677 0,6.678 0,13.692 0,13.693 0,13.69 0,13.692 0,13.692 0,13.691 0,13.692 0,13.692 0,13.691 0,13.691 0,13.692 0,13.692 0,13.692 0,13.691 0,13.691 0,13.692 0,26.715 0,32.547 0,0.019 -0.021,0 -40.655,0 -44.526,0 -5.833,0 -5.834,0 -5.833,0 -5.835,0 -5.833,0 -5.833,0 -5.833,0 -4.844,0 0,5 3.333,0 4.323,0 6.122,0 6.124,0 6.121,0 6.122,0 6.123,0 6.122,0 6.122,0 6.123,0 6.122,0 6.122,0 6.123,0 6.122,0 6.122,0 6.122,0 6.122,0 6.123,0 6.063,0 6.065,0 6.065,0 7.053,0 0.021,0 0,0.019 0,5.596 0,4.605 0,4.605 0,4.605 0,4.604 0,4.606 0,4.605 0,4.605 0,4.604 0,4.605 0,4.605 0,4.604 0,4.607 0,4.604 0,9.21 0,4.452 0,4.453 0,4.452 0,4.452 0,9.188 0,4.594 0,4.594 0,4.594 0,4.593 0,4.595 0,3.603 5,0 0,-3.835 0,-4.825 0,-4.826 0,-4.826 0,-4.825 0,-4.825 0,-4.825 0,-4.825 0,-5.427 0,-5.427 0,-5.426 0,-5.427 0,-5.426 0,-5.427 0,-5.427 0,-5.426 0,-5.426 0,-5.427 0,-5.427 0,-5.425 0,-5.427 0,-5.427 0,-5.427 0,-5.426 0,-3.803 0,-0.019 0.019,0 9.163,0 8.17,0 8.172,0 8.172,0 8.171,0 8.172,0 8.172,0 8.17,0 8.172,0 8.172,0 8.171,0 8.172,0 8.172,0 8.17,0 8.173,0 7.172,0 0.499,0.5 0.5,0.5 0.501,0.5 c 0,0 0.165,0.167 0.499,0.5 l 0,0 -9.171,0 -8.173,0 -8.17,0 -8.172,0 -8.172,0 -8.171,0 -8.172,0 -8.172,0 -8.17,0 -8.172,0 -8.172,0 -8.171,0 -8.172,0 -8.172,0 -8.17,0 -7.182,0 0,1.822 0,5.426 0,5.427 0,5.427 0,5.427 0,5.425 0,5.427 0,5.427 0,5.426 0,5.426 0,5.427 0,5.427 0,5.426 0,5.427 0,5.426 0,5.427 0,5.427 0,4.825 0,4.825 0,4.825 0,4.825 0,4.826 0,4.826 0,4.825 0,5.815 0,0.02 -0.021,0 z"
         id="path41850"
         inkscape:connector-curvature="0" /></clipPath><linearGradient
       x1="0"
       y1="0"
       x2="1"
       y2="0"
       gradientUnits="userSpaceOnUse"
       gradientTransform="matrix(111.078,0,0,111.078,-3.2586,1664.4054)"
       spreadMethod="pad"
       id="linearGradient82562"><stop
         style="stop-opacity:1;stop-color:#ba8b01"
         offset="0"
         id="stop82564" /><stop
         style="stop-opacity:1;stop-color:#ffffcb"
         offset="0.16006448"
         id="stop82566" /><stop
         style="stop-opacity:1;stop-color:#ffffcb"
         offset="0.184676"
         id="stop82568" /><stop
         style="stop-opacity:1;stop-color:#ffffcb"
         offset="0.24921075"
         id="stop82570" /><stop
         style="stop-opacity:1;stop-color:#ffffcb"
         offset="0.298625"
         id="stop82572" /><stop
         style="stop-opacity:1;stop-color:#ecce76"
         offset="0.37317334"
         id="stop82574" /><stop
         style="stop-opacity:1;stop-color:#ecce76"
         offset="0.430255"
         id="stop82576" /><stop
         style="stop-opacity:1;stop-color:#a26f14"
         offset="0.489194"
         id="stop82578" /><stop
         style="stop-opacity:1;stop-color:#a26f14"
         offset="0.5518536"
         id="stop82580" /><stop
         style="stop-opacity:1;stop-color:#a26f14"
         offset="0.605108"
         id="stop82582" /><stop
         style="stop-opacity:1;stop-color:#e4ba58"
         offset="0.64015476"
         id="stop82584" /><stop
         style="stop-opacity:1;stop-color:#e4ba58"
         offset="0.669941"
         id="stop82586" /><stop
         style="stop-opacity:1;stop-color:#a65b1a"
         offset="0.67913486"
         id="stop82588" /><stop
         style="stop-opacity:1;stop-color:#a65b1a"
         offset="0.685658"
         id="stop82590" /><stop
         style="stop-opacity:1;stop-color:#a65b1a"
         offset="0.71177907"
         id="stop82592" /><stop
         style="stop-opacity:1;stop-color:#ffffcd"
         offset="0.774067"
         id="stop82594" /><stop
         style="stop-opacity:1;stop-color:#ffffcd"
         offset="0.795678"
         id="stop82596" /><stop
         style="stop-opacity:1;stop-color:#e5bd5d"
         offset="0.846758"
         id="stop82598" /><stop
         style="stop-opacity:1;stop-color:#bb913b"
         offset="0.886051"
         id="stop82600" /><stop
         style="stop-opacity:1;stop-color:#bb913b"
         offset="0.911591"
         id="stop82602" /><stop
         style="stop-opacity:1;stop-color:#c5992e"
         offset="0.92032946"
         id="stop82604" /><stop
         style="stop-opacity:1;stop-color:#c5992e"
         offset="0.950884"
         id="stop82606" /><stop
         style="stop-opacity:1;stop-color:#7f470a"
         offset="1"
         id="stop82608" /></linearGradient><linearGradient
       x1="0"
       y1="0"
       x2="1"
       y2="0"
       gradientUnits="userSpaceOnUse"
       gradientTransform="matrix(0,-128.80881,-128.80881,0,1912.8453,1135.6454)"
       spreadMethod="pad"
       id="linearGradient82622"><stop
         style="stop-opacity:1;stop-color:#ba8b01"
         offset="0"
         id="stop82624" /><stop
         style="stop-opacity:1;stop-color:#ffffcb"
         offset="0.16006448"
         id="stop82626" /><stop
         style="stop-opacity:1;stop-color:#ffffcb"
         offset="0.184676"
         id="stop82628" /><stop
         style="stop-opacity:1;stop-color:#ffffcb"
         offset="0.24921075"
         id="stop82630" /><stop
         style="stop-opacity:1;stop-color:#ffffcb"
         offset="0.298625"
         id="stop82632" /><stop
         style="stop-opacity:1;stop-color:#ecce76"
         offset="0.37317334"
         id="stop82634" /><stop
         style="stop-opacity:1;stop-color:#ecce76"
         offset="0.430255"
         id="stop82636" /><stop
         style="stop-opacity:1;stop-color:#a26f14"
         offset="0.489194"
         id="stop82638" /><stop
         style="stop-opacity:1;stop-color:#a26f14"
         offset="0.5518536"
         id="stop82640" /><stop
         style="stop-opacity:1;stop-color:#a26f14"
         offset="0.605108"
         id="stop82642" /><stop
         style="stop-opacity:1;stop-color:#e4ba58"
         offset="0.64015476"
         id="stop82644" /><stop
         style="stop-opacity:1;stop-color:#e4ba58"
         offset="0.669941"
         id="stop82646" /><stop
         style="stop-opacity:1;stop-color:#a65b1a"
         offset="0.67913486"
         id="stop82648" /><stop
         style="stop-opacity:1;stop-color:#a65b1a"
         offset="0.685658"
         id="stop82650" /><stop
         style="stop-opacity:1;stop-color:#a65b1a"
         offset="0.71177907"
         id="stop82652" /><stop
         style="stop-opacity:1;stop-color:#ffffcd"
         offset="0.774067"
         id="stop82654" /><stop
         style="stop-opacity:1;stop-color:#ffffcd"
         offset="0.795678"
         id="stop82656" /><stop
         style="stop-opacity:1;stop-color:#e5bd5d"
         offset="0.846758"
         id="stop82658" /><stop
         style="stop-opacity:1;stop-color:#bb913b"
         offset="0.886051"
         id="stop82660" /><stop
         style="stop-opacity:1;stop-color:#bb913b"
         offset="0.911591"
         id="stop82662" /><stop
         style="stop-opacity:1;stop-color:#c5992e"
         offset="0.92032946"
         id="stop82664" /><stop
         style="stop-opacity:1;stop-color:#c5992e"
         offset="0.950884"
         id="stop82666" /><stop
         style="stop-opacity:1;stop-color:#7f470a"
         offset="1"
         id="stop82668" /></linearGradient><linearGradient
       x1="0"
       y1="0"
       x2="1"
       y2="0"
       gradientUnits="userSpaceOnUse"
       gradientTransform="matrix(138.868,0,0,138.868,-133.4026,1651.8334)"
       spreadMethod="pad"
       id="linearGradient82674"><stop
         style="stop-opacity:1;stop-color:#ba8b01"
         offset="0"
         id="stop82676" /><stop
         style="stop-opacity:1;stop-color:#ffffcb"
         offset="0.16006448"
         id="stop82678" /><stop
         style="stop-opacity:1;stop-color:#ffffcb"
         offset="0.184676"
         id="stop82680" /><stop
         style="stop-opacity:1;stop-color:#ffffcb"
         offset="0.24921075"
         id="stop82682" /><stop
         style="stop-opacity:1;stop-color:#ffffcb"
         offset="0.298625"
         id="stop82684" /><stop
         style="stop-opacity:1;stop-color:#ecce76"
         offset="0.37317334"
         id="stop82686" /><stop
         style="stop-opacity:1;stop-color:#ecce76"
         offset="0.430255"
         id="stop82688" /><stop
         style="stop-opacity:1;stop-color:#a26f14"
         offset="0.489194"
         id="stop82690" /><stop
         style="stop-opacity:1;stop-color:#a26f14"
         offset="0.5518536"
         id="stop82692" /><stop
         style="stop-opacity:1;stop-color:#a26f14"
         offset="0.605108"
         id="stop82694" /><stop
         style="stop-opacity:1;stop-color:#e4ba58"
         offset="0.64015476"
         id="stop82696" /><stop
         style="stop-opacity:1;stop-color:#e4ba58"
         offset="0.669941"
         id="stop82698" /><stop
         style="stop-opacity:1;stop-color:#a65b1a"
         offset="0.67913486"
         id="stop82700" /><stop
         style="stop-opacity:1;stop-color:#a65b1a"
         offset="0.685658"
         id="stop82702" /><stop
         style="stop-opacity:1;stop-color:#a65b1a"
         offset="0.71177907"
         id="stop82704" /><stop
         style="stop-opacity:1;stop-color:#ffffcd"
         offset="0.774067"
         id="stop82706" /><stop
         style="stop-opacity:1;stop-color:#ffffcd"
         offset="0.795678"
         id="stop82708" /><stop
         style="stop-opacity:1;stop-color:#e5bd5d"
         offset="0.846758"
         id="stop82710" /><stop
         style="stop-opacity:1;stop-color:#bb913b"
         offset="0.886051"
         id="stop82712" /><stop
         style="stop-opacity:1;stop-color:#bb913b"
         offset="0.911591"
         id="stop82714" /><stop
         style="stop-opacity:1;stop-color:#c5992e"
         offset="0.92032946"
         id="stop82716" /><stop
         style="stop-opacity:1;stop-color:#c5992e"
         offset="0.950884"
         id="stop82718" /><stop
         style="stop-opacity:1;stop-color:#7f470a"
         offset="1"
         id="stop82720" /></linearGradient><linearGradient
       x1="0"
       y1="0"
       x2="1"
       y2="0"
       gradientUnits="userSpaceOnUse"
       gradientTransform="matrix(-127.93398,0,0,127.93398,2158.1426,1250.8121)"
       spreadMethod="pad"
       id="linearGradient82734"><stop
         style="stop-opacity:1;stop-color:#ba8b01"
         offset="0"
         id="stop82736" /><stop
         style="stop-opacity:1;stop-color:#ffffcb"
         offset="0.16006448"
         id="stop82738" /><stop
         style="stop-opacity:1;stop-color:#ffffcb"
         offset="0.184676"
         id="stop82740" /><stop
         style="stop-opacity:1;stop-color:#ffffcb"
         offset="0.24921075"
         id="stop82742" /><stop
         style="stop-opacity:1;stop-color:#ffffcb"
         offset="0.298625"
         id="stop82744" /><stop
         style="stop-opacity:1;stop-color:#ecce76"
         offset="0.37317334"
         id="stop82746" /><stop
         style="stop-opacity:1;stop-color:#ecce76"
         offset="0.430255"
         id="stop82748" /><stop
         style="stop-opacity:1;stop-color:#a26f14"
         offset="0.489194"
         id="stop82750" /><stop
         style="stop-opacity:1;stop-color:#a26f14"
         offset="0.5518536"
         id="stop82752" /><stop
         style="stop-opacity:1;stop-color:#a26f14"
         offset="0.605108"
         id="stop82754" /><stop
         style="stop-opacity:1;stop-color:#e4ba58"
         offset="0.64015476"
         id="stop82756" /><stop
         style="stop-opacity:1;stop-color:#e4ba58"
         offset="0.669941"
         id="stop82758" /><stop
         style="stop-opacity:1;stop-color:#a65b1a"
         offset="0.67913486"
         id="stop82760" /><stop
         style="stop-opacity:1;stop-color:#a65b1a"
         offset="0.685658"
         id="stop82762" /><stop
         style="stop-opacity:1;stop-color:#a65b1a"
         offset="0.71177907"
         id="stop82764" /><stop
         style="stop-opacity:1;stop-color:#ffffcd"
         offset="0.774067"
         id="stop82766" /><stop
         style="stop-opacity:1;stop-color:#ffffcd"
         offset="0.795678"
         id="stop82768" /><stop
         style="stop-opacity:1;stop-color:#e5bd5d"
         offset="0.846758"
         id="stop82770" /><stop
         style="stop-opacity:1;stop-color:#bb913b"
         offset="0.886051"
         id="stop82772" /><stop
         style="stop-opacity:1;stop-color:#bb913b"
         offset="0.911591"
         id="stop82774" /><stop
         style="stop-opacity:1;stop-color:#c5992e"
         offset="0.92032946"
         id="stop82776" /><stop
         style="stop-opacity:1;stop-color:#c5992e"
         offset="0.950884"
         id="stop82778" /><stop
         style="stop-opacity:1;stop-color:#7f470a"
         offset="1"
         id="stop82780" /></linearGradient><linearGradient
       x1="0"
       y1="0"
       x2="1"
       y2="0"
       gradientUnits="userSpaceOnUse"
       gradientTransform="matrix(137.221,0,0,137.221,-132.1939,1548.5763)"
       spreadMethod="pad"
       id="linearGradient82786"><stop
         style="stop-opacity:1;stop-color:#ba8b01"
         offset="0"
         id="stop82788" /><stop
         style="stop-opacity:1;stop-color:#ffffcb"
         offset="0.16006448"
         id="stop82790" /><stop
         style="stop-opacity:1;stop-color:#ffffcb"
         offset="0.184676"
         id="stop82792" /><stop
         style="stop-opacity:1;stop-color:#ffffcb"
         offset="0.24921075"
         id="stop82794" /><stop
         style="stop-opacity:1;stop-color:#ffffcb"
         offset="0.298625"
         id="stop82796" /><stop
         style="stop-opacity:1;stop-color:#ecce76"
         offset="0.37317334"
         id="stop82798" /><stop
         style="stop-opacity:1;stop-color:#ecce76"
         offset="0.430255"
         id="stop82800" /><stop
         style="stop-opacity:1;stop-color:#a26f14"
         offset="0.489194"
         id="stop82802" /><stop
         style="stop-opacity:1;stop-color:#a26f14"
         offset="0.5518536"
         id="stop82804" /><stop
         style="stop-opacity:1;stop-color:#a26f14"
         offset="0.605108"
         id="stop82806" /><stop
         style="stop-opacity:1;stop-color:#e4ba58"
         offset="0.64015476"
         id="stop82808" /><stop
         style="stop-opacity:1;stop-color:#e4ba58"
         offset="0.669941"
         id="stop82810" /><stop
         style="stop-opacity:1;stop-color:#a65b1a"
         offset="0.67913486"
         id="stop82812" /><stop
         style="stop-opacity:1;stop-color:#a65b1a"
         offset="0.685658"
         id="stop82814" /><stop
         style="stop-opacity:1;stop-color:#a65b1a"
         offset="0.71177907"
         id="stop82816" /><stop
         style="stop-opacity:1;stop-color:#ffffcd"
         offset="0.774067"
         id="stop82818" /><stop
         style="stop-opacity:1;stop-color:#ffffcd"
         offset="0.795678"
         id="stop82820" /><stop
         style="stop-opacity:1;stop-color:#e5bd5d"
         offset="0.846758"
         id="stop82822" /><stop
         style="stop-opacity:1;stop-color:#bb913b"
         offset="0.886051"
         id="stop82824" /><stop
         style="stop-opacity:1;stop-color:#bb913b"
         offset="0.911591"
         id="stop82826" /><stop
         style="stop-opacity:1;stop-color:#c5992e"
         offset="0.92032946"
         id="stop82828" /><stop
         style="stop-opacity:1;stop-color:#c5992e"
         offset="0.950884"
         id="stop82830" /><stop
         style="stop-opacity:1;stop-color:#7f470a"
         offset="1"
         id="stop82832" /></linearGradient><linearGradient
       x1="0"
       y1="0"
       x2="1"
       y2="0"
       gradientUnits="userSpaceOnUse"
       gradientTransform="matrix(-127.17676,0,0,-127.17676,2157.7639,689.15149)"
       spreadMethod="pad"
       id="linearGradient82846"><stop
         style="stop-opacity:1;stop-color:#ba8b01"
         offset="0"
         id="stop82848" /><stop
         style="stop-opacity:1;stop-color:#ffffcb"
         offset="0.16006448"
         id="stop82850" /><stop
         style="stop-opacity:1;stop-color:#ffffcb"
         offset="0.184676"
         id="stop82852" /><stop
         style="stop-opacity:1;stop-color:#ffffcb"
         offset="0.24921075"
         id="stop82854" /><stop
         style="stop-opacity:1;stop-color:#ffffcb"
         offset="0.298625"
         id="stop82856" /><stop
         style="stop-opacity:1;stop-color:#ecce76"
         offset="0.37317334"
         id="stop82858" /><stop
         style="stop-opacity:1;stop-color:#ecce76"
         offset="0.430255"
         id="stop82860" /><stop
         style="stop-opacity:1;stop-color:#a26f14"
         offset="0.489194"
         id="stop82862" /><stop
         style="stop-opacity:1;stop-color:#a26f14"
         offset="0.5518536"
         id="stop82864" /><stop
         style="stop-opacity:1;stop-color:#a26f14"
         offset="0.605108"
         id="stop82866" /><stop
         style="stop-opacity:1;stop-color:#e4ba58"
         offset="0.64015476"
         id="stop82868" /><stop
         style="stop-opacity:1;stop-color:#e4ba58"
         offset="0.669941"
         id="stop82870" /><stop
         style="stop-opacity:1;stop-color:#a65b1a"
         offset="0.67913486"
         id="stop82872" /><stop
         style="stop-opacity:1;stop-color:#a65b1a"
         offset="0.685658"
         id="stop82874" /><stop
         style="stop-opacity:1;stop-color:#a65b1a"
         offset="0.71177907"
         id="stop82876" /><stop
         style="stop-opacity:1;stop-color:#ffffcd"
         offset="0.774067"
         id="stop82878" /><stop
         style="stop-opacity:1;stop-color:#ffffcd"
         offset="0.795678"
         id="stop82880" /><stop
         style="stop-opacity:1;stop-color:#e5bd5d"
         offset="0.846758"
         id="stop82882" /><stop
         style="stop-opacity:1;stop-color:#bb913b"
         offset="0.886051"
         id="stop82884" /><stop
         style="stop-opacity:1;stop-color:#bb913b"
         offset="0.911591"
         id="stop82886" /><stop
         style="stop-opacity:1;stop-color:#c5992e"
         offset="0.92032946"
         id="stop82888" /><stop
         style="stop-opacity:1;stop-color:#c5992e"
         offset="0.950884"
         id="stop82890" /><stop
         style="stop-opacity:1;stop-color:#7f470a"
         offset="1"
         id="stop82892" /></linearGradient><linearGradient
       x1="0"
       y1="0"
       x2="1"
       y2="0"
       gradientUnits="userSpaceOnUse"
       gradientTransform="matrix(109.735,0,0,109.735,-106.728,1664)"
       spreadMethod="pad"
       id="linearGradient82898"><stop
         style="stop-opacity:1;stop-color:#ba8b01"
         offset="0"
         id="stop82900" /><stop
         style="stop-opacity:1;stop-color:#ffffcb"
         offset="0.16006448"
         id="stop82902" /><stop
         style="stop-opacity:1;stop-color:#ffffcb"
         offset="0.184676"
         id="stop82904" /><stop
         style="stop-opacity:1;stop-color:#ffffcb"
         offset="0.24921075"
         id="stop82906" /><stop
         style="stop-opacity:1;stop-color:#ffffcb"
         offset="0.298625"
         id="stop82908" /><stop
         style="stop-opacity:1;stop-color:#ecce76"
         offset="0.37317334"
         id="stop82910" /><stop
         style="stop-opacity:1;stop-color:#ecce76"
         offset="0.430255"
         id="stop82912" /><stop
         style="stop-opacity:1;stop-color:#a26f14"
         offset="0.489194"
         id="stop82914" /><stop
         style="stop-opacity:1;stop-color:#a26f14"
         offset="0.5518536"
         id="stop82916" /><stop
         style="stop-opacity:1;stop-color:#a26f14"
         offset="0.605108"
         id="stop82918" /><stop
         style="stop-opacity:1;stop-color:#e4ba58"
         offset="0.64015476"
         id="stop82920" /><stop
         style="stop-opacity:1;stop-color:#e4ba58"
         offset="0.669941"
         id="stop82922" /><stop
         style="stop-opacity:1;stop-color:#a65b1a"
         offset="0.67913486"
         id="stop82924" /><stop
         style="stop-opacity:1;stop-color:#a65b1a"
         offset="0.685658"
         id="stop82926" /><stop
         style="stop-opacity:1;stop-color:#a65b1a"
         offset="0.71177907"
         id="stop82928" /><stop
         style="stop-opacity:1;stop-color:#ffffcd"
         offset="0.774067"
         id="stop82930" /><stop
         style="stop-opacity:1;stop-color:#ffffcd"
         offset="0.795678"
         id="stop82932" /><stop
         style="stop-opacity:1;stop-color:#e5bd5d"
         offset="0.846758"
         id="stop82934" /><stop
         style="stop-opacity:1;stop-color:#bb913b"
         offset="0.886051"
         id="stop82936" /><stop
         style="stop-opacity:1;stop-color:#bb913b"
         offset="0.911591"
         id="stop82938" /><stop
         style="stop-opacity:1;stop-color:#c5992e"
         offset="0.92032946"
         id="stop82940" /><stop
         style="stop-opacity:1;stop-color:#c5992e"
         offset="0.950884"
         id="stop82942" /><stop
         style="stop-opacity:1;stop-color:#7f470a"
         offset="1"
         id="stop82944" /></linearGradient><linearGradient
       x1="0"
       y1="0"
       x2="1"
       y2="0"
       gradientUnits="userSpaceOnUse"
       gradientTransform="matrix(0,-128,128,0,2275.3806,1135)"
       spreadMethod="pad"
       id="linearGradient82958"><stop
         style="stop-opacity:1;stop-color:#ba8b01"
         offset="0"
         id="stop82960" /><stop
         style="stop-opacity:1;stop-color:#ffffcb"
         offset="0.16006448"
         id="stop82962" /><stop
         style="stop-opacity:1;stop-color:#ffffcb"
         offset="0.184676"
         id="stop82964" /><stop
         style="stop-opacity:1;stop-color:#ffffcb"
         offset="0.24921075"
         id="stop82966" /><stop
         style="stop-opacity:1;stop-color:#ffffcb"
         offset="0.298625"
         id="stop82968" /><stop
         style="stop-opacity:1;stop-color:#ecce76"
         offset="0.37317334"
         id="stop82970" /><stop
         style="stop-opacity:1;stop-color:#ecce76"
         offset="0.430255"
         id="stop82972" /><stop
         style="stop-opacity:1;stop-color:#a26f14"
         offset="0.489194"
         id="stop82974" /><stop
         style="stop-opacity:1;stop-color:#a26f14"
         offset="0.5518536"
         id="stop82976" /><stop
         style="stop-opacity:1;stop-color:#a26f14"
         offset="0.605108"
         id="stop82978" /><stop
         style="stop-opacity:1;stop-color:#e4ba58"
         offset="0.64015476"
         id="stop82980" /><stop
         style="stop-opacity:1;stop-color:#e4ba58"
         offset="0.669941"
         id="stop82982" /><stop
         style="stop-opacity:1;stop-color:#a65b1a"
         offset="0.67913486"
         id="stop82984" /><stop
         style="stop-opacity:1;stop-color:#a65b1a"
         offset="0.685658"
         id="stop82986" /><stop
         style="stop-opacity:1;stop-color:#a65b1a"
         offset="0.71177907"
         id="stop82988" /><stop
         style="stop-opacity:1;stop-color:#ffffcd"
         offset="0.774067"
         id="stop82990" /><stop
         style="stop-opacity:1;stop-color:#ffffcd"
         offset="0.795678"
         id="stop82992" /><stop
         style="stop-opacity:1;stop-color:#e5bd5d"
         offset="0.846758"
         id="stop82994" /><stop
         style="stop-opacity:1;stop-color:#bb913b"
         offset="0.886051"
         id="stop82996" /><stop
         style="stop-opacity:1;stop-color:#bb913b"
         offset="0.911591"
         id="stop82998" /><stop
         style="stop-opacity:1;stop-color:#c5992e"
         offset="0.92032946"
         id="stop83000" /><stop
         style="stop-opacity:1;stop-color:#c5992e"
         offset="0.950884"
         id="stop83002" /><stop
         style="stop-opacity:1;stop-color:#7f470a"
         offset="1"
         id="stop83004" /></linearGradient><filter
       style="color-interpolation-filters:sRGB"
       inkscape:label="Deep Chrome"
       inkscape:menu-tooltip="Dark chrome effect"
       inkscape:menu="Non realistic 3D shaders"
       height="1.5"
       y="-0.25"
       width="1.5"
       x="-0.25"
       id="filter88098"><feGaussianBlur
         result="result8"
         stdDeviation="5"
         in="SourceGraphic"
         id="feGaussianBlur88100" /><feComposite
         result="result19"
         operator="xor"
         in2="result8"
         id="feComposite88102" /><feComposite
         in2="result8"
         result="result17"
         operator="arithmetic"
         k2="1"
         id="feComposite88104"
         k1="0"
         k3="0"
         k4="0" /><feOffset
         in="result8"
         result="result18"
         id="feOffset88106" /><feDisplacementMap
         result="result4"
         scale="100"
         yChannelSelector="A"
         xChannelSelector="A"
         in="result18"
         in2="result17"
         id="feDisplacementMap88108" /><feComposite
         k3="1"
         k1="1"
         in="SourceGraphic"
         operator="arithmetic"
         result="result2"
         in2="result4"
         id="feComposite88110"
         k2="0"
         k4="0" /><feComposite
         operator="in"
         in="result2"
         result="fbSourceGraphic"
         in2="SourceGraphic"
         id="feComposite88112" /><feComposite
         result="result15"
         operator="in"
         in2="SourceGraphic"
         id="feComposite88114" /><feComposite
         in="result15"
         operator="in"
         in2="SourceGraphic"
         result="result16"
         id="feComposite88116" /></filter><filter
       style="color-interpolation-filters:sRGB"
       inkscape:label="Drop Shadow"
       id="filter88354"><feFlood
         flood-opacity="0.498039"
         flood-color="rgb(0,0,0)"
         result="flood"
         id="feFlood88356" /><feComposite
         in="flood"
         in2="SourceGraphic"
         operator="in"
         result="composite1"
         id="feComposite88358" /><feGaussianBlur
         in="composite1"
         stdDeviation="1.6"
         result="blur"
         id="feGaussianBlur88360" /><feOffset
         dx="2"
         dy="2"
         result="offset"
         id="feOffset88362" /><feComposite
         in="SourceGraphic"
         in2="offset"
         operator="over"
         result="composite2"
         id="feComposite88364" /></filter><filter
       style="color-interpolation-filters:sRGB"
       inkscape:label="Drop Shadow"
       id="filter88474"><feFlood
         flood-opacity="0.498039"
         flood-color="rgb(0,0,0)"
         result="flood"
         id="feFlood88476" /><feComposite
         in="flood"
         in2="SourceGraphic"
         operator="in"
         result="composite1"
         id="feComposite88478" /><feGaussianBlur
         in="composite1"
         stdDeviation="1.6"
         result="blur"
         id="feGaussianBlur88480" /><feOffset
         dx="1.5"
         dy="1.5"
         result="offset"
         id="feOffset88482" /><feComposite
         in="SourceGraphic"
         in2="offset"
         operator="over"
         result="composite2"
         id="feComposite88484" /></filter><filter
       inkscape:label="Inset"
       inkscape:menu="Shadows and Glows"
       inkscape:menu-tooltip="Shadowy outer bevel"
       style="color-interpolation-filters:sRGB"
       id="filter88562"><feMorphology
         result="result1"
         in="SourceAlpha"
         operator="dilate"
         radius="3.6"
         id="feMorphology88564" /><feGaussianBlur
         stdDeviation="3.6"
         in="result1"
         result="result0"
         id="feGaussianBlur88566" /><feDiffuseLighting
         surfaceScale="-5"
         id="feDiffuseLighting88568"><feDistantLight
           elevation="45"
           azimuth="225"
           id="feDistantLight88570" /></feDiffuseLighting><feComposite
         in2="result0"
         operator="in"
         result="result91"
         id="feComposite88572" /><feComposite
         in="SourceGraphic"
         in2="result91"
         id="feComposite88574" /></filter></defs><sodipodi:namedview
     pagecolor="#ffffff"
     bordercolor="#666666"
     borderopacity="1"
     objecttolerance="10"
     gridtolerance="10"
     guidetolerance="10"
     inkscape:pageopacity="0"
     inkscape:pageshadow="2"
     inkscape:window-width="640"
     inkscape:window-height="480"
     id="namedview4"
     showgrid="false"
     inkscape:zoom="0.5668"
     inkscape:cx="594.44553"
     inkscape:cy="913.6642"
     inkscape:current-layer="g10" /><g
     id="g10"
     inkscape:groupmode="layer"
     inkscape:label="Golden Cross"
     transform="matrix(1.25,0,0,-1.25,-917.02909,1970.9531)"><g
       id="g88486"
       transform="matrix(1.9297365,0,0,1.9297365,-2678.432,-1071.9591)"
       style="filter:url(#filter88562)"><g
         id="g41314"><g
           id="g41316"><g
             id="g41322"><path
               inkscape:connector-curvature="0"
               id="path41372"
               style="fill:url(#linearGradient41324);stroke:none"
               d="m 2094.078,1305.482 -69,0 0,-165 -167,0 0,-68.45 236,0 0,233.45 z" /></g></g></g><g
         id="g41374"><g
           id="g41376"><g
             id="g41382"><path
               inkscape:connector-curvature="0"
               id="path41430"
               style="fill:url(#linearGradient41384);stroke:none"
               d="m 2094.078,1305.482 -69,0 0,-165 -167,0 0,-68.45 236,0 0,233.45 z m -5,-5 0,-223.45 -226,0 0,58.45 162,0 5,0 0,5 0,160 59,0 z" /></g></g></g><g
         id="g41432"><g
           id="g41434"><g
             id="g41440"><path
               inkscape:connector-curvature="0"
               id="path41490"
               style="fill:url(#linearGradient41442);stroke:none"
               d="m 2163.078,1140.482 0,165 -69,0 0,-233.45 236,0 0,68.45 -167,0 z" /></g></g></g><g
         id="g41492"><g
           id="g41494"><g
             id="g41500"><path
               inkscape:connector-curvature="0"
               id="path41548"
               style="fill:url(#linearGradient41502);stroke:none"
               d="m 2163.078,1305.482 -69,0 0,-233.45 236,0 0,68.45 -167,0 0,165 z m -5,-5 0,-160 0,-5 5,0 162,0 0,-58.45 -226,0 0,223.45 59,0 z" /></g></g></g><g
         id="g41550"><g
           id="g41552"><g
             id="g41558"><path
               inkscape:connector-curvature="0"
               id="path41608"
               style="fill:url(#linearGradient41560);stroke:none"
               d="m 1858.078,1072.032 0,-70.55 167,0 0,-367 69,0 0,437.55 -236,0 z" /></g></g></g><g
         id="g41610"><g
           id="g41612"><g
             id="g41618"><path
               inkscape:connector-curvature="0"
               id="path41666"
               style="fill:url(#linearGradient41620);stroke:none"
               d="m 2094.078,1072.032 -236,0 0,-70.55 167,0 0,-367 69,0 0,437.55 z m -5,-5 0,-427.55 -59,0 0,362 0,5 -5,0 -162,0 0,60.55 226,0 z" /></g></g></g><g
         id="g41668"><g
           id="g41670"><g
             id="g41676"><path
               inkscape:connector-curvature="0"
               id="path41726"
               style="fill:url(#linearGradient41678);stroke:none"
               d="m 2094.078,634.482 69,0 0,367 167,0 0,70.55 -236,0 0,-437.55 z" /></g></g></g><g
         id="g41728"><g
           id="g41730"><g
             id="g41736"><path
               inkscape:connector-curvature="0"
               id="path41784"
               style="fill:url(#linearGradient41738);stroke:none"
               d="m 2330.078,1072.032 -236,0 0,-437.55 69,0 0,367 167,0 0,70.55 z m -5,-5 0,-60.55 -162,0 -5,0 0,-5 0,-362 -59,0 0,427.55 226,0 z" /></g></g></g><g
         style="filter:url(#filter88474)"
         id="g41786"><g
           id="g41788"><g
             id="g41794"><path
               inkscape:connector-curvature="0"
               id="path41842"
               style="fill:url(#linearGradient41796);stroke:none"
               d="m 2228.43,1074.741 -130.754,0 0,128.259 -7,0 0,-128.259 -130.88,0 0,-7 130.88,0 0,-330.777 7,0 0,330.777 130.754,0 0,7 z" /></g></g></g><g
         style="filter:url(#filter88354)"
         id="g88118"><g
           id="g82560"
           transform="translate(1861.9786,1135.6454)"><path
             d="M 0,0 101.733,-64.404 0,-128.809 0,0 Z"
             style="fill:none;stroke:url(#linearGradient82562);stroke-width:6.51300001;stroke-linecap:butt;stroke-linejoin:miter;stroke-miterlimit:3;stroke-dasharray:none;stroke-opacity:1"
             id="path82610"
             inkscape:connector-curvature="0" /></g><g
           id="g82672"
           transform="translate(2158.1426,1301.3334)"><path
             d="M 0,0 -63.967,-101.042 -127.934,0 0,0 Z"
             style="fill:none;stroke:url(#linearGradient82674);stroke-width:6.01900005;stroke-linecap:butt;stroke-linejoin:miter;stroke-miterlimit:3;stroke-dasharray:none;stroke-opacity:1"
             id="path82722"
             inkscape:connector-curvature="0" /></g><g
           id="g82784"
           transform="translate(2157.7639,638.9293)"><path
             d="M 0,0 -63.588,100.444 -127.177,0 0,0 Z"
             style="fill:none;stroke:url(#linearGradient82786);stroke-width:5.52899981;stroke-linecap:butt;stroke-linejoin:miter;stroke-miterlimit:3;stroke-dasharray:none;stroke-opacity:1"
             id="path82834"
             inkscape:connector-curvature="0" /></g><g
           id="g82896"
           transform="translate(2325.928,1135)"><path
             d="M 0,0 -101.094,-64 0,-128 0,0 Z"
             style="fill:none;stroke:url(#linearGradient82898);stroke-width:6.02199984;stroke-linecap:butt;stroke-linejoin:miter;stroke-miterlimit:3;stroke-dasharray:none;stroke-opacity:1"
             id="path82946"
             inkscape:connector-curvature="0" /></g></g><g
         id="g87134"><g
           id="g82612"><g
             id="g82614"><g
               id="g82620"><path
                 d="m 1861.979,1135.645 101.733,-64.404 -101.733,-64.404 0,128.808 z"
                 style="fill:url(#linearGradient82622);stroke:none"
                 id="path82670"
                 inkscape:connector-curvature="0" /></g></g></g><g
           id="g82724"><g
             id="g82726"><g
               id="g82732"><path
                 d="m 2158.143,1301.333 -63.967,-101.042 -63.967,101.042 127.934,0 z"
                 style="fill:url(#linearGradient82734);stroke:none"
                 id="path82782"
                 inkscape:connector-curvature="0" /></g></g></g><g
           id="g82836"><g
             id="g82838"><g
               id="g82844"><path
                 d="m 2157.764,638.929 -63.588,100.445 -63.589,-100.445 127.177,0 z"
                 style="fill:url(#linearGradient82846);stroke:none"
                 id="path82894"
                 inkscape:connector-curvature="0" /></g></g></g><g
           id="g82948"><g
             id="g82950"><g
               id="g82956"><path
                 d="m 2325.928,1135 -101.095,-64 101.095,-64 0,128 z"
                 style="fill:url(#linearGradient82958);stroke:none"
                 id="path83006"
                 inkscape:connector-curvature="0" /></g></g></g></g></g></g></svg>