<?xml version="1.0" encoding="UTF-8" standalone="no"?>
<!-- Created with Inkscape (http://www.inkscape.org/) -->

<svg
   xmlns:osb="http://www.openswatchbook.org/uri/2009/osb"
   xmlns:dc="http://purl.org/dc/elements/1.1/"
   xmlns:cc="http://creativecommons.org/ns#"
   xmlns:rdf="http://www.w3.org/1999/02/22-rdf-syntax-ns#"
   xmlns:svg="http://www.w3.org/2000/svg"
   xmlns="http://www.w3.org/2000/svg"
   xmlns:sodipodi="http://sodipodi.sourceforge.net/DTD/sodipodi-0.dtd"
   xmlns:inkscape="http://www.inkscape.org/namespaces/inkscape"
   width="600"
   height="600"
   id="svg2"
   version="1.1"
   inkscape:version="0.48.2 r9819"
   sodipodi:docname="gong xi gong xi.svg">
  <defs
     id="defs4">
    <linearGradient
       osb:paint="solid"
       id="linearGradient4030">
      <stop
         id="stop4032"
         offset="0"
         style="stop-color:#bd3121;stop-opacity:1;" />
    </linearGradient>
    <linearGradient
       osb:paint="solid"
       id="linearGradient4036">
      <stop
         id="stop4038"
         offset="0"
         style="stop-color:#692525;stop-opacity:1;" />
    </linearGradient>
    <linearGradient
       osb:paint="solid"
       id="linearGradient4042">
      <stop
         id="stop4044"
         offset="0"
         style="stop-color:#000000;stop-opacity:1;" />
    </linearGradient>
    <linearGradient
       osb:paint="solid"
       id="linearGradient4048">
      <stop
         id="stop4050"
         offset="0"
         style="stop-color:#000000;stop-opacity:1;" />
    </linearGradient>
    <linearGradient
       osb:paint="solid"
       id="linearGradient4054">
      <stop
         id="stop4056"
         offset="0"
         style="stop-color:#a7ff88;stop-opacity:1;" />
    </linearGradient>
  </defs>
  <sodipodi:namedview
     id="base"
     pagecolor="#ffffff"
     bordercolor="#666666"
     borderopacity="1.0"
     inkscape:pageopacity="0.0"
     inkscape:pageshadow="2"
     inkscape:zoom="0.94"
     inkscape:cx="287.61774"
     inkscape:cy="281.50559"
     inkscape:document-units="px"
     inkscape:current-layer="layer1"
     showgrid="false"
     showguides="true"
     inkscape:guide-bbox="true"
     inkscape:window-width="1331"
     inkscape:window-height="959"
     inkscape:window-x="475"
     inkscape:window-y="23"
     inkscape:window-maximized="0"
     borderlayer="false"
     showborder="false"
     inkscape:showpageshadow="false" />
  <metadata
     id="metadata7">
    <rdf:RDF>
      <cc:Work
         rdf:about="">
        <dc:format>image/svg+xml</dc:format>
        <dc:type
           rdf:resource="http://purl.org/dc/dcmitype/StillImage" />
        <dc:title></dc:title>
      </cc:Work>
    </rdf:RDF>
  </metadata>
  <g
     inkscape:label="Layer 1"
     inkscape:groupmode="layer"
     id="layer1"
     transform="translate(0,-452.36218)">
    <text
       xml:space="preserve"
       style="font-size:56px;font-style:normal;font-variant:normal;font-weight:normal;font-stretch:normal;line-height:125%;letter-spacing:0px;word-spacing:0px;fill:#000000;fill-opacity:1;stroke:none;font-family:SimSun;-inkscape-font-specification:SimSun"
       x="-1171.4286"
       y="672.36218"
       id="text3170"
       sodipodi:linespacing="125%"><tspan
         sodipodi:role="line"
         id="tspan3172"
         x="-1171.4286"
         y="672.36218" /></text>
    <g
       id="g3228"
       transform="matrix(0.99401724,0,0,1,-67.990491,222.36152)">
      <g
         inkscape:label="Layer 1"
         id="layer1-9"
         transform="translate(70.920471,-219.97855)">
        <text
           xml:space="preserve"
           style="font-size:257.98876953px;font-style:normal;font-variant:normal;font-weight:normal;font-stretch:normal;line-height:125%;letter-spacing:0px;word-spacing:0px;fill:#000000;fill-opacity:1;stroke:none;font-family:HGSMinchoE;-inkscape-font-specification:HGSMinchoE"
           x="-840.88171"
           y="986.28491"
           id="text3791"
           sodipodi:linespacing="125%"
           transform="scale(1.3412688,0.74556271)"><tspan
             sodipodi:role="line"
             id="tspan3793"
             x="-840.88171"
             y="986.28491" /></text>
        <text
           xml:space="preserve"
           style="font-size:57.77467728px;font-style:normal;font-variant:normal;font-weight:normal;font-stretch:normal;line-height:125%;letter-spacing:0px;word-spacing:0px;fill:#000000;fill-opacity:1;stroke:none;font-family:HGMinchoE;-inkscape-font-specification:HGMinchoE"
           x="-1632.6398"
           y="1420.0575"
           id="text3007"
           sodipodi:linespacing="125%"
           transform="scale(1.213097,0.82433639)"><tspan
             sodipodi:role="line"
             id="tspan3009"
             x="-1632.6398"
             y="1420.0575" /></text>
        <g
           id="g6391">
          <g
             id="g3834"
             transform="matrix(0.40050021,0,0,0.40258933,1.3450078,631.20966)">
            <g
               id="g3931">
              <g
                 transform="matrix(0.9970084,0,0,0.9969789,9.0599523,-1.3453735)"
                 id="g3866">
                <g
                   id="g3993">
                  <path
                     sodipodi:nodetypes="csscc"
                     inkscape:connector-curvature="0"
                     id="path3851-5"
                     d="m 2.24355,-436.02152 c 32.93023,7.01734 1481.89775,-14.84717 1486.60205,-0.81227 4.7042,14.03456 12.4399,1273.6443 -15.7808,1273.24828 C 1445.2128,836.02542 13.28975,804.82572 13.28975,804.82572 8.04814,886.9132 2.47265,-435.93584 2.24355,-436.02128 z"
                     style="fill:#786849;fill-opacity:1;stroke:#000000;stroke-width:0;stroke-linecap:butt;stroke-linejoin:miter;stroke-miterlimit:4;stroke-opacity:1;stroke-dasharray:none" />
                  <path
                     sodipodi:nodetypes="ccccc"
                     inkscape:connector-curvature="0"
                     id="path2987-76"
                     d="M 16.02471,-402.70342 1496.7144,-412.90945 1508.8676,812.35831 44.17471,804.53404 z"
                     style="fill:none;stroke:#000000;stroke-width:0;stroke-linecap:butt;stroke-linejoin:miter;stroke-miterlimit:4;stroke-opacity:1;stroke-dasharray:none" />
                  <path
                     sodipodi:nodetypes="cccccscc"
                     inkscape:connector-curvature="0"
                     id="path3773-9"
                     d="m 1400.3886,740.08962 2.2126,-837.564758 10.4148,-156.198122 -20.2538,-153.5507 4.0172,-31.84405 c 0,0 89.1692,-10.89307 90.9616,4.159 1.308,10.98443 20.8463,1309.52576 6.3636,1279.66849 z"
                     style="fill:#4a3b22;fill-opacity:1;stroke:#000000;stroke-width:0;stroke-linecap:butt;stroke-linejoin:miter;stroke-miterlimit:4;stroke-opacity:1;stroke-dasharray:none" />
                  <path
                     sodipodi:nodetypes="ccccc"
                     inkscape:connector-curvature="0"
                     id="path3769-2"
                     d="m 130.1473,737.55836 c 36.3624,0 1271.0918,1.13651 1271.0918,1.13651 l 95.1424,106.57438 -1368.00083,-12.30808 z"
                     style="fill:#d2b445;fill-opacity:1;stroke:#000000;stroke-width:0;stroke-linecap:butt;stroke-linejoin:miter;stroke-miterlimit:4;stroke-opacity:1;stroke-dasharray:none" />
                  <path
                     sodipodi:nodetypes="cccccccccccccccscccc"
                     inkscape:connector-curvature="0"
                     id="path3761-9"
                     d="m 133.66469,93.920805 c 0,-16.20257 83.84434,-124.861678 83.84434,-124.861678 l 106.5963,-105.442647 93.38182,-56.76531 119.92823,-45.08282 111.97478,-22.54006 140.80271,-9.44666 120.19328,2.70043 136.61665,22.11809 109.9344,31.52472 84.2847,38.93136 79.9165,47.71761 64.0909,45.035619 54.5132,62.440683 57.3099,131.688348 c 0,0 -1.0583,-169.264317 -1.0583,-212.47128 0,-43.20708 -0.2619,-344.78334 -0.2619,-344.78334 l -1333.5544,2.6866 -26.23424,6.06525 z"
                     style="fill:#a2803f;fill-opacity:1;stroke:#000000;stroke-width:0;stroke-linecap:butt;stroke-linejoin:miter;stroke-miterlimit:4;stroke-opacity:1;stroke-dasharray:none" />
                  <path
                     sodipodi:nodetypes="ccccc"
                     inkscape:connector-curvature="0"
                     id="path3999-5"
                     d="m 130.24996,833.52385 1365.64864,10.93162 0.3387,59.91914 -1368.5117,-3.1611 z"
                     style="fill:#533a13;fill-opacity:1;stroke:#000000;stroke-width:0;stroke-linecap:butt;stroke-linejoin:miter;stroke-miterlimit:4;stroke-opacity:1;stroke-dasharray:none" />
                  <path
                     sodipodi:nodetypes="ccccc"
                     inkscape:connector-curvature="0"
                     id="path4003-4"
                     d="m 756.0615,924.59166 4.5946,126.77984 733.897,-4.0406 1.4082,-112.65017 z"
                     style="fill:#e1bd45;fill-opacity:1;stroke:#000000;stroke-width:0;stroke-linecap:butt;stroke-linejoin:miter;stroke-miterlimit:4;stroke-opacity:1;stroke-dasharray:none" />
                  <path
                     sodipodi:nodetypes="ccccccc"
                     inkscape:connector-curvature="0"
                     id="path4005-3"
                     d="m -8.2319186,914.9001 -0.6565135,40.70845 -1.8351419,95.98995 776.333124,-1.8809 -5.98916,-135.58317 -669.205774,0.0165 z"
                     style="fill:#d6b645;fill-opacity:1;stroke:#000000;stroke-width:0;stroke-linecap:butt;stroke-linejoin:miter;stroke-miterlimit:4;stroke-opacity:1;stroke-dasharray:none" />
                  <path
                     sodipodi:nodetypes="ccccc"
                     inkscape:connector-curvature="0"
                     id="path4009-2"
                     d="m 752.16505,897.76895 4.5118,38.22022 739.04705,-0.46419 0.7476,-32.35674 z"
                     style="fill:#2d2d2d;fill-opacity:1;stroke:#000000;stroke-width:0;stroke-linecap:butt;stroke-linejoin:miter;stroke-miterlimit:4;stroke-opacity:1;stroke-dasharray:none" />
                  <path
                     sodipodi:nodetypes="ccccc"
                     inkscape:connector-curvature="0"
                     id="path2989-18"
                     d="m -6.1704659,-444.14579 166.0762359,1.22666 -2.29555,1353.28309 c -34.00977,2.43283 -97.735654,-0.57979 -165.944257,-2.00106 z"
                     style="fill:#261400;fill-opacity:1;stroke:#000000;stroke-width:0;stroke-linecap:butt;stroke-linejoin:miter;stroke-miterlimit:4;stroke-opacity:1;stroke-dasharray:none" />
                  <path
                     sodipodi:nodetypes="ccccc"
                     inkscape:connector-curvature="0"
                     id="path4007-1"
                     d="m -8.1245845,897.06358 -0.8033851,39.04715 767.9833996,0.55801 0.47696,-38.58568 z"
                     style="fill:#2d2d2d;fill-opacity:1;stroke:#000000;stroke-width:0;stroke-linecap:butt;stroke-linejoin:miter;stroke-miterlimit:4;stroke-opacity:1;stroke-dasharray:none" />
                  <path
                     sodipodi:nodetypes="ccccc"
                     inkscape:connector-curvature="0"
                     id="path2987-9"
                     d="m 648.10165,-210.0898 330.87856,-3.96837 7.33809,877.80198 -338.88374,0 z"
                     style="fill:#729172;fill-opacity:1;stroke:#000000;stroke-width:0;stroke-linecap:butt;stroke-linejoin:miter;stroke-miterlimit:4;stroke-opacity:1;stroke-dasharray:none" />
                  <path
                     sodipodi:nodetypes="ccccc"
                     inkscape:connector-curvature="0"
                     id="path2989-48"
                     d="m 810.20549,-233.89998 0.66706,21.42917 12.67479,0 -0.66709,-21.42917 z"
                     style="fill:#000000;fill-opacity:1;stroke:#000000;stroke-width:0;stroke-linecap:butt;stroke-linejoin:miter;stroke-miterlimit:4;stroke-opacity:1;stroke-dasharray:none" />
                  <path
                     sodipodi:nodetypes="cccc"
                     inkscape:connector-curvature="0"
                     id="path2993"
                     d="m 822.21316,-228.34428 43.36111,15.87347 -8.6722,-1.58736 z"
                     style="fill:#000000;fill-opacity:1;stroke:#000000;stroke-width:0;stroke-linecap:butt;stroke-linejoin:miter;stroke-miterlimit:4;stroke-opacity:1;stroke-dasharray:none" />
                  <path
                     sodipodi:nodetypes="ccccc"
                     inkscape:connector-curvature="0"
                     id="path2995"
                     d="m 755.50382,-198.97837 -9.33937,246.832157 12.67479,0.793691 6.00385,-247.625848 z"
                     style="fill:#031303;fill-opacity:1;stroke:#000000;stroke-width:0;stroke-linecap:butt;stroke-linejoin:miter;stroke-miterlimit:4;stroke-opacity:1;stroke-dasharray:none" />
                  <path
                     sodipodi:nodetypes="ccccc"
                     inkscape:connector-curvature="0"
                     id="path2997"
                     d="m 862.23879,-202.15305 10.67352,0 8.00511,250.800528 -12.00769,0 z"
                     style="fill:#031303;fill-opacity:1;stroke:#000000;stroke-width:0;stroke-linecap:butt;stroke-linejoin:miter;stroke-miterlimit:4;stroke-opacity:1;stroke-dasharray:none" />
                  <path
                     sodipodi:nodetypes="cccccccc"
                     inkscape:connector-curvature="0"
                     id="path3005"
                     d="m 647.39193,663.74381 0,9.17616 0.33312,10.02053 338.59328,0.64513 -3e-5,-11.11141 0,-6.34941 -0.83462,-2.3303 z"
                     style="fill:#729172;fill-opacity:1;stroke:#000000;stroke-width:0;stroke-linecap:butt;stroke-linejoin:miter;stroke-miterlimit:4;stroke-opacity:1;stroke-dasharray:none" />
                  <path
                     sodipodi:nodetypes="ccccc"
                     inkscape:connector-curvature="0"
                     id="path3011"
                     d="m 768.84567,-212.47081 41.35982,-15.87347 -1.33421,0.79367 -40.69274,14.28611 z"
                     style="fill:#000000;fill-opacity:1;stroke:#000000;stroke-width:0;stroke-linecap:butt;stroke-linejoin:miter;stroke-miterlimit:4;stroke-opacity:1;stroke-dasharray:none" />
                  <path
                     sodipodi:nodetypes="ccccc"
                     inkscape:connector-curvature="0"
                     id="path3013"
                     d="m 986.54368,667.43 12.02399,-0.39737 0.33399,15.49762 -12.35798,0 z"
                     style="fill:#ffffff;fill-opacity:1;stroke:#000000;stroke-width:0;stroke-linecap:butt;stroke-linejoin:miter;stroke-miterlimit:4;stroke-opacity:1;stroke-dasharray:none" />
                  <path
                     sodipodi:nodetypes="cccc"
                     inkscape:connector-curvature="0"
                     id="path3015"
                     d="m 647.53414,667.82739 c -2.00402,0 -11.02201,-0.39739 -11.02201,-0.39739 l 0.33399,14.30553 10.68802,0"
                     style="fill:#ffffff;fill-opacity:1;stroke:#000000;stroke-width:0;stroke-linecap:butt;stroke-linejoin:miter;stroke-miterlimit:4;stroke-opacity:1;stroke-dasharray:none" />
                  <path
                     sodipodi:nodetypes="cccccc"
                     inkscape:connector-curvature="0"
                     id="path2999"
                     d="m 675.18771,-169.9198 282.10524,-1.40561 2.83239,823.48389 -286.63705,-1.20294 1.69942,-827.90337 z"
                     style="fill:#4a4a4a;fill-opacity:1;stroke:#000000;stroke-width:0;stroke-linecap:butt;stroke-linejoin:miter;stroke-miterlimit:4;stroke-opacity:1;stroke-dasharray:none" />
                  <path
                     sodipodi:nodetypes="ccccc"
                     inkscape:connector-curvature="0"
                     id="path3001"
                     d="m 706.40822,-108.30227 218.70238,0 1.63613,670.10875 -219.79312,-5.02571 z"
                     style="fill:#b70009;fill-opacity:1;stroke:#000000;stroke-width:0;stroke-linecap:butt;stroke-linejoin:miter;stroke-miterlimit:4;stroke-opacity:1;stroke-dasharray:none" />
                  <g
                     transform="scale(1.0025899,0.99741679)"
                     style="font-size:139.88241577px;font-style:normal;font-variant:normal;font-weight:normal;font-stretch:normal;line-height:125%;letter-spacing:0px;word-spacing:0px;fill:#000000;fill-opacity:1;stroke:none;font-family:HGPGyoshotai;-inkscape-font-specification:HGPGyoshotai"
                     id="text3965" />
                </g>
              </g>
            </g>
          </g>
        </g>
        <text
           xml:space="preserve"
           style="font-size:138.69946289px;font-style:normal;font-variant:normal;font-weight:normal;font-stretch:normal;line-height:125%;letter-spacing:0px;word-spacing:0px;fill:#000000;fill-opacity:1;stroke:none;font-family:HGSMinchoE;-inkscape-font-specification:HGSMinchoE"
           x="-1208.5753"
           y="35.515083"
           id="text3791-5"
           sodipodi:linespacing="125%"
           transform="scale(1.0313345,0.96961752)"><tspan
             sodipodi:role="line"
             id="tspan3793-5"
             x="-1208.5753"
             y="35.515083" /></text>
        <text
           xml:space="preserve"
           style="font-size:31.06072044px;font-style:normal;font-variant:normal;font-weight:normal;font-stretch:normal;line-height:125%;letter-spacing:0px;word-spacing:0px;fill:#000000;fill-opacity:1;stroke:none;font-family:HGMinchoE;-inkscape-font-specification:HGMinchoE"
           x="-1714.1682"
           y="315.99557"
           id="text3007-1"
           sodipodi:linespacing="125%"
           transform="scale(0.93278005,1.0720641)"><tspan
             sodipodi:role="line"
             id="tspan3009-7"
             x="-1714.1682"
             y="315.99557" /></text>
        <text
           xml:space="preserve"
           style="font-size:643.02185059px;font-style:normal;font-variant:normal;font-weight:normal;font-stretch:normal;line-height:125%;letter-spacing:0px;word-spacing:0px;fill:#000000;fill-opacity:1;stroke:none;font-family:HGSMinchoE;-inkscape-font-specification:HGSMinchoE"
           x="855.02667"
           y="1228.183"
           id="text3791-7"
           sodipodi:linespacing="125%"
           transform="scale(1.1056567,0.90443987)"><tspan
             sodipodi:role="line"
             id="tspan3793-6"
             x="855.02667"
             y="1228.183" /></text>
        <text
           xml:space="preserve"
           style="font-size:144px;font-style:normal;font-variant:normal;font-weight:normal;font-stretch:normal;line-height:125%;letter-spacing:0px;word-spacing:0px;fill:#000000;fill-opacity:1;stroke:none;font-family:HGMinchoE;-inkscape-font-specification:HGMinchoE"
           x="-806.60413"
           y="2426.8816"
           id="text3007-14"
           sodipodi:linespacing="125%"><tspan
             sodipodi:role="line"
             id="tspan3009-2"
             x="-806.60413"
             y="2426.8816" /></text>
      </g>
    </g>
    <text
       xml:space="preserve"
       style="font-size:56px;font-style:normal;font-variant:normal;font-weight:normal;font-stretch:normal;line-height:125%;letter-spacing:0px;word-spacing:0px;fill:#000000;fill-opacity:1;stroke:none;font-family:Shruti;-inkscape-font-specification:Shruti"
       x="-412.67606"
       y="586.16498"
       id="text3222"
       sodipodi:linespacing="125%"><tspan
         sodipodi:role="line"
         id="tspan3224"
         x="-412.67606"
         y="586.16498" /></text>
    <g
       transform="scale(1.0290831,0.97173883)"
       style="font-size:50.99525452px;font-style:normal;font-variant:normal;font-weight:normal;font-stretch:normal;line-height:125%;letter-spacing:0px;word-spacing:0px;fill:#000000;fill-opacity:1;stroke:none;font-family:HGGyoshotai;-inkscape-font-specification:HGGyoshotai"
       id="text3046">
      <path
         d="m 327.19616,628.44533 c 1.32797,0.26564 2.39037,0.86324 3.1872,1.7928 0.53117,0.53124 0.73037,1.46084 0.5976,2.7888 l -0.1992,1.79281 c 1.06237,3e-5 2.12477,-0.0664 3.1872,-0.1992 1.59357,3e-5 2.78877,0.66403 3.58561,1.992 0.26556,0.53123 0.0664,0.99603 -0.5976,1.3944 -0.66404,0.39843 -2.98804,0.79683 -6.97201,1.1952 -0.39843,0.79683 -0.73043,1.52723 -0.996,2.1912 -0.13283,0.66403 -0.46483,1.32803 -0.996,1.992 1.85917,-0.26557 3.05437,-0.79677 3.5856,-1.5936 0.66397,0.13283 1.32797,0.39843 1.992,0.7968 0.79677,0.26563 1.46077,0.66403 1.99201,1.1952 0.26556,0.26563 0.19916,0.46483 -0.1992,0.59761 l -0.5976,0.3984 c -4.24964,1.85922 -7.43684,3.78482 -9.56162,5.7768 l 2.98801,0.7968 c 6.90557,1.85922 11.68637,3.51922 14.34241,4.98001 2.65596,1.19521 3.98396,2.78881 3.98401,4.7808 -0.53125,0.79681 -1.39445,0.99601 -2.58961,0.5976 -1.85924,-1.32799 -3.38644,-2.25759 -4.5816,-2.7888 -5.84324,-2.52319 -10.02644,-3.98399 -12.54961,-4.3824 -3.45283,-0.66399 -5.31203,-1.06239 -5.57761,-1.1952 -5.57762,4.38241 -11.42082,8.96401 -17.52962,13.74481 -0.7968,0.5312 -1.46081,0.4648 -1.992,-0.1992 -0.92961,-1.328 -0.66401,-2.2576 0.7968,-2.7888 1.5936,-0.7968 3.652,-2.1912 6.17521,-4.18321 2.25759,-1.99199 5.31199,-4.51519 9.16321,-7.56961 -0.79682,-0.13278 -2.12482,-0.39838 -3.98401,-0.7968 1.32799,-0.26558 3.38639,-0.66398 6.17521,-1.1952 0.92958,-0.26558 1.99198,-1.12878 3.1872,-2.5896 -3.71842,0.79682 -6.30802,1.32802 -7.76881,1.5936 -2.39041,-0.79678 -4.64801,-1.65998 -6.7728,-2.5896 -0.13281,-0.26558 0.13279,-0.53118 0.7968,-0.7968 1.99199,-0.13278 3.85119,-0.26558 5.5776,-0.3984 0.92959,-0.13278 1.52719,-0.26558 1.79281,-0.3984 -1.19522,-2.65598 -1.79282,-4.44878 -1.79281,-5.37841 -1.06241,-0.13277 -2.12481,-0.66397 -3.1872,-1.5936 -0.92961,-0.79677 -1.39441,-1.39437 -1.3944,-1.7928 l 4.7808,0.7968 0,-5.57761 c -1e-5,-0.53116 0.19919,-0.79676 0.5976,-0.7968 1.59359,0.66404 2.72239,2.39044 3.38641,5.17921 -2e-5,0.26563 0.0664,0.66403 0.1992,1.1952 2.65598,-0.26557 4.71438,-0.53117 6.17521,-0.7968 0.39837,-1.19517 0.59757,-2.52317 0.5976,-3.98401 -3e-5,-1.46076 -0.39843,-2.45676 -1.19521,-2.988 -0.39842,-0.39836 -0.19922,-0.73036 0.59761,-0.996 0.39837,-0.13276 0.92957,-0.13276 1.5936,0 z m -2.19121,11.35441 c -1.32802,0.26563 -2.52322,0.46483 -3.5856,0.5976 -0.53122,3e-5 -1.19522,3e-5 -1.992,0 l 0.3984,2.5896 0.3984,1.59361 2.5896,-0.3984 c 0.92958,-1.06238 1.46078,-1.99198 1.5936,-2.78881 l 0.5976,-1.5936 z m -4.1832,15.73682 c 1.32798,0.79681 1.79278,3.38641 1.3944,7.76881 0.26558,4.648 0.39838,7.3704 0.3984,8.1672 -2e-5,0.9296 -0.0664,1.5936 -0.1992,1.99201 -0.26562,0.39839 -0.59762,0.59759 -0.996,0.5976 -0.79682,-10e-6 -1.39442,-0.39841 -1.7928,-1.1952 -0.79682,-1.85921 -1.66002,-3.45281 -2.5896,-4.78081 1.06238,-0.664 1.59358,-1.3944 1.5936,-2.1912 -2e-5,-0.5312 -2e-5,-1.0624 0,-1.5936 -1.72642,1.992 -3.51922,3.5856 -5.37841,4.7808 -1.06241,0.664 -1.72641,0.664 -1.992,0 -0.66401,-1.328 -0.99601,-2.2576 -0.996,-2.7888 0.39839,-1.5936 1.39439,-3.1872 2.988,-4.78081 0.53119,-0.53119 1.12879,-0.46479 1.7928,0.1992 0.39839,0.39841 0.59759,0.86321 0.5976,1.39441 -10e-6,0.3984 0.0664,0.8632 0.1992,1.3944 0.53119,-0.1328 1.06239,-0.2656 1.59361,-0.3984 0.79678,-0.2656 1.26158,-0.5312 1.3944,-0.7968 0.53118,-3.32 0.86318,-5.976 0.996,-7.96801 0.13278,-0.26559 0.46478,-0.19919 0.996,0.1992 z m 5.77681,3.3864 c 0.92957,0.39841 1.85917,1.06241 2.7888,1.992 0.26557,0.26561 0.53117,0.59761 0.7968,0.996 l 3.984,-0.5976 c 1.72637,0.26561 3.12077,0.79681 4.18321,1.59361 1.72636,0.7968 2.58956,1.9256 2.5896,3.3864 -4e-5,1.0624 -0.46484,1.7928 -1.3944,2.1912 -2.39044,1.1952 -5.51124,1.7928 -9.36241,1.7928 -1.32803,0.2656 -2.25763,0.2656 -2.7888,0 3.05437,-0.7968 5.71037,-1.9256 7.96801,-3.3864 0.39836,-0.2656 0.66396,-0.5976 0.7968,-0.996 -1.06244,-1.5936 -1.92564,-2.5896 -2.58961,-2.988 -1.46083,0.664 -3.18723,1.8592 -5.1792,3.5856 -0.92963,0.2656 -1.66003,0.1328 -2.1912,-0.3984 -0.79683,-0.7968 -1.19523,-1.9256 -1.19521,-3.3864 0.39838,-1.1952 0.59758,-2.4568 0.59761,-3.78481 0.13277,-0.13279 0.46477,-0.13279 0.996,0 z"
         style=""
         id="path3044" />
      <path
         d="m 323.01295,693.3846 c 1.06238,0.39844 1.72638,0.86324 1.992,1.3944 0.26558,0.53124 0.46478,1.66004 0.59761,3.3864 0.39837,-0.13276 0.86317,-0.13276 1.3944,0 0.66397,0.26564 1.19517,0.46484 1.5936,0.5976 1.46077,1.19524 1.59357,2.25764 0.3984,3.18721 -0.53123,0.79683 -1.72643,1.32803 -3.5856,1.5936 -3e-5,0.26563 -0.0664,0.73043 -0.19921,1.3944 1.46078,-0.13277 2.65598,0.13283 3.58561,0.7968 0.26557,0.26563 0.26557,0.66403 0,1.1952 -1.72643,1.46083 -4.78083,2.39043 -9.16321,2.78881 -0.53122,-0.53118 -1.72642,-1.12878 -3.5856,-1.79281 -0.92962,3e-5 -0.92962,-0.26557 0,-0.7968 l 4.98,-1.1952 c 0.13278,-0.53117 0.19918,-1.19517 0.1992,-1.992 l -2.3904,-0.3984 c -1.19522,-0.53117 -2.72242,-1.59357 -4.58161,-3.1872 -0.13281,-0.39837 0.0664,-0.59757 0.5976,-0.59761 1.19519,0.39844 2.25759,0.66404 3.18721,0.79681 1.32798,0.13283 2.45678,-0.0664 3.3864,-0.59761 0.13278,-0.66396 0.19918,-1.46076 0.1992,-2.3904 -2e-5,-0.92956 -0.39842,-1.79276 -1.1952,-2.5896 -0.39842,-0.39836 -0.46482,-0.73036 -0.1992,-0.996 l 0.7968,-0.7968 c 0.26558,-0.26556 0.92958,-0.19916 1.992,0.1992 z m 3.38641,16.13522 c 0.39837,2e-5 0.92957,0.0664 1.5936,0.1992 1.06237,2e-5 2.19117,0.33202 3.3864,0.996 0.39837,0.39842 0.39837,0.79682 0,1.1952 l -1.1952,1.3944 c -1.19523,1.59362 -1.92563,2.52322 -2.1912,2.7888 -0.53123,0.66402 -1.12883,1.12882 -1.7928,1.3944 1.99197,0.39842 3.65197,0.92962 4.98,1.59361 3.85117,0.13281 6.50717,0.26561 7.96801,0.3984 1.46076,10e-6 2.72236,0.46481 3.7848,1.3944 0.13276,0.79681 0.19916,1.32801 0.1992,1.5936 -4e-5,0.79681 -0.33204,1.19521 -0.996,1.1952 -3.05444,-0.53119 -6.24164,-1.26159 -9.56161,-2.1912 -1.59363,-0.13279 -2.52323,-0.19919 -2.7888,-0.1992 -3.45283,2.39041 -6.44083,3.78481 -8.96401,4.1832 -0.79682,0.39841 -0.86322,0.26561 -0.1992,-0.3984 1.19518,-1.19519 2.12478,-2.39039 2.7888,-3.5856 l -0.996,0 c -1.46082,0.13281 -2.65602,0.33201 -3.5856,0.5976 l -0.1992,1.3944 c -0.13282,0.79681 -0.26562,1.46081 -0.3984,1.992 -0.26562,0.66401 -0.53122,0.99601 -0.7968,0.996 -1.32802,-0.79679 -2.32402,-1.92559 -2.98801,-3.3864 l -7.1712,1.992 c -1.46081,0.26561 -2.98801,-0.0664 -4.58161,-0.996 -0.79681,-0.39839 -1.19521,-0.73039 -1.1952,-0.996 l 1.7928,-0.5976 c 2.2576,-0.13279 5.8432,-0.92959 10.75681,-2.3904 0.13279,-0.39839 0.19919,-0.79679 0.1992,-1.1952 -0.53121,-0.26559 -0.39841,-0.53119 0.3984,-0.79681 1.19519,0.39842 2.19119,0.92962 2.98801,1.59361 3.05438,-0.39839 5.37838,-0.59759 6.972,-0.5976 0.39838,-0.66399 0.0664,-1.19519 -0.996,-1.59361 l -2.7888,0 c -1.46082,2e-5 -2.52322,-0.19918 -3.1872,-0.5976 -0.92962,-0.39838 -1.99202,-1.46078 -3.18721,-3.1872 -0.66401,-0.92958 -0.86321,-1.59358 -0.5976,-1.992 0.79679,0.26562 1.52719,0.53122 2.19121,0.7968 l 1.1952,-0.3984 c 1.85918,-0.79678 3.85118,-1.39438 5.976,-1.7928 1.06238,-0.26558 2.12478,-0.53118 3.18721,-0.7968 z m 0,2.3904 c -2.78883,0.53122 -4.58163,0.99602 -5.37841,1.3944 -0.92962,0.39842 -1.66002,0.86322 -2.1912,1.3944 0.39838,0.26562 0.73038,0.66402 0.996,1.1952 l 2.7888,-0.3984 c 1.72638,-0.92958 2.98798,-1.92558 3.78481,-2.988 l 0,-0.5976 z m 3.984,12.94801 c 0.39837,10e-6 1.12877,0.19921 2.1912,0.5976 0.39837,0.13281 0.53117,0.59761 0.3984,1.3944 -0.92963,2.12481 -2.65603,3.91761 -5.1792,5.37841 0.66397,0.2656 1.32797,0.5976 1.992,0.996 1.72637,1.0624 1.59357,2.1248 -0.3984,3.1872 -1.59363,0 -3.18723,-0.3984 -4.78081,-1.1952 -1.85922,-0.9296 -2.98802,-1.7264 -3.3864,-2.3904 -0.13282,-0.2656 0.0664,-0.664 0.5976,-1.1952 0.53118,-0.664 1.32798,-0.9296 2.3904,-0.7968 1.19518,-0.7968 2.25758,-1.7928 3.18721,-2.98801 -5.04643,0.92961 -7.96803,1.79281 -8.76481,2.58961 l 0.3984,1.1952 c 0.26558,1.1952 -0.19922,1.7928 -1.3944,1.7928 -1.19522,0 -2.72242,-1.66 -4.58161,-4.98 -0.26561,-0.664 -0.33201,-1.1288 -0.1992,-1.39441 1.46079,10e-6 2.85519,0.46481 4.18321,1.39441 l 3.3864,-1.59361 c 2.65598,-1.32799 5.17918,-1.99199 7.56961,-1.992 z"
         style=""
         id="path3046" />
      <path
         d="m 327.19616,755.93346 c 1.32797,0.26565 2.39037,0.86325 3.1872,1.79281 0.53117,0.53124 0.73037,1.46084 0.5976,2.7888 l -0.1992,1.7928 c 1.06237,4e-5 2.12477,-0.0664 3.1872,-0.1992 1.59357,4e-5 2.78877,0.66404 3.58561,1.992 0.26556,0.53124 0.0664,0.99604 -0.5976,1.3944 -0.66404,0.39844 -2.98804,0.79684 -6.97201,1.19521 -0.39843,0.79683 -0.73043,1.52723 -0.996,2.1912 -0.13283,0.66403 -0.46483,1.32803 -0.996,1.992 1.85917,-0.26557 3.05437,-0.79677 3.5856,-1.5936 0.66397,0.13283 1.32797,0.39843 1.992,0.7968 0.79677,0.26563 1.46077,0.66403 1.99201,1.1952 0.26556,0.26563 0.19916,0.46483 -0.1992,0.5976 l -0.5976,0.3984 c -4.24964,1.85923 -7.43684,3.78483 -9.56162,5.77681 l 2.98801,0.7968 c 6.90557,1.85922 11.68637,3.51922 14.34241,4.98 2.65596,1.19522 3.98396,2.78882 3.98401,4.78081 -0.53125,0.79681 -1.39445,0.99601 -2.58961,0.5976 -1.85924,-1.32799 -3.38644,-2.25759 -4.5816,-2.7888 -5.84324,-2.52319 -10.02644,-3.98399 -12.54961,-4.38241 -3.45283,-0.66398 -5.31203,-1.06238 -5.57761,-1.1952 -5.57762,4.38242 -11.42082,8.96402 -17.52962,13.74482 -0.7968,0.5312 -1.46081,0.4648 -1.992,-0.1992 -0.92961,-1.328 -0.66401,-2.2576 0.7968,-2.78881 1.5936,-0.79679 3.652,-2.19119 6.17521,-4.1832 2.25759,-1.99199 5.31199,-4.51519 9.16321,-7.56961 -0.79682,-0.13278 -2.12482,-0.39838 -3.98401,-0.7968 1.32799,-0.26558 3.38639,-0.66398 6.17521,-1.1952 0.92958,-0.26558 1.99198,-1.12878 3.1872,-2.5896 -3.71842,0.79682 -6.30802,1.32802 -7.76881,1.5936 -2.39041,-0.79678 -4.64801,-1.65998 -6.7728,-2.58961 -0.13281,-0.26557 0.13279,-0.53117 0.7968,-0.7968 1.99199,-0.13277 3.85119,-0.26557 5.5776,-0.3984 0.92959,-0.13277 1.52719,-0.26557 1.79281,-0.3984 -1.19522,-2.65597 -1.79282,-4.44877 -1.79281,-5.3784 -1.06241,-0.13277 -2.12481,-0.66397 -3.1872,-1.5936 -0.92961,-0.79677 -1.39441,-1.39437 -1.3944,-1.79281 l 4.7808,0.7968 0,-5.5776 c -1e-5,-0.53116 0.19919,-0.79676 0.5976,-0.7968 1.59359,0.66404 2.72239,2.39044 3.38641,5.1792 -2e-5,0.26564 0.0664,0.66404 0.1992,1.1952 2.65598,-0.26556 4.71438,-0.53116 6.17521,-0.7968 0.39837,-1.19516 0.59757,-2.52316 0.5976,-3.984 -3e-5,-1.46076 -0.39843,-2.45676 -1.19521,-2.988 -0.39842,-0.39836 -0.19922,-0.73036 0.59761,-0.99601 0.39837,-0.13275 0.92957,-0.13275 1.5936,0 z m -2.19121,11.35442 c -1.32802,0.26563 -2.52322,0.46483 -3.5856,0.5976 -0.53122,3e-5 -1.19522,3e-5 -1.992,0 l 0.3984,2.5896 0.3984,1.5936 2.5896,-0.3984 c 0.92958,-1.06237 1.46078,-1.99197 1.5936,-2.7888 l 0.5976,-1.5936 z m -4.1832,15.73681 c 1.32798,0.79682 1.79278,3.38642 1.3944,7.76881 0.26558,4.64801 0.39838,7.37041 0.3984,8.16721 -2e-5,0.9296 -0.0664,1.5936 -0.1992,1.992 -0.26562,0.3984 -0.59762,0.5976 -0.996,0.5976 -0.79682,0 -1.39442,-0.3984 -1.7928,-1.1952 -0.79682,-1.8592 -1.66002,-3.4528 -2.5896,-4.7808 1.06238,-0.664 1.59358,-1.3944 1.5936,-2.19121 -2e-5,-0.53119 -2e-5,-1.06239 0,-1.5936 -1.72642,1.99201 -3.51922,3.58561 -5.37841,4.78081 -1.06241,0.664 -1.72641,0.664 -1.992,0 -0.66401,-1.328 -0.99601,-2.2576 -0.996,-2.7888 0.39839,-1.5936 1.39439,-3.1872 2.988,-4.78081 0.53119,-0.53119 1.12879,-0.46479 1.7928,0.1992 0.39839,0.39841 0.59759,0.86321 0.5976,1.3944 -10e-6,0.39841 0.0664,0.86321 0.1992,1.3944 0.53119,-0.13279 1.06239,-0.26559 1.59361,-0.3984 0.79678,-0.26559 1.26158,-0.53119 1.3944,-0.7968 0.53118,-3.31999 0.86318,-5.97599 0.996,-7.96801 0.13278,-0.26558 0.46478,-0.19918 0.996,0.1992 z m 5.77681,3.38641 c 0.92957,0.39841 1.85917,1.06241 2.7888,1.992 0.26557,0.26561 0.53117,0.59761 0.7968,0.996 l 3.984,-0.5976 c 1.72637,0.26561 3.12077,0.79681 4.18321,1.5936 1.72636,0.79681 2.58956,1.92561 2.5896,3.38641 -4e-5,1.0624 -0.46484,1.7928 -1.3944,2.1912 -2.39044,1.1952 -5.51124,1.7928 -9.36241,1.7928 -1.32803,0.2656 -2.25763,0.2656 -2.7888,0 3.05437,-0.7968 5.71037,-1.9256 7.96801,-3.3864 0.39836,-0.2656 0.66396,-0.5976 0.7968,-0.99601 -1.06244,-1.59359 -1.92564,-2.58959 -2.58961,-2.988 -1.46083,0.66401 -3.18723,1.85921 -5.1792,3.58561 -0.92963,0.2656 -1.66003,0.1328 -2.1912,-0.39841 -0.79683,-0.79679 -1.19523,-1.92559 -1.19521,-3.3864 0.39838,-1.19519 0.59758,-2.45679 0.59761,-3.7848 0.13277,-0.13279 0.46477,-0.13279 0.996,0 z"
         style=""
         id="path3048" />
      <path
         d="m 323.01295,820.87273 c 1.06238,0.39844 1.72638,0.86324 1.992,1.39441 0.26558,0.53123 0.46478,1.66003 0.59761,3.3864 0.39837,-0.13277 0.86317,-0.13277 1.3944,0 0.66397,0.26563 1.19517,0.46483 1.5936,0.5976 1.46077,1.19523 1.59357,2.25763 0.3984,3.1872 -0.53123,0.79683 -1.72643,1.32803 -3.5856,1.5936 -3e-5,0.26563 -0.0664,0.73043 -0.19921,1.39441 1.46078,-0.13278 2.65598,0.13282 3.58561,0.7968 0.26557,0.26562 0.26557,0.66402 0,1.1952 -1.72643,1.46082 -4.78083,2.39042 -9.16321,2.7888 -0.53122,-0.53118 -1.72642,-1.12878 -3.5856,-1.7928 -0.92962,2e-5 -0.92962,-0.26558 0,-0.7968 l 4.98,-1.1952 c 0.13278,-0.53118 0.19918,-1.19518 0.1992,-1.992 l -2.3904,-0.39841 c -1.19522,-0.53117 -2.72242,-1.59357 -4.58161,-3.1872 -0.13281,-0.39837 0.0664,-0.59757 0.5976,-0.5976 1.19519,0.39843 2.25759,0.66403 3.18721,0.7968 1.32798,0.13283 2.45678,-0.0664 3.3864,-0.5976 0.13278,-0.66397 0.19918,-1.46077 0.1992,-2.3904 -2e-5,-0.92957 -0.39842,-1.79277 -1.1952,-2.5896 -0.39842,-0.39837 -0.46482,-0.73037 -0.1992,-0.99601 l 0.7968,-0.7968 c 0.26558,-0.26556 0.92958,-0.19916 1.992,0.1992 z m 3.38641,16.13522 c 0.39837,2e-5 0.92957,0.0664 1.5936,0.1992 1.06237,2e-5 2.19117,0.33202 3.3864,0.996 0.39837,0.39842 0.39837,0.79683 0,1.1952 l -1.1952,1.39441 c -1.19523,1.59362 -1.92563,2.52322 -2.1912,2.7888 -0.53123,0.66402 -1.12883,1.12882 -1.7928,1.3944 1.99197,0.39842 3.65197,0.92962 4.98,1.5936 3.85117,0.13282 6.50717,0.26562 7.96801,0.3984 1.46076,2e-5 2.72236,0.46482 3.7848,1.3944 0.13276,0.79682 0.19916,1.32802 0.1992,1.59361 -4e-5,0.79681 -0.33204,1.19521 -0.996,1.1952 -3.05444,-0.53119 -6.24164,-1.26159 -9.56161,-2.19121 -1.59363,-0.13278 -2.52323,-0.19918 -2.7888,-0.1992 -3.45283,2.39042 -6.44083,3.78482 -8.96401,4.18321 -0.79682,0.39841 -0.86322,0.26561 -0.1992,-0.3984 1.19518,-1.19519 2.12478,-2.39039 2.7888,-3.58561 l -0.996,0 c -1.46082,0.13282 -2.65602,0.33202 -3.5856,0.5976 l -0.1992,1.39441 c -0.13282,0.79681 -0.26562,1.46081 -0.3984,1.992 -0.26562,0.66401 -0.53122,0.99601 -0.7968,0.996 -1.32802,-0.79679 -2.32402,-1.92559 -2.98801,-3.3864 l -7.1712,1.992 c -1.46081,0.26561 -2.98801,-0.0664 -4.58161,-0.996 -0.79681,-0.39839 -1.19521,-0.73039 -1.1952,-0.996 l 1.7928,-0.5976 c 2.2576,-0.13279 5.8432,-0.92959 10.75681,-2.39041 0.13279,-0.39838 0.19919,-0.79678 0.1992,-1.1952 -0.53121,-0.26558 -0.39841,-0.53118 0.3984,-0.7968 1.19519,0.39842 2.19119,0.92962 2.98801,1.5936 3.05438,-0.39838 5.37838,-0.59758 6.972,-0.5976 0.39838,-0.66398 0.0664,-1.19518 -0.996,-1.5936 l -2.7888,0 c -1.46082,2e-5 -2.52322,-0.19918 -3.1872,-0.5976 -0.92962,-0.39838 -1.99202,-1.46078 -3.18721,-3.1872 -0.66401,-0.92958 -0.86321,-1.59358 -0.5976,-1.99201 0.79679,0.26563 1.52719,0.53123 2.19121,0.7968 l 1.1952,-0.3984 c 1.85918,-0.79677 3.85118,-1.39438 5.976,-1.7928 1.06238,-0.26558 2.12478,-0.53118 3.18721,-0.7968 z m 0,2.3904 c -2.78883,0.53123 -4.58163,0.99603 -5.37841,1.39441 -0.92962,0.39842 -1.66002,0.86322 -2.1912,1.3944 0.39838,0.26562 0.73038,0.66402 0.996,1.1952 l 2.7888,-0.3984 c 1.72638,-0.92958 2.98798,-1.92558 3.78481,-2.98801 l 0,-0.5976 z m 3.984,12.94802 c 0.39837,10e-6 1.12877,0.19921 2.1912,0.5976 0.39837,0.13281 0.53117,0.59761 0.3984,1.3944 -0.92963,2.12481 -2.65603,3.91761 -5.1792,5.37841 0.66397,0.2656 1.32797,0.5976 1.992,0.996 1.72637,1.0624 1.59357,2.1248 -0.3984,3.1872 -1.59363,0 -3.18723,-0.3984 -4.78081,-1.1952 -1.85922,-0.9296 -2.98802,-1.7264 -3.3864,-2.3904 -0.13282,-0.2656 0.0664,-0.664 0.5976,-1.1952 0.53118,-0.664 1.32798,-0.9296 2.3904,-0.79681 1.19518,-0.79679 2.25758,-1.79279 3.18721,-2.988 -5.04643,0.92961 -7.96803,1.79281 -8.76481,2.5896 l 0.3984,1.19521 c 0.26558,1.1952 -0.19922,1.7928 -1.3944,1.7928 -1.19522,0 -2.72242,-1.66 -4.58161,-4.98001 -0.26561,-0.66399 -0.33201,-1.12879 -0.1992,-1.3944 1.46079,1e-5 2.85519,0.46481 4.18321,1.3944 l 3.3864,-1.5936 c 2.65598,-1.32799 5.17918,-1.99199 7.56961,-1.992 z"
         style=""
         id="path3050" />
    </g>
  </g>
</svg>
