<?xml version="1.0" encoding="utf-8"?>
<!-- Generator: Adobe Illustrator 18.0.0, SVG Export Plug-In . SVG Version: 6.00 Build 0)  -->
<!DOCTYPE svg PUBLIC "-//W3C//DTD SVG 1.1//EN" "http://www.w3.org/Graphics/SVG/1.1/DTD/svg11.dtd">
<svg version="1.1" id="Layer_2" xmlns="http://www.w3.org/2000/svg" xmlns:xlink="http://www.w3.org/1999/xlink" x="0px" y="0px"
	 width="127px" height="113px" viewBox="0 0 127 113" style="enable-background:new 0 0 127 113;" xml:space="preserve">
<style type="text/css">
	.st0{fill:#6E97D6;stroke:#000000;stroke-width:0.25;stroke-miterlimit:10;}
	.st1{fill:#3CA898;stroke:#000000;stroke-width:0.25;stroke-miterlimit:10;}
	.st2{fill:#F1A619;stroke:#000000;stroke-width:0.25;stroke-miterlimit:10;}
</style>
<g>
	<path class="st0" d="M46.1,49.9c13.6,3.9,50.3,5.2,67.2,0C100.4,56,79.7,77.5,79.7,94.3C77.2,76.1,63.1,58.2,46.1,49.9z"/>
	<path class="st1" d="M114.3,41C88.2,9.3,39.6,14.4,21.2,35.5c-19.9,22.7-6.5,62.7,56,58.8C-5.8,83.7,49.1-1.2,114.3,41z"/>
	<circle class="st2" cx="79.7" cy="43.2" r="8.4"/>
</g>
</svg>
