<?xml version="1.0" encoding="UTF-8" standalone="no"?>
<!-- Created with Inkscape (http://www.inkscape.org/) -->
<svg xmlns:svg="http://www.w3.org/2000/svg" xmlns="http://www.w3.org/2000/svg" xmlns:inkscape="http://www.inkscape.org/namespaces/inkscape" xmlns:sodipodi="http://sodipodi.sourceforge.net/DTD/sodipodi-0.dtd" xmlns:ns1="http://sozi.baierouge.fr" xmlns:xlink="http://www.w3.org/1999/xlink" xmlns:dc="http://purl.org/dc/elements/1.1/" xmlns:cc="http://web.resource.org/cc/" version="1.0" width="893.60889" height="1201.0166" id="svg4736" inkscape:version="0.91 r13725" xmlns:rdf="http://www.w3.org/1999/02/22-rdf-syntax-ns#">
  <defs id="defs4738"/>
  <g transform="translate(19.07637,127.62049)" id="layer1">
    <path d="M 41.128593,1072.305 C 38.183323,1069.3597 39.846803,1065.1839 48.418633,1054.005 C 54.485743,1046.0926 59.138343,1038.4411 64.994213,1026.7454 C 69.471743,1017.8026 72.907643,1009.8928 72.629563,1009.1681 C 72.351473,1008.4434 69.042493,1006.8391 65.276273,1005.603 C 61.510053,1004.3668 55.365243,1001.3375 51.621143,998.87113 L 44.813683,994.38683 L 39.544993,997.88403 C 36.647213,999.80743 33.692963,1002.084 32.980003,1002.9431 C 31.120773,1005.1833 27.928593,1004.9438 27.928593,1002.564 C 27.928593,1001.4965 27.516693,1000.3685 27.013263,1000.0573 C 25.444623,999.08793 20.071953,1004.426 19.741553,1007.2824 C 19.325513,1010.879 16.602333,1011.2791 15.092523,1007.9654 C 14.436573,1006.5258 13.418423,1005.5084 12.829953,1005.7045 C 12.241483,1005.9007 9.6604429,1009.1985 7.0943029,1013.0331 C 2.4090329,1020.0342 -0.88287714,1022.0935 -3.3867471,1019.5897 C -5.0205971,1017.9558 -9.0714071,1018.2518 -9.0714071,1020.005 C -9.0714071,1021.785 -10.136067,1021.8883 -13.357127,1020.4207 C -16.241937,1019.1063 -19.083417,1011.8246 -19.076357,1005.7644 C -19.068977,999.43783 -6.0142671,965.76053 -1.4052871,960.17833 C -0.12165714,958.62363 0.92859286,956.96793 0.92859286,956.49903 C 0.92859286,955.38513 8.0036029,944.70495 14.106553,936.60595 C 17.629753,931.93045 18.928593,929.30705 18.928593,926.86645 C 18.928593,925.02925 20.105403,920.58645 21.543733,916.99355 C 24.936673,908.51815 35.785003,896.62025 43.840043,892.54005 C 46.913743,890.98305 51.090273,888.38295 53.121213,886.76195 C 55.152153,885.14105 60.153303,882.59685 64.234883,881.10815 L 71.655933,878.40155 L 76.383763,868.93955 C 78.984063,863.73545 81.980143,859.01265 83.041723,858.44455 C 84.920633,857.43895 84.956123,856.11925 84.379073,808.70829 C 84.053043,781.92151 83.647753,723.78005 83.478433,679.50505 C 83.309103,635.23005 82.867433,596.75505 82.496923,594.00505 C 82.126423,591.25505 81.660363,546.70505 81.461223,495.00505 C 81.262093,443.30505 80.923723,389.98005 80.709283,376.50505 C 80.356763,354.35378 81.002823,329.4261 82.238403,317.50505 C 82.835623,311.74294 81.407713,274.6368 79.987223,259.00505 C 79.387463,252.40505 78.689213,244.53005 78.435563,241.50505 C 78.181913,238.48005 77.052203,227.45505 75.925103,217.00505 C 74.161993,200.65828 71.770933,173.96176 70.475473,156.15914 C 70.269193,153.32439 70.527803,146.96466 71.050173,142.0264 C 72.685783,126.56395 79.880623,115.54023 92.847733,108.62883 C 97.860023,105.95731 99.757333,105.50505 105.95255,105.50505 C 115.72042,105.50505 119.92078,106.93749 129.92859,113.68154 C 140.36574,120.71491 142.00162,122.19748 149.04358,131.00505 C 157.48598,141.56419 163.71898,152.46823 181.91192,188.50505 C 187.54645,199.666 195.92859,219.46023 195.92859,221.6051 C 195.92859,222.18746 196.99088,225.44069 198.28923,228.83449 C 200.72345,235.19737 201.96001,239.37567 203.96271,248.00505 C 204.97466,252.3654 206.9478,258.03757 209.87639,265.00505 C 211.797,269.57441 213.86361,276.25864 214.51404,280.00505 C 214.89599,282.20505 216.21373,286.03005 217.44234,288.50505 C 218.67096,290.98005 221.30798,296.27945 223.30239,300.28148 C 225.2968,304.28352 226.9363,308.55852 226.94573,309.78148 C 226.95515,311.00445 227.84744,315.38005 228.92859,319.50505 C 230.00974,323.63005 230.90203,328.88302 230.91145,331.17832 C 230.92313,334.02197 231.65911,336.25221 233.22146,338.17832 C 238.2128,344.33181 238.73762,345.53649 242.51257,359.50505 C 242.88416,360.88005 244.28649,365.83005 245.62886,370.50505 C 246.97123,375.18005 249.20649,383.50505 250.59611,389.00505 C 251.98572,394.50505 253.52901,399.43255 254.02564,399.95505 C 254.52226,400.47755 254.92636,402.50255 254.92364,404.45505 C 254.92092,406.40755 255.66288,410.25505 256.57244,413.00505 C 258.61853,419.19126 262.75432,431.09675 264.09926,434.67211 C 264.85398,436.67845 267.24099,438.36528 273.73458,441.48113 C 284.2514,446.52745 290.03867,451.1273 293.65888,457.3174 C 295.16671,459.89561 298.46769,464.74025 300.99439,468.08327 C 303.52108,471.42629 306.45243,476.2621 307.50848,478.82952 C 308.56454,481.39694 309.72609,483.49924 310.0897,483.5013 C 311.64565,483.51012 315.96528,477.07928 317.00242,473.20998 C 317.62233,470.89727 318.53431,467.97138 319.02906,466.708 C 320.91663,461.88789 318.90215,447.67665 315.79011,443.85868 C 314.89322,442.75832 312.24504,435.36908 307.77895,421.50505 C 306.1126,416.33223 305.79234,413.42814 306.21043,407.28197 C 307.1249,393.83852 313.23884,384.39207 326.92859,375.27101 C 330.18278,373.10285 330.51831,372.37953 331.7061,364.97206 C 332.40874,360.5902 333.19027,353.91614 333.44285,350.1408 C 333.94139,342.68898 332.65598,339.71354 326.79498,334.75249 C 323.64984,332.09029 317.92859,323.4552 317.92859,321.37045 C 317.92859,320.56772 316.10025,318.13212 313.86562,315.958 C 311.63098,313.78388 308.84175,310.43005 307.66733,308.50505 C 306.49291,306.58005 302.42619,301.80297 298.63016,297.88931 C 294.83414,293.97565 290.9111,289.02565 289.91231,286.88931 C 288.91351,284.75297 284.45857,279.44105 280.01245,275.08504 C 275.56633,270.72904 271.92859,266.89183 271.92859,266.5579 C 271.92859,266.22398 270.69109,264.56057 269.17859,262.86143 C 257.6757,249.93909 252.82315,231.0915 257.75847,218.50505 C 260.33952,211.92266 268.3099,201.69476 276.32215,194.68343 C 283.01791,188.82411 298.98037,180.50505 303.52733,180.50505 C 310.79876,180.50505 320.92859,175.49607 320.92859,171.90051 C 320.92859,171.20975 319.5496,167.66528 317.86418,164.02391 C 312.73453,152.94129 311.65739,145.49687 313.34404,132.78399 C 315.8595,113.82407 317.60719,109.71225 326.45045,101.9483 C 330.78405,98.143609 334.60826,95.806669 338.83844,94.378119 C 344.07107,92.611029 345.3015,91.709889 347.33107,88.158339 C 351.45413,80.943349 352.17079,75.373749 350.50325,63.505049 C 348.37441,48.352972 349.48155,38.084522 354.34924,27.834572 C 356.39204,23.533002 358.7374,19.268802 359.56115,18.358572 C 361.61301,16.091292 359.848,15.173922 355.00741,15.991732 C 349.43999,16.932342 340.04654,24.785802 337.01722,31.032572 C 335.69096,33.767432 333.78294,37.697822 332.77716,39.766772 C 329.851,45.786062 329.37998,51.014569 331.47337,54.239349 C 332.46083,55.760479 334.09222,57.593069 335.09867,58.311749 C 340.03758,61.838519 334.07046,71.505049 326.95449,71.505049 C 323.62163,71.505049 317.79591,68.081839 313.17859,63.410279 C 310.84109,61.045319 308.93203,58.861659 308.93623,58.557699 C 309.03782,51.208139 330.06981,14.280732 342.00008,0.50505157 C 344.14353,-1.9699484 347.06478,-5.4520684 348.49175,-7.2329784 C 354.10232,-14.235218 356.18919,-15.007968 368.5691,-14.667528 C 375.80024,-14.468678 379.96251,-14.740818 380.39509,-15.440748 C 380.76223,-16.034778 380.18111,-18.877498 379.10373,-21.757878 C 372.70932,-38.853308 371.56613,-57.658189 376.21775,-69.230348 C 377.4922,-72.400878 379.10179,-77.694948 379.7946,-80.994948 C 381.79893,-90.541938 385.61537,-97.340358 390.82517,-100.64432 C 393.29741,-102.21216 395.89156,-103.49495 396.58995,-103.49495 C 397.28834,-103.49495 400.68773,-105.03858 404.14417,-106.92525 C 407.6006,-108.81191 414.70359,-111.62441 419.92859,-113.17525 C 428.86026,-115.82627 430.50542,-115.99144 447.42859,-115.93621 C 462.69766,-115.88638 466.49062,-115.55941 472.42859,-113.78114 C 481.80729,-110.97246 486.26171,-108.99058 491.14286,-105.45469 C 493.39006,-103.82683 495.88316,-102.49495 496.6831,-102.49495 C 497.48304,-102.49495 502.36167,-100.24495 507.5245,-97.494948 C 512.68733,-94.744948 517.48699,-92.494948 518.19041,-92.494948 C 518.89383,-92.494948 522.61018,-95.420528 526.44897,-98.996228 C 530.28776,-102.57194 534.14404,-105.7294 535.01848,-106.0128 C 535.89292,-106.29621 537.14692,-107.53438 537.80514,-108.76429 C 539.1317,-111.24299 543.34984,-114.05556 549.42859,-116.51458 C 551.62859,-117.40454 557.25359,-119.97578 561.92859,-122.22845 C 568.65935,-125.47169 572.09376,-126.48268 578.42859,-127.08554 C 582.82859,-127.50428 586.87859,-127.7236 587.42859,-127.57292 C 587.97859,-127.42224 592.70359,-126.66441 597.92859,-125.88885 C 603.15359,-125.11329 610.35359,-123.84965 613.92859,-123.08075 C 617.50359,-122.31186 624.02859,-121.37025 628.42859,-120.98829 C 632.82859,-120.60633 637.94605,-119.66408 639.80071,-118.89439 C 641.65538,-118.1247 644.43141,-117.49495 645.96967,-117.49495 C 647.50793,-117.49495 650.04048,-116.86634 651.59755,-116.09804 C 653.15462,-115.32974 657.80359,-113.92422 661.92859,-112.97465 C 668.88835,-111.37252 679.01515,-107.43116 684.92859,-104.02303 C 691.51904,-100.22471 707.828,-92.088898 711.3247,-90.855198 C 714.87827,-89.601418 715.63304,-89.657378 719.33818,-91.449288 C 724.81119,-94.096178 738.75617,-94.488948 744.26679,-92.151418 C 749.56709,-89.903088 755.92859,-84.684748 755.92859,-82.585238 C 755.92859,-81.627318 757.09738,-79.752638 758.52591,-78.419258 C 764.75184,-72.608028 767.17128,-60.834539 762.92859,-56.994949 C 759.60481,-53.986969 758.12038,-56.084079 780.86766,-31.651658 C 786.67617,-25.412848 791.83702,-19.562848 792.33621,-18.651658 C 792.8354,-17.740468 794.8652,-14.969948 796.84688,-12.494948 C 808.01342,1.4514016 815.95305,19.143622 819.95824,39.005052 C 820.62371,42.305052 822.04142,48.280522 823.10874,52.283869 C 824.77114,58.519379 824.97984,61.861599 824.56504,75.601559 C 824.20744,87.444259 823.61754,92.928769 822.30999,96.564809 L 820.53921,101.48918 L 823.10664,104.24712 C 825.23244,106.53062 831.00544,114.3723 839.94554,127.11974 C 840.76124,128.28281 844.35364,133.38129 847.92864,138.44968 C 855.24194,148.81798 857.98024,153.83757 863.77894,167.50505 C 870.51644,183.38497 872.92864,190.20299 872.92864,193.36659 C 872.92864,195.02782 873.34024,196.64145 873.84344,196.95242 C 874.34664,197.26339 874.64014,203.70245 874.49564,211.26144 C 874.24354,224.45477 874.10684,225.25305 871.08084,231.19896 C 869.34714,234.60561 867.92864,237.79926 867.92864,238.29595 C 867.92864,238.79265 867.14114,240.1331 866.17864,241.27473 C 865.21614,242.41637 862.43604,245.87627 860.00074,248.9634 C 854.70684,255.67411 847.32404,260.38146 835.85254,264.36038 C 824.80874,268.191 819.49773,269.24392 807.42859,269.99554 C 795.74516,270.72314 788.92944,271.40061 787.17859,272.00838 C 786.30196,272.31267 785.92146,275.2146 785.90473,281.72367 C 785.89161,286.82843 785.3956,292.80505 784.80248,295.00505 C 784.20937,297.20505 783.49636,300.80505 783.21802,303.00505 C 782.93968,305.20505 782.1602,307.68005 781.48584,308.50505 C 780.81147,309.33005 778.78583,312.93005 776.98441,316.50505 C 772.82041,324.76868 769.21243,328.5397 761.55214,332.63467 C 756.04044,335.58107 754.51261,335.92697 746.26127,336.09649 C 741.21924,336.20007 736.60674,336.58593 736.01127,336.95395 C 734.67974,337.77688 734.5739,340.50505 735.8735,340.50505 C 736.3932,340.50505 740.06542,344.21755 744.03399,348.75505 C 748.00256,353.29255 752.1034,357.42294 753.14697,357.93369 C 754.19053,358.44445 757.05441,363.16945 759.51115,368.43369 C 761.96789,373.69794 764.41685,378.78644 764.95327,379.74148 C 765.4897,380.69652 765.92859,381.91083 765.92859,382.43996 C 765.92859,382.96909 767.05359,384.6159 768.42859,386.09955 C 769.92054,387.7094 770.92859,389.98646 770.92859,391.74678 C 770.92859,393.36911 771.55764,395.8909 772.32648,397.35076 C 775.09059,402.59924 776.11946,412.70888 775.40749,427.62482 C 775.02997,435.53395 774.31778,442.43255 773.82484,442.95505 C 773.3319,443.47755 772.92859,446.26888 772.92859,449.158 C 772.92859,452.04712 772.51697,455.44462 772.01387,456.708 C 771.51077,457.97138 770.12607,462.38005 768.93674,466.50505 C 767.74742,470.63005 766.13405,475.48282 765.35146,477.28898 C 764.56888,479.09514 763.92859,481.3885 763.92859,482.38534 C 763.92859,483.38218 763.29746,485.50441 762.52607,487.10141 C 761.75468,488.69841 760.57667,493.38005 759.90826,497.50505 C 759.23984,501.63005 757.84598,507.38443 756.81078,510.29256 C 755.77557,513.20069 754.92859,517.96934 754.92859,520.88955 C 754.92859,524.70764 754.38405,526.82689 752.98999,528.43426 C 751.92376,529.66363 750.75458,532.09499 750.39183,533.83727 C 750.02907,535.57955 749.01639,538.13005 748.14142,539.50505 C 747.26646,540.88005 746.40382,543.33936 746.22445,544.97018 C 746.04508,546.60101 745.45513,548.37851 744.91346,548.92018 C 744.37178,549.46186 743.92859,550.63086 743.92859,551.51796 C 743.92859,552.40506 742.62734,554.37754 741.03693,555.90125 C 739.44652,557.42496 737.87829,560.00655 737.55198,561.63811 C 737.22567,563.26966 735.04687,567.84468 732.71022,571.80481 C 730.37356,575.76494 727.73849,580.58005 726.85451,582.50505 C 725.97053,584.43005 723.63053,589.38005 721.65451,593.50505 C 718.29511,600.51789 716.90107,604.02223 713.49953,614.00505 C 711.81847,618.93861 709.4756,628.48144 709.4486,630.50505 C 709.4376,631.33005 709.12137,632.47558 708.74589,633.05067 C 708.3704,633.62575 707.09261,637.67575 705.90636,642.05067 C 703.1026,652.3909 702.3997,654.88825 700.43071,661.50505 C 699.53055,664.53005 698.55508,667.90505 698.26301,669.00505 C 697.97093,670.10505 696.23799,675.05505 694.41202,680.00505 C 690.76509,689.89147 687.85283,698.55412 684.8307,708.50505 C 683.74496,712.08005 682.02925,716.58005 681.01801,718.50505 C 680.00677,720.43005 678.87246,723.42089 678.49731,725.15136 C 678.12217,726.88183 676.97352,729.0594 675.94476,729.99042 C 674.916,730.92143 673.78373,733.40301 673.42859,735.50505 C 673.07345,737.60709 671.91567,740.11175 670.85574,741.07098 C 669.62003,742.18928 668.92859,744.13124 668.92859,746.48353 L 668.92859,750.15204 L 674.67859,751.25926 C 677.84109,751.86824 685.60359,753.47661 691.92859,754.83342 C 698.25359,756.19023 708.15359,758.03663 713.92859,758.93653 C 719.70359,759.83642 725.77859,760.99895 727.42859,761.51992 C 730.4404,762.47085 742.39035,764.41562 748.92859,765.01888 C 765.8623,766.58129 778.97927,769.44936 781.75002,772.1954 C 782.4768,772.91571 784.6143,773.50505 786.50002,773.50505 C 788.62491,773.50505 790.70933,774.28579 791.98187,775.55833 C 793.72859,777.30505 793.92577,778.31286 793.30253,782.30833 C 792.89958,784.89153 792.53751,788.13005 792.49792,789.50505 C 792.43488,791.69448 791.99131,791.99707 788.92727,791.94078 C 787.00299,791.90543 781.87267,791.09987 777.52655,790.15066 C 773.18044,789.20145 765.53044,788.02572 760.52655,787.53793 C 755.52267,787.05013 749.523,785.96558 747.19395,785.12782 C 744.86491,784.29005 739.25878,783.09794 734.7359,782.47867 C 730.21302,781.8594 725.81861,780.99725 724.97054,780.56279 C 724.12247,780.12832 720.72859,779.49561 717.42859,779.15676 C 706.1306,777.99666 687.13957,775.25973 678.92859,773.60825 C 676.45359,773.11046 669.70359,771.75419 663.92859,770.59433 C 653.81872,768.56384 641.93374,766.72177 623.92859,764.39468 C 619.25359,763.79045 613.34589,762.65014 610.80037,761.86065 C 608.25486,761.07116 603.97986,760.52612 601.30037,760.64944 C 597.07433,760.84394 559.92764,757.2948 552.92859,756.02781 C 551.55359,755.77891 546.37859,755.29377 541.42859,754.94973 C 536.47859,754.60569 528.82859,753.66672 524.42859,752.86313 C 520.02859,752.05954 510.57859,750.95777 503.42859,750.41475 C 491.91606,749.54041 465.29334,745.62348 459.17859,743.90436 C 455.92352,742.98922 456.38392,744.78512 460.53188,749.18324 C 464.68592,753.58781 465.9726,755.91033 468.442,763.46133 C 470.15536,768.70051 470.15503,769.20403 468.43386,776.11589 C 467.44799,780.07494 466.87738,783.92921 467.16584,784.68093 C 467.4543,785.43265 470.24533,787.38443 473.36813,789.01822 C 481.36656,793.20284 493.75964,806.18275 497.70269,814.50505 C 504.16673,828.14815 504.33941,836.19355 498.33697,844.05715 C 496.42974,846.55575 495.10211,848.97685 495.38669,849.43725 C 495.67127,849.89775 497.14712,850.49405 498.66635,850.76255 C 500.18558,851.03095 510.20359,853.52035 520.92859,856.29435 C 531.65359,859.06845 544.47859,862.07345 549.42859,862.97225 C 554.37859,863.87095 560.22859,865.01555 562.42859,865.51585 C 564.62859,866.01605 571.37859,867.36815 577.42859,868.52045 C 583.47859,869.67265 591.35359,871.26675 594.92859,872.06285 C 598.50359,872.85895 602.71819,873.50915 604.29438,873.50765 C 605.87056,873.50625 609.24556,874.16095 611.79438,874.96255 C 618.7025,877.13515 639.78679,880.77345 641.54939,880.09705 C 642.39338,879.77315 645.8233,880.40755 649.17141,881.50665 C 652.51953,882.60575 656.58213,883.50505 658.1994,883.50505 C 659.81668,883.50505 663.7925,884.19245 667.03456,885.03255 C 670.27662,885.87265 675.96657,886.99395 679.6789,887.52435 C 686.52816,888.50305 690.10047,889.15035 704.42859,892.00935 C 708.82859,892.88735 715.106,894.03905 718.37838,894.56875 C 725.56539,895.73205 728.92859,898.43795 728.92859,903.05695 C 728.92859,904.81875 728.21816,906.84975 727.34985,907.57045 C 725.62606,909.00105 720.6624,908.42795 701.92859,904.63555 C 696.70359,903.57785 688.82859,902.41185 684.42859,902.04455 C 680.02859,901.67725 674.17859,900.96965 671.42859,900.47195 C 668.67859,899.97435 661.92859,898.82465 656.42859,897.91695 C 650.92859,897.00935 641.70359,894.49515 635.92859,892.32985 C 622.45079,887.27655 607.97729,883.50505 602.06251,883.50505 C 599.50659,883.50505 595.85673,883.05805 593.95171,882.51165 C 587.92051,880.78195 571.5945,877.51635 556.25597,874.97175 C 548.10091,873.61875 539.17859,872.06475 536.42859,871.51825 C 528.21997,869.88695 506.99732,865.75715 498.42859,864.12355 C 494.02859,863.28465 486.37859,862.11195 481.42859,861.51745 C 476.47859,860.92305 470.40359,860.01675 467.92859,859.50365 C 465.45359,858.99055 461.62859,858.30375 459.42859,857.97755 C 457.22859,857.65135 453.26938,856.91155 450.63033,856.33345 C 444.07605,854.89775 442.45746,856.47155 440.8515,865.84185 C 440.17628,869.78165 438.23983,876.03535 436.54828,879.73915 C 433.57635,886.24625 433.23615,886.58825 426.45066,889.88975 C 416.38177,894.78875 410.22416,896.15865 380.42859,900.12815 C 365.11844,902.16785 364.54449,902.20465 335.42859,903.00875 C 311.10555,903.68045 308.86613,903.59225 300.70816,901.64165 C 286.91955,898.34475 285.72195,897.63145 283.55901,891.42655 C 282.30082,887.81715 281.73186,883.60105 281.81918,878.53415 C 281.93062,872.06735 282.33551,870.45205 284.68876,867.08545 C 290.98981,858.07125 309.58878,852.93315 326.04622,855.66025 C 332.29275,856.69535 332.74878,856.62455 338.47959,853.72925 C 341.75154,852.07625 345.16448,849.88705 346.06391,848.86435 C 348.08267,846.56905 352.07862,838.32175 351.46789,837.71105 C 351.22208,837.46525 349.08769,836.87775 346.72478,836.40555 C 344.36188,835.93335 339.27859,834.84775 335.42859,833.99325 C 331.57859,833.13865 320.32859,830.85865 310.42859,828.92645 C 300.52859,826.99425 289.54004,824.75805 286.00959,823.95715 C 280.28555,822.65865 279.4058,822.66815 277.88372,824.04565 C 276.45232,825.34105 270.83492,835.92185 266.52839,845.43435 C 262.69571,853.90015 242.41145,869.36305 232.1349,871.65285 C 228.99643,872.35215 221.47859,872.94245 215.42859,872.96465 C 205.33676,873.00175 203.97451,872.77515 198.92859,870.22095 C 195.54436,868.50785 191.82674,865.48875 189.26454,862.37265 C 185.23332,857.46995 185.07839,857.01365 184.40743,848.06425 C 183.82717,840.32455 183.99595,838.27545 185.4445,835.47425 C 187.87016,830.78355 195.83518,823.12505 206.67859,815.05729 C 211.76609,811.27207 215.92859,807.79932 215.92859,807.34006 C 215.92859,806.88081 214.20934,806.50505 212.10804,806.50505 C 208.27925,806.50505 192.05941,803.34562 186.42859,801.50301 C 184.77859,800.96307 178.70359,799.83283 172.92859,798.99137 C 155.74992,796.48832 131.67374,791.50146 128.03356,789.69234 C 125.26891,788.31834 124.19572,786.80722 122.25373,781.55397 C 120.94209,778.00587 120.06868,774.58236 120.31282,773.94616 C 121.78716,770.10408 141.64111,771.93758 186.42859,780.05191 C 193.57859,781.34731 204.60359,783.34549 210.92859,784.49232 C 217.25359,785.63915 223.22518,786.81938 224.19878,787.11506 C 225.51208,787.51389 226.34674,786.74853 227.43257,784.14977 C 228.83128,780.80219 239.43375,771.50505 241.85263,771.50505 C 244.71286,771.50505 242.20951,769.50343 235.17859,766.16863 C 220.08314,759.00878 208.61638,750.5872 194.92859,736.60766 C 177.3598,718.66438 169.98329,705.25377 165.82229,683.69199 C 164.22706,675.42568 164.02674,672.58505 164.90336,670.66109 C 165.68482,668.94596 165.70696,667.88342 164.97646,667.15292 C 163.3571,665.53356 163.73324,663.10814 165.80433,661.81472 C 166.83599,661.17044 167.99856,658.94563 168.38782,656.87069 C 169.22837,652.39017 172.14291,646.40199 174.39133,644.53597 C 175.27623,643.80157 178.97775,639.33167 182.61694,634.60287 C 190.09648,624.88385 197.85328,616.50505 199.37128,616.50505 C 199.93111,616.50505 202.87412,614.97124 205.91131,613.09658 C 212.39859,609.0924 221.56411,606.42698 231.6933,605.59893 L 238.958,605.00505 L 234.23273,601.50505 C 227.43688,596.47138 223.80571,590.86203 223.36745,584.72059 C 223.11427,581.17278 223.43967,579.32578 224.46831,578.47209 C 227.25318,576.16084 226.21748,573.64798 222.17859,572.91671 C 215.01707,571.62008 210.41521,567.72994 207.14473,560.208 C 205.33536,556.04655 205.70966,548.58443 207.97863,543.58313 C 209.082,541.15107 209.63461,538.81935 209.20667,538.40153 C 208.77873,537.98371 204.3913,537.20242 199.45683,536.66532 C 191.05866,535.75122 190.28385,535.46921 187.33754,532.25423 C 183.08945,527.61877 179.58794,518.13443 180.44264,513.57846 C 182.02653,505.13563 188.29742,498.72574 199.67859,493.91617 C 202.01609,492.92836 203.92859,491.67226 203.92859,491.12484 C 203.92859,490.57741 201.99064,487.62651 199.62203,484.56729 C 190.0845,472.24886 188.09891,465.14731 192.79446,460.14826 C 195.46232,457.30797 204.97171,452.50505 207.92741,452.50505 C 212.08777,452.50505 220.75191,447.53263 227.68274,441.16731 C 231.67252,437.50307 235.55492,434.50505 236.31029,434.50505 C 239.19201,434.50505 240.07715,431.93776 238.60095,427.86118 C 237.83295,425.74031 236.74013,422.20505 236.17246,420.00505 C 235.60479,417.80505 234.25755,412.85505 233.17858,409.00505 C 232.09962,405.15505 230.43367,398.18005 229.47648,393.50505 C 228.51929,388.83005 227.25878,383.88005 226.67534,382.50505 C 226.09191,381.13005 225.2923,377.98005 224.89844,375.50505 C 223.8204,368.7307 220.86664,357.4503 219.13777,353.50505 C 217.57494,349.93868 216.46926,344.71959 215.00665,334.00505 C 214.55618,330.70505 213.70875,326.5356 213.12348,324.73961 C 212.5382,322.94361 212.28632,320.01861 212.56373,318.23961 C 212.91151,316.00933 212.115,312.71133 209.99835,307.61751 C 208.30998,303.55437 206.92859,299.67876 206.92859,299.00505 C 206.92859,298.33134 205.5947,294.5454 203.96439,290.59186 C 202.33407,286.63831 200.72669,281.73891 200.39242,279.70432 C 200.05815,277.66972 199.40877,275.10505 198.94935,274.00505 C 198.48994,272.90505 197.57861,269.75505 196.92418,267.00505 C 193.49801,252.60779 185.56531,228.64931 177.33941,207.85478 C 174.91346,201.72214 172.92859,196.46895 172.92859,196.18103 C 172.92859,195.25185 159.24915,165.59851 158.21224,164.27996 C 157.66082,163.57876 156.41272,160.87394 155.43868,158.26924 C 154.46465,155.66454 153.02748,153.00209 152.24498,152.35266 C 151.46247,151.70324 148.96399,147.99014 146.6928,144.10133 C 141.29411,134.85749 128.17802,121.66613 120.92859,118.18927 C 108.51696,112.2366 95.369503,114.04783 86.378663,122.94896 C 81.840123,127.44221 81.070883,128.83994 79.468433,135.50505 C 76.414533,148.20716 79.025593,193.70497 84.949043,231.00505 C 85.473093,234.30505 86.122563,242.76882 86.392293,249.81342 C 86.662023,256.85803 87.184223,263.10965 87.552723,263.7059 C 87.921233,264.30216 88.269063,309.06732 88.325663,363.18404 C 88.415933,449.4746 88.613113,461.69659 89.928593,462.54156 C 91.107943,463.29908 91.157153,463.68061 90.158803,464.3263 C 89.147293,464.9805 88.992283,476.52355 89.396703,521.0763 C 89.675923,551.83711 90.192543,587.80505 90.544753,601.00505 C 90.896953,614.20505 91.014903,645.03005 90.806853,669.50505 C 90.598813,693.98005 90.524603,723.23005 90.641953,734.50505 C 90.759303,745.78005 90.989323,778.53707 91.153113,807.29842 C 91.357403,843.17255 91.788393,859.81365 92.525773,860.29845 C 93.636103,861.02835 99.386583,869.93405 101.84,874.72325 C 102.97037,876.92975 105.02999,878.04025 112.78241,880.62295 C 135.74033,888.27135 151.38902,902.82955 157.26443,922.00505 C 161.97012,937.36305 162.92859,941.20545 162.92859,944.71225 C 162.92859,948.04985 163.24412,948.38315 168.67859,950.78643 C 179.06744,955.38053 190.81545,967.83533 189.54283,972.90583 C 188.19057,978.29373 182.87296,980.07903 177.08785,977.08743 C 175.58006,976.30763 171.51277,975.08443 168.04941,974.36913 C 162.09791,973.13983 161.69529,973.17653 160.71158,975.03673 C 160.13912,976.11933 156.46627,980.16083 152.54967,984.01803 C 145.59609,990.86603 136.31021,996.96093 121.3639,1004.4871 L 114.2992,1008.0445 L 121.1139,1014.7621 C 124.86198,1018.4569 127.92859,1021.9186 127.92859,1022.4549 C 127.92859,1023.6629 139.53045,1035.505 140.71397,1035.505 C 141.18667,1035.505 144.12834,1036.8888 147.25101,1038.5801 C 150.86997,1040.5402 152.92859,1042.2994 152.92859,1043.4318 C 152.92859,1044.4089 154.27859,1046.621 155.92859,1048.3476 C 161.41863,1054.0924 160.02415,1054.8713 149.64318,1051.8583 C 145.12515,1050.547 139.91834,1049.2527 138.07249,1048.9821 C 136.22663,1048.7115 133.52663,1047.6588 132.07249,1046.6427 C 130.61834,1045.6267 127.17859,1044.5083 124.42859,1044.1575 C 121.67859,1043.8066 116.07517,1043.0672 111.97654,1042.5144 C 107.01871,1041.8456 104.19047,1041.8431 103.52654,1042.507 C 102.97767,1043.0559 100.48109,1043.5089 97.978593,1043.5137 C 95.476093,1043.5185 90.503593,1044.5368 86.928593,1045.7766 C 79.726853,1048.274 65.254543,1056.3824 62.432143,1059.5011 C 61.434703,1060.6032 60.096133,1061.505 59.457543,1061.505 C 58.818953,1061.505 55.467783,1064.205 52.010503,1067.505 C 45.714853,1073.5142 43.371483,1074.5479 41.128593,1072.305 z M 68.169983,1048.0304 C 70.435213,1046.0914 72.888693,1044.505 73.622163,1044.505 C 74.355623,1044.505 75.737123,1044.1042 76.692163,1043.6144 C 77.647203,1043.1246 80.678593,1041.7254 83.428593,1040.505 C 86.178593,1039.2846 89.200813,1037.8911 90.144643,1037.4083 C 95.849983,1034.4898 119.97449,1035.9178 126.80425,1039.5783 C 128.78135,1040.638 131.75564,1041.5209 133.41378,1041.5404 C 135.07193,1041.5599 137.55359,1042.219 138.92859,1043.005 C 142.59317,1045.0999 143.58831,1044.8118 140.65572,1042.505 C 139.2573,1041.405 137.7237,1040.505 137.24773,1040.505 C 135.73773,1040.505 116.34869,1021.1293 113.70905,1016.9825 C 112.3165,1014.7949 109.99622,1011.7443 108.55286,1010.2035 C 105.66813,1007.1239 104.88806,1001.505 107.34526,1001.505 C 108.12442,1001.505 108.91192,1001.1177 109.09526,1000.6444 C 109.27859,1000.171 113.40071,997.67943 118.25553,995.10753 C 132.42866,987.59913 151.3911,973.63423 149.7041,971.94723 C 148.70069,970.94383 128.76631,973.26883 121.16825,975.27543 C 114.9988,976.90483 114.87649,976.89733 112.74418,974.76503 C 110.94018,972.96103 110.59696,971.51323 110.67971,966.05653 C 110.79861,958.21533 113.73176,951.13403 119.55141,944.63815 C 123.34094,940.40825 123.68276,940.25705 130.44614,939.81935 C 135.33259,939.50305 139.60741,939.93595 144.68696,941.26125 C 148.67906,942.30275 152.16656,942.93375 152.43696,942.66335 C 152.70736,942.39295 152.90504,939.88425 152.87627,937.08835 C 152.76977,926.74205 143.96187,910.76045 133.46333,901.86445 C 123.60876,893.51415 107.92348,886.48035 99.344633,886.56465 C 97.190813,886.58585 92.205263,886.30745 88.265643,885.94615 C 82.331323,885.40185 80.015723,885.66485 74.765643,887.47935 C 67.495753,889.99195 53.658173,896.78605 50.083223,899.59805 C 48.749833,900.64695 47.157063,901.51355 46.543733,901.52395 C 44.847873,901.55265 34.544333,914.32705 31.490643,920.18685 C 28.260663,926.38505 25.717293,939.63755 26.117903,948.18225 C 26.277193,951.57973 26.101243,954.66573 25.726913,955.04003 C 25.352573,955.41433 25.441203,956.45963 25.923863,957.36283 C 26.406523,958.26603 28.064463,962.38003 29.608173,966.50503 C 34.425603,979.37783 47.748633,990.59873 66.382153,997.47683 C 71.994693,999.54863 74.008123,1000.8982 76.646453,1004.3573 C 80.608283,1009.5516 80.675613,1011.237 77.320613,1021.2339 C 73.742013,1031.8972 71.516963,1035.9544 67.616023,1038.9298 C 65.783963,1040.3272 63.651453,1042.7158 62.877123,1044.2378 C 62.102783,1045.7597 60.447593,1048.3975 59.198913,1050.0994 C 57.950243,1051.8013 56.928593,1053.4948 56.928593,1053.8628 C 56.928593,1055.2119 64.168203,1051.4558 68.169983,1048.0304 z M 53.928593,958.59263 C 52.553593,958.11623 48.953593,956.38923 45.928593,954.75473 C 41.184983,952.19173 39.986683,950.90433 37.215293,945.39405 C 31.134363,933.30335 33.191503,925.10315 45.388823,912.81275 C 53.879273,904.25745 56.086673,903.05465 68.058573,900.46045 C 73.422853,899.29805 73.955613,899.37115 79.347353,902.00915 C 82.459693,903.53185 85.551203,905.54495 86.217373,906.48265 C 86.883543,907.42045 88.441093,908.72485 89.678593,909.38155 C 90.916093,910.03815 91.928593,911.40465 91.928593,912.41815 C 91.928593,913.43155 92.627263,915.93295 93.481203,917.97675 C 95.661833,923.19575 95.456993,932.01515 92.960443,940.39815 C 89.023093,953.61893 81.875693,958.57113 65.928593,959.12733 C 60.703593,959.30953 55.303593,959.06893 53.928593,958.59263 z M 78.021313,951.18433 C 81.679903,949.25783 82.803073,947.92945 84.633003,943.36485 C 88.312723,934.18595 88.740473,930.67905 86.996743,923.98555 C 85.249663,917.27925 83.116033,913.28865 82.303193,915.20715 C 78.252553,924.76725 66.051763,930.20575 57.998053,926.04095 C 56.440873,925.23575 53.946623,923.12675 52.455273,921.35435 C 50.296493,918.78885 49.405813,918.34235 48.086153,919.16415 C 46.098133,920.40215 43.124943,929.07055 42.300873,936.03125 C 41.754583,940.64575 41.981213,941.41305 45.067213,945.39715 C 49.356663,950.93503 55.529753,953.29793 66.021313,953.41813 C 72.143053,953.48823 74.467863,953.05543 78.021313,951.18433 z M 71.178093,920.85085 C 72.561523,919.99585 75.002083,914.50505 73.998683,914.50505 C 73.458983,914.50505 71.359633,915.63005 69.333453,917.00505 C 67.307283,918.38005 64.812293,919.50505 63.789043,919.50505 C 61.878573,919.50505 61.362293,920.60545 62.662643,921.90575 C 63.364833,922.60795 69.581053,921.83785 71.178093,920.85085 z M 78.532763,904.77585 C 77.516243,903.75935 76.677513,905.28975 77.511543,906.63925 C 78.141573,907.65865 78.377123,907.65945 78.715843,906.64325 C 78.947443,905.94855 78.865053,905.10815 78.532763,904.77585 z M -4.4292271,1002.755 C -3.2574671,1000.1425 -1.7189971,995.53003 -1.0103971,992.50503 C -0.30180714,989.48003 1.0410929,985.65503 1.9738229,984.00503 C 4.0411429,980.34793 5.0519729,974.32273 3.9085629,972.47263 C 3.2473529,971.40273 2.6314529,971.63493 1.0277129,973.55843 C -0.094207143,974.90403 -0.80494714,976.59273 -0.55170714,977.31093 C -0.29847714,978.02913 -0.76180714,980.22163 -1.5813371,982.18303 C -2.4008771,984.14443 -3.0714071,986.72933 -3.0714071,987.92713 C -3.0714071,989.12503 -3.5470371,990.58063 -4.1283571,991.16193 C -5.2041171,992.23773 -7.9709771,1002.5711 -8.0357871,1005.755 C -8.0989871,1008.8601 -6.6131471,1007.6242 -4.4292271,1002.755 z M 10.575783,1001.3152 L 15.722963,997.42043 L 16.408753,988.21273 C 16.785943,983.14853 17.732203,976.46503 18.511573,973.36073 C 20.204133,966.61883 20.403663,958.18003 18.858333,958.69513 C 16.774713,959.38963 7.7366729,985.73153 7.4295129,992.00503 C 7.3217929,994.20503 6.2542329,998.40073 5.0571529,1001.3288 C 2.6528529,1007.2098 2.7861529,1007.2095 10.575783,1001.3152 z M 27.319733,991.45153 C 29.928933,989.02503 28.766463,976.50503 25.931953,976.50503 C 24.866563,976.50503 23.396813,981.84113 22.540233,988.81913 C 21.971863,993.44923 22.034883,993.60743 24.188933,992.95673 C 25.420743,992.58463 26.829603,991.90733 27.319733,991.45153 z M 37.567823,990.00283 C 38.290263,988.12013 37.188433,983.50503 36.016533,983.50503 C 34.644923,983.50503 33.870733,986.42633 34.537893,989.08453 C 35.222403,991.81183 36.701613,992.26013 37.567823,990.00283 z M 177.27534,965.99383 C 167.40867,956.81033 148.54039,947.98285 135.88844,946.63095 C 127.9839,945.78635 126.92859,946.02475 126.92859,948.65513 C 126.92859,949.74593 125.86766,952.07093 124.57097,953.82173 C 121.6796,957.72573 118.92859,963.30853 118.92859,965.27213 C 118.92859,966.37843 119.71587,966.58343 122.17859,966.11843 C 123.96609,965.78093 130.15359,964.98673 135.92859,964.35353 C 144.75645,963.38563 148.02111,963.45783 156.42859,964.80663 C 169.6555,966.92863 174.07605,967.92043 176.45409,969.29933 C 177.54006,969.92903 179.25963,970.45793 180.27534,970.47463 C 181.61224,970.49663 180.78401,969.25963 177.27534,965.99383 z M 371.42859,890.37125 C 386.70284,889.17255 403.28226,886.66245 407.70985,884.87845 C 420.33213,879.79255 422.02696,878.87295 426.77252,874.53515 C 429.75498,871.80885 430.92859,869.94465 430.92859,867.93345 L 430.92859,865.13085 L 428.17859,867.67075 C 424.26334,871.28685 417.17382,875.78945 411.92859,877.99125 C 409.45359,879.03025 406.75126,880.44095 405.9234,881.12615 C 405.09555,881.81135 400.45932,883.51915 395.62067,884.92135 C 387.97619,887.13665 384.24149,887.54315 367.12586,888.02305 C 356.29236,888.32675 340.90359,888.22195 332.92859,887.79015 C 316.6436,886.90835 302.92859,887.23645 302.92859,888.50775 C 302.92859,890.35525 314.54062,891.29745 336.92859,891.26675 C 349.85359,891.24905 365.37859,890.84605 371.42859,890.37125 z M 89.338203,879.44255 C 89.873783,878.93805 89.119463,876.88075 87.503753,874.43925 L 84.759683,870.29265 L 82.039423,872.89885 C 80.543273,874.33225 78.781283,875.50505 78.123873,875.50505 C 76.285113,875.50505 76.707903,879.27395 78.678593,880.45005 C 80.542003,881.56215 87.817833,880.87445 89.338203,879.44255 z M 93.896793,872.75505 C 93.853023,871.72285 91.349213,868.50505 90.589793,868.50505 C 90.249713,868.50505 90.484053,869.63005 91.110543,871.00505 C 92.169573,873.32935 93.969073,874.45965 93.896793,872.75505 z M 389.71038,864.50505 C 390.91057,864.50505 391.03752,864.21395 390.20181,863.37825 C 388.82468,862.00115 383.57621,863.12585 384.48884,864.60255 C 384.84197,865.17395 385.79718,865.38575 386.61153,865.07325 C 387.42588,864.76075 388.82036,864.50505 389.71038,864.50505 z M 405.32647,856.83945 C 407.21431,854.25055 407.21166,854.22685 404.82647,852.36755 C 401.85892,850.05425 397.57601,850.31835 397.09664,852.84425 C 396.73076,854.77215 400.50135,859.52775 402.3529,859.47365 C 402.94453,859.45635 404.28263,858.27095 405.32647,856.83945 z M 237.16106,851.10245 C 242.13188,848.32725 247.69222,843.31765 250.58844,839.00505 C 255.31839,831.96185 253.45814,832.58115 245.59034,840.66905 C 240.95479,845.43415 235.75954,850.05825 234.04533,850.94465 C 232.33112,851.83115 230.92859,852.76985 230.92859,853.03075 C 230.92859,854.05495 233.04625,853.39975 237.16106,851.10245 z M 215.05175,840.10805 C 220.77692,836.25245 223.52415,832.99115 221.89493,831.98425 C 221.31462,831.62555 218.84485,833.17105 216.40655,835.41865 C 213.96825,837.66615 211.62147,839.50505 211.19148,839.50505 C 210.76149,839.50505 209.84762,840.40505 209.16066,841.50505 C 207.30968,844.46895 209.26456,844.00535 215.05175,840.10805 z M 263.74953,816.25505 C 267.03614,812.71517 265.41528,812.66459 261.73331,816.19214 C 260.19071,817.67004 258.94227,819.80755 258.959,820.94215 C 258.98916,822.98845 258.99828,822.98895 260.09285,821.00505 C 260.69974,819.90505 262.34524,817.76755 263.74953,816.25505 z M 374.4126,821.14045 C 376.14504,819.87365 375.99741,819.68515 372.35373,818.51203 C 361.61229,815.05374 350.20647,806.11606 344.90763,797.00505 C 343.62813,794.80505 342.45505,792.83817 342.30077,792.63421 C 342.14648,792.43026 339.45555,794.54926 336.32091,797.34312 C 330.15972,802.8345 327.20337,804.48032 317.24557,807.9625 L 310.77566,810.22498 L 315.10213,810.94664 C 317.48168,811.34355 321.90359,812.05286 324.92859,812.52289 C 327.95359,812.99292 334.70359,814.3311 339.92859,815.49662 C 345.15359,816.66214 352.57859,818.24019 356.42859,819.0034 C 360.27859,819.76665 365.00359,820.82065 366.92859,821.34565 C 371.8452,822.68675 372.31553,822.67385 374.4126,821.14045 z M 416.00555,807.62075 C 422.98914,805.90577 435.81649,800.26859 439.561,797.26893 C 443.86318,793.82254 448.26479,788.66089 451.04434,783.80275 C 454.92427,777.02132 456.076,767.90517 453.54152,764.03706 C 451.92132,761.56432 448.92859,760.54795 448.92859,762.47045 C 448.92859,763.931 436.81505,775.79953 431.82221,779.23083 C 429.40572,780.89155 424.72859,783.03418 421.42859,783.99224 C 418.12859,784.9503 413.17859,786.42939 410.42859,787.27911 C 404.11597,789.22965 387.08044,789.17168 373.81012,787.15451 C 364.56213,785.74876 362.5407,785.00905 355.01621,780.27719 L 351.60384,778.13128 L 352.34361,781.56817 C 352.75049,783.45845 353.3461,786.79166 353.6672,788.9753 C 354.34489,793.58398 355.92757,795.10677 365.1197,799.99441 C 382.54648,809.26059 399.17784,811.75316 416.00555,807.62075 z M 314.83249,792.86555 C 318.46035,790.86382 322.17662,788.57979 323.09089,787.78993 C 325.34622,785.84147 329.58372,772.76018 328.35696,771.53342 C 326.80696,769.98342 325.45621,771.54346 319.96675,781.22358 C 315.91428,788.36973 313.71019,791.12361 310.16238,793.47358 C 303.82699,797.66997 306.83488,797.27835 314.83249,792.86555 z M 298.51929,771.76241 C 297.82579,771.06892 295.92859,772.47796 295.92859,773.68651 C 295.92859,774.34961 296.50237,774.27374 297.45276,773.48499 C 298.29105,772.78927 298.77099,772.01411 298.51929,771.76241 z M 407.51707,770.12758 C 416.65118,768.16648 427.22331,762.05062 433.58363,755.04837 C 436.55946,751.77219 439.22492,747.94719 439.50688,746.54837 C 439.78883,745.14954 440.44967,742.37583 440.97539,740.38457 C 441.68519,737.69614 441.54476,735.66862 440.42993,732.50884 C 439.60419,730.16846 438.92859,725.80559 438.92859,722.81358 C 438.92859,712.15446 441.70052,710.6462 456.90687,713.03124 C 466.64119,714.55802 471.79835,715.93644 499.42859,724.39657 C 521.7945,731.2448 540.56179,731.22928 558.68761,724.34756 C 565.21249,721.87031 567.36513,720.53479 568.93973,717.98703 C 570.59744,715.30479 571.73173,714.65751 575.6807,714.14027 C 582.41554,713.25815 601.57749,719.79976 611.91404,726.50981 C 622.12549,733.13865 631.3392,739.44848 635.61537,742.7412 C 639.64563,745.84456 645.30647,747.6993 648.38768,746.92596 C 650.9979,746.27084 658.33471,735.41505 660.00056,729.74317 C 660.68901,727.39914 661.85445,724.98154 662.59044,724.37073 C 663.32642,723.75992 663.92859,722.86354 663.92859,722.37878 C 663.92859,721.89402 665.89969,717.33662 668.30881,712.25122 C 670.71794,707.16583 673.68056,699.85505 674.89242,696.00505 C 676.10428,692.15505 677.73318,687.52728 678.5122,685.72112 C 679.29121,683.91496 679.92859,681.76758 679.92859,680.94917 C 679.92859,680.13075 681.27859,676.48377 682.92859,672.84478 C 684.57859,669.20578 685.92859,665.58914 685.92859,664.8078 C 685.92859,664.02645 687.20495,659.4762 688.76496,654.69611 C 690.32496,649.91603 692.37073,643.30505 693.31112,640.00505 C 694.25151,636.70505 696.16611,631.08005 697.5658,627.50505 C 698.96548,623.93005 700.78777,619.20505 701.61533,617.00505 C 702.44289,614.80505 703.99751,611.03814 705.07004,608.63413 C 706.14256,606.23013 706.78047,604.02359 706.48759,603.73072 C 706.19472,603.43785 706.82092,601.7973 707.87914,600.08506 C 708.93737,598.37281 710.99899,593.65686 712.46051,589.60516 C 716.20677,579.21968 723.53045,563.71582 726.57663,559.72207 C 728.36224,557.38102 729.23119,554.87778 729.41026,551.55912 C 729.58495,548.32152 731.32857,543.15585 734.79855,535.59571 C 737.62007,529.4484 739.92859,524.00023 739.92859,523.48867 C 739.92859,522.97711 740.91346,520.53139 742.1172,518.05374 C 743.32093,515.57609 744.0778,513.32093 743.79914,513.04227 C 743.10535,512.34848 715.04975,528.24397 706.4794,534.18656 C 697.42816,540.46259 686.92859,551.17698 686.92859,554.13737 C 686.92859,555.37468 686.54393,556.62475 686.07378,556.91532 C 685.60363,557.20588 684.19676,560.24712 682.9474,563.67362 C 681.04876,568.88083 674.62188,579.56499 666.20587,591.50505 C 665.2367,592.88005 662.90387,596.25505 661.02182,599.00505 C 659.13977,601.75505 657.2822,604.1356 656.8939,604.29517 C 656.50559,604.45473 652.86705,607.82973 648.80824,611.79517 C 640.5891,619.82523 629.377,629.81114 625.78042,632.30458 C 624.48691,633.20135 622.55624,634.73832 621.49003,635.72006 C 620.42382,636.7018 618.97715,637.50505 618.27521,637.50505 C 617.57327,637.50505 616.51729,638.40505 615.92859,639.50505 C 615.33989,640.60505 614.42559,641.50505 613.89681,641.50505 C 612.87684,641.50505 604.03363,647.52028 595.88478,653.75699 C 593.18854,655.82055 589.28289,658.48472 587.20556,659.67736 C 575.83453,666.20572 563.49871,672.54267 556.42859,675.4876 C 552.02859,677.32034 543.92859,680.82774 538.42859,683.28182 C 527.62848,688.10079 511.08855,694.00921 505.42329,695.07202 C 503.48906,695.43489 501.65991,696.13076 501.35853,696.61841 C 500.03391,698.7617 485.92859,696.74033 485.92859,694.40722 C 485.92859,692.90338 483.0236,693.37651 475.54958,696.09766 C 461.17838,701.32993 446.88416,697.41871 435.10294,685.03057 C 431.67747,681.42863 428.85888,677.46414 428.47235,675.7043 C 427.35414,670.6131 425.78131,670.04231 419.42438,672.42074 C 411.82129,675.26542 405.92859,678.35001 405.92859,679.48523 C 405.92859,681.85543 398.20397,682.7426 387.07205,681.65089 C 380.9543,681.05092 375.15681,680.82084 374.18873,681.13961 C 369.47632,682.69128 365.87268,684.76067 364.21651,686.86614 C 363.21226,688.14285 361.38664,689.72472 360.15959,690.38142 C 357.52173,691.79316 357.29715,694.14983 359.56199,696.65246 C 361.07798,698.32761 361.04204,698.81384 359.06199,703.41658 C 357.88862,706.14416 356.92859,709.44874 356.92859,710.7601 C 356.92859,715.16882 348.51629,720.36148 341.21252,720.46116 C 333.38506,720.56799 327.22958,714.0298 321.01231,699.00505 C 319.19158,694.60505 317.36668,690.55505 316.95697,690.00505 C 316.54725,689.45505 315.52526,686.94001 314.68587,684.41607 C 312.98778,679.3101 308.79453,674.50505 306.03677,674.50505 C 304.29874,674.50505 302.56109,675.21656 292.97802,679.85218 C 286.49883,682.98635 278.62133,691.56344 274.59531,699.86741 C 267.06056,715.40839 268.53639,718.90506 288.02366,731.6831 C 298.00118,738.22548 324.24764,750.51454 328.23118,750.50897 C 332.73499,750.50267 344.97057,753.56418 350.91322,756.18432 C 354.3144,757.68392 358.18488,760.5362 361.10217,763.69287 C 364.66542,767.54852 366.97344,769.09695 370.61754,770.07664 C 376.9227,771.77174 399.71265,771.80321 407.51707,770.12758 z M 277.35947,761.75505 C 280.88534,758.03769 283.55828,752.33292 282.54348,750.69095 C 282.25346,750.22169 280.18254,748.56704 277.94144,747.01395 L 273.8667,744.19016 L 271.14765,746.72542 C 267.658,749.97918 265.89488,750.79443 257.67859,752.95344 C 253.96609,753.92898 250.92859,755.07176 250.92859,755.49295 C 250.92859,756.42321 260.19613,760.50505 262.30821,760.50505 C 263.13808,760.50505 265.07966,761.61583 266.62283,762.97345 C 270.55597,766.43368 273.20721,766.13281 277.35947,761.75505 z M 251.41846,742.15615 C 256.09864,741.19592 257.67475,740.39282 258.62682,738.48316 C 259.29699,737.13894 260.64477,735.45453 261.62189,734.74004 C 263.30137,733.51198 263.25561,733.1831 260.78466,728.72301 C 253.19671,715.0267 252.28252,705.01611 257.4315,692.00505 C 260.20575,684.99473 267.57071,672.50505 268.93033,672.50505 C 269.32812,672.50505 271.40296,671.10873 273.54109,669.40212 C 278.1623,665.71356 288.73648,660.24019 294.67859,658.46101 C 297.01609,657.76111 298.92859,656.5847 298.92859,655.84676 C 298.92859,655.10882 298.58752,654.50505 298.17065,654.50505 C 296.69631,654.50505 289.03825,641.94496 287.94849,637.73954 C 286.56821,632.41305 287.61705,628.27167 291.93613,621.99409 C 294.13081,618.80424 294.82368,617.00014 294.12314,616.2996 C 293.05057,615.22703 292.9002,615.28774 281.57704,621.36464 C 274.70113,625.05481 266.83638,625.56011 257.86009,622.88843 C 253.78569,621.67574 249.93002,621.39807 242.42859,621.77712 C 214.96058,623.16508 195.46897,635.35036 184.43119,658.03448 C 177.5288,672.2198 179.50297,694.80935 188.71086,707.00505 C 190.78714,709.75505 193.46024,713.58005 194.65108,715.50505 C 198.32088,721.4373 208.24694,730.42584 219.08086,737.62744 L 229.42859,744.50586 L 237.42859,743.94547 C 241.82859,743.63726 248.12403,742.83206 251.41846,742.15615 z M 610.84526,741.11456 C 610.61609,740.89979 607.05359,737.9742 602.92859,734.61324 C 594.46872,727.72032 590.72927,725.67543 585.85956,725.27915 C 582.7398,725.02528 582.39312,725.29834 581.16241,728.97878 C 580.43158,731.16433 579.10775,733.75459 578.22057,734.73491 C 577.33339,735.71523 576.8329,736.74269 577.10836,737.01815 C 577.60296,737.51276 595.67195,740.11641 603.42859,740.81077 C 605.62859,741.00771 608.29109,741.24449 609.34526,741.33695 C 610.39942,741.4294 611.07442,741.32933 610.84526,741.11456 z M 343.52074,683.55208 C 345.77142,682.56488 348.65568,680.29269 349.93021,678.50277 C 353.42617,673.59315 361.73001,670.18188 370.38845,670.09841 C 374.26053,670.06108 380.00821,670.42334 383.16109,670.90342 C 388.54987,671.72396 389.32933,671.56523 396.16109,668.25597 C 405.12585,663.9135 416.86043,659.66099 423.20875,658.45413 C 426.73061,657.78459 428.9681,657.91212 431.70875,658.9386 C 438.47475,661.47272 444.47914,661.65302 449.97415,659.48709 C 453.09883,658.25546 457.35489,657.50938 461.21561,657.5165 C 471.20914,657.53491 492.36325,655.26381 493.16478,654.08644 C 494.35308,652.34096 493.17396,635.45813 491.47211,629.85043 C 489.30753,622.71803 480.51678,610.75306 474.88899,607.27938 C 469.98506,604.25249 451.47174,600.01475 448.22103,601.17502 C 447.23519,601.52689 445.46951,602.9691 444.29731,604.37991 C 441.82013,607.36134 437.58544,607.68817 426.92859,605.72038 C 423.35359,605.06026 417.92937,604.51676 414.87476,604.5126 C 409.82274,604.50573 409.00954,604.18272 405.87476,600.93771 C 403.97937,598.97567 398.81278,595.60067 394.39345,593.43771 C 387.13912,589.88721 385.60292,589.50505 378.58481,589.50505 C 371.33912,589.50505 370.54149,589.28821 366.8373,586.31145 C 364.43294,584.37925 361.63165,580.61602 359.74503,576.78375 C 356.76426,570.72895 356.68657,570.26345 357.9832,566.22735 C 361.07532,556.60229 363.9176,551.8426 370.3404,545.53394 C 373.9639,541.97483 376.92859,538.21929 376.92859,537.18831 C 376.92859,536.15732 376.10182,534.11932 375.09132,532.65942 C 374.08081,531.19952 372.96994,529.21755 372.6227,528.25505 C 371.87402,526.17979 365.4927,525.83527 361.49983,527.65454 C 359.15446,528.72316 358.98483,529.26841 359.08867,535.40454 C 359.24391,544.57774 354.70916,556.82003 347.93894,565.50505 C 346.43835,567.43005 344.89534,570.72671 344.51004,572.83096 C 343.50214,578.33533 340.1155,579.47362 323.66308,579.83784 C 311.77603,580.10099 309.8305,580.4044 304.55416,582.81793 C 301.32322,584.29585 297.85571,585.50505 296.84857,585.50505 C 295.0408,585.50505 291.75187,587.47792 284.92477,592.65757 C 281.37749,595.34885 275.87283,597.2819 270.42859,597.74814 C 267.98001,597.95783 267.37062,598.50851 267.11322,600.74413 C 266.77632,603.67023 263.62351,606.50505 260.70608,606.50505 C 257.81752,606.50505 258.63778,607.80548 263.68052,611.22067 C 269.03335,614.84586 269.53735,614.81587 282.42859,610.10517 C 290.7953,607.04781 294.0543,606.92506 299.63191,609.45722 C 302.88323,610.93327 304.03422,612.11736 304.7138,614.68526 C 305.85922,619.01341 304.43511,624.27035 301.18297,627.71889 C 299.09969,629.92798 298.85117,630.70684 299.84677,631.90647 C 300.66449,632.89176 300.84265,634.89532 300.38432,637.95171 C 299.91974,641.04971 300.10237,643.00952 300.95091,644.03194 C 302.05544,645.36283 302.62891,645.28339 305.81582,643.35803 C 314.10963,638.34737 316.82586,637.38198 319.19022,638.60459 C 320.42132,639.24119 322.14919,640.38842 323.02992,641.15399 C 323.91065,641.91956 326.61065,643.11647 329.02992,643.81379 C 332.63274,644.85226 333.48428,645.5561 333.73638,647.70391 C 334.00548,649.99648 333.28958,650.72836 328.04221,653.52517 C 324.74113,655.28463 321.28555,657.55812 320.36314,658.57737 C 317.89044,661.30967 319.22668,663.50505 323.36241,663.50505 C 325.84748,663.50505 327.88156,664.40287 330.39379,666.60864 C 334.67925,670.37132 334.94981,673.53793 331.42859,678.71986 C 330.05359,680.74336 328.92859,683.06482 328.92859,683.87867 C 328.92859,686.92169 336.21008,686.75872 343.52074,683.55208 z M 473.24933,681.4877 C 478.09584,679.99077 480.96066,678.3236 484.35466,675.02501 C 489.4725,670.05103 489.86138,668.98224 486.84068,668.19231 C 483.43705,667.30224 466.86515,668.71135 465.57606,670.00044 C 462.79675,672.77975 459.13425,673.81407 452.28405,673.75422 C 448.32789,673.71966 444.15448,673.39413 443.00981,673.03083 C 441.86514,672.66752 440.92859,672.61633 440.92859,672.91707 C 440.92859,674.04893 450.24377,682.03204 452.29184,682.65537 C 456.78287,684.02222 466.86161,683.46067 473.24933,681.4877 z M 514.13006,671.58215 C 518.14425,670.05023 524.35359,668.53325 527.92859,668.21108 C 534.49617,667.61923 542.70329,664.50166 550.42859,659.6642 C 552.62859,658.2866 556.90359,655.92907 559.92859,654.42525 C 567.63626,650.59352 607.5473,623.66926 620.22212,613.75081 C 635.19227,602.03621 653.59024,581.72526 662.46133,567.11968 C 664.09332,564.43273 666.20904,561.05773 667.16293,559.61968 C 668.11682,558.18163 670.17897,554.53005 671.74549,551.50505 C 677.13965,541.08876 679.44371,537.5432 684.6872,531.58991 C 690.69429,524.76965 702.19499,515.13779 709.18378,511.07396 C 711.79913,509.55319 714.27413,507.77367 714.68378,507.11947 C 715.09342,506.46527 718.89911,503.78802 723.14085,501.17001 C 733.54434,494.74899 738.37639,490.56154 744.49607,482.66361 C 751.09931,474.1416 753.83242,468.70277 754.49885,462.75825 C 755.11206,457.28841 756.88886,450.53936 758.16416,448.83578 C 758.64559,448.19268 759.00265,444.81768 758.95764,441.33578 C 758.91262,437.85388 759.10929,428.13333 759.39468,419.73457 C 759.90018,404.85783 759.84748,404.32926 757.35062,399.23457 C 755.941,396.35833 753.89929,391.67525 752.81348,388.82772 C 751.72766,385.98019 748.31782,380.58019 745.23604,376.82772 C 742.15426,373.07525 739.01322,368.53034 738.25594,366.72792 C 737.49867,364.9255 735.02469,362.2255 732.75821,360.72792 C 730.49174,359.23034 727.45969,356.8343 726.02032,355.40339 C 724.58096,353.97247 721.92944,352.58541 720.12806,352.32102 C 717.12744,351.88062 716.54825,352.26646 713.22048,356.92268 C 705.40475,367.85842 697.50486,373.85534 686.86268,376.93123 C 677.92893,379.51334 670.2857,377.53658 660.66994,370.15704 C 658.05268,368.14845 655.35268,366.50585 654.66994,366.50684 C 653.9872,366.50782 652.08935,368.64532 650.45251,371.25684 C 646.75832,377.15077 646.15992,377.91318 642.39305,381.52528 C 637.71265,386.01338 624.66542,396.30141 622.42859,397.2677 C 621.32859,397.7429 617.50359,399.5784 613.92859,401.3466 C 610.35359,403.1148 606.65636,404.54881 605.71252,404.53328 C 604.76868,404.51775 602.51868,405.128 600.71252,405.88938 C 595.46744,408.10042 588.33658,409.50505 582.35687,409.50505 C 579.30821,409.50505 573.73867,410.0129 569.98013,410.63361 C 564.18345,411.59092 562.48492,412.36961 558.7875,415.76493 C 556.3901,417.96645 552.77975,420.81483 550.76451,422.09467 C 546.18827,425.00096 535.92859,435.09604 535.92859,436.69258 C 535.92859,437.34598 533.97187,440.38359 531.58033,443.44281 C 526.24534,450.26725 525.74477,451.20654 522.51273,460.45732 C 515.6413,480.12486 515.22572,493.90423 520.478,527.92158 C 521.09562,531.92173 521.38331,532.02951 524.85143,529.55999 C 530.78028,525.33828 547.26628,518.25081 563.28529,513.03696 C 581.90463,506.97676 587.31264,504.46851 591.15795,500.10957 C 594.36104,496.47863 594.61882,494.26873 592.12797,491.79401 C 586.56603,486.26808 584.50937,478.61603 586.13732,469.50505 C 587.30525,462.96862 588.84209,456.76908 589.97972,454.00505 C 590.43246,452.90505 591.10058,450.94817 591.46443,449.65643 C 593.38855,442.82535 598.44365,434.39827 604.16817,428.47874 C 612.78979,419.56341 615.15663,417.66731 625.02934,411.76665 C 645.10024,399.77079 663.48173,393.47561 673.70362,395.09697 C 678.61056,395.8753 679.42859,396.31182 679.42859,398.15199 C 679.42859,401.69235 666.39219,410.59236 654.12235,415.42868 C 651.42457,416.49204 646.33983,419.16527 642.82294,421.36919 C 639.30605,423.5731 634.40359,426.62697 631.92859,428.15556 C 626.32339,431.6174 616.92859,440.35108 616.92859,442.09998 C 616.92859,442.81762 615.65101,445.33985 614.08952,447.70492 C 612.52803,450.06999 609.54427,455.83005 607.45895,460.50505 C 605.37362,465.18005 602.56238,471.16228 601.21174,473.7989 C 598.91425,478.28389 598.85823,478.74873 600.34231,481.01372 C 601.21476,482.34525 601.94834,485.13802 601.97248,487.21987 C 601.99662,489.30172 602.66485,492.80505 603.45743,495.00505 C 605.09665,499.55512 605.41287,509.62077 603.96218,511.07146 C 603.43065,511.60299 602.35528,515.09336 601.57247,518.82784 C 600.78966,522.56232 599.98704,525.70645 599.78888,525.8148 C 599.59072,525.92316 598.07859,526.95041 596.42859,528.09759 C 591.94858,531.21236 587.16631,533.17807 579.92859,534.87976 C 567.00985,537.91715 558.52491,540.65153 553.02948,543.54835 C 549.94899,545.17218 547.01771,546.50173 546.51553,546.50291 C 546.01334,546.50408 541.43071,548.99442 536.3319,552.03699 C 530.34635,555.6087 525.57163,559.34822 522.85727,562.59023 C 517.11751,569.44574 503.25884,580.08012 494.75113,584.15734 C 486.51385,588.10494 476.57056,591.50505 473.26343,591.50505 C 469.78313,591.50505 470.43613,593.21317 474.75967,595.41888 C 476.86677,596.49384 479.73021,598.86548 481.12288,600.6892 C 482.51554,602.51292 485.95868,606.48005 488.77428,609.50505 C 491.58989,612.53005 493.90145,615.33403 493.91108,615.73611 C 493.92071,616.13819 496.34893,621.40319 499.30712,627.43611 C 502.8382,634.63738 504.92394,640.31227 505.37939,643.95758 C 506.13861,650.03412 504.57515,662.79354 502.33839,668.77529 C 500.14288,674.64675 500.42168,675.7753 503.88006,675.01571 C 505.50337,674.65917 510.11587,673.11407 514.13006,671.58215 z M 249.35716,595.93362 C 250.22145,595.06934 250.92859,593.91431 250.92859,593.3669 C 250.92859,592.81949 252.05155,590.89933 253.42405,589.09988 C 256.19555,585.46626 260.26288,583.91512 269.34955,583.02646 C 276.07501,582.36871 280.53777,580.59213 290.16659,574.73941 C 300.63818,568.37441 306.96962,566.50505 318.05601,566.50505 L 327.55027,566.50505 L 331.73943,561.97828 C 334.04347,559.48855 335.92859,557.0803 335.92859,556.62659 C 335.92859,556.17289 337.22838,554.44157 338.81701,552.77922 C 343.38146,548.00296 344.88017,535.69852 342.35655,523.71953 C 341.64195,520.32753 339.67027,518.75532 334.45212,517.41657 C 332.78918,516.98993 329.62859,515.95506 327.42859,515.11685 C 321.44753,512.83805 308.21349,513.02535 302.5115,515.46951 C 299.9909,516.54997 297.92859,517.81829 297.92859,518.28801 C 297.92859,519.94941 301.12167,530.01714 301.91202,530.84769 C 302.35304,531.31114 303.66218,531.18281 304.82123,530.56251 C 306.34789,529.74546 306.92859,528.47064 306.92859,525.93614 C 306.92859,523.01527 307.49175,522.10533 310.33929,520.42524 C 312.21517,519.31844 314.00105,517.75862 314.3079,516.95896 C 315.05485,515.01245 316.84155,515.11466 317.62203,517.14855 C 318.05118,518.26689 317.16447,519.68021 314.84704,521.57161 C 312.97393,523.10037 311.73746,524.64725 312.09934,525.00913 C 312.99003,525.89983 317.12261,523.61881 318.73529,521.34635 C 320.16668,519.32935 323.42828,518.88651 324.46753,520.56806 C 324.82887,521.15272 324.40543,522.42565 323.52655,523.3968 C 321.22573,525.93919 321.53721,527.29643 324.88933,529.33498 C 329.05769,531.86991 332.01805,535.95701 333.06686,540.62495 C 334.96044,549.05264 328.03909,556.2313 317.06005,557.22685 C 311.8168,557.70229 310.49039,557.43829 306.56534,555.13806 C 304.09425,553.6899 300.90543,552.50505 299.47908,552.50505 C 298.05273,552.50505 295.01189,551.26755 292.72167,549.75505 C 289.13116,547.38382 287.5846,547.01382 281.49311,547.06874 C 275.53958,547.12242 273.09186,547.73271 265.92859,550.94944 C 261.25359,553.04879 254.84371,555.66969 251.68442,556.77366 C 246.53212,558.57406 245.56447,558.63786 242.29334,557.39285 C 238.58358,555.98091 235.94501,553.15529 237.18158,551.91873 C 237.55682,551.54349 239.41766,551.06524 241.31677,550.85596 C 243.21589,550.64668 250.25827,547.72546 256.9665,544.36435 C 268.7462,538.46222 269.4414,538.249 277.29594,538.12915 C 284.6211,538.01737 286.06501,538.32774 291.83831,541.25505 C 295.36366,543.04255 298.40116,544.50505 298.58831,544.50505 C 299.92823,544.50505 298.535,540.29364 297.00625,539.72283 C 294.76209,538.88489 289.11604,531.74217 286.16285,526.00505 C 283.21336,520.2751 278.16884,515.99385 272.60655,514.49991 C 266.44913,512.84613 263.39605,512.96765 258.42859,515.06425 C 256.22859,515.9928 250.20169,518.26553 245.03549,520.11476 C 236.90937,523.02349 235.30893,523.31029 233.17024,522.24103 C 230.69184,521.00192 227.53382,514.14472 228.3775,511.83427 C 228.79904,510.67988 239.06205,503.30618 243.92859,500.66122 C 245.79795,499.64523 248.82961,499.46168 255.94669,499.93358 C 263.49776,500.43425 265.87437,500.26111 267.44669,499.09577 C 269.13687,497.84307 269.2446,497.32551 268.17859,495.57952 C 264.58735,489.69755 270.14913,488.30551 274.49204,493.99934 C 277.1707,497.51125 277.30162,499.21005 275.36993,505.39088 C 274.55527,507.99753 273.82511,507.95515 283.94747,505.88878 C 294.02516,503.83153 291.99048,489.99079 281.08108,486.39036 C 279.14639,485.75185 275.53251,483.94145 273.05024,482.36725 C 269.28238,479.97774 267.4546,479.50138 261.98281,479.48281 C 257.02119,479.46598 254.82112,478.98541 252.92859,477.50505 C 249.55229,474.86407 247.7687,475.00194 240.513,478.46476 C 233.54841,481.78866 230.95193,484.21457 229.4544,488.79689 C 228.04904,493.09719 222.71811,496.50505 217.3965,496.50505 C 214.46113,496.50505 210.74464,497.7158 205.29439,500.44764 C 193.00688,506.60653 187.19637,514.03069 189.09294,521.14843 C 190.07435,524.83162 191.1197,525.33276 200.19936,526.47284 C 208.23004,527.48121 221.55413,534.38995 223.04851,538.32047 C 224.00978,540.8488 223.37297,544.85147 221.50771,548.00505 C 219.52183,551.36257 217.71845,557.97367 218.08332,560.55875 C 218.40459,562.83497 218.9337,563.04434 225.69378,563.57024 C 229.68963,563.88109 233.49213,564.66859 234.14378,565.32024 C 236.31164,567.4881 243.00761,566.59329 251.32088,563.02478 C 269.63532,555.16322 282.85124,555.56352 292.13566,564.26103 C 294.28298,566.27261 294.63756,567.18034 293.85047,568.65101 C 292.46284,571.24384 288.62272,570.96 285.11096,568.00505 C 281.16636,564.68589 273.34474,564.65256 261.88536,567.90607 C 257.23414,569.22663 250.83319,570.61 247.66103,570.98022 C 242.30461,571.60537 241.79313,571.89348 240.48597,575.02197 C 239.71184,576.87472 237.91974,580.09581 236.50353,582.17996 C 231.73408,589.19883 234.05937,595.25399 242.01858,596.5414 C 244.44409,596.93372 246.73395,597.31104 247.10716,597.37988 C 247.48038,597.44873 248.49288,596.79791 249.35716,595.93362 z M 374.91494,569.75505 C 374.87915,562.54803 372.60725,560.73378 370.08925,565.90144 C 368.91855,568.30405 368.96954,568.89282 370.49424,570.57759 C 373.00995,573.35742 374.93105,572.99997 374.91494,569.75505 z M 469.4666,561.01304 C 476.04569,560.19243 483.90359,559.50149 486.92859,559.4776 C 493.56558,559.4252 495.08304,558.59089 501.42934,551.50505 C 504.13862,548.48005 507.47133,544.76458 508.83535,543.24846 C 512.08934,539.63163 510.65796,537.81617 505.77794,539.37064 C 497.30029,542.07109 486.88455,543.78347 476.13351,544.24427 C 450.62076,545.33778 433.46404,545.00987 419.92859,543.17004 C 397.86809,540.17143 393.62878,540.00016 390.59936,541.98511 C 387.44132,544.05434 383.53471,550.05873 384.41732,551.48681 C 384.76344,552.04684 385.64069,552.50505 386.36676,552.50505 C 387.09284,552.50505 390.17391,553.64364 393.21358,555.03525 C 400.99048,558.59563 408.98567,560.5513 419.42859,561.44759 C 434.77889,562.76508 456.96458,562.57241 469.4666,561.01304 z M 322.25551,547.25505 L 325.42859,544.00505 L 321.17859,543.69755 C 317.64816,543.44212 316.92859,543.04001 316.92859,541.32255 C 316.92859,539.52744 316.50453,539.33986 313.70984,539.8988 C 309.49823,540.74112 308.53995,541.82044 309.30331,544.86191 C 310.91972,551.3022 317.17562,552.45809 322.25551,547.25505 z M 357.12937,515.43893 C 360.04394,514.85257 362.92893,514.21554 363.54047,514.02332 C 364.26579,513.79533 363.5142,510.23584 361.37861,503.78485 C 355.90737,487.2579 354.60829,466.1299 358.31785,454.00505 C 358.77945,452.4963 357.45172,450.4085 352.9123,445.50505 C 343.12009,434.92757 332.92859,414.93395 332.92859,406.30114 C 332.92859,404.98329 332.51067,403.47755 331.99989,402.95505 C 331.4891,402.43255 330.9266,400.43005 330.74989,398.50505 L 330.42859,395.00505 L 327.42859,400.00079 C 322.58541,408.06589 322.08644,410.75931 323.63793,420.46245 C 325.3391,431.10165 326.71688,435.62373 331.74705,447.07778 C 336.88981,458.78822 337.70106,465.81401 335.44185,479.07657 C 334.17539,486.51128 333.03242,490.04288 330.84258,493.2876 C 329.23989,495.66234 327.92859,497.97995 327.92859,498.43783 C 327.92859,498.89572 330.29109,500.43157 333.17859,501.85083 C 336.06609,503.2701 341.35359,507.12667 344.92859,510.421 C 348.50359,513.71533 351.51894,516.43192 351.62937,516.45787 C 351.7398,516.48382 354.2148,516.0253 357.12937,515.43893 z M 469.42859,512.14842 C 474.37859,511.72533 481.57859,510.70029 485.42859,509.87055 C 495.49916,507.70016 504.15388,505.6162 504.45921,505.28818 C 504.60417,505.13246 504.88158,499.59146 505.07568,492.97485 L 505.42859,480.94465 L 499.04617,485.22485 C 495.53584,487.57896 492.22885,489.50505 491.6973,489.50505 C 491.16575,489.50505 489.31284,490.14296 487.57972,490.92262 C 481.58281,493.62039 471.40779,496.87663 466.42859,497.69146 C 455.03885,499.55536 445.77568,500.32108 438.81392,499.97416 C 434.75199,499.77174 426.47859,499.36354 420.42859,499.06706 C 414.37859,498.77057 407.17859,498.03251 404.42859,497.42693 C 389.58703,494.15865 381.9051,491.97625 377.2931,489.71789 C 370.57848,486.42994 368.76033,487.05639 370.12125,492.18897 C 370.67776,494.28782 371.3577,497.67531 371.63222,499.71675 C 371.90674,501.75818 372.64823,503.83073 373.27997,504.32242 C 376.88256,507.12633 402.5267,511.37612 420.42859,512.13597 C 428.67859,512.48614 435.51128,512.83263 435.61234,512.90594 C 436.24129,513.36215 461.97196,512.78576 469.42859,512.14842 z M 297.44898,480.26311 C 296.56932,476.82118 294.59355,472.43005 293.05839,470.50505 C 291.52323,468.58005 288.56644,464.75505 286.48774,462.00505 C 282.26282,456.41571 277.99924,452.60395 273.22825,450.15068 C 269.16469,448.06118 267.92859,448.07489 267.92859,450.20948 C 267.92859,453.17347 274.06912,473.95719 275.27469,475.07368 C 275.90934,475.66143 279.05319,476.93362 282.26104,477.90077 C 288.85149,479.88776 295.60772,485.30565 296.57998,489.38327 C 297.64501,493.85 298.41542,494.16403 298.73847,490.26311 C 298.90891,488.20504 298.32864,483.70504 297.44898,480.26311 z M 219.53257,478.79635 C 232.93235,466.2633 237.11044,462.87855 241.67859,460.8554 C 244.56609,459.57658 246.9111,458.1871 246.88973,457.76766 C 246.86836,457.34822 245.61092,453.40737 244.09542,449.01021 C 241.09924,440.3169 239.56737,439.09706 236.19583,442.71968 C 227.33563,452.23972 222.965,455.6983 216.24811,458.50483 C 212.29884,460.15495 207.68634,461.50505 205.99811,461.50505 C 197.9938,461.50505 196.42684,471.41298 203.26997,478.75505 C 205.45493,481.09932 206.63006,481.50505 211.23482,481.50505 C 215.72821,481.50505 217.12353,481.04956 219.53257,478.79635 z M 448.92859,455.15143 C 455.69015,453.44602 470.52895,449.02952 473.95614,447.70243 C 476.22777,446.8228 487.79745,439.08137 501.42859,429.32024 C 504.17859,427.35099 508.67859,424.53911 511.42859,423.07162 C 514.17859,421.60414 519.12859,418.64301 522.42859,416.49134 C 540.93927,404.42201 550.05323,400.27765 564.92859,397.16545 C 583.83815,393.20921 588.04405,392.06839 597.1801,388.4174 C 621.15109,378.83799 634.64537,367.75433 642.77579,350.96692 C 644.96869,346.43911 647.59459,342.1204 648.61113,341.36979 C 650.63808,339.8731 652.92859,335.33083 652.92859,332.80791 C 652.92859,330.11635 658.23456,320.51074 661.6915,316.94408 C 663.51765,315.05996 666.71005,313.12129 668.9415,312.54132 C 671.1344,311.97137 674.6683,311.05505 676.79461,310.50505 C 678.92092,309.95505 681.98092,309.50505 683.59461,309.50505 C 689.26624,309.50505 690.44093,305.17817 686.92634,297.23286 C 685.1285,293.16855 685.02025,291.77691 685.86603,283.60187 C 686.57456,276.75341 687.50436,273.21186 689.61828,269.3098 C 693.55881,262.03602 701.06295,254.75807 705.47586,253.9302 C 707.56884,253.53756 710.72905,251.66976 713.20198,249.3638 C 719.035,243.92458 724.06488,241.81214 733.97674,240.63883 C 746.77232,239.12415 753.74878,241.03589 756.42815,246.79112 C 757.2511,248.55878 758.82857,251.35505 759.93364,253.00505 C 761.03871,254.65505 763.09553,258.36295 764.50436,261.24483 L 767.06585,266.48462 L 765.34178,273.74483 C 763.04853,283.40189 760.69949,287.86549 756.56617,290.42002 C 753.90908,292.06219 752.58687,292.32563 750.66641,291.59547 C 747.53944,290.4066 743.93537,285.88788 743.90663,283.12019 C 743.87532,280.10478 740.59003,273.34223 738.06511,271.0958 C 734.58531,267.99981 727.19476,267.29458 722.42859,269.60371 C 716.39176,272.52847 715.15615,273.77515 714.42349,277.68054 L 713.75258,281.25679 L 720.59202,283.3342 C 727.42898,285.41086 732.36573,289.30697 735.67971,295.24148 C 738.9984,301.18442 734.84258,314.20632 727.93868,319.49732 C 726.28313,320.76609 724.92859,322.33559 724.92859,322.9851 C 724.92859,324.13802 717.67579,329.83172 713.20957,332.18495 C 709.1225,334.3384 700.20806,332.64576 691.95284,328.14882 C 685.89812,324.85057 683.47808,324.07648 679.22153,324.07648 C 674.58405,324.07648 673.54316,324.48389 670.3707,327.54076 C 666.33553,331.42892 662.64331,338.59804 663.5112,340.85974 C 663.82547,341.6787 663.60406,343.24292 663.01919,344.33576 C 662.18441,345.89557 662.50663,347.52598 664.51795,351.91927 C 667.33623,358.0752 668.43158,358.93699 675.43148,360.5057 C 679.24646,361.36065 681.29357,361.25016 685.77494,359.94739 C 694.67549,357.35993 700.51688,352.19596 708.2699,340.06117 C 713.51047,331.85881 728.26923,324.78912 743.04503,323.40332 C 756.37487,322.15314 763.11243,317.53187 768.41077,306.00505 C 773.69973,294.49862 776.09962,278.90723 773.87507,270.50505 C 773.21979,268.03005 772.58302,264.20505 772.46004,262.00505 C 771.93097,252.54093 768.34279,245.19972 760.36356,237.25641 C 753.00783,229.93378 738.72372,228.58504 727.92859,234.19381 C 726.55359,234.90822 724.66226,235.4955 723.72564,235.49889 C 722.11483,235.50472 720.50442,236.06101 713.42859,239.05587 C 707.95034,241.37455 697.62852,244.50527 695.51343,244.48974 C 692.80726,244.46986 692.33715,244.08703 686.53688,237.17968 C 683.84643,233.97573 681.34214,229.92573 680.97179,228.17968 C 680.2294,224.67966 682.2528,215.29286 684.50467,211.79023 C 685.28782,210.57208 685.92859,209.09037 685.92859,208.49753 C 685.92859,206.3823 693.9304,196.63532 697.95763,193.84499 L 702.05647,191.00505 L 701.44859,178.00505 C 700.75208,163.10982 699.62464,155.89709 696.99367,149.50505 C 695.97495,147.03005 694.32308,142.98005 693.32284,140.50505 C 691.62535,136.30478 688.99355,132.31607 678.10526,117.44158 C 675.72743,114.19322 671.50271,109.84113 668.717,107.77026 C 665.93128,105.6994 662.47678,102.75188 661.04033,101.22022 C 650.13423,89.591309 637.24289,77.990429 627.48793,71.026509 C 621.15264,66.503849 611.64336,58.798839 606.35619,53.904269 C 596.53615,44.813422 589.1662,39.505052 586.36482,39.505052 C 585.5015,39.505052 583.3202,38.380052 581.51748,37.005052 C 579.60647,35.547452 576.91148,34.505052 575.05407,34.505052 C 572.12144,34.505052 562.15645,31.007832 557.44342,28.324582 C 556.35157,27.702962 551.85157,26.572882 547.44342,25.813292 C 537.69633,24.133722 533.79148,22.845092 527.92859,19.373262 C 523.68928,16.862862 522.96515,16.750702 515.42859,17.437202 C 508.46163,18.071812 505.62077,19.011882 493.42859,24.717242 C 485.72859,28.320482 476.27859,32.273712 472.42859,33.502192 C 468.57859,34.730672 462.50359,37.180242 458.92859,38.945672 C 452.01094,42.361782 444.86609,44.636352 435.92859,46.267712 C 426.60505,47.969532 404.35842,43.888172 396.92859,39.112782 C 395.00359,37.875522 391.33445,36.286292 388.77494,35.581152 C 385.95042,34.803002 382.82716,32.963882 380.82877,30.902072 C 379.01789,29.033712 377.03372,27.505052 376.41951,27.505052 C 375.14337,27.505052 371.02647,31.806482 368.76272,35.505052 C 367.2201,38.025432 363.60085,49.277869 362.42493,55.209579 C 362.0652,57.024159 362.4704,61.071339 363.35912,64.540349 C 365.1049,71.354769 365.50025,89.033709 363.92859,90.005049 C 361.79772,91.321999 363.03151,94.183709 366.42859,95.803659 C 368.35359,96.721629 369.92859,97.999999 369.92859,98.644479 C 369.92859,100.94531 375.25092,106.73145 382.28282,112.07531 C 399.25584,124.97385 399.58637,125.28343 402.14004,130.67356 C 406.72062,140.34196 407.69571,143.92344 407.75825,151.30929 C 407.82387,159.05683 406.10248,162.50969 402.17859,162.50131 C 395.35829,162.48674 384.95893,147.59042 384.93417,137.79995 C 384.9311,136.58715 383.529,132.66484 381.8184,129.08371 C 378.28506,121.68672 375.12804,119.28333 365.80884,116.89586 C 360.65064,115.57439 359.11818,115.58172 351.83818,116.96272 C 345.13282,118.2347 342.98534,119.1245 339.90546,121.90698 C 337.83978,123.7732 335.30367,125.56862 334.26965,125.8968 C 333.23563,126.22499 331.64515,127.9586 330.73525,129.74928 C 328.56039,134.02935 327.34651,153.08948 328.91809,158.28192 C 330.64619,163.9915 334.17074,171.50505 335.12097,171.50505 C 335.58874,171.50505 337.72193,170.34665 339.86139,168.93082 C 342.19363,167.38742 346.06944,166.04202 349.54025,165.57102 L 355.32919,164.78544 L 362.57671,171.64525 C 368.69118,177.43261 370.37034,178.50505 373.3174,178.50505 C 375.23863,178.50505 377.08867,178.05505 377.42859,177.50505 C 377.76851,176.95505 380.2177,176.50505 382.87124,176.50505 C 387.23159,176.50505 388.04387,176.11985 391.31223,172.50217 C 393.30123,170.30058 394.92859,167.84142 394.92859,167.03735 C 394.92859,164.55961 398.53824,163.25755 400.35914,165.07846 C 402.32322,167.04253 402.31802,168.00585 400.3116,173.89437 C 398.96309,177.85203 397.75933,179.24279 393.0616,182.27063 C 386.73816,186.34629 381.92859,190.4418 381.92859,191.75078 C 381.92859,192.23013 380.58927,194.28893 378.95233,196.32589 C 375.73249,200.33254 372.95674,208.1065 372.93941,213.16607 C 372.92542,217.25175 368.98913,227.54459 367.1743,228.241 C 366.40386,228.53665 365.14019,228.14522 364.36614,227.37117 C 363.23838,226.24341 363.1533,224.77588 363.93789,219.98443 C 364.4764,216.69577 364.92129,211.75505 364.92654,209.00505 C 364.93279,205.72355 365.64708,202.83877 367.00477,200.61176 C 369.18883,197.02926 368.96105,192.50505 366.59663,192.50505 C 365.88501,192.50505 363.98951,193.8758 362.38441,195.55116 C 360.1734,197.85896 358.73438,198.5255 356.44732,198.30116 C 352.38283,197.90247 352.02599,194.81405 355.35601,188.85599 C 356.77093,186.32442 357.92859,184.03188 357.92859,183.76145 C 357.92859,183.49102 356.05279,185.14556 353.76015,187.4382 C 348.60103,192.59731 344.55755,192.79104 341.92859,188.00505 C 339.6776,183.90715 335.30175,183.47873 331.17388,186.95211 C 329.50518,188.35623 327.86854,189.50505 327.5369,189.50505 C 327.20527,189.50505 324.07665,190.85505 320.58442,192.50505 C 316.64655,194.3656 312.62747,195.50505 310.00277,195.50505 C 303.50959,195.50505 286.00239,205.41494 278.79417,213.17056 C 277.34523,214.72953 274.53273,219.05384 272.54417,222.78013 C 269.70718,228.09625 268.93081,230.68037 268.93892,234.78013 C 268.94905,239.90429 269.26758,240.73616 275.62358,252.23774 C 276.83082,254.42232 281.55582,260.05034 286.12358,264.74445 C 299.13605,278.11688 304.44959,283.83244 306.00147,286.12634 C 306.79078,287.29304 309.39808,290.37559 311.79546,292.97644 L 316.15433,297.70526 L 322.25217,295.99429 C 327.23675,294.59569 330.59956,294.40515 340.67191,294.95063 C 355.38729,295.74755 365.07388,298.10129 372.75699,302.74694 C 375.87637,304.6331 380.00359,306.77012 381.92859,307.49586 C 383.85359,308.2216 386.82875,309.64374 388.54005,310.65616 C 395.2002,314.59636 437.74267,321.61692 454.953,321.61594 C 467.41747,321.61522 481.44527,318.66929 507.92859,310.49068 C 513.15359,308.87709 520.12859,306.82794 523.42859,305.937 C 536.08741,302.51936 549.20306,296.38789 555.42859,290.97723 C 558.73267,288.10562 559.16762,287.32984 557.92859,286.51823 C 555.47259,284.90946 553.23414,285.30623 540.53746,289.60081 L 528.42859,293.69658 L 514.59502,292.98405 C 504.69967,292.47437 499.29064,291.71474 495.59502,290.31576 C 492.75348,289.24009 489.07859,287.88229 487.42859,287.29842 C 480.79304,284.95035 474.60917,276.67115 471.52423,266.00505 C 468.43324,255.31803 468.85715,255.64523 464.19851,260.35066 C 461.93631,262.63557 459.43583,264.50505 458.64187,264.50505 C 457.84791,264.50505 456.10119,265.36804 454.76027,266.42281 C 453.41934,267.47758 450.54616,268.65958 448.37541,269.04948 C 446.20466,269.43937 443.6533,270.43507 442.70573,271.26214 C 440.47765,273.20688 436.06846,272.35171 431.17341,269.02544 C 424.98308,264.81901 421.45012,265.4964 412.55756,272.59477 C 408.36162,275.94412 404.92859,279.16027 404.92859,279.74178 C 404.92859,281.3136 398.2783,289.13653 394.47791,292.03523 C 390.73328,294.89139 374.87336,298.03126 370.16286,296.849 C 361.41022,294.65223 346.24134,281.914 342.03783,273.23071 C 338.73536,266.40871 337.35073,257.54779 338.68503,251.7744 C 339.29127,249.15126 339.44208,246.65056 339.02017,246.21729 C 338.59827,245.78402 336.34954,245.73392 334.02299,246.10594 C 327.03106,247.224 323.65279,251.69975 317.73695,267.68276 C 317.19184,269.15549 315.92044,271.10744 314.91162,272.02041 C 310.03269,276.43578 305.42859,269.79301 305.42859,258.33834 C 305.42859,249.29251 305.73881,248.84319 318.15801,239.90129 C 325.59242,234.54848 326.74533,234.04783 332.47819,233.68279 C 337.81238,233.34313 339.16913,233.62301 341.87066,235.62034 L 345.02831,237.9549 L 350.03058,235.14299 C 354.85101,232.43329 357.92859,232.2101 357.92859,234.57022 C 357.92859,235.19058 356.22626,237.6321 354.14563,239.99582 C 352.065,242.35954 349.08597,246.81684 347.52556,249.90094 C 345.12335,254.64883 344.7535,256.40775 345.11284,261.37552 C 345.48128,266.46919 346.15179,268.06967 350.19906,273.51604 C 358.93141,285.26709 369.80641,291.20377 379.33807,289.42306 C 387.55013,287.88888 392.13158,285.22802 396.55825,279.42174 C 398.82956,276.44256 401.30456,272.2147 402.05825,270.0265 C 403.84297,264.84486 409.78953,258.94379 416.26431,255.9291 C 422.89474,252.84194 424.27399,252.89007 432.76907,256.50505 C 441.05491,260.03099 444.23833,260.22325 448.75357,257.47041 C 454.65597,253.87186 456.17484,251.89097 456.28613,247.64656 C 456.41373,242.78029 453.96322,239.737 449.57387,239.3106 C 446.58034,239.01979 446.41386,238.77539 446.12338,234.24485 C 445.73608,228.20433 447.52851,227.27292 452.70553,230.82454 C 454.75322,232.22933 457.66609,233.68091 459.17859,234.05028 C 460.69109,234.41965 461.92859,235.02075 461.92859,235.38605 C 461.92859,235.75136 463.50359,236.89844 465.42859,237.93512 C 467.35359,238.9718 468.92859,240.13577 468.92859,240.52173 C 468.92859,240.90769 470.63937,243.19933 472.73032,245.61426 C 477.61401,251.25466 480.55669,256.39011 481.9706,261.74003 C 484.11612,269.85822 492.46472,276.0503 503.37702,277.61698 C 506.70538,278.09483 511.90359,278.94393 514.92859,279.50386 C 518.70544,280.20295 523.40494,280.18935 529.92859,279.46045 C 540.64926,278.26261 544.08073,277.35824 551.92859,273.66229 C 559.06335,270.30218 571.16851,270.01479 577.46064,273.05613 C 586.69652,277.52036 595.06421,291.81565 595.75077,304.30287 C 596.20059,312.48404 595.03229,314.83431 590.0171,315.83735 C 588.472,316.14637 585.84254,317.54802 584.17386,318.95213 C 581.02086,321.6052 577.50598,322.18697 574.92859,320.48238 C 573.6386,319.62923 573.72282,319.24635 575.53007,317.74769 C 578.94869,314.91281 581.07616,308.09819 580.32063,302.40276 C 579.51816,296.35342 578.50536,295.59066 575.53345,298.79741 C 574.27251,300.15798 572.15808,301.61354 570.83472,302.032 C 569.51135,302.45045 567.03611,303.85307 565.3342,305.14894 C 563.63228,306.4448 560.87474,307.50505 559.20632,307.50505 C 557.53791,307.50505 554.65538,308.13868 552.80071,308.91312 C 549.33265,310.36124 536.01829,313.70965 518.42859,317.55731 C 509.75243,319.45518 493.56559,324.82736 476.42859,331.4965 C 473.67859,332.56671 469.40359,333.75186 466.92859,334.13018 C 464.45359,334.5085 461.52859,335.38178 460.42859,336.0708 C 456.88499,338.29045 441.41876,342.17674 426.42859,344.61418 C 410.9219,347.13561 405.32284,347.67622 390.42859,348.0901 C 373.86861,348.55028 361.67364,347.44588 354.11783,344.80176 C 351.74692,343.97207 349.63627,343.46404 349.4275,343.67281 C 349.21873,343.88158 349.95397,346.74174 351.06137,350.02872 C 353.4009,356.97289 353.12647,368.17225 350.3881,377.50505 C 349.49565,380.54668 348.53412,388.59225 348.23692,395.50505 C 347.71652,407.60936 347.80064,408.30577 350.89406,417.50505 C 352.65107,422.73005 354.75017,428.03615 355.55873,429.29637 C 357.52831,432.36616 371.9687,442.99171 378.98328,446.53266 C 385.64238,449.89416 401.37057,456.14792 404.92859,456.84889 C 409.90448,457.82921 443.44153,456.53539 448.92859,455.15143 z M 521.15685,222.27486 C 519.9074,221.6727 518.62137,220.12916 518.29901,218.84478 L 517.7129,216.50954 L 515.74816,219.00729 C 513.26262,222.16716 511.44159,222.16163 508.49787,218.98531 C 506.49428,216.82339 505.78171,216.6104 503.48015,217.48545 C 500.27711,218.70324 497.36922,217.46872 496.42372,214.48971 L 495.7834,212.47224 L 492.95163,214.48865 C 487.69395,218.23244 483.29874,216.24988 484.14055,210.51421 C 484.62815,207.192 483.5194,206.74361 480.48746,209.03685 C 477.55608,211.25404 475.00207,210.82851 473.90384,207.93995 C 471.79023,202.38075 472.49403,201.16568 480.70156,196.20401 C 489.3443,190.97925 490.40458,190.74304 493.95608,193.25119 C 498.12597,196.19606 510.02314,199.59951 518.09061,200.15541 C 526.20344,200.71444 533.32219,199.6289 543.70388,196.24967 C 551.17436,193.81803 553.52585,194.48513 556.41866,199.85675 C 558.15958,203.08944 558.22689,203.94103 557.0805,208.23024 C 556.37861,210.85638 554.82974,214.04322 553.63857,215.31209 C 551.58042,217.50448 550.56356,217.61525 546.79777,216.05725 C 545.59072,215.55786 544.88913,216.1795 544.09779,218.44953 C 542.18902,223.92502 534.99553,224.44203 533.339,219.22278 C 532.83504,217.63495 532.38617,217.77412 529.31538,220.47031 C 525.58653,223.74428 524.64018,223.9536 521.15685,222.27486 z M 576.37324,194.06423 C 571.81576,190.24136 565.92306,178.82955 563.40762,168.955 C 562.05916,163.66155 560.30803,159.12375 557.83138,154.50505 C 557.389,153.68005 556.05102,151.06419 554.8581,148.69202 C 553.63784,146.26549 551.08923,143.369 549.0313,142.06989 C 544.53975,139.23449 531.94956,136.88828 529.17994,138.37053 C 528.13197,138.93139 524.8342,139.68018 521.85156,140.03451 C 514.28107,140.93386 510.15748,142.34018 508.60916,144.55071 C 507.88007,145.59164 503.71617,148.23581 499.35606,150.42664 C 494.99595,152.61748 490.03626,155.66887 488.33452,157.20751 C 480.61068,164.19111 477.7723,165.41657 464.46132,167.51466 C 458.45317,168.46167 456.97097,168.37697 453.69426,166.89938 C 446.81441,163.797 443.62315,154.81049 447.8871,150.54654 C 448.96428,149.46936 451.63629,147.67449 453.82491,146.55795 C 457.89666,144.48069 473.25494,133.72781 480.42859,127.93176 C 485.82493,123.57171 502.08905,114.83944 508.35227,112.93942 C 511.14425,112.09244 518.18484,111.13509 523.99804,110.81197 C 533.2511,110.29765 535.35951,110.49857 540.9268,112.42525 C 549.72536,115.47018 550.71894,116.08473 556.70566,122.18485 C 563.41445,129.02072 577.95272,148.61428 580.68701,154.50505 C 591.479,177.75542 593.19058,192.7865 585.4478,196.31434 C 581.67036,198.03546 580.87142,197.83735 576.37324,194.06423 z M 434.38761,335.34177 L 437.14829,334.08392 L 432.28844,332.37199 C 429.61552,331.43043 424.54241,330.62518 421.01485,330.58255 C 405.79552,330.39864 377.81798,322.1721 369.24688,315.36064 C 365.86301,312.67149 360.34517,310.52274 356.79236,310.51063 C 355.89243,310.50756 351.6712,309.33458 347.41184,307.904 C 341.22212,305.82509 339.1919,305.51968 337.29807,306.38257 C 335.99486,306.97635 334.92859,307.82168 334.92859,308.26109 C 334.92859,309.16908 346.73505,314.50536 348.74356,314.50517 C 351.06166,314.50496 360.91723,325.74916 361.94527,329.56699 C 363.79325,336.42988 369.86416,337.44675 406.02776,336.95073 C 423.78336,336.7072 432.47281,336.21421 434.38761,335.34177 z M 723.40291,304.55471 C 725.47405,300.54957 725.32082,298.84088 722.83214,298.19008 C 719.7769,297.39111 717.68106,298.45563 718.51255,300.38409 C 718.89694,301.27562 719.42388,303.24255 719.68352,304.75505 C 720.29298,308.3054 721.49689,308.24055 723.40291,304.55471 z M 809.71986,256.86397 C 811.16744,256.4762 811.9039,255.61725 811.71992,254.53125 C 811.26655,251.85511 813.86111,249.50743 817.30103,249.48119 C 823.80364,249.43159 828.36734,247.64244 832.41434,243.55616 C 834.62224,241.32693 838.27844,237.93268 840.53944,236.01338 C 844.20424,232.9024 844.94864,231.47236 847.40014,222.834 C 851.31794,209.02837 850.78134,203.39025 843.22874,179.00505 C 841.09744,172.12345 831.37294,151.95344 826.18074,143.64504 C 823.82494,139.87541 816.69945,130.77739 807.32449,119.56901 C 802.86723,114.24007 798.37398,108.55816 797.33949,106.94254 C 792.7044,99.703699 781.40377,85.071899 777.60315,81.388379 C 772.88326,76.813909 767.43031,72.036259 754.42859,61.083809 C 749.47859,56.913999 740.02859,48.530052 733.42859,42.452812 C 723.10932,32.950892 712.99815,25.612422 700.42859,18.502152 C 693.69365,14.692362 682.94854,7.9612216 675.11703,2.6460416 C 670.54567,-0.45649843 664.24567,-4.5728984 661.11703,-6.5014984 C 657.98839,-8.4300984 652.9596,-11.692598 649.94194,-13.751498 C 646.92428,-15.810398 643.94188,-17.494948 643.31438,-17.494948 C 642.68689,-17.494948 641.61328,-18.169948 640.92859,-18.994948 C 640.2439,-19.819948 638.9803,-20.494948 638.1206,-20.494948 C 637.26089,-20.494948 635.58957,-21.404268 634.40655,-22.515658 C 632.02759,-24.750568 614.15793,-34.494948 612.43841,-34.494948 C 611.84151,-34.494948 607.56209,-36.069948 602.92859,-37.994948 C 598.29509,-39.919948 594.10454,-41.494949 593.61625,-41.494949 C 593.12797,-41.494949 588.83599,-43.348859 584.07853,-45.614749 C 579.32106,-47.880639 571.37859,-51.520289 566.42859,-53.702859 C 561.47859,-55.885419 556.97859,-58.019059 556.42859,-58.444279 C 555.07475,-59.490949 525.62054,-74.762408 502.92859,-86.183038 C 475.12384,-100.17688 452.49619,-106.78725 431.92859,-106.92475 C 421.87226,-106.99198 421.11168,-106.84337 413.92859,-103.40769 C 400.76947,-97.113658 391.21131,-85.973078 387.75599,-72.902028 C 385.36174,-63.844878 387.8311,-35.163868 391.30418,-31.690788 C 392.49531,-30.499658 393.05144,-30.529338 395.13616,-31.895298 C 398.8956,-34.358578 410.92619,-38.296438 418.28276,-39.471648 C 429.14371,-41.206698 458.6641,-39.591618 463.92859,-36.974338 C 465.30359,-36.290748 468.45359,-35.425788 470.92859,-35.052208 C 476.96456,-34.141118 478.52947,-33.527388 499.92859,-23.678868 C 510.10359,-18.996018 519.89716,-13.897348 521.69209,-12.348478 C 526.62416,-8.0925084 529.74317,-6.7789384 541.52917,-3.9940784 C 550.90112,-1.7796284 553.58732,-0.63686843 561.87753,4.6624216 C 573.32467,11.979702 574.04489,12.459632 580.42859,17.024222 C 583.17859,18.990572 587.90359,22.207852 590.92859,24.173722 C 593.95359,26.139592 598.98268,30.168362 602.10435,33.126542 C 605.22602,36.084722 608.28133,38.505052 608.89394,38.505052 C 609.50654,38.505052 613.11578,41.317552 616.91448,44.755052 C 629.49115,56.135879 635.39397,61.160899 638.42859,63.069859 C 640.07859,64.107809 641.79022,65.533509 642.23222,66.238079 C 642.67421,66.942649 644.69921,68.387029 646.73222,69.447809 C 648.76522,70.508579 653.88485,74.512799 658.10916,78.346069 C 662.40661,82.245689 667.10347,85.604189 668.77225,85.970709 C 670.57496,86.366649 675.44475,90.063169 681.08297,95.315419 C 694.1934,107.52836 708.28687,120.95962 715.3843,128.00505 C 721.05065,133.62988 724.90087,136.82146 730.42345,140.47155 C 747.21572,151.5702 752.92859,155.98507 752.92859,157.8634 C 752.92859,158.40469 753.62386,159.61583 754.47363,160.55482 C 756.04038,162.28605 760.36947,173.10834 762.05403,179.50505 C 763.40261,184.62594 763.99157,201.20919 762.92454,204.0157 C 762.41971,205.34351 759.99295,208.56147 757.53175,211.16672 C 755.07054,213.77196 753.25293,216.22083 753.49261,216.60864 C 753.73229,216.99645 756.39467,218.33596 759.409,219.58534 C 763.85168,221.42672 765.09325,222.47395 765.96488,225.11502 C 766.55628,226.90697 768.75901,229.926 770.85984,231.82397 C 775.42778,235.95083 778.69524,241.67194 782.26393,251.79179 C 782.79198,253.28918 783.66603,253.48409 787.6613,252.99539 C 791.41642,252.53607 793.70248,252.94786 798.42859,254.93492 C 804.80433,257.61556 806.09252,257.83564 809.71986,256.86397 z M 808.45199,69.171129 C 808.01421,56.401469 804.49259,39.870562 797.76499,19.005052 C 794.2943,8.2407616 783.44921,-9.1073584 773.27207,-20.174568 C 769.5802,-24.189308 758.20703,-33.494948 756.99216,-33.494948 C 756.66939,-33.494948 752.81268,-36.972948 748.42169,-41.223838 C 727.64445,-61.338119 706.66698,-79.216098 695.77457,-86.092178 C 690.21462,-89.602018 672.33923,-98.537968 661.92859,-103.01187 C 654.2354,-106.31796 631.1556,-112.43537 618.42859,-114.54176 C 615.67859,-114.99689 611.86295,-115.84572 609.94939,-116.42804 C 599.45333,-119.62212 570.49313,-118.29821 562.42859,-114.25564 C 553.3491,-109.70428 534.92859,-93.802448 534.92859,-90.515758 C 534.92859,-89.911358 538.09932,-87.897318 541.97466,-86.040108 C 545.85,-84.182908 549.5625,-82.266788 550.22466,-81.782078 C 550.88682,-81.297368 553.90359,-79.818998 556.92859,-78.496828 C 559.95359,-77.174658 563.10359,-75.575198 563.92859,-74.942478 C 565.83462,-73.480688 571.52175,-70.545738 580.42859,-66.427368 C 584.27859,-64.647188 589.90359,-61.689618 592.92859,-59.854989 C 595.95359,-58.020369 601.06885,-55.591329 604.29584,-54.457139 C 615.10189,-50.659119 629.11298,-43.871709 646.30679,-34.105718 C 651.7398,-31.019798 656.38688,-28.494948 656.63364,-28.494948 C 656.88041,-28.494948 659.59597,-26.694948 662.66824,-24.494948 C 665.7405,-22.294948 668.82139,-20.494948 669.51466,-20.494948 C 670.20792,-20.494948 672.04717,-19.451668 673.60186,-18.176548 C 675.15656,-16.901418 683.40359,-11.669888 691.92859,-6.5509184 C 715.97398,7.8875216 720.18185,10.773832 743.42859,28.774562 C 747.27859,31.755752 751.93868,35.614682 753.78435,37.349972 C 755.63001,39.085272 757.59597,40.505052 758.15313,40.505052 C 760.65155,40.505052 774.46082,52.470419 794.80898,72.266399 C 809.46398,86.523699 809.0501,86.617599 808.45199,69.171129 z M 745.29016,-70.268568 C 745.0774,-74.972518 740.99566,-82.176468 736.95764,-84.974818 C 732.38217,-88.145618 731.56994,-88.125758 728.93711,-84.778648 L 726.80046,-82.062348 L 735.11453,-74.317188 C 739.68726,-70.057348 743.87859,-66.715128 744.42859,-66.890038 C 744.97859,-67.064948 745.3663,-68.585288 745.29016,-70.268568 z" id="path4796" style="fill:#000000"/>
  </g>
</svg>
