<?xml version="1.0" encoding="UTF-8" standalone="no"?>
<!-- Created with Inkscape (http://www.inkscape.org/) -->
<!-- ClipArt by Arvin61r58 (http://openclipart.org/user-detail/Arvin61r58) -->
<svg
   xmlns:dc="http://purl.org/dc/elements/1.1/"
   xmlns:cc="http://creativecommons.org/ns#"
   xmlns:rdf="http://www.w3.org/1999/02/22-rdf-syntax-ns#"
   xmlns:svg="http://www.w3.org/2000/svg"
   xmlns="http://www.w3.org/2000/svg"
   width="630"
   height="630"
   viewBox="0 0 166.6875 166.6875"
   version="1.1"
   id="svg5743">
  <title
     id="title5101">Hot Pot Symbol 2</title>
  <defs
     id="defs5737" />
  <metadata
     id="metadata5740">
    <rdf:RDF>
      <cc:Work
         rdf:about="">
        <dc:format>image/svg+xml</dc:format>
        <dc:type
           rdf:resource="http://purl.org/dc/dcmitype/StillImage" />
        <dc:title>Hot Pot Symbol 2</dc:title>
        <dc:creator>
          <cc:Agent>
            <dc:title>Arvin61r58</dc:title>
          </cc:Agent>
        </dc:creator>
        <dc:publisher>
          <cc:Agent>
            <dc:title>Openclipart.org</dc:title>
          </cc:Agent>
        </dc:publisher>
        <dc:identifier>https://openclipart.org/</dc:identifier>
        <dc:source>https://openclipart.org/user-detail/Arvin61r58</dc:source>
        <dc:subject>
          <rdf:Bag>
            <rdf:li>pictogram</rdf:li>
            <rdf:li>piictograph</rdf:li>
            <rdf:li>symbol</rdf:li>
            <rdf:li>icon</rdf:li>
            <rdf:li>hot pot</rdf:li>
            <rdf:li>HotPot</rdf:li>
            <rdf:li>cooking</rdf:li>
            <rdf:li>food</rdf:li>
            <rdf:li>restaurant</rdf:li>
          </rdf:Bag>
        </dc:subject>
        <dc:description>Hot pot symbol with white backgound</dc:description>
        <cc:license
           rdf:resource="http://creativecommons.org/publicdomain/zero/1.0/" />
      </cc:Work>
      <cc:License
         rdf:about="http://creativecommons.org/publicdomain/zero/1.0/">
        <cc:permits
           rdf:resource="http://creativecommons.org/ns#Reproduction" />
        <cc:permits
           rdf:resource="http://creativecommons.org/ns#Distribution" />
        <cc:permits
           rdf:resource="http://creativecommons.org/ns#DerivativeWorks" />
      </cc:License>
    </rdf:RDF>
  </metadata>
  <g
     id="g5101">
    <title
       id="title5103">Hot Pot Symbol  --  by Arvin61r58</title>
    <rect
       style="opacity:1;fill:#ffffff;fill-opacity:1;fill-rule:nonzero;stroke:#000000;stroke-width:4.23333311;stroke-linecap:round;stroke-linejoin:round;stroke-miterlimit:4;stroke-dasharray:none;stroke-opacity:1"
       id="rect6367"
       width="154.51666"
       height="154.51666"
       x="6.0854168"
       y="6.0854168"
       ry="19.84375"
       rx="19.84375" />
    <g
       id="g6377"
       transform="matrix(0.78389264,0,0,0.78389264,1.102993,-31.661789)"
       style="stroke-width:5.40039921">
      <path
         id="path5097"
         d="m 37.444539,152.92764 c 0.268359,13.00678 8.839622,24.74277 18.222803,32.96572 2.135093,1.87103 4.753237,3.61695 7.190443,5.06966 0.934982,0.55725 2.875447,1.05129 3.407794,2.03253 0.347257,0.64038 -0.03864,1.41999 -0.183725,2.067 -0.420077,1.87235 -0.94576,3.70487 -1.431644,5.55824 -0.652968,2.48919 -1.188934,5.03718 -1.666855,7.53775 -0.184533,0.9655 -0.748759,1.82528 -0.64711,2.84696 1.737525,5.40296 7.463233,8.96394 12.279908,10.44254 9.776739,2.96748 20.080629,4.63778 30.297137,4.63778 10.2165,0 20.52039,-1.6703 30.29713,-4.63778 4.74712,-1.6268 11.65909,-5.93893 12.27991,-10.44254 0.10165,-1.02168 -0.46258,-1.88146 -0.6471,-2.84696 -0.47793,-2.50057 -1.01389,-5.04856 -1.66686,-7.53775 -0.48589,-1.85337 -1.01157,-3.68589 -1.43165,-5.55824 -0.14509,-0.64701 -0.53098,-1.42662 -0.18372,-2.067 0.53234,-0.98124 2.47281,-1.47528 3.40779,-2.03253 2.43721,-1.45271 5.05535,-3.19863 7.19044,-5.06966 9.38319,-8.22295 17.95445,-19.95894 18.22281,-32.96572 0,0 -45.07882,4.1621 -67.68193,4.15772 -22.461254,-0.004 -67.255571,-4.15772 -67.255571,-4.15772 z"
         style="fill:#12100f;stroke:none;stroke-width:5.40039921" />
      <path
         id="path4939"
         d="m 90.120498,127.32659 -6.373686,22.42421 -2.539915,8.89229 h 23.706393 23.70639 l -2.53993,-8.89229 -6.37368,-22.42421 h -14.79278 z"
         style="fill:#12100f;stroke:none;stroke-width:5.40039921" />
      <g
         style="stroke-width:7.53123331"
         transform="matrix(0.71679155,0,0,0.71734273,29.65017,41.000339)"
         id="g6365">
        <path
           style="fill:#12100f;stroke:none;stroke-width:7.53123331"
           d="m 141.08518,131.83094 c -1.65999,1.48114 1.98702,2.77468 3.28507,1.2491 4.98977,-5.86396 7.96925,-16.52483 5.34379,-24.00328 -1.86241,-5.30491 -5.62372,-9.485592 -7.86157,-14.552092 -1.80816,-4.09417 -2.09576,-8.31877 -1.48457,-12.7 0.91863,-6.5831 4.92125,-13.04026 9.39879,-17.77207 0.98531,-1.04113 1.57744,-2.73923 0.0209,-3.61182 -2.08783,-1.17052 -3.86609,1.49675 -4.97311,2.86305 -3.36021,4.14708 -6.43969,9.10035 -7.86342,14.2875 -1.58114,5.76051 -2.44607,11.46228 0.008,17.12225 2.60086,5.998102 7.09984,10.796062 8.03937,17.538182 0.65696,4.71594 0.1053,8.94743 -1.3806,13.44878 -0.70273,2.12884 -2.72917,3.75471 -2.53285,6.13039 z"
           id="path4647" />
        <path
           id="path6350"
           d="m 103.0007,108.39221 c -1.65999,1.48114 1.98702,2.77468 3.28507,1.2491 4.98978,-5.86396 7.96925,-16.524814 5.34379,-24.003261 -1.8624,-5.304897 -5.62372,-9.48558 -7.86157,-14.55208 -1.80816,-4.09417 -2.09576,-8.318767 -1.48457,-12.699997 0.91863,-6.5831 4.92125,-13.04026 9.39879,-17.77207 0.98531,-1.04113 1.57745,-2.73923 0.0209,-3.61182 -2.08783,-1.17052 -3.86609,1.49675 -4.97311,2.86305 -3.36021,4.14708 -6.43969,9.10035 -7.86341,14.2875 -1.58115,5.76051 -2.44607,11.462277 0.008,17.122247 2.60085,5.9981 7.09983,10.796063 8.03936,17.53817 0.65696,4.715937 0.10531,8.947414 -1.38059,13.448761 -0.70274,2.12884 -2.72918,3.75471 -2.53286,6.1304 z"
           style="fill:#12100f;stroke:none;stroke-width:7.53123331" />
        <path
           style="fill:#12100f;stroke:none;stroke-width:7.53123331"
           d="m 64.91619,131.83093 c -1.65999,1.48114 1.98703,2.77468 3.28507,1.2491 4.98978,-5.86396 7.96925,-16.52482 5.34379,-24.00328 -1.8624,-5.3049 -5.62372,-9.485582 -7.86156,-14.552082 -1.80817,-4.09417 -2.09577,-8.31877 -1.48458,-12.7 0.91863,-6.5831 4.92125,-13.04026 9.39879,-17.77207 0.98531,-1.04113 1.57745,-2.73923 0.0209,-3.61182 -2.08782,-1.17052 -3.86609,1.49675 -4.97311,2.86305 -3.3602,4.14708 -6.43969,9.10035 -7.86341,14.2875 -1.58115,5.76051 -2.44607,11.46228 0.008,17.12225 2.60085,5.998102 7.09983,10.796062 8.03936,17.538182 0.65697,4.71594 0.10531,8.94742 -1.38059,13.44877 -0.70273,2.12884 -2.72918,3.75471 -2.53286,6.1304 z"
           id="path6352" />
      </g>
    </g>
  </g>
</svg>
