<?xml version="1.0" encoding="UTF-8" standalone="no"?>
<svg id="svg2" xmlns:rdf="http://www.w3.org/1999/02/22-rdf-syntax-ns#" xmlns="http://www.w3.org/2000/svg" height="265.29mm" width="217.31mm" version="1.1" xmlns:cc="http://creativecommons.org/ns#" xmlns:dc="http://purl.org/dc/elements/1.1/" viewBox="0 0 770 940.00007">
<g id="layer1" transform="translate(-35 -52.362)">
<path id="rect4149" d="m50 52.362c-20 0.00002-20 40 0 40h60v43.859c0 16.859-27.499 19.282-27.5 36.141 0.016 16.846 27.5 19.26 27.5 36.105v26.434c0 37.463-27.499 75.992-27.5 107.46 0.018 31.443 27.5 49.119 27.5 67.391v22.609s-20 0.002-40 0c-6.6667-0.0006-6.6667 19.999 0 20 20 0.002 40 0 40 0v33.859c0 16.859-27.499 19.282-27.5 36.141 0.016 16.846 27.5 19.26 27.5 36.105v33.895s-20 0.002-40 0c-6.6667-0.0006-6.6667 19.999 0 20 20 0.002 40 0 40 0v22.539c0 18.287-27.499 35.992-27.5 67.461 0.018 31.443 27.5 70.002 27.5 107.39v26.469c0 16.859-27.499 19.282-27.5 36.141 0.016 16.846 27.5 19.26 27.5 36.105v43.895c-10.734-0.00002-56.757 0-60 0-20-0.00006-20 40 0 40 40 0.0001 700 0.0001 740 0 20-0.00006 20-40 0-40-3.2432 0-49.266-0.00002-60 0v-43.855c0-16.86 27.501-19.284 27.5-36.145-0.02-16.84-27.5-19.25-27.5-36.1v-26.438c0-37.459 27.499-75.992 27.5-107.46-0.018-31.442-27.5-49.116-27.5-67.387v-22.613s20 0.002 40 0c6.6667-0.0006 6.6667-20.001 0-20-20 0.002-40 0-40 0v-33.855c0-16.86 27.501-19.284 27.5-36.145-0.02-16.84-27.5-19.25-27.5-36.1v-33.898s20 0.002 40 0c6.6667-0.0006 6.6667-20.001 0-20-20 0.002-40 0-40 0v-22.539c0-18.287 27.499-35.992 27.5-67.461-0.02-31.44-27.5-70-27.5-107.38v-26.469c0-16.86 27.501-19.284 27.5-36.145-0.02-16.84-27.5-19.25-27.5-36.1v-43.898h60c20 0.000021 20-40 0-40-40-0.00006-700-0.00006-740 0zm80 40h64.062c4.5493 22.305 11.958 58.067 17.293 80.367 15.479 64.704 56.656 124.14 96.875 182.89 40.219 58.754 71.046 116.37 70.273 174.65-0.72942 55.031-31.516 109.36-71.336 164.75-39.82 55.386-80.235 111.41-95.785 172.93-5.9796 23.659-13.896 62.668-18.211 84.41h-63.172v-43.855c0-16.86 27.501-19.284 27.5-36.145-0.01-16.84-27.49-19.25-27.49-36.1v-26.438c0-37.459 27.499-75.992 27.5-107.46-0.018-31.442-27.5-49.116-27.5-67.387v-22.613s20 0.002 40 0c6.6667-0.0006 6.6667-20.001 0-20-20 0.002-40 0-40 0v-33.855c0-16.86 27.501-19.284 27.5-36.145-0.02-16.84-27.5-19.25-27.5-36.1v-33.898s20 0.002 40 0c6.6667-0.0006 6.6667-20.001 0-20-20 0.002-40 0-40 0v-22.539c0-18.287 27.499-35.992 27.5-67.461-0.02-31.44-27.5-70-27.5-107.38v-26.469c0-16.86 27.501-19.284 27.5-36.145-0.02-16.84-27.5-19.25-27.5-36.1v-43.898zm84.48 0c141.28-0.00002 269.76-0.00002 411.04 0-4.6114 22.515-11.431 55.262-16.324 75.715-14.042 58.699-61.442 116.99-102.01 176.25-40.566 59.261-82.73 119.95-81.852 186.21 0.83636 63.099 43.027 120.31 83.18 176.16 40.153 55.849 86.709 110.76 100.71 166.16 5.4302 21.485 12.735 57.204 17.191 79.508-141.43 0.00002-271.4 0.00002-412.84 0 4.4561-22.303 11.761-58.023 17.191-79.508 14.002-55.402 60.558-110.31 100.71-166.16 40.153-55.849 82.343-113.06 83.18-176.16 0.87828-66.26-41.286-126.95-81.852-186.21-40.566-59.261-87.965-117.55-102.01-176.25-4.893-20.453-11.713-53.2-16.324-75.715zm431.46 0h64.062v43.859c0 16.859-27.499 19.282-27.5 36.141 0.016 16.846 27.5 19.26 27.5 36.105v26.434c0 37.463-27.499 75.992-27.5 107.46 0.018 31.443 27.5 49.119 27.5 67.391v22.609s-20 0.002-40 0c-6.6667-0.0006-6.6667 19.999 0 20 20 0.002 40 0 40 0v33.859c0 16.859-27.499 19.282-27.5 36.141 0.016 16.846 27.5 19.26 27.5 36.105v33.895s-20 0.002-40 0c-6.6667-0.0006-6.6667 19.999 0 20 20 0.002 40 0 40 0v22.539c0 18.287-27.499 35.992-27.5 67.461 0.018 31.443 27.5 70.002 27.5 107.39v26.469c0 16.859-27.499 19.282-27.5 36.141 0.016 16.846 27.5 19.26 27.5 36.105v43.895h-63.172c-4.3152-21.742-12.231-60.751-18.211-84.41-15.55-61.526-55.965-117.55-95.785-172.93-39.82-55.386-70.607-109.71-71.336-164.75-0.77252-58.28 30.055-115.89 70.273-174.65 40.219-58.754 81.396-118.19 96.875-182.89 5.3347-22.3 12.744-58.062 17.293-80.367zm-235.94 620c-6.6667 0-6.6667 20 0 20h20c6.6667 0 6.6667-20 0-20h-20zm-20 40c-6.6667 0-6.6667 20 0 20h60c6.6667 0 6.6667-20 0-20h-60zm-40 40c-6.6667 0-6.6667 20 0 20h140c6.6667 0 6.6667-20 0-20h-140zm-60 40c-6.6667 0.00002-6.6667 20 0 20 20-0.00004 240-0.00004 260 0 6.6667 0.00002 6.6667-20 0-20-20-0.00004-240-0.00004-260 0zm-40 40c-6.6667 0.00002-6.6667 20 0 20 20-0.00004 320-0.00004 340 0 6.6667 0.00002 6.6667-20 0-20-20-0.00004-320-0.00004-340 0zm-20 40c-6.6667 0.00002-6.6667 20 0 20 20-0.00006 360-0.00006 380 0 6.6667 0.00002 6.6667-20 0-20-20-0.00004-360-0.00004-380 0z"/>
</g>
</svg>
