<?xml version="1.0" encoding="UTF-8" standalone="no"?>
<!-- Created with Inkscape (http://www.inkscape.org/) -->
<!-- ClipArt by Arvin61r58 (http://openclipart.org/user-detail/Arvin61r58) -->
<svg
    xmlns:dc="http://purl.org/dc/elements/1.1/"
    xmlns:cc="http://creativecommons.org/ns#"
    xmlns:rdf="http://www.w3.org/1999/02/22-rdf-syntax-ns#"
    xmlns:svg="http://www.w3.org/2000/svg"
    xmlns="http://www.w3.org/2000/svg"
    xmlns:xlink="http://www.w3.org/1999/xlink"
    xmlns:inkscape="http://www.inkscape.org/namespaces/inkscape"
    xmlns:sodipodi="http://sodipodi.sourceforge.net/DTD/sodipodi-0.dtd"
    xmlns:ns1="http://sozi.baierouge.fr"
    version="1.1"
    width="729.84375"
    height="308.59375"
    id="svg2"
  >
  <title
      id="title4394"
    >House Key</title
  >
  <defs
      id="defs4"
    >
    <linearGradient
        id="linearGradient4367"
      >
      <stop
          id="stop4369"
          style="stop-color:#f3f371;stop-opacity:1"
          offset="0"
      />
      <stop
          id="stop4371"
          style="stop-color:#e3d300;stop-opacity:1"
          offset="1"
      />
    </linearGradient
    >
    <inkscape:path-effect
        effect="spiro"
        id="path-effect4170"
    />
    <inkscape:path-effect
        effect="spiro"
        id="path-effect4166"
    />
    <inkscape:path-effect
        effect="spiro"
        id="path-effect4156"
    />
    <inkscape:path-effect
        effect="spiro"
        id="path-effect4152"
    />
    <linearGradient
        id="linearGradient4084"
      >
      <stop
          id="stop4086"
          style="stop-color:#d3bf6a;stop-opacity:1"
          offset="0"
      />
      <stop
          id="stop4088"
          style="stop-color:#cbbe62;stop-opacity:1"
          offset="0.071429"
      />
      <stop
          id="stop4090"
          style="stop-color:#bbb36a;stop-opacity:1"
          offset="0.142857"
      />
      <stop
          id="stop4092"
          style="stop-color:#a8a476;stop-opacity:1"
          offset="0.214286"
      />
      <stop
          id="stop4094"
          style="stop-color:#9b9a79;stop-opacity:1"
          offset="0.285714"
      />
      <stop
          id="stop4096"
          style="stop-color:#95957a;stop-opacity:1"
          offset="0.35714301"
      />
      <stop
          id="stop4098"
          style="stop-color:#94967c;stop-opacity:1"
          offset="0.42857099"
      />
      <stop
          id="stop4100"
          style="stop-color:#95977c;stop-opacity:1"
          offset="0.5"
      />
      <stop
          id="stop4102"
          style="stop-color:#96977b;stop-opacity:1"
          offset="0.57142901"
      />
      <stop
          id="stop4104"
          style="stop-color:#9d9c79;stop-opacity:1"
          offset="0.64285702"
      />
      <stop
          id="stop4106"
          style="stop-color:#aba776;stop-opacity:1"
          offset="0.71428603"
      />
      <stop
          id="stop4108"
          style="stop-color:#bdb36d;stop-opacity:1"
          offset="0.78571397"
      />
      <stop
          id="stop4110"
          style="stop-color:#d0bf62;stop-opacity:1"
          offset="0.85714298"
      />
      <stop
          id="stop4112"
          style="stop-color:#dbc174;stop-opacity:1"
          offset="0.92857099"
      />
      <stop
          id="stop4114"
          style="stop-color:#dabf93;stop-opacity:1"
          offset="1"
      />
    </linearGradient
    >
    <linearGradient
        x1="405.38159"
        y1="476.16232"
        x2="416.16629"
        y2="476.16232"
        id="linearGradient4355"
        xlink:href="#linearGradient4084"
        gradientUnits="userSpaceOnUse"
        gradientTransform="matrix(0,-1,1,0,-76.743734,888.72844)"
    />
    <radialGradient
        cx="106.4479"
        cy="427.97861"
        r="359.92667"
        fx="106.4479"
        fy="427.97861"
        id="radialGradient4375"
        xlink:href="#linearGradient4367"
        gradientUnits="userSpaceOnUse"
        gradientTransform="matrix(1.1672321,0.12357005,-0.05907937,0.55805877,4.7432093,231.38951)"
    />
    <linearGradient
        x1="405.38159"
        y1="476.16232"
        x2="416.16629"
        y2="476.16232"
        id="linearGradient4378"
        xlink:href="#linearGradient4084"
        gradientUnits="userSpaceOnUse"
        gradientTransform="matrix(0,-0.66722786,2.42758,0,-682.43953,797.23512)"
    />
    <radialGradient
        cx="106.4479"
        cy="427.97861"
        r="359.92667"
        fx="106.4479"
        fy="427.97861"
        id="radialGradient4390"
        xlink:href="#linearGradient4367"
        gradientUnits="userSpaceOnUse"
        gradientTransform="matrix(1.1672321,0.12357005,-0.05907937,0.55805877,4.7432093,231.38951)"
    />
    <linearGradient
        x1="405.38159"
        y1="476.16232"
        x2="416.16629"
        y2="476.16232"
        id="linearGradient4392"
        xlink:href="#linearGradient4084"
        gradientUnits="userSpaceOnUse"
        gradientTransform="matrix(0,-0.66722786,2.42758,0,-682.43953,797.23512)"
    />
  </defs
  >
  <g
      transform="translate(-7.120211,-372.58619)"
      id="layer1"
    >
    <g
        transform="translate(24.338961,4.49244)"
        id="g4381"
      >
      <path
          d="m 93.001668,374.29813 -26.324071,38.84128 -77.68256,60.38605 0.07586,48.85505 -0.07586,48.85505 77.68256,60.31019 26.324071,38.91714 70.475682,-0.22746 26.02062,-39.14473 -0.37931,-30.49648 8.19309,-25.11028 25.33786,0.30345 0.37931,-18.88961 8.72412,-12.06216 443.86783,0.75862 30.79992,-17.14478 0,-10.92411 -30.79992,-17.9034 -27.68959,0 -27.00682,4.7793 -28.52407,-4.70344 -27.68958,-7.13102 -27.76545,7.13102 -27.76545,0 -27.68958,-8.64825 -13.88272,8.72411 -13.88273,0 -27.76544,-7.13102 -27.76545,7.13102 -26.93096,-13.42755 -29.28269,18.96547 -27.00683,-11.83445 -27.68958,12.66893 -27.76545,-14.18617 -27.76544,7.88963 -8.72412,-12.06204 -0.37931,-18.81374 -25.33786,0.30345 -8.19309,-25.18615 0.37931,-30.42061 -26.02062,-39.14472 -70.475682,-0.22759 z m -49.76539,114.09626 0,32.31716 0,3.41378 0,32.2413 -41.2688604,-13.35169 0,-18.88961 0,-3.41378 0,-18.96547 41.2688604,-13.35169 z"
          id="path3147"
          style="fill:url(#radialGradient4390);fill-opacity:1;stroke:#8a8a30;stroke-width:2.42758012px;stroke-linecap:butt;stroke-linejoin:miter;stroke-opacity:1"
      />
      <path
          d="m 259.57382,519.55737 0,4.33277 446.14368,0 0,-4.33277 -446.14368,0 z m -18.32619,2.86309 0,4.33276 464.35053,0 0,-4.33276 -464.35053,0 z"
          id="path4030"
          style="font-size:medium;font-style:normal;font-variant:normal;font-weight:normal;font-stretch:normal;text-indent:0;text-align:start;text-decoration:none;line-height:normal;letter-spacing:normal;word-spacing:normal;text-transform:none;direction:ltr;block-progression:tb;writing-mode:lr-tb;text-anchor:start;baseline-shift:baseline;color:#000000;fill:#8a8a30;fill-opacity:1;stroke:none;stroke-width:0.99999994px;marker:none;visibility:visible;display:inline;overflow:visible;enable-background:accumulate;font-family:Sans;-inkscape-font-specification:Sans"
      />
      <path
          d="m 259.57382,519.55738 0,4.33276 446.14366,0 0,-4.33276 -446.14366,0 z m -18.32617,2.86308 0,4.33276 464.35054,0 0,-4.33276 -464.35054,0 z"
          id="path4062"
          style="font-size:medium;font-style:normal;font-variant:normal;font-weight:normal;font-stretch:normal;text-indent:0;text-align:start;text-decoration:none;line-height:normal;letter-spacing:normal;word-spacing:normal;text-transform:none;direction:ltr;block-progression:tb;writing-mode:lr-tb;text-anchor:start;baseline-shift:baseline;opacity:0.65;color:#000000;fill:url(#linearGradient4392);fill-opacity:1;stroke:none;stroke-width:0.99999994px;marker:none;visibility:visible;display:inline;overflow:visible;enable-background:accumulate;font-family:Sans;-inkscape-font-specification:Sans"
      />
      <path
          d="m 94.791255,669.36303 0,-295.84728"
          id="path4150"
          style="fill:#8a8a30;stroke:#8a8a30;stroke-width:3.64137006;stroke-linecap:butt;stroke-linejoin:miter;stroke-opacity:1"
      />
      <path
          d="m 161.4561,669.87437 0,-295.84728"
          id="path4154"
          style="fill:#8a8a30;stroke:#8a8a30;stroke-width:3.64137006;stroke-linecap:butt;stroke-linejoin:miter;stroke-opacity:1"
      />
      <path
          d="m 67.105021,631.0053 0,-217.41409"
          id="path4164"
          style="fill:#8a8a30;stroke:#8a8a30;stroke-width:3.64137006;stroke-linecap:round;stroke-linejoin:bevel;stroke-miterlimit:4;stroke-opacity:1;stroke-dasharray:none"
      />
      <path
          d="m 197.81549,576.02881 0,-106.83519"
          id="path4168"
          style="fill:none;stroke:#8a8a30;stroke-width:3.64137006;stroke-linecap:butt;stroke-linejoin:miter;stroke-opacity:1"
      />
    </g
    >
  </g
  >
  <metadata
    >
    <rdf:RDF
      >
      <cc:Work
        >
        <dc:format
          >image/svg+xml</dc:format
        >
        <dc:type
            rdf:resource="http://purl.org/dc/dcmitype/StillImage"
        />
        <cc:license
            rdf:resource="http://creativecommons.org/licenses/publicdomain/"
        />
        <dc:publisher
          >
          <cc:Agent
              rdf:about="http://openclipart.org/"
            >
            <dc:title
              >Openclipart</dc:title
            >
          </cc:Agent
          >
        </dc:publisher
        >
        <dc:title
          >House Key</dc:title
        >
        <dc:date
          >2014-06-05T20:11:10</dc:date
        >
        <dc:description
          >house key</dc:description
        >
        <dc:source
          >https://openclipart.org/detail/194028/house-key-by-arvin61r58-194028</dc:source
        >
        <dc:creator
          >
          <cc:Agent
            >
            <dc:title
              >Arvin61r58</dc:title
            >
          </cc:Agent
          >
        </dc:creator
        >
        <dc:subject
          >
          <rdf:Bag
            >
            <rdf:li
              >home</rdf:li
            >
            <rdf:li
              >house</rdf:li
            >
            <rdf:li
              >house key</rdf:li
            >
            <rdf:li
              >key</rdf:li
            >
            <rdf:li
              >lock</rdf:li
            >
            <rdf:li
              >security</rdf:li
            >
          </rdf:Bag
          >
        </dc:subject
        >
      </cc:Work
      >
      <cc:License
          rdf:about="http://creativecommons.org/licenses/publicdomain/"
        >
        <cc:permits
            rdf:resource="http://creativecommons.org/ns#Reproduction"
        />
        <cc:permits
            rdf:resource="http://creativecommons.org/ns#Distribution"
        />
        <cc:permits
            rdf:resource="http://creativecommons.org/ns#DerivativeWorks"
        />
      </cc:License
      >
    </rdf:RDF
    >
  </metadata
  >
</svg
>
