<?xml version="1.0" encoding="UTF-8" standalone="no"?>
<!-- Created with Inkscape (http://www.inkscape.org/) -->
<svg
    xmlns:inkscape="http://www.inkscape.org/namespaces/inkscape"
    xmlns:rdf="http://www.w3.org/1999/02/22-rdf-syntax-ns#"
    xmlns="http://www.w3.org/2000/svg"
    xmlns:sodipodi="http://sodipodi.sourceforge.net/DTD/sodipodi-0.dtd"
    xmlns:cc="http://creativecommons.org/ns#"
    xmlns:xlink="http://www.w3.org/1999/xlink"
    xmlns:dc="http://purl.org/dc/elements/1.1/"
    xmlns:svg="http://www.w3.org/2000/svg"
    xmlns:ns1="http://sozi.baierouge.fr"
    id="svg2568"
    style="enable-background:new"
    sodipodi:docname="old_ship.svg"
    inkscape:export-filename="/home/hrum/Pictures/openclipart/old_ship.png"
    viewBox="0 0 521.28 474.05"
    sodipodi:version="0.32"
    inkscape:export-xdpi="60.082363"
    version="1.0"
    inkscape:output_extension="org.inkscape.output.svg.inkscape"
    inkscape:export-ydpi="60.082363"
    inkscape:version="0.46+devel"
  >
  <title
      id="title907"
    >old ship</title
  >
  <defs
      id="defs2570"
    >
    <linearGradient
        id="linearGradient2402"
        y2="315.72"
        gradientUnits="userSpaceOnUse"
        x2="353.48"
        gradientTransform="matrix(.90624 0 0 .90624 32.397 236.64)"
        y1="315.72"
        x1="241.22"
        inkscape:collect="always"
      >
      <stop
          id="stop3481"
          style="stop-color:#ffe6d5"
          offset="0"
      />
      <stop
          id="stop3483"
          style="stop-color:#ffffff;stop-opacity:0"
          offset="1"
      />
    </linearGradient
    >
    <linearGradient
        id="linearGradient2404"
        y2="243.59"
        gradientUnits="userSpaceOnUse"
        x2="432.68"
        gradientTransform="matrix(.90624 0 0 .90624 32.397 236.64)"
        y1="382.27"
        x1="386.41"
        inkscape:collect="always"
      >
      <stop
          id="stop3471"
          style="stop-color:#ffe6d5"
          offset="0"
      />
      <stop
          id="stop3473"
          style="stop-color:#ffffff;stop-opacity:0"
          offset="1"
      />
    </linearGradient
    >
    <filter
        id="filter3053"
        inkscape:collect="always"
        color-interpolation-filters="sRGB"
      >
      <feBlend
          id="feBlend3055"
          in2="BackgroundImage"
          mode="multiply"
          inkscape:collect="always"
      />
    </filter
    >
  </defs
  >
  <sodipodi:namedview
      id="base"
      inkscape:zoom="0.76216524"
      borderopacity="1.0"
      inkscape:current-layer="layer1"
      inkscape:cx="283.77166"
      inkscape:cy="237.14772"
      showgrid="false"
      inkscape:guide-bbox="true"
      showguides="true"
      bordercolor="#666666"
      inkscape:window-x="275"
      guidetolerance="10"
      objecttolerance="10"
      inkscape:window-y="96"
      inkscape:window-width="1269"
      inkscape:pageopacity="0.0"
      inkscape:pageshadow="2"
      pagecolor="#ffffff"
      gridtolerance="10000"
      inkscape:document-units="px"
      inkscape:window-height="915"
      showborder="false"
  />
  <g
      id="layer1"
      inkscape:label="Layer 1"
      inkscape:groupmode="layer"
      transform="translate(-65.403 -288.55)"
    >
    <path
        id="path3477"
        style="filter:url(#filter3053);fill-rule:evenodd;fill:url(#linearGradient2402)"
        transform="matrix(1.411 0 0 1.411 -256.48 -222.8)"
        d="m251 463.06s8.4077 7.5669 8.4077 12.612c0 5.0446 8.4077-0.84076 9.2485 10.089 0.84077 10.93-5.8854 18.497-5.8854 23.542 0 5.0446 4.2038-5.8854 8.4077 18.497 4.2038 24.382 4.2038 40.357 4.2038 40.357v14.293l40.357-3.3631 10.93 1.6815 15.975-13.452 10.089-8.4077s-12.612-18.497-14.293-21.86c-1.6815-3.3631-21.86 21.019-25.223 15.975-3.3631-5.0446 0.84077-13.452-3.3631-19.338-4.2038-5.8854-12.612-26.905-12.612-30.268 0-3.3631 3.3631-15.134 0-24.382-3.3631-9.2485-7.5669-7.5669-7.5669-7.5669h-13.452c-5.8854 0-5.8854-0.84077-9.2485-0.84077s-15.134-5.0446-15.975-7.5669z"
    />
    <path
        id="path3467"
        style="filter:url(#filter3053);fill-rule:evenodd;fill:url(#linearGradient2404)"
        transform="matrix(1.411 0 0 1.411 -256.48 -222.8)"
        d="m283.88 460.26s14.268 5.9452 13.079 20.213-1.7835 13.674-1.7835 21.402c0 7.7287 2.378 20.808 2.378 20.808s8.3232 2.9726 8.9177 11.89c0.59452 8.9177-0.59452 14.268-1.189 19.619-0.59452 5.3506-4.1616 9.5122 5.3506 10.701 9.5122 1.189 21.402 3.5671 27.348 3.5671 5.9451 0 11.89-5.9451 17.835-7.1342 5.9452-1.189 13.079-13.079 21.403-13.079 8.3232 0 38.049-1.189 38.049-1.189l10.107 8.9177s-5.3506 13.079-6.5396 17.241c-1.189 4.1616-4.7561 28.537-0.59452 25.564 4.1616-2.9726 19.024-44.589 19.024-44.589s1.7835-11.296 1.7835-13.674c0-2.3781 5.3506-15.457 5.3506-15.457s13.674-1.7836 15.457 0.59451c1.7835 2.378 5.9451 7.7287 8.9177 7.7287s10.107 4.1616 12.485 3.5671c2.3781-0.59452 10.107-14.268 5.9451-16.052-4.1616-1.7835-20.213-11.89-23.186-11.89-2.9726 0-8.9177 2.9726-8.9177 2.9726s3.5671-19.024 2.3781-22.592c-1.189-3.5671 4.1616-8.9177-7.1342-10.701-11.296-1.7836-46.967-7.7287-54.695-7.7287-7.7287 0-23.186-2.9726-30.32-2.9726-7.1342 0-41.021-8.9177-45.183-8.9177-4.1616 0-23.186-2.9726-25.564-2.9726s-17.835-4.1616-17.835-4.1616l7.1342 8.3232z"
    />
    <path
        id="path3464"
        style="fill-rule:evenodd;filter:url(#filter3053);stroke:#000000;stroke-width:.90624px;fill:#ffe6d5"
        transform="matrix(1.411 0 0 1.411 -256.48 -222.8)"
        d="m356.93 558.07s1.6815-13.452 31.949-13.452 36.994 3.3631 36.994 3.3631 5.0446 31.949-8.4077 35.312c-13.452 3.3631-35.312 13.452-35.312 13.452l-25.223-38.675z"
    />
    <path
        id="path3487"
        style="filter:url(#filter3053);fill-rule:evenodd;fill:#ffe6d5"
        transform="matrix(1.411 0 0 1.411 -256.48 -222.8)"
        d="m420.83 500.9 5.0446 26.905 9.2485-2.5223s10.93-6.7262 18.497-3.3631c7.5669 3.3631 21.86 5.8854 21.86 5.8854s13.452 3.3631 8.4077-1.6815c-5.0446-5.0446-17.656-11.771-23.542-12.612-5.8854-0.84076-33.631-9.2485-33.631-9.2485l-5.8854-3.3631z"
    />
    <path
        id="path2657"
        style="filter:url(#filter3053);fill:#000000"
        transform="matrix(1.411 0 0 1.411 -256.48 -222.8)"
        d="m339.1 371.73c-5.9714 16.653-23.764 18.079-33.01 29.651-13.312 14.882 12.699-4.0038 1.5545 11.901-0.74546 7.8195 12.489-7.2704 6.7053-4.6342 6.5149-19.823-11.615 22.235-2.3041-4.2199-8.3873-14.421 20.038-14.595 17.553-12.427-6.8844 13.472 9.9808-3.3322 5.1376 13.68-0.64337 12.861-2.1342 39.266 0.72333 12.371 0.94578-29.18 4.3638 17.379 0.17129 18.115-13.574-4.0947-22.101 24.83-15.766 12.608 11.123 12.3-23.292 3.6276-33.811 1.2945-13.301-3.8031-23.606 2.0988-5.7215 0.233 10.966 0.64227 32.002 7.3938 8.0405 4.1156-13.032-1.7507-18.378-6.8846-8.5583 2.8227 23.226 18.193-22.014 2.6133-31.533 1.864-25.389-3.9939-3.2479 1.1532 6.3988 10.441-1.0071 14.178 4.8892-9.3083 16.192 3.6091 4.1864 5.0116 6.2711-1.1796 12.082 0.42411 8.0493-4.7549 18.253 14.817 9.908-4.6366-18.677-16.385 15.142-9.0087 22.63-4.262 16.81-0.50505-24.172-5.327-6.3048-6.5468 19.636 3.4293 35.434 13.146 55.162 12.067 4.5343 18.092 52.754 1.6697 19.75 7.619-16.537 2.2738-16.042-16.635-13.259-8.0742 5.753-2.3181 3.2786-6.0771 8.8282-0.23302 10.919-6.7633-12.782 6.9691 7.9898 2.1569 15.866 3.0177-28.786-0.0225-5.7625 3.507 9.7373-1.2225 20.221-4.8744 3.7272-5.7675-2.729-10.215 11.298 4.9059 12.712-0.95789-18.637-4.7565-6.0425-28.911-7.8185-43.96-9.3493 1.6077-12.204 53.721-6.0322 19.054 1.4669-28.846 10.429 27.555-9.7602 18.666-12.261 7.0464-30.75 2.3736-18.899-13.877 8.1981-12.805-15.526-6.2086-17.475-17.061-0.47012-19.521 5.1416-40.777 0.75081-59.545zm-2.796 6.3687c1.6554 5.4144-3.9122 2.5028 0 0zm-4.1422 4.5824c-0.7481 2.4734-1.9888 1.136 0 0zm4.0387 0.10358c-2.9599 8.3524-5.761 6.1051 0 0zm-3.5209 1.3721c-5.785 8.7719-7.4118 6.0299 0 0zm2.7184 3.1843c1.2736 2.0695-1.8627 0.92411 0 0zm0.23301 2.2006c2.3714 5.5814-2.3267 2.6967 0 0zm-1.8381 2.563c-3.7734 7.129-9.6911 8.6742 0 0zm1.9934 2.4854c0.71958 1.9121-0.47309 4.4487 0 0zm-3.2879 2.7184c-8.4983 3.667-24.923 14.913-7.3007 5.0225 0.0641-2.0353 8.014-2.0453 7.3007-5.0225zm-22.757 4.3235c-1.4098 4.8459-3.3754 2.1078 0 0zm28.763 4.7895c0.46952 6.5986-0.40544 2.6547 0 0zm4.7118 31.895c3.516 2.1118-3.7821 0.69022 0 0zm2.5371 0.49188c1.8727 4.3799-8.5357 26.692-2.053 15.819 1.9266 11.093-16.856 6.3254-10.27-3.936-2.6045-15.855 3.5996-7.9007 12.323-11.883zm-15.999 0.46601c13.428 18.407-13.92 25.48-5.163 3.5511 2.6877-0.29339 4.0831-1.8143 5.163-3.5511zm17.63 0.18123c18.941 4.2122-9.0132 40.909-1.2168 9.8378 0.60727-3.2568 0.45422-6.5997 1.2168-9.8378zm-18.252 4.2458c-4.5452 3.9193 0.64306 1.336 0 0zm-7.482 3.3138c0.70907 1.266-1.7913 0.75565 0 0zm20.245 0.54369c-2.7482 1.4115 0.55413 1.4957 0 0zm0.4401 2.9772c-2.3553 0.89295-0.11941 3.7505 0 0zm-60.58 3.7539c9.4303 0.45834 30.055 3.8599 8.0515 4.5306-2.5795-0.793-6.974-1.3772-8.0515-4.5306zm22.472 1.1909c7.9604 0.91547 7.911 3.2222 0 0zm78.548 3.6504c-2.56 1.0808 2.8872 1.8617 0 0zm4.2458 0.51779c1.8165 1.2825-2.0813 1.7338 0 0zm-142.67 0.25889c13.972 2.7445 5.5204 3.0978 0 0zm98.974 0.90612c2.2365 1.0721-1.6794 0.95083 0 0zm-12.815 0.28479c5.3554-0.2173 17.135 4.8924 0 0zm-2.2782 0.98379c23.231 2.0467 14.709 9.6526 0 0zm11.521 0.46599c1.7792 0.59623-0.69052 1.3028 0 0zm1.9417 0.69901c8.5151 1.4596 0.11311 1.3153 0 0zm-43.364 0.0518c-10.482 4.0708-4.6128 6.6125 0 0zm-44.814 1.1909c22.792 1.2793 13.352 9.2364 0 0zm92.528 0c13.716-1.02 25.731 8.9454 5.2997 4.3048-3.5777-4.215 22.289 2.7659 0.19466-2.4506 0.11627-1.3603-6.2013 0.25133-5.4944-1.8542zm25.527 0.33658c1.3578 0.86401-0.7032 1.1091 0 0zm-67.674 0.41421c-11.757 0.98599-9.6512 6.9052 0 0zm2.4854 0.33656c-7.9669 3.233-1.09 3.5114 0 0zm2.0452 0.77668c-6.8646 2.9156-5.2527 6.7961 0 0zm11.521 0.36243c-3.6528 0.34655 0.27427 1.7776 0 0zm-5.7992 0.38835c-9.5007 4.7338 2.2656 1.65 0 0zm74.845 0.64722c-0.87284 1.456 4.473 1.1944 0 0zm-68.321 0.12945c-6.2429 2.1128-0.36856 4.4307 0 0zm-49.888 0.18122c0.27121 4.6477-8.103 0.31123 0 0zm4.6601 0.18122c31.188 5.6358-4.6576 4.3733 0 0zm42.406 0.0259c-6.104 0.0445 1.12 5.6704 0 0zm67.027 0.33659c1.3837 1.1549-1.9125 0.70832 0 0zm-84.424 0.0518c-1.1344 0.35206 1.4012 0.23384 0 0zm26.329 0.69901c-4.7824 3.2523-0.0764 5.4637 0 0zm-5.126 0.62132c-4.0106 2.5511 3.1113 1.4648 0 0zm80.696 0.0259c-1.5752 0.64808 25.52 5.7752 3.1971 3.7566-16.305-1.6085 9.862 7.0969 14.407 3.57 4.4582 5.5195 34.216-1.656 14.701 3.3945-10.377-0.59117 35.574-0.18066 12.509 1.7057-5.6493 4.029 17.143-5.3842 9.6566 7.948 1.2646 27.665-0.02-19.82 6.3457-6.0017-11.029-9.2809-41.926-9.8628-60.816-14.373zm-130.12 0.12944c9.1971 5.0039-8.9964 2.3734 0 0zm58.38 0.6731c-4.0349 2.763 1.6791 3.6524 0 0zm2.8219 1.3721c-2.26 1.3263 3.9823 0.68802 0 0zm-44.011 1.3462c-0.89567 2.243 2.3663 1.7436 0 0zm130.4 0.44013c2.2407-0.0395-0.93319 0.48994 0 0zm-149.56 0.44011c-1.6871 0.65422 1.1038 1.0029 0 0zm144.54 1.0356c1.4601 1.9654-6.4088 1.49 0 0zm6.2393 0.12945c15.049-1.3017 3.8 7.8451 0 0zm-164.14 1.8381c-1.9379 0.83147 3.9042 2.1012 0 0zm3.1585 2.9514c-0.51489 3.0096 3.3328 3.5978 0 0zm104.54 0.36246c-1.9836 0.92469 1.9837 0.92459 0 0zm40.982 0.51777c-2.5532 2.0667 4.2653 0.50564 0 0zm-32.102 0.33655c-2.1673 0.79968 2.6694 1.2932 0 0zm30.912 0.0777c-6.5611 0.31313-4.5461 3.3513-0.00001 0h0.00001zm-17.009 1.2686c-7.431-0.74688 0.70414 5.7014 0 0zm-5.8768 0.0777c-4.8064 0.72459 1.1701 1.366 0 0zm11.055 0c-6.4092 3.1473 3.1173 0.43777 0 0zm-130.87 1.5275c0.84674 3.3107-0.17706 0.41824 0 0zm35.494 2.7442c-3.6302 6.9382-8.0764 5.8144-10.481 5.5602-2.4643 1.8172-13.726 4.0017-9.8792 6.0957 2.0926 4.362-12.706 10.081-6.0466 10.428 6.3008 3.6355 1.2228 12.948 8.2068 5.5662 7.0491 7.1005 4.5859-0.36604 11.317 2.9408 4.7519 2.3454 9.7259 22.997 5.5833 17.43 1.721-4.5951-7.8565-5.927-9.7292 1.3244-8.8265 0.13449 4.0826 17.211-7.6114 1.9676-5.1972-1.8098 3.699 8.4949 3.3397 9.2942-1.8895 7.766-7.0412-0.62319-3.728 6.4982 8.5434-7.4732 8.6174 7.2211 9.4694 3.9884-1.7084 3.5499-12.168 13.283-6.0261 12.399 6.8041-12.778-7.5404 21.833-3.1257-2.0445 2.6154-13.866-7.3329 27.248-2.7199-2.5338-2.8243-10.754 0.44651-17.053-1.2639-22.286-1.7224-13.305-6.1805-28.193-1.8864-6.2166 0.15158 13.884-2.0416 37.969 4.0511 45.404 8.9388-10.2 47.632-0.74424 43.416-0.90612-0.46656 8.5302-4.6531 1.4425 2.33 9.1389-4.0942 9.8102 7.5347-4.1349 6.0791 6.879 9.0164-9.5993 1.71 17.287-10.221 6.2184-19.375-5.9521 12.086 1.5441-5.6527-5.3314-5.6059-10.908-5.5451 9.6492-7.2923 0.49255-1.3118 12.786 0.6198 33.024 1.133 31.47 25.686 12.099-8.4698 22.329-20.585 13.63 21.218 13.597 42.924-4.0419 51.58-23.844 8.7396-14 28.836-24.311 43.882-13.255 11.947 1.6056 23.547 27.729 6.4167 9.2293-8.8792-10.066-32.353-8.58-8.1771-3.5078 11.354 4.0824 25.046 34.507 7.7849 9.4669-5.7799-9.4865-35.641-11.064-31.266-7.81 15.395-8.2621 46.11 20.037 37.638 23.882-7.6988-14.634-28.196-26.519-40.615-17.462-8.6932 7.2555-8.8981 8.377-11.857 10.485 5.652-12.945-7.3137 10.669-2.7443-3.0808-6.8542 12.359-0.15305-2.772-10.666 10.459-3.7176 1.4328-2.1164 5.0452-5.7633 7.1651 6.1548-4.3927 47.16-14.837 30.591-6.2331-10.648 0.33593-50.048 14.806-20.641 5.6091 8.4985-5.6717 27.317-3.1623 16.861-0.3536-3.4101 0.18493-26.581 9.2113-41.06 12.893 9.7978-1.7886 32.402-9.3987 14.265 0.75078 18.494-11.613 7.6105-1.2082 6.4723 2.2524 6.9295-0.5444 18.475-17.384 9.903-3.8578 7.8399-8.3834 12.411-11.823 4.3217 0.50956 5.8413-5.2063 10.971-14.699 4.9332-2.684 16.819-11.893 4.7668 2.112-0.90612 2.6148 20.124-13.315 44.712-9.4913 66.354-2.9772 12.786 2.6552 25.581-2.6138 22.886-5.5144-4.3287 2.878-7.7102-5.9231-19.495 5.0484 7.5497-10.357 5.3167-3.0498-5.2814-1.3721 14.105-11.177-7.6919-3.8796-3.5209-1.8122 15.951-5.2523-1.7612-9.6234 15.428-16.026-16.438 8.079-14.998 1.6648-1.6508-6.6211 7.6287-5.8202 24.846-10.821 18.604 10.195 2.206 14.656 6.5736-31.206-11.452-15.369-23.037 13.294-4.1905-5.6154-2.548-5.8343-11.144 7.2515-20.724 16.299-5.156-0.54772 23.724-12.299-2.7686-3.2807-8.8758 6.2174 4.5114-15.423 41.538-29.928 33.915-2.0711-8.8298 11.663 12.908 39.822-0.56957 15.093 0.95818-2.0885 18.561 25.446 27.468 14.627 24.344-3.5406-35.402-10.972-20.608-22.006 13.639 2.8291 17.746-0.0833 1.4757-0.67312-10.432-4.6239-1.6014-21.576-11.132-27.675 6.3703-15.695 5.8636-33.615-2.8478-48.309-9.3352-18.552 22.784-33.936 25.994-17.113-11.13 6.2112-36.04 27.292-11.082 9.4752 5.5195-11.785 35.439-11.416 16.391-0.81631-8.4524 2.2853-36.021 14.778-11.653 6.483 17.431-0.2025 48.019-31.421 17.342-35.201-13.08 0.27063-9.5344-8.4898-3.0517-10.05-2.6046 5.6788 14.791-16.451-1.8381-3.3915-17.79 18.207-41.307-3.8918-61.875-5.7215-9.9069 14.127-15.085 38.001-31.777 44.875-10.599 4.0769 14.697-14.231 10.705-15.336-6.6318 5.2518-15.912 18.294-13.205 7.1974-12.111 18.483 3.8595-18.581-9.346 1.6828 7.5723-23.072-21.134 21.332-10.278 2.8996 9.6475-9.9554 11.013-23.618 4.4788-11.65 0.55159 0.48318-10.628 19.181-3.205 0.3246 4.1096-13.509-3.7372 3.1882-2.8789-3.2242-3.3347-2.783-6.8304 12.001-8.6211 6.9124-1.6263 8.5582-8.766 4.1549-9.5271 0.79795 1.3182-13.874 5.0091 8.8146 3.6503-9.0048-9.5037 8.7748 4.985-11.927-6.4464 1.8899-7.9365 3.5731-3.6501-8.414-8.6987-5.4626 2.7203-6.3541-10.598 8.5263-4.2976 0.28477-15.821 7.605-16.154 12.093-9.4237 11.702-1.9497 14.144-11.348-6.6846-6.9581-4.5261 14.964-8.6105 11.519-5.8176-0.39436-2.5675 9.0494-6.6553 20.8-16.043 3.5061-3.9849-16.824 10.116-14.242-21.464-10.134-31.483h0.00001zm-29.902 1.0356c-5.0899 3.2394 4.1022 6.294 0 0zm1.6569 3.495c-4.9786 1.0555 2.2809 6.002 0 0zm1.9417 1.9935c-1.4497 1.0665 1.8468 0.37159 0 0zm20.97 1.0356c1.1774 0.15961 0.56914 3.5358 0 0zm-21.566 0.28477c-1.3698 1.1052 1.8493 0.76924 0 0zm30.601 0c-4.0246 3.3338-8.0009 14.863 0 0zm-35.598 0.77665c-3.255 1.6861 4.2246 0.23148 0 0zm10.123 0c-3.3183 2.597 0.84445 4.2255 0 0zm11.572 0.10359c1.2114 0.67311 0.28191 2.9706 0 0zm-8.9059 1.0096c1.5282 1.8428-1.9515 1.9088 0 0zm2.6407 0c1.345 0.51747-1.3794 0.8873 0 0zm9.7343 1.5016c4.429 3.7382-1.5296 2.1191 0 0zm-26.588 0.80255c-3.5497 19.669 4.6391 17.428 0 0zm151.01 0c2.8163 0.45952-1.544 2.2555 0 0zm-129.08 0.10356c1.1168 0.98942-1.7942 0.59676 0 0zm-4.2458 0.46599c2.7609 1.7779-1.5118 2.3397 0 0zm-2.8219 0.59546c3.3818 1.7376-0.91898 1.5087 0 0zm11.314 0.46602c1.5604 1.3544-2.5728 3.2702 0 0zm119.06 0.80254c25.981-4.5866 5.7926 37.944 27.831 24.232-0.26683 3.3062-19.851 24.871-32.971 14.088-12.68-0.007-21.83-0.51817-9.2019-11.913 5.9413-4.1729-7.26 15.172 4.033 0.97994 12.935-10.799-5.0806 4.3875 0.7-6.4454-13.743 16.133 8.3842-20.861 9.6095-20.941zm-130.84 0.18124c2.7864 2.4618-2.6337 0.44585 0 0zm2.8219 0c1.8341 1.776-3.2088 4.5038 0 0zm6.2134 0.12943c1.1824 2.9081-1.3658 1.5765 0 0zm-19.805 0.67313c-2.9447 3.7538 1.0285 5.4385 0 0zm10.304 0.49188c5.1191 3.3972-3.2966 7.5699 0 0zm192.69 0.59543c-4.5906 6.8517-11.312 6.6857 0 0zm-49.319 0.38839c1.747 0.68721-0.69272 1.2423 0 0zm-128.98 0.54364c2.4662 5.2535-1.7949 4.8618 0 0zm-18.562 0.46603c3.3315 2.5725-2.6964 2.1667 0 0zm12.038 0.15532c2.4828 2.209-1.7502 1.6722 0 0zm141.1 1.2168c6.8829 5.164 16.2 1.219 21.89 5.947 10.684 4.6841-7.4324 1.7901-14.305 2.4152-6.5588 1.9818-2.1867 8.9236-6.9642 10.64 1.7177-6.2817-2.4412-13.678-0.62135-19.003zm-90.767 0.0777c-2.1053 1.7447 0.40961 1.9128 0 0zm-60.192 0.23301c2.4476 1.1642-1.5376 1.5576 0 0zm6.9383 0.33655c0.39545 5.6845-4.9204 4.9297 0 0zm-10.718 0.233c4.8951 3.0328-2.9757 3.223 0 0zm3.1844 0.9061c1.2816 0.94133-0.75505 1.0149 0 0zm2.5889 0.0259c2.7639 0.43308-1.5404 2.2784 0 0zm13.359 0.54368c3.2264 9.0751 0.65554 1.224 0 0zm-16.673 0.56955c1.8547 1.6544-2.0941 1.9733 0 0zm2.3559 0c3.4062 2.4561-3.8796 4.8979 0 0zm7.7667 0c0.36835 9.5818-3.1921 0.73501 0 0zm34.795 1.2945c-2.4233 0.36238 0.86925 1.0474 0 0zm-39.455 0.98378c2.1088 0.41379-0.71668 2.3783 0 0zm6.0839 0.75078c1.3526 1.0299-1.3584 1.3437 0 0zm4.2717 0.28477c5.8074 6.2257 2.3182 6.1149 0 0zm-11.21 0.12944c2.3725 0.77086-0.92132 3.0124 0 0zm3.8575 0.72492c2.7451 1.7856-3.4864 4.5281 0 0zm39.326 0.15532c-10.784 0.74882 0.13412 4.4967 0 0zm-51.002 0.38834c-1.9542 6.4075 5.1792 0.21811 0 0zm196.06 0.25889c5.3433 0.59605-1.4732 2.7953 0 0zm-10.796 0.38835c5.7508 2.4-5.2222 3.2773 0 0zm5.592 0.44009c7.0691 4.7852 11.991 0.71213 16.647 7.715 8.8088-1.7187 7.2375 7.6135 0.65367 1.4664-9.8336 3.8811-8.1262-3.9669-15.799-4.3918-0.95585-1.1046-4.7687-4.2554-1.5016-4.7895zm-173.64 0.25889c3.0724 5.3168-3.0486 0.29405 0 0zm183.24 0c4.5116 2.5347-1.3634 2.6732 0 0zm-207.11 1.2945c1.444 7.5428 7.3322 9.228 0 0zm170.12 0.28478c-0.0328 2.6045-2.2387 1.077 0 0zm-101.9 0.41423c-1.4516 1.6673 0.8958 2.8724 0 0zm12.608 0.85433c-1.5059 8.4134 1.7582 9.7995 0 0zm-3.0549 0.95789c-1.9835 1.16 0.89679 1.9642 0 0zm-19.624 0.72492c0.38583 5.3954-18.45 11.405-4.1768 2.4497l4.1768-2.4497zm-49.371 0.0518c-1.0068 1.932 2.4364 1.797 0 0zm22.834 0.33655c1.2816 0.94132-0.75512 1.0149 0 0zm52.917 0.38833c-2.907 7.2976-1.258 10.361 0 0zm138.43 0.0518c2.5443 13.795-4.183 5.517 0 0.00001v-0.00001zm-162.17 1.0874c1.3636 0.47639-1.3793 0.86362 0 0zm109.04 0.36247c2.7222 1.3674-2.6741 1.4836 0 0zm-105.89 0.18121c2.1985 15.106-6.3667 7.3547 0 0zm50.199 0.18122c-2.5422 6.454 0.644 1.4937 0 0zm-55.532 0.0259c-0.11124 4.8016-5.9155 3.5228 0 0zm-25.138 0.0777c9.1502 8.8432 3.4698 15.841 0 0zm146.89 0.36243c4.1562 2.9084-4.8262 1.7039 0 0zm-6.9642 0.0259c8.6939 0.97484-3.0956 1.8164 0 0zm-69.642 1.2168c-0.49253 0.80713 0.5477 1.949 0 0zm92.942 0.0259c0.98585 3.3066-5.0662 3.6704 0 0zm-75.182 0.25888c-0.62674 0.7199 0.83174 1.252 0 0zm-29.125 0.10358c-1.7474 9.9794-5.4698 8.1751 0 0zm-23.171 0.0777c1.5066 6.4255-6.7114 7.485 0 0zm136.1 0.33653c-0.27856 3.5705-2.9664 1.6738 0 0zm-117.8 0.31068c2.603 9.5874-27.83 27.696-9.1532 11.253 3.9366-2.9101 7.9933-6.3147 9.1532-11.253zm25.656 0.67312c-0.57153 0.76395 0.80411 1.2135 0 0zm-58.691 0.0518c1.1122 1.0125-1.7524 0.64311 0 0zm88.36 0.0259c-7.9478 3.3208 3.6245 7.7758 0 0zm-110.75 0.0259c2.026 1.5785-1.1371 2.7913 0 0zm112.31 0.20711c-1.654 2.0884 0.28629 2.2907 0 0zm54.264 0c1.5083 2.0319-1.9761 2.6827 0 0zm-188.21 0.38835c-2.7816 1.2545 0.97712 5.2571 0 0zm48.283 0c4.2059 5.297-5.1363 7.5903 0 0zm-4.2717 0.38832c-1.0231 2.2536-2.9793 1.0161 0 0zm94.961 0.54369c-2.0864 2.919-0.88147 3.1214 0 0zm53.073 0.59545c8.3365 1.0234 11.032 6.0872 13.773 2.8219 8.8749 8.5205-6.8379 3.5032-13.773-2.8219zm-48.982 0.23299c-16.869 8.7434-11.018 17.353 0 0zm-52.891 0.12944c2.4907 3.8499-4.4549 6.8807 0 0zm-30.187 0.12945c2.7566 3.5398-9.3068 6.5087 0 0zm-19.805 0.233c1.5954 2.1454-6.0116 2.1208 0 0zm65.707 0.0259c-2.6281 2.478-1.7807 7.3008 0 0zm-63.092 1.1132c0.69439 1.3391-1.8034 0.64795 0 0zm-19.158 0.51777c1.6284 1.9281-0.64215 0.70358 0 0zm31.973 0.31067c0.60971 5.7949-7.2795 4.7843 0 0zm-10.33 0.15534c0.10874 2.6473-5.2921 3.1212 0 0zm-7.9998 0.0259c-1.1042 3.2813-3.955 0.82751 0 0zm128.05 0.12943c-5.637 13.477-14.422 5.8752 0 0zm-124.53 0.0259c0.8351 2.6558-4.6679 1.891 0 0zm126.49 0.98379c-4.7606 8.5452-8.7556 5.9599 0 0zm-72.205 0.18122c-1.4114 6.3927-8.5504 4.6364 0 0zm-17.113 0.38836c-2.3975 14.949-19.718 10.621-1.7087 3.1585l1.1909-2.1747 0.51779-0.98377zm-31.973 0.0259c-2.5853 3.6317-5.8395 1.7428 0 0zm14.731 0.0518c1.4882 4.9505-7.3202 3.9873 0 0zm-22.782 0.36246c-0.53248 3.3985-4.2635 2.7094 0 0zm87.117 0.77667c-1.927 0.89932 1.3012 1.1724 0 0zm-95.194 0.44011c3.1941 2.553-0.1148 5.9697 0 0zm-3.8057 0.18124c2.393 6.1331-3.752 4.7787 0 0zm24.672 0c1.9689 3.6315-6.6149 2.8624 0 0zm14.032 0c-1.7676 8.5755-10.859 6.3776-0.00001 0h0.00001zm-18.562 0.36244c0.60182 1.3712-1.7564 0.60423 0 0zm-4.1682 0.0259c-4.4335 4.177 0.25251 0.31283 0 0zm-41.215 0.10354c-0.9833 2.039 2.9506 1.1842 0 0zm17.423 0c2.9864 1.2457-1.0675 1.9768 0 0zm70.729 0.69903c0.22138 2.1634-5.5623 3.1517 0 0zm-75.389 0.36245c2.3041 2.032-2.919 4.1244 0 0zm21.229 0.0518c0.75505 5.7442-4.9634 0.47625 0 0zm12.556 1.0356c0.0139 1.71-2.1106 0.81801 0 0zm-30.471 0.0518c3.1661 0.58476-0.66281 4.1138 0 0zm-7.1195 0.20711c3.6677 1.1159-0.29681 3.8778 0 0zm10.33 0.18121c1.6096 1.5326-0.23182 1.9745 0 0zm21.954 0.33657c1.31 2.8177-5.3753 2.5624 0 0zm50.769 0.36244c-3.1256 5.808-10.385 5.8096 0 0zm61.694 0.0518c-1.5762 6.865-11.663 7.3148 0 0zm-127.69 0.69902c2.0497 7.6697-2.6595 4.8568 0 0zm20.556 0.0258c0.44496 1.849-2.754-0.0752 0 0zm-38.031 0.0259c4.1508 0.70397-0.78283 5.1223 0 0zm42.225 0.12944c0.4625 1.4445-1.6096 0.72308 0 0zm-6.3687 0.18122c-0.0961 2.8169-8.6978 5.4483 0 0zm-28.84 0.0259c1.2243 1.4821-0.69004 1.5208 0 0zm6.8606 0.0777c3.5632 1.8756-2.5157 7.5972 0 0zm15.922 0.67311c-0.48291 2.1084-4.6488 2.3925 0 0zm17.579 0.0518c-2.138 2.8416-3.0284 1.2618 0 0zm-37.28 0.12946c2.2483 0.43331-0.29635 3.7547 0 0zm14.601 0c1.6618 0.85077-2.6366 1.026 0 0zm87.66 0.7249c10.81 3.44 22.709 5.4414 6.8529 4.7296-17.131-9.4261-60.435 19.746-53.489 15.31 10.58-11.337 27.344-17.287 46.636-20.039zm-109.85 0.23299c0.06 4.7913 0.53419-0.6982 0 0zm135.53 0.38832c3.5966 1.3776-3.0951 1.5823 0 0zm10.407 0c11.885 6.6711-2.5302 28.568-5.0743 39.843-3.0049 9.6165-13.412 25.339-5.6671 5.3508 4.3494-14.822 8.802-29.851 10.741-45.194zm-26.355 0.0259c2.5489-0.005 4.8196 1.9423 0 0zm-97.136 0.38832c4.6295 1.0426-3.5001 2.7177 0 0zm119.06 0.25889c-6.5488 13.491-7.1337 2.8081 0 0zm-140.03 0.233c1.1128 2.4935-1.6481 1.0642 0 0zm59.312 0.23301c1.3581 1.0444-1.3994 0.89411 0 0zm-55.014 0.10354c4.6873 7.1936 0.13648 15.902-0.25888 0.0518l0.25888-0.0518v-0.00002zm76.036 0.38835c-3.2526 3.3843-8.5844 4.3079 0 0zm-62.962 0.0518c1.7358 1.4656-1.7008 1.0164 0 0zm47.325 0.12942c-6.645 8.5852-7.1108 0.46034 0 0zm-53.642 0.62135c2.3047 9.6702-3.3328 10.674 0.00002-0.00001l-0.00002 0.00001zm40.853 0.20713c3.4331 1.6712-8.576 3.5206 0 0zm-50.406 0.12942c1.0923 0.96394-1.6997 0.62881 0 0zm125.3 0.12946c6.2521 3.4852-5.7613 0.75076 0 0zm14.834 0.64721c1.229 2.0195-1.8141 1.0567 0 0zm-123.96 0.25889c1.9234 1.5715-3.4065 2.7348 0 0zm-28.582 0.36246c-1.2242 1.4822 0.69009 1.5207 0 0zm13.203 0.15534c4.4985 11.077-2.6413 7.2597 0 0zm99.906 0.15532c11.793-0.90783 21.411 4.947 4.2154 3.6143-15.13 1.9388-18.899 4.3463-1.4771 1.1765 11.867-1.9374 39.344 7.634 12.689 3.5367-10.695-1.473-32.779 4.1427-9.7724 0.74171 32.848 4.4153-13.719 2.5354-23.57 9.8557-21.822 6.2608 26.034-16.314-3.957-4.2435 4.6557-5.8681 15.473-10.401-1.0776-3.7512-7.3268 2.6857 10.222-9.511-3.1722-2.2832 7.0793-4.2702 15.539-8.7669 26.122-8.647zm28.763 1.2427c1.9878 5.023-2.9519 0.2338 0 0zm-113.81 0.38834c5.2612 11.79 8.0046 9.7088 10.951 14.291 7.3087-4.1667-0.93092 6.3157 10.097-1.165-7.3408 8.6895 8.7758-8.6958-0.0518 3.3138 8.7378-9.1269 5.8523-2.672 4.5896 0.14645 10.182-14.229-1.2978 7.8296 9.4966-5.4403-5.8494 11.585 8.7854 1.0056 6.6665 4.2959-10.158 6.8831-52.657 5.2891-41.749-15.442zm40.879 0.4919c-2.0659 1.8776-3.3075 0.51264 0 0zm61.28 0.23299c9.4788-0.95376 21.298 10.054 0 0zm-120.93 0.0259c1.4575 3.0173-3.5522 4.3681 0 0zm-3.961 0.12943c0.19248 2.9404-2.3854 1.4281 0 0zm76.295 0.38834c-7.8047 7.9778-11.088 1.2853 0 0zm-70.237 1.2944c2.3536 6.9895-1.6371 4.7447 0 0zm12.608 1.165c0.68891 1.4718-1.2582 1.5442 0 0zm145.42 1.1909c-1.6441 0.27537 1.6441 0.27533 0 0zm-155.62 1.4757c2.0746 1.0517-0.55676 2.111 0 0zm147.18 0.23299c7.2355 10.026 2.6246 10.251 0 0zm-144.59 0.10354c1.5077 0.65046-0.91166 1.6141 0 0zm-9.9414 0.0259c-1.2602 1.4227 0.6259 1.5732 0 0zm11.262 0.38832c1.2601 1.4227-0.6259 1.5732 0 0zm48.49 0.41423c-1.2391 2.5006-2.8381-0.0464 0 0zm-30.264 0.46601c0.99982 2.121-2.8546 3.1572 0 0zm36.918 0.33657c1.7944 1.8019-5.1242 0.66177 0 0zm-60.969 0.28478c1.3881 1.9403-1.352 2.054 0 0zm35.649 0c0.60182 1.3712-1.7563 0.60407 0 0zm57.629 0.0518c-2.8308 0.52225 1.3571 0.46426 0 0zm-64.542 0.72489c1.3617 2.4064-3.9075 3.7209 0 0zm-26.277 0.18121c1.8708 2.1666-1.833 2.2955 0 0zm121.39 0.56958c4.025 1.034-4.5678 0.69274 0 0zm-10.64 2.3041c12.099 5.6663-25.003 3.8081-31.455 9.6049-8.1257-4.0689 26.502-12.025 31.455-9.6049zm4.9966 0.0518c18.695-1.7079 11.32 10.295 0 0zm-117.69 1.1132c0.91245 1.0322-0.57559 0.95007 0 0zm124.4 0c-3.8218 0.80191 4.2336 1.272 0 0zm-112.28 1.4239c0.96508 0.89041-2.3332 1.374 0 0zm52.607 0.10358c-0.61966 4.2484-5.7716 4.303 0-0.00001v0.00001zm-68.27 1.0614c3.5613 1.7596-3.6124 1.6846 0 0zm18.329 0.12945c1.1099 0.98224-1.7301 0.60483 0 0zm101.07 0.56956c2.4659-0.43402-41.988 10.792-38.523 12.194 3.7899-9.3672 26.325-11.291 38.523-12.194zm4.6342 0.0777c14.339 2.2304 1.1586 3.918-0.00001 0.00002l0.00001-0.00002zm33.009 0.0259c1.3486 1.6686-0.4009 1.8554 0 0zm-157.59 1.0874c2.6639 3.3628-3.5476 0.36763 0 0zm134.99 0.75077c1.3997 0.46163-1.3845 0.93 0 0zm4.5047 0c-0.60778 9.9183-4.2982 7.3842 0.00001 0.00002l-0.00001-0.00002zm-20.659 0.67313c13.846 3.0113-19.176 6.1 3.7022 4.3494-9.388 1.7895-30.576 10.134-27.132 6.9383-10.338 7.5113-20.021 11.111-4.0387 1.5274 18.736-10.3 4.1674-2.1226-3.9093-2.7442 4.8431-7.7932 21.369-9.6683 31.378-10.071zm39.636 0.28478c2.0621 3.7984 0.61361 4.0508 0 0zm-100.63 0.15534c1.7304 4.8223-7.9525 6.1549 0 0zm94.573 0.0259c1.3234 2.8662-0.1323 10.37 0 0zm-88.23 0.10354c-5.473 6.0607-4.5518 2.1319 0 0zm61.979 0.0777c5.776 1.0389-4.5616 2.2108 0 0zm-72.386 0.0518c2.0857 1.119-4.4559 0.62788 0 0zm-54.781 0.90613c4.7065 0.54301-1.7765 2.1618 0 0zm73.965 0.28476c-3.3816 5.7706-5.2035 2.2025-13.799 11.081 3.7433-4.4651 8.2826-8.9409 13.799-11.081zm2.33 0.64723c0.43411 1.4266-1.5967 0.72948 0 0zm-51.649 0.56954c1.3684 0.41735-1.3024 0.96367 0 0zm-5.6697 0.38836c1.3997 0.46156-1.3844 0.93002 0 0zm110.55 0c11.338 2.0907-9.2032 0.77756 0 0zm21.773 0.75078c1.1419 2.023-0.67335 2.0058 0 0zm-39.377 0.38833c-2.03 1.1468 2.556 0.67701 0 0zm-51.623 0.0518c1.556 0.24878-1.335 0.46624 0 0zm4.3235 0.10354c-6.0131 8.7971-12.506 6.7574 0 0zm15.223 0.33655c2.2306 0.73302-2.3817 1.225 0 0zm30.29 0.28478c-4.9836-0.1546-3.7292 1.998 0 0zm-50.406 0.10357c-2.2205 2.5671-2.025 0.4849 0 0zm-5.4108 0.82844c-0.13139 2.5392-2.8072 0.7035 0 0zm19.287 0.18122c-0.56166 7.5299-15.744 8.7652-0.00001 0h0.00001zm-65.448 0.75078c-1.0132 3.3653-3.0606 0.12671 0 0zm73.629 0.0777c-1.9404 2.2143-3.2584 0.31026 0 0zm48.749 0.0776c-2.4181 1.3479-0.7688 0.49047 0 0zm-130.19 0.21c2.5549 1.052-3.7716 1.1734 0 0zm114.56 0.10354c28.265-3.6373-37.838 19.845-11.883 6.2652 3.5108-2.7551-17.691 9.7807-2.4499-0.56242 4.4943-2.4803 9.3129-4.569 14.333-5.7027zm-91.777 0.15534c-4.8229 8.4495-8.0459 2.4475 0 0zm102.83 0.12944c2.9414 0.29405-2.1246 3.4812 0 0zm27.028 0c1.8344 1.7357 0.18285 2.7412 0 0zm-1.398 0.466c1.6601 1.7343 0.94535 3.8788 0 0zm-124.06 0.0518c-0.56094 4.1705-7.0753 2.1846 0 0zm103.38 0.62132c1.9011 0.0102-1.4909 0.85678 0 0zm17.242 0.12947c2.9442 3.3778-3.6165 2.5039 0 0zm-93.693 0.0259c2.2325 0.97513-3.2116 0.54969 0 0zm-42.484 0.36244c1.2649 1.8783-1.3342 0.56258 0 0zm147.13 0.25888c3.742 2.2314-0.29804 12.459 0 0zm-143.06 0.33658c1.4684 1.6361-1.858 2.1808 0 0zm18.019 0.0259c3.6301 0.28312-4.2148 0.76958 0 0zm40.827 0.36243c-1.8722 10.609-32.81 23.164-7.9997 6.6535 2.9376-1.8734 5.261-4.5287 7.9997-6.6535zm-28.504 0.7508c0.31205 2.8851-9.5426 1.68 0 0zm84.062 0c-5.3614 1.3024-48.751 16.328-23.151 4.794 8.1069-4.5412 17.229-2.6194 23.151-4.794zm18.252 0.38832c1.9125 0.70841-1.3838 1.1549 0 0zm-94.185 0.38833c2.4239 2.043-2.5638 1.3697 0 0zm4.7118 1.165c-2.2471 2.2356 0.14063 0.0245 0 0zm-63.661 0.15534c-1.5272 1.0414 1.863 0.38909 0 0zm51.157 0.77667c-0.0557 6.409-11.644 3.2718 0 0zm111.14 0.23301c1.7299 1.7445-0.0597 3.0518 0 0zm-74.768 0.31065c-0.30501 2.2339-4.4512 1.2637 0 0zm-6.6535 0.62136c-2.3749 4.7704-24.229 19.338 0 0zm-15.637 0.466c-1.8527 6.5783-7.3613 3.6556 0 0zm32.387 0.10356c-1.0871 1.7724-1.78 0.89796 0 0zm55.532 0.44011c1.3293 1.6414-0.46092 1.0591 0 0zm-91.311 0.0259c1.0927 1.7529-1.664 0.77015 0 0zm70.755 0.28477c1.1298 5.4663-4.6816 1.9756 0 0zm-81.111 0.466c0.0884 5.4746-7.1155 3.7113 0 0zm63.351 1.4239c1.987 0.52713-6.7002 1.3442 0 0zm-33.345 0.38832c-4.0809 7.3132-23.08 18.408-5.1554 4.1212 2.4303 0.5893 2.8706-4.1164 5.1554-4.1212zm-21.902 0.49189c0.60075 1.8752-0.44818 0.90218 0 0zm57.163 0.33656c-13.888 6.45-15.63 2.8448 0 0zm47.299 0.0777c1.7652 6.7263-2.652 3.0786 0 0zm-112.18 0.36243c2.4895 6.3454-4.046 1.3882 0 0zm107.98 0.12946c3.7425 6.7583 0.55326 8.9772 0 0zm-40.62 0.466c-11.03 6.7658-13.7 5.1822 0 0zm10.278 1.0874c4.9075 4.484-4.2052 1.2683 0 0zm-45.435 0.49187c-6.2004 4.9877-35.047 32.216-16.051 11.754 5.555-3.5501 9.9795-9.0588 16.051-11.754zm42.536 0.28477c2.556 0.67703-2.03 1.1468 0 0zm27.831 0.18122c2.7533 4.1016 3.3985 17.564 0 0zm-46.29 1.3462c1.7164 1.2582-6.2325 2.1498 0 0zm-65.111 0.0518c3.884 1.9739-4.5851 1.8709 0 0zm25.371 1.0096c-5.2791 7.0602-6.9734 4.0186 0 0zm-11.262 0.44012c1.3753 1.054-1.3722 1.4083 0 0zm100.84 0.44012c1.6517 1.6684-0.39124 1.8448 0 0zm-72.826 0.31066c1.3684 0.41736-1.3024 0.96364 0 0zm21.799 0.62135c-1.7359 2.8143-6.0442 2.0228 0 0zm11.158 0.15534c-2.5197 2.4425-4.4232 1.2124 0 0zm-15.456 0.0259c0.0755 0.96542-1.5974 0.38889 0 0zm-18.666 0.67311c-4.883 9.037-12.997 5.8982-0.00001 0h0.00001zm17.035 0.0259c0.16797 2.9986-3.7706-0.17715 0 0zm9.4495 0.41423c1.4025 0.66624-3.4381 1.47 0 0zm-24.957 0.38836c0.87244 2.2155-4.0367 3.2833 0 0zm75.363 1.0873c2.6866 1.5465-1.4424 5.9009 0 0zm-131.72 1.1132c3.2044 11.74 2.1579 21.828-0.20713 2.9773l0.20713-2.9773zm57.137 0.0518c2.226 2.7401-6.3374 1.7561 0 0zm38.005 0c2.7169 1.6544-7.7218 3.7733 0 0zm29.332 0.0518c2.6119 3.8076-1.5394 4.9482 0 0zm-27.158 0.33658c0.9521 3.9714-4.9661 2.0351 0 0zm-36.297 0.0518c1.3117 1.9959-2.2775 0.70738 0 0zm5.6697 0.36243c-1.8427 1.6836-0.81472 0.77171 0 0zm1.9158 0.72492c4.7843-0.62025-0.65646 2.079 0 0zm-39.921 0.4142c-1.0826 1.7345-1.7659 0.96146 0 0zm3.9092 0.12946c-6.5845 7.7844-6.6532 4.1389 0 0zm51.726 0.20713c1.3275 0.99583-7.1198 3.7498 0 0zm46.497 0c3.4013 1.0788-3.932 0.67354 0 0zm-36.4 1.3203c6.052 2.7541-7.979 3.0991 0 0zm-24.439 1.3203c1.747 0.68718-0.69268 1.2424 0 0zm9.5272 1.1909c1.0262 1.2399-5.0818 3.8875 0 0zm-74.923 0.41423c14.566 0.95416-6.0507 14.296 0 0zm10.666 0.33659c1.6123 6.3466-9.8471-0.96265 0 0zm67.182 1.0873c2.4388 8.5652-8.0628 2.9181 0 0zm29.772 0.10355c1.4998 0.66282-1.06 2.6075 0 0zm-19.831 2.1747c2.5293 0.79812-3.4031 2.0349 0 0zm-2.4854 0.41423c2.1883 1.5705-5.2606 1.7946 0 0zm16.698 0.15535c2.5483 3.9416-2.8915 1.8976 0 0zm-95.557 0.56954c-0.49232 5.9644-11.813 8.182 0 0zm17.656 1.1909c-1.1439 1.8221-1.7281 0.86058 0 0zm-10.433 0.69901c-0.5891 2.1439-2.4915 1.168 0 0zm71.687 0.9579c1.1825 2.9806-3.8988 1.2086 0 0zm-63.169 0.36245c-10.74 13.118-20.033 24.411-11.312 19.395-16.879 17.32-4.2218-14.372 11.312-19.395h0.00001zm-10.796 0.6731c-5.2329 15.828-25.686 20.028-8.6021 3.5952 8.3083-5.0977-14.892 17.929 1.0943 2.7476l4.0646-3.3138 3.4433-3.029h-0.00001zm-13.514 2.3559c3.881 2.285-4.254 6.798 0 0zm13.954 1.3204c-6.3103 12.233-19.314 19.525-6.5499 5.6956l3.5468-2.8478 3.0032-2.8478v0.00001zm42.199 1.165c14.567 2.3289 20.267 17.308 0 0zm121.42 1.9417c-0.78729-1.2269 35.861 12.979 13.371 2.3613-4.1336-2.0373-8.8662-2.204-13.371-2.3613zm-130.02 0.36245c-5.2581 4.4881-8.3037 2.8636 0 0.00001v-0.00001zm8.7246 0.82844c3.728 0.47444-1.6016 1.9951 0 0zm24.206 0.2848c8.4952 8.6115 0.78913 4.7449 0 0zm17.682 0.0259c-0.29429 4.838-6.6182 10.629 0 0zm-40.05 0.75077c4.9668 0.16752-0.42123 1.9488 0 0zm-9.5531 0.49189c9.3552-1.2746 19.891 10.552 6.1875 6.2393 17.003 13.529 0.024 1.731-6.3687 2.6925-0.13412 4.4758-35.637 7.7667-11.863 1.5776 19.469-1.4544 3.2507-2.9913-6.4662 0.54528 6.5904-5.0527 9.8116-10.715 18.511-11.055zm-59.027 4.0387c-2.2584 0.27152 2.3232 0.23245 0 0zm-3.3656 0.0777c-4.4295-0.0375-4.6296 1.7837 0 0zm127.61 0.25889c-11.76 5.2452 4.0927 0.19536 0 0zm-54.419 0.15534c-1.7947 3.2001 5.6501-0.31151 0 0zm9.5013 0.25889c17.026 8.6556-0.96136 10.823 0 0zm-87.505 0.33655c-14.02 6.5448-10.081 7.5128 0 0zm83.337 1.398c11.616 11.923-10.296-0.71213 0 0zm27.831 0.12946c1.2733 0.79992-0.67257 1.1255 0 0zm-4.2199 0.0518c3.2611 0.93833-1.522 2.7358 0 0zm128.98 0.0259c-9.633-0.99912-31.928 6.7983-9.5137 1.496 24.002-4.4136 43.947 15.114 67.505 13.934-20.585-0.54441-37.56-14.399-57.992-15.43zm-115.91 0.31066c1.2015 1.0916-7.5197 6.8173 0 0zm-10.563 2.6407c3.8588 2.6858-2.5438 0.69421 0 0zm-40.879 1.1391c5.3234 1.7732-5.2643 1.821 0 0zm-79.687 0.20711c-11.561 3.8583-5.157 4.624 0 0zm116.03 0.54366c6.0505 0.51868-5.4766 1.791 0 0zm-29.358 1.5274c1.3165 0.79009-0.69361 1.1637 0 0zm-9.3978 0.0518c2.739 1.2171-1.4642 2.5562 0 0zm22.964 0.12946c2.039 0.93725-2.0783 1.2486 0 0zm-127.53 0.23301c-1.7323 0.31775 1.7323 0.3178 0 0zm134.6 0.12945c8.4382 3.5321 1.135 5.2252 0 0zm111.09 0.0777c-7.2499 0.60441 0.78076 2.5655 0 0zm-99.414 0.15534c0.58921 1.7917-2.8228-0.0125 0 0zm-23.533 0.0777c3.6764 1.9806-3.5342 2.4638 0 0zm-11.365 0.64723c2.3118 1.3755-2.6979 1.2541 0 0zm5.5662 0c7.4029 2.6842-3.0802 1.8994 0 0zm-98.197 0.46601c-5.3016 1.3227 1.9853 0.67247 0 0zm59.157 0.0518c-4.4664 6.3975-7.1399 3.0375 0 0zm35.52 0.62133c-0.12869 3.255 0.5954 0.16623 0 0zm-8.0774 0.0259c-1.0227 4.5741-4.9069 4.2611 0 0zm2.33 0.0518c-0.31599 2.3927-2.7943 1.9412 0 0zm24.75 0.0259c2.3368 2.0922-4.5038 0.98927 0 0zm63.351 0.31066c11.777 7.221 11.564 14.66 0.54366 1.7605l-0.54366-1.7605zm-93.511 0.33655c-0.67565 5.0746-11.29 10.904 0 0zm7.3784 0c1.9508 2.2156-9.6251 7.9177 0 0zm38.86 0.0777c2.3773 1.6662-3.9751 0.68654 0 0zm-32.646 0.69902c5.7969 1.8826-1.1724 1.7538 0 0zm42.199 0.12944c1.2004 1.9132-1.7072 1.1815 0 0zm-22.575 0.33656c2.8443 1.2142-4.7364 0.90217 0 0zm-5.9286 0.0518c2.5622 1.8129-3.1715 0.71402 0 0zm-18.019 0.2589c1.9453 1.0523-4.6768 3.6264 0 0zm126.11 0.31066c-3.7472 1.5301-2.7266 2.2001 0 0zm-169.26 0.41422c-1.9125 0.7084 1.3838 1.1549 0 0zm50.484 0.0259c2.2269 1.4748-3.9338 1.5575 0 0zm-25.397 0.0777c-4.8417 2.7827 2.8058 0.73166 0 0zm44.33 0.21c0.0253 2.9856-3.7151-0.18777 0 0zm10.226 0.82846c-10.973 8.0132-12.235 2.8549 0.00001 0h-0.00001zm-32.931 0.33655c-1.5965 7.0611-17.989 8.7903-1.1391 0.59545l1.1391-0.59545zm18.588 0.10357c2.081 2.793-3.5366 0.61137 0 0zm-10.951 0.75078c-0.0112 5.4784-10.756 3.071 0 0zm109.9 0.0518c-6.1531 2.0856 0.12452 1.0586 0 0zm-101.98 0.59546c14.735 4.8973-6.1461 1.2295 0 0zm-22.549 0.0776c1.0937 0.93861-5.133 3.028 0 0zm17.812 0.33657c10.977 0.76682-6.7306 3.9199 0 0zm25.553 0.44012c-0.64492 2.3802-7.7786 2.064 0 0zm-4.6859 1.7864c1.3853 1.4167-2.4569 0.48184 0 0zm61.305 0.31063c11.25-0.54013 14.123 4.2095 0 0zm12.427 0.15535c3.2922 1.0652-3.2882 1.3232 0 0zm-77.512 0.33657c4.1331 2.3569-5.5255-0.34741 0 0zm43.416 0c-18.245 14.338-44.898 15.451-64.884 29.388-12.266 10.114-46.415 7.752-44.704 8.4878 19.028 6.7655 37.108-3.1718 56.039-12.559 21.519-11.424 47.108-20.342 70.935-10.108 18.101 5.4644 53.316 2.5648 59.48-7.8985-15.177 11.309-55.585 14.449-61.306 1.0519-2.8539-4.1641-10.634 4.0786-8.1033-2.7184 7.7905-10.876-17.133 13.805-3.5727-2.8737-10.387 8.3768-11.35 5.422-1.5534-2.0452-3.3292 2.8624-12.45 8.0696-2.33-0.72488zm-36.814 0.9579c2.1602 1.9043-3.0458 1.7441 0 0zm21.359 0.9061c-1.4818 4.0021-9.7649 4.2116 0 0zm2.9255 0c0.91721 2.6879-8.4517 4.9435 0 0zm-90.016 0.80258c-3.9826 5.3846-7.0542 6.5668 0 0zm-5.1001 5.2555c1.3918 0.51504-1.3832 0.90054 0 0zm121.99 0.0518c-7.6185 6.9403-0.0368 0.45627 0 0zm2.9514 1.1391c-3.4704 0.78668 3.6889 4.1761 0 0zm-114.12 1.0614c-9.8934 3.9592-0.45595 1.7102 0 0zm-4.6859 2.6925c-2.6244 2.0376-0.95194 0.70206-0.00001 0h0.00001zm-3.728 1.9158c-3.3892 0.29336-1.3712 1.9547 0 0zm-2.5112 1.2945c-15.273 11.519-66.434 2.7063-61.193 2.9794 19.914 6.4062 42.258 6.3173 61.193-2.9794z"
    />
  </g
  >
  <metadata
    >
    <rdf:RDF
      >
      <cc:Work
        >
        <dc:format
          >image/svg+xml</dc:format
        >
        <dc:type
            rdf:resource="http://purl.org/dc/dcmitype/StillImage"
        />
        <cc:license
            rdf:resource="http://creativecommons.org/licenses/publicdomain/"
        />
        <dc:publisher
          >
          <cc:Agent
              rdf:about="http://openclipart.org/"
            >
            <dc:title
              >Openclipart</dc:title
            >
          </cc:Agent
          >
        </dc:publisher
        >
        <dc:title
          >old_ship</dc:title
        >
        <dc:date
          >2009-05-11T18:50:58</dc:date
        >
        <dc:description
        />
        <dc:source
          >https://openclipart.org/detail/25924/old_ship-by-hrum-25924</dc:source
        >
        <dc:creator
          >
          <cc:Agent
            >
            <dc:title
              >hrum</dc:title
            >
          </cc:Agent
          >
        </dc:creator
        >
        <dc:subject
          >
          <rdf:Bag
            >
            <rdf:li
              >line art</rdf:li
            >
            <rdf:li
              >sea</rdf:li
            >
            <rdf:li
              >ship</rdf:li
            >
            <rdf:li
              >waves</rdf:li
            >
          </rdf:Bag
          >
        </dc:subject
        >
      </cc:Work
      >
      <cc:License
          rdf:about="http://creativecommons.org/licenses/publicdomain/"
        >
        <cc:permits
            rdf:resource="http://creativecommons.org/ns#Reproduction"
        />
        <cc:permits
            rdf:resource="http://creativecommons.org/ns#Distribution"
        />
        <cc:permits
            rdf:resource="http://creativecommons.org/ns#DerivativeWorks"
        />
      </cc:License
      >
    </rdf:RDF
    >
  </metadata
  >
</svg
>
