<?xml version="1.0" encoding="UTF-8" standalone="no"?>
<!-- Created with Inkscape (http://www.inkscape.org/) -->

<svg
   xmlns:dc="http://purl.org/dc/elements/1.1/"
   xmlns:cc="http://creativecommons.org/ns#"
   xmlns:rdf="http://www.w3.org/1999/02/22-rdf-syntax-ns#"
   xmlns:svg="http://www.w3.org/2000/svg"
   xmlns="http://www.w3.org/2000/svg"
   xmlns:xlink="http://www.w3.org/1999/xlink"
   xmlns:sodipodi="http://sodipodi.sourceforge.net/DTD/sodipodi-0.dtd"
   xmlns:inkscape="http://www.inkscape.org/namespaces/inkscape"
   width="600"
   height="512.0163"
   id="svg3374"
   version="1.1"
   inkscape:version="0.91 r13725"
   sodipodi:docname="Humanidad by Merlin2525.svg">
  <title
     id="title4246">Humanidad by Merlin2525.svg</title>
  <defs
     id="defs3376">
    <linearGradient
       id="linearGradient4483">
      <stop
         style="stop-color:#cccccf;stop-opacity:1"
         offset="0"
         id="stop4485" />
      <stop
         id="stop4487"
         offset="0.33953834"
         style="stop-color:#aaaaaa;stop-opacity:1" />
      <stop
         id="stop4489"
         offset="0.65707052"
         style="stop-color:#666666;stop-opacity:1" />
      <stop
         style="stop-color:#333333;stop-opacity:1"
         offset="1"
         id="stop4491" />
    </linearGradient>
    <linearGradient
       id="linearGradient4459">
      <stop
         id="stop4461"
         offset="0"
         style="stop-color:#ffccff;stop-opacity:1" />
      <stop
         style="stop-color:#ff00ff;stop-opacity:1"
         offset="0.39437139"
         id="stop4463" />
      <stop
         style="stop-color:#ff00ff;stop-opacity:1"
         offset="0.65537369"
         id="stop4465" />
      <stop
         id="stop4467"
         offset="1"
         style="stop-color:#b06cc8;stop-opacity:1" />
    </linearGradient>
    <linearGradient
       id="linearGradient4427">
      <stop
         id="stop4429"
         offset="0"
         style="stop-color:#ccff99;stop-opacity:1" />
      <stop
         style="stop-color:#98fc66;stop-opacity:1"
         offset="0.25"
         id="stop4431" />
      <stop
         style="stop-color:#339900;stop-opacity:1"
         offset="0.63869232"
         id="stop4433" />
      <stop
         id="stop4435"
         offset="1"
         style="stop-color:#339900;stop-opacity:1" />
    </linearGradient>
    <linearGradient
       id="linearGradient4399">
      <stop
         id="stop4401"
         offset="0"
         style="stop-color:#ffff99;stop-opacity:1" />
      <stop
         style="stop-color:#fdca01;stop-opacity:1"
         offset="0.33953834"
         id="stop4403" />
      <stop
         style="stop-color:#fdca01;stop-opacity:1"
         offset="0.65707052"
         id="stop4405" />
      <stop
         id="stop4407"
         offset="1"
         style="stop-color:#986601;stop-opacity:1" />
    </linearGradient>
    <linearGradient
       id="linearGradient4349">
      <stop
         id="stop4351"
         offset="0"
         style="stop-color:#b3defd;stop-opacity:1" />
      <stop
         style="stop-color:#0197fd;stop-opacity:1"
         offset="0.25"
         id="stop4353" />
      <stop
         style="stop-color:#0197fd;stop-opacity:1"
         offset="0.5"
         id="stop4355" />
      <stop
         id="stop4357"
         offset="1"
         style="stop-color:#013397;stop-opacity:1" />
    </linearGradient>
    <linearGradient
       id="linearGradient3513">
      <stop
         style="stop-color:#fb8b00;stop-opacity:1"
         offset="0"
         id="stop3515" />
      <stop
         id="stop3523"
         offset="0.25"
         style="stop-color:#fd3301;stop-opacity:1" />
      <stop
         id="stop3521"
         offset="0.5"
         style="stop-color:#f44800;stop-opacity:1" />
      <stop
         style="stop-color:#d40000;stop-opacity:1"
         offset="1"
         id="stop3517" />
    </linearGradient>
    <linearGradient
       id="linearGradient3482">
      <stop
         style="stop-color:#565248;stop-opacity:1"
         offset="0"
         id="stop3484" />
      <stop
         id="stop3492"
         offset="0.25"
         style="stop-color:#d9bb7a;stop-opacity:1" />
      <stop
         id="stop3490"
         offset="0.5"
         style="stop-color:#816647;stop-opacity:1" />
      <stop
         style="stop-color:#816647;stop-opacity:1"
         offset="1"
         id="stop3486" />
    </linearGradient>
    <linearGradient
       id="linearGradient3470">
      <stop
         style="stop-color:#015a01;stop-opacity:1"
         offset="0"
         id="stop3472" />
      <stop
         id="stop3480"
         offset="0.25"
         style="stop-color:#339900;stop-opacity:1" />
      <stop
         id="stop3478"
         offset="0.5"
         style="stop-color:#98fc66;stop-opacity:1" />
      <stop
         style="stop-color:#339900;stop-opacity:1"
         offset="1"
         id="stop3474" />
    </linearGradient>
    <linearGradient
       inkscape:collect="always"
       xlink:href="#linearGradient3470"
       id="linearGradient3476"
       x1="715.50983"
       y1="640.78577"
       x2="2368.1475"
       y2="-543.28802"
       gradientUnits="userSpaceOnUse"
       gradientTransform="matrix(0.16341907,0,0,0.16341907,-527.4398,1283.3361)" />
    <linearGradient
       inkscape:collect="always"
       xlink:href="#linearGradient3482"
       id="linearGradient3488"
       x1="259.60974"
       y1="729.43298"
       x2="2615.0933"
       y2="-1075.1714"
       gradientUnits="userSpaceOnUse"
       gradientTransform="matrix(0.16341907,0,0,0.16341907,-527.4398,1283.3361)" />
    <linearGradient
       inkscape:collect="always"
       xlink:href="#linearGradient3513"
       id="linearGradient3519"
       x1="41.236401"
       y1="-39.189568"
       x2="114.00651"
       y2="237.33688"
       gradientUnits="userSpaceOnUse"
       gradientTransform="matrix(0.16341907,0,0,0.16341907,-526.647,1282.9397)" />
    <filter
       inkscape:collect="always"
       id="filter4299"
       style="color-interpolation-filters:sRGB">
      <feGaussianBlur
         inkscape:collect="always"
         stdDeviation="5.135307"
         id="feGaussianBlur4301" />
    </filter>
    <filter
       inkscape:collect="always"
       id="filter4333"
       style="color-interpolation-filters:sRGB">
      <feGaussianBlur
         inkscape:collect="always"
         stdDeviation="21.880143"
         id="feGaussianBlur4335" />
    </filter>
    <linearGradient
       inkscape:collect="always"
       xlink:href="#linearGradient4349"
       id="linearGradient4347"
       x1="289.39218"
       y1="-156.93361"
       x2="411.02075"
       y2="121.27432"
       gradientUnits="userSpaceOnUse"
       gradientTransform="matrix(0.16341907,0,0,0.16341907,-527.4398,1283.3361)" />
    <filter
       inkscape:collect="always"
       id="filter4387"
       style="color-interpolation-filters:sRGB">
      <feGaussianBlur
         inkscape:collect="always"
         stdDeviation="4.945174"
         id="feGaussianBlur4389" />
    </filter>
    <linearGradient
       inkscape:collect="always"
       xlink:href="#linearGradient4399"
       id="linearGradient4397"
       x1="573.53973"
       y1="-343.42038"
       x2="728.34473"
       y2="-49.037144"
       gradientUnits="userSpaceOnUse"
       gradientTransform="matrix(0.16341907,0,0,0.16341907,-527.4398,1283.3361)" />
    <filter
       inkscape:collect="always"
       id="filter4415"
       style="color-interpolation-filters:sRGB">
      <feGaussianBlur
         inkscape:collect="always"
         stdDeviation="5.0928891"
         id="feGaussianBlur4417" />
    </filter>
    <linearGradient
       inkscape:collect="always"
       xlink:href="#linearGradient4427"
       id="linearGradient4425"
       x1="784.17603"
       y1="-538.82996"
       x2="997.3501"
       y2="-277.43793"
       gradientUnits="userSpaceOnUse"
       gradientTransform="matrix(0.16341907,0,0,0.16341907,-527.4398,1283.3361)" />
    <filter
       inkscape:collect="always"
       id="filter4439"
       style="color-interpolation-filters:sRGB">
      <feGaussianBlur
         inkscape:collect="always"
         stdDeviation="4.8744618"
         id="feGaussianBlur4441" />
    </filter>
    <filter
       inkscape:collect="always"
       id="filter4447"
       style="color-interpolation-filters:sRGB">
      <feGaussianBlur
         inkscape:collect="always"
         stdDeviation="42.48471"
         id="feGaussianBlur4449" />
    </filter>
    <linearGradient
       inkscape:collect="always"
       xlink:href="#linearGradient4459"
       id="linearGradient4457"
       x1="1115.0929"
       y1="-726.04956"
       x2="1233.4146"
       y2="-457.13651"
       gradientUnits="userSpaceOnUse"
       gradientTransform="matrix(0.16341907,0,0,0.16341907,-527.4398,1283.3361)" />
    <filter
       inkscape:collect="always"
       id="filter4471"
       style="color-interpolation-filters:sRGB">
      <feGaussianBlur
         inkscape:collect="always"
         stdDeviation="5.1043377"
         id="feGaussianBlur4473" />
    </filter>
    <linearGradient
       inkscape:collect="always"
       xlink:href="#linearGradient4483"
       id="linearGradient4481"
       x1="1505.9132"
       y1="-977.0351"
       x2="1566.8668"
       y2="-632.82635"
       gradientUnits="userSpaceOnUse"
       gradientTransform="matrix(0.16341907,0,0,0.16341907,-527.4398,1283.3361)" />
    <filter
       inkscape:collect="always"
       id="filter4495"
       style="color-interpolation-filters:sRGB">
      <feGaussianBlur
         inkscape:collect="always"
         stdDeviation="5.1855376"
         id="feGaussianBlur4497" />
    </filter>
    <filter
       inkscape:collect="always"
       id="filter4503"
       x="-0.018457813"
       width="1.0369155"
       y="-0.17392872"
       height="1.3478574"
       style="color-interpolation-filters:sRGB">
      <feGaussianBlur
         inkscape:collect="always"
         stdDeviation="27.628234"
         id="feGaussianBlur4505" />
    </filter>
  </defs>
  <sodipodi:namedview
     id="base"
     pagecolor="#ffffff"
     bordercolor="#666666"
     borderopacity="1.0"
     inkscape:pageopacity="0.0"
     inkscape:pageshadow="2"
     inkscape:zoom="0.40035144"
     inkscape:cx="726.7037"
     inkscape:cy="-437.2474"
     inkscape:document-units="px"
     inkscape:current-layer="layer1"
     showgrid="false"
     showborder="false"
     inkscape:showpageshadow="false"
     inkscape:window-width="1321"
     inkscape:window-height="744"
     inkscape:window-x="45"
     inkscape:window-y="24"
     inkscape:window-maximized="1"
     showguides="true"
     inkscape:guide-bbox="true"
     fit-margin-top="0"
     fit-margin-left="0"
     fit-margin-right="0"
     fit-margin-bottom="0" />
  <metadata
     id="metadata3379">
    <rdf:RDF>
      <cc:Work
         rdf:about="">
        <dc:format>image/svg+xml</dc:format>
        <dc:type
           rdf:resource="http://purl.org/dc/dcmitype/StillImage" />
        <dc:title>Humanidad by Merlin2525.svg</dc:title>
        <cc:license
           rdf:resource="http://creativecommons.org/publicdomain/zero/1.0/" />
        <dc:date>17 OCT 2017</dc:date>
        <dc:creator>
          <cc:Agent>
            <dc:title>Merlin2525</dc:title>
          </cc:Agent>
        </dc:creator>
        <dc:rights>
          <cc:Agent>
            <dc:title>Donated to the Public Domain by Artist.</dc:title>
          </cc:Agent>
        </dc:rights>
        <dc:publisher>
          <cc:Agent>
            <dc:title>https://openclipart.org/user-detail/Merlin2525</dc:title>
          </cc:Agent>
        </dc:publisher>
        <dc:source>https://openclipart.org/detail/117175/cooperation-leads-to-success</dc:source>
        <dc:language>Spanish, Espanol,</dc:language>
        <dc:subject>
          <rdf:Bag>
            <rdf:li>affiche</rdf:li>
            <rdf:li>afficher</rdf:li>
            <rdf:li>banderin</rdf:li>
            <rdf:li>broche</rdf:li>
            <rdf:li>cheviller</rdf:li>
            <rdf:li>epingle</rdf:li>
            <rdf:li>epingler</rdf:li>
            <rdf:li>humanidad</rdf:li>
            <rdf:li>humanite</rdf:li>
            <rdf:li>humanity</rdf:li>
            <rdf:li>pin</rdf:li>
            <rdf:li>poster</rdf:li>
            <rdf:li>remezcla</rdf:li>
            <rdf:li>remix</rdf:li>
          </rdf:Bag>
        </dc:subject>
        <dc:description>A Merlin2525 Original Creation showing people helping people overcome an obstacle with the word Humanity written in Spanish. Drawn with Inskcape. License: Public Domain.</dc:description>
        <dc:contributor>
          <cc:Agent>
            <dc:title>Merlin2525</dc:title>
          </cc:Agent>
        </dc:contributor>
      </cc:Work>
      <cc:License
         rdf:about="http://creativecommons.org/publicdomain/zero/1.0/">
        <cc:permits
           rdf:resource="http://creativecommons.org/ns#Reproduction" />
        <cc:permits
           rdf:resource="http://creativecommons.org/ns#Distribution" />
        <cc:permits
           rdf:resource="http://creativecommons.org/ns#DerivativeWorks" />
      </cc:License>
    </rdf:RDF>
  </metadata>
  <g
     inkscape:label="Layer 1"
     inkscape:groupmode="layer"
     id="layer1"
     transform="translate(630.47074,-1022.0087)">
    <g
       style="color:#000000;font-style:normal;font-variant:normal;font-weight:normal;font-stretch:normal;font-size:579.42041016px;line-height:125%;font-family:Aerial;-inkscape-font-specification:Aerial;text-indent:0;text-align:center;text-decoration:none;text-decoration-line:none;text-decoration-style:solid;text-decoration-color:#000000;letter-spacing:normal;word-spacing:normal;text-transform:none;direction:ltr;block-progression:tb;writing-mode:lr-tb;baseline-shift:baseline;text-anchor:middle;white-space:normal;clip-rule:nonzero;display:inline;overflow:visible;visibility:visible;opacity:1;isolation:auto;mix-blend-mode:normal;color-interpolation:sRGB;color-interpolation-filters:linearRGB;solid-color:#000000;solid-opacity:1;fill:#000000;fill-opacity:1;fill-rule:nonzero;stroke:none;stroke-width:0.92000002;stroke-linecap:butt;stroke-linejoin:round;stroke-miterlimit:4;stroke-dasharray:none;stroke-dashoffset:0;stroke-opacity:1;color-rendering:auto;image-rendering:auto;shape-rendering:auto;text-rendering:auto;enable-background:accumulate"
       id="text4422"
       transform="matrix(0.16341907,0,0,0.16341907,-527.4398,1283.3361)">
      <path
         d="m -231.96681,1017.1951 56.20378,0 0,401.5383 -56.20378,0 0,-185.4145 -196.42352,0 0,185.4145 -56.20378,0 0,-401.5383 56.20378,0 0,167.4525 196.42352,0 0,-167.4525 z"
         style="font-style:normal;font-variant:normal;font-weight:normal;font-stretch:normal;font-family:Ubuntu;-inkscape-font-specification:Ubuntu;fill:#000000;fill-opacity:1"
         id="path4240"
         inkscape:connector-curvature="0" />
      <path
         d="m 73.433012,1427.4247 q -39.400588,0 -68.3716088,-12.1678 -28.9710202,-12.1679 -47.5124732,-33.027 -18.541454,-21.4385 -27.81218,-50.4096 -8.691306,-28.971 -8.691306,-62.5774 l 0,-252.0478 56.20378,0 0,245.6742 q 0,60.2597 26.6533384,87.4925 26.6533386,27.2327 69.5304496,27.2327 21.438555,0 38.821168,-6.3736 17.96203,-6.953 30.70928,-20.8591 12.74725,-13.9061 19.70029,-35.3447 6.95305,-22.0179 6.95305,-52.1478 l 0,-245.6742 56.20378,0 0,252.0478 q 0,33.6064 -9.27073,62.5774 -8.6913,28.9711 -27.81218,50.4096 -18.54145,20.8591 -47.51247,33.027 -28.3916,12.1678 -67.792188,12.1678 z"
         style="font-style:normal;font-variant:normal;font-weight:normal;font-stretch:normal;font-family:Ubuntu;-inkscape-font-specification:Ubuntu;fill:#000000;fill-opacity:1"
         id="path4242"
         inkscape:connector-curvature="0" />
      <path
         d="m 502.49383,1363.109 q -5.79421,-13.9061 -15.64436,-35.3446 -9.27072,-21.4386 -20.27971,-46.3536 -11.00899,-24.9151 -23.75624,-50.989 -12.16783,-26.6534 -23.17681,-49.8302 -11.00899,-23.7562 -20.85914,-42.2977 -9.27072,-18.5414 -15.06493,-28.3916 -6.37362,68.3716 -10.42957,148.3316 -4.05594,79.3806 -6.95304,160.4995 l -55.04494,0 q 2.31768,-52.1478 5.21478,-104.8751 2.89711,-53.3067 6.37363,-104.2957 4.05594,-51.5684 8.11188,-100.2397 4.63537,-48.6713 9.85015,-92.1278 l 49.25074,0 q 15.64435,25.4945 33.60638,60.2597 17.96203,34.7652 35.92406,73.0069 17.96204,37.6624 34.76523,75.9041 16.80319,37.6623 30.70928,68.9511 13.90609,-31.2888 30.70928,-68.9511 16.80319,-38.2417 34.76523,-75.9041 17.96203,-38.2417 35.92406,-73.0069 17.96204,-34.7652 33.60639,-60.2597 l 49.25073,0 q 19.7003,194.1058 29.55044,401.5383 l -55.04494,0 q -2.8971,-81.1189 -6.95304,-160.4995 -4.05594,-79.96 -10.42957,-148.3316 -5.7942,9.8502 -15.64435,28.3916 -9.27073,18.5415 -20.27971,42.2977 -11.00899,23.1768 -23.75624,49.8302 -12.16783,26.0739 -23.17682,50.989 -11.00899,24.915 -20.85913,46.3536 -9.27073,21.4385 -15.06493,35.3446 l -45.19479,0 z"
         style="font-style:normal;font-variant:normal;font-weight:normal;font-stretch:normal;font-family:Ubuntu;-inkscape-font-specification:Ubuntu;fill:#000000;fill-opacity:1"
         id="path4244"
         inkscape:connector-curvature="0" />
      <path
         d="m 1095.2952,1418.7334 q -9.8501,-26.0739 -18.5414,-50.989 -8.6913,-25.4945 -17.9621,-51.5684 l -181.93797,0 -36.50349,102.5574 -58.52146,0 q 23.17681,-63.7362 43.45653,-117.6223 20.27971,-54.4656 39.40059,-103.1369 19.70029,-48.6713 38.82116,-92.7072 19.12088,-44.6154 39.98001,-88.0719 l 51.56842,0 q 20.85911,43.4565 39.98001,88.0719 19.1209,44.0359 38.2417,92.7072 19.7003,48.6713 39.9801,103.1369 20.2797,53.8861 43.4565,117.6223 l -61.4186,0 z m -52.7272,-148.911 q -18.5415,-50.4096 -37.0829,-97.3427 -17.96208,-47.5124 -37.66237,-90.969 -20.27971,43.4566 -38.82117,90.969 -17.96203,46.9331 -35.92406,97.3427 l 149.4905,0 z"
         style="font-style:normal;font-variant:normal;font-weight:normal;font-stretch:normal;font-family:Ubuntu;-inkscape-font-specification:Ubuntu;fill:#000000;fill-opacity:1"
         id="path4246"
         inkscape:connector-curvature="0" />
      <path
         d="m 1485.8879,1418.7334 q -12.7472,-21.4386 -29.5504,-48.0919 -16.2238,-26.6533 -35.3447,-55.0449 -19.1208,-28.9711 -39.98,-58.5215 -20.2797,-29.5504 -40.5594,-56.7832 -20.2797,-27.8122 -39.4006,-52.1478 -19.1209,-24.3357 -35.3446,-42.8771 l 0,313.4664 -55.045,0 0,-401.5383 44.6154,0 q 27.2327,28.971 57.942,67.7921 31.2887,38.2418 61.4186,79.3806 30.7093,40.5595 57.3626,79.9601 27.2328,39.4005 45.7742,70.1098 l 0,-297.2426 55.045,0 0,401.5383 -46.9331,0 z"
         style="font-style:normal;font-variant:normal;font-weight:normal;font-stretch:normal;font-family:Ubuntu;-inkscape-font-specification:Ubuntu;fill:#000000;fill-opacity:1"
         id="path4248"
         inkscape:connector-curvature="0" />
      <path
         d="m 1632.7802,1017.1951 56.2037,0 0,401.5383 -56.2037,0 0,-401.5383 z"
         style="font-style:normal;font-variant:normal;font-weight:normal;font-stretch:normal;font-family:Ubuntu;-inkscape-font-specification:Ubuntu;fill:#000000;fill-opacity:1"
         id="path4250"
         inkscape:connector-curvature="0" />
      <path
         d="m 2118.6423,1217.6745 q 0,52.1479 -16.2238,90.969 -16.2238,38.2418 -45.7742,63.7363 -29.5505,24.915 -70.6893,37.6623 -41.1389,12.1678 -90.3896,12.1678 -24.3357,0 -53.8861,-2.3177 -28.971,-1.7382 -52.7273,-7.5324 l 0,-389.3705 q 23.7563,-5.7942 52.7273,-7.5325 29.5504,-2.3177 53.8861,-2.3177 49.2507,0 90.3896,12.7473 41.1388,12.1678 70.6893,37.6623 29.5504,24.9151 45.7742,63.7362 16.2238,38.2418 16.2238,90.3896 z m -218.4415,155.2847 q 79.96,0 119.3606,-40.5594 39.4005,-41.1389 39.4005,-114.7253 0,-73.5864 -39.4005,-114.1458 -39.4006,-41.1389 -119.3606,-41.1389 -23.7563,0 -37.083,0.5795 -12.7472,0.5794 -17.962,1.1588 l 0,307.0928 q 5.2148,0.5794 17.962,1.1589 13.3267,0.5794 37.083,0.5794 z"
         style="font-style:normal;font-variant:normal;font-weight:normal;font-stretch:normal;font-family:Ubuntu;-inkscape-font-specification:Ubuntu;fill:#000000;fill-opacity:1"
         id="path4252"
         inkscape:connector-curvature="0" />
      <path
         d="m 2458.9703,1418.7334 q -9.8502,-26.0739 -18.5415,-50.989 -8.6913,-25.4945 -17.962,-51.5684 l -181.938,0 -36.5035,102.5574 -58.5215,0 q 23.1768,-63.7362 43.4566,-117.6223 20.2797,-54.4656 39.4005,-103.1369 19.7003,-48.6713 38.8212,-92.7072 19.1209,-44.6154 39.98,-88.0719 l 51.5684,0 q 20.8592,43.4565 39.98,88.0719 19.1209,44.0359 38.2418,92.7072 19.7003,48.6713 39.98,103.1369 20.2797,53.8861 43.4565,117.6223 l -61.4185,0 z m -52.7273,-148.911 q -18.5414,-50.4096 -37.0829,-97.3427 -17.962,-47.5124 -37.6623,-90.969 -20.2797,43.4566 -38.8212,90.969 -17.962,46.9331 -35.9241,97.3427 l 149.4905,0 z"
         style="font-style:normal;font-variant:normal;font-weight:normal;font-stretch:normal;font-family:Ubuntu;-inkscape-font-specification:Ubuntu;fill:#000000;fill-opacity:1"
         id="path4254"
         inkscape:connector-curvature="0" />
      <path
         d="m 2904.0285,1217.6745 q 0,52.1479 -16.2238,90.969 -16.2238,38.2418 -45.7742,63.7363 -29.5504,24.915 -70.6893,37.6623 -41.1388,12.1678 -90.3896,12.1678 -24.3356,0 -53.8861,-2.3177 -28.971,-1.7382 -52.7272,-7.5324 l 0,-389.3705 q 23.7562,-5.7942 52.7272,-7.5325 29.5505,-2.3177 53.8861,-2.3177 49.2508,0 90.3896,12.7473 41.1389,12.1678 70.6893,37.6623 29.5504,24.9151 45.7742,63.7362 16.2238,38.2418 16.2238,90.3896 z m -218.4415,155.2847 q 79.96,0 119.3606,-40.5594 39.4006,-41.1389 39.4006,-114.7253 0,-73.5864 -39.4006,-114.1458 -39.4006,-41.1389 -119.3606,-41.1389 -23.7563,0 -37.0829,0.5795 -12.7473,0.5794 -17.9621,1.1588 l 0,307.0928 q 5.2148,0.5794 17.9621,1.1589 13.3266,0.5794 37.0829,0.5794 z"
         style="font-style:normal;font-variant:normal;font-weight:normal;font-stretch:normal;font-family:Ubuntu;-inkscape-font-specification:Ubuntu;fill:#000000;fill-opacity:1"
         id="path4256"
         inkscape:connector-curvature="0" />
    </g>
    <g
       style="color:#000000;font-style:normal;font-variant:normal;font-weight:normal;font-stretch:normal;font-size:579.42041016px;line-height:125%;font-family:Aerial;-inkscape-font-specification:Aerial;text-indent:0;text-align:center;text-decoration:none;text-decoration-line:none;text-decoration-style:solid;text-decoration-color:#000000;letter-spacing:normal;word-spacing:normal;text-transform:none;direction:ltr;block-progression:tb;writing-mode:lr-tb;baseline-shift:baseline;text-anchor:middle;white-space:normal;clip-rule:nonzero;display:inline;overflow:visible;visibility:visible;opacity:0.6520004;isolation:auto;mix-blend-mode:normal;color-interpolation:sRGB;color-interpolation-filters:linearRGB;solid-color:#000000;solid-opacity:1;fill:#ffdb9b;fill-opacity:1;fill-rule:nonzero;stroke:none;stroke-width:1;stroke-linecap:butt;stroke-linejoin:miter;stroke-miterlimit:4;stroke-dasharray:none;stroke-dashoffset:0;stroke-opacity:1;filter:url(#filter4503);color-rendering:auto;image-rendering:auto;shape-rendering:auto;text-rendering:auto;enable-background:accumulate"
       id="text4426"
       transform="matrix(0.16341907,0,0,0.16341907,-527.4398,1283.3361)">
      <path
         d="m -191.56336,1051.7392 56.20378,0 0,401.5384 -56.20378,0 0,-185.4145 -196.42352,0 0,185.4145 -56.20378,0 0,-401.5384 56.20378,0 0,167.4525 196.42352,0 0,-167.4525 z"
         style="color:#000000;font-style:normal;font-variant:normal;font-weight:normal;font-stretch:normal;font-family:Ubuntu;-inkscape-font-specification:Ubuntu;clip-rule:nonzero;display:inline;overflow:visible;visibility:visible;isolation:auto;mix-blend-mode:normal;color-interpolation:sRGB;color-interpolation-filters:linearRGB;solid-color:#000000;solid-opacity:1;fill:#ffdb9b;fill-opacity:1;fill-rule:nonzero;stroke:none;stroke-width:1;stroke-linecap:butt;stroke-linejoin:miter;stroke-miterlimit:4;stroke-dasharray:none;stroke-dashoffset:0;stroke-opacity:1;filter:url(#filter4503);color-rendering:auto;image-rendering:auto;shape-rendering:auto;text-rendering:auto;enable-background:accumulate"
         id="path4221"
         inkscape:connector-curvature="0" />
      <path
         d="m 113.83645,1461.9689 q -39.400584,0 -68.371604,-12.1678 -28.971021,-12.1679 -47.512474,-33.027 -18.541453,-21.4386 -27.81218,-50.4096 -8.691306,-28.971 -8.691306,-62.5774 l 0,-252.0479 56.20378,0 0,245.6743 q 0,60.2597 26.653339,87.4925 26.653339,27.2327 69.530445,27.2327 21.43856,0 38.82117,-6.3736 17.96203,-6.953 30.70928,-20.8591 12.74725,-13.9061 19.7003,-35.3447 6.95304,-22.0179 6.95304,-52.1478 l 0,-245.6743 56.20378,0 0,252.0479 q 0,33.6064 -9.27072,62.5774 -8.69131,28.971 -27.81218,50.4096 -18.54146,20.8591 -47.51248,33.027 -28.3916,12.1678 -67.79219,12.1678 z"
         style="color:#000000;font-style:normal;font-variant:normal;font-weight:normal;font-stretch:normal;font-family:Ubuntu;-inkscape-font-specification:Ubuntu;clip-rule:nonzero;display:inline;overflow:visible;visibility:visible;isolation:auto;mix-blend-mode:normal;color-interpolation:sRGB;color-interpolation-filters:linearRGB;solid-color:#000000;solid-opacity:1;fill:#ffdb9b;fill-opacity:1;fill-rule:nonzero;stroke:none;stroke-width:1;stroke-linecap:butt;stroke-linejoin:miter;stroke-miterlimit:4;stroke-dasharray:none;stroke-dashoffset:0;stroke-opacity:1;filter:url(#filter4503);color-rendering:auto;image-rendering:auto;shape-rendering:auto;text-rendering:auto;enable-background:accumulate"
         id="path4223"
         inkscape:connector-curvature="0" />
      <path
         d="m 542.89727,1397.6532 q -5.79421,-13.9061 -15.64435,-35.3446 -9.27073,-21.4386 -20.27972,-46.3536 -11.00899,-24.9151 -23.75623,-50.989 -12.16783,-26.6534 -23.17682,-49.8302 -11.00899,-23.7562 -20.85914,-42.2977 -9.27072,-18.5414 -15.06493,-28.3916 -6.37362,68.3716 -10.42956,148.3316 -4.05595,79.3806 -6.95305,160.4995 l -55.04494,0 q 2.31768,-52.1478 5.21479,-104.8751 2.8971,-53.3067 6.37362,-104.2957 4.05594,-51.5684 8.11189,-100.2397 4.63536,-48.6713 9.85014,-92.1279 l 49.25074,0 q 15.64435,25.4945 33.60638,60.2598 17.96203,34.7652 35.92407,73.0069 17.96203,37.6624 34.76522,75.9041 16.80319,37.6623 30.70928,68.951 13.90609,-31.2887 30.70929,-68.951 16.80319,-38.2417 34.76522,-75.9041 17.96203,-38.2417 35.92407,-73.0069 17.96203,-34.7653 33.60638,-60.2598 l 49.25073,0 q 19.7003,194.1059 29.55045,401.5384 l -55.04494,0 q -2.89711,-81.1189 -6.95305,-160.4995 -4.05594,-79.96 -10.42957,-148.3316 -5.7942,9.8502 -15.64435,28.3916 -9.27072,18.5415 -20.27971,42.2977 -11.00899,23.1768 -23.75624,49.8302 -12.16783,26.0739 -23.17681,50.989 -11.00899,24.915 -20.85914,46.3536 -9.27073,21.4385 -15.06493,35.3446 l -45.19479,0 z"
         style="color:#000000;font-style:normal;font-variant:normal;font-weight:normal;font-stretch:normal;font-family:Ubuntu;-inkscape-font-specification:Ubuntu;clip-rule:nonzero;display:inline;overflow:visible;visibility:visible;isolation:auto;mix-blend-mode:normal;color-interpolation:sRGB;color-interpolation-filters:linearRGB;solid-color:#000000;solid-opacity:1;fill:#ffdb9b;fill-opacity:1;fill-rule:nonzero;stroke:none;stroke-width:1;stroke-linecap:butt;stroke-linejoin:miter;stroke-miterlimit:4;stroke-dasharray:none;stroke-dashoffset:0;stroke-opacity:1;filter:url(#filter4503);color-rendering:auto;image-rendering:auto;shape-rendering:auto;text-rendering:auto;enable-background:accumulate"
         id="path4225"
         inkscape:connector-curvature="0" />
      <path
         d="m 1135.6987,1453.2776 q -9.8502,-26.0739 -18.5415,-50.989 -8.6913,-25.4945 -17.962,-51.5684 l -181.93803,0 -36.50349,102.5574 -58.52146,0 q 23.17682,-63.7363 43.45653,-117.6224 20.27972,-54.4655 39.40059,-103.1368 19.70029,-48.6713 38.82117,-92.7073 19.12087,-44.6153 39.98,-88.0719 l 51.56839,0 q 20.8592,43.4566 39.98,88.0719 19.1209,44.036 38.2418,92.7073 19.7003,48.6713 39.98,103.1368 20.2797,53.8861 43.4565,117.6224 l -61.4185,0 z m -52.7273,-148.9111 q -18.5414,-50.4095 -37.0829,-97.3426 -17.962,-47.5125 -37.6623,-90.969 -20.27974,43.4565 -38.8212,90.969 -17.96203,46.9331 -35.92406,97.3426 l 149.49046,0 z"
         style="color:#000000;font-style:normal;font-variant:normal;font-weight:normal;font-stretch:normal;font-family:Ubuntu;-inkscape-font-specification:Ubuntu;clip-rule:nonzero;display:inline;overflow:visible;visibility:visible;isolation:auto;mix-blend-mode:normal;color-interpolation:sRGB;color-interpolation-filters:linearRGB;solid-color:#000000;solid-opacity:1;fill:#ffdb9b;fill-opacity:1;fill-rule:nonzero;stroke:none;stroke-width:1;stroke-linecap:butt;stroke-linejoin:miter;stroke-miterlimit:4;stroke-dasharray:none;stroke-dashoffset:0;stroke-opacity:1;filter:url(#filter4503);color-rendering:auto;image-rendering:auto;shape-rendering:auto;text-rendering:auto;enable-background:accumulate"
         id="path4227"
         inkscape:connector-curvature="0" />
      <path
         d="m 1526.2914,1453.2776 q -12.7473,-21.4386 -29.5505,-48.0919 -16.2238,-26.6533 -35.3446,-55.0449 -19.1209,-28.9711 -39.98,-58.5215 -20.2798,-29.5504 -40.5595,-56.7832 -20.2797,-27.8122 -39.4006,-52.1478 -19.1208,-24.3357 -35.3446,-42.8772 l 0,313.4665 -55.0449,0 0,-401.5384 44.6153,0 q 27.2328,28.9711 57.9421,67.7922 31.2887,38.2418 61.4185,79.3806 30.7093,40.5595 57.3627,79.96 27.2327,39.4006 45.7742,70.1099 l 0,-297.2427 55.0449,0 0,401.5384 -46.933,0 z"
         style="color:#000000;font-style:normal;font-variant:normal;font-weight:normal;font-stretch:normal;font-family:Ubuntu;-inkscape-font-specification:Ubuntu;clip-rule:nonzero;display:inline;overflow:visible;visibility:visible;isolation:auto;mix-blend-mode:normal;color-interpolation:sRGB;color-interpolation-filters:linearRGB;solid-color:#000000;solid-opacity:1;fill:#ffdb9b;fill-opacity:1;fill-rule:nonzero;stroke:none;stroke-width:1;stroke-linecap:butt;stroke-linejoin:miter;stroke-miterlimit:4;stroke-dasharray:none;stroke-dashoffset:0;stroke-opacity:1;filter:url(#filter4503);color-rendering:auto;image-rendering:auto;shape-rendering:auto;text-rendering:auto;enable-background:accumulate"
         id="path4229"
         inkscape:connector-curvature="0" />
      <path
         d="m 1673.1836,1051.7392 56.2038,0 0,401.5384 -56.2038,0 0,-401.5384 z"
         style="color:#000000;font-style:normal;font-variant:normal;font-weight:normal;font-stretch:normal;font-family:Ubuntu;-inkscape-font-specification:Ubuntu;clip-rule:nonzero;display:inline;overflow:visible;visibility:visible;isolation:auto;mix-blend-mode:normal;color-interpolation:sRGB;color-interpolation-filters:linearRGB;solid-color:#000000;solid-opacity:1;fill:#ffdb9b;fill-opacity:1;fill-rule:nonzero;stroke:none;stroke-width:1;stroke-linecap:butt;stroke-linejoin:miter;stroke-miterlimit:4;stroke-dasharray:none;stroke-dashoffset:0;stroke-opacity:1;filter:url(#filter4503);color-rendering:auto;image-rendering:auto;shape-rendering:auto;text-rendering:auto;enable-background:accumulate"
         id="path4231"
         inkscape:connector-curvature="0" />
      <path
         d="m 2159.0457,1252.2187 q 0,52.1478 -16.2238,90.969 -16.2238,38.2418 -45.7742,63.7363 -29.5504,24.915 -70.6893,37.6623 -41.1388,12.1678 -90.3896,12.1678 -24.3356,0 -53.8861,-2.3177 -28.971,-1.7382 -52.7272,-7.5324 l 0,-389.3706 q 23.7562,-5.7942 52.7272,-7.5324 29.5505,-2.3177 53.8861,-2.3177 49.2508,0 90.3896,12.7472 41.1389,12.1679 70.6893,37.6624 29.5504,24.9151 45.7742,63.7362 16.2238,38.2418 16.2238,90.3896 z m -218.4415,155.2847 q 79.96,0 119.3606,-40.5595 39.4006,-41.1388 39.4006,-114.7252 0,-73.5864 -39.4006,-114.1458 -39.4006,-41.1389 -119.3606,-41.1389 -23.7562,0 -37.0829,0.5795 -12.7473,0.5794 -17.962,1.1588 l 0,307.0928 q 5.2147,0.5794 17.962,1.1589 13.3267,0.5794 37.0829,0.5794 z"
         style="color:#000000;font-style:normal;font-variant:normal;font-weight:normal;font-stretch:normal;font-family:Ubuntu;-inkscape-font-specification:Ubuntu;clip-rule:nonzero;display:inline;overflow:visible;visibility:visible;isolation:auto;mix-blend-mode:normal;color-interpolation:sRGB;color-interpolation-filters:linearRGB;solid-color:#000000;solid-opacity:1;fill:#ffdb9b;fill-opacity:1;fill-rule:nonzero;stroke:none;stroke-width:1;stroke-linecap:butt;stroke-linejoin:miter;stroke-miterlimit:4;stroke-dasharray:none;stroke-dashoffset:0;stroke-opacity:1;filter:url(#filter4503);color-rendering:auto;image-rendering:auto;shape-rendering:auto;text-rendering:auto;enable-background:accumulate"
         id="path4233"
         inkscape:connector-curvature="0" />
      <path
         d="m 2499.3737,1453.2776 q -9.8501,-26.0739 -18.5414,-50.989 -8.6913,-25.4945 -17.9621,-51.5684 l -181.938,0 -36.5035,102.5574 -58.5214,0 q 23.1768,-63.7363 43.4565,-117.6224 20.2797,-54.4655 39.4006,-103.1368 19.7003,-48.6713 38.8212,-92.7073 19.1208,-44.6153 39.98,-88.0719 l 51.5684,0 q 20.8591,43.4566 39.98,88.0719 19.1209,44.036 38.2417,92.7073 19.7003,48.6713 39.98,103.1368 20.2798,53.8861 43.4566,117.6224 l -61.4186,0 z m -52.7272,-148.9111 q -18.5415,-50.4095 -37.083,-97.3426 -17.962,-47.5125 -37.6623,-90.969 -20.2797,43.4565 -38.8211,90.969 -17.9621,46.9331 -35.9241,97.3426 l 149.4905,0 z"
         style="color:#000000;font-style:normal;font-variant:normal;font-weight:normal;font-stretch:normal;font-family:Ubuntu;-inkscape-font-specification:Ubuntu;clip-rule:nonzero;display:inline;overflow:visible;visibility:visible;isolation:auto;mix-blend-mode:normal;color-interpolation:sRGB;color-interpolation-filters:linearRGB;solid-color:#000000;solid-opacity:1;fill:#ffdb9b;fill-opacity:1;fill-rule:nonzero;stroke:none;stroke-width:1;stroke-linecap:butt;stroke-linejoin:miter;stroke-miterlimit:4;stroke-dasharray:none;stroke-dashoffset:0;stroke-opacity:1;filter:url(#filter4503);color-rendering:auto;image-rendering:auto;shape-rendering:auto;text-rendering:auto;enable-background:accumulate"
         id="path4235"
         inkscape:connector-curvature="0" />
      <path
         d="m 2944.4319,1252.2187 q 0,52.1478 -16.2237,90.969 -16.2238,38.2418 -45.7743,63.7363 -29.5504,24.915 -70.6893,37.6623 -41.1388,12.1678 -90.3895,12.1678 -24.3357,0 -53.8861,-2.3177 -28.9711,-1.7382 -52.7273,-7.5324 l 0,-389.3706 q 23.7562,-5.7942 52.7273,-7.5324 29.5504,-2.3177 53.8861,-2.3177 49.2507,0 90.3895,12.7472 41.1389,12.1679 70.6893,37.6624 29.5505,24.9151 45.7743,63.7362 16.2237,38.2418 16.2237,90.3896 z m -218.4415,155.2847 q 79.96,0 119.3606,-40.5595 39.4006,-41.1388 39.4006,-114.7252 0,-73.5864 -39.4006,-114.1458 -39.4006,-41.1389 -119.3606,-41.1389 -23.7562,0 -37.0829,0.5795 -12.7472,0.5794 -17.962,1.1588 l 0,307.0928 q 5.2148,0.5794 17.962,1.1589 13.3267,0.5794 37.0829,0.5794 z"
         style="color:#000000;font-style:normal;font-variant:normal;font-weight:normal;font-stretch:normal;font-family:Ubuntu;-inkscape-font-specification:Ubuntu;clip-rule:nonzero;display:inline;overflow:visible;visibility:visible;isolation:auto;mix-blend-mode:normal;color-interpolation:sRGB;color-interpolation-filters:linearRGB;solid-color:#000000;solid-opacity:1;fill:#ffdb9b;fill-opacity:1;fill-rule:nonzero;stroke:none;stroke-width:1;stroke-linecap:butt;stroke-linejoin:miter;stroke-miterlimit:4;stroke-dasharray:none;stroke-dashoffset:0;stroke-opacity:1;filter:url(#filter4503);color-rendering:auto;image-rendering:auto;shape-rendering:auto;text-rendering:auto;enable-background:accumulate"
         id="path4237"
         inkscape:connector-curvature="0" />
    </g>
    <path
       sodipodi:nodetypes="ccccccccccccccc"
       inkscape:connector-curvature="0"
       id="path4303"
       d="M -324.50889,876.94344 161.35224,770.55956 230.55949,257.54187 655.98082,165.64955 612.0338,8.1510799 968.68576,-42.799487 1142.0131,-295.52412 l 249.7793,-116.52707 8.1954,-203.36421 348.6401,95.25115 86.6946,-519.92575 524.3497,-3.9913 375.4373,-329.9457 -5.7134,2241.24669 z"
       style="opacity:0.6520004;fill:#333333;fill-opacity:1;stroke:#000000;stroke-width:1.82035506px;stroke-linecap:butt;stroke-linejoin:miter;stroke-opacity:1;filter:url(#filter4447)"
       transform="matrix(0.16341907,0,0,0.16341907,-527.4398,1283.3361)" />
    <path
       style="fill:url(#linearGradient3488);fill-opacity:1;stroke:none"
       d="m -589.98436,1417.1318 79.39897,-17.3852 11.30978,-83.8369 69.52196,-15.0169 -7.18178,-25.7383 58.28372,-8.3263 28.325,-41.3 40.8187,-19.0427 1.33928,-33.2336 56.97444,15.5658 14.16755,-84.9658 85.68874,-0.6522 61.353613,-53.9194 -0.933678,366.2624 z"
       id="path3382"
       inkscape:connector-curvature="0"
       sodipodi:nodetypes="ccccccccccccccc" />
    <path
       sodipodi:nodetypes="ccccccccccccccccccccccccccccccccssc"
       inkscape:connector-curvature="0"
       id="path4361"
       d="m 321.69979,-75.686221 c 0,0 5.0911,7.593697 7.9019,10.640355 2.33299,2.044304 1.71886,2.336014 -0.21582,3.886069 -33.85012,23.520386 -72.25531,46.559128 -105.52674,46.687343 -12.37482,0.845546 -11.4307,31.488576 10.71717,28.327083 40.12885,-5.02394 73.10195,-20.7951167 100.07193,-45.582373 7.43497,-7.489352 9.59911,-6.265425 14.00851,0.823675 l 11.30723,17.669524 c 4.38291,6.9899703 3.80969,7.6238563 1.12773,14.4227573 L 330.95854,77.577664 c -2.60421,6.048684 -1.75853,10.781016 0.46137,15.446376 l 37.01235,79.10328 c 9.24887,18.90943 38.19647,-0.55485 29.9047,-13.42082 L 362.36373,90.476298 c -2.6087,-5.281858 -2.89244,-8.65133 -1.03599,-14.041299 l 17.49157,-50.784521 c 2.40846,-7.834887 3.58256,-4.133416 3.71434,1.002387 l -1.04633,40.87371 c -0.59187,8.421584 3.61599,16.048016 7.28942,22.208655 l 37.71874,66.46697 c 10.14459,19.1775 37.42414,4.97489 32.86772,-9.39365 L 421.03141,81.972397 c -6.6809,-10.327106 -7.60376,-17.790604 -7.96204,-24.858101 -2.41558,-17.995794 -3.64269,-38.098043 -3.80356,-54.9274937 -0.52616,-15.9134483 0.93013,-15.9989823 -7.43394,-28.4189403 l -11.79166,-17.509657 c -6.22842,-9.180637 -5.07004,-10.372017 4.22331,-12.363809 40.39257,-5.540468 66.67788,-25.709137 94.06535,-44.734926 15.80529,-8.03979 1.34908,-35.50211 -11.53678,-26.70827 -32.06283,25.03648 -71.06151,44.142319 -117.20636,48.029009 -3.48457,0.17878 -4.11281,0.27287 -6.87606,-2.05941 -3.25597,-2.748135 -9.76789,-8.244385 -9.76789,-8.244385 22.90528,-27.547984 7.87568,-61.743204 -20.58349,-68.093574 -16.36453,-3.65156 -35.61948,4.22065 -45.39886,21.65943 -11.3524,20.24379 -1.80838,67.610346 44.74036,60.571509 z"
       style="opacity:0.6520004;fill:#333333;fill-opacity:1;stroke:none;filter:url(#filter4387)"
       transform="matrix(0.16341907,0,0,0.16341907,-527.4398,1283.3361)" />
    <path
       style="fill:url(#linearGradient4347);fill-opacity:1;stroke:none"
       d="m -475.32485,1268.37 c 0,0 0.83198,1.241 1.29132,1.7388 0.38125,0.3341 0.28089,0.3818 -0.0353,0.6351 -5.53176,3.8437 -11.8079,7.6086 -17.24508,7.6296 -2.02228,0.1382 -1.868,5.1458 1.75139,4.6292 6.55782,-0.821 11.94625,-3.3983 16.35366,-7.4491 1.21501,-1.2239 1.56868,-1.0238 2.28926,0.1347 l 1.84781,2.8875 c 0.71625,1.1423 0.62258,1.2459 0.18429,2.3569 l -4.92433,12.4835 c -0.42558,0.9885 -0.28738,1.7619 0.0754,2.5243 l 6.04852,12.927 c 1.51144,3.0901 6.24203,-0.091 4.887,-2.1933 l -5.87871,-11.1501 c -0.42631,-0.8631 -0.47268,-1.4138 -0.1693,-2.2946 l 2.85845,-8.2992 c 0.39359,-1.2803 0.58546,-0.6754 0.607,0.1639 l -0.17099,6.6795 c -0.0967,1.3762 0.59092,2.6225 1.19123,3.6293 l 6.16396,10.862 c 1.65782,3.134 6.11582,0.813 5.37121,-1.5351 l -6.26414,-10.5955 c -1.09179,-1.6876 -1.2426,-2.9073 -1.30115,-4.0623 -0.39475,-2.9408 -0.59529,-6.2259 -0.62158,-8.9762 -0.086,-2.6005 0.152,-2.6145 -1.21484,-4.6442 l -1.92699,-2.8614 c -1.01784,-1.5003 -0.82854,-1.695 0.69017,-2.0205 6.60092,-0.9054 10.89644,-4.2013 15.37207,-7.3105 2.58289,-1.3139 0.22047,-5.8017 -1.88533,-4.3646 -5.23967,4.0914 -11.6128,7.2137 -19.15375,7.8488 -0.56944,0.029 -0.67211,0.045 -1.12368,-0.3365 -0.53209,-0.4491 -1.59626,-1.3473 -1.59626,-1.3473 3.74316,-4.5019 1.28704,-10.09 -3.36373,-11.1278 -2.67428,-0.5967 -5.8209,0.6897 -7.41904,3.5396 -1.8552,3.3082 -0.29553,11.0488 7.31143,9.8985 z"
       id="path3398"
       inkscape:connector-curvature="0"
       sodipodi:nodetypes="ccccccccccccccccccccccccccccccccssc" />
    <path
       style="opacity:0.65163933;fill:#333333;fill-opacity:1;stroke:#000000;stroke-width:1px;stroke-linecap:butt;stroke-linejoin:miter;stroke-opacity:1;filter:url(#filter4299)"
       d="m 82.920136,16.638831 c 0,0 1.88729,8.945478 2.108458,13.084777 -0.163455,3.097634 0.47403,2.861246 2.934321,2.55693 40.467615,-7.836563 83.768525,-19.272151 107.075695,-43.016198 9.24031,-8.274541 30.53223,13.7831208 12.81374,27.44248 -31.59897,25.240241 -65.9036,37.855616 -102.47804,39.879718 -10.552691,0.100197 -11.185995,2.504455 -9.184498,10.609526 l 4.767628,20.428773 c 1.94896,8.016934 2.80301,8.048615 9.54465,10.871409 l 75.74607,31.715724 c 6.14999,2.35502 8.94985,6.26281 10.74287,11.10829 l 30.83892,81.70804 c 7.09202,19.81946 -27.04928,26.97434 -30.48001,12.05734 l -23.77518,-73.37693 c -1.96337,-5.55414 -4.17904,-8.10846 -9.33541,-10.53951 l -48.58362,-22.90536 c -4.41781,-2.26652 -6.56541,0.88613 -7.11849,3.96315 -0.20961,3.35984 0.78106,5.89119 1.60854,8.81161 l 32.96551,116.3463 c 6.10054,16.67177 -27.71201,28.65393 -32.96256,15.94819 L 73.658135,136.5316 c 0,0 -8.16413,-13.32686 -11.22491,-27.98443 L 58.118129,87.882917 C 55.887634,77.015431 54.225935,77.013932 46.314661,82.281301 14.161658,107.35006 -18.626597,112.10635 -51.365219,118.44961 -68.152641,124.16169 -77.737973,94.644199 -62.447456,91.549552 -22.140903,86.051148 18.756853,71.446221 53.73887,41.102985 c 2.559445,-2.371391 3.065193,-2.755758 3.32258,-6.362536 0.303289,-4.24989 0.909848,-12.749656 0.909848,-12.749656 C 22.255407,19.176894 8.2471383,-15.449264 23.555699,-40.266587 32.3584,-54.536981 51.432795,-62.83711 70.748522,-57.674195 c 22.422556,5.993107 49.693518,45.880123 12.171699,74.313256 z"
       id="path3525"
       inkscape:connector-curvature="0"
       sodipodi:nodetypes="cccccccccccccccccccccccccccccssc"
       transform="matrix(0.16341907,0,0,0.16341907,-527.4398,1283.3361)" />
    <path
       sodipodi:nodetypes="cccccccccccccccccccccccccccccssc"
       inkscape:connector-curvature="0"
       id="path3435"
       d="m -515.47468,1284.866 c 0,0 0.30842,1.4619 0.34457,2.1383 -0.0267,0.5062 0.0775,0.4676 0.47952,0.4178 6.61318,-1.2806 13.68937,-3.1494 17.49821,-7.0296 1.51004,-1.3522 4.98955,2.2524 2.09401,4.4846 -5.16387,4.1247 -10.7699,6.1863 -16.74687,6.5171 -1.72451,0.016 -1.828,0.4093 -1.50092,1.7338 l 0.77912,3.3385 c 0.3185,1.3101 0.45807,1.3153 1.55978,1.7766 l 12.37835,5.1829 c 1.00503,0.3849 1.46258,1.0235 1.75559,1.8153 l 5.03967,13.3527 c 1.15897,3.2388 -4.42037,4.4081 -4.98101,1.9704 l -3.88532,-11.9912 c -0.32085,-0.9077 -0.68294,-1.3251 -1.52559,-1.7224 l -7.93949,-3.7432 c -0.72195,-0.3703 -1.07291,0.1449 -1.16329,0.6477 -0.0343,0.5491 0.12764,0.9627 0.26286,1.44 l 5.3872,19.0132 c 0.99694,2.7245 -4.52867,4.6826 -5.38671,2.6062 l -5.96326,-22.3559 c 0,0 -1.33418,-2.1779 -1.83437,-4.5732 l -0.70517,-3.377 c -0.3645,-1.7759 -0.63606,-1.7762 -1.92891,-0.9154 -5.25441,4.0967 -10.61264,4.874 -15.96275,5.9106 -2.74339,0.9335 -4.30981,-3.8902 -1.81105,-4.396 6.58686,-0.8985 13.27033,-3.2852 18.98706,-8.2439 0.41826,-0.3875 0.50091,-0.4503 0.54297,-1.0398 0.0496,-0.6945 0.14869,-2.0835 0.14869,-2.0835 -5.83666,-0.4598 -8.12588,-6.1184 -5.62417,-10.174 1.43853,-2.3321 4.55565,-3.6885 7.71221,-2.8448 3.66427,0.9794 8.12087,7.4977 1.98909,12.1442 z"
       style="fill:url(#linearGradient3519);fill-opacity:1;stroke:none" />
    <path
       sodipodi:nodetypes="cccccccccccccccccccccccccccccssc"
       inkscape:connector-curvature="0"
       id="path4409"
       d="m 643.54621,-273.60549 c 0,0 3.95469,8.24281 5.15109,12.21161 0.57573,3.04804 1.13899,2.66723 3.45694,1.78819 37.45516,-17.20905 76.80937,-38.58634 93.82141,-67.17995 7.01464,-10.22967 32.92977,6.14997 18.95565,23.62129 -24.71255,32.01334 -55.0473,52.40349 -90.09863,63.04268 -10.22795,2.59968 -10.27308,5.08554 -6.40672,12.48483 l 9.47588,18.71558 c 3.79441,7.32612 4.63161,7.15438 11.85033,8.29803 l 81.10636,12.84964 c 6.53303,0.82952 10.17969,3.96194 13.07055,8.24404 l 49.3346,72.06483 c 11.5895,17.572456 -19.88142,32.619127 -26.75154,18.941096 l -40.49678,-65.646336 c -3.2244,-4.93017 -5.9826,-6.88623 -11.56837,-8.02521 l -52.62944,-10.73154 c -4.82926,-1.1543 -6.16803,2.41769 -5.97569,5.5381 0.59309,3.31372 2.15575,5.53795 3.65214,8.17887 l 59.61424,105.210872 c 9.87988,14.749642 -20.12698,34.407958 -28.24066,23.309663 L 662.97829,-154.93596 c 0,0 -11.09144,-11.01081 -17.54064,-24.52454 l -9.0921,-19.05165 c -4.74386,-10.02861 -6.35851,-9.63604 -12.79511,-2.64291 -25.29145,31.97812 -56.01669,44.37376 -86.31738,58.29935 -14.95414,9.52992 -31.26549,-16.87273 -17.14491,-23.50493 37.85312,-14.89939 74.12117,-38.78575 100.91022,-76.55876 1.92413,-2.91067 2.32431,-3.404 1.71908,-6.96894 -0.71312,-4.2006 -2.1394,-12.60177 -2.1394,-12.60177 -35.36447,5.73559 -57.18403,-24.58122 -48.19697,-52.3208 5.16773,-15.95076 21.7299,-28.53722 41.71885,-28.10206 23.20416,0.50516 59.15565,32.78783 29.44628,69.30748 z"
       style="opacity:0.6520004;fill:#333333;fill-opacity:1;stroke:none;filter:url(#filter4415)"
       transform="matrix(0.16341907,0,0,0.16341907,-527.4398,1283.3361)" />
    <path
       style="fill:url(#linearGradient4397);fill-opacity:1;stroke:none"
       d="m -424.76042,1236.9648 c 0,0 0.64627,1.3471 0.84179,1.9957 0.0941,0.4981 0.18613,0.4358 0.56493,0.2922 6.12088,-2.8123 12.55211,-6.3058 15.3322,-10.9785 1.14633,-1.6717 5.38136,1.005 3.09772,3.8602 -4.0385,5.2316 -8.99578,8.5637 -14.72384,10.3023 -1.67144,0.4249 -1.67881,0.8311 -1.04698,2.0403 l 1.54854,3.0585 c 0.62008,1.1972 0.7569,1.1691 1.93657,1.356 l 13.25433,2.0999 c 1.06762,0.1356 1.66355,0.6475 2.13598,1.3472 l 8.06221,11.7768 c 1.89395,2.8717 -3.249,5.3306 -4.37171,3.0954 l -6.61795,-10.7279 c -0.52693,-0.8057 -0.97767,-1.1254 -1.89049,-1.3115 l -8.60065,-1.7537 c -0.7892,-0.1887 -1.00798,0.3951 -0.97655,0.905 0.0969,0.5415 0.3523,0.905 0.59683,1.3366 l 9.74211,17.1935 c 1.61456,2.4103 -3.28913,5.6229 -4.61506,3.8092 l -11.09441,-20.3043 c 0,0 -1.81255,-1.7994 -2.86647,-4.0078 l -1.48583,-3.1134 c -0.77523,-1.6388 -1.0391,-1.5747 -2.09096,-0.4319 -4.13311,5.2259 -9.1542,7.2515 -14.10591,9.5273 -2.44379,1.5573 -5.10937,-2.7574 -2.8018,-3.8412 6.18592,-2.4348 12.11281,-6.3383 16.49065,-12.5112 0.31444,-0.4756 0.37984,-0.5562 0.28093,-1.1388 -0.11653,-0.6865 -0.34962,-2.0594 -0.34962,-2.0594 -5.77922,0.9373 -9.34496,-4.017 -7.8763,-8.5502 0.84451,-2.6067 3.55108,-4.6635 6.81766,-4.5924 3.792,0.082 9.66716,5.3581 4.81208,11.3261 z"
       id="path3437"
       inkscape:connector-curvature="0"
       sodipodi:nodetypes="cccccccccccccccccccccccccccccssc" />
    <path
       style="opacity:0.6520004;fill:#333333;fill-opacity:1;stroke:none;filter:url(#filter4439)"
       d="m 832.40631,-452.53876 c 0,0 7.33138,5.46208 10.99706,7.39741 2.88105,1.14961 2.39929,1.62937 1.09203,3.73572 -24.07275,33.45956 -52.60056,67.98355 -83.92598,79.19614 -11.38505,4.92259 -0.27945,33.49796 19.54752,23.13387 36.15848,-18.11433 61.98773,-43.97559 79.15157,-76.33591 4.51293,-9.53953 6.9613,-9.10708 13.48176,-3.89347 l 16.5509,12.88926 c 6.46244,5.12898 6.13333,5.9177 5.87135,13.22176 l -2.94342,82.06516 c -0.43878,6.57084 1.93614,10.75054 5.58435,14.40897 l 61.26575,62.23942 c 15.0237,14.74441 35.8266,-13.2567 23.72,-22.62246 l -56.66139,-52.33472 c -4.22029,-4.11005 -5.61108,-7.19218 -5.65768,-12.89271 l -0.43909,-53.71061 c -0.34124,-8.1896 1.99966,-5.09129 3.83603,-0.29321 l 12.63962,38.88438 c 2.2495,8.13715 8.75908,13.92454 14.27615,18.50815 l 57.71916,50.09046 c 15.9576,14.69856 36.9419,-7.78581 27.8561,-19.81344 l -57.7536,-48.34855 c -9.7415,-7.50913 -13.0997,-14.23803 -15.7935,-20.7818 -8.2767,-16.16108 -16.13512,-34.7043 -21.89723,-50.51741 -5.80113,-14.82773 -4.45667,-15.39385 -16.48273,-24.315 l -16.95433,-12.57704 c -8.93269,-6.57909 -8.23774,-8.08849 -0.14002,-13.06447 36.23493,-18.68924 54.29291,-46.46692 73.77111,-73.53454 12.2209,-12.8489 -10.5635,-33.92098 -19.7806,-21.33442 -21.88226,34.29309 -52.28072,65.30702 -94.49018,84.35472 -3.22565,1.3302 -3.78657,1.62834 -7.16927,0.35067 -3.98586,-1.50548 -11.95756,-4.51645 -11.95756,-4.51645 12.41131,-33.60807 -13.15822,-60.83676 -42.10643,-57.3364 -16.64574,2.01277 -32.17486,15.85369 -35.58125,35.55506 -3.9543,22.87033 20.83438,64.34563 62.3738,42.19146 z"
       id="path4437"
       inkscape:connector-curvature="0"
       sodipodi:nodetypes="ccccccccccccccccccccccccccccccccssc"
       transform="matrix(0.16341907,0,0,0.16341907,-527.4398,1283.3361)" />
    <path
       sodipodi:nodetypes="ccccccccccccccccccccccccccccccccssc"
       inkscape:connector-curvature="0"
       id="path3439"
       d="m -392.23819,1207.7237 c 0,0 1.19809,0.8926 1.79713,1.2089 0.47082,0.1879 0.39209,0.2663 0.17846,0.6105 -3.93395,5.4679 -8.59593,11.1098 -13.7151,12.9422 -1.86054,0.8044 -0.0457,5.4742 3.19443,3.7805 5.90899,-2.9602 10.12998,-7.1865 12.93488,-12.4748 0.7375,-1.5589 1.13761,-1.4882 2.20317,-0.6362 l 2.70474,2.1063 c 1.05608,0.8382 1.0023,0.9671 0.95949,2.1607 l -0.48101,13.411 c -0.0717,1.0738 0.3164,1.7569 0.91259,2.3547 l 10.01199,10.1711 c 2.45516,2.4095 5.85475,-2.1664 3.8763,-3.6969 l -9.25955,-8.5525 c -0.68968,-0.6717 -0.91696,-1.1753 -0.92458,-2.1069 l -0.0717,-8.7774 c -0.0558,-1.3383 0.32678,-0.832 0.62688,-0.048 l 2.06555,6.3545 c 0.36761,1.3297 1.4314,2.2755 2.333,3.0246 l 9.4324,8.1857 c 2.60778,2.402 6.03702,-1.2724 4.55222,-3.2379 l -9.43803,-7.9011 c -1.59195,-1.2271 -2.14074,-2.3267 -2.58096,-3.3961 -1.35257,-2.641 -2.63679,-5.6714 -3.57843,-8.2555 -0.94801,-2.4232 -0.7283,-2.5157 -2.69359,-3.9736 l -2.77066,-2.0553 c -1.45977,-1.0751 -1.3462,-1.3218 -0.0229,-2.135 5.92148,-3.0541 8.8725,-7.5935 12.05561,-12.0169 1.99712,-2.0998 -1.72628,-5.5433 -3.23253,-3.4865 -3.57598,5.6042 -8.54367,10.6724 -15.4415,13.7852 -0.52713,0.2174 -0.6188,0.2661 -1.17159,0.057 -0.65137,-0.246 -1.9541,-0.7381 -1.9541,-0.7381 2.02825,-5.4922 -2.1503,-9.9418 -6.88099,-9.3698 -2.72023,0.3289 -5.25799,2.5908 -5.81466,5.8104 -0.6462,3.7374 3.40474,10.5153 10.19307,6.8948 z"
       style="fill:url(#linearGradient4425);fill-opacity:1;stroke:none" />
    <path
       style="opacity:0.6520004;fill:#333333;fill-opacity:1;stroke:none;filter:url(#filter4471)"
       d="m 1161.3968,-662.2763 c 0,0 2.0775,8.90322 2.3868,13.03687 -0.097,3.10041 0.535,2.85049 2.9882,2.4938 40.2914,-8.69737 83.3387,-21.05335 106.1345,-45.28881 9.0618,-8.46962 30.8191,13.12918 13.3957,27.16312 -31.0537,25.90805 -65.0817,39.25178 -101.6047,42.05503 -10.5481,0.32511 -11.13,2.74232 -8.9562,10.80289 l 5.202,20.32251 c 2.1194,7.97356 2.9739,7.98703 9.7742,10.66548 l 76.4049,30.09395 c 6.1988,2.2234 9.0813,6.07063 10.9772,10.87679 l 32.5736,81.03212 c 7.5128,19.66379 -26.4682,27.54479 -30.2161,12.7043 l -25.3339,-72.85347 c -2.0813,-5.51104 -4.3509,-8.01755 -9.5579,-10.33812 l -49.0608,-21.86457 c -4.4652,-2.17185 -6.5451,1.02586 -7.0324,4.11397 -0.138,3.36355 0.9064,5.8732 1.796,8.77533 l 35.438,115.61719 c 6.4545,16.53793 -27.095,29.23811 -32.6152,16.64718 l -39.3983,-135.99259 c 0,0 -8.4463,-13.14981 -11.8188,-27.73882 l -4.7546,-20.56758 c -2.4616,-10.81747 -4.123,-10.78355 -11.9202,-5.34874 -31.6113,25.74841 -64.2908,31.20252 -96.8868,38.24219 -16.6618,6.06861 -26.8742,-23.23785 -11.6531,-26.65773 40.1802,-6.35631 80.7574,-21.82967 115.0847,-52.91167 2.5083,-2.42541 3.0057,-2.82047 3.1862,-6.43192 0.2126,-4.25539 0.6379,-12.76615 0.6379,-12.76615 -35.7678,-2.05196 -50.511,-36.37165 -35.7349,-61.50964 8.4966,-14.4548 27.3897,-23.15962 46.811,-18.40983 22.5452,5.51379 50.6602,44.81045 13.753,74.03692 z"
       id="path4469"
       inkscape:connector-curvature="0"
       sodipodi:nodetypes="cccccccccccccccccccccccccccccssc"
       transform="matrix(0.16341907,0,0,0.16341907,-527.4398,1283.3361)" />
    <path
       sodipodi:nodetypes="cccccccccccccccccccccccccccccssc"
       inkscape:connector-curvature="0"
       id="path3441"
       d="m -338.8173,1173.9356 c 0,0 0.3395,1.455 0.39005,2.1305 -0.0159,0.5067 0.0874,0.4658 0.48833,0.4075 6.58438,-1.4213 13.61913,-3.4405 17.3444,-7.401 1.48087,-1.3841 5.03642,2.1455 2.18911,4.439 -5.07477,4.2338 -10.63559,6.4145 -16.60415,6.8726 -1.72376,0.053 -1.81885,0.4481 -1.46361,1.7654 l 0.85011,3.321 c 0.34635,1.3031 0.48599,1.3053 1.59729,1.743 l 12.48601,4.9179 c 1.01301,0.3634 1.48406,0.9921 1.79389,1.7775 l 5.32314,13.2422 c 1.22774,3.2134 -4.3254,4.5013 -4.93788,2.0761 l -4.14004,-11.9056 c -0.34013,-0.9007 -0.71102,-1.3103 -1.56195,-1.6895 l -8.01747,-3.5731 c -0.7297,-0.3549 -1.06959,0.1677 -1.14923,0.6723 -0.0225,0.5497 0.14813,0.9598 0.2935,1.4341 l 5.79125,18.894 c 1.05479,2.7026 -4.42784,4.7781 -5.32995,2.7205 l -6.43843,-22.2238 c 0,0 -1.38029,-2.1489 -1.93142,-4.533 l -0.77699,-3.3612 c -0.40227,-1.7678 -0.67378,-1.7622 -1.94799,-0.8741 -5.16589,4.2078 -10.50634,5.0991 -15.83315,6.2495 -2.72285,0.9918 -4.39175,-3.7975 -1.90434,-4.3563 6.56622,-1.0388 13.1973,-3.5674 18.80704,-8.6468 0.4099,-0.3964 0.49119,-0.4609 0.52068,-1.0511 0.0348,-0.6954 0.10425,-2.0862 0.10425,-2.0862 -5.84514,-0.3354 -8.25446,-5.9439 -5.83976,-10.0519 1.3885,-2.3622 4.47599,-3.7847 7.64981,-3.0085 3.68431,0.9011 8.27884,7.3229 2.2475,12.099 z"
       style="fill:url(#linearGradient4457);fill-opacity:1;stroke:none" />
    <path
       sodipodi:nodetypes="ccccccccccccccccccccccccccccccccssc"
       inkscape:connector-curvature="0"
       id="path4493"
       d="m 1526.8071,-853.08347 c 0,0 2.8969,8.6713 4.8,12.3538 1.7079,2.5894 1.0384,2.708 -1.2379,3.69 -38.8724,13.7101 -82.0095,25.7489 -114.1257,17.0563 -12.1565,-2.4637 -19.3658,27.33413 2.8281,30.15435 40.0256,5.78883 75.9991,-0.68145 108.5731,-17.43625 9.1537,-5.2515 10.9161,-3.4979 13.2895,4.5062 l 6.221,20.03405 c 2.3741,7.90146 1.6534,8.3608 -2.7343,14.20601 l -49.2975,65.67428 c -4.1139,5.14241 -4.5523,9.92971 -3.648,15.01652 l 14.7288,86.08315 c 3.9076,20.6842 36.9781,9.58617 32.3919,-5.01705 l -16.6079,-75.32339 c -1.1159,-5.78431 -0.4967,-9.10853 2.7216,-13.81391 l 30.3232,-44.33429 c 4.3983,-6.91667 4.5497,-3.03641 3.3159,1.95075 l -11.8395,39.1354 c -2.8023,7.96372 -0.7657,16.43254 1.1441,23.34636 l 18.7582,74.08568 c 4.7004,21.18009 34.7682,14.7136 34.1819,-0.34873 l -19.7815,-72.67559 c -3.7057,-11.72825 -2.6178,-19.16946 -1.0906,-26.07927 2.4392,-17.99263 6.5826,-37.70145 10.887,-53.97195 3.7093,-15.48402 5.1362,-15.18064 0.3621,-29.3729 l -6.7305,-20.00832 c -3.5732,-10.5029 -2.1404,-11.3447 7.3485,-10.8028 40.4168,5.3607 71.1068,-7.122 102.5567,-18.2107 17.3706,-3.5644 10.7081,-33.8755 -4.0474,-28.8106 -37.5507,15.6457 -80.218,23.7348 -125.7433,15.2553 -3.4074,-0.751 -4.0381,-0.8267 -6.0846,-3.8078 -2.4114,-3.5127 -7.2342,-10.538 -7.2342,-10.538 29.3861,-20.4939 23.9548,-57.44915 -1.8044,-71.11355 -14.8121,-7.8573 -35.4647,-5.3686 -49.5154,8.8555 -16.3107,16.512 -19.6589,64.71435 27.0911,70.26145 z"
       style="opacity:0.6520004;fill:#333333;fill-opacity:1;stroke:none;filter:url(#filter4495)"
       transform="matrix(0.16341907,0,0,0.16341907,-527.4398,1283.3361)" />
    <path
       style="fill:url(#linearGradient4481);fill-opacity:1;stroke:none"
       d="m -277.93041,1141.5822 c 0,0 0.4734,1.4171 0.78441,2.0189 0.2791,0.4231 0.16969,0.4425 -0.2023,0.603 -6.35249,2.2405 -13.40192,4.2079 -18.65031,2.7873 -1.98661,-0.4026 -3.16475,4.4669 0.46216,4.9278 6.54095,0.946 12.4197,-0.1114 17.74292,-2.8494 1.49588,-0.8582 1.78389,-0.5716 2.17175,0.7364 l 1.01663,3.2739 c 0.38798,1.2913 0.2702,1.3664 -0.44683,2.3216 l -8.05616,10.7324 c -0.67228,0.8404 -0.74393,1.6227 -0.59615,2.454 l 2.40697,14.0676 c 0.63858,3.3802 6.04293,1.5666 5.29345,-0.8199 l -2.71404,-12.3092 c -0.18236,-0.9453 -0.0812,-1.4886 0.44476,-2.2575 l 4.95539,-7.2451 c 0.71876,-1.1303 0.7435,-0.4962 0.54188,0.3188 l -1.9348,6.3955 c -0.45795,1.3014 -0.12513,2.6854 0.18696,3.8152 l 3.06545,12.107 c 0.76814,3.4613 5.68179,2.4045 5.58598,-0.057 l -3.23268,-11.8766 c -0.60558,-1.9166 -0.4278,-3.1327 -0.17822,-4.2619 0.39861,-2.9403 1.07572,-6.1611 1.77914,-8.82 0.60617,-2.5304 0.83935,-2.4808 0.0592,-4.8001 l -1.09989,-3.2697 c -0.58393,-1.7164 -0.34978,-1.854 1.20089,-1.7654 6.60487,0.876 11.6202,-1.1639 16.75972,-2.976 2.83868,-0.5825 1.74991,-5.5359 -0.66142,-4.7082 -6.13651,2.5568 -13.10916,3.8787 -20.54886,2.493 -0.55683,-0.1227 -0.6599,-0.1351 -0.99434,-0.6223 -0.39407,-0.574 -1.1822,-1.7221 -1.1822,-1.7221 4.80225,-3.3491 3.91467,-9.3883 -0.29488,-11.6213 -2.42058,-1.284 -5.7956,-0.8773 -8.09176,1.4472 -2.66548,2.6983 -3.21264,10.5755 4.42721,11.482 z"
       id="path3443"
       inkscape:connector-curvature="0"
       sodipodi:nodetypes="ccccccccccccccccccccccccccccccccssc" />
    <path
       sodipodi:nodetypes="ccccccccccccccc"
       inkscape:connector-curvature="0"
       id="path4327"
       d="m 685.64328,617.78615 74.4856,105.99881 c 53.3005,85.50187 51.5203,86.81212 129.2529,30.51672 l 1299.22992,-940.9264 c 53.4935,-46.61748 53.9399,-31.25896 93.7696,20.32918 l 93.6048,121.238434 c 60.0035,78.180611 56.2056,98.729336 89.4425,1.39261 l 214.7258,-628.840224 c 44.2285,-115.4563 46.5231,-110.18698 -71.1053,-90.90364 l -579.7592,95.04249 c -125.0358,18.11844 -133.8349,6.89436 -49.8333,102.09609 l 78.6717,89.16135 c 54.9012,55.15796 50.3353,53.10695 -10.5509,94.0667 L 728.72648,504.18529 c -74.5743,47.47183 -93.07449,42.45943 -43.0832,113.60086 z"
       style="opacity:0.59426228;fill:#333333;fill-opacity:1;stroke:#000000;stroke-width:1px;stroke-linecap:butt;stroke-linejoin:miter;stroke-opacity:1;filter:url(#filter4333)"
       transform="matrix(0.16341907,0,0,0.16341907,-527.4398,1283.3361)" />
    <path
       style="fill:url(#linearGradient3476);fill-opacity:1;stroke:none"
       d="m -428.07745,1377.9517 12.17237,17.3222 c 8.71032,13.9727 8.4194,14.1868 21.12239,4.9871 l 212.31893,-153.7654 c 8.74186,-7.6181 8.81481,-5.1083 15.32374,3.3222 l 15.29681,19.8127 c 9.80572,12.7762 9.18507,16.1342 14.61661,0.2276 l 35.09029,-102.7645 c 7.22778,-18.8678 7.602762,-18.0067 -11.61996,-14.8554 l -94.74371,15.5318 c -20.43323,2.9609 -21.87117,1.1266 -8.14371,16.6844 l 12.85646,14.5707 c 8.9719,9.0138 8.22574,8.6787 -1.72422,15.3723 l -215.52538,144.9898 c -12.18686,7.7578 -15.21015,6.9386 -7.04062,18.5645 z"
       id="path3445"
       inkscape:connector-curvature="0"
       sodipodi:nodetypes="ccccccccccccccc" />
  </g>
</svg>
