<?xml version="1.0" encoding="UTF-8" standalone="no"?>
<!-- Created with Inkscape (http://www.inkscape.org/) -->

<svg
   xmlns:dc="http://purl.org/dc/elements/1.1/"
   xmlns:cc="http://creativecommons.org/ns#"
   xmlns:rdf="http://www.w3.org/1999/02/22-rdf-syntax-ns#"
   xmlns:svg="http://www.w3.org/2000/svg"
   xmlns="http://www.w3.org/2000/svg"
   xmlns:xlink="http://www.w3.org/1999/xlink"
   xmlns:sodipodi="http://sodipodi.sourceforge.net/DTD/sodipodi-0.dtd"
   xmlns:inkscape="http://www.inkscape.org/namespaces/inkscape"
   width="129.84081"
   height="157.79625"
   id="svg2"
   version="1.1"
   inkscape:version="0.48.4 r9939"
   sodipodi:docname="no ice bucket challenge.svg">
  <defs
     id="defs4">
    <linearGradient
       inkscape:collect="always"
       id="linearGradient4239">
      <stop
         style="stop-color:#c5cacd;stop-opacity:1;"
         offset="0"
         id="stop4241" />
      <stop
         style="stop-color:#c5cacd;stop-opacity:0;"
         offset="1"
         id="stop4243" />
    </linearGradient>
    <inkscape:perspective
       sodipodi:type="inkscape:persp3d"
       inkscape:vp_x="-108.92636 : 507.771 : 1"
       inkscape:vp_y="0 : 1000 : 0"
       inkscape:vp_z="635.16812 : 507.771 : 1"
       inkscape:persp3d-origin="263.12088 : 332.3773 : 1"
       id="perspective3998" />
    <linearGradient
       id="linearGradient3947">
      <stop
         id="stop3949"
         offset="0"
         style="stop-color:#9198a0;stop-opacity:1;" />
      <stop
         style="stop-color:#f0f1f2;stop-opacity:1;"
         offset="0.59833306"
         id="stop3951" />
      <stop
         id="stop3953"
         offset="1"
         style="stop-color:#808792;stop-opacity:1;" />
    </linearGradient>
    <linearGradient
       id="linearGradient3904">
      <stop
         id="stop3906"
         offset="0"
         style="stop-color:#ffffff;stop-opacity:1;" />
      <stop
         style="stop-color:#767f88;stop-opacity:1;"
         offset="1"
         id="stop3908" />
    </linearGradient>
    <linearGradient
       id="linearGradient3820">
      <stop
         style="stop-color:#9198a0;stop-opacity:1;"
         offset="0"
         id="stop3822" />
      <stop
         id="stop3828"
         offset="0.3808082"
         style="stop-color:#f0f1f2;stop-opacity:1;" />
      <stop
         style="stop-color:#808792;stop-opacity:1;"
         offset="1"
         id="stop3824" />
    </linearGradient>
    <filter
       inkscape:collect="always"
       id="filter3812"
       x="-0.23177138"
       width="1.4635428"
       y="-0.063483723"
       height="1.1269674"
       color-interpolation-filters="sRGB">
      <feGaussianBlur
         inkscape:collect="always"
         stdDeviation="8.8035856"
         id="feGaussianBlur3814" />
    </filter>
    <filter
       inkscape:collect="always"
       id="filter3816"
       x="-0.22269768"
       width="1.4453954"
       y="-0.0611885"
       height="1.122377"
       color-interpolation-filters="sRGB">
      <feGaussianBlur
         inkscape:collect="always"
         stdDeviation="8.7646752"
         id="feGaussianBlur3818" />
    </filter>
    <filter
       inkscape:collect="always"
       id="filter3838"
       color-interpolation-filters="sRGB">
      <feGaussianBlur
         inkscape:collect="always"
         stdDeviation="3.0795785"
         id="feGaussianBlur3840" />
    </filter>
    <filter
       inkscape:collect="always"
       id="filter3874"
       x="-0.49818552"
       width="1.996371"
       y="-0.083837047"
       height="1.1676741"
       color-interpolation-filters="sRGB">
      <feGaussianBlur
         inkscape:collect="always"
         stdDeviation="11.621745"
         id="feGaussianBlur3876" />
    </filter>
    <filter
       inkscape:collect="always"
       id="filter3890"
       x="-0.16146179"
       width="1.3229235"
       y="-0.03974444"
       height="1.0794889"
       color-interpolation-filters="sRGB">
      <feGaussianBlur
         inkscape:collect="always"
         stdDeviation="5.7947757"
         id="feGaussianBlur3892" />
    </filter>
    <linearGradient
       id="linearGradient3904-1">
      <stop
         id="stop3906-6"
         offset="0"
         style="stop-color:#ffffff;stop-opacity:1;" />
      <stop
         style="stop-color:#767f88;stop-opacity:1;"
         offset="1"
         id="stop3908-8" />
    </linearGradient>
    <radialGradient
       r="39.53989"
       fy="208.29539"
       fx="-866.58258"
       cy="208.29539"
       cx="-866.58258"
       gradientTransform="matrix(1,0,0,0.98611105,0,2.8930047)"
       gradientUnits="userSpaceOnUse"
       id="radialGradient3927"
       xlink:href="#linearGradient3904-1"
       inkscape:collect="always" />
    <filter
       inkscape:collect="always"
       id="filter3969"
       x="-0.16679536"
       width="1.3335907"
       y="-0.12594752"
       height="1.251895"
       color-interpolation-filters="sRGB">
      <feGaussianBlur
         inkscape:collect="always"
         stdDeviation="0.98625478"
         id="feGaussianBlur3971" />
    </filter>
    <filter
       inkscape:collect="always"
       id="filter4111"
       color-interpolation-filters="sRGB">
      <feGaussianBlur
         inkscape:collect="always"
         stdDeviation="3.6257588"
         id="feGaussianBlur4113" />
    </filter>
    <filter
       inkscape:collect="always"
       id="filter4159"
       x="-0.30104411"
       width="1.6020882"
       y="-0.090813644"
       height="1.1816273"
       color-interpolation-filters="sRGB">
      <feGaussianBlur
         inkscape:collect="always"
         stdDeviation="2.8079362"
         id="feGaussianBlur4161" />
    </filter>
    <filter
       inkscape:collect="always"
       id="filter4745"
       color-interpolation-filters="sRGB">
      <feGaussianBlur
         inkscape:collect="always"
         stdDeviation="2.6613752"
         id="feGaussianBlur4747" />
    </filter>
    <filter
       inkscape:collect="always"
       id="filter4783"
       x="-0.11401578"
       width="1.2280316"
       y="-0.22568072"
       height="1.4513614"
       color-interpolation-filters="sRGB">
      <feGaussianBlur
         inkscape:collect="always"
         stdDeviation="12.182928"
         id="feGaussianBlur4785" />
    </filter>
    <linearGradient
       inkscape:collect="always"
       xlink:href="#linearGradient4239"
       id="linearGradient6450"
       gradientUnits="userSpaceOnUse"
       spreadMethod="reflect"
       x1="-914.90906"
       y1="96.814873"
       x2="-717.09888"
       y2="103.16699" />
    <radialGradient
       inkscape:collect="always"
       xlink:href="#linearGradient3904-1"
       id="radialGradient6452"
       gradientUnits="userSpaceOnUse"
       gradientTransform="matrix(0.38681907,0.01508082,-0.03018628,1.6234307,-499.16312,-49.066907)"
       cx="-944.77948"
       cy="197.86868"
       fx="-944.77948"
       fy="197.86868"
       r="39.53989" />
    <radialGradient
       inkscape:collect="always"
       xlink:href="#linearGradient3904"
       id="radialGradient6454"
       gradientUnits="userSpaceOnUse"
       gradientTransform="matrix(1,0,0,0.98611105,0,2.8930047)"
       cx="-866.58258"
       cy="208.29539"
       fx="-866.58258"
       fy="208.29539"
       r="39.53989" />
    <radialGradient
       inkscape:collect="always"
       xlink:href="#linearGradient3947"
       id="radialGradient6456"
       gradientUnits="userSpaceOnUse"
       gradientTransform="matrix(0.29570316,0.00406633,-0.00475749,1.6152893,-599.36677,-59.34577)"
       cx="-986.36877"
       cy="203.48593"
       fx="-986.36877"
       fy="203.48593"
       r="39.53989" />
    <radialGradient
       inkscape:collect="always"
       xlink:href="#linearGradient3904-1"
       id="radialGradient6458"
       gradientUnits="userSpaceOnUse"
       gradientTransform="matrix(0.38681907,0.01508082,-0.03018628,1.6234307,-499.16312,-49.066907)"
       cx="-944.77948"
       cy="197.86868"
       fx="-944.77948"
       fy="197.86868"
       r="39.53989" />
    <radialGradient
       inkscape:collect="always"
       xlink:href="#linearGradient3904"
       id="radialGradient6460"
       gradientUnits="userSpaceOnUse"
       gradientTransform="matrix(1,0,0,0.98611105,0,2.8930047)"
       cx="-866.58258"
       cy="208.29539"
       fx="-866.58258"
       fy="208.29539"
       r="39.53989" />
    <radialGradient
       inkscape:collect="always"
       xlink:href="#linearGradient3947"
       id="radialGradient6462"
       gradientUnits="userSpaceOnUse"
       gradientTransform="matrix(0.29570316,0.00406633,-0.00475749,1.6152893,-599.36677,-59.34577)"
       cx="-986.36877"
       cy="203.48593"
       fx="-986.36877"
       fy="203.48593"
       r="39.53989" />
    <radialGradient
       inkscape:collect="always"
       xlink:href="#linearGradient3820"
       id="radialGradient6464"
       gradientUnits="userSpaceOnUse"
       gradientTransform="matrix(1,0,0,0.34229858,0,271.53287)"
       cx="-684.52551"
       cy="444.064"
       fx="-684.52551"
       fy="444.064"
       r="144.53125" />
    <radialGradient
       inkscape:collect="always"
       xlink:href="#linearGradient3820"
       id="radialGradient6466"
       gradientUnits="userSpaceOnUse"
       gradientTransform="matrix(1,0,0,0.34229858,0,271.53287)"
       cx="-684.52551"
       cy="444.064"
       fx="-684.52551"
       fy="444.064"
       r="144.53125" />
    <radialGradient
       inkscape:collect="always"
       xlink:href="#linearGradient3820"
       id="radialGradient6468"
       gradientUnits="userSpaceOnUse"
       gradientTransform="matrix(1,0,0,0.34229858,0,271.53287)"
       cx="-684.52551"
       cy="444.064"
       fx="-684.52551"
       fy="444.064"
       r="144.53125" />
    <filter
       id="filter6593"
       inkscape:label="Darken edges"
       inkscape:menu="Shadows and Glows"
       inkscape:menu-tooltip="Darken the edges with an inner blur"
       color-interpolation-filters="sRGB">
      <feGaussianBlur
         id="feGaussianBlur6595"
         result="result6"
         stdDeviation="1.2293902439024391" />
      <feComposite
         id="feComposite6597"
         in2="result6"
         operator="atop"
         in="SourceGraphic"
         result="result8" />
      <feComposite
         id="feComposite6599"
         in2="SourceAlpha"
         in="result8"
         operator="atop"
         result="result9" />
    </filter>
    <filter
       id="filter6593-2"
       inkscape:label="Darken edges"
       inkscape:menu="Shadows and Glows"
       inkscape:menu-tooltip="Darken the edges with an inner blur"
       color-interpolation-filters="sRGB">
      <feGaussianBlur
         id="feGaussianBlur6595-7"
         result="result6"
         stdDeviation="1.2293902439024391" />
      <feComposite
         id="feComposite6597-7"
         in2="result6"
         operator="atop"
         in="SourceGraphic"
         result="result8" />
      <feComposite
         id="feComposite6599-1"
         in2="SourceAlpha"
         in="result8"
         operator="atop"
         result="result9" />
    </filter>
    <linearGradient
       inkscape:collect="always"
       xlink:href="#linearGradient4239"
       id="linearGradient6758"
       gradientUnits="userSpaceOnUse"
       spreadMethod="reflect"
       x1="-914.90906"
       y1="96.814873"
       x2="-717.09888"
       y2="103.16699" />
    <radialGradient
       inkscape:collect="always"
       xlink:href="#linearGradient3904-1"
       id="radialGradient6760"
       gradientUnits="userSpaceOnUse"
       gradientTransform="matrix(0.38681907,0.01508082,-0.03018628,1.6234307,-499.16312,-49.066907)"
       cx="-944.77948"
       cy="197.86868"
       fx="-944.77948"
       fy="197.86868"
       r="39.53989" />
    <radialGradient
       inkscape:collect="always"
       xlink:href="#linearGradient3904"
       id="radialGradient6762"
       gradientUnits="userSpaceOnUse"
       gradientTransform="matrix(1,0,0,0.98611105,0,2.8930047)"
       cx="-866.58258"
       cy="208.29539"
       fx="-866.58258"
       fy="208.29539"
       r="39.53989" />
    <radialGradient
       inkscape:collect="always"
       xlink:href="#linearGradient3947"
       id="radialGradient6764"
       gradientUnits="userSpaceOnUse"
       gradientTransform="matrix(0.29570316,0.00406633,-0.00475749,1.6152893,-599.36677,-59.34577)"
       cx="-986.36877"
       cy="203.48593"
       fx="-986.36877"
       fy="203.48593"
       r="39.53989" />
    <radialGradient
       inkscape:collect="always"
       xlink:href="#linearGradient3904-1"
       id="radialGradient6766"
       gradientUnits="userSpaceOnUse"
       gradientTransform="matrix(0.38681907,0.01508082,-0.03018628,1.6234307,-499.16312,-49.066907)"
       cx="-944.77948"
       cy="197.86868"
       fx="-944.77948"
       fy="197.86868"
       r="39.53989" />
    <radialGradient
       inkscape:collect="always"
       xlink:href="#linearGradient3904"
       id="radialGradient6768"
       gradientUnits="userSpaceOnUse"
       gradientTransform="matrix(1,0,0,0.98611105,0,2.8930047)"
       cx="-866.58258"
       cy="208.29539"
       fx="-866.58258"
       fy="208.29539"
       r="39.53989" />
    <radialGradient
       inkscape:collect="always"
       xlink:href="#linearGradient3947"
       id="radialGradient6770"
       gradientUnits="userSpaceOnUse"
       gradientTransform="matrix(0.29570316,0.00406633,-0.00475749,1.6152893,-599.36677,-59.34577)"
       cx="-986.36877"
       cy="203.48593"
       fx="-986.36877"
       fy="203.48593"
       r="39.53989" />
    <radialGradient
       inkscape:collect="always"
       xlink:href="#linearGradient3820"
       id="radialGradient6772"
       gradientUnits="userSpaceOnUse"
       gradientTransform="matrix(1,0,0,0.34229858,0,271.53287)"
       cx="-684.52551"
       cy="444.064"
       fx="-684.52551"
       fy="444.064"
       r="144.53125" />
    <radialGradient
       inkscape:collect="always"
       xlink:href="#linearGradient3820"
       id="radialGradient6774"
       gradientUnits="userSpaceOnUse"
       gradientTransform="matrix(1,0,0,0.34229858,0,271.53287)"
       cx="-684.52551"
       cy="444.064"
       fx="-684.52551"
       fy="444.064"
       r="144.53125" />
    <radialGradient
       inkscape:collect="always"
       xlink:href="#linearGradient3820"
       id="radialGradient6776"
       gradientUnits="userSpaceOnUse"
       gradientTransform="matrix(1,0,0,0.34229858,0,271.53287)"
       cx="-684.52551"
       cy="444.064"
       fx="-684.52551"
       fy="444.064"
       r="144.53125" />
    <linearGradient
       inkscape:collect="always"
       xlink:href="#linearGradient4239"
       id="linearGradient6999"
       gradientUnits="userSpaceOnUse"
       spreadMethod="reflect"
       x1="-914.90906"
       y1="96.814873"
       x2="-717.09888"
       y2="103.16699" />
    <radialGradient
       inkscape:collect="always"
       xlink:href="#linearGradient3904-1"
       id="radialGradient7001"
       gradientUnits="userSpaceOnUse"
       gradientTransform="matrix(0.38681907,0.01508082,-0.03018628,1.6234307,-499.16312,-49.066907)"
       cx="-944.77948"
       cy="197.86868"
       fx="-944.77948"
       fy="197.86868"
       r="39.53989" />
    <radialGradient
       inkscape:collect="always"
       xlink:href="#linearGradient3904"
       id="radialGradient7003"
       gradientUnits="userSpaceOnUse"
       gradientTransform="matrix(1,0,0,0.98611105,0,2.8930047)"
       cx="-866.58258"
       cy="208.29539"
       fx="-866.58258"
       fy="208.29539"
       r="39.53989" />
    <radialGradient
       inkscape:collect="always"
       xlink:href="#linearGradient3947"
       id="radialGradient7005"
       gradientUnits="userSpaceOnUse"
       gradientTransform="matrix(0.29570316,0.00406633,-0.00475749,1.6152893,-599.36677,-59.34577)"
       cx="-986.36877"
       cy="203.48593"
       fx="-986.36877"
       fy="203.48593"
       r="39.53989" />
    <radialGradient
       inkscape:collect="always"
       xlink:href="#linearGradient3904-1"
       id="radialGradient7007"
       gradientUnits="userSpaceOnUse"
       gradientTransform="matrix(0.38681907,0.01508082,-0.03018628,1.6234307,-499.16312,-49.066907)"
       cx="-944.77948"
       cy="197.86868"
       fx="-944.77948"
       fy="197.86868"
       r="39.53989" />
    <radialGradient
       inkscape:collect="always"
       xlink:href="#linearGradient3904"
       id="radialGradient7009"
       gradientUnits="userSpaceOnUse"
       gradientTransform="matrix(1,0,0,0.98611105,0,2.8930047)"
       cx="-866.58258"
       cy="208.29539"
       fx="-866.58258"
       fy="208.29539"
       r="39.53989" />
    <radialGradient
       inkscape:collect="always"
       xlink:href="#linearGradient3947"
       id="radialGradient7011"
       gradientUnits="userSpaceOnUse"
       gradientTransform="matrix(0.29570316,0.00406633,-0.00475749,1.6152893,-599.36677,-59.34577)"
       cx="-986.36877"
       cy="203.48593"
       fx="-986.36877"
       fy="203.48593"
       r="39.53989" />
    <radialGradient
       inkscape:collect="always"
       xlink:href="#linearGradient3820"
       id="radialGradient7013"
       gradientUnits="userSpaceOnUse"
       gradientTransform="matrix(1,0,0,0.34229858,0,271.53287)"
       cx="-684.52551"
       cy="444.064"
       fx="-684.52551"
       fy="444.064"
       r="144.53125" />
    <radialGradient
       inkscape:collect="always"
       xlink:href="#linearGradient3820"
       id="radialGradient7015"
       gradientUnits="userSpaceOnUse"
       gradientTransform="matrix(1,0,0,0.34229858,0,271.53287)"
       cx="-684.52551"
       cy="444.064"
       fx="-684.52551"
       fy="444.064"
       r="144.53125" />
    <radialGradient
       inkscape:collect="always"
       xlink:href="#linearGradient3820"
       id="radialGradient7017"
       gradientUnits="userSpaceOnUse"
       gradientTransform="matrix(1,0,0,0.34229858,0,271.53287)"
       cx="-684.52551"
       cy="444.064"
       fx="-684.52551"
       fy="444.064"
       r="144.53125" />
  </defs>
  <sodipodi:namedview
     id="base"
     pagecolor="#ffffff"
     bordercolor="#666666"
     borderopacity="1.0"
     inkscape:pageopacity="0.0"
     inkscape:pageshadow="2"
     inkscape:zoom="1.1448345"
     inkscape:cx="370.89835"
     inkscape:cy="101.54074"
     inkscape:document-units="px"
     inkscape:current-layer="layer1"
     showgrid="false"
     showguides="true"
     inkscape:guide-bbox="true"
     inkscape:window-width="1680"
     inkscape:window-height="987"
     inkscape:window-x="-8"
     inkscape:window-y="-8"
     inkscape:window-maximized="1"
     fit-margin-top="0"
     fit-margin-left="0"
     fit-margin-right="0"
     fit-margin-bottom="0" />
  <metadata
     id="metadata7">
    <rdf:RDF>
      <cc:Work
         rdf:about="">
        <dc:format>image/svg+xml</dc:format>
        <dc:type
           rdf:resource="http://purl.org/dc/dcmitype/StillImage" />
        <dc:title></dc:title>
      </cc:Work>
    </rdf:RDF>
  </metadata>
  <g
     inkscape:label="Ebene 1"
     inkscape:groupmode="layer"
     id="layer1"
     transform="translate(-65.294365,-61.984547)">
    <g
       id="g6900">
      <path
         transform="matrix(0.28705769,0,0,0.24219921,325.27994,80.746477)"
         d="m -550.29294,480.03079 c 0,35.77681 -57.40766,64.77963 -128.2236,64.77963 -70.81594,0 -128.2236,-29.00282 -128.2236,-64.77963 0,-35.7768 57.40766,-64.77963 128.2236,-64.77963 70.81594,0 128.2236,29.00283 128.2236,64.77963 z"
         sodipodi:ry="64.779633"
         sodipodi:rx="128.2236"
         sodipodi:cy="480.03079"
         sodipodi:cx="-678.51654"
         id="path4749"
         style="opacity:0.94276093;color:#000000;fill:#1a1a1a;fill-opacity:1;fill-rule:nonzero;stroke:none;stroke-width:11.34700012;marker:none;visibility:visible;display:inline;overflow:visible;filter:url(#filter4783);enable-background:accumulate"
         sodipodi:type="arc" />
      <path
         transform="matrix(0.29237357,0,0,0.3078316,336.76446,59.685273)"
         d="m -499.74023,96.814873 c 0,46.100917 -92.93871,83.473097 -207.58442,83.473097 -114.6457,0 -207.58441,-37.37218 -207.58441,-83.473097 0,-46.10092 92.93871,-83.473099 207.58441,-83.473099 114.64571,0 207.58442,37.372179 207.58442,83.473099 z"
         sodipodi:ry="83.473099"
         sodipodi:rx="207.58441"
         sodipodi:cy="96.814873"
         sodipodi:cx="-707.32465"
         id="path2996"
         style="color:#000000;fill:url(#linearGradient6999);fill-opacity:1;fill-rule:nonzero;stroke:none;stroke-width:0.90619111;marker:none;visibility:visible;display:inline;overflow:visible;enable-background:accumulate"
         sodipodi:type="arc" />
      <g
         transform="matrix(0.28705769,0,0,0.28705769,325.27994,63.430559)"
         id="g3973">
        <path
           sodipodi:nodetypes="ssscscs"
           inkscape:connector-curvature="0"
           id="path3790"
           d="m -882.61896,319.4284 c 10.33458,0 18.71929,-25.06741 18.71929,-55.99694 0,-30.92953 -8.38471,-55.99694 -18.71929,-55.99694 -1.7532,0 -4.43569,8.51994 -6.04492,9.86927 8.87622,4.10563 14.46003,21.2532 14.46003,45.51739 0,25.68205 -6.53301,46.71024 -14.74235,45.51225 1.97893,2.13127 4.10297,11.09497 6.32724,11.09497 z"
           style="color:#000000;fill:url(#radialGradient7001);fill-opacity:1;fill-rule:nonzero;stroke:none;stroke-width:11.34700012;marker:none;visibility:visible;display:inline;overflow:visible;enable-background:accumulate" />
        <path
           transform="translate(6.5899814,2.1966605)"
           d="m -827.04269,208.29539 c 0,21.53399 -17.70261,38.99073 -39.53989,38.99073 -21.83728,0 -39.53989,-17.45674 -39.53989,-38.99073 0,-21.53398 17.70261,-38.99072 39.53989,-38.99072 21.83728,0 39.53989,17.45674 39.53989,38.99072 z"
           sodipodi:ry="38.990723"
           sodipodi:rx="39.53989"
           sodipodi:cy="208.29539"
           sodipodi:cx="-866.58258"
           id="path3894"
           style="color:#000000;fill:#ffffff;fill-opacity:1;stroke:none;stroke-width:11.34700012;marker:none;visibility:visible;display:inline;overflow:visible;enable-background:accumulate"
           sodipodi:type="arc" />
        <path
           sodipodi:type="arc"
           style="opacity:0.52188553;color:#000000;fill:url(#radialGradient7003);fill-opacity:1;stroke:none;stroke-width:11.34700012;marker:none;visibility:visible;display:inline;overflow:visible;enable-background:accumulate"
           id="path3781"
           sodipodi:cx="-866.58258"
           sodipodi:cy="208.29539"
           sodipodi:rx="39.53989"
           sodipodi:ry="38.990723"
           d="m -827.04269,208.29539 c 0,21.53399 -17.70261,38.99073 -39.53989,38.99073 -21.83728,0 -39.53989,-17.45674 -39.53989,-38.99073 0,-21.53398 17.70261,-38.99072 39.53989,-38.99072 21.83728,0 39.53989,17.45674 39.53989,38.99072 z"
           transform="translate(6.5899814,2.1966605)" />
        <path
           sodipodi:type="arc"
           style="color:#000000;fill:#333333;fill-opacity:1;fill-rule:nonzero;stroke:none;stroke-width:11.34700012;marker:none;visibility:visible;display:inline;overflow:visible;filter:url(#filter3969);enable-background:accumulate"
           id="path3955"
           sodipodi:cx="-881.95837"
           sodipodi:cy="213.55247"
           sodipodi:rx="7.0955553"
           sodipodi:ry="9.3968163"
           d="m -874.86282,213.55247 c 0,5.18972 -3.17679,9.39682 -7.09555,9.39682 -3.91877,0 -7.09556,-4.2071 -7.09556,-9.39682 0,-5.18971 3.17679,-9.39681 7.09556,-9.39681 3.91876,0 7.09555,4.2071 7.09555,9.39681 z"
           transform="translate(-1.9177177,-1.1506306)" />
        <path
           style="color:#000000;fill:url(#radialGradient7005);fill-opacity:1;fill-rule:nonzero;stroke:none;stroke-width:11.34700012;marker:none;visibility:visible;display:inline;overflow:visible;enable-background:accumulate"
           d="m -885.09835,320.93262 c -11.36883,0 -20.59268,-25.48522 -20.59268,-56.93025 0,-31.44504 9.22385,-56.93026 20.59268,-56.93026 1.92865,0 3.7811,0.72879 5.55136,2.10062 1.46224,5.24189 -1.96686,5.76704 -6.67972,10.49436 -8.21874,8.24394 -8.12891,26.42535 -8.12891,43.71482 0,26.1101 7.55299,47.48878 16.21769,54.20397 -2.177,2.16679 -4.51357,3.34674 -6.96042,3.34674 z"
           id="path3783"
           inkscape:connector-curvature="0"
           sodipodi:nodetypes="ssscsscs" />
      </g>
      <g
         transform="matrix(-0.28705769,0,0,0.28705769,-64.850407,63.430559)"
         id="g3980">
        <path
           style="color:#000000;fill:url(#radialGradient7007);fill-opacity:1;fill-rule:nonzero;stroke:none;stroke-width:11.34700012;marker:none;visibility:visible;display:inline;overflow:visible;enable-background:accumulate"
           d="m -882.61896,319.4284 c 10.33458,0 18.71929,-25.06741 18.71929,-55.99694 0,-30.92953 -8.38471,-55.99694 -18.71929,-55.99694 -1.7532,0 -4.43569,8.51994 -6.04492,9.86927 8.87622,4.10563 14.46003,21.2532 14.46003,45.51739 0,25.68205 -6.53301,46.71024 -14.74235,45.51225 1.97893,2.13127 4.10297,11.09497 6.32724,11.09497 z"
           id="path3982"
           inkscape:connector-curvature="0"
           sodipodi:nodetypes="ssscscs" />
        <path
           sodipodi:type="arc"
           style="color:#000000;fill:#ffffff;fill-opacity:1;stroke:none;stroke-width:11.34700012;marker:none;visibility:visible;display:inline;overflow:visible;enable-background:accumulate"
           id="path3984"
           sodipodi:cx="-866.58258"
           sodipodi:cy="208.29539"
           sodipodi:rx="39.53989"
           sodipodi:ry="38.990723"
           d="m -827.04269,208.29539 c 0,21.53399 -17.70261,38.99073 -39.53989,38.99073 -21.83728,0 -39.53989,-17.45674 -39.53989,-38.99073 0,-21.53398 17.70261,-38.99072 39.53989,-38.99072 21.83728,0 39.53989,17.45674 39.53989,38.99072 z"
           transform="translate(6.5899814,2.1966605)" />
        <path
           transform="translate(6.5899814,2.1966605)"
           d="m -827.04269,208.29539 c 0,21.53399 -17.70261,38.99073 -39.53989,38.99073 -21.83728,0 -39.53989,-17.45674 -39.53989,-38.99073 0,-21.53398 17.70261,-38.99072 39.53989,-38.99072 21.83728,0 39.53989,17.45674 39.53989,38.99072 z"
           sodipodi:ry="38.990723"
           sodipodi:rx="39.53989"
           sodipodi:cy="208.29539"
           sodipodi:cx="-866.58258"
           id="path3986"
           style="opacity:0.52188553;color:#000000;fill:url(#radialGradient7009);fill-opacity:1;stroke:none;stroke-width:11.34700012;marker:none;visibility:visible;display:inline;overflow:visible;enable-background:accumulate"
           sodipodi:type="arc" />
        <path
           transform="translate(-1.9177177,-1.1506306)"
           d="m -874.86282,213.55247 c 0,5.18972 -3.17679,9.39682 -7.09555,9.39682 -3.91877,0 -7.09556,-4.2071 -7.09556,-9.39682 0,-5.18971 3.17679,-9.39681 7.09556,-9.39681 3.91876,0 7.09555,4.2071 7.09555,9.39681 z"
           sodipodi:ry="9.3968163"
           sodipodi:rx="7.0955553"
           sodipodi:cy="213.55247"
           sodipodi:cx="-881.95837"
           id="path3988"
           style="color:#000000;fill:#333333;fill-opacity:1;fill-rule:nonzero;stroke:none;stroke-width:11.34700012;marker:none;visibility:visible;display:inline;overflow:visible;filter:url(#filter3969);enable-background:accumulate"
           sodipodi:type="arc" />
        <path
           sodipodi:nodetypes="ssscsscs"
           inkscape:connector-curvature="0"
           id="path3990"
           d="m -885.09835,320.93262 c -11.36883,0 -20.59268,-25.48522 -20.59268,-56.93025 0,-31.44504 9.22385,-56.93026 20.59268,-56.93026 1.92865,0 3.7811,0.72879 5.55136,2.10062 1.46224,5.24189 -1.96686,5.76704 -6.67972,10.49436 -8.21874,8.24394 -8.12891,26.42535 -8.12891,43.71482 0,26.1101 7.55299,47.48878 16.21769,54.20397 -2.177,2.16679 -4.51357,3.34674 -6.96042,3.34674 z"
           style="color:#000000;fill:url(#radialGradient7011);fill-opacity:1;fill-rule:nonzero;stroke:none;stroke-width:11.34700012;marker:none;visibility:visible;display:inline;overflow:visible;enable-background:accumulate" />
      </g>
      <path
         id="path3770"
         d="m 192.2287,92.48618 c -27.81229,30.39556 -96.783741,22.58016 -122.645397,2.206756 l 5.04145,23.332404 c 0.694459,0.84385 1.450276,1.65263 2.251609,2.43999 l 16.039348,73.22663 c 9.49341,26.45333 67.20434,23.78838 73.14589,-0.63691 l 17.8514,-73.79177 c 0.47986,-0.50878 0.94209,-1.02981 1.38146,-1.56088 l 6.93424,-25.21622 z"
         style="color:#000000;fill:#bfc4c8;fill-opacity:1;fill-rule:nonzero;stroke:none;stroke-width:1px;marker:none;visibility:visible;display:inline;overflow:visible;enable-background:accumulate"
         inkscape:connector-curvature="0" />
      <g
         id="g4247"
         transform="matrix(0.1259579,0,0,0.1259579,147.05278,7.3826742)">
        <path
           d="m 186.79397,728.81506 60.14088,37.46575 62.11626,-35.46973 -60.98564,-27.1707 z"
           style="color:#000000;fill:#afafde;fill-opacity:1;fill-rule:evenodd;stroke:none;stroke-width:11.34700012;marker:none;visibility:visible"
           id="path4249"
           inkscape:connector-curvature="0" />
        <path
           d="m 186.79397,662.66847 60.14088,24.01347 62.11626,-22.73413 -60.98564,-17.41491 z"
           style="color:#000000;fill:#b3b3b3;fill-opacity:1;fill-rule:evenodd;stroke:none;stroke-width:11.34700012;marker:none;visibility:visible"
           id="path4251"
           inkscape:connector-curvature="0" />
        <path
           d="m 246.93485,686.68194 0,79.59887 62.11626,-35.46973 0,-66.86327 z"
           style="color:#000000;fill:#b3b3b3;fill-opacity:1;fill-rule:evenodd;stroke:none;stroke-width:11.34700012;marker:none;visibility:visible"
           id="path4253"
           inkscape:connector-curvature="0" />
        <path
           d="m 186.79397,662.66847 60.14088,24.01347 0,79.59887 -60.14088,-37.46575 z"
           style="color:#000000;fill:#808080;fill-opacity:1;fill-rule:evenodd;stroke:none;stroke-width:11.34700012;marker:none;visibility:visible"
           id="path4255"
           inkscape:connector-curvature="0" />
        <path
           id="path4257"
           d="m 248.0625,646.53125 -17.75,4.6875 c -0.002,1.03337 0.0192,-1.06147 -0.0625,3.96875 -0.003,0.51949 0.0268,1.04323 0.0312,1.5625 -0.0409,0.21701 -0.0773,0.44062 -0.125,0.65625 -0.59457,2.69083 -1.62073,5.25612 -2.84375,7.71875 -1.20702,2.4858 -2.40396,4.99769 -3.1875,7.65625 -0.14356,-0.15505 -0.28965,-0.31914 -0.4375,-0.46875 -0.60896,-0.72636 -1.21937,-1.41691 -1.8125,-2.15625 -3.62158,-4.51432 -6.87299,-9.30078 -10.15625,-14.0625 L 198.78125,659.5 c 0.18495,0.24046 0.37756,0.47876 0.5625,0.71875 0.83052,1.06762 1.63682,2.12098 2.46875,3.1875 2.47132,3.1682 2.99701,3.70534 5.1875,7.0625 0.70327,1.07783 1.35687,2.18512 2.03125,3.28125 3.22655,5.24439 0.4509,0.63961 3.25,5.3125 0.85708,1.21848 1.48944,2.59528 2.21875,3.90625 -5.56825,2.97138 -11.00718,6.16571 -16.40625,9.4375 -1.85538,-2.97314 -3.58315,-6.02821 -5.28125,-9.09375 -2.04282,-5.62654 -3.36543,-11.47342 -4.625,-17.3125 -0.0336,-0.16186 -0.0596,-0.28978 -0.0937,-0.4375 0.0388,-0.0448 0.0558,-0.09 0,-0.0625 -0.0126,0.006 -0.0187,0.025 -0.0312,0.0312 -0.34884,-1.49519 -0.72048,-2.26965 -1.28125,-2.46875 l 0,40.78125 c 0.86233,-0.38179 2.00506,-0.90591 2.71875,-1.21875 0.19491,0.29902 0.33791,0.50038 0.5625,0.84375 2.47076,3.66265 4.84435,7.41349 6.8125,11.375 0.56723,1.02199 0.96305,2.08552 1.03125,3.25 0.058,1.06858 0.0949,1.79674 -0.375,2.78125 -0.21953,0.51924 -0.44452,1.03799 -0.71875,1.53125 -0.27879,0.50145 -0.32264,0.41453 -0.53125,0.96875 -0.0785,0.20852 -0.1245,0.41129 -0.1875,0.625 -0.0835,0.22182 -0.1941,0.45718 -0.25,0.6875 -0.18696,0.76987 -0.23487,1.57026 -0.40625,2.34375 -0.23482,1.05975 -0.53412,1.88764 -0.8125,2.9375 -0.13588,0.51243 -0.24996,1.04731 -0.375,1.5625 -0.10851,0.53264 -0.19294,1.06348 -0.3125,1.59375 -0.01,0.0422 -0.0211,0.0831 -0.0312,0.125 L 211.1875,744 c 0.5931,-0.33266 1.18659,-0.67012 1.78125,-1 -0.1696,0.13582 -0.75923,0.58372 -1.03125,0.71875 -0.24323,0.12074 -0.50347,0.2021 -0.75,0.28125 l 2.0625,1.3125 c 0.86697,-0.61902 1.58738,-1.15271 1.75,-1.25 0.15309,-0.18102 1.22444,-1.40678 1.40625,-1.65625 0.17266,-0.23689 0.30874,-0.50439 0.46875,-0.75 0.11862,-0.18208 0.6061,-0.87815 0.6875,-1.125 0.0725,-0.21983 0.0582,-0.45878 0.0937,-0.6875 0.0216,-0.2394 0.0585,-0.47842 0.0625,-0.71875 0.006,-0.39759 -0.0791,-1.81985 -0.0937,-2.125 -0.0191,-0.39838 -0.0507,-0.78912 -0.0625,-1.1875 3.43777,2.17201 6.83764,4.41285 10.25,6.625 4.90274,3.17833 2.05075,1.23097 6.40625,4.3125 1.73353,1.34392 3.58484,2.61055 5.125,4.1875 0.28813,0.29501 0.83261,0.94215 1.03125,1.375 0.0547,0.11934 0.0659,0.27794 0.0937,0.40625 -0.0777,0.21141 -0.16915,0.40367 -0.21875,0.625 -0.2089,0.93257 -0.40151,1.84414 -0.71875,2.75 -0.40685,0.96409 -0.6172,1.96436 -0.71875,3 0.0111,0.77212 0.35701,1.43769 0.65625,2.125 0.0604,0.16597 0.10485,0.33151 0.15625,0.5 l 7.3125,4.5625 6.28125,-3.59375 c -0.13154,-1.11107 -0.22673,-2.2189 -0.25,-3.34375 -0.0152,-0.53973 -0.0595,-1.08507 -0.0625,-1.625 -0.007,-1.27372 0.24344,-2.78732 -0.21875,-4 -0.2193,-0.44032 -0.47674,-0.82709 -0.34375,-1.34375 0.11967,-0.89933 0.40485,-1.77767 0.625,-2.65625 0.12059,-0.49372 0.22097,-0.97557 0.34375,-1.46875 0.032,-0.12853 0.0569,-0.27364 0.0937,-0.40625 1.14257,0.65047 2.28922,1.31951 3.375,2.0625 1.11741,0.76463 1.89315,1.39555 2.96875,2.21875 0.44971,0.34418 0.89177,0.69006 1.34375,1.03125 0.37913,0.35535 0.77367,0.71088 1.15625,1.0625 0.27589,0.25356 0.56392,0.5008 0.84375,0.75 0.18583,0.16549 0.36444,0.31537 0.53125,0.5 0.24836,0.27488 0.46548,0.57909 0.65625,0.90625 l 12.8125,-7.3125 c -0.87322,-1.61682 -2.23206,-2.31799 -3.96875,-3.46875 -1.56217,-0.97778 -3.01039,-2.10787 -4.5,-3.1875 -1.22982,-0.89133 -2.4618,-1.74796 -3.65625,-2.6875 -0.55955,-0.56507 -1.42761,-1.11173 -1.65625,-1.9375 -0.0568,-0.20537 -0.0878,-0.80043 -0.0937,-0.96875 -0.0379,-1.51558 0.0137,-3.05852 0.21875,-4.5625 0.0577,-0.42338 0.17077,-0.9551 0.28125,-1.46875 3.76575,-0.002 7.52259,0.1955 11.25,0.71875 1.04013,0.14601 2.05909,0.38176 3.09375,0.5625 2.10019,0.5928 4.95917,0.84746 6.21875,2.9375 0.48087,0.79792 0.47699,1.35599 0.625,2.25 0.20139,2.09774 -0.13815,4.19154 -0.5,6.25 -0.0666,0.44188 -0.0687,0.92413 0.0625,1.34375 l 13.28125,-7.5625 c -0.006,-0.13622 0.004,-0.26916 0,-0.40625 0.0394,-2.13509 0.0908,-4.28137 -0.15625,-6.40625 -0.12173,-0.48349 -0.19766,-0.97152 -0.375,-1.4375 -0.35977,-0.94532 -1.05618,-2.07351 -1.875,-2.6875 -1.9011,-1.42551 -4.51907,-1.29125 -6.71875,-1.71875 -3.14019,-0.34875 -3.98911,-0.46696 -7.21875,-0.75 -4.46159,-0.39101 -8.94741,-0.63697 -13.40625,-1.0625 -0.59743,-0.0337 -1.18379,-0.0918 -1.78125,-0.125 -0.4038,-0.0224 -0.81737,-0.013 -1.21875,-0.0625 -0.2814,-0.0347 -0.56344,-0.32298 -0.8125,-0.1875 -4.50137,2.44872 -8.88702,5.1562 -13.25,7.84375 -0.1074,0.0662 -0.0565,0.24895 -0.0625,0.375 -0.008,0.15732 0.0161,0.31196 0.0312,0.46875 0.0907,0.60241 0.17795,1.20466 0.21875,1.8125 -0.0487,1.12308 -0.18945,2.22385 -0.28125,3.34375 -0.17287,1.68838 -0.34823,3.37881 -0.5625,5.0625 -0.0544,0.42716 -0.1399,0.85328 -0.1875,1.28125 -0.002,0.0206 0.002,0.0418 0,0.0625 -1.726,-0.95778 -3.50417,-1.83584 -5.21875,-2.8125 -3.64057,-2.01662 -7.27468,-4.06717 -10.78125,-6.3125 -2.91742,-1.86809 -4.68062,-3.11671 -7.4375,-5.1875 -0.97168,-0.72987 -1.91474,-1.50515 -2.875,-2.25 0.56872,-0.018 0.83862,-0.0401 2.53125,-0.0937 2.93811,-0.0931 3.88134,-0.10741 6.71875,-0.28125 0.82224,-0.0504 1.61941,-0.0908 2.4375,-0.1875 0.59129,-0.0699 1.19529,-0.20685 1.78125,-0.3125 4.58073,-2.57483 9.19322,-5.04809 13.71875,-7.71875 1.27176,-0.7505 1.17727,-2.36613 0.84375,-3.5625 -0.21807,-0.78771 -0.47356,-1.57083 -0.75,-2.34375 1.52901,-0.85894 2.82409,-1.91258 3.625,-3.3125 0.69403,0.5535 1.50594,0.883 2.34375,1.1875 0.24062,0.16475 1.17932,0.19141 1.28125,0.5 0.0859,0.75611 0.0842,1.52094 0.0625,2.28125 0.064,0.39087 -0.17598,0.90313 0,1.28125 0.35862,0.77053 1.06445,1.13987 1.75,1.5625 2.1132,1.24989 4.51397,1.897 6.875,2.5 5.93132,1.16844 6.40573,-1.88862 14.8125,-7.28125 0.14214,-0.0912 -0.2064,-2.60075 -0.25,-2.875 -0.12617,-0.80557 -0.17995,-1.65706 -0.4375,-2.4375 -0.18262,-0.55336 -0.47158,-1.04272 -0.78125,-1.53125 -0.33686,-0.60572 -0.79838,-1.10804 -1.3125,-1.5625 -0.0882,-0.0673 -0.19305,-0.1202 -0.28125,-0.1875 l -6.96875,4.53125 c -0.01,-0.26984 0.0268,-0.54512 0,-0.8125 -0.0277,-1.00199 0.0968,-2.0457 -0.25,-3 -0.48944,-0.86703 -1.05721,-1.30669 -2.0625,-1.4375 -0.81962,-0.21364 -1.66113,-0.44515 -2.34375,-0.96875 -0.8041,-0.60043 -1.27727,-1.51256 -1.75,-2.375 -0.49103,-0.87488 -0.88809,-1.7843 -1.4375,-2.625 -0.52845,-0.85609 -0.96445,-1.78596 -1.15625,-2.78125 -0.0862,-0.38367 -0.14968,-0.77077 -0.21875,-1.15625 0.8221,-0.17331 1.65472,-0.36694 2.28125,-0.4375 1.40156,-0.1579 2.84741,-0.0222 4.25,-0.15625 0.81433,0.0487 1.5839,0.11585 2.34375,-0.25 2.41629,-0.50476 4.69718,-1.53619 7.03125,-2.3125 0.56558,-0.21775 3.94803,-1.50918 4.4375,-1.71875 0.75016,-0.32118 1.50697,-0.63215 2.21875,-1.03125 4.10365,-2.30093 8.19515,-4.53793 12.1875,-6.96875 0.10847,-0.0163 0.20435,-0.0447 0.3125,-0.0625 3.23234,-1.85456 8.55697,-2.55756 11.4375,-4.6875 l 0,-9.5625 -3.4375,-0.96875 c -0.5846,0.43436 -1.09089,0.96374 -1.625,1.46875 -1.92499,1.82005 -3.63597,3.8476 -5.125,6.03125 -0.98944,1.41369 -1.17873,2.72382 -1.25,4.34375 -3.41669,1.85412 -3.96928,2.14781 -6.3125,3.9375 -0.60011,0.23378 -1.19925,0.43922 -2.03125,0.75 -1.93999,0.66271 -3.9027,1.27802 -5.90625,1.71875 -0.74202,0.1083 -1.44261,0.33322 -2.1875,0.4375 -0.21632,0.0161 -0.4409,0.0363 -0.65625,0.0625 -0.86589,0.10519 -1.72873,0.26286 -2.59375,0.375 -2.19588,0.28465 -1.42879,0.10524 -3.84375,0.59375 -0.76774,0.1553 -1.54807,0.32914 -2.3125,0.5 -3.19978,0.78556 -6.25207,2.03848 -9.28125,3.3125 -0.005,0.14638 -0.0973,0.16792 -0.21875,0.1875 0.007,-0.0131 0.0241,-0.0184 0.0312,-0.0312 0.19848,-0.35624 0.39951,-0.73519 0.59375,-1.09375 1.40329,-1.82876 3.11869,-3.41031 4.96875,-4.78125 1.71876,-1.18585 0.86625,-0.57542 2.5,-1.8125 1.65917,-0.98781 3.14992,-2.20717 4.75,-3.28125 2.05673,-1.38062 0.43428,-0.14139 2.5625,-1.875 3.29178,-2.72376 6.98949,-4.87036 10.5625,-7.1875 0.77604,-0.50327 1.54457,-1.04692 2.3125,-1.5625 0.72715,-0.47069 1.45932,-0.93713 2.1875,-1.40625 0.64614,-0.41627 1.31962,-0.79282 1.9375,-1.25 0.55349,-0.40953 1.05265,-0.88102 1.5625,-1.34375 0.22007,-0.19973 0.44504,-0.3874 0.65625,-0.59375 l -6.375,-1.8125 c -0.0892,0.0761 -0.1937,0.17623 -0.28125,0.25 -2.25003,0.67975 -4.54845,1.25386 -6.8125,1.875 -4.2175,1.18589 -8.38642,2.48281 -12.625,3.59375 -0.85673,0.22455 -3.65937,0.94071 -4.65625,1.1875 -1.20091,0.30414 -2.43509,0.55936 -3.625,0.90625 -0.18557,0.0541 -0.34792,0.091 -0.53125,0.15625 -0.005,-0.14755 -0.0291,-0.28989 -0.0312,-0.4375 -0.0215,-1.45637 0.0188,-1.68492 0.0937,-3.21875 0.27268,-3.72044 0.58766,-7.44478 0.96875,-11.15625 0.0364,-0.32821 0.0874,-0.64333 0.125,-0.96875 l -15.09375,-4.3125 z m -0.125,7.25 c 0.33143,0.12073 0.67044,0.21752 1,0.34375 0.14858,0.0269 0.3178,0.0907 0.46875,0.0937 0.27159,0.006 0.31471,-0.383 0.5,0 0.17492,0.34288 0.2064,0.71312 0.25,1.09375 0.1107,0.96728 0.12815,1.93418 0.15625,2.90625 -0.0119,3.67911 -0.35727,7.35047 -0.8125,11 -0.30531,2.1103 -0.19945,1.493 -0.53125,3.46875 -0.0688,0.40991 -0.123,0.80814 -0.1875,1.21875 -0.13865,0.88228 -0.28983,2.02688 0.8125,2.4375 0.53157,-0.21313 0.90287,-0.57184 1.40625,-0.84375 1.35695,-0.73298 2.89815,-1.12181 4.34375,-1.625 2.76104,-0.87946 5.5255,-1.64531 8.3125,-2.4375 3.07422,-0.87383 6.14538,-1.79859 9.25,-2.5625 0.85332,-0.19973 1.70598,-0.40821 2.5625,-0.59375 2.48681,-0.5387 4.99864,-0.88792 7.40625,-1.75 0.0551,-0.0185 0.12825,-0.043 0.1875,-0.0625 -1.55336,1.27501 -3.28907,2.32498 -4.9375,3.46875 -4.49538,2.99083 -9.13661,5.75506 -13.4375,9.03125 -2.53513,1.73464 -5.06598,3.46035 -7.5625,5.25 -2.54699,1.91339 -4.97413,4.02216 -6.875,6.59375 l -1.96875,1.09375 c 0.24877,0.47767 0.39358,0.98409 0.5,1.5 0.002,0.0101 -0.002,0.0212 0,0.0312 -0.0747,0.22558 -0.14548,0.44061 -0.15625,0.65625 -0.0197,0.39348 0.14963,0.85949 0.40625,1.25 0.13182,1.32396 0.49285,2.60332 0.75,3.90625 0.0988,0.45378 0.19398,0.92527 0.3125,1.375 -0.19448,-0.23465 -0.37888,-0.48539 -0.5625,-0.75 -0.92802,-1.33735 -1.55644,-2.86914 -2.0625,-4.40625 -0.3773,-1.09451 -0.79364,-2.18265 -1.15625,-3.28125 -0.59829,-1.81271 -1.0097,-3.68874 -1.5,-5.53125 -0.17119,-0.87335 -0.37971,-1.74802 -0.53125,-2.625 -0.90352,-5.22881 -1.24252,-10.50601 -1.75,-15.78125 -0.0612,-0.90063 -0.13001,-1.81789 -0.1875,-2.71875 8.36369,-3.46014 7.1896,-0.90751 6.9375,-5.6875 -0.0325,-0.83848 -0.0142,-1.67316 -0.1875,-2.5 -0.29384,-1.21524 -0.72768,-2.38892 -1.15625,-3.5625 z m 0.21875,5.15625 c 0.15593,-0.0865 0.2004,0.32218 0.1875,0.5 -0.006,0.0882 -0.15915,-0.0909 -0.21875,-0.15625 -0.0619,-0.068 -0.10176,-0.1446 -0.15625,-0.21875 0.0654,-0.0364 0.12208,-0.0887 0.1875,-0.125 z m 49.46875,17.03125 c -0.003,0.15486 -0.0246,0.31228 -0.0937,0.40625 -0.10688,0.1452 -0.71619,0.063 -0.5625,-0.0312 0.21437,-0.13146 0.44144,-0.24428 0.65625,-0.375 z m -2.21875,2.75 c -0.37444,0.2137 -0.60445,0.33791 -1,0.5625 0.2751,-0.17346 0.6464,-0.41089 0.84375,-0.5 0.0536,-0.0242 0.10082,-0.0434 0.15625,-0.0625 z M 222.25,682.125 c -0.0138,0.30038 -0.048,0.60603 -0.0625,0.90625 -0.11414,2.62181 -0.0505,1.23574 -0.21875,4.125 -0.17898,3.81994 -0.26692,7.62533 -0.59375,11.4375 -0.31059,2.8386 -0.56827,6.03204 -1.375,8.78125 -0.0904,0.3079 -0.55249,1.50815 -0.71875,1.9375 -0.11062,0.18719 -0.20101,0.39848 -0.34375,0.5625 -0.0346,0.0397 -0.6772,0.48405 -0.75,0.53125 -0.16344,0.10613 -0.66911,0.4094 -0.5,0.3125 -1.82543,1.05338 -3.64958,2.12334 -5.46875,3.1875 -0.28732,0.16807 -0.74506,0.48868 -1.21875,0.8125 0.0281,-0.082 0.0675,-0.16723 0.0937,-0.25 0.24135,-1.11647 0.2204,-2.23965 0.125,-3.375 -0.26385,-1.53086 -0.84298,-2.34554 -1.84375,-3.53125 -2.78979,-3.49501 -5.78239,-6.85006 -8.25,-10.59375 -0.4673,-0.67612 -0.91002,-1.35358 -1.375,-2.03125 1.74038,-1.56943 3.62923,-2.96247 5.59375,-4.25 0.5364,-0.3387 0.59689,-0.39062 0.96875,-0.625 2.18371,-1.16083 1.24736,-0.685 4.875,-2.46875 0.84481,-0.38053 1.68297,-0.78353 2.53125,-1.15625 0.6885,-0.30251 1.40154,-0.51629 2.0625,-0.875 0.5529,-0.30006 1.1048,-0.60355 1.65625,-0.90625 1.60042,-0.84434 3.20861,-1.69316 4.8125,-2.53125 z m 86.8125,7.53125 c -2.19274,0.51342 -4.39648,0.98455 -6.59375,1.46875 -1.58434,0.2584 -3.16679,0.48478 -4.75,0.75 -0.43742,0.0733 -0.92254,0.0387 -1.3125,0.25 -4.57877,2.48071 -9.10031,5.04521 -13.53125,7.78125 -0.28794,0.17781 -0.3345,0.9304 -0.375,1.25 -0.0202,1.03169 -0.0443,2.06997 -0.1875,3.09375 -0.22918,1.79417 -0.39649,3.62909 -0.21875,5.4375 0.1072,1.17755 0.22415,2.33134 0.40625,3.5 0.10496,0.67358 0.29168,1.8392 0.46875,2.5 0.10306,0.3846 0.24957,0.7471 0.375,1.125 0.35619,0.59371 0.80607,1.44604 1.40625,1.84375 0.65361,0.43311 1.6772,0.36125 2.375,0.28125 0.95281,-0.10927 3.24393,-0.63737 4.0625,-0.8125 3.06903,-0.71277 6.11767,-1.42574 9.125,-2.375 1.06361,-0.33572 2.19712,-0.54955 3.1875,-1.0625 1.87596,-0.97162 3.71955,-1.99992 5.5625,-3.03125 l 0,-3.34375 c -2.36715,0.74466 -4.77434,1.25678 -7.21875,1.71875 -1.17747,0.17096 -2.16904,0.35135 -3.34375,0.40625 -0.60946,0.0285 -1.55791,0.0838 -2.03125,-0.4375 -0.15661,-0.17249 -0.25272,-0.39544 -0.375,-0.59375 -0.8591,-2.02782 -0.97377,-4.26528 -1.09375,-6.4375 -0.0464,-1.67239 0.29854,-3.29744 0.5625,-4.9375 0.20761,-0.0578 0.41768,-0.0974 0.625,-0.15625 1.70869,-0.48504 3.41884,-1.00611 5.125,-1.5 1.76614,-0.51125 3.555,-0.9598 5.3125,-1.5 0.66154,-0.20334 1.61142,-0.51085 2.4375,-0.78125 l 0,-4.4375 z m -104.96875,1.5625 c -1.25548,0.71679 -2.67864,1.54353 -4.40625,2.5 -0.97403,0.53925 1.90135,-1.14755 2.875,-1.6875 0.50795,-0.28169 1.01434,-0.54745 1.53125,-0.8125 z m 92.5,2.96875 c 0.12178,-0.01 0.19506,-0.0121 0.125,0.0312 -0.22646,0.14008 -0.46022,0.26751 -0.6875,0.40625 0.0117,-0.0507 0.018,-0.10588 0.0312,-0.15625 0.0588,-0.08 0.0639,-0.18225 0.15625,-0.21875 0.0766,-0.0303 0.25322,-0.0529 0.375,-0.0625 z m -63.3125,1.0625 c 0.0171,0.10799 0.0592,0.1772 0.3125,2 0.076,0.54688 0.0958,1.08053 0.1875,1.625 0.2035,1.20877 0.55988,2.41077 0.875,3.59375 0.54282,1.68663 1.434,3.23114 2.5625,4.59375 0.73482,0.88726 1.54917,1.69965 2.3125,2.5625 0.58084,0.74422 1.28531,1.41124 1.875,2.15625 1.29575,-0.53063 3.31293,-1.39691 5.96875,-2.71875 -1.86646,1.08101 -3.73219,2.16072 -5.59375,3.25 0.008,0.012 0.0233,0.0192 0.0312,0.0312 0.19621,0.299 0.3472,0.7588 0.25,0.8125 -0.11842,0.0654 -0.24335,-0.0625 -0.375,-0.0937 -0.41943,-0.0438 -0.67643,-0.091 -0.96875,-0.125 -0.98922,0.58184 -1.98463,1.15956 -2.96875,1.75 -0.16358,0.0981 -0.26274,0.28327 -0.375,0.4375 -0.51949,0.71371 -0.3443,1.43995 -0.0937,2.21875 0.0994,0.20736 0.2074,0.42048 0.3125,0.625 0.11674,0.22717 0.19887,0.35416 0.28125,0.5 -3.0421,0.25694 -6.10266,0.33663 -9.15625,0.4375 -3.36424,0.17493 -6.78882,-0.0263 -10.15625,0.1875 0.0525,-0.34616 0.0911,-0.68658 0.15625,-1.03125 0.21736,-1.14914 0.44721,-2.0109 0.75,-3.125 0.31382,-0.90117 0.59782,-1.84572 1.21875,-2.59375 0.13564,-0.16341 0.32358,-0.28249 0.46875,-0.4375 0.77826,-0.83103 0.0828,-0.25605 1.09375,-1 0.28297,-0.19012 0.56759,-0.36262 0.84375,-0.5625 0.0607,-0.0439 0.12828,-0.0791 0.1875,-0.125 1.58805,-0.92454 3.50326,-2.07994 8.15625,-4.8125 0.17942,-0.10537 0.87795,-0.66014 1,-0.90625 0.0638,-0.12857 0.2892,-1.34649 0.3125,-1.46875 0.0699,-0.25264 0.18105,-0.49061 0.21875,-0.75 0.0588,-0.40396 0.1142,-2.62295 0.125,-2.84375 0.0976,-1.99345 0.1498,-2.09282 0.1875,-4.1875 z m 7.4375,17.6875 c 0.35385,-0.20813 0.70818,-0.41767 1.0625,-0.625 -0.11867,-0.17824 -0.24195,-0.36315 -0.375,-0.53125 -2.03493,0.83334 -2.29723,0.96881 -0.6875,1.15625 z M 230.25,703.5 c 0.0366,-0.0201 -0.51116,0.30315 -1.8125,1.0625 -2.05159,1.22463 -1.2268,0.72338 -1.15625,0.65625 1.31694,-0.75159 2.93194,-1.69858 2.96875,-1.71875 z m 50.09375,5.3125 c 0.18939,-0.1052 -0.35388,0.28535 -0.5625,0.34375 -0.0205,0.006 -0.0418,-0.005 -0.0625,0 0.20785,-0.11535 0.41719,-0.22832 0.625,-0.34375 z m -12.03125,6.71875 c -0.0104,0.018 -0.0193,0.0485 -0.0312,0.0625 -0.11141,0.13106 -0.61873,0.30295 -0.46875,0.21875 0.16669,-0.0936 0.33325,-0.18773 0.5,-0.28125 z m -27.9375,0.1875 c -0.32374,0.18657 -0.64498,0.37598 -0.96875,0.5625 0.19269,-0.13038 0.35819,-0.26371 0.5625,-0.375 0.13599,-0.0741 0.27597,-0.13439 0.40625,-0.1875 z m -21.8125,5.09375 c 0.0991,-0.0865 0.19255,0.2154 0.28125,0.3125 l -0.0937,0.0625 c -0.0821,-0.10814 -0.28982,-0.2858 -0.1875,-0.375 z m 20.09375,1.3125 c -0.039,0.11906 -0.0611,0.24864 -0.125,0.3125 -0.0781,0.0781 -2.3104,1.16256 -1.21875,0.5 0.44725,-0.27145 0.89508,-0.54343 1.34375,-0.8125 z m 70.40625,0.0937 c -0.71446,1.25088 -1.50564,2.46644 -2.375,3.625 -1.37431,1.81932 -1.56841,2.10196 -2.96875,3.8125 -1.18868,1.45201 -2.56432,2.80971 -3.1875,4.625 -0.0695,0.2996 -0.17335,0.60207 -0.21875,0.90625 -0.0328,0.21998 -0.0602,0.43498 -0.0625,0.65625 l 8.8125,-5.03125 0,-8.59375 z M 264.5,724.2812 c 0.31254,0.1054 0.15229,0.0834 0.46875,0.0937 -0.18404,0.10982 -0.37842,0.20275 -0.5625,0.3125 10e-4,-0.14867 0.0349,-0.29029 0.0937,-0.40625 z"
           style="color:#000000;fill:#ffffff;fill-opacity:1;fill-rule:nonzero;stroke:none;stroke-width:11.34700012;marker:none;visibility:visible;display:inline;overflow:visible;filter:url(#filter4111);enable-background:accumulate"
           inkscape:connector-curvature="0" />
        <path
           inkscape:connector-curvature="0"
           id="path4259"
           d="m 190.94072,668.0406 -0.91505,57.95326 c 0,0 20.43615,19.21607 22.26625,15.86089 1.8301,-3.35519 -17.99601,-14.33581 -17.99601,-19.5211 0,-5.18529 -5.49031,-46.97264 2.13512,-46.3626 7.62543,0.61003 5.49031,-3.96523 5.49031,-3.96523 z"
           style="color:#000000;fill:#1a1a1a;fill-opacity:1;fill-rule:nonzero;stroke:none;stroke-width:1px;marker:none;visibility:visible;display:inline;overflow:visible;filter:url(#filter4159);enable-background:accumulate" />
      </g>
      <g
         transform="matrix(0.1259579,0,0,0.1259579,77.08683,-6.6500462)"
         id="g4231">
        <path
           inkscape:connector-curvature="0"
           id="path4030"
           style="color:#000000;fill:#afafde;fill-opacity:1;fill-rule:evenodd;stroke:none;stroke-width:11.34700012;marker:none;visibility:visible"
           d="m 186.79397,728.81506 60.14088,37.46575 62.11626,-35.46973 -60.98564,-27.1707 z" />
        <path
           inkscape:connector-curvature="0"
           id="path4036"
           style="color:#000000;fill:#b3b3b3;fill-opacity:1;fill-rule:evenodd;stroke:none;stroke-width:11.34700012;marker:none;visibility:visible"
           d="m 186.79397,662.66847 60.14088,24.01347 62.11626,-22.73413 -60.98564,-17.41491 z" />
        <path
           inkscape:connector-curvature="0"
           id="path4038"
           style="color:#000000;fill:#b3b3b3;fill-opacity:1;fill-rule:evenodd;stroke:none;stroke-width:11.34700012;marker:none;visibility:visible"
           d="m 246.93485,686.68194 0,79.59887 62.11626,-35.46973 0,-66.86327 z" />
        <path
           inkscape:connector-curvature="0"
           id="path4040"
           style="color:#000000;fill:#808080;fill-opacity:1;fill-rule:evenodd;stroke:none;stroke-width:11.34700012;marker:none;visibility:visible"
           d="m 186.79397,662.66847 60.14088,24.01347 0,79.59887 -60.14088,-37.46575 z" />
        <path
           inkscape:connector-curvature="0"
           style="color:#000000;fill:#ffffff;fill-opacity:1;fill-rule:nonzero;stroke:none;stroke-width:11.34700012;marker:none;visibility:visible;display:inline;overflow:visible;filter:url(#filter4111);enable-background:accumulate"
           d="m 248.0625,646.53125 -17.75,4.6875 c -0.002,1.03337 0.0192,-1.06147 -0.0625,3.96875 -0.003,0.51949 0.0268,1.04323 0.0312,1.5625 -0.0409,0.21701 -0.0773,0.44062 -0.125,0.65625 -0.59457,2.69083 -1.62073,5.25612 -2.84375,7.71875 -1.20702,2.4858 -2.40396,4.99769 -3.1875,7.65625 -0.14356,-0.15505 -0.28965,-0.31914 -0.4375,-0.46875 -0.60896,-0.72636 -1.21937,-1.41691 -1.8125,-2.15625 -3.62158,-4.51432 -6.87299,-9.30078 -10.15625,-14.0625 L 198.78125,659.5 c 0.18495,0.24046 0.37756,0.47876 0.5625,0.71875 0.83052,1.06762 1.63682,2.12098 2.46875,3.1875 2.47132,3.1682 2.99701,3.70534 5.1875,7.0625 0.70327,1.07783 1.35687,2.18512 2.03125,3.28125 3.22655,5.24439 0.4509,0.63961 3.25,5.3125 0.85708,1.21848 1.48944,2.59528 2.21875,3.90625 -5.56825,2.97138 -11.00718,6.16571 -16.40625,9.4375 -1.85538,-2.97314 -3.58315,-6.02821 -5.28125,-9.09375 -2.04282,-5.62654 -3.36543,-11.47342 -4.625,-17.3125 -0.0336,-0.16186 -0.0596,-0.28978 -0.0937,-0.4375 0.0388,-0.0448 0.0558,-0.09 0,-0.0625 -0.0126,0.006 -0.0187,0.025 -0.0312,0.0312 -0.34884,-1.49519 -0.72048,-2.26965 -1.28125,-2.46875 l 0,40.78125 c 0.86233,-0.38179 2.00506,-0.90591 2.71875,-1.21875 0.19491,0.29902 0.33791,0.50038 0.5625,0.84375 2.47076,3.66265 4.84435,7.41349 6.8125,11.375 0.56723,1.02199 0.96305,2.08552 1.03125,3.25 0.058,1.06858 0.0949,1.79674 -0.375,2.78125 -0.21953,0.51924 -0.44452,1.03799 -0.71875,1.53125 -0.27879,0.50145 -0.32264,0.41453 -0.53125,0.96875 -0.0785,0.20852 -0.1245,0.41129 -0.1875,0.625 -0.0835,0.22182 -0.1941,0.45718 -0.25,0.6875 -0.18696,0.76987 -0.23487,1.57026 -0.40625,2.34375 -0.23482,1.05975 -0.53412,1.88764 -0.8125,2.9375 -0.13588,0.51243 -0.24996,1.04731 -0.375,1.5625 -0.10851,0.53264 -0.19294,1.06348 -0.3125,1.59375 -0.01,0.0422 -0.0211,0.0831 -0.0312,0.125 L 211.1875,744 c 0.5931,-0.33266 1.18659,-0.67012 1.78125,-1 -0.1696,0.13582 -0.75923,0.58372 -1.03125,0.71875 -0.24323,0.12074 -0.50347,0.2021 -0.75,0.28125 l 2.0625,1.3125 c 0.86697,-0.61902 1.58738,-1.15271 1.75,-1.25 0.15309,-0.18102 1.22444,-1.40678 1.40625,-1.65625 0.17266,-0.23689 0.30874,-0.50439 0.46875,-0.75 0.11862,-0.18208 0.6061,-0.87815 0.6875,-1.125 0.0725,-0.21983 0.0582,-0.45878 0.0937,-0.6875 0.0216,-0.2394 0.0585,-0.47842 0.0625,-0.71875 0.006,-0.39759 -0.0791,-1.81985 -0.0937,-2.125 -0.0191,-0.39838 -0.0507,-0.78912 -0.0625,-1.1875 3.43777,2.17201 6.83764,4.41285 10.25,6.625 4.90274,3.17833 2.05075,1.23097 6.40625,4.3125 1.73353,1.34392 3.58484,2.61055 5.125,4.1875 0.28813,0.29501 0.83261,0.94215 1.03125,1.375 0.0547,0.11934 0.0659,0.27794 0.0937,0.40625 -0.0777,0.21141 -0.16915,0.40367 -0.21875,0.625 -0.2089,0.93257 -0.40151,1.84414 -0.71875,2.75 -0.40685,0.96409 -0.6172,1.96436 -0.71875,3 0.0111,0.77212 0.35701,1.43769 0.65625,2.125 0.0604,0.16597 0.10485,0.33151 0.15625,0.5 l 7.3125,4.5625 6.28125,-3.59375 c -0.13154,-1.11107 -0.22673,-2.2189 -0.25,-3.34375 -0.0152,-0.53973 -0.0595,-1.08507 -0.0625,-1.625 -0.007,-1.27372 0.24344,-2.78732 -0.21875,-4 -0.2193,-0.44032 -0.47674,-0.82709 -0.34375,-1.34375 0.11967,-0.89933 0.40485,-1.77767 0.625,-2.65625 0.12059,-0.49372 0.22097,-0.97557 0.34375,-1.46875 0.032,-0.12853 0.0569,-0.27364 0.0937,-0.40625 1.14257,0.65047 2.28922,1.31951 3.375,2.0625 1.11741,0.76463 1.89315,1.39555 2.96875,2.21875 0.44971,0.34418 0.89177,0.69006 1.34375,1.03125 0.37913,0.35535 0.77367,0.71088 1.15625,1.0625 0.27589,0.25356 0.56392,0.5008 0.84375,0.75 0.18583,0.16549 0.36444,0.31537 0.53125,0.5 0.24836,0.27488 0.46548,0.57909 0.65625,0.90625 l 12.8125,-7.3125 c -0.87322,-1.61682 -2.23206,-2.31799 -3.96875,-3.46875 -1.56217,-0.97778 -3.01039,-2.10787 -4.5,-3.1875 -1.22982,-0.89133 -2.4618,-1.74796 -3.65625,-2.6875 -0.55955,-0.56507 -1.42761,-1.11173 -1.65625,-1.9375 -0.0568,-0.20537 -0.0878,-0.80043 -0.0937,-0.96875 -0.0379,-1.51558 0.0137,-3.05852 0.21875,-4.5625 0.0577,-0.42338 0.17077,-0.9551 0.28125,-1.46875 3.76575,-0.002 7.52259,0.1955 11.25,0.71875 1.04013,0.14601 2.05909,0.38176 3.09375,0.5625 2.10019,0.5928 4.95917,0.84746 6.21875,2.9375 0.48087,0.79792 0.47699,1.35599 0.625,2.25 0.20139,2.09774 -0.13815,4.19154 -0.5,6.25 -0.0666,0.44188 -0.0687,0.92413 0.0625,1.34375 l 13.28125,-7.5625 c -0.006,-0.13622 0.004,-0.26916 0,-0.40625 0.0394,-2.13509 0.0908,-4.28137 -0.15625,-6.40625 -0.12173,-0.48349 -0.19766,-0.97152 -0.375,-1.4375 -0.35977,-0.94532 -1.05618,-2.07351 -1.875,-2.6875 -1.9011,-1.42551 -4.51907,-1.29125 -6.71875,-1.71875 -3.14019,-0.34875 -3.98911,-0.46696 -7.21875,-0.75 -4.46159,-0.39101 -8.94741,-0.63697 -13.40625,-1.0625 -0.59743,-0.0337 -1.18379,-0.0918 -1.78125,-0.125 -0.4038,-0.0224 -0.81737,-0.013 -1.21875,-0.0625 -0.2814,-0.0347 -0.56344,-0.32298 -0.8125,-0.1875 -4.50137,2.44872 -8.88702,5.1562 -13.25,7.84375 -0.1074,0.0662 -0.0565,0.24895 -0.0625,0.375 -0.008,0.15732 0.0161,0.31196 0.0312,0.46875 0.0907,0.60241 0.17795,1.20466 0.21875,1.8125 -0.0487,1.12308 -0.18945,2.22385 -0.28125,3.34375 -0.17287,1.68838 -0.34823,3.37881 -0.5625,5.0625 -0.0544,0.42716 -0.1399,0.85328 -0.1875,1.28125 -0.002,0.0206 0.002,0.0418 0,0.0625 -1.726,-0.95778 -3.50417,-1.83584 -5.21875,-2.8125 -3.64057,-2.01662 -7.27468,-4.06717 -10.78125,-6.3125 -2.91742,-1.86809 -4.68062,-3.11671 -7.4375,-5.1875 -0.97168,-0.72987 -1.91474,-1.50515 -2.875,-2.25 0.56872,-0.018 0.83862,-0.0401 2.53125,-0.0937 2.93811,-0.0931 3.88134,-0.10741 6.71875,-0.28125 0.82224,-0.0504 1.61941,-0.0908 2.4375,-0.1875 0.59129,-0.0699 1.19529,-0.20685 1.78125,-0.3125 4.58073,-2.57483 9.19322,-5.04809 13.71875,-7.71875 1.27176,-0.7505 1.17727,-2.36613 0.84375,-3.5625 -0.21807,-0.78771 -0.47356,-1.57083 -0.75,-2.34375 1.52901,-0.85894 2.82409,-1.91258 3.625,-3.3125 0.69403,0.5535 1.50594,0.883 2.34375,1.1875 0.24062,0.16475 1.17932,0.19141 1.28125,0.5 0.0859,0.75611 0.0842,1.52094 0.0625,2.28125 0.064,0.39087 -0.17598,0.90313 0,1.28125 0.35862,0.77053 1.06445,1.13987 1.75,1.5625 2.1132,1.24989 4.51397,1.897 6.875,2.5 5.93132,1.16844 6.40573,-1.88862 14.8125,-7.28125 0.14214,-0.0912 -0.2064,-2.60075 -0.25,-2.875 -0.12617,-0.80557 -0.17995,-1.65706 -0.4375,-2.4375 -0.18262,-0.55336 -0.47158,-1.04272 -0.78125,-1.53125 -0.33686,-0.60572 -0.79838,-1.10804 -1.3125,-1.5625 -0.0882,-0.0673 -0.19305,-0.1202 -0.28125,-0.1875 l -6.96875,4.53125 c -0.01,-0.26984 0.0268,-0.54512 0,-0.8125 -0.0277,-1.00199 0.0968,-2.0457 -0.25,-3 -0.48944,-0.86703 -1.05721,-1.30669 -2.0625,-1.4375 -0.81962,-0.21364 -1.66113,-0.44515 -2.34375,-0.96875 -0.8041,-0.60043 -1.27727,-1.51256 -1.75,-2.375 -0.49103,-0.87488 -0.88809,-1.7843 -1.4375,-2.625 -0.52845,-0.85609 -0.96445,-1.78596 -1.15625,-2.78125 -0.0862,-0.38367 -0.14968,-0.77077 -0.21875,-1.15625 0.8221,-0.17331 1.65472,-0.36694 2.28125,-0.4375 1.40156,-0.1579 2.84741,-0.0222 4.25,-0.15625 0.81433,0.0487 1.5839,0.11585 2.34375,-0.25 2.41629,-0.50476 4.69718,-1.53619 7.03125,-2.3125 0.56558,-0.21775 3.94803,-1.50918 4.4375,-1.71875 0.75016,-0.32118 1.50697,-0.63215 2.21875,-1.03125 4.10365,-2.30093 8.19515,-4.53793 12.1875,-6.96875 0.10847,-0.0163 0.20435,-0.0447 0.3125,-0.0625 3.23234,-1.85456 8.55697,-2.55756 11.4375,-4.6875 l 0,-9.5625 -3.4375,-0.96875 c -0.5846,0.43436 -1.09089,0.96374 -1.625,1.46875 -1.92499,1.82005 -3.63597,3.8476 -5.125,6.03125 -0.98944,1.41369 -1.17873,2.72382 -1.25,4.34375 -3.41669,1.85412 -3.96928,2.14781 -6.3125,3.9375 -0.60011,0.23378 -1.19925,0.43922 -2.03125,0.75 -1.93999,0.66271 -3.9027,1.27802 -5.90625,1.71875 -0.74202,0.1083 -1.44261,0.33322 -2.1875,0.4375 -0.21632,0.0161 -0.4409,0.0363 -0.65625,0.0625 -0.86589,0.10519 -1.72873,0.26286 -2.59375,0.375 -2.19588,0.28465 -1.42879,0.10524 -3.84375,0.59375 -0.76774,0.1553 -1.54807,0.32914 -2.3125,0.5 -3.19978,0.78556 -6.25207,2.03848 -9.28125,3.3125 -0.005,0.14638 -0.0973,0.16792 -0.21875,0.1875 0.007,-0.0131 0.0241,-0.0184 0.0312,-0.0312 0.19848,-0.35624 0.39951,-0.73519 0.59375,-1.09375 1.40329,-1.82876 3.11869,-3.41031 4.96875,-4.78125 1.71876,-1.18585 0.86625,-0.57542 2.5,-1.8125 1.65917,-0.98781 3.14992,-2.20717 4.75,-3.28125 2.05673,-1.38062 0.43428,-0.14139 2.5625,-1.875 3.29178,-2.72376 6.98949,-4.87036 10.5625,-7.1875 0.77604,-0.50327 1.54457,-1.04692 2.3125,-1.5625 0.72715,-0.47069 1.45932,-0.93713 2.1875,-1.40625 0.64614,-0.41627 1.31962,-0.79282 1.9375,-1.25 0.55349,-0.40953 1.05265,-0.88102 1.5625,-1.34375 0.22007,-0.19973 0.44504,-0.3874 0.65625,-0.59375 l -6.375,-1.8125 c -0.0892,0.0761 -0.1937,0.17623 -0.28125,0.25 -2.25003,0.67975 -4.54845,1.25386 -6.8125,1.875 -4.2175,1.18589 -8.38642,2.48281 -12.625,3.59375 -0.85673,0.22455 -3.65937,0.94071 -4.65625,1.1875 -1.20091,0.30414 -2.43509,0.55936 -3.625,0.90625 -0.18557,0.0541 -0.34792,0.091 -0.53125,0.15625 -0.005,-0.14755 -0.0291,-0.28989 -0.0312,-0.4375 -0.0215,-1.45637 0.0188,-1.68492 0.0937,-3.21875 0.27268,-3.72044 0.58766,-7.44478 0.96875,-11.15625 0.0364,-0.32821 0.0874,-0.64333 0.125,-0.96875 l -15.09375,-4.3125 z m -0.125,7.25 c 0.33143,0.12073 0.67044,0.21752 1,0.34375 0.14858,0.0269 0.3178,0.0907 0.46875,0.0937 0.27159,0.006 0.31471,-0.383 0.5,0 0.17492,0.34288 0.2064,0.71312 0.25,1.09375 0.1107,0.96728 0.12815,1.93418 0.15625,2.90625 -0.0119,3.67911 -0.35727,7.35047 -0.8125,11 -0.30531,2.1103 -0.19945,1.493 -0.53125,3.46875 -0.0688,0.40991 -0.123,0.80814 -0.1875,1.21875 -0.13865,0.88228 -0.28983,2.02688 0.8125,2.4375 0.53157,-0.21313 0.90287,-0.57184 1.40625,-0.84375 1.35695,-0.73298 2.89815,-1.12181 4.34375,-1.625 2.76104,-0.87946 5.5255,-1.64531 8.3125,-2.4375 3.07422,-0.87383 6.14538,-1.79859 9.25,-2.5625 0.85332,-0.19973 1.70598,-0.40821 2.5625,-0.59375 2.48681,-0.5387 4.99864,-0.88792 7.40625,-1.75 0.0551,-0.0185 0.12825,-0.043 0.1875,-0.0625 -1.55336,1.27501 -3.28907,2.32498 -4.9375,3.46875 -4.49538,2.99083 -9.13661,5.75506 -13.4375,9.03125 -2.53513,1.73464 -5.06598,3.46035 -7.5625,5.25 -2.54699,1.91339 -4.97413,4.02216 -6.875,6.59375 l -1.96875,1.09375 c 0.24877,0.47767 0.39358,0.98409 0.5,1.5 0.002,0.0101 -0.002,0.0212 0,0.0312 -0.0747,0.22558 -0.14548,0.44061 -0.15625,0.65625 -0.0197,0.39348 0.14963,0.85949 0.40625,1.25 0.13182,1.32396 0.49285,2.60332 0.75,3.90625 0.0988,0.45378 0.19398,0.92527 0.3125,1.375 -0.19448,-0.23465 -0.37888,-0.48539 -0.5625,-0.75 -0.92802,-1.33735 -1.55644,-2.86914 -2.0625,-4.40625 -0.3773,-1.09451 -0.79364,-2.18265 -1.15625,-3.28125 -0.59829,-1.81271 -1.0097,-3.68874 -1.5,-5.53125 -0.17119,-0.87335 -0.37971,-1.74802 -0.53125,-2.625 -0.90352,-5.22881 -1.24252,-10.50601 -1.75,-15.78125 -0.0612,-0.90063 -0.13001,-1.81789 -0.1875,-2.71875 8.36369,-3.46014 7.1896,-0.90751 6.9375,-5.6875 -0.0325,-0.83848 -0.0142,-1.67316 -0.1875,-2.5 -0.29384,-1.21524 -0.72768,-2.38892 -1.15625,-3.5625 z m 0.21875,5.15625 c 0.15593,-0.0865 0.2004,0.32218 0.1875,0.5 -0.006,0.0882 -0.15915,-0.0909 -0.21875,-0.15625 -0.0619,-0.068 -0.10176,-0.1446 -0.15625,-0.21875 0.0654,-0.0364 0.12208,-0.0887 0.1875,-0.125 z m 49.46875,17.03125 c -0.003,0.15486 -0.0246,0.31228 -0.0937,0.40625 -0.10688,0.1452 -0.71619,0.063 -0.5625,-0.0312 0.21437,-0.13146 0.44144,-0.24428 0.65625,-0.375 z m -2.21875,2.75 c -0.37444,0.2137 -0.60445,0.33791 -1,0.5625 0.2751,-0.17346 0.6464,-0.41089 0.84375,-0.5 0.0536,-0.0242 0.10082,-0.0434 0.15625,-0.0625 z M 222.25,682.125 c -0.0138,0.30038 -0.048,0.60603 -0.0625,0.90625 -0.11414,2.62181 -0.0505,1.23574 -0.21875,4.125 -0.17898,3.81994 -0.26692,7.62533 -0.59375,11.4375 -0.31059,2.8386 -0.56827,6.03204 -1.375,8.78125 -0.0904,0.3079 -0.55249,1.50815 -0.71875,1.9375 -0.11062,0.18719 -0.20101,0.39848 -0.34375,0.5625 -0.0346,0.0397 -0.6772,0.48405 -0.75,0.53125 -0.16344,0.10613 -0.66911,0.4094 -0.5,0.3125 -1.82543,1.05338 -3.64958,2.12334 -5.46875,3.1875 -0.28732,0.16807 -0.74506,0.48868 -1.21875,0.8125 0.0281,-0.082 0.0675,-0.16723 0.0937,-0.25 0.24135,-1.11647 0.2204,-2.23965 0.125,-3.375 -0.26385,-1.53086 -0.84298,-2.34554 -1.84375,-3.53125 -2.78979,-3.49501 -5.78239,-6.85006 -8.25,-10.59375 -0.4673,-0.67612 -0.91002,-1.35358 -1.375,-2.03125 1.74038,-1.56943 3.62923,-2.96247 5.59375,-4.25 0.5364,-0.3387 0.59689,-0.39062 0.96875,-0.625 2.18371,-1.16083 1.24736,-0.685 4.875,-2.46875 0.84481,-0.38053 1.68297,-0.78353 2.53125,-1.15625 0.6885,-0.30251 1.40154,-0.51629 2.0625,-0.875 0.5529,-0.30006 1.1048,-0.60355 1.65625,-0.90625 1.60042,-0.84434 3.20861,-1.69316 4.8125,-2.53125 z m 86.8125,7.53125 c -2.19274,0.51342 -4.39648,0.98455 -6.59375,1.46875 -1.58434,0.2584 -3.16679,0.48478 -4.75,0.75 -0.43742,0.0733 -0.92254,0.0387 -1.3125,0.25 -4.57877,2.48071 -9.10031,5.04521 -13.53125,7.78125 -0.28794,0.17781 -0.3345,0.9304 -0.375,1.25 -0.0202,1.03169 -0.0443,2.06997 -0.1875,3.09375 -0.22918,1.79417 -0.39649,3.62909 -0.21875,5.4375 0.1072,1.17755 0.22415,2.33134 0.40625,3.5 0.10496,0.67358 0.29168,1.8392 0.46875,2.5 0.10306,0.3846 0.24957,0.7471 0.375,1.125 0.35619,0.59371 0.80607,1.44604 1.40625,1.84375 0.65361,0.43311 1.6772,0.36125 2.375,0.28125 0.95281,-0.10927 3.24393,-0.63737 4.0625,-0.8125 3.06903,-0.71277 6.11767,-1.42574 9.125,-2.375 1.06361,-0.33572 2.19712,-0.54955 3.1875,-1.0625 1.87596,-0.97162 3.71955,-1.99992 5.5625,-3.03125 l 0,-3.34375 c -2.36715,0.74466 -4.77434,1.25678 -7.21875,1.71875 -1.17747,0.17096 -2.16904,0.35135 -3.34375,0.40625 -0.60946,0.0285 -1.55791,0.0838 -2.03125,-0.4375 -0.15661,-0.17249 -0.25272,-0.39544 -0.375,-0.59375 -0.8591,-2.02782 -0.97377,-4.26528 -1.09375,-6.4375 -0.0464,-1.67239 0.29854,-3.29744 0.5625,-4.9375 0.20761,-0.0578 0.41768,-0.0974 0.625,-0.15625 1.70869,-0.48504 3.41884,-1.00611 5.125,-1.5 1.76614,-0.51125 3.555,-0.9598 5.3125,-1.5 0.66154,-0.20334 1.61142,-0.51085 2.4375,-0.78125 l 0,-4.4375 z m -104.96875,1.5625 c -1.25548,0.71679 -2.67864,1.54353 -4.40625,2.5 -0.97403,0.53925 1.90135,-1.14755 2.875,-1.6875 0.50795,-0.28169 1.01434,-0.54745 1.53125,-0.8125 z m 92.5,2.96875 c 0.12178,-0.01 0.19506,-0.0121 0.125,0.0312 -0.22646,0.14008 -0.46022,0.26751 -0.6875,0.40625 0.0117,-0.0507 0.018,-0.10588 0.0312,-0.15625 0.0588,-0.08 0.0639,-0.18225 0.15625,-0.21875 0.0766,-0.0303 0.25322,-0.0529 0.375,-0.0625 z m -63.3125,1.0625 c 0.0171,0.10799 0.0592,0.1772 0.3125,2 0.076,0.54688 0.0958,1.08053 0.1875,1.625 0.2035,1.20877 0.55988,2.41077 0.875,3.59375 0.54282,1.68663 1.434,3.23114 2.5625,4.59375 0.73482,0.88726 1.54917,1.69965 2.3125,2.5625 0.58084,0.74422 1.28531,1.41124 1.875,2.15625 1.29575,-0.53063 3.31293,-1.39691 5.96875,-2.71875 -1.86646,1.08101 -3.73219,2.16072 -5.59375,3.25 0.008,0.012 0.0233,0.0192 0.0312,0.0312 0.19621,0.299 0.3472,0.7588 0.25,0.8125 -0.11842,0.0654 -0.24335,-0.0625 -0.375,-0.0937 -0.41943,-0.0438 -0.67643,-0.091 -0.96875,-0.125 -0.98922,0.58184 -1.98463,1.15956 -2.96875,1.75 -0.16358,0.0981 -0.26274,0.28327 -0.375,0.4375 -0.51949,0.71371 -0.3443,1.43995 -0.0937,2.21875 0.0994,0.20736 0.2074,0.42048 0.3125,0.625 0.11674,0.22717 0.19887,0.35416 0.28125,0.5 -3.0421,0.25694 -6.10266,0.33663 -9.15625,0.4375 -3.36424,0.17493 -6.78882,-0.0263 -10.15625,0.1875 0.0525,-0.34616 0.0911,-0.68658 0.15625,-1.03125 0.21736,-1.14914 0.44721,-2.0109 0.75,-3.125 0.31382,-0.90117 0.59782,-1.84572 1.21875,-2.59375 0.13564,-0.16341 0.32358,-0.28249 0.46875,-0.4375 0.77826,-0.83103 0.0828,-0.25605 1.09375,-1 0.28297,-0.19012 0.56759,-0.36262 0.84375,-0.5625 0.0607,-0.0439 0.12828,-0.0791 0.1875,-0.125 1.58805,-0.92454 3.50326,-2.07994 8.15625,-4.8125 0.17942,-0.10537 0.87795,-0.66014 1,-0.90625 0.0638,-0.12857 0.2892,-1.34649 0.3125,-1.46875 0.0699,-0.25264 0.18105,-0.49061 0.21875,-0.75 0.0588,-0.40396 0.1142,-2.62295 0.125,-2.84375 0.0976,-1.99345 0.1498,-2.09282 0.1875,-4.1875 z m 7.4375,17.6875 c 0.35385,-0.20813 0.70818,-0.41767 1.0625,-0.625 -0.11867,-0.17824 -0.24195,-0.36315 -0.375,-0.53125 -2.03493,0.83334 -2.29723,0.96881 -0.6875,1.15625 z M 230.25,703.5 c 0.0366,-0.0201 -0.51116,0.30315 -1.8125,1.0625 -2.05159,1.22463 -1.2268,0.72338 -1.15625,0.65625 1.31694,-0.75159 2.93194,-1.69858 2.96875,-1.71875 z m 50.09375,5.3125 c 0.18939,-0.1052 -0.35388,0.28535 -0.5625,0.34375 -0.0205,0.006 -0.0418,-0.005 -0.0625,0 0.20785,-0.11535 0.41719,-0.22832 0.625,-0.34375 z m -12.03125,6.71875 c -0.0104,0.018 -0.0193,0.0485 -0.0312,0.0625 -0.11141,0.13106 -0.61873,0.30295 -0.46875,0.21875 0.16669,-0.0936 0.33325,-0.18773 0.5,-0.28125 z m -27.9375,0.1875 c -0.32374,0.18657 -0.64498,0.37598 -0.96875,0.5625 0.19269,-0.13038 0.35819,-0.26371 0.5625,-0.375 0.13599,-0.0741 0.27597,-0.13439 0.40625,-0.1875 z m -21.8125,5.09375 c 0.0991,-0.0865 0.19255,0.2154 0.28125,0.3125 l -0.0937,0.0625 c -0.0821,-0.10814 -0.28982,-0.2858 -0.1875,-0.375 z m 20.09375,1.3125 c -0.039,0.11906 -0.0611,0.24864 -0.125,0.3125 -0.0781,0.0781 -2.3104,1.16256 -1.21875,0.5 0.44725,-0.27145 0.89508,-0.54343 1.34375,-0.8125 z m 70.40625,0.0937 c -0.71446,1.25088 -1.50564,2.46644 -2.375,3.625 -1.37431,1.81932 -1.56841,2.10196 -2.96875,3.8125 -1.18868,1.45201 -2.56432,2.80971 -3.1875,4.625 -0.0695,0.2996 -0.17335,0.60207 -0.21875,0.90625 -0.0328,0.21998 -0.0602,0.43498 -0.0625,0.65625 l 8.8125,-5.03125 0,-8.59375 z M 264.5,724.2812 c 0.31254,0.1054 0.15229,0.0834 0.46875,0.0937 -0.18404,0.10982 -0.37842,0.20275 -0.5625,0.3125 10e-4,-0.14867 0.0349,-0.29029 0.0937,-0.40625 z"
           id="path4082" />
        <path
           style="color:#000000;fill:#1a1a1a;fill-opacity:1;fill-rule:nonzero;stroke:none;stroke-width:1px;marker:none;visibility:visible;display:inline;overflow:visible;filter:url(#filter4159);enable-background:accumulate"
           d="m 190.94072,668.0406 -0.91505,57.95326 c 0,0 20.43615,19.21607 22.26625,15.86089 1.8301,-3.35519 -17.99601,-14.33581 -17.99601,-19.5211 0,-5.18529 -5.49031,-46.97264 2.13512,-46.3626 7.62543,0.61003 5.49031,-3.96523 5.49031,-3.96523 z"
           id="path4133"
           inkscape:connector-curvature="0" />
      </g>
      <use
         height="1052.3622"
         width="744.09448"
         y="0"
         x="0"
         transform="matrix(0.13976835,0.60868011,-0.60868011,0.13976835,204.43032,16.237822)"
         xlink:href="#g4231"
         id="use4261" />
      <use
         height="1052.3622"
         width="744.09448"
         y="0"
         x="0"
         transform="matrix(0.33274145,-0.5996946,0.5996946,0.33274145,56.734586,121.8812)"
         xlink:href="#g4231"
         id="use4263" />
      <use
         height="1052.3622"
         width="744.09448"
         y="0"
         x="0"
         transform="matrix(0.53750811,0.00903906,-0.00903906,0.53750811,82.172125,35.060316)"
         xlink:href="#g4231"
         id="use4265" />
      <use
         height="1052.3622"
         width="744.09448"
         y="0"
         x="0"
         transform="matrix(0.47116876,0.48055621,-0.48055621,0.47116876,127.68138,-11.507923)"
         xlink:href="#g4231"
         id="use4267" />
      <use
         height="1052.3622"
         width="744.09448"
         y="0"
         x="0"
         transform="matrix(1.3383193,0.10852137,-0.10852137,1.3383193,1.6931932,-39.716468)"
         xlink:href="#g4231"
         id="use4269" />
      <use
         height="1052.3622"
         width="744.09448"
         y="0"
         x="0"
         transform="matrix(0.68367376,-0.26386455,0.26386455,0.68367376,42.85896,55.581027)"
         xlink:href="#g4231"
         id="use4271" />
      <use
         height="1052.3622"
         width="744.09448"
         y="0"
         x="0"
         transform="matrix(0.66772778,-0.72416646,0.72416646,0.66772778,6.8790917,110.28002)"
         xlink:href="#g4231"
         id="use4273" />
      <use
         height="1052.3622"
         width="744.09448"
         y="0"
         x="0"
         transform="matrix(0.44837064,0.37368714,-0.37368714,0.44837064,115.15333,13.597182)"
         xlink:href="#g4231"
         id="use4275" />
      <use
         height="1052.3622"
         width="744.09448"
         y="0"
         x="0"
         transform="matrix(0.14277163,0.892025,-0.892025,0.14277163,189.45591,-7.328926)"
         xlink:href="#g4231"
         id="use4277" />
      <use
         height="1052.3622"
         width="744.09448"
         y="0"
         x="0"
         transform="matrix(0.80672294,-0.58455303,0.58455303,0.80672294,-8.9579667,98.395607)"
         xlink:href="#g4231"
         id="use4279" />
      <use
         height="1052.3622"
         width="744.09448"
         y="0"
         x="0"
         transform="matrix(0.78984971,-0.54094838,0.54094838,0.78984971,22.512482,93.046992)"
         xlink:href="#g4231"
         id="use4295" />
      <use
         height="1052.3622"
         width="744.09448"
         y="0"
         x="0"
         transform="matrix(0.60473485,1.0486388,-1.0486388,0.60473485,171.50113,-69.082763)"
         xlink:href="#g4231"
         id="use4297" />
      <use
         height="1052.3622"
         width="744.09448"
         y="0"
         x="0"
         transform="matrix(0.85458042,0.76377793,-0.76377793,0.85458042,122.96714,-61.106685)"
         xlink:href="#g4231"
         id="use4299" />
      <use
         height="1052.3622"
         width="744.09448"
         y="0"
         x="0"
         transform="matrix(0.08597431,0.56949923,-0.56949923,0.08597431,181.69336,26.510209)"
         xlink:href="#g4231"
         id="use4301" />
      <use
         height="1052.3622"
         width="744.09448"
         y="0"
         x="0"
         transform="matrix(0.75284554,0.42703923,-0.42703923,0.75284554,107.92901,5.9289635)"
         xlink:href="#g4231"
         id="use4303" />
      <use
         height="1052.3622"
         width="744.09448"
         y="0"
         x="0"
         transform="matrix(0.11280663,-1.4124599,1.4124599,0.11280663,28.373776,254.11867)"
         xlink:href="#g4231"
         id="use4305" />
      <use
         height="1052.3622"
         width="744.09448"
         y="0"
         x="0"
         transform="matrix(0.31286439,-1.016545,1.016545,0.31286439,26.861739,191.32687)"
         xlink:href="#g4231"
         id="use4307" />
      <use
         height="1052.3622"
         width="744.09448"
         y="0"
         x="0"
         transform="matrix(0.27141719,0.47072142,-0.47072142,0.27141719,149.13996,31.077723)"
         xlink:href="#g4231"
         id="use4309" />
      <use
         height="1052.3622"
         width="744.09448"
         y="0"
         x="0"
         transform="matrix(0.21060411,0.68168246,-0.68168246,0.21060411,195.0102,14.17924)"
         xlink:href="#g4231"
         id="use4311" />
      <use
         height="1052.3622"
         width="744.09448"
         y="0"
         x="0"
         transform="matrix(1.3456588,0.48787506,-0.48787506,1.3456588,59.167724,-56.301355)"
         xlink:href="#g4231"
         id="use4313" />
      <use
         height="1052.3622"
         width="744.09448"
         y="0"
         x="0"
         transform="matrix(0.72876965,0.21024506,-0.21024506,0.72876965,105.38805,28.226002)"
         xlink:href="#g4231"
         id="use4315" />
      <use
         height="1052.3622"
         width="744.09448"
         y="0"
         x="0"
         transform="matrix(1.2907013,0.57293805,-0.57293805,1.2907013,72.56923,-80.211467)"
         xlink:href="#g4231"
         id="use4317" />
      <use
         height="1052.3622"
         width="744.09448"
         y="0"
         x="0"
         transform="matrix(0.75069512,0.62496264,-0.62496264,0.75069512,124.32235,-48.407941)"
         xlink:href="#g4231"
         id="use4319" />
      <use
         height="1052.3622"
         width="744.09448"
         y="0"
         x="0"
         transform="matrix(0.47292284,0.5873501,-0.5873501,0.47292284,121.06648,-19.824488)"
         xlink:href="#g4231"
         id="use4323" />
      <use
         height="1052.3622"
         width="744.09448"
         y="0"
         x="0"
         transform="matrix(1.1161001,-0.84464282,0.84464282,1.1161001,-31.806936,92.880381)"
         xlink:href="#g4231"
         id="use4325" />
      <use
         height="1052.3622"
         width="744.09448"
         y="0"
         x="0"
         transform="matrix(0.1888393,-0.65312386,0.65312386,0.1888393,55.540063,166.49103)"
         xlink:href="#g4231"
         id="use4361" />
      <use
         height="1052.3622"
         width="744.09448"
         y="0"
         x="0"
         transform="matrix(0.15915875,-0.83845969,0.83845969,0.15915875,40.435048,173.71021)"
         xlink:href="#g4231"
         id="use4363" />
      <use
         height="1052.3622"
         width="744.09448"
         y="0"
         x="0"
         transform="matrix(0.37160732,0.5221852,-0.5221852,0.37160732,127.22488,7.0634508)"
         xlink:href="#g4231"
         id="use4365" />
      <use
         height="1052.3622"
         width="744.09448"
         y="0"
         x="0"
         transform="matrix(1.0256348,0.23050727,-0.23050727,1.0256348,25.027034,-16.153758)"
         xlink:href="#g4231"
         id="use4367" />
      <use
         height="1052.3622"
         width="744.09448"
         y="0"
         x="0"
         transform="matrix(0.57713602,-0.05813736,0.05813736,0.57713602,47.646374,49.811243)"
         xlink:href="#g4231"
         id="use4369" />
      <use
         height="1052.3622"
         width="744.09448"
         y="0"
         x="0"
         transform="matrix(0.80233112,0.19264578,-0.19264578,0.80233112,43.53512,18.021522)"
         xlink:href="#g4231"
         id="use4371" />
      <use
         height="1052.3622"
         width="744.09448"
         y="0"
         x="0"
         transform="matrix(0.35862539,-0.48047916,0.48047916,0.35862539,35.743358,138.8283)"
         xlink:href="#g4231"
         id="use4375" />
      <use
         height="1052.3622"
         width="744.09448"
         y="0"
         x="0"
         transform="matrix(0.96768813,-0.45341438,0.45341438,0.96768813,-27.79599,75.541241)"
         xlink:href="#g4231"
         id="use4377" />
      <use
         height="1052.3622"
         width="744.09448"
         y="0"
         x="0"
         transform="matrix(0.91467274,-0.4502876,0.4502876,0.91467274,-23.180905,81.429537)"
         xlink:href="#g4231"
         id="use4379" />
      <use
         height="1052.3622"
         width="744.09448"
         y="0"
         x="0"
         transform="matrix(0.66470098,0.65668123,-0.65668123,0.66470098,93.498825,-10.501257)"
         xlink:href="#g4231"
         id="use4381" />
      <use
         height="1052.3622"
         width="744.09448"
         y="0"
         x="0"
         transform="matrix(0.46218733,0.83023604,-0.83023604,0.46218733,138.44564,-10.829259)"
         xlink:href="#g4231"
         id="use4383" />
      <use
         height="1052.3622"
         width="744.09448"
         y="0"
         x="0"
         transform="matrix(0.22487584,0.99174942,-0.99174942,0.22487584,172.1691,-14.159225)"
         xlink:href="#g4231"
         id="use4387" />
      <use
         height="1052.3622"
         width="744.09448"
         y="0"
         x="0"
         transform="matrix(0.1880167,-0.85705954,0.85705954,0.1880167,19.290531,191.19811)"
         xlink:href="#g4231"
         id="use4391" />
      <use
         height="1052.3622"
         width="744.09448"
         y="0"
         x="0"
         transform="matrix(0.26727185,0.50148586,-0.50148586,0.26727185,111.95752,36.422222)"
         xlink:href="#g4231"
         id="use4393" />
      <use
         height="1052.3622"
         width="744.09448"
         y="0"
         x="0"
         transform="matrix(0.44561084,0.73461035,-0.73461035,0.44561084,100.07444,-4.9748792)"
         xlink:href="#g4231"
         id="use4401" />
      <use
         height="1052.3622"
         width="744.09448"
         y="0"
         x="0"
         transform="matrix(0.52923753,-0.24960019,0.24960019,0.52923753,11.753492,99.462568)"
         xlink:href="#g4231"
         id="use4403" />
      <use
         height="1052.3622"
         width="744.09448"
         y="0"
         x="0"
         transform="matrix(1.1085346,0.00931359,-0.00931359,1.1085346,-31.923901,19.891297)"
         xlink:href="#g4231"
         id="use4405" />
      <use
         height="1052.3622"
         width="744.09448"
         y="0"
         x="0"
         transform="matrix(0.75278548,-0.23096178,0.23096178,0.75278548,-13.254788,68.442398)"
         xlink:href="#g4231"
         id="use4407" />
      <use
         height="1052.3622"
         width="744.09448"
         y="0"
         x="0"
         transform="matrix(1.0688067,0.24184465,-0.24184465,1.0688067,-10.352172,-23.545301)"
         xlink:href="#g4231"
         id="use4411" />
      <use
         height="1052.3622"
         width="744.09448"
         y="0"
         x="0"
         transform="matrix(0.15516277,1.1656888,-1.1656888,0.15516277,163.34125,-48.704636)"
         xlink:href="#g4231"
         id="use4413" />
      <use
         height="1052.3622"
         width="744.09448"
         y="0"
         x="0"
         transform="matrix(0.48523876,0.22323839,-0.22323839,0.48523876,59.071546,29.850058)"
         xlink:href="#g4231"
         id="use4415" />
      <use
         height="1052.3622"
         width="744.09448"
         y="0"
         x="0"
         transform="matrix(1.4414432,-0.25391476,0.25391476,1.4414432,-80.205354,3.7939052)"
         xlink:href="#g4231"
         id="use4417" />
      <use
         height="1052.3622"
         width="744.09448"
         y="0"
         x="0"
         transform="matrix(0.56395928,-0.52220255,0.52220255,0.56395928,-9.9991968,120.39735)"
         xlink:href="#g4231"
         id="use4419" />
      <use
         height="1052.3622"
         width="744.09448"
         y="0"
         x="0"
         transform="matrix(0.40747539,0.49266482,-0.49266482,0.40747539,107.08818,7.277638)"
         xlink:href="#g4231"
         id="use4423" />
      <use
         height="1052.3622"
         width="744.09448"
         y="0"
         x="0"
         transform="matrix(0.60053761,-0.7514551,0.7514551,0.60053761,-14.3018,126.08316)"
         xlink:href="#g4231"
         id="use4425" />
      <use
         height="1052.3622"
         width="744.09448"
         y="0"
         x="0"
         transform="matrix(0.5762684,0.75789122,-0.75789122,0.5762684,110.83553,-31.670715)"
         xlink:href="#g4231"
         id="use4427" />
      <use
         height="1052.3622"
         width="744.09448"
         y="0"
         x="0"
         transform="matrix(0.62997968,0.06648212,-0.06648212,0.62997968,44.392833,38.188857)"
         xlink:href="#g4231"
         id="use4429" />
      <path
         sodipodi:nodetypes="ccccc"
         inkscape:connector-curvature="0"
         id="path3768"
         d="m 69.5845,94.69014 5.044548,23.33102 c 20.551941,24.97292 89.531042,25.22921 110.664732,-0.31528 l 6.93625,-25.222732 C 164.41774,122.87871 95.446156,115.06354 69.5845,94.69014 z"
         style="color:#000000;fill:#bfc4c8;fill-opacity:1;fill-rule:nonzero;stroke:none;stroke-width:1px;marker:none;visibility:visible;display:inline;overflow:visible;enable-background:accumulate" />
      <path
         transform="matrix(0.28705769,0,0,0.28705769,325.27994,63.430559)"
         sodipodi:nodetypes="ccccc"
         inkscape:connector-curvature="0"
         id="path3792"
         d="m -807.27273,176.99298 42.83488,320.71244 c 15.36613,4.76993 27.66421,12.60789 48.32653,12.08163 l -18.67161,-319.6141 z"
         style="color:#000000;fill:#f6f7f9;fill-opacity:1;fill-rule:nonzero;stroke:none;stroke-width:1px;marker:none;visibility:visible;display:inline;overflow:visible;filter:url(#filter3812);enable-background:accumulate" />
      <path
         transform="matrix(0.28705769,0,0,0.28705769,325.27994,63.430559)"
         inkscape:connector-curvature="0"
         id="path3794"
         d="m -533.7885,169.56059 -60.40816,323.7515 25.2616,-25.5886 69.1948,-318.18876 z"
         style="color:#000000;fill:#656e77;fill-opacity:1;fill-rule:nonzero;stroke:none;stroke-width:1px;marker:none;visibility:visible;display:inline;overflow:visible;filter:url(#filter3816);enable-background:accumulate" />
      <g
         id="g3854"
         transform="matrix(0.29331612,0,0,0.29655517,329.84274,55.233365)">
        <path
           id="path3856"
           d="m -535.6875,378.36923 c -7.81383,13.39002 -19.53758,25.64816 -34.53125,36.09375 -28.86332,20.10811 -69.32,32.84375 -114.0625,32.84375 -44.7425,0 -85.19918,-12.73564 -114.0625,-32.84375 -10.46807,-7.29276 -19.34104,-15.47931 -26.40625,-24.3125 l 5.84375,22.90625 c 4.84389,4.48531 10.10652,8.71515 15.71875,12.625 30.76429,21.43245 72.66009,34.40625 118.90625,34.40625 46.24615,0 88.17321,-12.9738 118.9375,-34.40625 8.18141,-5.69971 15.5975,-12.07431 22.09375,-18.96875 l 7.5625,-28.34375 z"
           style="font-size:medium;font-style:normal;font-variant:normal;font-weight:normal;font-stretch:normal;text-indent:0;text-align:start;text-decoration:none;line-height:normal;letter-spacing:normal;word-spacing:normal;text-transform:none;direction:ltr;block-progression:tb;writing-mode:lr-tb;text-anchor:start;baseline-shift:baseline;color:#000000;fill:#1a1a1a;fill-opacity:1;stroke:none;stroke-width:10.49757004;marker:none;visibility:visible;display:inline;overflow:visible;filter:url(#filter3838);enable-background:accumulate;font-family:Sans;-inkscape-font-specification:Sans"
           inkscape:connector-curvature="0"
           transform="matrix(0.97519525,0,0,1,-16.334312,0)" />
        <path
           style="font-size:medium;font-style:normal;font-variant:normal;font-weight:normal;font-stretch:normal;text-indent:0;text-align:start;text-decoration:none;line-height:normal;letter-spacing:normal;word-spacing:normal;text-transform:none;direction:ltr;block-progression:tb;writing-mode:lr-tb;text-anchor:start;baseline-shift:baseline;color:#000000;fill:url(#radialGradient7013);fill-opacity:1;stroke:none;stroke-width:10.49757004;marker:none;visibility:visible;display:inline;overflow:visible;enable-background:accumulate;font-family:Sans;-inkscape-font-specification:Sans"
           d="m -535.6875,378.36923 c -7.81383,13.39002 -19.53758,25.64816 -34.53125,36.09375 -28.86332,20.10811 -69.32,32.84375 -114.0625,32.84375 -44.7425,0 -85.19918,-12.73564 -114.0625,-32.84375 -10.46807,-7.29276 -19.34104,-15.47931 -26.40625,-24.3125 l 5.84375,18.59952 c 4.84389,4.48531 10.10652,8.71515 15.71875,12.625 30.76429,21.43245 72.66009,34.40625 118.90625,34.40625 46.24615,0 88.17321,-12.9738 118.9375,-34.40625 8.18141,-5.69971 15.5975,-12.07431 22.09375,-18.96875 z"
           id="path3858"
           inkscape:connector-curvature="0"
           sodipodi:nodetypes="csssccssscc" />
      </g>
      <g
         transform="matrix(0.28705769,0,0,0.28705769,325.27994,63.430559)"
         id="g3842">
        <path
           id="path3830"
           d="m -535.6875,378.36923 c -7.81383,13.39002 -19.53758,25.64816 -34.53125,36.09375 -28.86332,20.10811 -69.32,32.84375 -114.0625,32.84375 -44.7425,0 -85.19918,-12.73564 -114.0625,-32.84375 -10.46807,-7.29276 -19.34104,-15.47931 -26.40625,-24.3125 l 5.84375,22.90625 c 4.84389,4.48531 10.10652,8.71515 15.71875,12.625 30.76429,21.43245 72.66009,34.40625 118.90625,34.40625 46.24615,0 88.17321,-12.9738 118.9375,-34.40625 8.18141,-5.69971 15.5975,-12.07431 22.09375,-18.96875 l 7.5625,-28.34375 z"
           style="font-size:medium;font-style:normal;font-variant:normal;font-weight:normal;font-stretch:normal;text-indent:0;text-align:start;text-decoration:none;line-height:normal;letter-spacing:normal;word-spacing:normal;text-transform:none;direction:ltr;block-progression:tb;writing-mode:lr-tb;text-anchor:start;baseline-shift:baseline;color:#000000;fill:#1a1a1a;fill-opacity:1;stroke:none;stroke-width:10.49757004;marker:none;visibility:visible;display:inline;overflow:visible;filter:url(#filter3838);enable-background:accumulate;font-family:Sans;-inkscape-font-specification:Sans"
           inkscape:connector-curvature="0"
           transform="matrix(0.97519525,0,0,1,-16.334312,0)" />
        <path
           style="font-size:medium;font-style:normal;font-variant:normal;font-weight:normal;font-stretch:normal;text-indent:0;text-align:start;text-decoration:none;line-height:normal;letter-spacing:normal;word-spacing:normal;text-transform:none;direction:ltr;block-progression:tb;writing-mode:lr-tb;text-anchor:start;baseline-shift:baseline;color:#000000;fill:url(#radialGradient7015);fill-opacity:1;stroke:none;stroke-width:10.49757004;marker:none;visibility:visible;display:inline;overflow:visible;enable-background:accumulate;font-family:Sans;-inkscape-font-specification:Sans"
           d="m -535.6875,378.36923 c -7.81383,13.39002 -19.53758,25.64816 -34.53125,36.09375 -28.86332,20.10811 -69.32,32.84375 -114.0625,32.84375 -44.7425,0 -85.19918,-12.73564 -114.0625,-32.84375 -10.46807,-7.29276 -19.34104,-15.47931 -26.40625,-24.3125 l 5.84375,18.59952 c 4.84389,4.48531 10.10652,8.71515 15.71875,12.625 30.76429,21.43245 72.66009,34.40625 118.90625,34.40625 46.24615,0 88.17321,-12.9738 118.9375,-34.40625 8.18141,-5.69971 15.5975,-12.07431 22.09375,-18.96875 z"
           id="path3772"
           inkscape:connector-curvature="0"
           sodipodi:nodetypes="csssccssscc" />
      </g>
      <g
         transform="matrix(0.27975618,0,0,0.26784103,320.16271,75.770586)"
         id="g3846">
        <path
           transform="matrix(0.97519525,0,0,1,-16.334312,0)"
           inkscape:connector-curvature="0"
           style="font-size:medium;font-style:normal;font-variant:normal;font-weight:normal;font-stretch:normal;text-indent:0;text-align:start;text-decoration:none;line-height:normal;letter-spacing:normal;word-spacing:normal;text-transform:none;direction:ltr;block-progression:tb;writing-mode:lr-tb;text-anchor:start;baseline-shift:baseline;color:#000000;fill:#1a1a1a;fill-opacity:1;stroke:none;stroke-width:10.49757004;marker:none;visibility:visible;display:inline;overflow:visible;filter:url(#filter3838);enable-background:accumulate;font-family:Sans;-inkscape-font-specification:Sans"
           d="m -535.6875,378.36923 c -7.81383,13.39002 -19.53758,25.64816 -34.53125,36.09375 -28.86332,20.10811 -69.32,32.84375 -114.0625,32.84375 -44.7425,0 -85.19918,-12.73564 -114.0625,-32.84375 -10.46807,-7.29276 -19.34104,-15.47931 -26.40625,-24.3125 l 5.84375,22.90625 c 4.84389,4.48531 10.10652,8.71515 15.71875,12.625 30.76429,21.43245 72.66009,34.40625 118.90625,34.40625 46.24615,0 88.17321,-12.9738 118.9375,-34.40625 8.18141,-5.69971 15.5975,-12.07431 22.09375,-18.96875 l 7.5625,-28.34375 z"
           id="path3848" />
        <path
           sodipodi:nodetypes="csssccssscc"
           inkscape:connector-curvature="0"
           id="path3850"
           d="m -535.6875,378.36923 c -7.81383,13.39002 -19.53758,25.64816 -34.53125,36.09375 -28.86332,20.10811 -69.32,32.84375 -114.0625,32.84375 -44.7425,0 -85.19918,-12.73564 -114.0625,-32.84375 -10.46807,-7.29276 -19.34104,-15.47931 -26.40625,-24.3125 l 5.84375,18.59952 c 4.84389,4.48531 10.10652,8.71515 15.71875,12.625 30.76429,21.43245 72.66009,34.40625 118.90625,34.40625 46.24615,0 88.17321,-12.9738 118.9375,-34.40625 8.18141,-5.69971 15.5975,-12.07431 22.09375,-18.96875 z"
           style="font-size:medium;font-style:normal;font-variant:normal;font-weight:normal;font-stretch:normal;text-indent:0;text-align:start;text-decoration:none;line-height:normal;letter-spacing:normal;word-spacing:normal;text-transform:none;direction:ltr;block-progression:tb;writing-mode:lr-tb;text-anchor:start;baseline-shift:baseline;color:#000000;fill:url(#radialGradient7017);fill-opacity:1;stroke:none;stroke-width:10.49757004;marker:none;visibility:visible;display:inline;overflow:visible;enable-background:accumulate;font-family:Sans;-inkscape-font-specification:Sans" />
      </g>
      <path
         transform="matrix(0.28705769,0,0,0.28705769,325.27994,63.430559)"
         inkscape:connector-curvature="0"
         id="path3862"
         d="m -651.3936,189.9386 0,325.15845 21.53368,-3.23005 34.45387,-329.46519 z"
         style="color:#000000;fill:#ffffff;fill-opacity:1;fill-rule:nonzero;stroke:none;stroke-width:1px;marker:none;visibility:visible;display:inline;overflow:visible;filter:url(#filter3874);enable-background:accumulate" />
      <path
         transform="matrix(0.28705769,0,0,0.28705769,325.27994,63.430559)"
         inkscape:connector-curvature="0"
         id="path3864"
         d="m -875.34379,133.95105 29.07046,22.61035 57.06423,327.31183 -13.99689,-41.99067 z"
         style="color:#000000;fill:#727a83;fill-opacity:1;fill-rule:nonzero;stroke:none;stroke-width:1px;marker:none;visibility:visible;display:inline;overflow:visible;filter:url(#filter3890);enable-background:accumulate" />
      <path
         sodipodi:type="arc"
         style="color:#000000;fill:none;stroke:#727272;stroke-width:10.88657475;stroke-miterlimit:4;stroke-opacity:1;stroke-dasharray:none;marker:none;visibility:visible;display:inline;overflow:visible;enable-background:accumulate"
         id="path2998"
         sodipodi:cx="-707.32465"
         sodipodi:cy="96.814873"
         sodipodi:rx="207.58441"
         sodipodi:ry="83.473099"
         d="m -499.74023,96.814873 c 0,46.100917 -92.93871,83.473097 -207.58442,83.473097 -114.6457,0 -207.58441,-37.37218 -207.58441,-83.473097 0,-46.10092 92.93871,-83.473099 207.58441,-83.473099 114.64571,0 207.58442,37.372179 207.58442,83.473099 z"
         transform="matrix(0.29503356,0,0,0.30342161,339.59178,59.58562)" />
      <path
         transform="matrix(0.28291885,0,0,0.28705769,322.55099,63.430559)"
         inkscape:connector-curvature="0"
         id="path4721"
         d="m -874.58572,184.02059 0,7.46875 0.125,0.59375 c 71.5951,86.99617 311.9095,87.89357 385.53125,-1.09375 l 0.34375,-1.25 0,-2.875 c -73.95375,88.64291 -313.7154,87.63459 -385.2188,0.75 l -0.7812,-3.59375 z"
         style="opacity:0.50505048;color:#000000;fill:#1a1a1a;fill-opacity:1;fill-rule:nonzero;stroke:none;stroke-width:1px;marker:none;visibility:visible;display:inline;overflow:visible;filter:url(#filter4745);enable-background:accumulate" />
    </g>
  </g>
</svg>
