<?xml version="1.0" encoding="UTF-8" standalone="no"?>
<!-- Created with Inkscape (http://www.inkscape.org/) -->

<svg
   xmlns:dc="http://purl.org/dc/elements/1.1/"
   xmlns:cc="http://creativecommons.org/ns#"
   xmlns:rdf="http://www.w3.org/1999/02/22-rdf-syntax-ns#"
   xmlns:svg="http://www.w3.org/2000/svg"
   xmlns="http://www.w3.org/2000/svg"
   xmlns:xlink="http://www.w3.org/1999/xlink"
   xmlns:sodipodi="http://sodipodi.sourceforge.net/DTD/sodipodi-0.dtd"
   xmlns:inkscape="http://www.inkscape.org/namespaces/inkscape"
   width="300mm"
   height="200mm"
   viewBox="0 0 1062.9921 708.66141"
   id="svg4164"
   version="1.1"
   inkscape:version="0.91 r13725"
   sodipodi:docname="icon1.svg">
  <defs
     id="defs4166">
    <linearGradient
       inkscape:collect="always"
       id="linearGradient4874">
      <stop
         style="stop-color:#f2f2f2;stop-opacity:1;"
         offset="0"
         id="stop4876" />
      <stop
         style="stop-color:#f2f2f2;stop-opacity:0;"
         offset="1"
         id="stop4878" />
    </linearGradient>
    <linearGradient
       inkscape:collect="always"
       id="linearGradient4854">
      <stop
         style="stop-color:#000000;stop-opacity:1;"
         offset="0"
         id="stop4856" />
      <stop
         style="stop-color:#000000;stop-opacity:0;"
         offset="1"
         id="stop4858" />
    </linearGradient>
    <radialGradient
       inkscape:collect="always"
       xlink:href="#linearGradient4854"
       id="radialGradient4846"
       cx="256.8251"
       cy="658.00409"
       fx="256.8251"
       fy="658.00409"
       r="140.71431"
       gradientTransform="matrix(0.43958993,0.39180848,-0.23946448,0.26866729,314.9573,309.68263)"
       gradientUnits="userSpaceOnUse" />
    <radialGradient
       inkscape:collect="always"
       xlink:href="#linearGradient4874"
       id="radialGradient4880"
       cx="260.87347"
       cy="694.23651"
       fx="260.87347"
       fy="694.23651"
       r="140.71431"
       gradientTransform="matrix(0.65015953,-0.53473794,0.56448063,0.68632239,-300.61897,291.80783)"
       gradientUnits="userSpaceOnUse" />
  </defs>
  <sodipodi:namedview
     id="base"
     pagecolor="#ffffff"
     bordercolor="#666666"
     borderopacity="1.0"
     inkscape:pageopacity="0.0"
     inkscape:pageshadow="2"
     inkscape:zoom="0.74365556"
     inkscape:cx="531.49606"
     inkscape:cy="354.33071"
     inkscape:document-units="px"
     inkscape:current-layer="layer1"
     showgrid="false"
     inkscape:snap-global="false"
     inkscape:window-width="1366"
     inkscape:window-height="712"
     inkscape:window-x="0"
     inkscape:window-y="0"
     inkscape:window-maximized="1" />
  <metadata
     id="metadata4169">
    <rdf:RDF>
      <cc:Work
         rdf:about="">
        <dc:format>image/svg+xml</dc:format>
        <dc:type
           rdf:resource="http://purl.org/dc/dcmitype/StillImage" />
        <dc:title />
      </cc:Work>
    </rdf:RDF>
  </metadata>
  <g
     inkscape:label="Layer 1"
     inkscape:groupmode="layer"
     id="layer1"
     transform="translate(0,-343.70079)">
    <g
       id="g4169">
      <circle
         r="57.822464"
         cy="484.89517"
         cx="463.9245"
         id="path4712"
         style="fill:#000000;fill-opacity:1;stroke:none;stroke-width:3.04399991;stroke-miterlimit:4;stroke-dasharray:none;stroke-opacity:1" />
      <ellipse
         style="fill:#000000;fill-opacity:1;stroke:none;stroke-width:3.04399991;stroke-miterlimit:4;stroke-dasharray:none;stroke-opacity:1"
         id="ellipse4716"
         cx="461.23508"
         cy="456.65628"
         r="57.822464" />
      <ellipse
         style="fill:#000000;fill-opacity:1;stroke:none;stroke-width:3.04399991;stroke-miterlimit:4;stroke-dasharray:none;stroke-opacity:1"
         id="ellipse4718"
         cx="461.23508"
         cy="456.65628"
         r="57.822464" />
      <g
         transform="translate(2.7943043e-6,-2.6894172)"
         id="g4772">
        <path
           inkscape:connector-curvature="0"
           id="path4768"
           d="m 500.61698,563.00239 c 37.11596,-12.47957 37.11596,-12.47957 37.11596,-12.47957 l 0,0 c 55.26986,197.05761 55.26986,197.05761 55.26986,197.05761 l 0,0 c -15.45119,6.33013 -15.45119,6.33013 -15.45119,6.33013 l 0,0 z"
           style="fill:#000000;fill-rule:evenodd;stroke:#000000;stroke-width:0.49782556px;stroke-linecap:butt;stroke-linejoin:miter;stroke-opacity:1"
           inkscape:transform-center-x="-0.00060439453"
           inkscape:transform-center-y="-17.487722" />
        <path
           inkscape:transform-center-y="-10.635242"
           inkscape:transform-center-x="-19.796129"
           style="fill:#000000;fill-rule:evenodd;stroke:#000000;stroke-width:0.49782556px;stroke-linecap:butt;stroke-linejoin:miter;stroke-opacity:1"
           d="m 384.37327,553.06862 c 35.81095,15.84013 35.81095,15.84013 35.81095,15.84013 l 0,0 c -92.20687,182.71387 -92.20687,182.71387 -92.20687,182.71387 l 0,0 c -15.67388,-5.75668 -15.67388,-5.75668 -15.67388,-5.75668 l 0,0 z"
           id="path4770"
           inkscape:connector-curvature="0" />
        <path
           sodipodi:type="star"
           style="fill:#000000;fill-opacity:1;stroke:none;stroke-width:3.04399991;stroke-miterlimit:4;stroke-dasharray:none;stroke-opacity:1"
           id="path4752"
           sodipodi:sides="3"
           sodipodi:cx="228.60046"
           sodipodi:cy="597.85071"
           sodipodi:r1="127.30066"
           sodipodi:r2="66.954674"
           sodipodi:arg1="0.54404267"
           sodipodi:arg2="1.5912402"
           inkscape:flatsided="false"
           inkscape:rounded="0"
           inkscape:randomized="0"
           d="m 337.52186,663.74143 -110.29011,1.04996 -110.15502,-5.55735 54.23576,-96.03902 59.89031,-92.61837 56.05435,94.98906 z"
           inkscape:transform-center-x="0.29371313"
           inkscape:transform-center-y="20.987797"
           transform="matrix(-0.69534089,0.01883303,-0.01883303,-0.69534089,631.99211,1006.3007)" />
        <path
           style="fill:#000000;fill-rule:evenodd;stroke:#000000;stroke-width:0.60506225px;stroke-linecap:butt;stroke-linejoin:miter;stroke-opacity:1"
           d="m 424.56944,814.51198 c 57.87511,0 57.87511,0 57.87511,0 l 0,0 c -15.39232,204.28952 -15.39232,204.28952 -15.39232,204.28952 l 0,0 c -24.62771,1.0752 -24.62771,1.0752 -24.62771,1.0752 l 0,0 z"
           id="path4766"
           inkscape:connector-curvature="0" />
        <path
           transform="matrix(-0.62549577,1.1041345,-1.1041345,-0.62549577,1257.5696,876.82794)"
           inkscape:transform-center-y="-38.286596"
           inkscape:transform-center-x="0.9909169"
           d="m 337.52186,663.74143 -110.29011,1.04996 -110.15502,-5.55735 54.23576,-96.03902 59.89031,-92.61837 56.05435,94.98906 z"
           inkscape:randomized="0"
           inkscape:rounded="0"
           inkscape:flatsided="false"
           sodipodi:arg2="1.5912402"
           sodipodi:arg1="0.54404267"
           sodipodi:r2="66.954674"
           sodipodi:r1="127.30066"
           sodipodi:cy="597.85071"
           sodipodi:cx="228.60046"
           sodipodi:sides="3"
           id="path4754"
           style="fill:#000000;fill-opacity:1;stroke:none;stroke-width:3.04399991;stroke-miterlimit:4;stroke-dasharray:none;stroke-opacity:1"
           sodipodi:type="star" />
      </g>
      <g
         style="fill-opacity:1;fill:url(#radialGradient4846)"
         transform="translate(176.15682,-9.4129604)"
         id="g4791">
        <g
           transform="translate(-177.50153,6.7235422)"
           style="fill:url(#radialGradient4846);fill-opacity:1.0"
           id="g4803">
          <path
             transform="matrix(-0.62549577,1.1041345,-1.1041345,-0.62549577,1257.5696,876.82794)"
             inkscape:transform-center-y="-38.286596"
             inkscape:transform-center-x="0.9909169"
             d="m 337.52186,663.74143 -110.29011,1.04996 -110.15502,-5.55735 54.23576,-96.03902 59.89031,-92.61837 56.05435,94.98906 z"
             inkscape:randomized="0"
             inkscape:rounded="0"
             inkscape:flatsided="false"
             sodipodi:arg2="1.5912402"
             sodipodi:arg1="0.54404267"
             sodipodi:r2="66.954674"
             sodipodi:r1="127.30066"
             sodipodi:cy="597.85071"
             sodipodi:cx="228.60046"
             sodipodi:sides="3"
             id="path4799"
             style="fill:url(#radialGradient4846);fill-opacity:1.0;stroke:none;stroke-width:3.04399991;stroke-miterlimit:4;stroke-dasharray:none;stroke-opacity:1"
             sodipodi:type="star" />
          <path
             inkscape:connector-curvature="0"
             id="path4793"
             d="m 500.61698,563.00239 c 37.11596,-12.47957 37.11596,-12.47957 37.11596,-12.47957 l 0,0 c 55.26986,197.05761 55.26986,197.05761 55.26986,197.05761 l 0,0 c -15.45119,6.33013 -15.45119,6.33013 -15.45119,6.33013 l 0,0 z"
             style="fill:url(#radialGradient4846);fill-opacity:1.0;fill-rule:evenodd;stroke:#000000;stroke-width:0.49782556px;stroke-linecap:butt;stroke-linejoin:miter;stroke-opacity:1"
             inkscape:transform-center-x="-0.00060439453"
             inkscape:transform-center-y="-17.487722" />
          <path
             inkscape:transform-center-y="-10.635242"
             inkscape:transform-center-x="-19.796129"
             style="fill:url(#radialGradient4846);fill-opacity:1.0;fill-rule:evenodd;stroke:#000000;stroke-width:0.49782556px;stroke-linecap:butt;stroke-linejoin:miter;stroke-opacity:1"
             d="m 384.37327,553.06862 c 35.81095,15.84013 35.81095,15.84013 35.81095,15.84013 l 0,0 c -92.20687,182.71387 -92.20687,182.71387 -92.20687,182.71387 l 0,0 c -15.67388,-5.75668 -15.67388,-5.75668 -15.67388,-5.75668 l 0,0 z"
             id="path4797"
             inkscape:connector-curvature="0" />
          <path
             sodipodi:type="star"
             style="fill:url(#radialGradient4846);fill-opacity:1.0;stroke:none;stroke-width:3.04399991;stroke-miterlimit:4;stroke-dasharray:none;stroke-opacity:1"
             id="path4795"
             sodipodi:sides="3"
             sodipodi:cx="228.60046"
             sodipodi:cy="597.85071"
             sodipodi:r1="127.30066"
             sodipodi:r2="66.954674"
             sodipodi:arg1="0.54404267"
             sodipodi:arg2="1.5912402"
             inkscape:flatsided="false"
             inkscape:rounded="0"
             inkscape:randomized="0"
             d="m 337.52186,663.74143 -110.29011,1.04996 -110.15502,-5.55735 54.23576,-96.03902 59.89031,-92.61837 56.05435,94.98906 z"
             inkscape:transform-center-x="0.29371313"
             inkscape:transform-center-y="20.987797"
             transform="matrix(-0.69534089,0.01883303,-0.01883303,-0.69534089,631.99211,1006.3007)" />
          <path
             style="fill:url(#radialGradient4846);fill-opacity:1.0;fill-rule:evenodd;stroke:#000000;stroke-width:0.60506225px;stroke-linecap:butt;stroke-linejoin:miter;stroke-opacity:1"
             d="m 424.56944,814.51198 c 57.87511,0 57.87511,0 57.87511,0 l 0,0 c -15.39232,204.28952 -15.39232,204.28952 -15.39232,204.28952 l 0,0 c -24.62771,1.0752 -24.62771,1.0752 -24.62771,1.0752 l 0,0 z"
             id="path4801"
             inkscape:connector-curvature="0" />
        </g>
      </g>
      <g
         id="g4860"
         transform="translate(176.15682,-9.4129604)"
         style="fill-opacity:1;fill:url(#radialGradient4880)">
        <g
           id="g4862"
           style="fill:url(#radialGradient4880);fill-opacity:1"
           transform="translate(-177.50153,6.7235422)">
          <path
             inkscape:transform-center-y="-17.487722"
             inkscape:transform-center-x="-0.00060439453"
             style="fill:url(#radialGradient4880);fill-opacity:1;fill-rule:evenodd;stroke:#000000;stroke-width:0.49782556px;stroke-linecap:butt;stroke-linejoin:miter;stroke-opacity:1"
             d="m 500.61698,563.00239 c 37.11596,-12.47957 37.11596,-12.47957 37.11596,-12.47957 l 0,0 c 55.26986,197.05761 55.26986,197.05761 55.26986,197.05761 l 0,0 c -15.45119,6.33013 -15.45119,6.33013 -15.45119,6.33013 l 0,0 z"
             id="path4866"
             inkscape:connector-curvature="0" />
          <path
             inkscape:connector-curvature="0"
             id="path4872"
             d="m 424.56944,814.51198 c 57.87511,0 57.87511,0 57.87511,0 l 0,0 c -15.39232,204.28952 -15.39232,204.28952 -15.39232,204.28952 l 0,0 c -24.62771,1.0752 -24.62771,1.0752 -24.62771,1.0752 l 0,0 z"
             style="fill:url(#radialGradient4880);fill-opacity:1;fill-rule:evenodd;stroke:#000000;stroke-width:0.60506225px;stroke-linecap:butt;stroke-linejoin:miter;stroke-opacity:1" />
        </g>
      </g>
    </g>
  </g>
</svg>
