<?xml version="1.0" encoding="UTF-8" standalone="no"?>
<!-- Created with Inkscape (http://www.inkscape.org/) -->
<svg
    xmlns:dc="http://purl.org/dc/elements/1.1/"
    xmlns:cc="http://creativecommons.org/ns#"
    xmlns:rdf="http://www.w3.org/1999/02/22-rdf-syntax-ns#"
    xmlns:svg="http://www.w3.org/2000/svg"
    xmlns="http://www.w3.org/2000/svg"
    xmlns:sodipodi="http://sodipodi.sourceforge.net/DTD/sodipodi-0.dtd"
    xmlns:inkscape="http://www.inkscape.org/namespaces/inkscape"
    xmlns:ns1="http://sozi.baierouge.fr"
    xmlns:xlink="http://www.w3.org/1999/xlink"
    id="svg2"
    version="1.1"
    inkscape:version="0.48.3.1 r9886"
    width="840"
    height="264"
    sodipodi:docname="JohnHancock-bw.jpg"
  >
  <title
      id="title2989"
    >John Hancock Signature</title
  >
  <defs
      id="defs6"
  />
  <sodipodi:namedview
      pagecolor="#ffffff"
      bordercolor="#666666"
      borderopacity="1"
      objecttolerance="10"
      gridtolerance="10"
      guidetolerance="10"
      inkscape:pageopacity="0"
      inkscape:pageshadow="2"
      inkscape:window-width="1695"
      inkscape:window-height="1027"
      id="namedview4"
      showgrid="false"
      inkscape:zoom="1.5714286"
      inkscape:cx="420"
      inkscape:cy="132"
      inkscape:window-x="65"
      inkscape:window-y="24"
      inkscape:window-maximized="0"
      inkscape:current-layer="svg2"
  />
  <path
      style="fill:#000000"
      d="M 51.469843,244.51998 C 49.83643,243.81364 47.0375,241.77929 45.25,239.99921 c -6.685506,-6.65778 -3.963348,-12.06406 16.15101,-32.07631 4.895556,-4.8707 11.592152,-10.78342 14.881325,-13.13936 3.289173,-2.35595 8.508719,-6.41704 11.59899,-9.02465 3.090271,-2.60762 6.096984,-4.74512 6.681584,-4.75 0.5846,-0.005 2.3846,-1.39289 4,-3.08446 1.615401,-1.69156 6.312091,-5.36255 10.437091,-8.15776 4.125,-2.79521 9.525,-6.7417 12,-8.76997 2.475,-2.02827 9.76242,-6.69583 16.19427,-10.37235 11.50096,-6.57409 18.39685,-10.85064 26.30573,-16.31374 2.2,-1.51966 5.66937,-3.53111 7.70971,-4.46988 2.04035,-0.93878 6.99035,-3.65995 11,-6.04704 4.00966,-2.3871 10.21529,-5.66162 13.79029,-7.27673 3.575,-1.6151 7.21043,-3.51715 8.07874,-4.22676 0.86831,-0.70961 2.14884,-1.2902 2.84563,-1.2902 1.66693,0 7.20524,-3.90924 8.96621,-6.32883 0.76482,-1.05088 3.87064,-4.66929 6.90182,-8.040925 6.21029,-6.907826 17.93994,-22.112517 23.2076,-30.08313 7.83388,-11.853605 9.44432,-15.039295 9.16313,-18.125973 -0.32837,-3.604488 1.70023,-5.720195 5.03183,-5.247906 1.96431,0.278462 2.30504,0.912995 2.30504,4.292619 l 0,3.965855 5.32307,1.192825 c 2.92769,0.656054 7.20269,1.067012 9.5,0.91324 2.29731,-0.153773 6.7299,-0.337679 9.8502,-0.408681 4.56314,-0.103833 6.28895,-0.647146 8.81961,-2.776557 2.95607,-2.487367 11.77512,-5.302027 16.72194,-5.336916 1.2451,-0.0088 2.712,0.913379 3.35038,2.106214 1.75429,3.277921 -1.4059,5.698663 -9.10612,6.975385 -3.55249,0.589016 -7.85211,1.696251 -9.55471,2.460523 -4.96389,2.228219 -18.42986,12.740566 -24.45555,19.091472 -13.92455,14.676072 -16.48021,18.365622 -11.69882,16.889353 1.2375,-0.382082 5.4,-1.333912 9.25,-2.115176 15.98266,-3.243295 21.07324,-4.769664 23.55472,-7.06269 C 295.45981,82.062316 297.42919,81 298.43111,81 c 1.85103,0 19.95883,-5.696742 29.06889,-9.145121 3.44098,-1.302492 7.50893,-4.303223 13.04647,-9.62375 4.42556,-4.252121 9.93806,-9.029829 12.25,-10.61713 2.31194,-1.5873 4.20353,-3.198517 4.20353,-3.58048 0,-0.381964 1.98606,-2.120763 4.41348,-3.863999 7.42818,-5.334519 10.40572,-3.754776 6.01225,3.189816 -1.49861,2.36878 -4.343,5.394476 -6.32087,6.723769 -1.97787,1.329292 -5.39809,4.029023 -7.6005,5.999402 -2.2024,1.970379 -6.72988,5.243151 -10.06106,7.272827 -6.66346,4.06001 -11.91369,9.211056 -24.3548,23.894666 -8.78423,10.36759 -9.35166,12.66956 -1.29325,5.246489 C 324.40378,90.408995 333.4782,84 335.48888,84 338.34241,84 341,85.993941 341,88.134882 c 0,1.32972 -5.16079,7.18438 -14.5,16.449528 -7.975,7.91176 -14.5,14.85602 -14.5,15.43169 0,0.57567 0.64659,1.29479 1.43686,1.59804 2.2771,0.87381 0.78285,2.98303 -3.47279,4.90206 -3.19279,1.43975 -4.20005,1.53284 -5.44109,0.50287 -0.83764,-0.69518 -1.52402,-1.99636 -1.52529,-2.89151 -0.004,-3.11762 8.98905,-14.76759 15.44175,-20.00295 C 324.40595,99.283709 334.01509,89 332.57193,89 331.83226,89 309.66406,106.61856 305.69848,110.35814 304.15764,111.81116 302.2975,113 301.56484,113 300.16907,113 293,120.39781 293,121.83812 c 0,0.4578 -2.06949,2.9315 -4.59887,5.49712 -3.68443,3.73722 -5.27514,4.66476 -8,4.66476 -3.04987,0 -3.39848,-0.28401 -3.37551,-2.75 0.0198,-2.12874 2.48925,-5.28811 10.93088,-13.98492 l 10.90526,-11.23492 -1.50844,-3.02373 c -1.7075,-3.42276 -1.01631,-8.814786 1.24098,-9.680988 C 300.15393,90.726954 300.54,88 299.0651,88 c -4.36758,0 -9.93976,4.97269 -24.93496,22.25229 -9.84764,11.34785 -11.55229,13.65889 -10.70211,14.50907 C 264.08037,125.4137 280,110.10861 280,108.82911 c 0,-0.39479 1.58523,-2.43035 3.52272,-4.52346 1.9375,-2.09311 3.78628,-4.81815 4.10841,-6.05565 0.73135,-2.809582 3.91703,-2.962789 5.36459,-0.257996 1.15247,2.153406 2.54648,0.406632 -19.6986,24.683466 -8.73683,9.53481 -9.55617,10.15702 -16.17934,12.28666 -9.41891,3.02858 -11.54509,1.4062 -6.86778,-5.24046 7.50079,-10.65896 25.39401,-30.149649 32.07704,-34.940826 3.97555,-2.850131 2.14992,-4.125838 -3.91712,-2.737193 -2.70045,0.618091 -6.2985,1.306238 -7.99565,1.529215 -1.69716,0.222977 -5.91828,1.3103 -9.38027,2.416274 C 257.572,97.095113 254.16122,98 253.45449,98 c -0.70673,0 -3.37318,2.8125 -5.92546,6.25 -2.55227,3.4375 -5.39577,7.15 -6.3189,8.25 -0.92312,1.1 -5.47254,6.725 -10.10982,12.5 -17.2896,21.5315 -60.54507,62.08664 -74.89789,70.22223 -2.03633,1.15425 -6.06048,3.62255 -8.94255,5.48511 -2.88207,1.86255 -6.81957,4.0464 -8.75,4.85298 -1.93043,0.80659 -3.50987,1.87981 -3.50987,2.38495 0,1.03237 -10.68269,8.61085 -20.20844,14.33621 -18.746484,11.26739 -22.815697,13.58762 -24.949681,14.2261 -1.288034,0.38537 -3.325341,1.32016 -4.527351,2.07732 -8.034776,5.06117 -27.83577,8.53352 -33.844685,5.93508 z M 63.5,237.4984 c 4.199611,-0.66814 17.191591,-5.04984 18.965144,-6.39622 0.569171,-0.43208 3.046657,-1.56792 5.505525,-2.52409 C 94.367083,226.09075 111.93501,214.66178 121,207.09057 129.09611,200.32859 130.85948,199 131.73821,199 c 1.23139,0 9.65893,-6.25998 14.26179,-10.59367 1.925,-1.81243 6.58998,-4.73727 10.36662,-6.49965 5.50904,-2.57082 7.77034,-4.36807 11.43763,-9.0905 2.74274,-3.53185 5.10809,-5.68006 5.9138,-5.37088 0.76629,0.29405 1.80649,-0.50242 2.42283,-1.85515 1.0468,-2.29748 2.19734,-3.06694 8.20719,-5.48888 1.99472,-0.80386 2.66473,-1.62552 2.23619,-2.74229 -0.58964,-1.53659 0.27536,-2.50887 11.55157,-12.98421 6.6867,-6.21179 11.87435,-11.89789 11.86931,-13.00976 -0.003,-0.62424 1.23236,-1.92014 2.74486,-2.87977 3.16907,-2.01067 23.25,-22.45809 23.25,-23.67434 0,-1.27121 -0.95617,-1.0298 -10.02959,2.53228 -10.73245,4.21338 -12.55956,5.19145 -17.40915,9.31926 -2.48515,2.11528 -4.58455,3.14755 -5.68867,2.79712 -0.96247,-0.30547 -3.91503,0.53288 -6.56126,1.86301 -2.64623,1.33013 -5.93633,2.76334 -7.31133,3.18492 -1.375,0.42158 -4.30742,1.94236 -6.5165,3.37951 -6.57116,4.27498 -7.83797,5.01729 -11.02316,6.45917 -1.67181,0.7568 -3.69681,2.02776 -4.5,2.82434 -1.58504,1.57201 -16.59906,11.53398 -21.46034,14.23918 -5.60628,3.11977 -10.31888,6.08078 -17.16637,10.78593 -3.7585,2.58259 -9.90956,6.80844 -13.66904,9.39078 -3.75947,2.58234 -7.07012,5.30681 -7.35699,6.05438 C 107.02073,178.38835 105.91833,179 104.85783,179 102.26807,179 98,181.88762 98,183.63976 c 0,0.77536 -1.052053,1.80973 -2.337894,2.29861 -3.497953,1.32992 -18.926611,12.58782 -28.530568,20.81803 -2.402654,2.05898 -4.993319,4.10523 -5.757034,4.54723 -0.763715,0.44199 -2.305738,2.60142 -3.426718,4.79872 -1.12098,2.1973 -2.672138,4.23838 -3.447016,4.53573 -2.476274,0.95023 -5.739038,9.00061 -5.004086,12.34682 0.81406,3.70639 4.168117,6.21182 7.503316,5.60486 1.375,-0.25024 4.3,-0.74134 6.5,-1.09136 z M 307,106 c 0,-0.55 -0.19844,-1 -0.44098,-1 -0.24254,0 -0.7191,0.45 -1.05902,1 -0.33992,0.55 -0.14148,1 0.44098,1 0.58246,0 1.05902,-0.45 1.05902,-1 z m -80.55,-3.11239 c 0.5225,-0.48819 2.0975,-0.89038 3.5,-0.89377 1.4025,-0.003 3.83894,-0.67839 5.41431,-1.5 C 236.93968,99.672228 239.28443,99 240.57488,99 c 1.29045,0 2.92651,-0.671794 3.63569,-1.492876 5.17203,-5.98809 27.80269,-27.61777 34.53943,-33.011713 4.5375,-3.633065 8.25,-6.874244 8.25,-7.202619 0,-0.678345 -25.43257,0.46443 -28.50853,1.280988 -1.1047,0.293257 -3.0064,2.267018 -4.22601,4.386137 -2.74298,4.766035 -20.96593,27.655237 -27.75353,34.860216 -2.75656,2.926077 -5.17767,5.785797 -5.38024,6.354937 -0.41624,1.16946 3.77449,0.15496 5.31831,-1.28746 z m 97.4093,-24.728968 c 0.12713,-1.681289 -5.97302,0.453023 -17.8593,6.248586 l -4.5,2.194129 -0.0867,5.530556 c -0.0477,3.041806 -0.41173,6.056501 -0.80902,6.699322 -0.39728,0.642821 -0.404,1.683835 -0.0149,2.313375 0.44113,0.71376 4.94442,-3.272937 11.96377,-10.591362 6.191,-6.45478 11.27877,-12.032353 11.30615,-12.394606 z M 332,196.57352 c -11.09273,-1.21025 -11.3869,-1.29027 -19.97172,-5.43304 -5.331,-2.57257 -12.46734,-8.71331 -14.57482,-12.54148 -0.98557,-1.79025 -1.48081,-1.82602 -8.5,-0.61401 -4.0994,0.70784 -13.75346,1.63716 -21.45346,2.06514 -7.7,0.42797 -17.70226,1.10538 -22.22724,1.50534 -6.01555,0.53171 -8.63095,0.39215 -9.72899,-0.51914 -1.81969,-1.51021 -0.59035,-4.40585 2.59403,-6.11008 2.45482,-1.31378 17.95092,-4.23455 36.59586,-6.89775 C 288.88251,166.00751 290,165.67171 290,163.44098 c 0,-1.85742 0.91891,-1.82434 3.05636,0.11003 1.55226,1.40477 4.29398,1.26294 29.07875,-1.50427 15.05069,-1.68041 28.26489,-3.24393 29.36489,-3.4745 1.1,-0.23057 3.20447,-0.45365 4.67661,-0.49573 2.15911,-0.0617 3.27631,-1.12468 5.77837,-5.49783 4.27466,-7.47132 13.21359,-14.60684 23.04502,-18.39572 5.58672,-2.15304 22.5447,-3.26455 29.5,-1.93358 9.66896,1.85026 16.72966,7.4132 18.93635,14.91946 1.22625,4.17118 1.43562,4.34356 5.66846,4.66692 2.41736,0.18466 9.12019,-0.16664 14.89519,-0.78067 5.775,-0.61403 16.125,-1.32279 23,-1.57502 6.875,-0.25223 19.025,-0.94888 27,-1.54812 19.19825,-1.44255 39.48948,-1.60093 80,-0.62445 94.2808,2.27259 97.65307,2.10153 92.50922,-4.69253 -4.06179,-5.36486 -2.39969,-16.06716 4.60486,-29.65078 4.99173,-9.68026 5.01281,-10.97121 0.17449,-10.68429 -2.83987,0.16841 -3.79641,-0.19085 -4.07332,-1.5299 -0.2552,-1.234046 0.26876,-1.75 1.77717,-1.75 2.93947,0 5.61739,-1.561335 11.75758,-6.855133 C 696.04405,87.580574 697.06609,86 694.72343,86 c -2.49777,0 -17.34969,11.200259 -25.24432,19.03746 -4.41149,4.3794 -8.41188,7.96254 -8.88975,7.96254 -1.17877,0 -3.51827,-3.18436 -3.55756,-4.84227 -0.0175,-0.73825 0.8745,-2.49445 1.9822,-3.90266 1.10771,-1.40822 1.8108,-2.76361 1.56242,-3.01198 -0.24837,-0.24837 -4.25545,2.05346 -8.90463,5.11518 -4.64917,3.06172 -10.84448,6.47544 -13.76734,7.58604 l -5.31431,2.01928 -2.29507,-2.15611 C 629.03278,112.62162 628,111.01368 628,110.23428 c 0,-0.7794 2.44487,-4.80727 5.43305,-8.95082 4.00385,-5.551929 7.2263,-8.707976 12.25,-11.997568 3.74932,-2.455111 10.01126,-7.098561 13.91541,-10.318778 9.29441,-7.666206 13.49872,-9.699498 16.87505,-8.161135 1.38957,0.633129 2.52649,1.970791 2.52649,2.972582 0,1.001792 0.49811,2.319545 1.1069,2.928341 1.85603,1.856025 -3.41628,4.592639 -7.84964,4.074395 -3.34445,-0.390954 -4.59673,0.200985 -11.39794,5.387678 -10.42699,7.95177 -22.69947,19.913155 -21.06797,20.533925 1.53852,0.58538 9.56917,-3.24174 17.20865,-8.20103 3.025,-1.963726 6.625,-3.843844 8,-4.17804 5.80789,-1.411618 11.34318,-5.403953 27.47935,-19.819514 22.54467,-20.140718 28.64481,-24.945774 36.20256,-28.516641 6.93563,-3.276929 8.95504,-3.565846 12.77104,-1.82716 5.18342,2.361726 2.96391,5.785484 -8.82846,13.61855 -3.78153,2.511876 -11.88153,8.338253 -18,12.947504 -6.11847,4.609251 -12.36199,8.637626 -13.87449,8.951944 -4.35219,0.904444 -3.27534,2.586038 1.17459,1.834227 3.33138,-0.562832 4.09213,-0.350008 5.03298,1.407986 0.90298,1.687224 0.68863,2.638797 -1.15659,5.134592 -2.32912,3.150308 -8.87424,7.924191 -13.93634,10.164892 -3.00778,1.331374 -3.53026,2.25038 -1.86464,3.27979 1.60226,0.99025 1.17431,3.85699 -1.46756,9.83072 -3.38839,7.66177 -4.2221,16.8193 -2.16207,23.74852 2.38221,8.01294 2.9008,8.58555 6.30802,6.96513 3.32907,-1.58326 5.10515,-1.94425 29.32161,-5.95959 10.175,-1.68712 21.2,-3.05535 24.5,-3.04051 16.02463,0.072 37.45523,9.65134 40.38338,18.05103 1.30572,3.74561 0.15591,7.50001 -4.39816,14.36101 -3.19331,4.81091 -4.76079,6.07144 -11.86739,9.54338 -4.50346,2.20017 -9.3805,4.00031 -10.83787,4.00031 -1.45737,0 -3.71159,0.4037 -5.00937,0.89712 -3.06442,1.16509 -20.32594,-0.60747 -24.17423,-2.48242 -1.597,-0.77809 -4.80454,-1.4147 -7.12787,-1.4147 -2.32333,0 -5.83974,-0.675 -7.81425,-1.5 -1.9745,-0.825 -5.11174,-1.5 -6.97164,-1.5 -3.98429,0 -8.80204,-3.04131 -18.21718,-11.5 -3.67315,-3.3 -7.30552,-6.35986 -8.07193,-6.79969 -0.76642,-0.43983 -1.39349,-1.67733 -1.39349,-2.75 0,-2.57556 -1.84205,-2.46305 -9,0.54969 -3.26685,1.375 -6.51579,2.51527 -7.21987,2.53393 -0.70407,0.0187 -3.08013,0.90339 -5.28013,1.96607 -6.821,3.29478 -10.43801,2.16674 -4.43077,-1.38183 1.68808,-0.99717 2.92558,-1.93753 2.75,-2.08969 -1.32955,-1.15221 -92.56247,-2.75294 -93.25268,-1.63617 -0.28566,0.46222 0.32722,1.60656 1.36196,2.54299 1.66527,1.50705 1.72631,2.00142 0.53144,4.30453 -1.94088,3.74105 -6.38337,7.26017 -9.16515,7.26017 -1.31677,0 -3.67455,0.66214 -5.23953,1.47142 -1.56497,0.80928 -5.70513,2.13592 -9.20034,2.9481 -3.49521,0.81218 -9.27993,2.17445 -12.85493,3.02728 -3.575,0.85283 -11.225,2.45547 -17,3.56142 -5.775,1.10596 -12.525,2.65872 -15,3.45058 -2.475,0.79187 -7.65,1.75198 -11.5,2.1336 -3.85,0.38161 -8.07314,1.09135 -9.38475,1.5772 -6.00872,2.22575 -32.76837,4.17078 -59.61525,4.33312 -29.3937,0.17775 -31.03286,0.37544 -53.5,6.45234 -3.35329,0.907 -19.88189,3.19591 -20.97377,2.90449 C 342.73681,197.7823 337.775,197.20358 332,196.57352 z m 32,-5.04815 c 9.16515,-2.21889 14.18299,-3.60682 16.5,-4.56389 1.62336,-0.67054 1.68112,-0.83887 0.3067,-0.8938 -0.93131,-0.0372 -2.28131,-0.89572 -3,-1.90777 -0.98011,-1.38019 -2.51712,-1.81758 -6.14958,-1.75 -4.74198,0.0882 -4.8702,0.0106 -6.15491,-3.72611 -0.72163,-2.0989 -2.02983,-4.60934 -2.90713,-5.57874 -0.87729,-0.9694 -1.59508,-2.3226 -1.59508,-3.00712 0,-2.21109 3.44481,-0.65686 4.79695,2.16429 0.7217,1.50577 1.95826,2.73777 2.7479,2.73777 1.33075,0 8.37464,-8.56426 8.43036,-10.25 0.0376,-1.13613 -5.76582,-0.89782 -6.48529,0.26631 -0.34546,0.55897 -0.99492,0.78962 -1.44323,0.51255 -0.44831,-0.27707 -3.22971,-0.0851 -6.1809,0.42665 -2.95118,0.51173 -13.01579,2.11373 -22.36579,3.56001 -9.35,1.44627 -20.24353,3.27194 -24.20784,4.05703 -3.96431,0.7851 -8.77526,1.42745 -10.69098,1.42745 -4.74617,0 -5.20786,1.34013 -1.90305,5.52397 3.72369,4.71411 13.40004,10.02904 20.71468,11.37794 3.25205,0.59971 6.17705,1.37248 6.5,1.71727 1.05408,1.12534 26.42099,-0.47991 33.08719,-2.09381 z m 87.5,-8.12651 c 6.05,-0.67819 13.025,-1.46466 15.5,-1.74772 2.475,-0.28305 7.2,-0.80541 10.5,-1.16081 3.3,-0.3554 6.9,-1.03321 8,-1.50625 1.1,-0.47303 3.575,-1.08319 5.5,-1.35591 3.68733,-0.52239 25.99989,-5.4615 34.5,-7.63693 11.91878,-3.05036 31.11253,-9.26629 32.37432,-10.48447 2.39589,-2.3131 -3.51979,-4.28374 -18.43606,-6.14142 -14.28346,-1.77888 -14.16163,-1.78123 -55.93826,1.0782 -3.85,0.26351 -13.05319,1.14202 -20.45153,1.95225 -7.39835,0.81022 -13.72411,1.30466 -14.05727,1.09876 -0.33315,-0.20589 -3.27996,-0.003 -6.54846,0.4503 -3.59045,0.49824 -6.41104,0.44796 -7.12584,-0.12702 -0.82006,-0.65966 -1.72459,-0.0873 -2.94777,1.86524 -0.97057,1.54931 -4.11709,5.51692 -6.99227,8.81692 -4.55353,5.22635 -6.52663,6.5747 -15.30222,10.457 C 404.53359,181.40835 400,183.80737 400,184.28815 c 0,1.24431 38.37851,0.5816 51.5,-0.88929 z m -46.89429,-6.42803 c 8.42323,-4.26971 12.98785,-7.26092 15.64159,-10.25 5.68658,-6.40518 5.27726,-6.86772 -5.4973,-6.21205 -14.19637,0.8639 -15.27211,1.34673 -24.54334,11.01603 C 385.693,176.23227 382,180.47747 382,180.95858 c 0,1.28481 1.98175,1.87356 6.60571,1.96247 3.13587,0.0603 6.91534,-1.34524 16,-5.95022 z m -16.75677,-8.82232 5.34895,-6.14851 -3.51794,0 c -3.09021,0 -4.31809,0.8767 -10.09895,7.21063 -3.61955,3.96584 -6.581,7.76848 -6.581,8.45031 0,0.68182 0.7875,1.70684 1.75,2.2778 1.88464,1.118 1.8141,1.18149 13.09894,-11.79023 z M 268.5,176.42921 c 4.4,-0.28346 10.025,-0.91887 12.5,-1.41202 2.475,-0.49316 6.1875,-1.16916 8.25,-1.50223 3.83641,-0.61954 4.50117,-1.36379 2.76705,-3.09791 -1.06936,-1.06936 -16.99169,0.42294 -27.51705,2.579 -6.59737,1.35143 -8.28171,1.61372 -16.75,2.60838 -9.68004,1.13699 -6.84318,2.77058 3.5,2.01546 5.0875,-0.37142 12.85,-0.90723 17.25,-1.19068 z m 497.69271,-4.39363 c 6.22013,-1.84943 11.90767,-7.41346 14.04275,-13.73778 1.0326,-3.05865 1.64164,-6.17568 1.35344,-6.92673 -0.5097,-1.32825 -5.47533,-3.83764 -12.5889,-6.36182 -1.925,-0.68306 -6.65,-2.38952 -10.5,-3.79213 -5.94028,-2.16412 -8.53019,-2.52741 -17.1077,-2.39974 -5.55924,0.0827 -13.20924,0.62689 -17,1.20921 -3.79077,0.58232 -9.8173,1.46629 -13.3923,1.96438 -3.575,0.49809 -8.41876,1.58613 -10.76392,2.41787 C 695.68842,146.02174 695.78045,146 693.5,146 c -2.00195,0 -1.89646,1.66286 0.25,3.94089 2.71729,2.88384 14.86374,10.74535 17.70326,11.45802 1.40071,0.35156 2.54674,1.08062 2.54674,1.62014 0,0.53952 0.72169,0.98095 1.60377,0.98095 0.88207,0 4.67112,1.61185 8.42012,3.58189 3.90941,2.05434 9.94231,4.17499 14.14623,4.9726 7.99718,1.51731 22.04941,1.2571 28.02259,-0.51891 z m -450.42877,-1.97576 c 3.15484,-0.55706 13.94856,-2.24201 23.98606,-3.74434 10.0375,-1.50232 18.25,-3.06134 18.25,-3.46447 0,-1.80277 -2.70773,-1.9158 -11.29187,-0.47137 -5.06447,0.85219 -11.90813,1.77957 -15.20813,2.06085 -3.3,0.28129 -7.125,0.71771 -8.5,0.96982 -3.5237,0.6461 -20.09618,2.87322 -22.5,3.0237 -2.79289,0.17484 -4.65595,1.50464 -3.87602,2.76659 0.70358,1.13842 9.04888,0.64103 19.13996,-1.14078 z M 365.5,162 c 0.33992,-0.55 0.14148,-1 -0.44098,-1 -0.58246,0 -1.05902,0.45 -1.05902,1 0,0.55 0.19844,1 0.44098,1 0.24254,0 0.7191,-0.45 1.05902,-1 z m 13,-5.45372 c 6.18335,-0.42824 7.29166,-0.82314 9.5,-3.38492 2.64002,-3.06255 12,-17.54082 12,-18.56193 0,-1.34703 -7.77113,-0.4006 -11.5,1.40057 -2.2,1.06268 -4.54014,1.94741 -5.20031,1.96607 -0.66017,0.0187 -1.56017,0.62305 -2,1.3431 -0.43983,0.72004 -3.45602,3.19187 -6.70264,5.49295 -6.10737,4.32867 -11.16106,10.47627 -10.06715,12.24626 0.34433,0.55714 2.05347,0.78117 3.79808,0.49784 1.74461,-0.28333 6.32202,-0.73331 10.17202,-0.99994 z M 400.88451,153.25 c 0.52519,-0.9625 3.46602,-4.88809 6.53519,-8.72353 5.9118,-7.38779 6.5393,-8.94449 3.99851,-9.91948 -2.70242,-1.03702 -3.15226,-0.73652 -5.88961,3.93441 -1.46379,2.49777 -4.65655,6.7878 -7.09502,9.53338 -2.43847,2.74559 -4.43358,5.42696 -4.43358,5.9586 0,1.73458 5.87539,1.06603 6.88451,-0.78338 z m 25.23638,-0.12666 c 1.72932,-1.73614 1.74911,-6.02236 0.0381,-8.25274 -1.00021,-1.30383 -2.10996,-3.16831 -2.4661,-4.14328 -1.17669,-3.22128 -3.81641,-3.28204 -6.0642,-0.1396 -1.14573,1.60176 -4.2309,5.20576 -6.85592,8.0089 -2.62503,2.80315 -4.77278,5.39973 -4.77278,5.77019 0,0.82194 19.24848,-0.3676 20.12089,-1.24347 z M 322.79574,126.86285 c -0.59901,-0.36398 1.59573,-3.36517 5.11904,-7 4.7134,-4.86259 6.02098,-6.83442 5.54569,-8.36285 -1.5305,-4.92174 -1.64788,-6.5 -0.48343,-6.5 0.66561,0 1.44555,0.9 1.73321,2 0.28766,1.1 1.13172,2 1.8757,2 0.74397,0 5.40075,-3.94909 10.34839,-8.77576 7.10019,-6.926598 8.88016,-9.21759 8.44737,-10.872585 -0.62955,-2.407396 3.78951,-6.161448 7.76302,-6.594793 2.05526,-0.224143 2.3948,0.220806 2.66564,3.493138 0.35253,4.259491 1.29845,4.596166 4.91676,1.75 1.39842,-1.1 3.17925,-2 3.95739,-2 0.77814,0 2.72521,-0.677638 4.32682,-1.505863 2.73605,-1.414869 2.98084,-1.377273 4.0509,0.622168 2.54283,4.75132 -2.4699,13.503 -13.10199,22.874665 -6.28335,5.53845 -9.68546,10.68382 -8.1075,12.26178 1.83865,1.83865 17.18715,0.9549 28.29203,-1.62903 12.39257,-2.88355 22.17135,-9.22295 36.35522,-23.568377 8.07814,-8.170153 9.71172,-10.299732 8.5,-11.080815 -0.825,-0.5318 -2.175,-0.879361 -3,-0.772359 -0.825,0.107001 -3.75,-0.820367 -6.5,-2.06082 l -5,-2.255368 -2.84701,3.307009 c -5.72233,6.646905 -10.39446,11.38844 -14.72413,14.942872 -2.43587,1.999723 -6.67886,5.690888 -9.42886,8.202578 -3.37257,3.08031 -5.10335,4.10371 -5.31753,3.14422 -0.38595,-1.729 0.72941,-3.16667 7.81753,-10.076645 7.78111,-7.585543 7.8072,-7.611711 12.79103,-12.828626 7.55071,-7.903833 10.1702,-12.467575 10.19077,-17.754585 0.0162,-4.17376 0.41945,-5.007942 3.74604,-7.75 C 424.9398,58.24952 427.60283,57 429.27674,57 c 2.3496,0 3.14344,-0.710248 4.75019,-4.25 1.06103,-2.3375 1.93903,-5.072789 1.95111,-6.078419 0.0251,-2.087246 7.28439,-9.679415 9.23293,-9.656268 3.07001,0.03647 4.06246,1.713643 3.32865,5.625182 -0.39823,2.122728 -0.79505,4.059238 -0.88183,4.303356 -0.15448,0.434549 7.89455,0.161983 13.84221,-0.468742 7.43143,-0.788071 13.42012,-2.335465 18.59649,-4.805069 6.34671,-3.027961 9.11235,-3.328259 10.89294,-1.182775 1.86092,2.242267 0.58087,4.173477 -3.66942,5.536069 -8.97137,2.876111 -20.41783,12.056864 -27.1834,21.802716 -2.06955,2.981216 -2.15326,3.499599 -0.80739,5 0.82586,0.920672 1.81471,3.36145 2.19746,5.42395 0.69726,3.757323 2.64616,4.912125 4.17363,2.47304 0.43983,-0.702328 2.74209,-2.788819 5.11613,-4.636647 2.37404,-1.847828 6.70912,-6.335696 9.63352,-9.97304 2.9244,-3.637344 7.17202,-8.638353 9.43916,-11.113353 2.26714,-2.475 5.13205,-5.959425 6.36647,-7.743167 1.57864,-2.281129 3.0359,-3.245194 4.91262,-3.25 3.2272,-0.0083 5.83179,0.90506 5.83179,2.044973 0,0.460806 -4.5,5.278461 -10,10.7059 -5.5,5.42744 -10,10.171816 -10,10.543058 0,0.371242 -1.83778,2.367942 -4.08396,4.437111 -5.82038,5.361703 -18.80548,21.48985 -26.5364,32.959545 -10.27363,15.2421 -14.2268,20.0474 -17.08187,20.76398 -6.17034,1.54866 -4.4835,-4.00179 3.62377,-11.92381 2.79316,-2.72932 5.07846,-5.32392 5.07846,-5.76576 0,-0.44184 1.9933,-3.54273 4.42955,-6.89085 4.32358,-5.94188 6.72992,-13.200914 4.92455,-14.855589 -0.46975,-0.430545 -2.4291,-1.043871 -4.3541,-1.362947 -3.24448,-0.537785 -3.73856,-0.255969 -6.76769,3.860131 -1.79723,2.442149 -3.69859,5.57363 -4.22525,6.958848 C 441.4804,96.86664 440.59751,98 440.04507,98 c -0.55243,0 -1.88516,1.6875 -2.96162,3.75 -2.89194,5.54095 -15.20623,20.50287 -18.03579,21.91356 -1.70488,0.84997 -9.25622,1.23164 -24.80349,1.25365 -12.29381,0.0174 -22.76765,0.28828 -23.2752,0.60197 -0.50755,0.31368 -2.75188,0.0778 -4.9874,-0.52414 -3.06769,-0.82605 -4.9078,-0.78957 -7.50265,0.14874 -3.06576,1.1086 -3.68394,1.02322 -5.70849,-0.78844 -1.24874,-1.11741 -3.84543,-2.62991 -5.77043,-3.3611 -1.925,-0.73119 -4.06574,-1.76181 -4.7572,-2.29026 -0.89903,-0.68709 -2.67576,0.48028 -6.23633,4.09746 -4.2969,4.36521 -5.47123,5.03364 -8.57063,4.87842 -1.97532,-0.0989 -4.06337,-0.46658 -4.6401,-0.81701 z m 42.60554,-23.50749 c 10.70465,-10.967746 12.2906,-13.063479 10.92171,-14.432366 -0.51234,-0.512341 -3.82585,1.31573 -7.87813,4.346375 -3.84663,2.876847 -8.78285,6.404795 -10.96937,7.839881 C 351.75176,104.86594 343,112.96053 343,114.49778 c 0,0.72184 1.9125,1.95807 4.25,2.74718 4.15466,1.40256 4.29487,1.37664 6.25,-1.15511 1.1,-1.42442 6.45558,-7.15494 11.90128,-12.73449 z m 82.55333,-31.986671 c 0.0842,-2.098389 -6.55551,-6.186812 -11.02157,-6.786572 -4.33685,-0.582409 -4.52661,-0.487175 -8.74518,4.389029 -5.32532,6.155472 -4.8513,7.473709 3.98204,11.074031 l 6.3301,2.580041 4.70461,-5.062609 c 2.58753,-2.784435 4.72503,-5.571699 4.75,-6.19392 z m 8.86181,8.95843 c -0.4063,-3.432126 -2.34949,-4.068111 -3.85196,-1.26071 -0.92577,1.72982 -0.8876,2.367488 0.18229,3.045452 2.60783,1.652505 3.99662,0.977066 3.66967,-1.784742 z m 5.15452,-21.797868 c 4.08149,-4.108913 7.12064,-7.771008 6.75365,-8.137991 -0.36698,-0.366982 -2.59264,-0.192072 -4.94591,0.38869 -2.35328,0.580761 -7.79833,1.063969 -12.10012,1.073794 -6.87877,0.01571 -8.23467,0.333047 -11.25,2.632952 -3.58562,2.734879 -4.28732,4.326041 -2.17856,4.940017 10.22752,2.977788 12.80947,3.940018 13.81128,5.147119 C 452.71226,65.358224 453.53855,66 453.89747,66 c 0.35892,0 3.99199,-3.361837 8.07347,-7.470749 z m -3.50824,67.410389 c -1.78837,-2.89364 5.68293,-12.47517 26.7873,-34.353192 3.1625,-3.278432 5.75,-6.129317 5.75,-6.335299 0,-0.205983 -1.6875,-0.03446 -3.75,0.38116 -4.86648,0.98066 -11.92852,1.022506 -12.87473,0.07629 -2.69231,-2.692309 13.01626,-4.288399 16.20012,-1.646033 1.05936,0.879194 2.20515,0.439657 5.12245,-1.965025 4.74178,-3.90858 11.71278,-4.459315 12.61823,-0.996889 0.30213,1.155359 0.0565,3.182261 -0.54581,4.504227 -0.60233,1.321966 -0.82295,2.675764 -0.49028,3.00844 1.00954,1.009532 6.44212,-3.427595 8.73108,-7.131211 2.2083,-3.573105 4.67033,-4.400718 6.78894,-2.282107 1.31163,1.311632 1.65666,5.781706 0.45,5.830045 -1.48389,0.05944 -20.20581,18.588534 -24.15965,23.910824 -4.08461,5.49832 -4.54176,6.97076 -1.66423,5.36041 3.07573,-1.72126 27.42957,-23.827716 28.02993,-25.443308 0.33561,-0.903117 1.49528,-1.873488 2.57707,-2.156381 C 529.2235,86.390297 530,85.334106 530,84.026232 530,82.3203 530.42117,81.998899 532,82.5 c 1.6367,0.519469 2,0.1797 2,-1.870463 0,-1.72858 0.54252,-2.497667 1.75,-2.480814 0.9625,0.01343 3.78896,-0.76305 6.28101,-1.72552 7.79478,-3.01046 12.1071,-0.286824 8.93381,5.642538 -1.82051,3.401656 0.72391,2.196967 6.60093,-3.125288 3.77707,-3.420525 6.28805,-4.95927 7.75122,-4.75 2.54959,0.364654 5.06846,5.019801 4.1988,7.759847 -0.33483,1.054961 -4.64108,5.885219 -9.56945,10.733906 -8.83255,8.689744 -17.62197,19.973484 -16.46189,21.133554 1.53774,1.53775 7.98972,-3.29819 24.91643,-18.675582 C 582.44196,82.386266 593.14575,75 597.58985,75 c 2.20236,0 3.55293,4.49426 2.32284,7.729648 -1.38082,3.631818 -2.57308,4.224812 -5.93952,2.954122 -2.44498,-0.922875 -3.37876,-0.674702 -7.05999,1.876343 -7.02133,4.865703 -15.68103,13.381917 -17.86184,17.565887 -2.51964,4.83403 -2.51993,4.874 -0.0362,4.874 2.30603,0 12.98485,-5.77 12.98485,-7.016 0,-0.4538 1.34484,-1.12047 2.98853,-1.48148 1.6437,-0.36102 3.24525,-1.07177 3.55902,-1.579457 C 588.86132,99.415379 589.95251,99 590.97242,99 593.07148,99 605.27975,90.181955 615,81.644855 c 6.5535,-5.755807 12.69302,-9.832125 16.64463,-11.051149 2.87574,-0.887134 5.23804,1.569259 4.61972,4.803743 -0.63116,3.301703 2.60535,4.170403 10.46435,2.808697 6.17125,-1.069276 7.2713,-0.8748 7.2713,1.285483 0,1.534374 -0.74913,1.796356 -10,3.497123 -11.14724,2.049415 -12.9282,3.024808 -26.5,14.513487 -8.4208,7.128301 -12.20731,9.779681 -18.33216,12.836541 -9.38938,4.68614 -15.05171,2.84628 -11.61675,-3.77462 0.73167,-1.41029 1.01949,-2.55426 0.63961,-2.54216 -0.37989,0.0121 -4.28354,2.26209 -8.67479,5 -9.11515,5.6832 -13.45416,6.32337 -20.05377,2.9587 -3.28537,-1.67498 -4.13138,-1.78644 -4.96144,-0.65368 -2.73455,3.73177 -13.99372,7.19643 -18.19521,5.59903 -5.59295,-2.12644 -1.33081,-8.78494 17.94451,-28.03369 6.99863,-6.988986 9.61694,-12.009304 3,-5.752168 -2.0625,1.950348 -5.325,4.622825 -7.25,5.938839 -4.11884,2.81582 -6.77388,4.966816 -12.94975,10.491302 -2.50264,2.238687 -6.00056,5.073147 -7.77317,6.298807 -1.7726,1.22566 -4.66138,4.23151 -6.41952,6.67967 -1.75813,2.44815 -3.59419,4.45119 -4.08013,4.45119 -0.48595,0 -2.53912,1.125 -4.56262,2.5 -4.50859,3.06367 -5.21481,3.10466 -5.21481,0.30268 0,-1.44204 3.69801,-5.99645 10.75848,-13.25 C 531.76107,94.221874 541,84.181973 541,83.469616 c 0,-1.725542 -3.47683,0.693763 -12.61847,8.780384 -5.75124,5.0875 -12.23987,10.57276 -14.41917,12.18946 -2.1793,1.6167 -3.96236,3.5292 -3.96236,4.25 0,0.7208 -0.52759,1.31054 -1.17242,1.31054 -0.64483,0 -3.68233,2.1778 -6.75,4.83956 -3.06767,2.66176 -6.5605,5.36176 -7.76184,6 -2.54848,1.35394 -9.95269,1.55689 -10.73307,0.2942 -0.29446,-0.47644 1.09567,-2.95976 3.08916,-5.51849 1.99349,-2.55874 3.37286,-4.90391 3.06528,-5.2115 -0.30759,-0.30758 -2.28677,0.95339 -4.39818,2.80216 -12.48474,10.93178 -24.47803,16.61409 -26.87623,12.73371 z M 486,108.60742 c 3.575,-2.45977 8.35487,-6.41521 10.62192,-8.789865 4.16011,-4.357555 6.41178,-10.06066 4.45063,-11.272716 -2.59888,-1.606199 -15.29402,8.407526 -20.63313,16.275091 -1.37356,2.02404 -3.60934,5.20912 -4.9684,7.07795 -3.64701,5.01499 -3.24249,6.97283 0.77898,3.77015 1.7875,-1.42356 6.175,-4.60084 9.75,-7.06061 z M 615.25,92.266211 c 4.2625,-4.182561 7.75,-7.978506 7.75,-8.435434 0,-1.897386 -2.01528,-0.513606 -7.16417,4.919223 -2.99721,3.1625 -7.44891,7.227225 -9.89266,9.032722 -2.44374,1.805496 -5.68496,4.204028 -7.2027,5.330078 -1.51774,1.12604 -2.52476,2.4272 -2.23783,2.89146 0.86885,1.40585 10.52613,-5.671 18.74736,-13.738049 z"
      id="path2987"
      inkscape:connector-curvature="0"
      sodipodi:nodetypes="ssssscsssssssssssssssscsssscsssssssssssssssssssssssssscssssssscscssssssssssssssssssssssssssssssssssssssssscsssssssssssssssssssssssssssssscsssssssssscscsscscsssssssssssssssssssssssssssssssssscsscsssssssssssssssssssssssssssssssssssssssssscssscsssssssssssscssscssssssscssssssssssssssssssssscsssssssssssssscsssssssssssssssssssssssssssssssssssssssssssssssscsssssssssssscssssscccsssssssssssssssssssscsssssssssscssssssssssssssscsssssssssssssssssccsssssccsssssssssssscssssssssssssssssssssssscsssssssssssssssssssssssssssscsssssssssssssssssssssssssssssssssscssssssssssssssss"
  />
  <metadata
    >
    <rdf:RDF
      >
      <cc:Work
        >
        <dc:format
          >image/svg+xml</dc:format
        >
        <dc:type
            rdf:resource="http://purl.org/dc/dcmitype/StillImage"
        />
        <cc:license
            rdf:resource="http://creativecommons.org/licenses/publicdomain/"
        />
        <dc:publisher
          >
          <cc:Agent
              rdf:about="http://openclipart.org/"
            >
            <dc:title
              >Openclipart</dc:title
            >
          </cc:Agent
          >
        </dc:publisher
        >
        <dc:title
          >John Hancock Signature</dc:title
        >
        <dc:date
          >2014-01-11T19:18:47</dc:date
        >
        <dc:description
          >John Hancock signature from United States Constitution.</dc:description
        >
        <dc:source
          >https://openclipart.org/detail/190037/john-hancock-signature-by-serioustux-190037</dc:source
        >
        <dc:creator
          >
          <cc:Agent
            >
            <dc:title
              >SeriousTux</dc:title
            >
          </cc:Agent
          >
        </dc:creator
        >
        <dc:subject
          >
          <rdf:Bag
            >
            <rdf:li
              >Constitution</rdf:li
            >
            <rdf:li
              >Founding Father</rdf:li
            >
            <rdf:li
              >Hancock</rdf:li
            >
            <rdf:li
              >John</rdf:li
            >
            <rdf:li
              >John Hancock</rdf:li
            >
            <rdf:li
              >Signature</rdf:li
            >
          </rdf:Bag
          >
        </dc:subject
        >
      </cc:Work
      >
      <cc:License
          rdf:about="http://creativecommons.org/licenses/publicdomain/"
        >
        <cc:permits
            rdf:resource="http://creativecommons.org/ns#Reproduction"
        />
        <cc:permits
            rdf:resource="http://creativecommons.org/ns#Distribution"
        />
        <cc:permits
            rdf:resource="http://creativecommons.org/ns#DerivativeWorks"
        />
      </cc:License
      >
    </rdf:RDF
    >
  </metadata
  >
</svg
>
