<?xml version="1.0" encoding="UTF-8" standalone="no"?>
<!-- Generator: Adobe Illustrator 13.0.2, SVG Export Plug-In . SVG Version: 6.00 Build 14948)  -->
<svg
    xmlns:rdf="http://www.w3.org/1999/02/22-rdf-syntax-ns#"
    xmlns="http://www.w3.org/2000/svg"
    xmlns:cc="http://web.resource.org/cc/"
    xmlns:xlink="http://www.w3.org/1999/xlink"
    xmlns:dc="http://purl.org/dc/elements/1.1/"
    xmlns:svg="http://www.w3.org/2000/svg"
    xmlns:inkscape="http://www.inkscape.org/namespaces/inkscape"
    xmlns:sodipodi="http://sodipodi.sourceforge.net/DTD/sodipodi-0.dtd"
    xmlns:ns1="http://sozi.baierouge.fr"
    id="automobile_buses_cover_the_nation_xA0_Image_1_"
    style="enable-background:new 0 0 651.289 423.048"
    xml:space="preserve"
    viewBox="0 0 651.289 423.048"
    version="1.1"
    y="0px"
    x="0px"
  >
<g
    >
	<path
        style="clip-rule:evenodd;fill-rule:evenodd"
        d="m590.64 17.182c-3.621-0.766-4.886-4.378-8.592-3.866v-1.718c4.37-1.563 9.52 1.842 8.59 5.584z"
    />
	<path
        style="clip-rule:evenodd;fill-rule:evenodd"
        d="m581.19 21.048c-2.305 0.299-2.717-1.292-3.437-2.578-1.595-1.412-5.275-0.738-5.584-3.437 3.4-1.419 8.71 1.593 9.02 6.015z"
    />
	<path
        style="clip-rule:evenodd;fill-rule:evenodd"
        d="m542.53 16.323h4.725c1.174 1.547 3.103 2.338 3.437 4.725-3.364-0.215-3.477-3.682-8.161-2.578-0.01-0.715-0.01-1.431-0.01-2.147z"
    />
	<path
        style="clip-rule:evenodd;fill-rule:evenodd"
        d="m541.24 24.914c-3.861-1.268-5.15-3.894-9.88-3.437v-1.289c4.35-1.148 9.47 0.51 9.88 4.726z"
    />
	<path
        style="clip-rule:evenodd;fill-rule:evenodd"
        d="m608.25 26.203c-2.788 0.21-2.957-2.198-4.725-3.007-1.636-0.512-4.196-0.099-5.155-1.289 2.59-4.236 10.06-0.66 9.89 4.296z"
    />
	<path
        style="clip-rule:evenodd;fill-rule:evenodd"
        d="m571.74 27.492c-2.423-0.012-2.458-2.411-3.866-3.437-1.701-1.019-5.124-0.317-6.014-2.148 1.187-2.884 5.156-0.131 7.302 0-0.15 2.691 4.18 2.833 2.58 5.585z"
    />
	<path
        style="clip-rule:evenodd;fill-rule:evenodd"
        d="m598.37 31.357c-3.187-1.109-3.251-5.34-7.731-5.154v-1.719c4.74-1.793 8.84 2.817 7.73 6.873z"
    />
	<path
        style="clip-rule:evenodd;fill-rule:evenodd"
        d="m560.14 31.357c-3.145-0.148-3.709-2.877-6.014-3.866-2.093-0.198-5.031 0.45-6.443-0.43-0.12-0.694 0.406-0.74 0.43-1.289 5.39-1.208 11.81 0.179 12.02 5.585z"
    />
	<path
        style="clip-rule:evenodd;fill-rule:evenodd"
        d="m634.02 30.928c-3.693 0.114-3.827-3.332-6.873-3.866v-1.289c3.59-1.473 8.89 1.013 6.87 5.155z"
    />
	<path
        style="clip-rule:evenodd;fill-rule:evenodd"
        d="m590.21 34.794c-2.475 1.301-3.159-1.673-4.296-3.007-1.873-0.561-3.799-1.069-5.154-2.148-0.516-0.564-0.168-0.675 0-1.289 3.69-0.067 9 1.85 9.45 6.444z"
    />
	<path
        style="clip-rule:evenodd;fill-rule:evenodd"
        d="m579.47 35.653c-0.563 0.151-0.676 0.756-1.288 0.859-1.955-0.623-2.192-2.963-3.866-3.866-0.99-0.131-0.478 1.241-1.289 1.289-1.486 0.055-0.627-2.236-1.718-2.577-1.237-0.051-2.812 0.235-3.437-0.43v-1.289c5.3-1.099 10.18 1.827 11.61 6.014z"
    />
	<path
        style="clip-rule:evenodd;fill-rule:evenodd"
        d="m623.71 36.512c-3.255 0.677-2.794-2.361-4.725-3.007-2.299 0.093-3.533 0.714-5.155-0.43 2.2-4.283 10.72-1.779 9.89 3.437z"
    />
	<path
        style="clip-rule:evenodd;fill-rule:evenodd"
        d="m615.12 41.237c-3.137 1.589-3.878-2.624-6.014-3.437-1.462 0.03-2.997 0.134-3.437-0.859-0.516-0.564-0.167-0.676 0-1.289 4.44-1.09 8.18 2.095 9.45 5.585z"
    />
	<path
        style="clip-rule:evenodd;fill-rule:evenodd"
        d="m605.67 46.821c-3.185-1.541-5.183-4.267-8.591-5.584 2.06-3.644 9.79 1.913 8.59 5.584z"
    />
	<path
        style="clip-rule:evenodd;fill-rule:evenodd"
        d="m634.88 52.835c-2.573 1.025-4.33-2.172-7.303-2.148v-1.289c2.28-0.322 7.27 0.111 7.3 3.437z"
    />
	<path
        style="clip-rule:evenodd;fill-rule:evenodd"
        d="m548.54 59.278c-0.678 2.568-4.112 2.088-6.014 2.148-14.906 0.472-33.048-0.916-50.258-0.429-10.271 0.29-20.094 0-30.499 0-2.601 0-6.375 1.032-8.591-1.289 0.811-1.642 3.013-0.823 4.296-0.859 32.56-0.901 58.23-0.103 91.06 0.429z"
    />
	<path
        style="clip-rule:evenodd;fill-rule:evenodd"
        d="m573.46 101.8c-0.329 1.389-1.188 2.248-2.577 2.577 0.132-0.991-1.241-0.477-1.289-1.289 0.58-1.38 2.5-1.88 3.87-1.29z"
    />
	<path
        style="clip-rule:evenodd;fill-rule:evenodd"
        d="m454.47 125c-0.531 1.817-3.253 1.644-4.726 1.718-4.38 0.222-9.717-0.553-14.604 0-5.321 0.603-13.21 1.138-20.189 1.289-1.477 0.032-3.458 1.372-4.295-0.43 0.391-1.849 2.876-1.549 4.295-1.718 1.633-0.194 3.765-0.325 5.584-0.429 8.174-0.467 17.489-0.874 26.633-1.289 2.36-0.11 5.35-0.62 7.3 0.86z"
    />
	<path
        style="clip-rule:evenodd;fill-rule:evenodd"
        d="m454.04 129.73c-1.612 1.861-4.401 0.771-6.873 0.859-8.443 0.301-16.227 1.415-24.055 1.718-1.686 0.065-3.527-0.111-5.155 0-2.526 0.172-5.098 1.444-7.302 0 2.104-1.628 5.6-1.931 8.591-2.147 7.986-0.578 17.318-0.984 25.344-1.289 2.93-0.11 7.4-1.87 9.45 0.86z"
    />
	<path
        style="clip-rule:evenodd;fill-rule:evenodd"
        d="m359.54 128.87c0.693-0.121 0.739 0.406 1.288 0.429-0.759 2.812-6.092 2.729-9.021 3.007-6.408 0.607-12.902 0.448-18.9 1.289-1.587 0.223-3.046 0.996-4.725 1.289-10.005 1.742-20.84 0.541-31.358 1.718-8.979 1.005-19.923 1.492-31.787 2.147-6.78 0.375-13.517 1.751-19.759 1.718-1.477-0.007-2.882-0.516-4.296-0.429-3.564 0.219-8.091 2.194-10.739-0.43 1.264-2.038 3.872-0.801 5.584-0.859 2.47-0.084 4.83-0.755 7.302-0.859 8.621-0.363 17.897-0.577 28.351-1.289 10.607-0.722 21.153-1.757 32.646-2.578 3.501-0.25 6.931-1.145 10.31-1.289 2.21-0.094 4.286 0.577 6.443 0.43 3.52-0.24 7.032-1.412 10.739-1.718 2.047-0.169 4.4 0.219 6.443 0 1.213-0.13 2.23-1.105 3.436-1.289 2.771-0.423 6.177 0.247 9.021 0 3.2-0.28 6.16-0.74 9.04-1.29z"
    />
	<path
        style="clip-rule:evenodd;fill-rule:evenodd"
        d="m227.66 140.04c-0.487 2.324-3.51 1.098-5.155 1.289-5.301 0.613-11.954 0.761-18.9 1.289-3.941 0.299-8.048 2.102-11.168 0 0.447-2.103 3.225-1.084 4.725-1.289 5.806-0.793 15.145-1.624 21.478-2.148 2.92-0.25 6.66-0.23 9.02 0.86z"
    />
	<path
        style="clip-rule:evenodd;fill-rule:evenodd"
        d="m471.65 173.54c-2.875 3.735-8.762 10.221-14.175 6.873-1.124-0.695-3.955-3.862-4.726-6.014-0.204-0.57-0.87-4.541-0.858-4.725 0.187-3.016 4.394-9.203 6.443-10.31 9.2-4.97 14.5 4.56 13.32 14.17zm-13.31-2.58c-3.603 0.356 0.158-4.141-2.578-4.295-0.095 2.154-1.4 4.059-0.43 6.014 1.731 0.111 2.605-0.062 4.726 0.43 1.207 0.28 1.677 1.029 2.577 0.859 3.979-0.753 4.647-5.326 1.719-8.591-4.82-1.52-5.98 2.27-6.02 5.59z"
    />
	<path
        style="clip-rule:evenodd;fill-rule:evenodd"
        d="m1.289 181.7c1.649 0.319 2.204 2.946 0.859 3.866-1.425-0.15-0.674-2.48-0.859-3.87z"
    />
	<path
        style="clip-rule:evenodd;fill-rule:evenodd"
        d="m540.81 204.9c2.021-0.364 1.387 3.455 0.859 4.296-2.35-0.22-1.53-2.84-0.86-4.3z"
    />
	<path
        style="clip-rule:evenodd;fill-rule:evenodd"
        d="m441.15 236.68c-3.181 1.424-7.197-0.853-11.169-0.859-4.478-0.007-7.894 3.042-11.598 2.148-1.443 0.441-0.669-1.336-0.859-2.148-6.207-4.674-11.073-10.689-17.182-15.464v-1.718c0.348-0.082 0.428-0.431 0.859-0.43 4.999 0.463 11.16 3.035 15.894 4.296 1.833 0.488 3.86 0.286 5.584 0.858 1.567 0.521 3.41 1.915 5.154 2.578 2.822 1.072 5.869 1.283 7.732 3.007 0.366 0.339 0.078 1.358 0.43 1.718 1.81 1.82 5.88 2.79 5.17 6zm-21.9-3c1.464-1.378 3.09-2.931 5.154-3.866 0.788-0.356 2.438 0.131 2.577-1.288-5.188-3.261-12.601-4.295-19.329-6.014-0.334 0.096-0.848 0.012-0.859 0.43 4.13 3.6 7.68 7.78 12.46 10.74z"
    />
	<path
        style="clip-rule:evenodd;fill-rule:evenodd"
        d="m367.7 241.41c-1.014 1.233 0.274 2.28-0.43 3.437-7.847 1.746-15.479 3.708-23.195 5.584-3.913-1.814-3.903-7.552-7.303-9.88-1.589-3.995-4.225-6.943-5.584-11.168-0.121-0.694 0.405-0.74 0.43-1.289 0.348-0.082 0.428-0.431 0.858-0.43 8.341 2.421 18.139 5.496 26.633 9.021 3.28 1.37 5.29 3.42 8.58 4.73zm-33.51-10.74c3.126 5.608 5.291 12.178 10.738 15.464 1.326-1.336 2.068-3.058 3.437-4.295 1.694-1.532 4.815-2.142 5.584-4.296-6.11-2.48-13.76-5.69-19.76-6.87z"
    />
	<path
        style="clip-rule:evenodd;fill-rule:evenodd"
        d="m509.45 278.35c-3.032 0.095-5.81-1.67-9.021-2.577-2.918-0.824-6.422-2.136-9.45-2.577-1.582-0.231-3.347 0.169-5.154 0-5.205-0.487-11.891-1.702-18.471-1.719-4.833-0.012-9.959 0.005-15.035 0.43-1.889 0.158-3.664 1.002-5.584 1.289-3.066 0.458-6.13 0.169-9.021 0.858-1.591 0.381-2.676 1.324-4.296 1.719-2.642 0.644-5.562 0.596-8.161 1.289-4.9 1.307-9.479 2.706-14.604 4.295-2.272 0.704-4.64 2.099-6.873 2.577-0.859 0.185-2.104-0.253-3.007 0-3.232 0.908-6.596 2.923-9.88 3.866-3.852 1.107-7.443 1.793-10.31 3.007-5.637 2.387-10.012 7.132-15.894 7.303 0.163-3.541 4.686-4.138 7.303-5.584 2.847-1.573 5.572-3.592 8.591-4.726 3.312-1.244 7.183-1.919 10.739-3.007 5.415-1.657 11.284-4.186 17.182-6.014 1.853-0.574 3.749-0.826 5.585-1.289 13.173-3.317 27.423-8.037 43.814-8.591 8.238-0.278 17.128 0.699 25.773 0.859 1.22-1.227 0.618 1.562 2.577 0.859 0.921 0.795 2.288-0.568 3.866-0.43 4.881 2.377 11.793 2.103 16.322 4.725 1.33 0.77 3.67 1.48 3 3.43z"
    />
	<path
        style="clip-rule:evenodd;fill-rule:evenodd"
        d="m564 276.2c3.611-0.878 6.908 5.513 2.577 6.014 0.07-2.93-2.6-3.11-2.58-6.01z"
    />
	<path
        style="clip-rule:evenodd;fill-rule:evenodd"
        d="m605.67 288.23c-1.242 0.533-1.958 0.219-2.147-1.289 0.73-0.72 2.53-0.34 2.15 1.29z"
    />
	<path
        style="clip-rule:evenodd;fill-rule:evenodd"
        d="m401.2 289.95c-1.23 0.085-2.345 0.054-2.148-1.288 0.83-0.84 2.64-0.45 2.15 1.29z"
    />
	<path
        style="clip-rule:evenodd;fill-rule:evenodd"
        d="m222.51 0h4.295c6.151 1.724 11.339 4.412 16.753 6.873 9.704 2.529 17.51 7.786 27.491 10.739 3.182 0.941 6.244 2.537 9.45 3.007 2.166 0.317 4.729-0.694 6.873 0.859 5.19-1.271 9.877-2.06 14.605-1.289 4.386 0.716 9.202-0.223 13.746-0.429 24.257-1.102 49.51-1.279 72.166-1.718 9.115-0.177 18.866-0.652 27.921-0.43 31.121 0.766 63.571-1.239 96.649 0.859 0.377 1.379-1.113 0.891-1.288 1.718 5.95 0.364 12.225-2.665 18.471-3.437-0.182-1.729 0.216-2.898 0.43-4.295-1.993-1.551-3.832-0.431-5.155 0.859-8.599 0.245-19.462-1.314-28.351-1.718-11.938-0.542-23.968 0.084-35.652-0.43-24.52-1.078-50.178-0.491-79.897 0.859-14.243 0.647-31.463 0.993-46.821 2.148-10.669 0.802-20.874-0.027-30.928 0.43-5.886 0.267-12.777 2.494-17.612 0.859-3.856-1.304-8.094-3.108-12.027-4.725-3.752-1.542-7.495-3.498-11.598-4.725-2.777-0.831-5.736-0.818-8.162-2.577 1.751-2.965 5.287-1.255 8.162-0.43 1.101 0.316 2.373 0.194 3.007 0.43 4.008 1.488 7.879 4.137 12.028 5.584 1.984 0.692 4.156 0.558 6.014 1.289 1.736 0.683 3.251 2.722 5.154 3.007 1.684 0.251 2.889-0.62 4.726-0.859 6.216-0.812 13.042-0.74 19.759-0.859 8.921-0.158 18.401-0.687 27.921-1.289 13.631-0.862 27.676 0.145 41.667-0.43 11.7-0.48 23.747-2.399 35.223-2.148 18.782 0.411 40.522 0.008 62.716 0.859 4.11 0.157 8.097 0.672 12.027 0.429 11.353-0.701 22.729 2.301 34.364 2.578-2.888-3.27-8.627-3.687-13.316-5.155 0.288-3.15 4.438-1.568 5.584-1.289 1.232 0.3 2.74 1.432 4.296 2.147 4.078 1.875 9.346 4.011 12.457 6.443 4.943-1.07 9.985-2.042 14.604-3.436 1.673-0.046 0.739-2.698 2.148-3.007 6.894 0.956 11.629-3.782 17.611-1.718-1.211 1.961-4.338 2.048-6.873 2.578-2.551 0.533-5.287 0.869-7.731 1.289-0.949 0.054-0.183 1.822-0.43 2.577-7.6 0.047-13.097 3.31-19.33 3.437-1.795 1.426 0.637 1.346 0.43 3.437-9.166-1.698-16.353 3.281-26.633 3.007-1.726 0.062-1.136-1.102-0.858-2.147-61.326-0.248-123-0.065-178.27 1.289-15.515 0.38-30.825 0.732-45.104 3.436-1.558 0.16-0.294 3.143-1.718 3.437-1.135-0.011-2.692 0.401-2.148-1.289-10.869 5.455-15.057 17.589-25.773 23.196-7.327 2.258-16.72 0.523-24.914 0-4.403-0.281-8.642 0.537-12.887 0.43-4.079-0.103-8.5-0.756-13.316-0.43-3.599 0.245-7.742 0.324-10.739 2.148 2.188 0.715 4.648 2.085 6.873 2.148 3.023 0.084 5.864-1.876 9.021-2.148 1.112-0.096 2.21 0.336 3.437 0.43 4.494 0.343 9.741-0.34 14.175 0 14.502 1.114 29.837 6.045 45.962 5.584 1.179-0.034 2.231 0.403 3.437 0.43 27.049 0.601 55.709 0.031 84.192 0 25.715-0.028 50.756-0.582 75.173 0.43 5.237 0.217 10.541-0.941 15.464 0.859-1.998 2.682-5.941 0.884-8.592 0.859-26.986-0.253-58.18 1.255-82.045 0-8.945-0.471-18.035-0.095-27.062 0-8.634 0.09-17.35-0.468-25.773-0.43-19.394 0.088-38.414 0.196-56.701-1.289-11.799-3.479-29.37-5.43-43.814-3.437 5.92 2.957 12.922 4.833 18.9 7.732 16.547 0.133 32.568-1.669 48.11-0.43 5.349 0.427 10.48 1.206 15.894 1.289 12.077 0.184 23.166 0.634 33.935 1.718 3.407 0.343 6.638-0.082 9.88 0.43 8.322 1.313 18.854 3.408 26.632 6.443 1.94 0.757 3.284 2.545 5.585 2.148 6.807 4.791 13.236 9.959 20.188 14.605 0.931 0.931 1.381 2.341 2.148 3.436 6.443 1.514 16.429 0.65 25.344 1.289 2.494 0.179 4.836 1.377 7.302 1.718 1.832 0.253 3.401-0.258 5.155 0 4.63 0.682 8.432 3 12.887 3.436 1.268 2.987 3.788 2.329 8.161 3.007 0.915 0.142 1.934 0.828 2.577 0.859 6.664 0.33 14.799-2.071 21.478-0.859 0.739-7.697 3.69-13.08 8.162-17.612 1.403-1.422 2.473-2.991 3.437-3.436 1.133-0.523 1.899 0.148 3.007 0 3.78-0.505 7.804-1.927 11.168-3.866 4.307 2.624 7.938 3.708 12.457 6.443 3.297 4.292 6.015 9.163 9.021 13.746 0.423 1.718 0.423 2.579 0 4.296 4.387-2.739 12.543-0.777 16.753-2.148-0.195-3.539-0.92-8.165 0.43-11.598 0.976-2.482 3.539-2.882 4.725-4.725-1.812-1.268-4.083-3.632-3.007-6.443-0.704-1.074-2.213 1.58-3.007-0.429-0.859-3.143 5.181-7.08 7.732-7.303 2.019-0.176 3.871 1.079 5.584 1.718 1.565 3.036-1.333 7.932 3.007 9.45 2.679-1.836 0.68-6.016 0.43-9.021-0.48-5.763-0.633-13.659-3.437-18.471 0.482-1.658 1.016-1.985 0.43-3.866-2.649 0.071-3.117 2.324-4.726 3.437-65.637-0.731-134.64 0.859-207.04 0.859-13.416 0-27.415 0.973-40.808 0-10.927-0.793-23.044 2.082-33.935-1.289 0.525-3.914 3.764-5.114 5.584-7.732 0.931 0.072 0.194-1.523 0.429-2.148 3.315-1.147 4.429-5.205 7.303-7.732 1.995-1.754 6.971-5.248 10.309-6.443 0.961-0.344 2.25-0.048 3.866-0.429 2.249-0.531 4.914-1.563 8.161-2.148 7.972-1.435 20.479-0.987 29.64-0.859 38.679 0.541 84.936-0.284 122.42 0 9.991 0.076 19.412 0.03 30.069 0 9.946-0.028 22.278-1.832 30.068 0.859 2.32-0.316 3.574-2.433 6.014-3.007 4.93-1.161 9.856 1.131 12.887 3.866 5.01-2.13 9.728 1.122 12.027 4.295 4.712-0.768 10.627 0.381 10.739 5.584 5.46-4.973 18.427 0.146 14.604 6.873 1.517 0.488 2.679 1.331 4.726 1.289 0.816-0.845-2.926-0.776-2.147-3.007 3.241-1.542 9.076-2.32 12.457-0.43 2.075 1.161 1.852 3.882 3.866 4.296 0.347 2.065-1.886 1.551-1.289 3.866 3.228-0.664 6.059-2.864 9.45-3.007 2.394-0.101 5.032 2.44 6.873 4.295 1.176 1.342-0.662 4.034 0.858 4.296 2.255-0.113-0.934-1.935 0.43-2.578 7.719-1.064 14.09-1.312 15.464 5.584 1.998-0.192 3.056-1.829 5.155-2.148 5.653-0.86 10.455 2.13 11.598 6.873 4.847-2.766 11.154-0.969 14.605 2.147 0.234 1.626 1.397 2.325 1.288 4.296 0.162 1.012 2.917 1.626 1.289 3.007-0.59 1.561-5.266-0.271-6.873-0.859-5.957-2.179-13.764-4.047-20.619-6.443-2.943-1.029-5.636-2.465-8.591-3.436-9.097-2.989-18.338-5.842-27.062-9.021-26.337-9.595-55.3-16.938-82.475-26.203-1.145 0.962 0.607 2.152-0.43 3.007 4.382 2.519 9.422 3.837 14.175 5.584 4.838 1.778 9.645 3.922 15.035 4.725 2.714 2.87 8.617 2.551 11.598 5.155 2.161-0.299 2.994 0.729 5.154 0.43 2.953 2.571 7.677 3.437 12.457 5.154 13.363 4.803 27.465 9.806 41.667 14.176 2.57 0.791 5.165 1.608 7.732 2.577 4.225 1.594 7.562 3.828 12.457 3.866 0.895 0.537 1.812 1.052 2.577 1.718 2.706-0.06 4.95 1.632 7.732 2.578 5.685 1.932 13.075 2.318 15.894 6.014 0.033 2.116-1.685 0.848-3.007 0.859-0.889 1.964-0.208 3.133-1.719 4.726-3.638-1.087-6.729-2.722-10.31-3.866-1.552 0.407-0.599-1.692-0.858-2.577-6.233 2.112-15.318 1.53-20.189 3.866-0.105 3.399-2.143 6.459 0 10.31-2.68 7.234-0.198 22.251-2.147 29.209-0.287 2.005 1.549 1.887 2.147 3.007-1.626 1.46-2.358 5.839-1.718 8.162 1.572-0.002 0.63-2.52 2.577-2.148 3.1 0.48 5.796 1.363 8.161 2.578 0.377-4.673-3.927-4.665-5.154-7.732 0.95-0.625 2.86-0.29 3.437-1.289-0.263-1.742-1.481-2.527-1.289-4.725 2.021-1.444 4.584 0.091 6.443-1.719 2.001 0.147 1.856 2.44 3.007 3.437 2.395-0.246 4.1 0.196 5.155 1.289-0.236 3.265-3.59 5.347-2.578 8.591 0.781 2.501 3.528 3.863 8.162 3.437 1.884 4.13 6.868 5.159 9.021 9.021 0.12 1.552-1.882 0.982-2.577 1.718 1.01 1.837-0.456 3.08-1.289 4.295 0.764 0.86 2.344-1.353 3.866 0-1.487 4.526-6.628 5.4-9.45 8.591 0.189 2.531 1.385 4.057 2.147 6.014-5.199 9.13-4.707 21.55-9.021 31.787-1.147 0.284-2.684 0.18-3.437 0.859 3.936 3.063 12.074-3.849 15.034 0.859-5.349 1.953-13.166 1.439-18.9 3.007 1.484 3.835 6.646 0.839 10.739 0.43 4.109-0.411 8.527-0.672 11.598-0.43-1.448 3.646-6.443 2.251-10.31 2.577-2.64 0.223-5.258 0.938-7.302 1.719 1.468 6.889-0.584 12.26 0.43 17.611 4.269-0.889 9.989-2.607 13.745-2.577 1.539-0.25 1.307 1.271 1.289 2.577 1.546 0.603 3.236 1.059 3.866 2.577 0.745 2.412-1.333 3.978-1.719 6.014-0.81 4.278 0.547 8.711 0 14.176-1.35 1.228-1.718 3.437-3.437 4.296-11.119 0.193-19.3 2.001-29.209 2.577 1.17 4.304 5.581 2.44 11.168 2.147 3.144-0.165 6.41 0.145 9.021 0 4.251-0.235 8.714-2.218 10.739 0-1.273 2.385-5.168 1.992-8.592 2.148-5.697 0.258-11.926-0.155-16.322 0.858 0.623 6.458-1.698 13.74-0.859 20.189 3.039-0.11 7.188-1.19 9.45 0.43 4.243-1.653 11.791-2.206 15.894-2.577 2.14 4.995-1.748 13.974 2.147 17.611-2.781 9.02-2.238 18.16-2.147 27.921 0.043 4.662-0.331 9.334 0 13.746 0.123 1.634 0.806 3.456 0.859 5.154 0.104 3.269-0.907 6.805-0.859 10.31 0.054 3.97 1.152 8.116 0.859 11.598-0.113 1.343-1.084 2.505-1.289 3.866-0.61 4.056 0.234 7.689 0.859 11.598-1.927 1.939-4 3.732-6.443 5.155-5.582-2.007-5.293-9.886-9.021-13.746-4.397-0.623-7.874-2.641-11.169-5.154-0.627-0.479-1.075-1.337-1.718-1.719-1.533-0.91-3.55-0.883-4.726-1.718-3.73-2.651-5.616-8.922-9.88-11.599-3.339-2.097-8.506-2.799-10.738-5.154-1.592-1.679-1.682-4.675-2.577-6.873-1.563-0.281-4.167 1.747-5.585 3.007-5.133 0.006-8.65 1.918-13.315 4.296-3.207 1.634-6.256 4.839-8.592 4.725-1.992-0.097-3.646-1.581-3.865-3.436-0.311-2.606 2.667-3.563 2.577-6.443 1.049-0.24 0.915-1.662 2.577-1.289-1.354-3.26 2.304-3.845 1.718-6.443 0.873-3.423 5.357-3.234 5.155-7.732-2.427-1.008-9.242 0.299-12.027 1.719-1.306 0.529 0.465 1.477 0 2.577-1.692-1.568-4.15-1.592-6.015-2.577-3.566-1.887-6.129-5.285-9.45-7.303 0.208-3.726-2.409-5.833-4.295-8.591 2.967 9.793 7.478 20.573 10.738 33.075 2.328 8.925 4.48 18.052 6.873 27.492 3.227 12.728 5.479 28.401 9.88 41.237 0.931 2.712 3.816 5.399 2.577 8.591-2.752 1.476-3.598-1.546-5.154-2.577-1.543 1.177-3.514 1.928-5.154 3.007-1.247-0.329-2.472-0.68-3.008-1.719-2.563 1.822-5.023 0.259-7.731 0-3.877-0.369-8.333 0.672-12.457 0.859-3.785 0.172-7.771 0.151-11.169 0.43-6.278 0.516-12.308-0.56-18.9-0.859-13.982-0.635-29.511-1.183-42.955 0-2.354 0.207-4.711-0.052-8.162 0-1.366 0.021-2.47 0.766-3.865 0.859-2.953 0.199-6.263-0.84-9.45-0.859-15.409-0.095-34.152 1.271-49.829 1.289-4.536 0.005-9-0.213-12.027-2.147-2.22 1.305-4.43 2.347-6.443 0-0.112-2.655 0.701-5.718-1.288-8.162-0.024-1.885 1.421-2.302 1.718-3.866-0.895-2.542-1.923-4.949-3.437-6.872 0.126-2.309 1.819-3.05 2.577-4.726-1.816-0.847-3.686-0.661-5.154-2.577-0.603-2.32 1.16-2.276 1.289-3.866-2.105 0.101-3.253-0.757-5.585-0.43-7.693-2.277-13.918-5.85-21.048-9.021-3.397-1.511-6.187-3.056-9.88-4.725-6.557-2.964-11.808-7.253-17.612-11.599-3.195-2.392-6.57-4.056-10.309-6.443-6.793-4.338-13.829-9.772-20.189-15.464-3.04-2.72-5.902-5.356-9.45-8.161-12.16-9.613-24.73-20.737-37.372-30.499-5.053-5.453-10.9-9.811-16.323-15.034-3.799-3.659-8.248-6.997-12.458-10.738-6.518-5.795-14.473-11.597-21.048-18.042-5.235-5.131-9.438-10.954-15.035-15.894-1.872 1.978-0.288 4.438-0.429 6.443-0.096 1.357-0.843 2.529-0.859 3.866-0.017 1.362 0.381 2.876 0.43 4.296 0.43 12.603 0.006 24.228 5.584 34.364 1.33 2.416 3.107 4.855 4.725 7.302 1.587 2.4 3.803 4.073 5.584 6.443 1.72 2.288 2.976 5.23 4.725 7.732 0.829 1.186 1.751 2.221 2.577 3.437 3.702 5.45 8.55 10.075 12.457 15.894 2.954 4.398 6.291 8.237 9.45 12.457 3.138 4.191 6.843 8.26 9.88 12.457 7.931 10.963 16.979 19.543 26.632 29.21 1.861 1.863 4.217 3.306 6.014 5.154 4.746 4.882 7.936 10.817 12.887 13.746 1.542-3.137 0.021-7.058 0.859-10.739 0.642-2.82 2.995-4.989 2.577-7.731 3.528-3.987 7.283-10.129 15.035-7.732 6.241 1.93 11.693 8.926 15.894 14.176 5.61 7.011 11.515 15.113 17.182 22.766 1.358 1.835 3.361 3.912 3.007 6.015-2.803 1.482-3.695-1.935-4.725-3.437-3.481-5.078-7.342-10.51-11.168-15.894-1.223-1.721-3.025-3.035-4.295-4.726-1.381-1.836-2.061-3.905-3.437-5.584-2.682-3.271-5.567-6.785-9.021-9.021-0.082 2.687 2.525 4.643 3.437 7.302 0.379 1.104 0.486 2.881 0.859 4.296 1.825 6.923 4.013 14.489 3.866 23.626-0.338 1.734 2.057-0.644 1.718 1.718-1.726 0.954-3.37-1.354-5.155-1.718 0.434-8.854-1.842-14.883-2.577-21.479-1.103 0.163-1.627 1.696-2.148 2.578-1.276 2.162-2.06 3.666-3.007 7.302-0.176 0.677 0.243 1.362 0 2.148-0.833 2.701-1.445 7.393-1.289 11.168-2.837 0.789-2.438-2.319-2.577-3.007-1.31 0.838-2.976 1.319-4.295 2.147 1.471-0.44 1.978 1.983 3.436 1.719-8.921-0.225-15.145 0.062-25.344 0-7.871-0.048-16.152 0.225-24.055-0.859-1.49-0.204-2.734-1.036-4.295-1.289-8.099-1.312-18.595 1.542-28.78 0.859-1.254-0.084-2.303-0.866-3.007-0.859-0.724 0.008-1.943 0.781-2.577 0.859-4.747 0.583-10.97-0.221-15.464-0.43-8.498-0.395-17.344-0.6-25.344-0.43-20.108 0.43-45.679-0.022-63.574 1.289-2.143 0.157-4.633-3.332-6.014-5.584v-3.866c-2.042-3.399-6.717-4.165-6.014-10.31-12.231 7.023-12.89-12.429-15.034-21.907-0.617-2.729-1.522-5.492-2.148-8.161-0.684-2.919-1.831-5.903-2.147-8.162-0.626-4.462 0.078-10.225 0.429-15.464 1.339-19.966 16.109-26.303 29.21-34.794-2.487-8.933 3.078-14.173 9.88-16.323 4.978-7.242 3.37-17.109 10.309-21.907 6.106-4.222 14.3-3.112 22.767-2.577-0.265-5.319-7.025-4.144-9.021-7.731-1.248-16.572 3.364-33.556 15.893-39.09-1.951-0.77-4.086-1.354-5.584-2.577-5.74 4.358-12.928 11.108-22.337 9.021-5.938 1.736-12.999 2.442-19.759 2.147-1.507-0.065-2.879-0.836-4.296-0.859-1.373-0.022-2.517 0.744-3.866 0.859-4.719 0.402-9.869-0.807-13.746-2.577-9.576 4.72-25.117 4.07-38.23 3.866-2.729-0.043-5.558-1.021-8.162-1.289-1.716-0.177-3.289 0.269-4.725 0-7.542-1.409-12.478-6.707-16.753-10.31-0.827-6.562-4.108-12.464-3.437-19.759 0.173-1.875 1.492-3.377 0.859-5.584 0.533-1.042 1.15-2 2.148-2.578-0.007-2.141-3.138-1.158-3.007-3.436 0.259-4.331 6.773-3.448 6.873 0.429 8.804 7.663 19.145 13.788 30.069 19.33 1.31-2.986 2.475-6.117 4.725-8.162-2.636-2.232-6.903-2.833-9.45-5.154 0.865-1.746 2.82-3.336 4.725-3.437 2.278-0.121 3.2 1.955 5.584 1.718-0.738-1.703-5.086-3.5-7.303-5.155-1.002 3.324-5.07 4.632-7.732 4.295-2.38-0.301-4.883-3.355-7.732-5.154-3.108-1.962-6.454-3.308-6.873-5.584-1.059 0.057-2.069 0.065-2.577-0.43-3.794-4.62-10.879-5.84-12.045-12.98 0.896-2.419 3.218-2.573 2.577-5.584 1.663-0.443 1.769 0.224 3.007-0.43-0.645-5.184-0.533-10.574-1.289-15.894-0.528-3.716-0.396-10.106-0.859-15.464-0.618-7.147-2.682-13.697-0.859-21.048 2.121-2.238 1.857-5.416 3.007-8.161 2.389-5.706 7.256-11.443 11.598-16.753 2.059-2.518 4.392-4.976 6.873-7.302 3.591-3.368 5.765-5.703 9.88-8.162 0.493-0.295 0.893-0.504 1.289-0.859 0.896-0.804 1.34-1.728 3.437-1.718 1.254-0.751 1.974-2.036 3.007-3.007 6.456-2.089 12.866-5.392 20.189-7.302 3.593-0.938 7.301-1.463 11.168-2.577 7.179-2.068 16.222-3.886 24.915-5.155 10.781-1.573 21.684-0.939 32.646-2.578 1.528-0.228 2.829-1.191 4.295-1.289 1.855-0.124 4.095 0.896 6.014 0.859 4.624-0.089 9.07-1.507 14.175 0 2.422-5.982 6.149-10.032 11.168-13.746 3.196-2.365 7.609-4.62 12.457-6.443 3.797-1.429 7.356-1.803 11.598-2.578 3.196-0.583 6.538-2.152 9.88-2.577 4.242-0.539 8.012-0.43 11.598-1.718-0.095-1.383 0.76-1.817 0.429-3.437 2.415-2.264 3.828-5.586 5.584-8.591 1.84-3.14 3.66-6.297 4.73-10.317zm-3.87 23.196c3.046-0.775 6.406-1.184 9.88-0.429 1.585-1.852 2.731-4.142 3.866-6.443-2.233-2.063-4.486-4.105-6.873-6.014-2.65 3.936-5.71 7.462-6.88 12.886zm15.04-4.296c1.196 0.2 3.471-2.151 1.289-2.577-0.18 1.117-1.29 1.296-1.29 2.577zm-11.6 10.31c0.245 1.187 0.455 2.409 2.148 2.147v-1.718c-2.849-1.303-3.92-4.385-7.302-5.155 0.73 2.559 2 4.584 5.15 4.726zm-51.55 6.014c-4.433 4.159-10.055 7.127-12.028 13.746h3.866c0.251-2.899 2.768-3.533 3.437-6.014 4.339-1.851 8.33-8.855 14.175-5.155 4.832 0.503 7.424-1.119 10.739-1.718 2.666-0.482 5.406-0.921 8.162-1.289 2.692-0.359 6.252 0.505 8.162-1.718-3.385-1.347-9.21-2.854-8.162-6.014-10.06 2.112-20.21 4.129-28.35 8.162zm353.1-5.155c1.012-0.01 1.265 0.74 2.577 0.43 0.246-1.378-0.56-1.55 0.43-3.437-1.89 0.125-3.26 0.751-3.01 3.007zm-109.54 1.288c1.452 1.312 4.32 0.52 7.302 0.43 3.938-0.119 9.722 0.886 9.021-2.577-5.43 0.658-15.57-4.204-16.32 2.147zm23.63-2.147c0.355 1.214-0.605 1.113-0.43 2.147 0.986 1.334 3.47 0.529 6.014 0.43 2.808-0.109 7.809 1.179 7.303-2.577-3.95-2.083-7.63-0.25-12.88 0zm19.33-0.43v3.007c3.661 0.738 9.377-0.029 13.316-0.43 0.313-1.709 0.313-1.727 0-3.437-5.6 0.081-8.96-0.213-13.32 0.86zm15.89-0.429c0.415 3.382 0.053 4.292-1.289 6.443 0.397 4.979-1.177 7.986-1.718 12.027 3.344 0.697 3.877-3.28 4.295-5.584 0.815-4.483 0.257-10.526 2.578-13.316-1.34 0.088-3.15-0.29-3.86 0.43zm4.72 3.006c4.894 1.061 9.492 0.749 12.887 0v-3.007c-4.016 0.143-9.292-0.668-13.315 0 1.98 0.818 0.48 1.171 0.42 3.007zm-128-2.577c-0.122 1.718 3.324 0.783 3.437 0-0.63-0.632-2.82-0.632-3.44 0zm102.66 0.43c0.138 5.602-4.527 13.029-0.858 16.752 2.657-4.092 3.229-12.495 3.437-17.612-1.35-0.205-1.68 0.612-2.58 0.86zm38.66 10.739c-0.436 1.928-2.32 5.702 0.43 7.302 2.571-6.054 2.002-11.132 3.437-18.471-0.549-0.023-0.595-0.551-1.289-0.43-1.54 2.822-1.7 7.71-2.58 11.599zm-131.44-9.45c-0.192 1.24-1.849 1.015-2.148 2.147 1.915 0.764 5.235-0.384 6.873-1.289v-2.147c-2.126-0.309-4.278-0.59-6.873-0.43-0.42 1.707 2.4 0.177 2.15 1.719zm7.3 1.288c-0.647 1.357-1.382 2.626-2.147 3.866v3.866c-0.663 1.857-2.854 6.481-0.859 8.162 1.998-0.816 1.361-3.489 1.719-5.584 0.793-4.652 3.105-9.758 3.007-13.316h-1.719c-0.97 0.928 0.36 1.464 0 3.006zm15.89 0.43c2.093 0.375 2.85-0.587 4.296-0.859v-2.147c-0.812-0.762-2.837-0.313-4.296-0.43 0.51 2.067 1.83 1.822 0 3.436zm24.92 14.604c4.617-0.814 3.282-8.384 3.865-13.316 0.227-1.911 1.607-3.284 0.859-4.725h-2.147c-0.56 6.258-2.67 11.97-2.58 18.041zm25.77-18.041c-1.934 5.511-2.785 12.105-3.865 18.471 1.012 0.01 1.265-0.74 2.577-0.43 2.717-4.737 2.402-13.457 3.007-18.041h-1.73zm-89.78 0.859v0.859c-0.476 3.597-0.351 7.533-1.289 11.168-0.527 2.043-2.852 4.252-1.288 6.014 3.163 0.493 2.491-3.457 3.007-5.155 1.252-4.13 3.16-9.406 3.437-13.316-1.34 0.088-3.15-0.289-3.87 0.43zm45.54 0c-0.044 6.365-3.812 12.733-2.577 17.612 4.788-0.69 3.516-7.403 4.296-12.027 0.397-2.356 1.705-4.145 1.718-6.014-1.24 0.051-2.82-0.235-3.44 0.429zm12.88 3.007c3.072 0.116 3.086-0.371 5.585-0.429 0.563-1.333-0.117-1.226 0-3.007-2.96 0.035-4.93 1.076-5.58 3.436zm-63.14-0.429c1.656 1.335 3.655-0.617 2.577-2.148-1.49 0.086-2.8 0.358-2.58 2.148zm-40.38 5.154c-0.175 0.771-1.022 1.728-1.289 2.578-0.968 3.087-1.309 5.125-1.718 7.732h2.147c2.488-4.242 2.282-11.178 3.866-16.323-0.613-0.103-0.725-0.707-1.289-0.859-2.28 1.788-1.15 4.356-1.72 6.872zm24.48-6.872c-1.282 5.438-2.28 10.769-3.436 17.182 3.516 0.224 3.79-5.348 4.295-9.021 0.487-3.542 1.284-6.12 0.859-8.162-0.57 0.001-1.14 0.001-1.72 0.001zm2.15 9.879c1.537-0.181 1.208-2.228 1.289-3.866 1.004-0.142 1.774-0.516 2.577-0.859-1.354-0.937-1.117-3.464-2.577-4.296 0.24 3.464-2.04 6.45-1.29 9.021zm-84.19 1.289c-1.126-0.744-1.865-2.255-3.007-3.007-1.199-0.79-3.33-1.283-4.725-2.148-2.581-1.6-3.739-3.905-6.443-3.007-0.167 0.613-0.515 0.725 0 1.289 7.527 1.923 10.192 8.709 18.471 9.88-0.09-2.272-2.74-1.986-4.29-3.007zm173.11-7.732c-1.337 3.676-1.32 8.704-2.148 12.887 1.556 0.656 3.511-0.357 6.014 0 0.482-3.06-1.402-3.752-3.437-4.295 0.264-3.603 2.844-4.888 6.014-5.584 0.345 3.521 3.604 4.128 5.585 6.014-0.554 1.594-2.701 1.595-2.578 3.866 6.333 1.58 4.914-7.849 6.015-12.887-4.08-0.814-11.42 0.73-15.45-0.001zm44.67 0.429h-2.577c-0.586 0.846-0.41 2.454-0.859 3.437 1.338 0.362 2.46-1.418 4.296-2.147 1.569-0.624 3.684-0.479 5.155-1.289 1.055 1.093 2.76 1.535 5.154 1.289 0.31-4.094-9.34-1.572-11.17-1.29zm-125.86 0.86c2.506 0 7.345 1.832 8.591-0.43-1.9-1.55-6.59-0.552-8.59 0.43zm103.53 3.436c2.405-1.462 5.006-2.727 7.303-4.296-0.095 1.383 0.76 1.818 0.43 3.437 1.739 0.122 2.985 0.737 4.725 0.859 0.515-1.205 0.473-2.964 0.43-4.726-6.07 0.834-14.87-2.522-12.88 4.726zm73.45-2.148c2.364 0.929 4.998 1.589 6.873 3.007 3.536-3.603-2.694-5.344-6.443-5.584 0.31 1.314-0.74 1.263-0.43 2.577zm-140.89-1.718c-0.383 1.05-1.001 1.863-0.859 3.437 1.52-0.342 1.573-2.149 3.007-2.577 1.5-0.219 3.243-0.193 4.296-0.859-1.85-1.191-3.93 0.503-6.45-0.001zm14.6 1.718c-0.809 0.767-1.988 1.162-2.577 2.148 0.861 0.714 1.996 1.153 2.147 2.577-1.494 0.939-3.429 1.439-5.154 2.148-3.275-3.129-7.487 0.136-11.169 0.429 0.088 1.344-0.289 3.153 0.43 3.866 3.945-0.31 9.539-0.494 16.753-0.43 0.553-4.564 2.145-8.529 2.147-12.457-1.133-0.601-4.911-0.794-6.014 0 0.93 0.784 3.02 0.414 3.43 1.719zm9.88-1.288c0.095 1.383-0.76 1.817-0.43 3.437 3.838 0.062 7.898-2.836 10.739 0-2.548 1.892-4.963 3.915-9.021 4.295-0.952-0.337 0.081-2.659-1.719-2.148-0.89 1.688-1.364 3.79-1.718 6.014 4.087 1.155 9.543-0.153 13.315 0.43 1.996-3.016 1.854-8.17 2.578-12.457-5.24-0.313-8.35-0.356-13.75 0.429zm-45.53 1.718c0.624-0.952 2.836-0.315 3.007-1.718-0.71-0.818-3.55-0.132-3.01 1.718zm10.74-1.718c-1.085 0.837 2.521 0.6 2.147 2.147 0 3.018-3.388 3.424-6.014 2.578-1.694 1.026-3.014 2.427-5.154 3.007-1.77 0.194-1.612-1.539-3.007-1.718-0.847 1.874-1.4 4.041-1.719 6.443 4.51 0.189 11.762-0.133 15.464 0 1.01-3.954 2.992-8.906 2.578-12.887-1.46 0.117-3.49-0.333-4.3 0.43zm-146.48 0.429c-1.048-0.264-6.314 0.826-9.45 1.289-5.169 0.761-13.196 1.833-16.323 3.436 0.271 3.023 3.638 2.949 3.866 6.014-1.305 2.131-5.771 1.101-6.443 3.866 1.406 0.742 4.029 0.267 5.155 1.289 1.949-3.334 6.223-2.849 10.739-3.437 3.824-0.498 7.983-1.532 11.168-1.289 3.485 0.266 7.302 3.019 10.31 0.43-0.941-2.066-2.9-3.113-4.295-4.725-1.39-2.198-1.78-6.129-4.74-6.873zm89.35 7.303c-0.547 0.792-2.301 4.304-0.43 4.725 1.91-0.75 0.637-2.312 0.859-4.295 0.65-1.211 1.038-2.685 0.859-4.725 0.509-1.353 2.506-1.217 2.578-3.007h-3.007c-0.49 2.229-0.69 4.751-0.86 7.302zm15.89-4.726c0.052 1.093 0.625 1.666 1.718 1.718 0.091-0.482 0.477-0.669 0.859-0.859 0.438-1.337-0.889-3.065-1.289-2.147 1.16 0.384-0.2 1.743-1.29 1.288zm23.2 3.007c-0.049-0.524-0.129-1.017-0.859-0.859-0.735 0.983-3.279 0.158-4.726 0.43-1.809 2.343-3.906 4.398-6.443 6.014-1.328-1.221-3.771-0.343-4.295 0.43 3.24 1.187 10.102 0.136 13.746 0.43 0.96-2.038 1.72-4.287 2.57-6.445zm-30.5 3.437c-0.589 1.272-2.333 1.39-2.578 3.007 4.123-0.365 6.558 0.246 9.45 0 0.743-1.691 1.661-3.207 1.718-5.584-3.07 0.654-4.01 3.439-8.59 2.577zm201.46 1.718c-0.759-0.719 0.381-1.439 0-3.007-1.22 0.499-1.692 1.745-1.719 3.436 1.593-0.304 1.844 0.734 3.437 0.43 0.388-1.522 3.326-3.933 1.289-5.155-1.91 0.522-0.49 4.383-3.01 4.296zm24.91-3.007c-0.312 0.977-0.383 2.194-0.859 3.007 2.409 0.133 4.218 2.792 6.443 1.718-0.82-1.618-0.82-1.819 0-3.437-2.25-0.338-3.14-2.273-5.58-1.288zm-82.04 3.866c1.066 0.064 1.782-0.222 2.147-0.859-1.602 0.457-0.68-1.611-2.147-1.289-0.3 1.323-0.3 0.826 0 2.148zm74.31 1.718c-14.475-0.016-28.316-0.396-42.525-0.43-18.46-0.042-37.124-0.429-55.843-0.429-26.557 0-52.246 1.202-79.896 1.289-19.256 0.061-42.783 0.299-63.575 0-2.806-0.041-5.966-0.528-9.021-0.859-4.232-0.459-10.204-1.536-11.168 0.43-0.54 0.176-0.878 0.554-0.859 1.289 1.172 2.101 4.516 1.729 6.873 1.718 2.917-0.013 5.591-1.146 7.303-1.289 5.111-0.425 11.042 0.377 16.752 0.43 13.875 0.127 31.652 0.006 48.11 0 64.896-0.024 133.62 0.139 195.45-0.43-2.93-3.713-7.92-1.715-11.59-1.719zm23.63 9.021c0.51 1.209 3.208 0.229 3.007 2.148-0.27 0.876-2.171 0.121-1.719 1.718 1.429 5.587 1.101 12.932 1.719 19.33 4.447 4.594 12.948 4.271 16.323 9.879 1.348 2.24 1.646 4.915 2.577 8.162-2.214 0.649-3.979 1.749-6.873 1.718-1.411-1.882-1.338-5.248-3.007-6.873-3.4 0.292-5.228-0.854-7.303-0.859-0.047 2.052 1.331 2.678 3.007 3.007 0.532 3.907 3.956 4.921 3.866 9.45-0.615 1.737-2.942-0.473-3.007 1.289-0.735 3.799 2.443 7.251 3.437 10.739 8.364-0.203 10.122 6.201 13.316 11.168-1.165 0.267-1.069 1.794-2.577 1.718-4.491-3.649-10.152-8.009-17.183-7.732-0.669-0.905-0.769-2.381-2.147-2.577-0.306 1.27-0.118 3.032-1.289 3.437-2.756 0.178-4.645-0.51-6.443-1.289-0.531 2.536 2.576 1.433 3.007 3.007-0.429 5.728-2.427 9.887-3.866 14.605 3.754-1.727 8.12-0.254 12.028-0.859 4.117-0.637 7.362-4.016 10.738-3.007-1.31 2.219 0.282 5.054-2.147 6.443-1.258 0.112-1.32-0.971-2.577-0.859-4.808 5.511-16.359 4.924-22.767 8.162-0.951 0.481-1.515 1.356-2.577 1.718-5.454 1.86-10.88 0.558-15.464 0.859 0.143 2.375 3.011 0.361 3.865 1.289-0.191 5.729 1.207 9.478 0 14.605-0.75 3.19-3.758 5.912-3.865 9.021-0.082 2.371 2.449 6.993 3.437 11.168 0.729 3.084 1.47 5.4 1.718 7.302 0.707 5.427-0.436 10.343 0 16.323 2.533-0.309 4.243-0.752 5.584 0.859 1.07-1.221 1.117-3.465 1.289-5.584-2.395-1.472-5.181-2.551-6.014-5.584 0.814-3.194 3.547-4.471 8.161-3.866 1.208-1.37 1.502-3.652 3.437-4.295 1.455 2.502 5.267-1.039 6.443 2.577 0.132 2.136-0.068 3.941-0.43 5.584 2.071 1.366 4.921 1.953 6.014 4.296-1.178 2.115-3.208 3.378-6.443 3.437 2.484 7.247 8.276 0.833 15.035 1.718 1.732-5.225-0.696-9.811 0-14.175 0.823-5.163 7.539-8.934 3.865-13.746-1.657 0.204 0.104 3.827-2.147 3.437-4.101-2.343-7.516-5.371-9.88-9.45 2.089-1.062 3.585-2.715 6.014-3.437 0.626 1.188 2.189 2.425 3.437 3.866 0.961 1.111 2.005 4.162 3.007 2.577-0.205-2.086-1.612-2.97-3.007-3.866 1.844-3.883 3.657-7.798 6.873-10.309-1.28-2.013-2.73-3.855-2.577-7.302-1.479-0.669-3.87-0.425-4.296-2.148 0.021-4.296 2.751-3.375 6.873-4.725 1.157-0.379 1.604-1.113 2.577-1.289 3.817-0.687 4.184 1.503 6.014 2.147-0.057 1.059-0.064 2.07 0.43 2.578 3.12 0.182 3.941-0.984 6.873 0 0.16-14.875 3.037-36.267 2.147-56.272-4.801-6.654-8.503-14.406-12.457-21.907-1.811-1.053-2.678-3.049-3.437-5.155-8.524-4.648-10.058-16.288-18.041-21.478v-1.718c-1.893-0.112-2.527-1.481-4.726-1.289 1.33 2.833 1.94 6.372 2.16 10.309zm-323.03 9.021c-7.306-3.383-14.314-6.33-21.907-9.021-6.864-2.433-13.476-3.267-20.619-4.295-7.906-1.138-16.419-2.795-24.914-2.577-3.219 0.083-6.244 0.99-9.45 0.859-3.081-0.126-5.886-0.686-8.162-0.429-2.646 0.298-6.359-0.153-9.45 0-4.811 0.238-13.2 2.185-19.759 2.577-1.013 0.061-1.998-0.441-3.437-0.43-4.408 0.035-9.091 1.064-13.316 1.718-8.591 1.33-16.366 2.134-24.914 4.295-5.129 1.297-8.655 3.182-8.591 6.443 0.033 1.696 3.159 5.653 5.154 7.303 2.009 1.661 4.799 2.506 7.303 3.436 1.254 0.466 2.604 1.191 3.866 1.718 4.549 1.901 7.181 2.138 11.598 3.007 0.861 0.17 1.613 1.079 2.577 1.289 2.047 0.445 4.352 0.227 6.014 0.429 4.378 0.533 8.949 2.425 12.886 2.148 1.144-0.08 2.487-0.995 3.866-1.289 3.704-0.789 8.351-0.235 11.598-1.289 1.481-0.481 2.759-1.7 4.295-2.148 5.549-1.62 12.542-2.107 19.33-3.437 8.103-1.587 15.557-2.626 24.055-3.437 1.723-0.164 3.482-1.105 5.155-1.289 1.862-0.204 3.71 0.183 5.584 0 5.216-0.509 9.572-1.797 15.034-2.147 1.117-0.072 2.321-0.775 3.437-0.859 8.014-0.606 24.418 2.057 32.217 3.437-1.87-3.29-6.1-4.461-9.45-6.012zm366.41-13.746c0.996-0.137 1.649 0.069 2.147 0.43 0.185-0.818 0.926-1.079 0.859-2.147-1.24-1.026-3.54-0.364-3.01 1.717zm-28.78 3.866c2.582 0.138 3.82 1.621 6.014 2.147 0.125-1.45 1.616-1.534 1.289-3.436-2.085-0.779-4.212-1.516-6.443-2.148-1.02 0.783-1.52 2.087-0.86 3.437zm20.62 9.02c1.898-0.856 0.82-3.806 1.288-5.154-1.97-1.324-4.769-1.818-7.302-2.578 1.35 3.227 3.48 5.682 6.01 7.732zm-534.36 3.007c-0.088 4.837 7.458 7.545 11.598 9.88 5.196 2.931 10.281 5.165 15.034 6.873 12.486 4.487 26.505 4.151 32.217 11.598-5.332 8.772-15.504 15.34-21.048 23.626-0.464 0.692-3.085 2.271-1.289 3.436 1.75 1.09 3.348-1.437 4.295-2.577 1.222-1.471 2.458-3.493 3.007-5.155 3.326-1.97 5.647-5.329 8.591-8.162 5.533-5.323 11.733-11.387 18.9-14.604 1.103-0.495 2.3-0.436 3.437-0.859 2.864-1.067 5.851-3.067 9.021-3.866 19.92-5.018 45.544-7.684 68.299-9.021 13.444-0.79 36.886-4.149 48.54 0.859-0.199-1.949-1.908-2.388-4.295-2.148-3.761-3.841-10.609-4.62-18.471-5.584-3.3-0.405-7.24-0.522-10.31-0.43-10.034 0.303-24.24 1.042-33.935 2.147-3.372 0.385-6.766 0.423-9.879 0.859-2.009 0.282-3.992 1.466-6.014 1.718-2.145 0.268-4.216-0.221-6.443 0-4.205 0.418-8.699 1.741-12.887 2.577-7.026 1.403-14.817 2.644-20.619 4.295-2.449 0.697-4.8 1.541-6.873 2.578-2.923-1.888-5.483 0.206-8.591 0.43-3.045 0.219-6.457-0.942-9.88-1.289-1.942-0.197-3.892 0.239-5.584 0-1.685-0.238-3.726-1.309-5.584-1.719-2.112-0.465-4.511-0.325-6.443-0.859-2.801-0.774-6.586-2.78-9.88-4.295-7.286-3.354-13.183-6.667-15.894-12.887-0.527-2.314 2.596-2.806 0.43-4.295-3.417 2.645-9.37 1.704-9.464 6.871zm593.22-2.147c-0.649-1.227-2.66-3.334-3.866-2.578 1.07 0.808 2.65 3.348 3.87 2.578zm-274.92 14.604c-4.487-3.57-8.334-5.133-14.604-7.302-10.105-3.496-20.259-6.377-31.788-6.014-2.592-2.271-5.719-0.736-9.45-0.859-2.702-0.089-5.205-1.114-8.162-1.289-8.408-0.497-18.715 0.334-29.209-0.43-8.196-0.596-17.12-2.049-25.344-1.289-6.303 0.583-15.297 0.213-20.189 0.43 4.966 3.979 11.194 6.616 16.752 9.88 1.958 1.15 4.332 2.219 6.014 3.437 3.059 2.213 4.946 5.833 7.732 8.162 2.084 1.742 5.121 2.668 6.443 5.154 2.551 0.313 4.329 1.399 6.014 2.578 8.459 1.728 18.373 0.346 27.062 0 10.531-0.42 20.167-0.41 30.069-0.859 5.208-0.236 9.748-0.26 14.176-0.43 6.763-0.259 13.266-0.833 20.188-0.429 4.726 0.275 10.599 0.503 14.605 1.718 1.476 0.447 3.483 2.096 4.295 2.577 0.684 0.405 1.729 0.183 2.148 0.43 3.154 1.86 5.849 4.596 8.161 6.443 1.024 0.818 2.024 1.428 3.007 2.147 1.71 1.253 3.827 3.314 6.014 4.295 1.663 0.747 4.482 0.474 6.014 1.719-1.432 2.613-4.826 0.13-7.302 0-2.932-2.51-6.726-4.157-9.021-7.303h-3.007c-1.769-3.386-4.833-5.476-8.161-7.302-0.675 0.185-0.367 1.351-1.718 0.859-8.818-4.941-27.999-1.669-38.66-1.289-3.264 0.116-6.676-0.203-9.88 0-8.606 0.544-17.228 2.391-25.344 3.007-2.761 0.209-5.287-0.393-8.162-0.43-3.761-0.048-7.616 0.635-11.168 0.43-3.155-0.182-6.446-1.074-9.45-1.289-1.669-0.119-3.511 0.297-5.155 0-2.791-0.504-5.52-3.013-8.591-3.437-5.574-7.905-13.854-12.867-24.915-13.316-3.43-0.139-7.569-0.513-10.739-0.429-2.716 0.071-4.696 1.189-6.014 1.289-3.073 0.231-6.541-0.318-9.88 0-12.244 1.165-22.056 2.84-33.505 3.866-11.428 1.023-22.423 2.357-31.787 4.295-2.034 0.421-4.012 0.797-6.014 1.289-2.108 0.518-4.633 0.754-6.443 1.289-4.08 1.205-9.133 4.694-12.887 6.443-0.859 0.4-2.078 0.152-2.577 0.43-0.668 0.371-1.326 1.532-2.148 2.147-4.065 3.044-7.625 6.137-10.309 9.88 5.439-2.771 9.727-7.532 15.894-10.309 2.292-1.032 5.168-1.774 7.732-2.578 4.536-1.421 8.713-2.875 13.316-3.866 6.115-1.316 12.9-2.973 18.9-3.437 1.991-0.154 4.111-0.479 6.014 0.43 2.574-0.862 5.503-1.37 8.591-1.718 0.877-0.555 0.781-2.083 2.578-1.718 1.663-0.375 0.702 1.875 2.577 1.289 3.196 0.571 6.117-0.866 9.45-1.289 8.307-1.055 17.524-0.339 26.203-1.289 4.518-0.495 8.433-1.457 13.316-1.289 6.373 0.219 13.913 0.075 18.471 1.289 4.731 1.259 9.652 5.929 11.598 9.45 3.34 6.043 4.865 12.709 5.584 20.189-3.971 1.953-8.469-0.876-11.598 2.147-1.972-1.675-5.266 0.193-7.732-0.859-0.052-2.486 3.666-1.203 4.295-3.007-0.367-3.355-5.462-1.983-4.725-6.443-0.298-0.847-2.396 0.106-2.577-0.859 0.488-3.269-0.718-10.573-2.578-14.175-0.944-1.917 0.826-4.629-1.289-4.725-2.52 1.139-0.783 4.745-0.429 6.873 1.194 7.194 2.233 14.261 1.718 22.337-2.977 2.404-10.208 0.793-15.034 1.289-2.174 0.224-4.973 2.561-5.155-0.43 2.497-2.296 7.165-1.403 11.168-1.289-0.726-3.165-1.737-6.542-5.155-8.162-2.246-1.064-5.403-0.192-7.302-2.147-1.417-6.186-2.247-13.467-2.148-18.042-2.629 0.46-2.865 2.773-3.007 5.155-0.357 5.993 1.539 18.373 2.148 24.914-2.218-0.393-4.027 2.031-7.303 2.578-2.323 0.388-5.357 0.01-7.732 0-1.87-0.008-4.468 1.175-5.154-0.859 2.803-3.498 13.627 1.027 15.894-3.007-4.36-3.801-7.736-8.587-15.464-9.021 0.1-1.824-0.611-3.603-0.859-6.014-0.315-3.061 0.431-7.014-1.289-8.162-3.924 0.109-1.698 5.108-1.718 7.302-0.051 5.355 0.185 10.5 0.859 16.323-1.209 0.938-1.276 3.019-2.577 3.866-4.184-0.984-13.46 2.867-18.9 0.43 3.59-3.425 13.617-0.415 17.182-3.866-1.537-2.343-3.437 0.217-5.584-0.859 0.334-6.585-6.277-8.916-12.027-10.739-1.433-3.016 0.669-9.239-2.147-11.168-3.015 2.213-0.208 6.48 0 9.88 0.343 5.621 0.137 13.081-2.148 17.182-2.385 2.105-6.553 1.107-10.31 1.289-2.136 0.104-4.909 1.823-5.584-0.43 3.143-3.147 7.791-0.514 13.746-2.147-0.47-3.013 0.776-6.234 0-8.162-3.077-0.255 1.27 3.172-1.289 3.437-2.57 0.422-2.125-2.171-3.437-3.007-1.385-1.193-3.12-2.035-4.295-3.437-2.418 0.127-4.089-0.493-5.584-1.289-0.329-2.677-0.938-5.075-0.859-8.161-2.732-0.536 0.588-3.145-1.289-3.437-2.382 0.121-0.915 2.708-0.859 3.866 0.406 8.492 3.29 17.669 0 23.196-4.807 0.028-10.638 1.456-16.752 0.429 1.831-3.753 10.066-1.102 14.175-2.577-0.513-3.661 0.529-7.069-0.859-8.162-2.265 0.455 1.264 3.123-0.859 3.437-5.013-2.003-8.63-5.402-14.605-6.443 1.12-2.042 2.862-6.5 0-7.732-4.038 0.442-1.699 4.925-1.289 8.162 0.753 5.931 0.751 12.4-1.289 15.034-1.641 0.42-2.353-0.625-4.295-0.859-2.044-0.246-4.755-0.159-7.303 0-3.236 0.202-8.073 2.098-8.591-1.289 1.664-1.486 4.748-0.214 7.732-0.43 3.157-0.228 6.75-0.872 9.88 0 0.796-0.922 0.29-3.146 0.429-4.725-4.698-1.249-6.741-6.036-11.598-5.155-1.721 0.312-5.044 3.708-6.443 5.584-0.734 0.984-0.711 2.585-1.289 3.437-0.771 1.136-2.876 0.88-2.147 2.577 2.921 1.815 6.436 2.255 9.88 2.577 10.595 0.992 22.552 0.517 33.935 0 10.578-0.48 21.451-0.42 30.499-1.289 1.582-0.152 3.484 0.082 5.155 0 10.261-0.5 21.003-2.003 30.928-3.007 6.249-0.632 12.55-0.37 18.9-0.859 2.491-0.192 5.169-1.095 7.732-1.289 7.375-0.56 14.675 0.245 21.907-0.429 2.083-0.194 4.267-1.163 6.443-0.859 0.439 1.853 1.111 3.472 0.859 6.014 0.237 1.481 2.393 1.044 2.147 3.007-2.344 0.33-3.001 1.219-3.007 3.007-17.458-0.201-35.195 3.522-52.835 3.007-2.725-0.08-4.613 0.353-6.873 0.43-4.709 0.159-9.502-0.395-14.175 0-4.257 0.359-8.366 1.169-12.887 1.289-2.727 0.072-5.489 0.229-8.162 0.429-4.891 0.366-10.482-0.159-16.323 0.43-4.271 0.431-9.949 2.422-12.887 0.43-5.914 1.938-12.457 0.415-19.33 0.43-5.968 0.013-13.334 0.868-19.76 0.429-3.507-0.239-6.987-1.309-10.309-1.289-1.437 0.009-2.917 0.562-4.295 0.43-1.958-0.189-3.976-1.375-6.014-1.718-2.262-0.382-5.457-1.247-6.873 0.43 16.424 7.121 38.071 5.322 59.708 4.725 7.893-0.218 16.042 0.184 23.625-0.43 4.668-0.378 9.099-1.44 13.316-1.289 1.406 0.05 2.932 0.451 4.295 0.429 3.286-0.051 7.837-2.381 9.45 1.289-9.313 1.058-20.779 0.5-29.209 1.718-7.852 1.134-16.312 0.502-24.485 0.43-2.262-0.02-4.515 0.847-6.873 0.859-1.556 0.008-3.224-0.495-4.725-0.43-1.119 0.049-1.91 0.777-3.007 0.859-5.509 0.409-12.163-0.42-16.323-0.859-3.447-0.364-6.934 0.314-10.31 0-6.159-0.574-11.675-2.924-17.182-3.437-8.984 17.076-15.896 36.223-24.485 53.694 7.946 4.551 16.607 3.261 25.773 3.437 5.202 0.1 13.446 1.386 18.042-0.43 1.349-0.203 1.135 1.156 2.147 1.289 2.155-7.284 7.89-15.276 13.746-20.189 4.791-4.02 10.547-5.02 18.9-5.154 5.96 2.058 10.48 5.557 13.746 10.309 3.592-5.255 10.05-8.951 18.042-9.88 6.357-0.739 9.875 0.71 13.746 3.866 4.771 3.891 7.806 9.312 8.591 15.894 7.486-3.937 13.297-9.681 21.908-12.457 3.667-1.183 7.045-0.868 9.45-2.578 2.134 1.02 4.298-0.501 6.443-0.859 9.147-1.526 19.845-1.498 27.491-2.578 10.093-1.424 21.36-1.111 31.787-0.859 3.405 0.083 7.087-0.735 10.31-0.43 2.867 0.272 5.661 1.845 8.591 2.148 4.274 0.441 8.399-0.312 12.457 0.43 0.957 0.175 2.016 1.109 3.007 1.289 1.112 0.202 2.434-0.253 3.436 0 1.098 0.277 1.906 1.078 3.007 1.289 1.122 0.215 2.252-0.17 3.437 0 3.184 0.457 6.411 2.182 9.45 2.577 1.069 0.14 2.35-0.262 3.437 0 1.719 0.415 3.069 1.974 4.725 2.578 7.03 2.565 15.219 2.51 21.478 6.014 1.973-0.704 4.482-1.167 6.873-1.718 2.151-0.497 5.25-0.508 6.014-2.577-2.558-3.614-8.986 1.482-11.598-1.718-0.242-9.265 0.015-17.256 0-25.773-0.007-3.668-0.839-6.779-1.289-9.45-1.824-10.841-1.02-23.167-3.007-33.505-0.417-2.171-1.666-4.762-2.147-7.302-0.363-1.916 0.697-7.21-3.437-6.443-0.051 6.8 2.036 15.131 2.577 22.766-1.386 1.434-4.505 1.074-7.731 1.289-3.384 0.225-7.43 1.438-9.45 0 3.099-2.404 10.62-1.484 14.175-2.148 0.123-4.37-1.015-4.958-0.859-9.021-5.143 0.938-5.602 8.626-12.457 6.443-0.792 0.925-0.397 3.039-2.577 2.577-1.292-1.507 0.596-2.585 0.43-4.295-0.848-1.286-1.384-3.556-1.718-6.014-0.599-4.403 0.489-11.73-4.296-10.31-0.139 7.059 2.188 13.747 2.147 22.767-1.605 1.765-4.41 1.038-7.302 1.289-5.238 0.455-10.437 2.433-13.316-0.859 0.376-4.809-0.569-12.107-1.289-17.182-0.356-2.514 0.669-6.071-3.007-4.725 0.271 7.796 0.934 16.067 3.007 24.055-4.357-0.458-13.979 3.403-17.612-0.43-0.637-5.671-0.965-11.362-1.718-16.752-0.279-2.004-0.247-5.45-2.577-6.014-1.856 1.056-1.499 4.177-1.289 6.014 0.27 2.362 1.49 4.958 1.718 7.732 0.29 3.528-0.142 6.842 0.43 10.31-3.848 2.024-11.98 2.049-17.183 1.289 0.553-5.541 8.723-0.817 11.598-3.866-0.673-4.7-4.201-10.062-10.309-10.739-0.647-0.642-0.128-2.449-1.718-2.148-0.484 2.305 0.925 4.938 1.289 7.732 0.297 2.285 1.214 5.8-1.718 6.014-1.002-8.117-2.265-13.423-3.437-21.478-1.705-2.023-5.78-3.95-5.584-6.443 2.684-0.772 4.507 1.241 6.873 1.718 4.828 0.973 10.87 0.579 16.323 0.43 8.171-0.224 17.617-0.398 24.914-1.289 6.031-0.736 12.885-0.625 19.33-0.859 18.922-0.689 40.719-7.702 54.983 3.866 5.02 9.875 9.563 21.154 11.168 34.364 0.427 3.516-0.076 7.236 1.289 10.739 0.112 1.258-0.972 1.32-0.859 2.578 1.794 0.097 2.028-0.699 3.437 0-0.466-10.455-1.973-22.017-4.726-31.357-0.658-2.234-2.412-4.115-2.147-6.443 1.459-0.024 1.627 0.254 3.437-0.859 15.832 6.824 42.958-1.552 58.849 5.584-1.177-2.949-5.718-4.671-9.45-5.584-2.103-0.514-4.737-0.679-6.872-0.859-4.049-0.342-8.707-0.985-12.887-0.859-1.769 0.053-3.799 0.88-5.585 0.859-1.207-0.015-2.481-0.749-3.865-0.859-3.065-0.246-6.88 0.869-9.021-0.859 3.01-2.857 7.837-0.53 12.027-0.43 6.273 0.15 13.088-0.706 19.33 0 2.962 0.335 5.445 1.953 8.161 1.289-2.918-0.89-5.431-3.24-8.591-4.725-2.085-0.979-5.799-0.867-9.021-1.289-7.893-1.032-18.506-1.063-26.203-0.859-1.02 0.027-3.298 1.586-3.866-0.43 0.929-1.946 3.907-1.592 5.584-1.718 8.087-0.61 14.907-0.315 23.196-0.859-1.077-1.657-3.733-2.132-5.584-2.577-5.075-1.22-10.946-0.866-16.753-1.718-7.51-1.102-20.488 0.492-25.344-2.577-2.122-1.341-3.353-4.092-5.584-5.155-0.996-0.474-2.969-0.882-4.296-1.289-11.548-3.537-24.912-1.362-38.23-0.859-10.717 0.405-22.063 0.219-34.364 0.859-7.832 0.407-20.997 2.845-28.78 1.718-2.134-0.309-5.184-0.402-6.443-3.437 4.647 0.251 9.948-0.593 14.176 0 1.123 0.158 2.274 0.801 3.436 0.859 5.4 0.271 10.976-1.498 16.753-1.718 6.345-0.242 12.881-0.127 19.759-0.43 8.156-0.359 14.226-0.407 22.337-0.859 6.52-0.364 13.188-0.79 18.471-0.43 7.673 0.523 11.748 2.233 16.753 3.437-2.23-2.72-6.79-4.271-9.53-6.449zm229.82-12.027c2.481 1.063 8.788 3.644 8.592-1.718-2.733-0.703-4.972-1.902-7.732-2.577-0.76 0.964-0.21 3.23-0.86 4.295zm-58.85 3.007c0.635 1.799 1.827 3.042 2.577 4.725 0.604 3.019-2.387 7.557 0.43 10.31 1.492-1.658 1.887-4.414 2.577-6.873-0.682-1.179-1.739-1.983-2.147-3.437-0.11-1.685 1.554-1.596 1.288-3.437-0.76-1.258-3.89-4.002-4.73-1.288zm95.79 7.302c1.406 1.313 3.56 1.881 5.154 3.007 1.389-0.33 2.248-1.189 2.577-2.578-1.97-0.628-6.7-4.121-7.73-0.429zm-596.22-1.289c-3.26 2.038-6.571 4.025-8.591 7.303 3.118 1.368 6.992-0.353 10.31-0.859 1.95-0.297 4.772 1 5.584-1.289-1.711-2.442-4.35-3.955-7.303-5.155zm509.02 8.162c1.563-3.895 4.354-0.408 7.303 0-1.924-2.085-3.554-4.465-7.732-4.295 0.07 1.2-0.77 3.807 0.43 4.295zm-493.99 0.43c-4.194 1.392-4.88 5.531-4.725 10.309 2.408 1.47 4.703 2.647 6.443 5.155 1.367 1.968 1.542 5.457 3.866 5.584 1.064-1.514-0.599-3.968 0-6.443-1.079-2.644-5.418-2.028-6.014-5.155 4.566-0.941 7.668 3.18 9.021 6.873 3.081-1.931 5.54-4.483 7.302-7.732-4.594-3.563-10.573-5.746-15.893-8.588zm508.16 3.865c1.585 2.711 1.473 7.118 5.584 7.303 0.076-7.092-4.462-9.57-9.88-11.168 0.45 2.275 2.82 2.625 4.3 3.865zm-524.91 1.289c-0.471-3.866-4.701-2.09-7.732-0.43 1.217 2.076 2.524 4.062 5.155 4.725 1.032-1.531 2.763-2.764 2.577-4.295zm509.88 1.289c2.79 2.921 2.506 8.761 3.866 12.027 1.986-0.878 4.737-0.991 6.443-2.147-0.425-3.584-3.276-4.742-5.584-6.443v-6.014c-1.204-0.514-2.964-0.472-4.726-0.429v3.009zm-66.15 22.337c4.378 1.033 8.576 2.927 12.887 1.718 3.516-0.986 5.56-4.158 8.162-5.584 1.588-4.693 5.116-12.429 1.718-18.041-1.657 0.777-2.998 1.87-4.295 3.007 3.859 5.616-1.168 12.242-4.296 15.034-9.596 4.474-21.387-7.465-13.746-18.041-1.375-0.486-2.849-0.874-4.725-0.859-1.77 7.99-1.1 17.77 4.31 22.76zm-435.14-17.182c0.812 0.096 0.948-0.484 1.718-0.43-0.313-0.976 0.773-3.351-0.859-3.007-0.719 1.085-1.686 1.919-0.859 3.437zm493.99 2.582c-0.44-1.707-0.193-4.103-1.719-4.725 0.06 2.084-0.53 4.825 1.72 4.725zm63.57-1.723c-1.806 7.945-0.506 16.9-1.719 24.914-0.273 1.811-1.097 3.399-1.288 5.155-0.207 1.884 0.344 3.767 0 5.584-0.298 1.568-1.513 3.146-1.719 4.726-0.261 2.002 0.588 4.355 0.43 6.443-0.689 9.093-1.473 18.747-1.289 29.639-1.033 0.541-2.282 0.867-3.007 1.718 1.28 5.534 6.469 8.622 7.303 14.175 0.583 3.881-1.189 7.612-0.859 12.886-1.203 2.574-1.818 5.107 1.719 5.584 1.027-11.042 2.139-20.533 2.577-30.499 0.43-9.781 0.586-19.512 0.859-27.062 0.116-3.221 1.472-7.037 1.288-10.309-0.084-1.506-0.623-2.967-1.288-4.295 2.816-2.881 0.391-7.432 0.43-11.598 0.012-1.343 0.73-2.847 0.858-4.295 0.368-4.147-0.112-8.022 0.43-11.598 0.692-4.566-0.419-9.278 0-13.746-0.024-0.262-0.064-0.509-0.43-0.43-0.64 1.815-2.95 1.936-4.29 3.033zm-524.48-1.289c-2.215 2.224-5.498 3.38-6.443 6.873 3.787 0.938 5.083 4.367 7.732 6.443 1.875-1.321 4.135-2.991 6.014-4.726 1.754-1.619 4.02-3.675 4.295-5.584-3.938-0.93-7.521-2.21-11.598-3.002zm407.64 3.432c2.179 0.828 2.547 3.467 6.014 3.007 0.377-1.914 2.09-2.492 1.718-5.155-2.18-2.722-7.39-0.86-7.73 2.145zm-310.99 1.72c0.973-1.024-0.197-2.328-1.289-2.578-0.93 0.99-0.16 2.68 1.29 2.58zm-131.02 1.72c3.79 1.508 6.529 4.066 10.739 5.154 1.383-5.07-8.89-13.511-10.739-5.15zm478.95-2.15c-2.118 0.148-5.444-0.714-6.443 1.289 1.689 1.122 4.126 0.109 6.443 0 3.65-0.172 8.422 0.747 9.88-1.718-3.59-0.79-6.87 0.22-9.88 0.43zm12.89 5.16c-1.96-0.045-1.752-2.257-3.437-2.578h-4.296c0.136 3.588 4.738 2.708 5.585 5.584-0.301 2.277-1.77 3.386-3.007 4.725-4.895-0.062-10.279 2.335-16.323 3.007-4.975 0.552-10.209-0.643-13.746 0.429-1.075-0.356-1.687-1.177-3.007-1.289-1.979 0.46-3.613 2.528-6.014 3.007-2.599 0.519-5.927-0.286-9.021 0-6.122 0.565-12.958 1.368-17.612-1.289 6.681 8.068 13.649 15.848 15.035 29.21 4.771 0.956 6.681 4.774 9.449 7.732-0.288-2.338 0.787-4.112-0.429-6.873-1.36-0.502-3.023-0.699-3.437-2.147 0.934-1.851 2.244 0.85 3.437-0.43-0.976-0.457-0.164-2.7-0.43-3.866 1.701-1.735 4.301-2.572 6.443-3.866 1.717 1.325 1.943 2.681 4.295 2.577-0.344 1.49 0.641 1.651 0.43 3.007 2.831-0.683 2.596 1.7 4.296 2.148 2.416-1.49 1.023-4.609 3.437-6.443-0.961-0.185-0.174-2.117-0.43-3.007 1.126-1.451 2.733-2.421 3.866-3.866 6.384-1.086 6.439 4.156 9.021 6.873 0.01 1.012-0.74 1.265-0.43 2.577 2.287 0.196 4.524-3.144 8.161-3.007 0.678-1.041 1.537-1.899 2.578-2.577 2.427 2.337 4.607-1.224 8.161-0.43 1.721-3.403 2.585-10.385 1.289-14.175 1.54-2.116 0.175-4.711 0.429-7.302 0.204-2.069 1.799-4.265 1.719-6.443-0.009-0.237-0.825-1.563-0.859-1.718-0.3-1.382-0.006-2.884-1.288-3.866h-1.289c1.01 2.45-0.33 3.92-2.56 4.3zm-67.01-3.87c-3.211 0.803-7.509 1.6-10.31 0.43-2.401 2.466-11.182-1.446-11.168 3.437 2.848-0.303 7.061 0.76 8.591-0.859 4.134 1.706 10.097-0.75 13.316-0.859 0.35-1.21-0.61-1.11-0.43-2.15zm-108.68 2.58c1.072 1.391 3.26-1.318 1.289-1.718-0.17 0.83-1.66 0.34-1.29 1.72zm133.59 2.15c1.597-0.408 3.013-0.997 3.007-3.007-1.28 0.72-2.43 1.57-3.01 3.01zm55.42-0.43c-0.259 4.123-1.16 9.553-3.437 12.887 1.384-0.699 2.327-0.205 3.866 0 0.095-6.201 7.85-10.464 4.295-15.034-1.37 0.91-3.39 1.18-4.72 2.14zm-184.28 28.35c0.26 1.807 1.06 3.455 1.288 5.154 1.757 13.015 0.851 27.079 1.719 41.667 1.175 0.484 2.756 0.265 3.866-0.43-1.332-0.529-2.419-1.304-2.578-3.007 2.891-4.842 5.613-9.852 7.732-15.464-1.215-0.074-2.947 0.37-3.007-0.859-1.179-5.572 0.956-11.342-0.43-16.752-0.502-1.96-2.227-3.33-2.577-5.155-0.702-3.656 0.297-7.705 0-11.168-0.21-2.447-2.333-4.858 0.43-6.443 4.545 4.189 3.731 13.737 9.88 16.323-1.078-9.089-5.092-15.241-9.45-21.048-4.144-0.726-5.375-4.361-8.592-6.014 1.424-1.387 0.611-3.378 0.43-4.725-0.877-0.411-1.699-0.877-2.577-1.289 2.63 8.49 2.41 19.05 3.87 29.22zm18.9-16.75c1.954 2.15-0.371 5.984 2.577 6.873 0.935-5.612-1.898-9.517-0.859-15.894-0.686-0.89-0.933-2.217-2.147-2.578-0.12 4.99 0.93 6.85 0.43 11.6zm-307.99-2.58c2.744-2.9-0.487-8.632-4.725-8.591 1.546 2.89 3.73 5.15 4.725 8.59zm-11.168-2.58c2.59 0.846 4.252 2.621 7.303 3.007 0.332-5.5-6.261-9.46-7.303-3.01zm-14.175 9.88c5.199 2.327 10.487 5.127 15.894 6.873 1.158 0.374 4.367 2.802 5.155 0-10.444-4.304-20.322-9.174-31.357-12.887-2.358-2.224-5.21-3.953-8.162-5.584 4.382 4.85 11.519 8.49 18.47 11.6zm183.85-6.87h2.148c-0.507-1.068 0.199-3.349-1.289-3.436 0.63 2.07-1.07 1.79-0.86 3.44zm170.97 34.79c2.27 0.738 3.03 2.984 5.155 3.866-0.06-1.333 0.368-2.54 0.858-3.437 1.418-2.59 5.036-3.811 5.155-6.014-1.952-0.072-6.824 1.78-7.303-0.859 2.952-2.026 13.237 1.015 14.175-4.296-5.018-0.575-12.793 3.284-15.464-0.43 5.612-2.635 12.942-0.708 19.76-1.718 2.333-0.346 4.231-1.874 6.443-2.578 2.359-0.75 5.146-0.204 6.443-2.148-8.556 0.399-17.973 1.233-25.773 1.719-2.537 0.158-6.439 1.928-7.731-0.43 3.312-2.202 8.114-1.392 12.457-1.718 7.289-0.547 16.196-1.515 23.195-1.718 2.105 2.454 4.745 1.631 7.732 1.718 0.955 0.028 1.868 0.84 3.007 0.859 0.936 0.016 1.825-0.549 2.577-0.43 3.366 0.535 5.053 2.091 7.303 3.437 2.454 1.469 5.367 2.372 7.302 3.866 1.716 1.325 2.406 3.855 4.726 4.295-1.228-10.943-7.56-16.782-12.887-23.625-16.062-10.085-46.997 0.349-64.434-7.732 3.85 10.74 6.42 25.01 7.27 37.37zm-106.96-25.34c2.283-0.724 6.027 0.013 8.162-0.859 1.56-6.792-6.714-7.262-10.31-10.31 0.5 3.94 0.45 8.43 2.15 11.17zm18.9-1.29c3.2-0.666 7.123-0.609 10.31-1.289-1.696-4.461-5.129-7.185-11.169-7.302 0.06 2.5 0.83 5.01 0.86 8.59zm249.57-2.58c-0.597-2.983-3.526-3.633-7.303-3.437 1.3 2.28 5.32 1.84 7.3 3.44zm-234.97 3.01c1.719 0.544 1.642-2.902 0.859-3.437 0.19 1.63-2.08 2.09-0.86 3.44zm289.95 1.29c0.538 7.001-0.194 11.402 1.288 17.182 3.938-1.023 1.979-6.016 2.148-9.88 0.165-3.793 2.246-6.954 1.288-9.45-1.58 0.71-2.54 2.05-4.73 2.15zm-234.11 24.48c-0.468 0.789-2.372 1.071-1.289 2.147 1.974-1.75 3.467-3.979 8.161-3.007-0.155-6.66-2.469-11.741-2.147-18.041-2.215-1.079-3.783-2.803-6.443-3.437-0.6 7.16 2.23 15.06 1.72 22.34zm67.44-13.31c-1.292-0.306-2.081-1.119-3.007-1.289-5.552-1.019-11.991 0.729-16.322 2.148-4.738 1.552-8.888 3.045-11.169 6.014 2.807-0.498 4.294 2.943 6.873 3.007 1.953 0.048 4.252-2.577 6.443-3.866 6.679-3.928 14.901-5.654 24.484-3.007-1.02-2.85-4.26-2.29-7.29-3zm53.27 3.86c0.46 1.258 1.219 2.217 0.858 4.295 1.83 0.461 3.199 1.383 5.584 1.289 0.01-3.621-0.007-6.882-1.288-8.162-2.06 0.51-3.46 1.69-5.15 2.57zm-48.11 1.29c-15.905-3.654-26.26 9.572-33.076 17.612 1.739 1.046-0.41 1.803 0 3.866-1.51 1.354-4.475 1.253-6.873 1.718 1.795 3.116 5.216 0.041 7.303-0.43 0.082 2.802-0.889 4.553-3.866 4.296 1.907 3.247 3.688 6.622 3.007 12.457 2.774-0.376 4.077-2.223 7.303-2.148-0.116-3.69-0.534-7.531 0.43-12.027 0.328-1.531 2.447-4.851 3.007-6.014 0.364-0.758 0.123-2.006 0.43-2.578 0.629-1.174 2.055-2.423 3.007-3.866 2.574-3.904 4.482-6.521 8.161-8.591 8.707-4.9 20.403-0.655 23.196 6.873 0.643 0.073 1.585-0.153 1.718 0.43-1.16 5.572 2.278 10.239 0.859 16.323 2.678-0.616 2.54-4.047 2.577-7.302 0.382-0.907 1.832-0.746 1.719-2.148-0.261-0.742-2.038 0.033-2.148-0.859-1.777-6.813-4.198-12.984-9.021-16.753-0.08 1.208-0.747 1.83-2.147 1.718-2.03-0.86-3.89-2.19-5.59-2.58zm149.06 0.86c-1.239 7.429-0.786 20.294-1.289 31.357-0.529 11.653-1.487 20.903-1.718 31.787 2.227 0.545 4.896-1.898 7.731-2.147-3.712-9.917-4.338-20.13-2.147-28.78 0.442-1.748 1.741-3.003 2.147-4.725 1.145-4.852 0.271-9.426 2.147-13.746-2.057-5.102-3.873-10.445-6.442-15.035-0.61 0.06-0.34 0.7-0.43 1.29zm-116.84 3.01c0.071-0.5 0.679-0.466 1.288-0.429-0.408-1.453-1.466-2.257-2.147-3.437-0.73 0.94-0.21 3.38 0.86 3.87zm45.1-1.72c1.933-0.216 4.794 0.498 4.726-1.719-1.1-0.65-5.17-0.6-4.73 1.72zm95.36-1.72v1.289h2.577c0.1-1.45-1.6-2.22-2.58-1.29zm-132.3 6.44c1.222 0.147 6.194 1.679 6.014-0.859-2.021-0.269-2.972-1.61-4.725-2.148 0.01 1.44-1.39 1.47-1.28 3.01zm-5.16 5.59c2.647 0.204 3.131-4.015 2.147-6.014-1.54 1-3.55 3.46-2.15 6.01zm20.19 0c-1.447-0.986-0.65-4.217-2.147-5.155-0.855 1.006-3.104 0.618-3.866 1.718 0.034 1.618 0.324 4.738 0 6.443 1.257 0.891 2.792 1.504 4.726 1.718 1.02-0.99 0.46-3.56 1.29-4.73zm-43.81 3.86c-3.729-3.054-6.675-10.81-13.746-7.732-0.929 0.969-1.465-0.355-3.007 0-6.696 3.86-11.495 11.378-9.45 21.478 1.267 1.741 3.308 2.706 3.437 5.584 3.301 3.629 7.222 4.729 12.457 6.873 8.97-3.67 11.56-15.9 10.31-26.2zm46.82-6.01c-0.809 3.529 1.882 3.56 2.148 6.014-1.785 5.518-2.361 12.244-3.866 18.042-2.226 0.924-3.49 2.811-4.726 4.725 3.045 1.362 4.075-2.719 6.443-3.437 0.095-1.383-0.76-1.817-0.43-3.437 4.295-7.172 8.56-21.47-1.718-24.484 0.36 1.23 1.17 1.99 2.16 2.58zm55.84 0.86c-0.297-1.995-2.122-2.46-3.866-3.007 0.35 1.81 2.52 3.59 3.87 3.01zm-73.88 0c1.911 0.353 1.336-2.597 0-2.578 0.21 1.35-0.94 1.68 0 2.58zm-103.1 0.86c-0.177-1.035 0.784-0.934 0.429-2.147-2.898 0.321-4.463-0.691-7.302-0.43 1.41 1.74 4.83 1.47 6.87 2.58zm4.3-1.72c1.202 4.932-0.725 8.688 1.289 13.746 3.474-1.824 4.393-6.203 6.443-9.45-2-1.78-4.83-4.84-7.73-4.3zm228.95 5.58c1.672-0.762 3.163-1.705 3.437-3.866-2.46-0.02-2.55 2.33-3.44 3.87zm-243.99-0.86c1.931 0.218 1.413-2.25 0-2.147-0.55 0.57-0.55 1.59 0 2.15zm189.01-0.42c2.013 1.853 5.103 2.629 8.592 3.007 0.479-1.239 0.772-2.664 0.858-4.296-2.51-0.4-8.78-1.51-9.45 1.29zm-199.74-0.86c0.355 1.542-0.968 2.078 0 3.007 1.584-0.278 2.253-1.47 2.578-3.007-0.9-0.94-1.23 0.21-2.58 0zm42.09 4.72c1.795 0.964 5.01 3.491 7.303 1.289 1.35-6.11-8.09-8.48-7.3-1.29zm-27.06-2.58c-3.265 0.172-5.105 1.768-8.162 2.148 0.692 5.475 6.188 2.463 10.31 2.147 0.958-1.188 1.936-3.179 1.288-4.725-1.57 0.283-1.647-0.929-3.007-0.859-0.95 0.61 0.54 1.04-0.43 1.28zm183.85 9.02c-0.314-2.715-1.163-6.387 0-8.162-1.551-0.871-1.871-2.804-4.296-1.718-1.708 3.226 2.271 11.481-2.147 12.887 0.133-1.564-0.068-2.795-0.43-3.866-1.54 0.095-1.607 1.875-2.578 3.437-0.635 1.022-2.632 3.218-2.577 3.866 0.134 1.574 3.556 1.631 3.007 3.866 0.312 1.314-0.74 1.264-0.43 2.578 1.794 2.353 2.483 4.52 1.289 8.162-6.825 2.052-3.885 13.871-5.584 21.048 3.069-0.697 9.222-1.914 13.316-3.007-0.878-5.552-1.376-9.081 0-14.604-2.811-3.017-2.753-6.604-3.866-11.598 1.265-1.931 1.424-4.2 2.577-6.014 1.111-1.747 3.336-2.595 3.866-4.725 0.32-1.76-1.41-1.46-2.15-2.16zm-164.95-6.01c2.345-0.334 4.946-0.943 6.014-2.148-0.808 0.042-2.866-0.331-3.866-1.289-0.83 1.03-2.54 1.17-2.14 3.44zm99.23 10.74c-1.642-2.582-2.314-5.827-3.865-6.443-1.747-5.331-7.191-5.39-13.316-5.584-2.213-3.762-7.023-1.046-8.592 1.718 1.313 0.31 1.566-0.439 2.578-0.43 2.258 3.689 3.359 6.646 6.443 3.007 0.483 1.299 0.326 2.31 0.429 4.725 2.728 1.568 5.236 3.355 6.443 6.443-1.093 0.346-1.96 2.208-1.288 3.007 3.173-0.469 1.883-2.748 2.147-4.725 0.003-0.021 0.712-0.876 0.859-1.289 0.609-1.702 0.073-2.853 0-4.296 0.552-0.736 0.888-1.689 2.147-1.718 1.509 2.69 4.458 6.075 3.437 9.879 1.604 0.687 1.91 2.672 3.866 3.007 4.61-2.06 0.56-4.4-1.29-7.31zm73.02-4.3c-1.31 0.552-1.473 2.25-1.288 4.295-1.508 1.011-2.789 0.583-4.296 0.859-2.731 3.786-5.016 10.876-1.289 15.464 0.863-4.607 0.065-13.068 3.866-13.316 0.378 2.68-2.671 4.188-1.288 6.443 1.55-1.572 1.975-4.786 3.437-6.873 0.857-1.226 2.908-3.606 4.725-2.577 0.421 1.554-1.63 2.506-2.577 3.866-4.087 5.869-7.212 13.96-2.577 21.048-1.419 1.844-2.572-0.186-4.296-0.429-0.861 1.96-1.109 4.159 0 6.014 4.522-0.119 7.417-3.469 11.598-2.578 0.195-3.384 0.59-6.569 2.577-8.161 0.311-1.313-0.438-1.565-0.429-2.578-2.864-1.145-5.66-2.358-6.014-6.014 3.993-1.664 6.365 1.207 7.302 3.437 1.744 4.149 4.405 10.215 5.155 15.034 0.289 1.861-0.826 3.702 0.858 4.725 1.22-3.222 1.541-7.32 1.719-10.739 0.416-8.015-2.054-8.599-5.155-13.746-1.938-3.218-2.238-5.996-3.437-8.162-2.19-1.532-4.761-2.685-6.014-5.155-0.839-1.372 0.483-3.635 0-6.014-0.942-0.489-1.755-1.108-3.436-0.859 0.41 2.5-0.51 4.15 0.86 6.02zm-170.1-1.28c-0.997-0.722 0.412-3.849-1.718-3.437-1.833 2.034-4.428 3.305-6.015 5.584-1.86 1.576-4.129 2.743-5.154 5.155 2.733-1.84 5.335 0.456 8.161 0.43 4.518-0.042 8.09-3.729 12.028-3.437-0.132 1.3-1.329 1.535-0.859 3.437 0.41 0.735 1.426 0.865 1.718 1.718-0.209 4.348 3.111 7.02 1.719 11.168 3.827-0.359 2.957-5.708 2.577-9.021-0.386-3.357-2.391-6.458-2.147-9.021-2.81-1.5-8.67 0.06-10.32-2.57zm-27.06 7.3c2.828-2.469 6.295-4.3 7.731-8.162-4.45-0.82-6.91 3.93-7.73 8.16zm123.28-8.16c1.658 4.068 3.985 7.469 6.872 10.31 0.248-0.898 1.065-1.226 0.859-2.578-0.624-0.235-2.22 0.502-2.147-0.429-1.076-2.504-2.179-4.981-3.007-7.732-1.05-0.06-2.06-0.07-2.57 0.43zm45.96 10.31c1.016 2.065 2.887 4.829 6.014 3.437-1.26-2-3.78-6.28-6.01-3.44zm-28.78 118.12c-6.577-15.76-19.724-24.95-31.357-35.653-0.954-0.995-1.675 0.146-3.007 0-2.326-3.332-6.161-5.307-9.45-7.732-3.383-2.495-7.15-4.585-10.739-6.873-1.733-1.105-3.05-2.839-4.725-3.865-1.836-1.125-4.059-2.057-6.014-3.007-6.021-2.929-11.413-5.457-17.183-8.162-8.93-4.187-17.107-9.31-25.773-13.316-10.936-5.056-21.105-10.53-32.216-15.034-3.778-1.531-7.803-2.722-11.599-4.295-3.722-1.543-7.433-3.449-11.168-4.725-6.669-2.279-13.69-3.496-20.619-5.584-8.239-2.483-18.513-4.714-26.203-6.443-5.031-1.131-9.717-0.694-15.035-1.289-3.782-0.423-7.325-2.053-11.168-2.147-1.171-0.029-2.236 0.776-3.437 0.859-2.851 0.196-5.872-0.738-9.021-0.859-3.625-0.139-7.826-0.24-11.598 0-0.92 0.058-1.774 0.817-2.578 0.859-1.06 0.056-2.068-0.479-3.007-0.43-5.427 0.283-9.721 1.363-14.175 1.718-7.476 0.596-15.312 0.416-22.766 1.718-1.84 0.322-3.666 1.393-5.584 1.718-4.026 0.683-8.335 0.667-11.598 1.718-4.56 1.469-8.194 4.636-12.027 6.443 4.317-0.21 8.745 1.975 12.887 2.577 1.688 0.246 3.489-0.213 5.155 0 5.92 0.76 12.226 4.483 18.471 6.873 6.398 2.448 13.107 4.217 18.471 6.873 5.715 2.83 11.46 5.767 16.753 8.591 5.699 3.04 11.607 5.476 15.464 9.88 9.346 4.861 17.313 12.138 26.203 18.041 4.362 2.896 8.29 6.23 12.028 9.88 3.878 3.786 8.084 6.883 12.028 10.309 4.46 3.875 8.128 9.107 12.457 13.316 6.268 6.095 11.674 11.519 15.894 18.471 0.916 1.511 3.364 4.089 1.288 6.015-1.945-0.26-1.775-2.322-2.577-3.437-0.257-0.357-1.033-0.488-1.289-0.859-1.21-1.759-1.797-3.957-3.007-5.584-0.981-1.321-2.608-2.036-3.865-3.437-1.124-1.253-1.904-3.013-3.007-4.296-2.224-2.587-5.385-4.362-7.732-6.873-0.46-0.491-0.363-1.551-0.859-2.147-3.192-3.846-7.604-8.042-11.168-11.169-1.455-1.275-3.568-2.081-5.155-3.437-5.341-4.56-9.399-9.757-15.034-13.745-3.384-2.396-6.809-4.683-9.879-6.873-1.088-0.776-1.861-1.711-3.007-2.577-2.282-1.726-5.137-2.655-7.302-4.296-2.665-2.019-4.308-5.008-8.162-5.584-7.854-6.969-18.306-10.563-27.921-15.894-9.747-5.403-20.973-7.638-30.499-13.316-3.357 0.242-6.238-2.093-9.45-2.577-2.044-0.308-4.355 0.458-6.443 0-1.242-0.272-2.247-1.085-3.437-1.289-2.71-0.463-5.562 0.22-8.161-1.289-5.628 1.817-9.281 5.61-12.028 10.309 3.032 0.397 5.635-1.735 9.021-1.289 2.783 0.367 6.248 2.134 9.45 3.007 3.367 0.918 6.024 1.992 9.021 3.437 9.797 4.722 20.071 9.834 29.209 14.604 1.328 0.693 2.515 1.748 3.866 2.578 2.692 1.651 5.606 2.786 8.162 4.295 1.91 1.128 3.735 3.445 5.155 4.296 1.024 0.613 1.824 0.268 2.577 0.858 1.025 0.806 1.787 1.897 2.577 3.008 4.205 1.877 8.073 4.876 11.598 7.731 4.49 3.637 9.393 7.209 13.746 10.31 3.083 2.195 5.794 3.96 8.591 6.014 3.736 2.744 7.771 5.493 10.309 9.45 5.14 2.587 8.55 7.55 12.887 11.168 4.489 3.746 9.123 7.335 12.887 11.599 7.584 8.589 15.523 16.89 21.478 27.062 4.002 9.363 5.904 21.396 9.021 31.357 0.794 2.535 1.407 5.977 3.866 7.303 0.95-6.911-2.507-12.924-0.43-19.33-2.464-3.268 0.191-8.057 2.148-11.598-0.263-1.456-2.748-0.689-2.578-2.577 4.743-4.573 8.4-11.378 14.605-16.323 1.388-1.106 3.141-1.886 5.154-3.007 1.769-0.984 3.514-2.523 5.155-3.437 1.123-0.626 2.671-0.673 3.865-1.289 2.272-1.171 4.178-3.109 6.443-4.295 7.013-3.671 16.178-7.387 24.056-9.021 9.128-1.894 19.671-3.203 27.491-4.295 9.007-1.258 18.837-2.712 27.921-2.148 9.057 0.563 15.744 1.624 23.196 3.866 6.154 1.852 11.157 3.84 15.894 6.873 1.064 0.682 1.904 1.83 3.007 2.577 1.466 0.993 3.047 1.325 3.866 2.148 1.747 1.757 2.931 4.812 4.295 6.872 1.471 2.221 2.665 4.707 5.155 6.014-0.55-5.58-4.77-11.21-7.71-15.88zm97.08-104.38c0.987-3.614 1.975-7.689 0.859-12.457-1.42 3.66-2.23 9.02-0.86 12.46zm-146.91 4.73c0.775 4.756 0.824 9.427-0.43 13.746-1.211-0.077-0.536-2.042-2.147-1.718-0.471 1.749-0.391 2.915 0.43 4.296 2.109-0.589 5.191-0.589 7.302 0-0.985-7.95-1.462-13.757 0-21.478 1.642-2.225 1.272-6.459 2.577-9.021-0.99 0.131-0.477-1.241-1.288-1.289-5.2 2.95 0.75 13.83-6.44 15.46zm-66.15-12.89c-0.311 1.312 0.439 1.565 0.43 2.577 2.88-0.784 5.838-0.864 9.45-1.718 0.655-1.346-0.12-2.373-1.289-3.007-2.22 1.39-5.74 2.69-8.59 2.15zm-398.63 0.86c1.401 0.112 2.067-0.51 2.148-1.718-0.99-0.94-2.397 0.13-2.148 1.72zm497-1.72c-0.874-0.659-2.954 0.226-3.437 1.289 0.354 1.65 3.879 0.129 3.866 2.147 0.98 9.542-0.06 17.543 0 26.203 1.79 0.216 1.895-1.255 3.865-0.859 2.57-10.5-0.26-22.12-4.3-28.78zm-42.53 5.58c1.569 1.581 4.422 1.878 6.443 3.007-0.227-2.637 0.491-6.218-0.43-8.162-3.34 0.37-4.35 3.09-6.01 5.15zm-67.01-3.43c1.236 4.252 0.54 7.781 1.289 12.458-0.271 1.734-2.106 1.902-2.577 3.436 0.11 3.898 1.858 6.16 5.154 6.873 0.424-2.375 0.595-5.271-0.43-7.302 3.51-3.078 3.682-9.492 3.866-15.894-3.5 0.38-4.82 0.42-7.3 0.42zm67.87 5.15c-0.024 0.262-0.064 0.509-0.43 0.43-3.749-0.672-7.157-3.114-10.739-3.866-0.583-0.122-1.61 0.545-2.577 0.43-0.969-0.115-1.562-1.296-2.147-1.289-1.912 0.023-3.78 1.572-6.014 1.289 0.03 2.375 2.838 1.575 4.295 2.148 3.408 1.339 6.752 2.567 10.739 3.866 2.456 0.8 4.713 1.713 6.873 2.148 1.587 0.319 3.798-0.46 4.725 1.289-0.373 1.059-1.001 1.863-2.577 1.718-0.142 3.151 0.66 7.246-1.288 8.591 1.302 0.702 2.045 1.963 3.865 2.147 1.113-2.467 1.167-5.993 1.719-9.021-0.486-1.089-2.071-1.079-1.719-3.007 1.509 0.339 1.413 1.207 2.578 0v-2.148c-1.66-2.21-6.91-2.63-7.31-4.73zm-364.26 7.31c-1.95 2.324-3.462 6.164-3.866 9.879-0.297 2.739-0.211 7.707 0.43 9.451 1.544 4.199 5.419 11.035 7.732 12.027 0.502 0.216 2.951 0.293 4.295 0.43 1.529 0.154 3.06 0.469 3.866 0.43 6.05-0.294 14.748-5.322 18.042-10.31 1.722-2.607 1.954-5.969 2.577-9.45 0.366-2.046 1.654-3.643 1.718-4.726 0.158-2.657-2.503-9.229-3.007-12.027-2.613-1.418-4.44-5.255-8.162-6.443-7.228-2.307-15.658 1.078-18.9 5.584-1.547-0.151-2.07-0.657-3.437 0-0.54 1.61-1.13 3.17-1.29 5.16zm277.06-8.59c1.215-0.529 2.651-0.529 3.866 0 0.064-1.067-0.222-1.783-0.859-2.148-0.62 1.1-2.69 0.74-3.01 2.15zm-222.08 0c-3.643-2.283-5.864 2.181-8.591 3.437-1.505 5.346-6.188 10.488-6.014 16.323 0.048 1.614 0.423 4.649 2.148 6.014 3.843-2.95 7.968-5.989 12.027-8.161 1.332-0.713 3.568-0.872 4.296-2.578-2.644-3.273-6.755-3.133-8.591-0.429-1.114 1.641 0.201 5.864-3.437 5.154-0.9-2.544 1.835-4.49 0.43-7.732 2.366-2.932 4.263-6.333 8.591-7.302 0.12-1.99-0.01-3.72-0.87-4.72zm267.19 3.86c-0.354-1.214 0.605-1.113 0.43-2.147-0.508-0.495-1.519-0.486-2.577-0.43-0.34 1.91 0.4 2.75 2.15 2.58zm72.59 0.43c1.838 0.502 1.838-3.509 0-3.007-0.21 0.98-0.85 2.2 0 3.01zm-70.02 2.15c-1.375 0.765-2.167 0.833-3.865 0.429-3.388 3.58-10.863 0.55-13.746 4.296 2.468 0.683 4.427 1.873 6.443 3.007 3.537-0.184 6.485-1.47 9.88-2.148 1.083-0.216 2.335 0.379 3.437 0 1.802-0.621 4.467-1.441 6.873-1.718 2.307-0.266 4.954 0.645 6.872-1.289-1.802-1.977-4.575-3.533-7.731-3.437-2.602 0.08-5.683 3.248-7.303 0.43 0.327-0.675 1.362-0.642 1.289-1.718-0.553-0.736-0.889-1.689-2.148-1.718-1.73 1.37 0.14 1.85 0.01 3.87zm-36.08 6.87c-0.834-1.313-0.158-4.137-2.148-4.295-1.33 2.07-0.63 4.19 2.15 4.29zm201.03 5.59c-2.617 0.592-2.638 5.385-2.577 7.302h2.577c1.56-4.568 5.199-13.295 0.43-16.752-0.07 3.99-0.19 5.44-0.43 9.45zm-175.26-2.58c-0.593 1.357 0.183 3.014 0.858 4.296-1.16 0.987-1.515 2.781-1.718 4.725 4.51 2.506 9.729 4.304 14.175 6.873 0.861-2.146 4.623-1.392 6.873-2.147 1.649-1.511 1.389-4.427 0.43-6.443 1.675-4.912 7.27-5.903 8.161-11.598-9.57-0.25-19.24 3.08-28.78 4.3zm39.09-1.72c1.463 0.398 2.52 1.203 4.726 0.859 0.94-4.6-4.79-4.8-4.73-0.86zm-384.45 2.58c-2.347-0.187-4.875-1.145-7.302-1.289-6.656-0.396-11.215-2.191-16.323-3.007-0.096 0.333-0.012 0.847-0.429 0.859-0.693 1.025-3.785-0.348-3.866 1.289 1.604-0.171 2.521 0.343 2.577 1.718-1.467 1.283-5.1-0.09-5.584 3.007 2.008 0.464 2.795-1.714 4.295-0.429 0.274 2.231-0.947 3.442 0 5.154 4.989 1.919 11.961 0.43 18.042 1.289 3.661 0.518 8.295 0.799 12.457 0.859 6.702 0.098 11.088-0.553 16.323-2.148 0.042-3.794 1.32-4.025 2.147-7.302-7.552-1.77-15.028 0.58-22.337 0zm464.35-3.87c-1.541 3.055-0.382 7.009-0.859 9.88 1.559 0.418 2.229 1.328 3.437 1.719 0.559 0.181 3.044-1.928 2.147 1.288-2.88 0.16-4.52-0.921-7.302-0.859-0.554 1.165-1.052 2.386-0.859 4.296 1.69-1.029 3.452-1.988 5.584-2.577 0.933 0.356 0.956 1.621 2.148 1.718 1.116-1.174 1.298-3.283 3.437-3.437-0.896 4.636-4.647 6.693-5.585 12.028-1.202 6.847-0.012 13.419 0.43 18.471 0.214 2.443 1.858 5.966-0.859 7.303-2.938-1.201 0.009-6.415-1.288-8.592-2.305-0.3-1.883 2.127-3.866 2.148-0.539-1.752-4.246-0.337-3.437-3.437 2.389-0.574 5.039 1.046 6.873-1.289-0.714-7.799-0.459-16.245 2.577-21.478-3.258 0.895-4.014 4.291-6.443 6.014-0.977-1.164-1.474-1.527-0.858-3.437-2.909 1.045-1.765 5.595-2.578 8.591-0.306 1.126-1.143 1.867-1.288 3.007-0.734 5.748 1.149 12.212-1.289 16.753-1.349 0.204-1.755-0.535-2.147-1.289 1.97-5.456 0.515-11.115 1.288-16.752 0.126-0.913 1.074-1.747 1.289-2.577 0.242-0.939-0.178-2.02 0-3.007 0.86-4.775 3.844-8.874 4.726-12.887-3.472-0.969-4.201 1.958-5.585 3.865-0.784 1.082-4.88 4.613-5.584 4.726-2.46 0.392-2.97-1.354-5.584-2.147-0.831 1.029-2.411 1.312-2.577 3.007 2.406 2.604 3.346 6.676 6.872 8.161 1.602-2.694 1.566-7.025 4.726-8.161 0.068 5.669-3.941 10.267-5.584 15.894-0.711 2.435-0.802 5.015-1.289 7.731 1.217 0.787 3.345 0.665 4.296 1.719-3.252 2.546-1.272 7.488-0.859 11.168 0.941 8.376 2.97 17.99 5.584 24.484-0.081 1.208-1.401 1.176-1.718 2.148 2.223 1.5 2.536 4.909 4.295 6.872 1.744-0.404 2.301-1.994 3.866-2.577 1.11-5.791-0.419-11.211-0.43-16.323-0.003-1.463 0.646-2.806 0.43-4.295-0.341-2.355-2.243-5.389-3.007-8.162-0.52-1.887-0.344-3.818-0.859-5.154-0.574-1.491-2.878-2.511-2.147-4.296 2.44-0.006 2.541 2.327 4.296 3.007-0.334-1.479 0.239-2.052 1.718-1.718 2.556 3.263 2.562 7.595 3.437 12.027 1.736 8.8 5.205 18.173 4.726 27.921 2.236 0.197 4.476 0.393 6.443 0.859-0.826-6.588 1.576-12.071 0.858-17.182-0.013-0.093-0.772-0.547-0.858-0.859-1.292-4.672-3.884-7.926-3.437-12.027h2.577c0.39-3.346 1.412-7.824 0.43-11.169-0.758-0.674-2.743-0.12-3.007-1.288 1.092-2.202 4.901-1.686 8.161-1.719 1.607-1.655 0.339-3.941-0.43-5.584-1.026-0.262-3.116 0.539-3.437-0.43 0.253-3.757 2.557-5.463 3.437-8.591 0.014-1.303-2.161-0.416-2.147-1.719-0.115-3.854-2.864-11.365 1.718-12.457-1.062 3.781 0.805 5.684 1.719 8.591 1.702 0.666 2.625-1.624 3.437-0.429-1.035 4.577-5.143 8.278-4.726 12.886 3.669-4.062 9.431-6.033 11.599-11.598-3.537-4.338-7.754-7.996-9.88-13.746-6.75-1.102-12.744-4.902-9.45-12.457-1.92-1.36-3.48-3.09-7.31-2.55zm-372.85 4.73c-3.868 1.002-7.389 1.936-9.88 5.154 7.886-2.946 10.497 6.242 19.33 5.154 1.751-2.569 2.474-6.16 3.866-9.02 0.799-1.642 2.907-2.877 2.148-4.725-6.27 0.06-11.38 2.38-15.47 3.44zm277.49 5.15c0.912 1.595-0.944 3.44 0.859 4.296 3.151-4.151 5.971-8.634 9.45-12.458-5.79 0.37-6.86 5.45-10.31 8.16zm4.73 3.87c1.959 1.047 4.735 1.277 6.443 2.577 1.342-5.244 5.038-8.134 7.731-12.027-1.591-1.13-5.016-0.426-6.443-1.718-2.62 3.68-6.45 6.15-7.73 11.17zm131.87-8.6c-3.235 10.945-6.06 24.576-6.873 36.512 2.22 0.215 3.368 1.5 5.584 1.719 1.647-3.523 1.683-7.26 3.007-10.739 1.028-2.7 3.363-4.858 3.866-7.732 0.213-1.217-0.328-2.627 0-3.865 0.68-2.562 3.086-4.404 4.296-7.303 1.29-3.091 1.307-6.032 1.288-9.88-3.46-3.04-6.76 0.72-11.18 1.28zm-360.4 39.1c0.286-3.682 2.608-8.667-0.43-10.738 0.508-0.495 1.519-0.486 2.577-0.43-0.193-2.198 1.026-2.983 1.289-4.726-2.046 0.042-2.038-1.972-3.866-2.147-1.341 5.47-2.46 10.092-3.007 15.464 0.77 1.24 1.88 2.14 3.44 2.59zm-42.09-27.5c-0.783 1.078-2.936 0.787-3.007 2.577-0.315 1.896-0.26 2.893-0.859 5.155 2.12 3.568 4.979 6.201 7.732 8.591 3.412 2.961 6.182 6.645 9.45 9.45 9.275 7.962 18.629 15.318 27.491 23.195 4.486 3.988 9.578 7.31 13.316 12.028 3.121 1.747 6.031 3.705 7.732 6.872 4.867 2.579 7.504 7.388 12.887 9.451 2.767 4.93 8.644 6.446 12.457 10.309 0.887 0.898 1.192 2.494 2.148 3.437 2.335 2.301 5.81 3.939 8.591 6.014 2.783 2.075 5.6 4.239 7.732 6.873 5.237 2.627 10.108 6.27 15.034 9.45 2.516 1.625 4.98 3.43 7.302 5.154 2.362 1.754 4.266 4.864 6.873 4.726 2.312 3.985 6.941 6.388 10.309 9.021 1.211 0.947 2.205 2.61 3.437 3.437 1.297 0.869 3.295 1.331 4.726 2.147 1.572 0.897 2.777 2.094 4.295 3.007 4.715 2.837 9.708 4.61 14.176 6.443 4.905 2.013 9.508 3.774 13.746 6.443 1.96-0.242 2.675 0.762 4.725 0.43v0.859c0.355 1.077 1.505 1.358 2.147 2.147h4.296c1.376 1.659 3.505 0.91 5.584 1.289 5.743 1.047 11.381 2.467 16.753 2.577 12.344 0.253 26.721 0.279 39.09-1.718 5.657-0.914 11.18-2.346 16.752-3.437 11.941-2.339 23.946-3.641 33.506-9.021-7.795-1.178-14.326 4.83-21.907 3.865-6.489 3.534-15.217 4.83-24.485 5.585-2.497 2.099-6.404 0.99-10.738 1.288-6.577 0.453-16.784 2.539-24.485 2.147-1.432-0.072-2.873-0.824-4.295-0.858-9.809-0.238-19.27-0.367-26.633-4.296 0.078 0.938-0.352 1.366-1.288 1.289-5.413-2.395-9.582-4.888-12.887-9.45-1.558-2.149-3.182-4.962-4.296-7.732-1.705-4.24-2.459-9.354-4.296-13.746-1.907-4.564-5.437-7.875-6.014-12.457-2.203-2.421-3.636-5.294-5.154-8.161-1.555-2.936-3.282-5.393-5.154-8.161-3.599-5.321-6.773-10.926-11.169-15.465-4.698-4.852-10.038-9.485-15.464-14.175-6.269-5.417-12.737-11.689-18.9-16.323-2.305-1.733-4.28-3.092-6.443-4.725-10.091-7.616-19.749-15.683-30.069-22.337-4.635-2.989-9.145-6.572-14.175-9.021-2.264-4.141-6.821-5.215-10.739-7.302-5.807-3.094-10.767-7.981-17.612-9.45-1.224-2.102-3.335-2.271-5.584-3.007-5.154-1.686-10.99-6.816-16.752-5.584 0.447 1.701 2.624 1.672 4.725 1.718 3.969 2.188 9.064 3.25 12.027 6.443 7.25 2.074 13.101 5.9 18.901 9.45 2.905 1.778 5.735 3.543 8.591 5.584 2.72 1.943 5.445 4.786 9.021 5.584 5.761 5.982 14.107 9.79 20.619 15.465 1.231 1.072 1.703 2.53 3.007 3.436 1.098 0.763 2.656 0.983 3.866 1.719 1.222 0.742 2.363 1.496 3.437 2.147 5.726 3.475 10.638 8.717 15.464 12.457 1.206 0.935 2.75 1.253 3.866 2.148 1.108 0.889 1.807 2.294 3.007 3.437 1.138 1.083 2.661 1.963 3.866 3.006 3.886 3.368 7.007 7.154 10.31 10.31 3.293 3.147 7.167 5.407 10.309 8.592 2.949 2.988 5.529 7.184 8.162 10.738 5.56 7.507 8.848 13.875 13.316 22.337 3.809 7.212 7.617 15.386 9.88 23.196 0.904 3.124 3.164 7.425 0.858 10.31-8.908-3.835-16.718-8.77-23.625-14.605-2.14-0.724-4.329-1.398-5.584-3.007 0.43-2.291-0.733-2.989-1.289-4.296 3.589-1.518 2.083-5.791 2.577-10.309 0.454-4.148 1.718-9.203 1.718-13.746 0-3.022 0.159-7.377-2.577-8.591-2.649 9.56 0.545 24.372-3.007 34.364-7.079-4.089-10.779-11.558-19.33-14.176 0.491-1.259 0.253-1.595-0.859-2.147 0.12 1.253-0.104 1.477-0.859 0.859-10.585-8.315-21.231-16.569-30.928-25.773 1.212-0.936 3.105-1.189 4.725-1.718 1.224-11.383 2.597-24.887 4.725-33.936-3.133-1.523-2.958 1.395-3.437 3.437-0.459 1.963-0.729 4.97-0.859 6.873-0.502 7.381-1.739 11.88-2.577 18.041-0.259 1.905 0.585 3.86-0.859 5.155-2.042 0.165-3.098-0.909-4.725 0-4.534-4.058-9.202-7.98-14.175-11.599 0.36-2.078-0.399-3.037-0.859-4.295-1.727-1.073-1.701-0.289-3.866 0-4.774-5.536-11.577-9.042-16.323-14.605 0.188-0.998 1.896-1.149 0.859-2.147-4.981-0.627-6.95-3.506-9.879-6.014-1.812-1.551-3.98-3.086-5.155-5.154 1.054-1.053 2.477 0.932 2.577-0.859-0.591-3.457 1.898-6.006 2.148-9.88-0.861-1.001-1.286-2.438-3.437-2.147-1.462 3.979-0.559 10.322-3.007 13.315-1.424-0.008-0.436-2.428-1.289-3.007-3.49-0.376-4.088-3.644-8.162-3.437-0.798-0.776-0.981-2.169-1.289-3.437-4.472-3.832-9.156-7.453-13.316-11.598-7.199-1.392-9.153-8.028-14.175-11.598 0.913-0.662 1.6-1.551 2.577-2.148 0.404-2.89 2.342-4.244 2.578-7.302 0.459-0.98 2.8-1.369 1.718-2.577-2.96 0.08-3.18 2.86-3.88 5.16zm287.37-11.16c-2.813 1.333-10.636 10.002-5.584 13.316 2.456-4.417 5.845-7.901 8.161-12.457-1.36 0.2-1.68-0.62-2.58-0.86zm-3.44 13.74c-0.176 1.035 0.785 0.934 0.43 2.147-0.508 0.495-1.518 0.486-2.577 0.43 0.593 2.459 1.298 3.582 1.719 6.873-0.155 1.619-2.692 2.473-1.289 4.296 2.323-1.257 4.58-2.579 8.591-2.148 2.587-5.86 2.897-13.998 5.584-19.759-3.11-9.62-10.23 5.02-12.45 8.16zm136.6-7.3c2.136 0.685 4.383 0.111 5.585-1.288-2.68-0.46-5.75-4.47-5.59 1.29zm7.73-0.86h2.147c0.18-1.468-0.13-2.447-1.718-2.147-0.36 0.5-0.57 1.15-0.43 2.15zm-35.65 0c1.662 0.926 3.454 3 5.584 2.148-0.304-1.593 0.734-1.844 0.43-3.437-1.98-1.09-5.03-0.01-6.01 1.29zm-53.7 2.15c-0.579-3.027-2.107-1.425-4.296-0.859-0.234 2.097 2.062 1.661 2.148 3.437-0.324 2.342-2.381 1.461-3.866 0.859-0.907 0.382-1.27 1.308-2.577 1.289 0.706 2.037 0.636 2.203 0.859 4.725 2.146 0.428 2.102-1.334 3.865-1.289v-2.147c3.011-0.427 3.042-3.831 5.584-4.725 1.298 0.706 1.029 2.979 2.578 3.437 3.115-1.323 6.01-2.868 6.873-6.443-2.093-0.375-2.85 0.587-4.296 0.858-0.437-1.138-2.579-0.57-2.577-2.147-1.41 0.439-1.895 1.304-3.007 0 0.23 1.63-0.16 2.67-1.27 3zm51.98 9.88c-1.901-3.115-2.85-6.411-2.148-11.169-0.612-0.103-0.725-0.707-1.288-0.859-1.05 4.46-3 13.67 3.44 12.03zm-376.72-8.59c-2.177 2.48-3.25 7.511-3.866 11.598-0.127 0.842 0.514 1.711 0.429 2.577-0.15 1.546-2.225 3.625 0 4.296 3.301-6.087 3.35-13.465 6.443-20.189-1.521 0.232-1.056-1.521-2.577-1.288-0.86 0.82-0.99 1.72-0.42 3zm279.64 15.89c2.397 0.249 3.012-1.284 5.155-1.289-0.191-6.144 2.543-9.76-0.43-15.894h-1.289c-0.66 5.33-2.6 10.85-3.43 17.18zm97.51-7.73c1.009 0.424 2.11 0.754 3.437 0.859 0.819-2.199 1.265-5.548 0.43-8.162-2.66 0.514-1.914-2.381-4.295-2.147 0.05 3.02 1.77 6.41 0.42 9.45zm45.53 12.88c2.756-0.108 4.329-1.398 5.584-3.007-0.832-2.779-1.016-5.873-0.43-9.021-2.536-3.478-3.017-9.011-7.731-10.31h-0.859c2.76 6.21 5.68 13.58 3.44 22.34zm-8.16-21.9c-1.288-0.18-2.832 0.641-4.296 0.859 2.628 6.393 5.978 12.063 5.584 21.478 1.136 0.822 3.944 0.446 5.155 0-0.103-1.759-1.46-2.264-1.719-3.866 3.89-3.47 0.72-17.72-4.71-18.47zm-9.02 1.28c-1.657 0.546-1.985-0.07-3.866 0.43 0.459 2.875 2.952 4.506 3.866 7.732 1.216 4.298 0.331 9.436 1.288 14.604 1.932-0.073 3.668-0.341 5.155-0.858 3.33-7-0.66-18.61-6.45-21.9zm-8.16 9.03c-0.246 1.799-1.645 3.08-1.718 4.295-0.156 2.576 1.763 5.118 0.858 7.732 1.863 1.144 3.613 2.4 6.873 2.147 1.499-8.228-0.003-16.405-4.295-21.048-2.93 1.21-1.3 3.86-1.71 6.88zm-382.73-5.59c-1.114 4.546-3.597 9.76-3.437 14.176 3.325-0.541 3.56-4.173 3.437-8.161 1.549-1.029 1.924-3.23 2.577-5.155-0.77-0.38-1.1-1.2-2.58-0.86zm-42.1 24.49c1.335-5.401-3.27-9.646-3.437-14.176-2.795-1.58-4.8-5.137-8.591-5.584-1.595-0.188-5.396 0.592-7.302 1.289-3.07 1.122-6.403 4.226-7.732 6.014 1.881 0.162 2.208-1.229 3.866-1.289 1.229 1.474 2.933 0.854 4.296 1.718 1.13 0.718 3.042 3.171 4.295 4.726 4.348 5.396 5.059 12.518 6.873 20.189 4.55-1.37 6.6-8.33 7.73-12.89zm20.62-11.6c1.535-4.179-2.754-6.074-5.155-7.731-0.15 4.44 2.73 5.86 5.16 7.73zm-122.42-4.3c1.218 0.061 6.498 0.492 6.873-1.719-2.193-1.03-5.939 0.07-6.873 1.72zm509.46 2.58c1.192-1.642 0.122-4.689-2.148-4.296 0.18 1.98-0.03 4.33 2.15 4.3zm-359.97 1.29c-0.096-0.812 0.484-0.947 0.43-1.718-0.581-0.135-0.82-0.611-1.718-0.43-0.08 1.23-0.05 2.35 1.29 2.15zm-12.89 5.58c-1.256-1.564 2.555-1.725 1.718-4.296-2.902 0.468-4.093-0.775-4.725-2.577-1.421 0.44-2.533 1.189-2.578 3.007 1.36 1.53 3.9 4.12 5.59 3.87zm155.93 141.33c-4.379-1.761-8.456-4.917-12.887-7.303-1.031-0.555-2.434-0.754-3.437-1.288-4.489-2.394-9.011-4.96-12.887-7.303-1.144-0.691-2.385-1.059-3.436-1.718-1.987-1.248-3.614-3.288-5.584-4.726-4.014-2.928-8.58-4.98-12.457-7.731-3.869-2.746-7.384-6.129-11.168-9.021-5.774-4.412-11.601-8.832-17.182-12.887-6.033-4.382-11.289-9.466-16.752-14.175-29.489-25.416-58-50.903-84.623-77.32-0.431 0.002-0.511-0.348-0.859-0.43-0.431-0.001-0.511 0.349-0.859 0.43v1.289c5.254 6.399 11.556 11.794 17.612 17.611 2.985 2.868 5.623 6.139 8.591 9.021 2.981 2.895 6.453 5.289 9.45 8.161 5.935 5.687 12.393 10.938 18.471 16.753 6.094 5.83 11.976 11.863 18.471 17.182 12.684 10.386 25.94 20.912 38.66 31.787 6.09 5.207 13.614 9.668 20.619 14.605 1.613 1.137 3.116 2.76 4.725 3.865 1.026 0.706 2.198 0.678 3.007 1.289 2.561 1.935 4.774 4.472 7.302 6.443 4.839 3.774 9.585 5.562 15.034 8.591 3.27 1.817 6.625 3.164 9.88 4.726 6.677 3.202 13.183 7.724 21.049 7.731-2.03-4.34-6.95-4.05-10.73-5.57zm-152.49-133.17c1.43-2.579 2.85-5.169 2.578-9.45-0.898-0.247-1.226-1.064-2.578-0.859-0.77 2.58-3.03 9.15 0 10.31zm-3.44-3c-0.355-1.214 0.605-1.112 0.429-2.147-2.115-0.463-2.736-2.419-4.725-3.007 0.22 2.93 2.07 4.23 4.29 5.16zm36.95 2.58c1.15 0.282 1.633 1.23 2.578 1.719 1.062-1.229 0.807-3.775 1.289-5.585-1.41-0.165-1.894-1.256-3.007-1.718-0.13 2.01-1.26 3.03-0.86 5.58zm-96.22 6.44c0.537-3.615 2.507-5.798 6.443-6.014-0.319-1.829-0.865-3.431-1.718-4.725-3.86 0.98-6.56 6.83-4.72 10.74zm67.86-6.88c1.325 1.396 2.85 2.592 4.725 3.437 0.74-1.694 1.248-3.62 1.718-5.584-1.91-1.83-6.62-0.8-6.44 2.14zm18.48-0.85c2.96 0.262 4.308 4.184 6.443 3.865 0.951-3.18-3.471-4.487-5.584-6.014-0.19 0.81-1.23 0.77-0.86 2.14zm345.79 3.86c1.076 0.926 2.828 1.086 3.436-0.429-0.82-1.18-2.95-0.96-3.44 0.43zm-339.35 10.74c-0.378 3.867-3.077 9.903 0.429 10.739 1.826-2.394 1.147-5.058 2.578-8.162-0.797-5.328 1.086-8.048 2.577-12.027-0.589-0.986-1.769-1.381-2.577-2.147-2.31 2.33-2.59 7.27-3.01 11.6zm-20.19-6.01c-0.197-2.38-2.093-3.062-3.866-3.866-0.13 2.54 1.88 4.84 3.87 3.87zm9.45 3c2.022 2.702 4.662 4.788 7.732 6.443 0.356-2.795 1.414-4.887 1.289-8.161-3.25-2.08-7.35-1.08-9.02 1.72zm22.34 0c0.967 1.181 3.425 0.87 4.295 2.147 0.307 2.353 0.074 2.575 0.43 4.726 1.931 0.069 1.164-2.56 1.718-3.866-2.678-2.047-4.652-4.798-8.162-6.014-0.507 1.297-1.046 2.56-0.429 3.866 1.31 0.31 0.81-1.19 2.14-0.87zm10.31-3c-1.977 3.782-2.639 8.892-3.437 15.464-0.405 3.335-1.442 7.441-1.289 9.45 0.076 1.002 0.002 2.722 1.718 3.007 1.865-5.79 2.886-11.673 3.866-18.041 0.543-3.532 1.549-7.191 0.43-9.88h-1.29zm-117.7 5.58c0.412 1.307-0.92 4.356 0.859 4.296 0.899-1.249 0.373-3.923 2.148-4.296 2.077 1.901 0.17 4.506 0.859 6.443 1.666 1.041 5.035 1.74 7.302 0.859 1.151-1.883 1.569-8.504 0-10.31-2.43 3.18-8.82 0.35-11.17 3.01zm475.95-1.72c-0.275 5.017-0.03 11.294 0 16.752 1.883 1.697 3.36 3.799 6.443 4.296-0.174-5.042 0.511-9.225 0.858-13.746-0.645-0.832-1.809 0.751-2.147-0.858 1.655-0.063 2.017-1.42 1.718-3.437-1.67-1.41-4.38-3.81-6.87-3zm-383.6 10.31c-0.166-4.846-5.158-4.865-6.873-8.161h-1.289c1.36 4.09 3.99 6.9 8.16 8.16zm343.65-2.15c-0.579 6.214 7.401 8.409 8.162 13.316 4.21 0.099 8.575-1.233 8.161-5.154-3.318-0.676-4.668 4.491-7.303 1.718 2.151-2.145 4.701-3.891 5.155-7.732-1.5-5.97-13.43-10.16-14.17-2.16zm-332.48 10.31c0.127 0.068-0.112 0.754 0 0.859 2.191 2.058 4.919 3.714 7.302 5.584 0.666-6.137 1.477-12.151 1.718-16.753-1.581 0.567-2.028 2.269-4.295 2.147-0.271-1.023 0.099-2.254-1.718-2.577-1.851 1.586-2.516 4.357-5.155 5.155 1.526 3.914 6.781 4.101 8.591 7.731-0.854 0.006-0.546 1.172-1.718 0.859-2.081-1.929-4.709-3.309-6.873-5.154-0.56 1.68 1.17 1.63 2.15 2.15zm18.9-6.01c2.705-0.163 5.894 1.844 7.732 3.866 0.436 1.854 1.224 3.357 3.437 3.437 0.221-2.132 0.179-2.292 0.429-3.866-3.753-2.261-6.637-5.391-10.739-7.303-0.88 0.69 0.02 3.16-0.86 3.86zm-119.85 6.01c0.595 1.494 0.719 3.43 1.289 4.725 2.583 5.874 13.479 11.322 17.182 4.726-3.067-3.058-5.671-9.316-12.028-6.443-3.736-1.418-5.313-4.996-6.443-9.021h-1.289c-1.3 2.4 0.23 3.33 1.29 6zm420.54 3.44c3.122 1.033 3.762 8.264 6.873 10.738 1.699-0.825 6.145-0.714 7.303 0.43 0.12-0.882 1.147-0.856 1.718-1.288-2.996-5.451-6.198-10.697-9.45-15.894-3.071 0.242-5.944-1.147-8.591 0 0.5 2.21 2.31 4.46 2.15 6.01zm65.29 21.91c-0.438-3.623-5.95-4.043-6.873-7.732-2.348 0.057-3.284-1.298-4.296-2.577 0.229-7.948-5.846-13.996-14.175-13.316-2.199-1.38-3.87-3.289-7.303-3.437-0.933 3.506-4.597 4.281-6.014 7.303 2.016 3.282 5.2 5.396 6.873 9.021 1.357-0.068 2.593-0.015 3.007 0.859v3.007c3.23 1.318 5.664 3.79 8.161 5.584 2.015 1.447 3.492 2.617 5.585 3.866 3.256 1.944 6.467 4.722 10.309 5.584 1.62-2.95 5.11-4.97 4.72-8.15zm-51.55-24.49c3.377 5.357 7.824 9.645 11.169 15.034 1.935-0.29 3.537 0.046 5.584-0.859-0.308-2.271-1.771-3.383-4.296-3.437-3.624-4.394-7.409-8.627-11.598-12.457-0.21 0.65-0.62 1.1-0.85 1.73zm-414.09 2.58c2.964 5.626 7.267 9.915 12.457 13.316-2.22-4.51-3.056-10.404-5.155-15.035-3.03-0.02-5 1.02-7.31 1.71zm103.96-0.43c-0.815-1.978-2.875-0.738-4.295 0 0.325 3.188-0.819 4.908-3.007 5.584 1.456 2.696 4.279 4.025 6.873 5.584 0.907-2.1 5.403-0.61 6.443-2.577-0.095-2.815 0.418-5.022 0.859-7.303-1.92-0.91-4.81-3.05-6.87-1.28zm302.4 14.61c-2.249-2.451-4.191-6.754-5.584-9.45-1.67-3.232-1.204-5.734-3.866-5.584-0.334 0.095-0.499 0.359-0.429 0.859 0.714 4.769 0.229 13.748 0.429 18.9 3.242 3.917 4.957 9.362 8.592 12.887 0.58-6.82 0.21-11.92 0.86-17.62zm-285.22-11.17c3.187 1.538 6.046 3.404 7.302 6.873 1.314 0.312 1.264-0.741 2.578-0.43-2.286-3.729-5.292-6.736-9.88-8.162v1.72zm12.89 36.08c0.528 0.762 0.837 1.741 1.718 2.148-0.718 1.572-3.921 0.661-4.725 2.147 1.471 1.25 2.87 2.571 4.295 3.866 0.619-2.21 2.728-4.364 1.289-7.303 2.962-8.922 0.685-23.084 4.725-30.928-0.939-1.352-2.214-2.368-3.866-3.007-0.93 12.97-1.27 21.92-3.45 33.07zm-26.21-21.05c0.746-1.831 0.979-4.176 0.859-6.873-2.828-0.394-2.635 2.233-4.725 2.577-2.864-2.146-5.532-4.491-8.591-6.443 1.93 5.8 7.56 7.91 12.46 10.73zm311-4.72c0.126-0.382 1.162-1.881 1.288-0.859-1.18 5.492-1.059 15.918 3.437 18.471-0.972-6.819 2.797-18.596-4.296-21.048 0.17 0.34-0.86 3.1-0.43 3.44zm-301.12 9.02c1.512 0.922 2.399 2.469 4.296 3.007 3.521-1.444 7.873-3.328 12.027-1.719 0.888-3.121 0.226-7.792 0.43-11.598-1.47-0.406-2.662-1.346-4.296-0.43-0.324 2.219-0.183 8.983-3.866 7.732-0.133-1.708 0.992-2.158 0.859-3.866-1.016-1.705-3.456-1.984-3.866-4.296h-3.007c-1.08 3.5-1.12 8.04-2.57 11.18zm290.81-9.88c0.366 5.988-0.092 13.995-0.859 20.188 2.298 0.853 5.355 0.945 8.591 0.859 1.688-5.514 1.104-15.748 1.289-20.188-2.3-0.79-6.35-0.85-9.02-0.86zm16.75 24.05c4.104-1.111 3.363-5.649 3.865-9.88 0.119-0.997 0.765-1.97 0.859-3.007 0.292-3.207-0.113-6.405-0.43-9.021-1.156-0.704-2.203 0.584-3.437-0.43-0.84 5.38-0.28 15.18-0.86 22.34zm7.31-21.9c-1.287 0.718 0.595 4.604-1.288 4.726 2.263 3.503-1.168 9.898 0 16.323 1.486-0.661 3.916-0.38 6.014-0.43 1.249-3.21-0.657-12.465 1.288-16.323-2.14-1.09-3.5-5-6.01-4.3zm-287.81 9.45c1.951 0.627 3.258 1.896 5.584 2.147 0.614 1.677 2.131 2.451 3.866 3.008 1.469 1.754 3.408 5.083 6.014 4.295-0.477-3.103-4.249-2.91-5.154-5.584-1.541 0.108-1.574-1.29-3.007-1.289-1.174-2.549-4.308-3.138-6.014-5.154h-1.289v2.57zm318.31 7.3c0.458 0.98 1.942 2.227 0.858 3.437 2.548-0.603 4.118-2.183 5.155-4.296 0.854 0.006 0.546 1.172 1.718 0.859 1.348-1.229 2.269-2.887 2.577-5.155-2.083-0.923-3.197-2.815-6.014-3.006-0.4 3.77-2.73 5.59-4.31 8.16zm-335.06 4.29c2.464-0.315 2.695 3.406 4.725 2.147-1.18-3.689-5.829-3.908-7.303-7.303-1.49 0.345-1.651-0.64-3.007-0.43-0.868-2.425-2.91-3.676-4.725-5.154 0.56 6.47 8.16 5.88 10.32 10.73zm217.36-9.45c-7.574-1.897-14.56-0.992-22.337 0 0.231 2.489 1.646 3.796 2.147 6.015 1.389-0.982 1.389-2.264 3.437-2.578 1.444-0.222 2.705 0.655 4.296 0.859 0.817 1.534 0.112 2.357 1.288 3.007 6.215-1.23 11.892-2.999 17.612-4.725-0.37-3.54-3-2.65-6.45-2.57zm-19.33 43.39c-0.088-1.225-0.983-2.307-1.289-3.437-0.869-3.217-1.183-4.928-1.718-7.303-0.426-1.888-0.523-4.033-0.859-6.014-0.984-5.803-2.936-12.564-5.154-17.182-1.719-3.575-3.514-7.24-6.014-9.451-0.095-0.334-0.36-0.499-0.859-0.429-0.072 0.5-0.68 0.466-1.289 0.429 2.08 4.221 3.58 9.021 7.303 11.599-1.687 3.86 1.725 6.771 2.577 9.88 0.291 1.061-0.18 2.427 0 3.437 0.209 1.17 1.242 2.384 1.719 3.865 0.512 1.596 0.383 3.613 0.858 5.155 0.235 0.761 1.104 1.319 1.289 2.147 0.233 1.052-0.254 2.285 0 3.437 0.589 2.674 2.151 5.494 1.718 9.021-0.335 0.095-0.499 0.36-0.429 0.859-3.197 2.297-6.876 2.504-11.169 3.437-4.527 0.983-10.581 3.466-15.894 4.725-3.248 0.771-5.149 0.062-8.161 0.43-2.373 0.29-4.695 2.371-6.873 0.859 0.352 1.367 0.273 3.162 0.858 4.296 1.023 0.647 0.674-1.21 0.859-1.289 0.48-0.203 1.055 1.002 1.719 0.859 2.105-0.453 5.471-2.051 8.591-1.289 10.95-3.368 21.86-6.776 33.076-9.88-2.31-2.22-0.67-5.26-0.88-8.19zm-201.89-42.1c0.54 0.176 0.878 0.554 0.859 1.289h2.147c-0.096-0.812 0.484-0.948 0.43-1.719-0.64-0.57-3.41-0.87-3.44 0.43zm182.56-0.43h-1.289c-0.074 1.5-0.988 2.162-2.147 2.577-12.021 0.724-23.996 1.491-33.076 5.155 0.102 3.335 1.541 5.332 2.578 7.731-0.173 0.299-0.569 3.427 0.858 3.437 3.715-0.598 7.236-2.567 11.599-3.437 9.424-1.877 18.472-2.214 26.202-4.295-0.2-5.1-4.19-6.4-4.72-11.17zm-363.41 3.01c0.613 0.104 0.725 0.708 1.289 0.859 1.096-0.798 1.085-2.661-0.43-3.007-0.18 0.82-0.92 1.08-0.86 2.15zm418.39 7.3c2.425 4.875 2.83 10.874 5.584 15.894-1.54 1.981 0.194 3.206 0.43 5.584-6.223 4.626-14.066 8.331-21.907 11.169-2.715 0.981-6.569 1.378-7.303 3.865 3.196 0.754 6.637-1.003 9.45-2.147 2.855-1.161 6.022-2.493 8.591-3.866 1.207-0.645 2.246-1.946 3.437-2.577 4.543-2.407 9.162-3.325 12.027-6.873-1.012-4.544-2.643-9.83-4.295-13.315-2.871-6.055-4.482-16.229-11.169-17.183h-0.858c1.33 3.53 4.22 5.86 6.01 9.46zm-8.16-6.87c-1.818 2.666-4.869 1.485-7.303 2.147-0.904 0.247-1.315 1.112-2.147 1.289-0.886 0.188-2.203-0.261-3.007 0-1.3 0.421-1.788 1.432-3.007 1.719-3.448 0.812-7.294 0.092-10.31 2.577-0.15 1.492 2.185 1.631 0.859 3.007 4.582-1.844 11.103-3.77 16.753-4.726 1.166-0.197 3.853-0.653 5.154-0.43 2.219 0.382 3.022 2.668 4.726 3.437 0.564 0.256 1.646-0.52 2.147-0.43 1.025 0.186 2.018 2.423 3.007 0.859-2.47-2.98-3.25-7.64-6.87-9.46zm-93.64 18.47h3.437c-0.179-4.117-1.948-6.643-2.148-10.738-6.79 0.09-1.35 7.34-1.29 10.74zm143.9-9.02h3.007c-0.019-0.591 0.202-0.943 0.43-1.288-0.92-0.69-3.3-0.11-3.44 1.29zm-149.92 0c-4.396 0.902-8.041 2.556-12.887 3.007-5.072 3.662-10.953 6.517-14.605 11.599 9.856-1.312 19.121-3.217 29.21-4.296 1.21-3.01 0.83-8.55-1.71-10.31zm57.13 0.43c-1.409 1.267-4.312 1.774-6.443 2.147-10.295 1.804-21.523 2.523-30.499 6.443-0.112 1.258 0.972 1.32 0.859 2.578 2.028-0.055 3.176-1.772 5.154-2.578 6.099-2.479 14.391-2.663 21.479-3.865 4.266-0.725 8.192-2.081 12.027-2.578 0.13-1.71-0.83-2.33-2.58-2.15zm-168.81 2.15c0.771 0.435 2.637 1.645 3.007 0-0.78-0.44-2.64-1.65-3.01 0zm4.29 3c4.109 2.621 7.345 6.115 12.028 8.162-0.381-4.247 1.166-6.566 0.859-10.739-4.48-0.79-11.43-1-12.89 2.58zm22.77 15.04c2.415-1.957 6.229-3.565 9.45-3.437-1.458-5.129-4.508-8.665-6.443-13.316-0.549-0.023-0.595-0.551-1.288-0.43-0.42 5.09-1.96 11.86-1.72 17.19zm214.35-9.88c-0.04-2.824-0.855-4.872-2.578-6.014-0.89 2.38-0.51 6.26 2.58 6.01zm-234.97-0.43c-0.644-2.506-3.071-3.229-5.155-4.296 0.42 2.74 2.95 3.36 5.16 4.3zm-169.24-1.72c-0.859 0.997 1.6 3.417 3.007 2.148 0.14-1.81-1.93-2.92-3.01-2.15zm281.78 3.44c1.254 6.801 2.729 12.91 3.437 18.472 1.384 0.094 1.817-0.76 3.437-0.43-0.358-4.649-1.446-10.377-3.437-14.605 0.028-2.032 0.068-4.077-1.288-4.725-0.39 0.75-1.5 0.78-2.15 1.29zm73.89 10.31c0.932 1.789 0.439 5.001 2.147 6.014 0.403-1.888 1.635-2.947 1.289-5.584 3.282-2.016 5.583-5.013 8.161-7.732 1.309-0.696 3.006-1.003 3.007-3.007-7.01 1.3-11.11 5.5-14.61 10.31zm-83.77-9.02c-5.425 0.835-13.176 2.896-17.611 2.577-2.029 1.693-6.733 0.712-9.45 1.719 1.097 3.665 4.345 0.835 6.443 0.429 8.24-1.594 19.331-1.727 27.921-3.865-1.22-2-4.94-1.23-7.3-0.86zm106.96 0.42c-9.231-0.925-15.059 8.684-18.042 15.034 2.797 1.29 5.048-1.205 7.303-2.147 6.43-2.688 13.521-4.782 18.041-9.45-2.07-1.83-4.51-3.15-7.3-3.43zm11.6 15.47c2.05-1.53 4.422-2.737 6.873-3.866 0.742-2.901 5.178-7.075 7.731-3.007 0.095 1.383-0.76 1.817-0.43 3.437 0.817 1.331 2.618 1.678 3.008 3.437-0.411 0.878-0.878 1.7-1.289 2.577 2.105 3.565 2.897 9.956 2.577 14.605 1.163 1.638 1.746 4.385 0.859 6.872 3.448 1.687 2.971 5.324 1.718 9.021 0.046 1.673 2.698 0.739 3.007 2.148 1.141 1.934 0.472 3.395 0.43 6.014 1.163 1.791 2.202 5.204 1.289 7.732 3.807 5.368 2.592 18.011 9.45 18.9-1.564-8.459-5.46-14.586-6.014-24.056-2.779-10.751-6.229-23.203-7.732-36.512-1.634-4.196-3.298-9.313-4.725-14.176-0.855-2.914-0.387-6.799-3.007-8.591-3.78 5.956-9.048 10.426-15.035 14.175 1.38 0.25 0.8 0.9 1.28 1.29zm66.58-15.03c0.587 0.845 0.41 2.453 0.859 3.437 4.207 0.664 5.82 6.203 10.309 5.154-3.44-2.87-7.85-7.04-11.17-8.59zm-277.49 4.29v-2.577c-2.068 0.333-3.37-2.335-4.725-1.288 1.4 1.47 2.31 3.42 4.73 3.87zm307.99 6.01c0.596 2.457-0.984 2.738-1.288 4.296 1.208 0.993 1.688-1.493 3.866-0.859-2.2-4.673-4.419-9.327-9.021-11.598 1.33 3.54 3.54 6.2 6.44 8.16zm-472.94-3.86c-1.588-1.275-2.447-3.28-5.154-3.437 0.75 1.83 3.24 4.19 5.15 3.44zm176.98 1.29c3.54 3.619 8.274 6.044 12.457 9.021-0.907-4.104-2.736-7.286-3.866-11.168-3.94-0.36-6.32 0.84-8.59 2.15zm126.29 8.59c1.349 1.657 1.462 4.551 2.577 6.443 0.987-3.595 3.862-5.302 5.155-8.592 3.195-2.622 7.162-4.77 9.879-7.302-9.24-0.22-13.64 4.41-17.61 9.45zm20.61-7.73c-7.265 3.617-13.303 8.461-15.894 16.753 5.742-1.382 13.078-3.182 20.189-5.155-1.533-3.334-0.906-8.83-3.437-11.168-0.09-0.33-0.36-0.49-0.86-0.42zm-352.23 6.44c1.294 2.796 4.322 1.905 6.873 0.859-1.27-2.167-2.621-4.252-5.584-4.726 0.41 2.14-1.15 2.29-1.29 3.87zm204.04-0.86c5.359 2.373 9.142 6.322 14.605 8.592 0.438 0.994 0.863 1.999 2.147 2.147-0.1-3.25-4.01-4.309-6.014-5.584-2.438-1.552-4.664-3.337-7.303-4.296-0.377-1.341-2.026-1.41-2.577-2.577h-1.289c-0.04 0.75 0.09 1.34 0.42 1.72zm195.45 1.72c0.508 0.494 1.519 0.486 2.578 0.43-0.06-0.801-0.283-1.437-0.859-1.719-0.12 0.88-1.91 0.1-1.72 1.29zm94.5 5.58c-1.052-2.814-3.667-4.065-4.726-6.873h-1.288c0.92 3.38 3 5.6 6.02 6.87zm-162.8 3.01c1.24-10.595-12.646-10.333-17.182-5.154 0.654 3.354 0.99 7.027 2.147 9.879 3.202-0.289 6.3-2.29 9.88-1.718 2.704 0.433 5.58 1.334 6.873-1.718-0.32-0.69-2.11 0.1-1.72-1.29zm-373.29 3.01c2.995-3.171-1.605-6.762-3.007-9.45h-1.289c0.391 4.19 1.936 7.22 4.296 9.45zm341.93-7.31c-0.415 1.838 1.424 6.179 1.718 9.021 0.141 1.354-0.678 2.444 0 3.437 1.884 0.488 1.411-0.002 3.007-0.429-0.316-4.307-1.145-8.925-2.147-14.176-2-0.51-2.34 1.11-2.58 2.15zm-46.82 1.29c1.172 0.312 0.864-0.854 1.718-0.859-0.05-1.096-0.081-2.21-1.288-2.147-0.52 1.19-0.94 1.8-0.43 3.01zm-190.3 2.15c-0.297-1.851-1.658-2.638-2.148-4.295h-2.148c0.86 2.02 1.74 4 4.3 4.3zm209.2-2.58c-7.392-0.124-10.859 2.458-15.894 3.866-0.703 1.302-1.506 2.504-2.577 3.437 0.742 2.596 0.505 2.59 0 5.154 2.785-0.271 4.25-2.796 6.014-4.296 1.954-1.661 4.042-3.015 6.014-4.725 5.039-0.199 8.34-2.654 13.316-1.718-1.53-2-4.08-1.67-6.87-1.72zm25.34 0.86c-1.498 2.654-5.424 2.881-6.443 6.014 0.732 0.985 0.665 2.771 1.288 3.866 1.846-3.311 4.986-5.323 6.014-9.45-0.09-0.33-0.36-0.5-0.86-0.43zm-328.18 3.44c-0.086-1.489-0.358-2.793-2.148-2.577 0.41 1.17 0.188 2.96 2.148 2.58zm63.998 2.15c0.039-2.187-1.273-3.022-3.007-3.437 0.2 1.95 0.4 3.91 3.01 3.44zm-32.64 0.43c0.093-1.668-0.456-2.694-1.718-3.007-0.09 1.67 0.46 2.69 1.72 3.01zm280.93-3.01c-1.421-0.211-4.455 0.332-6.873 0-0.857-0.118-2.882 1.418-3.866 1.718-5.335 1.626-10.431 3.088-11.598 7.303 3.049-0.809 4.357 1.317 7.303 0 1.406 1.654 3.883 0.634 6.442 0.859 6.418 0.565 15.095 2.308 18.042-0.859-2.55-4.22-3.91-8.2-9.44-9.02zm124.14 2.15c-4.806 3.488-11.22 5.525-16.753 7.732-1.797 0.716-3.366 1.877-5.154 2.577-2.496 0.978-5.49 1.292-8.162 2.147-2.536 0.812-4.771 2.099-7.303 3.007-5.195 1.864-11.645 3.256-16.752 4.296-3.3 0.672-6.925 0.602-10.31 1.288-5.801 1.179-11.33 2.649-17.183 3.437-10.421 1.403-21.158 2.222-31.787 3.007-5.898 0.437-11.466 0.645-17.182 0.43-5.685-0.213-13.916-1.512-17.612-1.288-0.973 0.059-1.734-1.215-2.147 0.43-1.394-0.548-3.042-2.345-3.866 0 1.604 2.463 4.82 1.323 7.303 1.718 2.146 0.342 4.322 1.433 6.443 1.719 6.507 0.877 10.079 0.464 15.034 0.429 3.028-0.021 6.162 0.243 9.021 0 3.283-0.278 5.401-1.402 7.732-1.718 6.84-0.925 13.914-0.386 21.048-1.289 2.055-0.26 4.576-0.817 6.873-1.288 7.404-1.518 16.104-3.416 22.767-4.726 10.45-2.053 20.597-5.466 29.64-8.161 1.936-0.577 4.283-0.659 6.014-1.289 1.684-0.612 2.952-1.948 4.725-2.577 3.37-1.194 7.257-1.852 10.739-3.437 2.952-1.344 7.626-3.132 8.161-6.443h-0.859c-0.14-0.01-0.29-0.01-0.43-0.01zm-111.25 6.87c1.666 1.354 2.678-0.82 4.725-0.43-0.6-1.69 0.207-4.789-1.288-5.584-1.13 2.02-2.77 3.52-3.43 6.01zm218.21 0.43c1.838 0.502 1.838-3.509 0-3.007v3.01zm-213.06 2.58c2.484 0.461 5.466 0.422 6.443-1.718-2.43 0.29-5.06 0.37-6.44 1.72zm-6.87 0c0.547 2.471 4.458 0.72 6.014-0.43-2.18 0.67-3.44-0.11-6.01 0.43zm-257.74 3.86c-0.196 1.342 0.918 1.373 2.148 1.288 0.03-1.29-1.26-2.18-2.15-1.29zm-12.45 6.02c-0.604-1.688-1.157-3.425-3.007-3.866-0.09 2.38 1.28 3.31 3.01 3.87zm223.37 6.44c1.223 0.923 3.233 1.881 5.154 0.859-0.098-0.762 0.434-2.151-0.858-1.719-0.48 1.73-3.09-0.6-4.29 0.86zm-190.3 18.9c1.458-0.116 3.483 0.332 4.296-0.43-1.676-1.904-3.031-4.128-6.014-4.725-0.03 2.32 1.49 3.09 1.71 5.16zm-85.479 2.15c0.387 3.05 4.253 2.62 7.732 2.577 0.87-2.22-6.541-6.43-7.729-2.58z"
    />
	<path
        style="clip-rule:evenodd;fill-rule:evenodd"
        d="m125 193.3c0.641-0.751 2.528 0.884 4.295 0.43 1.485 2.996 4.843 4.309 5.584 7.732 0.739 3.41-0.537 10.689-3.436 14.605-0.992 1.339-5.545 5.328-7.303 6.014-2.034 0.793-5.604 1.081-7.732 0.43-2.892-0.886-3.457-3.611-6.443-5.155-3.57-12.03 3.99-22.47 15.03-24.04zm-12.46 13.74c2.389-0.188 1.577-3.578 4.725-3.007-0.104 3.684 0.851 6.309 2.578 8.162 3.56-0.736 5.666-2.925 5.155-7.732-1.479-1.22-3.738-2.043-6.014-1.289-0.096-0.812 0.484-0.948 0.43-1.718-3.82-3.29-6 2.14-6.88 5.59z"
    />
</g
  >
<metadata
    ><rdf:RDF
      ><cc:Work
        ><dc:format
          >image/svg+xml</dc:format
        ><dc:type
            rdf:resource="http://purl.org/dc/dcmitype/StillImage"
        /><cc:license
            rdf:resource="http://creativecommons.org/licenses/publicdomain/"
        /><dc:publisher
          ><cc:Agent
              rdf:about="http://openclipart.org/"
            ><dc:title
              >Openclipart</dc:title
            ></cc:Agent
          ></dc:publisher
        ><dc:title
          >automobile buses cross the nation</dc:title
        ><dc:date
          >2008-03-06T04:53:58</dc:date
        ><dc:description
          >Wide Road Ahead! The Building of an Automobile by Henry B. Lent New York THE MACMILLAN COMPANY 1934 archive.org states as PD</dc:description
        ><dc:source
          >https://openclipart.org/detail/15537/automobile-buses-cross-the-nation-by-johnny_automatic</dc:source
        ><dc:creator
          ><cc:Agent
            ><dc:title
              >johnny_automatic</dc:title
            ></cc:Agent
          ></dc:creator
        ><dc:subject
          ><rdf:Bag
            ><rdf:li
              >bus</rdf:li
            ><rdf:li
              >externalsource</rdf:li
            ><rdf:li
              >transportation</rdf:li
            ><rdf:li
              >vehicle</rdf:li
            ></rdf:Bag
          ></dc:subject
        ></cc:Work
      ><cc:License
          rdf:about="http://creativecommons.org/licenses/publicdomain/"
        ><cc:permits
            rdf:resource="http://creativecommons.org/ns#Reproduction"
        /><cc:permits
            rdf:resource="http://creativecommons.org/ns#Distribution"
        /><cc:permits
            rdf:resource="http://creativecommons.org/ns#DerivativeWorks"
        /></cc:License
      ></rdf:RDF
    ></metadata
  ></svg
>
