<?xml version="1.0" encoding="UTF-8" standalone="no"?>
<!-- Created with Inkscape (http://www.inkscape.org/) -->

<svg
   xmlns:dc="http://purl.org/dc/elements/1.1/"
   xmlns:cc="http://creativecommons.org/ns#"
   xmlns:rdf="http://www.w3.org/1999/02/22-rdf-syntax-ns#"
   xmlns:svg="http://www.w3.org/2000/svg"
   xmlns="http://www.w3.org/2000/svg"
   xmlns:sodipodi="http://sodipodi.sourceforge.net/DTD/sodipodi-0.dtd"
   xmlns:inkscape="http://www.inkscape.org/namespaces/inkscape"
   width="981.96869"
   height="800"
   id="svg2"
   sodipodi:version="0.32"
   inkscape:version="0.48.4 r9939"
   sodipodi:docname="Казбек.svg"
   inkscape:output_extension="org.inkscape.output.svg.inkscape"
   version="1.1">
  <defs
     id="defs4">
    <inkscape:perspective
       sodipodi:type="inkscape:persp3d"
       inkscape:vp_x="0 : 526.18109 : 1"
       inkscape:vp_y="0 : 1000 : 0"
       inkscape:vp_z="744.09448 : 526.18109 : 1"
       inkscape:persp3d-origin="372.04724 : 350.78739 : 1"
       id="perspective10" />
    <inkscape:perspective
       id="perspective2390"
       inkscape:persp3d-origin="372.04724 : 350.78739 : 1"
       inkscape:vp_z="744.09448 : 526.18109 : 1"
       inkscape:vp_y="0 : 1000 : 0"
       inkscape:vp_x="0 : 526.18109 : 1"
       sodipodi:type="inkscape:persp3d" />
    <inkscape:perspective
       id="perspective2403"
       inkscape:persp3d-origin="372.04724 : 350.78739 : 1"
       inkscape:vp_z="744.09448 : 526.18109 : 1"
       inkscape:vp_y="0 : 1000 : 0"
       inkscape:vp_x="0 : 526.18109 : 1"
       sodipodi:type="inkscape:persp3d" />
    <inkscape:perspective
       id="perspective3223"
       inkscape:persp3d-origin="372.04724 : 350.78739 : 1"
       inkscape:vp_z="744.09448 : 526.18109 : 1"
       inkscape:vp_y="0 : 1000 : 0"
       inkscape:vp_x="0 : 526.18109 : 1"
       sodipodi:type="inkscape:persp3d" />
    <inkscape:perspective
       sodipodi:type="inkscape:persp3d"
       inkscape:vp_x="0 : 526.18109 : 1"
       inkscape:vp_y="0 : 1000 : 0"
       inkscape:vp_z="744.09448 : 526.18109 : 1"
       inkscape:persp3d-origin="372.04724 : 350.78739 : 1"
       id="perspective2396" />
    <inkscape:perspective
       id="perspective2394"
       inkscape:persp3d-origin="372.04724 : 350.78739 : 1"
       inkscape:vp_z="744.09448 : 526.18109 : 1"
       inkscape:vp_y="0 : 1000 : 0"
       inkscape:vp_x="0 : 526.18109 : 1"
       sodipodi:type="inkscape:persp3d" />
    <inkscape:perspective
       id="perspective2845"
       inkscape:persp3d-origin="0.5 : 0.33333333 : 1"
       inkscape:vp_z="1 : 0.5 : 1"
       inkscape:vp_y="0 : 1000 : 0"
       inkscape:vp_x="0 : 0.5 : 1"
       sodipodi:type="inkscape:persp3d" />
    <inkscape:perspective
       id="perspective2864"
       inkscape:persp3d-origin="0.5 : 0.33333333 : 1"
       inkscape:vp_z="1 : 0.5 : 1"
       inkscape:vp_y="0 : 1000 : 0"
       inkscape:vp_x="0 : 0.5 : 1"
       sodipodi:type="inkscape:persp3d" />
    <inkscape:perspective
       id="perspective2878"
       inkscape:persp3d-origin="0.5 : 0.33333333 : 1"
       inkscape:vp_z="1 : 0.5 : 1"
       inkscape:vp_y="0 : 1000 : 0"
       inkscape:vp_x="0 : 0.5 : 1"
       sodipodi:type="inkscape:persp3d" />
  </defs>
  <sodipodi:namedview
     id="base"
     pagecolor="#ffffff"
     bordercolor="#666666"
     borderopacity="1.0"
     gridtolerance="10000"
     guidetolerance="10"
     objecttolerance="10"
     inkscape:pageopacity="0.0"
     inkscape:pageshadow="2"
     inkscape:zoom="0.98994949"
     inkscape:cx="-92.728589"
     inkscape:cy="211.93872"
     inkscape:document-units="px"
     inkscape:current-layer="layer1"
     showgrid="false"
     inkscape:window-width="1280"
     inkscape:window-height="904"
     inkscape:window-x="-4"
     inkscape:window-y="-4"
     showguides="false"
     inkscape:guide-bbox="true"
     inkscape:window-maximized="0"
     fit-margin-top="0"
     fit-margin-left="0"
     fit-margin-right="0"
     fit-margin-bottom="0">
    <sodipodi:guide
       orientation="0,1"
       position="228.20738,398.31318"
       id="guide2823" />
    <sodipodi:guide
       orientation="1,0"
       position="488.91384,216.17269"
       id="guide2825" />
    <sodipodi:guide
       orientation="1,0"
       position="1.4373426e-006,86.873153"
       id="guide2827" />
    <sodipodi:guide
       orientation="0,1"
       position="200.01021,4.3266779e-005"
       id="guide2829" />
    <sodipodi:guide
       orientation="0,1"
       position="35.102802,76.266553"
       id="guide2831" />
    <sodipodi:guide
       orientation="0,1"
       position="65.885948,10.991743"
       id="guide2833" />
    <sodipodi:guide
       orientation="0,1"
       position="51.957378,60.277453"
       id="guide2835" />
  </sodipodi:namedview>
  <metadata
     id="metadata7">
    <rdf:RDF>
      <cc:Work
         rdf:about="">
        <dc:format>image/svg+xml</dc:format>
        <dc:type
           rdf:resource="http://purl.org/dc/dcmitype/StillImage" />
      </cc:Work>
    </rdf:RDF>
  </metadata>
  <g
     inkscape:label="Layer 1"
     inkscape:groupmode="layer"
     id="layer1"
     transform="translate(-64.649762,285.03894)">
    <g
       id="g3689"
       transform="matrix(2.0084698,0,0,2.0084698,-65.197335,-519.3227)">
      <rect
         ry="0"
         rx="0"
         y="116.6479"
         x="64.649765"
         height="398.31314"
         width="488.91385"
         id="rect3680"
         style="fill:#dadada;fill-opacity:1;fill-rule:evenodd;stroke:none" />
      <path
         sodipodi:nodetypes="csssssssssssssssssssssssssssssssssssssssscccccc"
         id="path2409"
         d="m 546.67825,205.44736 c -10.58816,-1.78321 -14.55247,-3.32665 -20.89251,-8.13417 -3.025,-2.29379 -7.38197,-5.11114 -9.68215,-6.26076 -2.30018,-1.14963 -4.46424,-2.54666 -4.80902,-3.10452 -0.34477,-0.55786 -1.38781,-1.02681 -2.31785,-1.04211 -0.93004,-0.0153 -3.45864,-1.3653 -5.61912,-3 -2.16048,-1.6347 -4.41852,-2.97218 -5.01786,-2.97218 -0.59935,0 -2.65669,-1.06205 -4.57187,-2.36011 -1.91517,-1.29806 -6.65559,-4.02015 -10.53425,-6.04909 -6.7724,-3.54264 -7.23064,-3.64123 -11.55245,-2.48532 -3.37152,0.90174 -6.58662,0.93732 -12.81796,0.14181 -13.72972,-1.75275 -27.74647,-9.82919 -35.97626,-20.72947 -2.19548,-2.90789 -5.7039,-6.32527 -7.7965,-7.59418 -2.09259,-1.26891 -6.55462,-4.69583 -9.91561,-7.61537 -6.81238,-5.91761 -9.2461,-6.46037 -15.17894,-3.38515 -3.33989,1.73119 -16.31008,11.7662 -26.01588,20.12843 -2.03185,1.75059 -6.39428,5.15041 -9.69428,7.55516 -5.32815,3.88269 -6.60782,4.37345 -11.4282,4.38278 -5.35792,0.0104 -5.52803,0.10438 -13.13892,7.26051 -16.66179,15.66624 -27.38287,24.30611 -31.93288,25.73399 -2.475,0.7767 -5.4,1.95387 -6.5,2.61594 -1.1,0.66206 -3.575,1.52488 -5.5,1.91738 -1.925,0.3925 -4.04603,1.15311 -4.71341,1.69024 -0.67953,0.54691 -5.73935,0.82609 -11.5,0.63453 -7.7043,-0.25621 -11.16521,-0.81737 -13.78659,-2.23539 -2.52649,-1.36669 -6.63827,-2.08604 -14.78284,-2.58622 -9.3093,-0.57171 -11.79476,-1.07139 -14.20951,-2.85669 -1.60967,-1.19008 -4.09223,-2.16378 -5.51682,-2.16378 -3.64561,0 -7.34835,-2.16462 -11.99083,-7.00984 -2.2,-2.29608 -5.9574,-5.53568 -8.34978,-7.19912 -2.39239,-1.66343 -4.94059,-4.43442 -5.66269,-6.15773 -0.72209,-1.72332 -2.5185,-4.25831 -3.99201,-5.63331 -2.36633,-2.20812 -3.63161,-2.51797 -10.83732,-2.65389 -4.48701,-0.0846 -10.1832,-0.45629 -12.6582,-0.82589 -4.13325,-0.61723 -4.73937,-0.42131 -7.43709,2.40389 -1.6154,1.69174 -3.30707,3.07589 -3.75927,3.07589 -0.4522,0 -4.58022,2.475 -9.17337,5.5 -4.59316,3.025 -8.60377,5.5 -8.91247,5.5 -0.87741,0 -13.69539,8.74248 -18.18053,12.4 -4.47677,3.65069 -8.78371,5.74064 -15.53727,7.5395 -2.475,0.65924 -6.524996,1.82204 -8.999996,2.58401 -6.166409,1.89843 -15.510413,3.47649 -20.585011,3.47649 l -10.55097,1.25 0,-90.53573 488.913837,0 0,89.11178 c -0.89833,-0.0564 -2.70123,0.39236 -6.88535,-0.31231 z"
         style="fill:#2b86b5;fill-opacity:1"
         inkscape:connector-curvature="0" />
      <path
         sodipodi:nodetypes="cssssssscssssssssssssssssssssssssssssscccsssssssssssssssssssssssssssssssssssssssssssssssssssssssscccssssccssssssssssssssssscccssssssccssssssssssssssssssssssssssssssssssssssssssssssssssssssssssssssssssssssssssssssssssssccssscccccssssscsccssscssssssssssssssccscscccccsssccssssssssssssssssssssssssccssccsssccsssccsssccsssccssccsssccssssssssssssssssssscccsscccsssssssssssssssssssssssscccssssssssscccscssccscsscssssssssssssssssssssssssssssssscccsssssssscccsssssssccsccsssscsccsssccssssssssssccssssccsssssccssccsssccsssccsssscccsssssccssscccsssssscccssssccssssssscccccssccssssccssssccsssccsssssssccsssssssssccssssccssc"
         id="path2884"
         d="m 392.9375,129.5625 c -0.89334,0.30928 -1.86073,0.72312 -2.9375,1.28125 -3.33989,1.73119 -16.32545,11.79402 -26.03125,20.15625 -2.03185,1.75059 -6.3875,5.1265 -9.6875,7.53125 -5.32815,3.88269 -6.61712,4.39692 -11.4375,4.40625 -5.35792,0.0104 -5.51411,0.0939 -13.125,7.25 -16.66179,15.66624 -27.38749,24.29087 -31.9375,25.71875 -2.475,0.7767 -5.4,1.96293 -6.5,2.625 -0.58881,0.35439 -1.57473,0.75849 -2.65625,1.125 -0.30067,1.0262 -0.89,2.19824 -1.78125,3.40625 -2.07667,2.81477 -2.45797,4.34521 -2.3125,9.625 0.19489,7.07332 -0.87215,8.91157 -7.3125,12.53125 -2.05904,1.15725 -4.28978,3.45457 -4.96875,5.09375 -0.68698,1.65851 -3.93227,4.94024 -7.3125,7.40625 -5.76863,4.20847 -11.59375,10.54183 -11.59375,12.625 0,0.52889 -0.71763,1.52402 -1.625,2.1875 -1.44824,1.05898 -1.17339,1.42242 2.25,3.09375 2.60962,1.27405 3.99659,2.68082 4.21875,4.25 0.37538,2.65139 -1.60194,8.15625 -2.9375,8.15625 -0.48327,0 -0.90625,0.9 -0.90625,2 0,1.1 0.42457,2 0.9375,2 2.18527,0 2.22696,4.44128 0.0625,9.0625 -1.27225,2.7163 -1.96884,5.52252 -1.59375,6.5 0.60517,1.57705 0.84523,1.55933 2.9375,-0.40625 1.25859,-1.18239 2.85113,-2.15625 3.53125,-2.15625 1.85832,0 4.4067,6.9351 3.75,10.21875 -0.3146,1.573 -0.0219,3.75784 0.65625,4.84375 1.02175,1.63609 0.87598,2.60225 -0.78125,5.6875 -3.21973,5.99414 -7.43325,5.41283 -7.46875,-1.03125 -0.0248,-4.51035 -2.50643,-4.32603 -12.75,0.90625 -9.45546,4.82972 -9.56525,4.9176 -10.75,9.59375 -0.88987,3.51231 -2.38439,5.87224 -5.84375,9.09375 -2.79425,2.60212 -4.6875,5.1926 -4.6875,6.5 0,2.83692 0.47047,2.74406 7,-1.34375 6.87124,-4.30174 9.91983,-5.63177 11.09375,-4.90625 1.22254,0.7556 1.17342,3.4375 -0.0625,3.4375 -1.53881,0 -4.12015,4.55901 -5.125,9.03125 -0.50487,2.24701 -1.68273,5.23461 -2.59375,6.625 -1.59739,2.43793 -1.97826,2.51851 -10.5,2.1875 l -8.8125,-0.34375 -3.4375,3.75 c -2.00219,2.18492 -4.38822,3.75 -5.6875,3.75 -1.28457,0 -3.62469,1.54352 -5.53125,3.625 -3.01376,3.29027 -3.63382,3.53775 -7,2.90625 -2.03323,-0.38144 -5.30172,-2.01906 -7.25,-3.625 -1.94828,-1.60593 -3.91361,-2.90625 -4.375,-2.90625 -0.46138,0 -2.32228,-1.125 -4.125,-2.5 -2.06608,-1.57588 -4.58662,-2.5 -6.8125,-2.5 -1.94215,0 -6.03416,-1.11566 -9.09375,-2.46875 -4.33696,-1.91787 -6.62381,-2.32281 -10.375,-1.90625 -4.49022,0.49863 -5.11661,0.2656 -9.53125,-3.4375 -3.77384,-3.16558 -5.99852,-4.19735 -11,-5.03125 -10.63467,-1.77311 -19.78125,-2.44395 -19.78125,-1.46875 0,1.68054 2.37597,3.3125 4.8125,3.3125 1.5516,0 3.89433,1.57314 6.5625,4.40625 4.87328,5.17454 7.38697,6.59375 11.625,6.59375 1.71347,0 4.40063,0.65785 5.96875,1.46875 3.42472,1.77099 12.03125,11.6411 12.03125,13.78125 0,2.62395 -3.05123,4.20751 -9.375,4.875 -3.3602,0.35469 -8.00117,1.3729 -10.3125,2.25 -4.35277,1.65178 -5.77631,1.51147 -17.6875,-1.53125 -4.39165,-1.12185 -5.28281,-1.87103 -9,-7.53125 -2.26913,-3.45525 -4.6875,-6.26985 -5.375,-6.28125 -1.45546,-0.0242 -1.64877,3.20797 -0.34375,5.71875 0.49639,0.95504 1.50403,3.71755 2.21875,6.125 1.233,4.15319 1.17807,4.46099 -1.03125,6.25 -3.15768,2.55693 -6.99951,3.41719 -9.21875,2.03125 -3.257506,-2.03434 -5.03629,-1.43753 -4.6875,1.59375 0.30088,2.61499 0.558014,2.73754 5.3125,2.59375 2.75,-0.0832 7.59779,-0.46978 10.75,-0.875 4.13628,-0.53172 6.15831,-0.40071 7.28125,0.53125 1.27072,1.05462 2.7987,1.08347 8.375,0.0312 4.20541,-0.79351 9.0944,-1.02477 12.71875,-0.59375 15.73124,1.87082 14.44855,1.98701 21.90625,-1.90625 9.60033,-5.01177 21.27698,-7.10883 28.125,-5.03125 6.40584,1.94341 11.2437,1.9396 12,-0.0312 0.32557,-0.84843 2.34463,-2.4476 4.46875,-3.53125 2.12412,-1.08365 4.60371,-3.06958 5.5,-4.4375 0.95089,-1.45124 2.56982,-2.5 3.90625,-2.5 1.2597,0 4.12134,-1.55462 6.375,-3.4375 4.21202,-3.51904 6.49171,-4.41863 16.3125,-6.59375 3.13064,-0.69338 7.40564,-2.31838 9.5,-3.59375 3.80405,-2.3165 8.12365,-4.49469 13.78125,-6.96875 1.65,-0.72155 5.15832,-1.60346 7.78125,-1.9375 3.5436,-0.4513 5.19323,-1.22763 6.375,-3.03125 2.15791,-3.29339 3.34375,-2.20171 3.34375,3.03125 0,3.9 -0.42409,4.71207 -4.0625,7.59375 -2.87451,2.27666 -3.75295,3.5283 -3,4.28125 1.86242,1.86242 1.17466,3.54216 -3.3125,8.09375 -2.74077,2.78013 -4.59706,5.69589 -5,7.84375 -0.35386,1.88622 -1.58441,4.28594 -2.71875,5.3125 -1.93929,1.75503 -2.12133,1.75094 -3.03125,0.125 -1.44562,-2.58319 -3.15209,-2.12521 -7.90625,2.09375 -4.85998,4.31285 -4.65742,6.1875 0.65625,6.1875 2.42414,0 4.19296,-0.75495 5.78125,-2.46875 1.74132,-1.87891 2.54892,-2.20108 3.4375,-1.3125 3.2985,3.2985 -0.007,9.3816 -7.84375,14.375 -3.37611,2.15123 -7.56936,5.16682 -9.3125,6.71875 l -3.1875,2.84375 5,-0.65625 c 9.30244,-1.21448 10.94601,-1.12147 11.3125,0.71875 0.38501,1.93325 -7.12769,9.69591 -12.90625,13.34375 -2.64013,1.66665 -3.82195,3.23924 -4.28125,5.6875 -0.70108,3.73711 -3.25796,6.02719 -11.40625,10.15625 -2.86063,1.44958 -17.09375,8.76327 -17.09375,9.25 l 104.375,0 c 0.65481,-0.49809 -1.84255,-6.42019 -2.125,-7.15625 -0.72297,-1.88403 -15.87426,-1.71421 -19.71875,0.21875 -2.68595,1.35047 -3.04088,1.28693 -5.65625,-1.21875 -2.5309,-2.42475 -3.25612,-2.62444 -8.125,-2.0625 -8.20537,0.94702 -10.62888,-2.1808 -4.21875,-5.4375 1.57911,-0.80227 4.06707,-2.42356 5.5625,-3.625 1.49543,-1.20144 5.09543,-2.9782 8,-3.9375 6.79995,-2.24582 9.78125,-4.21625 9.78125,-6.46875 0,-4.86532 5.41902,-9.02491 9.40625,-7.21875 8.04991,3.64651 12.16085,3.9578 19.40625,1.40625 3.82549,-1.3472 6.65423,-3.36769 10.5,-7.5 2.89512,-3.11083 5.80109,-5.65625 6.4375,-5.65625 0.63641,0 1.75124,-1.22765 2.46875,-2.71875 0.81218,-1.68783 2.41356,-2.97512 4.28125,-3.40625 1.65,-0.38089 4.38007,-1.25357 6.0625,-1.9375 3.65142,-1.48435 10.30452,-0.51312 11.125,1.625 0.30873,0.80454 0.0136,2.789 -0.65625,4.40625 -1.12232,2.70952 -1.00493,3.14159 1.625,5.40625 l 2.84375,2.46875 -2.15625,2.3125 c -1.1965,1.28363 -2.3215,3.91875 -2.5,5.84375 -0.31858,3.43585 -0.43999,3.51316 -5.59375,4.03125 -5.90636,0.59374 -9.96512,3.57776 -8.84375,6.5 0.54305,1.41517 1.37796,1.60093 4.875,1 11.52193,-1.97991 12.99762,-0.51395 7.5625,7.5 -2.91479,4.29778 -3.78422,4.9106 -6.84375,4.9375 -3.51823,0.0309 -15.72921,9.35185 -14.40625,10.6875 l 72.9375,0 c 0.9822,-0.24061 -1.88515,-6.66648 -3.53125,-8.15625 -2.2392,-2.0264 -2.59915,-5.49464 -0.78125,-7.3125 0.66,-0.66 2.685,-1.1875 4.5,-1.1875 3.539,0 3.71215,-0.32237 3.34375,-6.34375 -0.2332,-3.81185 -0.19875,-3.85575 2.84375,-3.1875 5.43,1.19263 7.09375,-0.0175 7.09375,-5.09375 0,-2.46525 0.72565,-5.85247 1.59375,-7.53125 1.7135,-3.31348 2.22725,-3.33293 11.21875,-0.78125 3.3921,0.96245 4.8841,0.96407 7,0 2.6183,-1.19299 2.6279,-1.28135 0.6875,-2.625 -5.8703,-4.06485 -5.96325,-5.97239 -0.40625,-7.46875 5.1546,-1.38799 11.8121,0.64677 20.375,6.1875 4.8273,3.12354 6.8631,3.84375 10.8125,3.84375 5.4974,0 7.55565,0.8893 13.15625,5.65625 2.1615,1.83977 4.4732,3.34375 5.125,3.34375 0.6518,0 2.30125,0.87159 3.65625,1.9375 1.3551,1.06591 3.57675,2.21314 4.96875,2.5625 2.2796,0.57215 2.642,0.2562 3.5,-3.1875 0.5364,-2.15313 0.5817,-5.47458 0.125,-7.625 -0.4852,-2.28486 -0.4101,-4.57083 0.1875,-5.6875 1.3593,-2.53984 -0.2212,-6.4454 -3.5,-8.59375 -1.4355,-0.94053 -3.89695,-4.26128 -5.46875,-7.375 -1.5718,-3.11371 -6.02905,-9.34966 -9.90625,-13.84375 -9.1197,-10.57081 -8.68285,-12.62669 2.34375,-11.125 3.2685,0.44513 6.34695,0.55707 6.84375,0.25 0.86,-0.53147 0.67745,-2.38493 -0.84375,-8.5625 -0.8409,-3.41486 0.80275,-3.58035 8.03125,-0.84375 4.7588,1.80164 5.0228,2.08938 5.3125,5.9375 0.2704,3.59138 0.8026,4.31699 4.6875,6.59375 5.9081,3.46235 7.72295,3.27117 10.59375,-1.15625 1.435,-2.21308 3.62545,-4.09864 5.40625,-4.625 9.8079,-2.89904 12.1119,-5.31964 8.625,-9.03125 -1.1696,-1.24497 -2.125,-2.75346 -2.125,-3.375 0,-0.62154 2.2249,-3.03843 4.9375,-5.375 4.0458,-3.48502 4.76215,-4.58002 3.96875,-6.0625 -0.532,-0.99394 -1.64585,-1.8125 -2.46875,-1.8125 -2.524,0 -2.6863,-2.71755 -0.375,-5.84375 2.0599,-2.78606 2.0992,-3.28613 0.875,-8.0625 -1.4542,-5.67441 -2.57815,-6.13739 -6.90625,-2.9375 -2.2336,1.6514 -3.74485,1.99357 -6.59375,1.53125 -3.7272,-0.60484 -9.4375,1.37572 -9.4375,3.28125 0,1.9208 -7.3425,6.39362 -19.1875,11.6875 -8.5022,3.79986 -13.49825,6.71028 -16.28125,9.46875 -5.474,5.42593 -15.6801,10.45132 -22.5,11.09375 -5.4613,0.51445 -5.46245,0.52061 -9.71875,-4.09375 -3.7491,-4.06444 -4.27125,-5.19715 -4.28125,-9.3125 -0.0118,-5.17545 -1.7873,-6.60486 -6.6875,-5.375 -2.8687,0.72 -5.34375,-0.84614 -5.34375,-3.40625 0,-0.94741 -0.87945,-2.51425 -1.96875,-3.5 -4.7887,-4.33379 -2.97295,-14.24474 3.28125,-17.9375 1.7645,-1.04189 6.1239,-2.17 9.6875,-2.5 5.8393,-0.54073 6.5509,-0.86691 7.375,-3.21875 1.5802,-4.50929 0.10285,-7.47828 -5.09375,-10.125 -7.7831,-3.96398 -12.06385,-6.73748 -12.65625,-8.28125 -0.7326,-1.90905 0.18955,-4.19225 1.96875,-4.875 0.7825,-0.30026 1.40625,-1.23195 1.40625,-2.09375 0,-1.74688 -7.7958,-5.5 -11.4375,-5.5 -3.2925,0 -9.64975,-2.41023 -14.59375,-5.53125 -3.8478,-2.42899 -4.62675,-2.59504 -7.96875,-1.59375 -2.0402,0.61126 -3.99505,1.125 -4.34375,1.125 -1.0719,0 -0.70955,-3.91257 1.03125,-11.125 0.9153,-3.79249 1.3802,-7.15111 1.0625,-7.46875 -1.1876,-1.18765 -5.6311,2.83828 -6.25,5.65625 -0.4385,1.99633 -1.25237,2.9375 -2.5625,2.9375 -2.25638,0 -2.43797,-2.04557 -0.78125,-8.625 0.7716,-3.06433 0.80236,-5.20104 0.125,-6.6875 -0.54791,-1.20237 -1.73267,-3.875 -2.625,-5.9375 -1.10624,-2.55689 -2.25029,-3.75 -3.625,-3.75 -1.1089,0 -2.03125,-0.10887 -2.03125,-0.25 0,-0.14113 -0.40542,-1.69123 -0.90625,-3.4375 -0.69632,-2.42794 -0.50173,-3.96245 0.84375,-6.5 0.96772,-1.8251 2.04907,-6.57713 2.375,-10.5625 0.53092,-6.49208 0.39571,-7.35032 -1.34375,-8.28125 -2.13556,-1.14292 -2.59631,-4.93494 -0.8125,-6.71875 0.84762,-0.84762 0.7276,-1.52239 -0.46875,-2.71875 -1.61889,-1.61889 -1.51138,-4.74905 0.34375,-10.6875 0.45714,-1.46335 0.57825,-4.47319 0.28125,-6.6875 -0.8006,-5.96888 0.43226,-10.78381 3.75,-14.5625 3.60021,-4.10042 7.8181,-4.98899 11.6875,-2.4375 1.8086,1.19264 4.633,1.83975 8.1875,1.84375 3.5192,0.004 6.02815,0.54159 7.15625,1.5625 1.5808,1.43062 2.03205,1.4227 4.84375,-0.0312 1.7,-0.87911 3.0625,-2.28338 3.0625,-3.15625 0,-1.80512 -12.00875,-13.28691 -18.90625,-18.0625 -2.50826,-1.73663 -6.75492,-4.31869 -9.5,-5.78125 z m 34.6875,27.625 c -1.22622,0.0651 -2.70745,0.90753 -5.1875,2.53125 -3.7669,2.46626 -5.05615,5.00634 -3.40625,6.65625 1.308,1.30801 6.19845,0.62636 7.90625,-1.09375 0.9557,-0.9625 2.8682,-2.20663 4.25,-2.78125 l 2.53125,-1.0625 -2.375,-2.1875 c -1.51525,-1.41166 -2.49253,-2.12758 -3.71875,-2.0625 z m -253.03125,6.84375 c -0.55973,2.45971 -0.32851,5.01927 1.25,5.625 0.90445,0.34707 1.5,1.86713 1.5,3.8125 0,1.77449 0.32083,3.53959 0.6875,3.90625 1.11872,1.11872 6.84927,0.74448 8.125,-0.53125 0.66,-0.66 1.1875,-2.45318 1.1875,-3.96875 0,-1.9037 -1.70088,-5.46111 -3.6875,-8.5 -0.93335,-0.0435 -1.96074,-0.0701 -3.21875,-0.0937 -1.85639,-0.035 -3.88716,-0.1372 -5.84375,-0.25 z m -12.65625,0.28125 c -0.46969,0.3946 -0.9698,0.87781 -1.59375,1.53125 -1.6154,1.69174 -3.2978,3.09375 -3.75,3.09375 -0.4522,0 -4.59435,2.475 -9.1875,5.5 -1.21195,0.79818 -2.36397,1.53252 -3.4375,2.21875 0.9581,1.40399 1.74034,2.96268 1.96875,4.125 0.56458,2.87296 1.0189,3.25 3.90625,3.25 4.83869,0 5.70553,1.68779 3.9375,7.5625 -2.36853,7.87001 -0.003,14.3977 3.0625,8.46875 2.74586,-5.30992 6.65472,-3.40755 7.46875,3.625 0.46683,4.03297 1.07274,5.13502 3.9375,7.0625 4.10859,2.76437 3.62944,2.73414 7.75,0.1875 5.0205,-3.10284 4.44387,-5.5216 -1.9375,-8.34375 -6.97649,-3.08533 -8.09961,-4.58061 -7.40625,-9.75 0.52491,-3.9135 0.29418,-4.39352 -3.59375,-7.84375 -4.13141,-3.66631 -4.13743,-3.67038 -2.40625,-6.3125 0.95429,-1.45642 2.16953,-2.65625 2.6875,-2.65625 0.51797,0 1.44571,-0.94127 2.0625,-2.09375 0.9253,-1.72893 0.77687,-2.33362 -0.84375,-3.46875 -1.70495,-1.19419 -2.75231,-3.98134 -2.625,-6.15625 z m 313.1875,5.09375 c -0.9741,0.018 -1.97155,0.23292 -3.4375,0.625 -1.05846,0.28309 -2.12421,0.48031 -3.25,0.59375 2.3923,2.54641 4.45825,2.99074 6.90625,1.4375 1.15082,-0.73021 1.12202,-1.23223 -0.21875,-2.65625 z m -14.59375,0.96875 c 0.25289,0.10133 0.54125,0.13149 0.84375,0.0937 -0.27239,-0.0278 -0.55806,-0.0617 -0.84375,-0.0937 z m -19.96875,0.0937 c -0.66246,0.0407 -1.55125,0.42782 -2.59375,1.1875 -2.7836,2.02851 -3.3411,3.91772 -1.375,4.6875 1.7559,0.68749 6.16185,-4.30688 4.90625,-5.5625 -0.23966,-0.23965 -0.54003,-0.33693 -0.9375,-0.3125 z m 10.75,1.65625 c -0.23502,-0.006 -0.40585,0.0309 -0.5,0.125 -1.3021,1.30213 0.5166,5.5424 2.625,6.09375 3.2307,0.84485 1.7369,3.06938 -2.8125,4.1875 -2.2379,0.55 -3.98525,1.45 -3.90625,2 0.0788,0.55 0.5507,0.85811 1.0625,0.6875 1.9122,-0.6374 7.55205,3.33908 8.46875,5.96875 0.5849,1.67779 2.53445,3.53874 5.03125,4.8125 2.2327,1.13905 5.5181,3.6241 7.3125,5.53125 1.7943,1.90716 4.0984,3.45865 5.125,3.46875 1.9165,0.0189 1.9192,-0.80776 0.0625,-6.84375 -0.6622,-2.15267 -0.52,-2.26416 1.375,-1.25 2.8132,1.50558 3.1875,1.41728 3.1875,-0.71875 0,-2.85281 0.85805,-3.10303 5.34375,-1.5625 2.7894,0.95796 4.93005,2.63024 6.46875,5 2.6862,4.13696 5.5352,4.25194 6,0.25 0.2119,-1.82448 -0.6483,-3.75391 -2.8125,-6.21875 -2.0533,-2.33858 -2.9437,-4.20543 -2.5625,-5.40625 0.3199,-1.00801 -0.0788,-2.7101 -0.90625,-3.78125 -1.4247,-1.84399 -1.5871,-1.84445 -2.875,-0.1875 -1.6958,2.1818 -3.46885,2.21774 -5.78125,0.125 -1.1545,-1.04485 -3.86985,-1.68601 -7.65625,-1.8125 -6.1902,-0.20679 -12.21875,-3.22146 -12.21875,-6.125 0,-0.78755 -0.85085,-1.4375 -1.90625,-1.4375 -1.0554,0 -3.2785,-0.76658 -4.9375,-1.71875 -1.24433,-0.71413 -2.48243,-1.16927 -3.1875,-1.1875 z m 29.9375,1.90625 c -2.0271,0 -3.29145,2.65311 -1.59375,3.34375 1.9726,0.80251 5.6875,0.70047 5.6875,-0.15625 0,-1.38045 -2.32815,-3.1875 -4.09375,-3.1875 z m -73.90625,1 c -2.3267,0 -3.2498,0.58934 -4,2.5625 -1.2299,3.23495 -1.27805,3.00325 0.53125,4.8125 2.6563,2.65633 6.46875,-0.4722 6.46875,-5.3125 0,-1.63236 -0.6098,-2.0625 -3,-2.0625 z m 64.78125,0 c -2.3309,0 -3.50715,2.92179 -1.65625,4.09375 1.8413,1.16592 2.6019,1.13157 5.125,-0.21875 2.0477,-1.09587 2.0622,-1.17489 0.25,-2.5 -1.0293,-0.75261 -2.70665,-1.375 -3.71875,-1.375 z m -275.28125,4 c -1.81631,0 -1.99117,1.64117 -0.25,2.34375 0.6875,0.27741 1.3625,0.5191 1.5,0.5625 0.1375,0.0434 0.25,-0.58125 0.25,-1.40625 0,-0.825 -0.675,-1.5 -1.5,-1.5 z M 190.625,179.25 c -0.53522,0.0543 -1.01192,0.36447 -1.375,0.9375 -1.37205,2.16538 -1.06074,3.63061 1.28125,5.8125 2.19406,2.04407 5.8125,2.78299 5.8125,1.1875 0,-4.03362 -3.39944,-8.1729 -5.71875,-7.9375 z m 247.03125,3.78125 c -2.2288,0 -2.68945,2.92274 -0.78125,5.03125 2.0142,2.2257 3.05405,2.45608 4.03125,0.875 0.9061,-1.46611 -1.5346,-5.90625 -3.25,-5.90625 z m -232.03125,4 c -1.57807,0.0512 -1.41607,0.45268 -0.28125,3.4375 0.97481,2.56395 2.46064,3.11108 5.4375,1.96875 3.6038,-1.38291 0.37614,-5.40625 -4.34375,-5.40625 -0.29749,0 -0.58706,-0.007 -0.8125,0 z m 310.375,6.25 c -1.16849,0.1144 -2.15625,0.72606 -2.15625,1.75 0,0.81747 0.9,1.64533 2,1.84375 3.285,0.59256 3.7757,1.74947 2.0625,5.0625 -1.3273,2.5668 -2.22305,3.15075 -4.84375,3.09375 -1.7652,-0.0384 -6.36875,0.58301 -10.21875,1.40625 -3.85,0.82324 -7.7791,1.25906 -8.75,0.96875 -0.9708,-0.29032 -3.3555,0.47806 -5.3125,1.6875 -2.6389,1.63097 -3.8518,1.89823 -4.6875,1.0625 -1.3959,-1.39582 -5.4154,-1.4754 -6.25,-0.125 -1.1243,1.81914 -7.635,1.0351 -13.5625,-1.625 -6.5153,-2.92392 -8.9375,-2.65481 -8.9375,1.03125 0,1.96577 0.9917,3.00618 4.75,4.875 3.711,1.84533 4.84165,2.94556 5.09375,5.09375 0.5049,4.30237 -2.0657,7.40656 -5.6875,6.875 -2.674,-0.39247 -3.23635,-0.0181 -5.03125,3.5 -1.1939,2.34031 -3.19305,4.44663 -4.90625,5.15625 -2.5761,1.06706 -3.42295,0.9014 -7.53125,-1.59375 -3.1444,-1.90974 -4.63425,-3.48225 -4.65625,-4.9375 -0.0303,-2.04836 -0.38215,-2.1299 -8.28125,-1.6875 -7.6752,0.42985 -8.4591,0.29032 -11.25,-2.03125 l -3,-2.5 2.3125,-2.15625 c 3.1825,-2.99261 2.47465,-4.97929 -3.15625,-8.75 -3.7096,-2.48411 -5.2411,-2.99068 -6.625,-2.25 -2.8156,1.50683 -3.73115,5.81448 -3.09375,14.5 l 0.5625,8 4.03125,0.0312 c 2.2042,0.0226 4.6792,0.45567 5.5,0.96875 0.8208,0.51309 3.49375,1.17948 5.96875,1.46875 4.4166,0.5162 4.52705,0.6183 4.84375,4.5 0.4929,6.0442 -1.71455,12.65621 -5.21875,15.65625 -2.7175,2.32659 -2.91115,2.80045 -1.65625,4.3125 1.1716,1.41172 2.41915,1.59556 7.28125,1.03125 4.8401,-0.56175 6.2092,-0.35724 7.8125,1.09375 1.0694,0.9678 1.9375,2.50799 1.9375,3.4375 0,3.45029 6.98855,7 13.78125,7 2.6848,0 4.23665,0.80185 6.78125,3.5 2.348,2.48958 4.1773,3.5 6.3125,3.5 3.2872,0 17.22275,2.75405 18.03125,3.5625 0.277,0.27708 -0.2847,1.83454 -1.25,3.46875 -0.9654,1.63421 -1.46545,3.46104 -1.09375,4.0625 0.4177,0.67582 2.068,0.84574 4.3125,0.4375 1.9975,-0.36332 5.50495,-0.74198 7.78125,-0.84375 2.2762,-0.10177 4.9762,-0.88991 6,-1.75 1.567,-1.31653 6.18125,-3.26041 18.78125,-7.875 1.8201,-0.66662 1.8005,-0.79003 -0.4375,-2.875 -2.6947,-2.51049 -4.10605,-2.59986 -16.09375,-1.0625 -8.1445,1.04449 -8.9766,0.98189 -12.0625,-0.90625 -2.9213,-1.78736 -3.98875,-1.90271 -8.96875,-1.03125 -4.3675,0.76427 -6.99275,0.63147 -11.53125,-0.53125 -7.2059,-1.84606 -20.34375,-9.20106 -20.34375,-11.40625 0,-0.8749 -1.4625,-2.88798 -3.25,-4.4375 l -3.25,-2.8125 3,-2.5625 c 1.65,-1.4178 4.6612,-3.64943 6.6875,-4.96875 2.0264,-1.31933 4.9514,-4.02729 6.5,-6 1.5728,-2.00338 5.1887,-4.67563 8.1875,-6.0625 2.9528,-1.36564 7.07905,-4.21441 9.15625,-6.3125 2.6206,-2.64684 4.97525,-3.99879 7.71875,-4.4375 2.1747,-0.34775 5.12425,-1.54952 6.53125,-2.65625 1.407,-1.10672 3.68715,-2 5.09375,-2 1.4157,0 4.1086,-1.33936 6,-3 2.5489,-2.23795 4.39575,-3.0114 7.28125,-3 3.09175,0.0122 4.6501,0.28525 5.84375,1.625 17.17146,3.31775 18.53918,-5.78171 27.3125,-9.0625 -0.30169,-0.85739 -0.70469,-1.66805 -1.15625,-2.28125 -4.25209,-1.3065 -7.28624,-3.01806 -11.21875,-6 -0.0839,-0.0636 -0.19536,-0.12311 -0.28125,-0.1875 -1.67555,-0.63733 -3.10761,-1.09111 -3.78125,-1.09375 -0.6201,-0.003 -1.69955,-0.71096 -2.40625,-1.5625 -0.78595,-0.94699 -2.14401,-1.3019 -3.3125,-1.1875 z M 124.125,196.125 c -0.81087,-0.0776 -1.62844,0.35733 -2.6875,1.28125 -2.08746,1.8211 -9.77891,2.4797 -12.875,1.3125 -1.18078,0.3953 -2.42411,0.79476 -3.78125,1.15625 -2.475,0.65924 -6.525,1.83178 -9,2.59375 -1.722622,0.53034 -3.693772,1.01583 -5.75,1.46875 0.346418,0.0448 0.729148,0.0937 1.1875,0.0937 1.58125,0 4.32212,0.30192 6.09375,0.65625 2.90723,0.58145 3.16751,0.91243 2.65625,3.46875 -0.62541,3.12702 -4.50187,9.55681 -8.90625,14.75 -1.570333,1.85157 -3.56635,4.86068 -4.4375,6.6875 -1.45399,3.04899 -1.45731,3.52423 0.0625,5.84375 0.9106,1.38975 1.65625,3.23372 1.65625,4.09375 0,2.23214 -5.41026,12.65232 -8.4375,16.25 -2.92446,3.47553 -3.16068,5.37672 -1.09375,8.53125 1.3057,1.99276 1.25411,2.56837 -0.5625,5.4375 -1.11372,1.75901 -2.87261,3.45319 -3.90625,3.78125 -3.76859,1.19611 -3.24283,7.5 0.625,7.5 0.74718,0 1.64591,1.15171 2,2.5625 0.49493,1.97197 -0.0073,3.22709 -2.125,5.4375 -3.16449,3.30302 -2.78982,6 0.84375,6 1.32492,0 2.99426,0.69593 3.6875,1.53125 1.02758,1.23815 0.96037,1.83693 -0.375,3.3125 -2.10135,2.32199 -2.11087,5.98002 0,8.3125 0.91024,1.00581 2.82274,1.8639 4.25,1.875 3.16458,0.0245 16.19324,-6.16958 15.78125,-7.5 -0.1625,-0.52473 -1.74991,-1.29651 -3.5,-1.75 -5.07878,-1.31604 -4.31357,-4.76573 2.6875,-12.125 3.22513,-3.39014 9.67258,-10.43125 14.3125,-15.65625 7.60537,-8.56439 9.28852,-9.91079 17.28125,-13.78125 9.2712,-4.48957 11.53125,-4.72544 11.53125,-1.125 0,1.18984 0.94889,3.67883 2.09375,5.53125 3.03062,4.90365 6.80181,4.68001 10.3125,-0.625 2.85859,-4.31962 4.06041,-4.73941 7.0625,-2.46875 1.06762,0.80751 2.51299,1.46875 3.21875,1.46875 1.56699,0 4.64669,-5.68151 3.8125,-7.03125 -0.80874,-1.30857 -7.42951,-1.23951 -11.34375,0.125 -5.20065,1.81296 -5.82373,0.52896 -6.375,-13.78125 L 149.65625,228.6875 146.5,225.84375 c -5.69818,-5.09132 -6.81804,-4.1179 -11.25,9.75 -4.99403,15.62663 -8.42007,21.46428 -14,23.875 -1.86863,0.80732 -4.75625,2.38011 -6.40625,3.5 -1.65,1.1199 -3.98246,2.0585 -5.1875,2.0625 -1.20504,0.004 -2.46612,0.47079 -2.8125,1.03125 -1.06858,1.72898 -10.29228,5.96875 -12.96875,5.96875 -3.64722,0 -3.28755,-3.21169 0.71875,-6.4375 16.41439,-13.21659 17.28018,-14.32766 14.21875,-19 -1.43958,-2.19708 -1.62361,-4.0443 -1.09375,-10.9375 l 0.625,-8.28125 -3.25,-1.40625 c -4.03773,-1.77728 -4.7713,-5.22348 -1.78125,-8.40625 1.17365,-1.24929 2.48633,-3.57187 2.90625,-5.15625 0.55696,-2.10139 1.71304,-3.18766 4.21875,-4 2.02303,-0.65585 3.95042,-2.19729 4.71875,-3.75 1.44307,-2.91632 1.9376,-3.06569 5.5625,-1.6875 1.96935,0.74874 3.05584,0.53385 5.125,-1.09375 2.49178,-1.96003 2.5287,-2.17596 0.90625,-3.96875 -1.01588,-1.12253 -1.81413,-1.70363 -2.625,-1.78125 z M 241,197.96875 c 0.28434,0.0338 0.58894,0.0588 0.96875,0.0625 -0.32891,-0.0219 -0.62572,-0.0414 -0.96875,-0.0625 z m 2.53125,0.15625 c 3.06891,0.32288 4.31337,1.59218 2.9375,3.25 -1.0362,1.24855 -0.755,2.05525 1.5625,4.65625 2.3216,2.60561 3.29291,3.05391 5.75,2.5625 3.66143,-0.73229 4.5429,-2.02968 4.5625,-6.78125 4.3e-4,-0.10395 6.1e-4,-0.18163 0,-0.28125 -0.96394,-0.27793 -1.81442,-0.59533 -2.5625,-1 -2.2485,-1.21631 -5.76501,-1.91357 -12.25,-2.40625 z m 195.6875,0.46875 c -0.11562,-0.002 -0.21562,0.0253 -0.3125,0.0625 -1.7617,0.67603 -2.64915,2.93892 -1.90625,4.875 0.6192,1.61344 5.87015,2.09924 6.78125,0.625 0.79922,-1.29309 -2.82814,-5.5301 -4.5625,-5.5625 z m -250.1875,9.75 c -0.75805,-0.043 -1.75776,0.21533 -3.09375,0.65625 -4.48289,1.47948 -4.54186,3.2026 -0.21875,6.5 3.09378,2.35974 3.34455,2.92393 2.90625,6.8125 -0.46809,4.15283 -0.3768,4.30694 4.40625,7.40625 2.68684,1.74101 5.71966,4.1115 6.75,5.25 1.03033,1.13851 2.00044,2.0625 2.15625,2.0625 0.15581,0 1.7684,-1.33008 3.5625,-2.96875 2.85746,-2.60988 3.14547,-3.31896 2.3125,-5.6875 -0.82875,-2.35654 -5.3582,-5.76311 -10.46875,-7.875 -3.81262,-1.57553 -4.51766,-2.449 -5.3125,-6.5625 -0.76801,-3.97464 -1.3323,-5.49916 -3,-5.59375 z m 40.65625,2.6875 c -2.67574,0 -6.34375,2.47524 -6.34375,4.28125 0,0.5289 1.0125,0.67538 2.25,0.34375 1.2375,-0.33164 3.2625,-0.618 4.5,-0.625 1.57878,-0.01 2.25,-0.59664 2.25,-2 0,-1.50086 -0.65166,-2 -2.65625,-2 z m -95.375,0.625 c -3.12286,0.11667 -6.52797,0.62016 -7.4375,1.375 -1.57079,1.30364 -2.15611,9.0314 -0.78125,10.40625 0.41119,0.4112 1.19869,-0.002 1.75,-0.9375 3.94458,-6.69608 5.2419,-7.99205 8.46875,-8.46875 1.86152,-0.275 3.53753,-0.95 3.71875,-1.5 0.24049,-0.72985 -2.59589,-0.99167 -5.71875,-0.875 z m 292.09375,0.375 c -2.1977,0 -3.4858,1.50606 -2.5625,3 1.1526,1.86493 4.5,1.12106 4.5,-1 0,-1.31306 -0.6632,-2 -1.9375,-2 z m -174.25,4.28125 c -0.62394,0.0133 -1.33786,0.0906 -2.1875,0.25 -7.07827,1.32789 -6.61059,6.80943 0.875,10.03125 3.83645,1.65123 5.01156,0.55167 4.875,-4.65625 -0.1105,-4.21419 -0.85875,-5.68258 -3.5625,-5.625 z m -11.8125,0.71875 c -1.11111,0 -2,0.66667 -2,1.5 0,0.83333 0.88889,1.5 2,1.5 1.11111,0 2,-0.66667 2,-1.5 0,-0.83333 -0.88889,-1.5 -2,-1.5 z m -65.40625,0.5 c -1.0391,-0.008 -1.59375,1.34992 -1.59375,4.0625 0,2.75377 0.39633,3.4375 1.96875,3.4375 1.08065,0 2.4493,-0.88136 3.03125,-1.96875 0.84228,-1.57381 0.63933,-2.39191 -1,-4.03125 -0.98919,-0.98919 -1.78279,-1.49545 -2.40625,-1.5 z m 359.09375,4.8125 c -6.71204,-4.63474 -14.47639,-0.82179 -19.8125,0.9375 0.0381,2.0083 -1.02081,3.39188 -3.375,5.1875 -4.7468,3.62056 -4.6462,5.58718 0.25,4.90625 2.0625,-0.28685 5.06165,-0.93393 6.65625,-1.4375 1.5946,-0.50358 4.6585,-0.90625 6.8125,-0.90625 5.4246,0 7.23,-1.23622 8.8125,-6.03125 0.34804,-1.05454 0.57037,-1.92502 0.65625,-2.65625 z m -407.375,62.4375 c -0.482,0.061 -0.95213,0.72739 -1.125,1.625 -0.23391,1.2146 0.0926,1.69832 0.96875,1.40625 1.5586,-0.51953 1.82841,-2.66285 0.375,-3.03125 -0.0678,-0.0172 -0.14989,-0.009 -0.21875,0 z m 333.875,16.96875 -3.40625,2.125 c -1.8715,1.15665 -4.2384,3.00725 -5.25,4.125 -1.0116,1.11776 -2.4478,2.03125 -3.1875,2.03125 -0.7398,0 -1.34375,0.50625 -1.34375,1.125 0,0.73622 1.1231,0.89516 3.25,0.46875 1.7875,-0.35838 4.93155,-0.92337 6.96875,-1.25 2.0372,-0.32662 4.4844,-1.44684 5.4375,-2.5 1.6497,-1.82288 1.6242,-2.00086 -0.375,-4 l -2.09375,-2.125 z m -295.6875,2.375 c -0.19999,0.0137 -0.40364,0.0267 -0.65625,0.0625 -1.70795,0.24197 -2.41809,1.10829 -2.65625,3.1875 -0.2818,2.4602 -0.0209,2.78631 2,2.5 1.70795,-0.24197 2.41809,-1.10829 2.65625,-3.1875 0.24658,-2.15267 0.0562,-2.65825 -1.34375,-2.5625 z m 12.96875,6.375 c -1.59662,0.0972 -3.41538,1.34366 -4.5,3.84375 -0.52236,1.20406 -1.49931,2.92732 -2.15625,3.84375 -0.99614,1.38961 -0.5874,2.34264 2.40625,5.65625 1.97427,2.18528 3.88158,4.9017 4.25,6.0625 0.43972,1.38541 1.52817,2.125 3.125,2.125 2.83313,0 2.88043,-0.63986 0.90625,-8 -0.81139,-3.025 -1.21619,-6.87723 -0.90625,-8.5625 0.61237,-3.32966 -1.07221,-5.09374 -3.125,-4.96875 z M 77.03125,387.34375 c -2.299047,-0.0483 -3.182412,1.71621 -3.46875,5.59375 l -0.3125,4.1875 7.8125,-0.6875 c 4.29539,-0.375 7.9508,-0.8228 8.15625,-1 1.243563,-1.07257 -1.55958,-3.76329 -6.375,-6.125 -2.570846,-1.26086 -4.433072,-1.93979 -5.8125,-1.96875 z m 127.28125,0.0937 c -1.25842,0.0489 -3.00047,0.60271 -4.875,1.65625 -4.01852,2.25853 -5.57558,4.34148 -4.53125,6.03125 0.30925,0.50037 0.82179,0.90625 1.125,0.90625 1.17198,0 10.3125,-6.3707 10.3125,-7.1875 0,-0.98072 -0.77283,-1.45514 -2.03125,-1.40625 z m -94.46875,9.5 c -1.26927,-0.0144 -2.6109,0.19043 -3.90625,0.6875 -2.11522,0.81169 -2.02489,4.0421 0.15625,5.3125 0.9625,0.56061 3.41207,1.0458 5.4375,1.0625 2.91705,0.0241 3.82849,-0.43435 4.375,-2.15625 0.87728,-2.76408 -2.2547,-4.86298 -6.0625,-4.90625 z m 78.21875,3.3125 c -1.8626,0.048 -4.10149,2.30975 -3.25,3.6875 1.07627,1.74144 3.38818,1.28799 4.5625,-0.90625 0.85711,-1.60152 0.72571,-2.16192 -0.5625,-2.65625 -0.24013,-0.0922 -0.48391,-0.13185 -0.75,-0.125 z m -6.78125,5.9375 c -0.50509,-0.003 -1.13711,0.0732 -1.9375,0.1875 -6.52571,0.9318 -11.46426,2.35001 -14.71875,4.25 -5.75282,3.35853 -4.18995,5.24814 6.375,7.71875 3.92109,0.91695 8.37404,2.33008 9.90625,3.125 4.63693,2.40567 17.22271,-1.45683 19.25,-5.90625 1.6673,-3.65932 -0.54389,-5.99412 -4.875,-5.125 -10.15802,2.0384 -9.91798,2.07114 -11.21875,-1.375 -0.82752,-2.19235 -1.26597,-2.86616 -2.78125,-2.875 z m 148.40625,6.34375 c -0.41593,0.0222 -0.93261,0.31788 -1.6875,0.8125 -1.19142,0.78065 -3.73931,1.75224 -5.65625,2.15625 -1.91693,0.404 -4.85,1.97467 -6.5,3.46875 -1.65,1.49407 -4.2375,3.46952 -5.75,4.40625 -1.5125,0.93673 -2.75,2.60018 -2.75,3.6875 0,2.80527 3.81706,2.56301 7.96875,-0.5 1.84223,-1.35916 5.63538,-3.22185 8.4375,-4.125 2.80212,-0.90316 6.08029,-2.24858 7.28125,-3 2.06951,-1.29487 2.10824,-1.52692 0.65625,-4.4375 -0.88979,-1.78362 -1.30679,-2.50573 -2,-2.46875 z m -179.5,0.5 c -0.61509,0 -2.5286,1.63364 -4.25,3.625 -2.25883,2.61308 -4.22409,3.7875 -7.09375,4.25 -3.57877,0.57679 -4.00237,0.97124 -4.28125,3.84375 -0.27791,2.86244 -0.74927,3.27062 -4.4375,4 -5.1545,1.01935 -13.36377,9.38837 -8.90625,9.9375 l 24.21875,0 c 1.48365,-1.375 4.5696,-10.65625 5,-10.65625 1.78214,0 3.90625,-3.34603 3.90625,-6.125 0,-3.46318 -2.52988,-8.875 -4.15625,-8.875 z"
         style="fill:#d7ac89;fill-opacity:1"
         inkscape:connector-curvature="0" />
      <path
         id="path2851"
         d="m 395.5625,129.03125 c -0.0617,0.002 -0.12534,0.0273 -0.1875,0.0312 -0.19494,0.012 -0.39548,0.003 -0.59375,0.0312 -0.0532,0.008 -0.10272,0.0223 -0.15625,0.0312 -0.31803,0.0529 -0.64086,0.12849 -0.96875,0.21875 -0.31558,0.16176 -0.60202,0.36626 -0.78125,0.65625 -0.33992,0.55 -1.24347,1 -2.03125,1 -0.68107,0 -2.64729,1.12928 -5.0625,2.78125 -0.0151,0.0103 -0.0474,-0.0103 -0.0625,0 -0.053,-0.009 -0.0783,0.005 -0.125,0 -0.20123,0.14479 -0.44626,0.31595 -0.65625,0.46875 0.005,0.0334 -0.008,0.0592 0,0.0937 -0.40178,0.28314 -0.80136,0.60076 -1.21875,0.90625 -0.0412,-0.003 -0.0833,-0.0243 -0.125,-0.0312 -0.2632,0.19533 -0.47708,0.35799 -0.75,0.5625 0.006,0.0313 -0.003,0.0637 0,0.0937 -0.0233,0.0175 -0.0392,0.045 -0.0625,0.0625 -0.0424,-0.001 -0.0824,-0.0273 -0.125,-0.0312 -0.82561,0.61982 -1.69599,1.30938 -2.59375,2 -0.004,0.0733 -0.0292,0.13958 -0.0625,0.15625 -0.068,0.034 -0.14587,0.0476 -0.21875,0.0625 -0.61056,0.4708 -1.24071,0.97276 -1.875,1.46875 0.008,0.0798 0.0292,0.18147 0.0312,0.25 -0.1679,0.14507 -0.33549,0.29278 -0.5,0.4375 -0.11169,-0.012 -0.23222,-0.0372 -0.34375,-0.0625 -0.21128,0.16614 -0.41192,0.33173 -0.625,0.5 0.0205,0.0889 0.022,0.16554 -0.0312,0.21875 -0.20327,0.20327 -0.47145,0.30414 -0.75,0.40625 -0.46232,0.36702 -0.93864,0.75048 -1.40625,1.125 -0.0146,0.10811 10e-4,0.22263 0.0312,0.34375 -0.19015,0.12566 -0.32043,0.1875 -0.375,0.1875 -0.0182,0 -0.11567,0.0728 -0.15625,0.0937 -0.0789,-0.0127 -0.16953,-0.0153 -0.25,-0.0312 -0.21942,0.17656 -0.43632,0.35355 -0.65625,0.53125 0.0145,0.0779 0.0164,0.13985 -0.0312,0.1875 -0.34931,0.17465 -0.34506,0.16351 -0.53125,0.25 -0.76843,0.62306 -1.51539,1.24485 -2.28125,1.875 -0.007,0.0118 -0.0251,0.019 -0.0312,0.0312 -0.0378,0.0756 -0.0267,0.18084 0,0.28125 -0.10534,0.0943 -0.1746,0.15378 -0.28125,0.25 -0.10165,0.0917 -0.15087,0.12936 -0.25,0.21875 -0.10346,-0.018 -0.20782,-0.0431 -0.3125,-0.0625 -0.18883,0.15628 -0.37444,0.31251 -0.5625,0.46875 0.0399,0.12376 0.0566,0.23733 -0.0312,0.28125 -0.084,0.042 -0.23351,0.0592 -0.40625,0.0625 -1.43137,1.19271 -2.84673,2.40733 -4.1875,3.5625 -2.03185,1.75059 -6.3875,5.1265 -9.6875,7.53125 -5.32815,3.88269 -6.61712,4.39692 -11.4375,4.40625 -5.35792,0.0104 -5.51411,0.0939 -13.125,7.25 -16.66179,15.66624 -27.38749,24.29087 -31.9375,25.71875 -2.475,0.7767 -5.4,1.96293 -6.5,2.625 -1.1,0.66206 -3.575,1.51375 -5.5,1.90625 -1.925,0.3925 -4.05137,1.18162 -4.71875,1.71875 -0.27148,0.21849 -1.2524,0.37991 -2.6875,0.5 -0.008,0.0121 -0.0231,0.0191 -0.0312,0.0312 -0.29765,0.0243 -0.66534,0.0437 -1,0.0625 -0.0441,0.003 -0.0803,-0.002 -0.125,0 -0.0634,0.003 -0.12295,-0.003 -0.1875,0 -0.1504,0.008 -0.3434,0.0244 -0.5,0.0312 -0.85628,0.034 -1.80482,0.0595 -2.8125,0.0625 -1.30587,0.004 -2.6985,-0.014 -4.15625,-0.0625 -1.36133,-0.0453 -2.54112,-0.12014 -3.65625,-0.1875 -1.5197,-0.0918 -2.82388,-0.19757 -3.96875,-0.34375 -0.65238,-0.0833 -1.2576,-0.17637 -1.8125,-0.28125 0.0765,0.82238 0.23849,1.75395 0.53125,2.59375 0.7802,2.23809 1.84238,3.06979 4.46875,3.5625 3.74755,0.70305 4.25817,1.63652 1.9375,3.5625 -0.98548,0.81788 -2.92974,1.05099 -5.59375,0.625 -3.73376,-0.59705 -4.01397,-0.50381 -3.4375,1.3125 0.34557,1.0888 0.17935,3.69446 -0.375,5.78125 -0.55435,2.08679 -1.25201,5.01875 -1.5625,6.53125 -0.59828,2.9145 -3.05835,3.60424 -6.40625,1.8125 -2.34306,-1.25397 -3.54225,-0.23457 -4.71875,3.9375 -0.88359,3.13334 -1.37879,3.5 -4.46875,3.5 -3.00927,0 -4.49465,1.09359 -11.6875,8.4375 -4.5375,4.6328 -8.25,8.81625 -8.25,9.3125 0,0.49625 2.11391,0.78326 4.6875,0.625 3.00136,-0.18457 4.80332,0.12871 5.0625,0.90625 0.22224,0.66672 -0.17291,1.2673 -0.90625,1.3125 -3.87248,0.23883 -7.23222,1.16972 -8.375,2.3125 -0.70658,0.70658 -3.7768,2.35939 -6.84375,3.6875 -3.70188,1.60308 -5.58245,2.99449 -5.59375,4.15625 -0.009,0.9625 -0.46074,1.75 -1,1.75 -1.38695,0 -0.65044,-4.89835 1.3125,-8.6875 0.91186,-1.76019 1.65625,-3.64674 1.65625,-4.1875 0,-1.672 6.10794,-11.17936 13.5625,-21.125 3.9163,-5.225 7.64046,-10.48616 8.28125,-11.6875 2.85745,-5.35714 -0.0817,-6.95899 -6.0625,-3.3125 -1.80079,1.09795 -3.82318,1.998 -4.5,2 -0.67682,0.002 -3.71432,1.58935 -6.75,3.53125 -4.21384,2.69555 -5.53125,4.11044 -5.53125,5.96875 0,1.40582 -0.85172,2.88546 -2,3.5 -1.09351,0.58523 -2.2242,2.05963 -2.53125,3.28125 -0.30705,1.22163 -1.53806,2.70702 -2.75,3.3125 -5.57377,2.78461 -10.72075,5.83018 -10.71875,6.34375 0.001,0.31052 -3.37734,0.43192 -7.53125,0.25 -9.30194,-0.40737 -10.46875,0.37185 -10.46875,7.0625 0,4.12973 -0.25489,4.87677 -1.5625,4.375 -0.98452,-0.3778 -2.7232,0.50446 -4.59375,2.375 -3.44695,3.44695 -4.1168,3.60196 -6.3125,1.40625 -0.98906,-0.98903 -2.46275,-1.3857 -3.875,-1.03125 -2.7452,0.689 -6.65625,3.92204 -6.65625,5.5 0,1.67599 -2.70305,1.37607 -3.375,-0.375 -0.31841,-0.82976 -1.70331,-2.02272 -3.09375,-2.65625 -1.98398,-0.90396 -2.53125,-1.88884 -2.53125,-4.5625 0,-2.77603 -0.32404,-3.29863 -1.75,-2.875 -0.9625,0.28595 -3.1,0.81251 -4.75,1.1875 -1.65,0.37499 -3.675,1.25269 -4.5,1.9375 -2.7605,2.2914 -8,4.55913 -8,3.46875 0,-0.58139 0.675,-1.30842 1.5,-1.625 0.825,-0.31659 1.5,-1.42759 1.5,-2.46875 0,-1.31791 0.71501,-1.90625 2.34375,-1.90625 2.964,0 4.3861,-3.01309 5.65625,-11.96875 1.13705,-8.01729 4.45261,-12.25576 5.40625,-15.3125 0.75345,-2.41508 7.125,-4.19336 7.125,-4.6875 -13.37221,-6.74203 3.94926,-14.98783 12.34375,-34.15625 -4.21445,-5.1619 -3.69972,-13.77677 -2.59375,-21.3125 -1.4529,0.74444 -4.78987,2.78521 -8.4375,5.1875 -4.59316,3.025 -8.59755,5.5 -8.90625,5.5 -0.87741,0 -13.70236,8.74873 -18.1875,12.40625 -4.47677,3.65069 -8.77769,5.73239 -15.53125,7.53125 -2.475,0.65924 -6.525,1.83178 -9,2.59375 -6.166409,1.89843 -15.519152,3.46875 -20.59375,3.46875 l -7.03125,0.84375 c 0.144622,0.13173 0.252346,0.27041 0.40625,0.40625 2.387639,2.10742 5,3.49547 5,4.1875 0,0.69202 -2.0152,2.72632 -4.46875,4.53125 -5.150551,3.78895 -5.708208,6.31349 -1.78125,8 1.5125,0.64957 2.912997,1.32228 3.125,1.46875 0.212002,0.14647 -0.35251,1.42631 -1.28125,2.84375 -1.60277,2.44614 -1.597467,2.72211 0.3125,5.8125 1.859521,3.00877 1.90974,3.49441 0.5,6.21875 -0.839047,1.62147 -5.3125,4.0693 -5.3125,5.625 l 0,9.34375 c 0,0.52525 2.853061,-0.49744 4.46875,-1.5625 6.550708,-4.31822 6.600156,-1.86621 0.09375,5 l -4.5625,4.25 0,175.78125 488.90625,0 0,-161.78125 c -0.44414,-1.7696 -1.51957,-2.21932 -7.125,-2.125 -1.86848,0.0314 -4.22714,0.12778 -7.25,0.25 -13.34703,0.53966 -13.89478,-1.84456 -15.9375,-0.21875 -10.27489,1.04175 4.67795,2.99743 -15.96875,-3.15625 l 9.1875,-3.9375 17.53125,0.625 19.5625,0.625 0,-7.71875 -6.75,-1 c -1.16422,-0.15255 -2.85964,-0.17541 -4.9375,-0.125 -6.23358,0.15124 -15.88935,1.14703 -24.8125,2.65625 -3.3,0.55815 -9.15,1.3719 -13,1.8125 -3.85,0.44061 -14.3125,2.30455 -23.25,4.125 -13.90949,2.83317 -16.25,3.55082 -16.25,5.125 0,0.50332 0.10747,0.8536 0.375,1.125 l -2.90625,1.3125 c -0.36637,-0.0659 -0.8864,-0.0273 -1.46875,0.125 -2.23106,0.58344 -2.47442,1.55342 -1.03125,4.25 1.55411,2.90389 -1.07482,4.27102 -7.4375,3.875 -16.89678,23.1611 -64.46381,12.8759 4,-28.40625 6.88807,-4.40624 17.29898,-9.30187 28.4375,-13.40625 17.39786,-5.48603 32.07077,-13.20157 56.34375,-13.0625 0.62153,0.004 1.0159,0.0312 1.75,0.0312 l 10.9375,0.1875 0,-7.6875 -10,0.3125 c -5.48919,0.23446 -8.18504,0.91414 -9.3125,2.625 -8.15649,0.68774 -22.38979,7.45229 -23.375,0.96875 -0.42386,-3.18193 -3.23711,-10.33615 -4.59375,-13.90625 -1.26886,-3.33937 -1.54715,-5.29894 -0.875,-6.5 0.85396,-1.52594 0.41894,-1.71875 -4.0625,-1.71875 -3.63558,0 -5.0625,0.40911 -5.0625,1.40625 0,1.64362 -4.21953,4.59375 -6.5625,4.59375 -0.90697,0 -3.31261,0.87563 -5.3125,1.9375 -1.99988,1.06187 -5.36155,2.21607 -7.46875,2.5625 -2.84122,0.46712 -4.26248,1.38073 -5.5,3.5625 -0.9178,1.61811 -2.55625,3.24451 -3.65625,3.59375 -1.1,0.34925 -3.06333,1.47566 -4.375,2.5 -1.31167,1.02434 -3.44917,1.84375 -4.75,1.84375 -1.30083,0 -2.375,0.37119 -2.375,0.8125 0,1.67902 -11.28949,12.1875 -13.09375,12.1875 -0.57621,0 -1.08589,0.20661 -1.4375,0.53125 -0.70131,-0.005 -2.44407,-0.0246 -2.46875,0 -0.16836,0.16836 0.21296,0.61227 0,0.71875 -0.42592,0.21296 -0.93006,0 -1.40625,0 -0.2381,0 -0.55039,-0.16836 -0.71875,0 -0.16836,0.16836 0.22588,0.64346 0,0.71875 -0.67763,0.22588 -1.44197,0 -2.15625,0 -0.2381,0 -0.55039,-0.16836 -0.71875,0 -0.16836,0.16836 0.21296,0.61227 0,0.71875 -0.46211,0.23105 -2.58717,-0.25658 -2.84375,0 -0.44643,0.44643 -0.18791,0.65932 0.0937,0.75 -0.27167,-0.0227 -0.66119,-0.0625 -1.53125,-0.0625 l -0.71875,0 c -0.23809,0 -0.55039,-0.16836 -0.71875,0 -0.16835,0.16835 0.21296,0.61227 0,0.71875 -0.42591,0.21296 -0.93006,0 -1.40625,0 -10.38747,21.70954 -10.47036,-5.22218 -14.78125,-6.375 -0.99211,0 -1.8125,-0.39375 -1.8125,-0.875 0,-0.48125 -1.2974,-1.12198 -2.875,-1.4375 -2.4344,-0.48688 -3.05251,-1.3015 -4.0625,-5.3125 -1.29576,-5.14594 -0.78039,-10.51187 1.625,-17.0625 1.99319,-5.42806 1.20051,-8.38198 -3.71875,-13.71875 -4.87506,-5.28882 -5.10068,-8.41061 -1.125,-16.375 4.26545,-8.54486 4.54816,-10.58268 2.0625,-16 -0.76194,-1.66058 -1.39191,-3.50223 -1.75,-4.96875 l 5,0 10,0 1.4375,0 c 0.23809,0 0.58103,0.21296 0.6875,0 0.21296,-0.42592 -0.21295,-1.01159 0,-1.4375 0.21296,-0.42592 1.22454,0.42591 1.4375,0 0.21295,-0.42592 -0.21296,-1.01158 0,-1.4375 0.21295,-0.42591 1.22454,0.42592 1.4375,0 0.21296,-0.42591 -0.21296,-0.98033 0,-1.40625 0.10648,-0.21296 0.61227,0.21296 0.71875,0 0.21296,-0.42591 -0.21296,-1.01158 0,-1.4375 0.21296,-0.42592 1.1933,0.42592 1.40625,0 0.21911,-0.43821 -0.20541,-2.36236 -0.0312,-2.78125 1.59278,2.01605 3.15689,3.5625 3.65625,3.5625 0.85806,0 -0.66699,-2.27814 -2.90625,-5 -7.3e-4,-0.0205 0,-0.0421 0,-0.0625 0,-0.15873 0.0937,-0.3712 0.0937,-0.53125 -0.0503,-0.0629 -0.10639,-0.1244 -0.15625,-0.1875 -0.16008,-0.0492 -0.34149,-0.017 -0.53125,0.0312 -0.30104,-0.35511 -0.58819,-0.70158 -0.90625,-1.0625 0.0477,-0.20037 0.11543,-0.38757 0.15625,-0.5625 -0.1851,-0.22825 -0.3662,-0.45737 -0.5625,-0.6875 -0.22179,-0.016 -0.46071,0.002 -0.6875,0.0312 -2.48144,-2.70044 -5.15188,-5.21722 -6.625,-5.96875 -0.97673,-0.49829 -2.02413,-1.10891 -2.90625,-1.71875 0.0781,-0.29708 0.18982,-0.59144 0,-0.78125 -0.25851,-0.25851 -0.71117,-0.19967 -1.125,-0.0937 -0.37514,-0.30581 -0.68197,-0.57992 -0.875,-0.8125 -0.0359,-0.0433 -0.0867,-0.0825 -0.125,-0.125 0.007,-0.12996 0.0263,-0.47555 0.0312,-0.53125 -0.0184,0.0865 -0.0611,0.25798 -0.15625,0.40625 -0.39372,-0.40574 -0.8702,-0.75608 -1.34375,-1 0.0808,-0.26286 0.16221,-0.52529 0,-0.6875 -0.46825,-0.46825 -1.4946,0.12358 -1.9375,0.0937 -0.0393,-0.0237 -0.0894,-0.0358 -0.125,-0.0625 -0.0187,-0.014 -0.0449,-0.0164 -0.0625,-0.0312 -0.005,-0.0106 -0.0269,-0.0205 -0.0312,-0.0312 -0.17146,-0.42662 0.35969,-1.07795 0.0312,-1.40625 -0.18066,-0.18066 -0.46439,-0.11213 -0.75,-0.0312 -0.30091,-0.32836 -0.74831,-0.63573 -1.25,-0.84375 -0.0588,-0.18393 -0.0985,-0.38913 -0.15625,-0.5625 -0.0753,-0.22588 0.21296,-0.61227 0,-0.71875 -0.26116,-0.13058 -1.02904,-0.002 -1.71875,0.0625 -0.64501,-0.53809 -1.28004,-1.17913 -1.78125,-1.8125 -1.05594,-1.33437 -2.86389,-2.15164 -4.4375,-2.28125 -0.0208,-0.002 -0.0418,0.001 -0.0625,0 z M 204.46875,268.8125 c 0.30203,-0.0287 0.60551,0.0743 0.84375,0.3125 0.33925,0.33924 0.15126,1.09874 -0.4375,1.6875 -0.71818,0.71815 -1.29663,0.7145 -1.71875,0.0312 -0.53264,-0.86183 0.40643,-1.94529 1.3125,-2.03125 z"
         style="opacity:0.61574073;fill:#588387;fill-opacity:1"
         inkscape:connector-curvature="0" />
      <path
         sodipodi:nodetypes="cssscssscsssssssssssssssssscccsssssssscsssssssccssssscscsccccscccccccsssssssssssssscccssssssccsscccsssssssssssscccssssssssssssccssscccssssccccsscscccscccssssssccssssssssssccccccccssssccscccsssscccsscccccccccccccccccccccccccccccccccccccccccccccccccccccccccccccccccccccccccc"
         id="path2413"
         d="m 338.65625,210.15625 c -7.90714,-0.0211 -6.12065,1.48636 -10.6875,1.84375 -8.13773,0.63684 -7.64234,-2.29213 -11.46875,3.15625 -1.37604,1.95932 -2.84374,4.02143 -2.84375,4.71875 0,0.69733 2.23751,0.28124 3.0625,0.28125 -0.11503,1.13839 -0.0625,2.17001 -0.0625,5.53125 0,3.1054 -0.01,3.23539 0.59375,4.15625 0.64643,0.98623 3.28126,0.0976 3.28125,1.09375 0,0.99617 -0.20885,5.38002 0.125,6.25 0.78026,0.0664 2.04635,0.125 2.8125,0.125 0.85901,0 0.40626,1.86712 0.40625,3.59375 0,1.54 0.30875,3.37125 0.96875,4.03125 0.66,0.66 2.20496,1.21875 3.4375,1.21875 1.23254,0 2.46703,-0.87854 2.8125,-1.4375 0.34546,-0.55897 1.67549,-0.59769 2.1875,-0.28125 0.51199,0.31643 0.37501,2.39696 0.375,4.3125 0,2.04098 0.76019,4.33463 1.875,5.53125 1.04631,1.12308 2.9591,3.54122 3.5625,5.9375 0.60339,2.39628 1.03837,4.11917 1.28125,4.71875 0.28245,0.69726 2.34751,2.16371 2.34375,3.09375 -0.004,0.93004 -1.68223,2.6375 -3.5,3.875 -1.81778,1.2375 -4.23759,2.68303 -5.0625,2.59375 -1.08641,-0.11759 -0.87499,-1.12241 -0.875,-2.28125 0,-1.39946 -0.22164,-2.33745 -1.03125,-1.75 -1.97142,1.43047 -2.53486,-1.10812 -3,-1.21875 -1.2244,-0.29121 -2.47584,-0.66355 -2.8125,-1.46875 -0.23971,-0.57331 1.16226,-1.19553 1.28125,-1.625 0.2137,-0.77126 -0.10412,-1.59693 -1.59375,-2.78125 -0.94329,-1.07751 -2.76608,-2.2256 -2.78125,-3.625 0.55416,-0.82077 7.96144,0.82379 8.3125,-2.21875 0,-3.01824 -5.59819,-2.86158 -5.40625,-5.03125 0.11383,-1.28678 2.24819,-0.13773 2.34375,-1.1875 0.1393,-1.53012 -1.83816,-2.36461 -6.8125,-2.65625 -3.39905,-0.19928 -8.70571,-2.37612 -11.375,-4.78125 -3.05346,-2.75125 -6.72778,-2.57899 -10.59375,-2.59375 -11.10898,-0.0424 -5.95332,1.41435 -13.1875,1.59375 -2.72077,0.0675 -5.47856,-1.6037 -6.15625,-1.59375 -2.65687,0.039 0.0612,1.21751 -10.25,1.0625 -2.08563,-0.0312 -4.48043,0.66844 -5.75,2.09375 -1.71105,2.95387 -3.06895,8.02064 -4.8125,11.4375 -0.62116,1.21729 2.22725,1.84135 4.03125,2.5 3.65481,1.33439 3.39923,1.78625 2.125,4.71875 -0.84702,1.94933 -0.096,2.20664 4.1875,5.125 2.31904,1.57994 3.22033,2.89382 5.65625,2.9375 1.85544,0.0317 3.15178,0.13942 3.0625,3.34375 -0.0325,1.15029 -0.0237,3.51532 0.9375,4.15625 1.00784,0.67198 3.07187,0.79594 3.15625,7.34375 -0.74818,10.46708 5.121,10.03231 6.5,19.28125 0.20913,2.28465 0.13685,7.9757 0.84375,8.90625 1.27056,1.67254 0.44091,4.11272 -1.40625,6.25 -1.68639,1.95127 -2.76014,8.71875 -3.65625,14.21875 -0.92115,5.65379 -1.40115,12.39042 -1.09375,15.5 0.29903,3.025 0.11639,7.44668 1.21875,9.1875 3.0188,4.76721 1.57616,4.4358 -3.28125,5.3125 -1.59747,1.30962 -1.68064,2.53832 -3,2.53125 -3.03273,-0.0163 -10.89467,0.10782 -15.4375,-0.0937 -1.51109,1.2036 -4.74749,5.34768 -5.09375,6.25 -0.34626,0.90234 0.27595,3.35921 1.375,5.46875 6.01961,6.44453 2.7783,12.84588 4.90625,19.1875 l -5.625,7.25 c -2.7743,3.8933 -5.00391,5.25774 -8.0625,8.90625 -1.91153,2.01248 -4.55848,3.44107 -4.46875,4.59375 0.32379,4.15882 -4.77174,7.65288 -9.65625,11.25 l -6.15625,8.69446 -166.068987,5e-5 0,76.26651 488.913837,-5e-5 0,-76.26651 -178.18419,0 c -0.0731,-0.97036 -0.61646,-3.58566 0.30804,-4.41321 0.92449,-0.82755 8.64376,-4.73263 14.96875,-8.125 6.325,-3.39236 10.47751,-6.61907 11,-7.125 0.5225,-0.50593 3.12954,-0.875 4.03125,-0.875 0.90172,0 2.14254,-1.10426 2.75,-2.4375 0.86633,-1.9014 0.78023,-2.66094 -0.34375,-3.59375 -0.78812,-0.65408 -2.72625,-2.42712 -2.46875,-2.84375 0.2575,-0.41665 3.25507,-0.12601 4.8125,-0.4375 1.75283,-0.35057 3.29518,-1.57196 4.03125,-3.1875 0.65403,-1.43544 1.18751,-3.19238 1.1875,-3.90625 0,-0.71387 -0.89999,-2.09826 -2,-3.09375 -1.1,-0.99549 -3.5,-2.29011 -3.5,-2.6875 0,-0.39739 4.0575,-2.67322 7.1875,-5.25 3.13,-2.57678 6.90062,-6.35892 8.40625,-8.40625 1.50563,-2.04734 4.63293,-7.47469 6.9375,-12.03125 l 4.15625,-9.96875 c 1.95826,3.55167 3.64624,7.14231 4.65625,10.8125 0.6611,1.90939 2.37606,4.68816 3.8125,6.1875 1.43644,1.49932 4.01158,5.29795 5.75,8.4375 2.40692,4.34679 4.35389,6.39184 8.125,8.53125 2.72374,1.54521 6.89815,3.72474 9.28125,4.84375 2.38309,1.11903 4.46181,1.27531 5.53125,1.3125 5.13259,0.17858 4.88762,1.56874 8.15625,3.21875 3.26863,1.65 7.03432,2.90624 7.875,2.90625 3.17959,2.2941 6.20552,3.27224 2.875,-1.21875 -1.78942,-1.98929 -6.11029,-1.69977 -6.96875,-5.90625 -0.51943,-2.54518 -5.2263,-2.82157 -7.0625,-4.25 -1.86984,-1.4546 -0.3457,-2.72348 5.15625,0.65625 1.42955,0.71068 1.90741,2.35487 3.65625,2.3125 3.66497,-0.76394 -2.8664,-6.6245 4.6875,-0.9375 1.71509,1.45507 4.20726,0.90015 3.75,-0.375 -0.85643,-2.38836 -0.34699,-2.58838 2.8125,-0.3125 1.29683,0.93415 1.95811,0.78791 2.625,-0.28125 0.60765,-0.97416 0.0655,-2.0527 -1.78125,-3.5625 -1.45784,-1.19185 -4.31249,-3.19098 -6.375,-4.4375 -2.0625,-1.2465 -5.99999,-4.0497 -6,-4.21875 0,-0.16903 2.81251,1.39236 3.5,1.46875 0.6875,0.0764 1.2786,-0.29375 1.3125,-0.84375 0.0339,-0.55 -6.71609,-6.0556 -15,-12.21875 -8.28391,-6.16315 -18.11875,-13.65429 -21.84375,-16.65625 -3.72501,-3.00196 -8.93569,-7.18065 -12.03125,-7.625 -5.54867,-0.79648 -6.20904,-2.12525 -7.03125,-6.53125 -0.56162,-3.00957 -6.8179,-9.43209 -12.59375,-15 l -10.1875,-7.40625 5.71875,-0.53125 c 1.32457,-0.86789 1.90006,-1.7153 1.78125,-2.75 -0.12686,-1.10492 0.54786,-3.0438 1.65625,-2.96875 0.60469,0.0409 2.50618,-3.4085 2.59375,-7.34375 0.14391,-6.46697 1.51782,-8.72068 4.96875,-10.53125 2.38977,-1.25382 3.40626,-3.94613 3.40625,-4.4375 0,-0.49136 -0.9935,-1.91655 -2.1875,-3.1875 -1.93639,-2.0612 -2.03817,-2.5807 -0.84375,-4.8125 0.7365,-1.37616 1.06775,-2.77596 0.71875,-3.125 -0.34903,-0.34902 -4.80029,-0.75098 -9.90625,-0.875 -5.74383,-0.13952 -12.80348,-0.73822 -18.0625,-2.125 -5.97639,-1.57594 -9.87062,-2.84803 -13.53125,-2.0625 -5.52729,1.1861 -6.20259,1.39871 -9.09375,-2.78125 -1.57345,-2.27484 -4.26977,-4.35626 -4.28125,-4.90625 1.17028,-2.73465 3.2508,-5.08612 4.15625,-8 -0.006,-0.62463 -1.82706,-3.0375 -4.0625,-5.375 -2.23543,-2.3375 -4.46154,-4.25 -4.9375,-4.25 -0.47598,0 -4.25401,-3.15 -8.40625,-7 -4.67851,-4.33798 -8.41202,-7.0228 -9.8125,-7.03125 -3.40592,0.38116 -5.94101,-0.46482 -8.40625,-1.0625 l 3.34375,-2.46875 c 1.32564,-1.07344 2.35303,-1.90587 3.03125,-6.21875 0.69378,-4.41174 1.39168,-4.97232 -0.53125,-6.3125 -1.18374,-0.825 -4.4597,-1.54999 -5.1875,-2.375 -0.72779,-0.825 -0.87836,-3.05482 -1.8125,-4.28125 -1.17221,-1.53899 -2.77177,-2.24356 -5.1875,-2.25 l 5e-5,-5e-5 z M 284.9375,273.1875 c 2.57547,0.11132 4.49039,6.64548 5.5625,8 1.40088,1.54924 3.33876,2.47474 1.78125,7.4375 -0.47169,1.9929 -0.55051,6.27275 -0.96875,6.53125 -0.41824,0.25849 -1.68648,-2.60814 -1.96875,-3.34375 -0.28228,-0.73562 -1.15674,-3.97002 -1.5625,-7.21875 -0.23911,-1.98058 -0.65818,-5.18251 -1.375,-7.21875 -0.70095,-1.99122 -1.93639,-1.18013 -1.46875,-4.1875 z m 99.76339,102.72768 c 0.0643,0.007 -1.50993,1.46328 -1.48214,1.49107 0.22229,0.22229 -0.29751,2.54426 -1.1875,5.15625 -1.00153,2.93934 -1.43772,6.44423 -1.125,9.21875 -0.88733,3.7609 5.66707,5.54072 4.29911,10.29018 -3.98942,5.90839 -10.51239,4.72989 -15.45536,7.45982 -0.7727,0.62018 -2.04523,2.6332 -2.8125,4.46875 -0.91532,2.18975 -1.40228,4.26182 -0.4375,4.5 3.123,0.77098 0.77649,1.81151 -0.4375,3.09375 -0.90799,0.95903 -1.40624,3.88012 -1.40625,6.25 0,2.79906 0.97491,4.3125 0.15625,4.3125 -0.69311,0 -3.93061,1.134 -5.4375,2.53125 -1.50688,1.39726 -2.50892,3.47427 -2.50893,4.00701 l -114.03571,0 c -1.841,0 4.68606,-2.78791 6.73214,-1.60076 1.85551,1.07657 1.97782,-0.42286 4.09375,-2.9375 2.00135,-2.37848 2.53256,-3.55871 1.9375,-5.59375 -0.77479,-2.64967 -0.3417,-4.30813 2.84375,-4.375 1.78714,-0.0375 2.32408,-0.25456 2.625,-2.28125 0.4074,-2.74395 0.44044,-4.80653 4.46875,-8.96875 2.86397,-2.95918 4.08037,-4.96729 4.125,-0.125 0.0143,1.55405 1.40852,2.28804 4.4375,3.5 3.98154,1.59308 3.37659,1.09051 5.46875,-0.875 1.19539,-1.12299 1.50136,-2.30815 4.5,-2.34375 2.905,-0.0318 4.46134,0.72126 5.28125,0.9375 2.82364,-2.56327 3.8205,-7.75973 5.84375,-11.8125 -4.86008,-0.0471 -9.45754,-1.99902 -14.34375,-2.125 -0.21242,0.4497 -1.04533,1.91043 -1.5625,2.28125 -1.82265,0.11853 -1.98093,-1.87211 -1.25,-3.8125 1.18801,0.69644 2.39846,0.91794 3.5625,0.75 1.13185,0.0945 2.15685,-1.9e-4 3.21875,-0.34375 2.01511,-1.94546 2.44419,-1.69693 4.1875,-3.59375 0.96251,-0.84392 3.94376,-2.40176 5.59375,-3.21875 1.67683,-0.83028 6.90911,-0.76163 12.77679,-1.15179 6.90417,-0.45906 9.92266,0.97622 12.55357,-1.55357 3.07445,-2.95628 7.02965,-1.48316 7.74553,-3.00893 2.8986,-6.17782 7.77556,-2.47953 13.98661,-1.56696 14.39612,0.83642 19.45194,-4.14343 29.5,-4.28125 3.31969,0.023 7.27958,-1.31614 8.84375,-2.125 1.36866,-0.70776 4.25082,-2.59956 4.70089,-2.55357 z M 277.25,379.15625 c 1.31615,0 2.40626,0.18749 2.40625,0.4375 0,0.25 -1.1625,1.59999 -2.5625,3 -1.4,1.4 -2.75,2.5625 -3,2.5625 -0.25,0 -0.43749,-0.65749 -0.4375,-1.4375 0,-0.78002 0.2599,-2.13002 0.59375,-3 0.33384,-0.86999 1.68384,-1.5625 3,-1.5625 z m 109.53125,36.0625 c -0.0595,0.11904 -0.12797,0.2247 -0.1875,0.34375 -1.26647,2.53292 -4.96871,2.80205 -6.78125,4.3125 -0.45666,0.38054 1.17483,-3.40625 3.59375,-3.40625 0.63777,-10e-6 2.86189,-0.94213 3.375,-1.25 z m -270.17411,39.46486 -11.13393,26.16071 40.42411,-26.16071 19.03125,0 -40.14286,27.78571 22.25,21.5 -16.5,0 -15.78125,-13.90625 -20.334821,13.90625 -12.754465,0 23.749996,-49.28571 11.19197,0 z m 211.87501,0 50.46428,0 -5.72321,10.6473 -37.00893,-0.0491 -2.48661,6.56251 39.72768,1.08482 c 22.06623,6.93937 11.28152,31.81197 -2.08929,31.04018 l -59.09374,0 c 6.11824,-5.28772 9.1088,-18.32414 4.90625,-25.78126 l 11.30357,-23.50445 z m 136.96875,0 11.5625,0 -10.45536,26.87946 38.0625,-26.87946 18.75,0 -35.9375,27.84821 19.95982,21.4375 -15.39732,0 -15.17411,-13.94196 -20.72768,13.94196 -71.58035,0 c 6.33834,-5.46272 8.2386,-13.8396 5.05357,-24.54018 l 7.70982,-16.39732 48.3125,0 -4.19643,11.17857 -15.24107,0.82143 -2.66071,5.03571 -22.18304,0.96429 -4.25,11.25 50.9375,0.75 17.45536,-38.34821 z m -236.34376,7.15177 63.54464,1.36608 c 4.02592,-0.0935 5.6796,6.54582 2.75,7.60715 26.8835,1.8317 17.12089,34.02385 3.3125,33.39285 l -54.53571,-0.23214 -12.84375,-11.9375 64,-0.0268 c 6.49375,0.11699 7.78303,-9.79251 -1.39286,-9.25 l -38.10714,-1.41071 2.8125,-6.96875 -37.0625,-0.67857 7.52232,-11.86161 z m -41.94643,1.47769 45.12948,40.65625 -15.84823,0 -13.66071,-11.84432 -15.62054,-13.03068 -28.44643,24.875 -7.67857,-7.96875 36.125,-32.6875 z m 139.55358,20.5982 -3.34375,7.67857 47.78125,0.46875 c 4.80319,-0.2509 3.81419,-7.66229 0.38839,-7.83036 l -44.82589,-0.31696 z m -125.04911,9.81641 -14.75447,10.33539 -12.91518,-10.66518 27.66965,0.32979 z"
         style="fill:#000000"
         inkscape:connector-curvature="0" />
    </g>
  </g>
</svg>
