<?xml version="1.0" encoding="UTF-8" standalone="no"?>
<!-- Created with Inkscape (http://www.inkscape.org/) -->

<svg
   xmlns:dc="http://purl.org/dc/elements/1.1/"
   xmlns:cc="http://creativecommons.org/ns#"
   xmlns:rdf="http://www.w3.org/1999/02/22-rdf-syntax-ns#"
   xmlns:svg="http://www.w3.org/2000/svg"
   xmlns="http://www.w3.org/2000/svg"
   xmlns:sodipodi="http://sodipodi.sourceforge.net/DTD/sodipodi-0.dtd"
   xmlns:inkscape="http://www.inkscape.org/namespaces/inkscape"
   width="400"
   height="300"
   id="svg2"
   version="1.1"
   inkscape:version="0.48.4 r9939"
   sodipodi:docname="duku.svg">
  <defs
     id="defs4" />
  <sodipodi:namedview
     id="base"
     pagecolor="#ffffff"
     bordercolor="#666666"
     borderopacity="1.0"
     inkscape:pageopacity="0.0"
     inkscape:pageshadow="2"
     inkscape:zoom="2.8284271"
     inkscape:cx="167.96192"
     inkscape:cy="163.67841"
     inkscape:document-units="px"
     inkscape:current-layer="layer1"
     showgrid="false"
     inkscape:window-width="1280"
     inkscape:window-height="742"
     inkscape:window-x="0"
     inkscape:window-y="0"
     inkscape:window-maximized="1"
     showguides="true"
     inkscape:guide-bbox="true" />
  <metadata
     id="metadata7">
    <rdf:RDF>
      <cc:Work
         rdf:about="">
        <dc:format>image/svg+xml</dc:format>
        <dc:type
           rdf:resource="http://purl.org/dc/dcmitype/StillImage" />
        <dc:title></dc:title>
      </cc:Work>
    </rdf:RDF>
  </metadata>
  <g
     inkscape:label="Layer 1"
     inkscape:groupmode="layer"
     id="layer1"
     transform="translate(0,-752.36218)">
    <path
       style="fill:#e3dbdb;stroke:#000000;stroke-width:0;stroke-linecap:butt;stroke-linejoin:miter;stroke-miterlimit:4;stroke-opacity:1;stroke-dasharray:none"
       d="m 220.16148,909.33065 11.66726,13.43503 13.08515,14.62069 -1.80698,8.92462 -17.49569,4.76409 -16.32043,-2.32843 -12.46384,-12.54594 -10.6066,-23.33452 -4.24264,-22.62742 4.24264,-23.68808 10.73528,-10.63173 12.66358,2.0429 8.38173,6.09251 4.82475,20.8811 5.11764,19.63477 z"
       id="path6841"
       inkscape:connector-curvature="0"
       sodipodi:nodetypes="cccccccccccccccc" />
    <path
       style="fill:#cccccc;stroke:#000000;stroke-width:0;stroke-linecap:butt;stroke-linejoin:miter;stroke-miterlimit:4;stroke-opacity:1;stroke-dasharray:none"
       d="m 207.08,946.80731 10.96015,12.72792 18.73833,5.3033 32.88047,3.53554 14.49569,-2.47488 12.17094,-9.48528 -0.73223,-9.94239 -16.74201,-5.67462 -19.69176,-18.55267 -5.41053,-8.31738 -4.94975,-13.78859 -1.06066,-1.76776 -6.23896,3.96751 -7.19607,-3.96751 -10.6066,-7.42463 2.82843,13.08148 -6.36396,5.3033 19.44543,23.68808 3.53554,4.94975 -3.53554,7.77817 -13.43503,3.30698 z"
       id="path6843"
       inkscape:connector-curvature="0"
       sodipodi:nodetypes="cccccccccccccccccccccc" />
    <path
       style="fill:none;stroke:#000000;stroke-width:0;stroke-linecap:butt;stroke-linejoin:miter;stroke-miterlimit:4;stroke-opacity:1;stroke-dasharray:none"
       d="m 237.83914,882.46059 -2.82842,-1.06066 -4.24264,-7.07106 10.6066,-3.18198 4.94975,6.71751 8.83883,2.47487 5.3033,5.3033 1.06066,14.14214 0,3.88909 -21.2132,-14.14214 -0.35356,-3.88909 z"
       id="path6845"
       inkscape:connector-curvature="0" />
    <path
       style="fill:#f2f2f2;stroke:#000000;stroke-width:0;stroke-linecap:butt;stroke-linejoin:miter;stroke-miterlimit:4;stroke-opacity:1;stroke-dasharray:none"
       d="m 295.29157,947.69119 -7.00673,-14.84035 -14.84924,-16.47057 -11.55482,-12.5297 -19.19176,-15.94391 -3.25889,-2.79442 -1.59099,-3.0052 -3.18198,-1.41421 10.70559,-8.54074 -15.30178,-3.48008 3.53553,-5.83363 6.54074,-0.35355 9.19239,0.88388 1.76777,7.24784 11.66726,9.19239 2.82843,-9.54594 7.71751,-8.33883 1.99632,-2.26777 -12.89581,-16.08668 -3.53554,-4.59619 -12.37437,-3.71231 -12.19759,0 -13.78858,2.86764 -9.02818,8.32106 -4.0533,11.26194 8.30851,5.48007 1.23743,1.06066 6.01041,26.33973 3.88909,2.65165 8.3085,5.83363 5.83364,6.01041 6.89429,-6.89429 5.12652,15.37957 5.44975,9.49417 10.63693,9.42094 8.83883,7.95495 z"
       id="path6847"
       inkscape:connector-curvature="0"
       sodipodi:nodetypes="ccccccccccccccccccccccccccccccccccccc" />
    <path
       style="fill:#e6e6e6;stroke:#000000;stroke-width:0;stroke-linecap:butt;stroke-linejoin:miter;stroke-miterlimit:4;stroke-opacity:1;stroke-dasharray:none"
       d="m 186.17746,867.03292 12.0637,-17.27602 10.25305,-9.72271 9.72272,-4.06587 6.89429,-2.29809 6.71752,0 15.06003,1.73743 -13.11549,0.38389 -10.6066,3.0052 -4.41942,1.94454 -2.65165,2.2981 -4.24264,5.12652 -4.13909,9.81739 -11.59404,0.0821 -0.7071,0 z"
       id="path6849"
       inkscape:connector-curvature="0"
       sodipodi:nodetypes="cccccccccccccccc" />
    <path
       style="fill:#ffe6d5;stroke:#000000;stroke-width:0;stroke-linecap:butt;stroke-linejoin:miter;stroke-miterlimit:4;stroke-opacity:1;stroke-dasharray:none"
       d="m 230.61275,874.74676 -0.55178,-6.25153 3.41942,-7.16573 13.37437,1.3321 2.65165,0.53033 1.59099,7.24785 5.12652,4.06586 -11.84404,0 -3.18198,-3.18198 -9.36916,2.47488 z"
       id="path6851"
       inkscape:connector-curvature="0"
       sodipodi:nodetypes="ccccccccccc" />
    <path
       style="fill:#ffccaa;stroke:#000000;stroke-width:0;stroke-linecap:butt;stroke-linejoin:miter;stroke-miterlimit:4;stroke-opacity:1;stroke-dasharray:none"
       d="m 243.57811,874.41097 12.66726,-0.19822 6.61396,5.29442 0.39645,4.72119 0.0392,9.01561 2.76777,9.06739 7.3085,11.08516 5.3033,5.83363 3.18198,3.88908 3.02665,1.20343 3.13909,0.89277 2.31954,2.5 2.31066,-0.30546 5.41054,-2.78401 6.79074,4.78401 0.83578,3.97487 -18.17614,-0.89644 -3.18198,-2.82843 -23.12742,-26.00762 -2.03921,-17.38478 -3.64798,-6.10507 -8.83883,-2.65165 z"
       id="path6853"
       inkscape:connector-curvature="0"
       sodipodi:nodetypes="ccccccccccccccccccccccc" />
    <path
       style="fill:none;stroke:#000000;stroke-width:0;stroke-linecap:butt;stroke-linejoin:miter;stroke-miterlimit:4;stroke-opacity:1;stroke-dasharray:none"
       d="m 302.36264,929.48319 6.36396,-6.0104 5.48008,-11.84404 3.0052,-4.41942 1.41421,-0.88388 -3.18198,11.49048 -6.71751,9.36917 c 0,0 -4.41942,2.82842 -5.3033,2.82842 -0.88388,0 -1.06066,-0.53033 -1.06066,-0.53033 z"
       id="path6855"
       inkscape:connector-curvature="0" />
    <path
       style="fill:#cccccc;stroke:#000000;stroke-width:0;stroke-linecap:butt;stroke-linejoin:miter;stroke-miterlimit:4;stroke-opacity:1;stroke-dasharray:none"
       d="m 291.67913,957.49602 25.00242,2.03921 18.38478,-1.59099 19.62221,-11.66726 15.73313,-13.43503 11.3137,-24.92551 1.591,-19.26866 -0.53033,-6.01041 -4.77298,5.65685 -5.69974,2.77298 -4.77297,3.49264 -8.17095,-3.50153 -6.28185,-9.65838 -3.13909,-8.64429 -12.41726,-1.86243 -7.91574,5.16941 -3.22119,19.65623 0.88388,11.66726 4.5962,15.73312 -9.32107,15.82412 -8.3566,8.57107 -8.80851,3.22119 z"
       id="path6857"
       inkscape:connector-curvature="0"
       sodipodi:nodetypes="ccccccccccccccccccccccc" />
    <path
       style="fill:#f2f2f2;stroke:#000000;stroke-width:0;stroke-linecap:butt;stroke-linejoin:miter;stroke-miterlimit:4;stroke-opacity:1;stroke-dasharray:none"
       d="m 287.33662,931.96695 8.13173,16.60813 -1.59099,9.01561 21.56675,-10.6066 9.01562,-6.36396 7.60139,-18.208 -4.94974,-17.67767 -0.17678,-10.96016 3.0052,-12.72792 2.47488,-5.83363 5.83363,-2.2981 11.31371,1.23744 8.3085,17.14734 9.8995,6.01041 10.96015,-9.54595 4.24264,-5.3033 -1.76777,-8.48528 -3.88908,-6.89429 -4.41942,-6.36396 -0.35355,-5.65685 -4.41942,-12.37437 -12.02082,-11.13693 -10.6066,-7.24785 -8.66206,-2.2981 -6.0104,-0.7071 6.71751,4.77297 -2.47487,6.36396 0.17677,10.78338 4.5962,6.18718 -6.18719,15.2028 -9.20495,6.08883 -3.16942,20.25089 -6.59987,15.98313 -0.58731,11.68503 -5.18718,9.1014 -3.88909,1.94454 -2.47487,0.53033 -1.94455,1.23744 0,0.7071 z"
       id="path6859"
       inkscape:connector-curvature="0"
       sodipodi:nodetypes="cccccccccccccccccccccccccccccccccccccccc" />
    <path
       style="fill:#483737;stroke:#000000;stroke-width:0;stroke-linecap:butt;stroke-linejoin:miter;stroke-miterlimit:4;stroke-opacity:1;stroke-dasharray:none"
       d="m 287.15984,857.71186 3.91422,7.58883 3.69974,8.73528 8.38541,5.43719 10.05483,3.60507 7.65317,2.23744 0.58731,5.80698 -3.57843,19.77602 -5.79073,4.44239 -1.41422,5.12652 -3.35875,4.77297 -2.81219,4.57475 -8.57107,1.25888 -5.41053,-2.29809 -1.76777,-1.94455 -3.53553,-0.17677 -12.37437,-13.96536 -7.07107,-10.07627 -3.88908,-15.37958 1.41421,-13.43502 6.54074,-9.8995 10.27817,-10.26041 6.33884,-0.34619 6.0104,-2.65165 -3.0052,3.35876 z"
       id="path6861"
       inkscape:connector-curvature="0"
       sodipodi:nodetypes="cccccccccccccccccccccccccc" />
    <path
       style="fill:#6c5353;stroke:#000000;stroke-width:0;stroke-linecap:butt;stroke-linejoin:miter;stroke-miterlimit:4;stroke-opacity:1;stroke-dasharray:none"
       d="m 290.07038,850.09789 8.73528,-3.82842 11.33515,0.125 6.83363,2.42309 4.6731,3.24633 3.99264,7.70495 0.94087,4.66053 4.31954,3.03553 -4.91942,7.31219 -1.875,4.85508 -3.0052,10.78337 -3.71231,-3.18198 -10.07627,-1.59099 -9.36917,-6.36396 -8.27817,-9.32627 -2.32843,-7.82107 -0.53033,-4.59619 z"
       id="path6863"
       inkscape:connector-curvature="0"
       sodipodi:nodetypes="cccccccccccccccccc" />
    <path
       style="fill:#e3dbdb;stroke:#000000;stroke-width:0;stroke-linecap:butt;stroke-linejoin:miter;stroke-miterlimit:4;stroke-opacity:1;stroke-dasharray:none"
       d="m 278.85134,865.66681 -1.41422,4.77297 0,7.95495 2.12132,7.42462 5.65686,7.42462 1.76777,-9.89949 0.88388,-7.95495 -4.06586,-7.77818 z"
       id="path6865"
       inkscape:connector-curvature="0" />
    <path
       style="fill:#f2f2f2;stroke:#000000;stroke-width:0;stroke-linecap:butt;stroke-linejoin:miter;stroke-miterlimit:4;stroke-opacity:1;stroke-dasharray:none"
       d="m 264.35565,843.03939 12.22272,-15.33148 8.81371,-3.58363 11.04226,-2.84987 12.63693,1.18566 13.44391,4.31586 14.04226,4.87653 -0.96078,11.56371 7.08731,5.7604 -7.08731,11.91727 -2.2981,5.3033 -4.8085,9.0585 -1.875,-3.03921 2.08731,-4.4283 -3.53554,-5.12653 -2.65165,-2.65165 -4.77297,-8.13172 -3.71231,-2.2981 -5.3033,-0.88389 -7.24784,-0.17677 -4.94975,0 -15.73313,7.42462 -8.36396,5.30698 -9.70127,-16.24569 z"
       id="path6867"
       inkscape:connector-curvature="0"
       sodipodi:nodetypes="ccccccccccccccccccccccccc" />
    <path
       style="fill:#f9f9f9;stroke:#000000;stroke-width:0;stroke-linecap:butt;stroke-linejoin:miter;stroke-miterlimit:4;stroke-opacity:1;stroke-dasharray:none"
       d="m 276.37646,828.01337 9.01562,-5.3033 7.95495,-1.76777 7.6014,-1.23743 13.08147,0 9.72272,-0.35356 4.59619,0.35356 2.65165,1.06066 6.89429,5.12652 -2.18198,7.71752 -9.23528,-3.81587 -11.74048,-4.60876 -9.9816,-2.68198 -5.57475,-0.5 -3.53554,-0.17677 -7.95495,2.29809 -5.48007,1.94455 z"
       id="path6869"
       inkscape:connector-curvature="0"
       sodipodi:nodetypes="cccccccccccccccccc" />
    <path
       style="fill:#ffb380;stroke:#000000;stroke-width:0;stroke-linecap:butt;stroke-linejoin:miter;stroke-miterlimit:4;stroke-opacity:1;stroke-dasharray:none"
       d="m 230.24663,874.13064 3.70343,6.73896 4.06586,1.56066 1.59099,3.74264 1.23744,3.71231 20.32932,13.61181 -0.88388,-17.32412 -3.80331,-6.18718 -8.39429,-2.2981 -1.59099,-0.7071 -2.65165,-3.71231 -3.18198,-1.76777 z"
       id="path6871"
       inkscape:connector-curvature="0"
       sodipodi:nodetypes="ccccccccccccc" />
    <path
       style="fill:#241c1c;stroke:#000000;stroke-width:0;stroke-linecap:butt;stroke-linejoin:miter;stroke-miterlimit:4;stroke-opacity:1;stroke-dasharray:none"
       d="m 303.72246,929.86954 4.125,-5.25 3.25,-6.75 2,-5.75 5.375,-5.625 -2.125,11.375 -5.5,7.5 -2.75,3.25 z"
       id="path6873"
       inkscape:connector-curvature="0"
       sodipodi:nodetypes="ccccccccc" />
    <path
       style="fill:#c87137;stroke:#000000;stroke-width:0;stroke-linecap:butt;stroke-linejoin:miter;stroke-miterlimit:4;stroke-opacity:1;stroke-dasharray:none"
       d="m 19.4386,894.21469 0.35355,23.33452 9.54595,29.69849 18.38477,19.44543 19.44544,9.8995 14.14213,2.12132 16.97057,-0.35356 27.93071,-7.77817 18.38478,-14.84924 11.66726,-17.32412 4.5962,-47.72971 -4.24264,-14.84924 -6.71752,-16.97056 -18.03122,-22.62742 -19.44544,-12.72792 -18.38477,-6.71752 -14.84925,-1.76776 -20.85965,4.59619 -11.66726,7.07107 -12.02081,12.02081 -8.13173,11.66727 -3.18198,14.49569 -4.5962,13.08147 z"
       id="path6875"
       inkscape:connector-curvature="0" />
    <path
       style="fill:#c87137;stroke:#000000;stroke-width:0;stroke-linecap:butt;stroke-linejoin:miter;stroke-miterlimit:4;stroke-opacity:1;stroke-dasharray:none"
       d="m 43.48023,853.20249 14.14214,-16.97056 20.85965,-8.13173 17.32411,1.76777 15.2028,8.83883 c 0,0 13.78858,10.25305 14.14213,11.66727 0.35356,1.41421 10.60661,18.03122 10.60661,18.03122 l 1.76776,5.65685 -22.62741,-0.7071 -16.26346,7.77817 -26.5165,19.79899 -6.36397,-2.82843 -15.9099,-29.69848 z"
       id="path6893"
       inkscape:connector-curvature="0" />
    <path
       style="fill:#552200;stroke:#000000;stroke-width:0;stroke-linecap:butt;stroke-linejoin:miter;stroke-miterlimit:4;stroke-opacity:1;stroke-dasharray:none"
       d="m 34.28784,883.25453 -1.41421,5.3033 4.24264,1.76777 -0.70711,17.32412 0.70711,1.06066 3.53553,-21.21321 6.01041,-8.13173 4.5962,-6.71751 -6.01041,-12.72792 -3.53554,4.94975 -1.76776,4.94974 -3.18198,1.06066 -1.76777,2.47488 -0.35355,3.18198 -1.76777,1.41421 z"
       id="path6877"
       inkscape:connector-curvature="0" />
    <path
       style="fill:#a05a2c;stroke:#000000;stroke-width:0;stroke-linecap:butt;stroke-linejoin:miter;stroke-miterlimit:4;stroke-opacity:1;stroke-dasharray:none"
       d="m 160.50641,890.67915 -14.14214,-14.84924 -22.98097,-4.24264 -20.15255,0.70711 -16.61701,11.66726 -20.50609,10.96015 -16.26346,26.16295 -8.48528,12.02082 -0.35355,12.37437 4.949744,18.38477 7.071066,6.36397 13.08148,6.0104 19.09188,3.18198 14.84924,-1.76776 25.45585,-6.01041 14.14213,-12.02082 13.43503,-14.14213 4.24264,-8.48528 1.41422,-28.28427 z"
       id="path6891"
       inkscape:connector-curvature="0"
       sodipodi:nodetypes="cccccccccccccccccccc" />
    <path
       style="fill:#483737;stroke:#000000;stroke-width:0;stroke-linecap:butt;stroke-linejoin:miter;stroke-miterlimit:4;stroke-opacity:1;stroke-dasharray:none"
       d="m 30.75231,878.30478 -5.65685,-1.06066 -2.12133,-1.76776 1.06066,-7.42462 0.35356,-2.12132 5.65685,-2.82843 2.12132,-4.24264 2.82843,-3.53554 4.59619,-1.06066 3.53554,-0.7071 1.76776,4.24264 0,3.88909 -2.82842,1.06066 -2.82843,5.3033 -3.53553,2.47487 -0.70711,2.47487 -1.41421,4.94975 z"
       id="path6879"
       inkscape:connector-curvature="0" />
    <path
       style="fill:#1a1a1a;stroke:#000000;stroke-width:0;stroke-linecap:butt;stroke-linejoin:miter;stroke-miterlimit:4;stroke-opacity:1;stroke-dasharray:none"
       d="m 31.10586,866.63752 -0.35355,5.65686 2.82843,0 1.76776,-4.5962 0,-3.18198 -1.06066,-1.76776 -2.12132,-0.35356 z"
       id="path6881"
       inkscape:connector-curvature="0" />
    <path
       sodipodi:type="arc"
       style="fill:#deaa87;fill-opacity:1;stroke:#000000;stroke-width:0;stroke-miterlimit:4;stroke-opacity:1;stroke-dasharray:none"
       id="path6883"
       sodipodi:cx="162.81134"
       sodipodi:cy="413.90976"
       sodipodi:rx="4.4194174"
       sodipodi:ry="5.4800777"
       d="m 167.23076,413.90976 a 4.4194174,5.4800777 0 1 1 -8.83884,0 4.4194174,5.4800777 0 1 1 8.83884,0 z"
       transform="translate(-64,513.36218)" />
    <path
       sodipodi:type="arc"
       style="fill:#d38d5f;fill-opacity:1;stroke:#000000;stroke-width:0;stroke-miterlimit:4;stroke-opacity:1;stroke-dasharray:none"
       id="path6885"
       sodipodi:cx="183.49422"
       sodipodi:cy="377.49374"
       sodipodi:rx="4.5961943"
       sodipodi:ry="5.4800777"
       d="m 188.09041,377.49374 a 4.5961943,5.4800777 0 1 1 -9.19239,0 4.5961943,5.4800777 0 1 1 9.19239,0 z"
       transform="translate(-64,513.36218)" />
    <path
       sodipodi:type="arc"
       style="fill:#c87137;fill-opacity:1;stroke:#000000;stroke-width:0;stroke-miterlimit:4;stroke-opacity:1;stroke-dasharray:none"
       id="path6887"
       sodipodi:cx="185.61552"
       sodipodi:cy="398.53018"
       sodipodi:rx="3.5355339"
       sodipodi:ry="4.5961943"
       d="m 189.15106,398.53018 a 3.5355339,4.5961943 0 1 1 -7.07107,0 3.5355339,4.5961943 0 1 1 7.07107,0 z"
       transform="translate(-64,513.36218)" />
    <path
       sodipodi:type="arc"
       style="fill:#c87137;fill-opacity:1;stroke:#000000;stroke-width:0;stroke-miterlimit:4;stroke-opacity:1;stroke-dasharray:none"
       id="path6889"
       sodipodi:cx="179.0748"
       sodipodi:cy="415.85428"
       sodipodi:rx="3.7123106"
       sodipodi:ry="4.2426405"
       d="m 182.78711,415.85428 a 3.7123106,4.2426405 0 1 1 -7.42462,0 3.7123106,4.2426405 0 1 1 7.42462,0 z"
       transform="translate(-64,513.36218)" />
    <path
       sodipodi:type="arc"
       style="fill:#d45500;fill-opacity:1;stroke:#000000;stroke-width:0;stroke-miterlimit:4;stroke-opacity:1;stroke-dasharray:none"
       id="path6895"
       sodipodi:cx="188.26718"
       sodipodi:cy="337.36545"
       sodipodi:rx="4.0658641"
       sodipodi:ry="4.9497476"
       d="m 192.33305,337.36545 a 4.0658641,4.9497476 0 1 1 -8.13173,0 4.0658641,4.9497476 0 1 1 8.13173,0 z"
       transform="translate(-64,513.36218)" />
    <path
       transform="translate(-94.93592,456.08654)"
       sodipodi:type="arc"
       style="fill:#deaa87;fill-opacity:1;stroke:#000000;stroke-width:0;stroke-miterlimit:4;stroke-opacity:1;stroke-dasharray:none"
       id="path6883-0"
       sodipodi:cx="162.81134"
       sodipodi:cy="413.90976"
       sodipodi:rx="4.4194174"
       sodipodi:ry="5.4800777"
       d="m 167.23076,413.90976 a 4.4194174,5.4800777 0 1 1 -8.83884,0 4.4194174,5.4800777 0 1 1 8.83884,0 z" />
    <path
       transform="translate(-94.93592,456.08654)"
       sodipodi:type="arc"
       style="fill:#d38d5f;fill-opacity:1;stroke:#000000;stroke-width:0;stroke-miterlimit:4;stroke-opacity:1;stroke-dasharray:none"
       id="path6885-5"
       sodipodi:cx="183.49422"
       sodipodi:cy="377.49374"
       sodipodi:rx="4.5961943"
       sodipodi:ry="5.4800777"
       d="m 188.09041,377.49374 a 4.5961943,5.4800777 0 1 1 -9.19239,0 4.5961943,5.4800777 0 1 1 9.19239,0 z" />
    <path
       transform="translate(-94.93592,456.08654)"
       sodipodi:type="arc"
       style="fill:#c87137;fill-opacity:1;stroke:#000000;stroke-width:0;stroke-miterlimit:4;stroke-opacity:1;stroke-dasharray:none"
       id="path6887-5"
       sodipodi:cx="185.61552"
       sodipodi:cy="398.53018"
       sodipodi:rx="3.5355339"
       sodipodi:ry="4.5961943"
       d="m 189.15106,398.53018 a 3.5355339,4.5961943 0 1 1 -7.07107,0 3.5355339,4.5961943 0 1 1 7.07107,0 z" />
    <path
       transform="translate(-94.93592,456.08654)"
       sodipodi:type="arc"
       style="fill:#c87137;fill-opacity:1;stroke:#000000;stroke-width:0;stroke-miterlimit:4;stroke-opacity:1;stroke-dasharray:none"
       id="path6889-1"
       sodipodi:cx="179.0748"
       sodipodi:cy="415.85428"
       sodipodi:rx="3.7123106"
       sodipodi:ry="4.2426405"
       d="m 182.78711,415.85428 a 3.7123106,4.2426405 0 1 1 -7.42462,0 3.7123106,4.2426405 0 1 1 7.42462,0 z" />
    <path
       transform="translate(-45.792,531.74697)"
       sodipodi:type="arc"
       style="fill:#deaa87;fill-opacity:1;stroke:#000000;stroke-width:0;stroke-miterlimit:4;stroke-opacity:1;stroke-dasharray:none"
       id="path6883-8"
       sodipodi:cx="162.81134"
       sodipodi:cy="413.90976"
       sodipodi:rx="4.4194174"
       sodipodi:ry="5.4800777"
       d="m 167.23076,413.90976 a 4.4194174,5.4800777 0 1 1 -8.83884,0 4.4194174,5.4800777 0 1 1 8.83884,0 z" />
    <path
       transform="translate(-45.792,531.74697)"
       sodipodi:type="arc"
       style="fill:#d38d5f;fill-opacity:1;stroke:#000000;stroke-width:0;stroke-miterlimit:4;stroke-opacity:1;stroke-dasharray:none"
       id="path6885-3"
       sodipodi:cx="183.49422"
       sodipodi:cy="377.49374"
       sodipodi:rx="4.5961943"
       sodipodi:ry="5.4800777"
       d="m 188.09041,377.49374 a 4.5961943,5.4800777 0 1 1 -9.19239,0 4.5961943,5.4800777 0 1 1 9.19239,0 z" />
    <path
       transform="translate(-45.792,531.74697)"
       sodipodi:type="arc"
       style="fill:#c87137;fill-opacity:1;stroke:#000000;stroke-width:0;stroke-miterlimit:4;stroke-opacity:1;stroke-dasharray:none"
       id="path6887-4"
       sodipodi:cx="185.61552"
       sodipodi:cy="398.53018"
       sodipodi:rx="3.5355339"
       sodipodi:ry="4.5961943"
       d="m 189.15106,398.53018 a 3.5355339,4.5961943 0 1 1 -7.07107,0 3.5355339,4.5961943 0 1 1 7.07107,0 z" />
    <path
       transform="translate(-45.792,531.74697)"
       sodipodi:type="arc"
       style="fill:#c87137;fill-opacity:1;stroke:#000000;stroke-width:0;stroke-miterlimit:4;stroke-opacity:1;stroke-dasharray:none"
       id="path6889-6"
       sodipodi:cx="179.0748"
       sodipodi:cy="415.85428"
       sodipodi:rx="3.7123106"
       sodipodi:ry="4.2426405"
       d="m 182.78711,415.85428 a 3.7123106,4.2426405 0 1 1 -7.42462,0 3.7123106,4.2426405 0 1 1 7.42462,0 z" />
    <path
       transform="translate(-99.17856,540.93936)"
       sodipodi:type="arc"
       style="fill:#deaa87;fill-opacity:1;stroke:#000000;stroke-width:0;stroke-miterlimit:4;stroke-opacity:1;stroke-dasharray:none"
       id="path6883-5"
       sodipodi:cx="162.81134"
       sodipodi:cy="413.90976"
       sodipodi:rx="4.4194174"
       sodipodi:ry="5.4800777"
       d="m 167.23076,413.90976 a 4.4194174,5.4800777 0 1 1 -8.83884,0 4.4194174,5.4800777 0 1 1 8.83884,0 z" />
    <path
       transform="translate(-99.17856,540.93936)"
       sodipodi:type="arc"
       style="fill:#d38d5f;fill-opacity:1;stroke:#000000;stroke-width:0;stroke-miterlimit:4;stroke-opacity:1;stroke-dasharray:none"
       id="path6885-9"
       sodipodi:cx="183.49422"
       sodipodi:cy="377.49374"
       sodipodi:rx="4.5961943"
       sodipodi:ry="5.4800777"
       d="m 188.09041,377.49374 a 4.5961943,5.4800777 0 1 1 -9.19239,0 4.5961943,5.4800777 0 1 1 9.19239,0 z" />
    <path
       transform="translate(-99.17856,540.93936)"
       sodipodi:type="arc"
       style="fill:#c87137;fill-opacity:1;stroke:#000000;stroke-width:0;stroke-miterlimit:4;stroke-opacity:1;stroke-dasharray:none"
       id="path6887-42"
       sodipodi:cx="185.61552"
       sodipodi:cy="398.53018"
       sodipodi:rx="3.5355339"
       sodipodi:ry="4.5961943"
       d="m 189.15106,398.53018 a 3.5355339,4.5961943 0 1 1 -7.07107,0 3.5355339,4.5961943 0 1 1 7.07107,0 z" />
    <path
       transform="translate(-99.17856,540.93936)"
       sodipodi:type="arc"
       style="fill:#c87137;fill-opacity:1;stroke:#000000;stroke-width:0;stroke-miterlimit:4;stroke-opacity:1;stroke-dasharray:none"
       id="path6889-69"
       sodipodi:cx="179.0748"
       sodipodi:cy="415.85428"
       sodipodi:rx="3.7123106"
       sodipodi:ry="4.2426405"
       d="m 182.78711,415.85428 a 3.7123106,4.2426405 0 1 1 -7.42462,0 3.7123106,4.2426405 0 1 1 7.42462,0 z" />
  </g>
</svg>
