<?xml version="1.0" encoding="UTF-8" standalone="no"?>
<svg
   xmlns:dc="http://purl.org/dc/elements/1.1/"
   xmlns:cc="http://creativecommons.org/ns#"
   xmlns:rdf="http://www.w3.org/1999/02/22-rdf-syntax-ns#"
   xmlns:svg="http://www.w3.org/2000/svg"
   xmlns="http://www.w3.org/2000/svg"
   height="316.78598"
   width="489.74557"
   version="1.0"
   viewBox="0 0 459.13646 296.98684"
   id="svg2">
  <defs
     id="defs30" />
  <g
     transform="translate(67.031786,-203.69853)"
     id="g1117">
    <path
       style="color:#000000;clip-rule:nonzero;display:inline;overflow:visible;visibility:visible;opacity:1;isolation:auto;mix-blend-mode:normal;color-interpolation:sRGB;color-interpolation-filters:linearRGB;solid-color:#000000;solid-opacity:1;vector-effect:none;fill:#c87137;fill-opacity:1;fill-rule:evenodd;stroke:#000000;stroke-width:1.04654467;stroke-linecap:round;stroke-linejoin:round;stroke-miterlimit:4;stroke-dasharray:none;stroke-dashoffset:0;stroke-opacity:1;color-rendering:auto;image-rendering:auto;shape-rendering:auto;text-rendering:auto;enable-background:accumulate"
       d="m 209.83858,380.27648 h 3.81944 c 1.6675,0 3.7714,1.24964 4.08843,2.60474 0.31703,1.3551 -0.26821,3.68419 1.1856,7.39185 1.45386,3.70765 3.43835,5.54396 4.87732,7.25106 1.43896,1.7071 -0.26393,2.60476 -1.93143,2.60476 h -3.81944 c -1.6675,0 -2.93486,-1.39046 -4.08843,-2.60476 -1.15358,-1.2143 -3.01066,-3.33221 -4.84817,-7.18066 -1.83751,-3.84846 -1.20007,-6.24794 -1.21475,-7.46225 -0.0147,-1.2143 0.26393,-2.60474 1.93143,-2.60474 z"
       id="rect1017" />
    <path
       id="path1020"
       d="m 209.83858,380.27648 h 3.81944 c 1.6675,0 3.7714,1.24964 4.08843,2.60474 0.31703,1.3551 -0.26821,3.68419 1.1856,7.39185 1.45386,3.70765 3.43835,5.54396 4.87732,7.25106 1.43896,1.7071 -0.26393,2.60476 -1.93143,2.60476 h -3.81944 c -1.6675,0 -2.93486,-1.39046 -4.08843,-2.60476 -1.15358,-1.2143 -3.01066,-3.33221 -4.84817,-7.18066 -1.83751,-3.84846 -1.20007,-6.24794 -1.21475,-7.46225 -0.0147,-1.2143 0.26393,-2.60474 1.93143,-2.60474 z"
       style="color:#000000;clip-rule:nonzero;display:inline;overflow:visible;visibility:visible;opacity:1;isolation:auto;mix-blend-mode:normal;color-interpolation:sRGB;color-interpolation-filters:linearRGB;solid-color:#000000;solid-opacity:1;vector-effect:none;fill:#c87137;fill-opacity:1;fill-rule:evenodd;stroke:#000000;stroke-width:1.04654467;stroke-linecap:round;stroke-linejoin:round;stroke-miterlimit:4;stroke-dasharray:none;stroke-dashoffset:0;stroke-opacity:1;color-rendering:auto;image-rendering:auto;shape-rendering:auto;text-rendering:auto;enable-background:accumulate" />
    <path
       id="path1020-9"
       d="m 220.15267,380.55806 h 3.81944 c 1.6675,0 3.7714,1.24964 4.08843,2.60474 0.31703,1.3551 -0.26821,3.68419 1.1856,7.39185 1.45386,3.70765 3.43835,5.54396 4.87732,7.25106 1.43896,1.7071 -0.26393,2.60476 -1.93143,2.60476 h -3.81944 c -1.6675,0 -2.93486,-1.39046 -4.08843,-2.60476 -1.15358,-1.2143 -3.01066,-3.33221 -4.84817,-7.18066 -1.83751,-3.84846 -1.20007,-6.24794 -1.21475,-7.46225 -0.0147,-1.2143 0.26393,-2.60474 1.93143,-2.60474 z"
       style="color:#000000;clip-rule:nonzero;display:inline;overflow:visible;visibility:visible;opacity:1;isolation:auto;mix-blend-mode:normal;color-interpolation:sRGB;color-interpolation-filters:linearRGB;solid-color:#000000;solid-opacity:1;vector-effect:none;fill:#c87137;fill-opacity:1;fill-rule:evenodd;stroke:#000000;stroke-width:1.04654467;stroke-linecap:round;stroke-linejoin:round;stroke-miterlimit:4;stroke-dasharray:none;stroke-dashoffset:0;stroke-opacity:1;color-rendering:auto;image-rendering:auto;shape-rendering:auto;text-rendering:auto;enable-background:accumulate" />
    <path
       id="path1020-1"
       d="m 229.60902,380.83965 h 3.81944 c 1.6675,0 3.7714,1.24965 4.08843,2.60475 0.31703,1.3551 -0.26821,3.68419 1.1856,7.39184 1.45386,3.70766 3.43835,5.54397 4.87732,7.25107 1.43896,1.7071 -0.26393,2.60475 -1.93143,2.60475 h -3.81944 c -1.6675,0 -2.93486,-1.39045 -4.08843,-2.60475 -1.15358,-1.2143 -3.01066,-3.33221 -4.84817,-7.18067 -1.83751,-3.84845 -1.20007,-6.24794 -1.21475,-7.46224 -0.0147,-1.2143 0.26393,-2.60475 1.93143,-2.60475 z"
       style="color:#000000;clip-rule:nonzero;display:inline;overflow:visible;visibility:visible;opacity:1;isolation:auto;mix-blend-mode:normal;color-interpolation:sRGB;color-interpolation-filters:linearRGB;solid-color:#000000;solid-opacity:1;vector-effect:none;fill:#c87137;fill-opacity:1;fill-rule:evenodd;stroke:#000000;stroke-width:1.04654467;stroke-linecap:round;stroke-linejoin:round;stroke-miterlimit:4;stroke-dasharray:none;stroke-dashoffset:0;stroke-opacity:1;color-rendering:auto;image-rendering:auto;shape-rendering:auto;text-rendering:auto;enable-background:accumulate" />
    <path
       id="path1020-13"
       d="m 239.92054,381.19164 h 3.81944 c 1.6675,0 3.7714,1.24965 4.08843,2.60475 0.31703,1.3551 -0.26821,3.68419 1.1856,7.39184 1.45386,3.70766 3.43835,5.54397 4.87732,7.25107 1.43896,1.70709 -0.26393,2.60475 -1.93143,2.60475 h -3.81944 c -1.6675,0 -2.93486,-1.39045 -4.08843,-2.60475 -1.15358,-1.21431 -3.01066,-3.33221 -4.84817,-7.18067 -1.83751,-3.84845 -1.20007,-6.24794 -1.21475,-7.46224 -0.0147,-1.21431 0.26393,-2.60475 1.93143,-2.60475 z"
       style="color:#000000;clip-rule:nonzero;display:inline;overflow:visible;visibility:visible;opacity:1;isolation:auto;mix-blend-mode:normal;color-interpolation:sRGB;color-interpolation-filters:linearRGB;solid-color:#000000;solid-opacity:1;vector-effect:none;fill:#c87137;fill-opacity:1;fill-rule:evenodd;stroke:#000000;stroke-width:1.04654467;stroke-linecap:round;stroke-linejoin:round;stroke-miterlimit:4;stroke-dasharray:none;stroke-dashoffset:0;stroke-opacity:1;color-rendering:auto;image-rendering:auto;shape-rendering:auto;text-rendering:auto;enable-background:accumulate" />
    <path
       id="path1020-2"
       d="m 332.20489,396.15695 3.4286,1.45655 c 1.49686,0.6359 2.74913,2.55999 2.34367,3.89732 -0.40545,1.33733 -2.11681,3.2049 -2.69977,7.08756 -0.58292,3.88268 0.26342,6.28786 0.68585,8.36902 0.42243,2.08116 -1.56331,2.23757 -3.06017,1.60166 l -3.42859,-1.45654 c -1.49687,-0.6359 -1.92649,-2.36738 -2.34368,-3.89733 -0.41718,-1.52996 -1.00575,-4.13934 -0.69553,-8.29471 0.31022,-4.15538 2.10429,-6.06624 2.70946,-7.16188 0.60514,-1.09565 1.5633,-2.23755 3.06016,-1.60165 z"
       style="color:#000000;clip-rule:nonzero;display:inline;overflow:visible;visibility:visible;opacity:1;isolation:auto;mix-blend-mode:normal;color-interpolation:sRGB;color-interpolation-filters:linearRGB;solid-color:#000000;solid-opacity:1;vector-effect:none;fill:#c87137;fill-opacity:1;fill-rule:evenodd;stroke:#000000;stroke-width:1.04654467;stroke-linecap:round;stroke-linejoin:round;stroke-miterlimit:4;stroke-dasharray:none;stroke-dashoffset:0;stroke-opacity:1;color-rendering:auto;image-rendering:auto;shape-rendering:auto;text-rendering:auto;enable-background:accumulate" />
    <path
       id="path1020-6"
       d="m 322.77834,392.61326 3.5121,1.29902 c 1.53332,0.56713 2.9004,2.43177 2.5765,3.78566 -0.32389,1.35389 -1.91979,3.29652 -2.26678,7.20028 -0.34695,3.90378 0.6439,6.26727 1.19181,8.32641 0.54789,2.05914 -1.42564,2.30539 -2.95896,1.73826 l -3.5121,-1.29902 c -1.53332,-0.56714 -2.06723,-2.27674 -2.5765,-3.78568 -0.50929,-1.50893 -1.25509,-4.08802 -1.19698,-8.25175 0.0581,-4.16373 1.73398,-6.15335 2.27195,-7.27493 0.53796,-1.12159 1.42564,-2.30538 2.95896,-1.73825 z"
       style="color:#000000;clip-rule:nonzero;display:inline;overflow:visible;visibility:visible;opacity:1;isolation:auto;mix-blend-mode:normal;color-interpolation:sRGB;color-interpolation-filters:linearRGB;solid-color:#000000;solid-opacity:1;vector-effect:none;fill:#c87137;fill-opacity:1;fill-rule:evenodd;stroke:#000000;stroke-width:1.04654467;stroke-linecap:round;stroke-linejoin:round;stroke-miterlimit:4;stroke-dasharray:none;stroke-dashoffset:0;stroke-opacity:1;color-rendering:auto;image-rendering:auto;shape-rendering:auto;text-rendering:auto;enable-background:accumulate" />
    <path
       id="path1020-5"
       d="m 312.57374,389.7637 3.59499,1.11636 c 1.56951,0.48739 3.06205,2.27854 2.83157,3.64668 -0.23048,1.36813 -1.69034,3.38928 -1.76902,7.30399 -0.0786,3.91473 1.07255,6.22316 1.7607,8.25053 0.68815,2.02737 -1.26503,2.37455 -2.83453,1.88716 l -3.59499,-1.11636 c -1.56952,-0.48739 -2.21972,-2.16656 -2.83158,-3.64668 -0.61186,-1.48012 -1.53322,-4.01636 -1.76074,-8.17574 -0.22752,-4.15938 1.30895,-6.23155 1.76906,-7.37879 0.46009,-1.14724 1.26502,-2.37454 2.83454,-1.88715 z"
       style="color:#000000;clip-rule:nonzero;display:inline;overflow:visible;visibility:visible;opacity:1;isolation:auto;mix-blend-mode:normal;color-interpolation:sRGB;color-interpolation-filters:linearRGB;solid-color:#000000;solid-opacity:1;vector-effect:none;fill:#c87137;fill-opacity:1;fill-rule:evenodd;stroke:#000000;stroke-width:1.04654467;stroke-linecap:round;stroke-linejoin:round;stroke-miterlimit:4;stroke-dasharray:none;stroke-dashoffset:0;stroke-opacity:1;color-rendering:auto;image-rendering:auto;shape-rendering:auto;text-rendering:auto;enable-background:accumulate" />
    <path
       id="path1020-15"
       d="m 302.45322,387.84865 3.66865,0.91954 c 1.60167,0.40147 3.22078,2.1083 3.08966,3.48623 -0.13113,1.37793 -1.44202,3.47417 -1.23754,7.38547 0.20453,3.91131 1.52034,6.1529 2.35371,8.13904 0.83335,1.98614 -1.09089,2.43838 -2.69256,2.03692 l -3.66866,-0.91954 c -1.60167,-0.40146 -2.37199,-2.04214 -3.08965,-3.48624 -0.71766,-1.44409 -1.82056,-3.92548 -2.34833,-8.0644 -0.52777,-4.13891 0.85589,-6.29021 1.23216,-7.46011 0.37626,-1.1699 1.09089,-2.43837 2.69256,-2.03691 z"
       style="color:#000000;clip-rule:nonzero;display:inline;overflow:visible;visibility:visible;opacity:1;isolation:auto;mix-blend-mode:normal;color-interpolation:sRGB;color-interpolation-filters:linearRGB;solid-color:#000000;solid-opacity:1;vector-effect:none;fill:#c87137;fill-opacity:1;fill-rule:evenodd;stroke:#000000;stroke-width:1.04654467;stroke-linecap:round;stroke-linejoin:round;stroke-miterlimit:4;stroke-dasharray:none;stroke-dashoffset:0;stroke-opacity:1;color-rendering:auto;image-rendering:auto;shape-rendering:auto;text-rendering:auto;enable-background:accumulate" />
    <path
       id="path1020-3"
       d="m 291.98715,385.93384 3.7286,0.7166 c 1.62784,0.31285 3.36863,1.9275 3.33863,3.30985 -0.03,1.38235 -1.18481,3.54625 -0.69445,7.43847 0.49042,3.89225 1.96767,6.0572 2.94474,7.99368 0.97706,1.93647 -0.91021,2.49329 -2.53805,2.18043 l -3.7286,-0.71659 c -1.62784,-0.31286 -2.51671,-1.90802 -3.33863,-3.30987 -0.82193,-1.40185 -2.10425,-3.81781 -2.93391,-7.91948 -0.82967,-4.10167 0.39374,-6.32449 0.68362,-7.51267 0.28987,-1.18817 0.91021,-2.49327 2.53805,-2.18042 z"
       style="color:#000000;clip-rule:nonzero;display:inline;overflow:visible;visibility:visible;opacity:1;isolation:auto;mix-blend-mode:normal;color-interpolation:sRGB;color-interpolation-filters:linearRGB;solid-color:#000000;solid-opacity:1;vector-effect:none;fill:#c87137;fill-opacity:1;fill-rule:evenodd;stroke:#000000;stroke-width:1.04654467;stroke-linecap:round;stroke-linejoin:round;stroke-miterlimit:4;stroke-dasharray:none;stroke-dashoffset:0;stroke-opacity:1;color-rendering:auto;image-rendering:auto;shape-rendering:auto;text-rendering:auto;enable-background:accumulate" />
    <path
       id="path1020-7"
       d="m 281.85383,383.90481 3.74376,0.65474 c 1.63445,0.28584 3.41062,1.87138 3.41119,3.25397 5.6e-4,1.3826 -1.10621,3.56521 -0.52989,7.44862 0.57637,3.88341 2.10121,6.02351 3.12091,7.94346 1.01969,1.91994 -0.85493,2.50789 -2.48939,2.22204 l -3.74375,-0.65473 c -1.63446,-0.28585 -2.55843,-1.866 -3.41119,-3.25399 -0.85277,-1.38798 -2.18826,-3.78227 -3.10845,-7.86946 -0.92019,-4.08718 0.25386,-6.32985 0.51743,-7.5226 0.26354,-1.19276 0.85492,-2.50789 2.48938,-2.22205 z"
       style="color:#000000;clip-rule:nonzero;display:inline;overflow:visible;visibility:visible;opacity:1;isolation:auto;mix-blend-mode:normal;color-interpolation:sRGB;color-interpolation-filters:linearRGB;solid-color:#000000;solid-opacity:1;vector-effect:none;fill:#c87137;fill-opacity:1;fill-rule:evenodd;stroke:#000000;stroke-width:1.04654467;stroke-linecap:round;stroke-linejoin:round;stroke-miterlimit:4;stroke-dasharray:none;stroke-dashoffset:0;stroke-opacity:1;color-rendering:auto;image-rendering:auto;shape-rendering:auto;text-rendering:auto;enable-background:accumulate" />
    <path
       id="path1020-20"
       d="m 271.23559,382.46356 3.78652,0.433 c 1.65313,0.18903 3.54973,1.66642 3.6589,3.04579 0.10916,1.37937 -0.82361,3.62203 0.0564,7.46255 0.88008,3.84052 2.56949,5.88598 3.73764,7.7415 1.16814,1.85552 -0.65596,2.55239 -2.30909,2.36335 l -3.78653,-0.433 c -1.65313,-0.18903 -2.69908,-1.71118 -3.65889,-3.0458 -0.95982,-1.33462 -2.48029,-3.64479 -3.71939,-7.6684 -1.2391,-4.02361 -0.24393,-6.33015 -0.0747,-7.53565 0.16925,-1.2055 0.65596,-2.55237 2.30909,-2.36334 z"
       style="color:#000000;clip-rule:nonzero;display:inline;overflow:visible;visibility:visible;opacity:1;isolation:auto;mix-blend-mode:normal;color-interpolation:sRGB;color-interpolation-filters:linearRGB;solid-color:#000000;solid-opacity:1;vector-effect:none;fill:#c87137;fill-opacity:1;fill-rule:evenodd;stroke:#000000;stroke-width:1.04654467;stroke-linecap:round;stroke-linejoin:round;stroke-miterlimit:4;stroke-dasharray:none;stroke-dashoffset:0;stroke-opacity:1;color-rendering:auto;image-rendering:auto;shape-rendering:auto;text-rendering:auto;enable-background:accumulate" />
    <path
       id="path1020-31"
       d="m 261.03102,382.00273 3.80813,0.25419 c 1.66256,0.11098 3.64918,1.49694 3.84485,2.86914 0.19566,1.37218 -0.59482,3.65542 0.52519,7.44885 1.12007,3.79344 2.93549,5.75638 4.21849,7.55418 1.283,1.79781 -0.49462,2.57948 -2.15719,2.4685 l -3.80812,-0.25419 c -1.66257,-0.11097 -2.80261,-1.58166 -3.84485,-2.86914 -1.04225,-1.28748 -2.70562,-3.5227 -4.19568,-7.48205 -1.49007,-3.95934 -0.64128,-6.3093 -0.548,-7.52098 0.0933,-1.21169 0.49462,-2.57947 2.15718,-2.4685 z"
       style="color:#000000;clip-rule:nonzero;display:inline;overflow:visible;visibility:visible;opacity:1;isolation:auto;mix-blend-mode:normal;color-interpolation:sRGB;color-interpolation-filters:linearRGB;solid-color:#000000;solid-opacity:1;vector-effect:none;fill:#c87137;fill-opacity:1;fill-rule:evenodd;stroke:#000000;stroke-width:1.04654467;stroke-linecap:round;stroke-linejoin:round;stroke-miterlimit:4;stroke-dasharray:none;stroke-dashoffset:0;stroke-opacity:1;color-rendering:auto;image-rendering:auto;shape-rendering:auto;text-rendering:auto;enable-background:accumulate" />
    <path
       id="path1020-95"
       d="m 250.90198,381.74507 3.81797,0.0916 c 1.66686,0.04 3.72993,1.33963 4.00344,2.70181 0.27351,1.36219 -0.3861,3.67634 0.9484,7.41744 1.33455,3.74111 3.25947,5.62431 4.64321,7.36527 1.38373,1.74096 -0.34725,2.59742 -2.01411,2.55743 l -3.81797,-0.0916 c -1.66686,-0.04 -2.8892,-1.46031 -4.00344,-2.70182 -1.11424,-1.24151 -2.90278,-3.40314 -4.61633,-7.29419 -1.71354,-3.89105 -0.9995,-6.27433 -0.97528,-7.48852 0.0242,-1.21418 0.34725,-2.59741 2.01411,-2.55742 z"
       style="color:#000000;clip-rule:nonzero;display:inline;overflow:visible;visibility:visible;opacity:1;isolation:auto;mix-blend-mode:normal;color-interpolation:sRGB;color-interpolation-filters:linearRGB;solid-color:#000000;solid-opacity:1;vector-effect:none;fill:#c87137;fill-opacity:1;fill-rule:evenodd;stroke:#000000;stroke-width:1.04654467;stroke-linecap:round;stroke-linejoin:round;stroke-miterlimit:4;stroke-dasharray:none;stroke-dashoffset:0;stroke-opacity:1;color-rendering:auto;image-rendering:auto;shape-rendering:auto;text-rendering:auto;enable-background:accumulate" />
  </g>
  <ellipse
     style="color:#000000;clip-rule:nonzero;display:inline;overflow:visible;visibility:visible;opacity:1;isolation:auto;mix-blend-mode:normal;color-interpolation:sRGB;color-interpolation-filters:linearRGB;solid-color:#000000;solid-opacity:1;vector-effect:none;fill:#1f7614;fill-opacity:1;fill-rule:evenodd;stroke:none;stroke-width:4;stroke-linecap:round;stroke-linejoin:round;stroke-miterlimit:4;stroke-dasharray:none;stroke-dashoffset:0;stroke-opacity:1;color-rendering:auto;image-rendering:auto;shape-rendering:auto;text-rendering:auto;enable-background:accumulate"
     id="path968"
     cx="141.56079"
     cy="185.46692"
     rx="40.726009"
     ry="41.876461" />
  <g
     id="g913-3"
     transform="translate(211.38232,103.75352)">
    <path
       style="color:#000000;clip-rule:nonzero;display:inline;overflow:visible;visibility:visible;opacity:1;isolation:auto;mix-blend-mode:normal;color-interpolation:sRGB;color-interpolation-filters:linearRGB;solid-color:#000000;solid-opacity:1;vector-effect:none;fill:#3de826;fill-opacity:1;fill-rule:evenodd;stroke:#000000;stroke-width:4;stroke-linecap:round;stroke-linejoin:round;stroke-miterlimit:4;stroke-dasharray:none;stroke-dashoffset:0;stroke-opacity:1;color-rendering:auto;image-rendering:auto;shape-rendering:auto;text-rendering:auto;enable-background:accumulate"
       d="m -66.26606,113.22456 a 71.558128,71.558128 0 0 1 -71.55813,71.55813 71.558128,71.558128 0 0 1 -71.55813,-71.55813 71.558128,71.558128 0 0 1 71.55813,-71.558125 71.558128,71.558128 0 0 1 71.55813,71.558125 z"
       id="path55-6" />
    <path
       style="color:#000000;clip-rule:nonzero;display:inline;overflow:visible;visibility:visible;opacity:1;isolation:auto;mix-blend-mode:normal;color-interpolation:sRGB;color-interpolation-filters:linearRGB;solid-color:#000000;solid-opacity:1;vector-effect:none;fill:#2a9f1a;fill-opacity:1;fill-rule:evenodd;stroke:none;stroke-width:4;stroke-linecap:round;stroke-linejoin:round;stroke-miterlimit:4;stroke-dasharray:none;stroke-dashoffset:0;stroke-opacity:1;color-rendering:auto;image-rendering:auto;shape-rendering:auto;text-rendering:auto;enable-background:accumulate"
       d="m -66.266056,113.22456 c 2e-6,39.52047 -32.037668,71.55813 -71.558134,71.55813 -39.52046,0 -66.47109,-33.36026 -66.26605,-46.93845 30.37194,31.34739 57.75708,34.92206 80.99184,29.91175 32.637949,-7.03799 50.849993,-37.21956 56.832344,-54.53143 z"
       id="path55-0-2" />
    <path
       style="color:#000000;clip-rule:nonzero;display:inline;overflow:visible;visibility:visible;opacity:1;isolation:auto;mix-blend-mode:normal;color-interpolation:sRGB;color-interpolation-filters:linearRGB;solid-color:#000000;solid-opacity:1;vector-effect:none;fill:none;fill-opacity:1;fill-rule:evenodd;stroke:#000000;stroke-width:4;stroke-linecap:round;stroke-linejoin:round;stroke-miterlimit:4;stroke-dasharray:none;stroke-dashoffset:0;stroke-opacity:1;color-rendering:auto;image-rendering:auto;shape-rendering:auto;text-rendering:auto;enable-background:accumulate"
       d="m -66.266056,113.22456 a 71.558127,71.558127 0 0 1 -71.558134,71.55813 71.558127,71.558127 0 0 1 -71.55813,-71.55813 71.558127,71.558127 0 0 1 71.55813,-71.558127 71.558127,71.558127 0 0 1 71.558134,71.558127 z"
       id="path55-5-2" />
  </g>
  <g
     transform="translate(14.335879,48.612903)"
     id="g998">
    <path
       d="m 32.355,235.92 c 2,8.8 -6.353,9.29 -11.137,9.38 -8.266,0.16 -13.101,-0.78 -12.61,-6.44 0.428,-4.93 6.811,-6.08 12.119,-6.08 5.307,0 11.036,0.53 11.628,3.14 z"
       style="fill:#36d622;stroke:#000000;stroke-width:4;stroke-linecap:round;stroke-linejoin:round"
       id="path9218" />
    <path
       d="m 46.59,235.43 c 1.999,8.8 -6.353,9.29 -11.137,9.38 -8.266,0.15 -13.101,-0.78 -12.61,-6.44 0.428,-4.93 6.811,-6.08 12.119,-6.08 5.307,0 11.036,0.53 11.628,3.14 z"
       style="fill:#36d622;stroke:#000000;stroke-width:4;stroke-linecap:round;stroke-linejoin:round"
       id="path9216" />
    <path
       d="m 63.97,235.02 c 1.999,8.8 -6.353,9.29 -11.138,9.38 -8.265,0.15 -13.1,-0.78 -12.609,-6.44 0.428,-4.93 6.811,-6.08 12.119,-6.08 5.307,0 11.035,0.53 11.628,3.14 z"
       style="fill:#36d622;stroke:#000000;stroke-width:4;stroke-linecap:round;stroke-linejoin:round"
       id="path9214" />
    <path
       d="m 103.17,236 c 0,9.09 -10.766,10.27 -22.423,10.36 -8.267,0.07 -21.559,0.08 -19.973,-9.87 1.964,-12.31 9.794,-12.59 19.482,-13.44 11.198,-0.98 18.501,2.6 22.914,12.95 z"
       style="fill:#36d622;stroke:#000000;stroke-width:4;stroke-linecap:round;stroke-linejoin:round"
       id="path9212" />
  </g>
  <metadata
     id="metadata27">
    <rdf:RDF>
      <cc:Work>
        <dc:format>image/svg+xml</dc:format>
        <dc:type
           rdf:resource="http://purl.org/dc/dcmitype/StillImage" />
        <cc:license
           rdf:resource="http://creativecommons.org/publicdomain/zero/1.0/" />
        <dc:publisher>
          <cc:Agent
             rdf:about="http://openclipart.org/">
            <dc:title>Openclipart</dc:title>
          </cc:Agent>
        </dc:publisher>
        <dc:title></dc:title>
        <dc:date>2010-07-03T09:40:36</dc:date>
        <dc:description>A green frog remix based on the cartoon animal style by StudioFibonacci and lemmling.</dc:description>
        <dc:source>https://openclipart.org/detail/69823/cartoon-frog-by-roland81</dc:source>
        <dc:creator>
          <cc:Agent>
            <dc:title>roland81</dc:title>
          </cc:Agent>
        </dc:creator>
        <dc:subject>
          <rdf:Bag>
            <rdf:li>animal</rdf:li>
            <rdf:li>cartoon</rdf:li>
            <rdf:li>frog</rdf:li>
            <rdf:li>funny</rdf:li>
            <rdf:li>water</rdf:li>
          </rdf:Bag>
        </dc:subject>
      </cc:Work>
      <cc:License
         rdf:about="http://creativecommons.org/publicdomain/zero/1.0/">
        <cc:permits
           rdf:resource="http://creativecommons.org/ns#Reproduction" />
        <cc:permits
           rdf:resource="http://creativecommons.org/ns#Distribution" />
        <cc:permits
           rdf:resource="http://creativecommons.org/ns#DerivativeWorks" />
      </cc:License>
    </rdf:RDF>
  </metadata>
  <g
     id="g913-33"
     transform="translate(355.2078,99.848762)">
    <path
       style="color:#000000;clip-rule:nonzero;display:inline;overflow:visible;visibility:visible;opacity:1;isolation:auto;mix-blend-mode:normal;color-interpolation:sRGB;color-interpolation-filters:linearRGB;solid-color:#000000;solid-opacity:1;vector-effect:none;fill:#3de826;fill-opacity:1;fill-rule:evenodd;stroke:#000000;stroke-width:4;stroke-linecap:round;stroke-linejoin:round;stroke-miterlimit:4;stroke-dasharray:none;stroke-dashoffset:0;stroke-opacity:1;color-rendering:auto;image-rendering:auto;shape-rendering:auto;text-rendering:auto;enable-background:accumulate"
       d="m -66.26606,113.22456 a 71.558128,71.558128 0 0 1 -71.55813,71.55813 71.558128,71.558128 0 0 1 -71.55813,-71.55813 71.558128,71.558128 0 0 1 71.55813,-71.558125 71.558128,71.558128 0 0 1 71.55813,71.558125 z"
       id="path55-3" />
    <path
       style="color:#000000;clip-rule:nonzero;display:inline;overflow:visible;visibility:visible;opacity:1;isolation:auto;mix-blend-mode:normal;color-interpolation:sRGB;color-interpolation-filters:linearRGB;solid-color:#000000;solid-opacity:1;vector-effect:none;fill:#2a9f1a;fill-opacity:1;fill-rule:evenodd;stroke:none;stroke-width:4;stroke-linecap:round;stroke-linejoin:round;stroke-miterlimit:4;stroke-dasharray:none;stroke-dashoffset:0;stroke-opacity:1;color-rendering:auto;image-rendering:auto;shape-rendering:auto;text-rendering:auto;enable-background:accumulate"
       d="m -66.266056,113.22456 c 2e-6,39.52047 -32.037668,71.55813 -71.558134,71.55813 -39.52046,0 -66.47109,-33.36026 -66.26605,-46.93845 30.37194,31.34739 57.75708,34.92206 80.99184,29.91175 32.637949,-7.03799 50.849993,-37.21956 56.832344,-54.53143 z"
       id="path55-0-24" />
    <path
       style="color:#000000;clip-rule:nonzero;display:inline;overflow:visible;visibility:visible;opacity:1;isolation:auto;mix-blend-mode:normal;color-interpolation:sRGB;color-interpolation-filters:linearRGB;solid-color:#000000;solid-opacity:1;vector-effect:none;fill:none;fill-opacity:1;fill-rule:evenodd;stroke:#000000;stroke-width:4;stroke-linecap:round;stroke-linejoin:round;stroke-miterlimit:4;stroke-dasharray:none;stroke-dashoffset:0;stroke-opacity:1;color-rendering:auto;image-rendering:auto;shape-rendering:auto;text-rendering:auto;enable-background:accumulate"
       d="m -66.266056,113.22456 a 71.558127,71.558127 0 0 1 -71.558134,71.55813 71.558127,71.558127 0 0 1 -71.55813,-71.55813 71.558127,71.558127 0 0 1 71.55813,-71.558127 71.558127,71.558127 0 0 1 71.558134,71.558127 z"
       id="path55-5-8" />
  </g>
  <g
     id="g966"
     transform="translate(279.20906,-22.974442)">
    <path
       style="color:#000000;clip-rule:nonzero;display:inline;overflow:visible;visibility:visible;opacity:1;isolation:auto;mix-blend-mode:normal;color-interpolation:sRGB;color-interpolation-filters:linearRGB;solid-color:#000000;solid-opacity:1;vector-effect:none;fill:#3de826;fill-opacity:1;fill-rule:evenodd;stroke:#000000;stroke-width:4;stroke-linecap:round;stroke-linejoin:round;stroke-miterlimit:4;stroke-dasharray:none;stroke-dashoffset:0;stroke-opacity:1;color-rendering:auto;image-rendering:auto;shape-rendering:auto;text-rendering:auto;enable-background:accumulate"
       d="m -66.26606,113.22456 a 71.558128,71.558128 0 0 1 -71.55813,71.55813 71.558128,71.558128 0 0 1 -71.55813,-71.55813 71.558128,71.558128 0 0 1 71.55813,-71.558125 71.558128,71.558128 0 0 1 71.55813,71.558125 z"
       id="path55" />
    <path
       style="color:#000000;clip-rule:nonzero;display:inline;overflow:visible;visibility:visible;opacity:1;isolation:auto;mix-blend-mode:normal;color-interpolation:sRGB;color-interpolation-filters:linearRGB;solid-color:#000000;solid-opacity:1;vector-effect:none;fill:#2a9f1a;fill-opacity:1;fill-rule:evenodd;stroke:none;stroke-width:4;stroke-linecap:round;stroke-linejoin:round;stroke-miterlimit:4;stroke-dasharray:none;stroke-dashoffset:0;stroke-opacity:1;color-rendering:auto;image-rendering:auto;shape-rendering:auto;text-rendering:auto;enable-background:accumulate"
       d="m -66.266056,113.22456 c 2e-6,39.52047 -32.037668,71.55813 -71.558134,71.55813 -39.52046,0 -66.47109,-33.36026 -66.26605,-46.93845 30.37194,31.34739 57.75708,34.92206 80.99184,29.91175 32.637949,-7.03799 50.849993,-37.21956 56.832344,-54.53143 z"
       id="path55-0" />
    <path
       style="color:#000000;clip-rule:nonzero;display:inline;overflow:visible;visibility:visible;opacity:1;isolation:auto;mix-blend-mode:normal;color-interpolation:sRGB;color-interpolation-filters:linearRGB;solid-color:#000000;solid-opacity:1;vector-effect:none;fill:none;fill-opacity:1;fill-rule:evenodd;stroke:#000000;stroke-width:4;stroke-linecap:round;stroke-linejoin:round;stroke-miterlimit:4;stroke-dasharray:none;stroke-dashoffset:0;stroke-opacity:1;color-rendering:auto;image-rendering:auto;shape-rendering:auto;text-rendering:auto;enable-background:accumulate"
       d="m -66.266056,113.22456 a 71.558127,71.558127 0 0 1 -71.558134,71.55813 71.558127,71.558127 0 0 1 -71.55813,-71.55813 71.558127,71.558127 0 0 1 71.55813,-71.558127 71.558127,71.558127 0 0 1 71.558134,71.558127 z"
       id="path55-5" />
  </g>
  <g
     id="g1173">
    <path
       d="m 203.72176,34.637 c 0,11.577 -15.78,20.972 -23.43,20.972 -7.36,0 -23.42,-9.395 -23.42,-20.972 0,-11.576 7.05,-20.971 23.42,-20.971 16.38,0 23.43,9.395 23.43,20.971 z"
       style="fill:#000000;fill-opacity:0.31373004"
       id="path9210" />
    <path
       d="m 199.60176,24.669 c 0,12.519 -10.14,22.67 -22.66,22.67 -12.52,0 -22.67,-10.151 -22.66,-22.67 -0.01,-12.519 10.14,-22.669 22.66,-22.669 12.52,0 22.66,10.15 22.66,22.669 z"
       style="fill:#ffffff;stroke:#000000;stroke-width:4;stroke-linecap:round;stroke-linejoin:round"
       id="path3159" />
    <path
       d="m 176.51176,31.614 c 0,4.173 -3.38,7.556 -7.55,7.556 -4.18,0 -7.56,-3.383 -7.56,-7.556 0,-4.173 3.38,-7.557 7.56,-7.557 4.17,0 7.55,3.384 7.55,7.557 z"
       style="fill:#000000"
       id="path3161" />
    <path
       d="m 129.11176,43.964 c 0,11.576 -15.781,20.971 -23.428,20.971 -7.362001,0 -23.426001,-9.395 -23.426001,-20.971 0,-11.576 7.049,-20.971 23.426001,-20.971 16.38,0 23.428,9.395 23.428,20.971 z"
       style="fill:#000000;fill-opacity:0.31373004"
       id="path3236" />
    <path
       d="m 164.25472,120.28732 c -18.97849,7.48178 -38.70809,7.88584 -42.62573,3.30334 -4.97486,-10.04544 18.47986,-2.26542 40.08888,-11.07445 21.60162,-8.81686 29.40959,-28.792397 34.42385,-18.826985 1.5477,3.925943 -12.91781,19.119975 -31.887,26.598095 z"
       style="fill:#ffd5e5;stroke:#000000;stroke-width:2.06430006;stroke-linecap:round;stroke-linejoin:round"
       id="path3210" />
    <path
       d="m 126.25376,33.584 c 0.004,12.519 -10.144,23.074 -22.663,23.572 -12.519001,0.498 -22.666001,-9.248 -22.663001,-21.768 -0.003,-12.518 10.144,-23.073 22.663001,-23.571 12.519,-0.498 22.667,9.248 22.663,21.767 z"
       style="fill:#ffffff;stroke:#000000;stroke-width:4;stroke-linecap:round;stroke-linejoin:round"
       id="path3157" />
    <path
       d="m 159.24176,83.97 c -2.29,3.98 -6.5,5.84 -9.4,4.17 -2.89,-1.67 -3.38,-6.25 -1.09,-10.22 2.3,-3.97 6.5,-5.839 9.4,-4.17 2.9,1.68 3.38,6.25 1.09,10.22 z"
       style="fill:#000000"
       id="path2398" />
    <path
       d="m 130.43176,85.45 c 2.29,3.97 6.5,5.84 9.4,4.16 2.89,-1.67 3.38,-6.25 1.09,-10.22 -2.3,-3.97 -6.5,-5.84 -9.4,-4.16 -2.9,1.67 -3.38,6.24 -1.09,10.22 z"
       style="fill:#000000"
       id="path2412" />
    <path
       d="m 112.88476,37.504 c 0.001,4.173 -3.382,7.557 -7.555,7.557 -4.173,0 -7.555001,-3.384 -7.554001,-7.557 -10e-4,-4.173 3.381001,-7.556 7.554001,-7.556 4.173,0 7.556,3.383 7.555,7.556 z"
       style="fill:#000000"
       id="path3163" />
    <path
       d="m 84.373759,25.402 c -3.58,15.545 4.673,-5.037 19.505001,-5.039 15.041,-0.001 23.673,18.81 21.468,8.966 C 120.09176,5.838 88.061759,9.39 84.373759,25.402 Z"
       style="fill:#3de826;stroke:#000000;stroke-width:3;stroke-linecap:round;stroke-linejoin:round"
       id="path9226" />
    <path
       d="m 197.11176,14.603 c 3.58,15.545 -4.18,-4.055 -19.51,-5.039 -13.05,-0.837 -23.67,18.81 -21.46,8.966 5.25,-23.491 37.28,-19.939 40.97,-3.927 z"
       style="fill:#3de826;stroke:#000000;stroke-width:3;stroke-linecap:round;stroke-linejoin:round"
       id="path9228" />
  </g>
  <g
     transform="translate(45.573989,47.962109)"
     id="g992">
    <path
       d="m 187.26,235.43 c -2,8.8 6.35,9.29 11.14,9.38 8.26,0.15 13.1,-0.78 12.61,-6.44 -0.43,-4.93 -6.82,-6.08 -12.12,-6.08 -5.31,0 -11.04,0.53 -11.63,3.14 z"
       style="fill:#36d622;stroke:#000000;stroke-width:4;stroke-linecap:round;stroke-linejoin:round"
       id="path9220" />
    <path
       d="m 173.02,234.94 c -2,8.8 6.36,9.29 11.14,9.38 8.27,0.15 13.1,-0.78 12.61,-6.44 -0.43,-4.93 -6.81,-6.08 -12.12,-6.08 -5.31,0 -11.03,0.53 -11.63,3.14 z"
       style="fill:#36d622;stroke:#000000;stroke-width:4;stroke-linecap:round;stroke-linejoin:round"
       id="path9222" />
    <path
       d="m 155.64,234.52 c -2,8.81 6.36,9.3 11.14,9.39 8.27,0.15 13.1,-0.78 12.61,-6.44 -0.43,-4.93 -6.81,-6.08 -12.12,-6.08 -5.3,0 -11.03,0.53 -11.63,3.13 z"
       style="fill:#36d622;stroke:#000000;stroke-width:4;stroke-linecap:round;stroke-linejoin:round"
       id="path9224" />
    <path
       d="m 122,236 c 0,9.09 10.77,10.27 22.43,10.36 8.27,0.07 21.56,0.08 19.97,-9.87 -1.96,-12.31 -9.79,-12.59 -19.48,-13.44 -11.2,-0.98 -18.5,2.6 -22.92,12.95 z"
       style="fill:#36d622;stroke:#000000;stroke-width:4;stroke-linecap:round;stroke-linejoin:round"
       id="path3172" />
  </g>
  <g
     id="g1160">
    <path
       style="color:#000000;clip-rule:nonzero;display:inline;overflow:visible;visibility:visible;opacity:1;isolation:auto;mix-blend-mode:normal;color-interpolation:sRGB;color-interpolation-filters:linearRGB;solid-color:#000000;solid-opacity:1;vector-effect:none;fill:#f4ff24;fill-opacity:1;fill-rule:evenodd;stroke:none;stroke-width:1.125;stroke-linecap:round;stroke-linejoin:round;stroke-miterlimit:4;stroke-dasharray:none;stroke-dashoffset:0;stroke-opacity:1;color-rendering:auto;image-rendering:auto;shape-rendering:auto;text-rendering:auto;enable-background:accumulate"
       id="path1154"
       d="m 516.33515,101.44044 -18.29818,-13.931155 -7.24587,21.076695 -8.79507,-19.499619 -21.74443,9.266392 13.05826,-18.710138 -23.51677,-3.272288 23.03852,-8.844812 -12.87352,-22.497234 24.60724,8.859168 5.28975,-20.28033 7.18688,22.34488 23.35262,-12.111654 -12.92775,22.612842 25.34251,7.367107 -24.99476,8.76454 z"
       transform="matrix(1.213796,0,0,1.2107687,-187.58538,115.08614)" />
    <path
       style="color:#000000;clip-rule:nonzero;display:inline;overflow:visible;visibility:visible;opacity:1;isolation:auto;mix-blend-mode:normal;color-interpolation:sRGB;color-interpolation-filters:linearRGB;solid-color:#000000;solid-opacity:1;vector-effect:none;fill:#ffcc00;fill-opacity:0.79500002;fill-rule:evenodd;stroke:none;stroke-width:1.125;stroke-linecap:round;stroke-linejoin:round;stroke-miterlimit:4;stroke-dasharray:none;stroke-dashoffset:0;stroke-opacity:1;color-rendering:auto;image-rendering:auto;shape-rendering:auto;text-rendering:auto;enable-background:accumulate"
       id="path1152"
       d="m 566.38388,112.93206 -23.51259,-12.29156 -5.53362,18.23448 -9.14515,-23.345452 -16.77984,7.928492 11.2207,-17.139258 -13.89189,-20.128973 19.45927,6.193038 -1.58209,-25.482058 19.40483,17.249771 15.73481,-9.352742 -2.71473,21.894669 16.10677,1.997489 -16.61698,13.647816 z"
       transform="translate(-135.10166,120.20555)" />
    <path
       style="color:#000000;clip-rule:nonzero;display:inline;overflow:visible;visibility:visible;opacity:1;isolation:auto;mix-blend-mode:normal;color-interpolation:sRGB;color-interpolation-filters:linearRGB;solid-color:#000000;solid-opacity:1;vector-effect:none;fill:#ff4d00;fill-opacity:0.82999998;fill-rule:evenodd;stroke:none;stroke-width:1.125;stroke-linecap:round;stroke-linejoin:round;stroke-miterlimit:4;stroke-dasharray:none;stroke-dashoffset:0;stroke-opacity:1;color-rendering:auto;image-rendering:auto;shape-rendering:auto;text-rendering:auto;enable-background:accumulate"
       id="path1146"
       d="m 448.87548,133.54398 -9.57106,-8.42001 -12.66447,5.66256 5.01574,-14.63999 -13.44605,-5.972 14.58179,-1.15745 -1.8176,-15.687515 8.02921,10.149105 12.84952,-5.270383 -3.93046,9.810603 12.44724,8.17507 -13.58283,4.99109 z"
       transform="matrix(1.3785381,0,0,1.1278014,-193.53576,75.074155)" />
    <path
       style="color:#000000;clip-rule:nonzero;display:inline;overflow:visible;visibility:visible;opacity:1;isolation:auto;mix-blend-mode:normal;color-interpolation:sRGB;color-interpolation-filters:linearRGB;solid-color:#000000;solid-opacity:1;vector-effect:none;fill:#8000ff;fill-opacity:0.66666667;fill-rule:evenodd;stroke:none;stroke-width:1.125;stroke-linecap:round;stroke-linejoin:round;stroke-miterlimit:4;stroke-dasharray:none;stroke-dashoffset:0;stroke-opacity:1;color-rendering:auto;image-rendering:auto;shape-rendering:auto;text-rendering:auto;enable-background:accumulate"
       id="path1150"
       d="m 555.91273,105.61028 -4.23732,-6.762813 -8.67516,1.604033 3.69784,-6.135557 -4.90445,-8.474907 10.20951,3.162271 5.68985,-8.145986 0.96119,8.332612 6.35681,4.634233 -7.14144,3.017151 z"
       transform="translate(-145.18003,111.74845)" />
  </g>
</svg>
