<?xml version="1.0" encoding="UTF-8" standalone="no"?>
<script type="text/javascript">
WB_wombat_Init("http://web.archive.org/web", "20180208114528", "openclipart.org");
</script>
<script type="text/javascript" src="/_static/js/wbhack.js" charset="utf-8"></script>
<script type="text/javascript">
__wbhack.init('http://web.archive.org/web');
</script>
<link rel="stylesheet" type="text/css" href="/_static/css/banner-styles.css" />
<link rel="stylesheet" type="text/css" href="/_static/css/iconochive.css" />
<!-- End Wayback Rewrite JS Include -->
<svg version="1.1" xmlns="http://www.w3.org/2000/svg" viewbox="-500 -500 1000 1000">
	<g id="Kruhotvar-5">
		<title>Kruhotvar V, by Adam Stanislav</title>
		<path d="m-407.4 168.7a200 200 0 0 1 0-337.4 200 200 0 0 1 238.7-238.7 200 200 0 0 1 337.4 0 200 200 0 0 1 238.7 238.7 200 200 0 0 1 0 337.4 200 200 0 0 1 -238.7 238.7 200 200 0 0 1 -337.4 0 200 200 0 0 1 -238.7-238.7m302.7-125.3a200 200 0 0 1 61.3 61.3 200 200 0 0 1 86.8 0 200 200 0 0 1 61.3-61.3 200 200 0 0 1 0-86.8 200 200 0 0 1 -61.3-61.3 200 200 0 0 1 -86.8 0 200 200 0 0 1 -61.3 61.3 200 200 0 0 1 0 86.8z"/>
	</g>
</svg>
<!--
     FILE ARCHIVED ON 11:45:28 Feb 08, 2018 AND RETRIEVED FROM THE
     INTERNET ARCHIVE ON 02:06:19 Jun 04, 2019.
     JAVASCRIPT APPENDED BY WAYBACK MACHINE, COPYRIGHT INTERNET ARCHIVE.

     ALL OTHER CONTENT MAY ALSO BE PROTECTED BY COPYRIGHT (17 U.S.C.
     SECTION 108(a)(3)).
-->
<!--
playback timings (ms):
  LoadShardBlock: 115.413 (3)
  esindex: 0.01
  captures_list: 136.283
  CDXLines.iter: 12.48 (3)
  PetaboxLoader3.datanode: 157.706 (4)
  exclusion.robots: 0.192
  exclusion.robots.policy: 0.178
  RedisCDXSource: 5.271
  PetaboxLoader3.resolve: 611.176
  load_resource: 688.387
-->