<?xml version="1.0" encoding="UTF-8" standalone="no"?>
<svg xmlns:rdf="http://www.w3.org/1999/02/22-rdf-syntax-ns#" xmlns="http://www.w3.org/2000/svg" height="4283pt" width="4283pt" version="1.1" xmlns:cc="http://creativecommons.org/ns#" xmlns:dc="http://purl.org/dc/elements/1.1/" viewBox="0 0 4283 4283">
<path transform="scale(.8)" d="m2677.6 28.066c-3.1-0.003-6.2 0.046-9.3 0.122-42.4-1.388-81.9 24.05-98.5 62.874-9.9 30.648-15.2 65.288-4.9 96.538 15.5 36.57 43.2 75.02 85.3 81 32.8 4.34 71.3 2.64 96.4-22.04 27.7-27.48 51.2-65.68 44.5-106.35-1.9-36.83-14.6-78.861-51.1-95.198-17.5-14.328-40.4-16.923-62.4-16.946zm0 14.043c15.2 0.024 30.4 2.1 43.6 10.479 64.5 40.212 70.3 154.85-1.2 191.17-41 16.68-97.9 10.89-122.5-30.01-38.8-56.91-12.8-156.56 59.5-170.8 6.8-0.438 13.7-0.851 20.6-0.841zm0.2 10.516c-1.2-0.013-2.4 0.103-3.7 0.363-11.4-0.212-12.5 11.9-12.9 20.563-9.7 3.962-24.4 0.048-29.3 12.586-3.4 15.533 17.7 15.973 27.2 19.523-0.5 19.84 33.4 19.47 32.9 0.14 9-4.91 22.5-2.02 27.3-13.15 3.2-16.1-18.6-17.638-29.2-18.962-0.6-8.814-1.6-20.934-12.3-21.063zm-772.7 96.345c-3.1-0.02-6.2 0.13-9.4 0.46-51.2 3.77-104.2 35.72-116.2 88-2.5 42.46 3.7 91.72 38.3 121.03 24.3 21.52 55.7 41.95 89.8 35.48 33.1-5.53 69.8-18.23 86.4-49.93 18.3-34.27 28.4-77.22 10.9-113.9-13.4-43.57-53.3-80.91-99.8-81.14zm1545.3 0.52c-13.3 3.09-26.6 6.22-39.8 9.73-37.9 16.88-56.5 57.87-67.1 95.63-4.3 40.74 7.7 87.01 39.7 114.45 28.2 19.93 65.3 31.79 99.6 23.6 31.2-10.59 59-31.81 77.1-59.35 22.3-44.51 27.4-103.88-8-142.98-26-27.28-65-38.24-101.5-41.08zm-1558.8 15.39c54.6-0.9 97 53.28 102.5 104.8 7.6 43.2-20.3 91.13-64.7 99.66-33 15.45-73.6 5.67-97.8-20.93-35.1-38.96-42.5-102.21-13.6-146.69 14.3-22.23 41-30.69 65.4-36.29 2.8-0.32 5.5-0.5 8.2-0.55zm1567.7 0.91c35.3 0.58 73.8 17.59 87.5 52.33 22.8 54.2 2.5 127.82-53.3 152.84-31.5 14.5-66.7 2.45-95.3-12.91-75-52.81-26.2-187.16 61.1-192.26zm-1585.9 13.6c-1.4-0.02-3 0.32-4.9 1.11-13.9 1.91-9.4 16.44-9.1 26.06-10.5 4.18-27.9 9.65-22.2 24.41 6.6 11.59 22.7 2.39 32 6.82 4.5 14.51 25.1 7.52 29.6-1.94-4.7-17.53 25.9-16.45 21.8-33.6-5.4-13.86-22.6-5.55-33.3-6.7-4.1-5.61-6.2-16.07-13.9-16.16zm1609.8 1.42c-1.6-0.02-3.2 0.21-4.7 0.72-7.8 2.62-4.6 19.19-15.3 15.28-9.4-4.09-26.3-4.61-28.2 8.28-0.6 15.49 21.9 13.42 22.6 27.38-2.1 11.75 16.5 18.77 24.4 12.22 7.2-17.91 33.6 3.39 38.1-16.51 3.1-18.17-29.5-13.02-22.5-30.68 4.4-9.48-5.5-16.62-14.4-16.69zm-961.8 58.63c-5.1-0.04-10.3 0.34-15.6 1.17-55.9 6.04-99.2 63.12-90.2 118.63 7.2 49.01 39.8 98.24 89.3 112.04 49.9 14.58 100.6-20.75 116.4-67.44 30.2-68.79-23.4-163.82-99.9-164.4zm312.5 0.05c-4.8-0.01-9.6 0.36-14.3 1.13-48.7 4.64-84.4 47.59-94.6 93.13-17.1 60.69 27.5 138.08 93.8 140.15 66.2 2.99 114.6-64.06 117.6-125.12 4-56.84-46.5-109.2-102.5-109.29zm-3.6 18.6c35.7-0.59 66 28.11 77.4 60.5 6.6 35.27 2.4 75.35-21.9 103.48-22.7 29.52-67.3 42.68-100.8 24.22-32.2-16.93-44.9-55.74-43.9-90.04-1.6-47.73 36.3-96.45 85.7-98.01 1.2-0.08 2.4-0.13 3.5-0.15zm-306.7 0.01c27.5 0.5 53.5 17 68.8 39.46 25.5 38.3 24 93.2-3.7 129.93-22.6 30.49-68.9 35.26-99.9 14.91-42-24.39-54.8-79.1-45.3-123.9 11.3-31.5 39.7-59.19 74.6-60.29 1.8-0.11 3.7-0.15 5.5-0.11zm-13.3 5.19c-1.3 0.03-2.7 0.31-4.3 0.9-11.6 3.03-10.7 17.75-13.6 26.84-7.9 2.08-16.7 6.86-17.2 16.12 5.5 8.91 21.2 1.94 26.9 10.82 2.5 5.4 3.5 13.27 10.6 14.41 9.7-0.58 11.5-12.22 12.1-19.82 0.7-11.62 23.6-3.39 18.3-17.92-5.2-6.67-17.5-7.28-19.3-17.17-1.8-6.94-6.2-14.31-13.5-14.18zm331.3 0.23c-1.4 0.04-2.8 0.27-4.4 0.73-11.4 3.35-7.4 22.38-20.9 24.55-10 0.7-12 15.7-1.4 16.31 19.2-1.65 6.6 23.25 21.9 27.11 8.6 0.89 9.9-9.28 12.8-15.01 6.7-6.97 19.7-2.33 26.1-9.1 1.2-8.86-8.7-15.95-16.8-17.04-1.9-10.15-4.4-27.94-17.3-27.55zm-156.5 21.55c-10.2 0.12-20.5 1.48-30.5 0.43-19.1 2.25-0.3 28.72 0.4 39.54 17.8 98.13 4 198.88 13.3 297.78 1.1 4.64 1.5 15.52 8.7 14.46 6.9-6.07 6-16.88 7.6-25.27 4.6-91.46-2.5-183.57 9-274.65 0.4-17.15 15.2-33.4 9.4-50.36-5.8-1.62-11.9-2-17.9-1.93zm-577.7 20.02c-3.5-0.01-6.9 0.17-10.4 0.56-31 2.06-60 19.71-77.2 45.41-22.3 36.36-25.7 83.63-8.5 122.69 20.8 41.89 67.9 75.44 116.1 65.13 60.4-12.19 90.6-81.34 83-137.97-3.7-51.95-51.3-95.69-103-95.82zm1144.2 0.76c-4.5 0.01-8.9 0.34-13.3 1.01-45.9 4.63-85.3 42.84-91.9 88.43-7.9 53.42 13.5 118.65 67.3 139.74 57 23.58 120.9-21.47 137.3-76.49 9.1-37.87 4.8-81.11-19.2-112.86-19-24.24-49.3-39.89-80.2-39.83zm-1150.8 18.91c26.1 0.11 50.7 15.09 67.3 34.67 26.8 41.58 29.9 103.41-7.7 139.68-18.5 17.98-45.5 27.57-71.1 21.83-46.5-12.78-72.1-63.76-71.5-109.33 1.9-39.88 30.2-80.87 71.8-85.96 3.8-0.62 7.5-0.91 11.2-0.89zm1155.3 0.67c32.3-0.22 61.8 22.54 74 51.93 19.1 44.27 2.4 98.66-33.3 129.46-28 23.5-71.9 20.74-98.2-4.2-59.8-52.14-28.8-172.64 54.3-177.09 1.1-0.06 2.1-0.09 3.2-0.1zm-1160.7 3.85c-0.8-0.01-1.6 0.04-2.5 0.17-11.3-0.34-12.3 13.85-12.5 21.99-0.4 9.75-17.7 14.07-11.4 24.42 8.3 4.39 21.7-2.52 24.4 9.67 0.6 13.57 23.8 14.88 20.4-0.64-2-13.57 15.7-13.81 22.2-21.7 0.6-9.8-12.4-12.98-20.4-12.43-7.6-6.28-8.5-21.32-20.2-21.48zm1167.5 0.64c-1.1 0.04-2.3 0.23-3.6 0.58-10.1 1.86-12.8 13.81-17.9 21.03-8.2-0.35-22.8 1.69-21.1 12.85 5.5 5.81 14.6 6.88 20.2 12.78 4.2 5.85-1.3 18.03 7.7 19.91 12.5 2.64 13.3-13.7 21.1-19.35 6.4 0.1 15.2 3.38 19.3-3.33 1-9.82-12.9-12.98-12.9-22.69 0.5-8.96-2.2-22.19-12.8-21.78zm-1301.1 65.42c-1 0.03-1.9 0.15-2.6 0.3-14.3 4.4-29.1 8.38-42.9 14.46-5 1.69-3.9 7.89-1.6 11.33 9.5 14.8 21.2 28.26 27.8 44.81 36.8 82.19 57.9 170.25 91.3 253.76 3.2 6.2 6.8 18.17 15.5 16.91 4.7-8.95-0.4-19.39-1.3-28.62-23-83.79-54.8-165.1-73.7-250.03-5.3-19.42-1.5-39.83-5.3-59.46-0.8-2.95-4.3-3.58-7.2-3.46zm1429.1 1.13c-13.6 18.44-0.9 46.57-10.2 68-19.5 85.19-52 166.65-73.9 251.13-0.6 6.71-6.9 25.13 6 21.43 13.9-18.3 18.1-41.54 26.9-62.29 22.9-67.78 43.5-136.49 71.4-202.44 7.3-19.25 20.9-34.95 31.3-52.42 4.3-7.7-6.7-11.37-12-12.89-13.3-3.09-25.7-10.44-39.5-10.52zm-1582.3 5.48c-5.1-0.03-10.2 0.35-15.3 1.16-59.4 6.47-101.7 71.36-86.2 128.46 16.6 61.75 83.7 114.94 149 95.75 46.4-13.06 71.6-64.74 68.2-110.44-3.8-58.6-55.9-114.67-115.7-114.93zm1741.7 0.58c-3.6-0.01-7.2 0.19-10.8 0.62-64.4 6.35-117.9 74.47-106.3 138.66 3.4 44.01 37.5 85.08 82.5 90.19 69.3 6 137.4-58.19 136.1-127.65-0.1-54-48.1-101.72-101.5-101.82zm-1740 17.18c80 0.4 130.1 119.17 68.8 174.4-34.9 29.83-91 18.53-119.3-15.14-16.7-19.06-26.7-43.68-30.5-68.61-3.4-40.87 26-86.02 69-89.83 4.1-0.58 8.1-0.84 12-0.82zm1734.8 0.94c1.3-0.02 2.6-0.01 3.9 0.03 59.1-1.43 95.3 70.82 69.8 120.63-16.1 57.37-93.3 94.51-142.2 53.33-59.8-55.18-12-172.72 68.5-173.99zm-1767.1 10.97c-0.4-0.01-0.8 0-1.3 0.03-14.1 3.03-12.6 19.9-9.6 30.47-4.7 7.1-15.8 12.18-11.6 22.94 9.6 6.05 26.4-7.17 32.3 5.98 2.7 6.86 13 8.91 16.2 1.31 2.1-9.85-4.7-24.33 8.4-28.88 9.7-2.71 6-15.12-3-14.18-15.4 2.99-18.2-17.29-31.4-17.67zm1799.8 0.9c-1.1 0.01-2.2 0.16-3.4 0.45-7.5 2.3-9.5 12.01-17.1 14.59-6.2 3.68-15.6 0.82-19.6 8-1 11.75 20.6 10.13 14 23.72-4.3 8.87 2.5 25.09 13.5 16.19 6.4-17.7 22.9-5.33 35.4-8.61 7.2-14.97-18.5-18.38-10-32.65 3.1-9.18-2.7-21.78-12.8-21.69zm-1006.5 41.4c-0.4 0.01-0.8 0.06-1.3 0.17-9.2 3.89-17.2 10.36-23.6 18.02 0.6 12.75 9.6 22.94 12.8 34.96 7.9 20.69 7.6 44.29 19.1 63.55 6 3.38 7.1-6.37 7.6-9.97 1.1-30.89-4-61.6-6.5-92.34-0.4-4.72-1.7-14.54-8.1-14.39zm206.9 0.04c-8 5.34-6.1 16.94-7.8 25.19-1.2 29.54-9.1 59.35-3.4 88.79 0.2 4.82 7.6 4.12 7.9-0.53 11.6-26.54 11.8-56.9 26.4-82.46 11.2-15.34-10.7-28.16-23.1-30.99zm1385.5 32.83c-50 0.32-91.9 39.96-112 83.61-15.4 47.18-9.7 110.5 37.7 137.64 42.1 39.67 108.1 24.75 149.1-8.29 23.2-23.15 38.3-53.88 45.8-85.59 3.7-25.17-8.4-48.04-18.3-70.15-24.8-27.45-56.8-53.1-94.8-56.97-2.5-0.18-5-0.26-7.5-0.25zm-2973.2 2.52c-47.9-0.09-91.8 32.09-114.3 73.19-21.5 49.56 2.6 106.6 40.1 141.25 27.5 19.77 62.3 32.52 96.5 29.32 34.8-7.66 66.8-30.81 85-61.47 13.9-35.13 13.9-77.29-3.1-111.35-21.9-34.3-55.6-70.91-99.5-70.82-1.6-0.08-3.1-0.11-4.7-0.12zm2981.8 16.79c45.1 0.27 89.8 39.01 90 85.47 2.5 62.47-50.1 130.28-116.7 123.05-37.1-8.92-75.9-35.79-83.5-75.53-12.1-61.33 39.4-122.24 98.7-132.21 3.8-0.55 7.6-0.81 11.5-0.78zm-2994.1 1.56c66.5 0.91 126.3 71.04 110.6 137.41-8.4 32.67-38.3 54.43-67.6 67.32-65.4 20.87-126.2-41.59-131.3-103.68-8.6-48.36 32-93.79 78.4-100.67 3.3-0.3 6.6-0.42 9.9-0.38zm917.4 21.44c-5.5 3.85-2.5 13.3-1.7 19.44 7.8 29.97 10.7 61.66 23.6 90.06 0.7 4.51 8.9 7.97 8.9 1.47 2.7-29.66-5.9-59.71 0.8-89.37 4.2-17.56-19.2-20.59-31.6-21.6zm1161.1 0.21c-1.3 0.03-2.8 0.36-4.5 1.05-8.8 3.55-28.3 5.84-22.8 19.99 6 30.22-3.1 60.8 0.3 91.08-0.1 5.42 6.9 4.02 7.9-0.18 13.8-28.35 16.2-60.4 24.5-90.51 2.3-7.06 3.7-21.62-5.4-21.43zm952.9 1.02c-0.8-0.01-1.7 0.07-2.7 0.22-7.3 0.86-7.9 14.59-16.9 9.61-8-5.35-21.6-12.9-29.2-2.82-8.1 12.9 13.8 20.42 12.1 31.9-6.6 11.9 8.5 25.12 19.4 22.05 11.4-13.32 27.6 9.66 39.8-1.65 9.7-13.28-10.9-23.37-14.1-32.79 12.6-8.98 4.7-26.42-8.4-26.52zm-3067.1 0.67c-0.9 0.04-1.8 0.27-2.8 0.71-8.9 2.09-16.4 12.34-9.5 20.51 12.4 14.39-19.3 18.98-12.6 35.31 6 12.8 19.8 4.99 28.5 0.91 8-4.56 12.4 8.95 20.1 4.28 6.2-3.66 18.3-9.72 13.5-18.76-5.3-14.32 18.8-20.1 11.9-35.05-7.7-10.02-21.1-3.1-29.3 2.34-9.9 5.79-11.4-10.66-19.8-10.25zm1260.3 15.42c-4.1 0.03-8.1 0.13-12.2 0.32-61 5.17-123.4 17.05-175.6 50.75-59.1 36.61-125.6 71.73-159.6 135.32-1.2 1.24-3.1 2.32-4.8 1.3-58.2-28.78-125.8-22.38-188.4-16.83-53 1.98-107 14.45-152.5 42.5-48.1 19.87-88.8 54.73-121 95.18-37.1 42.25-74.8 86.38-93.6 140.24-4.8 8.6-1.1 21.6-9.2 28.3-63.4-9.5-124.7 16.5-182.1 40.3-99.8 35.9-182.6 117.7-218.9 217.4-24.2 58.6-51.7 120.9-41.2 185.8-65.39 14.5-119.94 57.4-168.74 101.7-40.56 32-75.08 73.1-95.21 121-27.13 44.5-40.49 97-42.4 148.9-6.18 64.4-11.53 133.7 17.27 193.7-5.46 9.2-18.36 10.3-25.69 17.9-42.48 32.9-71.69 79.2-99.02 124.7-61.16 88.7-78.52 205.6-48.59 308.8 14.28 60.3 29.78 124.9 74.52 170.7 0.14 6.1-7.48 8.8-10.13 13.8-39.66 48.2-52.89 111.2-67.05 170.5-13.79 49-16.62 101.7-4.92 151.4 3.26 42.8 18.27 83.9 38.48 121.4 39.38 62.6 74.92 133.9 142.72 170.3-27.16 61.3-23.22 130.7-16.69 196.2 3.41 89.3 44.49 175.3 105.75 239.2 58.88 50.5 117.58 111 196.8 126-7 66.2 17.5 129.4 43.3 188.9 19 49.4 46.6 97.1 87.9 130.9 33.4 39.9 79.6 67.5 127.9 85.9 59.1 24.7 121.7 52.6 187.2 42.7 1.6 0.3 3.1 1.1 4.1 2.6 13.6 75.9 71.5 132.4 119.2 189.2 60 61.2 141.9 102.4 227.5 111.2 64.1 4.4 131.4 13.8 193.3-8.4 7.1-1.8 14.2-9 21.4-6.5 31 58 89.6 92.9 144.2 126.1 44.6 29.6 96.1 50.3 149.8 55 52.3 12.3 107.3 5.9 158.6-8.1 60.6-14.4 125.6-29.8 171.7-74.8 1.2-0.1 2.6-0.2 3.6 0.8 47.7 46.3 115.3 60.7 177.7 75.6 48.6 13.7 100.7 18 150.2 6.5 50.8-4.3 99.5-23.9 142-51.7 50.5-30.7 104-62 138.3-111.7 5-5.2 5.6-16.9 13.6-18 68.5 33.7 147.5 19.6 220.6 14.9 42.3-5.7 84.7-17.6 121.2-40.3 48-19.9 88.8-54.8 120.9-95.2 37.1-42.3 74.8-86.4 93.6-140.2 4.5-8.6 1.6-20.6 8.4-27.8 78.1 9.8 151.2-28.4 221.7-57.1 80.5-41.7 147.8-112.7 179-198.5 24.6-59.5 53-122.6 42.4-188.4 65.3-14.5 119.9-57.5 168.7-101.8 40.5-32 75.1-73.1 95.2-120.9 22.4-36.1 34.5-78 40.3-119.8 5.3-74 18.1-153.5-15.2-222.9 5.5-9.2 18.4-10.3 25.7-17.8 42.5-32.9 71.7-79.3 99-124.8 61.2-88.7 78.6-205.6 48.6-308.7-14.2-60.3-29.8-125-74.5-170.7-0.1-6.2 7.4-9 10.1-13.8 39.2-47.7 52.6-109.9 66.6-168.5 14.1-49.7 17.3-103 5.4-153.5-4.3-54-26.3-105.2-56.1-149.9-32-54.7-69.3-111.1-125.1-142.8 27-59 23.2-126.1 17.2-189.4-3.6-105.1-55.7-208-138.2-273-48.2-41.9-100.2-86.3-164.9-98 7.1-66.1-17.4-129.4-43.3-188.9-18.9-49.3-46.5-97-87.8-130.9-33.5-39.8-79.6-67.4-127.9-85.8-59.1-24.7-121.8-52.6-187.3-42.8-1.6-0.3-3.2-1.1-4-2.5-10.9-63.45-55-114.24-95.5-161.67-67-85.78-173.9-138.49-282.6-141.17-54.1-3.94-111-8.01-162.9 11.1-6.7 1.79-13.6 8.7-20.4 6.21-37.3-68.62-110.1-104.21-173.7-144.1-85.3-43.36-187.6-55.55-279.9-28.65-60.3 14.27-125 29.8-170.7 74.49-8.7-1.13-13.2-11.7-20.7-15.76-49.2-36.16-110.4-48.72-168.6-62.59-27.6-7.65-56.2-11.25-84.8-11.04zm542.8 21.93c4 0.01 8 0.05 11.9 0.1-45.3 29.95-76.1 81.27-79.4 136.05-4.2 26.35 7.3 51.42 8.1 77.39-9.3 0.46-15.2-10.45-24.8-11.27-21.6-5.56-37.1 15.49-44.2 32.81-18.7 46.47-16.1 99.03-2 146.42 1.8 5.55 5.5 20.77-5 15.04-25.4-14.64-55.1 0.22-72.5 20.31-36.1 36.8-45.3 88.9-56.8 136.9-0.5 6.1-7.6 13.5-9.2 3.7-14.3-59.8-28.3-133.1-89.4-163.1-16-9.3-32.6 0.64-48.1 2.84 8.5-47.13 21.4-96.84 5.9-144.43-6.7-22.83-19.7-54.05-48.4-51.05-10.4 0.33-16.7 12.33-26.6 11.89-1.5-15.09 5.6-29.03 6.7-43.88 10.6-65.55-24.6-134.17-77.6-169.57 28.6 0.32 57.8-1.55 85.8 6.5 59 11.68 123.7 18.5 170.1 61.04 13.5 14.82 37.6 14.99 51 0.01 44.2-40.51 105.5-48.82 161.9-59.27 27-7.3 54.8-8.52 82.6-8.43zm61.6 3.01c79 42.87 85.2 159.13 34 226.02-4.1 7.28-17.8 13.49-11.9 22.94 19.6 13.34 49.3-11.57 65.5 9.98 8.9 16.73 7.8 37.1 2.9 54.95-10.3 41.16-24.4 82.24-48.9 117.25-2.5 5.1-7.7 12.7-3.1 18 19.5 10.5 46.4-9.5 63.3 7 27.2 52.2 29.6 114 23.5 171.5 1.7 13.3-4.7 31.6 6.6 42.1 18.8-9.7 27.7-30.8 39.4-47.6 19.7-36.1 48.9-66.1 80.9-91.6 10.8-6.9 21.6-17.3 35.4-16.9 19.5 5.1 29.1 31.6 50.4 30.7 9.2-7.5 4-22.9 6.2-33 3.8-35.3 14-69.8 27.6-102.5 7.3-19.45 18.7-41.24 40.4-47.09 20.2-0.95 28.5 22.59 45.7 29.33 5.1 4.22 17.1 3.23 13.6-6.37-7.6-53.75 16.6-107.98 55.3-144.56 26.5-26.41 65.3-40.95 102.5-34.46 61.6 70.39 23.3 188.67-53.9 230.55-4.4 1.9-8.7 7.1-4.3 11.4 14.8 14.2 38.6 6.7 54.2 19.7 11 18.4 2.8 40.7-7.5 57.5-22.7 37.1-48.8 73.5-84 99.7-5.1 4.3-13.2 11.3-8.5 18.7 16 12.2 41.4 6.3 55.1 21.7 10.4 32.4 2.8 67.8-3.4 100.4-5.9 37.1-29.8 68.7-34.2 106.1-3.9 9.6 6.4 9.6 12 6.8 28-14.7 48.1-40 74.6-56.7 31.2-19.2 64.6-37.5 101.2-42.8 28.7-4.5 25.5 50.3 52.5 44.2 22.4-50.3 49.5-100.5 91.3-137.7 12.2-7.7 30.7-18.3 43.3-5.2 9.7 12.1 13.1 28.3 25.5 38.4 3.4 3.7 11.5 3.9 12.5-2 14.2-89.9 119.5-165.1 207.3-124.3 40.4 87.7-34.1 193.3-124.2 207.3-7.1 1.5-5.1 11.5-0.2 14.6 11.3 13.1 31.5 14.3 40.8 29.4 5.9 12.9-3 26.5-9.4 37.4-37.1 41.9-87.5 68.8-137.8 91.2-5.3 28.4 51.7 24.1 44.1 55.9-11.2 53.5-41.1 101.6-77.7 141.5-8.5 13-24.9 25.4-22.5 42.4 36.3 1.4 67-23.2 101.6-30.8 32.6-7.4 66.5-13.7 100-9.9 31.1 1.9 18.9 42.2 35.1 59.2 9.1 3.8 14.7-6.3 20.2-11.5 21.6-30.1 52.4-51.8 82.6-72.4 18.7-11.9 40.2-26 63.5-20.6 27.8 7.8 8.2 52.3 34.5 60.2 33.4-59.9 103-97.7 171.8-90 24.5 2.4 46.2 16 64.6 31 11.3 86.9-76.6 156.2-157.3 157.9-8.9 3.6-28-8.9-31.1 4.1 2.2 22.4 32.5 30.9 31.8 54-4.7 17.9-21.2 29.4-37.3 36.4-41.7 17.6-85.9 31.9-131.5 32-6.5 0.2-16.7 2.8-14.3 11.8 6.3 20.2 41.6 34.8 27.6 59.2-26.1 42.5-63.6 78.4-107.1 102.9-15.7 10.2-32.9 19.3-44.1 34.6-3.3 4 2.2 7.1 5.5 8.4 29.6 4.7 59.4-0.6 89-1.7 38.3 1.6 77.4 7.1 112.4 23.6 22.7 10.2 6.8 39.4 9.6 57.8-1.6 13.4 14 11.3 20.9 5.6 39.3-27 85.6-42.7 132.2-51.8 17.4-3.5 49.9 0.4 49 24.6 2.2 14.8-13.2 45.2 8 48 64.7-64.5 195-64.8 241.9 20.8-16 88.2-124.2 129.1-202.9 102.7-8.7-2.1-16.8-10.2-26.2-7.4-8.7 22.3 18.8 39.6 13.2 61.8-9.8 18.5-32.7 24.5-52.2 25.6-41.3 3.2-83.9 3.7-123.8-8.7-7.6-1.1-21.1-6.6-24 3.8 0.6 20 18.5 36.6 15.3 57-21.4 27.4-54.5 41.8-84.8 56.8-34.2 15.8-73.6 16.3-106.8 34.5-6.6 3-3.5 9.4 1.5 11.9 32.5 16.8 70.3 17.6 103.3 32.9 31.1 14.3 64.1 29.6 86.4 56.6 4.8 20.6-14.8 37.5-14.8 57.8 2 8.2 12.8 6.8 18.9 5 44.1-13.6 91.2-13.7 136.8-9.3 16.8 2.9 36.2 8.6 44.2 25 4.9 21.2-18.1 36.7-14.6 57.9 1.6 9.1 13.6 2.5 18.7 0 78.9-33.1 192.8 7 211.5 96.8-42.9 74.7-151.6 81-218.3 36.4-10.6-4.6-16-18.4-28.2-19-11.3 16-1.5 35.9-2.3 53.5-4.1 20.2-30 22.1-46.5 20.3-37.1-5.9-72.9-18.9-106.8-34.7-15-6.2-26.3-21.2-43.1-22.5-18.6 17.3 11.5 53-13.4 67.3-56 27.7-120.4 26.1-181.1 21.2-7.7 1.1-28.5-2.7-28.3 9.6 20.8 26.9 55.3 37.9 81 59.2 28.9 24.1 57.1 51.2 73.6 85.4 4.7 24.7-31 34.8-30.8 58.8 3.6 2.9 8.3 4.7 13 5.2 43.3 0.7 85.7 12.9 125.5 29.4 17.8 7.1 36.9 17.5 44.1 36.4 7.5 26.2-38.2 37.3-28.5 61.7 90.7-12.5 198.9 60.9 186.5 160.1-70.7 65.8-195 27.2-235.8-54.7-2.1-3.4-6.8-2.2-9.7-0.7-14.8 16-4.7 43.7-23.6 57-18.6 6.7-38.6-0.9-54.6-10.8-36.5-22.9-72.9-48.6-98.7-83.7-4.6-4.5-10-12.6-17.3-9.3-14.2 15.6-6.9 42.4-22.6 56.7-37.1 9.5-76.4 1.8-113-7-33.3-7.6-62.4-28.8-96.8-31.8-7.5-0.6-5.5 8.7-3.5 13.2 12.3 21.9 30 39.9 45.9 59.3 24.5 33 44.1 70.7 53 111 6.6 28.5-33.3 29.9-44.9 48.8-4.4 11.6 10.9 13.9 18 17.7 40.3 14.2 75.1 40.2 107.1 68 13.2 10.6 23 26.1 25.3 43.1-3 25-36.8 23.3-46.8 43.5-4.1 11.7 12.6 9.2 18.7 12.3 81.4 22.1 147.6 119.1 110.4 201.5-89.4 39.2-191.6-38.6-206.3-128.2-25.8-3.2-23.6 39-46.8 45.1-15.9 1.6-30.9-8.1-41.9-18.7-33.3-36.2-61.9-77.5-78.2-124.2-2.8-10.5-17.3-8.8-20.7 0.9-11.7 13.9-17.2 43.8-41 37.3-46.4-11-90.2-34.1-125.7-65.9-17.6-12.5-33.2-33.7-56.1-34.6-3.9 24.6 11.5 47.4 19.4 70.1 15.5 36.4 20.9 76.5 22.3 115.8-1.7 10.5 0.7 24.1-7.4 32.5-16.1 9.8-36.7 7.1-52.6 17.4-6.4 8.4 5.4 15.9 10.7 21.3 29.4 21 50.7 50.8 71 80.2 13.4 20.3 29 44.1 21.4 69.6-11.2 19.3-37.4 10.3-53.7 21.9-5.4 1.7-8 11.6-1.4 13.3 80.5 41.7 117.8 163.7 53.7 234.6-84.4 12.7-153.2-68.3-160.6-146.4-4-13.5 3.8-29-1.5-41.5-24.8-2.9-32.9 33-57.5 31-19.1-5.2-30.2-23.4-37.5-40.4-17.4-40.8-30-84.3-30.8-128.9-1.1-5.5-2.9-17-11.5-13.8-19.4 6.3-29.9 33.2-51.9 30.9-58.9-28-95.7-85.1-129.1-138.6-4.6-6.9-21.3-26.7-24.3-8.8-4.8 29.2 0.7 58.8 1.9 88.2-2.9 39-6.6 80.2-26 115-14.4 23.2-49.7-6.6-66.1 12.1 1 15.9 14.6 26.9 21 40.7 16.5 33.4 29.1 69.1 35.4 105.9 3.2 15.9 1.6 35.6-11.3 46.8-19.2 10-42.3-8.3-60.9 4.5-2.8 10.5 10.1 15 14.1 23 48.7 66.8 44.7 179.8-32.4 224.3-81.6-16.4-120.6-112-104.8-187.2 0.9-14.7 13.7-26.9 11.8-41.6-21.9-8.4-38.9 17.9-60.9 13.6-16.2-7.3-22.8-26.2-25.2-42.6-5.4-46.3-5.1-94.1 8.6-138.9 2.1-6.2 3.1-17.9-5.9-19-19.6 1.5-36 18.4-56.1 15.4-28.9-23.4-44.8-58.8-59.4-92.1-14.4-31.9-14.2-69-32-99.4-2.8-6.7-9.3-3.6-11.8 1.4-13.3 26.1-16.9 55.7-25.1 83.5-11.4 32-27 62.8-47.7 89.7-7.1 7.6-14.3 18.9-26.1 17.7-16.4-3.6-30.5-14.3-47.3-16.3-9.2 1.1-7.2 12.4-6.1 19.1 12.7 41.3 13.6 85.3 10.4 128.1-1.7 19.2-6.7 41.3-24.1 52.3-22 7.6-38.8-18.7-60.8-13.6-8 2.6-1.2 13.4 0.9 18.4 33.6 79.5-8 195.1-99.1 211.8-84.7-46.4-85.9-175.8-21.8-240.3 5.7-8.4-6.2-13.5-12.8-12.1-14.7-2.6-29.7 6.3-44 0.9-16.4-8.1-15.8-30.1-15.3-45.5 7.5-40 20.6-79.3 40.1-115.1 5.6-11.4 19.4-22.6 15.9-36.3-19-12.3-47 9.2-63.9-7.7-27.3-52.3-29.6-114-23.6-171.6-1.7-13.3 4.8-31.6-6.5-42.1-28 17.2-38.3 51.7-57.9 76.6-24.3 30.2-52 59.2-86.5 77.5-19 8.6-31.3-14.2-45-23.2-5.4-6.2-19.6-10-21.1 1-1.1 47.6-14.1 94.3-33.1 137.8-6.6 15.8-17.2 31.4-33.9 37.6-25.8 6.8-36.5-37.7-61.7-29 13.4 89.7-59.4 198.1-157.4 186.3-59.9-65.5-27.7-175.7 39.8-223.1 5.7-5.3 23.1-8.2 18.1-18.6-14.4-15.3-39-7.2-54.8-20.4-12.2-21-0.5-45.5 11.3-63.8 21.2-33.1 44.5-66.3 76.2-90 6-5.6 17.7-12.5 12.5-22.2-15.9-12.2-41.4-6.2-55-21.7-10.5-32.4-2.9-67.7 3.4-100.3 5.8-37.1 29.7-68.8 34.2-106.1 3.8-9.7-6.5-9.7-12.1-6.8-27.7 14.5-47.7 39.5-73.8 56.2-31.4 19.4-65 37.9-101.9 43.3-28.7 4.4-25.6-50.4-52.6-44.2-22.3 50.3-49.5 100.5-91.2 137.7-12.2 7.7-30.8 18.2-43.4 5.2-9.7-12.1-13.1-28.4-25.4-38.5-3.5-3.7-11.6-3.9-12.6 2.1-14.1 89.9-119.5 165-207.3 124.2-37.8-81 24.3-177.6 104.2-202.6 8-4.2 27.6 0 24.1-14.1-9.9-17.6-34.1-17.8-44.7-34.5-5.9-13 3-26.6 9.5-37.4 37-42 87.5-68.9 137.7-91.3 5.3-28.4-51.7-24.1-44.1-55.9 11.1-51.5 38.8-98.8 74.5-137.2 9.2-14.6 27.8-27.9 25.7-46.6-18.4-3-35.3 7.1-52.4 12.4-46.2 21.6-98.2 32-149.1 28.3-27.2-1.1-21.8-34.3-30.4-52.2-2.2-11.8-17.2-8.2-21.4 0.6-25.9 35-61.8 61.1-98.5 83.9-15.3 9.5-34 17.7-52.1 12.6-26.5-8.6-7.5-52.1-33.5-59.8-28 49.5-79.83 84.2-136.8 89.9-36.03 6-73.09-6.8-99.7-30.9-11.3-86.9 76.64-156.2 157.36-158 8.84-3.6 27.95 9 31.07-4-2.18-22.5-32.5-30.9-31.82-54 4.82-18.3 21.77-29.8 38.25-36.8 41.44-17.4 85.34-31.6 130.64-31.7 6.4-0.2 16.6-2.8 14.2-11.7-6.3-20.3-41.6-34.8-27.5-59.2 26.1-42.5 63.6-78.5 107.1-103 15.6-10.2 32.8-19.2 44.1-34.6 3.2-4-2.3-7.1-5.6-8.3-29.5-4.8-59.4 0.6-89 1.7-38.5-1.8-78-7.1-113.1-24-18.6-7.8-9.2-31.3-9.1-46.4 1.8-8.6 0.8-26.9-12.9-20.3-42.49 27-90.04 46.8-139.92 55.4-15.68 1.8-35.6 1.8-46.1-12.2-9.55-18.2 6.64-40.2-3.18-58.2-10.72-8-18.15 9.8-27.11 13.8-67.37 47.7-180.43 41.3-222.53-36.7 12.72-75.1 94.23-114.7 164.46-110.6 22.95-1.2 43.02 13.9 64.59 15.2 8.78-22.3-18.74-39.5-13.19-61.8 8.95-16.9 29.59-23.8 47.73-25.1 42.7-3.8 86.94-4.5 128.31 8.2 7.49 1 21.04 6.6 24.04-3.8-0.6-19.9-18.59-36.6-15.36-57 21.36-27.4 54.46-41.7 84.86-56.8 34.2-15.8 73.5-16.3 106.7-34.5 6.6-2.9 3.5-9.4-1.4-11.9-27.1-13.8-57.7-16.9-86.3-26.1-37.4-14.8-75.7-32.1-102.96-62.4-6.38-20.8 14.46-38.2 14.36-58.8-2.1-8.2-12.92-6.8-18.96-5-44.14 13.6-91.25 13.7-136.84 9.3-16.75-2.8-36.22-8.6-44.16-25-4.93-21.2 18.06-36.7 14.64-57.8-1.7-9.2-13.69-2.6-18.69-0.1-78.99 33.1-192.88-7-211.49-96.8 42.87-74.7 151.5-81 218.26-36.4 10.57 4.7 15.98 18.5 28.22 19 11.27-16 1.48-35.9 2.23-53.5 4.58-21 31.73-22.2 48.78-20 47.1 9.4 94.3 24.8 133.91 52.7 5.2 2.3 13.3 7.5 17.4 0.9 9.8-20-13.8-53.1 12.2-65.3 51.7-23.5 110.5-26.3 166.3-20.1 12.5-1.6 31.8 4.6 40.9-6.5-6.5-17.4-27.1-25.2-41.2-35.9-41.6-23.1-78.1-55.7-104.8-95.2-4.5-7.4-10.2-15.1-10-24.2 6-19.7 31-29.6 32-50.9-4-3.3-9.1-5-14.2-5.4-37.8-0.3-74.8-10.6-110.1-23.4-22.04-9-48-17.7-58-41.3-9.15-26.6 37.98-38 28.11-62.7-90.67 12.5-198.83-60.8-186.5-160 70.72-65.8 195.01-27.2 235.79 54.6 2.1 3.3 6.8 2.2 9.8 0.7 14.7-16 4.7-43.7 23.5-57 19.7-7 40.4 1.7 57 12.2 35.6 22.7 71.1 48 96.3 82.4 4.6 4.4 10 12.6 17.3 9.2 14.2-15.6 6.9-42.4 22.6-56.6 38.5-9.8 79.2-1.6 117 8 32.1 8.1 60.5 28.5 94 30.8 6.6-0.7 4-9 2.3-13.3-12.2-21.9-30-39.9-45.8-59.2-24.7-33.4-44.6-71.4-53.2-112.2-8.1-31.5 48.3-28.1 44.4-56.2-39.2-18.4-79.8-36.8-112.3-66.8-17.3-13.6-35-30.2-37.5-53.4 3.1-25.1 36.8-23.4 46.8-43.5 4.5-9.7-8.4-9.5-13.7-11.1-84-19.4-153.1-118.8-115.3-202.7 82.3-36.6 178.2 28.4 201.2 109.3 3.2 6.4 0.2 22 11.4 20.3 19.4-9 19.2-37 38.5-46.1 21.9-3.5 41.2 13.5 53.9 29.5 28.9 33.4 53.5 71 68.1 112.9 2.8 10.6 17.4 8.8 20.8-0.8 11.7-14 17.1-43.9 41-37.4 43.8 10.4 85.3 31.6 119.6 60.8 19.5 14.1 36.7 37.9 62.1 39.7 3.3-28.5-14.8-54.4-23.7-80.7-13.3-41.4-22-86.2-15.2-129.5 8.8-24.1 47.3-9.6 59.2-29.9-4.4-16-23.6-22.6-33.9-34.4-27.2-29.1-51.8-61.2-69.2-97-3.6-14.1-8.8-33.9 5.5-43.6 14.5-8.2 33.1-4.4 47.1-14.1 4.8-2 6.7-11.5 0.6-12.9-80.6-41.66-117.8-163.67-53.8-234.59 83.6-12.61 152 66.87 160.4 144.14 4.2 14.23-3.4 30.5 1.8 43.85 24.8 2.84 32.8-33.11 57.5-31.07 19 5.21 30.1 23.41 37.5 40.41 17.3 40.86 30 84.36 30.8 128.96 1 5.5 2.8 17 11.4 13.8 20.2-6.2 32.1-37.7 55.5-29.5 46 24.9 82.3 65.9 108.1 110.9 11.4 14.8 18.8 36.9 38 43.2 14.1-32.9-0.7-70 2.4-104.4 3-36.4 7.2-74.7 25.4-107 14.5-23.2 49.8 6.6 66.2-12.1-1.5-17.7-17.4-29.6-23.7-45.55-16.4-36.53-30.7-74.95-34.4-115.11 1.1-11.57 3-25.15 12.9-32.71 19.3-10.03 42.3 8.3 61-4.47 2.7-10.23-9.6-14.74-13.6-22.34-49.4-66.7-45.5-180.31 31.8-224.92 81.6 16.34 120.6 111.91 104.9 187.12-1 14.69-13.8 26.95-11.9 41.59 21.9 8.46 38.9-17.87 60.9-13.52 16.2 7.22 22.8 26.16 25.3 42.6 5.3 46.2 5.1 94.05-8.6 138.83-2.1 6.23-3.2 17.88 5.8 19.08 19.6-1.6 36-18.46 56.1-15.46 29.8 24.36 46.2 61.06 60.9 95.76 13.2 30.9 13.3 66.5 30.5 95.7 3.1 7.3 10 2.9 12.3-2.1 17.3-35.4 18.1-76.3 36.2-111.3 14.8-28.3 28.2-61 56.1-78.66 19.1-0.63 34.6 14.46 53.4 16.06 11.1-1.8 6.6-16.58 4.8-24.2-10.6-33.96-10.8-70.15-10.3-105.39 1.4-24.4 2.6-53.85 24.5-69.42 22.8-9.65 41.7 21.54 64.6 11.89 1.4-14.59-11.1-26.78-11.9-41.53-16.5-75.79 24.5-172.91 107.2-187.39zm915.4 1.37c-2.7 0.02-5.4 0.16-8.1 0.43-99.6 3.08-140.1 149.59-67.4 211.03 44.4 38.31 114.2 18.77 149.2-22.95 25.7-34.74 36.2-83.05 20.2-124.05-14.7-37.61-53.5-64.77-93.9-64.46zm-2491.9 1.43c-1.3 0.02-2.7 0.06-4 0.13-50 0.81-94.4 42.92-98.8 92.52-2.5 34.74 7.5 70.97 29.6 98.19 34.7 39.49 101.1 57.61 144.9 22.45 45.3-35 47.1-101.49 25.4-150.26-16.4-37.75-56.1-63.45-97.1-63.03zm869.2 10.24c0.2 0.15 0.4 0.47 0.5 0.64-47.3 56.68-51 144.35-9.4 205.24 2.9 4.7 14.4 22.43 1.4 18.54-19.2-9.58-43.7-0.32-48.4 21.42-15 58.89 10.9 118.06 43.2 166.26 4.6 4.7 2.4 12.6-5.8 9.2-32-6.2-54.5 23.7-64.4 50-20.2 46.5-10.1 97.5-8.7 146.1-4.8 10.3-12.4-9.6-15.9-13.1-28.2-50.1-66.7-108-128.8-114.8-17.9-4-28.5 13.7-43.3 17.3-4.3-57-14.1-119.94-57.5-161.51-13.4-14.11-40.2-20.89-52.9-2.25-4.1 2.92-5.8 12.32-11.9 10.85-3.8-12.39-3.7-25.5-5.5-38.24-9.9-66.52-61.7-125.39-127.4-141.43 32-15.18 69-21.19 104.7-23.76 53.7-8.21 111.1-15.46 161.9 8.42 18.1 10.43 38.8-1.07 47.1-18.18 28.8-49.68 81.5-76.33 130.4-102.21 27.6-18.14 58.5-31.11 90.7-38.49zm755.5 0.25c22.6 6 45 13.3 65.9 24.04 57 33.97 124.9 60 158.7 121.28 8.4 18.53 31.4 21.18 47.9 12.89 52.7-23.92 111.9-14.05 167.2-6.67 32.4 2 65.7 9.55 94.7 22.72-60.7 16.41-112.8 70.29-124.6 133.78-3.4 15.11-1.6 31.32-7 45.87-9.1 0.7-11-13.27-18.8-16.67-16.8-12.69-38-0.65-50.2 12.3-36.4 39.76-49.8 94.91-51 147.61-0.1 3.2-1.4 13.9-7.2 9.8-11.3-11.9-27.2-19.7-43.9-16.4-36.1 5.4-64.6 31.6-87.4 58.2-19 22.5-29.1 52.4-49.9 72.8-6.2-12-0.1-31.1 0-45.2 5.5-49.6 1-108.1-37.6-144.4-12.2-12-29.7-10.7-45.3-10.8-1.4-9.8 9.4-17.5 12.8-26.11 25.2-39.39 40.9-86.61 35.9-133.75-2.5-14.28-7.5-30.74-21.5-37.65-11.9-5.55-24.4 1.17-36.5 1.49 0-9.43 7-16.84 11.2-24.77 38.6-60.69 31.9-145.03-13.4-200.36zm-1155.6 9.05c-0.9 0-1.8 0.14-2.8 0.45-7.8 7.59-23.7 21.99-12.5 32.61 23.9 21.33 34.4 52.96 56.1 75.69 8.1 1.85 3-9.8 3.7-14-8.2-28.71-22.3-55.31-33.5-82.91-2.6-4.73-5-11.82-11-11.84zm1555.6 0.4c-18.4 19.91-24.3 50.12-36.8 74.5-2.5 10.9-12.5 24.19-6 35.26 22.4-14.21 27.7-44.23 46.1-62.62 5-8.35 22.5-16.06 15-27.36-4.9-7.3-9.2-18.04-18.3-19.78zm473.3 0.42c27.1-0.27 53.5 15.03 66.4 39.1 38.3 64.82-21.2 159.82-96 153.82-46.2-5.83-75.6-56.48-67.3-100.56 8.1-42.67 38.5-87.41 85.3-91.28 3.8-0.69 7.7-1.05 11.6-1.08zm-2505.4 1.28c74.8-1.17 125.9 101.53 80.3 161.56-18.7 28.99-59.3 40.13-90.4 25.68-45.2-20.72-77.3-72.4-66.5-122.55 6.9-31.55 32.4-59.81 65.4-63.74 3.8-0.58 7.5-0.89 11.2-0.95zm2529.5 7.56c-1.4 0.04-2.8 0.34-4.4 0.93-9.2 1.4-12.6 15.53-22.8 12.47-6.5-0.76-16.9-1.77-19.3 6.02 1.9 9.37 14.3 12.63 16 22.27-1.2 6.13-5.9 16.85 2.1 19.7 9.9 2.94 14.9-7.14 21.5-12.13 7.1-1.13 17 8.33 22.7 0.63 1.3-10.49-10.5-18.58-4.7-29.28 4.4-9-1.4-20.93-11.1-20.61zm-2553.8 1.67c-1 0.02-2 0.15-3.1 0.41-13.1 2.9-8.5 17.54-7.3 26.96 2.2 8.65-10.6 16.24-4 24.15 6.8 6.28 14.2-5.29 21.6-1.94 6.4 5.29 12.8 15.23 22.5 10.9 6.2-3.67 2.1-11.41 1.6-17.01-2.7-11.7 13.5-14.29 14.7-24.4-3.9-9.3-15.9-6.55-23.5-4.36-7.4-4.74-13-14.88-22.5-14.71zm1218.8 38.77c-1.6 0.01-3.2 0.18-4.6 0.55-41.5 9.65-81.3 29.79-113.5 57.8-3.2 4.89-11.2 10.45-8.9 17.25 11.1 2.43 20.4-6.31 29.3-11.8 35.2-26.1 80.8-37.09 123.5-33.61 16.6-14.09-9.6-30.21-25.8-30.19zm117.9 0.27c-1.7-0.04-3.3 0.01-5 0.17-14.1-0.21-40.9 18.14-22.3 30.16 47.2-6.52 95.6 11.64 133.3 40.13 4.3 3.86 22.7 10.4 18.4-0.57-20.8-31.11-58.2-45.6-91.2-60.34-10.6-4.36-21.7-9.24-33.2-9.55zm-56.6 13.35c-4.5-0.09-9.4 0.59-13.2 0.59-8.1 4.45-5.2 17.31-6.8 24.78-0.3 64.86 1 129.75 3.5 194.57 5.7 69.08-5.6 139.84 12.5 207.64 14.9-45.8 12.6-99.2 11.3-147.78 2.8-88.71 8.3-177.71 4.4-266.42 1.9-10.99-4.3-13.24-11.7-13.38zm1376.7 50.47c-10.9 11.12-10.1 29.99-18.4 43.26-45.5 83.88-109.2 156.04-159.3 236.95-1.9 5.7-7.8 12.8-3.6 18.7 6.4 1.5 11.4-5.3 15.7-9.1 63.8-74.29 112.8-160.87 182.3-230.21 8-9.81 40.6-19.77 24.7-34.61-13.9-7.93-25-23.79-41.4-24.99zm-2765.1 1.41c-14.1 7.83-27.1 18.04-39.9 27.94-5.6 6.39 3.3 13.11 8.1 16.38 26.6 17.06 46.4 42.12 66 66.49 47.4 58.42 88.1 122 136.6 179.59 4.7 8.3 23.4 14.4 15.9-1.9-49.1-87.71-121.1-161.35-165.9-251.75-7.1-12.24-5.7-34.69-20.8-36.75zm835 12.4c-17.6-0.34-43.4 15.15-36.8 35.27 9.1 9.48 22.3-3.33 31.9-6.23 38.9-7.78 79.6-5.53 117.2 7.61 4.9 2.27 21.2 2.11 15.7-6.78-36.8-25.73-84.5-28.61-128-29.87zm1099 0c-5-0.08-9.7 0.42-13.9 1.49-35.5 2.65-72.3 6.9-103.5 25.24-4 1.95-9.6 9.03-2.7 10.91 18.7 2.42 35.8-8.86 54.2-10.56 25.7-5 51.4-0.04 77 2.77 10.1 3.65 23.4 16.7 32.4 4.94 2.1-23.17-22.2-34.44-43.5-34.79zm-1154.6 30.93c-0.9-0.04-1.9 0.11-3 0.48-9 3.75-24.4 3.7-17.5 18.35 23.5 81.92 52.9 162.23 83.4 241.84 14 51.3 30.5 103.2 59 148.4-2.2-53.7-20.3-105.8-39.1-155.9-21.2-80.12-44.8-159.73-71.8-238.1-2.7-5.25-4.6-14.78-11-15.07zm1215.3 0.21c-8.5 3.62-9 14.76-12.9 22.16-25.1 75.92-48.5 152.48-68.9 229.8-18.2 50.4-37.8 103.1-39.2 156.5 29.6-45.4 44.7-98.9 60.1-150.5 28.9-74.04 54.2-149.34 79-224.8 1.8-8.65 6.4-18.11 2.6-26.94-7.3-1.18-14-4.62-20.7-6.22zm891.1 3.91c-2.4-0.04-4.7 0.02-7.1 0.16-39.5 3.06-76.8 25.71-99.4 58.06-19.3 31.28-24.2 71.78-11.2 106.31 13.4 35.42 51.1 58.47 88.5 57.52 34.4-0.19 67.3-15.05 93.3-36.96 38-31.73 48.5-90.56 23.3-133.22-17.1-31.18-52.1-51.37-87.4-51.87zm-2999.3 1.79c-4.7-0.05-9.3 0.2-14 0.76-34.3 4.26-65.8 27.6-79.4 59.46-20 40.01-8.5 92.02 24.6 121.62 40.3 38.41 109.7 56.62 156.6 19.61 40.8-31.26 43.2-91.09 22-134.46-21.8-38.57-65.1-66.53-109.8-66.99zm834.8 0.13c-2.7 0.05-5.2 0.28-7.4 0.63-39.4 17.06-70.8 51.7-94.5 87.09-2.4 7.17-12.3 17.42-5.9 24.71 17.7-4.59 23.9-25.09 36.7-36.46 18.5-20.58 42.7-34.69 67-47.1 9.5-4.17 26.7-0.09 30.3-12.86-0.3-12.83-14.6-16.2-26.2-16.01zm1331.6 0.71c-0.6 0.01-1.2 0.03-1.8 0.07-9.7 0.42-24.3 4.36-23.9 16.3 4.1 12.51 20.3 8.67 30.1 12.41 30.2 15.15 59.5 33.85 79.3 62.02 6.6 7.68 15.4 24.2 26.2 19.6-5.6-35.98-38.3-61.33-63.3-85.02-13.4-11.39-28-25.65-46.6-25.38zm830.3 15.19c23.5 0.04 47.1 9.72 62.2 28.14 25.4 32.19 23.8 82.33-5.1 112.04-32.9 49.75-116.6 62.31-151.8 8.49-33.4-59.05 17.4-139.44 81.6-147.69 4.3-0.66 8.7-0.98 13.1-0.98zm-2996.5 1.52c61.5-0.87 114 63.43 104.9 123.61-8 43.67-57.6 69.3-99.1 58.4-52.2-13.51-98.2-69.03-82.3-124.59 7.1-30.89 36-54.36 67.3-56.81 3.1-0.37 6.2-0.57 9.2-0.61zm3045.4 22.52c-1.3-0.03-2.8 0.16-4.4 0.6-10.9 7.87-23.1 8.25-35.9 7.72-11.8 9 12.9 16.95 4.2 27.13-9.8 9.02-2.4 31.08 11.2 18.83 10.6-12.13 23.4 10.45 33.8 2.26 8.3-11.07-9.2-17.76-3.4-26.79 7.9-8.46 7.4-29.45-5.5-29.75zm-3094.7 1.76c-0.4 0-0.8 0.01-1.1 0.04-14.4 5.38-8.6 23.95-1.9 33.4-3.5 7.28-10.1 15.79-4.3 24.3 8 2.35 13.8-4.31 20.9-6.57 8.8-4.58 16.2 10.75 25.2 4.31 10.3-10.85-10.9-22.94 0.5-33.15 10-6.05 2.8-20.26-8-14.45-11.9 4.03-20.4-7.97-31.3-7.88zm2546.5 1.29c27.6 16.38 52.5 37.28 72.9 62.09 35.1 37.33 74.5 74.33 90.5 124.55 5.9 14 4.7 33 18.9 42.3 17.4 11.5 39.2 2.8 58.5 5.2 56.3 4 104.7 35.8 155.7 56.9 21.7 10.6 41.4 24.9 60 40.2-72.7-5.4-147.5 42.4-172.4 112-3.8 5.3-4.6 17.1-12.1 17.6-5.9-9.6-7.2-22.9-18-28.7-14.1-8.8-31.3-3.1-44.8 3.7-46.8 27-76 75.3-93.9 124.9-0.2 8.6-10.7 10.2-12.5 1.5-10.7-24.1-40.3-27.4-63.1-24.8-40.6 6.7-77.2 29.1-106.6 57.3-11.3 9-21.1 20.3-34.5 26.1 2.8-32.9 26.6-61.1 31.2-94.3 7.4-37.7 10.7-86.9-23.3-113.1-6-7.3-28.2-2.3-23.3-14.7 36.8-28.4 70.7-63.6 87-108.1 7.7-20.4 13.2-45.3 0.1-64.6-9.7-11.4-25.5-6.1-37.5-11.5 7.1-13.4 21-20.7 31.1-31.5 45.7-47.33 61.1-121.85 36.1-183.04zm-1997.6 0.92c1.2 0.13-2.5 6.31-2.5 8.07-25.2 68.84 1.5 151.34 60.1 194.65 6.8 3.4 15.2 17.8 0.2 14.5-22.3-3.4-40.3 18.5-36 39.9 6.2 57.3 46.7 104.3 90.9 138.1 4.5 2.1 8.6 11.2 1.1 11.8-18.5 2.5-34.7 15-40.6 33.1-16.6 45.2-4.9 95.2 14.6 137.5 5.1 14.4 14.4 28.1 14.7 43.8-25.6-13.1-43.8-37.5-68.2-52.8-31.6-20.4-69.7-37.3-108-29.2-15 3.1-25.2 15.1-32.1 27.9-4.4 6.4-8.8-3.5-10.1-7.3-18-50.1-47.9-99.3-96.1-125-16.5-8.7-42.2-11.7-51.7 8.3-4.1 5.5-3.2 16.2-10.4 18-7.6-9.1-10.8-20.6-15.5-31.2-29.4-61.2-97.2-103.8-165.7-97.5 21.5-22.4 53-39.6 83-51.8 51.6-25 106.1-52.8 165.5-45.8 19.6 4.5 36.1-11.8 38.5-30.2 9-44 37.2-80.66 67.6-112.31 30.9-32.99 60-68.45 99.4-91.9 0.6-0.46 1-0.64 1.3-0.61zm1033.5 3.89c-11.6 15.33 0.6 42.14 14.1 53.94 22.6 17.23 41.5 38.63 62.5 57.68 10.3 2.37 3.6-13.69 1.1-18.85-19.9-34.54-42.2-73.83-77.7-92.77zm-72 0.12c-26.8 15.27-43.3 43.75-61.4 68.03-7.2 13.39-19.7 27.04-17.8 43.28 10.7 2.09 16.1-13.22 24.1-18.21 16.9-21.13 43.8-32.84 56.6-57.15 3.6-9.79 11.6-32.08-1.5-35.95zm1228.1 3c-18.2-0.82-16.5 22.91-20.4 36.53-5.3 22.99-22.2 42.83-21.9 66.88 7.9 2.74 12.1-8.06 16.5-12.26 17.1-25.88 33.7-52.41 47.3-80.31 3.8-9.25-8.9-11.14-15.2-9.75-2.4-0.65-4.4-1-6.3-1.09zm-2382.3 2.41c-6.1 0.04-12.7 1.11-17.2 0.61-7.5 4.09-1.7 14.6 1.3 20.29 17.5 26.69 30.1 57.11 52.6 80.04 3.4 5.31 9.7-0.1 7.2-4.82-7.7-29.08-25.3-55.07-28-85.67-1-8.86-8.1-10.51-15.9-10.45zm656.3 73.12c-8.5 21.03 15.9 44.78 35.9 50.85 25.4 7.8 47.4 23.61 72.1 32.52 7.5-10.01-10.1-20.19-15.9-27.48-28-21.69-56.5-48.8-92.1-55.89zm1072 0.67c-1.2 0.04-2.6 0.36-4.3 1.02-30.5 11.1-57 31.61-81.7 52.26-6.7 9.02-22.8 16.2-21 28.97 14.2 1.63 24.5-10.76 36.9-15.58 24.8-14.3 61.2-16.57 72.4-47.51 3.9-5.93 6.2-19.45-2.3-19.16zm-1139.2 22c-0.5-0.01-1 0.04-1.6 0.15-9.7 5.64-12.6 17.95-18 27.09-12.8 31.92-27.5 65.27-25.6 100.17 6.1 10.8 13.3-9.1 15.6-14 10.4-33.4 46.3-58.44 38.8-96.16-1.4-5.23-1.7-17.18-9.2-17.25zm1207.4 1.39c-22.7 29.16 3.9 64.46 20.4 89.62 9.9 11.2 9.4 37.3 25.9 39.7 4.1-36.3-12.6-71.63-25.6-104.99-5.1-8.8-9-24.5-20.7-24.33zm770.7 25.02c-16.7 7.3-24.9 26.18-37.9 38.1-12.6 16.5-32.9 30.6-35.6 52.2 10.3 0.9 17.7-8.1 25.4-13.7 17.2-18.1 39-30.81 59.8-43.98 2.8-9.4-0.5-29.46-11.7-32.62zm-2754.4 2.36c-9.2 10.48-16 33 1.5 38.7 23.7 11.24 41.6 30.84 62.2 46.54 3.7 1.6 12.5 9.4 13.9 1.9-8.2-23.4-28.9-39.3-43.8-58.39-11-9.53-17.9-28-33.8-28.75zm2409.4 33.56c-4.5 0.03-8.9 0.21-13.3 0.57-9.2 1.8-23.1-0.28-28.1 9.13 4.6 6.88 14.1 7.08 21.5 7.48 45.5-0.5 93.4 13.2 126.4 44.8 6.5 3.9 15.2-2.5 14.5-9.7-0.8-16.8-13.9-31.9-30.1-36-29.4-8.94-60.1-16.46-90.9-16.28zm-2057.9 1.24c-4.3 0.04-8.6 0.26-12.9 0.55-29.5 2.35-59.2 7.79-87 17.99-14.2 6.1-31.8 26.8-20.9 42.4 10 8.2 20.2-6.6 26.6-12.9 31.7-18.9 68.2-31.5 105.5-30.7 8.1-1 24.9 2 26.5-9.69-11.5-6.22-24.7-7.76-37.8-7.65zm2190.7 61.54c-14.3 10.7-23.5 26.9-34.4 40.8-39.9 56.5-80.1 113-117.2 171.5-33.4 43.4-68.3 87.6-88 139.2 54.9-42.1 86.1-106.1 130.8-157.7 42.9-55.6 87-110.7 125.7-169.3 11.5-12.6-7.9-21.4-16.9-24.5zm-2330.2 1.2c-5.3 4.8-11.3 8.8-17.4 12.7 2.2 17.2 16.5 29.7 25.1 44 42.5 56.4 84 113.7 129.4 168 31.3 45.3 62.4 93.3 106.3 127.3-20.6-53.6-57.6-98.8-91.7-144.4-39.9-63.1-83.7-123.5-127-184.2-7.3-8.5-13.2-20.6-24.7-23.4zm-887.2 13.8c-2.43 0-4.87 0.1-7.31 0.3-37.56 2.7-68.48 29.4-86.63 61-29.26 40.7-23.96 102.4 14.82 135.6 35.58 43.9 100.13 53.5 150.44 32.2 29.75-18.8 52.98-50.3 60.18-85.1 1.78-36.2-10.83-73.4-34.3-101-26.7-23.8-60.8-43.3-97.2-43zm4108.3 1c-3 0-6.1 0.2-9.1 0.6-31.3 5.7-60.5 21.6-84 42.6-35 39.5-51.4 106-13.6 149.4 28.5 51.8 98.1 58 147.7 37.2 39.4-22.3 77.3-61.5 75.2-109.7 0.1-40.5-27.9-75.3-56.7-101.2-19-8.3-38.4-18.8-59.5-18.9zm-3846 5.2c-2.77 0-5.57 0.1-8.4 0.3-41.55 1.9-80.51 31.3-92.47 71.4-12.69 36.6 0.26 77 22.74 106.9 38.6 56.2 135.09 67 176.69 8.8 48.88-71.5-12.5-187.2-98.56-187.4zm3e3 0.6c-2.6-0.1-5.3 0.1-8.1 0.7-9.8 0.7-13.5 13.3-5.6 19.2 41.7 20.8 67.6 64.7 81.7 108.2 2.6 4.8 7.3 18.4 14.8 12.5 1.6-40.1-20.9-75.9-40.6-109.2-8.8-15.5-23.8-31-42.2-31.4zm587.8 1.2c-4.2 0.1-8.3 0.4-12.4 1-82.3 10.3-135.3 122.6-84.3 190.3 31.2 40.6 91.7 43.5 134.7 21.5 51-28.3 83.9-96.9 57.5-152.5-16-37-55.7-60.8-95.5-60.3zm-3002 0.1c-2.3 0-4.7 0.2-6.7 0.7-20.3 1.4-31.7 21.1-41.4 36.5-17.9 30.4-37.4 63.5-37.6 99.8 2.4 14.4 16.1-5.4 16.7-12 10.5-37.8 34.1-70.3 62.9-95.9 8.1-4.6 21.1-7.4 22.2-18.6-1.5-7.2-9-10.3-16.1-10.5zm-851.84 13.2c64.32 0.1 132.55 58.8 115.64 127.1-11.85 33.6-37.96 67.6-75.11 73.7-72.14 12.2-146.79-63.4-127.81-135.4 12.62-34 42.52-65.1 81.07-65.2 2.06-0.1 4.14-0.2 6.21-0.2zm4123.3 1.7c42 0.5 77.6 37.1 85.6 77.4 8 73.3-71.8 143.9-143.5 120.6-38.2-16.2-67.3-57.8-64.8-99.8 6.4-53.8 57.6-92.7 109.5-97.2 4.4-0.8 8.8-1.1 13.2-1zm-3860.9 6.8c33.05 0.1 60.97 23.8 80.75 48.5 28.74 37.7 25.09 100.5-17.47 126.4-36.03 22.8-82.57 6.9-112.18-19.3-34.54-28.4-48.11-83.9-21.55-121.9 13.43-21.7 38.99-32.6 63.78-33.4 2.24-0.2 4.47-0.3 6.67-0.3zm3598.9 2.1c29.6 0.3 59.4 16.5 71.7 44 38 78.6-61.9 170.9-137.5 132.4-46.2-26.3-49.6-94.4-16.2-132.5 18-20.5 41.1-40.7 69.4-43.1 4.2-0.6 8.4-0.9 12.6-0.8zm-3875.7 17.5c-1.27 0-2.64 0.3-4.14 0.7-10.95 0.6-14.43 22.7-25.68 13.1-9.66-9.4-23.81 1.7-22.26 13.2 1.25 7.3 14.39 8.6 9.88 17.1-5.09 8.9-12.61 20.5-3.59 29.7 11.96 5.6 19.95-7.5 28.81-12.2 9.85 3.5 21.04 1.2 24.78-10 7.61-9.5-10.05-16.7-1.7-26.4 7.3-8.2 6.08-25.7-6.1-25.2zm231.35 0.3c-1.02 0-2.07 0.1-3.15 0.5-17.84 1.9-9.93 21.4-3.35 31.2-1.22 7.4-3.76 28.8 9.51 21.5 10.45-17.8 25.37 5.9 37.7-3.9 5.06-6.7-3.24-13.4-5.38-19.8-0.08-9.6 10.23-16.3 7.73-26.3-7.69-5-16.93-0.3-23.48 4.3-6.82-1.2-12.46-7.6-19.58-7.5zm3916 1.4h-1.2c-14.9 3.3-7.4 20.3-3.3 29.6 4.2 7.6-7.7 11.8-4.4 19.2 3.1 7.6 9.5 17.9 19.3 13.7 13.3-5.9 19.4 18 33.2 12.3 11.5-5.4 5.6-20.9-0.3-28.4-8.2-12 18.3-15.1 7-27.7-5.2-12.8-17.3-8.4-25.3-1.6-8.4-4.4-13.3-17.4-25-17.1zm-229.1 1c-1.7-0.1-3.4 0.1-4.9 0.5-9.2 2.4-17.7 11.3-25.7 1.4-18.3-7.4-17.1 10.5-9 19.6 8.3 9.6-10.1 17-3.6 26.9 6.2 7 16.8 0.6 23.5-2.6 8.7-4 13.1 11.8 21.5 8.2 6.5-3.1 2.4-11.1 2.7-16.5-2.8-11.3 11.9-18.8 7.8-30.1-1.5-5-7.1-7.3-12.3-7.4zm-797.8 35.8c-3.3 0-6.4 0.4-8.4 1.1-37.4 6.9-76.3 16.7-108.1 38.2-12.4 11.4 12.4 8.9 18.9 6.6 36.3-11.6 86.4 4.5 108.5-35.5 4-8-3.6-10.4-10.9-10.4zm-2102.1 2.2c-3.9-0.2-8.4 3.3-6.1 7.4 10.5 23.1 36.8 32.7 60.7 31.6 23.7-0.6 46.5 9 70 7.5 3.2-10.4-13.1-13.2-19.2-18.2-33.3-14.5-68.8-27.9-105.4-28.3zm2167.6 42.2c-0.5 0-1.1 0-1.6 0.1-15.2 10.6-20.4 33.3-16.9 50.8 6.9 25.4 12.3 51.1 15 77.4-2 6.8 9 14.1 10 4 12.1-36.7 7.9-76.8 3.3-114.5-1.6-5.5-2.1-17.8-9.8-17.8zm-2230.2 1.5c-17 34.5-11.5 77.9-8.4 115.9 1.9 5.7 1.8 23 11.8 20.4 7.1-16.6 4.6-35.7 9.7-52.9 8.5-26.6 18.4-70.9-13.1-83.4zm-406.4 19.6c-2.3 61.2 31.8 129.5 88.9 160.4 13.2 8.6 29.5 11.1 41.9 21.2-2 7.4-13.4 6.4-18.7 10.9-19.1 9.7-16.1 35-7.6 51.1 25.6 48.3 74.9 78.2 125 96.2 3.4 1.5 12.9 4.9 8 9.6-11.8 7-24.2 15.4-27.7 29.6-10.1 37.5 6.3 75.8 25.9 107.2 14.3 26.6 43.4 44.8 54.7 72.3-39.4-8.7-74.4-34-115.8-36.2-37.7-6.3-93.8 4.2-99.2 50.1-14.2 0.5-21.5-20.6-32.3-29.9-30.7-32.6-70.9-60.3-116.5-65-21.3-4.1-43.7 13.5-39.9 36 2.8 16.1-11.9 5.2-15.7-1.5-44.96-60.6-132.06-85-201.81-56.1 27.65-46.9 71.85-79.7 110.09-117.3 25.2-20.4 52.33-40.2 84.32-48.2 14.9-4.1 34.1-7.2 39.6-24.3 4.4-26.1-3.5-53.9 5.6-79.4 9.4-44.2 33.9-82.7 50.7-124.2 9.9-23 26-42.3 40.5-62.5zm3046.7 1.4c16.6 17.2 30.1 38.5 41.3 60 21.2 50.9 52.9 99.3 56.7 155.7 3 18.4-5.1 37.9 3.4 55.3 8.1 16.8 29 16.5 44.3 22 50.2 15.9 87 55.6 124.4 90.7 25 20.1 45.8 45.1 62.2 72.7-60.4-24.6-133.7-10.1-181.1 34.4-12.3 9.9-19.2 25.4-33.5 32.8-4.8-12.1-0.3-27.7-11.4-37.4-18.1-12.3-41.6-8.6-60.9-1.2-45.9 15.5-82.3 49.9-111.2 87.6-9.5 7.7-9.4-10-11.7-15-16.8-37.7-66.4-37.6-101.1-34.1-39.1 3.4-71.9 28.2-109.6 35.1 5.8-16.5 21.4-27.9 31.7-41.7 30-33.9 54.7-77.5 51.6-124.2-1.7-17.5-11.7-33.7-28-41.1-8.8-5.5 3.3-10.5 8.8-12.4 46.4-16.7 91.1-44.7 117.7-87.3 8.8-14.3 16-33.7 6.7-49.5-6.1-10.7-19.2-12.2-28.9-18 0.5-7.6 12.4-8.2 17.6-12.1 69-24.9 118.3-98.8 111-172.3zm-3438.2 26.3c-0.36 0-0.73 0-1.11 0.1-11.15 6.5-15.15 20.7-23.97 29.9-4.28 4.4-12.61 16.4-3.28 20.3 20.87 8.2 42.82 14.3 61.51 27.2 73.23 44.7 139.71 99.4 211.94 145.5 6.3 2.8 15.9 10.6 21.8 4.1-2-12-14.3-18.3-22.4-26-56.36-44.7-116.35-84.8-172.3-130.2-22.51-17.6-44.26-36.9-60.19-61-3.1-3.6-6.58-9.9-12-9.9zm3829.2 2.8c-13.8 11.7-21.5 29.3-35.5 41-65.3 59.1-140.1 106.3-208.6 161.4-8.1 6.8-17.8 13.5-20.3 24.4 7.2 5.7 16.3-2.1 23.3-5.2 75.2-48.2 144.2-105.8 221.4-151.1 15.6-9.7 33.6-13.9 50.5-20.5 10.6-4.5 0.4-18-4.4-22.9-8.8-8.8-12.7-26.5-26.4-27.1zm-3607.9 35.4c-1.36 0-2.84 0.3-4.45 0.9-7.42 2.2-16.44 2.9-22.04 8.8-1.33 11.5 11 17 17.68 24 22.17 17.8 41.03 40.6 66.93 53.1 3.6 2.5 8.1-1.6 5.2-5.2-12.8-24.5-37-40.9-48.75-66.2-3.09-6.1-7.18-15.3-14.57-15.4zm3388.8 1.9c-0.9-0.1-1.6-0.1-2.3 0-8.9 5.3-10.4 17.1-16.9 24.7-11.4 20.9-32 34.9-42.9 56-4.8 10.1 7.8 5.4 11.6 2.7 26.7-16.7 48.1-40.4 72.3-60.3 17.7-15-9.2-22.7-21.8-23.1zm-3674 38.5c-3.57 0-7.14 0.2-10.69 0.5-66.59 4.2-112.74 81.7-85.12 142.5 22.27 56.6 91.5 79.8 147.55 67.6 34.85-7.3 66.06-34 74.38-69.3 9.04-37.5-6.78-76.9-31.6-104.9-24.97-23.9-60-36.8-94.52-36.4zm3960.6 1.9c-5.4 0-10.9 0.3-16.3 1.2-25 2.3-49.6 11.4-69.4 26.9-41.1 34.1-60.5 101.4-25.4 146.4 41.1 51.8 122.9 49.2 172.9 12.3 46.8-33.9 54.9-108.2 15.9-151-19.4-22.3-48.3-35.4-77.7-35.8zm-3959.1 15.3c54.72-0.7 110.88 45.9 110.14 102.3-1.66 46.2-49.94 78.5-93.76 73.7-31.57-3.1-60.5-20.4-82-43.1-16.7-24.8-23.81-58.3-10.86-86.3 11.75-25.4 38.07-42.6 65.57-45.8 3.62-0.5 7.26-0.7 10.91-0.8zm3956.5 1.9c31.5 0.1 64 17.4 76.9 46.9 12.4 28.4 5.8 62.5-11.8 87.2-24.3 24.8-57.5 44-93.3 41.9-45.3 0.5-89.1-41.6-80.9-88.4 9.2-47.5 55.2-84.7 102.8-87.4 2.1-0.1 4.2-0.2 6.3-0.2zm-3984.1 36c-0.65 0-1.37 0.1-2.15 0.2-11.65 10.6-26.89 0.6-39.38 5.8-12.43 10.5 1.57 24.9 9.66 32.8-2.71 7.5-4.42 18.4 3.4 23.3 7.21 0.6 10.96-8.2 16.07-12 7.07-8.1 21.07 5.6 26.81-4.8 4.11-11.2-10.48-16.4-12.19-25.4 4.29-5.7 7.63-20-2.22-19.9zm537.28 0.5c-1.9 0-3.8 0.3-5.6 1.1-38.5 5.8-72.4 26.2-104.5 46.9-12.8 8.3-23.1 21.6-22.5 37.5-2.9 9.8 9 23.3 17.9 14.3 23.2-45.3 71.1-71.1 117.8-87.1 11.6-5.9 4.9-12.6-3.1-12.7zm3471.7 2.1c-8.1 4.8 1.9 15.6 0.5 22.6-5.4 6.7-16.6 12.8-11.4 23.2 4.7 5.7 12.8 0.9 19 0.5 10 1 13.1 15.3 23.2 15.8 12.7-7.4-3.5-24.7 10.3-31.4 11.5-6.1 10.4-28.6-4.6-27.2-12.9 5.1-24.9-0.9-37-3.5zm-540.9 1.2c-9.3 6.7 8.5 14.2 13.9 16.2 38.1 11.3 72.7 34.3 97.6 65 3.9 8.7 9.1 24.7 22.1 18.7 13.6-16.7 0.9-41.9-15.4-51.9-35.5-23-74.4-48.1-118.2-48zm-3300.8 77.2c-1.02 0-2.06 0-3.12 0.2-6.51 8.5-8.7 35.3 7.59 36.6 28.25 3.3 53.36 17.3 79.78 26.6 3.45 2 13.87 3 11.54-4-18.9-21-45.97-32.1-69.31-47.3-8.65-4-16.63-11.9-26.48-12.1zm3675.3 1.7c-30.1 14.3-58.8 32.2-86.2 51.3-5.6 2.3-13.6 15.9-1 13.1 28.8-6.6 54-24.5 84-27.3 17.3 1 18.5-37.6 3.2-37.1zm-3446.4 26.2c-5.5 2.4-5 10.4-10.5 13.3-9.3 7.5 6.1 17.1 11.1 21.8 64.8 48.3 131.3 94.4 199.4 138 42.5 33 86.1 67.7 136.9 86.6-33.3-43.4-81.3-73.9-125.9-105.1-59.5-48.9-121.2-94.9-183.5-140.2-8.7-5.6-16.9-13.1-27.5-14.4zm3216.5 2.6c-15.6 5.5-28 17.1-41.6 26-55.7 41.7-111.8 82.8-165.4 127.1-44.7 31.8-93.8 62.4-127.1 106.5 49.4-19.7 93.3-52.1 134.7-85.1 70.9-46.3 141.2-93.8 208.5-145.3 15.8-7.7 0.9-27.2-9.1-29.2zm-3241.6 29.7c-0.8 0-1.5 0.1-2.3 0.3-24.7 4.2-34.9 29.3-38.7 51.2-7.79 36-17.92 75.9-2.67 111.1 7.67-0.2 8.67-10 9.47-15.6-1-47.4 12.1-97.8 45.1-132.6 4.6-7.4-3.6-14.4-10.9-14.4zm3269.8 2.6c-1.3 0-2.6 0-4 0.1-16.8 5.7-2.2 23.6 6.8 29.4 21.4 34.6 33.4 75.7 31.5 116.9-1.2 5.4 6.2 22.5 11.6 11.8 12.8-38.8 0.9-80.5-7.9-119-3.3-18.6-18-38.6-38-39.2zm-3030.7 21.5c-3.7 0-7.4 0.1-11.1 0.2-22.9 2.4-49.3-2.3-69.5 11.2 6.4 21 36.9 25 55.9 20.2 26.3-9.2 54.3-10.1 81.2-16.4 2.3-5.5-4.3-8.3-8.4-9.4-15.6-4.3-31.9-5.9-48.1-5.8zm2806.8 2.1c-9.4 0-18.7 0.3-27.9 0.5-15.1 1.8-31.3 1.8-44.7 9.6 2.3 12.1 20.5 7.2 29.6 10.5 31.8 0.9 65 24.1 95.5 5.4 6.9-2.6 18.8-12.3 8.3-18.1-19.5-6.6-40.2-7.9-60.8-7.9zm-2925.8 65.3c-8.2 2.8-4.6 15-4.6 21.1 7 36.7 16.7 74 36.9 105.8 0.4 4.8 10.8 8 9.9 1.3-1-23.6-8.9-46.3-8.6-70 1.2-23.6-9.9-50.5-33.6-58.2zm3029.1 2.1c-0.8 0-1.7 0.1-2.6 0.3-43.5 23.5-26 78.4-38.8 117.9-6.1 20.8 11.3 13.4 14.9 0.9 15.7-31.6 26.7-65.7 32-100.6 0-5.3 1.9-18.2-5.5-18.5zm653.4 84.4c-1.1 0-2.3 0-3.5 0.1-74.2 4.1-142.5 87.6-113.3 160.7 14 33.7 48.9 54.3 84.3 58.3 47.6 8.1 95-19.6 120.9-58.6 22.5-32 22.7-76.8 2.6-110-18.4-31.4-54.7-51-91-50.5zm-4339.8 2.4c-1.21 0-2.41 0.1-3.62 0.1-65.8 0.7-117.62 72.5-95.2 135.2 14.68 40.5 50.98 72 92.46 82.6 48.34 9.9 107.47-10.7 126.04-59.5 27.54-74.7-43.84-158.6-119.68-158.4zm4344.4 22.3c44.2 0.3 88.8 38 82.8 85-4.1 72.5-98.2 115.3-158.5 79.2-32.2-21.1-41.3-67.3-24.2-100.8 16.2-36.6 55.2-57.6 93.3-63.2 2.2-0.1 4.4-0.2 6.6-0.2zm-4349.5 2.5c28.83-0.3 57.43 13.1 79.13 31.4 37.9 31.5 45.28 98.2 3.22 129.7-60 41.9-160.17-2.9-162.63-78.1-4.36-43 33.9-78.3 74.52-82.7 1.92-0.2 3.84-0.2 5.76-0.3zm4372 23.1c-1.3 0-2.8 0.2-4.3 0.7-6.9 7.5 6.3 22.3-2.8 29.9-4.9 4.1-12.4 8.2-8.4 16 6.7 8.3 19.1-0.2 27.7 3.9 3.8 4.8 5.8 14.1 13.6 13.4 8.4-4.9 3.9-16.5 9.9-23 6.6-5.9 18.2-13.8 10.9-24-6.7-10.6-19.9-4.4-29.5-4.7-4.7-5.1-9.8-12-17.1-12.2zm-4391 2.7c-1.2 0-2.64 0.2-4.36 0.6-8.29-0.3-9.26 13.5-17.68 11.1-9.28-2.5-22.56-3.4-26.77 7.6-3.72 8 4.25 15.2 10.25 19.3 9.78 5.4 1.85 22.3 13.51 25.2 6.73-2 9.04-9.7 13.41-14.3 8.58-2.3 22.66 5.4 27.21-5.4 2.76-7.9-7.13-10.8-10.97-15.4-4.08-7.4 6.98-28.5-4.6-28.7zm4092.9 9.2c10.1 20.1 18.2 48.3 20.8 73.3 5 58.6 21.7 119.6 0.3 176.7-8.3 18.4-16.7 44 4.7 57.2 54.4 29 83.6 85.1 111.2 137.4 17.7 27.4 30.1 58 37.7 89.7-55.5-45.6-140.4-52-201.1-13-7.9 3.4-14.7 11.1-23.9 10.7-0.4-11.7 6.7-23.1 2.2-34.7-5.7-15-22.8-20.3-37.2-23-52.3-6.5-103.8 14-146.4 42.9-4.6 3.4-18.4 12.1-14.9-1.5 5.4-29.2-19.5-52.3-43.9-62.3-44.5-21.5-95.4-15.4-142.8-11.2-4.9 1.4-20.6-0.6-9.5-7.4 45.7-29.8 99.2-56.5 121-110.1 8-19.1 10.9-44.1-5.2-59.9-3.4-3.2-10.1-11.2-1.6-12.1 40.9-2.2 82.8-8 119.3-28 21.6-11.7 44.8-27.4 51.7-52.3 4.3-16.7-9.7-28.4-21.5-37-2.1-8.8 12.1-5.3 17.1-7.2 74.1-2.2 143.5-56 162-128.2zm-3796.6 1.2c17.3 62.2 73.05 116.8 139.3 126.5 13.68 2.7 29.51 0.8 41.5 7.2-3.46 9-17.7 12-20.61 22.8-7.54 19.5 6.74 37.6 20.6 49.7 40.8 34.6 95.71 45 147.71 47.2 9.2 0.1 3.1 9.8-1 12.8-20.5 22.9-9.3 57.3 6 79.8 24.8 41.8 69.6 63.1 108.7 88.6 3 0.3 8.1 7.2 3 8.1-33.7 2.5-67.5-7.6-101.2-2.6-37.7 5.6-88.1 19.8-96.5 62.8-1.9 5.2 5.6 26.1-6.3 20.4-38.76-25.2-81.76-47.8-129.14-48.7-21.74-1-50.77 0.6-62.33 22.6-6.29 11.6 1.87 24.1 1.88 36-9.3 0.9-16.65-7.2-24.47-10.9-60.89-38.6-145.9-32.7-201.19 13.5 7.93-29.3 17.91-58.5 34.6-84.1 28.65-51.6 55.21-109.6 109.19-139.5 16.54-8.1 25.38-29 15.87-45.7-24.49-52.8-16.36-112.3-8.13-167.9 1.86-33.9 9.91-67.1 22.52-98.6zm4319 10.5c-34.5 2.6-72.7 8.1-97.5 34.6-19.6 21-37.5 45.9-41.4 75 0.3 30.6 9.3 62 27.5 86.8 28.4 30.2 73.2 42.6 113.6 38.1 30.2-8.1 59.9-21.9 81.9-44.6 37.8-48.6 23.7-121-16.8-163.4-18.8-16.2-42.5-25.7-67.3-26.5zm-4841.5 2.9c-5.93 0-11.84 0.3-17.65 0.8-25.64 4.1-43.59 23.3-62.05 39.8-20.34 36.8-37.69 84.3-16.96 124.6 15.47 38.7 57.32 58.2 95.27 68.7 38.19 4.8 78.74-7 108.39-31.7 19.11-20.8 28.21-48.9 32.51-76.4 4.2-39.3-21.58-73.8-48.89-99.1-25.57-19.8-58.57-26.7-90.62-26.7zm4835.7 19.1c33.2 0.2 68.3 14.2 84 44.8 10.2 22.6 17.9 48.7 9.7 73.2-14.1 40-53.1 66.9-93.6 75.2-39.2 8.1-85.6-9.2-101.9-47.6-8.4-23.5-18.5-49-9.6-73.9 12.8-43.1 58-69.3 101.2-71.3 3.4-0.3 6.8-0.4 10.2-0.4zm-4828.1 2.4c35.96-0.5 73.21 14 95.67 42.6 31.6 38.3 17.97 97.2-14.35 130-49.45 43.1-130.44 18.7-164.49-32.4-16.68-23.5-19.44-55.5-6.95-81.6 9.44-36.3 47.39-57 82.95-58.3 2.38-0.2 4.77-0.3 7.17-0.3zm4864.3 33c-1 0-2.1 0.2-3.4 0.6-16.2 6.6 1.2 26.6-11.3 34.9-9.4 5-5.2 16.5-1.1 23.5 3.4 7.5 14.7 0.9 18.3 8.2 5.1 8.1 10.6 21.6 22.7 17.3 10.2-5.7 7.5-19.1 4.4-28.2-3-10.6 15.6-6.2 15.9-16 2-8.7-5.4-21.7-15.4-17.5-17.5 7.6-14.3-23.3-30.1-22.8zm-4900.5 3.1c-1.28 0-2.72 0.1-4.36 0.4-14.86 1.1-8.21 29-24.79 22.1-12.5-5.9-20.07 9.9-16.42 19.8 3.84 4.9 11.34 4.6 15.2 9.4-0.65 10.4-6.82 25.2 4.29 31.8 13.28 6 18.83-13.6 25.84-20.2 13.72 3.4 23.31-13.9 18.27-25-16.86-5.6 1.18-37.8-18.03-38.3zm4486.3 41.6c-21.7 19.7-46.7 35.4-71.7 50.8-4.4 1.5-17.5 13.4-6 14.7 34.7-6.3 66.2-24.7 98.4-38.4 16.9-10.5-10.7-25-20.7-27.1zm-4074 2.4c-0.41 0-0.84 0-1.27 0.1-9.05 4.7-29.96 13-20.94 25.3 28.84 14.7 59.05 27.4 89.59 38.2 5.24 0.8 19.27 4.5 15.55-4.1-19.88-19.7-48.61-27.9-67.83-48.7-4.87-3.3-8.89-10.6-15.1-10.8zm3824.3 19.9c-2.3 8.3 5.4 13.7 10.7 18.5 37.4 26.8 69.8 66.4 77.5 112.4 6.5 10.8 21.1 0.5 21.5-9.6 8.4-33.5-24.4-56.2-42.9-79-19.4-16.9-39.7-40.3-66.8-42.3zm-3576.3 1.6h-0.52c-40.48 13-68.9 47.7-94.93 79.6-13.6 14.1-18.93 40.6-3.86 55 16.43 8.7 18.77-18.7 19.94-28.5 11.89-22.6 24.27-45.7 43.35-63.3 11.95-14.1 31.34-20.6 40.02-37.6 1.32-2.7-1.41-5.3-4-5.2zm4049.6 8.6c-94.7 64.7-212.7 79-315.3 127.1-12.3 5.9 0.9 16.8 10.4 10.5 94.9-21.8 184.9-62.6 281.1-79.2 14.3-1.8 56.6 8.2 42.1-21-6.8-11.3-4.2-33.2-18.3-37.4zm-4522.3 2.4c-10.59 14.3-19.63 36.9-17.24 55.1 109.76 5.3 211.47 55.6 317.45 81.5 6.95 0.9 17.1 4.6 22.85-1-0.5-8.1-10.64-11.5-17.23-14.7-85.32-33.9-175.36-55.3-258.98-93.5-17.01-6.6-29.28-23.2-46.85-27.4zm4517.4 85.3c-5.8 0.1-11.5 0.5-17.1 1.3-39.8 2.7-74 31.3-92 65.6-19.1 35.4-10.3 82.5 19.4 109.3 44.8 40.9 122 48.8 169.5 8.4 37.1-31.3 48-89.7 22.3-131.3-20.1-36.2-61.9-53.7-102.1-53.3zm-4504.5 2.3c-2.99-0.1-5.99 0.1-8.98 0.3-30.85 0.8-63.3 10.8-84.67 34.1-36.93 36.9-37.27 101.9-1.92 139.9 58.1 68.7 197.1 37.1 208.75-55.8 5.42-62-52.43-118-113.18-118.5zm4509.2 15.1c34.9-0.4 70.9 19 85.3 51.6 21.2 44.5-11.2 101.2-57.4 112.1-51.5 21.6-123.7-5.6-132.4-64.8-10-56.9 50.3-97.1 101.1-98.8 1.1 0 2.2 0 3.4-0.1zm-4521.8 2.6c40.13-0.1 82.85 20.5 101.27 57.3 17.36 35.2-0.81 79.1-33.31 98.3-36.45 23-84.98 17.2-120.87-4.1-28.17-21.2-45.11-59.9-32.65-94.4 11.94-33.9 46.71-55.4 81.68-57.1h3.88zm3883.8 7.4c-5.2 0.2-4.1 8 0.6 9.4 20.5 10 41.2 19.4 60 32.5 18 14.2 44.4 19.4 64.8 7.3 4.9-9.7-9-14.1-15-18.4-34.6-15.1-71-31.3-109.2-30.7-0.4-0.1-0.8-0.1-1.2-0.1zm-3249.7 1.7c-3.7-0.1-7.4 0.5-9 0.9-36.1 5.7-71.42 17.7-103.35 35.5-4.67 1.9-12.29 9.4-6.69 14.2 20.55 10.4 46.38 6.6 64.23-7.8 19.41-14.8 42.91-22.6 63.61-35.2 3.6-6-2.6-7.6-8.8-7.6zm3519.7 18.3c-1.7 0-3.7 0.4-6.1 1.5-85 23.9-167.5 56.1-250.6 85.9-44.5 11.3-87.7 28-128.6 48.8-3.3 2.7-10.4 4-10.2 9.3 52-5.8 102.7-20.4 151.4-39.3 80.5-22.2 161-45.2 239.9-72.6 6.2-3.1 16.4-4.4 17-12.6-5.3-7-3.9-20.8-12.8-21zm-3782.8 3.3c-1.51 0-3.02 0.1-4.55 0.2-6.98 4.9-6.5 16.1-7.97 23.8 7.44 6.1 16.65 9.3 25.62 12.4 60.82 20.1 122.23 38.5 183.77 56.2 66.42 15.4 130.12 49.3 198.82 50.6-45.6-30-99.6-45-151.5-60.4-70.28-27.5-141.74-51.7-213.35-75.4-10.18-2.6-20.3-7.1-30.84-7.4zm4195 16.2c-0.4 0-0.7 0.1-1.1 0.2-7.2 4-3 12.7-3.4 19.2-5.6 7.9-22 8.6-19.3 21.1 1.5 8.3 12.4 4.4 18.1 6.8 8 4.4 8.1 15.4 14.6 21.2 11.1 1.7 13.2-13 12.8-21.2 8.8-5 22.8-9.9 21.4-22.8-2.3-16.6-22.5-6-30.8-16.1-3.8-3-7.1-8.7-12.3-8.4zm-4608.6 2.6c-0.76 0-1.63 0-2.62 0.2-7 3.2-10.48 12.4-18.83 12.8-7.94 0.2-20.25 0.9-20.95 11.4-2.57 14.2 14.12 16.2 21.28 23.5-0.6 8.1 2.62 21 12.44 20.5 8.17-8.8 10.41-27 27.01-22.8 12.91-2.7 3.66-20.2-6.23-20.8-13.17-2.1-0.67-24.2-12.1-24.8zm4208.7 17.7h-2.1c-13.3 6-1.2 22.2 3 30.7 8.3 37.8 7.3 78.1-5.8 114.8-2 5.4-5.2 25.6 5.4 20.4 25.2-34.5 28.1-79.8 30.2-121.2 2.1-18.8-9.8-44.7-30.7-44.7zm-3809.8 1.8c-1.45 0.1-3.1 0.3-4.96 0.9-17.54 6.8-26.13 27.5-24.33 45.4 3.06 39.6 5.25 82.2 27.25 116.6 1.14 5.9 9.81 6.9 10.23 0.5 1.07-16.7-7.63-32.1-10.09-48.4-5.59-28.2-1.74-57.2 3.07-85 7.99-7.9 12.82-30.3-1.17-30zm4025.4 2.8c-1.6-0.1-3.4 0.1-5.5 0.7-33.6 8.1-69.6 11-100.5 27.1-5.8 6.5 7.2 8.1 11.2 7.4 30.1-2.2 60.2-3.5 90.2-0.4 9-6.2 19.6-34.2 4.6-34.8zm-4242.9 3c-10.69 6.5 1.99 41.3 18.13 33.8 30.38-6.5 61.48 4.3 91.75-1.1 1.92-9.1-11.33-10.7-17.66-13.6-30.38-7.5-61.05-16.9-92.22-19.1zm3889.1 41.7c-1.1 0-2.5 0.3-4.2 1-31.9 5.7-41.6 39.4-52 65.6-5.2 16.3-21 29.1-20.5 47 6.8 2.3 11.9-4.9 16.5-8.5 26.1-25.6 47.9-56.1 63.2-89.3 3-5.1 3.3-15.5-3-15.8zm-3534.1 3.2c-8.27 5.1 0.89 16.5 2.98 23.4 18.14 32 38.4 64.5 67.52 87.6 4.11 4.5 12.64 1.4 8.6-4.9-9.44-21.5-22.7-41.3-30-63.8-6.27-21.7-25.53-42.3-49.1-42.3zm-319.83 255.9c35.21 53.8 101.04 86.2 165.48 79 16.27-1.5 31.69-8.6 48.26-7.7 0.06 9.5-10.7 15.2-11.57 24.8-5.31 20 13.14 35.7 29.5 42.6 49.8 22.4 106.95 16.6 158.08 1.9 11.42-4.5 7.29 7.1 4.46 12.1-13.2 30.6 11.5 60.2 34.84 77.4 36.2 29.1 82.9 35.9 126.4 47.2 7.3 1 9.1 7.5 0.9 8.9-58.2 13.8-127.4 27-159.73 83.9-11.26 16.7-3.17 36.3 0.47 53.2-55.14-11.3-116.84-23.6-169.7 3.8-15.35 7.5-30.53 23.3-25.09 41.9 1.64 8.8 11.7 14.4 11.31 23.5-14.64 0.7-28.45-4.9-42.75-6.8-65.2-9.5-135.07 21.8-169.78 78.2-2.2-28.8-1.85-60.5 6.15-89.4 11.12-58.1 18.63-121.5 60.36-167.1 14.82-13.4 14.99-37.6 0.01-50.9-40.51-44.2-48.82-105.5-59.27-162-8.34-30.8-8.73-62.8-8.33-94.5zm4175.8 2.5c1.8 26.9 2.3 56.9-5 84.2-12.1 59-18.1 124-60.4 170.9-15.4 13.5-16.8 38.4-1.1 52.3 45 49 49.5 117.7 63 179.5 5.6 25.2 4 51.2 4.6 76.9-37.4-57.3-110.4-90.6-178.3-76.8-11.1 1.4-27.4 9.2-35.5 3.4 12.8-15.1 18.7-40.9-0.2-54.2-50.7-36-118.9-28.9-175.7-13-11.5 4.6-7.3-7-4.5-12.1 12.9-29.5-10.3-58.6-32.7-75.7-37.3-31.2-86.3-37.2-131.3-49.9-11.4-4.6 5.7-9.9 10.5-10.4 51.4-11 107.7-24.3 142.2-67.7 14.8-16.5 19.6-41.2 8.7-61-4.7-9 8.7-6.1 13.4-4.6 50.2 14.2 107 18.9 155.2-4.7 15.6-7.4 31.4-23.3 25.9-42.3-1.7-8.8-11.7-14.4-11.3-23.4 14.6-0.7 28.4 4.8 42.7 6.8 65.2 9.5 135.1-21.8 169.8-78.2zm-4420.7 18.9c-3.84 0-7.67 0.1-11.47 0.5-55.54 5.5-100.71 61.5-91.26 117.2 5.24 48.6 48.46 83.7 94 93.7 66.9 18.8 151.77-39.5 138.22-113.1-10.8-58.6-71.83-98.4-129.49-98.3zm4667.5 1.6c-5.4 0-10.9 0.4-16.5 1.4-40.9 6.2-80.9 29.2-102.1 65.5-17.8 29.3-16.9 68.5 1.9 97.1 19.3 28.7 52.4 46.6 86.2 51.5 53.9 3.2 114.3-27.5 129.4-82.2 21.5-63.8-34.4-132.9-98.9-133.3zm-4663.6 24c27.77 0 55.88 7.4 76.85 26.4 32.06 26.1 41.96 78.6 14.16 111.2-46.37 51.3-146.11 40.6-173.66-25.5-23.06-46.8 14.8-103.7 63.56-111 6.29-0.7 12.68-1.1 19.09-1.1zm4659.6 1.1c50.5-0.8 99.8 47.3 86.8 99.3-12.4 56.9-80.7 84.7-133.2 67.1-33.3-7.5-61.6-37.1-61.6-72.2-1.2-48.4 42.8-88.1 89.4-91.6 6.1-1.7 12.3-2.5 18.6-2.6zm-4700.8 33.6h-0.82c-6.2 1.4-11.11 6.1-12.32 12.5-2.23 10.2-15.95 4.6-22.5 9.9-10.36 5.2-8.96 23.4 3.6 24.5 10.96 1.8 14.05 12.7 19.63 20.5 11.2 5.3 11.93-9.6 14.09-16 7.9-5.1 22.44-1 24.5-13.2-0.09-11.7-18.23-7.2-18.6-18.7-2.71-5.7 0.47-19.2-7.58-19.5zm4740.5 2.3c-8.9 5.5-2 21.2-10.8 26.9-5.4 2.4-13.3 3.5-14.4 10.6 0.5 9.2 11.3 11.5 18.8 11.9 12.9-0.3 4.1 24.9 19.8 18.3 5.2-13 15.5-20.1 27.9-25 9.5-16-11-25.8-24.3-25-2.7-7.5-7.4-17.4-17-17.7zm-4310.3 12.7h-0.8c-34.43 22.3-49.35 63.7-65.23 99.9-9.09 18.4-9.17 44.1 8.6 57.2 5.59 4.5 14.03 0.9 15.85-5.7-7.47-47.6 12.48-95.9 40.7-133.8 2.62-3.8 8.74-17.6 0.88-17.6zm3879 2.5c-4.9 7.1 2.9 16.6 6.3 23 27.7 36.2 42.8 83.1 37.5 128.2 3 12.4 19.6 8.1 23.4-1.7 15.3-21.8 1.9-47.6-7.2-69-14.6-29.1-28.5-67.4-60-80.5zm-4121.5 53.7c-0.6 0-1.21 0-1.83 0.1-6.39 7.1-26.75 22.4-13.05 30.8 31.4 5.7 63.73 7.9 95.65 8.7 4.89-0.9 19.21 0.6 16.01-7.9-21.91-12.8-48.91-11.4-71.71-22.2-8.37-3-16.01-9.1-25.07-9.5zm4363 2.8c-26.1 12.7-54.4 19.3-82.6 26-6 0.5-17.9 8.6-7.4 11.7 34.8 4.2 70.2-3.1 105-6.3 19.5-4.7-4.7-31.8-15-31.4zm-3923 9c-1.51 0-3.06 0.3-4.22 0.9-36.95 13.9-68.47 40.3-96.18 67.9-3.45 4-11.53 13.2-3.44 16.8 22.36 5.5 44.52-7.6 57.51-25.3 14.35-20.4 34.61-35.6 50.59-54.6 2.09-3.7-0.96-5.6-4.26-5.7zm-778.47 0.9c-1.26 0-2.51 0-3.77 0.1-35.51 0.9-74.603 9-97.891 38-27.487 28.4-28.586 71.4-22.986 108.2 0.412 18.1 13.674 31.7 21.924 46.7 22.7 32.4 65.673 38.5 102.3 39.8 45.28-2.1 90.06-32 108.95-73.2 10.35-34.3 10.46-75.6-10.45-106.1-24.4-28.5-59.26-53.2-98.08-53.5zm4264.4 2.3c-1 0-1.9 0-2.9 0.1-3 0.5-1.9 4.9-0.2 6.6 16.3 17.8 35.4 33.2 49.5 53 11.7 15.3 29.6 27.6 49.6 26.2 4.8 1.4 15-2.6 10.6-8.8-17.1-25.3-43.6-42.1-68-59.6-12.1-6.5-24.3-17.2-38.6-17.5zm776.8 0.2c-34.8 0.9-65.6 21.5-89.4 45.4-25.3 25.7-26.6 64.9-21.5 98.4 7.1 43.2 47.9 70.6 86 85.2 50.7 10.3 113.6-2.4 140.8-50.9 25.4-52.1 16.5-124.4-33-159.4-24.9-14.3-54.6-18.4-82.9-18.7zm-5045.2 17.8c33.8-0.4 68.68 13.9 87.38 42.8 24.96 43 17.3 110.2-30.39 134.7-45.19 25.7-107.27 16.1-143.94-20.3-22.822-22.2-25.697-56.5-20.31-86.3 10.588-41.4 52.825-65.3 92.89-69.9 4.73-0.6 9.54-1 14.37-1zm5048.4 2.7c41.5-0.6 85.9 18.5 104.7 56.8 13.6 33.7 10.1 77.9-18.4 103.3-38.3 34.7-101.4 43.3-145.3 14.3-38.8-22.1-45-72.6-35-112.2 10.6-35.2 45.8-58.1 81.2-61.4 4.2-0.4 8.5-0.7 12.8-0.8zm-5111.4 49.3c-0.465 0-0.947 0-1.447 0.1-18.963 4.1-2.451 37-26.025 31.4-12.888 3-9.762 29.1 5.3 25.6 17.725-1.1 3.212 26.8 19.924 30.6 15.528 3.4 15.948-17.6 19.498-27.2 19.84 0.6 19.47-33.4 0.14-32.9-4.66-9.5-2.95-28-17.39-27.6zm5175.9 2.4c-0.7 0-1.5 0.1-2.4 0.2-11.9 3.7-9.2 19.8-14.7 27.8-19.3-0.1-18.1 33.3 0.7 32.5 5 9.1 2 23.7 14.2 27.5 15.8 1.6 16.2-18.6 18-29.4 11.5 2 24.5-5.8 20-18.7 0.4-14.6-21.7-2.6-21.4-15.3 0.5-9.2-3.2-24.4-14.4-24.6zm-4974.7 12.4c-9.9 9.4-1.41 26.3-4.44 38.9 0.76 6-2.52 19.9 7.58 19.7 108.8-33.2 225.05-9 336.41-23.2 4.43-0.4 11.99-5.5 6.28-9.6-14.1-7.2-30.88-5.2-46.13-6.3-99.7-5.1-202.71 7.9-299.7-19.5zm4771.4 2.1c-1.2 0-2.6 0.3-4.2 0.9-107.8 32.9-223 7.8-333.2 22.8-4.3 0.5-10.7 5.7-5.3 9.4 16.4 8.1 35.7 4.6 53.3 6.8 80.5 1.7 161.4-2.2 241.5 7.3 18.2 0.7 34.8 13.6 52.9 10.7 6-11.7 0.3-25.4 2.6-37.9 0.7-6.8 0.9-20.1-7.6-20zm-4311.6 10.7c-15.43-0.1-30.86 0-46.29 0.3-8.27 1.3-18.68-1.3-25.01 5.3 0.31 8.7-4.9 25.7 8.95 25.8 85 3.9 170.36-0.2 255.37-4.4 53.49 1.7 112.04 4.3 162.34-11-50.1-13.5-103.3-12.2-154.8-10.1-66.8-3.5-133.69-5.9-200.56-5.9zm3888.7 1.6c-15.9-0.1-32.1 1.5-47.5 1-57.8 1-115.6 1.4-173.3 5.6-55.5-1-116-4.9-168.4 11.2 48.1 13 99.4 12.2 148.8 10.2 89.5 3 179.3 8.7 268.8 4.3 14.4 0.1 9.9-19 7.8-27.2-11.6-4-23.8-5.1-36.2-5.1zm-3952.8 40.9c-0.41 0-0.83 0-1.26 0.1-22.72 8.1-23.35 39.6-14.07 58.3 13.4 32.8 27.85 66.2 52.86 92 4.7 3 10.1 10.7 16.6 8.4 1.96-16.8-13.6-29-20.94-42.7-16.96-31.2-28.48-67.5-23.56-102.8 1.56-6.2-3.4-13.1-9.63-13.3zm3982.6 2.5c-13.6 2.5-8.5 19.2-6.7 28.5-2.4 36.7-14.4 73.5-36.5 103.3-5 8-13.1 16.6-10.3 26.8 6.4 2.7 11.8-5.3 16.6-8.1 27.1-29.6 44.1-66.9 56.8-104.5 5.5-16.3-1-42.4-19.9-46zm-3827.5 1.8c-2.68 0-5.4 0.2-8.13 0.6-11.66 1.9-2.1 14.6 2.45 18.7 26.1 26.2 56.14 49.6 89.87 65.1 4.29 2.2 16.69 4.7 13.52-3.3-15.95-18.9-36.27-34.1-50.52-54.7-11.13-14.9-28.4-26.2-47.19-26.4zm3673.6 2c-2.7 0-5.2 0.4-6.8 1.3-18.9 1.4-33.5 15.5-44.3 29.9-13.6 18.7-32.6 32.6-47.2 50.4-2.9 9 10.5 4.8 15.3 2.6 35.5-17.6 68.9-41.6 94.1-72.2 6.6-8.3-3-12.1-11.1-12zm-4150.2 13.4c-3.51 0-7.03 0.1-10.54 0.5-53.62 4.1-108.15 43.1-113.17 99.7-6.92 56.2 39.22 110.2 95.04 114.7 50.44 2.6 102.47-24.4 127.64-68.5 18.08-32.2 14.21-75.2-9.69-103.4-22.23-25.1-55.35-42.7-89.28-43zm4628.4 2.6c-3.8-0.1-7.6 0.1-11.4 0.4-47.2 5.6-94.6 40.3-100.7 89.7-9.8 94.6 121.3 161.3 193.8 102.3 45.7-33.6 53.4-105.1 16.3-147.8-24.7-27.2-61.2-44.2-98-44.6zm-4634.8 17c20.45-0.3 41.1 3.9 59.03 13.8 30.45 16 45.83 54.3 35.28 86.9-12.6 44.4-59.71 71-104.25 68.4-50.89 5.7-100.43-46.8-87.38-97.4 8.44-38.5 44.76-66.9 83.23-70.8 4.66-0.6 9.37-0.9 14.09-0.9zm4639.2 1.9c46.7 0.1 94.3 33.4 98.5 82 5.3 38.7-25.1 73.2-59.9 85.3-36.2 6.9-77.3 1.9-105.6-23.5-31.3-25.6-41.8-76.3-15.8-109.2 15.6-20.1 40.9-30.5 65.7-33.1 5.7-1 11.4-1.5 17.1-1.5zm-4421.5 21.7c-7.51 0.2-15.8 1.8-20.62 1.1-25.16 2.6-50.7 3.3-75.56 8.1-12.01 5.1 1.44 17.8 5.75 23.9 8.76 14.3 23.12 1.3 34.19-2.6 22.88-11.1 51.07-8.8 72.22-23-1.72-6.4-8.46-7.6-15.98-7.5zm4204.5 3.3h-6.3c-3.8 0.2-13.6 1.4-10.2 7.6 23.7 13.4 52.8 11.6 76.9 24.5 8.5 3.7 22.1 13 28.3 0.8 5.2-6.5 19-19.9 5.5-24.9-31-4.8-62.7-8.3-94.2-8zm-4480.7 39.6c-0.93-0.1-2.01 0.1-3.28 0.4-8.24 5.2-9.24 19.9-21.53 21-13.36 1.2-13.56 20.5-2.54 25 6.87 5.1 21.63-0.7 21.78 11.5 1.88 6 10.31 13.2 16.31 9.2 3.56-7.4 2.44-16.4 6.07-23.7 5.03-4.7 15.37-3.8 16.69-12.3-0.58-9.8-12.22-11.6-19.82-12.2-10.36-0.4-4.72-18.5-13.68-18.9zm4756.8 2.7c-0.8 0-1.6 0-2.4 0.1-7.7 3.6-2.6 17.6-11.9 18.7-7.5 1.2-18.5 1.6-20 11.2 0.1 7.6 8.8 9 14.3 11.4 8.7 6.1 2 21.7 10.8 26.9 15 0.8 10.7-22.2 26.2-19.7 16.9 2.7 25.6-25.1 6.1-27.8-13.3-0.1-11.9-20.2-23.1-20.8zm-306.4 242.9c-5.5 26.4-17.7 58.6-33.8 83.6-28.7 51.7-55.2 109.7-109.2 139.6-16.5 8-25.4 28.9-15.9 45.7 24.7 53.1 16.2 113 8 168.9-1.8 33.3-9.8 65.7-22 96.6-0.9 2.7-2.2-0.5-2.3-1.7-17.9-70.6-86.2-123.8-158.7-126.3-5.7-2.2-19.4 1.2-20.4-6.7 12.4-9.3 27.2-20.7 22.3-38.6-8-26.2-33-42.2-56.1-54.1-35.4-18.4-75.6-22.6-114.7-25.2-8.4-1-1.2-9.9 2-12.7 21.6-24.3 8.2-60.4-8.5-83.5-25.7-41.3-71.4-61-109.8-87.7-5.1-4.3 3.7-7.8 7.5-5.9 42.4 1.4 86 10.9 127.4-3.8 31.1-9.1 69.1-31.2 63.1-69.1-3.8-9.7 6.1-9.4 10.7-4.8 40.5 27.2 87.4 48.7 137.3 46.4 18.9 0.2 42.7-5 50.9-24.3 5-11.5-2.9-22.9-2.7-34.2 7.8-1.1 14.1 5.1 20.7 8.4 60.8 40.8 147.9 36.5 204.2-10.6zm-4144.5 2.3c55.48 45.6 140.37 52 201.03 12.9 7.91-3.4 14.76-11 23.95-10.6 0.33 11.6-6.74 23-2.25 34.6 5.74 15 22.84 20.3 37.24 23 51.96 6.5 103.24-13.7 145.65-42.4 4.9-3.4 18.9-13 15.7 1.1-5.6 30.3 21.1 53.5 46.5 63.4 46.6 21.8 99.1 12.3 148.4 10.1 13.4 1.4-5.8 12.7-9.8 15-48.6 28.2-103.4 63-115.6 122.1-7.8 20.2 10.2 35.7 16.3 50.9-52.5 4.7-108.9 12.5-151.11 47.8-15.95 12.6-33.69 36.9-18.32 56.7 3.29 7.8 16.79 9.1 16.21 18.3-8.24 3.5-17.59 2.7-26.29 4.1-70.62 5.2-135.69 58.2-152.55 127.4-11.69-21.6-18.54-49.9-21.38-75.7-5.23-58.1-21.51-118.8 0.25-175.4 6.63-16 15.13-36.5 1.07-51-13.63-12.1-30.38-20.1-43.78-32.5-38.72-36.5-58.79-86.8-86.01-131.5-11.3-21.5-19.38-44.8-25.21-68.3zm3974.2 43.3c-0.7 0-1.3 0.1-2.1 0.4-6.3 10.4 1.2 23.6 3.3 34.4 11.4 33.1 7.4 68.7 2 102.2-4.8 7.7-15.9 25.3-2.7 30.3 20.3 1.7 33.1-22 32.8-39.9-2.3-40-4.7-82-24.3-117.8-2.7-3.2-4.6-9.4-9-9.6zm-3804.8 2.7c-27.09 33.8-29.3 80.6-31.71 122.4-2.48 19.7 11.74 48.6 34.76 44 10.7-9.4-2.36-22.1-5.62-31.9-6.16-34.3-7.44-70.6 3.9-104.1 2.05-8.8 10.5-27.5-1.33-30.4zm3593.8 1.3c-5.1 2.2-1 8 0 11.7 11.4 20.2 22 40.9 29.8 62.8 6 19.4 22.6 34.7 42.4 39 3.7 1.7 9.9-1.5 8.5-6-4.9-21.4-18.9-39.1-30.6-57-14.4-18.3-27.6-42.1-50.1-50.5zm-3382.7 2.3c-0.69 0-1.42 0.1-2.16 0.4-30.14 21.1-50.06 54-68.88 85.1-2.94 8.4-12.88 19.9-5.02 28.2 33.57-0.9 47.46-35.4 56.78-62.7 5.72-15.6 16.98-28.5 22.05-44.3 2.28-4.2 0.19-6.6-2.77-6.7zm3955.3 37.3c-5.4-0.1-10.8 0.2-16.1 0.9-43.1 2.5-88.6 25.6-104.9 67.6-16.9 39 0.4 85.4 31.7 111.7 51.8 50.2 152.7 38.4 186.1-27.6 20.1-38.4 12.3-89.4-18.9-119.7-19.8-21.6-48.9-32.6-77.9-32.9zm-4523.4 2.3c-5.16 0-10.27 0.3-15.28 0.9-51.16 3.9-94.66 49.6-95.79 100.8-1.9 33.1 14.04 66.1 40.31 86 33.49 25.1 79.48 28.3 118.73 16.6 49.69-19.1 89.93-75.6 71.88-129.7-15.91-49.7-70.02-74.8-119.85-74.6zm3756.1 16.4c-1 2.5 4.7 4.7 6.9 6.5 43 23 89.2 40.1 136.4 52.1 82.1 30.7 164.3 61.8 248.7 85.2 14.6 3.9 13.6-14.8 15.5-23.9-8.9-7.1-19.8-10.3-30.4-13.8-72.9-23.8-146.3-46.2-220.4-65.8-50.7-18.5-102.6-36.6-156.7-40.3zm-2993.2 1.7c-0.3 0-0.7 0.1-1.2 0.2-49.6 6.1-98.2 19.2-144.7 37.6-85.02 24.7-171.24 46.9-254.14 78.3-15.42 4.7 0.36 17.5-1.12 27.1 9.56 4.7 20.26-2.1 29.94-3.3 69.71-23.4 139.68-46.2 208.12-73.1 54.7-17.9 111.4-32.4 161.4-62.2 1.8-0.6 3.8-4.5 1.7-4.6zm3746.4 2.3c19.3 0.1 38.3 6.3 56 13.8 43.2 20.9 62.3 84 29.7 122.2-47 61.1-158.9 36.1-179.2-36.8-11.6-49.9 34.1-96.9 82.8-98.5 3.5-0.5 7.1-0.7 10.7-0.7zm-4495.2 2.3c46.25-0.2 92.88 36.6 92.07 85.1-1.59 49.2-51.09 80.5-95.79 85.2-49.65 7.6-104.66-32.4-102.21-84.8 2.8-48.2 47.69-83.1 94.21-84.6 3.89-0.6 7.8-0.9 11.72-0.9zm4559.2 50.4c-5.1 4.5-6.5 11.9-10.6 17.2-3.8 9.7-19.4 0.5-22.5 10.6-2.7 12.1 11.1 13.9 18.1 19.3 2.1 6.3-0.6 13.6 2.2 19.9 10.5 6.4 15-10.8 24.6-11.4 8.1-0.6 21.2-0.5 22-11.6 2.5-14.1-14.1-16.2-21.3-23.5 0.6-8.2-2.5-20.7-12.5-20.5zm-4629.1 2.5c-0.26 0-0.53 0-0.81 0.1-14.71 3.6-1.42 24.1-17.11 25.7-11.16 3.1-19.26 19.5-7.68 27.1 11.43 1.8 23.93 2 31.03 12.8 7.17 8.5 15.57-4.1 11.18-11.4-3.23-13.8 23.12-11.5 19.08-26.3-2.52-10.6-18.73-1.4-22.92-11.3-4.58-4.8-4.76-17-12.77-16.7zm4426.1 5.8c-1.9-0.1-4 0.3-6.3 1.2-27.9 5.3-56.2-2.3-84.2-0.4-4.8-0.9-10.1 3.6-5 7.4 20 12.2 44.2 13.9 66.5 19.8 15.1 2 30.9 10.5 45.9 5.2 0.1-10.5-3.7-32.7-16.9-33.2zm-4133.3 2.5c-0.73 0-1.36 0.1-1.86 0.2-30.05 2.2-60.21 3.4-90.16 0.4-10.49 7-21.66 41.3 1.98 33.9 33.21-8.2 68.83-10.9 99.46-27 5.04-5.7-4.36-7.6-9.42-7.5zm3741.5 41.7c-3.1 0-5.7 0.2-7.3 0.4-27.7 7.7-48.6 29.9-75.9 39.3-6 1.9-26.5 11.9-12.1 16.3 43.1-2.1 85.6-17.6 122.3-39.7 10.1-14.2-13.4-16.5-27-16.3zm-3437.8 2.2c-3.03-0.1-6.15 0.1-9.36 0.6-6.71 2.2-21.34 1.6-19.64 12.5 12.44 13.2 30.64 18.1 46.88 25 26.56 8.8 54.46 21.2 82.86 16.7 1.1-11.8-15.6-12.4-23.1-17.7-27-9.7-48.36-36.3-77.64-37.1zm3668.6 30.2c-1.9 0-3.8 0.1-5.7 0.4-3.4-0.1-6.9 4-3.2 6.7 8.8 9.3 21.7 12.2 33.1 17.1 60.2 21.7 121.5 40.4 181.7 62.1 34.2 12.6 68.9 25.5 97.7 48.6 12.4 11.4 17.7-8.2 19.8-17.5 1.3-11.2 13.1-23.9 6.1-34.9-106.1-3.9-203.9-51.8-305.5-78-7.9-1.9-15.9-4.5-24-4.5zm-3897.3 1.2c-1.75 0.1-3.75 0.7-5.95 1.8-94.19 21.4-183.53 61.3-278.74 79-15.34 2.8-34.43-4.1-47.7 5.3 0.35 16.9 8.24 33.3 13.84 49.3 2.81 7.3 11.46 3.1 15.48-0.5 36.95-28.8 82.42-42.3 125.89-57.9 58.5-21.6 119.39-36.9 176.49-62.1 12.21-2.5 10.12-15.4 0.69-14.9zm3830 11.7c-12.6 3.6-9.6 20.8-13 30.3-16.2 34.1-39.3 65.6-71.4 86.4-5.2 3.6-19.7 18.9-6.5 19.6 44.1-15.9 75.5-54.3 102.1-91.3 7.4-13 8.2-42.9-11.2-45zm-3765.5 2.4c-22.17 9.3-15.46 42-2.11 56.8 25.94 30.5 53.23 63.8 91.63 78.6 15.13 3.1 4.13-14.5-2.64-17.7-32.9-22.1-57.25-54.6-73.29-90.4-2.77-9.2-0.04-26.7-13.59-27.3zm4282.3 22.4c-2.6 0.1-5.1 0.2-7.6 0.3-28.1 3.9-56 14-77.5 32.8-33.5 39.5-45.8 103.3-9.6 145.3 28.4 46.8 87.4 61.8 138.7 54.9 61.6-18 95.1-90.3 80.8-150.7-15.7-51.8-72.7-83-124.8-82.6zm-4803.9 2.2c-5.06-0.1-10.07 0.2-14.97 0.6-43.76 10.9-95.03 35.9-102.44 85.4-11.05 31 0.24 64.7 13.74 93.1 19.43 44.6 74.13 65.1 119.78 52.8 69.85-7.1 129.63-87.8 99.1-155.5-11.92-50.9-66.25-76-115.21-76.4zm4800.2 16.3c58.4 0.5 121 47.7 116.4 109.7-5.5 23.5-12.6 49.4-33.1 64.6-46.8 34.2-118.5 24.4-157-17.9-47.7-52.1-9.5-152.6 62.2-155.8 3.8-0.4 7.7-0.6 11.5-0.6zm-4789.7 2c33.79 0 68.47 17.6 81.99 49.6 8.46 23.4 18.52 48.9 9.66 73.9-23.52 74.9-138.13 97.5-188.84 37.7-16.76-26.6-27.18-62.2-12.94-92.1 17.01-37.4 55.97-61.8 95.76-68 4.73-0.8 9.54-1.1 14.37-1.1zm4349.2 48.2c-2.1 9.4 11.6 13.2 17 18.5 23.1 12.4 44.2 27.8 63.5 45.5 12.5 1.5 39.9-20.1 19.2-28.3-32.9-12.1-64-34.4-99.7-35.7zm-3913.4 1.1c-0.59 0.1-1.2 0.1-1.81 0.3-32.24 6.6-61.25 23.5-91.52 35.8-28.8 7.7 13.22 42 24.52 23.4 20.09-22.4 49.63-32.4 71.85-51.9 4.2-3.4 1.07-7.6-3.04-7.6zm4114.4 19.3h-4.7c-45-0.8-92.8 27.1-103.1 73-20.3 87.9 84.8 178.3 167.8 136.7 47.7-21.5 72.2-81.8 52.2-130.4-18.8-43.7-63.7-79-112.2-79.3zm-4309 2c-3.12 0-6.22 0.2-9.3 0.5-63.18 6.2-123.44 69-109.93 134.8 6.04 39.1 37.73 72.1 75.92 81.5 79.32 21.7 165.48-61.1 149.73-141-9.39-48.3-59.61-76.5-106.42-75.8zm4623 1.5c-10.4 2.4-12.4 15.3-19.4 21.3-13.7-3.9-24.4 15.1-17.5 25.6 16.2 6-1.8 30 13.7 37.1 14.5 4.3 19.3-12.1 23.6-22.5 9.6 0.7 25.2 4.4 25.9-10.2 5-12.5-9.9-12.4-15.6-18.5 2.1-11.2 6.7-33.5-10.7-32.8zm-4940.6 2.2c-0.93 0-1.93 0.1-3 0.3-11.49 3.8-10.1 18.9-6.43 27.9 4.5 11.9-17.84 7-15.74 19-2.07 16.7 13.49 18 24.52 14.1 7.51 8.2 9.36 26.5 24.44 23.6 16.16-6.7-1.14-26.6 11.36-34.9 10.85-6.1 5.05-27-6.49-27.6-15.55 2.4-14.69-22.1-28.66-22.4zm4615.4 12.6c41.6-0.6 85.4 21 103.4 59.8 11.4 23.7 12.5 53.3-1.1 76.4-16 26.9-48 41.5-78.6 41-41-5.7-83-29.4-97.4-70.2-21.5-46.4 14.1-105.7 65.4-106.6 2.7-0.2 5.5-0.3 8.3-0.4zm-4289.5 1.9c36.61-0.8 73.85 24.4 78.55 62.3 15.51 78.7-88.97 144.2-154.29 100.5-36.39-20.4-45.17-71.3-25.07-106.1 17.3-33 53.18-52.5 89.51-55.7 3.73-0.6 7.51-1 11.3-1zm4364.5 85.7c-9.1 3.4-9.7 19.7-22.1 14.1-11-7.1-25.6 8.2-13.3 15.5 14.6 5.5 1.8 23 7.2 33.4 10.5 3.9 16.1-5.4 22.2-11.4 9.5 0.8 23 5.5 29.2-4.9 6.5-8.2-1.9-17.5-8.9-21.8-9.8-5.1-1.7-24.1-14.3-24.9zm-4440.3 2.3c-0.23 0-0.47 0.1-0.72 0.1-10.1 7-2.85 23.9-16.47 29-15.08 8.7-0.41 30 13.83 23.8 15.1-9 18.46 16.9 33.78 10.2 2.7-8.3-2.31-16.8-1.41-25.2 2.79-7.8 16.7-10 11.58-20.5-6.73-8.4-19.15 0.1-27.77-3.9-3.74-4.7-5.63-13.6-12.82-13.5zm766.71 19c9 0.9 5.3 16 10.7 22.1 21.6 33.7 68.3 32.4 103.2 28.1 37.4-4 68.8-28 105.2-34.3-5.7 16.4-21.4 27.8-31.7 41.7-29.9 33.9-54.7 77.4-51.6 124.1 1.7 17.5 11.7 33.8 28 41.1 8.8 5.6-3.3 10.5-8.7 12.5-46.8 16.7-91.7 44.9-118.2 88-8.6 14.1-15.4 33.3-6.2 48.8 6 10.7 19.2 12.1 28.9 17.9-0.6 7.6-12.4 8.2-17.7 12.1-69 24.9-118.3 98.9-111 172.4-16.6-17.2-30.1-38.6-41.3-60-21.2-50.9-52.8-99.4-56.7-155.8-3.4-21.3 8.1-47-9.9-63.9-12.9-9.4-29.8-9.6-44.2-15.7-48.19-17.4-83.21-56.3-119.94-90.1-24.25-19.7-44.24-44.2-60.2-71 65.38 26.7 145.8 7.3 192.14-45.8 6.9-7.7 12.7-16.8 22.4-21.4 4.8 12.1 0.3 27.8 11.4 37.5 19.7 13.2 45 7.7 65.6-0.5 45.8-15.8 78.9-53 109.8-87.8zm2902.6 2.6c15.1 2.8 21.9 22 33.1 32.1 27.4 28.7 61.8 52.5 100.9 61.6 16.4 3.4 37.8 4.5 48.7-10.8 7.4-9.1 3.8-21.7 6.9-32 9.1 0.3 13.5 10.9 19.5 16.5 45.8 56.4 129.6 77.6 196.8 49.9-23.5 40-59.4 69.7-92.7 101-30.3 29.5-65.8 56.3-107.7 66.1-13.3 3.4-29 7.9-33.7 22.7-4.3 26.1 3.6 53.9-5.5 79.4-9.5 44.2-34 82.8-50.7 124.2-10.5 22.5-25.8 44.6-41.6 62.4 4.3-63.7-32.7-130.9-90.2-161.6-12.7-7.7-28-10.3-39.6-19.8 2-7.4 13.4-6.5 18.8-11 19-9.7 16.1-34.9 7.5-51.1-25.6-48.3-74.9-78.2-125-96.1-3.4-1.6-12.9-4.9-8-9.6 11.8-7.1 24.2-15.4 27.7-29.7 10.2-37.5-6.3-75.7-25.8-107.2-14.4-26.5-43.5-44.7-54.7-72.3 43.9 10.8 84 38.9 131.2 37.4 35 3 79.9-12.1 84.1-52.1zm-2723.3 40.8c-0.5 0.1-1 0.2-1.7 0.5-47.8 21.2-91.3 51.6-131.8 84.6-66.7 43-132 88.3-195.9 135.3-6.9 6.4-18.6 11.5-20.3 21.8 6.4 8.1 12.5 24.7 24.8 14 72.2-48.4 140.1-103 208.4-156.7 41.1-26.5 80-56.8 113.8-92.4 1.6-1.3 5.5-7.2 2.7-7.1zm2546.7 2.5c33.2 43.4 81.3 73.9 126 105 59.4 48.9 121.2 95 183.5 140.3 8.8 5.3 17.4 14.1 28.3 14.1 4.5-4 5.2-11.1 10.9-14.3 6.4-8-7.8-15.7-12.3-20.5-53-40-107.9-77.5-162.9-114.6-58.7-35.1-108.1-86.8-173.5-110zm-2750 1.3c-11.6 10.3-16.3 25.4-22.2 39.2-10 28.1-21.4 57.2-20.1 87.4 0.3 10.1 13.6 4.6 16.7-0.7 31.9-24.8 17.4-69 28.4-103 0.1-6.5 6.8-21.3-2.8-22.9zm2952.6 2.6c-0.4 0-0.8 0.1-1.3 0.2-3.9 22.1 8 46.5 6.8 70.1-1.2 24 7.8 50.6 31.2 61.1 7.7 3.1 8.7-9.1 7.8-13.8-4.7-36.4-15.6-72.4-32.5-105-3.4-4.5-5.8-12.8-12-12.6zm-3152.6 58.9c-16.01 23-7.82 56.4-4.49 82.8 6.63 27.9 7.53 68.2 40.43 78.4 8.7 4.8 22.6-3.4 17.2-13.5-33.1-34.4-46.2-85-45.1-132.2-0.7-5.1-1.9-14.3-8.04-15.5zm3354.4 2c-0.4 0-1 0.2-1.5 0.5-5.7 3.1-5.9 10.5-6.8 16.2 1 47-12.3 97-45 131.4-5.2 8.6 6.4 16.4 14.2 14 18.8-4.1 31.2-21 34.7-39.1 9.3-37.4 19-76.7 9.5-115-1.6-2.3-2-8.2-5.1-8zm-3116.1 103.1c-1.7 0-3.4 0.1-5.2 0.2-11.8 1.9-23.6 7.6-31.5 16.6-2.7 11.8 15.6 10.8 22.5 13.4 37.9 3.6 78.9 7.9 114.7-7.1-1.1-10.7-16.6-7.1-24.1-9.7-26.1-0.6-50.5-13.7-76.4-13.4zm2875.1 1.8c-3.4 0-6.9 0.3-10.3 0.9-26.5 7.2-53.5 12.2-80.7 15.8-9.8-1.5-6.7 9.4-0.3 10.1 35.5 10.8 73.6 6.5 109.9 3.3 6.8-1.9 22.9-2.5 21.2-12.7-9.6-11.7-24.8-17.5-39.8-17.4zm-3391.5 38.1c-3.4 0-6.8 0.1-10.16 0.4-42.87 2.2-87.92 22.6-107.02 63.1-21.3 41.2-11.09 96.4 25.44 125.8 55.96 47.3 154.47 22.6 183.31-44.6 17.05-32.1 17.5-74.2-4.96-103.8-19.71-26.9-53.68-40.7-86.61-40.9zm3911.6 2.2c-4.4 0-8.7 0.2-13 0.6-32.6 2.6-64.5 20.6-80.7 49.4-25.6 45.7-4.9 105.9 34.2 137 40.8 29.9 102.2 38.2 144.5 6.8 44.1-30.9 55.1-97.1 24.9-141.2-23.4-36.4-67.8-52.9-109.9-52.6zm-3703.4 10.5c-1.25 0-2.77 0.4-4.52 1.3-27.79 7.3-52.58 24.1-81.76 27-20.28-1.1-17.63 49.9 3.88 34.1 27.79-16.5 57.25-30.9 82.39-51.3 6.09-3.1 5.47-11 0.01-11.1zm3492.5 2.3c-7.7 3.4 2.3 10.8 5.6 13.8 25.1 19 53 34.2 80.5 49.5 21.2 10.5 20.8-36.2 1.6-35.6-31.1-2.8-57.6-22-87.7-27.7zm-3699.1 5.1c46.14-0.7 92.46 39.4 84.81 88-10.67 59.3-79.09 103.4-137.23 84-33.8-9.8-59.2-43.8-55.05-79.6 1.03-49.4 48.04-83.8 93.21-90.9 4.71-1 9.48-1.5 14.26-1.5zm3909.4 2.3c32 0.4 62 17.7 84.7 39.4 30.7 35.1 28.6 98-14.3 122.7-62.5 41.3-157.9-13.7-157.9-87.1 0.8-40.5 38.6-72.3 77.6-74.6 3.3-0.3 6.6-0.4 9.9-0.4zm-3545.9 33.5c-1.1-0.1-2.4 0.1-3.7 0.4-20 19.8 3.3 50.2 23.8 59.8 29.9 18.3 61.4 36.2 96.6 41.1 5-0.6 13.9 2.5 14.7-4.8-6.7-9.5-18.9-12-29.1-16-32.7-10.4-60-32.5-83.4-56.8-5.5-7.4-7.7-23.4-18.9-23.7zm3179.4 1.7c-14.5 5.4-13.8 26.6-27.9 33.4-20.9 21.1-45.9 38.7-74.6 47.9-9.7 4.1-23.6 5.8-27.8 17 2.1 5.3 10.8 3.4 15.3 3.2 42.3-7 80.5-29.3 114.2-54.7 12.9-9.8 21.5-43.4 0.8-46.8zm-3242.9 5.1h-1c-10.4 2.4-19.4 8.4-28.16 14.1-66.51 44.4-129.19 94.4-197.34 136.4-19.21 13-41.13 20.9-63.03 28.1-11.52 3.8-1.81 18.3 3.54 23.2 8.83 8.8 12.73 26.5 26.48 27.2 13.16-11.1 20.5-27.8 33.52-39.2 69.18-63.7 150.39-112.4 221.99-173.1 4.2-3.3 13.7-16.3 4-16.7zm3306.6 2.2c-0.7 0-1.3 0.1-2 0.1-5.2 6.1 4.1 13.8 8.4 18 58.8 49.3 123.6 90.9 183.1 139.4 25.2 19.1 48.1 41.4 66 67.7 10.2 12.9 19.3-7.6 24.2-14.2 4.5-9.6 20.3-18.7 14.1-30.2-22.3-10.2-46.9-15.9-67-30.7-68.8-42.6-132.2-93.1-199.6-137.9-8.5-4.6-17-12.2-27.2-12.2zm-3687.3 31.1c-12.25 7 2.03 24.7-10.32 31.6-10.35 5.7-11.05 25.8 2.53 27.2 11.65-2.4 23.76-3.9 34.11 3.6 14.8 1.9 4.1-15.6 4.5-22.8 5.38-6.8 16.56-12.9 11.37-23.3-4.67-5.6-12.8-0.9-18.96-0.4-10.05-1.1-13.13-15.4-23.23-15.9zm4065.8 2.8c-5.3 2.8-8.9 7.8-13.1 11.9-7.1 7.8-19.8-4.9-26.3 3.9-6.7 14.3 21.1 21.2 8.3 35.3-5.3 7.8 6.2 14.8 12.2 8.6 11-10.5 31.5 7 39-9 4.8-12.1-7.9-19.2-13.7-27.5 3.2-7.5 4.5-23.3-6.4-23.2zm-1133.4 0.7c35.6 20.9 62.1 56.7 102.1 71.4 33 15.1 86.3 24.3 105.2-15.9 4.8-9.6 11 3.5 12.3 8.5 17.6 49.2 47.8 97.1 95 122.3 16.4 8.8 42.2 11.8 51.6-8.3 4.1-5.4 3.2-16.1 10.5-18 7.5 9.1 10.7 20.7 15.5 31.3 29.4 61.1 97.1 103.7 165.7 97.4-22.2 23.2-54.8 40.4-85.6 53-50.7 24.8-104.6 51.5-162.9 44.6-19.7-4.5-36.1 11.8-38.5 30.2-12.5 62-61.9 105.4-102.7 149.9-18.5 22.3-42 39.4-66 55.3 29.4-70.6 4-157.9-57.2-203.1-3.2-2.4-14.4-12.3-5.9-14 21.1 3.9 44-12 41.7-34.6-2.8-61.9-48.8-111.3-94.9-147.8-5.9-8.2 7-8.6 11.8-10.1 21.9-5.3 32.9-27.8 36.7-48.3 8.9-42.3-3.6-85.2-21.2-123.5-4.7-13.3-13.1-25.9-13.2-40.3zm-1794.2 2.3c-3.4 36.1-32.8 71.9-33.8 111.6-6 36.3 0.1 94.7 45.9 101.7 8.5 0.1 4.8 10.1-0.8 12.2-38 28.5-70.6 66.4-85.3 112.1-5.8 18.1-8.6 39.8 2.8 56.4 9.7 11.3 25.5 6 37.5 11.5-7 13.4-21 20.6-31 31.4-45.8 47.4-61 121.9-36.3 183.2-27.3-16.8-52.5-37.2-72.7-62.2-35.2-37.2-74.6-74.4-90.5-124.6-6-14-4.7-33-19-42.2-17.3-11.6-39.1-2.9-58.4-5.3-51.5-3.5-96.6-30.6-142.7-51.1-27-10.6-50.8-27.8-73.1-46 72.8 5.5 147.6-42.4 172.5-111.9 3.8-5.4 4.5-17.2 12-17.7 5.9 9.6 7.2 22.9 18 28.8 14.1 8.8 31.3 3 44.9-3.8 46.7-27 76-75.2 93.8-124.9 0.2-8.6 10.7-10.1 12.5-1.4 10.5 23.6 39.5 27.2 62 24.9 41.7-6.5 79.1-29.8 109.1-58.6 10.7-8.2 19.7-19.7 32.6-24.1zm1821.2 35.5c25.7 68.4 79.4 120.5 116.3 182.4 35.9 52.2 71.3 104.9 109.6 155.4 4.9 4.5 11.6 17.5 19.9 13 3.5-5.8 10.3-7.2 15-11.4-1.1-13.8-11.9-24-18.7-35.3-44.5-59.5-88.2-119.6-135.7-176.8-31.4-45.3-62.4-93.2-106.4-127.3zm-1847.4 1.7c-42.8 34.7-74.4 81.5-105.2 126.7-52.5 65.1-104.5 131-151.1 200.4-11.2 12.6 6.6 19.3 15.1 24.8 13.2-6 19.8-21.3 29.4-31.7 42.3-59.6 84.9-119.2 124.1-180.9 33.2-43.5 68.7-87.6 87.7-139.3zm-711.2 28.2c-0.8 0-1.8 0.2-3 0.7-28.8 12.9-48.69 39.1-73.42 57.9-6.08 4.6-18.75 17.1-6.97 22.2 9.8 3.4 25.3 12.5 31.6-0.1 11.69-25.6 31.99-45.3 49.19-66.9 2.4-2.5 8.1-13.6 2.6-13.8zm3266.5 1.4c-4.8 2.1-1.1 7 0.5 10.2 14.2 22.4 36.3 39.1 47.6 63.6 4.7 19.9 28.5 13.8 40.2 4.1 0.6-14.2-15.5-20-23.7-29.2-21.2-16.4-38.7-39.8-64.6-48.7zm-517.4 36.2c-10 23.4-6 51.5-16.2 75.4-6.4 19.7-4.3 56.7 19.7 61.4 15.1-36.1 10.9-77.5 7.4-115.8-2.3-6.3-1.2-20.8-10.9-21zm-2231.5 1c-16.4 37.2-10.1 80.3-6 119.6 0.5 7 4.8 23.7 14.8 15.9 29.7-31.4 3.3-72 1.1-108-2.9-8.5 1.9-25.9-9.9-27.5zm-916.36 27.8c-3.6 0-7.21 0.2-10.8 0.6-55.02-1.5-103.22 40.9-122.15 90.1-11.3 37.8 3.41 78.1 29.05 106.7 29.04 40.5 89.76 56.3 133.21 29.3 66.73-25 105.44-120.2 57.1-178.4-17.57-30.8-51.63-48.2-86.41-48.3zm4073.4 2.3c-5.1 0-10.2 0.3-15.2 0.7-49.7-1.1-85.7 43.1-99.8 86.5-7 36.7 7 75.1 28.3 104.8 35.2 36.6 91.3 61 140.7 39.4 39.7-22.6 73.7-65.4 72.6-112.8 4.7-37.5-23.1-69.9-50.4-92-20.6-18.9-48.6-26.5-76.2-26.6zm-3812 5.1c-3.62-0.1-7.24 0.1-10.83 0.4-64 0.6-114.18 59.6-118.01 120.8 0.53 34.8 17.17 70.2 47.64 88.4 43.28 29.5 107.31 18.6 139.44-22.4 30.22-36.4 47.03-89.3 25.93-134.2-14.34-32.6-49.22-52.4-84.17-53zm3545.1 2.1c-4.5 0.1-8.9 0.4-13.3 1-37.7 3.2-71.4 31.8-80.2 68.6-12.1 50.5 12.4 106.3 53.3 136.9 41.9 32 107.2 24 140.8-16.5 31.7-35.6 31-90.9 5.3-129.6-20.6-38.2-63.1-61.1-105.9-60.4zm-3808.1 6.8c51.99-0.4 94.58 53.4 92.77 103.3-6.9 63.4-75.4 106.6-136.1 97.6-35.56-5.3-60.41-37-71.05-69.3-11.81-63.1 44.15-126.7 106.64-131.1 2.6-0.3 5.18-0.5 7.74-0.5zm4068.1 2.3c53.5-0.3 101.9 43.1 114.2 94.4 9.6 39.1-15.1 80-48.7 98.9-54.7 24.5-124.4-6.7-149.9-59.2-27.6-53.9 15.8-125.6 73.6-133.5 3.6-0.4 7.2-0.6 10.8-0.6zm-3803.8 5.4c51.77 0.6 85.87 60.9 68.1 107.9-16.87 51-75.2 94-129.37 72.7-43.95-14.1-61.88-69.3-43.84-109.7 15.91-40.4 57.35-67.8 100.05-70.8 1.71-0.1 3.39-0.2 5.06-0.1zm3540.4 2.4c63.2-0.7 124.9 62.4 108.1 127.1-10.4 49.8-73.1 72.7-116.3 50.1-27.2-15.8-52.1-39.1-61.1-70.1-16.3-45 13.3-103 63.2-106.8 2-0.1 4-0.2 6.1-0.3zm-2244 57.4c7 2.5 2.4 18 3 25.6-7.1 53.1-8 114.8 29.3 157.7 12.4 15.7 32.8 18.9 51.7 16.9 1.8 6.1-4.2 11-6.6 16.2-28.4 41.8-47.7 92.5-42.1 143.7 2.5 14.3 7.5 30.7 21.5 37.7 11.8 5.5 24.3-1.3 36.5-1.5-2.2 17.2-17.1 29.6-22.5 46-25.5 58.4-15.5 129.8 24.6 179.1-22.6-6-45-13.3-65.9-24-57-34-124.9-60-158.6-121.3-8.5-18.6-31.4-21.2-47.9-12.9-52.7 23.9-112 14-167.2 6.7-32.5-2-65.7-9.6-94.7-22.8 58.9-15.9 109.9-67.3 123.5-128.6 4.5-16.7 2.2-34.8 8-51 6.5-2 8.3 7.1 12.5 10.5 10.7 14.8 32.6 14.4 45.7 3 47.3-38.9 60.2-103.9 62.7-162.1 4.6-14.4 15.8 8.2 24.4 8.8 36.8 12.3 72.8-13.3 97.7-38.2 28-24.8 40.2-61.9 64.4-89.5zm943.6 1.1c15.5 8 21.4 30.7 32.3 45 19.6 33.9 48.3 64.4 84.9 80 20.1 8.6 46.1 9.4 61.8-8.2 4.6-5.6 11.9-2.7 9.7 5.5 1.8 51.5 13.9 105.5 48.2 145.5 11.8 13.2 30 26.5 48.6 19.2 9.7-3.9 14-13.6 20.8-20.7 7.9 0.3 4.1 14 6.4 19.4 2.6 73.9 57.2 143.1 129.4 160.6-24.1 10.9-51.6 18.7-78.7 21.1-62.2 6.4-128.5 22.6-187.9-5.8-19.9-11.6-40.4 3.5-49.1 21.3-33.5 56.1-96.9 79.9-150.3 112.1-21.8 12.5-46.1 19.1-69.9 26.5 45.2-54.9 52.3-138.3 14.8-199-4.3-8.7-12.6-16.8-12.2-26.9 11-0.3 21.9 7.4 33.1 3 20.6-7.1 25.3-32.3 25.4-51.3 2.6-50.9-20.4-98.3-47.8-139.6-4.4-4.7-0.9-11.7 6.4-8.4 33.6 6.3 56-26.1 65.8-53.6 19.7-46.8 6.4-97.6 8.3-145.7zm819.3 6.3c-0.1 0-0.3 0-0.5 0.1-8.1 4.1-10.9 13.3-13.9 21.2-9 29.3-24.8 56.8-47.3 77.7-6.7 17.4-31.9 15.4-36.4 33.2 7.1 17.9 35.1 10.1 45.8-1.4 26.7-34.7 49.9-74.5 56.4-118.5-1.3-3.2 1.3-12.1-4.1-12.3zm-2575.6 1.5c-7.6 1.9-2.7 12.3-3.3 17.5 5.8 37.4 25.8 70.5 46 101.7 10.2 15.9 30.4 28.8 49.3 20.7 7.7-2.5 6.4-13.1 1.1-17.3-41.1-20.6-67.3-63.5-81-106.5-2.8-5.8-5.5-14.3-12.1-16.1zm2224 12.1c-2 0-4 0.1-6 0.4-6.7 7.6 10 13.2 15.6 17.1 33.9 15.4 70.4 28.9 107.8 29.6 12.6-0.6 3.3-15.4-1.9-19.2-17.6-23-48.3-18.4-73.5-21.6-14.2-0.6-27.8-6.2-42-6.3zm-1872.2 0.5c-2-0.1-4.1 0.3-6.2 1.4-37 13.6-87.2-4.5-113.4 31.8-6.5 4.1-6.7 16.2 2.9 15.1 41.4-3 83-16 118.7-37.1 9.8-4.6 5-11-2-11.2zm-1179.1 9.8c-0.38 0-0.76 0.1-1.16 0.1-18.7 5.4-2.92 25.1-0.8 36.5-8.13 6.3-16.18 16-5.18 24.8 7.13 10.7 15.61-2.3 23.73-2.7 7.24 9.1 19.45 23.6 31.6 13.2 7.23-12.7-11.65-26.5-0.47-37.9 4.46-9.6-7.35-25.5-18.4-20.7-12.21 5.3-17.54-13.5-29.32-13.3zm4225 2.6c-0.7 0-1.4 0.1-2.1 0.2-9.7 1.7-13.8 17-24.8 12.3-11.6-4.7-25.5 12.3-18.7 22.2 11.9 11.6-13.5 27.7 1.8 38.9 12.7 5.5 21.2-7.9 28.7-15.3 7.2 0.3 12.8 9.6 20.8 5.4 11.7-6.3 10.2-22.7-2.2-27.5 3.9-11.2 17-36.8-3.5-36.2zm-2598.6 10.8c-29.6 45.5-44.6 99-60.1 150.6-29 74.6-54.7 150.6-79.5 226.7-1.2 7.5-6.9 18.7-1 25.4 9-0.2 22 12.9 26.4-1.4 30.4-81.5 53.2-165.8 76.5-249.5 18.1-48.7 36.2-100.1 37.7-151.8zm972.3 0.6c2.8 53.8 20.7 105.7 39.6 155.9 16.7 66.4 37.6 131.7 57.7 197.2 7.1 18.2 10.4 38.6 22 54.6 7.7-1.6 18.3-1.7 24-7.6 0.3-15.6-6-30.5-10.3-45.2-23.1-67.9-45.7-136.1-72.2-202.8-15-51.7-31.7-109.7-60.8-152.1zm-2330 5.9c-7.52 2-5.35 10.6-4.47 16.3 3.47 12.4-14.13 21.7-6.54 33.9 9.62 9.9 22.85 1.6 32.76-2.9 5.95 5.4 14.99 8.9 22.6 5 4.92-6.9-4.41-14.7-5.86-21.5-5.08-8.6 10.39-14.4 5.39-23.5-5.38-8-16.73-2.1-23.23 1.4-8.44 4.7-12.75-8.7-20.65-8.7zm3688.6 2.4c-0.7 0-1.4 0-2.1 0.2-7.4 7.7-17.5 11-26.2 4-10.8-6.8-22.1 6.7-11.6 15.4 9.7 10.9-9.7 21.6-3.9 32.6 11.6 8 21.6-12.3 32-0.7 7.6 5.4 20.7 4.1 24.7-5.1 2.8-11.6-12.2-19.9-7.3-31.9 1.3-5.3 0.6-14.4-5.6-14.5zm-1842.4 21.3c5.4 1.5 4.9 10.5 7.2 15 9.6 42.1 18.4 86.4 46.7 120.7 16.5 21.8 43.9 44.1 72.9 33.8 5.7-2.1 19-10 15 3.6-14.6 51.9-21.2 110.3 3 160.4 7.1 16.2 23.3 32.4 42.6 26.9 8.8-1.6 14.5-11.9 23.5-11.2 1.2 11-2.7 21.5-4.9 32.1-14.7 68.1 16.9 143.6 76.3 180.3-26.9 1.8-57 2.3-84.3-5-59-12.1-124-18.1-170.8-60.4-13.5-15.4-38.4-16.8-52.3-1.1-49 45-117.8 49.5-179.5 63-25.3 5.6-51.3 4-77 4.6 53.8-35 86.2-101.1 78.9-165.4-1.4-16.2-8.1-31.6-7.5-48 9.2-0.5 15.2 10.4 24.7 11.2 21.2 5.5 36.8-14.9 43.9-31.9 20.8-49.5 15-105.3 0.6-155.6-4.4-12.8 8.6-6.2 14-3.8 39.6 13.2 72.2-25.8 89.2-56.7 21.7-34.2 21.5-77 37.8-112.5zm-0.1 46.3c-14 52.2-11.8 107.3-10.2 160.9-5.1 74.5-4.9 149.3-6.3 223.9 1.4 13.5-0.8 28.9 5.2 41.2 9.5 1.9 27.9 4.9 27.2-10.2 2.9-84.4-0.6-169.1-4.9-253.4 1.4-53.4 4.2-112-11-162.4zm643.5 46.2h-0.8c-13.1 16.6-18 38.7-30.7 55.8-16.8 19.9-26.1 47.9-14.4 72.5 5.1 6.5 12.3-0.7 14.8-5.9 17.9-32.6 30.4-68.5 36.1-105.3-0.8-4.7 2.6-17.4-5-17.1zm-1294.5 0.1c-3.9 39.4 14.5 77.7 29.6 113.5 2.5 8.2 16.4 24.5 21.1 10 14.8-32.6-11.3-60-26.2-86.2-9.1-10.7-8.7-35.5-24.5-37.3zm1793.3 3.8c-0.6-0.1-1.3 0-2 0.1-34.9 30.9-83 47.6-130.1 46.1-6.9 0.5-19.9 0-20.6 9.5 27.1 13.2 58.8 6.9 87.3 2.4 26-6.6 62.1-7.4 72.8-37.3 4.8-7 1.8-20.7-7.4-20.8zm-2284.6 1.4c-19.8 7.4-3.1 35.1 9.7 42.1 43.3 16.7 92.8 27.9 138.7 16.3 11.6-4.4-3.6-13.1-9.8-11.9-34.9 0.5-70.2-5.6-101.1-22.4-16.1-2.2-22.4-21.5-37.5-24.1zm2446 6c-5.6 3.7 0.8 10.5 2.4 14.7 15.3 23.3 36 42.4 53.5 64 5.2 5.3 10.7 13.8 19.4 12.1 6.3-5.6 6.8-15.1 9.3-22.6 2.7-14.5-15.7-16.7-24.3-23.8-22.2-12-36.5-35.3-60.3-44.4zm-2607.7 2.2c-0.8 0.1-1.7 0.3-2.9 0.8-26.8 14.5-45.7 40.9-74.3 53.2-17.8 5.8-1.8 49.9 14.3 32 20.7-24.3 44.2-46.6 61.8-73.4 1.7-2.6 6.3-12.8 1.1-12.6zm2502.9 16.8c-4.3 6 1.7 14.9 4.8 20.8 28.6 47.4 63.7 90.5 94.8 136.3 28.8 42.3 62 83.7 76.2 133.7 7.5 19.7 23.4-1.7 34-7.3 7-5.4 26.7-14 14-24.3-27.3-18-49.4-42.5-69.3-68.2-44.6-55.1-84-114-127.9-169.6-7.7-8-14.4-20.9-26.6-21.4zm-2400.1 1.3c-10.7 3.5-16.6 14.3-23.9 22.1-54.5 67.9-101.2 141.9-159.7 206.6-11.8 14.7-31.9 21.3-41.7 37.3 6.2 13.6 23.6 19.1 34.2 29.5 23.1 14.2 20.5-23.1 29.3-36.2 45.2-85.8 110.9-158.7 161.4-241.2 1.8-4.5 9.3-17.1 0.4-18.1zm2672.3 27c-4.4 0-8.7 0.2-13 0.7-56.9 4.8-94.8 67-79.8 120.9 8.2 53.6 58.5 92.7 110.4 99.8 58 7.3 112.6-42.7 113.5-100.2 2.6-69.1-65.9-121.3-131.1-121.2zm-2941.7 1.1c-4.2 0-8.4 0.3-12.6 0.9-60.9 6.1-123.4 57-118.1 122.6 0.7 55.4 52.8 102.8 107.9 98.5 53.3-4.4 106.2-44.1 115.1-98.6 8-35.3-0.4-77-29.5-100.6-17.3-14.9-40.1-22.8-62.8-22.8zm1038.4 9.9c-0.9 0-2.1 0.2-3.6 0.9-21.3 8.8-40.6 22.8-63.1 29.5-22.1 6.3-43 25.1-43.6 49.2 5.1 7.5 15.8 0.5 22.2-1.9 32.3-17.3 63.6-38.3 87.6-66.2 3.7-2.5 5.5-11.3 0.5-11.5zm859.7 0.6c-7.3 5.7 4.2 14.1 7 18.8 25.3 24.6 54.6 45.6 86.3 61.1 6.9 3.9 22.4 6.1 17.2-6.9-5.7-28.1-33.8-39.8-58.1-48.4-18.5-6.1-33.7-19.6-52.4-24.6zm1043 8.2c66.7-1.2 129.6 74.3 100.4 138.8-12.8 31.2-48.2 48.5-80.9 45.2-56-5.3-99.8-60.7-97.5-115.9 3.2-35.1 33.5-63.5 68.2-67.3 3.2-0.5 6.5-0.7 9.8-0.8zm-2941.5 1.5c31.1-0.1 62.7 18.5 74.1 48 15.2 43.8-9.5 92.9-45.5 118.6-32.6 23.3-81.8 24.5-111.6-4-28.9-28.6-32.9-80.1-6.2-111.4 17.8-26.9 46.7-48 79.5-50.6 3.2-0.4 6.4-0.6 9.7-0.6zm1585.1 40.2c-0.4-0.1-0.8 0-1.3 0.1-19.1 14.7-33.4 35.4-53.5 49.2-18.4 13.2-32.8 35.7-27.2 59.1 3.1 8.4 12.6 0.2 16.8-3.3 26.7-26.4 50.6-56.8 66.3-91.1 1.7-3.9 4.6-14-1.1-14zm-229 0.2c-4.6 13 7.7 26.7 13.4 38.4 18.8 26.6 37.1 59.3 67.1 73.5 12.8-19.7-4.3-48.6-22.1-61.1-22-13.5-36.1-39.9-58.4-50.8zm1264 3.6c-0.7 30.8 25.5 58.2 26.3 90.3 0.5 17.6 25.9 13.4 36.2 9.8 2.7-14.9-10.5-26.7-16.6-39.3-14.3-20.4-23.1-50-45.9-60.8zm-2300.4 1.3h-0.9c-25.7 24-39.9 58.6-58 88.6-11.1 19.3 23.1 16 32.2 10.8 6.5-27.2 14.4-54.2 26.8-79.5 1-5.2 8-19.7-0.1-19.9zm1922 42.4c-0.5 0-1 0-1.6 0.2-12.1 5.9-18.9 18.1-26.9 28.3-20.9 25-48.9 44.3-79 56.3-10.1 0.4-31.4 4.2-23.6 18.6 13.2 13.9 37.6 10.9 51.5-1.1 32.3-24.7 64.5-53.3 81.4-91.2 1.9-3.3 2.9-10.9-1.8-11.1zm-1545.8 0.1c-0.7 0-1.5 0-2.4 0.1 5.7 39.8 43.2 66.7 70.7 92.4 15.3 16.2 46.7 28.8 63.5 8.9 6.9-15.6-17-16.8-26.7-18-30.9-14.4-60.5-33.8-80.7-61.9-6.9-7.7-12.9-21.1-24.4-21.5zm2326.9 12.2c-0.8 0-1.7 0.2-2.6 0.5-6.8 1.6-12.2 7.1-19.3 7.9-6.4-2-14.9-11.2-21.4-4.7-8.9 10.9 11.5 22.2 0.1 32.4-9.9 6-2.8 20.2 8.1 14.4 13.3-5.2 32.1 19.1 40.3 0.2 8-11.8-12.5-22.2-2.8-32.4 4.4-4.8 5.3-18.3-2.4-18.3zm-3104.4 1.4h-0.9c-6.9 6.3-2.4 18 3.3 23.8-3.9 10.3-12.7 21.6-3.7 32.2 9.5 7.9 19.7-4.5 29.1-6.1 6.8-0.4 19.1 5.2 21.8-4.2 0.2-8-13.2-12.3-8.5-20.7 3.8-6.7 9.4-18.4 0.6-23.7-7.7-2.6-11.6 5.9-18.3 7.1-8.4-0.8-14.8-8.7-23.4-8.4zm2780.5 51c-3.6 0-7.3 0.2-11 0.6-34.7 4.4-64.7 30.6-75.4 63.7-17.6 54.3-0.3 124.3 51.3 154.1 35 19.9 81.5 18.1 113.8-6.5 36.1-25.4 49.7-73.9 38.3-115.6-9.6-54.9-62-96.7-117-96.3zm-2455.3 1.2c-4-0.1-8 0.2-12 0.8-40.2 5.1-79.9 29.8-95.7 68.2-18.4 39.5-18.8 90.2 9.8 125 27.9 36.1 80.1 48.1 121.6 30.2 69-29.4 89.8-127.9 48.1-187.4-16.7-22.2-43.9-36.6-71.8-36.8zm2457.7 15.9c73.8 0.2 128.9 97.1 85.9 159.4-26.3 42.4-90.4 43.2-124.3 10.2-25.4-27.4-43.4-66.2-34.6-104 6.7-34.5 36.7-65.2 73-65.6zm-2460.9 1.2c39.8 0.5 73.7 37.8 75.2 77.3 4.5 37.3-15.9 72.3-41.4 97.9-29.7 21-74.2 26.2-103.5 1.7-33.6-27.6-39.1-79.3-18.7-116.4 15.8-28.4 42.5-54.5 75.9-59.4 4.2-0.8 8.4-1.1 12.5-1.1zm647.8 26.7c-1.2 0-2.5 0.2-3.8 0.5-8 2-7.6 12.4-3.6 18 8.2 15.3 26.9 22 43.5 20.4 39.4-2.5 80.6-5.6 115.5-26 3.8-2 9.6-9 2.6-10.9-18.2-2.4-35.1 8.5-53 10.4-25.8 5.2-51.5 0.2-77.2-2.3-8.4-2.1-15.2-10.1-24-10.1zm1162.2 1c-7.8 0.1-15.1 6.1-22.4 8.9-43 11.6-87.2 2.1-129.3-8-4.3-0.1-9.3 3.9-5.3 7.9 29 21.2 66.4 25.4 101.3 29 19.3 1.7 43.3 3.9 57.2-12.6 6.8-5.3 11.4-17.5 4.1-24.2-1.9-0.7-3.7-1-5.6-1zm894.5 26.7c-3.2 0-6.3 0.2-9.5 0.4-44.3 10.2-90.9 44.5-94.7 93.2-3.9 34 0.6 71.8 24.3 98.4 22.7 28.2 56.6 58 95.6 51.3 45.7 1.3 86.5-32.3 108.9-69.7 23.9-49.7-0.7-108.6-38.7-143.7-24.7-17.8-55.2-29.7-85.9-29.9zm-2946.9 1.2c-2.9 0-5.9 0.2-8.9 0.6-28.2 2.7-56 13.1-78.6 30.3-24.4 23.2-40 54.9-47.7 87.4-3.7 25.2 8.3 48 18.3 70.1 23.8 26.6 54.4 51.1 90.7 56.6 57.2 6.5 107.3-39.7 126.2-90.4 8.9-39.7 8.1-89.2-25-118.1-21-17.9-46.4-36.5-75-36.5zm1654.3 11.7c-1.2 0-2.7 0.4-4.3 1.3-40.9 25.6-87.1 52.5-137.2 44.5-9.8-2.7-17 9.6-10.9 17 13.2 16.1 36.3 16.5 54.1 8.7 36.4-15 75.2-30.6 100.6-62 3.8-3.9 2.2-9.3-2.3-9.5zm-361.7 1.1c-1 0-1.9 0-2.9 0.1-4.9 2.7 1.8 9.2 3.7 12.7 26.5 28.4 63.1 43.6 98.4 57.9 17.5 8 41.5 6.5 53.5-10 4.7-5.9 0.5-14.9-6.7-16-38.2 6.8-77.3-6.6-110.4-25.4-11.6-6.3-21.9-18.9-35.6-19.3zm-453.4 2.2c-0.6 0.1-1.2 0.1-2 0.3-7.1 6.4-10.9 16.8-14.5 25.8-31 82-52.8 167.4-88.6 247.6-6.8 17.5-23.3 30.5-28.4 48.3 7.8 11.6 25.6 10.2 37.5 16.5 30.8 14.5 17.8-31.2 21.5-45.3 17-93.1 54.8-180.8 77.8-272.4 0.3-6 5.5-21.1-3.3-20.8zm1261.4 0.2c-7.8 14.2 3 33.3 6.1 48.4 25.7 96.6 70.4 190 73.7 291 12.7 8.6 28-7.5 41.6-7.9 6.5-2 18.1-5.3 13.2-14-12.8-19.4-27-38.1-34.8-60.3-32.4-77.5-53.5-159.1-84-237.3-3.7-7.4-6.5-18.7-15.8-19.9zm853.5 0.9c57.7 0.1 102.8 57.8 105.6 113.3 7.1 62.8-67.7 116.1-124.7 88.3-55.8-21.4-97.4-92.3-67.2-149 16.6-25.5 44-46.9 74.6-51.9 3.9-0.5 7.8-0.7 11.7-0.7zm-2963.7 1.5c53.7 0.3 107.9 51.3 97.6 107.4-7.8 48.7-48.4 90-96.4 100.1-51.9 9.8-108.4-36.3-105.1-90.2 1.6-53.7 40.3-109.6 96-116.9 2.6-0.3 5.2-0.4 7.9-0.4zm744.7 11.2c-25 22.7-35.4 58.3-61.1 81.1-1.4 12.1 18.8 41.3 27.6 20 12.3-28.3 26.3-56.2 35.6-85.7 0.7-4.4 4.2-13.6-2.1-15.4zm1469.1 1.6c-0.1 31.4 20.1 58.1 29.9 87 4.6 7.6 6.4 24.1 18.8 20.4 9.3-8.7 24-25.2 8.7-35.4-24.7-18.9-30.9-58.7-57.4-72zm520.6 35.4c-1.1 0-2.2 0.3-3.5 0.8-7.4 2.8-3.3 11.5-2.5 17.3 2.6 11.7-13.6 14.3-14.7 24.5 3.8 9.2 15.8 6.5 23.5 4.3 8.4 5.8 16.1 19.2 28.3 13.2 14.9-7.9-2.4-27.6 8.2-38.5 7.4-7.9-3.6-18.3-11.3-11.1-11.8 8.3-17.2-10.9-28-10.5zm-2503 1.1c-1.3 0-2.7 0.3-4.3 1-5.9 2-9.4 8.2-14.4 11.9-7.1 1.1-17-8.3-22.6-0.6-1.9 9.9 9.9 17.2 5.1 27.2-2.9 8-2.6 20.4 7.8 22.2 11.7 2.6 17.4-9.2 25.7-14.5 7.7 2.7 18.6 4.4 23.6-3.5-0.4-11.3-20.3-15.5-14.8-28 3.2-6.5 0.9-15.6-6.1-15.7zm694.3 20.4c-0.5 0-1 0.1-1.6 0.3-15.2 21.1-15.8 49.3-22.8 73.7-1.6 13.2-10.1 27.4-4.3 40.6 11.2 1.7 24.7-3.4 32.7-11.3-4.6-30.4-0.5-61 0.1-91.5-0.8-3 0.6-11.7-4.1-11.8zm1108.3 1.7c-7.5 28.6 5.8 61.7-2.4 91.6-5.6 18.4 21.1 23.6 33 21.7 2.4-29.8-10.5-59.4-15.9-88.7-4-7.3-4.1-24.1-14.7-24.6zm-551.7 26.1c-0.2 0-0.4 0-0.6 0.1-7 6-6.1 16.8-7.6 25.2-4.7 91.5 2.5 183.6-9.1 274.7-0.3 17.1-15.1 33.4-9.4 50.4 17.8 2 38.2 3.3 55.7-0.8 2.9-17.7-9.4-33.9-10.8-51.6-11.7-93.7-2.4-188.5-10-282.4-1.2-4.7-1.3-15.8-8.2-15.6zm-850.5 4.7c-3.7 0-7.4 0.2-11.1 0.7-45.1 5.5-83.4 38.5-103.4 78.1-24.1 46.9-5.6 110 39.9 136.5 36.7 22.4 87 18.7 119.5-9.6 45.6-33.7 64-97.7 39.5-149.3-13.9-33.3-48.5-56.5-84.4-56.4zm1696.1 1.4c-3.2 0.1-6.4 0.3-9.7 0.6-54.4 5-88.3 62.6-83.8 113.8 4.1 64.3 66.6 125.4 133.2 113.4 49-6.7 86.2-52.9 87.1-101.5-0.7-65.5-61-127-126.8-126.3zm700 16.7c-8.1 1.4-16.4 10.4-24.3 4.8-8.6-9.7-25.5 2.8-25.5 13 8.9 15.5-17.9 22.2-11.1 37.8 7.3 9.7 20.6 3.6 28.5-1.9 11.7-7.7 14.6 17.7 26.9 7.5 15.1-5.2 4.5-19 2.8-28.6 13.8-6.1 24.9-32.6 2.7-32.6zm-3092 1.5c-1.6 0-3.3 0.2-5.1 1-17.1 8.3 3.4 26.9 10.2 34.4-10.1 8.2-8.2 24.1 4.9 26.8 11.7 6 12.5-15.9 23.6-8.9 7.7 6 23.5 12.5 29.2 0.7 5.8-13.7-18.2-20.1-12.2-33.1 4.7-12.6-15.8-26.5-24.8-15.8-8.8 4.3-16.8-4.9-25.8-5.1zm698.7 0.8c28.9 0.4 57.6 18.4 67.7 46 23.8 61.6-20.6 145-90.4 145.5-54.8 3.5-94.1-60.4-75.8-109.3 10.7-41.4 45-79 89.5-81.8 3-0.4 6-0.5 9-0.4zm1694.8 0.8c43.9-0.3 82.3 35.2 94.1 76.6 14.7 35.7 1.1 79.7-30 102.2-22.8 15.5-53.8 16.6-78.5 5.1-46.8-19.8-69.7-76.9-60.2-124.9 5.8-30.3 32.5-55.5 63.3-58.2 3.8-0.5 7.6-0.8 11.3-0.8zm-941.3 20.1c-0.5 0-1 0.1-1.6 0.2-15.7 26-13.1 59.7-29.2 86.2-15 15.9 29.4 47.3 29.5 18 2.6-31.1 8.1-62.2 6.4-93.5-0.8-3.3-0.6-10.8-5.1-10.9zm188.5 0.3c-10.4 34.1 1.9 73.3 3.7 109.1 4.9 18.7 25.2-2.6 31.9-10.2-1.4-15.9-13.1-28.7-15.7-44.4-7.1-17.1-4.1-44.5-19.9-54.5zm-664.4 49.6c-3.4 0.1-6.8 0.3-10.3 0.8-37.9 3.7-69.4 32-87.2 64.2-20.7 44.4-14.6 103.3 19.8 139.4 34.8 37.9 97.7 40.8 137.6 9.2 50.8-37.7 52-114.7 21.2-165.6-16.6-28.2-48.1-48.4-81.1-48zm1137.3 0.6h-3c-78.4 3-117 100-92.1 166.4 18.2 54.2 84.9 84.8 137.7 61.7 70.7-28.1 87-131 38.8-185.8-19.6-24.4-49.6-41.9-81.4-42.3zm-1140.9 17.7c32 0 61.8 22.6 73.7 52 26.1 56-6.2 138.7-72.2 145.1-58.9 7.1-102.3-59.9-87.4-113.5 8.8-39.9 38.2-82.4 82.8-83.5 1-0.1 2-0.1 3.1-0.1zm1145.1 0.7c45.5 0 78.3 45 85.3 87.2 9.5 44.7-17 98-63.4 108.4-32.8 8.3-66.8-9.1-86.6-34.8-18.5-32.4-26.3-74.4-10.1-109.4 11.5-26.3 36.6-47.3 65.6-50.8 3.1-0.4 6.2-0.6 9.2-0.6zm-1453.7 24.8c-1.2-0.1-2.6 0.1-4.2 0.5-7.7 17.8-23.6 8.7-37.7 10.3-2.2 6.5 0.4 14.8 6.4 18.5 12.2 6.4-3.8 23.1 7.2 31.8 18.1 14.4 24.2-18.3 43.2-14.4 13.7-4.2-0.4-16.9-7.9-18.9-1.5-8.5 4.6-27.6-7-27.8zm1761.8 0.3c-0.4 0-0.8 0-1.2 0.1-9.5 2.5-6.4 13.8-6 21.1 3.4 11.2-14.6 10.9-14.4 20.7 1.6 6.8 10 5.7 15.1 7.3 12.2 0.6 15 20.1 28.5 16 13.5-4.9 9.2-20.4 8-30.9 5.8-6.1 15-11.9 11.4-22-8.8-5.2-19.9 3.5-29.1-1.4-3.3-4.1-6.2-11.2-12.3-10.9zm-1026.5 23c-4.4 0-8.8 0.5-13.4 1.2-57.8 9.4-96.5 68.8-99.6 124.4-4.5 62.5 57 119.3 119.1 107.8 48.8-5.8 83.5-49.9 92.9-95.8 16.2-62-33-138.6-99-137.6zm296.1 0.1c-4.7 0-9.6 0.4-14.5 1.1-48.3 6.4-81 53.2-87.8 98.8-2.8 39 12.1 79 39.8 106.6 32.6 31.5 86.5 37.3 124.6 12.6 37.8-22.4 58.1-70 48.2-112.9-10.4-52.5-54.3-105.8-110.3-106.2zm-289.4 19.3c32.3 0.8 61.4 25.9 69.6 57 19 51.1-4 118.9-58.7 136-51.7 19.2-109.6-31.1-104.4-84.3-4-49.8 31.2-103.8 83.5-108.2 3.3-0.4 6.7-0.6 10-0.5zm285.1 0.1c78.3-0.5 121.1 112.4 68.9 168.5-20.6 26.3-59.8 36-90.2 21.6-37.3-15.5-59.6-56.8-57.3-96.5-1.4-41.9 25.3-90 70.9-93.1 2.6-0.3 5.2-0.4 7.7-0.5zm-717.9 57.3c-1.1-0.1-2.3 0.1-3.7 0.6-10.2 1.6-8.9 21-20.1 18.9-7.9-4.1-21.3 3.2-12.7 11.4 12.2 7.3 9.7 21.2 13.7 32.7 14.7 12.2 25.7-6.1 30.8-17.6 8.2 0.3 22.8-1.7 21.2-12.8-5.7-6.7-18.1-6.8-21.4-15.6-0.4-6.2-0.3-17.3-7.8-17.6zm1144.6 0.9c-1.2-0.1-2.7 0.1-4.2 0.6-8.9 4.1-0.3 18.4-9.8 22.2-5 4.8-15.8 5.1-17.4 12.5 2.2 9.9 14.6 9.7 22.2 11.6 3.8 12.1 17.9 28.9 30.3 15.8 2.5-12.6 3.3-25.8 15.1-33.7 5.9-12.2-13.7-10.6-20.1-10.5-5.4-6.1-7.2-18.3-16.1-18.5zm-1363.2 1c-53.2 8.6-100.9 53.7-106.8 108.3-12.2 46.5 10.5 102.5 56.8 120.4 28.5 13.6 62.1 23.1 92.8 11.5 40.7-6.7 63.5-46.3 76.5-82 13.3-32.9 4.6-70.2-10.2-101.1-18.9-40.4-67.2-57.5-109.1-57.1zm1573.1 0.6c-3.1 0-6.1 0.2-9.2 0.7-39.1 4.8-82.1 22.8-96.1 62.9-29.4 57.3-6.9 131.8 45 168 63.5 36.6 157.5-2.1 175.6-73 2.9-42.8-3.4-92.5-38.1-122-21.4-18.8-47.9-37-77.2-36.6zm-1569.1 17.8c28.4 0.1 57.9 10.9 78.8 30 42 45.3 24.9 119.2-18.2 157.6-42.8 43.7-127.4 23-145.8-34.8-22.3-59 9.9-141.7 76.4-152.4 2.9-0.3 5.8-0.4 8.8-0.4zm1570.6 0.5c88.6 3 124.3 132.8 62.4 189.5-28.5 21-69.4 30.8-101.7 12.5-50.8-29.2-79.5-100.1-51-154 17-32.9 56-44.9 90.3-48zm-619.8 44.5c-0.4 0-0.8 0.1-1.3 0.1-8.6 2.1-9.4 12.4-10.3 19.6-0.6 11.6-23.5 3.4-18.3 17.9 4.3 6.3 15.6 6.4 18.2 14.6 3.3 6.1 4.6 17 13.7 16.3 15.2 1.6 16.5-16.9 18.8-27.3 8-2.1 16.7-6.9 17.2-16.1-5.8-9.6-24.7-1-28-13.5-1.3-4.9-4.2-11.8-10-11.6zm-325.4 0c-0.3 0-0.6 0.1-0.9 0.1-7.3 1.9-6.9 10.6-10.6 15.7-7.2 5.3-17.9 2.6-25 7.5-3.1 8.8 8.1 16.9 16.2 17.9 3.7 9.4 1.7 25.5 15.5 27.3 12.4 3 14.1-11 18.3-18.8 4.2-7.3 20.3-6.6 17.3-17.9-3.9-7.8-18.5-2.7-18.9-13-0.2-7.3-3-18.8-11.9-18.8zm165.8 61.2c-7.6-0.1-15.2 0.5-22.7 1.7-51.9 5.4-88.4 56.9-96 105.4-0.8 41.5 5.6 93.5 46.1 115.6 32.3 26.1 77.2 22.6 115.4 14.5 76-27.3 93-137.4 41.3-194.9-18.4-28.7-51.2-41.8-84.1-42.3zm-4.1 18.3c35.8-0.6 71.6 16.6 86.4 50.8 19.4 41.4 12.1 93.4-16.1 129-32.1 41.9-103.9 42.2-136.8 1.4-28.6-35.2-36.7-87.1-18.1-128.8 12-25.7 35.8-47.2 64.8-50.2 6.5-1.4 13.1-2.1 19.8-2.2zm-801.2 5.6c-8.8 18.3-29.4 3-40.9 15.1-6.1 16.2 14.1 18.6 22.6 26.5-4.2 10.6-1.9 25.5 12.8 24.3 13.8 4.1 8.2-21.2 21.4-15.3 9.2 4.1 25.5 3.8 27.3-8.5 0.5-15.5-22-13.5-22.6-27.4 1.9-11.4-12-14.6-20.6-14.7zm1598.3 0.4c-1.2 0-2.6 0.3-4.2 1.2-9 1.4-17.9 7.7-15.5 18-4.8 8.9-23.3 11.2-21.3 24.4 3.1 11.4 17.4 10 26.5 7.6 11.2-4.6 9.4 10.1 15.8 14.5 9.7 4.8 25.7-4.4 19.6-16.3-6.4-16.9 22.9-10.4 22.6-26.6 1.8-17.6-21.1-12.8-31.3-12.8-4-3.2-6.7-9.9-12.2-10zm-795.8 126.3c-1.9 0.1-3.9 0.4-5.9 1-7.2 0.4-8.6 7.8-10.5 13.6-8.9 5.1-22.6 2-27.3 13.2-3.1 16.1 18.7 17.6 29.3 19-2.1 11.5 5.8 24.5 18.6 20 12.2-0.2 6.2-14.7 11.1-20.5 9.9-2.5 23.6-0.2 28.4-12 3.4-15.5-17.7-16-27.2-19.5-0.1-9.7-8-14.9-16.5-14.8z"/>
</svg>
