<?xml version="1.0" encoding="UTF-8" standalone="no"?>
<svg
   xmlns:dc="http://purl.org/dc/elements/1.1/"
   xmlns:cc="http://creativecommons.org/ns#"
   xmlns:rdf="http://www.w3.org/1999/02/22-rdf-syntax-ns#"
   xmlns:svg="http://www.w3.org/2000/svg"
   xmlns="http://www.w3.org/2000/svg"
   xmlns:sodipodi="http://sodipodi.sourceforge.net/DTD/sodipodi-0.dtd"
   xmlns:inkscape="http://www.inkscape.org/namespaces/inkscape"
   id="svg2"
   viewBox="0 0 186.57 307.36"
   version="1.1"
   inkscape:version="0.48.4 r9939"
   width="100%"
   height="100%"
   sodipodi:docname="letter_N for Nose for coloring.svg">
  <defs
     id="defs49">
    <linearGradient
       id="linearGradient3768"
       y2="320.12"
       gradientUnits="userSpaceOnUse"
       y1="315.67001"
       x2="253.72"
       x1="206.91">
      <stop
         id="stop3764"
         stop-color="#989898"
         offset="0" />
      <stop
         id="stop3766"
         stop-color="#e6e6e6"
         stop-opacity="0"
         offset="1" />
    </linearGradient>
  </defs>
  <sodipodi:namedview
     pagecolor="#ffffff"
     bordercolor="#666666"
     borderopacity="1"
     objecttolerance="10"
     gridtolerance="10"
     guidetolerance="10"
     inkscape:pageopacity="0"
     inkscape:pageshadow="2"
     inkscape:window-width="640"
     inkscape:window-height="480"
     id="namedview47"
     showgrid="false"
     inkscape:zoom="0.76782926"
     inkscape:cx="93.285"
     inkscape:cy="159.63102"
     inkscape:window-x="224"
     inkscape:window-y="90"
     inkscape:window-maximized="0"
     inkscape:current-layer="svg2" />
  <title
     id="title3983">N de Nariz</title>
  <g
     id="text2816-1"
     style="color:#000000;fill:none;stroke:#000000;stroke-width:2.43610001"
     transform="translate(766.8338,-688.75)">
    <path
       id="path2847"
       d="m -667.5,902.26 c 0.93456,9e-5 1.7366,0.33477 2.406,1.004 0.66927,0.93474 1.0039,1.8041 1.004,2.608 v 84.455 c -9e-5,1.8734 -0.80413,3.01 -2.4121,3.41 -1.3347,0.39998 -2.604,-0.002 -3.808,-1.2061 l -60.787,-77.035 v 74.831 c -2e-5,0.93465 -0.33469,1.7366 -1.004,2.406 -0.66937,0.66936 -1.4714,1.004 -2.406,1.004 -0.93466,0 -1.7367,-0.33467 -2.406,-1.004 -0.66936,-0.66935 -1.004,-1.4714 -1.004,-2.406 v -84.455 c -10e-6,-1.608 0.73465,-2.6794 2.204,-3.2141 1.6081,-0.66926 2.8794,-0.33459 3.8141,1.004 l 60.983,77.035 v -74.825 c -8e-5,-2.408 1.1386,-3.612 3.4162,-3.6121 z"
       inkscape:connector-curvature="0" />
    <path
       id="path2849"
       d="m -628.43,948.4 c 5.8854,5e-5 11.169,2.8101 15.85,8.4302 2.2733,2.6734 3.41,6.2834 3.41,10.83 v 22.67 c -4e-5,1.3387 -0.53471,2.3407 -1.604,3.006 -0.80408,0.26938 -1.4071,0.40406 -1.8091,0.40406 -0.40206,0 -1.003,-0.13468 -1.803,-0.40406 -1.0694,-0.66527 -1.604,-1.6673 -1.604,-3.006 v -22.67 c -4e-5,-3.3427 -1.204,-6.218 -3.6121,-8.6261 -2.4081,-2.408 -5.3508,-3.612 -8.8281,-3.6121 -3.4774,4e-5 -6.4201,1.1704 -8.8281,3.511 -2.4081,2.3407 -3.6121,5.2498 -3.6121,8.7271 v 22.67 c -2e-5,1.3387 -0.53468,2.3407 -1.604,3.006 -0.79997,0.26938 -1.401,0.40406 -1.803,0.40406 -0.40203,0 -1.0051,-0.13468 -1.8091,-0.40406 -1.0693,-0.66527 -1.604,-1.6673 -1.604,-3.006 v -38.116 c -10e-6,-1.4693 0.53466,-2.5386 1.604,-3.208 0.66934,-0.40401 1.2714,-0.60604 1.806,-0.60609 0.53465,5e-5 1.1367,0.20208 1.806,0.60609 1.0693,0.6694 1.604,1.7387 1.604,3.208 v 0.802 c 3.7467,-3.0774 7.8934,-4.616 12.44,-4.6161 z"
       inkscape:connector-curvature="0" />
  </g>
  <metadata
     id="metadata45">
    <rdf:RDF>
      <cc:Work>
        <dc:format>image/svg+xml</dc:format>
        <dc:type
           rdf:resource="http://purl.org/dc/dcmitype/StillImage" />
        <cc:license
           rdf:resource="http://creativecommons.org/licenses/publicdomain/" />
        <dc:publisher>
          <cc:Agent
             rdf:about="http://openclipart.org/">
            <dc:title>Openclipart</dc:title>
          </cc:Agent>
        </dc:publisher>
        <dc:title>N de Nariz</dc:title>
        <dc:date>2010-10-05T23:43:40</dc:date>
        <dc:description>Outlines of an uppercase and lowercase letter n, with a notebook for coloring. Typeface is Let's Trace (public domain).</dc:description>
        <dc:source>http://openclipart.org/detail/88789/n-is-for-notebook-by-mazeo</dc:source>
        <dc:creator>
          <cc:Agent>
            <dc:title>mazeo</dc:title>
          </cc:Agent>
        </dc:creator>
        <dc:subject>
          <rdf:Bag>
            <rdf:li>alphabet</rdf:li>
            <rdf:li>clip art</rdf:li>
            <rdf:li>clipart</rdf:li>
            <rdf:li>coloring book</rdf:li>
            <rdf:li>colouring book</rdf:li>
            <rdf:li>letter N</rdf:li>
            <rdf:li>notebook</rdf:li>
            <rdf:li>remix</rdf:li>
          </rdf:Bag>
        </dc:subject>
      </cc:Work>
      <cc:License
         rdf:about="http://creativecommons.org/licenses/publicdomain/">
        <cc:permits
           rdf:resource="http://creativecommons.org/ns#Reproduction" />
        <cc:permits
           rdf:resource="http://creativecommons.org/ns#Distribution" />
        <cc:permits
           rdf:resource="http://creativecommons.org/ns#DerivativeWorks" />
      </cc:License>
    </rdf:RDF>
  </metadata>
  <g
     id="layer1-1"
     transform="matrix(0.77073974,0,0,0.77073974,-41.840653,-142.58368)">
    <path
       style="fill:url(#linearGradient3768)"
       inkscape:connector-curvature="0"
       id="path3760"
       d="m 217.33,348.7 c 6.7842,-32.705 30.228,-103.05 35.019,-141.27 -1.7294,24.072 -7.0426,56.45 -9.9968,87.517 -3.0127,31.682 -3.6863,62 -7.4927,80.758 1.8553,-7.0809 -6.9467,-22.038 -17.53,-27.004 z" />
    <path
       style="fill:none;stroke:#000000;stroke-width:2"
       inkscape:connector-curvature="0"
       id="path2985"
       d="m 196.65,189.63 c 16.574,67.802 -37.907,104.12 -72.872,125.9 -31.469,19.601 -31.209,57.197 3.3622,65.397 20.128,4.7744 30.552,7.0669 45.714,11.703 23.048,7.0478 14.847,31.749 1.9336,33.592" />
    <path
       style="stroke:#000000;stroke-width:2.52080011;stroke-linecap:round;stroke-linejoin:round"
       inkscape:connector-curvature="0"
       id="path2987"
       d="m 186.6,371.09 c -12.692,0 -20.93,-4.6626 -20.93,-10.939 0,-6.2763 10.289,-11.364 22.981,-11.364 12.692,0 22.981,5.0879 22.981,11.364 0,3.7437 -3.6606,7.0645 -9.3084,9.135 -2.4753,1.5984 14.948,-8.6246 4.0274,-13.298 -3.0119,-1.2889 -9.2243,-3.4678 -17.341,-3.2723 -14.768,0.35564 -17.545,4.7619 -17.196,7.7884 0.62092,5.3872 14.786,10.586 14.786,10.586 z"
       transform="matrix(1.0033,0.1183,-0.08739,0.61709,24.539,130.49)" />
    <path
       style="fill:none;stroke:#000000;stroke-width:2"
       inkscape:connector-curvature="0"
       id="path3758"
       d="m 217.18,348.29 c 31.951,21.436 17.496,46.214 -17.678,43.437" />
  </g>
</svg>
