<?xml version="1.0" encoding="utf-8"?>
<!-- Generator: Adobe Illustrator 16.0.0, SVG Export Plug-In . SVG Version: 6.00 Build 0)  -->
<!DOCTYPE svg PUBLIC "-//W3C//DTD SVG 1.1//EN" "http://www.w3.org/Graphics/SVG/1.1/DTD/svg11.dtd">
<svg version="1.1" id="Layer_1" xmlns="http://www.w3.org/2000/svg" xmlns:xlink="http://www.w3.org/1999/xlink" x="0px" y="0px"
	 width="826px" height="709px" viewBox="0 0 826 709" enable-background="new 0 0 826 709" xml:space="preserve">
<g>
	<polygon fill-rule="evenodd" clip-rule="evenodd" fill="#FFF2CC" points="24.237,89.752 387.503,83.516 798.593,75.494 
		789.087,245.1 805.128,371.93 797.108,426.289 803.345,636.289 712.159,634.506 620.972,642.525 505.722,636.289 388.989,649.059 
		39.979,652.328 37.009,525.494 30.476,288.465 27.206,117.078 24.237,89.752 24.237,89.752 	"/>
	<polygon fill-rule="evenodd" clip-rule="evenodd" fill="#FFBF4D" points="243.444,158.664 220.87,168.465 217.603,190.742 
		232.157,210.051 264.237,210.051 409.782,153.912 411.267,431.039 398.493,453.615 406.515,488.664 339.386,480.645 
		262.454,479.16 177.802,485.691 112.157,498.465 84.831,524.01 81.86,556.09 94.632,591.438 177.802,665.1 305.821,674.604 
		400.276,652.328 464.136,575.396 534.536,591.438 630.474,586.387 734.731,538.566 774.536,483.91 777.804,443.813 
		773.046,415.002 742.753,395.99 691.366,382.922 625.722,378.168 547.304,382.922 483.442,389.455 454.634,395.99 448.101,194.01 
		449.878,142.623 633.741,56.188 635.522,33.615 612.948,18.168 590.675,18.168 585.917,41.633 600.175,59.455 451.366,115.594 
		464.136,89.752 443.345,85 462.651,46.684 449.878,18.168 413.644,18.168 390.476,32.129 379.483,51.436 390.476,70.742 
		400.276,89.752 377.702,101.041 403.247,134.605 272.257,177.971 243.444,158.664 243.444,158.664 	"/>
	<polygon fill-rule="evenodd" clip-rule="evenodd" points="631.958,24.406 637.901,32.723 640.87,43.713 638.788,59.752 
		634.634,68.664 621.562,80.545 590.376,94.803 528.296,119.752 498.593,129.555 474.536,140.545 463.247,148.861 453.149,161.932 
		447.505,179.16 438.593,179.16 424.634,170.248 401.167,168.762 381.267,172.326 354.831,180.645 310.276,197.871 299.583,203.516 
		272.257,214.506 245.821,217.178 234.831,214.506 227.108,209.752 218.792,197.871 215.524,183.316 216.118,180.051 
		216.118,177.674 225.03,177.674 228.593,180.051 229.187,193.713 234.831,197.871 247.901,197.277 252.653,193.119 
		256.218,192.525 262.454,185.396 260.97,172.922 254.731,167.574 241.067,169.654 237.503,171.732 226.515,166.09 225.921,166.09 
		226.515,164.01 241.663,157.18 252.058,155.693 263.048,157.773 270.772,167.574 271.366,169.654 273.444,171.732 347.999,145.297 
		397.009,129.555 432.354,116.188 458.495,108.762 476.612,98.961 528.296,80.545 560.675,68.068 586.216,58.268 588.296,56.188 
		585.03,40.445 585.624,37.477 585.624,35.99 586.812,34.803 592.456,35.99 593.94,42.229 597.505,47.871 600.175,49.949 
		604.038,49.357 608.495,43.119 613.247,41.041 617.407,41.633 622.159,45.793 626.319,45.197 628.989,41.633 628.394,34.803 
		620.675,29.16 614.731,26.486 598.69,27.078 593.345,23.516 596.021,20.842 604.038,18.168 620.077,18.762 631.958,24.406 
		631.958,24.406 	"/>
	<polygon fill-rule="evenodd" clip-rule="evenodd" points="459.087,25 464.136,37.477 463.247,51.436 459.087,61.832 
		453.149,66.584 430.87,75.494 413.644,78.168 393.741,77.574 383.347,69.852 378.593,62.426 378.593,54.703 380.374,44.307 
		384.534,38.961 389.583,37.477 394.335,38.961 396.415,42.229 394.931,49.357 392.257,53.516 392.257,56.783 394.931,64.506 
		400.573,68.068 406.812,66.584 409.483,64.506 408.89,58.268 408.89,54.703 412.454,49.357 418.394,45.793 429.683,44.307 
		434.433,45.793 439.19,49.949 445.425,48.465 451.069,45.793 450.175,38.367 445.425,34.207 415.722,34.207 413.048,32.723 
		410.97,29.16 412.454,22.922 415.722,20.842 449.585,20.842 459.087,25 459.087,25 	"/>
	<polygon fill-rule="evenodd" clip-rule="evenodd" points="801.86,74.307 805.128,78.168 803.644,84.406 802.456,88.564 
		803.046,111.436 800.376,134.902 797.7,142.623 799.78,286.98 807.804,341.633 809.288,373.418 803.644,417.672 809.288,467.574 
		808.69,485.396 806.021,511.832 803.046,531.732 804.536,601.535 808.69,622.922 810.772,627.971 810.175,638.961 800.376,647.277 
		786.417,647.277 757.603,641.039 699.683,642.525 641.464,650.842 613.247,649.949 547.603,644.604 501.265,645.793 
		468.892,652.031 436.515,653.516 433.843,653.516 432.948,652.922 438.593,645.199 447.505,638.365 484.038,636.289 
		510.175,632.129 549.087,630.645 596.021,634.801 669.087,634.207 733.546,625.297 770.077,623.813 787.901,624.406 
		792.651,625.891 794.731,623.813 789.386,581.635 789.979,522.229 794.731,490.445 794.136,443.219 790.571,412.922 
		793.546,376.98 792.062,321.732 782.257,250.445 779.585,211.832 781.069,183.316 785.226,136.98 789.386,121.832 789.386,87.377 
		787.304,85.297 738.296,90.051 716.021,92.129 692.554,91.535 673.247,86.486 646.216,89.455 642.062,88.564 640.278,86.486 
		647.108,79.059 649.78,76.387 677.407,74.902 691.958,76.387 772.753,73.416 777.505,72.229 797.7,72.822 801.86,74.307 
		801.86,74.307 	"/>
	<polygon fill-rule="evenodd" clip-rule="evenodd" points="292.157,83.813 365.524,81.732 367.306,84.406 366.712,88.564 
		358.989,93.615 343.841,96.289 310.276,100.445 278.196,99.852 204.534,96.289 158.196,94.803 94.632,95.693 76.812,97.773 
		51.86,101.932 44.138,101.932 31.96,95.693 24.237,92.723 24.237,87.377 26.911,85.297 53.347,83.813 91.96,85.297 145.128,83.219 
		179.583,81.139 259.187,82.623 292.157,83.813 292.157,83.813 	"/>
	<polygon fill-rule="evenodd" clip-rule="evenodd" points="462.062,91.535 453.741,97.773 444.829,101.041 436.515,103.119 
		419.288,107.277 396.415,112.922 387.503,112.326 379.187,107.277 377.108,104.605 378.593,94.803 381.267,92.723 429.683,87.377 
		440.077,85.297 455.226,86.486 462.062,91.535 462.062,91.535 	"/>
	<polygon fill-rule="evenodd" clip-rule="evenodd" points="662.851,204.109 695.522,270.645 695.522,277.477 728.495,347.871 
		743.644,387.377 747.804,394.801 751.366,402.525 747.206,401.93 725.819,391.535 710.675,359.16 682.456,293.813 670.571,268.268 
		652.456,226.98 618.892,156.289 617.407,155.1 616.515,155.1 612.354,214.506 612.354,246.287 611.763,349.357 611.763,379.059 
		612.354,381.139 612.354,383.219 605.522,385.891 592.456,385.891 590.972,383.813 596.021,272.426 600.772,133.713 
		600.175,132.822 598.69,132.822 535.722,237.377 499.19,300.348 490.87,316.98 475.722,343.713 462.062,365.1 436.515,409.357 
		433.843,412.922 435.03,416.486 436.515,417.672 457.304,409.357 507.505,399.852 551.763,396.289 580.87,396.289 586.216,398.365 
		589.19,401.039 588.296,421.236 585.624,425.396 558.593,427.475 518.495,436.387 497.108,446.188 490.87,453.02 490.87,454.506 
		500.675,453.91 514.335,449.455 534.536,446.783 577.901,444.703 586.812,445.297 589.78,447.971 590.376,455.691 590.376,479.455 
		565.425,480.051 512.554,480.645 492.354,480.645 440.077,467.574 428.788,458.664 419.878,446.188 416.315,436.387 
		416.315,430.744 419.288,428.07 416.315,423.316 417.206,412.922 424.038,401.93 455.226,344.605 488.788,290.545 557.407,171.732 
		589.19,120.645 600.772,104.01 606.417,99.852 609.087,100.445 662.851,204.109 662.851,204.109 	"/>
	<polygon fill-rule="evenodd" clip-rule="evenodd" points="34.632,117.674 36.118,156.289 33.147,192.525 36.118,315.496 
		39.979,360.941 41.464,442.031 40.87,481.236 42.058,558.168 46.218,596.783 51.267,630.645 50.374,642.525 52.454,644.604 
		107.108,643.713 122.851,662.426 120.772,664.506 111.86,663.316 102.948,660.346 58.099,661.236 37.306,661.236 33.147,658.268 
		31.067,655.594 31.96,643.119 36.118,628.566 34.632,603.615 31.067,577.475 26.911,512.426 27.802,473.813 27.802,373.418 
		25.722,337.773 22.751,305.1 17.405,257.277 16.812,201.436 22.751,155.1 22.157,127.477 19.483,115.594 17.405,112.326 
		18.593,107.277 31.067,111.436 34.632,117.674 34.632,117.674 	"/>
	<polygon fill-rule="evenodd" clip-rule="evenodd" points="132.653,135.494 137.405,143.219 143.644,143.219 160.276,142.623 
		168.593,151.535 169.187,154.506 169.187,156.289 130.573,156.289 124.931,147.971 124.335,145.297 120.772,142.623 
		112.454,143.219 108.296,149.455 108.296,154.506 104.435,157.773 95.228,159.258 69.089,159.258 59.583,147.971 59.583,146.188 
		60.772,144.703 70.573,144.703 97.306,145.297 107.702,131.336 111.267,129.555 115.425,128.664 125.821,130.148 132.653,135.494 
		132.653,135.494 	"/>
	<polygon fill-rule="evenodd" clip-rule="evenodd" points="174.831,177.674 173.938,180.645 167.108,185.99 135.325,182.129 
		113.347,182.723 92.554,184.207 91.96,184.803 78.89,174.406 77.999,172.326 77.999,170.842 104.435,169.654 111.267,167.574 
		165.03,168.168 174.831,177.674 174.831,177.674 	"/>
	<polygon fill-rule="evenodd" clip-rule="evenodd" points="438.593,191.041 449.585,192.525 451.069,194.307 450.175,245.693 
		450.175,323.813 446.021,333.316 444.829,334.803 442.753,332.129 441.86,312.822 438.593,309.852 434.433,310.445 431.763,314.01 
		432.354,337.773 432.948,349.949 431.763,349.949 430.87,347.277 427.603,344.605 423.149,345.197 420.474,348.465 
		419.878,371.336 417.206,381.139 413.048,386.783 411.563,386.783 410.97,365.99 410.077,305.693 410.077,181.238 411.563,180.051 
		422.554,182.723 438.593,191.041 438.593,191.041 	"/>
	<polygon fill-rule="evenodd" clip-rule="evenodd" points="280.276,231.732 316.218,302.426 332.257,334.803 344.731,359.752 
		385.425,452.426 388.692,457.18 388.099,466.09 388.099,472.328 390.177,482.723 390.177,484.801 384.534,484.207 377.108,471.732 
		369.386,450.941 352.157,416.486 330.772,365.1 301.96,307.773 290.077,286.387 285.921,277.477 284.435,275.99 283.841,275.99 
		282.356,277.477 294.237,427.475 298.396,482.129 299.583,489.555 298.396,491.039 285.325,488.365 283.247,484.207 
		281.761,471.139 277.603,423.91 272.851,357.672 267.206,312.822 265.722,283.713 264.534,258.168 263.048,256.684 
		257.702,264.109 227.108,318.762 212.851,341.633 151.96,444.703 139.483,465.494 120.772,494.604 115.425,501.438 
		105.622,505.002 104.435,505.002 101.464,500.842 143.644,425.99 178.099,370.744 219.683,298.861 259.187,233.813 
		268.692,220.742 273.444,221.336 280.276,231.732 280.276,231.732 	"/>
	<polygon fill-rule="evenodd" clip-rule="evenodd" points="700.87,401.039 725.226,407.277 754.038,421.832 758.788,423.316 
		763.247,438.465 760.278,443.219 754.038,451.535 727.304,464.902 721.069,464.902 716.021,457.773 714.829,452.426 
		701.464,439.949 688.394,432.82 669.979,428.07 637.304,424.801 615.917,425.396 609.683,419.752 608.495,415.594 609.087,400.445 
		611.167,396.881 624.237,393.615 628.989,392.723 662.257,394.801 700.87,401.039 700.87,401.039 	"/>
	<polygon fill-rule="evenodd" clip-rule="evenodd" points="651.265,446.188 656.909,449.455 662.257,458.664 663.741,467.574 
		642.062,473.219 625.722,477.078 617.999,477.971 611.763,477.971 609.087,473.219 608.495,445.297 613.247,441.139 
		616.515,440.547 637.304,442.031 651.265,446.188 651.265,446.188 	"/>
	<polygon fill-rule="evenodd" clip-rule="evenodd" points="781.665,460.744 758.198,478.566 725.226,494.604 687.804,505.002 
		637.304,512.426 608.495,512.426 581.464,513.91 551.763,513.91 511.069,512.426 506.909,510.941 492.354,509.16 481.366,505.594 
		472.456,506.188 468.296,510.941 469.483,517.475 473.644,520.148 489.683,524.309 487.603,527.574 489.683,538.861 
		497.108,548.961 512.554,559.357 538.101,567.672 563.644,571.832 603.442,571.832 625.722,567.672 657.505,556.09 
		695.522,532.623 716.021,512.426 736.216,506.188 758.788,495.199 774.237,486.289 776.319,484.207 769.19,505.594 
		747.804,533.219 715.425,559.357 691.366,573.91 654.536,588.465 620.077,596.783 580.87,599.752 552.354,598.268 519.979,592.031 
		483.442,580.148 479.288,578.07 477.804,556.684 475.722,550.445 475.128,541.535 467.407,527.574 455.226,512.426 430.87,499.357 
		424.634,497.873 417.804,494.604 406.812,491.039 401.167,479.455 399.979,464.01 402.058,448.861 402.653,447.971 415.128,466.98 
		437.7,481.236 453.149,485.396 488.198,491.039 493.843,493.713 513.149,495.199 523.546,496.684 564.237,495.793 603.442,493.713 
		612.354,492.525 623.644,489.555 631.069,488.961 637.304,486.881 703.546,480.645 732.651,475.002 751.958,465.494 
		772.159,451.535 776.909,444.109 779.585,444.703 781.665,460.744 781.665,460.744 	"/>
	<polygon fill-rule="evenodd" clip-rule="evenodd" points="393.741,499.949 418.394,506.783 436.515,517.475 451.069,529.654 
		456.417,538.861 456.417,551.93 452.257,559.357 441.265,567.078 426.118,571.236 420.474,569.752 405.921,554.01 382.751,540.941 
		352.157,533.219 330.772,529.654 305.228,528.465 302.554,521.635 301.067,496.684 304.632,493.119 323.938,492.525 
		362.554,494.604 393.741,499.949 393.741,499.949 	"/>
	<polygon fill-rule="evenodd" clip-rule="evenodd" points="284.435,499.949 283.247,518.664 283.247,526.387 279.683,529.059 
		236.019,529.654 215.524,535.297 198.89,542.129 198.89,545.691 203.048,549.852 256.812,546.289 282.356,545.691 284.435,548.365 
		283.841,567.078 282.356,571.832 279.089,574.801 241.067,573.316 219.683,573.91 173.938,569.752 141.563,561.438 
		107.702,548.961 101.464,542.129 99.386,537.377 102.356,526.387 107.702,518.07 116.019,513.316 124.335,510.346 147.206,503.516 
		154.632,500.842 222.356,495.793 247.306,495.199 255.622,493.119 281.167,495.199 284.435,499.949 284.435,499.949 	"/>
	<polygon fill-rule="evenodd" clip-rule="evenodd" points="89.88,525.494 87.802,535.891 88.989,548.365 93.147,553.418 
		111.86,565.594 162.948,578.961 200.374,583.713 227.108,587.277 247.901,590.547 301.96,595.594 338.493,595.594 384.534,593.219 
		419.878,587.277 441.265,578.07 459.979,563.516 463.247,558.168 464.731,556.684 465.327,557.277 467.407,565.002 
		466.216,578.961 464.731,583.119 459.087,590.547 455.226,600.941 437.108,625.297 415.722,645.793 386.612,664.506 
		359.88,675.793 321.267,683.813 276.415,688.861 243.147,690.941 214.632,685.891 179.583,674.309 153.444,661.236 
		144.237,654.406 140.97,652.922 113.938,625.891 95.228,600.941 85.128,580.744 93.147,584.902 100.87,591.438 107.702,593.219 
		115.425,596.188 120.772,596.188 127.901,600.346 131.167,607.773 150.476,623.813 192.653,647.873 209.286,653.516 
		219.683,655.594 234.237,659.16 236.911,661.236 260.374,662.426 311.464,656.188 343.247,647.277 375.622,630.645 
		384.534,623.813 392.851,622.922 411.563,618.168 415.722,615.494 423.149,614.01 426.118,609.852 424.634,603.615 
		420.474,600.941 410.077,601.535 405.921,603.615 384.534,609.258 366.712,611.336 345.921,614.902 290.673,616.09 
		254.138,613.418 227.108,609.258 190.573,598.268 169.187,592.623 157.603,590.547 134.731,585.793 107.702,577.475 
		91.067,566.486 85.128,562.922 77.999,556.09 76.812,547.773 81.563,529.654 87.802,524.309 88.396,524.309 89.88,525.494 
		89.88,525.494 	"/>
	<polygon fill-rule="evenodd" clip-rule="evenodd" points="347.405,554.01 356.315,558.764 361.366,560.248 366.118,571.236 
		365.524,578.07 359.88,582.229 345.325,583.713 310.87,580.744 304.632,578.961 301.96,575.99 302.554,546.881 303.741,545.691 
		321.267,546.289 347.405,554.01 347.405,554.01 	"/>
</g>
</svg>
