<?xml version="1.0" encoding="UTF-8" standalone="no"?>
<svg xmlns:rdf="http://www.w3.org/1999/02/22-rdf-syntax-ns#" xmlns="http://www.w3.org/2000/svg" height="1887.4pt" width="1409.2pt" version="1.1" xmlns:cc="http://creativecommons.org/ns#" xmlns:dc="http://purl.org/dc/elements/1.1/" viewBox="0 0 1409.1869 1887.3765">
<g transform="translate(1.2179 1.3173)">
<g>
<path d="m695.63 54.379c-12.508 5.0267-20.145 17.828-22.613 30.617 13.053-3.1188 26.617-7.5787 40.084-4.7715-2.0429-9.9526-5.7718-23.921-17.471-25.846zm-52.797 27.16c-7.4116 16.717-19.472 31.486-24.334 49.346-7.5441 31.335 2.1111 65.282 21.885 90.248 2.1048-5.6184 8.6449-8.833 10.602-13.994-9.8478-24.96-11.034-52.971-6.3027-79.137 2.5521-11.773 6.7536-24.397 16.598-32.168-4.2354-6.7538-10.465-12.437-18.043-15.139l-0.4043 0.84375zm15.775 135.84c-5.4024 4.5917-12.897 6.9902-17.289 12.562-1.5858 15.324 3.9583 34.125 19.39 40.319 8.2459 2.3311 16.225 5.6959 23.995 9.1674-10.328-14.472-26.952-26.701-28.623-45.637-0.61256-6.5349 2.5405-12.428 5.2773-18.088l-2.75 1.6758zm-39.869 99.197c-29.983 1.5428-54.224 26.807-61.988 54.644-1.0155 5.3956-0.83696-3.5769-1.0453-5.0011-0.67583-13.771 3.0476-27.114 7.2986-39.996-1.3403-0.75254-4.09 3.9908-5.5389 6.1367-13.03 20.838-16.578 45.972-19.102 69.895 12.614 89.857 8.8791 182.33-12.426 270.59-11.758 29.919-19.504 63.93-44.9 85.817 0.68956 1.0459 6.6963-0.0748 9.5781-0.18546 24.301-2.511 48.607-14.484 61.65-35.775 22.112-28.333 28.607-64.81 34.877-99.25-6.8077-44.855-19.156-88.71-23.917-133.86-1.8409-12.906-3.7148-26.739 1.8354-39.04 12.971 77.801 26.405 156.12 53.213 230.57 1.3042 17.208 4.7106 34.484 11.082 50.541 9.308 18.893 26.953 32.071 35.974 51.195 26.499 45.706 52.77 91.547 80.168 136.72 5.0406 2.304-2.7982-8.5876-3.7578-11.539-27.47-53.79-52.06-109.1-80.39-162.47-26.23-68.11-36.32-140.82-55.34-210.96-12.08-39.394-34.435-77.023-32.758-119.44 0.30561-21.677 10.927-41.846 22.979-59.274 11.521-16.051 27.741-29.365 47.086-34.693-7.771-3.1777-16.134-5.0414-24.561-4.6191zm308.95 118.82c-1.6072 5.7998 0.4624 14.91-7.5254 16.338-4.5521 1.2674 0.45346 7.4632 0.2168 11.057 14.324 63.909 7.8461 131.43 29.509 193.93 7.2351 26.58 20.03 52.064 38.596 72.521 27.549 27.869 63.325 48.643 82.112 84.192 40.122 68.912 49.711 150.78 89.201 219.97 8.3486 10.669 15.708 22.342 26.974 30.249 16.172 13.1 34.721 23.561 54.893 28.996-0.8356-4.2444-6.009-6.6443-6.5488-10.523 6.4447-0.4115 0.7956-2.13-1.6738-4.4375-8.9924-8.3266-11.796-21.796-22.824-28.266-29.429-26.235-42.925-64.336-60.792-98.417-24.468-57.767-39.168-121.17-77.856-171.93-12.445-15.654-28.292-28.226-42.157-42.587-14.828-15.142-31.445-29.263-40.904-48.641-23.548-43.209-31.948-92.853-36.348-141.39-0.35992-38.693-3.2473-79.633-24.246-113.33-0.20898 0.75846-0.41796 1.5169-0.62695 2.2754zm-450.3 324.78c-5.7339 3.6149-13.171 3.995-18.701 8.3555 18.829 13.462 25.018 38.789 20.98 60.731-2.5467 16.019-8.8186 31.387-17.756 44.939 15.776 9.4491 29.575 21.709 44.4 32.482-4.2433-12.219-16.723-19.404-20.535-31.801 25.987-30.358 23.919-78.771-1.7285-108.67-2.0592-1.8671-4.2102-5.9615-6.6602-6.0352zm301.32 4.0352c6.0614 54.245 27.327 105.21 37.446 158.62 7.4534 35.923 14.844 72.484 31.957 105.3 8.7737 19.012 17.82 39.318 34.874 52.427 13.551-4.6628 26.38-12.356 35.482-23.586-4.9184-3.5782-9.3037-7.5783-14.854-10.276-32.959-21.085-50.605-58.042-63.722-93.449-11.782-29.595-17.417-61.066-26.53-91.51-9.586-33.404-19.841-66.793-33.3-98.827-1.2346-2.7042-1.1784-0.23756-1.3536 1.302zm-421.3-2.2617c-78.406 3.5481-153.87 48.66-193.87 116.24-9.0345 15.477-16.358 32.112-20.877 49.441 2.394 14.432 11.954 26.175 20.365 37.617-0.88207-49.109 23.11-98.388 63.381-126.99 42.159-28.828 92.696-42.931 143.01-48.311 28.583-5.5697 57.962-8.617 86.912-4.9681-1.92-5.263-2.098-12.479-5.6973-16.398-31.211 0.86293-61.937-7.331-93.217-6.6309zm327.39 90.799c-5.6402 42.17-34.304 77.152-66.373 103.42-4.9005 4.0426-9.9467 7.9038-15.061 11.672 3.327 2.0195 6.5642 8.4635 10.635 4.5644 25.899-14.817 46.736-36.9 66.452-58.833 6.357-12.637 12.714-25.286 19.605-37.654-4.9432-8.7276-10.21-17.274-14.824-26.186l-0.43359 3.0117zm-545.4 103.36c-2.0351 49.043 20.117 95.521 48.479 134.25 4.3865 6.9203 10.117 12.517 16.883 17.106 12.95 10.492 25.36 21.721 38.926 31.466-3.2874-11.443-14.982-17.794-20.977-26.799 5.2187 3.8205 10.157 8.5336 16.637 10.092-1.1287-8.0954-3.8674-15.94-5.6016-23.838-29.426-31.583-53.855-69.042-65.004-111.01-10.246-11.036-21.463-21.451-29.23-34.455-0.0371 1.0606-0.0742 2.1211-0.11133 3.1816zm461.25 11.836c-8.6176 5.3399-17.373 11.779-27.941 12.268 1.9601 6.3404 9.6965 6.6207 14.719 4.0371 5.8123-2.5515 11.661-5.0953 17.703-6.8848 3.9084-2.953-1.7014-9.2491-4.4805-9.4199zm574.63 118.28c-7.6874 9.6005-4.5705 24.314 5.0781 31.324 5.728 4.5865 13.178 7.2772 20.553 6.623-8.2796-3.6916-13.866-11.368-16.312-19.907-2.3407-6.6056-4.316-13.518-8.4808-19.27l-0.5629 0.8266-0.275 0.4039zm-253.17 1.2754c-7.3674 0.6268-11.771 7.9858-18.85 9.5742 44.22 20.905 94.032 22.452 141.44 30.717-20.542-18.288-49.116-20.433-75.024-24.352-15.481-2.3669-31.17-6.4794-44.306-15.353-1.031-0.4145-2.1466-0.6206-3.2578-0.5859zm10.432 43.289c-19.027 0.3434-37.845 3.6757-56.398 7.6836 18.594 13.201 42.756 11.587 63.969 7.2559 13.509-2.7484 27.048-5.5298 40.684-7.3438-15.196-6.1117-31.995-7.7768-48.254-7.5957z" fill="#964c35"/>
<path d="m676.33-0.99023c-16.69 2.1655-35.72 9.8982-41.4 27.222-6.0028 13.688-22.393 15.993-33.834 23.174-11.424 8.4118-15.156 26.089-8.0859 38.307 10.053 13.775 33.185 13.383 43.258-0.22266 2.1634-3.829 6.9372-6.2184 10.666-2.9238 7.4559 3.7115 11.705 10.95 15.805 17.775 1.9668 3.53 6.8822 2.5638 7.9277-1.1328 4.7139-11.43 4.2188-24.984 12.66-34.816 3.5528-4.1906 8.2039-9.2918 13.762-9.7363 11.85 5.0279 12.546 19.574 15.775 30.219 3.9253 15.994 7.2984 32.163 12.262 47.857 0.43036 6.6756 4.451 12.726 5.5297 19.451 4.566 14.577 10.797 31.577 26.314 37.565 10.92 5.3361 22.912-0.61808 34.116 2.6504 14.185 2.5364 28.427 14.865 26.189 30.433-1.6208 24.497-13.207 48.459-32.759 63.586-22.155 23.05-39.926 53.217-39.939 86.002 0.31452 19.208 8.1437 39.958 25.66 49.758 19.762 12.105 44.752 12.983 63.303 27.174 4.5237 5.4421 0.83017 13.211-5.0644 15.74-17.127 13.201-27.441 35.821-24.428 57.402 3.1372 10.988 15.296 15.126 25.217 17.672-8.7213-8.233-18.344-20.466-13.916-33.117 3.8252-8.947 14.73-10.524 21.545-16.482 11.63-7.9914 24.182-20.211 22.129-35.642-1.7912-8.5632-5.2236-17.585-13.148-22.296-7.2626-5.5416-19.524-9.6597-19.129-20.667 3.3522-6.921 12.245-10.032 19.604-11.199 13.834-2.0642 28.692 4.1049 36.799 15.818 10.741 12.545 19.271 30.281 36.836 34.229 6.9539 1.6266 9.0137-7.2884 8.9199-12.467 1.6798-5.6505-0.86734-11.915 0.46289-17.271 6.8024 0.46118 9.1986 8.6244 13.035 13.238 9.3342 15.203 15.998 32.003 20.572 49.203 1.7984 10.959 3.2478 22.398-0.55469 33.115-2.8309 11.603-3.7308 24.784 1.543 35.676 10.225 5.2484 21.452-2.6567 27.816-10.477 21.634-39.537 36.713-84.868 31.937-130.48-1.0359-20.942-14.399-41.1-34.246-48.627-27.635-13.69-51.275-41.532-50.623-73.601-0.10298-9.5923 2.0583-19.584 8.75-27.018 7.2786-8.8175 14.852-18.181 16.392-29.913 3.627-15.553-3.1171-31.472-13.46-42.944-16.437-20.632-44.162-26.096-63.676-42.799-17.12-10.16-30.68-30.27-25.51-50.72 2.78-23.339-13.5-44.501-32.9-55.538-14.83-8.449-31.62-13.225-48.72-13.548-19.6-1.165-41.55-0.782-57.43-14.259-13.45-9.725-28.82-17.38-45.95-15.355z"/>
<path d="m618.33 988.37c-9.7847 3.8698-17.802 12.189-28.574 12.867-4.2395 3.1495 1.3944 8.5273 2.8184 11.557 5.9856 9.8513 11.118 20.267 16.746 30.258 47.648 30.384 84.634 81.37 89.105 138.87 1.1343 12.336 1.7701 25.523-4.3008 36.822-7.9148 16.68-22.807 28.331-37.81 38.303-41.603 38.488-81.235 79.043-122.02 118.38-33.182 30.461-67.535 59.721-99.017 92.012-53.218 52.95-105.08 107.33-154.25 164.06-12.423 15.222-25.605 30.12-34.555 47.748-30.123 43.92-77.782 70.43-119.23 102.2-6.746 3.8657 0.17185 2.3725 4.0727 1.9027 42.41-5.5273 78.706-32.726 105.17-65.093 13.282-16.038 24.753-33.515 34.878-51.693 0.82341 2.572-2.5108 10.266 1.3619 5.2161 15.705-20.025 32.613-39.145 46.579-60.459 49.397-68.825 110.41-129.57 180.87-176.8 33.588-25.758 66.239-53.02 94.752-84.399 25.679-24.907 44.952-56.932 76.447-75.312 21.797-16.278 45.117-35.011 52.961-62.27 5.5893-19.625-2.1032-39.582-7.2197-58.42-19.629-61.991-58.09-115.65-98.091-166.05l-0.69727 0.28907zm-204.74 173.63c-10.706 5.7695-26.036 2.4755-33.893 13.373-38.723 54.35-66.804 116.04-83.635 180.56 0.70818 5.8084 5.104-6.5409 7.0039-9.3685 18.784-37.094 39.271-73.624 65.744-105.87 16.98-23.725 47.348-36.465 58.59-64.59 2.5668-8.0843-6.8268-14.215-13.811-14.107zm-144.21 316.68c-11.398 35.142-25.2 69.785-45.13 100.96-13.046 23.513-32.424 47.591-60.306 53.005-16.437 8.8262-33.471 17.576-49.033 27.336-2.1277 15.713-8.7754 30.38-16.824 43.982 23.639-15.386 48.15-29.424 71.772-44.813 58.007-41.425 94.103-109.7 101.46-180.04-0.58852-2.8197 0.0704-3.5411-1.9434-0.4257zm-172.1 202.7c-18.708 24.946-44.654 43.392-63.737 67.915-2.3044 4.8428-4.6941 9.6448-7.2979 14.335 32.261-18.698 56.948-48.874 72.884-82.165 0.99039-2.5501-0.76458-0.7911-1.8489-0.085zm-19.816 46.58c-15.506 18.295-38.828 32.022-46.123 56.207-1.4712 5.0285-1.6334 10.311-1.4316 15.512 14.145-24.978 32.82-46.95 49.133-70.496 0.60735-2.7714 1.2303-2.7566-1.5781-1.2226z" fill="#4e4e4e"/>
</g>
<path d="m625.45 114.07c-23.646 23.948-21.699 66.51 2.5586 89.32 2.3802 3.3185 4.2526 2.8671 5.2539-0.87313 2.6422-5.6608 5.4143-11.918 10.467-15.701 7.0071-3.5715 17.544 1.8974 22.752-5.4551 1.209-3.3941-4.2161-5.5695-6.8184-7.4316-8.2176-4.9855-20.921-4.7266-26.184 4.3867-2.2876 2.921-3.8331 8.6003-5.709 9.9043-12.766-23.273-8.6983-51.181-0.15618-75.074 2.8661-3.6208-2.0796 0.79416-2.1641 0.92335zm97.205 9.748c-13.389 7.1309-28.204 18.015-29.705 34.371-0.23675 3.0733 0.31818 6.1316 0.99805 9.1152 8.4716-12.146 20.075-21.941 33.262-28.672 0.628-5.3949-2.0215-10.352-3.498-15.371l-0.88474 0.46609-0.1719 0.0905zm9.4336 33.539c-5.078 6.2323-15.417 12.04-13.256 21.523 6.3327 6.8021 15.847-0.93782 23.159-2.0297-2.6908-6.072-6.7115-13.723-8.7744-20.861l-0.63671 0.7711-0.4922 0.59609zm-72.719 45.311c-7.895 0.46848-16.933 2.7018-20.662 10.502-3.6876 6.1381-7.1535 16.269-16.186 14.648-6.0082-1.3316-10.852-5.4426-16.609-7.459 3.2527 12.509 18.565 18.921 30.045 13.512-7.4051 20.675 8.0027 45.914 29.914 48.355 23.412 6.3806 37.479 28.078 53.066 45.018 5.9442 6.2689 12.043 12.943 19.848 16.652 4.1802-0.88086 0.42019-6.234-0.98828-8.043-14.279-24.124-31.199-49.35-57.973-60.725-9.9353-5.2489-23.194-5.3794-29.689-15.771-5.7808-8.3438-7.9499-19.181-6.6562-29.066 5.783-5.0252 12.775-8.4688 18.982-12.883 4.9356-2.303 14.224-3.0295 14.221-10.227-1.234-3.2875-6.7132-3.2114-10.039-4.1484-2.4055-0.35349-4.8445-0.47582-7.2734-0.36524zm-43.043 93.928c-20.815 0.002-43.531 8.5236-53.832 27.721-8.3664 17.514-11.093 38.142-6.8602 57.111 1.7395 0.45711 1.9556-7.7476 3.3289-10.646 7.8274-26.883 31.878-51.45 61.051-52.234 11.437-0.065 22.501 3.676 32.928 8.1719 15.903 7.8646 25.324 24.005 30.227 40.445 11.454 36.335 6.9762 74.926 6.8694 112.4-0.71173 42.923-0.1516 86.95 13.364 128.12 23.847 55.584 57.805 106.43 78.046 163.6 20.232 51.442 34.033 105.07 48.02 158.44 13.335 38.716 27.705 79.807 58.976 108 7.6239 6.6148 15.925 12.742 25.293 16.621-19.223-23.7-33.875-50.857-44.413-79.489-12.187-33.154-21.679-67.205-30.854-101.28-9.8977-41.714-17.536-84.433-34.975-123.87 28.062-13.836 55.533-28.891 84.053-41.695 19.001-10.195 33.069-29.281 35.615-50.866 3.0805-20.365-1.5487-40.923-7.6583-60.245-0.6552-8.9318 4.8592-17.109 3.7773-26.111-4.9148 3.9129-5.0924 10.616-8.0156 15.725-21.78-36.344-22.322-80.881-15.425-121.51 0.67616-4.1946 2.8766-12.35-1.657-4.9262-17.479 22.344-20.456 52.696-14.897 79.78 4.0538 22.01 12.553 42.934 20.906 63.509-2.7317 12.513-16.227 17.93-25.096 25.527-14.056 11.315-32.371 15.159-48.371 22.748-0.39296 1.4659 5.2583 0.55863 7.5452 0.37701 26.364-2.8659 52.26-14.787 69.596-35.189 5.7139 22.813 1.1938 50.474-17.889 66.113-16.904 12.403-37.221 19.556-57.906 22.131-14.96 3.6616-26.148 16.491-31.318 30.559-26.207-56.773-64.718-108.93-77.047-171.21-2.9456-14.146-3.6268-28.59-4.4844-42.967 36.308 29.257 64.884 68.326 81.217 111.95 1.4521 5.4163 2.7168 10.958 5.4453 15.916 6.6976-13.781 11.15-28.6 15.893-43.023 14.166-17.489 36.402-24.702 56.625-32.445-19.801-7.5456-44.011-0.19868-55.777 17.553-1.5802 2.8282-0.56974-3.3979-1.1934-4.7129-3.607-31.576-30.191-58.409-61.035-64.367 16.469 12.641 30.641 28.811 38.837 48.011 8.8293 19.864 12.052 42.48 7.6474 63.938-1.6304-34.003-22.912-63.385-47.164-85.695-12.706-11.838-26.532-22.4-40.648-32.488-5.9353-54.913-4.2726-111.71-22.217-164.65-7.5876-21.462-21.496-43.761-44.518-50.699-10.401-2.8714-21.213-4.3324-32.007-4.1365zm-81.947 91.996c0.15649 30.5 1.8217 60.989 0.65234 91.49 0.37888 33.008-2.4422 65.99-4.9688 98.865-3.9848 40.975-10.459 82.512-27.486 120.32-8.4802 17.546-22.425 35.513-42.721 38.934-62.6 3.4445-126.85-0.1001-187.47 18.85-40.416 10.159-77.613 32.99-104.32 65.051-16.16 16.523-24.419 38.65-37.432 57.424-7.7412 15.277-7.63 32.935-12.74 49.012-13.511 66.214 20.15 138.53 78.481 172.13 4.432 1.8628-2.8993-5.5601-4.0118-7.5917-28.908-38.434-52.038-84.634-51.068-133.74 9.6016 13.03 20.872 24.918 33.078 35.486 16.388 13.61 33.887 25.911 52.432 36.406-0.52998 24.641 2.1282 49.333 6.416 73.555 0.9991 4.6356 3.2501 10.362 3.3262 14.393-6.9568-3.1186-12.002-9.2635-18.965-12.416 4.8536 13.881 21.149 19.803 24.662 34.414 2.9454 8.5251 3.8586 20.775 13.68 24.41 5.0232 2.3051 6.8828-5.0056 11.445-6.164 8.9324-5.2961 17.606 2.1533 26.059 4.5164 24.031 8.3121 49.854 11.375 75.168 9.0031-28.24 36.675-56.454 74.178-75.371 116.68-35.195 86.364-34.999 183.24-75.356 267.82-10.453 21.523-22.799 42.451-40.148 59.116-5.5432 5.8661-11.021 11.837-15.659 18.463 26.754-4.1318 46.693-25.478 59.978-47.651 13.479-21.98 26.037-44.623 35.172-68.806 7.0437-17.29 12.596-35.11 18.171-52.888 3.5201-9.6019 8.5959-19.004 8.0074-29.515 4.4077-49.79 18.034-98.475 35.954-145.09 16.421-41.303 37.45-81.025 63.892-116.75 9.1485-7.9828 22.745-5.0829 32.869-11.24 8.5771-3.9587 18.59-8.6674 21.949-18.252-8.8762-6.1368-20.205-3.1958-30.012-1.75 6.1095-9.6005 15.546-16.635 21.205-26.541-15.969 6.8222-23.228 27.367-41.62 29.454-41.263 6.1134-84.538 2.8885-123.28-13.286-11.112-28.158-12.824-59.562-14.275-89.002 7.7824 2.2023 17.312 9.2013 25.219 3.3008 2.3596-13.809-10.25-25.167-22.777-27.848 4.9642-19.804 7.8408-40.618 18.675-58.302 26.333-48.244 73.663-82.606 125.11-100.1 4.3408-1.7602 8.9044 4.426 13.322 5.8652 22.287 15.042 45.444 29.131 65.014 47.73-47.546 3.8135-96.238 20.086-130.51 54.438-28.447 28.167-40.434 69.462-38.431 108.79 0.99723 21.223 4.7759 42.513 12.026 62.464 2.5952 2.3095 0.66891-7.2959 0.99987-10.23-1.6194-64.652 31.739-126.96 80.903-167.7 23.42-19.553 50.551-34.659 79.729-43.57 25.58 19.519 47.217 43.615 66.355 69.385-3.6309 2.8453-10.389 3.418-11.5 8.5332 2.8197 8.8265 13.645 8.2396 20.93 10.174 8.0521 1.9136 9.6842 11.481 14.075 17.291 15.688 28.611 26.591 59.786 33.733 91.576-0.2017 25.092-17.851 44.902-33.184 62.92-16.692 17.833-34.279 34.918-50.158 53.542-12.789 13.542-20.5 30.841-30.869 46.171-53.57 86.425-109.54 173.49-186.12 241.56-43.893 48.097-80.717 102.55-110.37 160.45-0.0823 2.1998 5.6601-3.6512 7.7635-5.1849 52.007-45.042 76.885-112.72 127.68-158.88 57.687-57.336 111.75-118.37 161.64-182.59 38.223-54.935 74.341-112.42 123.68-158.3 18.617-22.22 21.256-53.532 15.561-81.008-6.038-32.039-21.337-61.293-38.094-88.887-1.5953-3.7691 3.6886-1.6545 5.4297-3.084 8.094-2.6839 14.721-8.3494 22.5-11.705 43.39 54.714 85.152 113.92 101.97 182.69 4.5471 15.621 6.1887 32.962-1.2513 48.012-11.166 23.639-32.487 40.341-53.43 54.945-30.743 19.602-49.732 52.017-76.012 76.412-29.129 31.887-62.709 59.398-97.361 85.027-71.955 49.177-133.49 112.86-182.99 184.42-0.76888 5.5655 6.6438-4.7258 9.1574-6.8477 64.514-68.556 134.92-132.83 216.15-181.07 35.912-24.765 70.528-52.139 98.576-85.781 25.637-25.961 44.951-57.619 72.369-81.901 15.265-16.304 40.935-21.736 51.213-42.952 4.8705-9.2084 5.3181-20.583-0.0963-29.68-4.1057-9.0125-12.87-15.504-14.052-25.712-19.075-70.115-64.126-129.89-115.11-180.3-3.8235-2.795 3.4307-5.5393 4.973-8.3905 19.128-19.692 36.896-41.607 47.996-66.847-2.6764-0.0289-7.7466 7.3151-11.264 10.465-17.494 18.211-35.929 37.24-58.468 48.531-6.4134-5.0544-11.909-11.443-19.432-14.959 3.0354 6.5821 8.3157 11.627 12.824 17.041 1.4086 3.6724-4.6504 2.4973-6.4961 4.0586-6.5154 1.9641-13.491 8.2174-20.557 5.2344-22.126-29.483-46.359-57.9-74.804-81.59-12.285-9.5765-24.36-19.508-37.622-27.734 14.888-23.781 23.65-54.271 13.973-81.64-3.1172-9.0916-9.6819-17.299-16.43-23.364 9.557-4.0554 20.554-6.586 27.229-15.307 20.881-22.766 28.088-53.799 39.02-81.808 21.118-90.551 24.997-185.27 10.554-277.14-0.43109-3.2555-2.2033-6.1373-4.6406-8.291-0.002 0.85352-0.004 1.707-0.006 2.5606zm392.51 35.273c0.12481 6.593 0.15132 13.296 4.4629 18.691 17.577 33.459 18.577 72.108 19.529 109.04 5.5574 53.878 15.867 109.74 47.346 155.09 21.804 24.749 47.042 46.213 69.528 70.254 39.585 49.931 54.595 113.15 78.615 171.03 9.6618 20.366 19.485 40.755 30.252 60.605 10.242 17.977 22.517 35.669 39.611 47.688 3.4949 0.6879-2.933-5.6667-4.2402-8.0531-21.323-31.09-34.242-66.977-48.984-101.47-15.112-36.731-27.698-74.443-39.497-112.36-14.191-39.548-37.438-75.976-68.601-104.3-47.388-47.573-82.616-109.54-89.568-177.04-5.4622-12.872-2.797-27.169 0.31367-40.121-1.4595-12.749 1.919-26.312-3.8176-38.391-9.4922-18.769-17.737-39.697-35.018-52.879 0.0228 0.73307 0.0456 1.4662 0.0684 2.1992zm-362.22 23.051c-10.326 18.852-2.621 40.932-1.1607 60.82 5.8526 39.88 15.964 79.036 22.364 118.77 7.328 27.859 10.801 56.592 12.996 85.217 8.3012 30.027 29.037 55.106 53.051 74.23 15.647 34.559 32.516 68.586 52.2 101.04 23.106 39.141 49.683 76.847 83.104 107.88 6.1953 4.7748 12.329 9.9122 19.848 12.486-43.39-56.15-77.4-118.67-113.42-179.62-12.34-20.46-23.24-41.82-36.42-61.74-11.86-15.49-27.35-29.54-30.84-49.68-3.47-11.968-5.1321-24.415-6.513-36.704-27.259-76.013-40.581-155.9-53.814-235.28-0.46289 0.8483-0.92578 1.6966-1.3887 2.5449zm344.85 261.38c17.253 24.435 28.449 52.915 32.624 82.466 10.251 43.971 39.731 79.755 67.928 113.67 28.115 35.622 62.984 65.004 97.168 94.5 19.048 19.675 43.846 36.701 52.075 64.174 4.6266 12.666-2.346 25.333-2.4498 38.171-1.0587 11.788 2.7607 26.597 15.273 30.672 23.506 10.46 52.354 7.2097 72.832 24.296 2.6466 1.5231 8.8047 10.795 6.1292 3.3583-4.3652-16.853-19.25-31.05-36.839-32.778-8.1598-2.1798-16.239-4.281-24.438-6.1674-12.031-3.7136-21.402-18.266-14.764-30.236 6.8311-11.498 7.1915-26.938 1.1615-38.824-8.6827-11.671-17.308-23.386-28.623-32.697-42.528-40.606-85.592-81.151-122.33-127.18-16.374-26.215-38.01-49.229-49.921-78.044-2.8674 0.63708-2.3638-7.7806-3.8462-10.656-6.7773-28.735-12.407-60.647-34.773-81.931-7.9773-7.2522-17.624-13.475-28.556-14.765 0.45117 0.65625 0.90234 1.3125 1.3535 1.9688zm-548.71 55.619c29.801 0.13558 59.661 7.0834 89.293 6.9356 7.0874 19.879 10.631 41.472 6.3438 62.404-1.8516 9.8165-5.0416 19.384-9.8516 28.182-43.996-26.133-92.234-45.751-142.59-55.076-1.3929-1.4631-6.0895-2.6016-5.0352 0.79102 3.5244 5.5508 11.567 5.4734 16.693 8.9863 27.787 12.639 54.53 27.401 80.887 42.785-29.691 2.2756-58.416 12.301-85.293 24.764-46.163 24.108-78.263 72.825-82.312 124.73-27.188-9.8255-50.888-28.403-69.039-50.693-6.4841-9.344-14.364-19.483-14.984-31.167 24.923-87.309 108.25-151.08 197.18-161.45 6.2218-0.81393 12.442-1.1732 18.704-1.1885zm39.182 95.564c-2.9713 0.86394 0.50507-2.5531 0 0zm411.31 175.22c14.928 14.004 27.957 31.215 34.025 50.926-3.6374 2.5604-9.0469-0.8567-13.301 0.9668 3.7457 6.3324 11.644 9.1715 15.357 15.08 2.0959 11.852 1.3708 24.839 6.7922 35.84 6.8311 11.532 18.227 22.598 32.562 21.893 41.044 6.3296 82.053-15.254 122.55-3.8265 10.411 3.0447 19.534 9.5825 30.312 12.047 14.831 4.7103 30.518 8.1491 46.141 6.1211-12.058-8.2939-27.359-9.8401-39.51-17.865-18.84-9.5562-38.214-24.002-60.567-20.937-14.113 3.3166-28.614 4.8615-42.773 8.2324-21.263 4.2896-45.475 7.4288-64.385-5.7324-8.7444-7.286-16.489-19.671-11.611-31.221 16.082 2.525 32.404-3.3906 45.828-11.878 3.8808-3.3281 10.343-7.3122 14.726-2.5241 33.592 20.649 77.417 10.015 109.97 32.914 21.966 14.762 46.71 25.019 71.578 33.834 7.5777 1.2001 17.497 5.6933 24.092-0.3731 1.6262-1.9056 3.4609-5.5037-0.4394-5.9277-19.769-9.4256-43.294-12.207-59.634-27.897-29.868-21.985-68.291-24.173-103.73-28.853-13.354-2.3306-29.511-2.9457-38.854-14.213 6.7294-11.446 17.544-24.892 13.158-39.445-5.8203-4.2799-14.135-0.1586-18.613 4.6152-7.929 8.4404-14.595 18.269-25.016 23.926-8.1033 5.3318-17.156 8.2358-26.522 10.368-4.031 1.2255-8.0605 2.5781-12.265 3.0695-12.487-20.283-29.042-38.802-49.612-50.969-2.4305-1.225-0.84712 0.694-0.26336 1.8301zm424.64 45.146c-4.0923 0-3.3067 4.879-0.8672 6.6504 7.0427 10.276 19.214 15.541 30.673 19.49 14.655 4.969 30.249 4.9577 45.492 5.6294 32.77 3.6346 62.903 19.218 89.486 38.144 2.3244 1.019 9.7947 7.4249 6.3601 1.8914-13.395-30.162-43.198-53.584-76.724-55.277-31.698-4.0969-63.578-8.1413-94.419-16.528zm-1125.4 560.4c-9.9774 0.5691-12.785 12.259-18.242 18.632-22.215 33.562-45.379 66.582-68.563 99.411-0.32985 3.4313 5.952-3.5143 8.1645-5.1853 11.621-12.412 23.012-25.118 35.592-36.629 8.5095-8.2413 16.983-16.552 24.682-25.568-15.438 27.976-37.32 53.034-64.71 69.958-21.283 21.6-30.232 53.1-28.464 82.9 0.77678 11.878-2.8441 25.418 4.9512 35.676 3.0869 4.491 8.3242 8.4357 13.947 5.916 18.95-4.7091 30.679-23.378 34.959-41.33 14.091-6.7447 26.001-17.193 39.258-25.232-3.3396 12.282-3.0062 27.652 6.6113 37.023 13.974 9.677 34.981-1.1665 38.33-16.92 9.5212-31.75 36.846-53.152 61.986-72.572 28.122-20.894 55.219-45.782 68.698-78.904 3.0095-7.8284 6.4377-15.919 5.7438-24.454 0.60487-7.0411-4.5556 4.286-6.0762 6.6328-23.701 41.166-55.134 80.768-99.264 101.1-15.141 6.4815-31.671 11.889-48.107 10.965-2.7626-0.7877 3.5831-4.4972 4.5918-6.5586 24.394-26.476 45.43-56.294 61.568-88.441-0.73428-3.1712-6.73 5.8523-9.4782 8.3826-28.31 32.28-56.741 65.244-92.303 89.757-10.066 8.1929-17.061 20.12-24.266 30.049-6.4718-10.337-22.286-8.1627-28.281-18.918-0.3914-20.66 15.914-36.053 29.778-49.133 8.9644-8.3453 17.357-17.212 26.093-25.76 16.121-18.676 27.435-41.947 30.055-66.604 0.11401-3.8174 3.3042-8.4788 1.2382-12.036-1.6912-0.419-2.3712 1.6737-3.5234-0.5489-1.3872-1.1174-3.2063-1.5873-4.9668-1.5195z"/>
<path d="m720.99 261.38c-5.3869 0.57949-7.7741 8.1514-13.896 7.9336-3.5785-0.10742-8.3843-1.9307-9.8789 2.6113-0.87619 5.9715 6.5219 8.945 10.723 11.379 1.2106 5.8634 4.7385 12.3 10.762 14.926 6.6676 3.5879 15.583 1.5108 19.65-5.0059 7.182-8.4641 11.374-19.493 11.17-30.631-9.0475 6.2224-18.963-1.5176-28.529-1.2129z" fill="#900101"/>
<path d="m714.87 544.98c5.1245 55.019 33.901 103.66 59.619 151.22 7.9404 14.703 15.662 29.538 22.537 44.775 4.7899-17.701 19.446-34.202 38.684-35.156 19.723-3.3071 39.082-11.112 54.531-23.941 18.057-17.576 21.616-45.928 14.543-69.293-20.549 26.153-54.53 39.169-87.16 38.119-5.2547-0.86455-11.231-1.8482-15.344-5.2129-3.3175-7.5989-3.4788-16.47-9.394-22.838-20.948-31.055-47.447-58.488-78.243-79.871 0.0755 0.73177 0.15104 1.4635 0.22656 2.1953zm32.549 53.59c23.901 7.4498 37.038 33.716 35.684 57.533 0.73798 4.0292-3.6394 3.0385-4.7676 0.48047-12.949-17.867-22.768-37.879-31.387-58.146l0.4707 0.13282zm153.48 3.3672c-13.824 5.0981-21.339 18.947-29.063 30.436-0.68756 3.4094 4.6018-2.3967 6.5297-3.5003 9.3636-7.3139 23.23-14.067 24.094-27.543l-0.93189 0.36273-0.62866 0.24469zm-315.72 21.486c-6.4194 35.084-13.195 72.07-36.275 100.52-14.217 21.87-41.151 32.164-66.201 33.23-6.8755 2.0868-6.6649 4.9278-1.4688 8.832 26.447 29.397 28.82 78.237 2.3398 108.39 2.9893 12.152 14.444 19.434 19.82 30.303 26.415 22.929 49.74 49.263 70.434 77.422 10.883-0.76078 19.913-7.609 28.881-13.098-1.2063-1.3265-6.4756-7.2199-3.6934-5.0332 3.3776 2.887 6.3985 7.3609 10.074 2.0664 33.376-25.264 64.315-57.975 75.055-99.535 1.0377-6.372 4.8341-13.549-0.19482-19.13-11.016-20.537-20.549-41.878-30.59-62.853-24.261-19.378-45.757-45.09-52.972-75.678-1.7821-29.96-6.0393-59.924-14.347-88.793l-0.86133 3.3555zm303.3 21.213c5.2947 1.2036 1.8236 7.4602 0.75977 10.678-6.126 13.22-25.689 17.803-36.627 8.25-1.5109-2.0166 0.0913-4.7767 2.6309-3.4707 12.146-2.4353 21.593-11.42 32.957-15.467l0.2793 0.01zm-304.82 115.84c16.98 39.679-6.3818 92.219-48.229 104.4-4.1212 2.248-10.183 0.45104-9.9024-4.9961 2.1586-4.8629 4.5407-9.9962 5.334-15.527 3.8602-18.86-1.0525-37.978-7.1953-55.76-0.72513-2.9753-2.7729-10.631 2.5605-9.5273 15.091 6.5042 32.207 0.61527 44.535-8.9844 4.3926-3.1828 8.5424-6.6859 12.594-10.289l0.30273 0.6836z" fill="#1e1e1e"/>
<path d="m744.33 597.34c9.1214 21.481 19.247 42.953 33.402 61.6 2.2424 3.6722 8.4834 1.9651 7.3652-2.7168 1.5078-25.011-12.858-52.762-38.099-59.848-1.6044-0.32133-4.6701-1.8454-2.6686 0.96541zm143.85 45.291c-9.4982 2.6185-17.141 9.8716-26.402 13.307-3.2835 1.9905-7.1584 1.424-10.479 2.6992-3.2302 3.4355 0.4531 8.527 4.3281 9.3965 14.627 7.5807 35.339-1.8719 37.555-18.641 1.0712-3.2642-1.4647-6.9349-5.002-6.7617zm-305.12 114.78c-12.94 11.654-29.266 24.714-47.609 22.082-4.3595 0.33961-10.072-5.2041-13.764-0.91407-2.9221 7.6118 2.2786 15.62 3.9922 22.939 5.1402 17.242 7.0601 36.844-0.30079 53.77-5.2619 5.3496 1.5516 15.483 8.5234 12.08 45.28-11.48 70.531-68.882 50.308-110.53-0.1512-0.9145-0.76658 0.38428-1.15 0.57733z" fill="#4e4e4e"/>
<path d="m409.15 865.92c-0.43071 3.1566-6.4179 3.1971-9.1959 5.102-54.143 22.412-105.86 56.958-136.65 107.99-2.5405 4.5299-2.5443-5.8453-4.144 4.0564-3.4426 12.417-5.8355 25.093-9.084 37.561 11.942 2.0406 24.927 11.861 23.344 25.207-8.6904 4.786-17.071-3.8954-25.744-4.6562 2.1257 31.312 3.1953 63.556 15.129 93.039 40.783 17.08 86.724 20.51 130.03 12.721 12.238-3.7543 19.427-15.238 28.729-23.168-6.0872 7.0417-12.908 13.619-17.418 21.861 10.322-0.9948 21.631-5.2452 31.451 0.01-4.8526 9.7755-16.129 13.561-25.398 17.818 7.5553-0.9476 19.385 5.7856 14.354 14.328-12.864 27.439-43.398 39.844-59.564 64.797-28.389 34.557-49.463 74.412-69.174 114.3-8.0769 29.212-13.235 59.26-15.344 89.451-4.663 14.056-11.909 27.547-12.381 42.673-10.601 74.143-53.96 145.21-120.41 181.74-16.043 9.8229-32.239 19.544-47.856 29.972-6.0437 10.593-13.9 20.133-22.985 28.168-15.6 22.434-33.36 43.472-47.107 67.185 5.8213 12.879 25.276 9.4043 30.328 22.818 9.6084-14.82 19.509-30.219 35.006-39.557 32.471-24.028 58.493-55.296 85.156-85.307-17.649 32.141-39.411 62.114-65.26 88.19 5.7925 2.0769 13.146 3.1612 17.486-2.2064 41.252-30.999 88.078-57.882 117.2-101.89 10.399-20.523 26.695-37.194 41.07-54.904 60.2-67.684 122.74-133.4 188.68-195.53 29.877-26.972 60.391-53.296 88.367-82.278 30.724-29.554 60.428-60.265 92.164-88.711 20.141-12.44 39.507-31.826 41.24-56.718 0.59548-32.257-8.124-64.565-25.155-92.013-16.921-27.885-40.82-51.336-68.516-68.48 14.949 31.577 26.795 67.382 19.404 102.48-3.4541 15.826-11.906 30.461-24.495 40.769-47.074 46.067-81.35 102.85-119.5 156.01-52.884 66.877-109.85 130.49-170.84 190.07-42.326 45.508-67.082 105.41-114.97 145.99 29.757-55.785 65.234-108.83 108.46-155.08 82.971-74.287 141.49-170.42 199.55-264.22 10.415-18.825 26.542-33.432 40.74-49.351 13.525-13.832 27.375-27.36 39.028-42.865 11.158-14.235 21.26-31.635 19.807-50.339-9.2238-36.673-21.816-73.201-42.79-104.89-7.0413-7.003-20.303-1.8779-25.402-11.277 0.465-3.7618 6.1749-4.3086 8.9473-6.252 2.7295-1.2439 3.4452-3.4541 0.60351-5.5352-19.115-25.511-40.789-49.383-66.275-68.676-79.275 23.954-144.69 92.864-159.93 174.87-2.4092 13.146-3.4556 26.545-3.0667 39.907-12.911-43.776-14.168-93.458 8.623-134.24 22.932-40.588 67.032-64.308 111.14-74.63 14.056-3.3296 28.312-5.3415 42.746-6.2176-20.891-20.745-46.279-36-70.518-52.4 0.13347 0.76758 0.26693 1.5352 0.40039 2.3027z" fill="#1e1e1e"/>
<path d="m702.61 77.35c-9.9259 0.26972-19.52 3.1702-29.088 5.4688-2.0365 6.474-1.67 14.551-6.4707 19.748-3.8818-0.47411-4.9608-5.6773-6.7442-8.5078-23.102 17.964-37.815 49.851-28.545 78.789 1.2065 2.4079 2.2292 9.9298 4.6191 4.8711 7.3294-8.8482 21.788-4.8168 28.369 2.6406-5.0746 5.8355-13.928 1.3787-20.447 4.0547-3.4787 1.0662-8.5614 5.6536-4.7109 8.7441 3.4983 4.2714 6.4783 8.9366 9.293 13.678 8.0921-3.0016 18.3-3.1783 25.807 0.74023-1.3922 6.3445-9.776 5.6358-14.385 8.668-5.2795 4.2497-6.4794 12.21-6.1387 18.734 2.1477 17.756 16.748 30.269 27.467 43.256 26.725 12.502 43.169 38.967 57.064 63.598-2.5239-1.1937-4.2455-4.1936-7.3008-4.1465-0.29227 9.5983 0.56679 22.748-9.4707 27.971-9.9676 5.5238-21.159-0.75773-28.746-7.4375 15.289 51.588 14.375 105.87 19.994 158.96 32.48 23.45 66.079 49.907 81.414 88.192 5.1161 12.273 6.3429 25.595 6.8214 38.67 2.7466-1.3375-3.0953 3.9349 1.5944 4.5756 10.758 4.989 23.826 6.35 34.584 0.59805 12.538-4.9835 26.076-9.1369 36.791-17.419 7.7229-10.785 14.751-23.939 28.206-28.365-13.716-32.521-27.564-67.743-22.776-103.6 1.7937-12.849 6.6422-25.482 14.225-36.163-6.9834 40.522-6.7336 84.832 14.141 121.5 1.4067 2.5509 3.0308 6.5498 4.7871 2.3906 1.984-3.2096 2.6326-6.9979 4.1074-10.43-1.7957 8.8875-6.1822 18.422-1.4844 27.25 8.043 25.891 10.971 56.282-4.7031 80.053-1.6178 3.2967-7.0326 6.2028-2.8574 9.4395 3.9289 5.1782 10.202 9.906 9.9746 17.045 23.947 10.472 36.844 35.471 43.393 59.393 4.5691 15.62 7.5274 31.721 11.654 47.484 2.6039-2.7909 2.6722 3.7232 4.2712 5.0408 13.153 26.381 33.035 48.551 48.698 73.349 40.799 49.338 87.497 93.404 134.11 137.09 3.5013 0.864-3.5412-8.4581-4.6706-11.808-36.48-71.129-46.52-153.66-90.676-221.21-21.566-31.888-56.722-50.721-81.313-79.771-16.144-20.715-26.849-45.012-33.585-70.285-20.334-63.637-13.004-131.92-29.621-196.35 8.1276-2.038 3.1573-2.4114-2.332-3.6484-17.652-6.1818-25.052-25.128-37.42-37.744-13.958-15.149-41.672-16.769-55.514-0.62695-2.2573 9.7235 6.7808 16.593 14.165 20.769 6.6791 3.9169 13.745 8.9825 15.569 17.033 6.2053 11.573 0.0957 25.294-9.0117 33.248-8.0404 8.1296-18.596 12.941-27.875 19.209-8.7992 7.8002-6.0981 21.363 0.0234 29.912 1.3829 2.1316 2.926 4.1593 4.6094 6.0625-9.1877-2.5538-18.521-10.287-17.053-20.723 0.22163-20.575 11.247-40.56 28.541-51.787 6.1187-5.4054 3.9607-16.297-3.7605-19.045-21.825-13.541-50.893-13.464-69.382-32.34-16.759-19.069-17.248-47.59-9.0039-70.562 8.4133-23.885 23.587-45.151 42.768-61.639 16.287-16.702 25.074-40.363 24.691-63.551-2.3806-17.001-20.232-26.629-36.08-27.076-8.8237-0.19279-18.074 2.6244-26.369-1.8203-6.6164-2.9304-12.154-8.1632-15.51-14.57-6.8959 0.89981-13.648 7.2743-20.562 3.3809-1.5441-8.8411 8.2984-13.648 12.877-19.699-1.2969-7.0884-3.6324-15.1-6.9356-21.986-12.21 5.9918-23.477 15.513-31.648 25.598-1.3578-16.688 13.561-28.342 26.666-35.655 5.1192-1.6492-0.20542-7.7593-0.0832-11.642-3.0194-12.27-5.6234-24.642-9.012-36.82-3.2968-0.62336-6.6588-0.86732-10.012-0.77148zm19.283 186.02c8.5121 0.28122 17.024 6.1119 25.537 2.5059-0.78174 11.725-6.2894 23.57-15.709 30.771-9.6369 4.8048-21.575-4.1791-21.447-14.479-4.0709-2.26-10.572-4.3671-11.152-9.6172 1.7513-3.9315 6.4094 0.0852 9.5547-1.4375 5.3897-0.46098 7.9787-6.5711 12.605-7.7422l0.60938-0.002h0.002zm-81.947 56.818c-30.729 9.6892-51.326 37.808-62.858 66.598-9.2239 22.524-6.5533 48.06-0.42468 71.04 9.7063 34.904 27.33 67.328 33.968 103.05 15.512 63.03 25.983 127.78 50.116 188.32 31.105 57.194 56.179 117.51 87.328 174.68 16.192 26.932 33.576 53.171 52.525 78.249-5.7116-3.4171-10.56-7.9714-16.092-11.67 16.746 39.542 28.982 80.689 40.777 121.93 4.972 12.595 17.166 21.11 30.062 24.117-4.2535-11.821-4.0973-24.823-6.457-37.01-4.0551-4.2326-9.315-7.0555-13.139-11.432 3.4408-0.3229 10.373 2.5849 11.586-2.4043-2.6078-11.072-9.0173-21.087-15.302-30.494-3.412-4.8226-7.1556-9.4088-11.163-13.748 15.827 12.094 29.057 27.464 39.258 44.539 8.7561-0.7318 16.716-5.0967 25.473-5.8691-22.073-16.418-30.898-43.915-42.625-67.664-19.608-45.679-23.567-95.884-37.791-143.21-9.945-35.063-20.491-70.225-24.903-106.4-20.388-55.678-54.338-105.12-76.475-159.96-17.615-59.444-10.338-122.03-11.002-183.12-0.57318-26.648-4.2821-54.639-19.059-77.445-8.0276-11.079-20.205-19.841-33.805-22.098zm73.045 199.1c1.2582 8.6606 0.31875 18.033 2.2949 26.406 32.384 22.617 59.483 52.512 81.032 85.395 2.9737 1.6745-0.7178-5.5076-1.5064-7.6036-17.885-41.624-46.181-78.862-82.082-106.58 0.0872 0.79296 0.17448 1.5859 0.26172 2.3789zm51.918 7.2031c29.672 10.186 53.071 39.747 50.872 71.789 0.2159 3.2936 3.224-4.9555 5.0793-6.5781 10.349-14.636 29.677-21.925 47.16-17.586-19.146 7.243-39.921 15.138-52.619 32.082-3.3542 12.015-7.2962 23.885-12.23 35.35 11.775-41.697-5.7562-88.436-38.988-115.3l0.72657 0.2461zm-337.46 254.91c-27.323-0.0776-53.977 6.3967-80.956 9.6406-46.31 7.3767-92.309 23.224-129.83 51.953-34.633 29.348-55.85 74.149-55.631 119.64 19.095 21.147 42.364 39.504 69.703 48.516 3.4768-59.279 44.678-115.04 101.25-134.23 17.849-6.9254 36.804-12.633 55.448-15.122-55.676 20.959-106.04 62.522-127.68 119.07 0.73633 6.0563 2.4456 5.4898 4.7385 0.0504 32.459-54.305 88.405-89.757 146.37-112.1 2.6627-4.6122-5.355-6.3133-8.5041-8.8093-32.542-19.346-66.056-37.251-100.68-52.462-0.2932-0.74226 3.4717 2.2626 4.6543 1.4727 49.945 9.145 97.472 29.292 141.02 55.178 13.76-24.396 16.569-54.582 8.3789-81.287-9.3791-1.1449-18.836-1.6043-28.283-1.502zm-260.41 206.94c11.318 43.296 37.006 81.465 67.375 113.75-3.2005-23.872-6.4625-47.872-5.5703-72.014-22.456-12.59-43.334-27.878-62.637-44.865 0.27735 1.0417 0.55469 2.0833 0.83203 3.125zm938.05 8.3086c18.486 27.547 41.995 51.504 58.176 80.607 0.2172-23.986-16.578-43.47-32.992-59.057-8.7558-7.8451-16.788-16.754-25.891-24.014l0.7071 2.4629zm70.023 56.719c4.56 10.538 4.3232 23.06-0.1328 33.555 7.8807 11.57 7.5533 29.079 20.959 36.578 14.14 5.3411 29.246 8.3198 44.425 7.8823 45.875 0.8255 92.102-4.231 137.62 2.5382 1.7906-0.8477-5.2737-3.9138-7.3961-5.2662-23.59-12.552-50.207-20.38-77.014-19.762-19.035-1.0863-38.52-6.4458-53.41-18.76-25.274-7.0292-47.065-22.482-66.135-40.055 0.362 1.0963 0.7239 2.1927 1.0859 3.289zm-269.68 42.918c-12.196 6.2443-25.935 10.438-39.717 7.7031-6.4965 12.499 1.6464 26.961 11.529 34.998 3.9683 2.0701 9.294-1.409 13.838-1.4942 28.519-5.5253 58.651-7.4597 86.605 1.4961 19.485-7.366 39.582 3.015 56.301 12.555 7.2628 4.064 14.477 8.6468 22.927 9.2442 19.463 4.3524 38.788 12.973 59.162 10.691 3.4895-4.7859-2.1588-9.2387-5.375-12.15-0.5194-3.593-4.2002-3.5248-7.4721-4.9236-21.518-7.7264-42.357-17.394-61.963-29.149-45.493-7.7718-92.99-9.6008-135.41-29.18l-0.42383 0.209z" fill="#763c2a"/>
</g>
</svg>
