<?xml version="1.0" encoding="UTF-8" standalone="no"?>
<!-- Created with Inkscape (http://www.inkscape.org/) -->

<svg
   xmlns:dc="http://purl.org/dc/elements/1.1/"
   xmlns:cc="http://creativecommons.org/ns#"
   xmlns:rdf="http://www.w3.org/1999/02/22-rdf-syntax-ns#"
   xmlns:svg="http://www.w3.org/2000/svg"
   xmlns="http://www.w3.org/2000/svg"
   xmlns:sodipodi="http://sodipodi.sourceforge.net/DTD/sodipodi-0.dtd"
   xmlns:inkscape="http://www.inkscape.org/namespaces/inkscape"
   width="744.09448"
   height="1052.3622"
   id="svg2"
   version="1.1"
   inkscape:version="0.48.5 r10040"
   sodipodi:docname="Logico-Maximo-oco.svg">
  <title
     id="title8100">Logico Maximo Template</title>
  <defs
     id="defs4">
    <marker
       inkscape:stockid="Arrow2Mend"
       orient="auto"
       refY="0.0"
       refX="0.0"
       id="Arrow2Mend"
       style="overflow:visible;">
      <path
         id="path4399"
         style="fill-rule:evenodd;stroke-width:0.62500000;stroke-linejoin:round;"
         d="M 8.7185878,4.0337352 L -2.2072895,0.016013256 L 8.7185884,-4.0017078 C 6.9730900,-1.6296469 6.9831476,1.6157441 8.7185878,4.0337352 z "
         transform="scale(0.6) rotate(180) translate(0,0)" />
    </marker>
    <marker
       inkscape:stockid="Arrow2Mstart"
       orient="auto"
       refY="0.0"
       refX="0.0"
       id="Arrow2Mstart"
       style="overflow:visible">
      <path
         id="path4396"
         style="fill-rule:evenodd;stroke-width:0.62500000;stroke-linejoin:round"
         d="M 8.7185878,4.0337352 L -2.2072895,0.016013256 L 8.7185884,-4.0017078 C 6.9730900,-1.6296469 6.9831476,1.6157441 8.7185878,4.0337352 z "
         transform="scale(0.6) translate(0,0)" />
    </marker>
    <marker
       inkscape:stockid="Arrow2Mstart"
       orient="auto"
       refY="0"
       refX="0"
       id="Arrow2Mstart-9"
       style="overflow:visible">
      <path
         inkscape:connector-curvature="0"
         id="path4396-0"
         style="fill-rule:evenodd;stroke-width:0.625;stroke-linejoin:round"
         d="M 8.7185878,4.0337352 -2.2072895,0.01601326 8.7185884,-4.0017078 c -1.7454984,2.3720609 -1.7354408,5.6174519 -6e-7,8.035443 z"
         transform="scale(0.6,0.6)" />
    </marker>
    <marker
       inkscape:stockid="Arrow2Mend"
       orient="auto"
       refY="0"
       refX="0"
       id="Arrow2Mend-8"
       style="overflow:visible">
      <path
         inkscape:connector-curvature="0"
         id="path4399-0"
         style="fill-rule:evenodd;stroke-width:0.625;stroke-linejoin:round"
         d="M 8.7185878,4.0337352 -2.2072895,0.01601326 8.7185884,-4.0017078 c -1.7454984,2.3720609 -1.7354408,5.6174519 -6e-7,8.035443 z"
         transform="scale(-0.6,-0.6)" />
    </marker>
  </defs>
  <sodipodi:namedview
     id="base"
     pagecolor="#ffffff"
     bordercolor="#666666"
     borderopacity="1.0"
     inkscape:pageopacity="0.0"
     inkscape:pageshadow="2"
     inkscape:zoom="0.59532414"
     inkscape:cx="364.31361"
     inkscape:cy="582.71921"
     inkscape:document-units="mm"
     inkscape:current-layer="layer5"
     showgrid="false"
     units="mm"
     inkscape:window-width="2034"
     inkscape:window-height="1080"
     inkscape:window-x="0"
     inkscape:window-y="162"
     inkscape:window-maximized="0" />
  <metadata
     id="metadata7">
    <rdf:RDF>
      <cc:Work
         rdf:about="">
        <dc:format>image/svg+xml</dc:format>
        <dc:type
           rdf:resource="http://purl.org/dc/dcmitype/StillImage" />
        <dc:title>Logico Maximo Template</dc:title>
        <dc:date>2014-11-10</dc:date>
        <dc:creator>
          <cc:Agent>
            <dc:title>Frank Tremmel</dc:title>
          </cc:Agent>
        </dc:creator>
        <dc:description>Template for Logico Maximo task cards.
The page size of the template is A4.
</dc:description>
        <dc:subject>
          <rdf:Bag>
            <rdf:li>logico</rdf:li>
            <rdf:li>task</rdf:li>
            <rdf:li>cards</rdf:li>
            <rdf:li>education</rdf:li>
            <rdf:li>school</rdf:li>
            <rdf:li>maximo</rdf:li>
            <rdf:li>template</rdf:li>
            <rdf:li>schule</rdf:li>
            <rdf:li>unterricht</rdf:li>
            <rdf:li>karte</rdf:li>
            <rdf:li>Vorlage</rdf:li>
            <rdf:li>Fragekarte</rdf:li>
            <rdf:li></rdf:li>
          </rdf:Bag>
        </dc:subject>
        <cc:license
           rdf:resource="http://creativecommons.org/licenses/publicdomain/" />
      </cc:Work>
      <cc:License
         rdf:about="http://creativecommons.org/licenses/publicdomain/">
        <cc:permits
           rdf:resource="http://creativecommons.org/ns#Reproduction" />
        <cc:permits
           rdf:resource="http://creativecommons.org/ns#Distribution" />
        <cc:permits
           rdf:resource="http://creativecommons.org/ns#DerivativeWorks" />
      </cc:License>
    </rdf:RDF>
  </metadata>
  <g
     inkscape:label="Siteborders"
     inkscape:groupmode="layer"
     id="layer1"
     transform="translate(0,-2.5390623e-6)"
     style="display:inline"
     sodipodi:insensitive="true">
    <rect
       style="color:#000000;fill:none;stroke:#555555;stroke-width:0.89646792;stroke-linecap:round;stroke-linejoin:bevel;stroke-miterlimit:4;stroke-opacity:1;stroke-dasharray:5.3788077, 5.3788077;stroke-dashoffset:0;marker:none;visibility:visible;display:inline;overflow:visible;enable-background:accumulate"
       id="rect2985"
       width="619.18225"
       height="867.21375"
       x="62.456116"
       y="92.574219" />
    <text
       xml:space="preserve"
       style="font-size:10px;font-style:normal;font-variant:normal;font-weight:normal;font-stretch:normal;line-height:125%;letter-spacing:0px;word-spacing:0px;fill:#000000;fill-opacity:1;stroke:none;font-family:schooltype;-inkscape-font-specification:schooltype"
       x="58.200619"
       y="1045.2356"
       id="text4354"
       sodipodi:linespacing="125%"
       transform="translate(0,2.5390623e-6)"><tspan
         sodipodi:role="line"
         id="tspan4356"
         x="58.200619"
         y="1045.2356" /></text>
    <g
       style="font-size:10px;font-style:normal;font-variant:normal;font-weight:normal;font-stretch:normal;line-height:125%;letter-spacing:0px;word-spacing:0px;fill:#000000;fill-opacity:1;stroke:none;font-family:schooltype;-inkscape-font-specification:schooltype"
       id="text4358">
      <path
         d="m 547.44573,948.89732 c 0,0.70001 0.18667,1.31667 0.56,1.85 0.37334,0.53334 0.79334,0.81667 1.26,0.85 l 0.04,0 c 0.42667,0 0.81667,-0.28333 1.17,-0.85 0.36,-0.56666 0.54,-1.20333 0.54,-1.91 0,-0.71999 -0.18333,-1.37332 -0.55,-1.96 -0.36667,-0.59332 -0.77333,-0.88999 -1.22,-0.89 -0.44666,1e-5 -0.86,0.30668 -1.24,0.92 -0.37333,0.60668 -0.56,1.27001 -0.56,1.99 m 1.82,-3.66 c 0.74667,1e-5 1.39333,0.37001 1.94,1.11 0.5,0.70001 0.75,1.53668 0.75,2.51 0,0.97334 -0.25,1.81001 -0.75,2.51 -0.44,0.59334 -1.08667,0.89 -1.94,0.89 -0.86,0 -1.51,-0.29666 -1.95,-0.89 -0.5,-0.69999 -0.75,-1.53666 -0.75,-2.51 0,-0.97332 0.25,-1.80999 0.75,-2.51 0.54667,-0.73999 1.19667,-1.10999 1.95,-1.11"
         id="path8427"
         inkscape:connector-curvature="0" />
      <path
         d="m 554.67714,952.21732 c -0.31333,0 -0.66,-0.18333 -1.04,-0.55 l -0.01,3.19 -0.87,0 0,-7.02 0.88,0 0,0.52 c 0.34,-0.32666 0.68667,-0.48999 1.04,-0.49 0.5,1e-5 0.95333,0.21668 1.36,0.65 0.41333,0.43334 0.62,0.94001 0.62,1.52 0,0.58001 -0.20667,1.09001 -0.62,1.53 -0.41334,0.43334 -0.86667,0.65 -1.36,0.65 m -0.09,-0.72 c 0.38,0 0.67,-0.13666 0.87,-0.41 0.20666,-0.27999 0.31,-0.62999 0.31,-1.05 0,-0.43999 -0.10667,-0.82666 -0.32,-1.16 -0.20667,-0.33999 -0.50667,-0.50999 -0.9,-0.51 -0.26,1e-5 -0.47333,0.0867 -0.64,0.26 -0.16,0.16667 -0.24,0.39001 -0.24,0.67 l 0,1.54 c 0,0.44001 0.30667,0.66 0.92,0.66"
         id="path8429"
         inkscape:connector-curvature="0" />
      <path
         d="m 561.14417,950.35732 -3,-0.02 c 0,0.43334 0.11333,0.75667 0.34,0.97 0.23333,0.20667 0.49333,0.31 0.78,0.31 0.16667,0 0.36333,-0.0533 0.59,-0.16 0.23333,-0.10666 0.35,-0.23999 0.35,-0.4 l 0.94,0.02 c -0.20667,0.47334 -0.44667,0.78667 -0.72,0.94 -0.26667,0.14667 -0.66,0.22667 -1.18,0.24 -0.24,0 -0.47,-0.0367 -0.69,-0.11 -0.22,-0.08 -0.43,-0.20333 -0.63,-0.37 -0.2,-0.16666 -0.36,-0.40666 -0.48,-0.72 -0.12,-0.31999 -0.18,-0.69333 -0.18,-1.12 0,-0.61333 0.15,-1.11333 0.45,-1.5 0.30667,-0.38666 0.79667,-0.57999 1.47,-0.58 0.6,1e-5 1.07667,0.21334 1.43,0.64 0.35333,0.42667 0.53,1.04667 0.53,1.86 m -0.94,-0.66 c 0,-0.73333 -0.33333,-1.09999 -1,-1.1 -0.23333,1e-5 -0.42667,0.03 -0.58,0.09 -0.14667,0.06 -0.25333,0.15001 -0.32,0.27 -0.0667,0.11334 -0.11,0.22667 -0.13,0.34 -0.02,0.10667 -0.03,0.24001 -0.03,0.4 l 2.06,0"
         id="path8431"
         inkscape:connector-curvature="0" />
      <path
         d="m 563.94683,948.53732 c 0,10e-6 -0.02,10e-6 -0.06,0 -0.32,10e-6 -0.58,0.08 -0.78,0.24 -0.2,0.16001 -0.3,0.40667 -0.3,0.74 l 0,0.06 0,2.66 -0.87,0 0,-2.01 0,-2.39 0.88,0 0,0.76 c 0.44666,-0.49999 0.82666,-0.74999 1.14,-0.75 0,1e-5 0.007,1e-5 0.02,0 0.52,1e-5 0.89,0.0967 1.11,0.29 0.47333,0.42001 0.70999,0.85667 0.71,1.31 l 0,2.79 -0.93,0 0,-2.79 c 0,-0.33999 -0.0833,-0.57333 -0.25,-0.7 -0.16,-0.12666 -0.38334,-0.19666 -0.67,-0.21"
         id="path8433"
         inkscape:connector-curvature="0" />
      <path
         d="m 569.3448,949.34732 c -10e-6,-0.0267 -0.0167,-0.0767 -0.05,-0.15 -0.0267,-0.0733 -0.07,-0.15999 -0.13,-0.26 -0.06,-0.1 -0.15334,-0.18333 -0.28,-0.25 -0.12667,-0.0733 -0.27334,-0.10999 -0.44,-0.11 -0.77334,10e-6 -1.16,0.50667 -1.16,1.52 0,0.30667 0.0467,0.57001 0.14,0.79 0.0933,0.21334 0.21,0.36667 0.35,0.46 0.14,0.0933 0.26,0.16 0.36,0.2 0.10666,0.0333 0.19666,0.05 0.27,0.05 0.32,0 0.55666,-0.07 0.71,-0.21 0.15333,-0.14666 0.22999,-0.29333 0.23,-0.44 l 0,-0.08 0.94,0.01 c -0.21334,0.90667 -0.77667,1.36 -1.69,1.36 l -0.17,0 c -0.59334,-0.0133 -1.08,-0.21333 -1.46,-0.6 -0.37334,-0.38666 -0.56,-0.91999 -0.56,-1.6 0,-0.65333 0.18333,-1.17333 0.55,-1.56 0.37333,-0.39332 0.83666,-0.60666 1.39,-0.64 l 0.06,0 c 0.1,10e-6 0.20333,0.007 0.31,0.02 0.11333,0.007 0.26333,0.04 0.45,0.1 0.19333,0.06 0.36333,0.14001 0.51,0.24 0.14666,0.10001 0.27999,0.25001 0.4,0.45 0.11999,0.20001 0.18999,0.43667 0.21,0.71 l -0.94,-0.01"
         id="path8435"
         inkscape:connector-curvature="0" />
      <path
         d="m 571.07745,947.87732 0,-2.64 0.88,0 0.01,2.64 -0.01,2.64 c 0,0.42001 0.0133,0.70667 0.04,0.86 0.0333,0.14667 0.0967,0.22 0.19,0.22 0.0467,0 0.0967,-0.01 0.15,-0.03 0.06,-0.0267 0.15334,-0.0733 0.28,-0.14 0.13334,-0.0733 0.23667,-0.12666 0.31,-0.16 l 0,0.8 c -0.28,0.14 -0.56666,0.21 -0.86,0.21 -0.66,0 -0.99,-0.44666 -0.99,-1.34 l 0,-3.06"
         id="path8437"
         inkscape:connector-curvature="0" />
      <path
         d="m 573.8937,946.13732 c -0.10666,-0.10666 -0.16,-0.23332 -0.16,-0.38 0,-0.14666 0.0533,-0.27332 0.16,-0.38 0.10667,-0.10666 0.23334,-0.15999 0.38,-0.16 0.14667,10e-6 0.27334,0.0533 0.38,0.16 0.10667,0.10668 0.16,0.23334 0.16,0.38 0,0.14668 -0.0533,0.27334 -0.16,0.38 -0.10666,0.10668 -0.23333,0.16001 -0.38,0.16 -0.14666,10e-6 -0.27333,-0.0533 -0.38,-0.16 m -0.06,1.72 0.88,0 0,4.4 -0.88,0 0,-4.4"
         id="path8439"
         inkscape:connector-curvature="0" />
      <path
         d="m 577.5287,952.21732 c -0.31333,0 -0.66,-0.18333 -1.04,-0.55 l -0.01,3.19 -0.87,0 0,-7.02 0.88,0 0,0.52 c 0.34,-0.32666 0.68667,-0.48999 1.04,-0.49 0.5,1e-5 0.95333,0.21668 1.36,0.65 0.41333,0.43334 0.62,0.94001 0.62,1.52 0,0.58001 -0.20667,1.09001 -0.62,1.53 -0.41333,0.43334 -0.86667,0.65 -1.36,0.65 m -0.09,-0.72 c 0.38,0 0.67,-0.13666 0.87,-0.41 0.20667,-0.27999 0.31,-0.62999 0.31,-1.05 0,-0.43999 -0.10667,-0.82666 -0.32,-1.16 -0.20667,-0.33999 -0.50667,-0.50999 -0.9,-0.51 -0.26,1e-5 -0.47333,0.0867 -0.64,0.26 -0.16,0.16667 -0.24,0.39001 -0.24,0.67 l 0,1.54 c 0,0.44001 0.30667,0.66 0.92,0.66"
         id="path8441"
         inkscape:connector-curvature="0" />
      <path
         d="m 582.09573,947.87732 c 0.28667,10e-6 0.63334,0.19668 1.04,0.59 l 0,-0.61 0.87,0 0,4.4 -0.87,0 0,-0.54 c -0.36,0.34667 -0.70666,0.52 -1.04,0.52 -0.49333,0 -0.94666,-0.22 -1.36,-0.66 -0.41333,-0.43999 -0.61999,-0.94666 -0.62,-1.52 10e-6,-0.57333 0.20667,-1.07999 0.62,-1.52 0.41334,-0.43999 0.86667,-0.65999 1.36,-0.66 m 0.08,0.6 c -0.38,1e-5 -0.67333,0.15334 -0.88,0.46 -0.2,0.30667 -0.3,0.67334 -0.3,1.1 0,0.43334 0.10334,0.81334 0.31,1.14 0.21334,0.32 0.51667,0.48 0.91,0.48 0.56,0 0.84,-0.27333 0.84,-0.82 l 0,-1.6 c 0,-0.25333 -0.08,-0.44333 -0.24,-0.57 -0.15333,-0.12666 -0.36666,-0.18999 -0.64,-0.19"
         id="path8443"
         inkscape:connector-curvature="0" />
      <path
         d="m 586.90792,947.83732 c 0.34667,0.0533 0.63667,0.17334 0.87,0.36 0.24,0.18667 0.39667,0.36001 0.47,0.52 0.08,0.16001 0.13333,0.31667 0.16,0.47 l -0.97,0.01 c -0.26,-0.42666 -0.54667,-0.63999 -0.86,-0.64 -0.24,10e-6 -0.45,0.11667 -0.63,0.35 -0.17333,0.23334 -0.26,0.48667 -0.26,0.76 l 0,2.59 -0.88,0 0,-4.42 0.87,0 0,0.89 0.05,-0.1 c 0.0333,-0.0667 0.0667,-0.12666 0.1,-0.18 0.0333,-0.0533 0.08,-0.11999 0.14,-0.2 0.0667,-0.0867 0.13333,-0.15666 0.2,-0.21 0.0733,-0.06 0.16,-0.10999 0.26,-0.15 0.10667,-0.04 0.21667,-0.06 0.33,-0.06 0.0667,10e-6 0.11667,0.003 0.15,0.01"
         id="path8445"
         inkscape:connector-curvature="0" />
      <path
         d="m 589.97245,950.89732 c 0.007,-0.97333 0.01,-1.74666 0.01,-2.32 l -0.78,0 0,-0.74 0.78,0 -0.01,-2.64 0.88,0 0.01,2.64 1.07,0 0,0.74 -1.07,0 -0.01,1.9 c 0,0.42001 0.0133,0.70667 0.04,0.86 0.0333,0.14667 0.0967,0.22 0.19,0.22 0.0467,0 0.0967,-0.01 0.15,-0.03 0.06,-0.0267 0.15333,-0.0733 0.28,-0.14 0.13333,-0.0733 0.23667,-0.12666 0.31,-0.16 l 0,0.8 c -0.28,0.14 -0.56667,0.21 -0.86,0.21 -0.66,0 -0.99,-0.44666 -0.99,-1.34"
         id="path8447"
         inkscape:connector-curvature="0" />
      <path
         d="m 592.91761,952.68732 c -0.12,-0.12 -0.18,-0.26333 -0.18,-0.43 0,-0.16666 0.06,-0.31 0.18,-0.43 0.10667,-0.12 0.24667,-0.18 0.42,-0.18 0.16667,0 0.31,0.06 0.43,0.18 0.12,0.12 0.18,0.26334 0.18,0.43 0,0.16667 -0.06,0.31 -0.18,0.43 -0.12,0.12 -0.26333,0.18 -0.43,0.18 -0.17333,0 -0.31333,-0.06 -0.42,-0.18"
         id="path8449"
         inkscape:connector-curvature="0" />
      <path
         d="m 595.4198,950.02732 c 0,0.44667 0.1,0.82667 0.3,1.14 0.2,0.31334 0.44333,0.47 0.73,0.47 0.28666,0 0.53,-0.15666 0.73,-0.47 0.19999,-0.31333 0.29999,-0.69333 0.3,-1.14 -10e-6,-0.42666 -0.10667,-0.76999 -0.32,-1.03 -0.20667,-0.26666 -0.45667,-0.39999 -0.75,-0.4 -0.28667,1e-5 -0.52334,0.13001 -0.71,0.39 -0.18667,0.26001 -0.28,0.60667 -0.28,1.04 m -0.35,-1.53 c 0.37333,-0.45332 0.83333,-0.67999 1.38,-0.68 0.54666,10e-6 1.00666,0.22668 1.38,0.68 0.35999,0.42667 0.53999,0.94001 0.54,1.54 -1e-5,0.60001 -0.18001,1.11334 -0.54,1.54 -0.37334,0.45334 -0.83334,0.68 -1.38,0.68 -0.54667,0 -1.00667,-0.22666 -1.38,-0.68 -0.36,-0.42666 -0.54,-0.93999 -0.54,-1.54 0,-0.59999 0.18,-1.11333 0.54,-1.54"
         id="path8451"
         inkscape:connector-curvature="0" />
      <path
         d="m 601.26339,947.83732 c 0.34667,0.0533 0.63667,0.17334 0.87,0.36 0.24,0.18667 0.39666,0.36001 0.47,0.52 0.08,0.16001 0.13333,0.31667 0.16,0.47 l -0.97,0.01 c -0.26,-0.42666 -0.54667,-0.63999 -0.86,-0.64 -0.24,10e-6 -0.45,0.11667 -0.63,0.35 -0.17333,0.23334 -0.26,0.48667 -0.26,0.76 l 0,2.59 -0.88,0 0,-4.42 0.87,0 0,0.89 0.05,-0.1 c 0.0333,-0.0667 0.0667,-0.12666 0.1,-0.18 0.0333,-0.0533 0.08,-0.11999 0.14,-0.2 0.0667,-0.0867 0.13333,-0.15666 0.2,-0.21 0.0733,-0.06 0.16,-0.10999 0.26,-0.15 0.10667,-0.04 0.21667,-0.06 0.33,-0.06 0.0667,10e-6 0.11667,0.003 0.15,0.01"
         id="path8453"
         inkscape:connector-curvature="0" />
      <path
         d="m 605.33792,947.84732 c 0.30667,1e-5 0.65333,0.18668 1.04,0.56 l 0,-0.58 c 0,10e-6 0.29,10e-6 0.87,0 0,10e-6 0,2.04334 0,6.13 0,0.86667 -0.65333,1.3 -1.96,1.3 -0.34667,0 -0.64667,-0.0433 -0.9,-0.13 -0.25333,-0.08 -0.44333,-0.17667 -0.57,-0.29 -0.12666,-0.11333 -0.22666,-0.25666 -0.3,-0.43 -0.0733,-0.16666 -0.11666,-0.30333 -0.13,-0.41 -0.0133,-0.10666 -0.02,-0.22666 -0.02,-0.36 l 0,-0.13 c 0.0333,0 0.08,-0.003 0.14,-0.01 0.06,0 0.1,0 0.12,0 0.0933,0 0.20667,0.003 0.34,0.01 0.14,0.0133 0.23334,0.02 0.28,0.02 0,0.36 0.0867,0.63 0.26,0.81 0.18,0.18 0.46333,0.27334 0.85,0.28 l 0.04,0 c 0.36,0 0.61333,-0.0967 0.76,-0.29 0.14667,-0.19333 0.22,-0.42 0.22,-0.68 l 0,-0.07 c -0.007,-0.16666 -0.01,-0.44 -0.01,-0.82 l 0.01,-1.06 c -0.26667,0.34 -0.61333,0.51 -1.04,0.51 -0.49333,0 -0.94667,-0.22 -1.36,-0.66 -0.41333,-0.43999 -0.62,-0.94666 -0.62,-1.52 0,-0.57333 0.20667,-1.07999 0.62,-1.52 0.41333,-0.43999 0.86667,-0.65999 1.36,-0.66 m 0.09,0.62 c -0.38,10e-6 -0.67333,0.15334 -0.88,0.46 -0.2,0.30667 -0.3,0.67334 -0.3,1.1 0,0.43334 0.10333,0.80334 0.31,1.11 0.21333,0.30001 0.51667,0.45 0.91,0.45 0.56,0 0.84,-0.27333 0.84,-0.82 l 0,-1.54 c 0,-0.25333 -0.08,-0.44333 -0.24,-0.57 -0.15333,-0.12666 -0.36667,-0.18999 -0.64,-0.19"
         id="path8455"
         inkscape:connector-curvature="0" />
      <path
         d="m 608.43011,952.02732 c 0.007,-0.14666 0.0733,-0.27 0.2,-0.37 0.12,-0.1 0.25667,-0.15 0.41,-0.15 0.14667,0 0.28,0.0633 0.4,0.19 0.12,0.12 0.18,0.25334 0.18,0.4 l 0,0.02 c 0,0.12 -0.0233,0.28334 -0.07,0.49 -0.0867,0.22667 -0.25333,0.42667 -0.5,0.6 -0.26667,0.17334 -0.5,0.26 -0.7,0.26 -0.12667,0 -0.22667,-0.0367 -0.3,-0.11 0.24,-0.0733 0.42667,-0.15333 0.56,-0.24 0.12667,-0.0733 0.25,-0.19 0.37,-0.35 0.11333,-0.12666 0.18,-0.25 0.2,-0.37 0.007,-0.0267 -0.003,-0.0733 -0.03,-0.14 -0.14667,0.18 -0.29333,0.27 -0.44,0.27 -0.0867,0 -0.15667,-0.0367 -0.21,-0.11 -0.0467,-0.0667 -0.07,-0.19666 -0.07,-0.39"
         id="path8457"
         inkscape:connector-curvature="0" />
      <path
         d="m 617.3012,947.13732 c 0,1.41334 -0.81333,2.14001 -2.44,2.18 l -0.56,0 0,2.94 -0.88,0 0,-7.02 c 0,1e-5 0.45334,1e-5 1.36,0 0.18667,1e-5 0.36667,0.01 0.54,0.03 0.17333,0.0133 0.38667,0.0567 0.64,0.13 0.26,0.0733 0.48,0.17334 0.66,0.3 0.18667,0.12668 0.34667,0.31334 0.48,0.56 0.13333,0.24668 0.2,0.54001 0.2,0.88 m -0.94,0.04 c 0,-0.41332 -0.11,-0.70999 -0.33,-0.89 -0.22,-0.18666 -0.63,-0.28999 -1.23,-0.31 -0.0267,1e-5 -0.0667,1e-5 -0.12,0 -0.0467,-0.007 -0.08,-0.01 -0.1,-0.01 l -0.28,0.02 0,2.59 0.56,0 c 0.56,-0.02 0.95,-0.12666 1.17,-0.32 0.22,-0.19332 0.33,-0.55332 0.33,-1.08"
         id="path8459"
         inkscape:connector-curvature="0" />
      <path
         d="m 618.1087,947.83732 0.88,0 0,2.52 c 0.0267,0.46667 0.11334,0.79334 0.26,0.98 0.13334,0.17334 0.38,0.26 0.74,0.26 0.37333,0 0.65333,-0.0933 0.84,-0.28 0.14667,-0.14666 0.22,-0.48999 0.22,-1.03 l 0,-2.45 0.94,0 0,2.44 0,1.98 -0.94,0 0,-0.38 c -0.2,0.25334 -0.58,0.38 -1.14,0.38 -0.44666,0 -0.85333,-0.16666 -1.22,-0.5 -0.34666,-0.31333 -0.54,-0.79333 -0.58,-1.44 l 0,-2.48"
         id="path8461"
         inkscape:connector-curvature="0" />
      <path
         d="m 624.7162,947.87732 c 0.49333,10e-6 0.94667,0.22001 1.36,0.66 0.41333,0.43334 0.62,0.94001 0.62,1.52 0,0.58001 -0.20667,1.09001 -0.62,1.53 -0.41333,0.44 -0.86667,0.66 -1.36,0.66 -0.34,0 -0.68666,-0.17 -1.04,-0.51 l 0,0.52 -0.88,0 0,-7.02 0.87,0 0.01,3.19 c 0.38,-0.36666 0.72667,-0.54999 1.04,-0.55 m -0.09,0.62 c -0.27333,1e-5 -0.49666,0.0667 -0.67,0.2 -0.16666,0.12667 -0.25,0.31334 -0.25,0.56 l 0,1.54 c 0,0.27334 0.0767,0.48001 0.23,0.62 0.16,0.13334 0.37667,0.2 0.65,0.2 0.39333,0 0.69333,-0.14999 0.9,-0.45 0.21333,-0.30666 0.32,-0.67666 0.32,-1.11 0,-0.42666 -0.10333,-0.79333 -0.31,-1.1 -0.2,-0.30666 -0.49,-0.45999 -0.87,-0.46"
         id="path8463"
         inkscape:connector-curvature="0" />
      <path
         d="m 627.50323,947.87732 0,-2.64 0.88,0 0.01,2.64 -0.01,2.64 c 0,0.42001 0.0133,0.70667 0.04,0.86 0.0333,0.14667 0.0967,0.22 0.19,0.22 0.0467,0 0.0967,-0.01 0.15,-0.03 0.06,-0.0267 0.15334,-0.0733 0.28,-0.14 0.13334,-0.0733 0.23667,-0.12666 0.31,-0.16 l 0,0.8 c -0.28,0.14 -0.56666,0.21 -0.86,0.21 -0.66,0 -0.99,-0.44666 -0.99,-1.34 l 0,-3.06"
         id="path8465"
         inkscape:connector-curvature="0" />
      <path
         d="m 630.31948,946.13732 c -0.10666,-0.10666 -0.16,-0.23332 -0.16,-0.38 0,-0.14666 0.0533,-0.27332 0.16,-0.38 0.10667,-0.10666 0.23334,-0.15999 0.38,-0.16 0.14667,10e-6 0.27334,0.0533 0.38,0.16 0.10667,0.10668 0.16,0.23334 0.16,0.38 0,0.14668 -0.0533,0.27334 -0.16,0.38 -0.10666,0.10668 -0.23333,0.16001 -0.38,0.16 -0.14666,10e-6 -0.27333,-0.0533 -0.38,-0.16 m -0.06,1.72 0.88,0 0,4.4 -0.88,0 0,-4.4"
         id="path8467"
         inkscape:connector-curvature="0" />
      <path
         d="m 634.77448,949.34732 c 0,-0.0267 -0.0167,-0.0767 -0.05,-0.15 -0.0267,-0.0733 -0.07,-0.15999 -0.13,-0.26 -0.06,-0.1 -0.15333,-0.18333 -0.28,-0.25 -0.12666,-0.0733 -0.27333,-0.10999 -0.44,-0.11 -0.77333,10e-6 -1.16,0.50667 -1.16,1.52 0,0.30667 0.0467,0.57001 0.14,0.79 0.0933,0.21334 0.21,0.36667 0.35,0.46 0.14,0.0933 0.26,0.16 0.36,0.2 0.10667,0.0333 0.19667,0.05 0.27,0.05 0.32,0 0.55667,-0.07 0.71,-0.21 0.15334,-0.14666 0.23,-0.29333 0.23,-0.44 l 0,-0.08 0.94,0.01 c -0.21333,0.90667 -0.77666,1.36 -1.69,1.36 l -0.17,0 c -0.59333,-0.0133 -1.08,-0.21333 -1.46,-0.6 -0.37333,-0.38666 -0.55999,-0.91999 -0.56,-1.6 10e-6,-0.65333 0.18334,-1.17333 0.55,-1.56 0.37334,-0.39332 0.83667,-0.60666 1.39,-0.64 l 0.06,0 c 0.1,10e-6 0.20334,0.007 0.31,0.02 0.11334,0.007 0.26334,0.04 0.45,0.1 0.19334,0.06 0.36334,0.14001 0.51,0.24 0.14667,0.10001 0.28,0.25001 0.4,0.45 0.12,0.20001 0.19,0.43667 0.21,0.71 l -0.94,-0.01"
         id="path8469"
         inkscape:connector-curvature="0" />
      <path
         d="m 639.51495,945.23732 c 0.27334,0.007 0.68,0.01 1.22,0.01 0.21334,1e-5 0.37,-0.003 0.47,-0.01 0,1e-5 0.15667,1e-5 0.47,0 0.18,1e-5 0.37333,0.0233 0.58,0.07 0.19333,0.0467 0.44,0.14334 0.74,0.29 0.3,0.17334 0.55333,0.36668 0.76,0.58 0.21333,0.21334 0.40333,0.53668 0.57,0.97 0.15333,0.41334 0.23667,0.89001 0.25,1.43 l 0,0.05 c 0,0.56667 -0.06,1.07334 -0.18,1.52 -0.13333,0.46667 -0.29,0.81667 -0.47,1.05 -0.18667,0.24001 -0.39667,0.45334 -0.63,0.64 -0.24,0.16667 -0.45333,0.28 -0.64,0.34 -0.2,0.0533 -0.38,0.08 -0.54,0.08 l -2.6,0 0,-7.02 m 2.14,0.76 -1.26,0 -0.02,5.6 1.56,0 c 0.0133,-0.007 0.0867,-0.02 0.22,-0.04 0.10667,-0.0267 0.19333,-0.0467 0.26,-0.06 0.0733,-0.0333 0.15667,-0.0733 0.25,-0.12 0.11333,-0.06 0.20333,-0.12999 0.27,-0.21 0.06,-0.0733 0.13667,-0.18999 0.23,-0.35 0.0733,-0.11999 0.14,-0.29333 0.2,-0.52 0.0467,-0.18666 0.0867,-0.42999 0.12,-0.73 0.0333,-0.31999 0.05,-0.64999 0.05,-0.99 0,-0.49999 -0.0567,-0.93999 -0.17,-1.32 -0.11333,-0.36666 -0.26333,-0.63332 -0.45,-0.8 -0.19333,-0.18666 -0.37333,-0.30666 -0.54,-0.36 -0.15333,-0.0733 -0.33667,-0.10999 -0.55,-0.11 -0.0933,1e-5 -0.15,0.003 -0.17,0.01"
         id="path8471"
         inkscape:connector-curvature="0" />
      <path
         d="m 646.06433,950.02732 c 0,0.44667 0.1,0.82667 0.3,1.14 0.2,0.31334 0.44333,0.47 0.73,0.47 0.28666,0 0.53,-0.15666 0.73,-0.47 0.2,-0.31333 0.3,-0.69333 0.3,-1.14 0,-0.42666 -0.10667,-0.76999 -0.32,-1.03 -0.20667,-0.26666 -0.45667,-0.39999 -0.75,-0.4 -0.28667,1e-5 -0.52334,0.13001 -0.71,0.39 -0.18667,0.26001 -0.28,0.60667 -0.28,1.04 m -0.35,-1.53 c 0.37333,-0.45332 0.83333,-0.67999 1.38,-0.68 0.54666,10e-6 1.00666,0.22668 1.38,0.68 0.36,0.42667 0.53999,0.94001 0.54,1.54 -10e-6,0.60001 -0.18,1.11334 -0.54,1.54 -0.37334,0.45334 -0.83334,0.68 -1.38,0.68 -0.54667,0 -1.00667,-0.22666 -1.38,-0.68 -0.36,-0.42666 -0.54,-0.93999 -0.54,-1.54 0,-0.59999 0.18,-1.11333 0.54,-1.54"
         id="path8473"
         inkscape:connector-curvature="0" />
      <path
         d="m 650.68792,949.65732 0,2.6 -0.88,0 0,-2.08 0,-2.34 0.87,0 0.01,0.78 c 0.30667,-0.51999 0.70667,-0.77999 1.2,-0.78 l 0.04,0 c 0.27333,10e-6 0.51333,0.0933 0.72,0.28 0.17333,0.15334 0.29,0.36334 0.35,0.63 0.13333,-0.29333 0.33,-0.51666 0.59,-0.67 0.26,-0.15999 0.52,-0.23999 0.78,-0.24 0.51333,10e-6 0.89333,0.10668 1.14,0.32 0.38666,0.34001 0.58,0.74667 0.58,1.22 l 0,2.87 -0.91,0 -0.01,-2.79 c -0.007,-0.34666 -0.09,-0.57999 -0.25,-0.7 -0.16,-0.11999 -0.39,-0.17999 -0.69,-0.18 -0.22,10e-6 -0.40667,0.0933 -0.56,0.28 -0.15333,0.18001 -0.23,0.42667 -0.23,0.74 l 0,0.03 0,2.63 -0.95,0 0.01,-2.77 c 0,-0.61999 -0.32,-0.92999 -0.96,-0.93 l -0.04,0 c -0.54,10e-6 -0.81,0.36667 -0.81,1.1"
         id="path8475"
         inkscape:connector-curvature="0" />
      <path
         d="m 658.67777,947.87732 c 0.28666,10e-6 0.63333,0.19668 1.04,0.59 l 0,-0.61 0.87,0 0,4.4 -0.87,0 0,-0.54 c -0.36001,0.34667 -0.70667,0.52 -1.04,0.52 -0.49334,0 -0.94667,-0.22 -1.36,-0.66 -0.41334,-0.43999 -0.62,-0.94666 -0.62,-1.52 0,-0.57333 0.20666,-1.07999 0.62,-1.52 0.41333,-0.43999 0.86666,-0.65999 1.36,-0.66 m 0.08,0.6 c -0.38001,1e-5 -0.67334,0.15334 -0.88,0.46 -0.2,0.30667 -0.3,0.67334 -0.3,1.1 0,0.43334 0.10333,0.81334 0.31,1.14 0.21333,0.32 0.51666,0.48 0.91,0.48 0.55999,0 0.83999,-0.27333 0.84,-0.82 l 0,-1.6 c -1e-5,-0.25333 -0.08,-0.44333 -0.24,-0.57 -0.15334,-0.12666 -0.36667,-0.18999 -0.64,-0.19"
         id="path8477"
         inkscape:connector-curvature="0" />
      <path
         d="m 661.54995,946.13732 c -0.10666,-0.10666 -0.16,-0.23332 -0.16,-0.38 0,-0.14666 0.0533,-0.27332 0.16,-0.38 0.10667,-0.10666 0.23334,-0.15999 0.38,-0.16 0.14667,10e-6 0.27334,0.0533 0.38,0.16 0.10667,0.10668 0.16,0.23334 0.16,0.38 0,0.14668 -0.0533,0.27334 -0.16,0.38 -0.10666,0.10668 -0.23333,0.16001 -0.38,0.16 -0.14666,10e-6 -0.27333,-0.0533 -0.38,-0.16 m -0.06,1.72 0.88,0 0,4.4 -0.88,0 0,-4.4"
         id="path8479"
         inkscape:connector-curvature="0" />
      <path
         d="m 665.27495,948.53732 c 0,10e-6 -0.02,10e-6 -0.06,0 -0.32,10e-6 -0.58,0.08 -0.78,0.24 -0.2,0.16001 -0.3,0.40667 -0.3,0.74 l 0,0.06 0,2.66 -0.87,0 0,-2.01 0,-2.39 0.88,0 0,0.76 c 0.44667,-0.49999 0.82667,-0.74999 1.14,-0.75 0,1e-5 0.007,1e-5 0.02,0 0.52,1e-5 0.89,0.0967 1.11,0.29 0.47333,0.42001 0.71,0.85667 0.71,1.31 l 0,2.79 -0.93,0 0,-2.79 c 0,-0.33999 -0.0833,-0.57333 -0.25,-0.7 -0.16,-0.12666 -0.38333,-0.19666 -0.67,-0.21"
         id="path8481"
         inkscape:connector-curvature="0" />
    </g>
    <g
       style="font-size:10px;font-style:normal;font-variant:normal;font-weight:normal;font-stretch:normal;line-height:125%;letter-spacing:0px;word-spacing:0px;fill:#000000;fill-opacity:1;stroke:none;font-family:schooltype;-inkscape-font-specification:schooltype"
       id="text4362">
      <path
         d="m 75.865875,945.23732 0.86,0 0.01,6.35 3.01,0 0,0.67 -3.88,0 0,-7.02"
         id="path8384"
         inkscape:connector-curvature="0" />
      <path
         d="m 81.243375,950.02732 c 0,0.44667 0.1,0.82667 0.3,1.14 0.199999,0.31334 0.443332,0.47 0.73,0.47 0.286665,0 0.529998,-0.15666 0.73,-0.47 0.199998,-0.31333 0.299997,-0.69333 0.3,-1.14 -3e-6,-0.42666 -0.106669,-0.76999 -0.32,-1.03 -0.206669,-0.26666 -0.456668,-0.39999 -0.75,-0.4 -0.286668,1e-5 -0.523334,0.13001 -0.71,0.39 -0.186667,0.26001 -0.28,0.60667 -0.28,1.04 m -0.35,-1.53 c 0.373333,-0.45332 0.833332,-0.67999 1.38,-0.68 0.546665,10e-6 1.006664,0.22668 1.38,0.68 0.359997,0.42667 0.539997,0.94001 0.54,1.54 -3e-6,0.60001 -0.180003,1.11334 -0.54,1.54 -0.373336,0.45334 -0.833335,0.68 -1.38,0.68 -0.546668,0 -1.006667,-0.22666 -1.38,-0.68 -0.36,-0.42666 -0.54,-0.93999 -0.54,-1.54 0,-0.59999 0.18,-1.11333 0.54,-1.54"
         id="path8386"
         inkscape:connector-curvature="0" />
      <path
         d="m 86.766969,947.84732 c 0.306665,1e-5 0.653331,0.18668 1.04,0.56 l 0,-0.58 c -3e-6,10e-6 0.289997,10e-6 0.87,0 -4e-6,10e-6 -4e-6,2.04334 0,6.13 -4e-6,0.86667 -0.653336,1.3 -1.96,1.3 -0.346668,0 -0.646668,-0.0433 -0.9,-0.13 -0.253334,-0.08 -0.443334,-0.17667 -0.57,-0.29 -0.126667,-0.11333 -0.226667,-0.25666 -0.3,-0.43 -0.07333,-0.16666 -0.116667,-0.30333 -0.13,-0.41 -0.01333,-0.10666 -0.02,-0.22666 -0.02,-0.36 l 0,-0.13 c 0.03333,0 0.08,-0.003 0.14,-0.01 0.06,0 0.1,0 0.12,0 0.09333,0 0.206666,0.003 0.34,0.01 0.139999,0.0133 0.233333,0.02 0.28,0.02 -10e-7,0.36 0.08667,0.63 0.26,0.81 0.179999,0.18 0.463332,0.27334 0.85,0.28 l 0.04,0 c 0.359998,0 0.613331,-0.0967 0.76,-0.29 0.146664,-0.19333 0.219997,-0.42 0.22,-0.68 l 0,-0.07 c -0.0067,-0.16666 -0.01,-0.44 -0.01,-0.82 l 0.01,-1.06 c -0.266669,0.34 -0.613336,0.51 -1.04,0.51 -0.493335,0 -0.946668,-0.22 -1.36,-0.66 -0.413333,-0.43999 -0.62,-0.94666 -0.62,-1.52 0,-0.57333 0.206667,-1.07999 0.62,-1.52 0.413332,-0.43999 0.866665,-0.65999 1.36,-0.66 m 0.09,0.62 c -0.380001,10e-6 -0.673335,0.15334 -0.88,0.46 -0.200001,0.30667 -0.300001,0.67334 -0.3,1.1 -10e-7,0.43334 0.103333,0.80334 0.31,1.11 0.213332,0.30001 0.516665,0.45 0.91,0.45 0.559998,0 0.839997,-0.27333 0.84,-0.82 l 0,-1.54 c -3e-6,-0.25333 -0.08,-0.44333 -0.24,-0.57 -0.153336,-0.12666 -0.366669,-0.18999 -0.64,-0.19"
         id="path8388"
         inkscape:connector-curvature="0" />
      <path
         d="m 89.639156,946.13732 c -0.106666,-0.10666 -0.16,-0.23332 -0.16,-0.38 0,-0.14666 0.05333,-0.27332 0.16,-0.38 0.106667,-0.10666 0.233333,-0.15999 0.38,-0.16 0.146666,10e-6 0.273333,0.0533 0.38,0.16 0.106666,0.10668 0.159999,0.23334 0.16,0.38 -10e-7,0.14668 -0.05333,0.27334 -0.16,0.38 -0.106667,0.10668 -0.233334,0.16001 -0.38,0.16 -0.146667,10e-6 -0.273333,-0.0533 -0.38,-0.16 m -0.06,1.72 0.88,0 0,4.4 -0.88,0 0,-4.4"
         id="path8390"
         inkscape:connector-curvature="0" />
      <path
         d="m 94.094156,949.34732 c -2e-6,-0.0267 -0.01667,-0.0767 -0.05,-0.15 -0.02667,-0.0733 -0.07,-0.15999 -0.13,-0.26 -0.06,-0.1 -0.153335,-0.18333 -0.28,-0.25 -0.126668,-0.0733 -0.273335,-0.10999 -0.44,-0.11 -0.773334,10e-6 -1.16,0.50667 -1.16,1.52 0,0.30667 0.04667,0.57001 0.14,0.79 0.09333,0.21334 0.209999,0.36667 0.35,0.46 0.139999,0.0933 0.259999,0.16 0.36,0.2 0.106666,0.0333 0.196665,0.05 0.27,0.05 0.319998,0 0.556665,-0.07 0.71,-0.21 0.153331,-0.14666 0.229998,-0.29333 0.23,-0.44 l 0,-0.08 0.94,0.01 c -0.213336,0.90667 -0.776669,1.36 -1.69,1.36 l -0.17,0 c -0.593334,-0.0133 -1.08,-0.21333 -1.46,-0.6 -0.373333,-0.38666 -0.559999,-0.91999 -0.56,-1.6 10e-7,-0.65333 0.183334,-1.17333 0.55,-1.56 0.373333,-0.39332 0.836666,-0.60666 1.39,-0.64 l 0.06,0 c 0.1,10e-6 0.203332,0.007 0.31,0.02 0.113332,0.007 0.263331,0.04 0.45,0.1 0.193331,0.06 0.363331,0.14001 0.51,0.24 0.146664,0.10001 0.279997,0.25001 0.4,0.45 0.119997,0.20001 0.189997,0.43667 0.21,0.71 l -0.94,-0.01"
         id="path8392"
         inkscape:connector-curvature="0" />
      <path
         d="m 96.516813,950.02732 c -10e-7,0.44667 0.1,0.82667 0.3,1.14 0.199999,0.31334 0.443332,0.47 0.73,0.47 0.286664,0 0.529997,-0.15666 0.73,-0.47 0.199997,-0.31333 0.299997,-0.69333 0.3,-1.14 -3e-6,-0.42666 -0.10667,-0.76999 -0.32,-1.03 -0.206669,-0.26666 -0.456669,-0.39999 -0.75,-0.4 -0.286668,1e-5 -0.523335,0.13001 -0.71,0.39 -0.186668,0.26001 -0.280001,0.60667 -0.28,1.04 m -0.35,-1.53 c 0.373332,-0.45332 0.833332,-0.67999 1.38,-0.68 0.546664,10e-6 1.006664,0.22668 1.38,0.68 0.359996,0.42667 0.539996,0.94001 0.54,1.54 -4e-6,0.60001 -0.180004,1.11334 -0.54,1.54 -0.373336,0.45334 -0.833336,0.68 -1.38,0.68 -0.546668,0 -1.006668,-0.22666 -1.38,-0.68 -0.36,-0.42666 -0.54,-0.93999 -0.54,-1.54 0,-0.59999 0.18,-1.11333 0.54,-1.54"
         id="path8394"
         inkscape:connector-curvature="0" />
      <path
         d="m 102.75041,949.85732 c -0.0133,1e-5 -0.12667,-0.15333 -0.34,-0.46 -0.21334,-0.30666 -0.32334,-0.45999 -0.33,-0.46 l -0.26,0 0,0.92 -0.4,0 0,-2.19 0.62,0 c 0.75999,10e-6 1.13999,0.19668 1.14,0.59 -10e-6,0.35334 -0.24334,0.57334 -0.73,0.66 l 0.37,0.38 c 0.04,0.0467 0.11333,0.14667 0.22,0.3 0.10666,0.15334 0.15999,0.24001 0.16,0.26 l -0.45,0 m 0,-1.59 c -1e-5,-0.12666 -0.05,-0.21666 -0.15,-0.27 -0.0933,-0.06 -0.27667,-0.0933 -0.55,-0.1 l -0.23,0 0,0.81 0.26,0 c 0.24666,-0.007 0.41999,-0.04 0.52,-0.1 0.1,-0.06 0.14999,-0.17333 0.15,-0.34 m -1.93,1.88 c -0.37334,-0.38666 -0.56,-0.84999 -0.56,-1.39 0,-0.53999 0.18666,-0.99999 0.56,-1.38 0.38,-0.38666 0.83666,-0.57999 1.37,-0.58 0.53333,10e-6 0.98666,0.19334 1.36,0.58 0.37999,0.38001 0.56999,0.84001 0.57,1.38 -1e-5,0.54001 -0.19001,1.00334 -0.57,1.39 -0.37334,0.38001 -0.82667,0.57001 -1.36,0.57 -0.53334,10e-6 -0.99,-0.18999 -1.37,-0.57 m -0.34,-1.4 c 0,0.48001 0.16666,0.89001 0.5,1.23 0.34,0.33334 0.74666,0.50001 1.22,0.5 0.47333,1e-5 0.87666,-0.16666 1.21,-0.5 0.33999,-0.33999 0.50999,-0.74999 0.51,-1.23 -1e-5,-0.47333 -0.17001,-0.87999 -0.51,-1.22 -0.33334,-0.33999 -0.73667,-0.50999 -1.21,-0.51 -0.47334,10e-6 -0.88,0.17001 -1.22,0.51 -0.33334,0.34001 -0.5,0.74667 -0.5,1.22"
         id="path8396"
         inkscape:connector-curvature="0" />
      <path
         d="m 111.72666,952.25732 -0.89,0 -2.04,-5.02 0,5.02 -0.88,0 0.01,-7.02 0.89,0 2.48,6.36 2.5,-6.35 0.92,-0.01 -0.01,7.02 -0.93,0 0.01,-5.04 -2.06,5.04"
         id="path8398"
         inkscape:connector-curvature="0" />
      <path
         d="m 117.29431,947.87732 c 0.28667,10e-6 0.63333,0.19668 1.04,0.59 l 0,-0.61 0.87,0 0,4.4 -0.87,0 0,-0.54 c -0.36,0.34667 -0.70667,0.52 -1.04,0.52 -0.49333,0 -0.94666,-0.22 -1.36,-0.66 -0.41333,-0.43999 -0.62,-0.94666 -0.62,-1.52 0,-0.57333 0.20667,-1.07999 0.62,-1.52 0.41334,-0.43999 0.86667,-0.65999 1.36,-0.66 m 0.08,0.6 c -0.38,1e-5 -0.67333,0.15334 -0.88,0.46 -0.2,0.30667 -0.3,0.67334 -0.3,1.1 0,0.43334 0.10334,0.81334 0.31,1.14 0.21333,0.32 0.51667,0.48 0.91,0.48 0.56,0 0.84,-0.27333 0.84,-0.82 l 0,-1.6 c 0,-0.25333 -0.08,-0.44333 -0.24,-0.57 -0.15333,-0.12666 -0.36667,-0.18999 -0.64,-0.19"
         id="path8400"
         inkscape:connector-curvature="0" />
      <path
         d="m 120.8865,947.86732 1.04,1.59 1.06,-1.6 0.91,0.01 -1.51,2.1 1.5,2.31 -0.92,-0.01 -1.06,-1.74 -1.02,1.74 -0.88,-0.01 1.47,-2.24 -1.46,-2.15 0.87,0"
         id="path8402"
         inkscape:connector-curvature="0" />
      <path
         d="m 124.854,946.13732 c -0.10667,-0.10666 -0.16,-0.23332 -0.16,-0.38 0,-0.14666 0.0533,-0.27332 0.16,-0.38 0.10667,-0.10666 0.23333,-0.15999 0.38,-0.16 0.14667,10e-6 0.27333,0.0533 0.38,0.16 0.10667,0.10668 0.16,0.23334 0.16,0.38 0,0.14668 -0.0533,0.27334 -0.16,0.38 -0.10667,0.10668 -0.23333,0.16001 -0.38,0.16 -0.14667,10e-6 -0.27333,-0.0533 -0.38,-0.16 m -0.06,1.72 0.88,0 0,4.4 -0.88,0 0,-4.4"
         id="path8404"
         inkscape:connector-curvature="0" />
      <path
         d="m 127.449,949.65732 0,2.6 -0.88,0 0,-2.08 0,-2.34 0.87,0 0.01,0.78 c 0.30667,-0.51999 0.70667,-0.77999 1.2,-0.78 l 0.04,0 c 0.27333,10e-6 0.51333,0.0933 0.72,0.28 0.17333,0.15334 0.29,0.36334 0.35,0.63 0.13333,-0.29333 0.33,-0.51666 0.59,-0.67 0.26,-0.15999 0.52,-0.23999 0.78,-0.24 0.51333,10e-6 0.89333,0.10668 1.14,0.32 0.38666,0.34001 0.57999,0.74667 0.58,1.22 l 0,2.87 -0.91,0 -0.01,-2.79 c -0.007,-0.34666 -0.09,-0.57999 -0.25,-0.7 -0.16,-0.11999 -0.39,-0.17999 -0.69,-0.18 -0.22,10e-6 -0.40667,0.0933 -0.56,0.28 -0.15334,0.18001 -0.23,0.42667 -0.23,0.74 l 0,0.03 0,2.63 -0.95,0 0.01,-2.77 c 0,-0.61999 -0.32,-0.92999 -0.96,-0.93 l -0.04,0 c -0.54,10e-6 -0.81,0.36667 -0.81,1.1"
         id="path8406"
         inkscape:connector-curvature="0" />
      <path
         d="m 134.34884,950.02732 c 0,0.44667 0.1,0.82667 0.3,1.14 0.2,0.31334 0.44334,0.47 0.73,0.47 0.28667,0 0.53,-0.15666 0.73,-0.47 0.2,-0.31333 0.3,-0.69333 0.3,-1.14 0,-0.42666 -0.10667,-0.76999 -0.32,-1.03 -0.20666,-0.26666 -0.45666,-0.39999 -0.75,-0.4 -0.28666,1e-5 -0.52333,0.13001 -0.71,0.39 -0.18666,0.26001 -0.28,0.60667 -0.28,1.04 m -0.35,-1.53 c 0.37334,-0.45332 0.83334,-0.67999 1.38,-0.68 0.54667,10e-6 1.00667,0.22668 1.38,0.68 0.36,0.42667 0.54,0.94001 0.54,1.54 0,0.60001 -0.18,1.11334 -0.54,1.54 -0.37333,0.45334 -0.83333,0.68 -1.38,0.68 -0.54666,0 -1.00666,-0.22666 -1.38,-0.68 -0.36,-0.42666 -0.54,-0.93999 -0.54,-1.54 0,-0.59999 0.18,-1.11333 0.54,-1.54"
         id="path8408"
         inkscape:connector-curvature="0" />
      <path
         d="m 144.10025,945.97732 0,6.29 -0.93,0 -0.01,-6.28 -2.06,0 0,-0.75 5.04,0 0,0.75 -2.04,-0.01"
         id="path8410"
         inkscape:connector-curvature="0" />
      <path
         d="m 150.62009,950.35732 -3,-0.02 c 0,0.43334 0.11334,0.75667 0.34,0.97 0.23334,0.20667 0.49334,0.31 0.78,0.31 0.16667,0 0.36334,-0.0533 0.59,-0.16 0.23333,-0.10666 0.35,-0.23999 0.35,-0.4 l 0.94,0.02 c -0.20667,0.47334 -0.44667,0.78667 -0.72,0.94 -0.26667,0.14667 -0.66,0.22667 -1.18,0.24 -0.24,0 -0.47,-0.0367 -0.69,-0.11 -0.22,-0.08 -0.43,-0.20333 -0.63,-0.37 -0.2,-0.16666 -0.36,-0.40666 -0.48,-0.72 -0.12,-0.31999 -0.18,-0.69333 -0.18,-1.12 0,-0.61333 0.15,-1.11333 0.45,-1.5 0.30667,-0.38666 0.79667,-0.57999 1.47,-0.58 0.6,1e-5 1.07667,0.21334 1.43,0.64 0.35333,0.42667 0.53,1.04667 0.53,1.86 m -0.94,-0.66 c 0,-0.73333 -0.33333,-1.09999 -1,-1.1 -0.23333,1e-5 -0.42666,0.03 -0.58,0.09 -0.14666,0.06 -0.25333,0.15001 -0.32,0.27 -0.0667,0.11334 -0.11,0.22667 -0.13,0.34 -0.02,0.10667 -0.03,0.24001 -0.03,0.4 l 2.06,0"
         id="path8412"
         inkscape:connector-curvature="0" />
      <path
         d="m 152.29275,949.65732 0,2.6 -0.88,0 0,-2.08 0,-2.34 0.87,0 0.01,0.78 c 0.30667,-0.51999 0.70667,-0.77999 1.2,-0.78 l 0.04,0 c 0.27333,10e-6 0.51333,0.0933 0.72,0.28 0.17333,0.15334 0.29,0.36334 0.35,0.63 0.13333,-0.29333 0.33,-0.51666 0.59,-0.67 0.26,-0.15999 0.52,-0.23999 0.78,-0.24 0.51333,10e-6 0.89333,0.10668 1.14,0.32 0.38666,0.34001 0.57999,0.74667 0.58,1.22 l 0,2.87 -0.91,0 -0.01,-2.79 c -0.007,-0.34666 -0.09,-0.57999 -0.25,-0.7 -0.16,-0.11999 -0.39,-0.17999 -0.69,-0.18 -0.22,10e-6 -0.40667,0.0933 -0.56,0.28 -0.15334,0.18001 -0.23,0.42667 -0.23,0.74 l 0,0.03 0,2.63 -0.95,0 0.01,-2.77 c 0,-0.61999 -0.32,-0.92999 -0.96,-0.93 l -0.04,0 c -0.54,10e-6 -0.81,0.36667 -0.81,1.1"
         id="path8414"
         inkscape:connector-curvature="0" />
      <path
         d="m 160.42259,952.21732 c -0.31333,0 -0.66,-0.18333 -1.04,-0.55 l -0.01,3.19 -0.87,0 0,-7.02 0.88,0 0,0.52 c 0.34,-0.32666 0.68667,-0.48999 1.04,-0.49 0.5,1e-5 0.95333,0.21668 1.36,0.65 0.41333,0.43334 0.62,0.94001 0.62,1.52 0,0.58001 -0.20667,1.09001 -0.62,1.53 -0.41333,0.43334 -0.86667,0.65 -1.36,0.65 m -0.09,-0.72 c 0.38,0 0.67,-0.13666 0.87,-0.41 0.20667,-0.27999 0.31,-0.62999 0.31,-1.05 0,-0.43999 -0.10667,-0.82666 -0.32,-1.16 -0.20667,-0.33999 -0.50666,-0.50999 -0.9,-0.51 -0.26,1e-5 -0.47333,0.0867 -0.64,0.26 -0.16,0.16667 -0.24,0.39001 -0.24,0.67 l 0,1.54 c 0,0.44001 0.30667,0.66 0.92,0.66"
         id="path8416"
         inkscape:connector-curvature="0" />
      <path
         d="m 163.20963,947.87732 0,-2.64 0.88,0 0.01,2.64 -0.01,2.64 c -1e-5,0.42001 0.0133,0.70667 0.04,0.86 0.0333,0.14667 0.0967,0.22 0.19,0.22 0.0467,0 0.0967,-0.01 0.15,-0.03 0.06,-0.0267 0.15333,-0.0733 0.28,-0.14 0.13333,-0.0733 0.23666,-0.12666 0.31,-0.16 l 0,0.8 c -0.28001,0.14 -0.56667,0.21 -0.86,0.21 -0.66001,0 -0.99,-0.44666 -0.99,-1.34 l 0,-3.06"
         id="path8418"
         inkscape:connector-curvature="0" />
      <path
         d="m 167.64588,947.87732 c 0.28666,10e-6 0.63333,0.19668 1.04,0.59 l 0,-0.61 0.87,0 0,4.4 -0.87,0 0,-0.54 c -0.36001,0.34667 -0.70667,0.52 -1.04,0.52 -0.49334,0 -0.94667,-0.22 -1.36,-0.66 -0.41334,-0.43999 -0.62,-0.94666 -0.62,-1.52 0,-0.57333 0.20666,-1.07999 0.62,-1.52 0.41333,-0.43999 0.86666,-0.65999 1.36,-0.66 m 0.08,0.6 c -0.38001,1e-5 -0.67334,0.15334 -0.88,0.46 -0.20001,0.30667 -0.30001,0.67334 -0.3,1.1 -1e-5,0.43334 0.10333,0.81334 0.31,1.14 0.21333,0.32 0.51666,0.48 0.91,0.48 0.55999,0 0.83999,-0.27333 0.84,-0.82 l 0,-1.6 c -1e-5,-0.25333 -0.08,-0.44333 -0.24,-0.57 -0.15334,-0.12666 -0.36667,-0.18999 -0.64,-0.19"
         id="path8420"
         inkscape:connector-curvature="0" />
      <path
         d="m 171.12806,950.89732 c 0.007,-0.97333 0.01,-1.74666 0.01,-2.32 l -0.78,0 0,-0.74 0.78,0 -0.01,-2.64 0.88,0 0.01,2.64 1.07,0 0,0.74 -1.07,0 -0.01,1.9 c 0,0.42001 0.0133,0.70667 0.04,0.86 0.0333,0.14667 0.0967,0.22 0.19,0.22 0.0467,0 0.0967,-0.01 0.15,-0.03 0.06,-0.0267 0.15333,-0.0733 0.28,-0.14 0.13333,-0.0733 0.23667,-0.12666 0.31,-0.16 l 0,0.8 c -0.28,0.14 -0.56667,0.21 -0.86,0.21 -0.66,0 -0.99,-0.44666 -0.99,-1.34"
         id="path8422"
         inkscape:connector-curvature="0" />
      <path
         d="m 177.57322,950.35732 -3,-0.02 c 0,0.43334 0.11333,0.75667 0.34,0.97 0.23333,0.20667 0.49333,0.31 0.78,0.31 0.16666,0 0.36333,-0.0533 0.59,-0.16 0.23333,-0.10666 0.35,-0.23999 0.35,-0.4 l 0.94,0.02 c -0.20667,0.47334 -0.44667,0.78667 -0.72,0.94 -0.26667,0.14667 -0.66,0.22667 -1.18,0.24 -0.24,0 -0.47,-0.0367 -0.69,-0.11 -0.22,-0.08 -0.43,-0.20333 -0.63,-0.37 -0.2,-0.16666 -0.36,-0.40666 -0.48,-0.72 -0.12,-0.31999 -0.18,-0.69333 -0.18,-1.12 0,-0.61333 0.15,-1.11333 0.45,-1.5 0.30667,-0.38666 0.79666,-0.57999 1.47,-0.58 0.6,1e-5 1.07666,0.21334 1.43,0.64 0.35333,0.42667 0.53,1.04667 0.53,1.86 m -0.94,-0.66 c 0,-0.73333 -0.33334,-1.09999 -1,-1.1 -0.23334,1e-5 -0.42667,0.03 -0.58,0.09 -0.14667,0.06 -0.25334,0.15001 -0.32,0.27 -0.0667,0.11334 -0.11,0.22667 -0.13,0.34 -0.02,0.10667 -0.03,0.24001 -0.03,0.4 l 2.06,0"
         id="path8424"
         inkscape:connector-curvature="0" />
    </g>
    <g
       style="display:inline"
       id="g8063">
      <path
         inkscape:connector-curvature="0"
         id="path4366"
         d="m 232.80247,961.44723 0,90.91497"
         style="fill:none;stroke:#ff0000;stroke-width:1.04632926;stroke-linecap:butt;stroke-linejoin:miter;stroke-miterlimit:4;stroke-opacity:1;stroke-dasharray:2.09265867, 1.04632934;stroke-dashoffset:0;marker-start:url(#Arrow2Mstart);marker-end:url(#Arrow2Mend)" />
      <g
         transform="matrix(0,1,-1,0,0,0)"
         style="font-size:10px;font-style:normal;font-variant:normal;font-weight:normal;font-stretch:normal;line-height:125%;letter-spacing:0px;word-spacing:0px;fill:#000000;fill-opacity:1;stroke:none;font-family:schooltype;-inkscape-font-specification:schooltype"
         id="text5030">
        <path
           d="m 997.06915,-234.94363 c 0.0867,-0.27333 0.26,-0.57667 0.52,-0.91 0.24,-0.31333 0.49334,-0.59 0.76,-0.83 0.25333,-0.22666 0.51333,-0.46666 0.78,-0.72 0.24667,-0.23333 0.42,-0.41333 0.52,-0.54 0.3,-0.4 0.45995,-0.82 0.48005,-1.26 l 0,-0.12 c -10e-5,-0.39999 -0.1001,-0.71666 -0.30005,-0.95 -0.2,-0.23333 -0.43333,-0.34999 -0.7,-0.35 -0.36667,1e-5 -0.65667,0.17667 -0.87,0.53 -0.20666,0.34667 -0.31,0.81 -0.31,1.39 l -0.88,0 c 0,-0.72666 0.20667,-1.34333 0.62,-1.85 0.42,-0.49999 0.89,-0.74999 1.41,-0.75 l 0.03,0 c 0.46,0.007 0.88665,0.18667 1.28005,0.54 0.3799,0.33334 0.5866,0.76667 0.62,1.3 -0.013,0.26667 -0.027,0.46 -0.04,0.58 -0.04,0.18667 -0.1034,0.38667 -0.19,0.6 -0.1001,0.25334 -0.2434,0.5 -0.43,0.74 -0.3601,0.42667 -0.92005,1.02 -1.68005,1.78 -0.10667,0.10667 -0.19333,0.22667 -0.26,0.36 -0.0933,0.16 -0.15,0.27333 -0.17,0.34 l -0.05,0.14 2.76005,0 -0.02,0.64 -3.88005,0 0,-0.43 0,-0.23"
           id="path8484"
           inkscape:connector-curvature="0" />
        <path
           d="m 1003.7348,-241.32363 c 0.56,0.0133 1.0166,0.16667 1.37,0.46 0.3533,0.28667 0.5566,0.76667 0.61,1.44 l -0.94,-0.24 c -0.14,-0.57333 -0.4667,-0.86666 -0.98,-0.88 l -0.02,0 c -0.3067,1e-5 -0.5867,0.20667 -0.84,0.62 -0.1467,0.24667 -0.22,0.80667 -0.22,1.68 0,0 0.01,-0.007 0.02,-0.02 0.013,-0.007 0.033,-0.02 0.06,-0.04 0.027,-0.0267 0.053,-0.0533 0.08,-0.08 0.1066,-0.0933 0.18,-0.14666 0.22,-0.16 0.033,-0.0333 0.12,-0.0667 0.26,-0.1 0.12,-0.04 0.25,-0.06 0.39,-0.06 l 0.03,0 c 0.48,0 0.8666,0.14 1.16,0.42 0.52,0.52 0.78,1.12 0.78,1.8 l 0,0.12 c -0.02,0.51333 -0.2134,0.98667 -0.58,1.42 -0.3734,0.42667 -0.82,0.64 -1.34,0.64 -0.4,0 -0.7367,-0.08 -1.01,-0.24 -0.28,-0.16667 -0.4834,-0.39333 -0.61,-0.68 -0.14,-0.31333 -0.2334,-0.62 -0.28,-0.92 -0.053,-0.33333 -0.08,-0.69666 -0.08,-1.09 0,-0.06 0.01,-0.30333 0.02,-0.73 0.01,-0.1 0.017,-0.21666 0.03,-0.35 0.013,-0.14 0.02,-0.23 0.02,-0.27 0.01,-0.0933 0.033,-0.29666 0.08,-0.61 0.027,-0.18 0.07,-0.39 0.13,-0.63 0.01,-0.0133 0.037,-0.0833 0.09,-0.21 0.053,-0.12666 0.097,-0.22999 0.13,-0.31 0.087,-0.20666 0.1933,-0.36666 0.32,-0.48 0.1466,-0.13333 0.3033,-0.23999 0.47,-0.32 0.1933,-0.0933 0.4033,-0.15333 0.63,-0.18 m 0,3.36 c -0.32,0 -0.5667,0.14667 -0.74,0.44 -0.1867,0.27334 -0.28,0.59667 -0.28,0.97 l 0,0.05 c 0.02,0.54667 0.1,0.94667 0.24,1.2 0.1466,0.24 0.4266,0.36 0.84,0.36 0.2466,0 0.4533,-0.0733 0.62,-0.22 0.1533,-0.16 0.2533,-0.32667 0.3,-0.5 0.04,-0.18 0.06,-0.38 0.06,-0.6 l 0,-0.11 c 0,-0.24 -0.013,-0.43666 -0.04,-0.59 -0.027,-0.14 -0.073,-0.30666 -0.14,-0.5 -0.08,-0.16 -0.1867,-0.28333 -0.32,-0.37 -0.1467,-0.0867 -0.3267,-0.13 -0.54,-0.13"
           id="path8486"
           inkscape:connector-curvature="0" />
        <path
           d="m 1007.4023,-236.88363 0,2.6 -0.88,0 0,-2.08 0,-2.34 0.87,0 0.01,0.78 c 0.3066,-0.52 0.7066,-0.78 1.2,-0.78 l 0.04,0 c 0.2733,0 0.5133,0.0933 0.72,0.28 0.1733,0.15334 0.29,0.36334 0.35,0.63 0.1333,-0.29333 0.33,-0.51666 0.59,-0.67 0.26,-0.16 0.52,-0.24 0.78,-0.24 0.5133,0 0.8933,0.10667 1.14,0.32 0.3866,0.34 0.58,0.74667 0.58,1.22 l 0,2.87 -0.91,0 -0.01,-2.79 c -0.01,-0.34666 -0.09,-0.58 -0.25,-0.7 -0.16,-0.12 -0.39,-0.18 -0.69,-0.18 -0.22,0 -0.4067,0.0933 -0.56,0.28 -0.1534,0.18 -0.23,0.42667 -0.23,0.74 l 0,0.03 0,2.63 -0.95,0 0.01,-2.77 c 0,-0.62 -0.32,-0.93 -0.96,-0.93 l -0.04,0 c -0.54,0 -0.81,0.36667 -0.81,1.1"
           id="path8488"
           inkscape:connector-curvature="0" />
        <path
           d="m 1014.4921,-236.88363 0,2.6 -0.88,0 0,-2.08 0,-2.34 0.87,0 0.01,0.78 c 0.3067,-0.52 0.7067,-0.78 1.2,-0.78 l 0.04,0 c 0.2734,0 0.5134,0.0933 0.72,0.28 0.1734,0.15334 0.29,0.36334 0.35,0.63 0.1334,-0.29333 0.33,-0.51666 0.59,-0.67 0.26,-0.16 0.52,-0.24 0.78,-0.24 0.5133,0 0.8933,0.10667 1.14,0.32 0.3867,0.34 0.58,0.74667 0.58,1.22 l 0,2.87 -0.91,0 -0.01,-2.79 c -0.01,-0.34666 -0.09,-0.58 -0.25,-0.7 -0.16,-0.12 -0.39,-0.18 -0.69,-0.18 -0.22,0 -0.4066,0.0933 -0.56,0.28 -0.1533,0.18 -0.23,0.42667 -0.23,0.74 l 0,0.03 0,2.63 -0.95,0 0.01,-2.77 c 0,-0.62 -0.32,-0.93 -0.96,-0.93 l -0.04,0 c -0.54,0 -0.81,0.36667 -0.81,1.1"
           id="path8490"
           inkscape:connector-curvature="0" />
      </g>
    </g>
    <g
       style="display:inline"
       id="g8072">
      <path
         inkscape:connector-curvature="0"
         id="path4366-0"
         d="m 743.23879,777.98784 -58.54516,0"
         style="fill:none;stroke:#ff0000;stroke-width:1.0629921;stroke-linecap:butt;stroke-linejoin:miter;stroke-miterlimit:4;stroke-opacity:1;stroke-dasharray:2.12598424, 1.06299213;stroke-dashoffset:0;marker-start:url(#Arrow2Mstart);marker-end:url(#Arrow2Mend)" />
      <g
         style="font-size:10px;font-style:normal;font-variant:normal;font-weight:normal;font-stretch:normal;line-height:125%;letter-spacing:0px;word-spacing:0px;fill:#000000;fill-opacity:1;stroke:none;font-family:schooltype;-inkscape-font-specification:schooltype"
         id="text5034">
        <path
           d="m 702.5036,768.38857 0,0.68 0,6.32 -0.94,0 0,-6.1 -2.06,2.44 -0.88,0 2.95,-3.34 0.93,0"
           id="path8493"
           inkscape:connector-curvature="0" />
        <path
           d="m 703.3211,768.35857 3.87,0.01 0,0.9 c -0.56667,1.04 -0.98001,1.86667 -1.24,2.48 l 0.47,0 -0.01,0.68 -0.76,0 c -0.19334,0.47334 -0.67667,1.46 -1.45,2.96 l -0.89,0.02 c 0.23333,-0.43333 0.5,-0.95667 0.8,-1.57 0.3,-0.60667 0.53999,-1.07666 0.72,-1.41 l -0.9,0 0.01,-0.68 1.13,0 c 0.0933,-0.22 0.30666,-0.66 0.64,-1.32 0.29999,-0.54666 0.47999,-0.93333 0.54,-1.16 l -2.94,0 0.01,-0.91"
           id="path8495"
           inkscape:connector-curvature="0" />
        <path
           d="m 708.3786,775.17857 c 0.007,-0.14667 0.0733,-0.27 0.2,-0.37 0.12,-0.1 0.25666,-0.15 0.41,-0.15 0.14666,0 0.27999,0.0633 0.4,0.19 0.11999,0.12 0.17999,0.25333 0.18,0.4 l 0,0.02 c -10e-6,0.12 -0.0233,0.28333 -0.07,0.49 -0.0867,0.22667 -0.25334,0.42667 -0.5,0.6 -0.26667,0.17333 -0.5,0.26 -0.7,0.26 -0.12667,0 -0.22667,-0.0367 -0.3,-0.11 0.24,-0.0733 0.42666,-0.15333 0.56,-0.24 0.12666,-0.0733 0.25,-0.19 0.37,-0.35 0.11333,-0.12667 0.18,-0.25 0.2,-0.37 0.007,-0.0267 -0.003,-0.0733 -0.03,-0.14 -0.14667,0.18 -0.29334,0.27 -0.44,0.27 -0.0867,0 -0.15667,-0.0367 -0.21,-0.11 -0.0467,-0.0667 -0.07,-0.19667 -0.07,-0.39"
           id="path8497"
           inkscape:connector-curvature="0" />
        <path
           d="m 710.36188,768.36857 3.77,0 0,0.96 -2.9,0.02 0,2.04 c 0.19333,-0.25333 0.54666,-0.38 1.06,-0.38 0.61999,0.0267 1.08999,0.20667 1.41,0.54 0.29999,0.33334 0.47666,0.82667 0.53,1.48 l 0,0.06 c -1e-5,0.70667 -0.16667,1.27333 -0.5,1.7 -0.33334,0.41333 -0.81001,0.62 -1.43,0.62 -0.48,0 -0.92334,-0.14333 -1.33,-0.43 -0.40667,-0.28667 -0.61,-0.65667 -0.61,-1.11 l 0.87,-0.18 c 0.007,0.26667 0.11666,0.51 0.33,0.73 0.22666,0.22 0.46333,0.33667 0.71,0.35 0.67999,0 1.01999,-0.57333 1.02,-1.72 -10e-6,-0.88666 -0.33334,-1.33333 -1,-1.34 -0.51334,0.11334 -0.86667,0.42 -1.06,0.92 l -0.87,-0.37 0,-3.89"
           id="path8499"
           inkscape:connector-curvature="0" />
        <path
           d="m 718.91766,772.80857 0,2.6 -0.88,0 0,-2.08 0,-2.34 0.87,0 0.01,0.78 c 0.30666,-0.52 0.70666,-0.78 1.2,-0.78 l 0.04,0 c 0.27333,0 0.51333,0.0933 0.72,0.28 0.17333,0.15334 0.29,0.36334 0.35,0.63 0.13333,-0.29333 0.33,-0.51666 0.59,-0.67 0.25999,-0.16 0.51999,-0.24 0.78,-0.24 0.51333,0 0.89333,0.10667 1.14,0.32 0.38666,0.34 0.57999,0.74667 0.58,1.22 l 0,2.87 -0.91,0 -0.01,-2.79 c -0.007,-0.34666 -0.09,-0.58 -0.25,-0.7 -0.16001,-0.12 -0.39001,-0.18 -0.69,-0.18 -0.22001,0 -0.40667,0.0933 -0.56,0.28 -0.15334,0.18 -0.23,0.42667 -0.23,0.74 l 0,0.03 0,2.63 -0.95,0 0.01,-2.77 c 0,-0.62 -0.32,-0.93 -0.96,-0.93 l -0.04,0 c -0.54,0 -0.81,0.36667 -0.81,1.1"
           id="path8501"
           inkscape:connector-curvature="0" />
        <path
           d="m 726.0075,772.80857 0,2.6 -0.88,0 0,-2.08 0,-2.34 0.87,0 0.01,0.78 c 0.30667,-0.52 0.70667,-0.78 1.2,-0.78 l 0.04,0 c 0.27333,0 0.51333,0.0933 0.72,0.28 0.17333,0.15334 0.29,0.36334 0.35,0.63 0.13333,-0.29333 0.33,-0.51666 0.59,-0.67 0.26,-0.16 0.52,-0.24 0.78,-0.24 0.51333,0 0.89333,0.10667 1.14,0.32 0.38666,0.34 0.58,0.74667 0.58,1.22 l 0,2.87 -0.91,0 -0.01,-2.79 c -0.007,-0.34666 -0.09,-0.58 -0.25,-0.7 -0.16,-0.12 -0.39,-0.18 -0.69,-0.18 -0.22,0 -0.40667,0.0933 -0.56,0.28 -0.15333,0.18 -0.23,0.42667 -0.23,0.74 l 0,0.03 0,2.63 -0.95,0 0.01,-2.77 c 0,-0.62 -0.32,-0.93 -0.96,-0.93 l -0.04,0 c -0.54,0 -0.81,0.36667 -0.81,1.1"
           id="path8503"
           inkscape:connector-curvature="0" />
      </g>
    </g>
  </g>
  <g
     inkscape:groupmode="layer"
     id="layer2"
     inkscape:label="red helping lines"
     style="display:inline"
     sodipodi:insensitive="true">
    <path
       style="fill:none;stroke:#ff0000;stroke-width:1.09102333;stroke-linecap:butt;stroke-linejoin:miter;stroke-miterlimit:4;stroke-opacity:1;stroke-dasharray:8.72818689, 1.09102336;stroke-dashoffset:0"
       d="m 491.29359,916.63951 176.07424,0"
       id="path3766"
       inkscape:connector-curvature="0"
       sodipodi:nodetypes="cc" />
    <path
       style="fill:none;stroke:#ff0000;stroke-width:1.09102333;stroke-linecap:butt;stroke-linejoin:miter;stroke-miterlimit:4;stroke-opacity:1;stroke-dasharray:8.72818689, 1.09102336;stroke-dashoffset:0"
       d="m 491.29355,873.58832 176.07424,0"
       id="path3766-3"
       inkscape:connector-curvature="0"
       sodipodi:nodetypes="cc" />
    <path
       style="fill:none;stroke:#ff0000;stroke-width:1.09102333;stroke-linecap:butt;stroke-linejoin:miter;stroke-miterlimit:4;stroke-opacity:1;stroke-dasharray:8.72818689, 1.09102336;stroke-dashoffset:0"
       d="m 491.29355,830.53714 176.07424,0"
       id="path3766-5"
       inkscape:connector-curvature="0"
       sodipodi:nodetypes="cc" />
    <path
       style="fill:none;stroke:#ff0000;stroke-width:1.09102333;stroke-linecap:butt;stroke-linejoin:miter;stroke-miterlimit:4;stroke-opacity:1;stroke-dasharray:8.72818689, 1.09102336;stroke-dashoffset:0"
       d="m 491.29355,787.48596 176.07424,0"
       id="path3766-39"
       inkscape:connector-curvature="0"
       sodipodi:nodetypes="cc" />
    <path
       style="fill:none;stroke:#ff0000;stroke-width:1.09102333;stroke-linecap:butt;stroke-linejoin:miter;stroke-miterlimit:4;stroke-opacity:1;stroke-dasharray:8.72818689, 1.09102336;stroke-dashoffset:0"
       d="m 491.29355,744.43478 176.07423,0"
       id="path3766-0"
       inkscape:connector-curvature="0"
       sodipodi:nodetypes="cc" />
    <path
       style="fill:none;stroke:#ff0000;stroke-width:1.09102333;stroke-linecap:butt;stroke-linejoin:miter;stroke-miterlimit:4;stroke-opacity:1;stroke-dasharray:8.72818689, 1.09102336;stroke-dashoffset:0"
       d="m 491.29355,701.38359 176.0742,0"
       id="path3766-6"
       inkscape:connector-curvature="0"
       sodipodi:nodetypes="cc" />
    <path
       style="fill:none;stroke:#ff0000;stroke-width:1.09102333;stroke-linecap:butt;stroke-linejoin:miter;stroke-miterlimit:4;stroke-opacity:1;stroke-dasharray:8.72818689, 1.09102336;stroke-dashoffset:0"
       d="m 491.29355,658.33241 176.07424,0"
       id="path3766-8"
       inkscape:connector-curvature="0"
       sodipodi:nodetypes="cc" />
    <path
       style="fill:none;stroke:#ff0000;stroke-width:1.09102333;stroke-linecap:butt;stroke-linejoin:miter;stroke-miterlimit:4;stroke-opacity:1;stroke-dasharray:8.72818689, 1.09102336;stroke-dashoffset:0"
       d="m 491.29355,615.28123 176.07424,0"
       id="path3766-53"
       inkscape:connector-curvature="0"
       sodipodi:nodetypes="cc" />
    <path
       style="fill:none;stroke:#ff0000;stroke-width:1.09102333;stroke-linecap:butt;stroke-linejoin:miter;stroke-miterlimit:4;stroke-opacity:1;stroke-dasharray:8.72818689, 1.09102336;stroke-dashoffset:0"
       d="m 491.29355,572.23005 176.07424,0"
       id="path3766-1"
       inkscape:connector-curvature="0"
       sodipodi:nodetypes="cc" />
    <path
       style="fill:none;stroke:#ff0000;stroke-width:1.09102333;stroke-linecap:butt;stroke-linejoin:miter;stroke-miterlimit:4;stroke-opacity:1;stroke-dasharray:8.72818689, 1.09102336;stroke-dashoffset:0"
       d="m 491.29355,529.17887 176.07424,0"
       id="path3766-7"
       inkscape:connector-curvature="0"
       sodipodi:nodetypes="cc" />
    <path
       style="fill:none;stroke:#ff0000;stroke-width:1.09102333;stroke-linecap:butt;stroke-linejoin:miter;stroke-miterlimit:4;stroke-opacity:1;stroke-dasharray:8.72818689, 1.09102336;stroke-dashoffset:0"
       d="m 491.29355,486.12769 176.07424,0"
       id="path3766-72"
       inkscape:connector-curvature="0"
       sodipodi:nodetypes="cc" />
    <path
       style="fill:none;stroke:#ff0000;stroke-width:1.09102333;stroke-linecap:butt;stroke-linejoin:miter;stroke-miterlimit:4;stroke-opacity:1;stroke-dasharray:8.72818689, 1.09102336;stroke-dashoffset:0"
       d="m 491.29355,443.07651 176.07424,0"
       id="path3766-65"
       inkscape:connector-curvature="0"
       sodipodi:nodetypes="cc" />
    <path
       style="fill:none;stroke:#ff0000;stroke-width:1.09102333;stroke-linecap:butt;stroke-linejoin:miter;stroke-miterlimit:4;stroke-opacity:1;stroke-dasharray:8.72818689, 1.09102336;stroke-dashoffset:0"
       d="m 491.29355,400.02533 176.07424,0"
       id="path3766-9"
       inkscape:connector-curvature="0"
       sodipodi:nodetypes="cc" />
    <path
       style="fill:none;stroke:#ff0000;stroke-width:1.09102333;stroke-linecap:butt;stroke-linejoin:miter;stroke-miterlimit:4;stroke-opacity:1;stroke-dasharray:8.72818689, 1.09102336;stroke-dashoffset:0"
       d="m 491.29355,356.97415 176.07424,0"
       id="path3766-36"
       inkscape:connector-curvature="0"
       sodipodi:nodetypes="cc" />
    <path
       style="fill:none;stroke:#ff0000;stroke-width:1.09102333;stroke-linecap:butt;stroke-linejoin:miter;stroke-miterlimit:4;stroke-opacity:1;stroke-dasharray:8.72818689, 1.09102336;stroke-dashoffset:0"
       d="m 491.29355,313.03714 176.07424,0"
       id="path3766-71"
       inkscape:connector-curvature="0"
       sodipodi:nodetypes="cc" />
    <path
       style="fill:none;stroke:#ff0000;stroke-width:1.09102333;stroke-linecap:butt;stroke-linejoin:miter;stroke-miterlimit:4;stroke-opacity:1;stroke-dasharray:8.72818689, 1.09102336;stroke-dashoffset:0"
       d="m 491.29355,270.87178 176.07424,0"
       id="path3766-58"
       inkscape:connector-curvature="0"
       sodipodi:nodetypes="cc" />
    <path
       style="fill:none;stroke:#ff0000;stroke-width:1.09102333;stroke-linecap:butt;stroke-linejoin:miter;stroke-miterlimit:4;stroke-opacity:1;stroke-dasharray:8.72818689, 1.09102336;stroke-dashoffset:0"
       d="m 491.29355,227.8206 176.07424,0"
       id="path3766-98"
       inkscape:connector-curvature="0"
       sodipodi:nodetypes="cc" />
    <path
       style="fill:none;stroke:#ff0000;stroke-width:1.09102333;stroke-linecap:butt;stroke-linejoin:miter;stroke-miterlimit:4;stroke-opacity:1;stroke-dasharray:8.72818689, 1.09102336;stroke-dashoffset:0"
       d="m 491.29355,184.76942 176.07423,0"
       id="path3766-64"
       inkscape:connector-curvature="0"
       sodipodi:nodetypes="cc" />
    <rect
       style="color:#000000;fill:none;stroke:#ff0000;stroke-width:0.85585231;stroke-linecap:round;stroke-linejoin:bevel;stroke-miterlimit:4;stroke-opacity:1;stroke-dasharray:5.13511397, 5.13511397;stroke-dashoffset:0;marker:none;visibility:visible;display:inline;overflow:visible;enable-background:accumulate"
       id="rect2985-4"
       width="590.87646"
       height="828.27802"
       x="76.609039"
       y="110.27042"
       transform="translate(0,-2.5390623e-6)" />
  </g>
  <g
     inkscape:groupmode="layer"
     id="layer3"
     inkscape:label="Header frontsite"
     style="display:inline"
     sodipodi:insensitive="true">
    <rect
       style="color:#000000;fill:#ffc200;fill-opacity:1;stroke:none;stroke-width:0;marker:none;visibility:visible;display:inline;overflow:visible;enable-background:accumulate"
       id="rect2994"
       width="591.7323"
       height="42.519684"
       x="76.181107"
       y="109.8425" />
  </g>
  <g
     style="display:none"
     inkscape:label="Header backsite"
     id="g3886"
     inkscape:groupmode="layer"
     sodipodi:insensitive="true">
    <rect
       y="109.8425"
       x="76.181107"
       height="42.519684"
       width="591.7323"
       id="rect3888"
       style="color:#000000;fill:#808080;fill-opacity:1;stroke:none;stroke-width:0;marker:none;visibility:visible;display:inline;overflow:visible;enable-background:accumulate" />
  </g>
  <g
     inkscape:groupmode="layer"
     id="layer4"
     inkscape:label="right boxes"
     style="display:inline"
     sodipodi:insensitive="true">
    <path
       style="color:#000000;fill:#ffffff;fill-opacity:1;fill-rule:nonzero;stroke:#393939;stroke-width:1.29523075;stroke-linecap:round;stroke-linejoin:bevel;stroke-miterlimit:4;stroke-opacity:1;stroke-dashoffset:0;marker:none;visibility:visible;display:inline;overflow:visible;enable-background:accumulate"
       d="m 526.82872,896.57279 140.43706,0 0,41.75592 -140.43706,0 z"
       id="rect3906"
       inkscape:connector-curvature="0" />
    <path
       style="color:#000000;fill:#bbd9ff;fill-opacity:1;fill-rule:nonzero;stroke:#393939;stroke-width:1.29523039;stroke-linecap:round;stroke-linejoin:bevel;stroke-miterlimit:4;stroke-opacity:1;stroke-dashoffset:0;marker:none;visibility:visible;display:inline;overflow:visible;enable-background:accumulate"
       d="m 526.82872,853.5216 140.43706,0 0,41.75595 -140.43706,0 z"
       id="rect3906-9"
       inkscape:connector-curvature="0" />
    <path
       style="color:#000000;fill:#ffffff;fill-opacity:1;fill-rule:nonzero;stroke:#393939;stroke-width:1.29523075;stroke-linecap:round;stroke-linejoin:bevel;stroke-miterlimit:4;stroke-opacity:1;stroke-dashoffset:0;marker:none;visibility:visible;display:inline;overflow:visible;enable-background:accumulate"
       d="m 526.82872,810.47045 140.43706,0 0,41.75592 -140.43706,0 z"
       id="rect3906-1"
       inkscape:connector-curvature="0" />
    <path
       style="color:#000000;fill:#bbd9ff;fill-opacity:1;fill-rule:nonzero;stroke:#393939;stroke-width:1.29523039;stroke-linecap:round;stroke-linejoin:bevel;stroke-miterlimit:4;stroke-opacity:1;stroke-dashoffset:0;marker:none;visibility:visible;display:inline;overflow:visible;enable-background:accumulate"
       d="m 526.82872,767.41926 140.43706,0 0,41.75595 -140.43706,0 z"
       id="rect3906-9-5"
       inkscape:connector-curvature="0" />
    <path
       style="color:#000000;fill:#ffffff;fill-opacity:1;fill-rule:nonzero;stroke:#393939;stroke-width:1.29523075;stroke-linecap:round;stroke-linejoin:bevel;stroke-miterlimit:4;stroke-opacity:1;stroke-dashoffset:0;marker:none;visibility:visible;display:inline;overflow:visible;enable-background:accumulate"
       d="m 526.82872,724.89959 140.43706,0 0,41.75592 -140.43706,0 z"
       id="rect3906-7"
       inkscape:connector-curvature="0" />
    <path
       style="color:#000000;fill:#bbd9ff;fill-opacity:1;fill-rule:nonzero;stroke:#393939;stroke-width:1.29523039;stroke-linecap:round;stroke-linejoin:bevel;stroke-miterlimit:4;stroke-opacity:1;stroke-dashoffset:0;marker:none;visibility:visible;display:inline;overflow:visible;enable-background:accumulate"
       d="m 526.82872,681.8484 140.43706,0 0,41.75595 -140.43706,0 z"
       id="rect3906-9-9"
       inkscape:connector-curvature="0" />
    <path
       style="color:#000000;fill:#ffffff;fill-opacity:1;fill-rule:nonzero;stroke:#393939;stroke-width:1.29523075;stroke-linecap:round;stroke-linejoin:bevel;stroke-miterlimit:4;stroke-opacity:1;stroke-dashoffset:0;marker:none;visibility:visible;display:inline;overflow:visible;enable-background:accumulate"
       d="m 526.82872,638.79725 140.43706,0 0,41.75592 -140.43706,0 z"
       id="rect3906-1-7"
       inkscape:connector-curvature="0" />
    <path
       style="color:#000000;fill:#bbd9ff;fill-opacity:1;fill-rule:nonzero;stroke:#393939;stroke-width:1.29523039;stroke-linecap:round;stroke-linejoin:bevel;stroke-miterlimit:4;stroke-opacity:1;stroke-dashoffset:0;marker:none;visibility:visible;display:inline;overflow:visible;enable-background:accumulate"
       d="m 526.82872,595.74606 140.43706,0 0,41.75595 -140.43706,0 z"
       id="rect3906-9-5-4"
       inkscape:connector-curvature="0" />
    <path
       style="color:#000000;fill:#ffffff;fill-opacity:1;fill-rule:nonzero;stroke:#393939;stroke-width:1.29523075;stroke-linecap:round;stroke-linejoin:bevel;stroke-miterlimit:4;stroke-opacity:1;stroke-dashoffset:0;marker:none;visibility:visible;display:inline;overflow:visible;enable-background:accumulate"
       d="m 526.82872,552.69486 140.43706,0 0,41.75592 -140.43706,0 z"
       id="rect3906-6"
       inkscape:connector-curvature="0" />
    <path
       style="color:#000000;fill:#bbd9ff;fill-opacity:1;fill-rule:nonzero;stroke:#393939;stroke-width:1.29523039;stroke-linecap:round;stroke-linejoin:bevel;stroke-miterlimit:4;stroke-opacity:1;stroke-dashoffset:0;marker:none;visibility:visible;display:inline;overflow:visible;enable-background:accumulate"
       d="m 526.82872,509.64366 140.43706,0 0,41.75596 -140.43706,0 z"
       id="rect3906-9-4"
       inkscape:connector-curvature="0" />
    <path
       style="color:#000000;fill:#ffffff;fill-opacity:1;fill-rule:nonzero;stroke:#393939;stroke-width:1.29523075;stroke-linecap:round;stroke-linejoin:bevel;stroke-miterlimit:4;stroke-opacity:1;stroke-dashoffset:0;marker:none;visibility:visible;display:inline;overflow:visible;enable-background:accumulate"
       d="m 526.82872,466.59251 140.43706,0 0,41.75592 -140.43706,0 z"
       id="rect3906-1-2"
       inkscape:connector-curvature="0" />
    <path
       style="color:#000000;fill:#bbd9ff;fill-opacity:1;fill-rule:nonzero;stroke:#393939;stroke-width:1.29523039;stroke-linecap:round;stroke-linejoin:bevel;stroke-miterlimit:4;stroke-opacity:1;stroke-dashoffset:0;marker:none;visibility:visible;display:inline;overflow:visible;enable-background:accumulate"
       d="m 526.82872,423.54132 140.43706,0 0,41.75595 -140.43706,0 z"
       id="rect3906-9-5-5"
       inkscape:connector-curvature="0" />
    <path
       style="color:#000000;fill:#ffffff;fill-opacity:1;fill-rule:nonzero;stroke:#393939;stroke-width:1.29523075;stroke-linecap:round;stroke-linejoin:bevel;stroke-miterlimit:4;stroke-opacity:1;stroke-dashoffset:0;marker:none;visibility:visible;display:inline;overflow:visible;enable-background:accumulate"
       d="m 526.82872,380.49014 140.43706,0 0,41.75592 -140.43706,0 z"
       id="rect3906-99"
       inkscape:connector-curvature="0" />
    <path
       style="color:#000000;fill:#bbd9ff;fill-opacity:1;fill-rule:nonzero;stroke:#393939;stroke-width:1.29523039;stroke-linecap:round;stroke-linejoin:bevel;stroke-miterlimit:4;stroke-opacity:1;stroke-dashoffset:0;marker:none;visibility:visible;display:inline;overflow:visible;enable-background:accumulate"
       d="m 526.82872,337.43895 140.43706,0 0,41.75595 -140.43706,0 z"
       id="rect3906-9-2"
       inkscape:connector-curvature="0" />
    <path
       style="color:#000000;fill:#ffffff;fill-opacity:1;fill-rule:nonzero;stroke:#393939;stroke-width:1.29523075;stroke-linecap:round;stroke-linejoin:bevel;stroke-miterlimit:4;stroke-opacity:1;stroke-dashoffset:0;marker:none;visibility:visible;display:inline;overflow:visible;enable-background:accumulate"
       d="m 526.82872,294.3878 140.43706,0 0,41.75592 -140.43706,0 z"
       id="rect3906-1-1"
       inkscape:connector-curvature="0" />
    <path
       style="color:#000000;fill:#bbd9ff;fill-opacity:1;fill-rule:nonzero;stroke:#393939;stroke-width:1.29523039;stroke-linecap:round;stroke-linejoin:bevel;stroke-miterlimit:4;stroke-opacity:1;stroke-dashoffset:0;marker:none;visibility:visible;display:inline;overflow:visible;enable-background:accumulate"
       d="m 526.82872,251.33661 140.43706,0 0,41.75595 -140.43706,0 z"
       id="rect3906-9-5-6"
       inkscape:connector-curvature="0" />
    <path
       style="color:#000000;fill:#ffffff;fill-opacity:1;fill-rule:nonzero;stroke:#393939;stroke-width:1.29523075;stroke-linecap:round;stroke-linejoin:bevel;stroke-miterlimit:4;stroke-opacity:1;stroke-dashoffset:0;marker:none;visibility:visible;display:inline;overflow:visible;enable-background:accumulate"
       d="m 526.82872,208.28541 140.43706,0 0,41.75592 -140.43706,0 z"
       id="rect3906-1-1-3"
       inkscape:connector-curvature="0" />
    <path
       style="color:#000000;fill:#bbd9ff;fill-opacity:1;fill-rule:nonzero;stroke:#393939;stroke-width:1.29523039;stroke-linecap:round;stroke-linejoin:bevel;stroke-miterlimit:4;stroke-opacity:1;stroke-dashoffset:0;marker:none;visibility:visible;display:inline;overflow:visible;enable-background:accumulate"
       d="m 526.82872,165.23422 140.43706,0 0,41.75595 -140.43706,0 z"
       id="rect3906-9-5-6-2"
       inkscape:connector-curvature="0" />
  </g>
  <g
     inkscape:groupmode="layer"
     id="layer5"
     inkscape:label="Title"
     style="display:inline">
    <g
       id="g4145"
       transform="translate(-102.31424,-64.800774)">
      <path
         transform="matrix(0.71547547,0,0,0.68897638,-217.1753,260.78552)"
         style="color:#000000;fill:#d07eff;fill-opacity:1;fill-rule:nonzero;stroke:#393939;stroke-width:2.52336049;stroke-linecap:round;stroke-linejoin:bevel;stroke-miterlimit:4;stroke-dashoffset:0;stroke-opacity:1;marker:none;visibility:visible;display:inline;overflow:visible;enable-background:accumulate"
         d="m 852,606.36218 c 0,14.91169 -11.6406,27 -26,27 -14.3594,0 -26,-12.08831 -26,-27 0,-14.91169 11.6406,-27 26,-27 14.3594,0 26,12.08831 26,27 z"
         id="path4125" />
      <path
         transform="matrix(0.30663234,0,0,0.29527559,120.52913,499.51079)"
         style="color:#000000;fill:#ffffff;fill-opacity:1;fill-rule:nonzero;stroke:#393939;stroke-width:5.88784027;stroke-linecap:round;stroke-linejoin:bevel;stroke-miterlimit:4;stroke-dashoffset:0;stroke-opacity:1;marker:none;visibility:visible;display:inline;overflow:visible;enable-background:accumulate"
         d="m 852,606.36218 c 0,14.91169 -11.6406,27 -26,27 -14.3594,0 -26,-12.08831 -26,-27 0,-14.91169 11.6406,-27 26,-27 14.3594,0 26,12.08831 26,27 z"
         id="path4125-5" />
    </g>
    <g
       transform="translate(-102.31424,-337.63612)"
       id="g4145-9">
      <path
         transform="matrix(0.71547547,0,0,0.68897638,-217.1753,260.78552)"
         style="color:#000000;fill:#0056c7;fill-opacity:1;fill-rule:nonzero;stroke:#393939;stroke-width:2.52336049;stroke-linecap:round;stroke-linejoin:bevel;stroke-miterlimit:4;stroke-dashoffset:0;stroke-opacity:1;marker:none;visibility:visible;display:inline;overflow:visible;enable-background:accumulate"
         d="m 852,606.36218 c 0,14.91169 -11.6406,27 -26,27 -14.3594,0 -26,-12.08831 -26,-27 0,-14.91169 11.6406,-27 26,-27 14.3594,0 26,12.08831 26,27 z"
         id="path4125-6" />
      <path
         transform="matrix(0.30663234,0,0,0.29527559,120.52913,499.51079)"
         style="color:#000000;fill:#ffffff;fill-opacity:1;fill-rule:nonzero;stroke:#393939;stroke-width:5.88784027;stroke-linecap:round;stroke-linejoin:bevel;stroke-miterlimit:4;stroke-dashoffset:0;stroke-opacity:1;marker:none;visibility:visible;display:inline;overflow:visible;enable-background:accumulate"
         d="m 852,606.36218 c 0,14.91169 -11.6406,27 -26,27 -14.3594,0 -26,-12.08831 -26,-27 0,-14.91169 11.6406,-27 26,-27 14.3594,0 26,12.08831 26,27 z"
         id="path4125-5-4" />
    </g>
    <g
       transform="translate(-102.31424,-103.77726)"
       id="g4145-4">
      <path
         transform="matrix(0.71547547,0,0,0.68897638,-217.1753,260.78552)"
         style="color:#000000;fill:#831900;fill-opacity:1;fill-rule:nonzero;stroke:#393939;stroke-width:2.52336049;stroke-linecap:round;stroke-linejoin:bevel;stroke-miterlimit:4;stroke-dashoffset:0;stroke-opacity:1;marker:none;visibility:visible;display:inline;overflow:visible;enable-background:accumulate"
         d="m 852,606.36218 c 0,14.91169 -11.6406,27 -26,27 -14.3594,0 -26,-12.08831 -26,-27 0,-14.91169 11.6406,-27 26,-27 14.3594,0 26,12.08831 26,27 z"
         id="path4125-58" />
      <path
         transform="matrix(0.30663234,0,0,0.29527559,120.52913,499.51079)"
         style="color:#000000;fill:#ffffff;fill-opacity:1;fill-rule:nonzero;stroke:#393939;stroke-width:5.88784027;stroke-linecap:round;stroke-linejoin:bevel;stroke-miterlimit:4;stroke-dashoffset:0;stroke-opacity:1;marker:none;visibility:visible;display:inline;overflow:visible;enable-background:accumulate"
         d="m 852,606.36218 c 0,14.91169 -11.6406,27 -26,27 -14.3594,0 -26,-12.08831 -26,-27 0,-14.91169 11.6406,-27 26,-27 14.3594,0 26,12.08831 26,27 z"
         id="path4125-5-7" />
    </g>
    <g
       transform="translate(-102.31424,-25.824295)"
       id="g4145-5">
      <path
         transform="matrix(0.71547547,0,0,0.68897638,-217.1753,260.78552)"
         style="color:#000000;fill:#3cfff1;fill-opacity:1;fill-rule:nonzero;stroke:#393939;stroke-width:2.52336049;stroke-linecap:round;stroke-linejoin:bevel;stroke-miterlimit:4;stroke-dashoffset:0;stroke-opacity:1;marker:none;visibility:visible;display:inline;overflow:visible;enable-background:accumulate"
         d="m 852,606.36218 c 0,14.91169 -11.6406,27 -26,27 -14.3594,0 -26,-12.08831 -26,-27 0,-14.91169 11.6406,-27 26,-27 14.3594,0 26,12.08831 26,27 z"
         id="path4125-1" />
      <path
         transform="matrix(0.30663234,0,0,0.29527559,120.52913,499.51079)"
         style="color:#000000;fill:#ffffff;fill-opacity:1;fill-rule:nonzero;stroke:#393939;stroke-width:5.88784027;stroke-linecap:round;stroke-linejoin:bevel;stroke-miterlimit:4;stroke-dashoffset:0;stroke-opacity:1;marker:none;visibility:visible;display:inline;overflow:visible;enable-background:accumulate"
         d="m 852,606.36218 c 0,14.91169 -11.6406,27 -26,27 -14.3594,0 -26,-12.08831 -26,-27 0,-14.91169 11.6406,-27 26,-27 14.3594,0 26,12.08831 26,27 z"
         id="path4125-5-0" />
    </g>
    <g
       transform="translate(-102.31424,-259.68317)"
       id="g4145-42">
      <path
         transform="matrix(0.71547547,0,0,0.68897638,-217.1753,260.78552)"
         style="color:#000000;fill:#4dff00;fill-opacity:1;fill-rule:nonzero;stroke:#393939;stroke-width:2.52336049;stroke-linecap:round;stroke-linejoin:bevel;stroke-miterlimit:4;stroke-dashoffset:0;stroke-opacity:1;marker:none;visibility:visible;display:inline;overflow:visible;enable-background:accumulate"
         d="m 852,606.36218 c 0,14.91169 -11.6406,27 -26,27 -14.3594,0 -26,-12.08831 -26,-27 0,-14.91169 11.6406,-27 26,-27 14.3594,0 26,12.08831 26,27 z"
         id="path4125-0" />
      <path
         transform="matrix(0.30663234,0,0,0.29527559,120.52913,499.51079)"
         style="color:#000000;fill:#ffffff;fill-opacity:1;fill-rule:nonzero;stroke:#393939;stroke-width:5.88784027;stroke-linecap:round;stroke-linejoin:bevel;stroke-miterlimit:4;stroke-dashoffset:0;stroke-opacity:1;marker:none;visibility:visible;display:inline;overflow:visible;enable-background:accumulate"
         d="m 852,606.36218 c 0,14.91169 -11.6406,27 -26,27 -14.3594,0 -26,-12.08831 -26,-27 0,-14.91169 11.6406,-27 26,-27 14.3594,0 26,12.08831 26,27 z"
         id="path4125-5-5" />
    </g>
    <g
       transform="translate(-102.31424,-220.70669)"
       id="g4145-97">
      <path
         transform="matrix(0.71547547,0,0,0.68897638,-217.1753,260.78552)"
         style="color:#000000;fill:#ff8800;fill-opacity:1;fill-rule:nonzero;stroke:#393939;stroke-width:2.52336049;stroke-linecap:round;stroke-linejoin:bevel;stroke-miterlimit:4;stroke-dashoffset:0;stroke-opacity:1;marker:none;visibility:visible;display:inline;overflow:visible;enable-background:accumulate"
         d="m 852,606.36218 c 0,14.91169 -11.6406,27 -26,27 -14.3594,0 -26,-12.08831 -26,-27 0,-14.91169 11.6406,-27 26,-27 14.3594,0 26,12.08831 26,27 z"
         id="path4125-66" />
      <path
         transform="matrix(0.30663234,0,0,0.29527559,120.52913,499.51079)"
         style="color:#000000;fill:#ffffff;fill-opacity:1;fill-rule:nonzero;stroke:#393939;stroke-width:5.88784027;stroke-linecap:round;stroke-linejoin:bevel;stroke-miterlimit:4;stroke-dashoffset:0;stroke-opacity:1;marker:none;visibility:visible;display:inline;overflow:visible;enable-background:accumulate"
         d="m 852,606.36218 c 0,14.91169 -11.6406,27 -26,27 -14.3594,0 -26,-12.08831 -26,-27 0,-14.91169 11.6406,-27 26,-27 14.3594,0 26,12.08831 26,27 z"
         id="path4125-5-3" />
    </g>
    <g
       transform="translate(-102.31424,-298.65964)"
       id="g4145-3">
      <path
         transform="matrix(0.71547547,0,0,0.68897638,-217.1753,260.78552)"
         style="color:#000000;fill:#fff508;fill-opacity:1;fill-rule:nonzero;stroke:#393939;stroke-width:2.52336049;stroke-linecap:round;stroke-linejoin:bevel;stroke-miterlimit:4;stroke-dashoffset:0;stroke-opacity:1;marker:none;visibility:visible;display:inline;overflow:visible;enable-background:accumulate"
         d="m 852,606.36218 c 0,14.91169 -11.6406,27 -26,27 -14.3594,0 -26,-12.08831 -26,-27 0,-14.91169 11.6406,-27 26,-27 14.3594,0 26,12.08831 26,27 z"
         id="path4125-3" />
      <path
         transform="matrix(0.30663234,0,0,0.29527559,120.52913,499.51079)"
         style="color:#000000;fill:#ffffff;fill-opacity:1;fill-rule:nonzero;stroke:#393939;stroke-width:5.88784027;stroke-linecap:round;stroke-linejoin:bevel;stroke-miterlimit:4;stroke-dashoffset:0;stroke-opacity:1;marker:none;visibility:visible;display:inline;overflow:visible;enable-background:accumulate"
         d="m 852,606.36218 c 0,14.91169 -11.6406,27 -26,27 -14.3594,0 -26,-12.08831 -26,-27 0,-14.91169 11.6406,-27 26,-27 14.3594,0 26,12.08831 26,27 z"
         id="path4125-5-6" />
    </g>
    <g
       transform="translate(-102.31424,-181.73021)"
       id="g4145-0">
      <path
         transform="matrix(0.71547547,0,0,0.68897638,-217.1753,260.78552)"
         style="color:#000000;fill:#128900;fill-opacity:1;fill-rule:nonzero;stroke:#393939;stroke-width:2.52336049;stroke-linecap:round;stroke-linejoin:bevel;stroke-miterlimit:4;stroke-dashoffset:0;stroke-opacity:1;marker:none;visibility:visible;display:inline;overflow:visible;enable-background:accumulate"
         d="m 852,606.36218 c 0,14.91169 -11.6406,27 -26,27 -14.3594,0 -26,-12.08831 -26,-27 0,-14.91169 11.6406,-27 26,-27 14.3594,0 26,12.08831 26,27 z"
         id="path4125-2" />
      <path
         transform="matrix(0.30663234,0,0,0.29527559,120.52913,499.51079)"
         style="color:#000000;fill:#ffffff;fill-opacity:1;fill-rule:nonzero;stroke:#393939;stroke-width:5.88784027;stroke-linecap:round;stroke-linejoin:bevel;stroke-miterlimit:4;stroke-dashoffset:0;stroke-opacity:1;marker:none;visibility:visible;display:inline;overflow:visible;enable-background:accumulate"
         d="m 852,606.36218 c 0,14.91169 -11.6406,27 -26,27 -14.3594,0 -26,-12.08831 -26,-27 0,-14.91169 11.6406,-27 26,-27 14.3594,0 26,12.08831 26,27 z"
         id="path4125-5-53" />
    </g>
    <g
       transform="translate(-102.31424,-142.75373)"
       id="g4145-53">
      <path
         transform="matrix(0.71547547,0,0,0.68897638,-217.1753,260.78552)"
         style="color:#000000;fill:#ff0000;fill-opacity:1;fill-rule:nonzero;stroke:#393939;stroke-width:2.52336049;stroke-linecap:round;stroke-linejoin:bevel;stroke-miterlimit:4;stroke-dashoffset:0;stroke-opacity:1;marker:none;visibility:visible;display:inline;overflow:visible;enable-background:accumulate"
         d="m 852,606.36218 c 0,14.91169 -11.6406,27 -26,27 -14.3594,0 -26,-12.08831 -26,-27 0,-14.91169 11.6406,-27 26,-27 14.3594,0 26,12.08831 26,27 z"
         id="path4125-67" />
      <path
         transform="matrix(0.30663234,0,0,0.29527559,120.52913,499.51079)"
         style="color:#000000;fill:#ffffff;fill-opacity:1;fill-rule:nonzero;stroke:#393939;stroke-width:5.88784027;stroke-linecap:round;stroke-linejoin:bevel;stroke-miterlimit:4;stroke-dashoffset:0;stroke-opacity:1;marker:none;visibility:visible;display:inline;overflow:visible;enable-background:accumulate"
         d="m 852,606.36218 c 0,14.91169 -11.6406,27 -26,27 -14.3594,0 -26,-12.08831 -26,-27 0,-14.91169 11.6406,-27 26,-27 14.3594,0 26,12.08831 26,27 z"
         id="path4125-5-8" />
    </g>
    <g
       id="g4145-7"
       transform="translate(-47.083392,-64.800764)">
      <path
         transform="matrix(0.71547547,0,0,0.68897638,-217.1753,260.78552)"
         style="color:#000000;fill:#d07eff;fill-opacity:1;fill-rule:nonzero;stroke:#393939;stroke-width:2.52336049;stroke-linecap:round;stroke-linejoin:bevel;stroke-miterlimit:4;stroke-dashoffset:0;stroke-opacity:1;marker:none;visibility:visible;display:inline;overflow:visible;enable-background:accumulate"
         d="m 852,606.36218 c 0,14.91169 -11.6406,27 -26,27 -14.3594,0 -26,-12.08831 -26,-27 0,-14.91169 11.6406,-27 26,-27 14.3594,0 26,12.08831 26,27 z"
         id="path4125-54" />
    </g>
    <g
       transform="translate(-47.083392,-337.63611)"
       id="g4145-9-4">
      <path
         transform="matrix(0.71547547,0,0,0.68897638,-217.1753,260.78552)"
         style="color:#000000;fill:#0056c7;fill-opacity:1;fill-rule:nonzero;stroke:#393939;stroke-width:2.52336049;stroke-linecap:round;stroke-linejoin:bevel;stroke-miterlimit:4;stroke-dashoffset:0;stroke-opacity:1;marker:none;visibility:visible;display:inline;overflow:visible;enable-background:accumulate"
         d="m 852,606.36218 c 0,14.91169 -11.6406,27 -26,27 -14.3594,0 -26,-12.08831 -26,-27 0,-14.91169 11.6406,-27 26,-27 14.3594,0 26,12.08831 26,27 z"
         id="path4125-6-0" />
    </g>
    <g
       transform="translate(-47.083392,-103.77725)"
       id="g4145-4-5">
      <path
         transform="matrix(0.71547547,0,0,0.68897638,-217.1753,260.78552)"
         style="color:#000000;fill:#831900;fill-opacity:1;fill-rule:nonzero;stroke:#393939;stroke-width:2.52336049;stroke-linecap:round;stroke-linejoin:bevel;stroke-miterlimit:4;stroke-dashoffset:0;stroke-opacity:1;marker:none;visibility:visible;display:inline;overflow:visible;enable-background:accumulate"
         d="m 852,606.36218 c 0,14.91169 -11.6406,27 -26,27 -14.3594,0 -26,-12.08831 -26,-27 0,-14.91169 11.6406,-27 26,-27 14.3594,0 26,12.08831 26,27 z"
         id="path4125-58-2" />
    </g>
    <g
       transform="translate(-47.083392,-25.824284)"
       id="g4145-5-0">
      <path
         transform="matrix(0.71547547,0,0,0.68897638,-217.1753,260.78552)"
         style="color:#000000;fill:#3cfff1;fill-opacity:1;fill-rule:nonzero;stroke:#393939;stroke-width:2.52336049;stroke-linecap:round;stroke-linejoin:bevel;stroke-miterlimit:4;stroke-dashoffset:0;stroke-opacity:1;marker:none;visibility:visible;display:inline;overflow:visible;enable-background:accumulate"
         d="m 852,606.36218 c 0,14.91169 -11.6406,27 -26,27 -14.3594,0 -26,-12.08831 -26,-27 0,-14.91169 11.6406,-27 26,-27 14.3594,0 26,12.08831 26,27 z"
         id="path4125-1-2" />
    </g>
    <g
       transform="translate(-47.083392,-259.68316)"
       id="g4145-42-9">
      <path
         transform="matrix(0.71547547,0,0,0.68897638,-217.1753,260.78552)"
         style="color:#000000;fill:#4dff00;fill-opacity:1;fill-rule:nonzero;stroke:#393939;stroke-width:2.52336049;stroke-linecap:round;stroke-linejoin:bevel;stroke-miterlimit:4;stroke-dashoffset:0;stroke-opacity:1;marker:none;visibility:visible;display:inline;overflow:visible;enable-background:accumulate"
         d="m 852,606.36218 c 0,14.91169 -11.6406,27 -26,27 -14.3594,0 -26,-12.08831 -26,-27 0,-14.91169 11.6406,-27 26,-27 14.3594,0 26,12.08831 26,27 z"
         id="path4125-0-2" />
    </g>
    <g
       transform="translate(-47.083392,-220.70668)"
       id="g4145-97-6">
      <path
         transform="matrix(0.71547547,0,0,0.68897638,-217.1753,260.78552)"
         style="color:#000000;fill:#ff8800;fill-opacity:1;fill-rule:nonzero;stroke:#393939;stroke-width:2.52336049;stroke-linecap:round;stroke-linejoin:bevel;stroke-miterlimit:4;stroke-dashoffset:0;stroke-opacity:1;marker:none;visibility:visible;display:inline;overflow:visible;enable-background:accumulate"
         d="m 852,606.36218 c 0,14.91169 -11.6406,27 -26,27 -14.3594,0 -26,-12.08831 -26,-27 0,-14.91169 11.6406,-27 26,-27 14.3594,0 26,12.08831 26,27 z"
         id="path4125-66-5" />
    </g>
    <g
       transform="translate(-47.083392,-298.65963)"
       id="g4145-3-1">
      <path
         transform="matrix(0.71547547,0,0,0.68897638,-217.1753,260.78552)"
         style="color:#000000;fill:#fff508;fill-opacity:1;fill-rule:nonzero;stroke:#393939;stroke-width:2.52336049;stroke-linecap:round;stroke-linejoin:bevel;stroke-miterlimit:4;stroke-dashoffset:0;stroke-opacity:1;marker:none;visibility:visible;display:inline;overflow:visible;enable-background:accumulate"
         d="m 852,606.36218 c 0,14.91169 -11.6406,27 -26,27 -14.3594,0 -26,-12.08831 -26,-27 0,-14.91169 11.6406,-27 26,-27 14.3594,0 26,12.08831 26,27 z"
         id="path4125-3-3" />
    </g>
    <g
       transform="translate(-47.083392,-181.7302)"
       id="g4145-0-5">
      <path
         transform="matrix(0.71547547,0,0,0.68897638,-217.1753,260.78552)"
         style="color:#000000;fill:#128900;fill-opacity:1;fill-rule:nonzero;stroke:#393939;stroke-width:2.52336049;stroke-linecap:round;stroke-linejoin:bevel;stroke-miterlimit:4;stroke-dashoffset:0;stroke-opacity:1;marker:none;visibility:visible;display:inline;overflow:visible;enable-background:accumulate"
         d="m 852,606.36218 c 0,14.91169 -11.6406,27 -26,27 -14.3594,0 -26,-12.08831 -26,-27 0,-14.91169 11.6406,-27 26,-27 14.3594,0 26,12.08831 26,27 z"
         id="path4125-2-0" />
    </g>
    <g
       transform="translate(-47.083392,-142.75372)"
       id="g4145-53-1">
      <path
         transform="matrix(0.71547547,0,0,0.68897638,-217.1753,260.78552)"
         style="color:#000000;fill:#ff0000;fill-opacity:1;fill-rule:nonzero;stroke:#393939;stroke-width:2.52336049;stroke-linecap:round;stroke-linejoin:bevel;stroke-miterlimit:4;stroke-dashoffset:0;stroke-opacity:1;marker:none;visibility:visible;display:inline;overflow:visible;enable-background:accumulate"
         d="m 852,606.36218 c 0,14.91169 -11.6406,27 -26,27 -14.3594,0 -26,-12.08831 -26,-27 0,-14.91169 11.6406,-27 26,-27 14.3594,0 26,12.08831 26,27 z"
         id="path4125-67-4" />
    </g>
    <text
       xml:space="preserve"
       style="font-size:24px;font-style:normal;font-variant:normal;font-weight:normal;font-stretch:normal;line-height:125%;letter-spacing:0px;word-spacing:0px;fill:#000000;fill-opacity:1;stroke:none;font-family:Grundschrift-Druck normal;-inkscape-font-specification:Grundschrift-Druck normal"
       x="28.506426"
       y="228.05141"
       id="text4346"
       sodipodi:linespacing="125%"><tspan
         sodipodi:role="line"
         id="tspan4348"
         x="28.506426"
         y="228.05141" /></text>
    <text
       xml:space="preserve"
       style="font-size:24px;font-style:normal;font-variant:normal;font-weight:normal;font-stretch:normal;line-height:125%;letter-spacing:0px;word-spacing:0px;fill:#000000;fill-opacity:1;stroke:none;font-family:schooltype;-inkscape-font-specification:schooltype"
       x="85.763237"
       y="140.67647"
       id="text4350"
       sodipodi:linespacing="125%"><tspan
         sodipodi:role="line"
         id="tspan4352"
         x="85.763237"
         y="140.67647">Title</tspan></text>
  </g>
</svg>
