<?xml version="1.0" encoding="UTF-8" standalone="no"?>
<svg xmlns:dc="http://purl.org/dc/elements/1.1/" xmlns:cc="http://creativecommons.org/ns#" xmlns:rdf="http://www.w3.org/1999/02/22-rdf-syntax-ns#" xmlns:svg="http://www.w3.org/2000/svg" xmlns="http://www.w3.org/2000/svg" xmlns:xlink="http://www.w3.org/1999/xlink" width="1000" height="720" viewBox="0 0 1000 720" id="svg2" version="1.1">
  <defs id="defs4">
    <linearGradient id="linearGradient5121">
      <stop style="stop-color:#333333;stop-opacity:1;" offset="0" id="stop5123"/>
      <stop style="stop-color:#333333;stop-opacity:0;" offset="1" id="stop5125"/>
    </linearGradient>
    <pattern id="pattern5750" height="256" width="256" patternUnits="userSpaceOnUse">
      <!-- Seamless texture provided by FreeSeamlessTextures.com -->
      <!-- License: creative commons attribution -->
    </pattern>
    <pattern id="sand_bitmap" height="256" width="256" patternUnits="userSpaceOnUse">
      <!-- Seamless texture provided by FreeSeamlessTextures.com -->
      <!-- License: creative commons attribution -->
    </pattern>
    <linearGradient id="linearGradient11link">
      <stop offset="0" id="stop11-0" style="stop-color:#F39412;stop-opacity:1;"/>
      <stop offset="1" id="stop11-1" style="stop-color:#F39412;stop-opacity:0.35;"/>
    </linearGradient>
    <linearGradient id="linearGradient01link">
      <stop offset="0" id="stop01-0" style="stop-color:#202020;stop-opacity:1;"/>
      <stop offset="1" id="stop01-1" style="stop-color:#F39412;stop-opacity:1;"/>
    </linearGradient>
    <linearGradient id="linearGradient01" xlink:href="#linearGradient01link" x1="311.441" y1="570.763" x2="90.9322" y2="759.322" gradientUnits="userSpaceOnUse"/>
    <linearGradient id="linearGradient00link">
      <stop offset="0" id="stop00-0" style="stop-color:#202020;stop-opacity:1;"/>
      <stop offset="1" id="stop00-1" style="stop-color:#202020;stop-opacity:0;"/>
    </linearGradient>
    <linearGradient gradientTransform="matrix(0.153741,0,0,0.153741,52.7629,0.677634)" xlink:href="#linearGradient01link" id="linearGradient3933-1" gradientUnits="userSpaceOnUse" x1="193.09" y1="289.118" x2="-82.8483" y2="-3.21474"/>
    <pattern patternUnits="userSpaceOnUse" width="750" height="562.5" patternTransform="translate(1929.5,751.862)" id="pattern4313"/>
    <linearGradient id="linearGradient00link-1">
      <stop offset="0" id="stop00-0-9" style="stop-color:#FFFFFF;stop-opacity:1;"/>
      <stop offset="1" id="stop00-1-4" style="stop-color:#FFFFFF;stop-opacity:0;"/>
    </linearGradient>
    <linearGradient id="linearGradient01link-4">
      <stop offset="0" id="stop01-0-7" style="stop-color:#FFFFFF;stop-opacity:1;"/>
      <stop offset="1" id="stop01-1-3" style="stop-color:#F39412;stop-opacity:1;"/>
    </linearGradient>
    <linearGradient xlink:href="#linearGradient11link" id="linearGradient4877" gradientUnits="userSpaceOnUse" x1="-5.99243" y1="619.097" x2="-204.971" y2="637.074"/>
    <linearGradient xlink:href="#linearGradient11link" id="linearGradient3815-5" gradientUnits="userSpaceOnUse" x1="-190.26" y1="410.86" x2="-395.23" y2="409.362"/>
    <linearGradient xlink:href="#linearGradient11link" id="linearGradient3327-9" gradientUnits="userSpaceOnUse" x1="-199.153" y1="763.983" x2="-301.017" y2="713.136"/>
    <linearGradient xlink:href="#linearGradient11link" id="linearGradient3280-9" gradientUnits="userSpaceOnUse" x1="-5.99243" y1="619.097" x2="-204.971" y2="637.074"/>
    <linearGradient xlink:href="#linearGradient11link" id="linearGradient3803-7" gradientUnits="userSpaceOnUse" x1="11.6525" y1="376.271" x2="-90.2119" y2="462.076"/>
    <linearGradient xlink:href="#linearGradient01link-4" id="linearGradient5057-6" gradientUnits="userSpaceOnUse" x1="152.058" y1="483.891" x2="42.9663" y2="473.405"/>
    <linearGradient xlink:href="#linearGradient01link-4" id="linearGradient3813-7" gradientUnits="userSpaceOnUse" x1="236.229" y1="375.847" x2="129.068" y2="218.008"/>
    <linearGradient xlink:href="#linearGradient01link-4" id="linearGradient3325-6" gradientUnits="userSpaceOnUse" x1="177.966" y1="591.949" x2="152.373" y2="812.288"/>
    <linearGradient xlink:href="#linearGradient01link-4" id="linearGradient3278-4" gradientUnits="userSpaceOnUse" x1="152.058" y1="483.891" x2="42.9663" y2="473.405"/>
    <linearGradient xlink:href="#linearGradient01link-4" id="linearGradient3801-7" gradientUnits="userSpaceOnUse" x1="61.4407" y1="247.669" x2="-25.5932" y2="276.271"/>
    <linearGradient xlink:href="#linearGradient00link-1" id="linearGradient5059-4" gradientUnits="userSpaceOnUse" x1="268.91" y1="504.489" x2="360.565" y2="460.295"/>
    <linearGradient xlink:href="#linearGradient00link-1" id="linearGradient3276-0" gradientUnits="userSpaceOnUse" x1="268.91" y1="504.489" x2="360.565" y2="460.295"/>
    <linearGradient xlink:href="#linearGradient5121" id="linearGradient5264-1" gradientUnits="userSpaceOnUse" x1="-1447.99" y1="204.149" x2="-1407.96" y2="190.656"/>
    <pattern xlink:href="#pattern5116-4" id="pattern5262-4" patternTransform="matrix(0.954379,0,0,-0.954379,135.603,959.832)"/>
    <pattern xlink:href="#pattern5095-9" id="pattern5116-4" patternTransform="matrix(0.954379,0,0,-0.954379,-4.1,3606.61)"/>
    <pattern xlink:href="#pattern5965-6" id="pattern5095-9" patternTransform="matrix(0.954379,0,0,0.954379,-4.1,2528.44)"/>
    <pattern xlink:href="#pattern5840-4" id="pattern5965-6" patternTransform="matrix(1.00461,0,0,1.00461,-3,-1559.14)"/>
    <pattern xlink:href="#pattern5754-0" id="pattern5840-4" patternTransform="matrix(1.00461,0,0,1.00461,2004.5,1461.86)"/>
    <pattern xlink:href="#pattern4313-6" id="pattern5754-0" patternTransform="matrix(1.00461,0,0,1.00461,834.5,1037.86)"/>
    <pattern patternUnits="userSpaceOnUse" width="750" height="562.5" patternTransform="translate(1929.5,751.862)" id="pattern4313-6"/>
    <linearGradient xlink:href="#linearGradient5121" id="linearGradient5406" gradientUnits="userSpaceOnUse" gradientTransform="matrix(1.63316,0,0,1.63316,880.317,-100.205)" x1="-1447.99" y1="204.149" x2="-1407.96" y2="190.656"/>
    <linearGradient xlink:href="#linearGradient11link" id="linearGradient4253" gradientUnits="userSpaceOnUse" x1="-5.99243" y1="619.097" x2="-204.971" y2="637.074"/>
    <linearGradient xlink:href="#linearGradient01link-4" id="linearGradient4300" gradientUnits="userSpaceOnUse" x1="152.058" y1="483.891" x2="42.9663" y2="473.405"/>
    <linearGradient xlink:href="#linearGradient00link-1" id="linearGradient4340" gradientUnits="userSpaceOnUse" x1="268.91" y1="504.489" x2="360.565" y2="460.295"/>
  </defs>
  <metadata id="metadata7">
    <rdf:RDF>
      <cc:Work rdf:about="">
        <dc:format>image/svg+xml</dc:format>
        <dc:type rdf:resource="http://purl.org/dc/dcmitype/StillImage"/>
        <dc:title/>
      </cc:Work>
    </rdf:RDF>
  </metadata>
  <g id="layer1" transform="translate(0,-332.36)"/>
  <g id="layer2" transform="translate(0,-332.36)">
    <g style="font-style:normal;font-variant:normal;font-weight:bold;font-stretch:normal;font-size:80px;line-height:125%;font-family:Prida01;-inkscape-font-specification:'Prida01, Bold';text-align:start;letter-spacing:0px;word-spacing:0px;writing-mode:lr-tb;text-anchor:start;fill:#000000;fill-opacity:1;stroke:none;stroke-width:1px;stroke-linecap:butt;stroke-linejoin:miter;stroke-opacity:1" id="g4339" transform="translate(1250,0)"/>
    <g transform="matrix(-0.997294,-0.07351,-0.07351,0.997294,0,0)" style="font-style:normal;font-variant:normal;font-weight:500;font-stretch:normal;font-size:159.80452px;line-height:100%;font-family:Prida02;-inkscape-font-specification:'Prida02, Medium';text-align:center;letter-spacing:0px;word-spacing:0px;writing-mode:lr-tb;text-anchor:middle;fill:#fbfbfb;fill-opacity:1;stroke:none" id="text5787"/>
    <rect y="439.582" x="114.703" height="500" width="760" id="rect5240-9" style="color:#000000;clip-rule:nonzero;display:inline;overflow:visible;visibility:visible;opacity:1;isolation:auto;mix-blend-mode:normal;color-interpolation:sRGB;color-interpolation-filters:linearRGB;solid-color:#000000;solid-opacity:1;fill:#ffffff;fill-opacity:1;fill-rule:nonzero;stroke:none;stroke-width:1;stroke-linecap:butt;stroke-linejoin:miter;stroke-miterlimit:4;stroke-dasharray:none;stroke-dashoffset:0;stroke-opacity:1;color-rendering:auto;image-rendering:auto;shape-rendering:auto;text-rendering:auto;enable-background:accumulate"/>
    <path id="path5242-7" d="m 261.413,919.932 c -4.18,-0.1 -7.09,-1.99 -8.26,-4.7 -1.17,-2.71 -0.6,-6.2 2.15,-9.34 5.12,-6.48 7.96,-14.34 7.37,-22.42 -0.19,-2.59 -0.6,-5.15 -1.37,-7.48 2.67,-0.1 5.27,-0.16 7.71,-0.34 22.25,-1.64 39.13,-17.67 37.8,-35.79 -1.12,-15.15 -13.83,-27.3 -28.47,-26.22 -10.2,0.75 -18.01,8.84 -17.81,18.56 2.2,-8.35 9.23,-13.92 17.88,-14.55 13.89,-1.03 25.93,8.94 26.92,22.31 1.25,16.93 -14.66,32.01 -35.59,33.55 -2.88,0.21 -5.93,0.29 -9.2,0.3 -5.6,-14.59 -20.96,-24.38 -38.19,-23.12 -1.92,0.14 -3.91,0.45 -5.74,0.87 -3.21,-8.31 -9.8,-13.91 -17.82,-16.9 -1.18,-14.03 -15.24,-24.36 -31.58,-23.16 -3.75,0.28 -7.29,1.16 -10.54,2.54 -6.04,3.13 -18.22,2.89 -18.22,-12.8 l 0,-320.68 c 0.17,-9.66 9.28,-19.08 17.84,-19 l 621.1,0 c 9.36,0 13.32,3.93 13.71,7.41 l 1.39,17.2 c 0.39,4.8 -0.7,13.89 -0.24,19.63 0.6,7.41 7.08,12.97 14.78,13.08 l 0,0 c 0.51,0.1 1.04,0 1.56,0 7.97,-0.64 13.98,-6.68 13.51,-13.54 3.65,-2.04 6.4,-5.24 7.33,-9.49 0.91,0.1 1.89,0.1 2.83,0 5.74,-0.46 10.66,-3.33 13.75,-7.46 2.49,2.05 4.09,4.9 4.36,8.25 0.53,6.54 -4.53,12.25 -11.31,12.79 -4.22,0.34 -8.03,-1.82 -9.72,-5.68 0.63,4.7 5,8.02 9.98,7.62 4.68,0 11.61,4.41 11.63,11.26 l 0,397.3 z m -44.54,-0.58 c -9.14,-0.17 -18.98,-1.33 -28.82,-2.5 -13.04,-1.49 -26.16,-3.05 -37.77,-2.2 l -5.46,0.33 c 2.53,-14.73 2.86,-32.03 1.91,-48.38 -1.21,-16.56 13.55,-31.1 32.84,-32.52 5.17,-0.39 10.42,0.12 15.28,1.54 0.56,8.66 -3.92,16.35 -11.85,19.75 9.06,-1.18 15.61,-9.02 15.89,-18.33 6.99,2.98 12.85,7.97 15.83,15.04 -10.04,2.96 -17.61,10.21 -19.79,18.84 -2.39,0 -4.68,0.13 -6.9,0.29 -8.13,0.6 -15.42,3.59 -20.88,8.16 -1.78,-2.93 -2.91,-6.26 -3.17,-9.8 -0.74,-10.06 3.79,-19.23 12.14,-21.86 -9.99,0.74 -17.5,10.66 -16.65,22.25 0.33,4.44 2.12,8.55 4.9,11.99 -5.17,5.43 -8.15,12.49 -7.59,20.03 0.28,3.85 3.78,6.86 7.62,6.57 3.92,-0.28 6.85,-3.77 6.57,-7.62 -0.29,-3.91 -3.7,-6.85 -7.62,-6.57 -1.63,0.12 -3.2,0.84 -4.32,1.88 0.84,-4.75 3.19,-9.16 6.71,-12.76 5.56,5.76 14.36,9.2 23.9,8.5 3.4,-0.25 6.62,-1.01 9.57,-2.2 3.84,4.63 9.46,7.41 15.53,6.97 -5.27,-0.88 -9.51,-3.99 -12.36,-8.38 6.3,-3.22 11.2,-8.41 13.94,-14.56 3.65,0.17 7.47,0.49 11.28,0.73 10.91,0.75 21.96,1.5 31.77,1.45 0.77,2.47 1.26,5.03 1.46,7.69 1.28,17.45 -14.97,33.97 -35.08,35.45 -2.85,0.21 -5.83,0.26 -8.88,0.22 z m -53.04,-12.52 c -2.95,0 -5.36,-2.41 -5.36,-5.35 0,-1.58 0.6,-2.92 1.57,-3.87 0.97,-0.95 2.31,-1.5 3.79,-1.5 2.96,0 5.36,2.41 5.36,5.37 0,2.94 -2.4,5.35 -5.36,5.35 z m 24.1,-16.16 0,0 c -8.01,0.1 -15.2,-3.7 -19.61,-9.58 5.19,-4.31 12.18,-7.21 19.94,-7.78 1.92,-0.14 4,-0.2 6.22,-0.25 -0.18,1.5 -0.29,2.99 -0.18,4.55 0.31,4.14 1.77,7.9 4.01,11 -2.75,1.03 -5.67,1.77 -8.78,2 -0.54,0 -1.07,0.1 -1.6,0.1 z m 13.69,-3.59 c -1.55,-2.86 -2.54,-6.13 -2.8,-9.68 -0.11,-1.48 -0.1,-2.96 0.13,-4.39 4.83,0.1 10.05,0.3 15.42,0.65 -2.55,5.68 -7.03,10.4 -12.75,13.42 z m 57,-13.27 c -9.08,-0.1 -19.1,-0.81 -29.25,-1.49 -4.03,-0.29 -8.15,-0.58 -12.17,-0.81 1.16,-3.43 1.63,-7.04 1.35,-10.81 -0.2,-2.8 -0.7,-5.37 -1.46,-7.68 1.75,-0.51 3.52,-0.79 5.37,-0.92 16.18,-1.2 30.61,7.99 36.16,21.71 z m -43.3,-2.37 c -5.51,-0.35 -10.88,-0.54 -15.94,-0.54 1.73,-7.86 7.78,-14.41 15.9,-17.3 0.75,2.17 1.22,4.58 1.42,7.18 0.27,3.69 -0.21,7.29 -1.38,10.66 z m -71.49,-7.96 c -2.04,-6.98 -3.49,-14.67 -4,-21.06 -1.11,-15.07 11.22,-28.24 27.48,-29.45 13.46,-0.98 25.27,7.96 27.3,20.37 -4.77,-1.2 -9.86,-1.57 -14.96,-1.2 -19.43,1.43 -34.64,15.04 -35.82,31.34 z m 663.22,-345.27 c -7.3,-0.1 -13.43,-5.3 -13.98,-12.21 -0.28,-3.35 0,-7.01 0.35,-10.45 1.78,7.77 10.14,13.21 19.62,12.44 2.5,-0.2 4.93,-0.75 7.14,-1.69 -0.1,6.13 -5.08,11.33 -11.65,11.86 l -1.48,0 z m 4.07,-11.05 0,0 c -8.67,-0.1 -15.93,-5.73 -16.53,-13.31 l -2.14,-24.96 c 3.49,1.82 12.13,-0.68 18.32,-2.37 6.21,-1.74 12.42,-3.47 18.02,-3.92 9.81,-0.79 18.88,5.96 19.57,14.47 0.3,3.68 -0.66,7.18 -2.53,10.12 -3.25,-2.57 -7.69,-3.96 -12.48,-3.57 -1.73,0.14 -3.88,0.53 -6.09,1.03 -1.77,-2.5 -4.39,-4.43 -7.45,-5.46 1.04,-2.34 2.86,-4.15 5.34,-4.97 -2.97,0.24 -5.47,2 -6.97,4.52 -1.52,-0.35 -3.13,-0.48 -4.79,-0.35 -4.66,0.38 -8.65,2.7 -10.89,5.89 -1.98,-1.47 -3.44,-3.43 -4.2,-5.65 0.62,0.42 1.43,0.68 2.23,0.58 1.91,-0.15 3.34,-1.82 3.19,-3.74 -0.16,-1.87 -1.84,-3.34 -3.75,-3.18 -1.88,0.15 -3.33,1.87 -3.18,3.74 0.3,3.67 2.25,6.87 5.16,9.1 -1.08,1.86 -1.65,3.98 -1.46,6.15 0.45,5.66 4.82,9.89 9.69,9.49 -4.23,-0.64 -7.1,-4.73 -7.5,-9.64 -0.13,-1.73 0.16,-3.43 0.81,-4.97 2.97,1.8 6.71,2.69 10.68,2.38 1.01,-0.1 2.12,-0.29 3.3,-0.52 1.64,4.08 5.86,7.05 11.01,7.76 -0.91,3.63 -3.37,6.48 -6.51,8.43 -0.83,-4.47 -4.58,-7.76 -9.04,-7.65 4.08,1.04 6.81,4.42 7.19,8.64 -2.24,1.05 -4.73,1.68 -7.25,1.89 -0.59,0.1 -1.17,0.1 -1.75,0.1 z m 19.75,-11.88 0,0 c -0.44,0 -0.88,0 -1.31,-0.1 0.21,-1.18 0.23,-2.45 0.12,-3.82 -0.16,-2.06 -0.79,-3.97 -1.76,-5.67 1.79,-0.32 3.73,-0.63 5.74,-0.79 4.47,-0.36 8.64,0.8 11.69,3.02 -2.91,4.05 -7.62,6.86 -13.14,7.3 -0.45,0.1 -0.9,0.1 -1.34,0.1 z m -2.24,-0.24 c -4.23,-0.78 -7.7,-3.63 -9.1,-7.44 0.97,-0.22 2,-0.49 3.07,-0.75 1.39,-0.33 2.85,-0.67 4.39,-0.98 1,1.66 1.63,3.57 1.8,5.6 0.1,1.26 0,2.47 -0.16,3.57 z m -15.92,-7.38 0,0 c -3.26,0 -6.32,-0.84 -8.79,-2.32 1.8,-3.38 5.31,-5.84 9.52,-6.18 1.52,-0.12 2.99,0 4.38,0.3 -0.84,1.67 -1.27,3.59 -1.11,5.61 0.1,0.72 0.19,1.4 0.39,2.04 -1.18,0.24 -2.18,0.39 -2.97,0.49 -0.48,0.1 -0.95,0.1 -1.42,0.1 z m 6.53,-1.01 c -0.16,-0.61 -0.24,-1.18 -0.33,-1.83 -0.14,-1.73 0.1,-3.39 0.62,-4.88 2.77,0.94 5.16,2.71 6.8,4.97 -1.07,0.27 -2.17,0.54 -3.28,0.77 -1.32,0.33 -2.6,0.65 -3.81,0.97 z" style="color:#000000;clip-rule:nonzero;display:inline;overflow:visible;visibility:visible;opacity:1;isolation:auto;mix-blend-mode:normal;color-interpolation:sRGB;color-interpolation-filters:linearRGB;solid-color:#000000;solid-opacity:1;fill:url(#pattern5262-4);fill-opacity:1;fill-rule:nonzero;stroke:none;stroke-width:1;stroke-linecap:butt;stroke-linejoin:miter;stroke-miterlimit:4;stroke-dasharray:none;stroke-dashoffset:0;stroke-opacity:1;color-rendering:auto;image-rendering:auto;shape-rendering:auto;text-rendering:auto;enable-background:accumulate"/>
    <g transform="matrix(2.40125,1.12172,-1.12172,2.40125,4038.51,1773.58)" style="color:#000000;font-style:normal;font-variant:normal;font-weight:500;font-stretch:normal;font-size:51.145325px;line-height:100%;font-family:Prida02;-inkscape-font-specification:'Prida02, Medium';text-indent:0;text-align:center;text-decoration:none;text-decoration-line:none;text-decoration-style:solid;text-decoration-color:#000000;letter-spacing:0px;word-spacing:0px;text-transform:none;direction:ltr;block-progression:tb;writing-mode:lr-tb;baseline-shift:baseline;text-anchor:middle;white-space:normal;clip-rule:nonzero;display:inline;overflow:visible;visibility:visible;opacity:1;isolation:auto;mix-blend-mode:normal;color-interpolation:sRGB;color-interpolation-filters:linearRGB;solid-color:#000000;solid-opacity:1;fill:#333333;fill-opacity:1;fill-rule:nonzero;stroke:none;stroke-width:1;stroke-linecap:butt;stroke-linejoin:miter;stroke-miterlimit:4;stroke-dasharray:none;stroke-dashoffset:0;stroke-opacity:1;color-rendering:auto;image-rendering:auto;shape-rendering:auto;text-rendering:auto;enable-background:accumulate" id="g5244-9">
      <path d="m -1474.06,204.351 c 0,4.92 3.67,9.165 8.34,9.49 0.48,4.695 4.25,8.516 8.87,8.516 3.45,0 6.27,-2.522 6.44,-5.794 -0.95,2.747 -3.44,4.445 -6.37,4.445 -4.34,0 -7.91,-3.121 -8.44,-7.142 l 0.1,0 c 3.44,0 6.27,-2.522 6.44,-5.794 -0.95,2.747 -3.45,4.446 -6.37,4.446 l -0.2,0 c 0.2,-5.545 5.77,-9.99 12.61,-10.065 0.58,6.169 6.05,10.964 12.72,10.964 5.56,0 10.08,-3.721 10.08,-8.342 l 0,-0.07 c 0.1,0 0.1,0.03 0.15,0.03 0.25,0.02 0.47,0.02 0.72,0.05 2.86,0.291 9.04,1.514 13.91,-5.394 1.28,-1.998 2.03,-4.395 2.03,-6.967 l 0,-2.398 0,0 -0.23,2.373 c -5.04,0 -9.26,-0.774 -13.31,-1.549 -4.14,-0.799 -8.11,-1.573 -12.64,-1.573 -3.82,0 -7.36,1.548 -9.83,3.946 -4.47,-0.749 -8.17,-1.249 -10.22,-1.249 -8.14,0 -14.71,5.419 -14.71,12.087 z m 0.5,0 c 0,-6.268 6.22,-11.388 13.91,-11.388 1.9,0 5.47,0.5 9.87,1.249 -1.8,2.023 -2.9,4.545 -2.9,7.217 l 0,0.325 c -7.14,0.225 -12.86,4.92 -13.09,10.739 -4.37,-0.35 -7.79,-3.846 -7.79,-8.142 z m 21.5,-2.947 c 0,-2.647 1.15,-5.119 3.05,-7.067 10.16,1.723 24.32,4.645 32.79,5.819 -2.1,2.672 -5.29,4.395 -8.89,4.395 -1.42,0 -3.05,-0.125 -4.8,-0.3 -0.39,-3.421 -3.09,-6.093 -6.34,-6.093 2.7,0.649 4.47,3.022 4.8,5.919 -2.18,-0.25 -4.5,-0.6 -6.85,-0.924 -4.82,-0.7 -9.76,-1.374 -13.76,-1.399 z m 0,1.074 c 3.77,0.05 8.39,0.699 13.06,1.374 2.55,0.374 5.1,0.724 7.55,0.999 l 0,0.199 c 0,4.371 -3.82,7.917 -8.56,7.917 -6.32,0 -11.52,-4.62 -12.07,-10.489 z m 3.72,-8.815 c 2.33,-2.023 5.5,-3.297 8.9,-3.297 3.87,0 8.24,0.824 12.61,1.673 4.39,0.849 9.41,1.399 11.88,1.399 l 1.15,-0.5 c 0,2.473 -0.77,4.77 -2.07,6.643 -8.12,-1.223 -22.15,-4.145 -32.47,-5.918 z" id="path5246-5" style="fill:url(#linearGradient5264-1);fill-opacity:1"/>
    </g>
    <g id="g5248-7" style="color:#000000;font-style:normal;font-variant:normal;font-weight:500;font-stretch:normal;font-size:51.145325px;line-height:100%;font-family:Prida02;-inkscape-font-specification:'Prida02, Medium';text-indent:0;text-align:center;text-decoration:none;text-decoration-line:none;text-decoration-style:solid;text-decoration-color:#000000;letter-spacing:0px;word-spacing:0px;text-transform:none;direction:ltr;block-progression:tb;writing-mode:lr-tb;baseline-shift:baseline;text-anchor:middle;white-space:normal;clip-rule:nonzero;display:inline;overflow:visible;visibility:visible;opacity:1;isolation:auto;mix-blend-mode:normal;color-interpolation:sRGB;color-interpolation-filters:linearRGB;solid-color:#000000;solid-opacity:1;fill:#333333;fill-opacity:1;fill-rule:nonzero;stroke:none;stroke-width:1;stroke-linecap:butt;stroke-linejoin:miter;stroke-miterlimit:4;stroke-dasharray:none;stroke-dashoffset:0;stroke-opacity:1;color-rendering:auto;image-rendering:auto;shape-rendering:auto;text-rendering:auto;enable-background:accumulate" transform="matrix(-1.47031,0.68684,0.68684,1.47031,-1694.26,1320.18)">
      <path style="fill:url(#linearGradient5406);fill-opacity:1" id="path5250-6" d="m -1527.06,233.534 c 0,8.035 5.99,14.968 13.62,15.498 0.78,7.668 6.94,13.908 14.48,13.908 5.64,0 10.24,-4.118 10.52,-9.462 -1.55,4.486 -5.62,7.259 -10.4,7.259 -7.09,0 -12.92,-5.097 -13.79,-11.664 l 0.17,0 c 5.61,0 10.24,-4.119 10.51,-9.462 -1.55,4.486 -5.63,7.261 -10.4,7.261 l -0.33,0 c 0.33,-9.056 9.43,-16.316 20.6,-16.438 0.95,10.075 9.88,17.906 20.77,17.906 9.08,0 16.46,-6.077 16.46,-13.624 l 0,-0.114 c 0.17,0 0.17,0.05 0.25,0.05 0.41,0.03 0.77,0.03 1.17,0.08 4.68,0.476 14.77,2.473 22.72,-8.809 2.09,-3.263 3.32,-7.178 3.32,-11.378 l 0,-3.916 0,0 -0.38,3.875 c -8.23,0 -15.12,-1.264 -21.74,-2.53 -6.76,-1.305 -13.24,-2.569 -20.64,-2.569 -6.24,0 -12.02,2.528 -16.05,6.445 -7.3,-1.223 -13.35,-2.04 -16.69,-2.04 -13.3,0 -24.03,8.85 -24.03,19.74 z m 0.81,0 c 0,-10.237 10.16,-18.599 22.72,-18.599 3.1,0 8.93,0.817 16.12,2.04 -2.94,3.304 -4.74,7.423 -4.74,11.787 l 0,0.53 c -11.66,0.368 -21,8.036 -21.38,17.539 -7.13,-0.572 -12.72,-6.281 -12.72,-13.297 z m 35.12,-4.813 c 0,-4.323 1.87,-8.36 4.98,-11.542 16.59,2.814 39.71,7.586 53.55,9.504 -3.43,4.363 -8.64,7.177 -14.52,7.177 -2.32,0 -4.98,-0.204 -7.84,-0.49 -0.64,-5.587 -5.05,-9.95 -10.35,-9.95 4.41,1.059 7.3,4.935 7.83,9.666 -3.56,-0.408 -7.34,-0.98 -11.18,-1.509 -7.87,-1.143 -15.94,-2.244 -22.47,-2.285 z m 0,1.754 c 6.15,0.08 13.7,1.141 21.32,2.244 4.17,0.611 8.33,1.182 12.33,1.631 l 0,0.325 c 0,7.139 -6.23,12.93 -13.98,12.93 -10.32,0 -18.81,-7.545 -19.71,-17.13 z m 6.07,-14.397 c 3.81,-3.303 8.98,-5.384 14.54,-5.384 6.32,0 13.45,1.346 20.59,2.732 7.17,1.387 15.37,2.285 19.4,2.285 l 1.88,-0.817 c 0,4.039 -1.26,7.791 -3.38,10.85 -13.26,-1.998 -36.18,-6.77 -53.03,-9.666 z"/>
    </g>
    <g style="font-style:normal;font-variant:normal;font-weight:500;font-stretch:normal;font-size:103.28875px;line-height:85.000002%;font-family:Prida02Calt;-inkscape-font-specification:'Prida02Calt, Medium';text-align:center;letter-spacing:0px;word-spacing:0px;writing-mode:lr-tb;text-anchor:middle;fill:#f9f9f9;fill-opacity:1;stroke:none" id="text5252-4">
      <path d="m 177.473,539.329 c 0,13.869 12.205,25.116 27.335,25.116 12.811,0 23.25,-8.069 23.25,-18.005 0,-6.808 -5.446,-12.407 -12.457,-12.76 5.8,1.967 9.734,6.809 9.734,12.609 0,9.482 -9.179,17.147 -20.527,17.147 -14.625,0 -26.326,-11.196 -26.326,-24.107 0,-14.626 13.264,-26.528 29.655,-26.528 15.08,0 27.84,7.464 36.06,20.325 0.454,0.807 0.757,1.614 0.757,2.521 0,0.05 0,0.152 0,0.253 l -1.16,21.283 c -0.252,4.287 -1.513,4.589 -5.75,4.64 l 0,0.403 12.004,0 0,-0.403 c -3.833,0 -5.195,-0.858 -4.943,-4.489 l 1.009,-18.711 c 0,-0.454 0.05,-0.857 0.05,-1.21 0,-0.353 -0.05,-0.656 -0.05,-0.908 l 0.454,0 c 0,0.151 0.05,1.261 0.605,2.118 l 13.869,21.787 c 0.152,0.303 0.303,0.656 0.353,1.312 l 0.253,0 c 0,-0.706 0.1,-1.059 0.302,-1.312 l 13.92,-21.989 c 0.605,-0.958 0.908,-1.916 0.908,-2.068 l 0.353,0 c -0.152,0.606 -0.152,1.513 -0.101,2.22 l 1.21,18.912 c 0.202,3.732 -1.412,4.338 -5.295,4.338 l 0,0.403 15.584,0 0,-0.403 c -4.842,0 -5.951,-0.706 -6.204,-5.044 L 280.913,536 c -0.201,-2.37 0.555,-3.278 3.178,-3.53 l 3.076,-0.252 0,-0.252 -8.775,0 -14.475,22.897 c -0.454,0.706 -0.807,1.866 -0.807,2.168 l -0.252,0 c 0,-0.302 -0.101,-1.664 -0.656,-2.622 l -14.323,-22.443 c -8.775,-13.668 -22.494,-21.384 -38.632,-21.384 -17.551,0 -31.774,12.86 -31.774,28.747 z" style="" id="path4357"/>
      <path d="m 291.958,549.92 c 0,7.565 6.355,12.558 15.937,12.558 5.296,0 9.936,-2.723 11.802,-7.464 l -1.261,-0.454 c -1.664,4.085 -5.699,6.405 -10.288,6.405 -7.061,0 -11.802,-4.741 -11.802,-11.852 0,-0.201 0,-0.454 0,-0.655 l 20.022,0.252 2.522,0 c 0.504,0 0.908,-0.353 0.908,-0.807 l 0,-1.311 c 0,-5.901 -5.044,-9.835 -12.709,-9.835 -9.079,0 -15.181,5.295 -15.181,13.163 l 0.05,0 z m 4.439,-2.572 c 0.554,-6.002 4.236,-9.229 10.54,-9.229 5.094,0 8.524,3.429 8.524,8.573 0,0.202 -0.152,0.353 -0.353,0.353 l -18.711,0.303 z" style="" id="path4359"/>
      <path d="m 323.782,562.277 15.836,0 0,-0.454 c -5.396,0 -6.001,-0.555 -6.001,-5.599 l 0,-1.059 c 0,-7.767 5.447,-15.584 10.843,-15.584 1.967,0 3.026,1.463 3.026,4.085 2.219,0 4.035,-1.563 4.035,-3.53 0,-1.967 -1.816,-3.53 -4.035,-3.53 -6.607,0 -12.104,5.346 -14.021,12.709 l 0,-7.666 c 0,-1.816 -0.403,-3.48 -1.563,-4.64 l -7.616,0 0,0.353 c 4.993,0 5.548,0.605 5.548,5.649 l 0,13.213 c 0,5.044 -0.605,5.599 -6.052,5.599 l 0,0.454 z" style="" id="path4361"/>
      <path d="m 353.639,562.277 15.836,0 0,-0.454 c -5.396,0 -6.001,-0.555 -6.001,-5.599 l 0,-1.059 c 0,-7.767 5.447,-15.584 10.843,-15.584 1.967,0 3.026,1.463 3.026,4.085 2.219,0 4.035,-1.563 4.035,-3.53 0,-1.967 -1.816,-3.53 -4.035,-3.53 -6.607,0 -12.104,5.346 -14.021,12.709 l 0,-7.666 c 0,-1.816 -0.403,-3.48 -1.563,-4.64 l -7.616,0 0,0.353 c 4.993,0 5.548,0.605 5.548,5.649 l 0,13.213 c 0,5.044 -0.605,5.599 -6.052,5.599 l 0,0.454 z" style="" id="path4363"/>
      <path d="m 363.322,574.582 c 0,8.776 7.767,15.887 17.35,15.887 10.742,0 19.518,-8.574 19.518,-19.165 l 0,-7.061 c 0,-2.017 0.252,-3.782 1.16,-5.547 l 5.194,-10.238 c 6.96,-13.718 18.762,-22.998 33.186,-22.998 15.18,0 27.739,11.852 27.739,26.427 0,13.718 -12.458,24.763 -27.739,24.763 -12.508,0 -22.645,-8.473 -22.645,-18.963 0,-10.944 9.129,-19.871 20.476,-19.871 9.078,0 16.492,7.212 16.492,15.988 0,6.707 -3.782,12.457 -9.835,13.919 7.112,0 12.912,-6.304 12.912,-14.02 0,-9.23 -8.776,-16.795 -19.569,-16.795 -12.003,0 -21.737,9.331 -21.737,20.779 0,11.499 10.692,20.829 23.906,20.829 15.836,0 28.747,-11.902 28.747,-26.629 0,-15.685 -13.113,-28.495 -29.504,-28.495 -15.432,0 -28.243,9.784 -34.497,24.612 l -3.328,7.867 c -0.202,0.505 -0.504,1.362 -0.504,2.219 l -0.303,0 c 0,-0.907 -0.202,-1.664 -0.656,-2.42 l -9.582,-15.736 c -0.505,-0.756 -1.261,-1.815 -2.32,-2.168 l 0,-0.101 5.094,-0.404 0,-0.252 -9.23,0 0,0.151 c 0.959,1.11 1.715,2.169 2.472,3.43 l 10.692,18.106 c 1.059,1.866 1.664,3.681 1.664,5.8 l 0,6.808 c 0,9.633 -7.918,17.45 -17.652,17.45 -8.977,0 -16.24,-6.304 -16.24,-14.121 0,-6.657 5.498,-12.155 12.357,-12.155 5.648,0 10.238,4.791 10.238,10.591 0,5.044 -3.531,8.625 -8.574,10.289 6.405,0 11.65,-4.64 11.65,-10.339 0,-6.355 -6.002,-11.549 -13.314,-11.549 -7.515,0 -13.618,5.9 -13.618,13.112 z" style="" id="path4365"/>
      <path d="m 484.112,533.731 c 0,15.887 13.667,28.798 30.512,28.798 6.305,0 11.751,-3.279 13.97,-8.927 l -1.462,-0.605 c -2.068,4.942 -6.91,7.766 -12.508,7.867 -8.977,0 -14.928,-5.598 -14.928,-13.97 0,-8.17 5.598,-13.617 14.071,-13.617 5.144,0 10.288,4.035 12.054,9.835 l 0.706,2.37 0.252,0 -0.858,-16.24 -0.453,0 -0.101,5.094 c 0,0.504 0.101,1.311 0.201,1.715 l -0.201,0.05 c -0.101,-0.353 -0.404,-0.706 -0.656,-1.008 -1.614,-1.766 -5.901,-3.329 -11.196,-3.329 -10.995,0 -18.308,6.254 -18.308,15.634 0,3.682 1.261,6.91 3.631,9.432 -8.271,-4.842 -13.718,-13.365 -13.718,-23.049 0,-13.314 12.306,-24.107 27.436,-24.107 8.423,0 15.786,4.135 17.804,11.297 -0.303,-7.464 -8.221,-13.163 -17.804,-13.163 -15.735,0 -28.444,11.6 -28.444,25.973 l 0,-0.05 z" style="" id="path4367"/>
      <path d="m 532.377,562.226 15.887,0 0,-0.403 c -5.447,0 -6.052,-0.555 -6.052,-5.649 l 0,-4.943 c 0,-7.262 5.093,-13.163 11.398,-13.163 3.934,0 6.354,3.278 6.354,8.675 l 0,12.76 c 0,9.986 8.675,18.005 19.417,18.005 8.826,0 16.038,-6.305 16.038,-14.172 0,-7.666 -6.606,-13.971 -14.676,-13.971 -6.304,0 -11.448,4.439 -11.448,9.885 0,4.338 3.278,7.919 7.262,7.919 -3.379,-0.807 -5.548,-4.086 -5.548,-7.868 0,-4.993 4.338,-9.028 9.734,-9.028 7.565,0 13.769,5.851 13.769,13.063 0,7.363 -6.809,13.264 -15.131,13.264 -8.674,0 -15.634,-6.859 -15.634,-15.383 l 0,-14.474 c 0,-6.456 -3.48,-9.986 -9.734,-9.986 -5.245,0 -9.734,3.429 -11.801,8.422 l 0,-16.239 c 0,-2.926 0.05,-3.985 0.201,-5.397 0.05,-1.008 0.152,-2.219 0.303,-4.488 l -0.404,0 c -0.252,3.631 -4.488,3.833 -9.935,3.833 l 0,0.403 c 5.447,0 6.052,0.605 6.052,5.649 l 0,27.234 c 0,5.094 -0.605,5.649 -6.052,5.649 l 0,0.403 z" style="" id="path4369"/>
      <path d="m 570.909,562.277 15.836,0 0,-0.454 c -5.397,0 -6.002,-0.555 -6.002,-5.599 l 0,-1.059 c 0,-7.767 5.447,-15.584 10.843,-15.584 1.967,0 3.027,1.463 3.027,4.085 2.219,0 4.034,-1.563 4.034,-3.53 0,-1.967 -1.815,-3.53 -4.034,-3.53 -6.607,0 -12.105,5.346 -14.021,12.709 l 0,-7.666 c 0,-1.816 -0.404,-3.48 -1.564,-4.64 l -7.615,0 0,0.353 c 4.993,0 5.548,0.605 5.548,5.649 l 0,13.213 c 0,5.044 -0.606,5.599 -6.052,5.599 l 0,0.454 z" style="" id="path4371"/>
      <path d="m 605.809,528.889 c 0,1.412 1.109,2.522 2.522,2.522 1.361,0 2.521,-1.11 2.521,-2.522 0,-1.361 -1.16,-2.521 -2.521,-2.521 -1.413,0 -2.522,1.16 -2.522,2.521 z m -5.044,33.337 15.887,0 0,-0.403 c -5.447,0 -6.052,-0.555 -6.052,-5.649 l 0,-11.6 c 0,-2.975 0.05,-3.984 0.202,-5.396 0.05,-1.009 0.151,-2.27 0.302,-4.489 l -0.403,0 c -0.252,3.631 -4.489,3.833 -9.936,3.833 l 0,0.404 c 5.447,0 6.053,0.605 6.053,5.648 l 0,11.6 c 0,5.094 -0.606,5.649 -6.053,5.649 l 0,0.403 z" style="" id="path4373"/>
      <path d="m 613.324,568.883 c 0,9.028 8.725,16.341 19.568,16.341 11.549,0 20.98,-8.17 20.98,-18.459 0,-11.196 -7.766,-16.189 -19.871,-18.761 -4.791,-1.059 -8.573,-2.018 -8.573,-5.145 0,-2.824 3.429,-4.74 8.624,-4.74 4.64,0 8.574,2.925 10.389,7.363 l 0.303,0.656 0.252,0 -0.605,-11.903 -0.454,0.05 0,4.287 c 0,0.756 0.05,1.311 0.151,1.664 l -0.252,0.05 c -0.05,-0.151 -0.605,-0.958 -0.958,-1.21 -2.623,-1.917 -5.598,-2.32 -8.977,-2.32 -7.263,0 -12.105,2.875 -12.105,7.111 0,4.842 4.64,5.951 10.188,7.212 12.104,2.774 18.257,7.515 18.257,16.593 0,8.977 -7.918,16.24 -17.652,16.24 -10.137,0 -18.358,-6.708 -18.358,-15.03 0,-6.354 5.195,-11.599 11.701,-11.599 5.951,0 10.793,4.841 10.793,10.742 0,4.993 -3.278,9.129 -8.12,10.692 6.456,0 11.701,-4.892 11.701,-10.995 0,-6.253 -6.405,-11.347 -14.172,-11.347 -7.111,0 -12.81,5.648 -12.81,12.507 z" style="" id="path4375"/>
      <path d="m 616.551,533.025 0.152,0.202 c 4.085,-3.077 10.137,-3.833 16.491,-3.833 7.767,0 15.03,0.756 20.527,1.16 0.857,0.05 2.118,0.1 3.682,0.151 l 0,11.398 c 0,4.993 -0.454,10.238 -0.454,12.457 0,9.583 7.868,17.299 17.652,17.299 7.716,0 14.02,-6.355 14.02,-14.172 0,-7.162 -5.699,-13.012 -12.659,-13.012 -6.052,0 -10.944,4.237 -10.944,9.431 0,4.338 3.279,7.918 7.263,7.918 -3.379,-0.807 -5.548,-4.085 -5.548,-7.867 0,-4.691 4.085,-8.524 9.229,-8.524 6.456,0 11.752,5.397 11.752,12.054 0,7.061 -5.901,12.76 -13.113,12.76 -7.868,0 -14.172,-6.809 -14.172,-15.231 0,-2.32 1.21,-8.423 1.21,-13.113 l 0,-11.196 c 8.423,0.302 20.224,0.605 23.351,0.605 30.714,0 46.551,-7.515 46.551,-21.082 0,-8.22 -5.851,-15.483 -14.525,-15.483 -7.515,0 -13.617,5.8 -13.617,12.911 1.513,-6.153 7.111,-10.137 13.768,-10.137 7.817,0 13.012,6.153 13.012,12.709 0,12.256 -15.231,18.812 -43.525,18.812 -3.53,0 -19.013,-0.151 -25.822,-0.353 l -0.05,-0.151 c 0.706,-1.21 0.857,-2.421 0.857,-3.934 l 0,-7.414 -1.059,0 -0.252,4.035 c -0.252,4.085 -2.017,6.96 -5.75,6.96 -1.916,0 -10.439,-0.857 -19.366,-0.857 -7.212,0 -14.021,1.059 -18.661,5.497 z" style="" id="path4377"/>
      <path d="m 673.996,562.226 15.886,0 0,-0.403 c -5.447,0 -6.052,-0.555 -6.052,-5.649 l 0,-14.525 8.675,-2.32 c 0.807,-0.202 1.513,-0.303 2.37,-0.303 3.228,0 5.144,2.371 5.144,6.305 l 0,10.843 c 0,5.094 -0.504,5.649 -5.951,5.649 l 0,0.403 15.685,0 0,-0.403 c -5.447,0 -5.951,-0.555 -5.951,-5.649 l 0,-11.449 c 0,-1.059 -0.151,-2.067 -0.454,-2.925 l 9.078,-2.471 c 0.807,-0.202 1.513,-0.303 2.371,-0.303 3.227,0 5.194,2.371 5.194,6.305 l 0,16.189 c 0,9.986 8.675,18.005 19.417,18.005 8.272,0 15.03,-6.103 15.03,-13.668 0,-6.556 -5.699,-11.953 -12.659,-11.953 -6.355,0 -11.449,4.439 -11.449,9.886 0,4.387 3.228,7.918 7.263,7.918 -3.43,-0.807 -5.548,-4.035 -5.548,-7.868 0,-4.943 4.337,-9.028 9.734,-9.028 6.455,0 11.751,4.993 11.751,11.045 0,7.061 -6.355,12.76 -14.122,12.76 -8.674,0 -15.634,-6.859 -15.634,-15.382 l 0,-18.51 c 0,-5.144 -3.127,-7.968 -8.826,-7.968 -2.824,0 -10.238,3.984 -11.65,4.791 -1.059,-3.127 -3.884,-4.791 -8.271,-4.791 -3.077,0 -10.894,4.438 -11.197,4.64 0,-1.816 -0.252,-3.48 -1.412,-4.64 l -7.918,0.252 0,0.404 c 4.993,0 5.548,0.605 5.548,5.648 l 0,13.113 c 0,5.094 -0.606,5.649 -6.052,5.649 l 0,0.403 z" style="" id="path4379"/>
      <path d="m 732.247,554.661 c 0,4.69 4.69,7.817 11.801,7.817 4.892,0 9.129,-2.723 11.096,-6.657 l 0,2.017 c 0,1.866 0.101,3.531 1.311,4.64 l 7.969,-0.252 0,-0.403 c -5.245,0 -5.8,-0.555 -5.8,-5.649 l 0,-9.935 c 0,-5.649 -4.842,-9.482 -12.104,-9.482 -3.329,0 -6.153,0.605 -9.129,1.916 -0.656,0.253 -1.16,0.454 -1.816,0.454 l 0,2.774 c 0,1.412 0.807,2.118 2.522,2.118 l 0,-1.008 c 0,-3.178 2.925,-4.892 8.473,-4.892 4.64,0 8.423,3.681 8.473,8.12 l 0,2.521 c -3.984,-0.655 -7.363,-1.16 -11.348,-1.16 -6.859,0 -11.448,2.825 -11.448,7.061 z m 4.035,0 c 0,-3.228 3.227,-5.396 8.069,-5.396 l 10.692,0 0,1.714 c 0,5.598 -4.59,10.138 -10.188,10.138 -5.094,0 -8.573,-2.573 -8.573,-6.456 z" style="" id="path4381"/>
      <path d="m 757.565,568.883 c 0,10.138 9.885,18.358 22.09,18.358 11.549,0 20.98,-8.17 20.98,-18.459 0,-11.196 -7.767,-17.45 -19.871,-20.022 -4.791,-1.059 -10.591,-2.774 -10.591,-5.901 0,-2.824 3.379,-4.74 8.624,-4.74 4.64,0 8.524,2.874 10.39,7.363 l 0.302,0.656 0.253,0 -0.606,-11.903 -0.454,0.05 0,4.287 c 0,0.756 0.05,1.311 0.152,1.664 l -0.252,0.05 c -0.05,-0.151 -0.606,-0.958 -0.959,-1.21 -2.622,-1.917 -5.598,-2.32 -9.027,-2.32 -7.212,0 -12.054,2.875 -12.054,7.111 0,4.842 6.657,6.708 12.205,7.969 12.104,2.774 18.257,8.775 18.257,17.853 0,8.978 -7.918,16.24 -17.652,16.24 -11.549,0 -20.88,-7.615 -20.88,-17.047 0,-6.354 5.447,-11.599 12.205,-11.599 6.204,0 11.298,5.295 11.298,11.751 0,4.993 -3.279,9.128 -8.12,10.692 6.455,0 11.701,-4.892 11.701,-10.995 0,-6.809 -6.607,-12.356 -14.677,-12.356 -7.363,0 -13.314,5.648 -13.314,12.507 z" style="" id="path4383"/>
      <path d="m 427.323,642.456 c 0,4.691 4.69,7.818 11.802,7.818 4.892,0 9.128,-2.724 11.095,-6.658 l 0,2.018 c 0,1.866 0.101,3.53 1.311,4.64 l 7.969,-0.252 0,-0.404 c -5.245,0 -5.8,-0.555 -5.8,-5.649 l 0,-9.935 c 0,-5.649 -4.842,-9.482 -12.104,-9.482 -3.329,0 -6.153,0.606 -9.129,1.917 -0.655,0.252 -1.16,0.454 -1.815,0.454 l 0,2.774 c 0,1.412 0.807,2.118 2.521,2.118 l 0,-1.009 c 0,-3.177 2.926,-4.892 8.473,-4.892 4.64,0 8.423,3.682 8.473,8.12 l 0,2.522 c -3.984,-0.656 -7.363,-1.16 -11.347,-1.16 -6.859,0 -11.449,2.824 -11.449,7.06 z m 4.035,0 c 0,-3.227 3.228,-5.396 8.069,-5.396 l 10.692,0 0,1.715 c 0,5.598 -4.589,10.137 -10.187,10.137 -5.094,0 -8.574,-2.572 -8.574,-6.456 z" style="" id="path4385"/>
      <path d="m 460.862,650.022 15.886,0 0,-0.404 c -5.447,0 -6.052,-0.555 -6.052,-5.649 l 0,-14.525 8.675,-2.32 c 0.605,-0.151 1.21,-0.252 1.866,-0.252 4.69,0 7.212,2.572 7.212,7.263 l 0,13.163 c 0,9.986 8.675,18.005 19.417,18.005 8.826,0 16.038,-6.304 16.038,-14.172 0,-7.666 -6.607,-13.97 -14.676,-13.97 -6.304,0 -11.449,4.438 -11.449,9.885 0,4.337 3.279,7.918 7.263,7.918 -3.379,-0.807 -5.548,-4.085 -5.548,-7.868 0,-4.993 4.337,-9.027 9.734,-9.027 7.565,0 13.768,5.85 13.768,13.062 0,7.363 -6.808,13.264 -15.13,13.264 -8.675,0 -15.634,-6.859 -15.634,-15.382 l 0,-15.483 c 0,-5.8 -3.833,-8.978 -10.844,-8.978 -2.824,0 -10.389,4.439 -10.692,4.64 0,-1.815 -0.252,-3.48 -1.412,-4.64 l -7.918,0.253 0,0.403 c 4.993,0 5.548,0.605 5.548,5.649 l 0,13.112 c 0,5.094 -0.605,5.649 -6.052,5.649 l 0,0.404 z" style="" id="path4387"/>
      <path d="m 500.856,637.161 c 0,7.868 5.346,13.113 13.415,13.113 5.144,0.05 9.532,-3.379 10.995,-8.12 1.362,8.674 9.229,15.281 18.711,15.281 8.826,0 16.038,-6.304 16.038,-14.172 0,-7.666 -6.607,-13.97 -14.676,-13.97 -6.355,0 -11.449,4.438 -11.449,9.885 0,4.388 3.329,7.918 7.464,7.918 -3.328,-0.756 -5.346,-4.034 -5.346,-7.867 0,-4.842 4.136,-8.826 9.331,-8.826 7.565,0 13.768,5.8 13.768,12.86 0,7.364 -6.809,13.063 -15.13,13.063 -8.675,0 -15.635,-7.061 -15.635,-15.786 l 0,-23.805 c 0,-2.824 0.05,-3.782 0.252,-6.203 0.101,-1.009 0.152,-2.27 0.253,-3.682 l -0.404,0 c -0.252,2.774 -2.118,3.833 -9.935,3.833 l 0,0.403 c 5.447,0 6.052,0.555 6.052,5.649 l 0,8.927 c -2.925,-0.706 -5.447,-1.11 -8.473,-1.11 -9.129,0 -15.231,5.044 -15.231,12.609 z m 4.388,0 c 0,-6.96 4.589,-11.196 12.255,-11.196 l 7.061,0 0,12.86 c 0,5.447 -4.287,9.885 -9.532,9.885 -6.153,0 -9.784,-4.337 -9.784,-11.549 z" style="" id="path4389"/>
      <path d="m 362.364,739.582 c 0,10.692 10.188,19.417 22.746,19.417 12.861,0 23.25,-8.069 23.25,-18.005 0,-6.808 -5.447,-12.406 -12.457,-12.759 5.8,1.966 9.733,6.808 9.733,12.608 0,9.482 -9.179,17.148 -20.526,17.148 -12.003,0 -21.737,-7.767 -21.737,-17.905 0,-10.792 9.582,-19.013 21.434,-19.013 1.715,0 3.531,0.101 5.346,0.252 l 0,10.44 c 0,5.094 -0.605,5.648 -6.052,5.648 l 0,0.404 16.189,0 0,-0.404 c -5.446,0 -6.052,-0.554 -6.052,-5.648 l 0,-10.036 c 8.372,0.958 16.644,2.824 22.09,3.328 l 0,6.708 c 0,5.094 -0.605,5.648 -6.052,5.648 l 0,0.404 16.19,0 0,-0.404 c -5.447,0 -6.052,-0.554 -6.052,-5.648 l 0,-6.758 c 2.219,-0.505 4.034,-2.118 5.8,-5.498 l -0.807,-0.453 c -1.06,1.966 -2.522,2.925 -4.993,3.177 l 0,-8.624 c 0,-5.044 0.605,-5.649 6.052,-5.649 l 0,-0.403 -16.19,0 0,0.403 c 5.447,0 6.052,0.605 6.052,5.649 l 0,8.624 c -5.396,-0.252 -14.424,-1.412 -22.09,-2.118 l 0,-6.506 c 0,-5.044 0.606,-5.649 6.052,-5.649 l 0,-0.403 -16.189,0 0,0.403 c 5.447,0 6.052,0.605 6.052,5.649 l 0,6.153 c -1.866,-0.101 -3.581,-0.202 -5.043,-0.202 -12.558,0 -22.746,8.675 -22.746,20.022 z" style="" id="path4391"/>
      <path d="m 429.744,730.252 c 0,4.69 4.69,7.817 11.801,7.817 4.893,0 9.129,-2.723 11.096,-6.657 l 0,2.017 c 0,1.866 0.101,3.531 1.311,4.64 l 7.969,-0.252 0,-0.404 c -5.245,0 -5.8,-0.554 -5.8,-5.648 l 0,-9.936 c 0,-5.648 -4.842,-9.481 -12.104,-9.481 -3.329,0 -6.153,0.605 -9.129,1.916 -0.655,0.252 -1.16,0.454 -1.815,0.454 l 0,2.774 c 0,1.412 0.806,2.118 2.521,2.118 l 0,-1.008 c 0,-3.178 2.925,-4.892 8.473,-4.892 4.64,0 8.423,3.681 8.473,8.119 l 0,2.522 c -3.984,-0.656 -7.363,-1.16 -11.348,-1.16 -6.859,0 -11.448,2.824 -11.448,7.061 z m 4.035,0 c 0,-3.228 3.227,-5.397 8.069,-5.397 l 10.692,0 0,1.715 c 0,5.598 -4.589,10.137 -10.188,10.137 -5.093,0 -8.573,-2.572 -8.573,-6.455 z" style="" id="path4393"/>
      <path d="m 462.375,753.048 0,0.403 14.878,0 0,-0.403 c -4.539,0 -5.044,-0.454 -5.044,-4.64 l 0,-11.499 c 2.976,0.706 5.598,1.211 8.675,1.211 9.28,0 15.534,-5.246 15.534,-13.164 0,-7.565 -5.397,-12.608 -13.416,-12.608 -4.791,0 -8.876,2.673 -10.793,6.455 l 0,-1.815 c 0,-2.27 -0.302,-3.732 -1.261,-4.64 l -8.069,0.252 0,0.403 c 4.993,0 5.548,0.606 5.548,5.649 l 0,28.747 c 0,5.094 -0.605,5.649 -6.052,5.649 z m 9.834,-16.391 0,-12.861 c 0,-5.295 4.388,-9.582 9.835,-9.582 5.951,0 9.986,4.287 9.986,10.742 0,7.061 -4.892,11.701 -12.155,11.701 l -7.666,0 z" style="" id="path4395"/>
      <path d="m 474.075,715.021 c 0,7.666 6.607,13.97 14.677,13.97 6.304,0 11.448,-4.438 11.448,-9.885 0,-4.337 -3.278,-7.918 -7.262,-7.918 3.379,0.807 5.547,4.085 5.547,7.868 0,4.992 -4.337,9.027 -9.733,9.027 -7.565,0 -13.769,-5.85 -13.769,-13.062 0,-7.313 6.758,-13.264 15.13,-13.264 8.625,0 15.635,6.909 15.635,15.382 l 0,30.26 c 0,5.094 -0.605,5.649 -6.052,5.649 l 0,0.403 14.878,0 0,-0.403 c -4.539,0 -5.044,-0.454 -5.044,-4.64 l 0,-11.499 c 2.976,0.706 5.599,1.211 8.675,1.211 9.28,0 15.534,-5.246 15.534,-13.164 0,-7.565 -5.397,-12.608 -13.416,-12.608 -4.791,0 -8.876,2.723 -10.793,6.607 l 0,-0.505 c 0,-9.683 -8.725,-17.601 -19.417,-17.601 -8.876,0 -16.038,6.355 -16.038,14.172 z m 35.455,21.636 0,-12.609 c 0,-5.446 4.388,-9.834 9.835,-9.834 5.951,0 9.986,4.287 9.986,10.742 0,7.061 -4.892,11.701 -12.155,11.701 l -7.666,0 z" style="" id="path4397"/>
      <path d="m 515.986,750.173 c 0,8.776 7.767,15.887 17.349,15.887 11.852,0 21.536,-9.482 21.536,-21.182 l 0,-5.044 c 0,-2.017 0.252,-3.782 1.16,-5.547 l 5.194,-10.239 c 6.96,-13.718 18.762,-22.997 33.186,-22.997 15.18,0 27.738,11.852 27.738,26.427 0,13.718 -12.457,24.763 -27.738,24.763 -12.508,0 -22.645,-8.473 -22.645,-18.963 0,-10.944 9.128,-19.871 20.476,-19.871 9.078,0 16.492,7.212 16.492,15.987 0,6.708 -3.783,12.458 -9.835,13.92 7.112,0 12.911,-6.304 12.911,-14.02 0,-9.23 -8.775,-16.795 -19.568,-16.795 -12.003,0 -21.737,9.33 -21.737,20.779 0,11.499 10.692,20.829 23.906,20.829 15.836,0 28.747,-11.902 28.747,-26.629 0,-15.685 -13.113,-28.495 -29.504,-28.495 -15.433,0 -28.243,9.784 -34.497,24.612 l -3.328,7.867 c -0.202,0.505 -0.505,1.362 -0.505,2.219 l -0.302,0 c 0,-0.907 -0.202,-1.664 -0.656,-2.42 l -9.582,-15.736 c -0.505,-0.756 -1.261,-1.815 -2.32,-2.169 l 0,-0.1 5.094,-0.404 0,-0.252 -11.398,0 0,0.252 1.059,0.202 c 1.563,0.302 2.32,1.059 3.58,3.127 l 10.692,18.106 c 1.06,1.866 1.665,3.681 1.665,5.799 l 0,4.792 c 0,10.742 -8.826,19.467 -19.669,19.467 -8.978,0 -16.24,-6.304 -16.24,-14.121 0,-7.212 5.951,-13.164 13.365,-13.164 6.203,0 11.247,4.993 11.247,11.096 0,5.043 -3.531,9.128 -8.574,10.793 6.405,0 11.65,-4.842 11.65,-10.844 0,-6.606 -6.455,-12.053 -14.323,-12.053 -8.07,0 -14.626,6.354 -14.626,14.121 z" style="" id="path4399"/>
    </g>
    <g id="g5061-7" transform="matrix(0.147518,0,0,0.147518,641.253,458.732)">
      <g id="gr11-4" transform="translate(-1960.16,1961.25)">
        <path style="fill:url(#linearGradient4877)" transform="translate(400,50)" id="gr11-000e101-2" d="M 243.855,681.833 C 243.855,780.181 140.431,860 13,860 c -124.476,0 -225.5,-86.15 -225.5,-192.3 0,-112.305 101.136,-198.45 225.75,-198.45 L 12.7061,474 10,479.25 c -117.3,0 -212.5,81.666 -212.5,188.45 0,100.63 96.544,182.3 215.5,182.3 112.422,0 203.663,-76.089 203.663,-169.841 L 230,678.98 Z"/>
        <path style="fill:url(#linearGradient3815-5)" transform="translate(728,50)" id="gr11-000w102-3" d="M -134.546,690 C -286.597,690 -410,565.008 -410,411 -410,253.68 -268.88,126 -95,126 l -11,22 c -162.288,0 -294,117.824 -294,263 0,144.072 119.228,261 266.135,261 z"/>
        <path style="fill:url(#linearGradient3327-9)" transform="translate(1370,50)" id="gr11-000y104-0" d="m -94,499 c -134,0 -243,103 -243,231 0,118 110,214 246,214 l 2,16 c -144,0 -260,-103 -260,-230 0,-133 114,-241 255,-241 l 0,10 z"/>
        <path style="fill:url(#linearGradient3280-9)" transform="translate(1715,50)" id="gr11-000e105-1" d="M 243.855,681.833 C 243.855,780.181 140.431,860 13,860 c -124.476,0 -225.5,-86.15 -225.5,-192.3 0,-112.305 101.136,-198.45 225.75,-198.45 L 12.7061,474 10,479.25 c -117.3,0 -212.5,81.666 -212.5,188.45 0,100.63 96.544,182.3 215.5,182.3 112.422,0 203.663,-76.089 203.663,-169.841 L 230,678.98 Z"/>
        <path style="fill:url(#linearGradient3803-7)" transform="translate(2405,50)" id="gr11-000r.a1107-8" d="M 219.825,430.018 C 219.825,503.149 142.4,562.5 47,562.5 c -88.8721,0 -161,-65.408 -161,-146 0,-50.508 25,-96.5 64,-129.5 l 5.5332,4.667 L -42,297 c -37,31 -60,73.304 -60,120.5 0,74.519 65.8564,135 147,135 79.803,0 144.57,-55.195 144.57,-123.204 l 13.43,-1.68 z"/>
      </g>
      <g id="col1-3" transform="translate(-1960.16,1961.25)">
        <path style="fill:#f39412" transform="translate(400,50)" id="col1-00e101-0" d="m 216.663,680.159 c 0,-57.53 -39.001,-105.154 -96.404,-124.868 69.403,3.669 123.597,58.945 123.597,126.542 l -13.773,1.152 z"/>
        <path style="fill:#f39412" transform="translate(728,50)" id="col1-001w102-8" d="M 98,213 C 43,171 -24.829,148 -106,148 l 2,-10 9,-12 c 85.1006,0 158,24 219,68 z M -133.865,672 C 21.172,672 147,562.24 147,427 l 10,0 c 0,145.176 -130.613,263 -291.546,263 l -1.65,-9.25 z"/>
        <path style="fill:#f39412" transform="translate(1370,50)" id="col1-001y104-7" d="m -94,489 c 111,0 201.591,75.128 201.591,167.578 0,76.686 -57.374,138.926 -128.066,138.926 C 39.3307,780.772 77.3375,723.788 77.3375,657.299 77.3375,569.736 1.0006,499 -93.9995,499 l -2,-4.826 z"/>
        <path style="fill:#f39412" transform="translate(1715,50)" id="col1-00e105-1" d="m 216.663,680.159 c 0,-57.53 -39.001,-105.154 -96.404,-124.868 69.403,3.669 123.597,58.945 123.597,126.542 l -13.773,1.152 z"/>
        <path style="fill:#f39412" transform="translate(2405,50)" id="col1-001r.a1107-2" d="m 189.57,429.296 c 0,-52.056 -35.894,-95.416 -87.811,-108.205 65.171,0 118.065,48.799 118.065,108.927 l -13.158,1.687 z"/>
      </g>
      <g id="gr01-1" transform="translate(-1960.16,1961.25)">
        <path style="fill:url(#linearGradient5057-6)" transform="translate(400,50)" id="gr01-000e101-3" d="M 211.083,502.978 C 161.193,492.409 94.219,479.25 10,479.25 l 0.4355,-4.416 2.8145,-5.584 c 44.0947,0 80.1211,3.854 119.333,8.069 24.506,2.634 50.257,5.407 80,7.469 l 1.227,9.379 z"/>
        <path style="fill:url(#linearGradient3813-7)" transform="translate(728,50)" id="gr01-000w102-0" d="m 124,194 c 66,48 116.548,119.101 149.999,208.999 l -19.832,7.067 -19.168,0.932 C 202.2,325.725 158,258 98,213 l 12,-12 z"/>
        <path style="fill:url(#linearGradient3325-6)" transform="translate(1370,50)" id="gr01-000y104-8" d="m -91,944 c 135,0 243,-94.553 243,-211 l 0,-208 40,-8 0,208 C 192,854.556 65,960 -89,960 l -3.1035,-7.826 z"/>
        <path style="fill:url(#linearGradient3278-4)" transform="translate(1715,50)" id="gr01-000e105-3" d="M 211.083,502.978 C 161.193,492.409 94.219,479.25 10,479.25 l 0.4355,-4.416 2.8145,-5.584 c 44.0947,0 80.1211,3.854 119.333,8.069 24.506,2.634 50.257,5.407 80,7.469 l 1.227,9.379 z"/>
        <path style="fill:url(#linearGradient3801-7)" transform="translate(2405,50)" id="gr01-000r.a1107-7" d="M 104,246.5 C 47.1436,246.5 -5,266 -42,297 L -47.7998,292 -50,287 c 39,-33 93.832,-53.5 154,-53.5 l 0,13 z"/>
      </g>
      <g id="col0-3" transform="translate(-1960.16,1961.25)">
        <path style="fill:#ffffff" transform="translate(50,50)" id="col0-00N100-4" d="m 5,625 0,-4 c 54,0 60,-6 60,-61 L 65,440 C 65,385 59,379 5,379 l 0,-4 87,0 174,177 c 8,8 8,17 8,19 l 4,0 c -1,-6 -2,-14 -2,-22 l 0,-109 c 0,-55 -6,-61 -60,-61 l 0,-4 132,0 0,4 c -52,0 -58,6 -58,61 l 0,206 -2,0 c -2,-13 -7,-22 -16,-31 L 90,429 C 82,421 80,411 80,409 l -3,1 c 1,6 1,21 1,30 l 0,120 c 0,55 6,61 58,61 l 0,4 -131,0 z"/>
        <path style="fill:#ffffff" transform="translate(400,50)" id="col0-00e101-4" d="m 8,625 0,-4 c 54,0 60,-6 60,-56 L 68,435 C 68,385 62,379 8,379 l 0,-4 250,0 c 8,0 10,0 14,4 l 3,-34 3,0 8,126 -3,0 -6,-14 c -19,-47 -42,-68 -93,-68 l -88,0 c 9,9 10,23 10,46 l 0,130 c 0,23 -2,37 -10,46 l 105,0 c 51,0 71.987,-18.97 93,-68 l 6,-14 2,0 -7,121 -3,0 -3,-29 c -4,4 -5,4 -13,4 L 8,625 Z"/>
        <path style="fill:#ffffff" transform="translate(728,50)" id="col0-001w102-4" d="M 273.999,402.999 338,575 c 2.979,8.008 2,15 2,17 l 0,1 6,0 0,-1 c 0,-2 1,-9 4,-17 l 65,-155 c 2,-6 4,-11 4,-16 0,-13 -8,-23 -27,-25 l -18,-2 0,-2 114,0 0,2 -20,4 c -17,3 -31,20 -39,39 l -98,234 -2,-1 c 1,-3 2,-7 2,-10 0,-10 -6,-18 -17,-18 l -67,-182 -80,211 -2,-1 c 1,-3 1,-6 1,-9 0,-10 -6,-19 -17,-19 L 60,411 C 51,389 41,382 24,380 l -19,-3 0,-2 99,0 -4,7 c -2,4 -3,8 -3,12 0,3 1,6 2,9 l 72,172 c 3,8 3,15 3,17 l 0,1 6,0 0,-1 c 0,-2 0,-8 3,-17 l 57,-151 -5.001,-13.002 19.501,-8.205 z"/>
        <path style="fill:#ffffff" transform="translate(1370,50)" id="col0-001y104-9" d="M 152,525 62,414 C 45,394 34,382 21,380 l -16,-2 0,-3 109,0 0,3 -38,3 0,1 c 8,2 21,13 32,26 l 70,86 c 3,4 6,13 6,16 l 3,0 c 0,-3 4,-11 8,-15 l 69,-79 c 5,-6 7,-12 7,-17 0,-9 -8,-17 -26,-19 l -24,-3 0,-2 119,0 0,2 -13,2 c -16,3 -32,21 -45,36 l -90,102 -19.106,8.821 z"/>
        <path style="fill:#ffffff" transform="translate(1715,50)" id="col0-00e105-3" d="m 8,625 0,-4 c 54,0 60,-6 60,-56 L 68,435 C 68,385 62,379 8,379 l 0,-4 250,0 c 8,0 10,0 14,4 l 3,-34 3,0 8,126 -3,0 -6,-14 c -19,-47 -42,-68 -93,-68 l -88,0 c 9,9 10,23 10,46 l 0,130 c 0,23 -2,37 -10,46 l 105,0 c 51,0 71.987,-18.97 93,-68 l 6,-14 2,0 -7,121 -3,0 -3,-29 c -4,4 -5,4 -13,4 L 8,625 Z"/>
        <path style="fill:#ffffff" transform="translate(2055,50)" id="col0-00A106-0" d="m 2,625 0,-2 14,-2 c 16,-2 31,-21 38,-36 l 115,-230 2,0 c 0,15 9,20 33,20 0,6 1,14 6,24 l 90,190 c 8,17 14,29 33,32 l 15,2 0,2 -120,0 0,-2 48,-6 0,-2 c -7,-2 -12,-10 -16,-19 l -27,-57 -142,0 -21,42 c -2,5 -4,10 -4,15 0,12 8,22 22,24 l 24,3 0,2 -110,0 z M 227,525 172,409 c -3,-7 -4,-16 -4,-22 l -4,0 c 0,4 -3,10 -8,21 l -58,117 129,0 z"/>
        <path style="fill:#ffffff" transform="translate(2405,50)" id="col0-001r.a1107-6" d="m 7.5,375 85,-2.5 c 9.5,9 14,23.257 14,46 l 0,91.5 84.5,0 C 250.366,510 298.547,465.182 298.547,409.961 298.547,331.858 225.939,246.5 104,246.5 l -3,-6.045 3,-6.955 c 131.368,0 237.985,78.456 237.985,175.124 0,54.828 -42.325,103.383 -134.985,111.876 l 0,2.5 c 20.394,4.017 50.693,37.613 82.667,74.894 41.297,48.151 80.062,95.189 133.217,95.189 35.808,0 65.357,-25.535 67.616,-59.083 l 2.5,0 c 0,46.371 -36.687,84.005 -81.889,84.005 C 341.34,718.005 289.549,659.3 237.667,595.466 204.289,554.399 173.239,519.761 149.5,517.5 l -43,-4.343 0,61.843 c 0,33.58 13.5,46 50,46 l 0,4 -148.9995,0 0,-4 c 54,0 60,-5.6 60,-56 l 0,-130 c 0,-50.4 -6,-56 -60,-56 l 0,-4 z"/>
      </g>
      <g id="gr00-2" transform="translate(-1960.16,1961.25)">
        <path style="fill:url(#linearGradient5059-4)" transform="translate(400,50)" id="gr00-000e101-4" d="M 212.583,484.787 C 240.211,486.701 271.282,488 308,488 c 21.076,0 38.751,-11.892 48.918,-31.062 L 365,461.5 c -15.54,30.139 -37.008,54.5 -65.25,54.5 -24.901,0 -53.836,-4.929 -88.667,-13.023 l -0.246,-9.144 z"/>
        <path style="fill:url(#linearGradient3276-0)" transform="translate(1715,50)" id="gr00-000e105-9" d="M 212.583,484.787 C 240.211,486.701 271.282,488 308,488 c 21.076,0 38.751,-11.892 48.918,-31.062 L 365,461.5 c -15.54,30.139 -37.008,54.5 -65.25,54.5 -24.901,0 -53.836,-4.929 -88.667,-13.023 l -0.246,-9.144 z"/>
      </g>
    </g>
    <text xml:space="preserve" style="font-style:normal;font-weight:normal;font-size:40px;line-height:125%;font-family:sans-serif;letter-spacing:0px;word-spacing:0px;fill:#000000;fill-opacity:1;stroke:none;stroke-width:1px;stroke-linecap:butt;stroke-linejoin:miter;stroke-opacity:1" x="-245.278" y="4370.2397" id="text4315">
      <tspan id="tspan4317" x="-245.278" y="4370.2397"/>
    </text>
  </g>
</svg>
