<?xml version="1.0" encoding="UTF-8" standalone="no"?>
<!-- Created with Inkscape (http://www.inkscape.org/) -->

<svg
   xmlns:dc="http://purl.org/dc/elements/1.1/"
   xmlns:cc="http://creativecommons.org/ns#"
   xmlns:rdf="http://www.w3.org/1999/02/22-rdf-syntax-ns#"
   xmlns:svg="http://www.w3.org/2000/svg"
   xmlns="http://www.w3.org/2000/svg"
   xmlns:xlink="http://www.w3.org/1999/xlink"
   xmlns:sodipodi="http://sodipodi.sourceforge.net/DTD/sodipodi-0.dtd"
   xmlns:inkscape="http://www.inkscape.org/namespaces/inkscape"
   width="31.38278mm"
   height="31.08816mm"
   viewBox="0 0 111.19882 110.15489"
   id="svg2"
   version="1.1"
   inkscape:version="0.91 r13725"
   sodipodi:docname="Messbecher-lineart.svg">
  <title
     id="title4136">measuring cup - lineart</title>
  <defs
     id="defs4">
    <pattern
       inkscape:collect="always"
       xlink:href="#Polkadots-large"
       id="pattern6003"
       patternTransform="matrix(1.2,0,0,1.125,4,940)" />
    <pattern
       inkscape:collect="always"
       xlink:href="#Polkadots-large"
       id="pattern5911"
       patternTransform="matrix(1.2,0,0,1.55,0.56370799,946.54264)" />
    <pattern
       inkscape:collect="always"
       xlink:href="#Polkadots-large"
       id="pattern5811"
       patternTransform="matrix(1.075,0,0,1.425,-5.6568542,944.69466)" />
    <pattern
       inkscape:collect="always"
       xlink:href="#Polkadots-large"
       id="pattern5717"
       patternTransform="matrix(1.1611652,0,0,1.2318759,-4,940)" />
    <pattern
       inkscape:stockid="Polka dots, large"
       id="Polkadots-large"
       patternTransform="translate(0,0) scale(10,10)"
       height="10"
       width="10"
       patternUnits="userSpaceOnUse"
       inkscape:collect="always">
      <circle
         id="circle5407"
         r="0.45"
         cy="0.810"
         cx="2.567"
         style="fill:black;stroke:none" />
      <circle
         id="circle5409"
         r="0.45"
         cy="2.33"
         cx="3.048"
         style="fill:black;stroke:none" />
      <circle
         id="circle5411"
         r="0.45"
         cy="2.415"
         cx="4.418"
         style="fill:black;stroke:none" />
      <circle
         id="circle5413"
         r="0.45"
         cy="3.029"
         cx="1.844"
         style="fill:black;stroke:none" />
      <circle
         id="circle5415"
         r="0.45"
         cy="1.363"
         cx="6.08"
         style="fill:black;stroke:none" />
      <circle
         id="circle5417"
         r="0.45"
         cy="4.413"
         cx="5.819"
         style="fill:black;stroke:none" />
      <circle
         id="circle5419"
         r="0.45"
         cy="4.048"
         cx="4.305"
         style="fill:black;stroke:none" />
      <circle
         id="circle5421"
         r="0.45"
         cy="3.045"
         cx="5.541"
         style="fill:black;stroke:none" />
      <circle
         id="circle5423"
         r="0.45"
         cy="5.527"
         cx="4.785"
         style="fill:black;stroke:none" />
      <circle
         id="circle5425"
         r="0.45"
         cy="5.184"
         cx="2.667"
         style="fill:black;stroke:none" />
      <circle
         id="circle5427"
         r="0.45"
         cy="1.448"
         cx="7.965"
         style="fill:black;stroke:none" />
      <circle
         id="circle5429"
         r="0.45"
         cy="5.049"
         cx="7.047"
         style="fill:black;stroke:none" />
      <circle
         id="circle5431"
         r="0.45"
         cy="0.895"
         cx="4.340"
         style="fill:black;stroke:none" />
      <circle
         id="circle5433"
         r="0.45"
         cy="0.340"
         cx="7.125"
         style="fill:black;stroke:none" />
      <circle
         id="circle5435"
         r="0.45"
         cy="1.049"
         cx="9.553"
         style="fill:black;stroke:none" />
      <circle
         id="circle5437"
         r="0.45"
         cy="2.689"
         cx="7.006"
         style="fill:black;stroke:none" />
      <circle
         id="circle5439"
         r="0.45"
         cy="2.689"
         cx="8.909"
         style="fill:black;stroke:none" />
      <circle
         id="circle5441"
         r="0.45"
         cy="4.407"
         cx="9.315"
         style="fill:black;stroke:none" />
      <circle
         id="circle5443"
         r="0.45"
         cy="3.870"
         cx="7.820"
         style="fill:black;stroke:none" />
      <circle
         id="circle5445"
         r="0.45"
         cy="5.948"
         cx="8.270"
         style="fill:black;stroke:none" />
      <circle
         id="circle5447"
         r="0.45"
         cy="7.428"
         cx="7.973"
         style="fill:black;stroke:none" />
      <circle
         id="circle5449"
         r="0.45"
         cy="8.072"
         cx="9.342"
         style="fill:black;stroke:none" />
      <circle
         id="circle5451"
         r="0.45"
         cy="9.315"
         cx="8.206"
         style="fill:black;stroke:none" />
      <circle
         id="circle5453"
         r="0.45"
         cy="9.475"
         cx="9.682"
         style="fill:black;stroke:none" />
      <circle
         id="circle5455"
         r="0.45"
         cy="6.186"
         cx="9.688"
         style="fill:black;stroke:none" />
      <circle
         id="circle5457"
         r="0.45"
         cy="6.296"
         cx="3.379"
         style="fill:black;stroke:none" />
      <circle
         id="circle5459"
         r="0.45"
         cy="8.204"
         cx="2.871"
         style="fill:black;stroke:none" />
      <circle
         id="circle5461"
         r="0.45"
         cy="8.719"
         cx="4.59"
         style="fill:black;stroke:none" />
      <circle
         id="circle5463"
         r="0.45"
         cy="9.671"
         cx="3.181"
         style="fill:black;stroke:none" />
      <circle
         id="circle5465"
         r="0.45"
         cy="7.315"
         cx="5.734"
         style="fill:black;stroke:none" />
      <circle
         id="circle5467"
         r="0.45"
         cy="6.513"
         cx="6.707"
         style="fill:black;stroke:none" />
      <circle
         id="circle5469"
         r="0.45"
         cy="9.670"
         cx="5.730"
         style="fill:black;stroke:none" />
      <circle
         id="circle5471"
         r="0.45"
         cy="8.373"
         cx="6.535"
         style="fill:black;stroke:none" />
      <circle
         id="circle5473"
         r="0.45"
         cy="7.154"
         cx="4.37"
         style="fill:black;stroke:none" />
      <circle
         id="circle5475"
         r="0.45"
         cy="7.25"
         cx="0.622"
         style="fill:black;stroke:none" />
      <circle
         id="circle5477"
         r="0.45"
         cy="5.679"
         cx="0.831"
         style="fill:black;stroke:none" />
      <circle
         id="circle5479"
         r="0.45"
         cy="8.519"
         cx="1.257"
         style="fill:black;stroke:none" />
      <circle
         id="circle5481"
         r="0.45"
         cy="6.877"
         cx="1.989"
         style="fill:black;stroke:none" />
      <circle
         id="circle5483"
         r="0.45"
         cy="3.181"
         cx="0.374"
         style="fill:black;stroke:none" />
      <circle
         id="circle5485"
         r="0.45"
         cy="1.664"
         cx="1.166"
         style="fill:black;stroke:none" />
      <circle
         id="circle5487"
         r="0.45"
         cy="0.093"
         cx="1.151"
         style="fill:black;stroke:none" />
      <circle
         id="circle5489"
         r="0.45"
         cy="10.093"
         cx="1.151"
         style="fill:black;stroke:none" />
      <circle
         id="circle5491"
         r="0.45"
         cy="4.451"
         cx="1.302"
         style="fill:black;stroke:none" />
      <circle
         id="circle5493"
         r="0.45"
         cy="3.763"
         cx="3.047"
         style="fill:black;stroke:none" />
    </pattern>
  </defs>
  <sodipodi:namedview
     id="base"
     pagecolor="#ffffff"
     bordercolor="#666666"
     borderopacity="1.0"
     inkscape:pageopacity="0.0"
     inkscape:pageshadow="2"
     inkscape:zoom="2.8284271"
     inkscape:cx="57.815997"
     inkscape:cy="51.931774"
     inkscape:document-units="mm"
     inkscape:current-layer="layer1"
     showgrid="false"
     inkscape:window-width="1495"
     inkscape:window-height="950"
     inkscape:window-x="600"
     inkscape:window-y="203"
     inkscape:window-maximized="0"
     inkscape:snap-global="false"
     showguides="true"
     inkscape:guide-bbox="true"
     fit-margin-top="1"
     fit-margin-left="1"
     fit-margin-right="1"
     fit-margin-bottom="1" />
  <metadata
     id="metadata7">
    <rdf:RDF>
      <cc:Work
         rdf:about="">
        <dc:format>image/svg+xml</dc:format>
        <dc:type
           rdf:resource="http://purl.org/dc/dcmitype/StillImage" />
        <dc:title>measuring cup - lineart</dc:title>
        <dc:date>2015-03-05</dc:date>
        <dc:creator>
          <cc:Agent>
            <dc:title>Frank Tremmel</dc:title>
          </cc:Agent>
        </dc:creator>
        <dc:description>line art measuring cup</dc:description>
        <dc:subject>
          <rdf:Bag>
            <rdf:li>measuring</rdf:li>
            <rdf:li>cup</rdf:li>
            <rdf:li>measuring cup</rdf:li>
            <rdf:li>litre</rdf:li>
            <rdf:li>millilitre</rdf:li>
            <rdf:li>Liter</rdf:li>
            <rdf:li>Milliliter</rdf:li>
            <rdf:li>Messbecher</rdf:li>
            <rdf:li>messen</rdf:li>
            <rdf:li>becher</rdf:li>
            <rdf:li>küche</rdf:li>
            <rdf:li>kitchen</rdf:li>
            <rdf:li>line art</rdf:li>
            <rdf:li>outline</rdf:li>
          </rdf:Bag>
        </dc:subject>
        <cc:license
           rdf:resource="http://creativecommons.org/publicdomain/zero/1.0/" />
      </cc:Work>
      <cc:License
         rdf:about="http://creativecommons.org/publicdomain/zero/1.0/">
        <cc:permits
           rdf:resource="http://creativecommons.org/ns#Reproduction" />
        <cc:permits
           rdf:resource="http://creativecommons.org/ns#Distribution" />
        <cc:permits
           rdf:resource="http://creativecommons.org/ns#DerivativeWorks" />
      </cc:License>
    </rdf:RDF>
  </metadata>
  <g
     inkscape:label="Ebene 1"
     inkscape:groupmode="layer"
     id="layer1"
     transform="translate(2.491009,-942.92373)">
    <path
       style="fill:#ffffff;fill-rule:evenodd;stroke:#ff0000;stroke-width:0.35433072;stroke-linecap:butt;stroke-linejoin:miter;stroke-miterlimit:4;stroke-dasharray:none;stroke-opacity:1"
       d="M 49.759766,0.58789062 C 46.953199,0.61155687 44.000303,0.69372687 40.658203,0.76367188 32.653845,1.5153419 25.566231,3.2868137 19.623047,5.1835938 18.142359,5.7685337 15.505576,5.717225 12.375,5.359375 L 8.2207031,5.8007812 c -2.931189,1.3195601 -5.9911743,4.8184318 -6.9824219,7.5136718 0.2012886,0.72431 -0.1021681,1.700778 1.4140626,1.767578 l 2.1210937,0.177735 7.9550785,7.423828 c 1.050434,1.54935 1.831647,3.165188 1.943359,4.949218 l 2.298828,32.527344 c 0.614958,9.3692 1.922423,18.738222 4.419922,28.107422 1.226402,2.8542 1.779979,5.843728 4.064453,8.486328 l 0.53125,3.976564 c 7.201936,1.9878 14.758164,2.38035 22.185547,2.56445 6.923754,-0.7661 13.84773,-0.0266 20.771484,-2.47656 l 0,-4.242188 c 4.158644,-4.8968 4.243072,-10.084925 5.302735,-15.203125 l 1.238281,-4.949219 7.777344,0 c 5.203415,-0.3119 8.160455,-3.3707 11.314453,-6.1875 4.12413,-9.5192 7.975088,-19.063013 9.544918,-28.814453 1.715,-7.53709 0.59737,-15.834579 -0.88281,-17.324219 -1.76861,-3.65254 -6.168226,-5.824302 -9.458983,-6.982422 l -14.052735,0.265625 0.529297,-6.1875 C 81.141506,7.5614094 78.766899,4.7650919 75.925781,3.3261719 70.799256,1.5428719 63.99283,0.98561188 57.982422,0.76367188 55.226672,0.59907187 52.566332,0.56422438 49.759766,0.58789062 Z M 89.076172,20.865234 c 1.65328,-0.04629 3.40966,0.533418 4.673828,1.558594 1.751471,1.42036 2.617394,3.80286 3.125,6 1.078977,4.67028 0.372354,9.64032 -0.375,14.375 -1.124424,7.12351 -2.529562,14.4985 -6.125,20.75 -1.542958,2.6828 -3.547367,5.492 -6.375,6.75 -1.63741,0.7285 -3.696022,0.7518 -5.375,0.125 -1.160608,-0.4333 -2.75,-2.5 -2.75,-2.5 1.946703,-12.1134 2.464208,-22.79754 3.125,-33.625 l 2,-3.375 c 0,0 0.677361,-4.88759 2.125,-6.75 1.26311,-1.62501 3.212267,-2.96059 5.25,-3.25 0.230206,-0.0327 0.464989,-0.05198 0.701172,-0.05859 z"
       transform="translate(0,946.06299)"
       id="path6005"
       inkscape:connector-curvature="0" />
    <path
       style="color:#000000;font-style:normal;font-variant:normal;font-weight:normal;font-stretch:normal;font-size:medium;line-height:normal;font-family:sans-serif;text-indent:0;text-align:start;text-decoration:none;text-decoration-line:none;text-decoration-style:solid;text-decoration-color:#000000;letter-spacing:normal;word-spacing:normal;text-transform:none;direction:ltr;block-progression:tb;writing-mode:lr-tb;baseline-shift:baseline;text-anchor:start;white-space:normal;clip-rule:nonzero;display:inline;overflow:visible;visibility:visible;opacity:1;isolation:auto;mix-blend-mode:normal;color-interpolation:sRGB;color-interpolation-filters:linearRGB;solid-color:#000000;solid-opacity:1;fill:#000000;fill-opacity:1;fill-rule:evenodd;stroke:none;stroke-width:2.12598419;stroke-linecap:butt;stroke-linejoin:bevel;stroke-miterlimit:4;stroke-dasharray:none;stroke-dashoffset:0;stroke-opacity:1;color-rendering:auto;image-rendering:auto;shape-rendering:auto;text-rendering:auto;enable-background:accumulate"
       d="m 50.003906,945.84424 c -10.040356,-0.0559 -20.21356,1.04917 -29.623584,4.65626 -2.852258,1.09334 -6.064481,0.67409 -9.147393,0.5525 -2.8933399,-0.11411 -4.7544869,0.64965 -6.8498626,2.96743 -1.6860646,1.88538 -3.97514572,4.12855 -3.75799126,6.24068 0.29163039,2.83651 2.56551096,1.00158 4.11386436,2.3009 2.3258296,1.9681 5.3922545,3.87031 7.2969815,6.76339 1.497496,2.27453 1.944708,5.33136 2.059561,8.36741 0.244855,6.47258 1.036499,14.42115 1.611732,21.73376 1.094629,13.91543 1.983177,28.39913 7.434942,41.19113 0.760161,1.7836 1.279061,2.2409 1.363195,3.705 0.07294,1.2692 -0.171852,3.0104 1.122306,3.5084 3.319895,1.2776 8.586373,1.6904 12.850047,1.9787 6.486745,0.4385 13.85897,0.4963 20.57748,-0.1546 3.53569,-0.3425 6.988251,-0.8908 10.236405,-1.9726 1.632311,-0.5436 0.652277,-3.445 0.915827,-4.8905 1.148797,-1.5723 2.067139,-2.9992 2.79008,-4.9938 1.294592,-3.5717 1.962586,-7.9888 2.205265,-11.3876 0.20078,-2.812 1.480874,-2.8081 3.292179,-2.6988 2.47387,0.1492 5.313715,-0.083 8.141306,-0.7281 3.70919,-0.8464 6.699137,-3.3188 8.719585,-6.1258 2.559491,-3.5558 4.175138,-8.229 5.585819,-12.2684 3.47617,-9.95369 6.21179,-20.59225 4.85431,-31.13657 -0.98585,-7.65763 -9.645804,-11.73707 -17.090372,-11.30269 -1.865982,0.10888 -4.54714,0.18958 -6.310069,0.31099 -1.557776,0.10728 -1.662263,-0.68786 -1.511461,-2.76983 1.504153,-5.61275 -1.446176,-11.04548 -7.750335,-11.86933 -7.687262,-1.0046 -15.393355,-1.93487 -23.129817,-1.97793 z m 24.423856,11.88145 c -5.355275,2.12179 -12.849475,2.71573 -18.926726,3.25405 -7.011281,0.62106 -14.195689,0.49148 -21.304192,-0.80148 -0.950895,-0.17296 -5.453848,-1.28721 -10.248775,-1.81419 -6.585388,-0.72377 -13.72151,-0.88816 -12.962829,-0.97644 3.66493,-0.0174 10.299587,-0.28778 17.04292,0.29412 8.239047,0.71097 16.727443,2.30225 21.245247,2.29704 4.21916,-0.005 9.123105,-0.15956 13.311924,-0.8262 4.129667,-0.65723 8.251539,-1.11735 12.290934,-2.45663 4.070008,-1.34943 3.593266,-4.3568 -0.42821,-5.31178 -4.008189,-0.95183 -7.443646,-1.6553 -11.519542,-2.13745 -6.834958,-0.80852 -13.730996,-0.55272 -20.573682,-0.24396 -6.917683,0.31214 -13.635849,1.91953 -20.370192,3.28359 -1.282147,0.2597 -2.687615,0.64918 -3.96703,0.60048 -2.300797,-0.0876 -4.644812,-0.52661 -7.378488,-0.2717 -2.6777856,0.2497 -4.5948201,1.50764 -7.3917229,4.18628 1.6176393,-2.26251 3.727116,-4.103 6.0101285,-4.52334 3.9610014,-0.72929 7.7568774,0.6199 11.4752544,-0.62921 7.91271,-2.65811 15.827666,-3.9928 24.174657,-4.21142 1.551333,-0.0406 3.367842,-0.085 8.452389,0.0297 5.084548,0.11468 13.977171,0.0915 20.725801,2.2717 3.696873,1.19431 5.649115,3.40126 5.076211,4.87208 -0.47293,1.21415 -2.799553,2.34829 -4.734077,3.11476 z m -26.000028,-8.21153 c 6.490422,-0.18217 12.471428,0.0142 18.712013,1.05645 2.848796,0.47578 6.459355,1.37271 8.985253,2.83808 0.530421,0.30772 0.840351,1.18862 -0.165991,1.68465 -1.960806,0.96648 -6.54599,1.65821 -7.991516,1.92314 -6.301109,1.15484 -12.736245,1.5971 -19.174052,1.69008 -4.67986,0.0676 -11.628826,-1.23374 -16.379849,-1.63636 -8.464219,-0.71728 -19.589692,-0.51127 -23.2944748,-0.37431 -1.3889298,-0.23822 -4.1351066,1.16357 -6.5319341,1.85043 1.462466,-2.65259 5.0948234,-5.18543 6.8302405,-5.36087 3.2944814,-0.33306 5.9644664,0.40656 8.8501344,0.22988 1.956802,-0.11983 3.827752,-0.4528 6.101837,-0.94406 2.158851,-0.46637 8.08537,-1.61493 12.297687,-2.23679 3.911198,-0.5774 7.787191,-0.6088 11.760652,-0.72032 z m 30.328125,8.44336 c -0.199366,5.22588 -0.374939,8.72574 -0.538959,13.80654 -0.185888,5.75818 -0.29067,10.97338 -0.724329,16.83646 -0.614653,8.39489 -1.440903,16.77538 -2.543352,25.12068 -1.141164,1.6034 -0.978097,2.8598 -1.158915,4.0315 -0.315905,2.0471 -0.230241,3.6544 0.423881,5.1017 -0.400919,1.1296 -0.731929,3.0487 -1.092366,5.2198 -0.811583,4.8885 -2.391082,11.8502 -4.635068,13.1573 -6.181348,-2.7142 -14.254778,-2.9229 -20.794467,-3.0876 -8.072553,-0.2032 -13.799819,0.7701 -21.917353,2.9431 -3.205555,-2.2517 -4.054931,-11.3734 -5.152118,-16.0892 -3.984052,-17.1239 -3.784812,-34.8759 -5.368974,-52.34301 -0.468809,-5.16913 -6.4247742,-7.6096 -9.308216,-11.39262 -0.6365081,-0.83508 -3.5088099,-0.0164 -3.7607249,-1.14296 1.3289971,-1.24222 4.0601666,-2.15307 7.0080831,-2.10086 3.2979368,0.0584 6.9029078,0.96174 9.5388328,1.23866 3.295972,0.34627 6.008874,0.33548 9.243593,0.9642 5.682838,1.10453 11.869733,2.89191 17.739838,2.81853 6.295281,-0.0787 12.669691,-0.38631 18.912965,-1.34617 4.57591,-0.70352 9.081375,-1.75743 13.433607,-3.32842 z m 11.410157,6.3125 c 7.208313,-0.72523 14.328304,5.75288 13.637674,13.41297 -1.15381,12.79732 -4.2584,25.52161 -9.984604,36.98561 -3.188676,6.3838 -11.302658,8.2946 -17.697468,6.0931 -0.622799,-0.3399 -0.838816,-1.5311 -0.738114,-2.6069 0.156901,-1.6761 1.08268,-3.072 2.436675,-0.5313 6.912195,1.9074 12.524666,-4.5517 15.064254,-10.3551 4.105447,-9.38168 5.407888,-19.71807 5.218625,-29.78621 -0.104825,-5.57633 -2.263335,-11.29318 -9.564309,-11.2785 -7.296625,0.0147 -8.678942,10.44942 -9.190173,11.76222 -0.159265,-2.48537 0.771219,-7.43275 0.597191,-9.51894 -0.455539,-5.46085 6.798113,-3.83265 10.220249,-4.17695 z m 0.652456,4.294 c 5.392952,0.73998 5.348631,7.55524 5.175269,12.08329 -0.410069,10.71062 -1.535718,22.19709 -8.169976,31.04469 -2.249639,3.0002 -8.403902,6.647 -10.728062,1.9882 1.408848,-10.7275 2.363833,-21.51118 3.005859,-32.31057 2.684941,-3.99871 1.603787,-10.54741 7.059167,-12.66701 1.092998,-0.42467 2.490148,-0.29881 3.657743,-0.1386 z m -43.239351,70.62158 c 6.5261,0.029 14.256922,0.464 20.429303,2.7978 -3.992615,1.6612 -13.461335,2.7873 -20.456358,2.8059 -7.122548,0.019 -15.660529,-1.2675 -20.635168,-2.8434 6.329357,-1.8762 14.098533,-2.7892 20.662223,-2.7603 z m -20.889668,4.3149 c 6.862821,1.2424 13.822024,2.395 20.951785,2.377 6.788296,-0.017 13.747731,-1.1449 20.283623,-2.34 -0.08139,1.2157 0.03706,1.5577 -0.08422,2.2955 -6.57822,1.5277 -14.094751,2.207 -20.023538,2.2662 -7.083141,0.071 -14.158406,-0.9293 -21.127653,-2.2057 z"
       id="path4157"
       inkscape:connector-curvature="0"
       sodipodi:nodetypes="ssscscssssssssscssssssssscsssssscsssssssssscssssssssssssssccssssssccscsccscssscssssscssscscssscssscsccsscscscscsccscc" />
    <path
       style="fill:url(#pattern6003);fill-opacity:1;fill-rule:evenodd;stroke:none;stroke-width:0.35433072;stroke-linecap:butt;stroke-linejoin:miter;stroke-miterlimit:4;stroke-dasharray:none;stroke-opacity:1"
       d="m 2.8728445,961.09517 c 5.1324655,-1.30751 12.8192745,7.53104 15.6887085,5.35356 -1.140097,3.97393 -1.557188,4.54269 -5.214912,3.62391 -0.772441,-2.97099 -5.9183945,-6.48377 -10.4737965,-8.97747 z"
       id="path4181"
       inkscape:connector-curvature="0"
       sodipodi:nodetypes="cccc" />
    <path
       style="fill:none;fill-rule:evenodd;stroke:#000000;stroke-width:0.35433067;stroke-linecap:butt;stroke-linejoin:miter;stroke-miterlimit:4;stroke-dasharray:none;stroke-opacity:1"
       d="m 26.978815,964.14803 c 3.616481,1.21019 4.986746,1.36462 9.063708,1.37132 -3.059623,25.66099 -3.505579,51.59825 -2.053301,74.79905 -1.120987,1.4904 -2.180816,0.8211 -2.386485,-0.3535 -2.266067,-23.9906 -5.988807,-51.14551 -4.623922,-75.81687 z"
       id="path4183"
       inkscape:connector-curvature="0"
       sodipodi:nodetypes="ccccc" />
    <g
       id="g4215">
      <path
         sodipodi:nodetypes="cc"
         inkscape:connector-curvature="0"
         id="path4170"
         d="m 47.214027,970.15349 c 3.537315,0.78918 7.074631,0.70995 10.611946,0"
         style="fill:none;fill-rule:evenodd;stroke:#000000;stroke-width:2.12598419;stroke-linecap:round;stroke-linejoin:miter;stroke-miterlimit:4;stroke-dasharray:none;stroke-opacity:1" />
      <path
         sodipodi:nodetypes="cc"
         inkscape:connector-curvature="0"
         id="path4172"
         d="m 47.214027,1000.8846 c 3.537315,0.8769 7.074631,0.7888 10.611946,0"
         style="fill:none;fill-rule:evenodd;stroke:#000000;stroke-width:2.12598419;stroke-linecap:round;stroke-linejoin:miter;stroke-miterlimit:4;stroke-dasharray:none;stroke-opacity:1" />
      <path
         sodipodi:nodetypes="cc"
         inkscape:connector-curvature="0"
         id="path4174"
         d="m 47.214027,984.999 c 3.537315,0.68283 7.074631,0.97292 10.611946,0"
         style="fill:none;fill-rule:evenodd;stroke:#000000;stroke-width:2.12598419;stroke-linecap:round;stroke-linejoin:miter;stroke-miterlimit:4;stroke-dasharray:none;stroke-opacity:1" />
      <path
         sodipodi:nodetypes="cc"
         inkscape:connector-curvature="0"
         id="path4176"
         d="m 47.214027,1019.4179 c 3.474874,0.562 6.972491,0.9193 10.611946,0"
         style="fill:none;fill-rule:evenodd;stroke:#000000;stroke-width:2.12598419;stroke-linecap:round;stroke-linejoin:miter;stroke-miterlimit:4;stroke-dasharray:none;stroke-opacity:1" />
      <path
         inkscape:connector-curvature="0"
         id="path4168"
         d="m 47.086002,966.6717 0,74.5001"
         style="fill:none;fill-rule:evenodd;stroke:#000000;stroke-width:2.12598419;stroke-linecap:round;stroke-linejoin:miter;stroke-miterlimit:4;stroke-dasharray:none;stroke-opacity:1"
         sodipodi:nodetypes="cc" />
    </g>
    <path
       style="fill:url(#pattern5717);fill-opacity:1;fill-rule:evenodd;stroke:none;stroke-width:0.35433072;stroke-linecap:butt;stroke-linejoin:miter;stroke-miterlimit:4;stroke-dasharray:none;stroke-opacity:1"
       d="m 22.679194,1036.763 c 6.455192,-1.2558 4.947257,1.8421 24.395183,-0.1679 10.833049,0.433 17.991676,1.6201 25.623738,0.2196 -0.551408,1.5898 -1.262561,3.3996 -3.18494,5.4465 l -2.71671,-1.0773 c 0,0 -12.323495,-2.5769 -19.670311,-2.5769 -7.346815,0 -18.92031,2.3269 -18.92031,2.3269 l -2.66794,1.5149 c -2.209569,-3.8844 -2.458765,-4.5158 -2.85871,-5.6858 z"
       id="path4236"
       inkscape:connector-curvature="0"
       sodipodi:nodetypes="cccccsccc" />
    <path
       style="fill:url(#pattern5811);fill-opacity:1;fill-rule:evenodd;stroke:none;stroke-width:0.35433072;stroke-linecap:butt;stroke-linejoin:miter;stroke-miterlimit:4;stroke-dasharray:none;stroke-opacity:1"
       d="m 57.805979,949.12461 c -0.793949,3.48694 2.710261,6.87454 3.889088,9.36916 2.04313,-0.19194 9.734528,-1.42624 11.25622,-1.6943 0.438644,-0.0773 4.686176,-1.56987 5.050481,-1.33432 0.364305,0.23555 -2.509069,2.88346 -0.813097,2.13985 0.393537,-0.17255 -6.60121,2.30876 -11.897019,3.41573 3.199141,1.38409 7.177375,2.67828 7.577504,7.7018 0.966843,12.13844 -0.931531,26.89203 -1.473447,39.83067 -0.540957,12.9157 -6.44158,29.1477 -2.276021,32.8488 2.32126,-3.8189 4.840356,-11.9113 5.833631,-17.5008 l -0.707107,-5.4069 2.12132,-5.1997 c 0.833222,-11.1369 2.301687,-22.2739 2.298098,-33.41085 l 1.237436,-23.15774 0,-4.06587 c -2.4676,-2.6018 -5.563981,-5.01866 -15.909902,-5.3033 z"
       id="path5719"
       inkscape:connector-curvature="0"
       sodipodi:nodetypes="ccssscssccccccccc" />
    <g
       id="g5817"
       style="fill:url(#pattern5911);fill-opacity:1;stroke:none">
      <path
         sodipodi:nodetypes="ccssscssscccc"
         inkscape:connector-curvature="0"
         id="path5813"
         d="m 79.191942,963.93758 7.075825,-0.78509 c 3.835905,-0.37559 7.744181,-0.34589 11.149048,1.38388 3.175175,1.61309 8.204685,6.89837 7.487435,12.51777 0,0 -0.75401,12.13731 -2.60355,19.21967 -1.77157,6.78379 -7.878681,19.50259 -7.878681,19.50259 0,0 4.462474,-14.7707 5.628681,-22.37131 0.97544,-6.35727 3.21634,-13.18256 1.11872,-19.26256 -1.221914,-3.54174 -4.739766,-8.21814 -7.431983,-8.43198 -6.302967,-0.50063 -7.406416,0.39905 -7.972272,1.44454 L 81.25,974.1122 l -2.75,5.75 z"
         style="fill:url(#pattern5911);fill-opacity:1;fill-rule:evenodd;stroke:none;stroke-width:0.35433072;stroke-linecap:butt;stroke-linejoin:miter;stroke-miterlimit:4;stroke-dasharray:none;stroke-opacity:1" />
      <path
         sodipodi:nodetypes="csccccc"
         inkscape:connector-curvature="0"
         id="path5815"
         d="m 75.218484,1020.8959 c 0,0 5.545688,-0.5125 8.220116,-1.2374 6.122897,-1.6594 7.424621,-9.5459 7.424621,-9.5459 -2.331797,2.732 -4.601347,5.5036 -9.457553,6.6291 l -2.828426,0.1768 c -1.046484,-1.0115 -2.083209,-2.1108 -3.358758,-1.0607 -0.906556,2.6603 -0.797509,3.9266 0,5.0381 z"
         style="fill:url(#pattern5911);fill-opacity:1;fill-rule:evenodd;stroke:none;stroke-width:0.35433072;stroke-linecap:butt;stroke-linejoin:miter;stroke-miterlimit:4;stroke-dasharray:none;stroke-opacity:1" />
    </g>
  </g>
</svg>
