<?xml version="1.0" encoding="utf-8"?>
<!-- Generator: Adobe Illustrator 18.0.0, SVG Export Plug-In . SVG Version: 6.00 Build 0)  -->
<!DOCTYPE svg PUBLIC "-//W3C//DTD SVG 1.1//EN" "http://www.w3.org/Graphics/SVG/1.1/DTD/svg11.dtd">
<svg version="1.1" id="Layer_2" xmlns="http://www.w3.org/2000/svg" xmlns:xlink="http://www.w3.org/1999/xlink" x="0px" y="0px"
	 width="109px" height="93px" viewBox="0 0 109 93" style="enable-background:new 0 0 109 93;" xml:space="preserve">
<style type="text/css">
	.st0{fill:none;stroke:#00A0F1;stroke-width:1.22;stroke-miterlimit:10;}
	.st1{fill:#00A0F1;}
</style>
<g>
	<circle class="st0" cx="54.5" cy="46.5" r="44.5"/>
	<path class="st1" d="M54.5,14.2c-17.8,0-32.3,14.5-32.3,32.3c0,3.6,0.6,7,1.7,10.2c-4.4,1.5-8.4,2.8-11.6,3.8
		c1.5,4.5,3.7,8.7,6.4,12.4l9.8-7.3c2.2,3,5,5.6,8.1,7.7l-6.8,10.2c4.4,3,9.4,5.1,14.8,6.3L47.4,78c1.9,0.4,3.8,0.7,5.8,0.8v-7.3
		c-1.4-0.1-2.9-0.3-4.2-0.6l5.5-24.4L40.7,67.3c-2.4-1.6-4.5-3.6-6.3-6l20.1-14.9c-0.8,0.3-12.2,4.1-23.7,7.9
		c-0.8-2.5-1.3-5.2-1.3-7.9c0-13.8,11.2-25,25-25c13.6,0,24.7,10.9,25,24.4h7.3C86.5,28.3,72.1,14.2,54.5,14.2z"/>
	<path class="st1" d="M96.6,46.5c0-23.2-18.9-42.1-42.1-42.1c-23,0-41.7,18.6-42.1,41.5h6.1c0.3-19.6,16.3-35.4,36-35.4
		c19.8,0,36,16.1,36,36c0,5.1-1.1,9.9-2.9,14.3L74.1,55c1.1-2.6,1.7-5.5,1.7-8.5c0-11.8-9.6-21.4-21.3-21.4
		c-11.6,0-21,9.2-21.3,20.7h7.3c0.3-7.5,6.5-13.4,14-13.4c7.7,0,14,6.3,14,14c0,2-0.4,3.9-1.1,5.6l-12.9-5.6l10.1,9.7
		c-2.6,2.7-6.1,4.3-10.1,4.3c-0.4,0-0.9,0-1.3-0.1v7.3c0.4,0,0.9,0,1.3,0c6,0,11.5-2.5,15.4-6.6l10.5,10.1
		c-6.6,6.8-15.7,11.1-25.9,11.1c-0.4,0-0.9,0-1.3,0v6.1c0.4,0,0.9,0,1.3,0c11.9,0,22.7-5,30.3-12.9l1.8,1.7
		c3.7-3.8,6.7-8.3,8.8-13.2l-2.3-1C95.3,58.1,96.6,52.4,96.6,46.5z"/>
</g>
</svg>
