<?xml version="1.0" encoding="UTF-8" standalone="no"?>
<svg
   xmlns:dc="http://purl.org/dc/elements/1.1/"
   xmlns:cc="http://creativecommons.org/ns#"
   xmlns:rdf="http://www.w3.org/1999/02/22-rdf-syntax-ns#"
   xmlns:svg="http://www.w3.org/2000/svg"
   xmlns="http://www.w3.org/2000/svg"
   xmlns:xlink="http://www.w3.org/1999/xlink"
   version="1.1"
   id="svg2"
   viewBox="0 0 530.00001 242.00001"
   height="242"
   width="530">
  <title
     id="title3468">United States Coins</title>
  <defs
     id="defs4">
    <linearGradient
       id="linearGradient4183">
      <stop
         style="stop-color:#000000;stop-opacity:1"
         offset="0"
         id="stop4185" />
      <stop
         style="stop-color:#cccccc;stop-opacity:1"
         offset="1"
         id="stop4187" />
    </linearGradient>
    <radialGradient
       r="75.7145"
       fy="387.62302"
       fx="-257.68942"
       cy="387.62302"
       cx="-257.68942"
       gradientTransform="matrix(0.40867216,0.07784209,-0.07719556,0.40527782,172.09435,9.7454872)"
       gradientUnits="userSpaceOnUse"
       id="radialGradient4157"
       xlink:href="#linearGradient4183" />
    <radialGradient
       r="75.7145"
       fy="387.62302"
       fx="-257.68942"
       cy="387.62302"
       cx="-257.68942"
       gradientTransform="matrix(0.87065856,0.16583926,-0.16446184,0.86342716,366.18981,14.947174)"
       gradientUnits="userSpaceOnUse"
       id="radialGradient4623"
       xlink:href="#linearGradient4183" />
    <radialGradient
       xlink:href="#linearGradient4183"
       id="radialGradient4413"
       gradientUnits="userSpaceOnUse"
       gradientTransform="matrix(0.69949759,0.13323726,-0.13213063,0.69368779,294.2937,18.585656)"
       cx="-257.68942"
       cy="387.62302"
       fx="-257.68942"
       fy="387.62302"
       r="75.7145" />
    <radialGradient
       r="75.7145"
       fy="387.62302"
       fx="-257.68942"
       cy="387.62302"
       cx="-257.68942"
       gradientTransform="matrix(0.48468941,0.09232153,-0.09155473,0.48066372,204.46204,8.603962)"
       gradientUnits="userSpaceOnUse"
       id="radialGradient4175"
       xlink:href="#linearGradient4183" />
    <radialGradient
       r="75.7145"
       fy="387.62302"
       fx="-257.68942"
       cy="387.62302"
       cx="-257.68942"
       gradientTransform="matrix(0.55438782,0.10559738,-0.10472031,0.54978323,233.29512,9.0613669)"
       gradientUnits="userSpaceOnUse"
       id="radialGradient4307"
       xlink:href="#linearGradient4183" />
    <radialGradient
       xlink:href="#linearGradient4183"
       id="radialGradient3421"
       gradientUnits="userSpaceOnUse"
       gradientTransform="matrix(0.60557615,0.11534751,-0.11438946,0.60054643,254.94286,17.89259)"
       cx="-257.68942"
       cy="387.62302"
       fx="-257.68942"
       fy="387.62302"
       r="75.7145" />
    <radialGradient
       xlink:href="#linearGradient8158"
       id="radialGradient8164"
       cx="-257.68942"
       cy="387.62302"
       fx="-257.68942"
       fy="387.62302"
       r="75.7145"
       gradientUnits="userSpaceOnUse"
       gradientTransform="matrix(0.43468478,0.08279687,-0.08210917,0.43107441,183.18433,10.390686)" />
    <linearGradient
       id="linearGradient8158">
      <stop
         style="stop-color:#000000;stop-opacity:1"
         offset="0"
         id="stop8160" />
      <stop
         style="stop-color:#d38d5f;stop-opacity:1"
         offset="1"
         id="stop8162" />
    </linearGradient>
    <radialGradient
       xlink:href="#linearGradient4947"
       id="radialGradient4758"
       gradientUnits="userSpaceOnUse"
       gradientTransform="matrix(0.60557615,0.11534751,-0.11438946,0.60054643,254.94286,17.892583)"
       cx="-257.68942"
       cy="387.62302"
       fx="-257.68942"
       fy="387.62302"
       r="75.7145" />
    <linearGradient
       id="linearGradient4947">
      <stop
         id="stop4949"
         offset="0"
         style="stop-color:#000000;stop-opacity:1" />
      <stop
         id="stop4951"
         offset="1"
         style="stop-color:#ffcc53;stop-opacity:1" />
    </linearGradient>
  </defs>
  <metadata
     id="metadata7">
    <rdf:RDF>
      <cc:Work
         rdf:about="">
        <dc:format>image/svg+xml</dc:format>
        <dc:type
           rdf:resource="http://purl.org/dc/dcmitype/StillImage" />
        <dc:title>United States Coins</dc:title>
        <cc:license
           rdf:resource="http://creativecommons.org/publicdomain/zero/1.0/" />
        <dc:date>2016-03-26</dc:date>
        <dc:creator>
          <cc:Agent>
            <dc:title>mazeo</dc:title>
          </cc:Agent>
        </dc:creator>
        <dc:publisher>
          <cc:Agent>
            <dc:title>openclipart.org</dc:title>
          </cc:Agent>
        </dc:publisher>
        <dc:language>en</dc:language>
        <dc:subject>
          <rdf:Bag>
            <rdf:li>money</rdf:li>
            <rdf:li>currency</rdf:li>
            <rdf:li>change</rdf:li>
            <rdf:li>coins</rdf:li>
            <rdf:li>cash</rdf:li>
            <rdf:li>coinage</rdf:li>
            <rdf:li>denominations</rdf:li>
            <rdf:li>cents</rdf:li>
            <rdf:li>United States coins</rdf:li>
            <rdf:li>penny</rdf:li>
            <rdf:li>nickel</rdf:li>
            <rdf:li>dime</rdf:li>
            <rdf:li>quarter</rdf:li>
            <rdf:li>half-dollar</rdf:li>
            <rdf:li>half dollar</rdf:li>
            <rdf:li>dollar</rdf:li>
            <rdf:li>golden dollar</rdf:li>
            <rdf:li>Sacagawea</rdf:li>
            <rdf:li>Sacajawea</rdf:li>
            <rdf:li>Susan B. Anthony</rdf:li>
            <rdf:li>Suzie B</rdf:li>
            <rdf:li>SBA</rdf:li>
          </rdf:Bag>
        </dc:subject>
        <dc:description>Circulating coins of the United States, to scale.</dc:description>
        <dc:contributor>
          <cc:Agent>
            <dc:title>mazeo</dc:title>
          </cc:Agent>
        </dc:contributor>
      </cc:Work>
      <cc:License
         rdf:about="http://creativecommons.org/publicdomain/zero/1.0/">
        <cc:permits
           rdf:resource="http://creativecommons.org/ns#Reproduction" />
        <cc:permits
           rdf:resource="http://creativecommons.org/ns#Distribution" />
        <cc:permits
           rdf:resource="http://creativecommons.org/ns#DerivativeWorks" />
      </cc:License>
    </rdf:RDF>
  </metadata>
  <g
     transform="translate(39.500584,-4.3858258)"
     id="layer1">
    <g
       transform="translate(1.1844477,-0.91016041)"
       id="g3423">
      <g
         transform="translate(263.32871,-103.25309)"
         id="dime">
        <circle
           style="color:#000000;clip-rule:nonzero;display:inline;overflow:visible;visibility:visible;opacity:1;isolation:auto;mix-blend-mode:normal;color-interpolation:sRGB;color-interpolation-filters:linearRGB;solid-color:#000000;solid-opacity:1;fill:url(#radialGradient4157);fill-opacity:1;fill-rule:nonzero;stroke:#000000;stroke-width:0.9864347;stroke-linecap:round;stroke-linejoin:round;stroke-miterlimit:4;stroke-dasharray:none;stroke-dashoffset:0;stroke-opacity:1;marker:none;color-rendering:auto;image-rendering:auto;shape-rendering:auto;text-rendering:auto;enable-background:accumulate"
           id="circle4149"
           cx="33.324802"
           cy="152.67519"
           r="31.237097" />
        <circle
           r="28.966042"
           cy="154.26968"
           cx="31.730314"
           id="circle4151"
           style="color:#000000;clip-rule:nonzero;display:inline;overflow:visible;visibility:visible;opacity:1;isolation:auto;mix-blend-mode:normal;color-interpolation:sRGB;color-interpolation-filters:linearRGB;solid-color:#000000;solid-opacity:1;fill:#cccccc;fill-opacity:1;fill-rule:nonzero;stroke:#000000;stroke-width:5.52854586;stroke-linecap:round;stroke-linejoin:round;stroke-miterlimit:4;stroke-dasharray:none;stroke-dashoffset:0;stroke-opacity:1;marker:none;color-rendering:auto;image-rendering:auto;shape-rendering:auto;text-rendering:auto;enable-background:accumulate" />
        <path
           d="m 45.916334,159.50608 c -1.702162,-0.18175 -2.985622,-1.64132 -3.404808,-3.23208 c -0.549956,-1.99284 -0.202309,-4.36028 1.378478,-5.80626 c 0.553976,-0.52138 1.196667,-0.97526 1.934464,-1.18948 c 0,0 -0.815604,-2.6447 0,-3.46031 c 0.808382,-0.80838 2.621301,-0.80838 3.429684,0 c 0.815603,0.81561 0,3.46031 0,3.46031 c 1.003697,0.46225 2.674291,0.7054 2.786623,1.80671 c 0.106194,1.04119 -1.20737,2.00867 -2.235422,2.2048 c -0.638245,0.12176 -1.095965,-0.79255 -1.794268,-0.76173 c -1.277325,-0.15723 -2.326714,1.21038 -2.060306,2.41569 c 0.131582,1.11585 1.301577,2.04362 2.422983,1.72214 c 0.736182,0.0152 1.086235,-1.11746 1.758625,-1.02569 c 0.991036,0.13526 2.195646,1.1562 2.092117,2.15105 c -0.108052,1.03834 -1.560751,1.48103 -2.599058,1.74738 c -0.448685,-0.007 -0.227672,0.47434 -0.279425,0.75689 c 0,0 0.571791,1.85412 0,2.42591 c -0.808382,0.80838 -2.621304,0.80838 -3.429687,0 c -0.757861,-0.75786 0,-3.21533 0,-3.21533 z"
           id="path4155"
           style="fill:#000000;fill-opacity:1;stroke:none;stroke-width:1px;stroke-linecap:butt;stroke-linejoin:miter;stroke-opacity:1" />
        <path
           id="path4491"
           style="fill:none;stroke:#000000;stroke-width:3.87814975;stroke-linecap:round;stroke-linejoin:round;stroke-miterlimit:4;stroke-dasharray:none"
           d="m 12.869169,147.62964 l 2.038794,-1.01939 l 3.058198,-3.0582 l 0,21.40737 m 10.781597,-20.94671 c -0.976451,0.3967 -1.681506,1.32811 -2.265995,2.20515 c -0.778072,1.16751 -1.285563,2.53577 -1.54825,3.91398 c -0.431171,2.26219 -0.35773,4.63377 0,6.90872 c 0.261213,1.66116 0.72415,3.33546 1.54825,4.80125 c 0.5663,1.00725 1.215267,2.1426 2.265995,2.62345 c 1.653837,0.75687 3.818045,0.78985 5.456387,0 c 1.006853,-0.4854 1.573352,-1.63148 2.088479,-2.62345 c 0.768702,-1.48028 1.172337,-3.15025 1.409704,-4.80125 c 0.327721,-2.27947 0.396086,-4.64013 0,-6.90872 c -0.238506,-1.36604 -0.682565,-2.73321 -1.409704,-3.91398 c -0.530866,-0.86204 -1.158498,-1.80506 -2.088479,-2.20515 c -1.670738,-0.71879 -3.771342,-0.68458 -5.456387,0 z" />
      </g>
      <g
         id="dollar"
         transform="translate(100.18747,-143.61417)">
        <circle
           style="color:#000000;clip-rule:nonzero;display:inline;overflow:visible;visibility:visible;opacity:1;isolation:auto;mix-blend-mode:normal;color-interpolation:sRGB;color-interpolation-filters:linearRGB;solid-color:#000000;solid-opacity:1;fill:url(#radialGradient4623);fill-opacity:1;fill-rule:nonzero;stroke:#000000;stroke-width:1.90140855;stroke-linecap:round;stroke-linejoin:round;stroke-miterlimit:4;stroke-dasharray:none;stroke-dashoffset:0;stroke-opacity:1;marker:none;color-rendering:auto;image-rendering:auto;shape-rendering:auto;text-rendering:auto;enable-background:accumulate"
           id="circle4613"
           cx="70.547241"
           cy="319.45276"
           r="66.549294" />
        <circle
           r="61.619553"
           cy="322.5"
           cx="67.5"
           id="circle4615"
           style="color:#000000;clip-rule:nonzero;display:inline;overflow:visible;visibility:visible;opacity:1;isolation:auto;mix-blend-mode:normal;color-interpolation:sRGB;color-interpolation-filters:linearRGB;solid-color:#000000;solid-opacity:1;fill:#cccccc;fill-opacity:1;fill-rule:nonzero;stroke:#000000;stroke-width:11.76089191;stroke-linecap:round;stroke-linejoin:round;stroke-miterlimit:4;stroke-dasharray:none;stroke-dashoffset:0;stroke-opacity:1;marker:none;color-rendering:auto;image-rendering:auto;shape-rendering:auto;text-rendering:auto;enable-background:accumulate" />
        <path
           style="color:#000000;white-space:normal;clip-rule:nonzero;display:inline;overflow:visible;visibility:visible;opacity:1;isolation:auto;mix-blend-mode:normal;color-interpolation:sRGB;color-interpolation-filters:linearRGB;solid-color:#000000;solid-opacity:1;fill:#000000;fill-opacity:1;fill-rule:nonzero;stroke:none;stroke-width:12.53257084;stroke-linecap:round;stroke-linejoin:round;stroke-miterlimit:4;stroke-dasharray:none;stroke-dashoffset:0;stroke-opacity:1;color-rendering:auto;image-rendering:auto;shape-rendering:auto;text-rendering:auto;enable-background:accumulate"
           d="m 84.416381,297.01628 c -1.39401,0.0957 -2.256987,2.00009 -2.71409,3.19461 c -0.457103,1.19451 -0.09295,3.48084 -0.09295,3.48084 c 0,0 -5.61162,1.78067 -6.839939,3.43753 c -1.789851,1.28704 -2.936463,3.28837 -2.507763,5.53385 c 0.309736,3.82521 2.900865,7.48568 6.525907,8.84823 c 1.75841,0.55607 2.701783,1.42119 2.701783,1.42119 l 0.253761,11.95337 c -1.912271,-0.71981 -3.412462,-2.93416 -5.377672,-2.60753 c -1.658503,0.27565 -3.55888,1.86924 -3.582559,3.55032 c -0.02561,1.81954 2.20006,3.02659 3.767843,3.9504 c 1.486162,0.87571 3.890302,-0.005 5.006422,1.30987 c 0.700895,0.82593 -0.09565,2.22748 0.300101,3.23584 c 0.562513,1.43327 1.277317,3.5973 2.815667,3.66171 c 1.65018,0.0691 3.532574,-2.05956 3.338074,-3.66171 c -0.194499,-1.60214 -0.02483,-1.72286 -0.03605,-2.96162 c 2.44107,-0.84003 5.381509,-1.14272 7.045671,-3.34856 c 1.547946,-2.05707 2.845804,-4.51904 2.604541,-7.17448 c -0.187238,-4.13835 -3.289488,-7.33968 -6.383258,-9.73447 c -1.235524,-0.66194 -3.514004,-0.93212 -3.266954,-2.81536 l 0,-8.21735 c 1.926603,0.8093 3.530815,2.9415 5.555367,2.62849 c 1.647888,-0.25478 3.877179,-1.75128 3.664575,-3.40513 c -0.465046,-3.61761 -9.639021,-5.17875 -9.639021,-5.17875 c 0,0 0.953512,-2.54864 0.43405,-3.90668 c -0.519462,-1.35804 -1.979502,-3.30403 -3.573507,-3.19461 z m -2.673295,12.83388 l 0,6.64731 c -2.348794,-0.38261 -4.781213,-3.9951 -2.54966,-5.7687 c 0.800096,-0.43044 1.756659,-0.43159 2.54966,-0.87861 z m 6.231778,16.27688 c 2.539662,0.96922 4.31245,4.17031 3.308043,6.78469 c -0.473065,1.7396 -4.078925,3.12126 -3.363397,0.20457 c 0.221652,-2.22102 -0.03425,-4.45639 0.05535,-6.69316 z"
           id="path4687" />
        <path
           style="fill:none;stroke:#000000;stroke-width:10.41270924;stroke-linecap:round;stroke-linejoin:round;stroke-miterlimit:4;stroke-dasharray:none"
           d="m 42.618583,306.88919 l 4.791807,-2.3959 l 7.187709,-7.18771 l 0,50.31396"
           id="path4736" />
      </g>
      <g
         transform="translate(-39.500585,-87.137196)"
         id="half_dollar">
        <circle
           style="color:#000000;clip-rule:nonzero;display:inline;overflow:visible;visibility:visible;opacity:1;isolation:auto;mix-blend-mode:normal;color-interpolation:sRGB;color-interpolation-filters:linearRGB;solid-color:#000000;solid-opacity:1;fill:url(#radialGradient4413);fill-opacity:1;fill-rule:nonzero;stroke:#000000;stroke-width:1.52761459;stroke-linecap:round;stroke-linejoin:round;stroke-miterlimit:4;stroke-dasharray:none;stroke-dashoffset:0;stroke-opacity:1;marker:none;color-rendering:auto;image-rendering:auto;shape-rendering:auto;text-rendering:auto;enable-background:accumulate"
           id="circle4405"
           cx="56.770866"
           cy="263.22913"
           r="53.466507" />
        <circle
           r="49.505894"
           cy="265.76968"
           cx="54.230316"
           id="circle4407"
           style="color:#000000;clip-rule:nonzero;display:inline;overflow:visible;visibility:visible;opacity:1;isolation:auto;mix-blend-mode:normal;color-interpolation:sRGB;color-interpolation-filters:linearRGB;solid-color:#000000;solid-opacity:1;fill:#cccccc;fill-opacity:1;fill-rule:nonzero;stroke:#000000;stroke-width:9.448843;stroke-linecap:round;stroke-linejoin:round;stroke-miterlimit:4;stroke-dasharray:none;stroke-dashoffset:0;stroke-opacity:1;marker:none;color-rendering:auto;image-rendering:auto;shape-rendering:auto;text-rendering:auto;enable-background:accumulate" />
        <path
           d="m 78.292027,273.90002 c -2.642875,-0.28219 -4.635657,-2.5484 -5.286501,-5.01831 c -0.853897,-3.0942 -0.314127,-6.77003 2.140306,-9.01513 c 0.860128,-0.80953 1.858008,-1.51424 3.003555,-1.84686 c 0,0 -1.266355,-4.10632 0,-5.37267 c 1.255141,-1.25515 4.069989,-1.25515 5.325134,0 c 1.266347,1.26635 0,5.37267 0,5.37267 c 1.558397,0.71771 4.152254,1.09525 4.326669,2.80521 c 0.164881,1.61661 -1.874633,3.11877 -3.470849,3.42329 c -0.990973,0.18906 -1.701659,-1.23056 -2.785888,-1.18269 c -1.983237,-0.24413 -3.612582,1.8793 -3.198938,3.75073 c 0.204291,1.73253 2.020898,3.17304 3.762062,2.67389 c 1.143039,0.0236 1.686549,-1.73503 2.730535,-1.59254 c 1.538742,0.21001 3.409096,1.79519 3.248347,3.33985 c -0.167771,1.61219 -2.423318,2.29953 -4.035449,2.71308 c -0.696653,-0.0102 -0.353494,0.73648 -0.433853,1.17518 c 0,0 0.887796,2.87881 0,3.76662 c -1.255145,1.25514 -4.069982,1.25514 -5.32513,0 c -1.1767,-1.1767 0,-4.99232 0,-4.99232 z"
           id="path4409"
           style="fill:#000000;fill-opacity:1;stroke:none;stroke-width:1px;stroke-linecap:butt;stroke-linejoin:miter;stroke-opacity:1" />
        <g
           id="g4625"
           transform="matrix(0.34987301,0,0,0.34987301,-7.091109,16.913457)">
          <path
             id="path4582"
             d="m 88.733554,666.76721 c -4.278604,3.00528 -2.739825,8.91102 -3.798861,13.36452 c -0.957616,9.27422 -2.202573,18.56233 -2.992357,27.82546 c 0.731794,6.18021 8.424928,6.69735 13.036394,4.85478 c 6.18083,-4.00545 13.3624,-4.67289 20.4937,-3.07628 c 7.42602,0.43921 13.2488,6.98303 13.19774,14.32968 c 1.18335,7.84243 -2.29467,17.44683 -10.93637,18.96363 c -7.06069,1.22473 -15.3913,1.99634 -21.133824,-3.1109 c -2.33662,-2.90416 -3.181635,-8.32043 -8.231494,-8.35136 c -8.685549,-2.15941 -12.925163,10.29028 -7.441652,15.92032 c 9.963377,13.78484 30.02097,16.19496 44.9907,10.12515 c 18.47947,-6.92035 25.19766,-31.61213 15.5644,-48.15111 c -7.57735,-14.59108 -26.22617,-19.68502 -41.38868,-15.7228 l 1.60765,-11.26168 c 10.30476,-0.0855 20.65811,0.16827 30.93158,-0.12171 c 7.89892,-2.35661 6.23483,-14.84813 -0.68817,-17.58311 c -5.41827,-2.49488 -11.56527,-3.19008 -18.88289,-2.9113 c -7.31761,0.27878 -16.130234,2.03625 -24.327866,4.90671 z"
             style="color:#000000;white-space:normal;clip-rule:nonzero;display:inline;overflow:visible;visibility:visible;opacity:1;isolation:auto;mix-blend-mode:normal;color-interpolation:sRGB;color-interpolation-filters:linearRGB;solid-color:#000000;solid-opacity:1;fill:#000000;fill-opacity:1;fill-rule:nonzero;stroke:none;stroke-width:9.85299683;stroke-linecap:round;stroke-linejoin:round;stroke-miterlimit:4;stroke-dasharray:none;stroke-dashoffset:0;stroke-opacity:1;color-rendering:auto;image-rendering:auto;shape-rendering:auto;text-rendering:auto;enable-background:accumulate" />
          <path
             id="path4584"
             d="m 174.29153,672.6002 c -3.68153,1.49568 -6.33982,5.00741 -8.54353,8.31414 c -2.93358,4.4019 -4.84699,9.56065 -5.8374,14.75696 c -1.62567,8.52918 -1.34876,17.47083 0,26.04813 c 0.98485,6.26309 2.73027,12.57575 5.8374,18.10224 c 2.13514,3.79766 4.58195,8.07831 8.54353,9.89128 c 6.23551,2.85361 14.39527,2.97797 20.57235,0 c 3.79616,-1.83011 5.93205,-6.15123 7.87424,-9.89128 c 2.89826,-5.58113 4.42009,-11.87744 5.31504,-18.10224 c 1.23562,-8.59434 1.49337,-17.4948 0,-26.04813 c -0.89925,-5.15039 -2.57349,-10.30508 -5.31504,-14.75696 c -2.00153,-3.25018 -4.36791,-6.80567 -7.87424,-8.31414 c -6.29922,-2.71005 -14.21918,-2.58106 -20.57235,0 z"
             style="fill:none;stroke:#000000;stroke-width:17.47536659;stroke-linecap:round;stroke-linejoin:round;stroke-miterlimit:4;stroke-dasharray:none" />
        </g>
      </g>
      <g
         id="nickel"
         transform="translate(118.26899,-129.0523)">
        <circle
           r="37.04752"
           cy="178.12007"
           cx="39.879921"
           id="circle4163"
           style="color:#000000;clip-rule:nonzero;display:inline;overflow:visible;visibility:visible;opacity:1;isolation:auto;mix-blend-mode:normal;color-interpolation:sRGB;color-interpolation-filters:linearRGB;solid-color:#000000;solid-opacity:1;fill:url(#radialGradient4175);fill-opacity:1;fill-rule:nonzero;stroke:#000000;stroke-width:1.05850065;stroke-linecap:round;stroke-linejoin:round;stroke-miterlimit:4;stroke-dasharray:none;stroke-dashoffset:0;stroke-opacity:1;marker:none;color-rendering:auto;image-rendering:auto;shape-rendering:auto;text-rendering:auto;enable-background:accumulate" />
        <circle
           style="color:#000000;clip-rule:nonzero;display:inline;overflow:visible;visibility:visible;opacity:1;isolation:auto;mix-blend-mode:normal;color-interpolation:sRGB;color-interpolation-filters:linearRGB;solid-color:#000000;solid-opacity:1;fill:#cccccc;fill-opacity:1;fill-rule:nonzero;stroke:#000000;stroke-width:6.54720545;stroke-linecap:round;stroke-linejoin:round;stroke-miterlimit:4;stroke-dasharray:none;stroke-dashoffset:0;stroke-opacity:1;marker:none;color-rendering:auto;image-rendering:auto;shape-rendering:auto;text-rendering:auto;enable-background:accumulate"
           id="circle4167"
           cx="37.576771"
           cy="180.42322"
           r="34.303169" />
        <path
           style="fill:#000000;fill-opacity:1;stroke:none;stroke-width:1px;stroke-linecap:butt;stroke-linejoin:miter;stroke-opacity:1"
           id="path4173"
           d="m 53.059195,190.06974 c -3.114441,-0.33254 -5.462793,-3.00312 -6.22977,-5.91372 c -1.006256,-3.6463 -0.370171,-7.97801 2.522199,-10.6237 c 1.013607,-0.95398 2.189538,-1.78444 3.539482,-2.1764 c 0,0 -1.492306,-4.83901 0,-6.33132 c 1.4791,-1.4791 4.796191,-1.4791 6.275292,0 c 1.492306,1.49231 0,6.33132 0,6.33132 c 1.836459,0.84577 4.893147,1.29068 5.098674,3.30574 c 0.194308,1.90507 -2.209121,3.67526 -4.090146,4.03411 c -1.167793,0.2228 -2.005286,-1.45013 -3.282971,-1.39372 c -2.337111,-0.28769 -4.25718,2.21463 -3.769727,4.41997 c 0.240745,2.04167 2.381487,3.73921 4.433325,3.151 c 1.346995,0.0279 1.987479,-2.04461 3.217749,-1.8767 c 1.813294,0.24749 4.017376,2.11551 3.827946,3.93577 c -0.197711,1.89985 -2.855709,2.70983 -4.755494,3.19718 c -0.820956,-0.0121 -0.416573,0.86789 -0.511266,1.38487 c 0,0 1.046205,3.39248 0,4.43869 c -1.479101,1.4791 -4.796192,1.4791 -6.275293,0 c -1.386658,-1.38666 0,-5.88309 0,-5.88309 z" />
        <path
           id="path4230"
           d="m 30.647024,159.09351 c -3.769777,0.19682 -7.578312,0.95635 -11.121072,2.19687 c -1.849074,1.29879 -1.184062,3.85106 -1.641743,5.77573 c -0.413856,4.00803 -0.951888,8.02205 -1.293207,12.02529 c 0.316261,2.67089 3.640993,2.89438 5.633925,2.09808 c 2.671154,-1.73103 5.774802,-2.01948 8.856727,-1.32947 c 3.209296,0.18981 5.725713,3.01784 5.703646,6.19283 c 0.511409,3.38926 -0.991679,7.53997 -4.726349,8.19549 c -3.051409,0.52929 -6.65164,0.86275 -9.133374,-1.34443 c -1.009817,-1.25509 -1.375002,-3.59583 -3.557397,-3.6092 c -3.753622,-0.93323 -5.585848,4.44714 -3.216046,6.88026 c 4.305858,5.95738 12.974115,6.99895 19.443564,4.37578 c 7.986242,-2.99076 10.889634,-13.66178 6.726439,-20.8094 c -3.27469,-6.3058 -11.334124,-8.50725 -17.88688,-6.7949 c 0.231591,-1.62232 0.463186,-3.24463 0.694777,-4.86695 c 4.453392,-0.0369 8.927787,0.0727 13.36765,-0.0526 c 3.413671,-1.01845 2.694502,-6.4169 -0.297404,-7.59886 c -2.341598,-1.07822 -4.998147,-1.37866 -7.553256,-1.33455 z"
           style="color:#000000;white-space:normal;clip-rule:nonzero;display:inline;overflow:visible;visibility:visible;opacity:1;isolation:auto;mix-blend-mode:normal;color-interpolation:sRGB;color-interpolation-filters:linearRGB;solid-color:#000000;solid-opacity:1;fill:#000000;fill-opacity:1;fill-rule:nonzero;stroke:none;stroke-width:15.46765804;stroke-linecap:round;stroke-linejoin:round;stroke-miterlimit:4;stroke-dasharray:none;stroke-dashoffset:0;stroke-opacity:1;color-rendering:auto;image-rendering:auto;shape-rendering:auto;text-rendering:auto;enable-background:accumulate" />
      </g>
      <g
         id="quarter"
         transform="translate(395.98686,-153.76746)">
        <circle
           r="42.374958"
           cy="202.95393"
           cx="45.046062"
           id="circle4299"
           style="color:#000000;clip-rule:nonzero;display:inline;overflow:visible;visibility:visible;opacity:1;isolation:auto;mix-blend-mode:normal;color-interpolation:sRGB;color-interpolation-filters:linearRGB;solid-color:#000000;solid-opacity:1;fill:url(#radialGradient4307);fill-opacity:1;fill-rule:nonzero;stroke:#000000;stroke-width:1.21071315;stroke-linecap:round;stroke-linejoin:round;stroke-miterlimit:4;stroke-dasharray:none;stroke-dashoffset:0;stroke-opacity:1;marker:none;color-rendering:auto;image-rendering:auto;shape-rendering:auto;text-rendering:auto;enable-background:accumulate" />
        <circle
           style="color:#000000;clip-rule:nonzero;display:inline;overflow:visible;visibility:visible;opacity:1;isolation:auto;mix-blend-mode:normal;color-interpolation:sRGB;color-interpolation-filters:linearRGB;solid-color:#000000;solid-opacity:1;fill:#cccccc;fill-opacity:1;fill-rule:nonzero;stroke:#000000;stroke-width:7.48869419;stroke-linecap:round;stroke-linejoin:round;stroke-miterlimit:4;stroke-dasharray:none;stroke-dashoffset:0;stroke-opacity:1;marker:none;color-rendering:auto;image-rendering:auto;shape-rendering:auto;text-rendering:auto;enable-background:accumulate"
           id="circle4301"
           cx="42.980316"
           cy="205.01967"
           r="39.23597" />
        <path
           style="fill:#000000;fill-opacity:1;stroke:none;stroke-width:1px;stroke-linecap:butt;stroke-linejoin:miter;stroke-opacity:1"
           id="path4303"
           d="m 63.344595,211.46339 c -2.094613,-0.22366 -3.673997,-2.01975 -4.189825,-3.97728 c -0.676757,-2.45231 -0.24896,-5.36559 1.696304,-7.14495 c 0.681697,-0.6416 1.472567,-1.20012 2.380472,-1.46373 c 0,0 -1.003651,-3.25447 0,-4.25812 c 0.994765,-0.99477 3.225676,-0.99477 4.220441,0 c 1.003647,1.00365 0,4.25812 0,4.25812 c 1.235111,0.56882 3.290877,0.86804 3.429109,2.22327 c 0.130678,1.28125 -1.485744,2.47179 -2.750826,2.71314 c -0.785397,0.14983 -1.348654,-0.97529 -2.20796,-0.93735 c -1.571818,-0.19349 -2.863158,1.48945 -2.535322,2.97265 c 0.16191,1.37312 1.601665,2.5148 2.981626,2.11919 c 0.905918,0.0187 1.336677,-1.37509 2.164091,-1.26217 c 1.219531,0.16645 2.701882,1.42278 2.574482,2.64701 c -0.132967,1.27774 -1.920604,1.82249 -3.198302,2.15025 c -0.552132,-0.008 -0.280163,0.5837 -0.343849,0.93139 c 0,0 0.703623,2.28161 0,2.98524 c -0.994769,0.99476 -3.225673,0.99476 -4.220441,0 c -0.932594,-0.9326 0,-3.95666 0,-3.95666 z" />
        <path
           id="path4353"
           style="color:#000000;white-space:normal;clip-rule:nonzero;display:inline;overflow:visible;visibility:visible;opacity:1;isolation:auto;mix-blend-mode:normal;color-interpolation:sRGB;color-interpolation-filters:linearRGB;solid-color:#000000;solid-opacity:1;fill:#000000;fill-opacity:1;fill-rule:nonzero;stroke:none;stroke-width:9.85299683;stroke-linecap:round;stroke-linejoin:round;stroke-miterlimit:4;stroke-dasharray:none;stroke-dashoffset:0;stroke-opacity:1;color-rendering:auto;image-rendering:auto;shape-rendering:auto;text-rendering:auto;enable-background:accumulate"
           d="m 23.872405,191.45041 c -2.215177,0.42941 -4.654843,1.11839 -6.165501,2.7945 c -1.195175,1.32607 -1.865123,3.24764 -1.69389,5.08064 c 0.436591,1.74715 2.688526,1.71043 3.86277,0.77797 c 1.374779,-0.74294 0.799677,-2.71842 1.894533,-3.43146 c 1.270705,-0.82757 3.24035,-1.19581 4.531611,-0.4007 c 1.251916,0.77089 2.663518,2.65416 1.630859,4.09809 c -1.347855,2.56071 -3.103017,4.87864 -5.105749,6.96133 c -2.531473,2.72927 -4.974431,5.54086 -7.471408,8.29912 c -1.267009,1.14805 0.03367,3.4209 1.647583,3.05004 c 5.215968,0.005 10.431959,-0.01 15.647917,0.008 c 1.380477,-0.14257 1.796792,-1.69649 1.591374,-2.85857 c 0.0454,-1.25163 -1.37201,-1.59162 -2.31835,-1.93405 c -2.816454,-1.01912 -5.99031,0.003 -8.985489,0.008 c 2.058434,-2.37094 4.283897,-4.59515 6.25928,-7.03693 c 1.437376,-1.87958 2.830676,-3.85183 3.710759,-6.0596 c 1.181374,-4.06009 -1.920153,-8.60858 -6.051116,-9.22873 c -0.963321,-0.32339 -2.007421,-0.31678 -2.985183,-0.12724 z m 15.790934,1.24343 c -1.184878,0.83226 -0.758742,2.46774 -1.052022,3.70105 c -0.265196,2.56832 -0.609962,5.14049 -0.828678,7.70574 c 0.202655,1.71149 2.333125,1.8547 3.610185,1.34444 c 1.711662,-1.10924 3.700461,-1.29407 5.675342,-0.85192 c 2.056497,0.12163 3.669003,1.93382 3.654863,3.96833 c 0.327707,2.17182 -0.635464,4.83157 -3.028618,5.25162 c -1.955325,0.33917 -4.262333,0.55285 -5.852615,-0.8615 c -0.647083,-0.80425 -0.881093,-2.30419 -2.279558,-2.31275 c -2.4053,-0.59801 -3.579378,2.8497 -2.060823,4.40883 c 2.759168,3.81745 8.313739,4.48489 12.459322,2.80397 c 5.117541,-1.91646 6.978019,-8.75438 4.310266,-13.33454 c -2.098402,-4.04072 -7.262841,-5.4514 -11.46181,-4.35414 l 0.445208,-3.11871 c 2.853707,-0.0237 5.720873,0.0466 8.565915,-0.0337 c 2.187458,-0.65262 1.72662,-4.11191 -0.190574,-4.86931 c -1.500486,-0.69091 -3.202786,-0.88343 -5.229261,-0.80623 c -2.026475,0.0772 -4.466965,0.5639 -6.737142,1.35882 z" />
      </g>
      <g
         id="susan_b_anthony"
         transform="translate(266.92159,-53.507275)">
        <circle
           style="color:#000000;clip-rule:nonzero;display:inline;overflow:visible;visibility:visible;opacity:1;isolation:auto;mix-blend-mode:normal;color-interpolation:sRGB;color-interpolation-filters:linearRGB;solid-color:#000000;solid-opacity:1;fill:url(#radialGradient3421);fill-opacity:1;fill-rule:nonzero;stroke:#000000;stroke-width:1.32250202;stroke-linecap:round;stroke-linejoin:round;stroke-miterlimit:4;stroke-dasharray:none;stroke-dashoffset:0;stroke-opacity:1;marker:none;color-rendering:auto;image-rendering:auto;shape-rendering:auto;text-rendering:auto;enable-background:accumulate"
           id="circle3413"
           cx="49.312202"
           cy="229.68779"
           r="46.287567" />
        <circle
           r="42.858746"
           cy="232.05118"
           cx="46.948818"
           id="circle3415"
           style="color:#000000;clip-rule:nonzero;display:inline;overflow:visible;visibility:visible;opacity:1;isolation:auto;mix-blend-mode:normal;color-interpolation:sRGB;color-interpolation-filters:linearRGB;solid-color:#000000;solid-opacity:1;fill:#cccccc;fill-opacity:1;fill-rule:nonzero;stroke:#000000;stroke-width:8.18014812;stroke-linecap:round;stroke-linejoin:round;stroke-miterlimit:4;stroke-dasharray:none;stroke-dashoffset:0;stroke-opacity:1;marker:none;color-rendering:auto;image-rendering:auto;shape-rendering:auto;text-rendering:auto;enable-background:accumulate" />
        <path
           style="color:#000000;white-space:normal;clip-rule:nonzero;display:inline;overflow:visible;visibility:visible;opacity:1;isolation:auto;mix-blend-mode:normal;color-interpolation:sRGB;color-interpolation-filters:linearRGB;solid-color:#000000;solid-opacity:1;fill:#000000;fill-opacity:1;fill-rule:nonzero;stroke:none;stroke-width:12.53257084;stroke-linecap:round;stroke-linejoin:round;stroke-miterlimit:4;stroke-dasharray:none;stroke-dashoffset:0;stroke-opacity:1;color-rendering:auto;image-rendering:auto;shape-rendering:auto;text-rendering:auto;enable-background:accumulate"
           d="m 58.714798,214.32628 c -0.969587,0.0665 -1.569819,1.39111 -1.887753,2.22197 c -0.31793,0.83082 -0.06465,2.42106 -0.06465,2.42106 c 0,0 -3.903095,1.23851 -4.757435,2.39091 c -1.244913,0.89519 -2.042423,2.28721 -1.744246,3.84901 c 0.215432,2.66057 2.017662,5.20658 4.539015,6.15429 c 1.223041,0.38675 1.879194,0.9885 1.879194,0.9885 l 0.1765,8.31401 c -1.330057,-0.50065 -2.373496,-2.04082 -3.740374,-1.81365 c -1.153553,0.19172 -2.475337,1.30013 -2.491807,2.4694 c -0.01781,1.26557 1.530226,2.10512 2.62068,2.74765 c 1.03368,0.60909 2.705851,-0.004 3.482155,0.91106 c 0.487499,0.57447 -0.06653,1.54931 0.208731,2.25065 c 0.391251,0.99692 0.888425,2.50206 1.958402,2.54685 c 1.147763,0.048 2.457041,-1.43249 2.321758,-2.54685 c -0.135282,-1.11435 -0.01728,-1.19831 -0.02507,-2.0599 c 1.697857,-0.58429 3.743059,-0.79483 4.900539,-2.32905 c 1.076658,-1.43079 1.979362,-3.1432 1.811563,-4.99017 c -0.130239,-2.87834 -2.287972,-5.10501 -4.43981,-6.77068 c -0.859355,-0.46038 -2.444124,-0.64831 -2.272292,-1.95818 l 0,-5.71548 c 1.340027,0.5629 2.455816,2.04592 3.863978,1.82822 c 1.146143,-0.17719 2.696706,-1.21806 2.548834,-2.36841 c -0.32346,-2.51618 -6.704298,-3.60199 -6.704298,-3.60199 c 0,0 0.663206,-1.77271 0.301898,-2.71725 c -0.361304,-0.94458 -1.376817,-2.29806 -2.485508,-2.22197 z m -1.859378,8.92647 l 0,4.62341 c -1.633676,-0.26611 -3.325517,-2.77874 -1.773386,-4.01231 c 0.556497,-0.2994 1.221824,-0.30023 1.773386,-0.6111 z m 4.33444,11.32116 c 1.76643,0.67412 2.999473,2.90061 2.300868,4.71902 c -0.329035,1.20996 -2.837048,2.17095 -2.33937,0.14227 c 0.154166,-1.54479 -0.02382,-3.09959 0.0385,-4.65534 z"
           id="path3417" />
        <path
           style="fill:none;stroke:#000000;stroke-width:7.24243546;stroke-linecap:round;stroke-linejoin:round;stroke-miterlimit:4;stroke-dasharray:none"
           d="m 29.642838,221.19326 l 3.332887,-1.66648 l 4.999325,-4.99928 l 0,34.99527"
           id="path3419" />
        <path
           style="color:#000000;clip-rule:nonzero;display:inline;overflow:visible;visibility:visible;opacity:1;isolation:auto;mix-blend-mode:normal;color-interpolation:sRGB;color-interpolation-filters:linearRGB;solid-color:#000000;solid-opacity:1;fill:none;fill-opacity:1;fill-rule:nonzero;stroke:#000000;stroke-width:1.39107609;stroke-linecap:butt;stroke-linejoin:round;stroke-miterlimit:4;stroke-dasharray:none;stroke-dashoffset:0;stroke-opacity:1;marker:none;color-rendering:auto;image-rendering:auto;shape-rendering:auto;text-rendering:auto;enable-background:accumulate"
           id="path3483"
           d="m 46.61677,266.83432 c 0.592459,0.005 -19.62077,-6.11068 -19.124984,-5.78629 c 0.495783,0.32439 -13.202355,-15.74842 -12.960656,-15.20748 c 0.2417,0.54093 -2.592287,-20.38615 -2.68141,-19.80041 c -0.08912,0.58574 8.840813,-18.55142 8.449163,-18.10685 c -0.391651,0.44457 17.467019,-10.82674 16.897189,-10.66449 c -0.56983,0.16226 20.547571,0.33536 19.980474,0.16378 c -0.567093,-0.17157 17.104401,11.39097 16.720116,10.94004 c -0.38432,-0.45093 8.230719,18.83003 8.151219,18.24291 c -0.07954,-0.58712 -3.256162,20.2907 -3.005629,19.7538 c 0.250533,-0.5369 -13.709263,15.30921 -13.208232,14.99299 c 0.501065,-0.31623 -19.80971,5.46715 -19.21725,5.472 z" />
      </g>
      <g
         id="penny"
         transform="translate(-18.66594,-113.11471)">
        <circle
           style="color:#000000;clip-rule:nonzero;display:inline;overflow:visible;visibility:visible;opacity:1;isolation:auto;mix-blend-mode:normal;color-interpolation:sRGB;color-interpolation-filters:linearRGB;solid-color:#000000;solid-opacity:1;fill:url(#radialGradient8164);fill-opacity:1;fill-rule:nonzero;stroke:#000000;stroke-width:1.04922283;stroke-linecap:round;stroke-linejoin:round;stroke-miterlimit:4;stroke-dasharray:none;stroke-dashoffset:0;stroke-opacity:1;marker:none;color-rendering:auto;image-rendering:auto;shape-rendering:auto;text-rendering:auto;enable-background:accumulate"
           id="circle8106"
           cx="35.58189"
           cy="162.41811"
           r="33.225388" />
        <circle
           r="30.809776"
           cy="164.25"
           cx="33.75"
           id="path8092"
           style="color:#000000;clip-rule:nonzero;display:inline;overflow:visible;visibility:visible;opacity:1;isolation:auto;mix-blend-mode:normal;color-interpolation:sRGB;color-interpolation-filters:linearRGB;solid-color:#000000;solid-opacity:1;fill:#d38d5f;fill-opacity:1;fill-rule:nonzero;stroke:#000000;stroke-width:5.88044643;stroke-linecap:round;stroke-linejoin:round;stroke-miterlimit:4;stroke-dasharray:none;stroke-dashoffset:0;stroke-opacity:1;marker:none;color-rendering:auto;image-rendering:auto;shape-rendering:auto;text-rendering:auto;enable-background:accumulate" />
        <path
           id="path4433"
           d="m 19.447786,154.35637 l 3.10627,-1.55314 l 4.659406,-4.65941 l 0,32.61584"
           style="fill:none;stroke:#000000;stroke-width:6.75;stroke-linecap:round;stroke-linejoin:round;stroke-miterlimit:4;stroke-dasharray:none" />
        <path
           d="m 40.584295,173.07771 c -2.797271,-0.29868 -4.906468,-2.69729 -5.595337,-5.31148 c -0.903783,-3.27496 -0.332473,-7.16554 2.265338,-9.5418 c 0.910387,-0.85682 1.96656,-1.60271 3.179027,-1.95475 c 0,0 -1.34033,-4.34621 0,-5.68654 c 1.328471,-1.32847 4.307754,-1.32847 5.636225,0 c 1.340333,1.34033 0,5.68654 0,5.68654 c 1.649437,0.75964 4.394836,1.15924 4.579431,2.96909 c 0.174519,1.71105 -1.984145,3.30097 -3.67361,3.62328 c -1.048868,0.20011 -1.80107,-1.30245 -2.948638,-1.25179 c -2.099104,-0.25839 -3.823633,1.98909 -3.385825,3.96985 c 0.216231,1.83375 2.138962,3.35841 3.981843,2.8301 c 1.209817,0.025 1.785077,-1.83638 2.890059,-1.68557 c 1.628629,0.22228 3.608248,1.90006 3.438112,3.53496 c -0.177574,1.70637 -2.564886,2.43386 -4.271201,2.87158 c -0.737348,-0.0108 -0.374149,0.7795 -0.459202,1.24383 c 0,0 0.939664,3.047 0,3.98666 c -1.328468,1.32847 -4.307754,1.32847 -5.636222,0 c -1.245442,-1.24544 0,-5.28396 0,-5.28396 z"
           id="path8088"
           style="fill:#000000;fill-opacity:1;stroke:none;stroke-width:1px;stroke-linecap:butt;stroke-linejoin:miter;stroke-opacity:1" />
      </g>
      <g
         id="sacagawea"
         transform="translate(391.8695,-53.507275)">
        <circle
           r="46.287567"
           cy="229.68779"
           cx="49.312202"
           id="circle4750"
           style="color:#000000;clip-rule:nonzero;display:inline;overflow:visible;visibility:visible;opacity:1;isolation:auto;mix-blend-mode:normal;color-interpolation:sRGB;color-interpolation-filters:linearRGB;solid-color:#000000;solid-opacity:1;fill:url(#radialGradient4758);fill-opacity:1;fill-rule:nonzero;stroke:#000000;stroke-width:1.32250202;stroke-linecap:round;stroke-linejoin:round;stroke-miterlimit:4;stroke-dasharray:none;stroke-dashoffset:0;stroke-opacity:1;marker:none;color-rendering:auto;image-rendering:auto;shape-rendering:auto;text-rendering:auto;enable-background:accumulate" />
        <circle
           style="color:#000000;clip-rule:nonzero;display:inline;overflow:visible;visibility:visible;opacity:1;isolation:auto;mix-blend-mode:normal;color-interpolation:sRGB;color-interpolation-filters:linearRGB;solid-color:#000000;solid-opacity:1;fill:#ffcc53;fill-opacity:1;fill-rule:nonzero;stroke:#000000;stroke-width:8.18014812;stroke-linecap:round;stroke-linejoin:round;stroke-miterlimit:4;stroke-dasharray:none;stroke-dashoffset:0;stroke-opacity:1;marker:none;color-rendering:auto;image-rendering:auto;shape-rendering:auto;text-rendering:auto;enable-background:accumulate"
           id="circle4752"
           cx="46.948818"
           cy="232.05118"
           r="42.858746" />
        <path
           id="path4754"
           d="m 58.714798,214.32627 c -0.969587,0.0665 -1.569819,1.39111 -1.887753,2.22197 c -0.31793,0.83082 -0.06465,2.42106 -0.06465,2.42106 c 0,0 -3.903095,1.23851 -4.757435,2.39092 c -1.244913,0.89519 -2.042423,2.2872 -1.744246,3.849 c 0.215432,2.66057 2.017662,5.20659 4.539015,6.15429 c 1.223041,0.38676 1.879194,0.9885 1.879194,0.9885 l 0.1765,8.31401 c -1.330057,-0.50065 -2.373496,-2.04081 -3.740374,-1.81365 c -1.153553,0.19173 -2.475337,1.30014 -2.491807,2.4694 c -0.01781,1.26557 1.530226,2.10512 2.62068,2.74766 c 1.03368,0.60908 2.705851,-0.004 3.482155,0.91105 c 0.487499,0.57448 -0.06653,1.54931 0.208731,2.25065 c 0.391251,0.99692 0.888425,2.50206 1.958402,2.54686 c 1.147763,0.048 2.457041,-1.4325 2.321758,-2.54686 c -0.135282,-1.11435 -0.01728,-1.1983 -0.02507,-2.0599 c 1.697857,-0.58429 3.743045,-0.79483 4.900535,-2.32904 c 1.076655,-1.4308 1.979362,-3.14321 1.811557,-4.99018 c -0.130233,-2.87834 -2.287966,-5.105 -4.4398,-6.77068 c -0.859355,-0.46037 -2.444124,-0.64831 -2.272292,-1.95818 l 0,-5.71548 c 1.340027,0.5629 2.455816,2.04593 3.863971,1.82822 c 1.146167,-0.17719 2.696723,-1.21806 2.548852,-2.36841 c -0.32346,-2.51618 -6.704309,-3.60198 -6.704309,-3.60198 c 0,0 0.663206,-1.77272 0.301898,-2.71726 c -0.361304,-0.94458 -1.376817,-2.29806 -2.485508,-2.22197 z m -1.859378,8.92647 l 0,4.62341 c -1.633676,-0.26611 -3.325517,-2.77874 -1.773386,-4.01231 c 0.556497,-0.2994 1.221824,-0.30023 1.773386,-0.6111 z m 4.33444,11.32117 c 1.76643,0.67411 2.999473,2.9006 2.300868,4.71901 c -0.329035,1.20996 -2.837048,2.17095 -2.33937,0.14228 c 0.154166,-1.54479 -0.02382,-3.0996 0.0385,-4.65534 z"
           style="color:#000000;white-space:normal;clip-rule:nonzero;display:inline;overflow:visible;visibility:visible;opacity:1;isolation:auto;mix-blend-mode:normal;color-interpolation:sRGB;color-interpolation-filters:linearRGB;solid-color:#000000;solid-opacity:1;fill:#000000;fill-opacity:1;fill-rule:nonzero;stroke:none;stroke-width:12.53257084;stroke-linecap:round;stroke-linejoin:round;stroke-miterlimit:4;stroke-dasharray:none;stroke-dashoffset:0;stroke-opacity:1;color-rendering:auto;image-rendering:auto;shape-rendering:auto;text-rendering:auto;enable-background:accumulate" />
        <path
           id="path4756"
           d="m 29.642838,221.19325 l 3.332887,-1.66647 l 4.999325,-4.99929 l 0,34.99527"
           style="fill:none;stroke:#000000;stroke-width:7.24243546;stroke-linecap:round;stroke-linejoin:round;stroke-miterlimit:4;stroke-dasharray:none" />
      </g>
    </g>
  </g>
</svg>
