<?xml version="1.0" encoding="UTF-8" standalone="no"?>
<svg
   xmlns:dc="http://purl.org/dc/elements/1.1/"
   xmlns:cc="http://creativecommons.org/ns#"
   xmlns:rdf="http://www.w3.org/1999/02/22-rdf-syntax-ns#"
   xmlns:svg="http://www.w3.org/2000/svg"
   xmlns="http://www.w3.org/2000/svg"
   xmlns:sodipodi="http://sodipodi.sourceforge.net/DTD/sodipodi-0.dtd"
   xmlns:inkscape="http://www.inkscape.org/namespaces/inkscape"
   id="angry_moon_xA0_Image_1_"
   xml:space="preserve"
   overflow="visible"
   viewBox="0 0 110.6522 110.51793"
   version="1.1"
   enable-background="new 0 0 77.76 77.76"
   inkscape:version="0.48.4 r9939"
   width="100%"
   height="100%"
   sodipodi:docname="Moon - happy.svg"
   style="overflow:visible"
   inkscape:export-filename="G:\Sparkle Touch\Pictures\Moon - happy.png"
   inkscape:export-xdpi="104.11"
   inkscape:export-ydpi="104.11"><defs
   id="defs3659"><filter
   id="filter3805"
   inkscape:label="Glow"
   inkscape:menu="Shadows and Glows"
   inkscape:menu-tooltip="Glow of object's own color at the edges"
   color-interpolation-filters="sRGB"><feGaussianBlur
     id="feGaussianBlur3807"
     stdDeviation="5"
     result="result91" /><feComposite
     id="feComposite3809"
     in2="result91"
     in="SourceGraphic"
     operator="over" /></filter>
	
	
	
	
	
	
	
	
	
	
	
	
	
	
	
	
	
	
	
	
	
	
	
	
	
	
	
</defs><sodipodi:namedview
   pagecolor="#ffffff"
   bordercolor="#666666"
   borderopacity="1"
   objecttolerance="10"
   gridtolerance="10"
   guidetolerance="10"
   inkscape:pageopacity="0"
   inkscape:pageshadow="2"
   inkscape:window-width="1440"
   inkscape:window-height="844"
   id="namedview3657"
   showgrid="false"
   inkscape:zoom="4.2921091"
   inkscape:cx="9.1097437"
   inkscape:cy="51.85063"
   inkscape:window-x="-4"
   inkscape:window-y="-4"
   inkscape:window-maximized="1"
   inkscape:current-layer="layer1"
   fit-margin-top="0"
   fit-margin-left="0"
   fit-margin-right="0"
   fit-margin-bottom="0" />
<g
   inkscape:groupmode="layer"
   id="layer2"
   inkscape:label="Glow"
   style="display:none"
   transform="translate(16.446098,16.378963)"><g
     id="g3691"
     clip-rule="evenodd"
     style="fill:#ffff00;fill-rule:evenodd">
	<path
   id="path3693"
   d="m 64.8,28.32 c 2.478,1.683 1.862,6.458 2.4,10.08 -1.855,-1.352 -0.753,-5.092 -1.44,-7.68 -0.241,-0.91 -1.084,-1.465 -0.96,-2.4 z"
   style="fill:#ffff00"
   inkscape:connector-curvature="0" />
	<path
   id="path3695"
   d="m 62.4,29.28 c 1.424,0.656 2.102,2.058 2.88,3.36 -1.101,0.914 -2.234,-2.225 -2.88,-3.36 z"
   style="fill:#ffff00"
   inkscape:connector-curvature="0" />
	<path
   id="path3697"
   d="m 17.76,34.08 c -0.671,-1.489 1.679,-4.068 3.84,-4.32 -0.368,2.352 -3.183,2.257 -3.84,4.32 z"
   style="fill:#ffff00"
   inkscape:connector-curvature="0" />
	<path
   id="path3699"
   d="m 60.48,32.16 c 0.471,-1.472 1.28,0.551 1.92,0.48 -0.471,1.472 -1.281,-0.552 -1.92,-0.48 z"
   style="fill:#ffff00"
   inkscape:connector-curvature="0" />
	<path
   id="path3701"
   d="m 60.96,32.64 c 0.709,1.478 -2.758,0.687 -2.4,-0.48 1.157,-0.197 1.044,0.877 2.4,0.48 z"
   style="fill:#ffff00"
   inkscape:connector-curvature="0" />
	<path
   id="path3703"
   d="m 60.96,36 c 1.771,0.628 1.88,2.92 2.4,4.8 -1.845,-0.555 -1.283,-3.517 -2.4,-4.8 z"
   style="fill:#ffff00"
   inkscape:connector-curvature="0" />
	<path
   id="path3705"
   d="m 29.28,47.04 c 0.312,-1.354 0.557,1.105 0.48,1.44 -0.222,0.964 -0.902,0.387 -0.48,-1.44 z"
   style="fill:#ffff00"
   inkscape:connector-curvature="0" />
	<path
   id="path3707"
   d="m 59.04,47.52 c 2.119,-0.069 -0.046,1.176 0.479,2.4 -1.04,0.081 -0.216,-1.702 -0.479,-2.4 z"
   style="fill:#ffff00"
   inkscape:connector-curvature="0" />
	<path
   id="path3709"
   d="m 28.32,64.8 c 1.227,-0.798 -1.873,-1.289 -1.44,-2.88 1.547,1.652 3.95,2.45 4.32,5.28 -1.567,-1.473 -4.263,-1.817 -4.8,-4.32 0.846,0.433 1.486,1.074 1.92,1.92 z"
   style="fill:#ffff00"
   inkscape:connector-curvature="0" />
	<path
   id="path3711"
   d="M 9.12,15.84 C 15.878,6.701 26.881,0.62 39.84,0.96 65.31,1.628 83.094,27.461 73.44,53.28 67.618,68.851 45.731,83.736 24,73.92 20.423,72.305 14.402,67.813 11.52,64.8 -1.161,51.547 -2.111,31.027 9.12,15.84 z m 48,-9.12 C 31.045,-8.137 3.981,11.733 1.92,35.52 0.099,56.543 16.018,73.633 34.56,75.36 48.709,76.678 58.427,71.726 65.28,64.799 70.647,59.373 76.007,50.176 75.84,38.399 75.646,24.66 67.15,12.473 58.56,7.2 58.105,6.921 57.5,6.937 57.12,6.72 z"
   style="fill:#ffff00"
   inkscape:connector-curvature="0" />
	<path
   id="path3713"
   d="M 63.467244,-0.19459714 C 74.16279,6.3688897 84.738819,21.542597 84.980343,38.648499 85.188253,53.310522 78.516454,64.760521 71.833449,71.515733 63.300418,80.139647 51.203035,86.304744 33.58794,84.663872 10.503687,82.512562 -9.3150056,61.236008 -7.0479134,35.062982 -4.4820282,5.4488567 29.211867,-19.288717 61.674486,-0.79218314 c 0.473089,0.2701587 1.226296,0.2502391 1.792758,0.597586 z M 27.612079,33.270224 c -0.751962,3.353952 -5.083217,0.785577 -5.378275,3.585516 5.675823,0.495499 6.983043,-3.375116 8.366205,-7.171033 -2.855963,-0.266423 -2.620664,2.558416 -4.780688,2.987931 1.405572,-1.393123 3.955273,-4.870327 0.597586,-5.975861 1.472801,3.107448 -0.893889,0.454414 -3.585517,1.195172 v 3.585517 c 0.367267,0.827905 2.300707,0.08964 2.390345,1.195172 -3.016565,-0.112048 -4.811813,-2.785 -6.573447,-2.390344 2.014363,-7.197178 9.253869,-10.063101 11.354135,-1.195173 3.485919,0.697184 3.422426,-2.155044 5.378275,-2.98793 0.728308,-0.06723 1.415532,-0.179276 1.195172,-1.195172 -2.420223,-0.272649 -2.750141,2.303196 -4.183102,0 1.49521,0.102087 1.869946,-0.917544 2.390344,-1.792758 -2.616929,-0.107068 -3.072588,1.943399 -5.378275,0.597586 -0.199195,-7.571914 -6.147667,-8.336326 -9.561377,-11.354136 0.703409,-0.09337 1.69565,0.103333 1.792758,-0.597586 h -5.378275 c -1.496455,3.850695 -9.7468776,6.756458 -5.97586,11.951722 2.179944,-4.683581 4.656191,-5.897428 7.171033,-9.561378 7.447416,0.700919 3.576801,3.609171 7.171033,5.975861 -5.856344,2.309421 -5.883733,10.450287 -11.354136,13.146894 2.670463,0.08092 3.284234,-1.894846 5.378275,-2.390344 2.213558,2.000668 5.329721,5.174099 8.963791,2.390344 z M 17.453116,27.891949 c -2.690383,0.313733 -5.61731,3.524513 -4.780689,5.378275 0.817946,-2.568375 4.322539,-2.450103 4.780689,-5.378275 z M 50.32035,20.720916 c 0.751963,0.245259 1.221317,0.770637 1.195172,1.792758 3.621621,-0.161846 4.901451,-2.667972 5.975861,-5.378274 -3.265559,2.315646 -4.930085,4.315069 -7.171033,3.585516 z m 11.354136,3.585517 c 0.524133,-2.785 -1.549989,0.822926 -1.792758,-1.195172 0.85405,-0.143172 1.008426,-0.984773 1.792758,-1.195173 1.886131,-0.292568 2.110226,1.0769 4.183102,0.597586 -0.02614,-0.822925 0.281364,-1.312199 0.596342,-1.792758 -0.705899,-0.290078 -1.354529,-0.637425 -1.792759,-1.195172 -5.936021,-0.159356 -5.34964,6.202446 -12.548063,4.780689 -0.966097,-1.054491 -2.178699,-4.95374 -4.183102,-2.987931 1.177742,0.471844 2.14882,2.090307 1.195172,2.987931 -1.535049,-0.05727 -0.855295,-2.333076 -2.390344,-2.390345 1.239991,3.737403 -0.662325,-0.602566 -1.792759,1.195173 1.180233,0.41333 1.593563,1.593562 1.792759,2.98793 -2.639339,1.103044 -6.310758,9.262584 -1.195172,10.756549 0.593851,-1.658301 -3.396281,-1.69067 -1.195173,-2.98793 0.06723,0.728308 0.179276,1.414287 1.195173,1.195172 0.85156,-6.22859 8.641343,-6.42405 13.744479,-5.378275 -2.470022,1.127944 -10.597193,-0.255219 -8.963791,2.987931 4.606393,-3.051424 12.450955,-0.88642 17.329997,-4.780689 -2.717772,-0.107067 -6.208671,2.130146 -8.366206,0.597586 1.481516,-2.788735 8.17199,0.504214 10.158964,-4.183102 -3.86937,0.654854 -8.504397,1.312199 -10.757795,0.597586 1.690671,0.494253 1.549989,-0.841601 2.989176,-0.597586 z m -23.305857,1.792758 c 1.409307,1.462841 1.111759,-0.892644 2.98793,-0.597586 0.587626,0.807986 1.594808,1.193927 2.390344,1.792758 -0.171806,-1.620952 -0.768147,-2.816124 -1.791513,-3.585516 -2.57211,-0.25273 -7.411312,5.135505 -3.586761,2.390344 z m 34.062406,2.98793 c 0.85654,3.221985 -0.516663,7.878177 1.792759,9.561378 -0.669795,-4.509285 0.09586,-10.454022 -2.987931,-12.549308 -0.154376,1.164048 0.895134,1.855007 1.195172,2.98793 z m -0.597586,2.390345 c -0.968587,-1.620953 -1.812678,-3.367647 -3.585516,-4.183103 0.804251,1.413042 2.214803,5.321006 3.585516,4.183103 z m -4.183102,-2.390345 c 0.707143,3.66893 2.877128,1.4977 0,0 z m -4.183103,1.792759 c -0.444455,1.452881 3.870615,2.437653 2.98793,0.597586 -1.68818,0.494253 -1.547498,-0.842846 -2.98793,-0.597586 z m 4.780689,0.597586 c -0.796782,0.08839 -1.803963,-2.430184 -2.390345,-0.597586 0.795537,-0.08964 1.803963,2.430183 2.390345,0.597586 z m -16.134825,13.74448 c -2.743916,-3.01781 -0.0037,-8.232994 -4.781933,-9.561378 -0.525378,1.919746 1.970789,0.819191 1.792758,2.390345 -1.190192,-0.398391 -2.55219,-2.061672 -2.98793,0 1.363243,-0.166827 2.247172,0.144416 2.390344,1.195172 -1.055735,1.000956 0.531603,2.001913 0,4.183102 -2.250908,-1.04951 -2.721507,0.761923 -3.585516,0 1.27485,-0.555257 0.8167,-4.346193 -1.195173,-3.585516 -1.28232,3.183391 -1.181477,2.438898 -3.585516,4.780689 0.07968,3.39628 2.423958,-2.653034 2.98793,-0.597587 -1.424247,1.564929 -3.296683,2.679178 -5.378275,3.585517 -0.710878,-1.27983 -0.644894,-3.339012 -1.792758,-4.181858 -2.142595,-0.151886 -2.189904,1.794004 -4.183102,1.791514 -0.612526,-2.295727 -1.258666,-6.984288 1.792758,-4.780689 -0.343612,-1.050756 0.722083,-3.510818 -0.597586,-3.585517 -3.834511,0.860275 -5.316026,8.010144 -7.171033,7.171033 0,2.793715 0.01,3.759813 -1.792758,6.573447 0.860275,0.334898 1.457861,0.932484 1.792758,1.792759 -0.795537,0.08839 -1.803963,-2.430184 -2.390345,-0.597586 1.816413,0.597586 0.763168,0.984772 0,1.792758 0.66108,0.40337 3.099978,1.985729 1.792759,2.390344 -0.611281,0.06972 -1.208867,-2.578335 -1.792759,-0.597586 1.093085,2.117696 -0.04357,1.150353 1.792759,3.585517 -2.550946,0.835375 -3.258089,3.514553 -2.987931,7.172278 1.93344,-0.739513 0.456905,1.93344 2.390345,1.195172 -1.603523,-2.243438 -0.799272,-3.901739 -0.597586,-7.172278 4.876551,-2.293237 3.85941,-10.482656 5.378274,-16.134825 -0.04482,1.040796 0.133212,1.858742 0.597586,2.390345 5.932287,-2.509862 5.729357,4.031216 13.146894,2.98793 1.632157,-3.382586 2.620664,-4.549124 6.572202,-4.780688 -0.02614,6.800031 10.973175,2.570865 10.757795,9.561377 1.439186,0.244014 1.298504,-1.09184 2.986685,-0.596341 0.522888,-4.714705 -2.107736,-9.431901 -5.37703,-8.36745 2.844759,0.357306 4.915146,4.626312 4.181858,6.573447 -1.28232,-4.29266 -5.250043,-5.902408 -10.156474,-6.573447 z m 17.329997,-3.585517 c -0.64863,-2.3393 -0.783087,-5.194019 -2.987931,-5.975861 1.390633,1.597298 0.690959,5.284902 2.987931,5.975861 z m -4.780689,11.354136 c -0.65361,-1.52509 2.041753,-3.075079 -0.596341,-2.987931 0.326183,0.86899 -0.699674,3.088773 0.596341,2.987931 z m -5.975861,3.585516 c -0.933728,-4.73089 -6.308268,-2.884598 -8.366205,-1.792758 -3.86937,2.050467 -11.198514,1.49272 -15.537238,1.791513 -3.334032,2.044243 -6.247264,4.509285 -8.366205,7.768619 3.043954,0.270159 0.895134,2.016853 3.585516,2.390345 3.718729,-1.063206 4.339969,-5.220164 7.768619,-6.573447 4.791894,0.845335 9.139333,-2.573355 13.148139,-1.791514 2.504882,0.488029 3.053914,2.314402 5.37703,3.585517 1.238746,-1.608503 2.772551,-3.439855 2.390344,-5.378275 z m -18.525168,9.561378 c 2.897047,0.806741 6.85979,-0.812967 8.963791,1.791513 -1.373203,-1.942155 -0.407105,-2.504882 -1.792758,-4.183103 -2.81488,0.373492 -5.878753,0.495499 -7.171033,2.39159 z m -16.732411,2.98793 c 0.66855,3.116162 4.024992,3.545677 5.975861,5.378275 -0.460639,-3.523268 -3.452304,-4.516755 -5.378274,-6.573447 -0.539073,1.980749 3.320337,2.592029 1.792758,3.585516 -0.540318,-1.053245 -1.337099,-1.851272 -2.390345,-2.390344 z"
   style="fill:#ffff00;filter:url(#filter3805)"
   inkscape:connector-curvature="0" />
	<path
   id="path3715"
   d="m 22.56,32.16 c -1.682,0.398 -2.175,1.985 -4.32,1.92 4.394,-2.166 4.416,-8.705 9.12,-10.56 -2.887,-1.901 0.222,-4.237 -5.76,-4.8 -2.021,2.943 -4.009,3.917 -5.76,7.68 -3.028,-4.173 3.599,-6.507 4.8,-9.6 h 4.32 c -0.078,0.562 -0.875,0.405 -1.44,0.48 2.742,2.424 7.52,3.039 7.68,9.12 1.852,1.081 2.218,-0.566 4.32,-0.48 -0.417,0.703 -0.719,1.521 -1.92,1.44 1.151,1.85 1.416,-0.219 3.36,0 0.177,0.816 -0.375,0.906 -0.96,0.96 -1.571,0.669 -1.52,2.96 -4.32,2.4 -1.688,-7.123 -7.502,-4.821 -9.12,0.96 1.415,-0.317 2.856,1.83 5.28,1.92 -0.072,-0.888 -1.625,-0.295 -1.92,-0.96 v -2.88 c 2.162,-0.595 4.063,1.536 2.88,-0.96 2.697,0.889 0.649,3.681 -0.48,4.8 1.735,-0.345 1.546,-2.614 3.84,-2.4 -1.111,3.049 -2.162,6.158 -6.72,5.76 0.237,-2.249 3.715,-0.186 4.32,-2.88 -2.919,2.236 -5.422,-0.313 -7.2,-1.92 z M 33.6,29.28 c -0.953,0.244 -1.098,-2.648 -1.92,-0.96 0.458,0.25 1.593,2.154 1.92,0.96 z"
   style="fill:#ffff00"
   inkscape:connector-curvature="0" />
	<path
   id="path3717"
   d="m 54.72,27.36 c 1.81,0.574 5.532,0.046 8.641,-0.48 -1.596,3.765 -6.97,1.12 -8.16,3.36 1.732,1.231 4.537,-0.566 6.72,-0.48 C 58.001,32.888 51.7,31.149 48,33.6 c -1.312,-2.605 5.216,-1.494 7.2,-2.4 -4.099,-0.84 -10.356,-0.683 -11.04,4.32 -0.816,0.176 -0.906,-0.375 -0.96,-0.96 -1.768,1.042 1.437,1.068 0.96,2.4 -4.109,-1.2 -1.16,-7.754 0.96,-8.64 -0.16,-1.12 -0.492,-2.068 -1.44,-2.4 0.908,-1.444 2.437,2.042 1.44,-0.96 1.233,0.046 0.687,1.874 1.92,1.92 0.766,-0.721 -0.014,-2.021 -0.96,-2.4 1.61,-1.579 2.584,1.553 3.36,2.4 5.782,1.143 5.312,-3.968 10.079,-3.84 0.353,0.448 0.873,0.727 1.44,0.96 -0.254,0.386 -0.501,0.779 -0.479,1.44 -1.665,0.385 -1.846,-0.715 -3.36,-0.48 -0.631,0.169 -0.755,0.845 -1.44,0.96 0.195,1.621 1.861,-1.277 1.44,0.96 -1.156,-0.196 -1.043,0.877 -2.4,0.48 z m -12,5.76 c 0.384,1.25 0.803,-1.369 0.96,-1.92 0.002,-0.267 -0.389,-0.545 -0.479,0 0.107,0.907 -0.542,1.059 -0.481,1.92 z m 7.2,-4.8 c -2.438,0.282 -0.105,-2.269 -1.92,-0.96 0.002,-0.266 -0.389,-0.545 -0.48,0 0.377,0.52 3.191,2.301 2.4,0.96 z"
   style="fill:#ffff00"
   inkscape:connector-curvature="0" />
	<path
   id="path3719"
   d="m 43.2,31.2 c 0.091,-0.545 0.481,-0.267 0.479,0 -0.157,0.551 -0.576,3.169 -0.96,1.92 -0.06,-0.861 0.589,-1.013 0.481,-1.92 z"
   style="fill:#ffff00"
   inkscape:connector-curvature="0" />
	<path
   id="path3721"
   d="m 41.28,26.4 c 0.822,0.618 1.302,1.578 1.439,2.88 -0.639,-0.48 -1.448,-0.791 -1.92,-1.44 -1.507,-0.237 -1.268,1.655 -2.4,0.48 -3.071,2.205 0.816,-2.123 2.881,-1.92 z"
   style="fill:#ffff00"
   inkscape:connector-curvature="0" />
	<path
   id="path3723"
   d="m 47.52,27.36 c 0.092,-0.545 0.482,-0.266 0.48,0 1.814,-1.309 -0.519,1.242 1.92,0.96 0.791,1.341 -2.023,-0.44 -2.4,-0.96 z"
   style="fill:#ffff00"
   inkscape:connector-curvature="0" />
	<path
   id="path3725"
   d="m 31.68,28.32 c 0.822,-1.688 0.967,1.204 1.92,0.96 -0.327,1.194 -1.462,-0.71 -1.92,-0.96 z"
   style="fill:#ffff00"
   inkscape:connector-curvature="0" />
	<path
   id="path3727"
   d="m 61.92,30.72 c 2.311,1.203 0.568,2.947 0,0 z"
   style="fill:#ffff00"
   inkscape:connector-curvature="0" />
	<path
   id="path3729"
   d="m 57.6,48.96 c 0.589,-1.564 -1.074,-4.993 -3.359,-5.28 2.626,-0.855 4.739,2.934 4.319,6.721 -1.356,-0.397 -1.243,0.676 -2.399,0.479 0.174,-5.614 -8.662,-2.218 -8.641,-7.68 -3.174,0.186 -3.969,1.123 -5.279,3.84 -5.958,0.838 -5.795,-4.416 -10.56,-2.4 -0.373,-0.427 -0.516,-1.084 -0.48,-1.92 -1.22,4.54 -0.403,11.118 -4.32,12.96 -0.162,2.627 -0.808,3.959 0.48,5.761 -1.553,0.593 -0.367,-1.554 -1.92,-0.96 -0.217,-2.938 0.351,-5.09 2.4,-5.761 -1.475,-1.956 -0.562,-1.179 -1.44,-2.88 0.469,-1.591 0.949,0.536 1.44,0.48 1.05,-0.325 -0.909,-1.596 -1.44,-1.92 0.613,-0.649 1.459,-0.96 0,-1.44 0.471,-1.472 1.281,0.552 1.92,0.48 -0.269,-0.691 -0.749,-1.172 -1.44,-1.44 1.448,-2.261 1.439,-3.036 1.44,-5.28 1.491,0.674 2.68,-5.068 5.76,-5.76 1.06,0.06 0.204,2.036 0.48,2.88 -2.451,-1.771 -1.932,1.996 -1.44,3.84 1.601,0.002 1.639,-1.562 3.36,-1.439 0.922,0.678 0.869,2.331 1.44,3.359 1.672,-0.728 3.177,-1.623 4.32,-2.88 -0.453,-1.65 -2.336,3.208 -2.4,0.48 1.931,-1.881 1.85,-1.283 2.88,-3.84 1.616,-0.61 1.984,2.434 0.96,2.88 0.694,0.612 1.072,-0.843 2.88,0 0.427,-1.752 -0.848,-2.557 0,-3.36 -0.115,-0.844 -0.825,-1.094 -1.92,-0.96 0.351,-1.656 1.444,-0.32 2.4,0 0.143,-1.262 -1.862,-0.378 -1.44,-1.92 3.838,1.066 1.637,5.256 3.841,7.68 3.939,0.539 7.126,1.832 8.158,5.28 z m -8.16,-4.8 c -1.107,0.146 -0.533,-1.387 -1.44,-1.44 -0.227,0.936 1.292,2.455 1.44,1.44 z m -9.6,1.44 c 3.963,-1.081 2.061,-2.367 0,0 z m 15.84,0.96 c -0.681,-0.318 -3.788,-2.107 -2.88,-0.96 0.904,0.101 2.494,1.924 2.88,0.96 z m -25.92,1.92 c 0.077,-0.335 -0.167,-2.794 -0.48,-1.44 -0.422,1.827 0.258,2.404 0.48,1.44 z m 26.88,0.48 c -0.232,-0.567 -0.512,-1.088 -0.96,-1.44 -0.075,0.642 0.755,2.646 0.96,1.44 z"
   style="fill:#ffff00"
   inkscape:connector-curvature="0" />
	<path
   id="path3731"
   d="m 48,42.72 c 0.907,0.054 0.333,1.587 1.44,1.44 -0.148,1.015 -1.667,-0.504 -1.44,-1.44 z"
   style="fill:#ffff00"
   inkscape:connector-curvature="0" />
	<path
   id="path3733"
   d="m 39.84,45.6 c 2.061,-2.367 3.963,-1.081 0,0 z"
   style="fill:#ffff00"
   inkscape:connector-curvature="0" />
	<path
   id="path3735"
   d="m 52.8,45.6 c -0.908,-1.147 2.199,0.642 2.88,0.96 -0.386,0.964 -1.976,-0.859 -2.88,-0.96 z"
   style="fill:#ffff00"
   inkscape:connector-curvature="0" />
	<path
   id="path3737"
   d="m 55.68,47.52 c 0.448,0.353 0.728,0.873 0.96,1.44 -0.205,1.206 -1.035,-0.798 -0.96,-1.44 z"
   style="fill:#ffff00"
   inkscape:connector-curvature="0" />
	<path
   id="path3739"
   d="m 52.8,57.12 c -1.866,-1.021 -2.308,-2.488 -4.319,-2.88 -3.22,-0.628 -6.712,2.118 -10.561,1.439 -2.753,1.087 -3.253,4.427 -6.24,5.28 -2.162,-0.3 -0.436,-1.703 -2.88,-1.92 1.702,-2.618 4.042,-4.599 6.72,-6.24 3.485,-0.24 9.372,0.208 12.48,-1.439 1.653,-0.877 5.97,-2.36 6.72,1.439 0.307,1.558 -0.925,3.029 -1.92,4.321 z M 32.64,57.6 c -0.816,2.493 1.242,1.275 0,0 z"
   style="fill:#ffff00"
   inkscape:connector-curvature="0" />
	<path
   id="path3741"
   d="m 32.64,57.6 c 1.242,1.275 -0.816,2.493 0,0 z"
   style="fill:#ffff00"
   inkscape:connector-curvature="0" />
	<path
   id="path3743"
   d="m 53.76,21.12 c -0.863,2.177 -1.891,4.189 -4.8,4.32 C 48.981,24.619 48.604,24.197 48,24 c 1.8,0.586 3.137,-1.02 5.76,-2.88 z"
   style="fill:#ffff00"
   inkscape:connector-curvature="0" />
	<path
   id="path3745"
   d="m 45.6,58.56 c 1.113,1.349 0.338,1.801 1.44,3.36 -1.69,-2.093 -4.873,-0.791 -7.2,-1.439 1.038,-1.524 3.499,-1.622 5.76,-1.921 z"
   style="fill:#ffff00"
   inkscape:connector-curvature="0" />
</g></g>
<metadata
   id="metadata3655"><rdf:RDF><cc:Work><dc:format>image/svg+xml</dc:format><dc:type
         rdf:resource="http://purl.org/dc/dcmitype/StillImage" /><cc:license
         rdf:resource="http://creativecommons.org/licenses/publicdomain/" /><dc:publisher><cc:Agent
           rdf:about="http://openclipart.org/"><dc:title>Openclipart</dc:title></cc:Agent></dc:publisher><dc:title></dc:title></cc:Work><cc:License
       rdf:about="http://creativecommons.org/licenses/publicdomain/"><cc:permits
         rdf:resource="http://creativecommons.org/ns#Reproduction" /><cc:permits
         rdf:resource="http://creativecommons.org/ns#Distribution" /><cc:permits
         rdf:resource="http://creativecommons.org/ns#DerivativeWorks" /></cc:License></rdf:RDF></metadata><g
   inkscape:groupmode="layer"
   id="layer1"
   inkscape:label="Moon"
   style="display:inline"
   transform="translate(16.446098,16.378963)"><path
     style="fill-rule:evenodd"
     inkscape:connector-curvature="0"
     id="path3601"
     d="m 64.8,28.32 c 2.478,1.683 1.862,6.458 2.4,10.08 -1.855,-1.352 -0.753,-5.092 -1.44,-7.68 -0.241,-0.91 -1.084,-1.465 -0.96,-2.4 z" /><path
     style="fill-rule:evenodd"
     inkscape:connector-curvature="0"
     id="path3605"
     d="m 17.76,34.08 c -0.671,-1.489 1.679,-4.068 3.84,-4.32 -0.368,2.352 -3.183,2.257 -3.84,4.32 z" /><path
     style="fill-rule:evenodd"
     inkscape:connector-curvature="0"
     id="path3611"
     d="m 60.96,36 c 1.771,0.628 1.88,2.92 2.4,4.8 -1.845,-0.555 -1.283,-3.517 -2.4,-4.8 z" /><path
     style="fill:#fff9ec;fill-rule:evenodd"
     inkscape:connector-curvature="0"
     id="path3613"
     d="m 29.28,47.04 c 0.312,-1.354 0.557,1.105 0.48,1.44 -0.222,0.964 -0.902,0.387 -0.48,-1.44 z" /><path
     style="fill-rule:evenodd"
     inkscape:connector-curvature="0"
     id="path3615"
     d="m 59.04,47.52 c 2.119,-0.069 -0.046,1.176 0.479,2.4 -1.04,0.081 -0.216,-1.702 -0.479,-2.4 z" /><path
     style="fill-rule:evenodd"
     inkscape:connector-curvature="0"
     id="path3617"
     d="m 28.32,64.8 c 1.227,-0.798 -1.873,-1.289 -1.44,-2.88 1.547,1.652 3.95,2.45 4.32,5.28 -1.567,-1.473 -4.263,-1.817 -4.8,-4.32 0.846,0.433 1.486,1.074 1.92,1.92 z" /><path
     style="fill-rule:evenodd"
     inkscape:connector-curvature="0"
     id="path3619"
     d="M 9.12,15.84 C 15.878,6.701 26.881,0.62 39.84,0.96 65.31,1.628 83.094,27.461 73.44,53.28 67.618,68.851 45.731,83.736 24,73.92 20.423,72.305 14.402,67.813 11.52,64.8 -1.161,51.547 -2.111,31.027 9.12,15.84 z m 48,-9.12 C 31.045,-8.137 3.981,11.733 1.92,35.52 0.099,56.543 16.018,73.633 34.56,75.36 48.709,76.678 58.427,71.726 65.28,64.799 70.647,59.373 76.007,50.176 75.84,38.399 75.646,24.66 67.15,12.473 58.56,7.2 58.105,6.921 57.5,6.937 57.12,6.72 z" /><path
     style="fill:#fff9ec;fill-opacity:1;fill-rule:evenodd"
     d="m 37.772652,1.621037 c -18.70875,0.435656 -34.2979998,16.066 -35.8437498,33.90625 -1.82099998,21.023 14.0829998,38.11575 32.6249998,39.84375 14.149,1.318 23.864751,-3.6355 30.71875,-10.5625 5.368,-5.426 10.7295,-14.62925 10.5625,-26.40625 -0.194,-13.74 -8.69025,-25.9155 -17.28125,-31.1875 -0.455,-0.279 -1.0575,-0.283 -1.4375,-0.5 -6.51875,-3.71425 -13.1075,-5.238969 -19.34375,-5.09375 z m -16.5,17.46875 c 0.01203,0.0076 0.01918,0.02364 0.03125,0.03125 -0.10128,0.1388 -0.211453,0.275615 -0.3125,0.40625 -0.01025,-0.009 -0.02085,-0.02202 -0.03125,-0.03125 0.124027,-0.15738 0.238425,-0.300227 0.3125,-0.40625 z m 9.3125,21.28125 c 0.0112,-2.22e-4 0.02027,2.45e-4 0.03125,0 -0.173217,0.269589 -0.310271,0.525436 -0.4375,0.71875 0.137909,-0.227549 0.258219,-0.473286 0.40625,-0.71875 z m -2.71875,5.75 c -0.05206,0.131071 -0.09141,0.271498 -0.15625,0.40625 0.0685,-0.143711 0.102403,-0.271394 0.15625,-0.40625 z m 0.125,7.96875 c 0.01354,0.02028 0.01766,0.04225 0.03125,0.0625 -0.01497,0.05187 -0.01636,0.104699 -0.03125,0.15625 -0.01217,-0.01978 -0.01917,-0.04267 -0.03125,-0.0625 0.0046,-0.01406 0.02542,-0.137593 0.03125,-0.15625 z m 16.40625,4.625 c 0.0083,0.02126 0.02306,0.04121 0.03125,0.0625 -0.203536,0.02523 -0.410632,0.02841 -0.625,0.0625 -0.01688,-0.01596 -0.04308,-0.01293 -0.0625,-0.03125 0.218954,-0.03029 0.434176,-0.06656 0.65625,-0.09375 z"
     id="path3621"
     inkscape:connector-curvature="0" /><path
     style="fill-rule:evenodd"
     inkscape:connector-curvature="0"
     id="path3629"
     d="m 41.28,26.4 c 0.822,0.618 1.302,1.578 1.439,2.88 -0.639,-0.48 -1.448,-0.791 -1.92,-1.44 -1.507,-0.237 -1.268,1.655 -2.4,0.48 -3.071,2.205 0.816,-2.123 2.881,-1.92 z" /><path
     style="fill:#fff9ec;fill-rule:evenodd"
     inkscape:connector-curvature="0"
     id="path3633"
     d="m 31.68,28.32 c 0.822,-1.688 0.967,1.204 1.92,0.96 -0.327,1.194 -1.462,-0.71 -1.92,-0.96 z" /><path
     style="fill-rule:evenodd"
     inkscape:connector-curvature="0"
     id="path3637"
     d="m 42.241,47.04 c -5.958,0.838 -5.795,-4.416 -10.56,-2.4 -0.373,-0.427 -0.516,-1.084 -0.48,-1.92 -0.710045,0.251057 -0.992923,-4.640606 2.88,-5.76 1.06,0.06 0.204,2.036 0.48,2.88 -2.451,-1.771 -1.932,1.996 -1.44,3.84 1.601,0.002 1.639,-1.562 3.36,-1.439 0.922,0.678 0.869,2.331 1.44,3.359 1.672,-0.728 3.177,-1.623 4.32,-2.88 -0.453,-1.65 -2.336,3.208 -2.4,0.48 1.931,-1.881 1.85,-1.283 2.88,-3.84 1.616,-0.61 1.984,2.434 0.96,2.88 0.694,0.612 1.072,-0.843 2.88,0 0.427,-1.752 -0.848,-2.557 0,-3.36 -0.115,-0.844 -0.825,-1.094 -1.92,-0.96 0.351,-1.656 1.444,-0.32 2.4,0 0.143,-1.262 -1.862,-0.378 -1.44,-1.92 8.695128,9.629009 -1.277077,6.773841 -3.36,11.04 z M 39.84,45.6 c 3.963,-1.081 2.061,-2.367 0,0 z"
     sodipodi:nodetypes="cccccccccccccccccccc" /><path
     style="fill:#fff9ec;fill-rule:evenodd"
     inkscape:connector-curvature="0"
     id="path3639"
     d="m 48,42.72 c 0.907,0.054 0.333,1.587 1.44,1.44 -0.148,1.015 -1.667,-0.504 -1.44,-1.44 z" /><path
     style="fill:#fff9ec;fill-rule:evenodd"
     inkscape:connector-curvature="0"
     id="path3641"
     d="m 39.84,45.6 c 2.061,-2.367 3.963,-1.081 0,0 z" /><path
     style="fill:#fff9ec;fill-rule:evenodd"
     inkscape:connector-curvature="0"
     id="path3643"
     d="m 52.8,45.6 c -0.908,-1.147 2.199,0.642 2.88,0.96 -0.386,0.964 -1.976,-0.859 -2.88,-0.96 z" /><path
     style="fill:#fff9ec;fill-rule:evenodd"
     inkscape:connector-curvature="0"
     id="path3645"
     d="m 55.68,47.52 c 0.448,0.353 0.728,0.873 0.96,1.44 -0.205,1.206 -1.035,-0.798 -0.96,-1.44 z" /><path
     style="fill-rule:evenodd"
     inkscape:connector-curvature="0"
     id="path3647"
     d="m 22.751624,51.024986 c 3.277044,0.891443 6.712861,2.375717 10.244552,2.717975 5.654921,0.548312 7.695862,0.490107 15.478341,-0.03587 4.834781,-0.94907 7.758707,-1.831034 7.480691,-2.168953 6.251873,-2.789395 6.698611,-3.090088 3.625736,0.65926 -2.989031,2.285799 -5.666426,3.710295 -8.93741,4.532801 -6.120312,0.209546 -6.638991,1.038924 -14.347634,0.54443 -5.562559,0.05374 -7.006521,-0.787368 -13.233658,-3.595754 -0.53915,-1.360303 -2.058024,-1.525827 -0.310618,-2.653884 z"
     sodipodi:nodetypes="ccccccccc" /><path
     style="fill-rule:evenodd"
     inkscape:connector-curvature="0"
     id="path3623"
     d="m 22.781415,32.577946 c -1.640005,0.545813 -1.990109,2.170327 -4.132405,2.29609 4.184264,-2.54769 3.625422,-9.062803 8.146082,-11.328254 2.778113,-0.177477 4.554161,1.079907 4.08061,2.527573 1.940689,0.912244 2.158966,-0.760753 4.260297,-0.86178 -0.352916,0.737257 -0.581072,1.578846 -1.78452,1.604832 1.310758,1.740464 1.390954,-0.343895 3.346722,-0.298415 0.248773,0.797055 -0.293052,0.935724 -0.870945,1.041467 -1.505375,0.805883 -1.251103,3.0833 -4.089773,2.774193 -2.313953,-6.944933 -7.900528,-4.135665 -8.998699,1.766191 1.381254,-0.441419 3.007244,1.569115 5.429658,1.443474 -0.150582,-0.878096 -1.644778,-0.149511 -1.997674,-0.785683 l -0.255785,-2.868619 c 2.100612,-0.784665 4.183362,1.169079 2.783358,-1.21199 2.765297,0.645954 0.97336,3.608813 -0.0518,4.823662 1.697503,-0.49773 1.307731,-2.740977 3.611671,-2.731563 -0.835815,3.135624 -1.606539,6.325682 -6.181874,6.334069 0.03632,-2.261161 3.6838,-0.515209 4.047143,-3.252296 -2.708876,2.486413 -5.428372,0.169788 -7.34207,-1.272952 z M 33.522003,28.72882 c -0.927564,0.327675 -1.328841,-2.540018 -1.997674,-0.785684 0.478393,0.208336 1.77801,2.004007 1.997674,0.785684 z"
     sodipodi:nodetypes="cccccccccccccccccccccc" /><path
     sodipodi:nodetypes="cccccccccccccccccccccc"
     d="m 56.936211,33.045218 c 1.56701,0.557086 1.866733,2.111796 3.92723,2.280405 -3.971375,-2.52114 -3.282772,-8.711527 -7.584666,-10.971616 -2.671704,-0.232349 -4.411357,0.924311 -3.988652,2.313457 -1.890268,0.824292 -2.0619,-0.773572 -4.083511,-0.917695 0.322906,0.710004 0.52324,1.516498 1.681766,1.568691 -1.302646,1.627222 -1.331791,-0.359156 -3.216581,-0.360467 -0.258003,0.753213 0.260667,0.897602 0.814837,1.011464 1.431338,0.801632 1.133877,2.964193 3.875137,2.73464 2.388992,-6.559589 7.704995,-3.757409 8.626532,1.886885 -1.320198,-0.451789 -2.932699,1.425379 -5.263,1.250497 0.165299,-0.832613 1.587654,-0.104833 1.942233,-0.702491 l 0.31256,-2.72542 c -2.005143,-0.795008 -4.056272,1.017671 -2.652883,-1.217445 -2.678361,0.551945 -1.020788,3.413801 -0.06142,4.593861 -1.6235,-0.512617 -1.196318,-2.639554 -3.415625,-2.683146 0.732676,3.004539 1.401403,6.059421 5.808041,6.171774 0.0172,-2.153714 -3.536241,-0.574569 -3.823043,-3.188877 2.551736,2.429141 5.224535,0.285483 7.101046,-1.044518 z M 46.680004,29.135407 c 0.885842,0.333142 1.338515,-2.388077 1.942233,-0.702493 -0.465582,0.187447 -1.758772,1.867487 -1.942233,0.702493 z"
     id="path4232"
     inkscape:connector-curvature="0"
     style="fill-rule:evenodd" /><path
     style="color:#000000;fill:#000000;fill-opacity:1;fill-rule:nonzero;stroke:none;stroke-width:1.528;marker:none;visibility:visible;display:inline;overflow:visible;enable-background:accumulate"
     id="path4260"
     d="m 35.523419,70.025096 c -0.05542,-0.531133 -0.134228,-1.059048 -0.179765,-1.591493 0.01055,-0.464965 -0.11133,-0.910606 -0.182554,-1.365429 -0.07098,-0.562784 -0.137081,-1.108504 0.11291,-1.631224 0.684895,-0.90659 1.777997,-1.531602 2.888791,-1.763282 0.476957,-0.07516 0.961369,-0.06932 1.442754,-0.06824 0.312716,0.0019 0.156479,8.41e-4 0.468711,0.0031 0,0 -1.48418,1.076843 -1.48418,1.076843 l 0,0 c -0.311737,-0.0019 -0.155806,-0.0012 -0.46779,-0.0021 -0.47303,0.0018 -0.950793,2.57e-4 -1.415254,0.102226 -0.669599,0.188102 -1.446867,0.725417 0.861806,-0.627571 0.07816,-0.04581 -0.157636,0.09013 -0.230691,0.143707 -0.201913,0.148085 -0.230636,0.202496 -0.392665,0.389863 -0.327256,0.481185 -0.226016,0.967356 -0.163649,1.518718 0.07289,0.459709 0.20048,0.909671 0.184516,1.380013 0.04087,0.535454 0.104756,1.068431 0.201758,1.596866 0,0 -1.644698,0.838015 -1.644698,0.838015 z"
     inkscape:connector-curvature="0"
     transform="translate(-16.446098,-16.378963)" /><path
     style="color:#000000;fill:#000000;fill-opacity:1;fill-rule:nonzero;stroke:none;stroke-width:1.528;marker:none;visibility:visible;display:inline;overflow:visible;enable-background:accumulate"
     id="path4262"
     d="m 79.344649,68.144819 c 0.09299,-0.551527 0.290531,-1.075293 0.457431,-1.606591 0.148369,-0.474676 0.1945,-0.968983 0.218806,-1.462921 0.01489,-0.427259 0.05799,-0.859152 -0.131088,-1.253501 -0.272516,-0.314418 -0.645079,-0.541093 -1.01018,-0.736632 -0.490835,-0.355323 -0.94361,-0.518805 -1.536882,-0.623488 -0.104088,-0.0027 -0.208177,-0.0054 -0.312266,-0.0081 0,0 1.481045,-1.062686 1.481045,-1.062686 l 0,0 c 0.107321,0.0099 0.214641,0.01971 0.321961,0.02957 0.5838,0.117001 1.092995,0.320429 1.583257,0.662376 0.391829,0.223031 0.792581,0.468342 1.069024,0.831263 0.213073,0.42154 0.196261,0.87239 0.172293,1.336218 -0.02061,0.507845 -0.05969,1.017122 -0.203732,1.507466 -0.15932,0.524192 -0.377383,1.035154 -0.449072,1.581767 0,0 -1.660597,0.805233 -1.660597,0.805233 z"
     inkscape:connector-curvature="0"
     transform="translate(-16.446098,-16.378963)" /><path
     style="color:#000000;fill:#000000;fill-opacity:1;fill-rule:nonzero;stroke:none;stroke-width:1.528;marker:none;visibility:visible;display:inline;overflow:visible;enable-background:accumulate"
     id="path4286"
     d="m 32.917932,42.445579 c 0.06268,-0.322382 0.08528,-0.537709 0.245214,-0.846953 0.652941,-1.262482 1.726988,-2.293727 2.718683,-3.283934 1.082207,-0.955648 2.104513,-2.018909 3.385173,-2.716056 0.781635,-0.425495 0.969258,-0.438739 1.821941,-0.708031 1.606503,-0.343808 3.248538,-0.524362 4.869187,-0.165331 1.237279,0.274101 2.50554,0.912881 3.623376,1.380965 0.989703,0.534759 0.531833,0.258539 1.380823,0.816582 0,0 -1.718938,-0.431875 -1.718938,-0.431875 l 0,0 c -0.827258,-0.531908 -0.380552,-0.267708 -1.347127,-0.780629 0.214613,0.07056 0.859931,0.277583 0.643838,0.211689 -0.369241,-0.112594 -0.728371,-0.260118 -1.10335,-0.351809 -1.596427,-0.390365 -3.212231,-0.230197 -4.802112,0.110862 -0.827978,0.249513 -1.038018,0.269072 -1.801466,0.669537 -1.285125,0.674109 -2.321025,1.714405 -3.397209,2.665748 -0.967034,0.969913 -2.011996,1.984146 -2.600689,3.246828 -0.151767,0.325523 -0.148214,0.477332 -0.187357,0.80524 0,0 -1.729987,-0.622833 -1.729987,-0.622833 z"
     inkscape:connector-curvature="0"
     transform="translate(-16.446098,-16.378963)" /><path
     inkscape:connector-curvature="0"
     d="m 62.516231,26.066616 c -0.06268,-0.322382 -0.08528,-0.537709 -0.245214,-0.846953 -0.652941,-1.262482 -1.726988,-2.293727 -2.718683,-3.283934 -1.082207,-0.955648 -2.104513,-2.018909 -3.385173,-2.716056 -0.781635,-0.425495 -0.969258,-0.438739 -1.821941,-0.708031 -1.606503,-0.343808 -3.248538,-0.524362 -4.869187,-0.165331 -1.237279,0.274101 -2.50554,0.912881 -3.623376,1.380965 -0.989703,0.534759 -0.531833,0.258539 -1.380823,0.816582 0,0 1.718938,-0.431875 1.718938,-0.431875 l 0,0 c 0.827258,-0.531908 0.380552,-0.267708 1.347127,-0.780629 -0.214613,0.07056 -0.859931,0.277583 -0.643838,0.211689 0.369241,-0.112594 0.728371,-0.260118 1.10335,-0.351809 1.596427,-0.390365 3.212231,-0.230197 4.802112,0.110862 0.827978,0.249513 1.038018,0.269072 1.801466,0.669537 1.285125,0.674109 2.321025,1.714405 3.397209,2.665748 0.967034,0.969913 2.011996,1.984146 2.600689,3.246828 0.151767,0.325523 0.148214,0.477332 0.187357,0.80524 0,0 1.729987,-0.622833 1.729987,-0.622833 z"
     id="path4288"
     style="color:#000000;fill:#000000;fill-opacity:1;fill-rule:nonzero;stroke:none;stroke-width:1.528;marker:none;visibility:visible;display:inline;overflow:visible;enable-background:accumulate" /></g></svg>