<?xml version="1.0" encoding="UTF-8" standalone="no"?>
<!-- Created with Inkscape (http://www.inkscape.org/) -->

<svg
   xmlns:dc="http://purl.org/dc/elements/1.1/"
   xmlns:cc="http://creativecommons.org/ns#"
   xmlns:rdf="http://www.w3.org/1999/02/22-rdf-syntax-ns#"
   xmlns:svg="http://www.w3.org/2000/svg"
   xmlns="http://www.w3.org/2000/svg"
   xmlns:xlink="http://www.w3.org/1999/xlink"
   xmlns:sodipodi="http://sodipodi.sourceforge.net/DTD/sodipodi-0.dtd"
   xmlns:inkscape="http://www.inkscape.org/namespaces/inkscape"
   width="204.94136"
   height="267.48737"
   id="svg2"
   version="1.1"
   inkscape:version="0.48.4 r9939"
   sodipodi:docname="New document 1">
  <defs
     id="defs4">
    <linearGradient
       inkscape:collect="always"
       id="linearGradient5030">
      <stop
         style="stop-color:#00aad4;stop-opacity:0.60106385"
         offset="0"
         id="stop5032" />
      <stop
         id="stop5034"
         offset="0.77319086"
         style="stop-color:#9bebff;stop-opacity:0.2606383" />
      <stop
         style="stop-color:#006680;stop-opacity:0.26595744"
         offset="1"
         id="stop5036" />
    </linearGradient>
    <linearGradient
       id="linearGradient5022"
       inkscape:collect="always">
      <stop
         id="stop5024"
         offset="0"
         style="stop-color:#00aad4;stop-opacity:1" />
      <stop
         style="stop-color:#aaeeff;stop-opacity:1"
         offset="0.30645379"
         id="stop5028" />
      <stop
         id="stop5026"
         offset="1"
         style="stop-color:#006680;stop-opacity:0.61702126" />
    </linearGradient>
    <linearGradient
       inkscape:collect="always"
       xlink:href="#linearGradient5030"
       id="linearGradient5015"
       x1="26.231852"
       y1="249.79597"
       x2="212.1732"
       y2="249.79597"
       gradientUnits="userSpaceOnUse" />
    <linearGradient
       inkscape:collect="always"
       xlink:href="#linearGradient5022"
       id="linearGradient5019"
       gradientUnits="userSpaceOnUse"
       x1="26.231852"
       y1="249.79597"
       x2="212.1732"
       y2="249.79597" />
    <linearGradient
       inkscape:collect="always"
       xlink:href="#linearGradient5030"
       id="linearGradient5172"
       gradientUnits="userSpaceOnUse"
       x1="26.231852"
       y1="249.79597"
       x2="212.1732"
       y2="249.79597" />
    <linearGradient
       inkscape:collect="always"
       xlink:href="#linearGradient5022"
       id="linearGradient5174"
       gradientUnits="userSpaceOnUse"
       x1="26.231852"
       y1="249.79597"
       x2="212.1732"
       y2="249.79597" />
    <linearGradient
       inkscape:collect="always"
       xlink:href="#linearGradient5022"
       id="linearGradient5176"
       gradientUnits="userSpaceOnUse"
       x1="26.231852"
       y1="249.79597"
       x2="212.1732"
       y2="249.79597" />
  </defs>
  <sodipodi:namedview
     id="base"
     pagecolor="#ffffff"
     bordercolor="#666666"
     borderopacity="1.0"
     inkscape:pageopacity="0.0"
     inkscape:pageshadow="2"
     inkscape:zoom="1.979899"
     inkscape:cx="139.54988"
     inkscape:cy="127.24568"
     inkscape:document-units="px"
     inkscape:current-layer="layer1"
     showgrid="false"
     fit-margin-top="10"
     fit-margin-left="10"
     fit-margin-right="10"
     fit-margin-bottom="10"
     inkscape:window-width="1280"
     inkscape:window-height="961"
     inkscape:window-x="-8"
     inkscape:window-y="-8"
     inkscape:window-maximized="1" />
  <metadata
     id="metadata7">
    <rdf:RDF>
      <cc:Work
         rdf:about="">
        <dc:format>image/svg+xml</dc:format>
        <dc:type
           rdf:resource="http://purl.org/dc/dcmitype/StillImage" />
        <dc:title></dc:title>
      </cc:Work>
    </rdf:RDF>
  </metadata>
  <g
     inkscape:label="Layer 1"
     inkscape:groupmode="layer"
     id="layer1"
     transform="translate(-12.691241,-19.077656)">
    <g
       id="g5104"
       transform="translate(-4.0406102,-96.974644)">
      <path
         inkscape:connector-curvature="0"
         id="path4237"
         d="m 26.769042,159.38733 0,179.30208 c 0,0 -4.545686,34.85026 86.873118,34.85026 91.41881,0 97.9848,-19.1929 97.9848,-34.34518 0,-15.15229 0,-177.28178 0,-177.28178 0,0 5.05076,-35.86041 -90.40865,-35.86041 -95.45942,0 -94.449268,20.70812 -94.449268,33.33503 z"
         style="fill:url(#linearGradient5172);fill-opacity:1;stroke:none" />
      <path
         style="opacity:0.61061946;fill:url(#linearGradient5174);fill-opacity:1;stroke:none"
         d="m 26.78125,183.74287 c -0.02834,1.01016 0,1.97279 0,2.90625 l 0,152.03838 c 0,0 -4.543804,34.84375 86.875,34.84375 91.41881,0 97.96875,-19.19147 97.96875,-34.34375 l 0,-150.00713 c 0,0 0.0979,-0.73082 0,-1.96875 -0.078,16.13619 -60.11938,20.15625 -93.9375,20.15625 -31.947868,0 -85.067086,-4.04697 -90.90625,-23.625 z"
         id="path5102"
         inkscape:connector-curvature="0"
         sodipodi:nodetypes="cscssccsc" />
      <g
         transform="translate(-12,28)"
         id="g5038">
        <g
           id="g3023"
           transform="matrix(0.54233036,0,0,0.54233036,-1.065575,57.804005)">
          <path
             d="m 227.85715,322.71933 c 0,6.11458 -4.95685,11.07143 -11.07143,11.07143 -6.11458,0 -11.07143,-4.95685 -11.07143,-11.07143 0,-6.11458 4.95685,-11.07143 11.07143,-11.07143 6.11458,0 11.07143,4.95685 11.07143,11.07143 z"
             sodipodi:ry="11.071428"
             sodipodi:rx="11.071428"
             sodipodi:cy="322.71933"
             sodipodi:cx="216.78572"
             id="path2985"
             style="color:#000000;fill:#cccccc;fill-opacity:1;fill-rule:evenodd;stroke:none;stroke-width:1px;marker:none;visibility:visible;display:inline;overflow:visible;enable-background:accumulate"
             sodipodi:type="arc" />
          <path
             d="m 209.24426,326.12973 0,-7.56112 1.02637,0 3.97139,5.93646 0,-5.93646 0.95932,0 0,7.56112 -1.02636,0 -3.97139,-5.94162 0,5.94162 z"
             style="font-size:8.27676582px;font-style:normal;font-variant:normal;font-weight:normal;font-stretch:normal;text-align:start;line-height:125%;letter-spacing:0px;word-spacing:0px;writing-mode:lr-tb;text-anchor:start;fill:#000000;fill-opacity:1;stroke:none;font-family:Arial;-inkscape-font-specification:Arial"
             id="path3004"
             inkscape:connector-curvature="0" />
          <path
             d="m 220.34352,325.45407 c -0.34385,0.29227 -0.67479,0.49857 -0.99285,0.61892 -0.31806,0.12034 -0.65933,0.18052 -1.0238,0.18052 -0.60172,0 -1.06419,-0.147 -1.3874,-0.44098 -0.32321,-0.29399 -0.48482,-0.66964 -0.48482,-1.12694 0,-0.2682 0.061,-0.51319 0.1831,-0.73497 0.12213,-0.22178 0.28195,-0.39972 0.47966,-0.53383 0.19771,-0.13409 0.42034,-0.23552 0.66792,-0.30429 0.18223,-0.0481 0.4573,-0.0946 0.82522,-0.13925 0.74958,-0.0893 1.30145,-0.196 1.65561,-0.31978 0.004,-0.12724 0.005,-0.20802 0.005,-0.24242 0,-0.37821 -0.0877,-0.6447 -0.26304,-0.79942 -0.23726,-0.20975 -0.58969,-0.31461 -1.05732,-0.31463 -0.43668,2e-5 -0.75904,0.0766 -0.96706,0.22953 -0.20802,0.153 -0.36189,0.42379 -0.4616,0.81232 l -0.90776,-0.1238 c 0.0826,-0.38854 0.21835,-0.70229 0.40746,-0.94126 0.18912,-0.23897 0.46247,-0.42292 0.82006,-0.55187 0.35761,-0.12894 0.77193,-0.19341 1.243,-0.19341 0.46763,0 0.84757,0.055 1.13985,0.16504 0.29225,0.11001 0.50716,0.24844 0.6447,0.41519 0.13753,0.16677 0.23381,0.37737 0.28883,0.63181 0.0309,0.15817 0.0464,0.44357 0.0464,0.85617 l 0,1.23784 c 0,0.86305 0.0198,1.40889 0.0594,1.63755 0.0396,0.22866 0.11779,0.44786 0.23466,0.65761 l -0.96963,0 c -0.0962,-0.19256 -0.15817,-0.41778 -0.18568,-0.67567 z m -0.0773,-2.07338 c -0.33697,0.13755 -0.84242,0.25445 -1.51635,0.35073 -0.38167,0.055 -0.65158,0.1169 -0.80975,0.18567 -0.15817,0.0688 -0.28023,0.16934 -0.3662,0.30172 -0.086,0.13238 -0.12893,0.27938 -0.12893,0.44098 0,0.24758 0.0937,0.45387 0.28108,0.61893 0.1874,0.16503 0.46162,0.24755 0.82265,0.24755 0.3576,0 0.67565,-0.0782 0.95416,-0.23466 0.27851,-0.15645 0.4831,-0.3705 0.61377,-0.64213 0.0997,-0.20974 0.14956,-0.5192 0.14957,-0.92837 z"
             style="font-size:8.27676582px;font-style:normal;font-variant:normal;font-weight:normal;font-stretch:normal;text-align:start;line-height:125%;letter-spacing:0px;word-spacing:0px;writing-mode:lr-tb;text-anchor:start;fill:#000000;fill-opacity:1;stroke:none;font-family:Arial;-inkscape-font-specification:Arial"
             id="path3006"
             inkscape:connector-curvature="0" />
          <path
             d="m 223.67254,321.11003 0,-1.34772 -1.33765,0 0,-0.56321 1.33765,0 0,-1.33766 0.56993,0 0,1.33766 1.33766,0 0,0.56321 -1.33766,0 0,1.34772 z"
             style="font-size:5.37997341px;font-style:normal;font-variant:normal;font-weight:normal;font-stretch:normal;text-align:start;line-height:125%;letter-spacing:0px;word-spacing:0px;writing-mode:lr-tb;text-anchor:start;baseline-shift:super;fill:#000000;fill-opacity:1;stroke:none;font-family:OCR A Extended;-inkscape-font-specification:OCR A Extended"
             id="path3008"
             inkscape:connector-curvature="0" />
        </g>
        <g
           id="g3029"
           transform="matrix(0.54233036,0,0,0.54233036,-1.065575,57.804005)">
          <path
             transform="translate(24.36993,6.4397225)"
             sodipodi:type="arc"
             style="color:#000000;fill:#00ff00;fill-opacity:1;fill-rule:evenodd;stroke:none;stroke-width:1px;marker:none;visibility:visible;display:inline;overflow:visible;enable-background:accumulate"
             id="path2987"
             sodipodi:cx="216.78572"
             sodipodi:cy="322.71933"
             sodipodi:rx="11.071428"
             sodipodi:ry="11.071428"
             d="m 227.85715,322.71933 c 0,6.11458 -4.95685,11.07143 -11.07143,11.07143 -6.11458,0 -11.07143,-4.95685 -11.07143,-11.07143 0,-6.11458 4.95685,-11.07143 11.07143,-11.07143 6.11458,0 11.07143,4.95685 11.07143,11.07143 z" />
          <path
             d="m 241.1057,330.23442 1.11273,0.28104 c -0.23325,0.91389 -0.65292,1.61079 -1.25899,2.09068 -0.60609,0.47989 -1.34695,0.71983 -2.2226,0.71983 -0.90624,0 -1.64329,-0.18449 -2.21112,-0.5535 -0.56784,-0.369 -0.99993,-0.90338 -1.29628,-1.60314 -0.29634,-0.69976 -0.44453,-1.45114 -0.44453,-2.25414 0,-0.87566 0.16731,-1.63946 0.50189,-2.29143 0.33458,-0.65196 0.81065,-1.14714 1.42819,-1.48556 0.61755,-0.3384 1.29724,-0.50761 2.03907,-0.50761 0.84123,0 1.54864,0.21414 2.12222,0.6424 0.57356,0.42828 0.97315,1.03053 1.19877,1.80676 l -1.09554,0.2581 c -0.19502,-0.61179 -0.47797,-1.05727 -0.84888,-1.33642 -0.37092,-0.27914 -0.83743,-0.4187 -1.39952,-0.4187 -0.64623,0 -1.18635,0.15486 -1.62034,0.46459 -0.43401,0.30973 -0.73896,0.72557 -0.91485,1.24752 -0.1759,0.52195 -0.26385,1.06016 -0.26385,1.61461 0,0.71506 0.10417,1.3393 0.3126,1.87272 0.20839,0.53343 0.53246,0.93207 0.9722,1.19591 0.43974,0.26384 0.91581,0.39575 1.4282,0.39575 0.62328,0 1.15097,-0.17971 1.58306,-0.53915 0.43209,-0.35944 0.72462,-0.89285 0.87757,-1.60026 z"
             style="font-size:8.27676582px;font-style:normal;font-variant:normal;font-weight:normal;font-stretch:normal;text-align:start;line-height:125%;letter-spacing:0px;word-spacing:0px;writing-mode:lr-tb;text-anchor:start;fill:#000000;fill-opacity:1;stroke:none;font-family:Arial;-inkscape-font-specification:Arial"
             id="path3011"
             inkscape:connector-curvature="0" />
          <path
             d="m 243.44015,333.18258 0,-8.4086 1.03243,0 0,8.4086 z"
             style="font-size:8.27676582px;font-style:normal;font-variant:normal;font-weight:normal;font-stretch:normal;text-align:start;line-height:125%;letter-spacing:0px;word-spacing:0px;writing-mode:lr-tb;text-anchor:start;fill:#000000;fill-opacity:1;stroke:none;font-family:Arial;-inkscape-font-specification:Arial"
             id="path3013"
             inkscape:connector-curvature="0" />
          <path
             d="m 245.5466,326.84342 0,-0.67483 2.06175,0 0,0.67483 z"
             style="font-size:5.37997341px;font-style:normal;font-variant:normal;font-weight:normal;font-stretch:normal;text-align:start;line-height:125%;letter-spacing:0px;word-spacing:0px;writing-mode:lr-tb;text-anchor:start;baseline-shift:super;fill:#000000;fill-opacity:1;stroke:none;font-family:OCR A Extended;-inkscape-font-specification:OCR A Extended"
             id="path3015"
             inkscape:connector-curvature="0" />
        </g>
        <use
           id="use3991"
           xlink:href="#g3023"
           x="0"
           y="0"
           width="744.09448"
           height="1052.3622"
           transform="translate(56.438644,78.090099)" />
        <use
           id="use4003"
           xlink:href="#g3023"
           x="0"
           y="0"
           width="744.09448"
           height="1052.3622"
           transform="translate(-10.803763,8.0242928)" />
        <use
           id="use4005"
           xlink:href="#g3029"
           x="0"
           y="0"
           width="744.09448"
           height="1052.3622"
           transform="translate(20.205423,-4.8387823)" />
        <use
           id="use4015"
           xlink:href="#g3023"
           x="0"
           y="0"
           width="744.09448"
           height="1052.3622"
           transform="translate(5.5033352,17.964731)" />
        <use
           id="use4017"
           xlink:href="#g3029"
           x="0"
           y="0"
           width="744.09448"
           height="1052.3622"
           transform="translate(-41.050191,3.138276)" />
        <use
           id="use4019"
           xlink:href="#g3023"
           x="0"
           y="0"
           width="744.09448"
           height="1052.3622"
           transform="translate(63.162918,41.061661)" />
        <use
           id="use4021"
           xlink:href="#g3029"
           x="0"
           y="0"
           width="744.09448"
           height="1052.3622"
           transform="translate(-41.927786,57.58505)" />
        <use
           id="use4025"
           xlink:href="#g3029"
           x="0"
           y="0"
           width="744.09448"
           height="1052.3622"
           transform="translate(-15.502102,65.68278)" />
        <use
           id="use4027"
           xlink:href="#g3023"
           x="0"
           y="0"
           width="744.09448"
           height="1052.3622"
           transform="translate(11.787521,81.150681)" />
        <use
           id="use4029"
           xlink:href="#g3029"
           x="0"
           y="0"
           width="744.09448"
           height="1052.3622"
           transform="translate(57.981456,23.389362)" />
        <use
           id="use4033"
           xlink:href="#g3029"
           x="0"
           y="0"
           width="744.09448"
           height="1052.3622"
           transform="translate(34.259552,36.182651)" />
        <use
           id="use4035"
           xlink:href="#g3023"
           x="0"
           y="0"
           width="744.09448"
           height="1052.3622"
           transform="translate(52.928353,-21.916365)" />
        <use
           id="use4041"
           xlink:href="#g3029"
           x="0"
           y="0"
           width="744.09448"
           height="1052.3622"
           transform="translate(-20.38084,-20.36991)" />
        <use
           id="use4051"
           xlink:href="#g3023"
           x="0"
           y="0"
           width="744.09448"
           height="1052.3622"
           transform="translate(30.38612,87.826174)" />
        <use
           id="use4061"
           xlink:href="#g3029"
           x="0"
           y="0"
           width="744.09448"
           height="1052.3622"
           transform="translate(11.915455,16.190823)" />
        <use
           id="use4065"
           xlink:href="#g3029"
           x="0"
           y="0"
           width="744.09448"
           height="1052.3622"
           transform="translate(-61.851714,2.823645)" />
        <use
           id="use4067"
           xlink:href="#g3023"
           x="0"
           y="0"
           width="744.09448"
           height="1052.3622"
           transform="translate(50.177633,-7.8411547)" />
        <use
           id="use4071"
           xlink:href="#g3023"
           x="0"
           y="0"
           width="744.09448"
           height="1052.3622"
           transform="translate(35.506297,-34.501059)" />
        <use
           id="use4075"
           xlink:href="#g3023"
           x="0"
           y="0"
           width="744.09448"
           height="1052.3622"
           transform="translate(30.409867,64.2719)" />
        <use
           id="use4079"
           xlink:href="#g3023"
           x="0"
           y="0"
           width="744.09448"
           height="1052.3622"
           transform="translate(-43.702015,37.033328)" />
        <use
           id="use4081"
           xlink:href="#g3029"
           x="0"
           y="0"
           width="744.09448"
           height="1052.3622"
           transform="translate(45.418204,54.727478)" />
        <use
           id="use4083"
           xlink:href="#g3023"
           x="0"
           y="0"
           width="744.09448"
           height="1052.3622"
           transform="translate(39.033558,12.893522)" />
        <use
           id="use4087"
           xlink:href="#g3023"
           x="0"
           y="0"
           width="744.09448"
           height="1052.3622"
           transform="translate(-50.652496,24.7107)" />
        <use
           id="use4089"
           xlink:href="#g3029"
           x="0"
           y="0"
           width="744.09448"
           height="1052.3622"
           transform="translate(7.2638329,-45.928959)" />
        <use
           id="use4091"
           xlink:href="#g3023"
           x="0"
           y="0"
           width="744.09448"
           height="1052.3622"
           transform="translate(12.87648,-22.919553)" />
        <use
           id="use4093"
           xlink:href="#g3029"
           x="0"
           y="0"
           width="744.09448"
           height="1052.3622"
           transform="translate(-65.031734,-11.453515)" />
        <use
           id="use4095"
           xlink:href="#g3023"
           x="0"
           y="0"
           width="744.09448"
           height="1052.3622"
           transform="translate(32.84318,-18.628317)" />
        <use
           id="use4101"
           xlink:href="#g3029"
           x="0"
           y="0"
           width="744.09448"
           height="1052.3622"
           transform="translate(-24.959498,36.938819)" />
        <use
           id="use4103"
           xlink:href="#g3023"
           x="0"
           y="0"
           width="744.09448"
           height="1052.3622"
           transform="translate(59.031862,19.519112)" />
        <use
           id="use4111"
           xlink:href="#g3023"
           x="0"
           y="0"
           width="744.09448"
           height="1052.3622"
           transform="translate(-19.884155,-44.532878)" />
        <use
           id="use4117"
           xlink:href="#g3029"
           x="0"
           y="0"
           width="744.09448"
           height="1052.3622"
           transform="translate(-67.86752,84.847753)" />
        <use
           id="use4131"
           xlink:href="#g3023"
           x="0"
           y="0"
           width="744.09448"
           height="1052.3622"
           transform="translate(0.97687601,87.819809)" />
        <use
           id="use4141"
           xlink:href="#g3029"
           x="0"
           y="0"
           width="744.09448"
           height="1052.3622"
           transform="translate(58.134024,-16.620572)" />
        <use
           id="use4143"
           xlink:href="#g3023"
           x="0"
           y="0"
           width="744.09448"
           height="1052.3622"
           transform="translate(-24.909989,82.109565)" />
        <use
           id="use4151"
           xlink:href="#g3023"
           x="0"
           y="0"
           width="744.09448"
           height="1052.3622"
           transform="translate(11.84778,-10.55501)" />
        <use
           id="use4155"
           xlink:href="#g3023"
           x="0"
           y="0"
           width="744.09448"
           height="1052.3622"
           transform="translate(-0.81772762,-33.034808)" />
        <use
           id="use4157"
           xlink:href="#g3029"
           x="0"
           y="0"
           width="744.09448"
           height="1052.3622"
           transform="translate(-30.174208,-30.126664)" />
        <use
           id="use4163"
           xlink:href="#g3023"
           x="0"
           y="0"
           width="744.09448"
           height="1052.3622"
           transform="translate(36.556364,30.247232)" />
        <use
           id="use4177"
           xlink:href="#g3029"
           x="0"
           y="0"
           width="744.09448"
           height="1052.3622"
           transform="translate(56.579725,-0.91395959)" />
        <use
           id="use4179"
           xlink:href="#g3023"
           x="0"
           y="0"
           width="744.09448"
           height="1052.3622"
           transform="translate(-14.115934,23.22229)" />
        <use
           id="use4181"
           xlink:href="#g3029"
           x="0"
           y="0"
           width="744.09448"
           height="1052.3622"
           transform="translate(-2.1610459,45.307243)" />
        <use
           id="use4185"
           xlink:href="#g3029"
           x="0"
           y="0"
           width="744.09448"
           height="1052.3622"
           transform="translate(60.843154,67.37927)" />
        <use
           id="use4193"
           xlink:href="#g3029"
           x="0"
           y="0"
           width="744.09448"
           height="1052.3622"
           transform="translate(22.236187,39.488452)" />
        <use
           id="use4197"
           xlink:href="#g3029"
           x="0"
           y="0"
           width="744.09448"
           height="1052.3622"
           transform="translate(-27.67618,63.482047)" />
        <use
           id="use4199"
           xlink:href="#g3023"
           x="0"
           y="0"
           width="744.09448"
           height="1052.3622"
           transform="translate(-40.302476,-14.214226)" />
        <use
           id="use4201"
           xlink:href="#g3029"
           x="0"
           y="0"
           width="744.09448"
           height="1052.3622"
           transform="translate(-31.2099,-9.1035547)" />
        <use
           id="use4203"
           xlink:href="#g3023"
           x="0"
           y="0"
           width="744.09448"
           height="1052.3622"
           transform="translate(-35.07668,48.672516)" />
        <use
           id="use4215"
           xlink:href="#g3023"
           x="0"
           y="0"
           width="744.09448"
           height="1052.3622"
           transform="translate(34.496826,-37.35878)" />
        <use
           id="use4221"
           xlink:href="#g3029"
           x="0"
           y="0"
           width="744.09448"
           height="1052.3622"
           transform="translate(-7.6675023,27.146402)" />
        <use
           id="use4225"
           xlink:href="#g3029"
           x="0"
           y="0"
           width="744.09448"
           height="1052.3622"
           transform="translate(-47.181126,19.818946)" />
        <use
           id="use4227"
           xlink:href="#g3023"
           x="0"
           y="0"
           width="744.09448"
           height="1052.3622"
           transform="translate(76.39195,41.67703)" />
        <use
           id="use4231"
           xlink:href="#g3023"
           x="0"
           y="0"
           width="744.09448"
           height="1052.3622"
           transform="translate(51.516442,7.393477)" />
      </g>
      <path
         sodipodi:nodetypes="cscssccsc"
         inkscape:connector-curvature="0"
         id="path5017"
         d="m 26.78125,156.46875 c -0.02834,1.01016 0,1.97279 0,2.90625 l 0,179.3125 c 0,0 -4.543804,34.84375 86.875,34.84375 91.41881,0 97.96875,-19.19147 97.96875,-34.34375 l 0,-177.28125 c 0,0 0.0979,-0.73082 0,-1.96875 -0.078,16.13619 -60.11938,20.15625 -93.9375,20.15625 -31.947868,0 -85.067086,-4.04697 -90.90625,-23.625 z"
         style="opacity:0.61061946;fill:url(#linearGradient5176);fill-opacity:1;stroke:none" />
    </g>
  </g>
</svg>
