<?xml version="1.0" encoding="UTF-8" standalone="no"?>
<!-- Created with Inkscape (http://www.inkscape.org/) -->

<svg
   xmlns:dc="http://purl.org/dc/elements/1.1/"
   xmlns:cc="http://creativecommons.org/ns#"
   xmlns:rdf="http://www.w3.org/1999/02/22-rdf-syntax-ns#"
   xmlns:svg="http://www.w3.org/2000/svg"
   xmlns="http://www.w3.org/2000/svg"
   xmlns:xlink="http://www.w3.org/1999/xlink"
   xmlns:sodipodi="http://sodipodi.sourceforge.net/DTD/sodipodi-0.dtd"
   xmlns:inkscape="http://www.inkscape.org/namespaces/inkscape"
   width="705.409mm"
   height="290.79214mm"
   viewBox="0 0 2499.4806 1030.3659"
   id="svg2"
   version="1.1"
   inkscape:version="0.91 r13725"
   sodipodi:docname="nanny.svg">
  <defs
     id="defs4">
    <linearGradient
       inkscape:collect="always"
       id="linearGradient4442">
      <stop
         style="stop-color:#ff8080;stop-opacity:1;"
         offset="0"
         id="stop4444" />
      <stop
         style="stop-color:#ff8080;stop-opacity:0;"
         offset="1"
         id="stop4446" />
    </linearGradient>
    <linearGradient
       inkscape:collect="always"
       id="linearGradient4434">
      <stop
         style="stop-color:#ff8080;stop-opacity:1;"
         offset="0"
         id="stop4436" />
      <stop
         style="stop-color:#ff8080;stop-opacity:0;"
         offset="1"
         id="stop4438" />
    </linearGradient>
    <linearGradient
       inkscape:collect="always"
       id="linearGradient4426">
      <stop
         style="stop-color:#ff8080;stop-opacity:1;"
         offset="0"
         id="stop4428" />
      <stop
         style="stop-color:#ff8080;stop-opacity:0;"
         offset="1"
         id="stop4430" />
    </linearGradient>
    <linearGradient
       inkscape:collect="always"
       id="linearGradient4255">
      <stop
         style="stop-color:#ff8080;stop-opacity:1;"
         offset="0"
         id="stop4257" />
      <stop
         style="stop-color:#ff8080;stop-opacity:0;"
         offset="1"
         id="stop4259" />
    </linearGradient>
    <linearGradient
       inkscape:collect="always"
       id="linearGradient4247">
      <stop
         style="stop-color:#ff8080;stop-opacity:1;"
         offset="0"
         id="stop4249" />
      <stop
         style="stop-color:#ff8080;stop-opacity:0;"
         offset="1"
         id="stop4251" />
    </linearGradient>
    <linearGradient
       inkscape:collect="always"
       id="linearGradient4239">
      <stop
         style="stop-color:#000000;stop-opacity:1;"
         offset="0"
         id="stop4241" />
      <stop
         style="stop-color:#000000;stop-opacity:0;"
         offset="1"
         id="stop4243" />
    </linearGradient>
    <linearGradient
       inkscape:collect="always"
       id="linearGradient4225">
      <stop
         style="stop-color:#000000;stop-opacity:1;"
         offset="0"
         id="stop4227" />
      <stop
         style="stop-color:#000000;stop-opacity:0;"
         offset="1"
         id="stop4229" />
    </linearGradient>
    <linearGradient
       inkscape:collect="always"
       id="linearGradient4217">
      <stop
         style="stop-color:#ff8080;stop-opacity:1;"
         offset="0"
         id="stop4219" />
      <stop
         style="stop-color:#ff8080;stop-opacity:0;"
         offset="1"
         id="stop4221" />
    </linearGradient>
    <linearGradient
       inkscape:collect="always"
       id="linearGradient4191">
      <stop
         style="stop-color:#803300;stop-opacity:1;"
         offset="0"
         id="stop4193" />
      <stop
         style="stop-color:#803300;stop-opacity:0;"
         offset="1"
         id="stop4195" />
    </linearGradient>
    <linearGradient
       inkscape:collect="always"
       id="linearGradient4183">
      <stop
         style="stop-color:#000000;stop-opacity:1;"
         offset="0"
         id="stop4185" />
      <stop
         style="stop-color:#000000;stop-opacity:0;"
         offset="1"
         id="stop4187" />
    </linearGradient>
    <radialGradient
       inkscape:collect="always"
       xlink:href="#linearGradient4183"
       id="radialGradient4189"
       cx="-164.88289"
       cy="617.83856"
       fx="-164.88289"
       fy="617.83856"
       r="605.99652"
       gradientTransform="matrix(0.97569305,-0.21914167,0.32532014,1.4484357,-205.00313,-429.024)"
       gradientUnits="userSpaceOnUse" />
    <radialGradient
       inkscape:collect="always"
       xlink:href="#linearGradient4191"
       id="radialGradient4197"
       cx="-164.8829"
       cy="617.83856"
       fx="-164.8829"
       fy="617.83856"
       r="605.99658"
       gradientTransform="matrix(1.987663,-1.0909242,0.74536186,1.358049,-297.66455,-516.92168)"
       gradientUnits="userSpaceOnUse" />
    <linearGradient
       inkscape:collect="always"
       xlink:href="#linearGradient4217"
       id="linearGradient4235"
       x1="771.42853"
       y1="680.93365"
       x2="1057.1428"
       y2="226.64793"
       gradientUnits="userSpaceOnUse" />
    <linearGradient
       inkscape:collect="always"
       xlink:href="#linearGradient4225"
       id="linearGradient4237"
       x1="478.96707"
       y1="540.21362"
       x2="1550.8278"
       y2="540.21362"
       gradientUnits="userSpaceOnUse" />
    <radialGradient
       inkscape:collect="always"
       xlink:href="#linearGradient4239"
       id="radialGradient4245"
       cx="-288.07632"
       cy="166.48001"
       fx="-288.07632"
       fy="166.48001"
       r="82.027954"
       gradientTransform="matrix(3.1180296,-0.6857083,0.51857747,2.3580577,530.53953,-415.83083)"
       gradientUnits="userSpaceOnUse" />
    <radialGradient
       inkscape:collect="always"
       xlink:href="#linearGradient4247"
       id="radialGradient4253"
       cx="-268.3768"
       cy="146.17332"
       fx="-268.3768"
       fy="146.17332"
       r="82.02803"
       gradientTransform="matrix(3.1180265,-0.68570791,0.51857717,2.3580554,479.64566,-354.43793)"
       gradientUnits="userSpaceOnUse" />
    <radialGradient
       inkscape:collect="always"
       xlink:href="#linearGradient4255"
       id="radialGradient4265"
       cx="-621.53815"
       cy="121.64278"
       fx="-621.53815"
       fy="121.64278"
       r="71.963577"
       gradientTransform="matrix(2.4013781,-0.2088693,0.19582496,2.251407,847.18927,-275.14023)"
       gradientUnits="userSpaceOnUse" />
    <radialGradient
       inkscape:collect="always"
       xlink:href="#linearGradient4426"
       id="radialGradient4432"
       cx="72.936531"
       cy="582.08521"
       fx="72.936531"
       fy="582.08521"
       r="98.972618"
       gradientTransform="matrix(1,0,0,0.49834702,0,292.00479)"
       gradientUnits="userSpaceOnUse" />
    <radialGradient
       inkscape:collect="always"
       xlink:href="#linearGradient4434"
       id="radialGradient4440"
       cx="-510.55005"
       cy="599.29382"
       fx="-510.55005"
       fy="599.29382"
       r="46.027229"
       gradientTransform="matrix(1,0,0,0.74321769,0,153.88806)"
       gradientUnits="userSpaceOnUse" />
    <radialGradient
       inkscape:collect="always"
       xlink:href="#linearGradient4442"
       id="radialGradient4448"
       cx="-468.66129"
       cy="558.41431"
       fx="-468.66129"
       fy="558.41431"
       r="70.958656"
       gradientTransform="matrix(1,0,0,0.52810537,0,263.51271)"
       gradientUnits="userSpaceOnUse" />
  </defs>
  <sodipodi:namedview
     id="base"
     pagecolor="#ffffff"
     bordercolor="#666666"
     borderopacity="1.0"
     inkscape:pageopacity="0.0"
     inkscape:pageshadow="2"
     inkscape:zoom="0.49497475"
     inkscape:cx="854.24744"
     inkscape:cy="421.55215"
     inkscape:document-units="px"
     inkscape:current-layer="layer1"
     showgrid="false"
     fit-margin-top="0"
     fit-margin-left="0"
     fit-margin-right="0"
     fit-margin-bottom="0"
     inkscape:window-width="1600"
     inkscape:window-height="877"
     inkscape:window-x="-8"
     inkscape:window-y="-8"
     inkscape:window-maximized="1" />
  <metadata
     id="metadata7">
    <rdf:RDF>
      <cc:Work
         rdf:about="">
        <dc:format>image/svg+xml</dc:format>
        <dc:type
           rdf:resource="http://purl.org/dc/dcmitype/StillImage" />
        <dc:title></dc:title>
      </cc:Work>
    </rdf:RDF>
  </metadata>
  <g
     inkscape:label="Layer 1"
     inkscape:groupmode="layer"
     id="layer1"
     transform="translate(948.65285,247.16749)">
    <path
       style="fill:none;fill-rule:evenodd;stroke:#000000;stroke-width:1px;stroke-linecap:butt;stroke-linejoin:miter;stroke-opacity:1"
       d="m -220,355.21935 -80,94.28571 -22.85714,-5.71428 -45.71429,54.28571 -25.71428,20 -25.71429,17.14286 -51.42857,14.28571 -20,2.85714 -8.57143,11.42858 -37.14286,5.71428 -31.42857,-5.71428 L -580,532.3622 l -11.42857,-48.57142 -5.71429,-48.57143 -28.57143,-125.71429 14.28572,-54.28571 17.14286,-34.28572 20,-25.71428 8.57142,-45.71429 -31.42857,-17.14286 -17.14285,-8.57142 -14.28572,-22.85715 L -640,83.790776 l 2.85714,-54.285714 20,-28.5714287 31.42857,5.7142857 22.85715,25.714286 45.71428,8.571428 25.71429,-14.285714 94.28571,-60 134.28572,-79.999999 160,-82.85714 131.428569,-34.28572 140.000001,-14.28571 125.71428,42.85714 117.14286,77.14286 74.28572,82.85714 60,117.142858 37.14285,137.142852 -20,94.28572 L 485.71429,423.79078 357.14286,532.3622 148.57143,566.64792 114.28571,543.79078 -60,612.3622 l -142.85714,14.28572 -5.71429,-17.14286 -160,-8.57143 -22.85714,28.57143 -60,2.85714 -31.42857,-22.85714 -11.42857,-22.85714 74.28571,-2.85714 -54.28571,-22.85715 65.71428,-14.28571 0,-22.85714"
       id="path4147"
       inkscape:connector-curvature="0" />
    <path
       style="fill:none;fill-rule:evenodd;stroke:#000000;stroke-width:1px;stroke-linecap:butt;stroke-linejoin:miter;stroke-opacity:1"
       d="m -540,572.3622 -8.57143,31.42858 22.85714,20 60,5.71428 -20,-17.14286 -45.71428,2.85715 57.14286,-2.85715 -20,-25.71428 z"
       id="path4149"
       inkscape:connector-curvature="0" />
    <path
       style="fill:none;fill-rule:evenodd;stroke:#000000;stroke-width:1px;stroke-linecap:butt;stroke-linejoin:miter;stroke-opacity:1"
       d="M -11.428571,589.50506 -20,612.3622 20,595.21935 5.7142857,623.79078 45.714286,606.64792 l 25.714285,-17.14286 17.142858,-2.85714 -14.285715,31.42857 28.571426,-2.85714 25.71429,-31.42857 37.14286,-20"
       id="path4151"
       inkscape:connector-curvature="0" />
    <path
       style="fill:none;fill-rule:evenodd;stroke:#000000;stroke-width:1px;stroke-linecap:butt;stroke-linejoin:miter;stroke-opacity:1"
       d="m 491.42857,426.64792 140,-28.57143 180,0 225.71433,25.71429 168.5714,31.42857 91.4286,40 48.5714,45.71428 105.7143,114.28572 77.1428,120 14.2857,-5.71429 -8.5714,-40 -71.4286,-117.14286 -88.5714,-108.57142 -100,-74.28572 L 1111.4286,366.64792 888.57143,318.07649 717.14286,320.93363 560,306.64792"
       id="path4153"
       inkscape:connector-curvature="0" />
    <path
       style="fill:none;fill-rule:evenodd;stroke:#000000;stroke-width:1px;stroke-linecap:butt;stroke-linejoin:miter;stroke-opacity:1"
       d="m -308.57143,138.07649 2.85714,-60 62.85715,-37.142857 42.85714,8.571429 37.14286,45.714286 -8.57143,48.571432 -40,45.71428 -45.71429,5.71429 8.57143,-5.71429 17.14286,-57.14286 -45.71429,17.14286 z"
       id="path4155"
       inkscape:connector-curvature="0" />
    <path
       style="fill:none;fill-rule:evenodd;stroke:#000000;stroke-width:1px;stroke-linecap:butt;stroke-linejoin:miter;stroke-opacity:1"
       d="m -440,329.50506 0,-31.42857 8.57143,-22.85714 20,-5.71429 20,0 11.42857,8.57143 14.28571,11.42857"
       id="path4159"
       inkscape:connector-curvature="0" />
    <path
       style="fill:none;fill-rule:evenodd;stroke:#000000;stroke-width:1px;stroke-linecap:butt;stroke-linejoin:miter;stroke-opacity:1"
       d="m -428.57143,323.79078 20,0 20,-11.42858 11.42857,-20 5.71429,-17.14285"
       id="path4161"
       inkscape:connector-curvature="0" />
    <path
       style="fill:none;fill-rule:evenodd;stroke:#000000;stroke-width:1px;stroke-linecap:butt;stroke-linejoin:miter;stroke-opacity:1"
       d="m -545.71429,223.79078 -31.42857,37.14285 8.57143,31.42857 0,48.57143 -2.85714,62.85715 -5.71429,68.57142 5.71429,51.42858 5.71428,28.57142"
       id="path4163"
       inkscape:connector-curvature="0" />
    <path
       style="fill:none;fill-rule:evenodd;stroke:#000000;stroke-width:1px;stroke-linecap:butt;stroke-linejoin:miter;stroke-opacity:1"
       d="m -577.14286,260.93363 -17.14285,17.14286 8.57142,25.71429 22.85715,11.42857"
       id="path4165"
       inkscape:connector-curvature="0" />
    <path
       style="fill:none;fill-rule:evenodd;stroke:#000000;stroke-width:1px;stroke-linecap:butt;stroke-linejoin:miter;stroke-opacity:1"
       d="m -565.71429,152.3622 -5.71428,-37.14285 22.85714,-31.428574 34.28572,-40 42.85714,-22.857143"
       id="path4167"
       inkscape:connector-curvature="0" />
    <path
       style="fill:none;fill-rule:evenodd;stroke:#000000;stroke-width:1px;stroke-linecap:butt;stroke-linejoin:miter;stroke-opacity:1"
       d="m -5.7142857,309.50506 -22.8571433,97.14286 -28.571428,45.71428 -37.142857,51.42858 -48.571426,62.85714 -65.71429,45.71428"
       id="path4169"
       inkscape:connector-curvature="0" />
    <path
       style="fill:none;fill-rule:evenodd;stroke:#000000;stroke-width:1px;stroke-linecap:butt;stroke-linejoin:miter;stroke-opacity:1"
       d="m 128.57143,543.79078 105.71428,-62.85715 71.42858,-45.71428 45.71428,-48.57143 40,-48.57143"
       id="path4171"
       inkscape:connector-curvature="0" />
    <path
       style="fill:none;fill-rule:evenodd;stroke:#000000;stroke-width:1px;stroke-linecap:butt;stroke-linejoin:miter;stroke-opacity:1"
       d="m 502.85714,272.3622 c -5.71428,14.28572 -54.28571,105.71429 -54.28571,105.71429 l -45.71429,54.28571 -57.14285,65.71429 -51.42858,40"
       id="path4173"
       inkscape:connector-curvature="0" />
    <path
       style="fill:none;fill-rule:evenodd;stroke:#000000;stroke-width:1px;stroke-linecap:butt;stroke-linejoin:miter;stroke-opacity:1"
       d="m -285.71429,-53.352081 114.28572,14.285714 74.285713,48.5714289 45.714286,65.7142861 17.142857,57.142852"
       id="path4175"
       inkscape:connector-curvature="0" />
    <path
       style="fill:none;fill-rule:evenodd;stroke:#000000;stroke-width:1px;stroke-linecap:butt;stroke-linejoin:miter;stroke-opacity:1"
       d="M -511.42857,198.07649 -485.71429,149.50506 -440,98.07649 l 0,34.28571 -17.14286,57.14286 -17.14285,40 -17.14286,31.42857"
       id="path4177"
       inkscape:connector-curvature="0" />
    <path
       style="fill:#803300;fill-rule:evenodd;stroke:#000000;stroke-width:1px;stroke-linecap:butt;stroke-linejoin:miter;stroke-opacity:1"
       d="m -442.85714,320.93363 c 11.42857,0 22.85714,0 34.28571,0"
       id="path4179"
       inkscape:connector-curvature="0" />
    <path
       style="opacity:1;fill:url(#radialGradient4197);fill-opacity:1;fill-rule:nonzero;stroke:url(#radialGradient4189);stroke-width:8.16300011;stroke-miterlimit:4;stroke-dasharray:none;stroke-opacity:0"
       d="m -461.10611,623.06138 c -5.66835,-4.24069 -12.37029,-10.96512 -14.8932,-14.94318 -2.52291,-3.97805 -6.72056,-10.12568 -9.32811,-13.6614 l -4.74101,-6.42857 19.63421,-0.31008 c 10.79881,-0.17057 27.34849,-1.15786 36.77706,-2.194 l 17.14286,-1.88389 -13.93462,-6.37746 c -7.66405,-3.50757 -14.25703,-6.37742 -14.65108,-6.37742 -0.39405,0 -5.69489,-2.11729 -11.77966,-4.70506 l -11.06321,-4.70509 24.28571,-5.23177 c 13.35715,-2.87746 27.17857,-5.92754 30.71429,-6.77791 5.03426,-1.21083 6.42857,-3.56443 6.42857,-10.85143 0,-8.1574 2.37903,-11.08612 19.28571,-23.74174 10.60715,-7.94009 29.57143,-26.79015 42.14286,-41.88903 14.20383,-17.05949 24.47963,-27.03115 27.14286,-26.33952 19.92517,5.17472 16.30314,7.79552 59.58343,-43.11331 22.31574,-26.24914 39.82588,-48.47392 38.9114,-49.3884 -0.91446,-0.91449 -2.55706,-0.31406 -3.65017,1.33428 -1.09315,1.64832 -18.99289,23.0178 -39.77723,47.48772 l -37.78975,44.49074 -11.5986,-2.94403 c -6.37922,-1.61923 -11.94902,-2.45451 -12.37737,-1.85617 -19.48648,27.22029 -72.37819,79.65929 -80.34702,79.65929 -0.97078,0 -4.29189,2.35411 -7.38024,5.23134 -5.02149,4.67823 -44.80266,17.05197 -71.28861,22.174 -5.49993,1.0636 -11.58482,4.19666 -13.52197,6.96234 -5.28573,7.54643 -36.3496,12.23297 -54.82331,8.27106 -12.98024,-2.78374 -15.14979,-4.33026 -19.08488,-13.60406 -6.95858,-16.39923 -17.6603,-62.2278 -21.12467,-90.46325 -1.73526,-14.14286 -9.55767,-53.99475 -17.38312,-88.55978 l -14.2281,-62.84548 6.28319,-24.29737 c 7.00698,-27.09635 22.97944,-61.39657 36.44382,-78.26166 4.87712,-6.10894 8.86748,-11.46014 8.86748,-11.89154 0,-0.4314 1.86147,-10.51337 4.1366,-22.4044 3.10896,-16.24903 3.44403,-25.92052 1.34876,-38.93092 -2.78011,-17.26288 -2.75793,-17.3526 8.00626,-32.37614 26.85757,-37.485 44.53156,-55.179028 67.52308,-67.59968 12.3438,-6.668454 21.15563,-12.926748 19.58184,-13.90732 -6.96811,-4.34158 177.56795,-114.485257 287.97489,-171.88301 l 81.42857,-42.33263 65.71429,-17.13507 c 59.938543,-15.62903 71.834315,-17.76528 135.345515,-24.3055 l 69.631255,-7.17045 62.93243,21.56211 62.93246,21.56211 58.31311,38.68542 c 57.81706,38.3563 58.62806,39.03685 95.32903,79.995029 36.90126,41.181674 37.10794,41.491346 66.74194,99.985166 28.93252,57.109225 30.20395,60.437483 47.62815,124.679055 9.84617,36.30191 17.73554,68.41394 17.53197,71.36008 -0.20372,2.94615 -4.52629,24.68849 -9.60603,48.31632 l -9.23586,42.95971 -39.04877,58.82655 -39.04877,58.82654 -62.45783,52.74897 c -68.0278,57.45314 -64.23434,55.33977 -110.57029,61.59994 l -14.98974,2.02517 26.5522,-20.60625 c 20.31043,-15.76223 38.54552,-34.5916 77.57123,-80.09935 50.60194,-59.00668 51.24574,-59.92857 78.745,-112.7598 15.24926,-29.29668 27.08309,-53.90957 26.29737,-54.69528 -0.78571,-0.78572 -13.89657,22.52474 -29.1352,51.801 -22.86811,43.93391 -32.00763,58.31008 -52.33546,82.32188 -55.80442,65.91775 -83.77251,95.49029 -105.87551,111.94943 -12.66166,9.42857 -23.07226,18.45609 -23.13469,20.06115 -0.0626,1.60505 -32.54274,8.28997 -72.17848,14.8554 l -72.06497,11.93711 -14.3636,-9.38666 c -7.89997,-5.16268 -15.94677,-10.30154 -17.88175,-11.41968 -1.935,-1.11815 -30.15051,8.46443 -62.701167,21.2946 -32.550628,12.83017 -60.5389141,23.61977 -62.1961141,23.97685 -1.6572286,0.35709 -8.7988569,3.21409 -15.8702859,6.34889 -29.511028,13.08231 -40.6706,15.3758 -107.142853,22.01969 -37.71429,3.76954 -69.53572,6.27037 -70.71429,5.55742 -1.17857,-0.71297 -2.14286,-3.71277 -2.14286,-6.66622 0,-3.60335 10.14055,-12.39738 30.824,-26.731 33.03997,-22.89672 46.28583,-37.7956 99.457489,-111.86923 41.461714,-57.76052 45.298543,-65.6758 58.088971,-119.83649 6.2903718,-26.63628 10.8677432,-48.99886 10.1719718,-49.69466 -1.8545715,-1.85457 -3.0123429,2.28989 -14.2419998,50.9814 -11.427286,49.54852 -16.126229,59.00549 -58.915515,118.57143 -51.865027,72.20009 -64.633087,86.51855 -97.204167,109.00749 l -30.39072,20.98348 -81.81728,-4.58371 -81.8173,-4.58369 -6.36344,8.10383 c -16.19486,20.62415 -15.76269,20.41743 -46.36344,22.17503 -27.78326,1.5958 -28.85572,1.42837 -38.87752,-6.06928 z m -107.03441,-93.8036 c -2.42287,-12.46198 -4.65528,-34.8724 -4.96093,-49.80098 -0.76946,-37.58342 6.97543,-161.03265 10.23965,-163.21428 1.58157,-1.05703 1.38148,-2.5832 -0.49032,-3.74006 -1.7392,-1.07488 -3.16218,-6.14508 -3.16218,-11.26714 0,-5.12203 -2.00438,-16.06229 -4.45418,-24.31163 l -4.45417,-14.99886 15.99681,-18.739 c 8.79824,-10.30645 15.38189,-19.35391 14.63032,-20.10548 -0.75156,-0.75157 -5.62214,3.58997 -10.8235,9.64785 -5.20137,6.05786 -16.38279,18.38398 -24.84761,27.39135 l -15.3906,16.37703 3.72001,13.28654 c 2.83748,10.13451 6.04877,14.66054 13.53625,19.07828 l 9.81624,5.79172 -1.83156,37.40186 c -1.00737,20.571 -3.22595,54.66942 -4.93018,75.77428 -3.05178,37.79257 -1.8571,71.56292 3.63827,102.8436 3.2711,18.61974 5.02361,24.39232 6.85065,22.56529 0.72723,-0.72723 -0.6601,-11.5184 -3.08297,-23.98037 z M 186.7645,511.46195 c 98.64577,-58.62469 119.33563,-73.24949 148.58097,-105.02566 32.39623,-35.19974 58.72443,-67.34766 56.76252,-69.30957 -0.81369,-0.81369 -1.89326,-0.94372 -2.39909,-0.28897 -13.80963,17.87657 -48.53477,58.08205 -65.20377,75.49431 -23.2556,24.29254 -56.24932,46.72557 -148.89212,101.23457 -39.21751,23.07472 -51.86845,31.60446 -46.87428,31.60446 0.71751,0 26.82908,-15.16911 58.02577,-33.70914 z M -422.55758,324.31472 c 12.73758,1.31463 16.78803,0.45791 26.33824,-5.57086 6.70859,-4.23497 13.57251,-11.88257 16.924,-18.85628 4.53643,-9.43938 6.7548,-11.39098 11.35247,-9.98732 5.35167,1.63383 5.42066,1.40317 1.08711,-3.63517 -2.54495,-2.95883 -3.99138,-7.30829 -3.21429,-9.66543 1.11381,-3.37851 0.64022,-3.5584 -2.2373,-0.8498 -2.86415,2.696 -5.17748,2.23454 -10.74246,-2.14286 -8.50742,-6.69194 -27.82028,-7.41685 -41.81486,-1.56954 -10.80819,4.51594 -15.38389,14.77192 -16.05726,35.99077 -0.55145,17.37712 0.34747,25.93877 2.04835,19.50932 1.04807,-3.96175 3.83085,-4.5114 16.316,-3.22283 z m -59.11625,-77.00077 c 25.12691,-48.359 43.73096,-105.02943 43.73096,-133.21043 0,-9.62712 -1.07007,-17.503858 -2.37792,-17.503858 -1.30786,0 -1.8157,6.779718 -1.12853,15.065998 1.98523,23.93926 -15.45427,78.57672 -40.96994,128.35766 -5.39513,10.52588 -9.80933,19.84731 -9.80933,20.71428 0,4.5594 3.57012,0.02 10.55476,-13.42365 z m -16.16474,-70.92175 c 7.24856,-14.41665 19.68999,-32.16122 33.18212,-47.32594 11.87201,-13.34377 20.96212,-24.88471 20.20024,-25.6466 -3.50552,-3.505512 -45.68309,49.11974 -56.31379,70.26314 -6.30222,12.53452 -11.45859,23.4614 -11.45859,24.282 0,5.00875 4.16321,-1.23245 14.39002,-21.5726 z m 280.5015,15.54055 c 5.1564,-0.9674 14.38014,-9.07792 27.57114,-24.24349 19.34437,-22.24008 19.93194,-23.37997 24.36232,-47.26403 2.49694,-13.46088 3.64911,-25.935482 2.5604,-27.721368 -6.49226,-10.649514 -36.53378,-44.727172 -40.43783,-45.870772 -2.564,-0.751057 -12.65043,-2.766 -22.41426,-4.477657 l -17.75243,-3.1121 -30.34788,17.703215 c -20.61712,12.026828 -31.21852,19.993057 -33.06309,24.844685 -1.49337,3.927829 -2.34823,18.655967 -1.89969,32.729197 l 0.81552,25.58766 15.28871,5.69603 15.28872,5.696 20.18531,-7.4524 c 11.10192,-4.09883 20.612,-7.02569 21.13354,-6.50414 2.15655,2.15654 -13.70317,49.02417 -18.31328,54.11828 -4.90583,5.42089 -4.67466,5.48994 12.13651,3.62537 9.42569,-1.0454 20.62455,-2.55494 24.88629,-3.35448 z M -40.955157,103.61178 C -48.0823,79.797948 -53.061557,69.88109 -71.5621,42.654148 -93.600328,10.220845 -93.754014,10.07223 -131.3131,-15.118847 l -37.65597,-25.256045 -57.71457,-7.332675 c -31.743,-4.032968 -58.28263,-6.764617 -58.97692,-6.070323 -1.88905,1.889043 9.87429,3.807089 64.52832,10.521523 l 49.66774,6.101855 37.1906,24.734231 37.190572,24.734229 23.141657,34.285714 c 17.611686,26.092743 24.444857,39.064943 28.595286,54.285718 6.794,24.9156 10.064857,34.00534 11.661828,32.40837 0.682686,-0.68272 -2.589057,-14.0396 -7.2706,-29.68197 z"
       id="path4181"
       inkscape:connector-curvature="0" />
    <path
       style="opacity:1;fill:url(#radialGradient4265);fill-opacity:1;fill-rule:nonzero;stroke:#000000;stroke-width:23.3228569;stroke-miterlimit:4;stroke-dasharray:none;stroke-opacity:0"
       d="m -592.22859,133.16535 c -18.87534,-10.39222 -22.922,-14.15417 -33.96261,-31.5731 l -12.53405,-19.775145 1.93847,-25.67844 c 1.68444,-22.313377 3.13976,-27.51208 11.10547,-39.670778 5.65398,-8.6301226 10.8094,-13.5714486 13.45272,-12.8940508 2.35715,0.6040594 9.03769,1.8986437 14.84566,2.8768537 7.7263,1.3013071 13.59292,5.2242181 21.86278,14.6192721 10.47953,11.905377 12.92269,13.150634 33.54088,17.095548 12.23092,2.34016 22.81356,4.830355 23.51696,5.533766 0.70341,0.703409 -6.35006,10.000897 -15.67439,20.661083 -9.32433,10.660189 -21.85203,26.177143 -27.83933,34.482126 -10.39233,14.415205 -10.79752,15.808045 -8.93512,30.714285 1.07299,8.58787 1.53694,15.56757 1.03101,15.51042 -0.50593,-0.0571 -10.56273,-5.41297 -22.34845,-11.90184 z"
       id="path4199"
       inkscape:connector-curvature="0" />
    <path
       style="opacity:1;fill:url(#radialGradient4253);fill-opacity:1;fill-rule:nonzero;stroke:url(#radialGradient4245);stroke-width:23.32299995;stroke-miterlimit:4;stroke-dasharray:none;stroke-opacity:0"
       d="m -246.5143,190.31536 c 0,-0.74622 3.80884,-14.04297 8.46408,-29.54834 4.65525,-15.50537 7.95673,-28.69893 7.33664,-29.31902 -0.62009,-0.62009 -11.31707,2.8021 -23.77107,7.60488 l -22.64364,8.73231 -13.97872,-5.29067 c -13.54664,-5.12714 -14.00257,-5.67534 -14.75041,-17.73562 -0.42444,-6.84473 0.21842,-20.09563 1.42857,-29.446461 l 2.20026,-17.001511 30,-17.842659 c 16.5,-9.813463 31.92858,-17.358471 34.28572,-16.766686 2.35714,0.591786 11.56079,2.516936 20.45255,4.278113 15.34012,3.038392 17.07572,4.300925 33.94049,24.689397 l 17.77364,21.487263 -1.89356,16.221654 c -3.27235,28.03331 -6.7127,35.35501 -26.75246,56.93418 -18.65992,20.09333 -19.72608,20.76705 -35.66352,22.53623 -9.03571,1.00304 -16.42857,1.21316 -16.42857,0.46694 z"
       id="path4201"
       inkscape:connector-curvature="0" />
    <path
       style="opacity:1;fill:url(#radialGradient4440);fill-opacity:1;fill-rule:nonzero;stroke:#000000;stroke-width:23.3228569;stroke-miterlimit:4;stroke-dasharray:none;stroke-opacity:0"
       d="m -539.91264,608.8688 c -5.77341,-4.73123 -6.01155,-6.17216 -3.09007,-18.69771 3.68389,-15.7943 4.98096,-16.11798 30.31086,-7.56394 15.32584,5.17562 18.57579,7.54943 23.46999,17.14286 l 5.68084,11.13537 -10.77235,0.0248 c -5.9248,0.0136 -17.20093,0.71332 -25.05807,1.55483 -11.11558,1.19049 -15.67387,0.39245 -20.5412,-3.59626 z"
       id="path4203"
       inkscape:connector-curvature="0" />
    <path
       style="opacity:1;fill:#ff8080;fill-opacity:1;fill-rule:nonzero;stroke:#000000;stroke-width:23.3228569;stroke-miterlimit:4;stroke-dasharray:none;stroke-opacity:0"
       d="m -515.08573,623.08157 c -16.96866,-1.99387 -16.87042,-6.4783 0.14286,-6.52092 8.56428,-0.0215 18.21664,-0.74951 21.44967,-1.61789 3.60155,-0.96737 8.58124,0.67083 12.85715,4.22967 l 6.97889,5.80855 -15.71428,-0.36219 c -8.64286,-0.19921 -20.21429,-0.89096 -25.71429,-1.53722 z"
       id="path4205"
       inkscape:connector-curvature="0" />
    <path
       style="opacity:1;fill:url(#radialGradient4448);fill-opacity:1;fill-rule:nonzero;stroke:#000000;stroke-width:23.3228569;stroke-miterlimit:4;stroke-dasharray:none;stroke-opacity:0"
       d="m -516.24993,578.12766 -19.73562,-6.47322 18.30705,-3.18791 c 12.07329,-2.10239 19.92234,-5.15199 23.05075,-8.95596 2.60903,-3.17243 6.52425,-5.76805 8.7005,-5.76805 6.7858,0 60.4335,-14.48965 68.69866,-18.55475 7.43452,-3.65656 7.85715,-3.50461 7.85715,2.82491 0,6.13517 -2.30777,7.20036 -27.85715,12.85799 -45.90423,10.16499 -45.2998,9.25873 -14.43497,21.64322 l 20.86355,8.37149 -20,1.78797 c -33.47126,2.99228 -44.88492,2.19957 -65.44992,-4.54569 z"
       id="path4207"
       inkscape:connector-curvature="0" />
    <path
       style="opacity:1;fill:#ff8080;fill-opacity:1;fill-rule:nonzero;stroke:#000000;stroke-width:23.3228569;stroke-miterlimit:4;stroke-dasharray:none;stroke-opacity:0"
       d=""
       id="path4209"
       inkscape:connector-curvature="0" />
    <path
       style="opacity:1;fill:url(#radialGradient4432);fill-opacity:1;fill-rule:nonzero;stroke:#000000;stroke-width:23.3228569;stroke-miterlimit:4;stroke-dasharray:none;stroke-opacity:0"
       d="m 13.4857,615.0292 c 0,-0.86375 2.023375,-5.48323 4.496389,-10.26551 2.473014,-4.78228 3.8966,-9.29485 3.163523,-10.02793 -0.733075,-0.73307 -8.863595,1.84576 -18.0678171,5.73074 -9.2042234,3.88498 -17.0053849,6.7981 -17.3359139,6.47361 -0.33053,-0.3245 0.08113,-3.10527 0.914795,-6.17951 1.152748,-4.25087 16.6467506,-11.49799 64.695627,-30.26053 l 63.179867,-24.67102 17.73623,11.77524 17.73623,11.77525 -11.83089,7.03286 c -6.50699,3.86808 -14.40233,10.30918 -17.54518,14.31356 -13.97283,17.80308 -20.22127,22.50025 -32.213854,24.21626 l -12.213849,1.74768 7.213849,-14.23585 c 3.96762,-7.82972 7.213851,-15.08968 7.213851,-16.13324 0,-4.33239 -20.715482,1.92139 -32.062262,9.67925 C 40.449703,608.38649 13.4857,619.76837 13.4857,615.0292 Z"
       id="path4211"
       inkscape:connector-curvature="0" />
    <path
       style="fill:none;fill-rule:evenodd;stroke:#000000;stroke-width:1px;stroke-linecap:butt;stroke-linejoin:miter;stroke-opacity:1"
       d="m 477.14286,429.50506 c 12.2804,-6.1402 7.16939,-5.71428 14.28571,-5.71428 0.95238,0 2.18371,0.67343 2.85714,0 0.67344,-0.67344 -0.67343,-2.18371 0,-2.85715 0.67344,-0.67343 2.00531,0.42592 2.85715,0 1.20467,-0.60234 1.65246,-2.2548 2.85714,-2.85714 0.75126,-0.37563 9.93451,0 11.42857,0 0.95238,0 1.90476,0 2.85714,0 0.95239,0 2.18371,-0.67343 2.85715,0 3.80952,3.80952 -4.76191,2.85714 2.85714,2.85714"
       id="path4213"
       inkscape:connector-curvature="0" />
    <path
       style="opacity:1;fill:url(#linearGradient4235);fill-opacity:1;fill-rule:nonzero;stroke:url(#linearGradient4237);stroke-width:23.32299995;stroke-miterlimit:4;stroke-dasharray:none;stroke-opacity:0"
       d="m 1491.0423,713.22472 c -36.0777,-56.29589 -41.3156,-62.93986 -96.0903,-121.88483 -83.6567,-90.02612 -88.9446,-94.3939 -142.9296,-118.05929 l -44.6083,-19.55492 -83.8756,-15.71145 C 1064.6692,426.98694 1006.3832,418.47125 928.03739,409.45122 817.59524,396.7359 815.41267,396.59966 722.15026,396.59966 l -94.26166,0 -47.91573,10.29809 c -27.34251,5.87647 -55.16425,10.18147 -64.79776,10.02649 -9.28511,-0.14938 -18.60654,1.15962 -20.71429,2.90889 -2.10774,1.74928 -3.83226,2.44098 -3.83226,1.53712 0,-0.90386 16.29401,-26.45415 36.20892,-56.77841 19.9149,-30.32427 36.33815,-55.37971 36.49611,-55.67876 0.15795,-0.29905 33.68536,2.71292 74.50536,6.69326 67.68171,6.59962 81.89294,7.08999 161.36104,5.56794 l 87.14285,-1.66903 112.52317,24.52921 112.52319,24.52921 76.6254,29.55837 c 42.144,16.2571 79.58,31.08547 83.1911,32.95192 3.6111,1.86645 28.0302,19.39164 54.2646,38.94487 47.1875,35.17015 48.1717,36.12925 91.7948,89.45404 34.1659,41.76425 51.9572,66.82662 79.0053,111.29333 32.6134,53.61615 42.7979,75.78152 42.8957,93.35738 0.02,3.43468 -2.1486,6.65128 -4.9661,7.369 -3.8774,0.98765 -13.5675,-12.09512 -43.1577,-58.26786 z"
       id="path4215"
       inkscape:connector-curvature="0" />
    <path
       style="opacity:1;fill:#000000;fill-opacity:1;fill-rule:nonzero;stroke:#000000;stroke-width:66.637146;stroke-miterlimit:4;stroke-dasharray:none;stroke-opacity:0"
       d="m -438.95163,309.51462 c 0,-5.4682 2.05833,-15.08645 4.57406,-21.37389 3.68686,-9.21436 6.59633,-11.99341 15,-14.3276 16.17027,-4.49142 26.83835,-3.31981 35.68732,3.91932 l 8.11853,6.64157 -5.89595,11.55703 c -9.3498,18.32711 -18.03371,23.52575 -39.29784,23.52575 l -18.18612,0 0,-9.94218 z"
       id="path4267"
       inkscape:connector-curvature="0" />
    <path
       style="opacity:1;fill:#000000;fill-opacity:1;fill-rule:nonzero;stroke:#000000;stroke-width:66.637146;stroke-miterlimit:4;stroke-dasharray:none;stroke-opacity:0"
       d="m -581.51786,302.60486 c -2.98286,-2.98286 -6.32241,-9.51665 -7.42123,-14.51954 -1.60224,-7.29495 -0.6796,-10.49939 4.65938,-16.18247 l 6.65723,-7.0863 3.56603,13.7487 c 4.32868,16.68912 4.68381,29.46298 0.8191,29.46298 -1.57142,0 -5.29766,-2.44052 -8.28051,-5.42337 z"
       id="path4269"
       inkscape:connector-curvature="0" />
    <path
       style="fill:#ffffff;fill-rule:evenodd;stroke:#000000;stroke-width:1px;stroke-linecap:butt;stroke-linejoin:miter;stroke-opacity:1"
       d="m -425,285.93363 9.28571,-7.14285 10,-2.85715 8.57143,1.42857 11.42857,5 5,7.14286 -12.14285,-7.14286 -7.14286,-2.14285 -7.85714,0 -6.42857,3.57143 -3.57143,8.57142 -3.57143,4.28572 L -425,295.93363 Z"
       id="path4273"
       inkscape:connector-curvature="0" />
    <path
       style="fill:#ffffff;fill-rule:evenodd;stroke:#000000;stroke-width:1px;stroke-linecap:butt;stroke-linejoin:miter;stroke-opacity:1"
       d="m -585,278.79078 4.28571,-2.85715 1.42858,5 1.42857,7.14286 1.42857,-12.14286 -2.14286,-4.28571 z"
       id="path4275"
       inkscape:connector-curvature="0" />
    <path
       style="fill:none;fill-rule:evenodd;stroke:#000000;stroke-width:1px;stroke-linecap:butt;stroke-linejoin:miter;stroke-opacity:1"
       d="m -425.71429,478.07649 c 144.51075,41.52055 156.33501,67.46442 228.57143,120"
       id="path4277"
       inkscape:connector-curvature="0"
       sodipodi:nodetypes="cc" />
    <path
       style="fill:none;fill-rule:evenodd;stroke:#000000;stroke-width:1px;stroke-linecap:butt;stroke-linejoin:miter;stroke-opacity:1"
       d="m -380,443.79078 c 98.01521,17.29811 169.40291,45.82891 254.28571,114.28571"
       id="path4279"
       inkscape:connector-curvature="0"
       sodipodi:nodetypes="cc" />
    <path
       style="fill:none;fill-rule:evenodd;stroke:#000000;stroke-width:1px;stroke-linecap:butt;stroke-linejoin:miter;stroke-opacity:1"
       d="m -311.42857,412.3622 c 128.23808,17.40738 154.48829,32.34544 234.285713,102.85715"
       id="path4281"
       inkscape:connector-curvature="0"
       sodipodi:nodetypes="cc" />
    <path
       style="fill:none;fill-rule:evenodd;stroke:#000000;stroke-width:1px;stroke-linecap:butt;stroke-linejoin:miter;stroke-opacity:1"
       d="m -364.28572,398.79078 c 90.14691,-13.91522 181.72367,-21.49108 270.000006,7.85714"
       id="path4283"
       inkscape:connector-curvature="0"
       sodipodi:nodetypes="cc" />
    <path
       style="fill:none;fill-rule:evenodd;stroke:#000000;stroke-width:1px;stroke-linecap:butt;stroke-linejoin:miter;stroke-opacity:1"
       d="M -585.71429,380.93363 C -708.45194,345.1591 -826.07004,343.57403 -948.57143,363.79078"
       id="path4285"
       inkscape:connector-curvature="0"
       sodipodi:nodetypes="cc" />
    <path
       style="fill:none;fill-rule:evenodd;stroke:#000000;stroke-width:1px;stroke-linecap:butt;stroke-linejoin:miter;stroke-opacity:1"
       d="m -600,406.64792 c -179.18831,10.19878 -192.32842,28.40874 -285.71429,57.14286"
       id="path4287"
       inkscape:connector-curvature="0"
       sodipodi:nodetypes="cc" />
    <path
       style="fill:none;fill-rule:evenodd;stroke:#000000;stroke-width:1px;stroke-linecap:butt;stroke-linejoin:miter;stroke-opacity:1"
       d="m -582.85714,455.21935 c -129.19809,19.85736 -184.53031,37.40703 -268.57143,82.85714"
       id="path4289"
       inkscape:connector-curvature="0"
       sodipodi:nodetypes="cc" />
    <path
       style="fill:none;fill-rule:evenodd;stroke:#000000;stroke-width:1px;stroke-linecap:butt;stroke-linejoin:miter;stroke-opacity:1"
       d="m -600,415.21935 c -84.91724,12.20106 -159.04624,31.80704 -236.42857,65.71428"
       id="path4291"
       inkscape:connector-curvature="0"
       sodipodi:nodetypes="cc" />
    <path
       style="fill:none;fill-rule:evenodd;stroke:#000000;stroke-width:1px;stroke-linecap:butt;stroke-linejoin:miter;stroke-opacity:1"
       d="m -605.71429,395.21935 c -97.56025,-17.60761 -185.26761,-18.53405 -280,2.85714"
       id="path4293"
       inkscape:connector-curvature="0"
       sodipodi:nodetypes="cc" />
    <path
       style="fill:none;fill-opacity:1;fill-rule:evenodd;stroke:#000000;stroke-width:1px;stroke-linecap:butt;stroke-linejoin:miter;stroke-opacity:1"
       d="m -424.36372,478.11459 c 73.06263,20.20511 112.63836,36.62179 140.58364,53.17136 33.49299,19.83499 50.27944,39.86087 87.98779,66.82864"
       id="path4277-6"
       inkscape:connector-curvature="0"
       sodipodi:nodetypes="csc" />
    <path
       style="opacity:1;fill:none;fill-opacity:1;fill-rule:nonzero;stroke:#000000;stroke-width:2.08241081;stroke-miterlimit:4;stroke-dasharray:none;stroke-opacity:0"
       d="m -271.05212,541.81512 c -19.56341,-13.1569 -39.39885,-23.60147 -64.33252,-33.87502 -6.35814,-2.61978 -16.82801,-6.67556 -21.95324,-8.50417 -0.33887,-0.1209 -0.57382,-0.24597 -0.52212,-0.27793 0.0914,-0.0565 1.66661,0.47055 5.51324,1.84459 21.24468,7.58871 38.44172,14.85791 53.66071,22.6824 10.54406,5.42098 19.82197,10.94468 29.30804,17.44885 l 1.62946,1.11725 0,0.87964 c 0,0.48381 -0.01,0.87885 -0.0223,0.87787 -0.0123,-9.7e-4 -1.48884,-0.98804 -3.28125,-2.19348 z"
       id="path4310"
       inkscape:connector-curvature="0" />
    <path
       style="opacity:1;fill:#ffffff;fill-opacity:1;fill-rule:nonzero;stroke:#000000;stroke-width:2.08241081;stroke-miterlimit:4;stroke-dasharray:none;stroke-opacity:0"
       d="m -271.05212,541.81512 c -19.56341,-13.1569 -39.39885,-23.60147 -64.33252,-33.87502 -6.35814,-2.61978 -16.82801,-6.67556 -21.95324,-8.50417 -0.33887,-0.1209 -0.57382,-0.24597 -0.52212,-0.27793 0.0914,-0.0565 1.66661,0.47055 5.51324,1.84459 21.24468,7.58871 38.44172,14.85791 53.66071,22.6824 10.54406,5.42098 19.82197,10.94468 29.30804,17.44885 l 1.62946,1.11725 0,0.87964 c 0,0.48381 -0.01,0.87885 -0.0223,0.87787 -0.0123,-9.7e-4 -1.48884,-0.98804 -3.28125,-2.19348 z"
       id="path4312"
       inkscape:connector-curvature="0" />
    <path
       style="opacity:1;fill:#ffffff;fill-opacity:1;fill-rule:nonzero;stroke:#000000;stroke-width:11.77989388;stroke-miterlimit:4;stroke-dasharray:none;stroke-opacity:0"
       d="m -249.4613,557.26122 c -0.83338,-0.69884 -5.15178,-3.90512 -9.59645,-7.12509 -4.44467,-3.21997 -8.16172,-5.92144 -8.2601,-6.00327 -0.0984,-0.0818 -0.0874,-0.4233 0.0245,-0.75882 0.19232,-0.57696 13.80174,9.33899 18.33716,13.36062 2.28116,2.02274 1.83449,2.48841 -0.50507,0.52656 z"
       id="path4359"
       inkscape:connector-curvature="0" />
    <path
       style="fill:none;fill-rule:evenodd;stroke:#000000;stroke-width:1px;stroke-linecap:butt;stroke-linejoin:miter;stroke-opacity:1"
       d="m -383.8351,439.68705 c 98.01521,17.29811 169.40292,45.82891 254.28572,114.28571"
       id="path4279-5"
       inkscape:connector-curvature="0"
       sodipodi:nodetypes="cc" />
    <path
       style="fill:none;fill-rule:evenodd;stroke:#000000;stroke-width:1px;stroke-linecap:butt;stroke-linejoin:miter;stroke-opacity:1"
       d="m -376.7869,445.7656 c 0,-0.67343 0,-1.34687 0,-2.0203 0,-0.23815 0.0229,-2.50249 0,-2.52539 -0.10326,-0.10325 -1.31497,0.10013 -1.51523,0 -0.21296,-0.10647 -0.29212,-0.39859 -0.50507,-0.50507 -0.30117,-0.15059 -0.77206,0.23809 -1.01016,0 -0.11904,-0.11905 0.11905,-0.38603 0,-0.50508 -0.23809,-0.23809 -1.01015,0.33672 -1.01015,0 0,-0.16836 0.33672,0 0.50508,0"
       id="path4376"
       inkscape:connector-curvature="0" />
    <path
       style="opacity:1;fill:#ffffff;fill-opacity:1;fill-rule:nonzero;stroke:#000000;stroke-width:11.77989388;stroke-miterlimit:4;stroke-dasharray:none;stroke-opacity:0"
       d="m -342.1428,450.66402 c -5.13915,-1.16961 -14.85556,-3.20292 -21.59201,-4.51849 -10.68799,-2.08725 -12.2481,-2.51027 -12.2481,-3.32096 0,-0.51097 0.18653,-0.92904 0.4145,-0.92904 1.3547,0 25.12709,5.02415 36.20353,7.6514 6.87797,1.6314 7.50708,1.87899 6.92377,2.72483 -0.23411,0.33948 -3.58754,-0.21624 -9.70169,-1.60774 z"
       id="path4378"
       inkscape:connector-curvature="0" />
    <path
       style="opacity:1;fill:#ffffff;fill-opacity:1;fill-rule:nonzero;stroke:#000000;stroke-width:11.77989388;stroke-miterlimit:4;stroke-dasharray:none;stroke-opacity:0"
       d="m -270.16943,471.89019 c -9.3137,-3.78272 -30.56602,-10.54505 -47.98225,-15.26759 -8.40891,-2.28014 -10.33436,-3.10964 -8.18078,-3.52438 3.26132,-0.62808 59.9511,17.97117 59.9511,19.66925 0,0.60638 -0.31424,0.5336 -3.78807,-0.87728 z"
       id="path4380"
       inkscape:connector-curvature="0" />
    <path
       style="opacity:1;fill:#ffffff;fill-opacity:1;fill-rule:nonzero;stroke:#000000;stroke-width:11.77989388;stroke-miterlimit:4;stroke-dasharray:none;stroke-opacity:0"
       d="m -253.75445,477.25697 c -17.22849,-7.64311 -40.90967,-16.05618 -61.11423,-21.71169 -10.7907,-3.02045 -12.83105,-3.68989 -9.97988,-3.27443 6.61201,0.96348 40.12512,11.72695 56.19436,18.04806 9.73949,3.83119 25.00127,10.40716 25.00127,10.77249 0,0.524 -1.91939,-0.20458 -10.10152,-3.83443 z"
       id="path4382"
       inkscape:connector-curvature="0" />
    <path
       style="fill:none;fill-rule:evenodd;stroke:#000000;stroke-width:1px;stroke-linecap:butt;stroke-linejoin:miter;stroke-opacity:1"
       d="m -314.25452,409.04463 c 128.23808,17.40738 154.48829,32.34544 234.285718,102.85715"
       id="path4281-6"
       inkscape:connector-curvature="0"
       sodipodi:nodetypes="cc" />
    <path
       style="fill:none;fill-rule:evenodd;stroke:#000000;stroke-width:1px;stroke-linecap:butt;stroke-linejoin:miter;stroke-opacity:1"
       d="m -300.52038,412.93564 c -1.65809,-2.21078 -0.91999,-1.42506 -2.02031,-2.52538 -0.16836,-0.16836 -0.29211,-0.3986 -0.50507,-0.50507 -0.15059,-0.0753 -0.38603,0.11904 -0.50508,0 -0.11905,-0.11905 0,-0.33672 0,-0.50508"
       id="path4399"
       inkscape:connector-curvature="0" />
    <path
       style="opacity:1;fill:#ffffff;fill-opacity:1;fill-rule:nonzero;stroke:#000000;stroke-width:11.77989388;stroke-miterlimit:4;stroke-dasharray:none;stroke-opacity:0"
       d="m -197.18591,434.75503 c -3.07185,-1.24188 -18.40844,-5.64955 -26.86206,-7.72003 -10.33758,-2.5319 -24.98294,-5.56069 -36.77755,-7.6059 -9.40245,-1.6304 -9.43216,-1.63847 -8.70582,-2.36482 0.62092,-0.62092 4.10278,-0.0794 20.07004,3.12159 12.21999,2.44974 21.50083,4.58575 29.7995,6.85843 7.22941,1.97985 25.00127,7.71159 25.00127,8.06335 0,0.35922 -1.16804,0.19612 -2.52538,-0.35262 z"
       id="path4401"
       inkscape:connector-curvature="0" />
    <path
       style="opacity:1;fill:#ffffff;fill-opacity:1;fill-rule:nonzero;stroke:#000000;stroke-width:11.77989388;stroke-miterlimit:4;stroke-dasharray:none;stroke-opacity:0"
       d="m -287.52111,415.09932 c -8.15585,-1.22787 -12.44407,-2.08353 -12.72572,-2.53924 -0.23363,-0.37804 -0.36668,-0.74545 -0.29565,-0.81647 0.17313,-0.17314 26.1882,3.82789 26.42427,4.06396 0.10181,0.10182 -0.10448,0.40079 -0.45843,0.6644 -0.42033,0.31302 -4.91039,-0.16311 -12.94447,-1.37265 z"
       id="path4403"
       inkscape:connector-curvature="0" />
    <path
       style="opacity:1;fill:#ffffff;fill-opacity:1;fill-rule:nonzero;stroke:#000000;stroke-width:11.77989388;stroke-miterlimit:4;stroke-dasharray:none;stroke-opacity:0"
       d="m -189.79774,437.61337 c -3.0202,-1.18137 -5.293,-2.27049 -5.05067,-2.42025 0.39792,-0.24593 11.07123,3.78034 11.70716,4.41627 0.66095,0.66095 -1.58763,-0.0133 -6.65649,-1.99602 z"
       id="path4405"
       inkscape:connector-curvature="0" />
    <path
       style="fill:none;fill-rule:evenodd;stroke:#000000;stroke-width:1px;stroke-linecap:butt;stroke-linejoin:miter;stroke-opacity:1"
       d="m -355.25399,396.48018 c 90.14691,-13.91522 181.72367,-21.49108 270.000004,7.85714"
       id="path4283-1"
       inkscape:connector-curvature="0"
       sodipodi:nodetypes="cc" />
    <path
       style="fill:none;fill-rule:evenodd;stroke:#000000;stroke-width:1px;stroke-linecap:butt;stroke-linejoin:miter;stroke-opacity:1"
       d="m -115.15739,399.29858 c 3.19882,0 6.39763,0 9.59645,0 0.3513,0 2.34273,0.0913 2.52538,0 1.24825,-0.62412 -0.17434,-0.50507 1.01015,-0.50507"
       id="path4422"
       inkscape:connector-curvature="0" />
    <path
       style="opacity:1;fill:#ffffff;fill-opacity:1;fill-rule:nonzero;stroke:#000000;stroke-width:11.77989388;stroke-miterlimit:4;stroke-dasharray:none;stroke-opacity:0"
       d="m -120.16178,398.42006 c -5.91823,-1.60343 -21.70073,-4.87536 -31.31473,-6.49198 -22.94308,-3.85796 -49.94255,-6.02103 -76.77159,-6.1506 -8.79293,-0.0425 -11.06427,-0.17427 -9.34391,-0.54225 3.19454,-0.68331 40.83352,-0.0993 53.41861,0.8288 12.49236,0.92129 25.96927,2.42087 36.7375,4.0878 9.4029,1.45558 28.2875,5.2498 34.85027,7.00198 l 4.54568,1.21365 -3.6618,0.0457 c -2.07398,0.0259 -3.6618,0.26477 -3.6618,0.55084 0,0.66351 -0.58693,0.59697 -4.79823,-0.54399 z"
       id="path4424"
       inkscape:connector-curvature="0" />
  </g>
</svg>
