<?xml version="1.0" encoding="UTF-8" standalone="no"?>
<!-- Created with Inkscape (http://www.inkscape.org/) -->
<svg
    xmlns:inkscape="http://www.inkscape.org/namespaces/inkscape"
    xmlns:rdf="http://www.w3.org/1999/02/22-rdf-syntax-ns#"
    xmlns="http://www.w3.org/2000/svg"
    xmlns:cc="http://creativecommons.org/ns#"
    xmlns:dc="http://purl.org/dc/elements/1.1/"
    xmlns:sodipodi="http://sodipodi.sourceforge.net/DTD/sodipodi-0.dtd"
    xmlns:svg="http://www.w3.org/2000/svg"
    xmlns:ns1="http://sozi.baierouge.fr"
    xmlns:xlink="http://www.w3.org/1999/xlink"
    id="svg7256"
    sodipodi:docname="No celular.svg"
    viewBox="0 0 990 765"
    version="1.1"
    inkscape:version="0.47 r22583"
  >
  <sodipodi:namedview
      id="base"
      bordercolor="#666666"
      inkscape:pageshadow="2"
      inkscape:guide-bbox="true"
      pagecolor="#ffffff"
      inkscape:window-height="934"
      inkscape:window-maximized="1"
      inkscape:zoom="0.70710678"
      inkscape:window-x="-8"
      showgrid="false"
      borderopacity="1.0"
      inkscape:current-layer="layer1"
      inkscape:cx="428.91077"
      inkscape:cy="445.5525"
      showguides="true"
      inkscape:window-y="22"
      inkscape:window-width="1280"
      inkscape:pageopacity="0.0"
      inkscape:document-units="px"
  />
  <g
      id="layer1"
      inkscape:label="Layer 1"
      inkscape:groupmode="layer"
      transform="translate(0 -287.36)"
    >
    <g
        id="g7937"
      >
      <path
          id="path7909"
          sodipodi:rx="230.51682"
          sodipodi:ry="230.51682"
          style="stroke:#fb0000;stroke-width:21.094;fill:none"
          sodipodi:type="arc"
          d="m304.06 25.366a230.52 230.52 0 1 1 -461.03 0 230.52 230.52 0 1 1 461.03 0z"
          transform="matrix(1.5644 0 0 1.5644 382.76 630.84)"
          sodipodi:cy="25.366306"
          sodipodi:cx="73.539108"
      />
      <g
          id="g7913"
        >
        <g
            id="g7887"
            transform="matrix(.92959 .63993 -.63993 .92959 473.34 -220.74)"
          >
          <rect
              id="rect7266"
              style="fill-rule:evenodd;fill:#000000"
              transform="translate(0 287.36)"
              rx="111.72"
              ry="43.841"
              height="429.92"
              width="223.45"
              y="195.07"
              x="322.44"
          />
          <rect
              id="rect7778"
              style="fill-rule:evenodd;fill:#ffffff"
              rx="0"
              ry="0"
              height="214.96"
              width="154.15"
              y="536.17"
              x="356.38"
          />
          <g
              id="g7817"
            >
            <path
                id="path7782"
                sodipodi:rx="27.577164"
                sodipodi:ry="38.183765"
                style="fill-rule:evenodd;fill:#ffffff"
                sodipodi:type="arc"
                d="m137.18 190.83c0 21.088-12.347 38.184-27.577 38.184s-27.577-17.095-27.577-38.184c0-21.088 12.347-38.184 27.577-38.184s27.577 17.095 27.577 38.184z"
                transform="matrix(0 .51282 -.48148 0 465.23 726.75)"
                sodipodi:cy="190.8293"
                sodipodi:cx="109.60155"
            />
            <path
                id="path7782-4"
                sodipodi:rx="27.577164"
                sodipodi:ry="38.183765"
                style="fill-rule:evenodd;fill:#ffffff"
                sodipodi:type="arc"
                d="m137.18 190.83c0 21.088-12.347 38.184-27.577 38.184s-27.577-17.095-27.577-38.184c0-21.088 12.347-38.184 27.577-38.184s27.577 17.095 27.577 38.184z"
                transform="matrix(0 .51282 -.48148 0 585.44 727.46)"
                sodipodi:cy="190.8293"
                sodipodi:cx="109.60155"
            />
            <path
                id="path7782-3"
                sodipodi:rx="27.577164"
                sodipodi:ry="38.183765"
                style="fill-rule:evenodd;fill:#ffffff"
                sodipodi:type="arc"
                d="m137.18 190.83c0 21.088-12.347 38.184-27.577 38.184s-27.577-17.095-27.577-38.184c0-21.088 12.347-38.184 27.577-38.184s27.577 17.095 27.577 38.184z"
                transform="matrix(0 .51282 -.48148 0 526.04 727.46)"
                sodipodi:cy="190.8293"
                sodipodi:cx="109.60155"
            />
          </g
          >
          <g
              id="g7817-2"
              transform="translate(.000004938 32.88)"
            >
            <path
                id="path7782-2"
                sodipodi:rx="27.577164"
                sodipodi:ry="38.183765"
                style="fill-rule:evenodd;fill:#ffffff"
                sodipodi:type="arc"
                d="m137.18 190.83c0 21.088-12.347 38.184-27.577 38.184s-27.577-17.095-27.577-38.184c0-21.088 12.347-38.184 27.577-38.184s27.577 17.095 27.577 38.184z"
                transform="matrix(0 .51282 -.48148 0 465.23 726.75)"
                sodipodi:cy="190.8293"
                sodipodi:cx="109.60155"
            />
            <path
                id="path7782-4-1"
                sodipodi:rx="27.577164"
                sodipodi:ry="38.183765"
                style="fill-rule:evenodd;fill:#ffffff"
                sodipodi:type="arc"
                d="m137.18 190.83c0 21.088-12.347 38.184-27.577 38.184s-27.577-17.095-27.577-38.184c0-21.088 12.347-38.184 27.577-38.184s27.577 17.095 27.577 38.184z"
                transform="matrix(0 .51282 -.48148 0 585.44 727.46)"
                sodipodi:cy="190.8293"
                sodipodi:cx="109.60155"
            />
            <path
                id="path7782-3-6"
                sodipodi:rx="27.577164"
                sodipodi:ry="38.183765"
                style="fill-rule:evenodd;fill:#ffffff"
                sodipodi:type="arc"
                d="m137.18 190.83c0 21.088-12.347 38.184-27.577 38.184s-27.577-17.095-27.577-38.184c0-21.088 12.347-38.184 27.577-38.184s27.577 17.095 27.577 38.184z"
                transform="matrix(0 .51282 -.48148 0 526.04 727.46)"
                sodipodi:cy="190.8293"
                sodipodi:cx="109.60155"
            />
          </g
          >
          <g
              id="g7817-5"
              transform="translate(-.70710 63.993)"
            >
            <path
                id="path7782-7"
                sodipodi:rx="27.577164"
                sodipodi:ry="38.183765"
                style="fill-rule:evenodd;fill:#ffffff"
                sodipodi:type="arc"
                d="m137.18 190.83c0 21.088-12.347 38.184-27.577 38.184s-27.577-17.095-27.577-38.184c0-21.088 12.347-38.184 27.577-38.184s27.577 17.095 27.577 38.184z"
                transform="matrix(0 .51282 -.48148 0 465.23 726.75)"
                sodipodi:cy="190.8293"
                sodipodi:cx="109.60155"
            />
            <path
                id="path7782-4-6"
                sodipodi:rx="27.577164"
                sodipodi:ry="38.183765"
                style="fill-rule:evenodd;fill:#ffffff"
                sodipodi:type="arc"
                d="m137.18 190.83c0 21.088-12.347 38.184-27.577 38.184s-27.577-17.095-27.577-38.184c0-21.088 12.347-38.184 27.577-38.184s27.577 17.095 27.577 38.184z"
                transform="matrix(0 .51282 -.48148 0 585.44 727.46)"
                sodipodi:cy="190.8293"
                sodipodi:cx="109.60155"
            />
            <path
                id="path7782-3-1"
                sodipodi:rx="27.577164"
                sodipodi:ry="38.183765"
                style="fill-rule:evenodd;fill:#ffffff"
                sodipodi:type="arc"
                d="m137.18 190.83c0 21.088-12.347 38.184-27.577 38.184s-27.577-17.095-27.577-38.184c0-21.088 12.347-38.184 27.577-38.184s27.577 17.095 27.577 38.184z"
                transform="matrix(0 .51282 -.48148 0 526.04 727.46)"
                sodipodi:cy="190.8293"
                sodipodi:cx="109.60155"
            />
          </g
          >
          <g
              id="g7817-27"
              transform="translate(.000002256 96.52)"
            >
            <path
                id="path7782-9"
                sodipodi:rx="27.577164"
                sodipodi:ry="38.183765"
                style="fill-rule:evenodd;fill:#ffffff"
                sodipodi:type="arc"
                d="m137.18 190.83c0 21.088-12.347 38.184-27.577 38.184s-27.577-17.095-27.577-38.184c0-21.088 12.347-38.184 27.577-38.184s27.577 17.095 27.577 38.184z"
                transform="matrix(0 .51282 -.48148 0 465.23 726.75)"
                sodipodi:cy="190.8293"
                sodipodi:cx="109.60155"
            />
            <path
                id="path7782-4-5"
                sodipodi:rx="27.577164"
                sodipodi:ry="38.183765"
                style="fill-rule:evenodd;fill:#ffffff"
                sodipodi:type="arc"
                d="m137.18 190.83c0 21.088-12.347 38.184-27.577 38.184s-27.577-17.095-27.577-38.184c0-21.088 12.347-38.184 27.577-38.184s27.577 17.095 27.577 38.184z"
                transform="matrix(0 .51282 -.48148 0 585.44 727.46)"
                sodipodi:cy="190.8293"
                sodipodi:cx="109.60155"
            />
            <path
                id="path7782-3-4"
                sodipodi:rx="27.577164"
                sodipodi:ry="38.183765"
                style="fill-rule:evenodd;fill:#ffffff"
                sodipodi:type="arc"
                d="m137.18 190.83c0 21.088-12.347 38.184-27.577 38.184s-27.577-17.095-27.577-38.184c0-21.088 12.347-38.184 27.577-38.184s27.577 17.095 27.577 38.184z"
                transform="matrix(0 .51282 -.48148 0 526.04 727.46)"
                sodipodi:cy="190.8293"
                sodipodi:cx="109.60155"
            />
          </g
          >
          <path
              id="path7883"
              style="stroke:#000000;stroke-width:3.8102;fill:none"
              d="m537.4 369.3v156.98"
          />
          <path
              id="path7885"
              sodipodi:rx="42.426407"
              sodipodi:ry="26.870058"
              style="fill-rule:evenodd;fill:#000000"
              sodipodi:type="arc"
              d="m261.63 124.36c0 14.84-18.995 26.87-42.426 26.87s-42.426-12.03-42.426-26.87 18.995-26.87 42.426-26.87 42.426 12.03 42.426 26.87z"
              transform="matrix(.3 0 0 .31579 472.23 324.37)"
              sodipodi:cy="124.36126"
              sodipodi:cx="219.20309"
          />
        </g
        >
        <path
            id="path7911"
            style="stroke:#ff0000;stroke-width:33;fill:none"
            d="m258.26 404.89l477.67 524.2"
        />
      </g
      >
    </g
    >
  </g
  >
  <metadata
    >
    <rdf:RDF
      >
      <cc:Work
        >
        <dc:format
          >image/svg+xml</dc:format
        >
        <dc:type
            rdf:resource="http://purl.org/dc/dcmitype/StillImage"
        />
        <cc:license
            rdf:resource="http://creativecommons.org/licenses/publicdomain/"
        />
        <dc:publisher
          >
          <cc:Agent
              rdf:about="http://openclipart.org/"
            >
            <dc:title
              >Openclipart</dc:title
            >
          </cc:Agent
          >
        </dc:publisher
        >
        <dc:title
          >No cellphone.</dc:title
        >
        <dc:date
          >2010-07-04T23:13:28</dc:date
        >
        <dc:description
          >No cellphone allowed. Prohibido el uso de telefono celular</dc:description
        >
        <dc:source
          >https://openclipart.org/detail/70225/no-cellphone.-by-ehecatl1138</dc:source
        >
        <dc:creator
          >
          <cc:Agent
            >
            <dc:title
              >Ehecatl1138</dc:title
            >
          </cc:Agent
          >
        </dc:creator
        >
        <dc:subject
          >
          <rdf:Bag
            >
            <rdf:li
              >cellphone</rdf:li
            >
            <rdf:li
              >forbiden telefono celular</rdf:li
            >
            <rdf:li
              >mobilephone</rdf:li
            >
            <rdf:li
              >precauciÃ³n</rdf:li
            >
            <rdf:li
              >prohibido</rdf:li
            >
            <rdf:li
              >seÃ±al</rdf:li
            >
            <rdf:li
              >sign</rdf:li
            >
            <rdf:li
              >telefono movil</rdf:li
            >
            <rdf:li
              >warning</rdf:li
            >
          </rdf:Bag
          >
        </dc:subject
        >
      </cc:Work
      >
      <cc:License
          rdf:about="http://creativecommons.org/licenses/publicdomain/"
        >
        <cc:permits
            rdf:resource="http://creativecommons.org/ns#Reproduction"
        />
        <cc:permits
            rdf:resource="http://creativecommons.org/ns#Distribution"
        />
        <cc:permits
            rdf:resource="http://creativecommons.org/ns#DerivativeWorks"
        />
      </cc:License
      >
    </rdf:RDF
    >
  </metadata
  >
</svg
>
