<?xml version="1.0" encoding="utf-8"?>
<!-- Generator: Adobe Illustrator 19.1.0, SVG Export Plug-In . SVG Version: 6.00 Build 0)  -->
<svg version="1.1" id="Layer_1" xmlns="http://www.w3.org/2000/svg" xmlns:xlink="http://www.w3.org/1999/xlink" x="0px" y="0px"
	 viewBox="-354 208 161.6 149" style="enable-background:new -354 208 161.6 149;" xml:space="preserve">
<style type="text/css">
	.st0{fill:#FFFFFF;}
</style>
<ellipse class="st0" cx="-264.7" cy="322.1" rx="15.6" ry="13.1"/>
<path class="st0" d="M-201.1,255.3c0.1-0.7,0.2-0.8,0.2-1.6c0-4.3-2.4-7.3-5.4-7.3h-1.1v-12.1c0-1.1-0.7-1.7-1.4-2.5
	c-0.6-0.7-1.7-0.7-2.7-0.7h-16.4c-1.7-3.1-5.1-6.1-9.1-6.1h-55.4c-4,0-7.4,3.1-9.1,6.1h-16.4c-1.5,0-2.7,0.7-3.1,2.2
	c-4.7-0.4-20.4-1.1-27.6,9.4c-4.3,6.3-4.7,15.2-1.1,26.6c3.3,10.4,13.8,17.8,24,25.1c11.7,8.3,22.8,16.2,23.6,27.7
	c-1.4,3.3-2.1,6.6-2.1,9.9c0,15.8,17.7,22.5,39.5,22.5s39.5-6.7,39.5-22.5c0-14-14-30.5-32.5-34v-13.3c0,0,0.1,0.4,0.1,0.4
	c2.4-1.2,4.7-4.9,6.5-4.9h15.5c0.9,0,1.6-0.5,1.6-1.5c0-1-0.7-1.5-1.6-1.5h-16.2c-0.5,0-0.9-0.5-1.2,0c-0.1,0.1-0.3-0.1-0.4,0
	c-1.2,1.7-2.7,2.8-4.2,3.8c0.1-0.3,0.1-0.6,0.1-0.9c0-1.4-1.2-2.7-3-3.5c0.2-1.8,0.6-5.7-0.1-5.7c-1.1,0-0.9-0.5-0.9-1.1
	c1.8-1,3.2-4.8,3.7-4.8h11.4c0.1,0,0.1,0,0.2,0c0,0,0.1,0,0.1,0h0.3c0.3,0,0.7-0.5,1-0.6c9.6-1.9,15.8-13.2,14.3-23.8
	c1.1-0.7,2.1-0.1,2.7-3.2h12.5v9.2h-2.3c-3,0-5.4,2.9-5.4,7.3c0,0.8,0.1,1.2,0.2,1.9c-1.9,0.4-3.2,1.4-3.2,3c0,2,2,3.2,4.4,3.2h19.4
	c2.4,0,4.4-1.4,4.4-3.3C-197.9,256.9-199.3,255.7-201.1,255.3z M-299.7,318.1c-2.7-11-13.8-18.7-24.4-26.3c-9.8-7-20.1-14.2-23-23.5
	c-3.2-10.3-3.2-18.3,0.5-23.7c6.3-9.2,19.9-8.8,25.2-8.5v13.1c0,0.1,0.3,0.4,0.3,0.4h-2.1c-3.1,0-5.5,2.4-5.5,5.6
	c0,0.3,0,0.6,0.1,0.9c-1.9,0.3-3.2,1.3-3.2,2.4c0,0.1,0.1,0.2,0.1,0.3c0,0.1-0.1,0.2-0.1,0.3c0,1.2,1.4,2.1,3.2,2.5
	c-0.1,0.3-0.1,0.5-0.1,0.9c0,3.2,2.5,5.6,5.5,5.6h1.9c0,0,0,1.2,0,1.7c0,8.7,6.2,13.7,11.5,15.1l0,0.2c-0.4,1.5,0.4,3,1.6,3.5
	c0.5,0.1,0.9,0.1,1.3,0l-0.1,0.5c-0.5,2,0.5,4.1,2.2,4.6c1.7,0.6,3.5-0.6,4-2.6l5-19.9c0.5-2-0.5-4.1-2.2-4.6
	c-1.7-0.6-3.5,0.6-4,2.6l0,0.1c-0.3-0.4-0.6-0.7-1.1-0.9c-1.2-0.4-2.5,0.4-2.9,1.7c-0.4-0.1-0.7-0.2-1.2-0.2
	c-1.7-0.1-2.9-0.8-3.9-1.6c2.9-0.2,5.1-2.7,5.1-5.7c0-0.3,0-0.7-0.1-1c1.9-0.3,3.2-1.3,3.2-2.5c0-0.1-0.1-0.2-0.1-0.3
	c0-0.1,0.1-0.2,0.1-0.3c0-1.2-1.4-2.1-3.2-2.5c0.1-0.3,0.1-0.5,0.1-0.9c0-3.2-2.5-5.6-5.5-5.6h-2.6c0,0,0.7-0.4,0.7-0.4v-11.8h11.9
	c0.7,3.1,1.6,2.2,2.7,3c-1.5,10.6,4.7,21.9,14.3,23.8c0.3,0.1,0.6,0.8,1,0.8h0.3c0,0,0.1,0,0.1,0c0.1,0,0.1,0,0.2,0h11.4
	c0.5,0,1.9,3.8,3.7,4.8c0.1,0.6,0.3,1.3-0.9,1.3c-0.7,0-0.3,3.7-0.1,5.5c-1.8,0.8-3,2-3,3.4c0,0.3,0.1,0.5,0.1,0.7
	c-1.5-1-2.9-2.3-4.1-3.9c-0.2-0.3-0.5,0.2-0.8,0c-0.3-0.2-0.6,0.4-0.9,0.4h-16.2c-0.9,0-1.6,0.5-1.6,1.5c0,1,0.7,1.5,1.6,1.5h15.7
	c1.8,0,4.3,3.7,6.7,4.9c0,0,0.4-0.4,0.4-0.3V298C-284.3,300.4-294.2,308.6-299.7,318.1z M-241.6,322.1c0,10.7-10.3,19.4-23,19.4
	c-12.7,0-23-8.7-23-19.4c0-10.7,10.3-19.4,23-19.4C-252,302.7-241.6,311.4-241.6,322.1z M-246.7,259.1c0,0-0.1-0.3-0.1-0.3H-258
	c-0.9-3.1-3.5-5.7-6.7-5.7c-3.2,0-5.8,2.6-6.7,5.7h-11.2c0,0-0.1,0.3-0.1,0.3c-7.8-0.8-13-8.3-12.2-16.6c0.8,0.2,1.6,1,2.5,1h55.4
	c0.9,0,1.7-0.8,2.5-1C-233.7,250.8-238.9,258.3-246.7,259.1z"/>
</svg>
