<?xml version="1.0" encoding="UTF-8" standalone="no"?>
<svg id="svg4651" xmlns:rdf="http://www.w3.org/1999/02/22-rdf-syntax-ns#" xmlns="http://www.w3.org/2000/svg" height="3142" viewBox="0 0 3142 3142" width="3142" version="1.1" xmlns:cc="http://creativecommons.org/ns#" xmlns:dc="http://purl.org/dc/elements/1.1/">
<path id="path4661" d="m1568.5 3125.1c-8.8849-3.7674-19.898-29.007-29.49-67.588-3.9339-15.822-4.7339-17.508-11.686-24.632-9.591-9.8279-10.25-5.9998 12.328-71.639 21.888-63.631 22.649-66.544 18.823-72.007-4.298-6.1363-8.8475-1.5624-14.004 14.079-17.727 53.77-37.66 82.281-63.354 90.617-43.398 14.08-24.164-41.438 39.017-112.62 17.17-19.345 27.929-38.633 24.806-44.469-2.1363-3.9918-7.1635-1.9214-32.82 13.517-108.2 65.103-199.07 86.243-217.6 50.621-7.0671-13.585 3.3976-29.837 21.302-33.084 17.041-3.09 14.679-7.8011-15.078-30.071-26.098-19.532-26.975-19.612-34.822-3.1803-11.413 23.899-31.892 37.169-74.892 48.528-48.325 12.766-92.531-21.645-115.31-89.757-5.8969-17.636-4.566-16.388-12.695-11.912-1.925 1.06-3.725 1.9605-4 2.0011-0.4397 0.065-6.6482 3.158-12.5 6.2276-2.056 1.0784-3.0517 1.4879-12.548 5.1605-39.484 15.27-81.135 13.064-102.76-5.4416-2.2081-1.8901-4.412-3.4365-4.8976-3.4365-0.48555 0-2.8702-2.025-5.2992-4.5s-4.1046-4.5-3.7236-4.5c0.38107 0-1.0983-2.3625-3.2875-5.25s-3.9823-5.6575-3.9846-6.1556c-0.002-0.4981-1.1522-2.4106-2.5552-4.25s-2.2974-3.3444-1.9875-3.3444c0.30989 0-0.47065-1.6875-1.7345-3.75-2.0037-3.2697-4.7997-8.7526-5.2271-10.25-0.27381-0.9593-2.7227-6.5143-3.6868-8.3633-0.5344-1.0248-1.155-2.5998-1.3791-3.5-0.44574-1.7905-2.7796-9.8869-4.2192-14.637-2.7568-9.096-0.69462-31.685 3.5832-39.25 0.69979-1.2375 1.02-2.25 0.71148-2.25-0.30847 0 0.14888-1.3725 1.0163-3.05 2.4777-4.7913-2.0401-11.842-8.0074-12.497-2.5439-0.2793-9.2338-1.2941-23.768-3.6056-8.227-1.3083-10.279-1.5424-20.75-2.3662-14.369-1.1306-16.375 3.4011-7.1965 16.253 3.0577 4.2814 3.5965 6.4606 3.6508 14.766 0.12231 18.713-16.373 27.197-35.454 18.235-2.475-1.1624-4.767-2.0518-5.0933-1.9765-2.3769 0.5492-27.814-25.06-27.887-28.075-0.0108-0.4492-1.1447-2.2917-2.5197-4.0944s-2.5-3.6041-2.5-4.0031-1.2942-2.6065-2.876-4.9056-2.9813-4.6302-3.1099-5.1802c-0.12863-0.55-1.0075-2.125-1.9529-3.5-1.9596-2.8498-14.903-28.979-15.108-30.5-0.0744-0.55-0.83564-2.35-1.6917-4-0.8561-1.65-2.257-4.35-3.1131-6s-1.4324-3-1.2807-3c0.15171 0-0.65639-2.1748-1.7958-4.8329s-2.0716-5.3705-2.0716-6.0275-0.77931-2.3072-1.7318-3.6671c-0.9525-1.3599-1.6282-2.6975-1.5017-2.9725 0.12658-0.275-0.75808-3.425-1.9659-7s-2.314-6.95-2.458-7.5c-0.14409-0.55-1.2115-3.7-2.3719-7-1.1605-3.3-2.291-6.675-2.5122-7.5-0.22126-0.825-1.0617-3.525-1.8676-6-0.80592-2.475-2.427-7.875-3.6025-12-1.1754-4.125-2.4978-8.625-2.9387-10-0.44083-1.375-1.3158-4.75-1.9443-7.5-3.2247-14.109-5.9793-25.577-7.3261-30.5-0.67712-2.475-1.242-4.7998-1.2552-5.1662-0.19988-5.5306-8.5587-8.4496-10.979-3.8338-7.0068 13.364-9.7516 27.41-11.041 56.5-0.51754 11.676-1.3884 20.097-3.6712 35.5-0.61133 4.125-1.2464 8.6233-1.4113 9.9962-0.16489 1.3729-0.80877 4.5229-1.4308 7-2.1962 8.7455-3.1055 12.52-3.3734 14.004-0.40052 2.218-2.7184 10.199-3.6305 12.5-0.43596 1.1-2.0413 5.15-3.5674 9s-3.8199 8.4325-5.0972 10.183c-1.2774 1.7508-2.3225 3.5848-2.3225 4.0757 0 2.7688-7.9635 7.241-12.894 7.241-15.052 0-27.276-48.736-16.57-66.059 0.30384-0.4916 0.74401-2.1419 0.97817-3.6673 0.23415-1.5254 1.3704-5.4734 2.5251-8.7734s2.2825-6.867 2.5063-7.9266c0.22381-1.0596 0.86747-2.3871 1.4303-2.95 0.56288-0.5629 1.0234-1.6436 1.0234-2.4015 0-1.4969 3.8763-9.9986 13.096-28.722 6.1101-12.409 7.3386-18.065 4.4454-20.466-3.4209-2.8391-10.272 1.4372-14.531 9.0705-4.1013 7.3498-31.99 64.248-31.809 64.896 0.0769 0.275-0.95922 2.3-2.3025 4.5-1.3432 2.2-3.398 6.025-4.5661 8.5-9.7189 20.592-11.888 24.893-13.964 27.683-1.3024 1.7508-2.3681 3.7383-2.3681 4.4166 0 0.6784-0.30098 0.9325-0.66885 0.5646s-1.5388 0.1196-2.6021 1.0833c-1.4525 1.3165-4.3325 1.884-11.581 2.2823-5.8053 0.319-10.843 1.1501-12.648 2.0867-5.7754 2.9964-11.013 6.0974-12.5 7.401-2.9831 2.6147-44.149 23.666-44.87 22.945-0.2452-0.2452-0.99621 0.011-1.6689 0.5692-14.474 12.012-29.862 1.9948-26.176-17.04 0.76663-3.9584 4.967-13.381 12.478-27.992 9.6667-18.804 15.17-28.666 18.647-33.418 3.1169-4.2594 4.589-10.088 4.5962-18.198 0.009-10.341 1.8153-12.997 12.568-18.478 2.7988-1.4266 6.402-3.2922 8.0072-4.1456 2.8304-1.5048 18.897-9.3145 51.919-25.236 8.8-4.2431 17.575-8.4593 19.5-9.3694 1.925-0.91 5.3-2.7438 7.5-4.075s4-2.2885 4-2.1273c0 1.3912 10.742-5.2985 15.051-9.3733 11.604-10.973 3.9271-15.8-12.235-7.6936-11.512 5.7743-25.917 12.465-34.316 15.938-26.709 11.045-56.703 14.065-72.5 7.3008-14.723-6.3041-20.544-14.14-16.405-22.082 1.8638-3.5757 6.9047-9.1717 6.9047-7.665 0 0.3988 1.4625-0.3841 3.25-1.7399 1.7875-1.3559 6.4-3.6701 10.25-5.1428s7.9-3.046 9-3.4962c6.9799-2.8569 30.472-8.2799 43-9.9265 4.4-0.5783 11.6-1.535 16-2.1261s13.175-1.2774 19.5-1.5253c15.052-0.5897 31.491-2.2335 36.5-3.6498 2.2-0.622 4.225-1.1843 4.5-1.2496 0.275-0.065 1.625-0.4841 3-0.9308 2.203-0.7156 4.0585-1.4618 10-4.0218 11.407-4.9147 6.6524-10.613-12.5-14.98-6.6-1.5052-13.125-3.0973-14.5-3.538-2.2222-0.7122-8.8378-2.3133-14.5-3.5092-1.1-0.2323-3.35-0.877-5-1.4327-1.65-0.5556-5.7-1.7622-9-2.6814-3.3-0.9191-10.05-2.9989-15-4.6219-4.95-1.6229-9.675-3.1298-10.5-3.3487-1.8342-0.4865-16.316-5.4871-24.5-8.46-3.3-1.1988-6.5625-2.6432-7.25-3.21-0.6875-0.5667-1.25-0.7248-1.25-0.3514 0 0.6373-0.92312 0.2359-8.5-3.6953-1.65-0.8561-3.45-1.6675-4-1.8031-5.7534-1.419-38.368-17.888-45.654-23.054-1.4599-1.035-2.9924-1.8818-3.4056-1.8818-0.41318 0-2.2262-1.125-4.0289-2.5s-3.6452-2.5089-4.0944-2.5197c-3.18-0.1-28.4-25.3-28.4-28.3 0-0.4571-0.94687-2.7218-2.1042-5.0327-5.2245-10.432-3.7813-24.97 3.0967-31.195 1.1041-0.9992 2.0074-1.5116 2.0074-1.1386 0 0.3729 1.2177-0.1199 2.706-1.095 4.8808-3.1981 18.841-2.5112 24.367 1.199 18.422 12.368 20.798 8.1029 14.835-26.626-0.53392-3.1094-1.1388-7.619-1.3442-10.021-1.8418-21.547-10.022-28.989-21.443-19.51-0.78551 0.6519-1.6966 1.075-2.0245 0.9403-0.32797-0.1348-2.1713 0.3152-4.0963 1-5.6312 2.0031-28.236 1.6307-35.5-0.585-14.231-4.3404-25.554-9.113-36.5-15.384-1.925-1.1028-5.3-3.0059-7.5-4.229-2.2-1.2232-5.6611-3.5363-7.6914-5.1404-2.0302-1.6042-4.0764-2.9166-4.547-2.9166-1.0584 0-8.2616-7.2914-8.2616-8.3628 0-0.4281-1.754-2.8841-3.8978-5.4578-18.093-21.721-20.412-74.825-4.5172-103.43 0.84045-1.5125 1.2522-2.75 0.91502-2.75-0.33719 0 0.0461-1.2375 0.85169-2.75 2.6655-5.0044 10.834-21.712 11.688-23.905 0.78931-2.0281 0.0308-2.4303-12.85-6.8144-66.009-22.466-99.921-66.932-87.347-114.53 11.359-42.999 24.629-63.479 48.528-74.892 16.431-7.847 16.351-8.7237-3.1804-34.822-22.27-29.758-26.981-32.12-30.071-15.078-5.8226 32.112-40.035 30.91-48.61-1.7081-9.3752-35.663 16.733-112.47 66.147-194.59 15.438-25.656 17.508-30.684 13.517-32.82-5.8364-3.1236-25.124 7.6355-44.469 24.806-71.184 63.181-126.7 82.415-112.62 39.017 8.3363-25.694 36.847-45.627 90.617-63.354 15.642-5.1568 20.215-9.7063 14.079-14.004-5.4623-3.8259-8.3754-3.0645-72.007 18.823-65.639 22.578-61.811 21.919-71.639 12.328-7.1241-6.9524-8.8102-7.7524-24.632-11.686-90.111-22.405-90.111-43.638 0-66.043 15.822-3.9339 17.508-4.7339 24.632-11.686 9.8279-9.591 5.9998-10.25 71.639 12.328 63.631 21.888 66.544 22.649 72.007 18.823 6.1363-4.298 1.5624-8.8475-14.079-14.004-53.77-17.727-82.281-37.66-90.617-63.354-14.08-43.398 41.438-24.164 112.62 39.017 19.345 17.17 38.633 27.929 44.469 24.806 3.9918-2.1363 1.9213-7.1635-13.517-32.82-65.103-108.2-86.243-199.07-50.621-217.6 13.585-7.0671 29.837 3.3976 33.084 21.302 3.09 17.041 7.8011 14.679 30.071-15.078 19.532-26.098 19.612-26.975 3.1804-34.822-23.899-11.413-37.169-31.892-48.528-74.892-12.766-48.325 21.645-92.531 89.757-115.31 17.637-5.8969 16.388-4.566 11.912-12.695-1.06-1.925-1.9605-3.725-2.0011-4-0.0649-0.4397-3.158-6.6482-6.2276-12.5-1.0785-2.056-1.488-3.0517-5.1605-12.548-15.27-39.484-13.064-81.135 5.4416-102.76 1.89-2.2081 3.4365-4.412 3.4365-4.8976 0-0.48555 2.025-2.8702 4.5-5.2992s4.5-4.1046 4.5-3.7236c0 0.38107 2.3625-1.0983 5.25-3.2875s5.6575-3.9823 6.1556-3.9846c0.49808-0.002 2.4106-1.1522 4.25-2.5552s3.3444-2.2974 3.3444-1.9875c0 0.30989 1.6875-0.47065 3.75-1.7345 3.2697-2.0037 8.7526-4.7997 10.25-5.2271 0.95927-0.27381 6.5143-2.7227 8.3633-3.6868 1.0248-0.5344 2.5998-1.155 3.5-1.3791 1.7905-0.44574 9.8868-2.7796 14.637-4.2192 9.096-2.7568 31.685-0.69462 39.25 3.5832 1.2375 0.69979 2.25 1.02 2.25 0.71148 0-0.30847 1.3725 0.14888 3.05 1.0163 4.7913 2.4777 11.842-2.0401 12.497-8.0074 0.27925-2.5439 1.2941-9.2338 3.6056-23.768 1.3084-8.227 1.5424-10.279 2.3662-20.75 1.1306-14.369-3.4012-16.375-16.253-7.1965-4.2814 3.0577-6.4606 3.5965-14.766 3.6508-18.713 0.12231-27.197-16.373-18.235-35.454 1.1624-2.475 2.0519-4.767 1.9765-5.0933-0.5492-2.3769 25.06-27.814 28.075-27.887 0.4492-0.0108 2.2917-1.1447 4.0944-2.5197s3.6041-2.5 4.0031-2.5c0.39898 0 2.6065-1.2942 4.9056-2.876s4.4052-2.8211 4.6802-2.7539 1.85-0.81164 3.5-1.9529c3.1874-2.2047 29.31-15.236 31-15.464 0.55-0.0744 2.2375-0.76918 3.75-1.544l5.5-2.8177c1.5125-0.77487 2.975-1.4176 3.25-1.4284 0.275-0.0107 2.6748-0.95175 5.3329-2.0911 2.66-0.97 5.37-1.9 6.03-1.9 0.65702 0 2.3072-0.77931 3.6671-1.7318 1.3599-0.9525 2.4725-1.5534 2.4725-1.3353s3.15-0.66656 7-1.9659 7.45-2.4803 8-2.6244c0.55-0.14409 3.7-1.2115 7-2.3719 3.3-1.1605 6.675-2.291 7.5-2.5122 0.825-0.22126 3.525-1.0617 6-1.8676 2.475-0.80592 7.875-2.427 12-3.6025 4.125-1.1754 8.625-2.4978 10-2.9387 1.375-0.44083 4.75-1.3158 7.5-1.9443 14.109-3.2247 25.577-5.9793 30.5-7.3261 2.475-0.67712 4.7998-1.242 5.1662-1.2552 5.5306-0.19988 8.4495-8.5587 3.8338-10.979-13.364-7.0068-27.41-9.7516-56.5-11.041-11.676-0.51754-20.097-1.3884-35.5-3.6712-4.125-0.61133-8.6233-1.2464-9.9962-1.4113-1.3729-0.16489-4.5229-0.80877-7-1.4308-8.7455-2.1962-12.52-3.1055-14.004-3.3734-2.218-0.40052-10.199-2.7184-12.5-3.6305-1.1-0.43596-5.15-2.0413-9-3.5674s-8.4325-3.8199-10.183-5.0972c-1.75-1.27-3.59-2.32-4.08-2.32-2.77 0-7.24-7.96-7.24-12.89 0-15.052 48.736-27.276 66.059-16.57 0.49161 0.30384 2.1419 0.74401 3.6673 0.97817 1.5254 0.23415 5.4734 1.3704 8.7734 2.5251s6.867 2.2825 7.9266 2.5063c1.0596 0.22381 2.3871 0.86747 2.95 1.4303 0.56288 0.56288 1.6436 1.0234 2.4015 1.0234 1.4968 0 9.9985 3.8763 28.722 13.096 12.409 6.1101 18.065 7.3386 20.466 4.4454 2.8391-3.4209-1.4372-10.272-9.0705-14.531-7.37-4.11-65.4-32.56-65.4-32.06 0 0.21295-1.8-0.71183-4-2.0551-2.2-1.3432-6.025-3.398-8.5-4.5661-20.592-9.7189-24.893-11.888-27.683-13.964-1.7508-1.3024-3.7383-2.3681-4.4167-2.3681-0.67837 0-0.93241-0.30098-0.56454-0.66885 0.36786-0.36787-0.11964-1.5388-1.0833-2.6021-1.3164-1.4525-1.884-4.3325-2.2823-11.581-0.319-5.8053-1.1501-10.843-2.0866-12.648-2.9965-5.7754-6.0975-11.013-7.401-12.5-2.6148-2.9831-23.666-44.149-22.945-44.87 0.2452-0.2452-0.011-0.99621-0.56925-1.6689-12.012-14.474-1.9947-29.862 17.04-26.176 3.9584 0.76663 13.381 4.967 27.992 12.478 18.804 9.6667 28.666 15.17 33.418 18.647 4.2594 3.1169 10.088 4.589 18.198 4.5962 10.341 0.009 12.997 1.8153 18.478 12.568 1.4266 2.7988 3.2922 6.402 4.1456 8.0072 1.5048 2.8304 9.3146 18.897 25.236 51.919 4.2431 8.8 8.4593 17.575 9.3694 19.5 0.91005 1.925 2.7438 5.3 4.075 7.5s2.3943 4.225 2.3624 4.5c-0.45826 3.9525 12.66 20 16.349 20 5.9663 0 6.141-6.4032 0.48248-17.684-5.7743-11.512-12.465-25.917-15.938-34.316-11.214-27.119-14.117-57.244-7.0331-73 0.61818-1.375 1.6263-3.596 2.2402-4.9355 4.4052-9.612 12.97-14.412 19.575-10.969 3.5757 1.8638 9.1717 6.9047 7.665 6.9047-0.39886 0 0.3841 1.4625 1.7399 3.25s3.67 6.4 5.1427 10.25 3.046 7.9 3.4962 9c2.8569 6.9799 8.2799 30.472 9.9265 43 0.57828 4.4 1.535 11.6 2.1261 16 0.59108 4.4 1.2774 13.175 1.5252 19.5 0.58973 15.052 2.2335 31.491 3.6498 36.5 0.62202 2.2 1.1844 4.225 1.2496 4.5 0.0653 0.275 0.48414 1.625 0.93078 3 0.7156 2.203 1.4618 4.0585 4.0218 10 4.9147 11.407 10.613 6.6524 14.98-12.5 1.5052-6.6 3.0972-13.125 3.5379-14.5 0.7122-2.2222 2.3133-8.8378 3.5092-14.5 0.23234-1.1 0.87705-3.35 1.4327-5 0.55564-1.65 1.7623-5.7 2.6814-9 0.91912-3.3 2.999-10.05 4.6219-15s3.1298-9.675 3.3487-10.5c0.48656-1.8342 5.4871-16.316 8.4601-24.5 1.1987-3.3 2.6432-6.5625 3.2099-7.25 0.56674-0.6875 0.7249-1.25 0.35146-1.25s0.0215-1.35 0.87755-3c3.6334-7.0029 4.3872-8.5527 4.6209-9.5 1.419-5.7534 17.888-38.368 23.054-45.654 1.035-1.4599 1.8818-2.9924 1.8818-3.4056 0-0.41318 1.125-2.2262 2.5-4.0289s2.5089-3.6452 2.5197-4.0944c0.07-3.09 25.23-28.31 28.25-28.31 0.45703 0 2.7217-0.94687 5.0327-2.1042 10.433-5.2245 24.97-3.7813 31.195 3.0967 0.99918 1.1041 1.5116 2.0074 1.1386 2.0074-0.37292 0 0.11984 1.2177 1.095 2.706 3.198 4.8808 2.5111 18.841-1.199 24.367-12.368 18.422-8.1029 20.798 26.625 14.835 3.1094-0.53392 7.619-1.1388 10.021-1.3442 21.547-1.8418 28.989-10.022 19.511-21.443-0.65192-0.78551-1.075-1.6966-0.94027-2.0245 0.13478-0.32797-0.31522-2.1713-1-4.0963-2.0032-5.6312-1.6307-28.236 0.58496-35.5 4.3732-14.338 9.0903-25.505 15.524-36.75 1.1801-2.0625 3.0832-5.4375 4.2291-7.5s3.3959-5.4111 5-7.4414c1.6-2.03 2.91-4.08 2.91-4.55 0-1.06 7.29-8.26 8.36-8.26 0.42813 0 2.8842-1.754 5.4578-3.8978 21.721-18.093 74.825-20.412 103.43-4.5172 1.5125 0.84045 2.75 1.2522 2.75 0.91502 0-0.33719 1.2375 0.0461 2.75 0.85169 5.0044 2.6655 21.712 10.834 23.905 11.688 2.0281 0.78931 2.4303 0.0308 6.8144-12.85 22.466-66.009 66.932-99.921 114.53-87.347 42.999 11.359 63.479 24.629 74.892 48.528 7.847 16.431 8.7237 16.351 34.822-3.1804 29.758-22.27 32.12-26.981 15.078-30.071-32.112-5.8226-30.91-40.035 1.7081-48.61 35.663-9.3752 112.47 16.733 194.59 66.147 25.656 15.438 30.684 17.508 32.82 13.517 3.1236-5.8364-7.6355-25.124-24.806-44.469-63.181-71.184-82.415-126.7-39.017-112.62 25.694 8.3363 45.627 36.847 63.354 90.617 5.1568 15.642 9.7063 20.215 14.004 14.079 3.8259-5.4623 3.0645-8.3754-18.823-72.007-22.578-65.639-21.919-61.811-12.328-71.639 6.9524-7.1241 7.7524-8.8102 11.686-24.632 22.405-90.111 43.638-90.111 66.043 0 3.9339 15.822 4.7339 17.508 11.686 24.632 9.591 9.8279 10.25 5.9998-12.328 71.639-21.888 63.631-22.649 66.544-18.823 72.007 4.298 6.1363 8.8475 1.5624 14.004-14.079 17.727-53.77 37.66-82.281 63.354-90.617 43.398-14.08 24.164 41.438-39.017 112.62-17.17 19.345-27.929 38.633-24.806 44.469 2.1363 3.9918 7.1635 1.9213 32.82-13.517 108.2-65.103 199.07-86.243 217.6-50.621 7.0671 13.585-3.3976 29.837-21.302 33.084-17.041 3.09-14.679 7.8011 15.078 30.071 26.098 19.532 26.975 19.612 34.822 3.1804 11.413-23.899 31.892-37.169 74.892-48.528 48.325-12.766 92.531 21.645 115.31 89.757 5.8969 17.637 4.566 16.388 12.695 11.912 1.925-1.06 3.725-1.9605 4-2.0011 0.4397-0.0649 6.6482-3.158 12.5-6.2276 2.056-1.0785 3.0517-1.488 12.548-5.1605 39.484-15.27 81.135-13.064 102.76 5.4416 2.2081 1.89 4.412 3.4365 4.8976 3.4365 0.4855 0 2.8702 2.025 5.2992 4.5s4.1046 4.5 3.7236 4.5c-0.3811 0 1.0983 2.3625 3.2875 5.25 2.1891 2.8875 3.9822 5.6575 3.9846 6.1556 0 0.49808 1.1522 2.4106 2.5552 4.25s2.2973 3.3444 1.9874 3.3444c-0.3098 0 0.4707 1.6875 1.7346 3.75 2.0036 3.2697 4.7997 8.7526 5.2271 10.25 0.2738 0.95927 2.7227 6.5143 3.6868 8.3633 0.5344 1.0248 1.155 2.5998 1.3791 3.5 0.4458 1.7905 2.7796 9.8868 4.2192 14.637 2.7568 9.096 0.6947 31.685-3.5831 39.25-0.6998 1.2375-1.02 2.25-0.7115 2.25s-0.1489 1.3725-1.0163 3.05c-2.4777 4.7913 2.0401 11.842 8.0074 12.497 2.4537 0.26934 7.7196 1.0696 24.018 3.6502 7.98 1.2635 10.092 1.5026 20.5 2.3216 14.369 1.1306 16.375-3.4012 7.1965-16.253-3.0577-4.2814-3.5965-6.4606-3.6507-14.766-0.1224-18.713 16.373-27.197 35.454-18.235 2.475 1.1624 4.767 2.0519 5.0933 1.9765 2.3769-0.5492 27.814 25.06 27.887 28.075 0.011 0.4492 1.1447 2.2917 2.5197 4.0944s2.5 3.6041 2.5 4.0031c0 0.39898 1.449 2.8315 3.22 5.4056 1.7711 2.5741 3.0103 4.6802 2.7539 4.6802s0.4677 1.35 1.609 3c2.3018 3.3278 15.422 29.709 15.169 30.5-0.088 0.275 0.6068 1.9625 1.5441 3.75s2.4711 4.7125 3.4084 6.5 1.5801 3.25 1.4284 3.25 0.6564 2.1748 1.7958 4.8329 2.0716 5.3705 2.0716 6.0275c0 0.65702 0.6217 2.0822 1.3816 3.1671s1.4356 2.4225 1.5017 2.9725c0.066 0.55 1.1083 3.925 2.3161 7.5s2.3139 6.95 2.458 7.5 1.2115 3.7 2.372 7c1.1604 3.3 2.2909 6.675 2.5122 7.5s1.0617 3.525 1.8676 6 2.427 7.875 3.6025 12c1.1754 4.125 2.4978 8.625 2.9386 10s1.3158 4.75 1.9443 7.5c3.2247 14.109 5.9793 25.577 7.3261 30.5 0.6771 2.475 1.242 4.7998 1.2552 5.1662 0.1999 5.5306 8.5587 8.4495 10.979 3.8338 7.0068-13.364 9.7516-27.41 11.041-56.5 0.5176-11.676 1.3884-20.097 3.6712-35.5 0.6113-4.125 1.2464-8.6233 1.4113-9.9962s0.7773-4.4104 1.3609-6.75c2.7151-10.885 3.1904-12.853 3.4434-14.254 0.4005-2.218 2.7184-10.199 3.6305-12.5 0.4359-1.1 2.0413-5.15 3.5674-9s3.8198-8.4325 5.0972-10.183c1.2774-1.7508 2.3225-3.5849 2.3225-4.0757 0-2.7688 7.9635-7.241 12.894-7.241 15.052 0 27.276 48.736 16.57 66.059-0.3038 0.49161-0.744 2.1419-0.9781 3.6673-0.2342 1.5254-1.3705 5.4734-2.5251 8.7734-1.1547 3.3-2.2825 6.867-2.5063 7.9266-0.2239 1.0596-0.8675 2.3871-1.4304 2.95-0.5629 0.56288-1.0234 1.6436-1.0234 2.4015 0 1.4968-3.8763 9.9985-13.096 28.722-6.1101 12.409-7.3386 18.065-4.4455 20.466 3.4209 2.8391 10.272-1.4372 14.531-9.0705 3.7227-6.6713 31.876-63.983 32.125-65.396 0.097-0.55 1.1328-2.575 2.3025-4.5 1.1696-1.925 3.0823-5.525 4.2505-8 9.7189-20.592 11.888-24.893 13.964-27.683 1.3025-1.7508 2.3681-3.7383 2.3681-4.4167 0-0.67837 0.301-0.93241 0.6688-0.56454 0.3679 0.36786 1.5389-0.11964 2.6022-1.0833 1.4525-1.3164 4.3325-1.884 11.581-2.2823 5.8053-0.319 10.843-1.1501 12.648-2.0866 5.7754-2.9965 11.013-6.0975 12.5-7.401 2.9831-2.6148 44.149-23.666 44.87-22.945 0.2452 0.2452 0.9962-0.011 1.6689-0.56925 14.474-12.012 29.862-1.9947 26.176 17.04-0.7667 3.9584-4.967 13.381-12.478 27.992-9.6667 18.804-15.17 28.666-18.647 33.418-3.1169 4.2594-4.589 10.088-4.5963 18.198-0.01 10.341-1.8153 12.997-12.568 18.478-2.7987 1.4266-6.402 3.2922-8.0072 4.1456-2.8304 1.5048-18.897 9.3146-51.918 25.236-8.8 4.2431-17.575 8.4593-19.5 9.3694-1.925 0.91005-5.075 2.6018-7 3.7594s-3.95 2.2207-4.5 2.3624c-6.9042 1.779-20.5 12.831-20.5 16.665 0 5.9663 6.4032 6.141 17.684 0.48248 11.512-5.7743 25.917-12.465 34.316-15.938 26.709-11.045 56.703-14.065 72.5-7.3007 14.723 6.3041 20.544 14.14 16.405 22.082-1.8638 3.5757-6.9047 9.1717-6.9047 7.665 0-0.39886-1.4625 0.3841-3.25 1.7399s-6.4 3.67-10.25 5.1427-7.9 3.046-9 3.4962c-6.9799 2.8569-30.472 8.2799-43 9.9265-4.4 0.57828-11.6 1.535-16 2.1261-4.4 0.59108-13.175 1.2774-19.5 1.5252-15.052 0.58973-31.491 2.2335-36.5 3.6498-2.2 0.62202-4.225 1.1844-4.5 1.2496-0.275 0.0653-1.625 0.48414-3 0.93078-2.203 0.7156-4.0585 1.4618-10 4.0218-11.407 4.9147-6.6524 10.613 12.5 14.98 6.6 1.5052 13.125 3.0972 14.5 3.5379 2.2222 0.7122 8.8378 2.3133 14.5 3.5092 1.1 0.23234 3.35 0.87705 5 1.4327 1.65 0.55564 5.7 1.7623 9 2.6814 3.3 0.91912 10.05 2.999 15 4.6219s9.675 3.1298 10.5 3.3487c1.8342 0.48656 16.316 5.4871 24.5 8.4601 3.3 1.1987 6.5625 2.6432 7.25 3.2099 0.6875 0.56674 1.25 0.7249 1.25 0.35146 0-0.63671 0.98-0.19828 9.25 4.1383 1.7875 0.93732 3.475 1.6823 3.75 1.6555 2.5077-0.24441 37.795 17.541 45.154 22.758 1.4599 1.035 2.9924 1.8818 3.4056 1.8818s2.2262 1.125 4.0289 2.5 3.6452 2.5089 4.0944 2.5197c3.096 0.0747 28.317 25.232 28.317 28.246 0 0.45703 0.9469 2.7217 2.1041 5.0327 5.2245 10.433 3.7813 24.97-3.0967 31.195-1.1041 0.99918-2.0074 1.5116-2.0074 1.1386 0-0.37292-1.2177 0.11984-2.706 1.095-4.8808 3.198-18.841 2.5111-24.367-1.199-18.422-12.368-20.798-8.1029-14.835 26.625 0.5339 3.1094 1.1388 7.619 1.3441 10.021 1.8419 21.547 10.022 28.989 21.443 19.511 0.7855-0.65192 1.4715-1.0008 1.5245-0.77525 0.053 0.22553 1.8963-0.22447 4.0963-1 6.1481-2.1673 28.367-1.9081 36 0.41994 14.338 4.3732 25.505 9.0903 36.75 15.524 2.0625 1.1801 5.4375 3.0832 7.5 4.2291s5.4111 3.3959 7.4414 5c2.0302 1.6041 4.0764 2.9166 4.547 2.9166 1.0585 0 8.2616 7.2914 8.2616 8.3628 0 0.42813 1.754 2.8842 3.8978 5.4578 18.093 21.721 20.412 74.825 4.5172 103.43-0.8404 1.5125-1.2522 2.75-0.915 2.75s-0.046 1.2375-0.8517 2.75c-2.6655 5.0044-10.834 21.712-11.688 23.905-0.7893 2.0281-0.031 2.4303 12.85 6.8144 66.009 22.466 99.921 66.932 87.347 114.53-11.359 42.999-24.629 63.479-48.528 74.892-16.431 7.847-16.351 8.7237 3.1803 34.822 22.27 29.758 26.981 32.12 30.071 15.078 5.8227-32.112 40.035-30.91 48.61 1.7081 9.3752 35.663-16.733 112.47-66.147 194.59-15.438 25.656-17.508 30.684-13.517 32.82 5.8364 3.1236 25.124-7.6355 44.469-24.806 71.184-63.181 126.7-82.415 112.62-39.017-8.3363 25.694-36.847 45.627-90.617 63.354-15.642 5.1568-20.215 9.7063-14.079 14.004 5.4623 3.8259 8.3754 3.0645 72.007-18.823 65.639-22.578 61.811-21.919 71.639-12.328 7.1241 6.9524 8.8102 7.7524 24.632 11.686 66.982 16.654 84.534 33.146 52.058 48.911-9.4631 4.5938-33.67 12.56-52.058 17.132-15.822 3.9339-17.508 4.7339-24.632 11.686-9.8279 9.591-5.9998 10.25-71.639-12.328-63.631-21.888-66.544-22.649-72.007-18.823-6.1363 4.298-1.5624 8.8475 14.079 14.004 53.77 17.727 82.281 37.66 90.617 63.354 14.08 43.398-41.438 24.164-112.62-39.017-19.345-17.17-38.633-27.929-44.469-24.806-3.9918 2.1363-1.9214 7.1635 13.517 32.82 65.103 108.2 86.243 199.07 50.621 217.6-13.585 7.0671-29.837-3.3976-33.084-21.302-3.09-17.041-7.8011-14.679-30.071 15.078-19.532 26.098-19.612 26.975-3.1803 34.822 23.899 11.413 37.169 31.892 48.528 74.892 12.766 48.325-21.645 92.531-89.757 115.31-17.636 5.8969-16.388 4.566-11.912 12.695 1.06 1.925 1.9605 3.725 2.0011 4 0.065 0.4397 3.158 6.6482 6.2276 12.5 1.0784 2.056 1.4879 3.0517 5.1605 12.548 15.27 39.484 13.064 81.135-5.4416 102.76-1.8901 2.2081-3.4365 4.412-3.4365 4.8976 0 0.4855-2.025 2.8702-4.5 5.2992s-4.5 4.1046-4.5 3.7236c0-0.3811-2.3625 1.0983-5.25 3.2875-2.8875 2.1891-5.6575 3.9822-6.1556 3.9846-0.4981 0-2.4106 1.1522-4.25 2.5552s-3.3444 2.2973-3.3444 1.9874c0-0.3098-1.6875 0.4707-3.75 1.7346-3.2697 2.0036-8.7526 4.7997-10.25 5.2271-0.9593 0.2738-6.5143 2.7227-8.3633 3.6868-1.0248 0.5344-2.5998 1.155-3.5 1.3791-1.7905 0.4458-9.8869 2.7796-14.637 4.2192-9.096 2.7568-31.685 0.6947-39.25-3.5831-1.2375-0.6998-2.25-1.02-2.25-0.7115s-1.3725-0.1489-3.05-1.0163c-4.7913-2.4777-11.842 2.0401-12.497 8.0074-0.2793 2.5439-1.2941 9.2338-3.6056 23.768-1.3083 8.227-1.5424 10.279-2.3662 20.75-1.1306 14.369 3.4011 16.375 16.253 7.1965 4.2814-3.0577 6.4606-3.5965 14.766-3.6507 18.713-0.1224 27.197 16.373 18.235 35.454-1.1624 2.475-2.0518 4.767-1.9765 5.0933 0.5492 2.3769-25.06 27.814-28.075 27.887-0.4492 0.011-2.2917 1.1447-4.0944 2.5197s-3.6041 2.5-4.0031 2.5-2.8315 1.449-5.4056 3.22c-2.5741 1.7711-4.9052 3.1705-5.1802 3.11-0.275-0.061-1.625 0.6634-3 1.6089-2.8498 1.9596-28.979 14.902-30.5 15.108-0.55 0.074-2.35 0.8356-4 1.6917l-6 3.1131c-1.65 0.8561-3.225 1.5288-3.5 1.495-0.275-0.034-2.4498 0.7743-4.8329 1.7958s-4.8705 1.8573-5.5275 1.8573-2.0822 0.6217-3.1671 1.3816-2.1975 1.3607-2.4725 1.3353c-0.275-0.025-3.65 1.0167-7.5 2.3161-3.85 1.2993-7.45 2.4803-8 2.6244s-3.7 1.2115-7 2.372c-3.3 1.1604-6.675 2.2909-7.5 2.5122s-3.525 1.0617-6 1.8676-7.875 2.427-12 3.6025c-4.125 1.1754-8.625 2.4978-10 2.9386s-4.75 1.3158-7.5 1.9443c-14.109 3.2247-25.577 5.9793-30.5 7.3261-2.475 0.6771-4.7998 1.242-5.1662 1.2552-5.5306 0.1999-8.4496 8.5587-3.8338 10.979 13.364 7.0068 27.41 9.7516 56.5 11.041 11.676 0.5176 20.097 1.3884 35.5 3.6712 4.125 0.6113 8.6233 1.2464 9.9962 1.4113 2.3563 0.283 4.0651 0.6711 15.004 3.4077 2.475 0.6191 5.175 1.2476 6 1.3966 2.218 0.4005 10.199 2.7184 12.5 3.6305 1.1 0.4359 5.15 2.0413 9 3.5674s8.4325 3.8198 10.183 5.0972c1.7508 1.2774 3.5848 2.3225 4.0757 2.3225 2.7688 0 7.241 7.9635 7.241 12.894 0 15.052-48.736 27.276-66.059 16.57-0.4916-0.3038-2.1419-0.744-3.6673-0.9781-1.5254-0.2342-5.4734-1.3705-8.7734-2.5251-3.3-1.1547-6.867-2.2825-7.9266-2.5063-1.0596-0.2239-2.3871-0.8675-2.95-1.4304s-1.6436-1.0234-2.4015-1.0234c-1.4969 0-9.9986-3.8763-28.722-13.096-12.409-6.1101-18.065-7.3386-20.466-4.4455-2.8391 3.4209 1.4372 10.272 9.0705 14.531 6.6857 3.7307 65.192 32.473 65.896 32.372 0.275-0.039 2.075 0.8854 4 2.0551 1.925 1.1696 5.525 3.0823 8 4.2505 20.592 9.7189 24.893 11.888 27.683 13.964 1.7508 1.3025 3.7383 2.3681 4.4166 2.3681 0.6784 0 0.9325 0.301 0.5646 0.6688-0.3679 0.3679 0.1196 1.5389 1.0833 2.6022 1.3165 1.4525 1.884 4.3325 2.2823 11.581 0.319 5.8053 1.1501 10.843 2.0867 12.648 2.9964 5.7754 6.0974 11.013 7.401 12.5 2.6147 2.9831 23.666 44.149 22.945 44.87-0.2452 0.2452 0.011 0.9962 0.5692 1.6689 12.012 14.474 1.9948 29.862-17.04 26.176-3.9584-0.7667-13.381-4.967-27.992-12.478-18.804-9.6667-28.666-15.17-33.418-18.647-4.2594-3.1169-10.088-4.589-18.198-4.5963-10.341-0.01-12.997-1.8153-18.478-12.568-1.4266-2.7987-3.2922-6.402-4.1456-8.0072-1.5048-2.8304-9.3145-18.897-25.236-51.918-4.2431-8.8-8.4593-17.575-9.3694-19.5-0.91-1.925-2.6017-5.075-3.7593-7s-2.2207-3.95-2.3624-4.5c-1.779-6.9042-12.831-20.5-16.665-20.5-5.9663 0-6.141 6.4032-0.4825 17.684 5.7743 11.512 12.465 25.917 15.938 34.316 9.2988 22.487 13.22 48.488 9.6522 64-2.3641 10.278-4.6558 14.931-10.49 21.297-5.2303 5.7074-8.3613 6.5174-13.944 3.6075-3.5757-1.8638-9.1717-6.9047-7.665-6.9047 0.3988 0-0.3841-1.4625-1.7399-3.25-1.3559-1.7875-3.6701-6.4-5.1428-10.25s-3.046-7.9-3.4962-9c-2.8569-6.9799-8.2799-30.472-9.9265-43-0.5783-4.4-1.535-11.6-2.1261-16s-1.2774-13.175-1.5253-19.5c-0.5897-15.052-2.2335-31.491-3.6498-36.5-0.622-2.2-1.1843-4.225-1.2496-4.5-0.065-0.275-0.4841-1.625-0.9308-3-0.7156-2.203-1.4618-4.0585-4.0218-10-4.9147-11.407-10.613-6.6524-14.98 12.5-1.5052 6.6-3.0973 13.125-3.538 14.5-0.7122 2.2222-2.3133 8.8378-3.5092 14.5-0.2323 1.1-0.877 3.35-1.4327 5-0.5556 1.65-1.7622 5.7-2.6814 9-0.9191 3.3-2.9989 10.05-4.6219 15-1.6229 4.95-3.1298 9.675-3.3487 10.5-0.4865 1.8342-5.4871 16.316-8.46 24.5-1.1988 3.3-2.6432 6.5625-3.21 7.25-0.5667 0.6875-0.7248 1.25-0.3514 1.25s-0.088 1.4625-1.0252 3.25c-2.9935 5.7087-4.2256 8.2369-4.2643 8.75-0.262 3.4733-18.113 38.891-23.263 46.154-1.035 1.4599-1.8818 2.9924-1.8818 3.4056s-1.125 2.2262-2.5 4.0289-2.5089 3.6452-2.5197 4.0944c-0.075 3.096-25.232 28.317-28.246 28.317-0.4571 0-2.7218 0.9469-5.0327 2.1041-10.432 5.2245-24.97 3.7813-31.195-3.0967-0.9992-1.1041-1.5116-2.0074-1.1386-2.0074 0.3729 0-0.1199-1.2177-1.095-2.706-3.1981-4.8808-2.5112-18.841 1.199-24.367 12.368-18.422 8.1029-20.798-26.626-14.835-3.1094 0.5339-7.619 1.1388-10.021 1.3441-21.547 1.8419-28.989 10.022-19.51 21.443 0.6519 0.7855 1.0008 1.4715 0.7752 1.5245-0.2255 0.053 0.2245 1.8963 1 4.0963 2.1673 6.1481 1.9082 28.367-0.4199 36-4.405 14.442-9.0692 25.459-15.665 37-1.2573 2.2-3.1604 5.575-4.2291 7.5-1.0686 1.925-3.2554 5.1611-4.8595 7.1914-1.6042 2.0302-2.9166 4.0764-2.9166 4.547 0 1.0585-7.2914 8.2616-8.3628 8.2616-0.4281 0-2.8841 1.754-5.4578 3.8978-21.721 18.093-74.825 20.412-103.43 4.5172-1.5125-0.8404-2.75-1.2522-2.75-0.915s-1.2375-0.046-2.75-0.8517c-5.0044-2.6655-21.712-10.834-23.905-11.688-2.0281-0.7893-2.4303-0.031-6.8144 12.85-22.466 66.009-66.932 99.921-114.53 87.347-42.999-11.359-63.479-24.629-74.892-48.528-7.847-16.431-8.7237-16.351-34.822 3.1803-29.758 22.27-32.12 26.981-15.078 30.071 32.112 5.8227 30.91 40.035-1.7081 48.61-35.663 9.3752-112.47-16.733-194.59-66.147-25.656-15.438-30.684-17.508-32.82-13.517-3.1236 5.8364 7.6355 25.124 24.806 44.469 63.181 71.184 82.415 126.7 39.017 112.62-25.694-8.3363-45.627-36.847-63.354-90.617-5.1568-15.642-9.7063-20.215-14.004-14.079-3.8259 5.4623-3.0645 8.3754 18.823 72.007 22.578 65.639 21.919 61.811 12.328 71.639-6.9524 7.1241-7.7524 8.8102-11.686 24.632-12.204 49.084-24.887 72.534-36.553 67.588zm-356.51-271c6.6322-3.4812 15.211-12.617 18.864-20.089 8.6309-17.654 4.0158-25.895-19.614-35.022-17.916-6.92-19.102-8.5985-22.319-31.577-3.2136-22.955 1.7872-34.171 19.114-42.869 27.837-13.974 48.006 1.4712 62.483 47.846 5.8933 18.878 5.9404 18.906 40.515 24.224 34.865 5.3625 33.662 6.0894 40.048-24.195 6.7689-32.098 8.9992-28.462-35.546-57.954-122.64-81.194-164.98-84.541-200.26-15.83-14.691 28.614-14.878 34.182-1.4705 43.974 15.009 10.963 36.474 34.954 49.134 54.916 13.399 21.128-23.946 23.462-45.962 2.8737-20.182-18.874-20.305 10.853-0.1292 31.344 18.959 19.256 75.66 32.579 95.138 22.355zm757.74 1.3665c42.255-5.5314 69.573-25.305 72.004-52.12 1.1568-12.757-3.2175-13.637-14.649-2.9462-22.016 20.589-59.36 18.254-45.962-2.8737 12.66-19.963 34.125-43.954 49.134-54.916 13.407-9.7923 13.221-15.36-1.4705-43.974-35.278-68.711-77.619-65.364-200.26 15.83-44.545 29.492-42.315 25.856-35.546 57.954 6.3865 30.284 5.1834 29.557 40.048 24.195 34.574-5.3179 34.621-5.3461 40.515-24.224 14.477-46.374 34.647-61.819 62.483-47.846 17.327 8.6979 22.328 19.913 19.114 42.869-3.2168 22.978-4.4032 24.657-22.319 31.577-23.453 9.059-28.233 17.41-19.809 34.614 10.281 20.997 23.728 26.181 56.712 21.863zm-500.34-23.42c27.916-7.1397 51.916-31.28 68.875-69.277 14.25-31.929 13.95-44.798-0.8014-34.365-45.522 32.193-79.606 44.719-109.36 40.193-14.119-2.1476-17.602-2.0581-20.178 0.5183-4.1803 4.1803-3.7207 5.0052 19.752 35.451 23.923 31.03 25.017 31.75 41.716 27.48zm219.91 0.905c6.0425-1.678 27.129-26.064 45.493-52.612 7.9734-11.526 2.4332-14.979-18.844-11.742-29.757 4.5261-63.841-8.0005-109.36-40.193-29.19-20.643 4.3787 60.572 35.839 86.708 15.215 12.64 36.471 20.729 46.876 17.84zm460.84-48.413c10.755-1.891 28.569-9.3456 34.131-14.283 0.9625-0.8544 1.75-1.2168 1.75-0.8054 0 0.4115 2.2-1.0938 4.8888-3.345s5.3498-4.0931 5.9133-4.0931c8.6733 0 27.211-27.745 27.203-40.715-0.012-19.284-8.695-32.214-21.505-32.021-5.4892 0.082-7.8807 0.8674-21.876 7.1795-13.794 6.2213-20.019 5.2387-32.284-5.0958-2.8377-2.391-5.5798-4.3474-6.0936-4.3474-1.2445 0-13.303-11.8-13.033-12.754 0.1161-0.4102-0.4393-1.8709-1.2343-3.2459-3.6041-6.2339-1.3258-26.804 3.7207-33.594 1.2649-1.7019 2.2998-3.5207 2.2998-4.0418s2.025-2.9348 4.5-5.3638 4.5-4.028 4.5-3.5532c0 0.4747 0.7875 0.1753 1.75-0.6654 9.3972-8.2081 37.804-3.0073 62.75 11.488 13.91 8.083 18.791 7.4286 33.679-4.5156 2.5737-2.0647 5.0023-3.754 5.397-3.754s2.777-1.6875 5.294-3.75 4.8332-3.75 5.147-3.75c1.2842 0 14.104-10.861 16.057-13.604 3.2457-4.5582 1.1859-13.358-4.6756-19.975-0.7692-0.8683-1.3985-1.9525-1.3985-2.4092s-1.8-3.2144-4-6.1283-4-5.6123-4-5.9965-1.125-2.1735-2.5-3.9762-2.5-3.6694-2.5-4.1482-1.575-2.3971-3.5-4.2629-3.5-3.024-3.5-2.5737c0 0.4502-0.5625 0.3655-1.25-0.1884-2.3629-1.9035-7.5839-2.356-13.912-1.2058-3.4861 0.6337-7.2384 1.2635-8.3384 1.3997-1.1 0.1361-4.475 0.7678-7.5 1.4039-14.076 2.9595-25.932 5.3422-30.5 6.1295-2.75 0.4739-8.15 1.6107-12 2.5262-3.85 0.9154-8.0814 1.8757-9.403 2.1338-2.924 0.5712-10.325 2.4232-23.597 5.9048-5.5 1.4428-11.61 2.9641-13.577 3.3807-1.9673 0.4166-4.1123 1.0883-4.7665 1.4926-0.6541 0.4043-2.4195 0.9545-3.9229 1.2226-4.2311 0.7546-23.405 7.2371-26.484 8.9536-1.5125 0.8435-2.75 1.2577-2.75 0.9205s-1.2375 0.039-2.75 0.8364c-1.5125 0.7972-5.225 2.6866-8.25 4.1986s-6.85 3.4349-8.5 4.2731c-21.104 10.72-34.719 42.699-30.41 71.423 1.6184 10.788 7.7279 31.626 10.121 34.519 0.5686 0.6875 0.7282 1.25 0.3548 1.25s-0.019 1.2375 0.788 2.75c0.8069 1.5125 2.151 4.325 2.9871 6.25 3.8591 8.8856 8.9935 10.796 22.159 8.2432 7.1209-1.3806 42.236-0.949 50.5 0.6207 3.025 0.5745 9.1 1.5427 13.5 2.1514 21.539 2.9801 24.02 8.8046 9.75 22.895-10.726 10.591-14.206 12.042-31.215 13.01-15.403 0.8768-17.81 2.6282-12.42 9.0347 5.359 6.3688 15.037 11.045 26.885 12.99 7.4028 1.2152 8.4774 1.1897 17.619-0.4175zm-1144.6-1.6376c3.2636-0.6111 6.3837-1.1842 6.9337-1.2734 5.6067-0.91 16.333-6.6887 20.048-10.8 6.4547-7.1446 4.3558-8.9732-11.395-9.9276-17.338-1.0506-20.878-2.5096-31.403-12.943-15.719-15.583-11.64-20.893 18.75-24.41 2.2-0.2545 7.15-0.9201 11-1.479 9.9334-1.442 37.677-1.2383 45.814 0.3364 9.1739 1.7751 11.31 1.3807 15.692-2.8982 3.6275-3.5421 4.3183-4.6298 6.9819-10.994 0.6906-1.65 1.9013-4.2375 2.6904-5.75s1.1727-2.75 0.8525-2.75c-0.3203 0 0.031-1.2375 0.7806-2.75 6.0879-12.284 10.179-39.865 7.7066-51.951-0.54-2.6396-1.1688-5.9242-1.3972-7.2992-2.0887-12.571-18.21-34.597-29.621-40.469-11.745-6.0441-19.052-9.5309-19.972-9.5309-0.5802 0-1.8362-0.4403-2.7913-0.9784-1.9209-1.0824-23.158-8.0709-30.236-9.9501-2.475-0.6571-5.85-1.6449-7.5-2.1952s-4.0814-1.2189-5.403-1.4858c-1.3217-0.2668-5.1467-1.1779-8.5-2.0246-11.531-2.9116-40.101-9.4678-43.097-9.8898-1.65-0.2324-7.275-1.3557-12.5-2.4962s-11.075-2.2847-13-2.5426c-1.925-0.258-4.85-0.8644-6.5-1.3477-16.253-4.76-34.5-1.5077-34.5 6.1493 0 0.4656-1.8 3.2831-4 6.2611s-4 5.7066-4 6.0634-1.3878 2.401-3.084 4.5427c-1.6962 2.1416-2.7834 3.8939-2.416 3.8939 0.36743 0-0.75757 1.8-2.5 4s-2.8797 4-2.5273 4c0.35241 0-0.0598 1.0001-0.91597 2.2225-2.1544 3.0758-1.9465 8.4214 0.45895 11.8 1.9804 2.7812 14.117 12.978 15.447 12.978 0.37334 0 2.8135 1.8 5.4226 4s5.1024 4 5.5406 4c0.43827 0 2.8862 1.6875 5.4399 3.75 15.367 12.412 18.637 12.665 36.634 2.8385 6.1455-3.3554 26.23-11.722 28.986-12.074 1.1078-0.1417 4.8267-0.8554 8.2642-1.5861 21.971-4.6704 40.767 13.126 40.735 38.572-0.01 7.6953-0.8452 11.743-3.1425 15.22-1.0135 1.5338-2.3228 3.6568-2.9095 4.7177-0.5868 1.0608-1.9212 2.4089-2.9654 2.9957-1.0442 0.5867-5.5141 4.0244-9.9332 7.6393-16.856 13.789-22.859 14.328-42.772 3.8413-20.444-10.766-35.709 1.3272-35.751 28.322-0.0214 13.954 0.84316 15.716 14.233 29.002 6.5061 6.4557 12.16 11.631 12.564 11.5 0.40382-0.1307 2.796 1.4499 5.3159 3.5124s4.9159 3.75 5.3243 3.75c0.40845 0 2.1602 1.0125 3.8928 2.25 6.3482 4.5341 21.297 11.177 27.659 12.29 1.925 0.337 5.3 0.9789 7.5 1.4265 5.7597 1.1719 7.4407 1.1626 14.066-0.078zm417.64-63.039c3.5744-1.8298 3.2591-7.05-0.9974-16.508-13.876-30.833-12.396-56.068 4.2764-72.92 17.238-17.423 43.096-9.707 49.655 14.817 3.7338 13.96-10.684 30.762-26.397 30.762-16.672 0-19.03 11.125-5.4415 25.675 18.275 19.568 39.909 12.27 78.812-26.587 23.489-23.461 26.025-32.024 12.911-43.588-24.825-21.89-23.87-47.734 2.4952-67.463 16.237-12.151 16.838-21.225 1.5937-24.041-7.58-1.4005-118.49-1.3224-125.07 0.088-8.3422 1.7891-10.129 7.5989-6.0003 19.51 4.0814 11.775 3.3909 24.054-2.1958 39.051-10.362 27.816-49.862 22.819-58.915-7.454-4.4038-14.726-19.946-8.8999-25.678 9.6256-12.398 40.069 12.973 87.326 58.068 108.16 22.261 10.284 36.82 13.976 42.881 10.874zm320.5-2.9901c53.806-18.428 79.79-49.482 79.79-95.359 0-32.144-20.211-54.471-27.437-30.309-9.053 30.273-48.553 35.27-58.915 7.454-5.5867-14.998-6.2772-27.276-2.1958-39.051 4.1287-11.911 2.3419-17.721-6.0003-19.51-6.5767-1.4104-117.49-1.4885-125.07-0.088-15.245 2.8166-14.643 11.891 1.5937 24.041 26.365 19.73 27.321 45.574 2.4952 67.463-13.114 11.563-10.578 20.126 12.911 43.588 38.902 38.857 60.537 46.156 78.812 26.587 13.588-14.55 11.23-25.675-5.4415-25.675-15.714 0-30.131-16.802-26.397-30.762 6.5591-24.524 32.417-32.24 49.655-14.817 16.692 16.871 18.155 42.081 4.2376 73.006-8.2321 18.292-2.4897 21.805 21.958 13.432zm-446.21-67.995c1.7854-1.7316 1.9542-2.9282 1.5731-11.152-1.8593-40.126 6.0234-64.919 26.455-83.205 16.086-14.396 14.234-15.008-45.484-15.008-61.655 0-58.962-1.0493-60.04 23.4-0.6704 15.208 0.1077 12.948-8.9506 26.001-9.5055 13.697 4.4612 27.28 53.208 51.747 23.67 11.88 28.285 13.021 33.238 8.2171zm578.49-6.5049c51.134-24.865 66.673-39.452 56.952-53.459-9.0583-13.053-8.2802-10.793-8.9506-26.001-1.0778-24.449 1.6144-23.4-60.04-23.4-59.717 0-61.569 0.611-45.484 15.008 20.417 18.273 28.325 43.121 26.455 83.127-0.8157 17.453 3.5335 18.115 31.067 4.7255zm-735.95-13.94c10.642-6.4831 14.132-7.8495 26.707-10.457 17.596-3.6482 18.921-6.5988 13.141-29.271-2.2499-8.8257-3.3251-15.919-3.8946-25.692-1.2434-21.338-7.296-28.349-17.653-20.449-1.8394 1.403-3.3444 2.259-3.3444 1.9022s-4.2684 3.3909-9.4854 8.3282-10.954 9.7107-12.75 10.608c-1.7955 0.8968-5.5146 2.9847-8.2646 4.6398-2.75 1.655-5.9 3.4054-7 3.8896-9.5632 4.2101-10.399 14.065-2.1231 25.026 3.9391 5.2167 6.499 9.7935 6.2378 11.152-0.063 0.328 0.4585 1.287 1.159 2.1311 1.2197 1.4695 2.371 5.4318 5.2369 18.023 1.5898 6.9844 0.864 6.9742 12.033 0.1698zm872.35-4.6719c2.301-10.001 5.6586-17.417 11.23-24.804 4.3698-5.7937 6.9065-12.685 5.8707-15.948-0.6611-2.0832-10.126-10.996-11.677-10.996-0.5289 0-2.9238-1.35-5.322-3s-4.7463-3-5.2179-3c-0.4717 0-2.4157-1.3317-4.3199-2.9594-1.9042-1.6276-3.9276-2.9776-4.4964-3-0.5687-0.022-3.4937-2.5475-6.5-5.6114-18.117-18.465-22.471-16.908-23.961 8.5708-0.5709 9.764-1.6494 16.874-3.8972 25.692-5.7798 22.673-4.4551 25.623 13.141 29.271 12.25 2.5398 16.109 3.9991 24.882 9.4077 4.053 2.4988 7.594 4.5617 7.869 4.5843 0.275 0.023 1.3539-3.6707 2.3976-8.207zm53.728-66.132c4.1942-0.7394 8.0192-1.5861 8.5-1.8814 0.4809-0.2953 2.6743-0.82 4.8743-1.166 4.5265-0.7119 3.5998-0.4303 28.438-8.6406 27.854-9.2071 30.937-11.15 29.708-18.725-0.5761-3.5503-5.9309-10.203-8.2123-10.203-2.0938 0-18.862-16.599-21.33-21.115-6.6-12.3-12.1-23.6-12.1-25.1 0-0.9018-0.5084-2.1481-1.1298-2.7695s-1.2691-2.1739-1.4394-3.45-0.7869-3.8922-1.3702-5.8136-1.0606-8.9985-1.0606-15.727c0-16.492-3.0099-19.22-11.437-10.366-1.6154 1.6974-3.4184 3.0861-4.0067 3.0861-1.2415 0-56.121 54.672-57.879 57.66-0.6475 1.1007-2.1881 3.54-3.4236 5.4207-4.6454 7.0719-2.5561 12.518 9.1767 23.92 6.0533 5.8825 8.4783 9.701 9.2085 14.5 1.9971 13.124 2.2929 13.956 6.3115 17.75 4.6011 4.3438 12.204 5.0058 27.175 2.3661zm-966.1-4.6c3.5867-3.4021 4.0559-4.4459 5.0571-11.25 1.5137-10.287 3.0807-13.174 12.562-23.148 10.904-11.471 12.01-16.613 5.2318-24.333-1.6991-1.935-2.708-3.5183-2.2421-3.5183 0.466 0-12.197-13.05-28.14-29s-29.385-29-29.872-29c-0.4869 0-2.6286-1.575-4.7594-3.5-8.0182-7.2439-10.368-4.4904-10.028 11.748 0.2756 13.125-0.7571 18.424-5.8949 30.252-0.7168 1.65-1.3622 3.225-1.4344 3.5-0.6114 2.3292-7.1316 14.556-9.522 17.856-1.6511 2.2793-2.6738 4.1442-2.2726 4.1442s-2.3964 3.15-6.2169 7-7.4486 7-8.0625 7c-12.38 0-16.308 20.684-4.8386 25.477 6.0769 2.5391 36.688 12.769 39.094 13.065 1.206 0.1482 2.7068 0.5872 3.3351 0.9755 1.0836 0.6697 10.586 3.0275 15.972 3.9633 1.375 0.2388 4.3 0.8582 6.5 1.3764 2.2 0.5181 7.9549 0.9873 12.789 1.0425l8.7887 0.1005 3.9536-3.75zm1279.2-6.0814c14.557-8.9965 24.884-45.977 19.791-70.869-0.54-2.6396-1.1707-5.9242-1.4014-7.2992-1.4798-8.8172-7.042-27.47-8.782-29.45-0.4591-0.5225-0.8347-1.6716-0.8347-2.5537 0-1.57-1.6189-5.2378-8.6679-19.638-7.2009-14.71-14.505-15.578-15.969-1.8976-1.494 13.963-8.7031 45.128-11.344 49.039-0.3714 0.55-1.4944 3.2146-2.4955 5.9213-1.7024 4.6023-7.3276 15.899-12.488 25.079-1.2367 2.2-3.7758 5.8757-5.6424 8.1683s-3.3938 4.5211-3.3938 4.9524c0 1.0823-6.1916 7.3793-7.2558 7.3793-1.3591 0-17.613 13.87-19.336 16.5-2.8784 4.393 1.6388 8.8161 10.14 9.9282 2.7239 0.3564 7.6525 1.0576 10.952 1.5583 3.3 0.5007 10.5 1.4152 16 2.0323s13.15 1.6922 17 2.3892c10.46 1.8937 19.414 1.4258 23.727-1.2398zm-1593.8-1.121c6.8992-1.0744 20.347-2.9366 25.615-3.5471 32.9-3.8125 34.537-6.6268 13.841-23.804-3.1127-2.5833-6.0163-4.697-6.4524-4.697-1.1015 0-7.3881-6.1928-7.3881-7.2779 0-0.487-1.5272-2.7612-3.3938-5.0538-3.6242-4.4512-5.6355-7.8-11.813-19.668-9.9307-19.079-14.191-32.71-19.261-61.62-2.34-13.2-4.04-17.3-7.16-17.3-1.3394 0-8.2906 7.7301-8.5428 9.5-0.0784 0.55-1.119 2.575-2.3125 4.5s-3.219 6.2-4.5012 9.5-2.9221 7.35-3.6443 9c-2.1278 4.8615-6.43 18.872-6.2949 20.5 0.0228 0.275-0.41131 1.691-0.96477 3.1468-5.0947 13.4-5.4539 50.055-0.568 57.96 0.3009 0.4868 0.7062 1.6744 0.90068 2.6389 0.19447 0.9646 1.3697 4.0038 2.6116 6.7538s2.3002 5.225 2.3518 5.5c2.1654 11.543 16.949 17.163 36.954 14.048zm1428.6-27.4c4.675-0.7685 9.85-1.7033 11.5-2.0774 7.6901-1.7437 28.308-9.846 34-13.361 2.2-1.3586 4.225-2.4635 4.5-2.4553 14.837 0.4415 16.201-17.446 1.6713-21.908-45.841-14.077-67.169-64.71-34.442-81.769 27.986-14.587 54.19 20.696 32.49 43.75-10.843 11.519-2.7188 21.253 17.739 21.253 15.87 0 26.237-9.0833 29.104-25.5 0.1922-1.1 0.8129-4.025 1.3795-6.5 4.0853-17.845 5.369-55.253 2.3582-68.718-2.6009-11.632-6.2545-13.756-25.3-14.71-31.203-1.5629-44.584-16.317-40.878-45.071 2.6064-20.223 1.6167-23.939-6.6221-24.861-3.1265-0.3501-4.6952 0.077-7.1833 1.9568-1.7508 1.3225-3.5488 2.4046-3.9956 2.4046-1.0677 0-84.321 83.245-84.321 84.312 0 0.4516-1.1749 2.3616-2.611 4.2443-3.4887 4.574 3.1108 17.25 8.4631 16.255 3.4263-0.6367 21.148 13.854 21.148 17.293 0 0.598 1.0118 2.5066 2.2484 4.2415 1.2367 1.7349 2.2893 3.3794 2.3392 3.6544 0.05 0.275 1.102 2.6779 2.3381 5.3399 7.524 16.203-0.724 30.876-22.223 39.534-5.8166 2.3424-16.084 0.6069-25.203-4.2601-10.502-5.6054-18.177 2.7324-14.632 15.897 0.5908 2.1943 1.1367 4.4396 1.2129 4.9896 0.076 0.55 0.9893 2.1945 2.0288 3.6544 1.0396 1.4599 1.8901 3.2 1.8901 3.867 0 1.7332 21.91 23.336 25.5 25.142 1.65 0.8303 4.575 2.4096 6.5 3.5096 5.8382 3.3362 8.475 4.752 9 4.8323 0.275 0.042 2.975 0.9236 6 1.959 12.851 4.3989 29.133 5.5471 44 3.1032zm-1258-2.0126c13.791-2.5844 25.84-7.4966 34.384-14.018 2.5484-1.9453 4.9576-3.5368 5.3539-3.5368 1.0169 0 17.262-16.276 17.262-17.295 0-0.4614 1.1415-2.3354 2.5366-4.1645 12.379-16.229 5.586-35.03-9.9709-27.599-16.708 7.9816-27.142 6.3755-40.245-6.1947-11.662-11.189-12.305-23.803-1.9451-38.163 1.224-1.6966 2.8666-4.3697 3.6504-5.9405 2.1448-4.2986 11.008-11.929 17.612-15.162 11.61-5.6841 15.122-11.703 10.362-17.754-1.1-1.3984-2-2.9196-2-3.3804 0-1.0846-83.228-84.347-84.312-84.347-0.45165 0-2.2961-1.125-4.0988-2.5-4.5746-3.4892-8.939-3.3037-12.786 0.5433-3.3841 3.3841-3.3465 2.2997-0.79661 22.957 3.6219 29.342-9.2332 42.325-44.429 44.872l-13.923 1.0075-3.387 3.387c-1.991 1.991-3.6035 4.7604-3.9122 6.719-0.28881 1.8326-0.93686 4.4149-1.4401 5.7385-1.177 3.0958-1.15 43.513 0.0326 48.776 0.49427 2.2 1.1337 6.25 1.4209 9 2.2788 21.817 10.167 35.943 21.987 39.373 12.124 3.5189 28.138-0.4763 31.847-7.9454 2.4979-5.0307 2.3349-5.5303-4.002-12.264-14.064-14.945-9.9882-38.23 7.6905-43.939 30.303-9.7868 50.753 18.752 34.802 48.568-2.9917 5.5923-20.433 23.708-22.825 23.708-0.49871 0-2.6025 1.0705-4.6752 2.3789-2.0726 1.3084-8.2512 4.0329-13.73 6.0545-15.028 5.5448-18.214 10.826-10.848 17.98 1.9878 1.9305 3.9003 3.4487 4.25 3.3736 0.84296-0.1809 5.7875 2.1326 10.136 4.7424 1.925 1.1554 6.2 3.1198 9.5 4.3654 3.3 1.2455 6.8499 2.7215 7.8887 3.2798 1.9748 1.0615 11.382 4.1806 13.111 4.3471 0.55 0.053 2.0263 0.4419 3.2807 0.8643 9.8366 3.3119 30.464 4.3716 42.219 2.1688zm1271.7-288.8 272.3-272.3v-385-385l-272.2-272.25-272.3-272.25h-385-385l-272.25 272.25-272.25 272.25v385 385l272.25 272.25 272.25 272.25h385 385l272.25-272.25zm279.23 173.21c3.0375-0.5992 7.0978-1.5979 9.0228-2.2192 1.925-0.6214 3.95-1.2217 4.5-1.334s3.25-1.2251 6-2.4728c2.75-1.2478 5.225-2.3109 5.5-2.3625 11.543-2.1654 17.163-16.95 14.048-36.954-1.0744-6.8992-2.9366-20.347-3.5471-25.615-3.8125-32.9-6.6268-34.537-23.804-13.84-2.5833 3.1127-4.697 6.0163-4.697 6.4524 0 1.1015-6.1928 7.3881-7.2779 7.3881-0.487 0-2.7612 1.5272-5.0538 3.3938-4.4512 3.6242-7.8 5.6355-19.668 11.813-19.079 9.9307-32.71 14.192-61.62 19.261-13.256 2.3243-17.38 4.0179-17.38 7.1375 0 1.244 8.8768 9.3366 9.2957 8.4744 0.1124-0.2312 2.0043 0.6982 4.2043 2.0653s6.7 3.5347 10 4.8169 7.35 2.9221 9 3.6443c4.8615 2.1277 18.872 6.43 20.5 6.2948 0.275-0.023 1.691 0.4113 3.1468 0.9648 2.332 0.8867 16.941 3.5506 23.853 4.3495 4.7461 0.5485 18.471-0.1711 23.977-1.2571zm-1842.3-1.94c2.6396-0.54 5.9242-1.1707 7.2992-1.4014 8.8172-1.4798 27.47-7.042 29.45-8.782 0.5225-0.4591 1.6716-0.8347 2.5537-0.8347 1.5701 0 5.2379-1.6189 19.638-8.6679 14.71-7.2009 15.578-14.505 1.8975-15.969-13.963-1.494-45.128-8.7031-49.039-11.344-0.55-0.3714-3.2146-1.4944-5.9213-2.4955-4.6024-1.7024-15.899-7.3276-25.079-12.488-2.2-1.2367-5.8757-3.7758-8.1683-5.6424s-4.5211-3.3938-4.9524-3.3938c-1.0823 0-7.3793-6.1916-7.3793-7.2558 0-1.3591-13.87-17.613-16.5-19.336-4.393-2.8784-8.8161 1.6388-9.9282 10.14-0.35636 2.7239-1.0576 7.6525-1.5583 10.952-0.5007 3.3-1.4137 10.5-2.0289 16-0.61517 5.5-1.6025 12.7-2.194 16-3.6436 20.326-0.80897 27.458 14.21 35.75 14.824 8.1852 41.061 12.172 57.701 8.7677zm1745.9-82c2.2-0.4942 6.25-1.1337 9-1.4209 21.817-2.2788 35.943-10.166 39.373-21.987 3.5189-12.124-0.4763-28.138-7.9454-31.847-5.0307-2.4979-5.5303-2.3348-12.264 4.002-19.768 18.603-45.663 6.7597-45.663-20.884 0-23.392 26.043-34.581 50.292-21.608 5.5923 2.9917 23.708 20.433 23.708 22.826 0 0.4987 1.0705 2.6025 2.3789 4.6752 1.3084 2.0726 4.0329 8.2511 6.0545 13.73 5.5448 15.028 10.826 18.214 17.98 10.848 1.9305-1.9878 3.4487-3.9003 3.3736-4.25-0.1809-0.843 2.1326-5.7875 4.7424-10.136 1.1554-1.925 3.1198-6.2 4.3654-9.5 1.2455-3.3 2.7167-6.8422 3.2692-7.8716 1.2654-2.3577 3.8785-10.423 4.3159-13.321 0.1821-1.206 0.5727-2.5839 0.8681-3.0619 1.1727-1.8974 3.6505-20.648 3.6319-27.484-0.047-17.16-6.3567-37.24-15.444-49.145-1.9453-2.5484-3.5368-4.9576-3.5368-5.3539 0-1.0169-16.276-17.262-17.295-17.262-0.4614 0-2.3354-1.1415-4.1645-2.5366-16.229-12.379-35.03-5.586-27.599 9.9709 7.9816 16.708 6.3755 27.142-6.1947 40.245-11.189 11.662-23.803 12.305-38.163 1.9451-1.6966-1.224-4.3697-2.8667-5.9405-3.6504-4.2986-2.1447-11.929-11.008-15.162-17.612-5.6841-11.61-11.703-15.122-17.754-10.362-1.3984 1.1-2.9196 2-3.3804 2-1.0846 0-84.347 83.228-84.347 84.312 0 0.4516-1.125 2.2961-2.5 4.0988-3.4892 4.5746-3.3037 8.939 0.5433 12.786 3.3841 3.3841 2.2997 3.3464 22.957 0.7966 29.342-3.6219 42.325 9.2332 44.872 44.429l1.0075 13.923 3.387 3.3871c1.9776 1.9776 4.7621 3.6037 6.6915 3.9078 1.8174 0.2864 4.258 0.9059 5.4234 1.3767 2.8338 1.1447 44.049 1.1741 49.119 0.035zm-1630.8-2.7561c11.613-2.5966 13.74-6.2579 14.694-25.296 1.5629-31.203 16.317-44.584 45.071-40.878 20.223 2.6064 23.939 1.6167 24.861-6.6221 0.35009-3.1265-0.0772-4.6952-1.9567-7.1833-1.29-1.7-2.37-3.5-2.37-4 0-1-83.24-84.3-84.31-84.3-0.45165 0-2.3616-1.1749-4.2443-2.611-4.574-3.4887-17.25 3.1108-16.255 8.4631 0.63676 3.4263-13.854 21.148-17.293 21.148-0.59791 0-2.5066 1.0118-4.2415 2.2484-1.7349 1.2367-3.3794 2.2893-3.6544 2.3392-0.275 0.05-2.678 1.102-5.3399 2.3381-16.203 7.524-30.876-0.724-39.534-22.223-2.3424-5.8166-0.60683-16.084 4.2601-25.203 5.7109-10.7-2.7424-18.174-16.397-14.497-2.4693 0.6649-4.7146 1.2108-4.9896 1.213-0.275 0-1.6945 0.8546-3.1544 1.8941-1.4599 1.0396-3.2001 1.8901-3.867 1.8901-1.7332 0-23.336 21.91-25.142 25.5-0.83029 1.65-2.4096 4.575-3.5097 6.5-3.524 6.1669-4.7255 8.4764-4.9421 9.5-0.11639 0.55-0.95046 3.025-1.8535 5.5-5.3536 14.673-5.7234 34.763-1.0214 55.5 1.6632 7.3351 9.7978 28.225 13.045 33.5 1.185 1.925 2.29 3.95 2.4554 4.5 5.0135 16.67 17.4 17.88 22.224 2.1713 14.077-45.841 64.71-67.169 81.769-34.442 14.587 27.986-20.696 54.19-43.749 32.49-11.519-10.843-21.253-2.7188-21.253 17.739 0 15.886 8.9033 26.055 25.5 29.124 1.1 0.2034 4.25 0.8506 7 1.4382 18.89 4.0362 54.977 5.2394 68.235 2.2751zm1824.3-39.312c2.7812-1.9804 12.978-14.117 12.978-15.447 0-0.3733 1.8-2.8135 4-5.4226 2.2-2.609 4-5.1023 4-5.5406s1.6875-2.8862 3.75-5.4399c12.412-15.368 12.665-18.637 2.8385-36.634-3.3554-6.1455-11.722-26.23-12.074-28.986-0.1417-1.1078-0.8554-4.8267-1.5861-8.2642-4.6704-21.972 13.126-40.767 38.572-40.735 7.6953 0.01 11.743 0.8452 15.22 3.1425 1.5338 1.0135 3.6568 2.3228 4.7177 2.9095 1.0608 0.5868 2.4089 1.9212 2.9957 2.9654 0.5867 1.0442 4.0244 5.5141 7.6393 9.9332 13.789 16.856 14.328 22.859 3.8413 42.772-10.766 20.444 1.3272 35.709 28.322 35.751 13.954 0.021 15.716-0.8431 29.002-14.233 6.4557-6.5061 11.631-12.16 11.5-12.564-0.1307-0.4038 1.4499-2.796 3.5124-5.3159s3.75-4.9159 3.75-5.3243c0-0.4085 1.0125-2.1602 2.25-3.8928 4.1969-5.876 11.147-21.176 12.11-26.659 0.2415-1.375 0.9649-5.3721 1.6076-8.8824 0.9107-4.9748 0.8905-7.9522-0.092-13.5-0.693-3.9147-1.2913-7.3426-1.3296-7.6176-1.5786-11.359-14.572-26.289-18.627-21.403-0.8243 0.9933-1.5926 6.0038-2.0317 13.25-1.0506 17.338-2.5096 20.878-12.943 31.403-15.583 15.719-20.893 11.64-24.41-18.75-0.2545-2.2-0.9201-7.15-1.479-11-1.442-9.9334-1.2383-37.677 0.3364-45.814 1.7751-9.1739 1.3807-11.31-2.8982-15.692-3.4598-3.5432-5.715-4.9656-11.494-7.2495-1.375-0.5434-3.7375-1.6337-5.25-2.4228s-2.75-1.1727-2.75-0.8525c0 0.3203-1.2375-0.031-2.75-0.7806-12.284-6.0879-39.865-10.179-51.951-7.7066-2.6396 0.54-5.9242 1.1688-7.2992 1.3972-12.571 2.0887-34.597 18.21-40.469 29.621-6.0441 11.745-9.5309 19.052-9.5309 19.972 0 0.5802-0.4403 1.8362-0.9784 2.7913-1.0824 1.9209-8.0709 23.158-9.9501 30.236-0.6571 2.475-1.6449 5.85-2.1952 7.5s-1.2189 4.0814-1.4858 5.403c-0.2668 1.3217-1.1779 5.1467-2.0246 8.5-2.9116 11.531-9.4678 40.101-9.8898 43.097-0.2324 1.65-1.3557 7.275-2.4962 12.5s-2.2847 11.075-2.5426 13c-0.258 1.925-0.8644 4.85-1.3477 6.5-4.76 16.253-1.5077 34.5 6.1493 34.5 0.4656 0 3.2831 1.8 6.2611 4s5.7066 4 6.0634 4 2.401 1.3878 4.5427 3.084c2.1416 1.6962 3.8939 2.7834 3.8939 2.416s1.8 0.7576 4 2.5 4 2.8797 4 2.5273 1.0001 0.06 2.2225 0.916c3.0758 2.1544 8.4214 1.9465 11.8-0.459zm-2055-2.8c2.475-1.3274 5.2104-3.0436 6.0787-3.8139 0.86831-0.7703 1.9524-1.4006 2.4091-1.4006 0.45672 0 3.2145-1.8 6.1284-4s5.6123-4 5.9965-4c0.38419 0 2.1735-1.125 3.9762-2.5s3.6694-2.5 4.1482-2.5c0.47881 0 2.3971-1.575 4.2629-3.5s3.024-3.5 2.5737-3.5c-0.45023 0-0.36547-0.5625 0.18836-1.25 1.9035-2.3629 2.356-7.5839 1.2058-13.912-0.63369-3.4861-1.2635-7.2384-1.3996-8.3384-0.13612-1.1-0.76787-4.475-1.4039-7.5-2.9596-14.076-5.3423-25.932-6.1295-30.5-0.47395-2.75-1.6107-8.15-2.5262-12-0.91545-3.85-1.8757-8.0814-2.1339-9.403-0.57114-2.924-2.4231-10.325-5.9048-23.597-1.4428-5.5-2.9641-11.61-3.3808-13.577-0.41661-1.9673-1.0883-4.1123-1.4926-4.7665-0.40431-0.6541-0.95449-2.4195-1.2226-3.9229-0.75459-4.2311-7.2371-23.405-8.9536-26.484-0.84345-1.5125-1.2577-2.75-0.92047-2.75 0.33719 0-0.0392-1.2375-0.83642-2.75-0.79721-1.5125-2.6866-5.225-4.1986-8.25s-3.4349-6.85-4.2731-8.5c-10.72-21.104-42.699-34.719-71.423-30.41-10.788 1.6184-31.626 7.7279-34.519 10.121-0.6875 0.5686-1.25 0.7282-1.25 0.3548s-1.2375-0.019-2.75 0.788c-1.5125 0.8069-4.325 2.151-6.25 2.9871-8.8856 3.8591-10.796 8.9935-8.2432 22.159 1.3806 7.1209 0.94899 42.236-0.62068 50.5-0.57454 3.025-1.5427 9.1-2.1514 13.5-2.9801 21.539-8.8046 24.02-22.895 9.75-10.591-10.726-12.042-14.206-13.01-31.215-0.89435-15.712-2.68-17.959-9.5071-11.965-17.425 15.299-16.248 57.417 2.1833 78.18 0.85443 0.9625 1.2169 1.75 0.8054 1.75-0.41146 0 1.0938 2.2 3.345 4.8888s4.0931 5.3498 4.0931 5.9133c0 8.6733 27.745 27.211 40.715 27.203 19.284-0.012 32.214-8.695 32.021-21.505-0.0825-5.4892-0.86736-7.8807-7.1795-21.876-6.2213-13.794-5.2387-20.019 5.0958-32.284 2.3911-2.8377 4.3474-5.5798 4.3474-6.0936 0-1.2445 11.8-13.303 12.754-13.033 0.41024 0.1161 1.8709-0.4393 3.2459-1.2343 6.2339-3.6041 26.804-1.3258 33.594 3.7207 1.7019 1.2649 3.5207 2.2998 4.0418 2.2998 0.52107 0 2.9348 2.025 5.3638 4.5s4.028 4.5 3.5532 4.5c-0.47476 0-0.17534 0.7875 0.66537 1.75 8.2081 9.3972 3.0074 37.804-11.488 62.75-8.083 13.91-7.4285 18.791 4.5156 33.679 2.0647 2.5737 3.754 5.0023 3.754 5.397s1.6875 2.777 3.75 5.294 3.75 4.8332 3.75 5.147c0 1.1521 10.677 13.947 13.297 15.935 3.4885 2.6465 8.3651 2.3932 14.203-0.7377zm1983.3-134.62c1.4254-1.321 3.3052-4.1097 4.1774-6.1971 2.5391-6.0769 12.769-36.688 13.065-39.094 0.1482-1.206 0.5872-2.7068 0.9755-3.3351 0.6858-1.1097 3.0783-10.803 3.9707-16.088 0.243-1.4389 0.8966-4.5889 1.4524-7 4.224-18.322-0.2582-27.959-13.94-29.972-10.287-1.5137-13.174-3.0807-23.148-12.562-11.471-10.904-16.613-12.01-24.333-5.2318-1.935 1.6991-3.5183 2.708-3.5183 2.2421 0-0.466-13.05 12.197-29 28.14s-29 29.385-29 29.872c0 0.4869-1.575 2.6286-3.5 4.7594-7.2439 8.0182-4.4904 10.368 11.748 10.028 13.125-0.2756 18.424 0.7571 30.252 5.8949 1.65 0.7168 3.225 1.3622 3.5 1.4344 2.3292 0.6114 14.556 7.1316 17.856 9.522 2.2793 1.6511 4.1442 2.6738 4.1442 2.2726s3.15 2.3964 7 6.2169 7 7.4486 7 8.0625c0 7.4618 16.135 15.822 21.3 11.036zm-1911.7-3.7154c1.8585-1.8013 3.379-3.8037 3.379-4.4496 0-2.0938 16.599-18.862 21.115-21.33 12.037-6.5784 23.379-12.103 24.846-12.103 0.90182 0 2.1481-0.5084 2.7695-1.1298 0.62139-0.6214 2.1739-1.2691 3.45-1.4394s3.8922-0.7869 5.8136-1.3702 8.9985-1.0606 15.727-1.0606c16.492 0 19.22-3.0099 10.366-11.437-1.6973-1.6154-3.0861-3.4184-3.0861-4.0067 0-1.2415-54.672-56.121-57.66-57.879-1.1006-0.6475-3.5399-2.1881-5.4207-3.4236-7.0718-4.6454-12.518-2.5561-23.92 9.1767-5.8825 6.0533-9.701 8.4783-14.5 9.2085-18.16 2.7634-21.512 5.5833-21.48 18.072 0.0182 7.223 2.0107 21.904 3.2456 23.914 0.29531 0.4809 0.82001 2.6743 1.166 4.8743 0.7109 4.5202 0.45496 3.677 8.4982 28 10.641 32.179 15.045 36.702 25.691 26.383zm-274.56-92.918c3.7429-2.0031 2.3434-5.5722-5.4548-13.911-20.589-22.016-18.254-59.36 2.8737-45.962 19.963 12.66 43.954 34.125 54.916 49.134 9.7923 13.407 15.36 13.221 43.975-1.4705 68.711-35.278 65.364-77.619-15.83-200.26-29.492-44.545-25.856-42.315-57.954-35.546-30.284 6.3865-29.557 5.1834-24.195 40.048 5.3178 34.574 5.346 34.621 24.224 40.515 46.374 14.477 61.819 34.647 47.846 62.483-8.698 17.327-19.913 22.328-42.869 19.114-22.978-3.2168-24.657-4.4032-31.577-22.319-10.642-27.552-26.696-31.237-47.147-10.821-19.661 19.627-11.147 80.72 14.712 105.57 11.011 10.58 29.251 17.292 36.479 13.424zm2471.4-6.8216c35.31-17.497 53.472-90.421 28.682-115.17-20.451-20.416-36.505-16.732-47.147 10.821-6.92 17.916-8.5985 19.102-31.577 22.319-22.955 3.2136-34.171-1.7872-42.869-19.114-13.974-27.837 1.4712-48.006 47.846-62.483 18.878-5.8933 18.906-5.9404 24.224-40.515 5.3625-34.865 6.0894-33.662-24.195-40.048-32.098-6.7689-28.462-8.9992-57.954 35.546-81.194 122.64-84.541 164.98-15.83 200.26 28.614 14.691 34.182 14.878 43.974 1.4705 10.963-15.009 34.954-36.474 54.916-49.134 21.128-13.399 23.462 23.946 2.8737 45.962-13.876 14.838-4.146 20.594 17.054 10.089zm-229.98-3.2548c2.1801-0.6052 6.4551-2.9815 9.5-5.2806 4.8087-3.6308 10.446-6.8089 12.036-6.7853 0.275 0 1.009-0.415 1.6311-0.9313 1.0961-0.9097 5.666-2.1811 17.619-4.9018 6.9844-1.5898 6.9742-0.864 0.1698-12.033-6.4831-10.642-7.8495-14.132-10.457-26.707-3.6482-17.596-6.5988-18.921-29.271-13.141-8.8257 2.2499-15.919 3.3251-25.692 3.8946-21.338 1.2434-28.349 7.296-20.449 17.653 1.403 1.8394 2.259 3.3444 1.9022 3.3444s3.3909 4.2684 8.3282 9.4854 9.7107 10.954 10.608 12.75c0.8968 1.7955 2.9847 5.5146 4.6398 8.2646 1.655 2.75 3.4054 5.9 3.8896 7 2.8097 6.3822 8.8424 9.2494 15.546 7.3884zm-2025.1-4.8323c2.3533-2.1692 4.917-5.2067 5.6971-6.75 0.78012-1.5434 2.6697-4.6872 4.199-6.9863s2.7806-4.5661 2.7806-5.0377c0-0.4717 1.3317-2.4157 2.9594-4.3199 1.6276-1.9042 2.9776-3.9276 3-4.4964 0.0224-0.5687 2.5475-3.4937 5.6115-6.5 18.465-18.117 16.907-22.471-8.5708-23.961-9.764-0.5709-16.874-1.6494-25.692-3.8972-22.673-5.7798-25.623-4.4551-29.271 13.141-2.5399 12.25-3.9678 16.024-9.5349 25.194-2.5745 4.2412-4.5282 7.8112-4.3416 7.9335 0.18667 0.1223 3.9394 1.0622 8.3394 2.0887 9.8535 2.2987 17.288 5.6803 24.579 11.18 5.2137 3.9326 10.014 6.0513 14.193 6.2639 0.97479 0.05 3.6978-1.6846 6.051-3.8537zm-10.224-93.11c13.053-9.0583 10.793-8.2802 26.001-8.9506 24.449-1.0778 23.4 1.6144 23.4-60.04 0-59.717-0.61103-61.569-15.007-45.484-18.286 20.432-43.079 28.314-83.205 26.455-17.228-0.7983-17.995 4.0391-4.8805 30.756 25.466 51.879 39.651 67.008 53.693 57.263zm2053-2.5298c8.8432-6.1284 22.374-26.975 37.472-57.734 13.115-26.717 12.347-31.554-4.8806-30.756-40.126 1.8593-64.919-6.0234-83.205-26.455-14.396-16.086-15.008-14.234-15.008 45.484 0 61.655-1.0493 58.962 23.4 60.04 15.208 0.6704 12.948-0.1077 26.001 8.9506 5.693 3.9508 10.977 4.1039 16.22 0.4702zm-2064.4-108.9c18.104-5.7668 23.607-21.206 9.1034-25.544-30.273-9.053-35.27-48.553-7.454-58.915 14.998-5.5867 27.277-6.2772 39.051-2.1958 11.911 4.1287 17.721 2.3419 19.51-6.0003 1.4104-6.5767 1.4885-117.49 0.088-125.07-2.8166-15.245-11.891-14.643-24.041 1.5937-19.73 26.365-45.574 27.321-67.463 2.4952-11.563-13.114-20.126-10.578-43.588 12.911-38.857 38.902-46.156 60.537-26.587 78.812 14.55 13.588 25.675 11.23 25.675-5.4415 0-15.714 16.801-30.131 30.762-26.397 24.524 6.5591 32.24 32.417 14.817 49.655-16.851 16.672-42.086 18.152-72.92 4.2764-18.023-8.1107-21.893-2.0783-13.741 21.42 16.816 48.476 41.921 72.998 82.082 80.178 5.8956 1.0541 29.629-0.1639 34.706-1.781zm2105.1-3.454c33.031-8.9581 56.1-34.183 71.28-77.943 8.1514-23.498 4.2816-29.53-13.741-21.42-30.833 13.876-56.068 12.396-72.92-4.2764-17.423-17.238-9.707-43.096 14.817-49.655 13.96-3.7338 30.762 10.684 30.762 26.397 0 16.672 11.125 19.03 25.675 5.4415 19.568-18.275 12.27-39.909-26.587-78.812-23.461-23.489-32.024-26.025-43.588-12.911-21.89 24.825-47.734 23.87-67.463-2.4952-12.151-16.237-21.225-16.838-24.041-1.5937-1.4005 7.58-1.3224 118.49 0.088 125.07 1.7891 8.3422 7.5989 10.129 19.51 6.0003 11.775-4.0814 24.054-3.3909 39.051 2.1958 27.816 10.362 22.819 49.862-7.454 58.915-16.069 4.8054-8.3118 21.147 12.551 26.44 8.2439 2.0914 32.206 1.3221 42.061-1.3504zm-2273.8-82.1c2.4611-2.4611 2.5366-6.12 0.41413-20.074-4.5262-29.757 8.0004-63.841 40.193-109.36 10.432-14.752-2.4368-15.052-34.365-0.8014-38.858 17.343-63.847 42.818-69.878 71.238-3.096 14.588-1.7092 16.489 29.547 40.5 28.453 21.857 29.93 22.659 34.089 18.5zm2408.3-4.2296c9.7101-6.7169 45.814-35.168 48.478-38.203 9.0392-10.295 3.0044-34.201-13.674-54.166-26.349-31.541-107.38-65.02-86.74-35.839 32.193 45.522 44.719 79.606 40.193 109.36-3.2364 21.278 0.2158 26.818 11.742 18.844zm-2183.3-183.6c4.7396-4.315 5.011-8.152 5.011-70.837 0-75.66 0.0426-75.518-20.593-68.365-11.775 4.0814-24.053 3.3909-39.051-2.1958-27.816-10.362-22.819-49.862 7.454-58.915 24.162-7.2255 1.8345-27.437-30.309-27.437-46.049 0-76.646 25.702-95.582 80.29-8.1515 23.498-4.2816 29.53 13.741 21.42 30.833-13.876 56.068-12.396 72.92 4.2764 17.423 17.238 9.707 43.096-14.817 49.655-13.96 3.8-30.76-10.6-30.76-26.4 0-16.672-11.125-19.03-25.675-5.4415-19.568 18.275-12.27 39.909 26.587 78.812 23.461 23.489 32.024 26.025 43.588 12.911 21.89-24.825 47.734-23.87 67.463 2.4952 10.069 13.455 13.893 15.313 20.026 9.7302zm-181.19-2.813c0.21569-2.2065-0.67692-4.4436-3.192-8-32.193-45.522-44.719-79.606-40.193-109.36 3.2364-21.278-0.2158-26.818-11.742-18.844-9.71 6.7169-45.814 35.168-48.478 38.203-11.927 13.584 1.824 47.014 27.955 67.958 27.09 21.712 74.62 40.59 75.651 30.047zm2139 0.9864c1.2381-0.8672 5.3919-5.7738 9.2307-10.904 19.73-26.365 45.574-27.321 67.463-2.4952 11.563 13.114 20.126 10.578 43.588-12.911 38.857-38.902 46.156-60.537 26.587-78.812-14.55-13.588-25.675-11.23-25.675 5.4415 0 15.714-16.802 30.131-30.762 26.397-24.524-6.5591-32.24-32.417-14.817-49.655 16.851-16.672 42.086-18.152 72.92-4.2764 18.023 8.1107 21.893 2.0783 13.741-21.42-18.937-54.588-49.534-80.29-95.582-80.29-32.144 0-54.471 20.211-30.309 27.437 30.273 9.053 35.27 48.553 7.454 58.915-14.998 5.5867-27.276 6.2772-39.051 2.1958-20.636-7.1528-20.593-7.2943-20.593 68.365 0 72.633 1.9878 81.689 15.806 72.011zm188.3-3.407c48.953-16.401 82.526-46.032 89.526-79.016 3.1529-14.856-7.8715-27.032-52.308-57.77-11.526-7.9734-14.979-2.4332-11.742 18.844 4.5227 29.734-8.0363 63.926-40.144 109.29-8.0526 11.377-2.7675 14.495 14.668 8.6534zm-2345.4-189.7c10.927-5.185 71.186-101.17 85.733-136.56 19.988-48.626-0.28246-86.494-58.715-109.69-14.119-5.6049-18.081-4.5986-26.323 6.6866-10.963 15.009-34.953 36.474-54.916 49.134-21.128 13.399-23.463-23.946-2.8737-45.962 13.936-14.902 4.2067-20.624-17.107-10.063-35.258 17.471-53.396 90.418-28.629 115.14 20.451 20.416 36.505 16.732 47.147-10.821 6.92-17.916 8.5985-19.102 31.577-22.319 22.955-3.2136 34.171 1.7872 42.869 19.114 13.974 27.837-1.4712 48.006-47.846 62.483-18.878 5.8933-18.906 5.9404-24.224 40.515-5.3402 34.72-5.9635 33.651 23.295 39.958 20.202 4.3546 25.043 4.7385 30.013 2.3799zm2374.7-5.2895c30.284-6.3865 29.557-5.1834 24.195-40.048-5.3179-34.574-5.3461-34.621-24.224-40.515-46.374-14.477-61.819-34.647-47.846-62.483 8.6979-17.327 19.913-22.328 42.869-19.114 22.978 3.2168 24.657 4.4032 31.577 22.319 10.642 27.552 26.696 31.237 47.147 10.821 19.746-19.712 11.144-80.722-14.91-105.76-20.549-19.744-49.333-19.112-30.827 0.6766 20.589 22.016 18.254 59.36-2.8737 45.962-19.963-12.66-43.954-34.125-54.916-49.134-9.7923-13.407-15.36-13.221-43.974 1.4705-68.711 35.278-65.364 77.619 15.83 200.26 29.493 44.547 25.854 42.315 57.954 35.546zm-2172.7-17.7c1.6346-2.4941 1.773-6.4178 1.773-50.25 0-61.655 1.0492-58.962-23.4-60.04-15.208-0.6704-12.948 0.1077-26.001-8.9506-14.025-9.7332-28.255 5.4431-53.693 57.263-13.115 26.717-12.347 31.554 4.8805 30.756 40.127-1.8593 64.919 6.0234 83.205 26.455 7.5006 8.3806 10.223 9.3612 13.234 4.7665zm1954.8-7.7665c18.286-20.432 43.078-28.314 83.205-26.455 17.228 0.7983 17.995-4.0391 4.8806-30.756-25.437-51.82-39.667-66.996-53.693-57.263-13.053 9.0583-10.793 8.2802-26.001 8.9506-24.449 1.0778-23.4-1.6144-23.4 60.04 0 59.717 0.611 61.569 15.008 45.484zm-2002.2-142.6c8.8257-2.2499 15.919-3.3251 25.692-3.8946 21.338-1.2434 28.349-7.296 20.449-17.653-1.403-1.8394-2.259-3.3444-1.9022-3.3444s-3.3909-4.2684-8.3282-9.4854-9.7107-10.954-10.608-12.75c-0.8968-1.7955-2.9847-5.5146-4.6398-8.2646s-3.4054-5.9-3.8897-7c-4.2101-9.5632-14.065-10.399-25.026-2.1231-5.0465 3.8107-8.857 5.978-11.556 6.5728-0.55 0.1212-1.509 0.6428-2.1311 1.1591-1.0961 0.9097-5.666 2.1811-17.619 4.9018-6.9844 1.5898-6.9742 0.864-0.1698 12.033 6.4831 10.642 7.8496 14.132 10.457 26.707 3.6447 17.579 6.621 18.915 29.271 13.141zm2058.6-0.8515c3.1753-1.6993 5.0781-5.8326 7.0388-15.29 2.5399-12.25 3.9678-16.024 9.5349-25.194 2.5745-4.2412 4.5282-7.8112 4.3416-7.9335-0.1867-0.1223-3.9394-1.0622-8.3394-2.0887-9.8443-2.2965-17.287-5.6797-24.556-11.162-5.7937-4.3698-12.685-6.9065-15.948-5.8707-2.0832 0.6611-10.996 10.126-10.996 11.677 0 0.5289-1.35 2.9238-3 5.322s-3 4.7463-3 5.2179c0 0.4717-1.3317 2.4157-2.9594 4.3199-1.6276 1.9042-2.9776 3.9276-3 4.4964-0.022 0.5687-2.5475 3.4937-5.6114 6.5-18.561 18.211-16.976 22.413 9.0708 24.041 10.117 0.6324 17.051 1.6889 25 3.8091 11.415 3.0446 19.34 3.8066 22.424 2.1561zm-97.324-52.926c2.145-1.587 6.375-5.4322 9.4-8.545 5.8825-6.0533 9.701-8.4783 14.5-9.2085 18.16-2.7634 21.512-5.5833 21.48-18.072-0.018-7.223-2.0106-21.904-3.2456-23.914-0.2953-0.4809-0.82-2.6743-1.166-4.8743-0.7119-4.5265-0.4303-3.5998-8.6406-28.438-9.2071-27.854-11.15-30.937-18.725-29.708-3.5503 0.5761-10.203 5.9309-10.203 8.2123 0 2.0938-16.599 18.862-21.115 21.33-12.037 6.5784-23.379 12.103-24.846 12.103-0.9018 0-2.1481 0.5084-2.7695 1.1298s-2.1739 1.2691-3.45 1.4394-3.8922 0.7869-5.8136 1.3702-8.9985 1.0606-15.727 1.0606c-16.492 0-19.22 3.0099-10.366 11.437 1.6974 1.6154 3.0861 3.4184 3.0861 4.0067 0 1.2415 54.672 56.121 57.66 57.879 1.1007 0.6475 3.54 2.1881 5.4207 3.4236 4.7883 3.1453 9.7034 2.9315 14.52-0.6317zm-1871.3-0.2368c1.2013-0.6172 3.4218-2.2764 4.9343-3.6871s2.75-2.1461 2.75-1.6343c0 0.5119 13.05-12.114 29-28.056 15.95-15.943 29-29.385 29-29.872 0-0.4869 1.575-2.6286 3.5-4.7594 7.2439-8.0182 4.4904-10.368-11.748-10.028-13.125 0.2756-18.424-0.7571-30.252-5.8949-1.65-0.7168-3.225-1.3622-3.5-1.4344-2.3292-0.6114-14.556-7.1316-17.856-9.522-2.2793-1.6511-4.1442-2.6738-4.1442-2.2726s-3.15-2.3964-7-6.2169-7-7.4486-7-8.0625c0-12.38-20.684-16.308-25.477-4.8386-2.5391 6.0769-12.769 36.688-13.065 39.094-0.14827 1.206-0.58725 2.7068-0.97553 3.3351-0.68584 1.1097-3.0783 10.803-3.9707 16.088-0.24297 1.4389-0.89656 4.5889-1.4524 7-4.224 18.322 0.25822 27.959 13.94 29.972 10.226 1.5047 13.293 3.1144 22 11.546 10.39 10.062 15.452 12.256 21.316 9.2435zm2028.9-23.968c10.788-1.6184 31.626-7.7279 34.519-10.121 0.6875-0.5686 1.25-0.7282 1.25-0.3548s1.2375 0.019 2.75-0.788c1.5125-0.8069 4.325-2.151 6.25-2.9871 8.8856-3.8591 10.796-8.9935 8.2432-22.159-1.3806-7.1209-0.949-42.236 0.6207-50.5 0.5745-3.025 1.5427-9.1 2.1514-13.5 2.9801-21.539 8.8046-24.02 22.895-9.75 10.591 10.726 12.042 14.206 13.01 31.215 0.8944 15.712 2.6801 17.959 9.5072 11.965 17.425-15.299 16.248-57.417-2.1834-78.18-0.8544-0.9625-1.2168-1.75-0.8054-1.75 0.4115 0-1.0938-2.2-3.345-4.8888s-4.0931-5.3498-4.0931-5.9133c0-8.6733-27.745-27.211-40.715-27.203-19.284 0.0116-32.214 8.6951-32.021 21.505 0.082 5.4892 0.8674 7.8807 7.1795 21.876 6.2213 13.794 5.2387 20.019-5.0958 32.284-2.391 2.8377-4.3474 5.5798-4.3474 6.0936 0 1.2445-11.8 13.303-12.754 13.033-0.4102-0.1161-1.8709 0.4393-3.2459 1.2343-6.2339 3.6041-26.804 1.3258-33.594-3.7207-1.7019-1.2649-3.5207-2.2998-4.0418-2.2998s-2.9348-2.025-5.3638-4.5-4.028-4.5-3.5532-4.5c0.4747 0 0.1753-0.7875-0.6654-1.75-8.2081-9.3972-3.0073-37.804 11.488-62.75 8.083-13.91 7.4286-18.791-4.5156-33.679-2.0647-2.5737-3.754-5.0023-3.754-5.397 0-0.39469-1.6875-2.777-3.75-5.294s-3.75-4.8332-3.75-5.147c0-1.2842-10.861-14.104-13.604-16.057-4.5582-3.2457-13.358-1.186-19.975 4.6756-0.8683 0.76919-1.9525 1.3985-2.4092 1.3985s-3.2144 1.8-6.1283 4-5.6123 4-5.9965 4-2.1735 1.125-3.9762 2.5-3.6694 2.5-4.1482 2.5-2.3971 1.575-4.2629 3.5-3.024 3.5-2.5737 3.5c0.4502 0 0.3655 0.5625-0.1884 1.25-1.9035 2.3629-2.356 7.5839-1.2058 13.912 0.6337 3.4861 1.2635 7.2384 1.3997 8.3384 0.1361 1.1 0.7678 4.475 1.4039 7.5 2.9595 14.076 5.3422 25.932 6.1295 30.5 0.4739 2.75 1.6107 8.15 2.5262 12 0.9154 3.85 1.8757 8.0814 2.1338 9.403 0.5712 2.9239 2.4232 10.325 5.9048 23.597 1.4428 5.5 2.9641 11.61 3.3807 13.577 0.4166 1.9673 1.0883 4.1123 1.4926 4.7665 0.4043 0.6541 0.9545 2.4195 1.2226 3.9229 0.7546 4.2311 7.2371 23.405 8.9536 26.484 0.8435 1.5125 1.2577 2.75 0.9205 2.75s0.039 1.2375 0.8364 2.75c0.7972 1.5125 2.6866 5.225 4.1986 8.25s3.4349 6.85 4.2731 8.5c10.716 21.095 42.71 34.717 71.423 30.41zm-2175.5-1.8914c2.6396-0.54 5.9242-1.1688 7.2992-1.3972 12.571-2.0887 34.597-18.21 40.469-29.621 6.0442-11.745 9.5309-19.052 9.5309-19.972 0-0.5802 0.44028-1.8362 0.97841-2.7913 1.0823-1.9209 8.0709-23.158 9.9501-30.236 0.65705-2.475 1.6449-5.85 2.1952-7.5 0.55031-1.65 1.2189-4.0814 1.4857-5.403 0.26683-1.3217 1.1779-5.1467 2.0247-8.5 2.9116-11.531 9.4677-40.101 9.8898-43.097 0.23241-1.65 1.3557-7.275 2.4962-12.5s2.2847-11.075 2.5426-13c0.25795-1.925 0.86438-4.85 1.3476-6.5 4.76-16.253 1.5077-34.5-6.1492-34.5-0.46559 0-3.2831-1.8-6.2611-4s-5.7066-4-6.0634-4c-0.35683 0-2.401-1.3878-4.5427-3.084-2.14-1.68-3.89-2.77-3.89-2.4 0 0.36743-1.8-0.75757-4-2.5s-4-2.8797-4-2.5273c0 0.35241-1.0001-0.0598-2.2225-0.91597-3.0758-2.1544-8.4214-1.9465-11.799 0.45895-2.78 1.98-12.98 14.11-12.98 15.44 0 0.37334-1.8 2.8135-4 5.4226s-4 5.1024-4 5.5406c0 0.43827-1.6875 2.8862-3.75 5.4399-12.412 15.367-12.665 18.637-2.8384 36.634 3.3554 6.1455 11.721 26.23 12.074 28.986 0.14169 1.1078 0.85545 4.8267 1.5861 8.2642 4.6704 21.971-13.126 40.767-38.572 40.735-7.6953-0.01-11.743-0.8452-15.22-3.1425-1.5338-1.0135-3.6568-2.3228-4.7177-2.9095-1.0609-0.5868-2.409-1.9212-2.9957-2.9654-0.58676-1.0442-4.0244-5.5141-7.6393-9.9332-13.789-16.856-14.328-22.859-3.8413-42.772 10.766-20.444-1.3272-35.709-28.322-35.751-13.954-0.0214-15.716 0.84316-29.002 14.233-6.4557 6.5061-11.631 12.16-11.5 12.564 0.13069 0.40382-1.4499 2.796-3.5124 5.3159s-3.75 4.9159-3.75 5.3243c0 0.40845-1.0125 2.1602-2.25 3.8928-4.1969 5.876-11.147 21.176-12.11 26.659-0.2415 1.375-0.96491 5.3721-1.6076 8.8824-0.91075 4.9748-0.89054 7.9522 0.0916 13.5 0.69305 3.9147 1.2914 7.3426 1.3296 7.6176 1.5786 11.359 14.572 26.289 18.627 21.403 0.82432-0.9933 1.5926-6.0038 2.0317-13.25 1.0506-17.338 2.5096-20.878 12.943-31.403 15.583-15.719 20.893-11.64 24.41 18.75 0.25459 2.2 0.92017 7.15 1.4791 11 1.442 9.9334 1.2383 37.677-0.33638 45.814-1.7752 9.1739-1.3807 11.31 2.8981 15.692 3.4599 3.5432 5.715 4.9656 11.494 7.2495 1.375 0.5434 3.7375 1.6337 5.25 2.4228s2.75 1.1727 2.75 0.8525c0-0.3203 1.2375 0.031 2.75 0.7806 12.243 6.0676 39.905 10.171 51.951 7.7066zm1972.8-77.1c2.2-0.6108 4.225-1.1077 4.5-1.1044 0.275 0 1.6945-0.8444 3.1544-1.8839 1.4599-1.0396 3.2-1.8901 3.867-1.8901 1.7332 0 23.336-21.91 25.142-25.5 0.8303-1.65 2.4096-4.575 3.5096-6.5 3.5241-6.1669 4.7255-8.4764 4.9421-9.5 0.1164-0.55 0.9505-3.025 1.8535-5.5 5.3537-14.673 5.7234-34.763 1.0215-55.5-1.7437-7.6901-9.846-28.309-13.361-34-1.3586-2.2-2.3695-4-2.2464-4 1.0494 0-3.4846-7.9477-5.9279-10.391-6.179-6.179-12.8-2.8175-16.189 8.2196-14.077 45.841-64.71 67.169-81.769 34.442-14.587-27.986 20.696-54.19 43.75-32.49 11.519 10.843 21.253 2.7187 21.253-17.739 0-15.87-9.0833-26.237-25.5-29.104-1.1-0.19212-4.025-0.81289-6.5-1.3795-17.845-4.0852-55.253-5.369-68.718-2.3582-11.632 2.6009-13.756 6.2545-14.71 25.3-1.5629 31.203-16.317 44.584-45.071 40.878-20.223-2.6064-23.939-1.6167-24.861 6.6221-0.3501 3.1265 0.077 4.6952 1.9568 7.1833 1.3225 1.7508 2.4046 3.5488 2.4046 3.9956 0 1.0678 83.245 84.321 84.312 84.321 0.4516 0 2.3616 1.1749 4.2443 2.611 4.574 3.4888 17.25-3.1108 16.255-8.4631-0.6-3.45 13.9-21.17 17.3-21.17 0.598 0 2.5066-1.0118 4.2415-2.2484s3.3794-2.2892 3.6544-2.3391 2.6779-1.102 5.3399-2.3381c16.203-7.5241 30.876 0.72392 39.534 22.223 2.3531 5.8432 0.6774 15.669-4.336 25.424-5.5296 10.76 3.1387 17.995 16.962 14.157zm-1777.9-3.3492c3.0635-2.0073 3.265-8.096 0.46197-13.964-7.9817-16.708-6.3755-27.142 6.1947-40.245 11.189-11.662 23.803-12.305 38.163-1.9451 1.6965 1.224 4.3697 2.8666 5.9404 3.6504 4.2986 2.1448 11.929 11.008 15.163 17.612 5.6841 11.61 11.703 15.122 17.754 10.362 1.3984-1.1 2.9196-2 3.3804-2 1.08-0.07 84.34-83.3 84.34-84.38 0-0.45165 1.125-2.2961 2.5-4.0988 3.4892-4.5746 3.3037-8.939-0.54332-12.786-3.3841-3.3841-2.2997-3.3465-22.957-0.79661-29.342 3.6219-42.325-9.2332-44.872-44.429l-1.0075-13.923-3.387-3.387c-1.991-1.991-4.7604-3.6035-6.719-3.9122-1.8326-0.28881-4.4149-0.93686-5.7385-1.4401-3.0957-1.177-43.513-1.15-48.776 0.0326-2.2 0.49427-6.25 1.1337-9 1.4209-21.817 2.2788-35.943 10.167-39.373 21.987-3.5189 12.124 0.47638 28.138 7.9454 31.847 5.0308 2.4979 5.5304 2.3349 12.264-4.002 14.945-14.064 38.23-9.9882 43.939 7.6905 9.7868 30.303-18.752 50.753-48.568 34.802-5.6-3-23.72-20.44-23.72-22.83 0-0.49871-1.0705-2.6025-2.3789-4.6752-1.3084-2.0726-4.0329-8.2512-6.0545-13.73-5.5448-15.028-10.826-18.214-17.98-10.848-1.9305 1.9878-3.4487 3.9003-3.3736 4.25 0.1809 0.84296-2.1326 5.7875-4.7424 10.136-1.1554 1.925-3.1198 6.2-4.3653 9.5-1.2456 3.3-2.7167 6.8422-3.2692 7.8716-1.2654 2.3577-3.8785 10.423-4.316 13.321-0.18205 1.2061-0.57269 2.5839-0.86809 3.0619-1.1727 1.8974-3.6504 20.648-3.6319 27.484 0.0465 17.16 6.3568 37.24 15.444 49.145 1.9452 2.5484 3.5368 4.9576 3.5368 5.3539 0 1.0169 16.276 17.262 17.295 17.262 0.46134 0 2.3354 1.1415 4.1645 2.5366 7.5066 5.7256 21.377 7.7664 27.137 3.9926zm1558.6-155.64c3.3841-3.3841 3.3464-2.2997 0.7966-22.957-3.6219-29.342 9.2332-42.325 44.429-44.872l13.923-1.0075 3.3871-3.387c1.991-1.991 3.6035-4.7604 3.9121-6.719 0.2889-1.8326 0.9369-4.4149 1.4401-5.7385 1.177-3.0957 1.15-43.513-0.033-48.776-0.4942-2.2-1.1337-6.25-1.4209-9-2.2788-21.817-10.166-35.943-21.987-39.373-12.124-3.5189-28.138 0.47638-31.847 7.9454-2.4979 5.0308-2.3348 5.5304 4.002 12.264 14.064 14.945 9.9882 38.23-7.6905 43.939-30.303 9.7868-50.753-18.752-34.802-48.568 2.9917-5.5923 20.433-23.708 22.826-23.708 0.4987 0 2.6025-1.0705 4.6752-2.3789 2.0726-1.3084 8.2511-4.0329 13.73-6.0545 15.028-5.5448 18.214-10.826 10.848-17.98-1.9878-1.9305-3.9003-3.4487-4.25-3.3736-0.843 0.1809-5.7875-2.1326-10.136-4.7424-1.925-1.1554-6.2-3.1198-9.5-4.3653-3.3-1.2456-6.8422-2.7167-7.8716-3.2692-2.3577-1.2654-10.423-3.8785-13.321-4.316-1.206-0.18205-2.5839-0.57269-3.0619-0.86809-1.8974-1.1727-20.648-3.6504-27.484-3.6319-17.16 0.0465-37.24 6.3568-49.145 15.444-2.5484 1.9452-4.9576 3.5368-5.3539 3.5368-1.0169 0-17.262 16.276-17.262 17.295 0 0.46134-1.1415 2.3354-2.5366 4.1645-12.379 16.229-5.586 35.03 9.9709 27.599 16.708-7.9817 27.142-6.3755 40.245 6.1947 11.662 11.189 12.305 23.803 1.9451 38.163-1.224 1.6965-2.8667 4.3697-3.6504 5.9404-2.1447 4.2986-11.008 11.929-17.612 15.163-11.61 5.6841-15.122 11.703-10.362 17.754 1.1 1.3984 2 2.9196 2 3.3804 0 1.1798 83.27 84.339 84.496 84.383 0.5525 0.0198 2.3545 1.1426 4.0045 2.495 4.2602 3.492 8.8378 3.285 12.697-0.57432zm-1342.5-1.62c1.75-1.29 3.55-2.34 4-2.34 1.07 0 84.32-83.24 84.32-84.31 0-0.45165 1.1749-2.3616 2.611-4.2443 3.4888-4.574-3.1108-17.25-8.4631-16.255-3.43 0.64-21.15-13.86-21.15-17.29 0-0.59791-1.0118-2.5066-2.2484-4.2415s-2.2892-3.3794-2.3391-3.6544-1.102-2.678-2.3381-5.3399c-7.5241-16.203 0.72392-30.876 22.223-39.534 5.8166-2.3424 16.084-0.60683 25.203 4.2601 10.7 5.7109 18.174-2.7424 14.497-16.397-0.6649-2.4693-1.2108-4.7146-1.213-4.9896 0-0.275-0.8546-1.6945-1.8941-3.1544-1.0396-1.4599-1.8901-3.2001-1.8901-3.867 0-1.7332-21.91-23.336-25.5-25.142-1.65-0.83029-4.575-2.4096-6.5-3.5097-6.1669-3.524-8.4764-4.7255-9.5-4.9421-0.55-0.11639-3.025-0.95046-5.5-1.8535-14.673-5.3536-34.763-5.7234-55.5-1.0214-7.6901 1.7436-28.309 9.846-34 13.361-2.2 1.3586-4 2.3696-4 2.2465 0-1.0494-7.9477 3.4846-10.391 5.9278-6.179 6.179-2.8175 12.8 8.2196 16.189 45.841 14.077 67.169 64.71 34.442 81.769-27.986 14.587-54.19-20.696-32.49-43.749 10.84-11.53 2.72-21.26-17.74-21.26-15.87 0-26.237 9.0833-29.104 25.5-0.19212 1.1-0.81289 4.025-1.3795 6.5-4.0852 17.845-5.369 55.253-2.3582 68.718 2.6009 11.632 6.2545 13.756 25.3 14.71 31.203 1.5629 44.584 16.317 40.878 45.071-2.7631 21.438-1.6565 24.659 8.6221 25.097 1.1 0.0468 3.4325-0.96831 5.1833-2.2558zm1632.4-24.45c1.5957-1.7082 2.9346-4.0707 2.9755-5.25 0.041-1.1793 0.2623-3.2692 0.492-4.6442 1.0796-6.4627 2.4197-16.385 3.4441-25.5 0.6181-5.5 1.6078-12.7 2.1994-16 3.6435-20.326 0.8089-27.458-14.21-35.75-14.914-8.2352-40.96-12.193-57.701-8.7677-2.6396 0.54004-5.9242 1.1707-7.2992 1.4015-8.8172 1.4798-27.47 7.0419-29.45 8.7819-0.5225 0.4591-1.6716 0.83472-2.5537 0.83472-1.57 0-5.2378 1.6189-19.638 8.6679-14.71 7.2009-15.578 14.505-1.8976 15.969 13.963 1.4941 45.128 8.7031 49.039 11.344 0.55 0.37136 3.2146 1.4944 5.9213 2.4955 4.6023 1.7024 15.899 7.3276 25.079 12.488 2.2 1.2367 5.8757 3.7758 8.1683 5.6424s4.5211 3.3938 4.9524 3.3938c1.0823 0 7.3793 6.1916 7.3793 7.2558 0 1.258 13.619 17.364 16.228 19.192 3.0304 2.1226 3.5457 2.0061 6.8705-1.5531zm-1925-3.64c5.47-5.86 12.9-14.99 12.9-15.86 0-1.1 6.19-7.39 7.28-7.39 0.48704 0 2.7613-1.5272 5.0538-3.3938 4.4512-3.6242 7.8-5.6355 19.668-11.813 19.079-9.9307 32.71-14.191 61.62-19.261 13.26-2.32 17.38-4.02 17.38-7.14 0-1.3274-8.5268-8.9788-9.7957-8.79-0.38734 0.0576-2.2793-0.87177-4.2043-2.0653s-6.2-3.219-9.5-4.5012-7.35-2.9221-9-3.6443c-4.7992-2.1005-21-7.0607-21-6.4295 0 0.0969-1.191-0.27668-2.6468-0.83014-13.4-5.0947-50.055-5.4539-57.961-0.568-0.48687 0.3009-1.6744 0.7062-2.639 0.90068-0.96457 0.19447-4.0038 1.3697-6.7538 2.6116s-5.225 2.3002-5.5 2.3518c-11.543 2.1654-17.163 16.949-14.048 36.954 1.0744 6.8992 2.9366 20.347 3.5472 25.615 3.1985 27.602 6.6805 32.791 15.6 23.25zm1762.4-100.5c1.9539-2.3375 3.6167-4.7 3.6951-5.25 0.078-0.55 1.1189-2.575 2.3124-4.5s3.2191-6.2 4.5013-9.5 2.9221-7.35 3.6443-9c2.0479-4.6792 6.5591-19.331 6.6196-21.5 0.01-0.275 0.3812-1.466 0.8301-2.6468 4.9167-12.932 5.1586-49.725 0.3779-57.461-0.3009-0.48687-0.7062-1.6744-0.9007-2.639-0.1945-0.96457-1.3697-4.0038-2.6116-6.7538s-2.3002-5.225-2.3518-5.5c-2.1654-11.543-16.95-17.163-36.954-14.048-6.8992 1.0744-20.347 2.9366-25.615 3.5472-32.9 3.8125-34.537 6.6268-13.84 23.803 3.1127 2.5834 6.0163 4.697 6.4524 4.697 1.1015 0 7.3881 6.1928 7.3881 7.2779 0 0.48704 1.5272 2.7613 3.3938 5.0538 3.6242 4.4512 5.6355 7.8 11.813 19.668 9.9307 19.079 14.192 32.71 19.261 61.62 3.2235 18.384 5.5045 20.883 11.985 13.13zm-1602.3 0.5c1.8821-2.1914 2.9335-4.8947 3.4033-8.75 1.8876-15.492 8.7747-45.135 11.384-49 0.37136-0.55 1.4944-3.2146 2.4955-5.9213 1.7024-4.6024 7.3276-15.899 12.488-25.079 1.2367-2.2 3.7758-5.8757 5.6424-8.1683 1.86-2.29 3.39-4.52 3.39-4.95 0-1.08 6.19-7.38 7.26-7.38 1.3591 0 17.613-13.87 19.336-16.5 2.8784-4.393-1.6388-8.8161-10.14-9.9282-2.7239-0.35636-7.6526-1.0576-10.953-1.5583-3.3-0.5007-10.5-1.4137-16-2.0289-5.5-0.61517-12.7-1.6025-16-2.194-20.326-3.6436-27.458-0.80897-35.75 14.21-8.2352 14.914-12.193 40.96-8.7677 57.701 0.54004 2.6396 1.1707 5.9242 1.4015 7.2992 1.4798 8.8172 7.0419 27.47 8.7819 29.45 0.4591 0.5225 0.83472 1.6716 0.83472 2.5537 0 0.88201 1.0584 3.8295 2.352 6.55s3.8152 8.0213 5.6036 11.78c5.4436 11.44 10.07 15.605 13.237 11.917zm1317.9-20.85c0.9767-1.1769 1.2615-4.7909 1.0755-13.647-0.2756-13.125 0.7571-18.424 5.8949-30.252 0.7168-1.65 1.3622-3.225 1.4344-3.5 0.6114-2.3292 7.1316-14.556 9.522-17.856 1.6511-2.2793 2.6738-4.1442 2.2726-4.1442s2.3964-3.15 6.2169-7 7.4486-7 8.0625-7c12.38 0 16.308-20.684 4.8386-25.477-6.0769-2.5391-36.688-12.769-39.094-13.065-1.206-0.14827-2.7068-0.58725-3.3351-0.97553-1.1097-0.68584-10.803-3.0783-16.088-3.9707-1.4389-0.24297-4.5889-0.89656-7-1.4524-18.322-4.224-27.959 0.25822-29.972 13.94-1.5137 10.287-3.0807 13.174-12.562 23.149-10.904 11.471-12.01 16.613-5.2318 24.333 1.6991 1.9351 2.708 3.5183 2.2421 3.5183-0.466 0 12.197 13.05 28.14 29s29.385 29 29.872 29c0.4869 0 2.6286 1.575 4.7594 3.5 4.2229 3.8152 6.8919 4.3814 8.952 1.8992zm-1031.7-4.4c2.3867-2.2 4.7422-4 5.2343-4 1.1233 0 56.102-54.936 57.704-57.66 0.6475-1.1006 2.1881-3.5399 3.4236-5.4207 4.6454-7.0718 2.5561-12.518-9.1767-23.92-6.0533-5.8825-8.4783-9.701-9.2085-14.5-2.7634-18.16-5.5833-21.512-18.072-21.48-7.223 0.0182-21.904 2.0107-23.914 3.2456-0.4809 0.29531-2.6743 0.82001-4.8743 1.166-4.5265 0.71188-3.5998 0.43032-28.438 8.6406-27.854 9.2072-30.937 11.15-29.708 18.725 0.5761 3.5502 5.9309 10.203 8.2123 10.203 2.0938 0 18.862 16.599 21.33 21.115 6.5784 12.037 12.103 23.379 12.103 24.846 0 0.90182 0.5084 2.1481 1.1298 2.7695 0.6214 0.62139 1.2691 2.1739 1.4394 3.45s0.7869 3.8922 1.3702 5.8136 1.0606 8.9834 1.0606 15.693c0 11.473 0.1323 12.293 2.2225 13.757 3.0553 2.14 3.2539 2.0805 8.1617-2.4433zm266.91-109.27c4.5939-3.0114 3.6132-5.7341-4.7671-13.234-20.432-18.286-28.314-43.079-26.455-83.205 0.7983-17.228-4.0391-17.995-30.756-4.8805-51.82 25.437-66.996 39.667-57.263 53.693 9.0541 13.047 8.281 10.811 8.9449 25.87 1.087 24.658-0.7737 23.958 63.046 23.706 40.783-0.16104 44.774-0.32566 47.25-1.949zm209.82 1.2778c15.245-2.8166 14.643-11.891-1.5937-24.041-26.365-19.73-27.321-45.574-2.4952-67.463 13.114-11.563 10.578-20.126-12.911-43.588-38.902-38.857-60.537-46.156-78.812-26.587-13.588 14.55-11.23 25.675 5.4415 25.675 15.714 0 30.131 16.801 26.397 30.762-6.5591 24.524-32.417 32.24-49.655 14.817-16.672-16.851-18.152-42.086-4.2764-72.92 8.1107-18.023 2.0783-21.893-21.42-13.741-54.588 18.937-80.29 49.534-80.29 95.582 0 32.144 20.211 54.471 27.437 30.309 9.053-30.273 48.553-35.27 58.915-7.454 5.5867 14.998 6.2772 27.277 2.1958 39.051-3.9825 11.49-2.2353 17.732 5.4527 19.482 5.5588 1.2653 118.83 1.3701 125.61 0.11621zm188.84-0.088c8.3422-1.7891 10.129-7.5989 6.0003-19.51-4.0814-11.775-3.3909-24.053 2.1958-39.051 10.362-27.816 49.862-22.819 58.915 7.454 7.2255 24.162 27.437 1.8345 27.437-30.309 0-46.049-25.702-76.646-80.29-95.582-23.498-8.1515-29.53-4.2816-21.42 13.741 13.876 30.833 12.396 56.068-4.2764 72.92-17.238 17.423-43.096 9.707-49.655-14.817-3.7-13.96 10.7-30.76 26.5-30.76 16.672 0 19.03-11.125 5.4415-25.675-18.275-19.568-39.909-12.27-78.812 26.587-23.489 23.461-26.025 32.024-12.911 43.588 24.825 21.89 23.87 47.734-2.4952 67.463-15.806 11.829-16.778 21.206-2.4802 23.953 6.8251 1.3112 119.84 1.3115 125.95 0.00042zm186.5-1.42c7.0248-3.57 7.8669-5.6752 8.5601-21.4 0.6704-15.208-0.1077-12.948 8.9506-26.001 9.7332-14.025-5.4431-28.255-57.263-53.693-26.717-13.115-31.554-12.347-30.756 4.8805 1.8593 40.127-6.0234 64.919-26.455 83.205-10.432 9.3368-10.041 13.34 1.4317 14.643 15.293 1.7374 91.461 0.43317 95.532-1.6358zm70.22-1.0509c1.8394-1.403 3.3444-2.259 3.3444-1.9022s4.2684-3.3909 9.4854-8.3282 10.954-9.7107 12.75-10.608c1.7955-0.8968 5.5146-2.9847 8.2646-4.6398s5.9-3.4054 7-3.8897c9.5632-4.2101 10.399-14.065 2.1231-25.026-3.8107-5.0465-5.978-8.857-6.5728-11.556-0.1212-0.55-0.6428-1.509-1.1591-2.1311-0.9097-1.0961-2.1811-5.666-4.9018-17.619-1.5898-6.9844-0.864-6.9742-12.033-0.1698-10.642 6.4831-14.132 7.8496-26.707 10.457-17.596 3.6482-18.921 6.5988-13.141 29.271 2.2499 8.8257 3.3251 15.919 3.8946 25.692 1.2434 21.338 7.296 28.349 17.653 20.449zm-813.4-1.2c2.5274-2.9428 2.9834-5.2517 3.8019-19.25 0.5709-9.764 1.6494-16.874 3.8972-25.692 5.7798-22.673 4.4551-25.623-13.141-29.271-12.25-2.5399-16.024-3.9678-25.194-9.5349-4.2412-2.5745-7.8112-4.5282-7.9335-4.3416-0.1223 0.18667-1.0622 3.9394-2.0887 8.3394-2.2965 9.8443-5.6797 17.287-11.162 24.556-4.3698 5.7937-6.9065 12.685-5.8707 15.948 0.6611 2.0832 10.126 10.996 11.677 10.996 0.5289 0 2.9238 1.35 5.322 3s4.7463 3 5.2179 3c0.4717 0 2.4157 1.3317 4.3199 2.9594 1.9042 1.6276 3.931 2.9776 4.504 3s3.048 2.1197 5.5 4.6608c11.133 11.537 17.992 15.308 21.151 11.63zm1076.9-9.3841c3.3654-1.1228 9.8992-6.4722 9.8992-8.1048 0-0.46559 1.8-3.2831 4-6.2611s4-5.7066 4-6.0634c0-0.35683 1.3878-2.401 3.084-4.5427 1.6962-2.1416 2.7834-3.8939 2.416-3.8939s0.7576-1.8 2.5-4 2.8797-4 2.5273-4 0.06-1.0001 0.916-2.2225c2.1544-3.0758 1.9465-8.4214-0.459-11.799-2-2.78-14.1-12.98-15.5-12.98-0.3733 0-2.8135-1.8-5.4226-4-2.609-2.2-5.1023-4-5.5406-4s-2.8862-1.6875-5.4399-3.75c-15.368-12.412-18.637-12.665-36.634-2.8384-6.1455 3.3554-26.23 11.721-28.986 12.074-1.1078 0.14169-4.8267 0.85545-8.2642 1.5861-21.972 4.6704-40.767-13.126-40.735-38.572 0.01-7.6953 0.8452-11.743 3.1425-15.22 1.0135-1.5338 2.3228-3.6568 2.9095-4.7177 0.5868-1.0609 1.9212-2.409 2.9654-2.9957 1.0442-0.58676 5.5141-4.0244 9.9332-7.6393 16.856-13.789 22.859-14.328 42.772-3.8413 20.444 10.766 35.709-1.3272 35.751-28.322 0.021-13.954-0.8431-15.716-14.233-29.002-6.5061-6.4557-12.16-11.631-12.564-11.5-0.4038 0.13069-2.796-1.4499-5.3159-3.5124s-4.9159-3.75-5.3243-3.75c-0.4085 0-2.1602-1.0125-3.8928-2.25-5.876-4.1969-21.176-11.147-26.659-12.11-1.375-0.2415-5.3721-0.96491-8.8824-1.6076-4.9748-0.91075-7.9522-0.89054-13.5 0.0916-3.9147 0.69305-7.3426 1.2914-7.6176 1.3296-11.359 1.5786-26.289 14.572-21.403 18.627 0.9933 0.82432 6.0038 1.5926 13.25 2.0317 17.338 1.0506 20.878 2.5096 31.403 12.943 15.719 15.583 11.64 20.893-18.75 24.41-2.2 0.25459-7.15 0.92017-11 1.4791-9.9334 1.442-37.677 1.2383-45.814-0.33638-9.1739-1.7752-11.31-1.3807-15.692 2.8981-3.5432 3.4599-4.9656 5.715-7.2495 11.494-0.5434 1.375-1.6337 3.7375-2.4228 5.25s-1.1727 2.75-0.8525 2.75c0.3203 0-0.031 1.2375-0.7806 2.75-6.0879 12.284-10.179 39.865-7.7066 51.951 0.54 2.6396 1.1688 5.9242 1.3972 7.2992 2.0887 12.571 18.21 34.597 29.621 40.469 11.745 6.0442 19.052 9.5309 19.972 9.5309 0.5802 0 1.8362 0.44028 2.7913 0.97841 1.9209 1.0823 23.158 8.0709 30.236 9.9501 2.475 0.65705 5.85 1.6449 7.5 2.1952 1.65 0.55031 4.0814 1.2189 5.403 1.4857 1.3217 0.26683 5.1467 1.1779 8.5 2.0247 11.531 2.9116 40.101 9.4677 43.097 9.8898 1.65 0.23241 7.275 1.3557 12.5 2.4962s11.075 2.2862 13 2.546c1.925 0.25978 4.4 0.767 5.5 1.1272 2.3939 0.78379 15.93 2.9714 19.601 3.1677 1.4304 0.0765 4.1304-0.37125 6-0.99501zm-1336.6-1.96c3.2493-0.60066 6.8194-1.2035 7.9337-1.3396 1.1142-0.13612 4.5008-0.76788 7.5258-1.4039 14.076-2.9596 25.932-5.3423 30.5-6.1295 2.75-0.47395 8.15-1.6107 12-2.5262 3.85-0.91545 8.0814-1.8757 9.403-2.1339 2.9239-0.57114 10.325-2.4231 23.597-5.9048 5.5-1.4428 11.61-2.9641 13.577-3.3808 1.9673-0.41661 4.1123-1.0883 4.7665-1.4926 0.6541-0.40431 2.4195-0.95449 3.9229-1.2226 4.2311-0.75459 23.405-7.2371 26.484-8.9536 1.5125-0.84345 2.75-1.2577 2.75-0.92047 0 0.33719 1.2375-0.0392 2.75-0.83642 1.5125-0.79721 5.225-2.6866 8.25-4.1986s6.85-3.4349 8.5-4.2731c21.104-10.72 34.719-42.699 30.41-71.423-1.6184-10.788-7.7279-31.626-10.121-34.519-0.5686-0.6875-0.7282-1.25-0.3548-1.25s0.019-1.2375-0.788-2.75c-0.8069-1.5125-2.151-4.325-2.9871-6.25-3.8591-8.8856-8.9935-10.796-22.159-8.2432-7.1209 1.3806-42.236 0.94899-50.5-0.62068-3.025-0.57454-9.1-1.5427-13.5-2.1514-21.539-2.9801-24.02-8.8046-9.75-22.895 10.726-10.591 14.206-12.042 31.215-13.01 15.712-0.89435 17.959-2.68 11.965-9.5071-15.299-17.425-57.417-16.248-78.18 2.1833-0.9625 0.85443-1.75 1.2169-1.75 0.8054 0-0.41146-2.2 1.0938-4.8888 3.345-2.68 2.25-5.34 4.09-5.9 4.09-8.6733 0-27.211 27.745-27.203 40.715 0.0116 19.284 8.6951 32.214 21.505 32.021 5.4892-0.0825 7.8807-0.86736 21.876-7.1795 13.794-6.2213 20.019-5.2387 32.284 5.0958 2.8377 2.3911 5.5798 4.3474 6.0936 4.3474 1.2445 0 13.303 11.8 13.033 12.754-0.1161 0.41024 0.4393 1.8709 1.2343 3.2459 3.6041 6.2339 1.3258 26.804-3.7207 33.594-1.2649 1.7019-2.2998 3.5207-2.2998 4.0418 0 0.52107-2.025 2.9348-4.5 5.3638s-4.5 4.028-4.5 3.5532c0-0.47476-0.7875-0.17534-1.75 0.66537-9.3972 8.2081-37.804 3.0074-62.75-11.488-13.91-8.083-18.791-7.4285-33.679 4.5156-2.5737 2.0647-5.0023 3.754-5.397 3.754-0.39469 0-2.777 1.6875-5.294 3.75s-4.8332 3.75-5.147 3.75c-1.2842 0-14.104 10.861-16.057 13.604-3.2457 4.5582-1.186 13.358 4.6756 19.975 0.76919 0.86831 1.3985 1.9524 1.3985 2.4091 0 0.45672 1.8 3.2145 4 6.1284s4 5.6123 4 5.9965c0 0.38419 1.125 2.1735 2.5 3.9762s2.5 3.6694 2.5 4.1482c0 1.0902 6.147 7.1094 7.5 7.3441 1.1141 0.19325 2.2732 0.51797 4.5 1.2606 2.4055 0.80229 4.2678 0.72562 10.54-0.43394zm287.26-96.91c22.695-5.4408 60.034-25.594 115.7-62.451 44.545-29.492 42.315-25.856 35.546-57.954-6.3865-30.284-5.1834-29.557-40.048-24.195-34.574 5.3178-34.621 5.346-40.515 24.224-14.477 46.374-34.647 61.819-62.483 47.846-17.327-8.698-22.328-19.913-19.114-42.869 3.2168-22.978 4.4032-24.657 22.319-31.577 27.552-10.642 31.237-26.696 10.821-47.147-19.712-19.746-80.722-11.144-105.76 14.909-19.744 20.549-19.112 49.333 0.6766 30.827 22.016-20.589 59.36-18.254 45.962 2.8737-12.66 19.963-34.125 43.954-49.134 54.916-11.236 8.2069-12.282 12.231-6.7807 26.081 20.444 51.464 52.959 74.067 92.805 64.515zm781.2-0.85c23.102-7.4693 42.38-29.34 55.913-63.431 5.6049-14.119 4.5986-18.081-6.6866-26.323-15.009-10.963-36.474-34.953-49.134-54.916-13.399-21.128 23.946-23.463 45.962-2.8737 14.902 13.936 20.624 4.2067 10.063-17.107-17.471-35.258-90.418-53.396-115.14-28.629-20.416 20.451-16.732 36.505 10.821 47.147 17.916 6.92 19.102 8.5985 22.319 31.577 3.2136 22.955-1.7872 34.171-19.114 42.869-27.837 13.974-48.006-1.4712-62.483-47.846-5.8933-18.878-5.9404-18.906-40.515-24.224-34.865-5.3625-33.662-6.0894-40.048 24.195-6.7689 32.098-8.9992 28.462 35.546 57.954 86.356 57.174 121.86 71.516 152.5 61.609zm-432.2-76.844c0.8853-12.18-17.467-51.266-33.414-71.162-20.944-26.131-54.373-39.882-67.958-27.955-3.035 2.6648-31.486 38.768-38.203 48.478-7.9734 11.527-2.4332 14.979 18.844 11.742 29.757-4.5262 63.841 8.0004 109.36 40.193 7.0685 4.9988 10.942 4.5568 11.368-1.2971zm57.832 1.2477c45.364-32.108 79.555-44.667 109.29-40.144 21.278 3.2364 26.818-0.2158 18.844-11.742-6.7169-9.71-35.168-45.814-38.203-48.478-10.295-9.0392-34.201-3.0044-54.166 13.673-31.669 26.456-65.08 107.44-35.765 86.691zm-595.4 2535.9c-6.0952-2.3935-9.4779-3.8511-17.758-7.6521-15.598-7.1599-23.237-30.912-17.011-52.89 0.85693-3.025 1.7367-6.175 1.955-7 0.21834-0.825 1.3696-3.75 2.5583-6.5s2.1945-5.225 2.235-5.5 1.0335-2.075 2.2067-4 3.0203-5.3 4.1047-7.5 3.2092-5.6398 4.7216-7.6439c1.5125-2.0042 2.75-4.0445 2.75-4.5342 0-0.4896 2.475-3.3345 5.5-6.3219s5.5-5.0717 5.5-4.6318 1.6875-0.5367 3.75-2.1702 4.2-3.0789 4.75-3.2119c0.55-0.1331 3.25-1.2566 6-2.4967 4.5462-2.0501 8.3344-3.465 11-4.1087 0.55-0.1328 2.35-0.7008 4-1.2622 4.6901-1.5957 16.809-3.7497 18.772-3.3365 7.5778 1.5954 23.728 38.222 23.728 53.813 0 47.594-37.278 89.31-68.762 76.947zm32.8-47.4c10.83-7.6077 10.95-60.089 0.1315-57.405-14.076 3.4932-37.132 28.522-37.132 40.311 0 9.2644 7.2574 12.403 16.684 7.2161 3.238-1.7818 4.0919-1.4974 4.7697 1.5885 2.1197 9.6513 8.6499 13.133 15.546 8.2886zm1068.7 47.474c-27.381-11.258-48.78-59.24-40.649-91.143 3.4566-13.563 16.297-37.367 20.172-37.397 5.4964-0.042 25.617 5.9906 32.812 9.838 2.475 1.3234 5.85 3.0961 7.5 3.9393 3.5784 1.8287 18.5 16.628 18.5 18.349 0 0.6618 0.6374 1.9138 1.4165 2.7821 1.8265 2.0357 11.695 21.079 10.924 21.079-0.3217 0-0.077 0.6115 0.5429 1.3589 1.1032 1.3293 3.8813 9.1686 4.6569 13.141 0.2148 1.1 0.8455 3.8 1.4015 6 4.3686 17.285-4.6851 40.084-18.421 46.39-15.682 7.1987-18.672 8.1144-26.396 8.0868-4.6607-0.017-8.354-0.735-12.459-2.423zm4.5721-47.315c0.9554-0.8388 2.2778-3.0202 2.9386-4.8476 0.8487-2.3471 1.5427-3.0395 2.3638-2.3581 10.898 9.045 21.298-9.0617 11.31-19.693-1.209-1.287-1.7903-2.3399-1.2918-2.3399 0.4986 0-3.8025-4.725-9.5578-10.5s-10.82-10.5-11.254-10.5c-0.4341 0-2.5537-1.1676-4.7101-2.5947-7.2145-4.7743-9.4746 1.8702-8.8411 25.992 0.6334 24.118 8.8888 35.754 19.042 26.841zm779.2-732.4c-2.2-0.4826-5.8-1.4154-8-2.0729-2.2-0.6576-4.45-1.2975-5-1.4219s-3.025-1.1072-5.5-2.1839-4.95-2.0873-5.5-2.2457-2.575-1.2478-4.5-2.421-5.3-3.0203-7.5-4.1047c-2.2-1.0845-5.6398-3.2092-7.6439-4.7217-2.0042-1.5125-4.0445-2.75-4.5342-2.75-0.4896 0-3.3345-2.475-6.3219-5.5s-5.0717-5.5-4.6318-5.5-0.5367-1.6875-2.1702-3.75-3.0789-4.2-3.2119-4.75c-0.1331-0.55-1.2566-3.25-2.4967-6-2.0501-4.5462-3.465-8.3344-4.1087-11-0.1328-0.55-0.7008-2.35-1.2622-4-1.5957-4.6901-3.7497-16.809-3.3365-18.772 0.9529-4.526 26.006-18.256 39.628-21.718 30.09-7.6467 77.938 12.376 89.794 37.576 6.4722 13.756 5.4528 21.335-6.3126 46.934-6.4043 13.934-28.552 22.534-47.392 18.402zm-2.0527-34.642c3.1113-3.1112 3.025-8.0208-0.2454-13.964-1.8324-3.33-1.5256-3.9021 2.7841-5.1934 12.093-3.6231 12.549-13.535 0.9254-20.122-11.311-6.41-53.052-2.4438-51.237 4.8685 4.9772 20.057 38.198 43.986 47.773 34.411zm-2668.8 32.132c-10.896-2.6373-20.845-9.8971-24.52-17.892-7.6505-16.646-8.3937-19.252-7.942-27.854 1.6562-31.542 55.507-61.314 93.424-51.651 13.563 3.4566 37.367 16.297 37.397 20.172 0.0421 5.4964-5.9906 25.617-9.838 32.812-1.3234 2.475-3.0961 5.85-3.9393 7.5-1.8287 3.5784-16.629 18.5-18.349 18.5-0.66181 0-1.9137 0.6374-2.782 1.4165-2.01 1.8-21.05 11.7-21.05 10.9 0-0.3217-0.61153-0.077-1.359 0.5429-1.3293 1.1032-9.1686 3.8813-13.141 4.6569-1.1 0.2148-3.8 0.8455-6 1.4015-5.515 1.3939-14.861 1.1678-21.872-0.5291zm38.289-32.388c1.8719-0.5369 4.4565-1.9653 5.7434-3.1743s2.3399-1.7903 2.3399-1.2918c0 0.4986 4.725-3.8025 10.5-9.5578s10.5-10.82 10.5-11.254c0-0.4341 1.1676-2.5537 2.5947-4.7101 7.4645-11.28-41.685-13.549-51.775-2.3909-5.154 5.6995-4.0476 11.477 2.8664 14.969 2.5689 1.2974 3.8281 2.4719 3.2596 3.0404-7.6309 7.6309 2.2025 17.745 13.971 14.37zm-5.7514-1058.6c-39.18-8.5764-63.752-28.316-65.006-52.222-0.45068-8.5892 0.8923-13.005 9.9493-32.711 7.1701-15.601 30.914-23.237 52.892-17.011 3.025 0.85693 6.175 1.7367 7 1.955 0.825 0.21834 3.525 1.2731 6 2.344 2.475 1.0708 4.725 1.9346 5 1.9194s2.3 1.0742 4.5 2.421 5.8 3.336 8 4.4204 5.6398 3.2092 7.6439 4.7216c2.0042 1.5125 4.0445 2.75 4.5342 2.75 0.48965 0 3.3345 2.475 6.3219 5.5s5.0717 5.5 4.6318 5.5c-0.43993 0 0.53666 1.6875 2.1702 3.75s3.0789 4.2 3.2119 4.75c0.13304 0.55 1.2565 3.25 2.4966 6 2.0501 4.5462 3.4651 8.3344 4.1087 11 0.1328 0.55 0.70078 2.35 1.2622 4 1.5957 4.6901 3.7498 16.809 3.3365 18.772-0.48853 2.3204-13.227 10.869-23.548 15.802-15.552 7.4343-30.059 9.5003-44.505 6.3382zm37.574-29.301c5.7591-2.5819 5.8457-2.968 2.4919-11.112-1.9834-4.8162-24.682-27.355-29.603-29.395-13.805-5.7224-22.643 2.6971-15.83 15.079 1.8324 3.33 1.5256 3.9021-2.7841 5.1934-11.53 3.4544-12.547 13.382-2.0043 19.555 7.5375 4.4136 38.42 4.853 47.73 0.6792zm2564.3 25.8c-13.318-3.4775-36.958-16.337-36.987-20.12-0.042-5.4964 5.9906-25.617 9.838-32.812 1.3234-2.475 3.0961-5.85 3.9393-7.5 1.8287-3.5784 16.628-18.5 18.349-18.5 0.6618 0 1.9138-0.63741 2.7821-1.4165 2.0357-1.8265 21.079-11.695 21.079-10.924 0 0.32171 0.6115 0.0774 1.3589-0.54291 1.3293-1.1032 9.1686-3.8813 13.141-4.6569 1.1-0.21478 3.8-0.84544 6-1.4015 17.284-4.3685 40.077 4.6822 46.392 18.421 7.6505 16.646 8.3937 19.252 7.9421 27.854-1.6615 31.641-55.946 61.491-93.834 51.598zm37.5-28.628c10.687-5.5875 11.982-14.288 2.814-18.918-2.5688-1.2974-3.8281-2.4719-3.2596-3.0404 10.03-10.03-9.2813-20.997-19.714-11.195-1.287 1.209-2.3399 1.7903-2.3399 1.2918 0-0.4986-4.725 3.8025-10.5 9.5578s-10.5 10.82-10.5 11.254c0 0.4341-1.1676 2.5537-2.5947 4.7101-5.5902 8.4474 32.138 13.637 46.095 6.3404zm-806.8-720.08c-4.526-0.95288-18.256-26.006-21.718-39.628-7.6467-30.09 12.376-77.938 37.576-89.794 13.756-6.4722 21.335-5.4528 46.934 6.3126 15.601 7.1701 23.237 30.914 17.011 52.892-0.857 3.025-1.7368 6.175-1.9551 7s-1.3696 3.75-2.5583 6.5-2.0525 5-1.9194 5-0.8599 1.8-2.2067 4-3.3359 5.8-4.4203 8c-1.0845 2.2-3.2092 5.6398-4.7217 7.6439-1.5125 2.0042-2.75 4.0445-2.75 4.5342 0 0.48965-2.475 3.3345-5.5 6.3219s-5.5 5.0717-5.5 4.6318c0-0.43993-1.8943 0.70044-4.2096 2.5342-2.3152 1.8337-4.4527 3.2791-4.75 3.2119-0.2972-0.0671-2.7904 0.89255-5.5404 2.1327-4.5462 2.0501-8.3344 3.4651-11 4.1087-0.55 0.1328-2.35 0.70078-4 1.2622-4.6901 1.5957-16.809 3.7498-18.772 3.3365zm18.3-27.99c4.8162-1.9834 27.355-24.682 29.395-29.603 5.7224-13.805-2.6971-22.643-15.079-15.83-3.33 1.8324-3.9021 1.5256-5.1934-2.7841-3.6231-12.093-13.535-12.549-20.122-0.92538-3.744 6.6065-3.8338 38.461-0.1315 46.651 2.6033 5.7584 2.9897 5.8449 11.132 2.4919zm-1061.5 24.602c-8.6248-2.0694-21.219-6.346-25.5-8.6592-2.475-1.3373-5.85-3.1213-7.5-3.9645-3.5784-1.8287-18.5-16.629-18.5-18.349 0-0.66181-0.63741-1.9137-1.4165-2.782-1.82-2.04-11.69-21.08-10.92-21.08 0.32171 0 0.0774-0.61153-0.54291-1.359-1.1032-1.3293-3.8813-9.1686-4.6569-13.141-0.21478-1.1-0.84544-3.8-1.4015-6-4.3685-17.284 4.6822-40.077 18.421-46.392 16.646-7.6505 19.252-8.3937 27.854-7.942 23.96 1.2581 43.855 26.322 52.134 65.678 3.8979 18.53-0.6134 36.827-14.274 57.893-5.0953 7.8574-5.5362 8.0536-13.693 6.0965zm-0.2371-30.4c2.7023-7.5631 2.0405-37.197-0.9588-42.934-5.5875-10.687-14.288-11.981-18.918-2.814-1.2974 2.5689-2.4719 3.8281-3.0404 3.2596-10.03-10.03-20.997 9.2813-11.195 19.715 1.209 1.2869 1.7903 2.3399 1.2918 2.3399-0.4986 0 3.8025 4.725 9.5578 10.5s10.834 10.5 11.285 10.5c0.4515 0 2.4791 1.1268 4.5059 2.504 4.6902 3.1871 5.3301 2.9242 7.4718-3.07z"/>
</svg>
