<?xml version="1.0" encoding="UTF-8" standalone="no"?>
<!-- Created with Inkscape (http://www.inkscape.org/) -->

<svg
   xmlns:dc="http://purl.org/dc/elements/1.1/"
   xmlns:cc="http://creativecommons.org/ns#"
   xmlns:rdf="http://www.w3.org/1999/02/22-rdf-syntax-ns#"
   xmlns:svg="http://www.w3.org/2000/svg"
   xmlns="http://www.w3.org/2000/svg"
   xmlns:sodipodi="http://sodipodi.sourceforge.net/DTD/sodipodi-0.dtd"
   xmlns:inkscape="http://www.inkscape.org/namespaces/inkscape"
   width="210mm"
   height="297mm"
   viewBox="0 0 210 297"
   version="1.1"
   id="svg10755"
   inkscape:version="0.92.2 (5c3e80d, 2017-08-06)"
   sodipodi:docname="One-Step-Away-From-A-Fall.svg">
  <defs
     id="defs10749" />
  <sodipodi:namedview
     id="base"
     pagecolor="#ffffff"
     bordercolor="#666666"
     borderopacity="1.0"
     inkscape:pageopacity="0.0"
     inkscape:pageshadow="2"
     inkscape:zoom="1.1701347"
     inkscape:cx="73.314495"
     inkscape:cy="491.80136"
     inkscape:document-units="mm"
     inkscape:current-layer="layer1"
     showgrid="false"
     inkscape:window-width="3840"
     inkscape:window-height="2080"
     inkscape:window-x="-11"
     inkscape:window-y="-11"
     inkscape:window-maximized="1" />
  <metadata
     id="metadata10752">
    <rdf:RDF>
      <cc:Work
         rdf:about="">
        <dc:format>image/svg+xml</dc:format>
        <dc:type
           rdf:resource="http://purl.org/dc/dcmitype/StillImage" />
        <dc:title></dc:title>
      </cc:Work>
    </rdf:RDF>
  </metadata>
  <g
     inkscape:label="Ebene 1"
     inkscape:groupmode="layer"
     id="layer1">
    <path
       style="opacity:1;fill:#f2cd02;fill-opacity:1;stroke:none;stroke-width:0.29532728;stroke-linecap:round;stroke-miterlimit:4;stroke-dasharray:0.29532727, 1.18130908;stroke-dashoffset:0;stroke-opacity:1"
       d="m 0.93787068,8.6151849 c -0.24717077,0 -0.44598027,0.198798 -0.44598027,0.4459867 V 190.54984 c 0,0.24718 0.1988095,0.44599 0.44598027,0.44599 H 69.08816 v -21.05407 h 20.312711 c 0.247173,0 0.445971,-0.19963 0.445971,-0.4468 v -18.23421 h 30.832738 v -17.51997 c 0,-0.24717 0.19882,-0.44597 0.44599,-0.44597 h 35.63237 v -22.20852 c -0.001,-0.24719 0.19963,-0.44599 0.4468,-0.44599 h 52.41343 c 0.10541,0 0.19786,0.0414 0.27401,0.10207 V 9.0611716 c 0,-0.2471887 -0.19882,-0.4459867 -0.44599,-0.4459867 z"
       id="rect11337"
       inkscape:connector-curvature="0" />
    <path
       inkscape:connector-curvature="0"
       id="path11317"
       d="m 196.51279,287.93129 -2.84375,-0.15429 v -6.26671 -6.26671 l 1.15855,-0.2322 c 0.63721,-0.12771 3.71794,-0.19017 6.84605,-0.13885 l 5.6875,0.0935 v 6.53007 6.53008 l -4.00232,0.0298 c -2.20125,0.0164 -5.28198,-0.0396 -6.84603,-0.12451 z M 2.9861339,287.39413 -0.43093681,287.18347 0.51966486,283.81312 C 1.0424958,281.95941 2.4531282,276.74588 3.6543893,272.2275 4.8556664,267.7091 6.8364209,260.31536 8.0560731,255.79698 l 2.2175769,-8.21527 9.973897,-0.11305 9.973898,-0.1129 0.384858,1.01224 c 0.69991,1.84092 10.12308,38.2418 10.130022,39.13143 0.0013,0.17378 -3.587988,0.31598 -7.976328,0.31598 h -7.978796 l -0.276423,-2.00116 c -0.152065,-1.10064 -0.412198,-2.5699 -0.578148,-3.26503 l -0.30174,-1.26389 -3.614133,-0.12101 -3.614118,-0.12102 -0.573115,3.28077 -0.5731,3.28077 h -4.42361 c -2.4329827,0 -5.9612913,-0.0947 -7.8406801,-0.21064 z M 22.06576,271.27957 c -0.126428,-0.75306 -0.55568,-3.78639 -0.953961,-6.74072 -0.695086,-5.15594 -1.435059,-7.104 -1.440265,-3.79166 -0.0032,1.51934 -1.008084,8.99569 -1.473449,10.95369 -0.21133,0.88912 -0.09124,0.94791 1.936091,0.94791 h 2.161384 z m 29.626719,-3.68633 v -20.22218 h 15.587926 15.587932 v 4.8449 4.8449 h -7.793966 -7.793966 v 2.72847 2.72846 l 7.267347,0.11529 7.267347,0.11528 0.11947,4.51891 0.11947,4.51892 -7.281498,0.11529 -7.281497,0.11528 -0.114629,7.89929 -0.114614,7.89929 H 59.47713 51.692463 Z m 28.22679,19.61668 c 0,-0.59597 9.294969,-35.80673 10.155415,-38.47023 l 0.442308,-1.3692 h 9.878198 9.8782 l 0.38077,1.00146 c 0.5895,1.55052 10.13077,38.39789 10.13077,39.12398 0,0.17541 -3.58098,0.31892 -7.95773,0.31892 h -7.95773 l -0.22969,-1.36922 c -0.12627,-0.75306 -0.35368,-2.17493 -0.50522,-3.1597 l -0.27552,-1.79051 h -3.724 -3.724015 l -0.50971,3.15971 -0.509711,3.15972 h -7.736178 c -6.442127,0 -7.736157,-0.10111 -7.736157,-0.60493 z m 22.334101,-14.45639 c 0.003,-0.17378 -0.40979,-3.2923 -0.9173,-6.93005 -0.88045,-6.31073 -1.588035,-8.21762 -1.640151,-4.42005 -0.01274,0.97111 -0.35599,3.90335 -0.761468,6.51611 -0.405495,2.61275 -0.647365,4.84036 -0.537496,4.95021 0.330592,0.33061 3.850545,0.22453 3.856415,-0.11624 z m 20.07598,-4.84488 c 0.14155,-10.94842 0.34159,-20.00101 0.44458,-20.11687 0.28846,-0.32451 12.30843,-0.52006 13.8772,-0.22576 l 1.38818,0.26042 -0.18246,14.53193 c -0.10032,7.99256 -0.0758,14.80974 0.0545,15.1493 0.19434,0.50648 1.43968,0.61738 6.93256,0.61738 h 6.69565 v 4.8449 4.8449 h -14.73374 -14.73374 z m 30.54762,0 0.1586,-19.90622 7.67254,-0.11481 7.67257,-0.1148 0.11066,15.07079 0.11067,15.07079 6.87302,0.11592 6.87304,0.11592 -0.20795,1.9906 c -0.11433,1.09481 -0.2213,3.27027 -0.23762,4.83433 l -0.0298,2.84374 h -14.57718 -14.57718 z m 41.45085,2.53938 c -0.0914,-0.29603 -0.47662,-4.51949 -0.85594,-9.38544 -0.37932,-4.86596 -0.80061,-9.84251 -0.93621,-11.05901 l -0.24653,-2.2118 h 8.06508 8.06507 l -0.27049,3.68634 c -0.14872,2.02748 -0.58265,7.19362 -0.96418,11.4803 l -0.69369,7.79396 -5.99842,0.11703 c -4.58177,0.0893 -6.03767,-0.01 -6.16469,-0.4213 z M 158.2594,245.95409 c -3.00586,-0.81068 -4.86396,-2.18168 -5.95274,-4.3923 -0.88666,-1.80017 -0.97781,-2.5548 -0.97781,-8.09405 0,-3.96525 0.19381,-6.65575 0.55235,-7.66758 1.30653,-3.68725 5.7269,-5.65559 11.85261,-5.27783 5.46386,0.33696 8.262,1.84487 9.51587,5.12812 0.58266,1.52566 0.68382,2.99491 0.55804,8.1054 -0.1449,5.88482 -0.21885,6.35305 -1.29322,8.18336 -1.37754,2.34675 -2.50543,3.13361 -5.6752,3.95922 -2.86867,0.7472 -5.94196,0.76713 -8.5799,0.0557 z m 5.90414,-5.71792 c 0.24499,-0.4578 0.43611,-3.58312 0.43611,-7.13193 0,-6.63162 -0.27113,-7.65072 -2.03124,-7.63466 -1.85247,0.0169 -1.97493,0.48274 -1.89484,7.20712 0.0946,7.93551 0.18952,8.37436 1.8128,8.37436 0.7958,0 1.3975,-0.29236 1.67717,-0.81489 z m -164.29041166,4.93818 c 0,-0.40599 4.51954566,-17.80106 5.75071016,-22.13367 l 0.6285117,-2.2118 h 6.0505078 c 5.396949,0 6.074472,0.0796 6.27249,0.73727 0.760864,2.52697 6.154214,23.24079 6.154214,23.63603 0,0.33503 -1.471171,0.48312 -4.799312,0.48312 h -4.799328 l -0.365607,-2.00115 -0.365592,-2.00116 h -2.313067 c -2.1549678,0 -2.3211399,0.072 -2.4310244,1.05325 -0.3542225,3.16327 -0.058119,2.99571 -5.1612257,2.91992 -2.6928937,-0.04 -4.62127756,-0.24104 -4.62127756,-0.48181 z M 13.357373,236.03062 c 0.0064,-1.48427 -1.010981,-7.19713 -1.281449,-7.19713 -0.15966,0 -0.419746,1.42854 -0.577972,3.17454 -0.158275,1.74601 -0.387868,3.43566 -0.510332,3.75482 -0.129772,0.33798 0.09809,0.64827 0.545522,0.74314 1.418084,0.30067 1.821429,0.19557 1.824231,-0.47537 z m 12.430701,9.12807 c -0.0984,-0.28965 -0.863742,-4.98182 -1.700733,-10.42706 -0.836991,-5.44525 -1.672549,-10.80097 -1.85681,-11.9016 l -0.335004,-2.00115 h 4.310971 4.310971 l 0.469441,3.68633 c 0.258207,2.02749 0.69007,5.63957 0.959725,8.02687 0.269656,2.38728 0.621108,4.18831 0.781006,4.0023 0.159899,-0.18603 0.84016,-3.79811 1.51168,-8.02687 l 1.220958,-7.68863 h 6.220263 c 3.421147,0 6.220278,0.0943 6.220278,0.20935 0,0.11513 0.473948,3.4708 1.053226,7.45697 0.579293,3.98619 1.053241,7.49404 1.053241,7.79526 0,0.30119 0.189595,0.54763 0.421306,0.54763 0.231711,0 0.422325,-0.52135 0.423567,-1.15855 0.0016,-1.16891 1.506489,-12.14543 1.905194,-13.90275 0.205288,-0.90485 0.404889,-0.94791 4.393501,-0.94791 h 4.17844 l -0.244891,1.57986 c -0.134692,0.86892 -1.02948,6.41422 -1.988429,12.32289 l -1.743544,10.74302 -6.726966,0.11513 -6.726964,0.11512 -0.811801,-5.59194 c -0.446496,-3.07556 -0.932338,-6.63465 -1.079642,-7.90906 -0.33658,-2.91162 -0.597701,-2.25348 -1.462828,3.68687 -0.379683,2.60707 -0.890651,5.87738 -1.135483,7.26734 l -0.445175,2.52724 h -6.498278 c -4.822337,0 -6.544438,-0.13583 -6.67722,-0.52661 z m 32.871279,-0.84259 c 0.283021,-1.32214 5.456466,-20.83077 5.921277,-22.32866 0.204371,-0.65859 0.893362,-0.73727 6.456534,-0.73727 h 6.227753 l 1.320787,5.37152 c 0.726435,2.95433 2.079147,8.21525 3.006035,11.69095 0.926889,3.47568 1.688101,6.5564 1.691573,6.84605 0.0048,0.39096 -1.23499,0.52661 -4.812764,0.52661 h -4.819081 l -0.284299,-1.89582 -0.284298,-1.89584 h -2.220152 c -2.361323,0 -2.718969,0.37201 -2.733971,2.84375 -0.0056,0.92812 -0.10764,0.94791 -4.884125,0.94791 h -4.878368 z m 13.079955,-10.36239 c -0.156315,-1.5864 -0.433311,-3.43484 -0.615529,-4.10762 -0.282985,-1.04482 -0.403097,-0.74449 -0.823457,2.059 -0.709305,4.73056 -0.684045,4.933 0.61553,4.933 h 1.107674 z m 13.656807,7.29268 v -4.43892 l -3.581016,-7.60142 c -1.969558,-4.18077 -3.581012,-7.68737 -3.581012,-7.79245 0,-0.10509 2.124539,-0.13741 4.7212,-0.072 l 4.721206,0.11911 1.104959,3.47394 c 0.607748,1.91066 1.187376,3.55634 1.288089,3.65705 0.100633,0.10063 0.719591,-1.50996 1.375283,-3.57926 l 1.192169,-3.76238 h 4.830331 c 2.656686,0 4.755766,0.14219 4.664606,0.31598 -0.0911,0.17378 -0.59987,1.26388 -1.13052,2.42244 -0.53063,1.15857 -2.078695,4.51259 -3.440141,7.4534 l -2.47537,5.3469 v 4.44821 4.4482 h -4.844884 -4.8449 z m 22.749955,-7.77865 v -12.21757 h 9.62582 9.62582 l -0.068,2.84375 -0.068,2.84375 -4.66711,0.11862 -4.66708,0.11863 -0.2028,1.35584 c -0.11337,0.75768 0.006,1.49816 0.27012,1.67844 0.2601,0.17745 2.27394,0.29284 4.47521,0.25644 l 4.00231,-0.0662 0.12452,2.79797 0.12451,2.79797 h -4.44284 -4.44286 v 4.8449 4.84488 h -4.84489 -4.8449 z m 20.22218,-0.25442 v -12.47197 l 8.95252,0.30571 c 9.63039,0.32885 10.54554,0.53066 12.06162,2.65979 1.83851,2.58194 1.57343,6.10353 -0.6249,8.30185 -1.21304,1.21305 -1.3061,1.44188 -0.66862,1.64421 1.4334,0.45495 2.23127,2.59812 2.48225,6.6676 0.132,2.13965 0.41049,4.22203 0.61897,4.62752 0.34975,0.68028 0.0237,0.73727 -4.21844,0.73727 -3.1685,0 -4.73073,-0.16367 -5.02617,-0.52661 -0.23578,-0.28965 -0.56036,-2.32766 -0.72129,-4.52894 -0.30832,-4.21734 -0.61783,-4.90023 -2.32356,-5.12648 l -1.05324,-0.13964 -0.11831,5.16087 -0.11831,5.16086 h -4.62128 -4.62127 z m 11.82397,-3.13077 c 1.00328,-0.53694 1.09232,-2.59664 0.15286,-3.5361 -0.36413,-0.36411 -1.12246,-0.66203 -1.68519,-0.66203 -0.95931,0 -1.02315,0.14459 -1.02315,2.31713 0,2.06083 0.0963,2.31711 0.87029,2.31711 0.47866,0 1.23699,-0.19625 1.68519,-0.43611 z m 34.85835,14.86548 c -0.0989,-0.40549 -0.16835,-5.9508 -0.15445,-12.32288 l 0.0253,-11.58563 6.65066,-0.0492 c 5.8543,-0.0433 6.69647,0.0365 7.03319,0.66566 0.35563,0.66448 2.26594,8.5953 2.64215,10.96909 0.21488,1.35587 0.38994,0.86106 1.565,-4.4236 0.51522,-2.31713 1.13972,-4.92856 1.38779,-5.80316 l 0.45102,-1.59019 6.56561,0.1156 6.56562,0.1156 0.11162,12.32288 0.11162,12.32289 h -4.24349 -4.24346 l 0.0772,-7.60051 c 0.0423,-4.18029 -0.0159,-7.69324 -0.12882,-7.80653 -0.19367,-0.19367 -0.50608,1.0428 -2.85488,11.29942 l -0.94066,4.10762 h -4.1441 -4.14411 l -0.45,-1.57984 c -0.24749,-0.86894 -1.0974,-4.39698 -1.88866,-7.84011 -0.79128,-3.44314 -1.5443,-6.36588 -1.67339,-6.49497 -0.12914,-0.12913 -0.23474,3.39895 -0.23474,7.84009 v 8.07483 h -3.95316 c -3.41559,0 -3.97761,-0.10031 -4.13291,-0.73726 z M 7.0964909,218.50927 c -2.7930811,-0.78586 -4.3485329,-1.86703 -5.6138363,-3.90204 -0.88372517,-1.42133 -0.99128487,-2.16164 -1.12002213,-7.709 -0.16231882,-6.99486 0.21478502,-8.99527 2.10070233,-11.1432 1.8335944,-2.08834 4.7870198,-2.87315 10.0010462,-2.65753 3.478374,0.14379 4.361032,0.3377 6.254672,1.3737 1.68895,0.92401 2.428206,1.65965 3.159723,3.14424 0.854618,1.73443 0.954933,2.5576 0.954933,7.83616 0,8.17474 -1.145212,10.85671 -5.393637,12.63139 -2.342859,0.97868 -7.6089533,1.19571 -10.3435811,0.42628 z M 12.849,213.1613 c 0.643782,-0.64378 0.704305,-13.0812 0.06942,-14.26748 -0.540522,-1.00996 -2.729023,-1.1148 -3.0998217,-0.14856 -0.1405999,0.36653 -0.255723,3.64631 -0.255723,7.2884 0,6.94815 0.170137,7.63313 1.8958377,7.63313 0.48659,0 1.112219,-0.22749 1.390266,-0.50556 z m 148.27492,5.24869 -2.84374,-0.14745 V 188.8605 c 0,-16.17112 0.12563,-40.21898 0.27913,-53.43968 l 0.27911,-24.03765 21.10162,0.21219 c 19.94303,0.20054 21.21167,0.25878 23.10585,1.06086 2.36749,1.00247 4.15454,2.89984 5.12138,5.43753 0.63132,1.657 0.68737,4.67222 0.57839,31.11484 -0.11385,27.6292 -0.16495,29.36316 -0.90603,30.75456 -1.09921,2.06379 -2.71963,3.71415 -4.69149,4.77817 -1.56307,0.84344 -2.35391,0.91568 -10.91512,0.99714 -5.07645,0.0482 -9.38304,0.24095 -9.57017,0.42808 -0.18712,0.18712 -0.47184,7.58874 -0.63268,16.44802 l -0.29244,16.10777 -8.88504,-0.0825 c -4.88676,-0.0454 -10.1647,-0.14888 -11.72877,-0.22989 z m 24.72101,-50.48378 c 0.58321,-0.58322 0.66205,-3.03754 0.66205,-20.61338 0,-17.57586 -0.0788,-20.03018 -0.66205,-20.61339 -0.36411,-0.36413 -0.91931,-0.66203 -1.23379,-0.66203 -0.31446,0 -0.86966,0.2979 -1.23379,0.66203 -0.5838,0.58381 -0.66203,3.0977 -0.66203,21.27542 v 20.61338 h 1.23379 c 0.67859,0 1.53171,-0.2979 1.89582,-0.66203 z M 23.886966,205.87289 v -12.42822 h 5.847872 5.847873 l 2.176639,5.79281 c 1.197153,3.18605 2.309882,6.0772 2.472726,6.42477 0.162845,0.34756 0.348395,-2.2592 0.412374,-5.79282 l 0.116237,-6.42476 h 3.991333 3.991333 v 12.42822 12.42822 h -5.446741 c -4.260144,0 -5.583312,-0.13662 -6.073596,-0.62686 -0.777392,-0.77737 -4.910184,-11.18431 -4.910184,-12.36449 0,-0.47392 -0.216712,-0.99562 -0.48159,-1.15932 -0.358347,-0.22147 -0.407008,1.55091 -0.190137,6.92652 l 0.291439,7.22415 h -4.022813 -4.022813 z m 49.047308,11.94602 c -1.998321,-0.96966 -2.283505,-2.27238 -2.283505,-10.43117 v -7.62364 h 5.055545 5.055545 v 5.27943 c 0,4.45208 0.105697,5.31996 0.674461,5.53821 0.370954,0.14236 0.84201,-0.006 1.046789,-0.32919 0.585309,-0.92436 0.480159,-11.48889 -0.12033,-12.08937 -0.324313,-0.32431 -1.983294,-0.50556 -4.627602,-0.50556 -3.958357,0 -4.176684,-0.0487 -5.497905,-1.2286 l -1.375859,-1.2286 -0.126715,-9.89807 c -0.183915,-14.36686 -0.316869,-14.18795 10.540239,-14.18398 7.209917,0.003 9.168443,0.37188 10.421422,1.9648 0.785911,0.9991 0.861768,1.68393 0.861768,7.77945 v 6.68391 h -4.830171 -4.830151 l -0.120059,-4.31826 c -0.111142,-3.9974 -0.182673,-4.31828 -0.962651,-4.31828 -0.786727,0 -0.850549,0.32088 -0.962652,4.83977 -0.148068,5.96906 -0.207021,5.90325 5.288533,5.90325 3.822279,0 3.995903,0.0417 5.204521,1.25032 l 1.250303,1.25032 -0.124199,11.84498 -0.124199,11.84499 -1.375857,1.22874 -1.375856,1.22875 -7.892639,-0.0285 c -4.38545,-0.0159 -8.281995,-0.21745 -8.768853,-0.4537 z m 27.052064,0.18665 c -0.173608,-0.17361 -0.180136,-12.21665 -0.01433,-26.76232 l 0.301132,-26.44667 h -4.922888 -4.92289 l 0.117511,-5.58216 0.117512,-5.58215 15.903905,-0.11592 15.9039,-0.11592 v 5.69807 5.69807 h -4.00231 c -2.20127,0 -4.04614,0.0474 -4.0997,0.10541 -0.0535,0.058 -0.19578,12.04905 -0.31598,26.64695 l -0.21857,26.54161 -6.76579,0.11544 c -3.72118,0.0635 -6.90781,-0.0267 -7.081422,-0.20028 z m 23.605052,-13.04397 c -0.38891,-18.6154 -0.337,-69.33285 0.0716,-69.97657 0.26432,-0.41637 3.98187,-0.50764 17.16134,-0.42129 l 16.82393,0.11019 0.11496,7.46886 0.11497,7.46885 -8.11962,0.11448 -8.11962,0.11449 v 8.8472 8.84721 l 7.27702,0.11528 7.27702,0.11528 -0.11496,7.46799 -0.11496,7.46802 -7.21663,0.11496 -7.21663,0.11512 -0.26136,1.30682 c -0.33717,1.6858 -0.34206,18.6167 -0.006,19.49338 0.2207,0.57514 1.34584,0.66641 8.21526,0.66641 h 7.95954 v 6.95137 6.95138 h -16.78377 -16.78377 z m -73.769988,0.87683 c -0.168784,-6.62277 -0.243399,-12.10261 -0.165822,-12.17742 0.216218,-0.20848 5.335877,-0.31473 12.674605,-0.26306 l 6.635402,0.0466 v 2.94907 2.94907 h -5.080979 -5.080974 l 0.130759,1.57987 0.13076,1.57984 4.528926,-0.14506 4.528926,-0.14505 v 2.97453 2.97454 l -4.528926,0.11959 -4.528926,0.11958 v 1.68517 1.6852 l 4.950221,-0.0511 4.950221,-0.0511 v 3.10551 3.10549 H 59.546938 50.128286 Z M 23.363578,165.03341 23.254983,139.0946 12.324052,145.62615 c -6.0120065,3.59236 -11.083347,6.53156 -11.2696458,6.53156 -0.18629886,0 -0.33743974,-0.52135 -0.33584745,-1.15855 0.003185,-1.37378 -0.60883091,-0.94264 12.74131025,-8.9722 l 10.005759,-6.01806 v -9.01291 c 0,-4.95711 -0.142192,-8.92781 -0.315975,-8.82377 -2.352508,1.40836 -11.367667,6.90584 -16.2198757,9.89096 l -6.21410061,3.82297 v -3.90405 -3.90405 l 5.58216551,-3.2948 C 16.839967,114.56092 41.437669,99.433666 50.63919,93.513951 c 0.926845,-0.596268 7.46746,-4.641962 14.53469,-8.990415 7.067232,-4.348437 14.081801,-8.695346 15.587931,-9.659769 3.179135,-2.035705 17.644825,-11.071245 19.305879,-12.058804 0.61982,-0.368506 4.96512,-3.070061 9.65622,-6.003456 4.6911,-2.933394 8.65238,-5.333432 8.80284,-5.333432 0.15047,0 2.66332,-1.490725 5.58412,-3.312728 2.92082,-1.821986 9.3866,-5.820946 14.36842,-8.886581 4.98182,-3.065619 9.81618,-6.092815 10.74303,-6.727091 0.92686,-0.634292 3.86539,-2.446756 6.53009,-4.027701 2.66469,-1.58096 8.63654,-5.281652 13.27079,-8.223772 4.63425,-2.942121 10.56384,-6.704627 13.17687,-8.361143 l 4.75095,-3.0118311 h 5.91163 c 3.25138,0 5.81246,0.1604397 5.69127,0.3565147 -0.12117,0.196092 -1.93025,1.3809844 -4.02014,2.6331044 l -3.79978,2.276573 -0.006,9.629549 c -0.006,8.86136 0.0497,9.607798 0.70346,9.356899 0.86849,-0.333268 14.69237,-8.922408 16.09282,-9.998881 1.4929,-1.147553 1.7364,-0.972209 1.70656,1.228856 l -0.0271,2.001152 -9.23442,5.476835 -9.23444,5.476835 -0.0127,35.810121 c -0.008,19.695558 -0.17541,36.065794 -0.3734,36.378214 -0.198,0.31244 -0.71645,0.49901 -1.15212,0.41459 -0.76943,-0.14904 -0.7872,-1.17136 -0.62089,-35.706555 0.10207,-21.184771 0.0169,-35.468047 -0.21064,-35.342797 -0.21002,0.115601 -4.88447,2.914653 -10.38764,6.220104 l -10.00576,6.009904 -0.006,28.918322 c -0.003,16.005967 -0.1727,29.180922 -0.37877,29.506382 -0.20479,0.3234 -0.67584,0.47153 -1.0468,0.3292 -0.60927,-0.2338 -0.67446,-3.02615 -0.67446,-28.885617 V 52.379777 l -6.00347,3.685468 c -3.3019,2.026995 -6.61856,4.042318 -7.37036,4.478512 -1.47132,0.853631 -1.56197,1.136391 -2.02018,6.301597 -0.22944,2.586369 -1.457,9.049665 -2.15132,11.327016 -0.20629,0.676584 -0.0814,0.754256 0.84071,0.522831 0.85176,-0.213782 1.19356,-0.06863 1.60095,0.679895 1.26462,2.323656 11.04836,22.575444 11.49968,23.803754 0.27605,0.75126 0.89181,1.79398 1.36837,2.31712 1.64884,1.8101 1.96499,2.82483 1.15793,3.71663 -0.60602,0.66964 -1.30162,0.79526 -4.28259,0.77338 -1.95746,-0.0143 -3.67717,0.092 -3.82154,0.23639 -0.14442,0.14442 -0.36515,1.15507 -0.49057,2.24595 -0.21605,1.87907 -0.34197,2.0445 -2.39243,3.14339 -2.57102,1.37785 -8.09999,2.07892 -9.1994,1.16649 -0.57255,-0.47518 -0.64377,0.29279 -0.6489,6.99582 -0.006,8.48825 -0.14235,9.4254 -1.36587,9.4254 -0.8518,0 -0.85196,-0.0127 -0.53871,-44.508698 0.2884,-40.964786 0.25891,-44.487776 -0.37029,-44.246336 -0.63795,0.244816 -11.26964,6.726088 -16.08539,9.805974 -1.18037,0.754892 -4.66226,2.910752 -7.73754,4.790778 -3.07529,1.880025 -5.82265,3.649482 -6.10529,3.932115 -0.28261,0.282617 -3.66012,2.465959 -7.50553,4.851874 l -6.991685,4.337992 -0.04156,9.242714 c -0.02277,5.08349 0.07675,9.242715 0.221266,9.242715 0.144581,0 1.29906,-0.616156 2.565637,-1.369217 2.489642,-1.480248 2.434772,-1.284443 1.395622,-4.980038 l -0.54146,-1.925629 5.29929,-9.22504 5.29928,-9.22504 6.13235,-3.805305 c 16.49496,-10.235655 23.18037,-14.351283 23.54339,-14.493682 0.24769,-0.09713 0.34037,9.238431 0.24573,24.751072 -0.0836,13.698887 -0.2705,24.859667 -0.41535,24.801771 -0.1449,-0.05796 -1.98865,-2.190715 -4.09729,-4.739553 l -3.83387,-4.634239 0.0949,-11.269805 c 0.0522,-6.198385 -0.002,-11.269741 -0.11974,-11.269661 -0.11799,9.5e-5 -0.47788,0.426719 -0.79962,0.948069 -0.32175,0.521351 -3.46376,4.64478 -6.98224,9.16318 -6.38921,8.204966 -8.91604,11.709852 -8.601,11.930178 0.0919,0.06417 0.66066,0.328077 1.26406,0.586332 1.0045,0.429936 1.12217,0.746294 1.39421,3.748332 0.16342,1.803341 0.73711,5.090305 1.27488,7.304391 0.53776,2.214092 1.39538,5.921456 1.90582,8.238586 0.51043,2.31715 1.2101,5.23622 1.55481,6.48682 0.66097,2.39794 0.43984,2.9705 -1.15314,2.98591 -1.05528,0.01 -1.18194,0.39217 -0.55006,1.65883 0.74036,1.48406 1.46248,5.20687 1.08173,5.57672 -0.23354,0.22685 -4.52966,1.6181 -4.99663,1.6181 -0.0739,0 -0.13423,-0.36798 -0.13423,-0.81772 0,-1.45971 -0.72714,-1.33134 -3.60011,0.63558 -3.51757,2.40822 -7.19162,3.33325 -10.48477,2.63978 -2.62355,-0.55247 -3.16547,-0.95893 -2.87594,-2.15715 0.52632,-2.17814 3.07457,-3.9322 6.80765,-4.68601 1.26016,-0.25445 2.47107,-0.77288 2.7145,-1.16215 0.33525,-0.53613 -0.49253,-3.83324 -3.49051,-13.90278 -2.1615,-7.260004 -3.98466,-13.264475 -4.05147,-13.343278 -0.0669,-0.07882 -1.46309,0.653718 -3.1028,1.627869 l -2.981311,1.771161 v 28.389468 28.38943 h -1.045344 -1.045343 l -0.0096,-27.45607 c -0.0048,-15.10086 -0.09283,-27.539344 -0.194483,-27.641059 -0.101748,-0.101748 -1.570244,0.664386 -3.263382,1.702414 -3.850128,2.360468 -16.808451,10.326475 -17.478816,10.744935 -0.370686,0.2314 -0.575414,8.18214 -0.802609,31.16999 l -0.304986,30.85939 h -0.942825 c -0.518555,0 -1.053895,-0.28945 -1.189645,-0.64319 -0.135743,-0.35376 -0.1249,-13.91548 0.02409,-30.13715 l 0.270923,-29.49393 -7.757819,4.68825 c -4.266796,2.57855 -9.084896,5.50451 -10.706883,6.50212 l -2.949066,1.81385 -0.107798,33.74612 c -0.05939,18.56035 -0.248892,33.7602 -0.421306,33.77741 -0.172399,0.0172 -0.740021,0.11083 -1.261371,0.20801 -0.564676,0.10525 -0.954901,-0.0352 -0.965187,-0.34728 -0.0096,-0.28819 -0.0016,-15.17995 0.01672,-33.09281 0.03392,-32.52467 0.0328,-32.56822 -0.81497,-32.11449 -1.031617,0.55211 -17.678595,10.6446 -19.17639,11.62598 l -1.066585,0.69886 -0.108435,26.60054 -0.108436,26.60054 -1.155339,0.13295 -1.155339,0.13296 z m 7.896061,-33.74032 c 1.158571,-0.73542 5.187212,-3.18716 8.952534,-5.44832 l 6.846051,-4.1112 v -9.01242 c 0,-4.95683 -0.167159,-9.01243 -0.371483,-9.01243 -0.204307,0 -4.789726,2.74897 -10.189813,6.10881 -5.400086,3.35983 -9.97248,6.10879 -10.160897,6.10879 -0.188416,0 -0.342582,4.18627 -0.342582,9.30285 v 9.30286 l 1.579861,-0.95091 c 0.868917,-0.523 2.527773,-1.55261 3.686329,-2.28803 z m 27.173563,-16.49672 c 2.664692,-1.62084 6.551144,-3.99525 8.636555,-5.27644 l 3.791659,-2.32944 0.113387,-9.324235 c 0.06236,-5.12831 0.03159,-9.32419 -0.06837,-9.32419 -0.161449,0 -4.333892,2.560112 -17.423444,10.690601 L 49.586,101.65326 v 9.2321 9.23204 l 2.001152,-1.18702 c 1.100642,-0.65284 4.181365,-2.51316 6.846059,-4.13401 z m 58.138758,4.92161 c 0,-0.23172 -0.28436,-0.42131 -0.63193,-0.42131 -0.34757,0 -0.63195,0.18959 -0.63195,0.42131 0,0.23171 0.28438,0.42129 0.63195,0.42129 0.34757,0 0.63193,-0.18958 0.63193,-0.42129 z m 27.99628,-5.2836 c 0.4578,-1.09566 1.11142,-1.70782 2.46088,-2.30474 2.48782,-1.10048 4.08908,-2.42059 4.08908,-3.37111 0,-0.43295 -1.52763,-2.68454 -3.39476,-5.00352 l -3.39475,-4.216337 0.0444,-13.397586 c 0.0245,-7.368675 0.15953,-20.045323 0.30022,-28.170324 l 0.25581,-14.772732 2.4596,-1.532395 c 2.41074,-1.501967 2.46377,-1.513973 2.66916,-0.604564 0.53942,2.388224 1.06031,8.478412 1.06031,12.397104 0,2.381122 0.12356,4.32933 0.27443,4.32933 0.15095,0 3.42126,-1.958033 7.26736,-4.351192 3.84608,-2.393144 9.17309,-5.684757 11.83779,-7.314697 2.66469,-1.629924 7.83082,-4.801701 11.4803,-7.048401 l 6.63539,-4.08488 v -9.66125 -9.661236 l -5.79281,3.582321 c -3.18604,1.970261 -7.36995,4.48047 -9.29758,5.578217 -1.92762,1.097746 -5.99836,3.576858 -9.04607,5.509143 -3.0477,1.932285 -8.70773,5.402825 -12.57782,7.712309 -3.8701,2.309469 -7.24499,4.450217 -7.49974,4.75718 -0.32663,0.393569 -0.50067,11.255857 -0.59023,36.8397 -0.0699,19.954843 -0.068,36.2816 0.005,36.2816 0.0723,0 0.41185,-0.67138 0.7547,-1.49194 z M 163.5024,46.114149 c 0.15541,-1.322658 0.39878,-2.8676 0.54075,-3.4332 0.15604,-0.621745 0.0954,-0.927816 -0.15334,-0.774096 -0.22628,0.139804 -0.64342,1.290971 -0.92697,2.558058 -0.54285,2.425722 -1.45898,3.654641 -2.18397,2.929652 -0.38229,-0.382294 -0.25117,-1.49324 0.71262,-6.037578 l 0.22338,-1.053241 -1.21277,1.157584 c -0.90669,0.86543 -1.33378,1.03657 -1.69227,0.678064 -0.35851,-0.35849 -0.0705,-1.293041 1.14114,-3.702888 1.24542,-2.476994 1.52332,-3.397326 1.20021,-3.974693 -0.23126,-0.413249 -0.34084,-0.830973 -0.24354,-0.928278 0.41671,-0.416704 8.87052,-5.672751 8.9516,-5.565542 0.0492,0.06497 0.44008,1.113828 0.86874,2.330742 0.6055,1.719028 0.66676,2.325168 0.27456,2.717351 -0.32131,0.32131 -0.52291,2.120415 -0.55465,4.949466 -0.0274,2.444559 -0.16959,4.997777 -0.31596,5.673802 -0.30976,1.430616 -1.31937,1.994019 -1.31937,0.736263 0,-0.463789 -0.13487,-1.190529 -0.29958,-1.614972 -0.20307,-0.523086 -0.4406,0.10955 -0.73727,1.963637 -0.32904,2.056341 -0.6207,2.769929 -1.17495,2.874639 -0.57509,0.108595 -0.74802,-0.168704 -0.78614,-1.260829 -0.0282,-0.805321 -0.12451,-1.042159 -0.22706,-0.557511 -0.0979,0.463422 -0.26919,1.269156 -0.38044,1.790507 -0.13248,0.621091 -0.51002,0.94791 -1.09484,0.94791 -0.83799,0 -0.87528,-0.146969 -0.60993,-2.404847 z M 81.183155,100.74948 c 2.896401,-1.765214 7.209426,-4.406048 9.584465,-5.868526 l 4.318279,-2.659057 v -9.39005 -9.390065 l -10.729681,6.602239 -10.729696,6.602207 -0.01337,9.422278 -0.01338,9.422304 1.158564,-0.76592 c 0.637209,-0.42124 3.528348,-2.21018 6.424755,-3.97541 z M 170.91909,22.654398 c 0,-0.09108 -0.29423,-0.278477 -0.65383,-0.416466 -0.37493,-0.143943 -0.54403,-0.07325 -0.39644,0.165583 0.24741,0.400304 1.05027,0.592096 1.05027,0.250883 z M 98.140292,150.61482 c -0.395829,-0.15972 -0.52662,-2.23705 -0.52662,-8.36426 0,-8.98863 -0.241552,-8.22294 2.785608,-8.82975 3.23336,-0.64811 7.57597,1.75677 9.05583,5.01501 1.49574,3.29322 0.68107,7.95824 -1.78584,10.2261 -1.58077,1.45322 -3.91514,2.23485 -6.56638,2.19866 -1.339792,-0.0183 -2.672959,-0.12898 -2.962598,-0.24576 z m 20.011498,-0.43417 c -0.10174,-0.18703 -0.096,-6.07495 0.0127,-13.08424 l 0.19759,-12.7442 h 1.00686 1.00684 l -0.11146,12.95484 c -0.11098,12.90592 -0.1148,12.95533 -1.01956,13.08426 -0.49949,0.0712 -0.99135,-0.0236 -1.09304,-0.21066 z m -24.915966,-4.35089 c -0.834204,-2.08486 -0.872053,-5.03021 -0.08869,-6.90495 1.206961,-2.88867 1.517507,-2.21176 1.517507,3.3076 0,2.91008 -0.168991,5.29106 -0.375543,5.29106 -0.206553,0 -0.680517,-0.76217 -1.053242,-1.69371 z M 118.78378,85.313984 c -0.82543,-0.333076 -0.61718,-1.501234 0.51355,-2.880705 l 1.03599,-1.263886 0.0159,2.211797 c 0.0143,2.192482 -0.21549,2.477217 -1.56471,1.932794 z m 4.52892,-7.087842 c 0,-0.169388 0.89855,-1.531774 1.99679,-3.027499 1.3276,-1.808086 2.72141,-3.134087 4.15892,-3.956541 1.18916,-0.680373 2.27217,-1.23704 2.40667,-1.23704 0.13455,0 0.18142,0.703493 0.10429,1.563302 -0.13184,1.469754 -0.35522,1.691625 -3.73217,3.707426 -1.97553,1.179256 -3.89396,2.394816 -4.26317,2.701237 -0.36922,0.306406 -0.6713,0.41852 -0.6713,0.249115 z M 77.124575,58.424711 c -0.132256,-0.344668 -0.03151,-1.226085 0.223869,-1.958701 0.255394,-0.732616 0.464348,-1.721369 0.464348,-2.197243 0,-0.750625 -0.211613,-0.65859 -1.597621,0.694815 -1.469608,1.435026 -3.036629,2.057248 -3.036629,1.205767 0,-0.194849 1.150721,-2.014256 2.557161,-4.04313 2.548253,-3.67601 2.843745,-4.467255 1.375905,-3.684242 -1.36702,0.729224 -3.274051,0.772439 -3.399374,0.07707 -0.114152,-0.6334 4.422874,-3.624308 6.204691,-4.090278 0.483666,-0.126429 0.800585,-0.442802 0.704264,-0.702936 -0.09632,-0.260134 3.592789,-7.94789 8.198032,-17.083888 4.605243,-9.136016 8.373161,-16.8615297 8.373161,-17.1678087 0,-0.4561927 5.215968,-0.5568584 28.855408,-0.5568584 h 28.85541 l 4.25142,4.1076361 c 3.88291,3.751599 6.70892,7.163798 6.70892,8.100547 0,0.364015 -8.63041,5.90752 -9.19711,5.90752 -0.16007,0 -1.14213,-1.06754 -2.18237,-2.372332 -1.04023,-1.304777 -3.23459,-3.627175 -4.87636,-5.16086 -2.98683,-2.790233 -7.64451,-6.032471 -7.20333,-5.014291 0.12881,0.297314 0.90302,2.058619 1.72043,3.914029 1.16624,2.647179 4.58989,13.716434 4.31484,13.950614 -0.66996,0.570392 -28.85594,17.854082 -29.11617,17.854082 -0.10843,0 -0.0994,-0.255325 0.0204,-0.567399 0.11974,-0.312059 -2.18385,-5.572994 -5.11911,-11.690936 -2.93524,-6.117957 -6.09888,-12.724448 -7.03029,-14.681112 l -1.69348,-3.557559 -0.88928,1.119242 c -0.87973,1.107204 -3.53804,5.477648 -11.377155,18.704785 -4.272167,7.208522 -5.025483,8.227592 -5.849513,7.913066 -0.530617,-0.202525 -1.754282,3.154915 -2.605667,7.149273 -0.483597,2.268849 -1.48977,3.15251 -1.48977,1.308391 0,-1.638729 -0.68913,-0.928469 -1.002884,1.033656 -0.209962,1.313024 -0.457718,1.694507 -1.100517,1.694507 -0.742235,0 -0.804461,-0.210629 -0.591179,-2.001152 0.13111,-1.100628 0.311115,-2.238134 0.400016,-2.527773 0.0889,-0.289638 -0.02199,-0.52662 -0.246432,-0.52662 -0.224442,0 -0.408076,0.184404 -0.408076,0.409778 0,0.760226 -2.201681,5.067057 -2.590315,5.067057 -0.211859,0 -0.493411,-0.281996 -0.625674,-0.626665 z"
       style="fill:#0743a5;stroke-width:0.42129543"
       sodipodi:nodetypes="ccccccccccccccccccccccsccccccccscccsccscccccccccccccccccccccccscccccssccccccccsscccccccccccccscccccccccccccccccccccsccccccccccccscccccccccsccscsscscsscccsccscsccsccscccccscccsscssccsccscccccsccsccccscsccscccscsccccssccccsscccsscsccccccccccccccccccccccccccccccccscscccscccccccccccsssccccscccccccccccccccccccsscscccccccssssccccssccccsccsccscccsscccccscscscscccccssccccccscscccccccscccscccsccsccsccccscsccccccccccccccccccccscscccccsccccccccccccccccsccccccscccccccccccccccccccccccsccsscscsccccccccssssccccsccscscccccccccccccsccccsccccccccccccccccssccsscccssscccccccscccccccsscccccsscccccscccccccccccscsccccccccccccccccccccscssssscccccccscccccccsssssccscccscccssccccccccscccsccccccsccccccscccccsccccccsccccccccccccccsccscsccccccccccccccccsscccccccccscscscccccscssccccssscssscccccsccsccscsscsccssscc" />
  </g>
</svg>
