<?xml version="1.0" encoding="utf-8"?>

<!DOCTYPE svg PUBLIC "-//W3C//DTD SVG 1.1//EN" "http://www.w3.org/Graphics/SVG/1.1/DTD/svg11.dtd">
<svg version="1.1" id="Layer_1" xmlns="http://www.w3.org/2000/svg" xmlns:xlink="http://www.w3.org/1999/xlink" x="0px" y="0px"
	 viewBox="0 0 1632.362 1632.362" enable-background="new 0 0 1632.362 1632.362" xml:space="preserve">
<g>
	<path d="M816.181,851.824c-7.604,12.675-16.062,24.836-25.313,36.363c-2.288,2.852-4.757,6.58-3.148,9.863
		c1.19,2.426,4.306,3.413,6.959,2.903c2.653-0.51,4.921-2.189,6.973-3.946c5.928-5.081,10.83-11.288,14.529-18.154
		c3.7,6.866,8.602,13.073,14.529,18.154c2.052,1.758,4.32,3.436,6.973,3.946c2.653,0.51,5.77-0.477,6.959-2.903
		c1.609-3.283-0.86-7.011-3.148-9.863C832.243,876.66,823.784,864.499,816.181,851.824z"/>
	<path d="M794.679,184.859c2.653-0.51,4.921-2.189,6.973-3.946c5.928-5.081,10.83-11.288,14.529-18.154
		c3.7,6.866,8.602,13.073,14.529,18.154c2.052,1.758,4.32,3.436,6.973,3.946c2.653,0.51,5.77-0.477,6.959-2.903
		c1.609-3.283-0.86-7.011-3.148-9.863c-9.251-11.527-17.71-23.688-25.313-36.363c-7.604,12.675-16.062,24.836-25.313,36.363
		c-2.288,2.852-4.757,6.58-3.148,9.863C788.909,184.382,792.025,185.369,794.679,184.859z"/>
	<path d="M841.494,744.174c2.288-2.852,4.757-6.58,3.148-9.863c-1.19-2.426-4.306-3.413-6.959-2.903
		c-2.653,0.51-4.921,2.189-6.973,3.946c-5.928,5.081-10.83,11.288-14.529,18.154c-3.7-6.866-8.602-13.073-14.529-18.154
		c-2.052-1.758-4.32-3.436-6.973-3.946c-2.653-0.51-5.77,0.477-6.959,2.903c-1.609,3.283,0.86,7.011,3.148,9.863
		c9.251,11.527,17.71,23.688,25.313,36.363C823.784,767.863,832.243,755.701,841.494,744.174z"/>
	<path d="M855.666,337.361c-15.298-9.379-28.756-21.725-39.485-36.107c-10.729,14.382-24.188,26.727-39.485,36.107
		c11.053,13.808,24.475,25.708,39.485,35.061C831.191,363.069,844.613,351.169,855.666,337.361z"/>
	<path d="M898.05,844.642c2.426-1.19,3.413-4.306,2.903-6.959c-0.51-2.653-2.189-4.921-3.946-6.973
		c-5.081-5.928-11.288-10.83-18.154-14.529c6.866-3.7,13.073-8.602,18.154-14.529c1.758-2.052,3.436-4.32,3.946-6.973
		c0.51-2.654-0.477-5.77-2.903-6.959c-3.282-1.609-7.011,0.86-9.863,3.148c-11.527,9.251-23.688,17.71-36.363,25.313
		c12.675,7.603,24.836,16.062,36.363,25.313C891.039,843.782,894.768,846.251,898.05,844.642z"/>
	<path d="M1053.455,776.695c-9.379,15.298-21.725,28.757-36.107,39.485c14.382,10.729,26.727,24.188,36.107,39.485
		c13.808-11.053,25.708-24.475,35.061-39.485C1079.164,801.17,1067.263,787.748,1053.455,776.695z"/>
	<path d="M816.181,615.013c10.729-14.382,24.188-26.727,39.485-36.107c-11.053-13.808-24.475-25.708-39.485-35.061
		c-15.01,9.352-28.432,21.253-39.485,35.061C791.993,588.285,805.452,600.631,816.181,615.013z"/>
	<path d="M578.906,776.695c-13.808,11.053-25.708,24.475-35.061,39.485c9.352,15.01,21.253,28.432,35.061,39.485
		c9.379-15.298,21.725-28.757,36.106-39.485C600.631,805.452,588.285,791.993,578.906,776.695z"/>
	<path d="M734.311,787.719c-2.426,1.19-3.413,4.306-2.903,6.959c0.51,2.653,2.189,4.921,3.946,6.973
		c5.081,5.928,11.288,10.83,18.154,14.529c-6.866,3.7-13.073,8.602-18.154,14.529c-1.758,2.052-3.436,4.32-3.946,6.973
		c-0.51,2.654,0.477,5.77,2.903,6.959c3.282,1.609,7.011-0.86,9.863-3.148c11.527-9.251,23.688-17.71,36.363-25.313
		c-12.675-7.604-24.836-16.062-36.363-25.313C741.323,788.579,737.594,786.111,734.311,787.719z"/>
	<path d="M1559.9,766.266c-35.457-45.749-90.796-75.632-148.549-79.905c2.272,17.131-4.369,34.489-14.546,48.456
		c-8.759,12.019-19.988,21.932-31.462,31.45h-37.084c-5.941-6.796-11.568-13.844-16.822-21.121
		c22.843-5.297,43.941-18.076,59.034-36.042c9.376-11.159,16.714-25.551,14.091-39.889c-1.745-9.537-7.639-17.722-13.483-25.46
		c0.101,9.349-1.357,19.615-8.268,25.91c-2.268,2.065-5.184,3.62-8.25,3.535c-3.067-0.085-6.18-2.163-6.765-5.173
		c-0.585-3.011,2.164-6.394,5.186-5.865c-2.706-9.223-11.337-15.745-20.535-18.53c-7.435-2.25-15.271-2.46-23.073-2.247
		c-12.332-4.732-26.329-4.677-38.052,0.963c-10.152,4.896-17.526,13.232-20.22,22.878c-0.709,2.562-1.046,5.179-1.046,7.764
		c0,8.739,3.897,17.135,10.669,22.001c4.86,3.506,11.223,4.914,17.453,3.855c5.774-0.981,10.657-3.958,13.749-8.384
		c2.779-3.987,3.717-9.334,2.393-13.965c-0.501-1.793-1.323-3.379-2.401-4.713c0.554-1.333,0.863-2.795,0.863-4.329
		c0-6.236-5.055-11.291-11.292-11.291c-6.234,0-11.289,5.055-11.289,11.291c0,6.237,5.055,11.291,11.289,11.291
		c1.044,0,2.051-0.153,3.01-0.418c0.124,0.22,0.242,0.492,0.34,0.834c0.445,1.792,0.073,4.102-0.998,5.659
		c-1.564,2.243-4.162,3.777-7.314,4.312c-3.596,0.613-7.349-0.186-10.044-2.135c-5.413-3.885-7.879-11.95-5.882-19.132
		c1.888-6.808,7.505-13.033,14.999-16.641c14.182-6.827,33.452-2.959,44.819,8.991c11.078,11.632,14.928,30.282,9.539,46.388
		c-4.306,12.943-14.771,20.515-28.015,30.108c-2.171,1.573-4.4,3.19-6.673,4.88c-26.077,15.755-49.302,35.445-69.164,58.616
		c-8.233-7.106-15.941-14.813-23.05-23.041c13.594-17.045,31.438-30.703,51.71-38.837c1.299-0.523,2.322-1.588,2.803-2.917
		c0.469-1.329,0.349-2.796-0.325-4.036c-8.667-15.703-18.453-30.649-29.274-44.791l16.031-10.506
		c-37.447-56.243-69.779-97.199-69.779-97.199s-32.331,40.955-69.778,97.199l16.03,10.505
		c-10.821,14.143-20.607,29.089-29.275,44.792c-0.397,0.74-0.613,1.558-0.613,2.382c0,0.559,0.096,1.119,0.289,1.654
		c0.481,1.329,1.503,2.394,2.803,2.917c20.271,8.134,38.116,21.792,51.71,38.837c-7.11,8.229-14.818,15.937-23.052,23.042
		c-19.858-23.179-43.094-42.882-69.214-58.657c-2.255-1.676-4.466-3.28-6.62-4.841c-13.243-9.587-23.697-17.165-28.003-30.108
		c-5.389-16.112-1.551-34.751,9.527-46.388c11.367-11.95,30.636-15.818,44.818-8.991c7.494,3.609,13.112,9.833,15,16.648
		c2.021,7.229-0.457,15.24-5.858,19.119c-2.719,1.954-6.484,2.754-10.068,2.141c-3.152-0.535-5.75-2.069-7.314-4.312
		c-1.071-1.552-1.479-3.849-0.986-5.653c0.088-0.325,0.209-0.594,0.346-0.836c0.955,0.263,1.956,0.414,2.995,0.414
		c6.234,0,11.289-5.055,11.289-11.291c0-6.236-5.055-11.291-11.289-11.291c-6.236,0-11.291,5.055-11.291,11.291
		c0,1.535,0.309,2.997,0.864,4.331c-1.079,1.337-1.903,2.926-2.404,4.724c-1.286,4.625-0.373,9.978,2.394,13.953
		c3.091,4.421,7.963,7.398,13.737,8.384c6.231,1.064,12.606-0.343,17.478-3.855c8.769-6.291,12.739-18.518,9.611-29.759
		c-2.695-9.653-10.069-17.989-20.221-22.885c-11.723-5.64-25.719-5.696-38.052-0.963c-7.801-0.213-15.637-0.002-23.071,2.247
		c-9.198,2.785-17.829,9.307-20.535,18.53c3.021-0.528,5.771,2.854,5.185,5.865c-0.585,3.01-3.698,5.089-6.765,5.173
		c-3.066,0.085-5.982-1.469-8.25-3.535c-4.354-3.966-6.544-9.508-7.543-15.403c-5.895-0.999-11.437-3.189-15.403-7.543
		c-2.065-2.268-3.62-5.185-3.535-8.25c0.085-3.067,2.163-6.18,5.173-6.765c3.011-0.585,6.394,2.164,5.865,5.185
		c9.223-2.706,15.745-11.337,18.53-20.535c2.25-7.434,2.46-15.269,2.247-23.071c4.733-12.332,4.677-26.329-0.963-38.052
		c-4.896-10.152-13.232-17.526-22.885-20.221c-11.24-3.127-23.468,0.842-29.759,9.611c-3.512,4.872-4.92,11.247-3.855,17.478
		c0.986,5.774,3.964,10.646,8.384,13.737c3.975,2.767,9.328,3.681,13.953,2.394c1.798-0.501,3.387-1.325,4.724-2.404
		c1.334,0.555,2.796,0.864,4.331,0.864c6.236,0,11.291-5.055,11.291-11.291c0-6.234-5.055-11.289-11.291-11.289
		c-6.237,0-11.291,5.055-11.291,11.289c0,1.039,0.152,2.04,0.414,2.995c-0.242,0.137-0.511,0.259-0.836,0.347
		c-1.805,0.493-4.102,0.084-5.654-0.987c-2.243-1.564-3.777-4.162-4.312-7.314c-0.614-3.584,0.187-7.349,2.141-10.068
		c3.879-5.401,11.891-7.879,19.119-5.858c6.814,1.888,13.039,7.506,16.648,15c6.827,14.182,2.959,33.452-8.991,44.818
		c-11.637,11.078-30.276,14.916-46.388,9.527c-12.943-4.306-20.521-14.759-30.108-28.003c-1.561-2.155-3.165-4.366-4.841-6.62
		c-15.775-26.12-35.478-49.357-58.657-69.214c7.106-8.234,14.814-15.942,23.042-23.052c17.045,13.594,30.703,31.439,38.837,51.71
		c0.523,1.299,1.588,2.322,2.917,2.803c0.535,0.192,1.095,0.289,1.654,0.289c0.824,0,1.642-0.216,2.382-0.613
		c15.703-8.668,30.65-18.453,44.792-29.275l10.505,16.03c56.243-37.447,97.199-69.778,97.199-69.778s-40.955-32.332-97.199-69.779
		l-10.506,16.031c-14.142-10.821-29.088-20.606-44.791-29.274c-1.239-0.673-2.706-0.794-4.036-0.325
		c-1.329,0.481-2.394,1.503-2.917,2.803c-8.134,20.272-21.792,38.116-38.837,51.71c-8.228-7.109-15.935-14.817-23.041-23.05
		c23.171-19.862,42.861-43.087,58.616-69.164c1.69-2.273,3.307-4.501,4.88-6.673c9.593-13.243,17.165-23.708,30.108-28.015
		c16.106-5.389,34.757-1.54,46.388,9.539c11.95,11.367,15.818,30.637,8.991,44.819c-3.609,7.494-9.833,13.111-16.641,14.999
		c-7.182,1.997-15.247-0.469-19.132-5.882c-1.948-2.695-2.749-6.448-2.135-10.044c0.535-3.152,2.069-5.75,4.312-7.314
		c1.558-1.071,3.867-1.443,5.659-0.998c0.342,0.099,0.614,0.216,0.834,0.34c-0.265,0.96-0.418,1.966-0.418,3.01
		c0,6.234,5.055,11.289,11.291,11.289c6.236,0,11.291-5.055,11.291-11.289c0-6.236-5.055-11.291-11.291-11.291
		c-1.534,0-2.996,0.309-4.329,0.863c-1.334-1.078-2.92-1.9-4.713-2.401c-4.631-1.323-9.978-0.385-13.966,2.393
		c-4.427,3.092-7.404,7.975-8.384,13.749c-1.058,6.231,0.349,12.594,3.855,17.454c4.866,6.772,13.262,10.669,22.001,10.669
		c2.586,0,5.202-0.337,7.765-1.046c9.647-2.695,17.983-10.068,22.878-20.22c5.64-11.723,5.696-25.72,0.963-38.052
		c0.213-7.802,0.002-15.638-2.247-23.073c-2.785-9.198-9.307-17.83-18.53-20.535c0.528,3.021-2.854,5.771-5.865,5.185
		c-3.01-0.585-5.089-3.698-5.173-6.765c-0.085-3.066,1.469-5.982,3.535-8.25c6.295-6.911,16.561-8.37,25.91-8.268
		c-7.738-5.844-15.923-11.737-25.46-13.483c-14.337-2.623-28.729,4.715-39.888,14.091c-17.967,15.093-30.746,36.191-36.042,59.034
		c-7.278-5.254-14.326-10.881-21.121-16.822v-37.084c9.518-11.475,19.431-22.703,31.45-31.462
		c13.967-10.177,31.324-16.818,48.455-14.546c-4.273-57.753-34.156-113.092-79.905-148.549l0-55.281h-99.831l0,55.281
		c-45.749,35.457-75.632,90.796-79.905,148.549c17.131-2.273,34.488,4.369,48.455,14.546c12.019,8.759,21.932,19.988,31.45,31.462
		v37.084c-6.796,5.941-13.844,11.568-21.121,16.822c-5.297-22.843-18.076-43.941-36.042-59.034
		c-11.159-9.376-25.551-16.714-39.888-14.091c-9.537,1.745-17.722,7.639-25.46,13.483c9.349-0.101,19.615,1.357,25.91,8.268
		c2.065,2.268,3.62,5.184,3.535,8.25c-0.085,3.067-2.163,6.18-5.173,6.765c-3.011,0.585-6.394-2.164-5.865-5.185
		c-9.223,2.706-15.745,11.337-18.53,20.535c-2.25,7.435-2.46,15.271-2.247,23.073c-4.732,12.332-4.677,26.329,0.963,38.052
		c4.896,10.152,13.232,17.526,22.878,20.22c2.562,0.709,5.179,1.046,7.764,1.046c8.739,0,17.135-3.897,22.001-10.669
		c3.506-4.86,4.914-11.223,3.855-17.454c-0.981-5.774-3.958-10.657-8.384-13.749c-3.988-2.779-9.334-3.717-13.966-2.393
		c-1.793,0.501-3.379,1.323-4.713,2.401c-1.333-0.554-2.795-0.863-4.329-0.863c-6.236,0-11.291,5.055-11.291,11.291
		c0,6.234,5.055,11.289,11.291,11.289c6.237,0,11.291-5.055,11.291-11.289c0-1.044-0.153-2.051-0.418-3.01
		c0.22-0.124,0.492-0.242,0.834-0.34c1.792-0.445,4.102-0.072,5.659,0.998c2.243,1.564,3.777,4.162,4.312,7.314
		c0.614,3.596-0.187,7.349-2.135,10.044c-3.885,5.413-11.95,7.879-19.132,5.882c-6.808-1.888-13.033-7.506-16.641-14.999
		c-6.827-14.182-2.959-33.452,8.991-44.819c11.632-11.078,30.282-14.928,46.389-9.539c12.943,4.306,20.515,14.771,30.108,28.015
		c1.573,2.171,3.19,4.4,4.88,6.673c15.755,26.077,35.445,49.302,58.616,69.164c-7.106,8.233-14.813,15.941-23.041,23.05
		c-17.045-13.594-30.703-31.439-38.837-51.71c-0.523-1.299-1.588-2.322-2.917-2.803c-1.329-0.469-2.797-0.349-4.036,0.325
		c-15.703,8.667-30.649,18.453-44.791,29.274l-10.506-16.031c-56.243,37.447-97.199,69.779-97.199,69.779
		s40.955,32.331,97.199,69.778l10.505-16.03c14.143,10.821,29.089,20.607,44.792,29.275c0.74,0.397,1.558,0.613,2.382,0.613
		c0.559,0,1.119-0.096,1.654-0.289c1.329-0.481,2.394-1.503,2.917-2.803c8.134-20.271,21.792-38.116,38.837-51.71
		c8.229,7.11,15.937,14.818,23.042,23.052c-23.179,19.858-42.882,43.094-58.657,69.214c-1.676,2.255-3.28,4.466-4.841,6.62
		c-9.587,13.243-17.165,23.696-30.108,28.003c-16.112,5.389-34.751,1.551-46.389-9.527c-11.95-11.367-15.818-30.637-8.991-44.818
		c3.609-7.494,9.833-13.112,16.648-15c7.229-2.021,15.24,0.457,19.119,5.858c1.954,2.719,2.754,6.484,2.141,10.068
		c-0.535,3.152-2.069,5.75-4.312,7.314c-1.552,1.071-3.849,1.479-5.654,0.987c-0.324-0.088-0.594-0.209-0.836-0.347
		c0.262-0.955,0.414-1.956,0.414-2.995c0-6.234-5.055-11.289-11.291-11.289c-6.236,0-11.291,5.055-11.291,11.289
		c0,6.236,5.055,11.291,11.291,11.291c1.535,0,2.997-0.309,4.331-0.864c1.337,1.079,2.926,1.903,4.724,2.404
		c4.625,1.287,9.978,0.373,13.953-2.394c4.421-3.091,7.398-7.963,8.384-13.737c1.064-6.231-0.343-12.606-3.855-17.478
		c-6.291-8.769-18.518-12.739-29.759-9.611c-9.653,2.695-17.989,10.068-22.885,20.221c-5.64,11.723-5.696,25.719-0.963,38.052
		c-0.213,7.801-0.002,15.637,2.247,23.071c2.785,9.198,9.307,17.83,18.53,20.535c-0.528-3.021,2.854-5.771,5.865-5.185
		c3.01,0.585,5.089,3.698,5.173,6.765c0.085,3.066-1.469,5.983-3.535,8.25c-3.966,4.354-9.508,6.544-15.403,7.543
		c-0.999,5.895-3.189,11.437-7.543,15.403c-2.268,2.065-5.185,3.62-8.25,3.535c-3.067-0.085-6.18-2.163-6.765-5.173
		c-0.585-3.011,2.164-6.394,5.185-5.865c-2.706-9.223-11.337-15.745-20.535-18.53c-7.434-2.249-15.269-2.46-23.071-2.247
		c-12.332-4.732-26.329-4.677-38.052,0.963c-10.152,4.896-17.526,13.232-20.221,22.885c-3.127,11.24,0.842,23.468,9.611,29.759
		c4.872,3.512,11.247,4.92,17.478,3.855c5.774-0.987,10.646-3.964,13.737-8.384c2.767-3.975,3.681-9.328,2.394-13.953
		c-0.501-1.798-1.325-3.387-2.404-4.724c0.555-1.334,0.864-2.796,0.864-4.331c0-6.236-5.055-11.291-11.292-11.291
		c-6.234,0-11.289,5.055-11.289,11.291c0,6.237,5.055,11.291,11.289,11.291c1.039,0,2.04-0.152,2.995-0.414
		c0.137,0.242,0.259,0.511,0.346,0.836c0.493,1.805,0.084,4.102-0.986,5.653c-1.564,2.243-4.162,3.777-7.314,4.312
		c-3.584,0.613-7.349-0.186-10.068-2.141c-5.401-3.879-7.879-11.89-5.858-19.119c1.888-6.814,7.506-13.039,15-16.648
		c14.182-6.827,33.452-2.959,44.818,8.991c11.078,11.637,14.916,30.276,9.527,46.388c-4.306,12.943-14.76,20.521-28.003,30.108
		c-2.155,1.561-4.366,3.165-6.62,4.841c-26.12,15.775-49.357,35.478-69.214,58.657c-8.234-7.106-15.942-14.814-23.052-23.042
		c13.594-17.045,31.439-30.703,51.71-38.837c1.299-0.523,2.322-1.588,2.803-2.917c0.192-0.535,0.289-1.095,0.289-1.654
		c0-0.824-0.216-1.642-0.613-2.382c-8.668-15.703-18.453-30.65-29.275-44.792l16.03-10.505
		c-37.447-56.243-69.778-97.199-69.778-97.199s-32.332,40.955-69.779,97.199l16.031,10.506
		c-10.821,14.142-20.607,29.088-29.274,44.791c-0.673,1.239-0.794,2.706-0.325,4.036c0.481,1.329,1.504,2.394,2.803,2.917
		c20.272,8.134,38.116,21.792,51.71,38.837c-7.11,8.228-14.817,15.935-23.05,23.041c-19.862-23.171-43.087-42.861-69.164-58.616
		c-2.273-1.69-4.501-3.307-6.673-4.88c-13.243-9.593-23.708-17.165-28.015-30.108c-5.389-16.106-1.54-34.757,9.539-46.388
		c11.367-11.95,30.637-15.818,44.819-8.991c7.494,3.609,13.111,9.833,14.999,16.641c1.997,7.181-0.469,15.247-5.882,19.132
		c-2.695,1.948-6.448,2.748-10.044,2.135c-3.152-0.535-5.75-2.069-7.314-4.312c-1.071-1.558-1.443-3.867-0.998-5.659
		c0.099-0.342,0.216-0.614,0.34-0.834c0.96,0.265,1.966,0.418,3.01,0.418c6.234,0,11.289-5.055,11.289-11.291
		c0-6.236-5.055-11.291-11.289-11.291c-6.236,0-11.291,5.055-11.291,11.291c0,1.534,0.309,2.996,0.863,4.329
		c-1.078,1.334-1.9,2.92-2.401,4.713c-1.323,4.631-0.385,9.978,2.393,13.965c3.092,4.427,7.975,7.404,13.749,8.384
		c6.231,1.058,12.594-0.349,17.454-3.855c6.772-4.866,10.669-13.262,10.669-22.001c0-2.586-0.337-5.202-1.046-7.764
		c-2.695-9.647-10.068-17.983-20.22-22.878c-11.723-5.64-25.72-5.696-38.052-0.963c-7.802-0.213-15.638-0.002-23.073,2.247
		c-9.198,2.785-17.83,9.307-20.535,18.53c3.021-0.528,5.771,2.854,5.185,5.865c-0.585,3.01-3.698,5.089-6.765,5.173
		c-3.066,0.085-5.982-1.469-8.25-3.535c-6.911-6.295-8.37-16.561-8.268-25.91c-5.843,7.738-11.737,15.923-13.483,25.46
		c-2.623,14.338,4.715,28.729,14.091,39.889c15.093,17.966,36.191,30.746,59.034,36.042c-5.254,7.278-10.881,14.326-16.822,21.121
		h-37.084c-11.475-9.518-22.703-19.431-31.462-31.45c-10.177-13.967-16.818-31.325-14.546-48.456
		c-57.753,4.273-113.092,34.156-148.549,79.905l-55.281,0v99.831l55.281,0c35.457,45.749,90.796,75.632,148.549,79.905
		c-2.273-17.131,4.369-34.488,14.546-48.455c8.759-12.019,19.988-21.932,31.462-31.45h37.084
		c5.941,6.796,11.568,13.844,16.822,21.122c-22.843,5.297-43.941,18.076-59.034,36.042c-9.376,11.159-16.714,25.551-14.091,39.889
		c1.745,9.537,7.639,17.722,13.483,25.46c-0.101-9.349,1.357-19.615,8.268-25.91c2.268-2.065,5.185-3.62,8.25-3.535
		c3.067,0.085,6.18,2.163,6.765,5.173c0.585,3.011-2.164,6.394-5.185,5.865c2.706,9.223,11.337,15.745,20.535,18.53
		c7.435,2.25,15.271,2.46,23.073,2.247c12.332,4.732,26.329,4.677,38.052-0.963c10.152-4.896,17.526-13.232,20.22-22.878
		c0.709-2.562,1.046-5.179,1.046-7.765c0-8.739-3.897-17.135-10.669-22.001c-4.86-3.506-11.223-4.914-17.454-3.855
		c-5.774,0.981-10.657,3.958-13.749,8.384c-2.779,3.988-3.717,9.334-2.393,13.965c0.501,1.793,1.323,3.379,2.401,4.713
		c-0.554,1.333-0.863,2.795-0.863,4.329c0,6.236,5.055,11.291,11.291,11.291c6.234,0,11.289-5.055,11.289-11.291
		c0-6.237-5.055-11.291-11.289-11.291c-1.044,0-2.051,0.153-3.01,0.418c-0.124-0.22-0.242-0.492-0.34-0.834
		c-0.445-1.792-0.072-4.102,0.998-5.659c1.564-2.243,4.162-3.777,7.314-4.312c3.596-0.613,7.349,0.187,10.044,2.135
		c5.413,3.885,7.879,11.95,5.882,19.132c-1.888,6.808-7.506,13.033-14.999,16.641c-14.182,6.827-33.452,2.959-44.819-8.991
		c-11.078-11.632-14.928-30.282-9.539-46.388c4.306-12.943,14.771-20.515,28.015-30.108c2.171-1.573,4.4-3.19,6.673-4.88
		c26.077-15.755,49.302-35.445,69.164-58.616c8.233,7.106,15.941,14.813,23.05,23.041c-13.594,17.045-31.439,30.703-51.71,38.837
		c-1.299,0.523-2.322,1.588-2.803,2.917c-0.469,1.329-0.349,2.796,0.325,4.036c8.667,15.703,18.453,30.649,29.274,44.791
		l-16.031,10.506c37.447,56.243,69.779,97.199,69.779,97.199s32.331-40.955,69.778-97.199l-16.03-10.505
		c10.821-14.143,20.607-29.089,29.275-44.792c0.397-0.74,0.613-1.558,0.613-2.382c0-0.559-0.096-1.119-0.289-1.654
		c-0.481-1.329-1.503-2.394-2.803-2.917c-20.271-8.134-38.116-21.792-51.71-38.837c7.11-8.229,14.818-15.936,23.052-23.042
		c19.858,23.179,43.094,42.882,69.214,58.657c2.255,1.676,4.466,3.28,6.62,4.841c13.243,9.587,23.697,17.165,28.003,30.108
		c5.389,16.112,1.551,34.751-9.527,46.388c-11.367,11.95-30.636,15.818-44.818,8.991c-7.494-3.609-13.112-9.833-15-16.648
		c-2.021-7.229,0.457-15.24,5.858-19.119c2.719-1.954,6.484-2.754,10.068-2.141c3.152,0.535,5.75,2.069,7.314,4.312
		c1.071,1.552,1.479,3.849,0.986,5.654c-0.088,0.325-0.209,0.594-0.346,0.836c-0.955-0.263-1.956-0.414-2.995-0.414
		c-6.234,0-11.289,5.055-11.289,11.291c0,6.236,5.055,11.291,11.289,11.291c6.236,0,11.292-5.055,11.292-11.291
		c0-1.535-0.309-2.997-0.864-4.331c1.079-1.337,1.903-2.926,2.404-4.724c1.287-4.625,0.373-9.978-2.394-13.953
		c-3.091-4.421-7.963-7.398-13.737-8.384c-6.231-1.064-12.606,0.343-17.478,3.855c-8.769,6.291-12.739,18.518-9.611,29.759
		c2.695,9.653,10.068,17.989,20.221,22.885c11.723,5.64,25.719,5.696,38.052,0.963c7.801,0.213,15.636,0.002,23.071-2.247
		c9.198-2.785,17.829-9.307,20.535-18.53c-3.021,0.528-5.771-2.854-5.185-5.865c0.585-3.01,3.698-5.089,6.765-5.173
		c3.066-0.085,5.983,1.469,8.25,3.535c4.354,3.966,6.544,9.508,7.543,15.403c5.895,0.999,11.437,3.189,15.403,7.543
		c2.065,2.268,3.62,5.185,3.535,8.25c-0.085,3.067-2.163,6.18-5.173,6.765c-3.011,0.585-6.394-2.164-5.865-5.185
		c-9.223,2.706-15.745,11.337-18.53,20.535c-2.25,7.434-2.46,15.269-2.247,23.071c-4.733,12.332-4.677,26.329,0.963,38.052
		c4.896,10.152,13.232,17.526,22.885,20.221c11.24,3.127,23.468-0.842,29.759-9.611c3.512-4.872,4.92-11.247,3.855-17.478
		c-0.987-5.774-3.964-10.646-8.384-13.737c-3.975-2.767-9.328-3.681-13.953-2.394c-1.798,0.501-3.387,1.325-4.724,2.405
		c-1.334-0.555-2.796-0.864-4.331-0.864c-6.236,0-11.291,5.055-11.291,11.291c0,6.234,5.055,11.289,11.291,11.289
		c6.237,0,11.291-5.055,11.291-11.289c0-1.038-0.152-2.04-0.414-2.995c0.242-0.137,0.511-0.259,0.836-0.347
		c1.805-0.493,4.102-0.084,5.654,0.986c2.243,1.564,3.777,4.162,4.312,7.314c0.614,3.584-0.187,7.349-2.141,10.068
		c-3.879,5.401-11.891,7.879-19.119,5.858c-6.814-1.888-13.039-7.506-16.648-15c-6.827-14.182-2.959-33.452,8.991-44.818
		c11.637-11.078,30.276-14.916,46.389-9.527c12.943,4.306,20.521,14.76,30.108,28.003c1.561,2.155,3.165,4.366,4.841,6.621
		c15.775,26.12,35.478,49.357,58.657,69.214c-7.106,8.234-14.814,15.942-23.042,23.052c-17.045-13.594-30.703-31.439-38.837-51.71
		c-0.523-1.299-1.588-2.322-2.917-2.803c-0.535-0.193-1.095-0.289-1.654-0.289c-0.824,0-1.642,0.216-2.382,0.613
		c-15.703,8.668-30.65,18.453-44.792,29.275l-10.505-16.029c-56.243,37.447-97.199,69.777-97.199,69.777
		s40.955,32.332,97.199,69.779l10.506-16.031c14.142,10.821,29.088,20.607,44.791,29.274c1.239,0.673,2.706,0.794,4.036,0.325
		c1.329-0.481,2.394-1.504,2.917-2.803c8.134-20.272,21.792-38.116,38.837-51.71c8.228,7.109,15.935,14.817,23.041,23.05
		c-23.171,19.862-42.861,43.087-58.616,69.164c-1.69,2.273-3.307,4.501-4.88,6.673c-9.593,13.243-17.165,23.708-30.108,28.015
		c-16.106,5.389-34.757,1.54-46.389-9.539c-11.95-11.367-15.818-30.637-8.991-44.819c3.609-7.494,9.833-13.111,16.641-14.999
		c7.182-1.997,15.247,0.469,19.132,5.882c1.948,2.695,2.749,6.448,2.135,10.044c-0.535,3.152-2.069,5.75-4.312,7.314
		c-1.558,1.071-3.867,1.443-5.659,0.998c-0.342-0.099-0.614-0.216-0.834-0.34c0.265-0.96,0.418-1.966,0.418-3.01
		c0-6.234-5.055-11.289-11.291-11.289c-6.236,0-11.291,5.055-11.291,11.289c0,6.236,5.055,11.291,11.291,11.291
		c1.534,0,2.996-0.309,4.329-0.863c1.334,1.078,2.92,1.9,4.713,2.401c4.631,1.323,9.978,0.385,13.966-2.394
		c4.427-3.092,7.404-7.975,8.384-13.749c1.058-6.231-0.349-12.594-3.855-17.453c-4.866-6.772-13.262-10.669-22.001-10.669
		c-2.586,0-5.202,0.337-7.764,1.046c-9.647,2.695-17.983,10.068-22.878,20.22c-5.64,11.723-5.696,25.72-0.963,38.052
		c-0.213,7.802-0.002,15.638,2.247,23.073c2.785,9.198,9.307,17.83,18.53,20.535c-0.528-3.021,2.854-5.771,5.865-5.186
		c3.01,0.585,5.089,3.698,5.173,6.765c0.085,3.066-1.469,5.983-3.535,8.25c-6.295,6.911-16.561,8.37-25.91,8.268
		c7.738,5.844,15.923,11.737,25.46,13.483c14.337,2.623,28.729-4.715,39.888-14.091c17.967-15.093,30.746-36.191,36.042-59.034
		c7.278,5.254,14.326,10.881,21.121,16.822v37.084c-9.518,11.474-19.431,22.703-31.45,31.462
		c-13.967,10.177-31.324,16.818-48.455,14.545c4.273,57.753,34.156,113.092,79.905,148.549l0,55.281h99.831l0-55.281
		c45.749-35.457,75.632-90.796,79.905-148.549c-17.131,2.273-34.488-4.369-48.455-14.545c-12.019-8.759-21.932-19.988-31.45-31.462
		v-37.084c6.796-5.941,13.844-11.568,21.121-16.822c5.297,22.843,18.076,43.942,36.042,59.034
		c11.159,9.376,25.551,16.714,39.888,14.091c9.537-1.745,17.722-7.639,25.46-13.483c-9.349,0.101-19.615-1.357-25.91-8.268
		c-2.065-2.268-3.62-5.185-3.535-8.25c0.085-3.067,2.163-6.18,5.173-6.765c3.011-0.585,6.394,2.164,5.865,5.186
		c9.223-2.706,15.745-11.337,18.53-20.535c2.25-7.435,2.46-15.271,2.247-23.073c4.732-12.332,4.677-26.329-0.963-38.052
		c-4.896-10.152-13.232-17.526-22.878-20.22c-2.563-0.709-5.179-1.046-7.765-1.046c-8.739,0-17.135,3.897-22.001,10.669
		c-3.506,4.86-4.914,11.223-3.855,17.453c0.981,5.774,3.958,10.657,8.384,13.749c3.988,2.779,9.334,3.717,13.966,2.394
		c1.793-0.501,3.379-1.323,4.713-2.401c1.333,0.554,2.795,0.863,4.329,0.863c6.236,0,11.291-5.055,11.291-11.291
		c0-6.234-5.055-11.289-11.291-11.289c-6.237,0-11.291,5.055-11.291,11.289c0,1.044,0.153,2.051,0.418,3.01
		c-0.22,0.124-0.492,0.242-0.834,0.34c-1.792,0.445-4.102,0.073-5.659-0.998c-2.243-1.564-3.777-4.162-4.312-7.314
		c-0.614-3.596,0.187-7.349,2.135-10.044c3.885-5.413,11.95-7.879,19.132-5.882c6.808,1.888,13.033,7.506,16.641,14.999
		c6.827,14.182,2.959,33.452-8.991,44.819c-11.632,11.078-30.282,14.928-46.388,9.539c-12.943-4.306-20.515-14.771-30.108-28.015
		c-1.573-2.171-3.19-4.4-4.88-6.673c-15.755-26.077-35.445-49.302-58.616-69.164c7.106-8.233,14.813-15.941,23.041-23.05
		c17.045,13.594,30.703,31.439,38.837,51.71c0.523,1.299,1.588,2.321,2.917,2.803c1.329,0.469,2.796,0.349,4.036-0.325
		c15.703-8.667,30.649-18.453,44.791-29.274l10.506,16.031c56.243-37.447,97.199-69.779,97.199-69.779s-40.955-32.33-97.199-69.777
		l-10.505,16.029c-14.143-10.821-29.089-20.607-44.792-29.275c-0.74-0.397-1.558-0.613-2.382-0.613
		c-0.559,0-1.119,0.096-1.654,0.289c-1.329,0.481-2.394,1.503-2.917,2.803c-8.134,20.271-21.792,38.116-38.837,51.71
		c-8.229-7.11-15.937-14.818-23.042-23.052c23.179-19.858,42.882-43.094,58.657-69.214c1.676-2.255,3.28-4.466,4.841-6.621
		c9.587-13.243,17.165-23.696,30.108-28.003c16.112-5.389,34.751-1.551,46.388,9.527c11.95,11.367,15.818,30.637,8.991,44.818
		c-3.609,7.494-9.833,13.112-16.648,15c-7.229,2.021-15.24-0.457-19.119-5.858c-1.954-2.719-2.754-6.484-2.141-10.068
		c0.535-3.152,2.069-5.75,4.312-7.314c1.552-1.071,3.849-1.479,5.654-0.986c0.324,0.088,0.594,0.209,0.836,0.347
		c-0.262,0.955-0.414,1.956-0.414,2.995c0,6.234,5.055,11.289,11.291,11.289c6.236,0,11.291-5.055,11.291-11.289
		c0-6.236-5.055-11.291-11.291-11.291c-1.535,0-2.997,0.309-4.331,0.864c-1.337-1.079-2.926-1.903-4.724-2.405
		c-4.625-1.286-9.978-0.373-13.953,2.394c-4.421,3.091-7.398,7.963-8.384,13.737c-1.064,6.231,0.343,12.606,3.855,17.478
		c6.291,8.769,18.519,12.739,29.759,9.611c9.653-2.695,17.989-10.068,22.885-20.221c5.64-11.723,5.696-25.719,0.963-38.052
		c0.213-7.801,0.002-15.637-2.247-23.071c-2.785-9.198-9.307-17.83-18.53-20.535c0.528,3.021-2.854,5.771-5.865,5.185
		c-3.01-0.585-5.089-3.698-5.173-6.765c-0.085-3.066,1.469-5.983,3.535-8.25c3.966-4.354,9.507-6.544,15.403-7.543
		c0.999-5.895,3.189-11.437,7.543-15.403c2.268-2.065,5.184-3.62,8.25-3.535c3.067,0.085,6.18,2.163,6.765,5.173
		c0.585,3.011-2.164,6.394-5.185,5.865c2.706,9.223,11.337,15.745,20.535,18.53c7.434,2.25,15.27,2.46,23.071,2.247
		c12.332,4.732,26.329,4.677,38.052-0.963c10.152-4.896,17.526-13.232,20.221-22.885c3.127-11.24-0.842-23.468-9.611-29.759
		c-4.872-3.512-11.247-4.92-17.478-3.855c-5.774,0.986-10.646,3.964-13.737,8.384c-2.767,3.975-3.681,9.328-2.394,13.953
		c0.501,1.798,1.325,3.387,2.404,4.724c-0.555,1.334-0.864,2.796-0.864,4.331c0,6.236,5.055,11.291,11.291,11.291
		c6.234,0,11.289-5.055,11.289-11.291c0-6.237-5.055-11.291-11.289-11.291c-1.038,0-2.04,0.152-2.995,0.414
		c-0.137-0.242-0.259-0.511-0.346-0.836c-0.493-1.805-0.084-4.102,0.986-5.654c1.564-2.243,4.162-3.777,7.314-4.312
		c3.584-0.613,7.349,0.187,10.068,2.141c5.401,3.879,7.879,11.891,5.858,19.119c-1.888,6.814-7.506,13.039-15,16.648
		c-14.182,6.827-33.452,2.959-44.818-8.991c-11.078-11.637-14.916-30.276-9.527-46.388c4.306-12.943,14.76-20.521,28.003-30.108
		c2.155-1.561,4.366-3.165,6.62-4.841c26.12-15.775,49.357-35.478,69.214-58.657c8.234,7.106,15.942,14.814,23.052,23.042
		c-13.594,17.045-31.438,30.703-51.71,38.837c-1.299,0.523-2.322,1.588-2.803,2.917c-0.192,0.535-0.289,1.095-0.289,1.654
		c0,0.824,0.216,1.642,0.613,2.382c8.668,15.703,18.453,30.65,29.275,44.792l-16.03,10.505
		c37.447,56.243,69.778,97.199,69.778,97.199s32.332-40.955,69.779-97.199l-16.031-10.506
		c10.821-14.142,20.607-29.088,29.274-44.791c0.673-1.239,0.794-2.706,0.325-4.036c-0.481-1.329-1.504-2.394-2.803-2.917
		c-20.272-8.134-38.116-21.792-51.71-38.837c7.109-8.228,14.817-15.935,23.05-23.041c19.862,23.171,43.087,42.861,69.164,58.616
		c2.273,1.69,4.501,3.307,6.673,4.88c13.243,9.593,23.708,17.165,28.015,30.108c5.389,16.106,1.54,34.757-9.539,46.388
		c-11.367,11.95-30.637,15.818-44.819,8.991c-7.494-3.609-13.111-9.833-14.999-16.641c-1.997-7.181,0.469-15.247,5.882-19.132
		c2.695-1.948,6.448-2.748,10.044-2.135c3.152,0.535,5.75,2.069,7.314,4.312c1.071,1.558,1.443,3.867,0.998,5.659
		c-0.099,0.342-0.216,0.614-0.34,0.834c-0.96-0.265-1.966-0.418-3.01-0.418c-6.234,0-11.289,5.055-11.289,11.291
		c0,6.236,5.055,11.291,11.289,11.291c6.236,0,11.292-5.055,11.292-11.291c0-1.534-0.309-2.995-0.863-4.329
		c1.077-1.334,1.9-2.92,2.401-4.713c1.323-4.631,0.385-9.978-2.393-13.965c-3.092-4.427-7.975-7.404-13.749-8.384
		c-6.231-1.058-12.594,0.349-17.453,3.855c-6.772,4.866-10.669,13.262-10.669,22.001c0,2.586,0.337,5.202,1.046,7.765
		c2.695,9.647,10.068,17.983,20.22,22.878c11.723,5.64,25.72,5.696,38.052,0.963c7.802,0.213,15.638,0.002,23.073-2.247
		c9.198-2.785,17.829-9.307,20.535-18.53c-3.021,0.528-5.771-2.854-5.186-5.865c0.585-3.01,3.698-5.089,6.765-5.173
		c3.066-0.085,5.983,1.469,8.25,3.535c6.911,6.295,8.37,16.561,8.268,25.91c5.844-7.738,11.737-15.923,13.483-25.46
		c2.623-14.338-4.715-28.729-14.091-39.889c-15.093-17.966-36.191-30.746-59.034-36.042c5.254-7.278,10.881-14.326,16.822-21.122
		h37.084c11.475,9.518,22.703,19.431,31.462,31.45c10.177,13.967,16.818,31.325,14.546,48.455
		c57.753-4.273,113.092-34.156,148.549-79.905l55.281,0v-99.831L1559.9,766.266z M1407.811,753.021
		c13.793-16.584,36.922-24.824,58.094-20.693c18.677,3.644,35.142,16.784,43.26,33.938l-35.824,0
		c-2.965-2.024-6.032-3.924-9.259-5.595c-11.56-5.978-22.578-6.904-31.022-2.604c-3.844,1.954-6.822,4.814-9.009,8.199h-27.688
		C1400.894,762.609,1404.07,757.518,1407.811,753.021z M1431.64,793.63c-4.306-9.063-2.947-22.277,5.894-26.782
		c7.47-3.801,17.009-0.018,22.024,2.574c8.504,4.403,15.89,10.537,23.72,17.033c3.826,3.182,7.663,6.363,11.632,9.34
		c11.371,8.519,24.124,15.384,37.736,20.385c-13.612,5.001-26.364,11.867-37.736,20.385c-3.969,2.977-7.807,6.159-11.632,9.34
		c-7.831,6.496-15.216,12.63-23.72,17.033c-5.016,2.592-14.554,6.375-22.024,2.574c-8.841-4.505-10.201-17.718-5.894-26.782
		c4.505-9.486,13.533-16.462,22.108-22.551C1445.173,810.092,1436.145,803.116,1431.64,793.63z M1102.512,731.381
		c7.869-13.753,16.635-26.89,26.233-39.381l8.401,5.506l37.081-47.133l37.082,47.133l8.399-5.505
		c9.598,12.491,18.364,25.628,26.233,39.38c-19.094,8.644-35.986,21.87-49.283,38.051c-5.957-7.558-11.411-15.509-16.333-23.783
		c9.506-2.661,16.482-11.385,16.482-21.743c0-12.471-10.11-22.581-22.577-22.581c-12.471,0-22.581,10.11-22.581,22.581
		c0,10.356,6.974,19.079,16.48,21.742c-4.923,8.274-10.376,16.227-16.334,23.784
		C1138.498,753.252,1121.605,740.026,1102.512,731.381z M1157.948,777.495c5.875-7.29,11.327-14.922,16.278-22.874
		c4.951,7.952,10.403,15.584,16.278,22.874c-6.664,9.416-12.173,19.647-16.278,30.431
		C1170.121,797.142,1164.612,786.912,1157.948,777.495z M1190.505,854.866c-5.875,7.29-11.328,14.922-16.278,22.874
		c-4.951-7.952-10.403-15.584-16.278-22.874c6.664-9.416,12.172-19.647,16.278-30.431
		C1178.332,835.219,1183.841,845.45,1190.505,854.866z M923.259,654.378c11.159,9.376,25.551,16.714,39.888,14.091
		c0.311-0.057,0.62-0.118,0.929-0.184c-0.066,0.308-0.127,0.618-0.184,0.929c-2.623,14.338,4.715,28.729,14.091,39.889
		c15.094,17.968,36.195,30.748,59.041,36.044c-5.256,7.277-10.885,14.324-16.828,21.12h-37.084
		c-11.475-9.518-22.703-19.431-31.462-31.45c-8.338-11.443-14.303-25.163-14.936-39.169c-14.006-0.633-27.726-6.598-39.169-14.936
		c-12.019-8.759-21.932-19.988-31.45-31.462v-37.084c6.796-5.942,13.843-11.571,21.12-16.828
		C892.511,618.183,905.291,639.284,923.259,654.378z M838.732,916.825c-9.486-4.516-16.462-13.545-22.551-22.12
		c-6.089,8.575-13.065,17.604-22.551,22.12c-9.076,4.318-22.283,2.947-26.782-5.894c-3.807-7.482-0.024-17.009,2.574-22.025
		c4.409-8.516,10.543-15.914,17.038-23.745c3.182-3.826,6.357-7.662,9.328-11.62c8.396-11.2,15.186-23.746,20.169-37.139
		c-13.393,4.984-25.939,11.773-37.139,20.169c-3.958,2.971-7.794,6.146-11.62,9.328c-7.831,6.495-15.228,12.63-23.745,17.038
		c-5.016,2.598-14.543,6.381-22.025,2.574c-8.841-4.499-10.213-17.706-5.894-26.782c4.516-9.486,13.545-16.462,22.12-22.551
		c-8.575-6.089-17.604-13.065-22.12-22.551c-4.319-9.076-2.947-22.283,5.894-26.782c7.482-3.807,17.009-0.024,22.025,2.574
		c8.516,4.409,15.914,10.543,23.745,17.038c3.825,3.182,7.662,6.357,11.62,9.328c11.2,8.396,23.746,15.186,37.139,20.169
		c-4.984-13.393-11.773-25.939-20.169-37.139c-2.971-3.958-6.146-7.794-9.328-11.62c-6.495-7.831-12.63-15.228-17.038-23.745
		c-2.598-5.016-6.381-14.543-2.574-22.025c4.499-8.841,17.706-10.212,26.782-5.894c9.486,4.516,16.462,13.545,22.551,22.12
		c6.089-8.575,13.065-17.604,22.551-22.12c9.076-4.319,22.283-2.947,26.782,5.894c3.807,7.482,0.024,17.009-2.574,22.025
		c-4.409,8.516-10.543,15.914-17.038,23.745c-3.182,3.826-6.357,7.662-9.328,11.62c-8.396,11.2-15.186,23.746-20.169,37.139
		c13.393-4.984,25.939-11.773,37.139-20.169c3.958-2.971,7.794-6.146,11.62-9.328c7.831-6.495,15.228-12.63,23.745-17.038
		c5.016-2.598,14.543-6.381,22.025-2.574c8.841,4.499,10.212,17.706,5.894,26.782c-4.516,9.486-13.545,16.462-22.12,22.551
		c8.575,6.089,17.604,13.065,22.12,22.551c4.318,9.076,2.947,22.283-5.894,26.782c-7.482,3.807-17.009,0.024-22.025-2.574
		c-8.516-4.409-15.914-10.543-23.745-17.038c-3.825-3.182-7.662-6.357-11.62-9.328c-11.2-8.396-23.746-15.186-37.139-20.169
		c4.983,13.393,11.773,25.939,20.169,37.139c2.971,3.958,6.146,7.794,9.328,11.62c6.495,7.831,12.63,15.228,17.038,23.745
		c2.598,5.016,6.381,14.543,2.574,22.025C861.015,919.772,847.807,921.144,838.732,916.825z M841.461,928.117v67.862
		c-9.177-10.132-17.656-20.873-25.28-32.102c-7.624,11.229-16.103,21.97-25.28,32.102v-67.862c2.421-0.552,4.766-1.349,6.958-2.391
		c7.342-3.496,13.288-8.969,18.323-14.846c5.035,5.878,10.981,11.35,18.323,14.846C836.695,926.768,839.041,927.565,841.461,928.117
		z M760.665,747.978c1.673,3.231,3.575,6.301,5.601,9.268v9.02h-9.02c-2.967-2.025-6.037-3.927-9.268-5.601
		c-11.547-5.978-22.566-6.898-31.022-2.598c-3.845,1.956-6.83,4.812-9.017,8.199h-27.671c4.531-3.657,7.708-8.748,11.449-13.245
		c9.905-11.909,24.625-19.516,39.977-21.328c1.812-15.352,9.418-30.072,21.328-39.977c4.497-3.741,9.588-6.917,13.245-11.449v27.671
		c-3.387,2.187-6.243,5.171-8.199,9.017C753.767,725.412,754.687,736.43,760.665,747.978z M704.245,790.901
		c0.552,2.42,1.349,4.766,2.391,6.958c3.496,7.342,8.969,13.288,14.846,18.323c-5.878,5.035-11.35,10.981-14.846,18.322
		c-1.042,2.191-1.839,4.537-2.391,6.958h-67.862c10.132-9.177,20.873-17.656,32.102-25.28c-11.229-7.624-21.97-16.103-32.102-25.28
		H704.245z M707.939,866.095c2.187,3.387,5.171,6.243,9.017,8.199c8.456,4.3,19.474,3.38,31.022-2.598
		c3.231-1.673,6.301-3.575,9.268-5.601h9.02v9.02c-2.025,2.967-3.927,6.037-5.601,9.268c-5.978,11.547-6.898,22.566-2.598,31.022
		c1.956,3.846,4.812,6.83,8.199,9.017v27.671c-3.657-4.532-8.748-7.708-13.245-11.449c-11.909-9.905-19.516-24.625-21.328-39.977
		c-15.352-1.812-30.072-9.418-39.977-21.328c-3.741-4.497-6.917-9.588-11.449-13.245H707.939z M790.901,704.244v-67.862
		c9.177,10.132,17.656,20.873,25.28,32.102c7.624-11.229,16.103-21.97,25.28-32.102v67.862c-2.42,0.552-4.766,1.349-6.958,2.391
		c-7.342,3.496-13.288,8.969-18.323,14.846c-5.035-5.878-10.981-11.35-18.323-14.846
		C795.667,705.593,793.321,704.796,790.901,704.244z M874.294,716.956c-1.956-3.846-4.812-6.83-8.199-9.017v-27.671
		c3.657,4.531,8.748,7.708,13.245,11.449c11.909,9.905,19.516,24.625,21.328,39.977c15.352,1.812,30.072,9.418,39.977,21.328
		c3.741,4.497,6.917,9.588,11.449,13.245h-27.671c-2.187-3.387-5.171-6.243-9.017-8.199c-8.456-4.3-19.474-3.38-31.022,2.598
		c-3.231,1.673-6.301,3.575-9.268,5.601h-9.02v-9.02c2.026-2.967,3.928-6.037,5.601-9.268
		C877.674,736.43,878.595,725.412,874.294,716.956z M866.095,924.423c3.387-2.187,6.243-5.171,8.199-9.017
		c4.3-8.456,3.38-19.474-2.598-31.022c-1.673-3.231-3.575-6.301-5.601-9.268v-9.02h9.02c2.967,2.026,6.037,3.928,9.268,5.601
		c11.547,5.978,22.566,6.899,31.022,2.598c3.845-1.956,6.83-4.812,9.017-8.199h27.671c-4.531,3.657-7.708,8.748-11.449,13.245
		c-9.905,11.909-24.625,19.516-39.977,21.328c-1.812,15.352-9.418,30.072-21.328,39.977c-4.497,3.741-9.588,6.917-13.245,11.449
		V924.423z M928.117,841.461c-0.552-2.42-1.349-4.766-2.391-6.958c-3.496-7.342-8.969-13.288-14.846-18.322
		c5.878-5.035,11.35-10.981,14.846-18.323c1.042-2.191,1.839-4.537,2.391-6.958h67.862c-10.132,9.177-20.873,17.656-32.102,25.28
		c11.229,7.624,21.97,16.103,32.102,25.28H928.117z M900.98,386.42c13.752,7.869,26.889,16.635,39.38,26.233l-5.504,8.399
		l47.132,37.082l-47.132,37.081l5.506,8.401c-12.492,9.598-25.629,18.365-39.381,26.233c-8.644-19.094-21.87-35.986-38.052-49.283
		c7.558-5.958,15.51-11.411,23.785-16.334c2.663,9.506,11.385,16.481,21.742,16.481c12.471,0,22.581-10.11,22.581-22.581
		c0-12.467-10.11-22.577-22.581-22.577c-10.358,0-19.082,6.976-21.743,16.482c-8.274-4.923-16.226-10.376-23.783-16.333
		C879.11,422.406,892.336,405.514,900.98,386.42z M877.74,458.135c-7.952,4.951-15.584,10.403-22.874,16.278
		c-9.416-6.664-19.647-12.173-30.431-16.278c10.784-4.106,21.015-9.614,30.431-16.278
		C862.156,447.732,869.788,453.185,877.74,458.135z M866.096,123.197c17.154,8.118,30.294,24.583,33.938,43.26
		c4.13,21.171-4.109,44.301-20.693,58.094c-4.497,3.741-9.588,6.917-13.245,11.449v-27.688c3.385-2.187,6.245-5.165,8.199-9.009
		c4.3-8.444,3.374-19.462-2.604-31.022c-1.671-3.227-3.571-6.294-5.595-9.259L866.096,123.197z M790.901,41.815h50.56v85.536
		c-11.771-17.04-19.75-37.079-23.16-58.295c-0.222-1.384-1.01-2.565-2.12-3.308c-1.111,0.743-1.899,1.924-2.12,3.308
		c-3.41,21.216-11.389,41.256-23.16,58.295V41.815z M786.455,149.082c3.182-3.826,6.363-7.663,9.34-11.632
		c8.519-11.371,15.384-24.124,20.385-37.736c5.001,13.612,11.866,26.364,20.385,37.736c2.977,3.969,6.159,7.807,9.34,11.632
		c6.496,7.831,12.63,15.216,17.033,23.72c2.592,5.016,6.375,14.554,2.574,22.024c-4.505,8.841-17.718,10.201-26.782,5.894
		c-9.486-4.505-16.462-13.533-22.551-22.108c-6.089,8.575-13.065,17.603-22.551,22.108c-9.063,4.306-22.277,2.947-26.782-5.894
		c-3.801-7.47-0.018-17.009,2.574-22.024C773.825,164.299,779.959,156.913,786.455,149.082z M841.461,212.012v67.877
		c-9.176-10.13-17.655-20.871-25.28-32.103c-7.625,11.232-16.104,21.973-25.28,32.103v-67.877c2.421-0.552,4.767-1.348,6.958-2.39
		c7.342-3.489,13.288-8.959,18.323-14.835c5.035,5.876,10.981,11.346,18.323,14.835C836.694,210.664,839.04,211.46,841.461,212.012z
		 M753.021,224.55c-16.584-13.793-24.824-36.922-20.693-58.094c3.644-18.677,16.784-35.142,33.938-43.26l0,35.824
		c-2.023,2.965-3.924,6.032-5.595,9.259c-5.978,11.56-6.904,22.578-2.604,31.022c1.954,3.844,4.814,6.822,8.199,9.009v27.688
		C762.609,231.468,757.518,228.291,753.021,224.55z M751.868,334.998c-0.158-0.615-0.437-1.208-0.844-1.745
		c-0.398-0.527-0.787-1.05-1.177-1.573c-0.279-0.463-0.567-0.92-0.844-1.386c25.467-18.084,48.368-40.468,67.177-65.564
		c18.809,25.096,41.711,47.481,67.177,65.564c-0.277,0.465-0.565,0.922-0.844,1.386c-0.39,0.523-0.779,1.046-1.177,1.573
		c-0.407,0.537-0.686,1.131-0.844,1.745c-14.865,23.909-33.191,45.277-54.615,63.657c-3.392-4.303-6.632-8.727-9.698-13.27
		c-3.066,4.543-6.305,8.967-9.698,13.27C785.059,380.275,766.733,358.908,751.868,334.998z M816.181,402.237
		c9.188,11.992,19.542,23.081,30.875,33.063c-9.539,6.466-19.935,11.657-30.875,15.309c-10.94-3.652-21.336-8.842-30.875-15.309
		C796.639,425.318,806.993,414.229,816.181,402.237z M731.381,529.85c-13.753-7.869-26.89-16.635-39.381-26.233l5.506-8.401
		l-47.132-37.081l47.132-37.082l-5.504-8.399c12.491-9.598,25.628-18.364,39.38-26.233c8.644,19.094,21.87,35.986,38.051,49.284
		c-7.557,5.957-15.509,11.411-23.783,16.333c-2.661-9.506-11.385-16.482-21.743-16.482c-12.471,0-22.581,10.11-22.581,22.577
		c0,12.471,10.11,22.581,22.581,22.581c10.356,0,19.079-6.974,21.742-16.481c8.274,4.923,16.227,10.376,23.785,16.334
		C753.252,493.864,740.026,510.756,731.381,529.85z M754.621,458.135c7.952-4.951,15.584-10.403,22.874-16.278
		c9.416,6.664,19.647,12.173,30.431,16.278c-10.784,4.105-21.015,9.614-30.431,16.278
		C770.205,468.538,762.573,463.086,754.621,458.135z M785.306,480.969c9.539-6.466,19.935-11.657,30.875-15.309
		c10.94,3.652,21.336,8.843,30.875,15.309c-11.333,9.983-21.688,21.071-30.875,33.063
		C806.993,502.041,796.639,490.952,785.306,480.969z M749.806,584.645c0.403-0.541,0.806-1.083,1.218-1.629
		c0.412-0.543,0.693-1.145,0.85-1.767c14.874-23.925,33.203-45.28,54.606-63.638c3.393,4.304,6.634,8.729,9.7,13.273
		c3.067-4.545,6.307-8.97,9.7-13.273c21.403,18.358,39.732,39.714,54.606,63.638c0.156,0.622,0.438,1.224,0.85,1.767
		c0.412,0.546,0.815,1.087,1.218,1.629c0.266,0.441,0.54,0.876,0.803,1.318c-25.467,18.099-48.371,40.483-67.177,65.572
		c-18.807-25.089-41.71-47.473-67.177-65.572C749.267,585.521,749.541,585.086,749.806,584.645z M654.378,709.102
		c9.376-11.159,16.714-25.551,14.091-39.889c-0.057-0.311-0.118-0.62-0.184-0.929c0.308,0.066,0.618,0.127,0.929,0.184
		c14.337,2.623,28.729-4.715,39.888-14.091c17.968-15.094,30.748-36.195,36.044-59.041c7.277,5.256,14.324,10.885,21.12,16.828
		v37.084c-9.518,11.474-19.431,22.703-31.45,31.462c-11.443,8.338-25.163,14.303-39.169,14.936
		c-0.633,14.006-6.598,27.726-14.936,39.169c-8.759,12.019-19.988,21.932-31.462,31.45h-37.084
		c-5.942-6.795-11.571-13.843-16.828-21.12C618.183,739.85,639.284,727.07,654.378,709.102z M386.42,731.381
		c7.869-13.752,16.635-26.889,26.233-39.38l8.399,5.505l37.082-47.133l37.081,47.133l8.401-5.506
		c9.598,12.492,18.365,25.629,26.233,39.381c-19.094,8.644-35.986,21.87-49.283,38.052c-5.958-7.558-11.411-15.51-16.334-23.784
		c9.506-2.663,16.481-11.386,16.481-21.742c0-12.471-10.11-22.581-22.581-22.581c-12.467,0-22.577,10.11-22.577,22.581
		c0,10.358,6.976,19.082,16.482,21.743c-4.923,8.274-10.376,16.226-16.333,23.783C422.406,753.252,405.514,740.026,386.42,731.381z
		 M441.857,777.495c5.875-7.29,11.328-14.922,16.278-22.874c4.951,7.952,10.403,15.584,16.278,22.874
		c-6.664,9.416-12.173,19.647-16.278,30.431C454.03,797.142,448.521,786.912,441.857,777.495z M474.413,854.866
		c-5.875,7.29-11.327,14.922-16.278,22.874c-4.951-7.952-10.403-15.584-16.278-22.874c6.664-9.416,12.173-19.647,16.278-30.431
		C462.241,835.219,467.749,845.45,474.413,854.866z M166.457,732.328c21.171-4.131,44.301,4.109,58.094,20.693
		c3.741,4.497,6.917,9.588,11.449,13.245h-27.688c-2.187-3.385-5.165-6.244-9.009-8.199c-8.444-4.3-19.462-3.374-31.022,2.604
		c-3.227,1.671-6.294,3.571-9.259,5.595l-35.824,0C131.314,749.112,147.779,735.972,166.457,732.328z M200.722,838.732
		c4.306,9.063,2.947,22.277-5.894,26.782c-7.47,3.801-17.009,0.018-22.024-2.574c-8.504-4.403-15.89-10.537-23.72-17.033
		c-3.826-3.182-7.663-6.363-11.632-9.34c-11.371-8.519-24.124-15.384-37.736-20.385c13.612-5.001,26.364-11.867,37.736-20.385
		c3.969-2.977,7.807-6.159,11.632-9.34c7.831-6.496,15.216-12.63,23.72-17.033c5.016-2.592,14.554-6.375,22.024-2.574
		c8.841,4.505,10.201,17.718,5.894,26.782c-4.505,9.486-13.533,16.462-22.108,22.551
		C187.189,822.27,196.216,829.246,200.722,838.732z M41.815,841.461v-50.56h85.536c-17.04,11.771-37.079,19.75-58.295,23.16
		c-1.384,0.221-2.565,1.01-3.308,2.12c0.743,1.111,1.924,1.899,3.308,2.12c21.216,3.41,41.256,11.389,58.295,23.16H41.815z
		 M224.55,879.34c-13.793,16.584-36.922,24.824-58.094,20.693c-18.677-3.644-35.142-16.784-43.26-33.938l35.824,0
		c2.965,2.024,6.032,3.924,9.259,5.595c11.56,5.978,22.578,6.904,31.022,2.604c3.844-1.954,6.822-4.814,9.009-8.199h27.688
		C231.468,869.752,228.291,874.844,224.55,879.34z M212.012,841.461c-0.552-2.421-1.348-4.767-2.39-6.958
		c-3.489-7.342-8.959-13.288-14.835-18.322c5.876-5.035,11.346-10.981,14.835-18.323c1.042-2.191,1.838-4.537,2.39-6.958h67.877
		c-10.13,9.176-20.871,17.655-32.103,25.28c11.232,7.625,21.973,16.104,32.103,25.28H212.012z M398.655,825.878
		c-18.38,21.424-39.748,39.75-63.657,54.615c-0.615,0.158-1.208,0.437-1.745,0.844c-0.527,0.398-1.05,0.787-1.573,1.177
		c-0.463,0.279-0.92,0.567-1.386,0.844c-18.084-25.467-40.468-48.368-65.564-67.177c25.096-18.809,47.481-41.711,65.564-67.177
		c0.465,0.277,0.922,0.565,1.386,0.844c0.523,0.39,1.046,0.779,1.573,1.177c0.537,0.407,1.131,0.686,1.745,0.844
		c23.909,14.864,45.277,33.191,63.657,54.615c-4.303,3.392-8.727,6.632-13.27,9.698
		C389.929,819.247,394.353,822.486,398.655,825.878z M402.237,816.181c11.992-9.188,23.081-19.542,33.063-30.875
		c6.466,9.539,11.657,19.935,15.309,30.875c-3.652,10.94-8.842,21.336-15.309,30.875
		C425.318,835.723,414.229,825.368,402.237,816.181z M529.85,900.98c-7.869,13.753-16.635,26.89-26.233,39.381l-8.401-5.506
		l-37.081,47.133l-37.082-47.133l-8.399,5.504c-9.598-12.491-18.364-25.628-26.233-39.38c19.094-8.644,35.986-21.87,49.284-38.051
		c5.957,7.558,11.411,15.509,16.333,23.783c-9.506,2.661-16.482,11.385-16.482,21.743c0,12.471,10.11,22.581,22.577,22.581
		c12.471,0,22.581-10.11,22.581-22.581c0-10.356-6.974-19.079-16.481-21.742c4.923-8.274,10.376-16.227,16.334-23.784
		C493.864,879.11,510.756,892.336,529.85,900.98z M480.969,847.056c-6.466-9.539-11.657-19.935-15.309-30.875
		c3.652-10.94,8.843-21.336,15.309-30.875c9.983,11.333,21.071,21.688,33.063,30.875
		C502.041,825.368,490.952,835.723,480.969,847.056z M584.645,882.555c-0.541-0.403-1.083-0.806-1.629-1.218
		c-0.543-0.412-1.145-0.693-1.767-0.85c-23.924-14.874-45.28-33.203-63.638-54.606c4.304-3.393,8.729-6.634,13.273-9.7
		c-4.545-3.067-8.97-6.307-13.273-9.7c18.358-21.403,39.714-39.732,63.638-54.606c0.623-0.157,1.224-0.438,1.767-0.85
		c0.546-0.412,1.087-0.815,1.629-1.218c0.441-0.266,0.876-0.54,1.319-0.803c18.098,25.467,40.483,48.371,65.572,67.177
		c-25.089,18.807-47.473,41.71-65.572,67.177C585.521,883.095,585.086,882.821,584.645,882.555z M709.102,977.984
		c-11.159-9.376-25.551-16.714-39.888-14.091c-0.311,0.057-0.62,0.118-0.929,0.184c0.066-0.308,0.127-0.618,0.184-0.928
		c2.623-14.338-4.715-28.729-14.091-39.889c-15.094-17.968-36.195-30.748-59.041-36.044c5.256-7.277,10.885-14.325,16.828-21.12
		h37.084c11.475,9.518,22.703,19.431,31.462,31.45c8.338,11.443,14.303,25.163,14.936,39.169
		c14.006,0.633,27.726,6.598,39.169,14.936c12.019,8.759,21.932,19.988,31.45,31.462v37.084
		c-6.795,5.942-13.843,11.571-21.12,16.828C739.85,1014.179,727.07,993.078,709.102,977.984z M731.381,1245.942
		c-13.752-7.868-26.889-16.635-39.38-26.233l5.504-8.399l-47.132-37.082l47.132-37.081l-5.506-8.401
		c12.492-9.598,25.629-18.365,39.381-26.233c8.644,19.094,21.87,35.986,38.052,49.283c-7.558,5.958-15.51,11.411-23.785,16.334
		c-2.663-9.506-11.385-16.48-21.742-16.48c-12.471,0-22.581,10.11-22.581,22.581c0,12.467,10.11,22.577,22.581,22.577
		c10.358,0,19.082-6.976,21.743-16.482c8.274,4.923,16.226,10.376,23.783,16.333
		C753.252,1209.956,740.026,1226.848,731.381,1245.942z M754.621,1174.226c7.952-4.951,15.584-10.403,22.874-16.278
		c9.416,6.664,19.647,12.173,30.431,16.278c-10.784,4.105-21.015,9.614-30.431,16.278
		C770.205,1184.629,762.573,1179.177,754.621,1174.226z M766.266,1509.165c-17.154-8.118-30.293-24.583-33.938-43.26
		c-4.13-21.171,4.109-44.301,20.693-58.094c4.497-3.741,9.588-6.917,13.245-11.449v27.688c-3.385,2.187-6.244,5.165-8.199,9.009
		c-4.3,8.444-3.374,19.462,2.604,31.022c1.671,3.227,3.571,6.294,5.595,9.259L766.266,1509.165z M841.461,1590.546h-50.56v-85.536
		c11.771,17.04,19.75,37.079,23.16,58.296c0.222,1.384,1.01,2.565,2.12,3.307c1.111-0.743,1.899-1.924,2.12-3.307
		c3.41-21.216,11.389-41.256,23.16-58.296V1590.546z M845.907,1483.279c-3.182,3.826-6.363,7.663-9.34,11.632
		c-8.519,11.371-15.384,24.124-20.385,37.736c-5.001-13.612-11.866-26.364-20.385-37.736c-2.977-3.969-6.159-7.807-9.34-11.632
		c-6.496-7.831-12.63-15.216-17.033-23.72c-2.592-5.016-6.375-14.554-2.574-22.024c4.505-8.841,17.718-10.201,26.782-5.894
		c9.486,4.505,16.462,13.533,22.551,22.108c6.089-8.575,13.065-17.603,22.551-22.108c9.063-4.306,22.277-2.947,26.782,5.894
		c3.801,7.47,0.018,17.009-2.574,22.024C858.536,1468.063,852.402,1475.448,845.907,1483.279z M790.901,1420.349v-67.877
		c9.176,10.13,17.655,20.871,25.28,32.103c7.625-11.232,16.104-21.973,25.28-32.103v67.877c-2.421,0.552-4.767,1.348-6.958,2.39
		c-7.342,3.489-13.288,8.959-18.323,14.835c-5.035-5.876-10.981-11.346-18.323-14.835
		C795.667,1421.697,793.321,1420.901,790.901,1420.349z M879.34,1407.811c16.584,13.793,24.824,36.922,20.693,58.094
		c-3.644,18.677-16.784,35.143-33.938,43.26l0-35.824c2.024-2.965,3.924-6.032,5.595-9.259c5.978-11.56,6.904-22.578,2.604-31.022
		c-1.954-3.844-4.814-6.822-8.199-9.009v-27.688C869.752,1400.894,874.844,1404.07,879.34,1407.811z M880.493,1297.363
		c0.158,0.615,0.437,1.208,0.844,1.745c0.398,0.527,0.787,1.05,1.177,1.573c0.279,0.464,0.567,0.92,0.844,1.386
		c-25.467,18.084-48.368,40.468-67.177,65.564c-18.809-25.096-41.711-47.48-67.177-65.564c0.277-0.465,0.565-0.922,0.844-1.386
		c0.39-0.523,0.779-1.046,1.177-1.573c0.407-0.537,0.686-1.13,0.844-1.745c14.865-23.909,33.191-45.277,54.615-63.657
		c3.392,4.303,6.632,8.727,9.698,13.27c3.066-4.543,6.305-8.967,9.698-13.27C847.302,1252.086,865.629,1273.454,880.493,1297.363z
		 M816.181,1230.124c-9.188-11.992-19.542-23.081-30.875-33.063c9.539-6.466,19.935-11.657,30.875-15.309
		c10.94,3.652,21.336,8.843,30.875,15.309C835.723,1207.044,825.368,1218.132,816.181,1230.124z M900.98,1102.512
		c13.753,7.869,26.89,16.635,39.381,26.233l-5.506,8.401l47.132,37.081l-47.132,37.082l5.504,8.399
		c-12.491,9.598-25.628,18.364-39.38,26.233c-8.644-19.094-21.87-35.986-38.052-49.283c7.558-5.957,15.51-11.411,23.783-16.333
		c2.661,9.506,11.385,16.482,21.743,16.482c12.471,0,22.581-10.11,22.581-22.577c0-12.471-10.11-22.581-22.581-22.581
		c-10.356,0-19.079,6.974-21.742,16.48c-8.274-4.923-16.227-10.376-23.785-16.334C879.11,1138.497,892.336,1121.605,900.98,1102.512
		z M877.74,1174.226c-7.952,4.95-15.584,10.403-22.874,16.278c-9.416-6.664-19.647-12.173-30.431-16.278
		c10.784-4.105,21.015-9.614,30.431-16.278C862.156,1163.824,869.788,1169.276,877.74,1174.226z M847.056,1151.392
		c-9.539,6.466-19.935,11.657-30.875,15.309c-10.94-3.652-21.336-8.843-30.875-15.309c11.333-9.983,21.688-21.071,30.875-33.063
		C825.368,1130.321,835.723,1141.409,847.056,1151.392z M882.555,1047.716c-0.403,0.541-0.806,1.083-1.218,1.629
		c-0.412,0.543-0.694,1.145-0.85,1.767c-14.874,23.925-33.203,45.28-54.606,63.638c-3.393-4.304-6.634-8.729-9.7-13.273
		c-3.067,4.545-6.307,8.97-9.7,13.273c-21.403-18.358-39.732-39.714-54.606-63.638c-0.157-0.622-0.438-1.224-0.85-1.767
		c-0.412-0.546-0.815-1.087-1.218-1.629c-0.266-0.441-0.54-0.876-0.803-1.318c25.467-18.099,48.371-40.483,67.177-65.572
		c18.807,25.089,41.71,47.473,67.177,65.572C883.095,1046.84,882.821,1047.275,882.555,1047.716z M977.984,923.259
		c-9.376,11.159-16.714,25.551-14.091,39.889c0.057,0.311,0.118,0.62,0.184,0.928c-0.308-0.066-0.618-0.127-0.929-0.184
		c-14.337-2.623-28.729,4.715-39.888,14.091c-17.968,15.094-30.748,36.195-36.044,59.041c-7.277-5.256-14.324-10.885-21.12-16.828
		v-37.084c9.518-11.474,19.431-22.703,31.45-31.462c11.443-8.338,25.163-14.303,39.169-14.936
		c0.633-14.006,6.598-27.726,14.936-39.169c8.759-12.019,19.988-21.932,31.462-31.45h37.084c5.942,6.795,11.571,13.843,16.828,21.12
		C1014.179,892.511,993.078,905.291,977.984,923.259z M1114.75,825.881c-18.358,21.403-39.713,39.732-63.638,54.606
		c-0.623,0.157-1.224,0.438-1.767,0.85c-0.546,0.412-1.087,0.815-1.629,1.218c-0.441,0.266-0.876,0.54-1.319,0.803
		c-18.098-25.467-40.483-48.371-65.572-67.177c25.089-18.807,47.473-41.71,65.572-67.177c0.443,0.263,0.877,0.537,1.319,0.803
		c0.541,0.403,1.083,0.806,1.629,1.218c0.543,0.412,1.145,0.693,1.767,0.85c23.925,14.874,45.28,33.203,63.638,54.606
		c-4.304,3.393-8.729,6.634-13.273,9.7C1106.022,819.247,1110.447,822.488,1114.75,825.881z M1118.329,816.181
		c11.991-9.188,23.08-19.542,33.063-30.875c6.466,9.539,11.657,19.935,15.309,30.875c-3.652,10.94-8.843,21.336-15.309,30.875
		C1141.409,835.723,1130.321,825.368,1118.329,816.181z M1245.942,900.98c-7.869,13.752-16.635,26.889-26.233,39.38l-8.399-5.504
		l-37.082,47.133l-37.081-47.133l-8.401,5.506c-9.598-12.492-18.365-25.629-26.233-39.381c19.094-8.644,35.986-21.87,49.283-38.052
		c5.958,7.558,11.411,15.51,16.334,23.784c-9.506,2.663-16.48,11.386-16.48,21.742c0,12.471,10.11,22.581,22.581,22.581
		c12.467,0,22.577-10.11,22.577-22.581c0-10.358-6.976-19.082-16.482-21.743c4.923-8.274,10.376-16.226,16.333-23.783
		C1209.956,879.11,1226.848,892.336,1245.942,900.98z M1197.061,847.056c-6.466-9.539-11.657-19.935-15.309-30.875
		c3.652-10.94,8.842-21.336,15.309-30.875c9.983,11.333,21.072,21.688,33.063,30.875
		C1218.132,825.368,1207.044,835.723,1197.061,847.056z M1302.067,883.358c-0.465-0.277-0.922-0.565-1.386-0.844
		c-0.523-0.39-1.046-0.779-1.573-1.177c-0.537-0.407-1.131-0.686-1.745-0.844c-23.909-14.865-45.277-33.191-63.657-54.615
		c4.303-3.392,8.727-6.632,13.27-9.698c-4.543-3.066-8.967-6.305-13.27-9.698c18.38-21.424,39.748-39.75,63.657-54.615
		c0.615-0.158,1.208-0.437,1.745-0.844c0.527-0.398,1.05-0.787,1.573-1.177c0.463-0.279,0.92-0.567,1.386-0.844
		c18.084,25.467,40.468,48.368,65.564,67.177C1342.535,834.99,1320.151,857.891,1302.067,883.358z M1352.472,841.461
		c10.13-9.176,20.871-17.655,32.103-25.28c-11.232-7.625-21.973-16.104-32.103-25.28h67.877c0.552,2.421,1.348,4.767,2.39,6.958
		c3.489,7.342,8.959,13.288,14.835,18.323c-5.876,5.035-11.346,10.981-14.835,18.322c-1.042,2.191-1.838,4.537-2.39,6.958H1352.472z
		 M1465.905,900.033c-21.171,4.131-44.301-4.109-58.094-20.693c-3.741-4.497-6.917-9.588-11.449-13.245h27.688
		c2.187,3.385,5.165,6.245,9.009,8.199c8.444,4.3,19.462,3.374,31.022-2.604c3.227-1.671,6.294-3.571,9.259-5.595l35.824,0
		C1501.047,883.25,1484.582,896.389,1465.905,900.033z M1590.546,841.461h-85.536c17.04-11.771,37.079-19.75,58.296-23.16
		c1.384-0.222,2.565-1.01,3.307-2.12c-0.742-1.111-1.924-1.899-3.307-2.12c-21.216-3.41-41.256-11.389-58.296-23.16h85.536V841.461z
		"/>
	<path d="M1295,776.695c-13.808,11.053-25.708,24.475-35.061,39.485c9.352,15.01,21.253,28.432,35.061,39.485
		c9.379-15.298,21.725-28.757,36.107-39.485C1316.725,805.452,1304.38,791.993,1295,776.695z"/>
	<path d="M337.361,776.695c-9.379,15.298-21.725,28.757-36.107,39.485c14.382,10.729,26.727,24.188,36.107,39.485
		c13.808-11.053,25.708-24.475,35.061-39.485C363.07,801.17,351.169,787.748,337.361,776.695z"/>
	<path d="M181.956,787.719c-3.283-1.609-7.011,0.86-9.863,3.148c-11.527,9.251-23.688,17.71-36.363,25.313
		c12.675,7.603,24.836,16.062,36.363,25.313c2.852,2.288,6.58,4.757,9.863,3.148c2.426-1.19,3.413-4.306,2.903-6.959
		c-0.51-2.653-2.189-4.921-3.946-6.973c-5.081-5.928-11.288-10.83-18.154-14.529c6.866-3.7,13.073-8.602,18.154-14.529
		c1.758-2.052,3.436-4.32,3.946-6.973C185.369,792.025,184.382,788.909,181.956,787.719z"/>
	<path d="M1450.406,844.642c3.282,1.609,7.011-0.86,9.863-3.148c11.527-9.251,23.688-17.71,36.363-25.313
		c-12.675-7.604-24.836-16.062-36.363-25.313c-2.852-2.288-6.58-4.757-9.863-3.148c-2.426,1.19-3.413,4.306-2.903,6.959
		c0.51,2.653,2.189,4.921,3.946,6.973c5.081,5.928,11.288,10.83,18.154,14.529c-6.866,3.7-13.073,8.602-18.154,14.529
		c-1.758,2.052-3.436,4.32-3.946,6.973C1446.992,840.336,1447.979,843.453,1450.406,844.642z"/>
	<path d="M776.695,1295c15.298,9.379,28.756,21.725,39.485,36.107c10.729-14.382,24.188-26.727,39.485-36.107
		c-11.053-13.808-24.475-25.708-39.485-35.061C801.17,1269.292,787.748,1281.192,776.695,1295z"/>
	<path d="M816.181,1017.349c-10.729,14.382-24.188,26.727-39.485,36.107c11.053,13.808,24.475,25.708,39.485,35.061
		c15.01-9.352,28.432-21.253,39.485-35.061C840.368,1044.076,826.91,1031.73,816.181,1017.349z"/>
	<path d="M837.683,1447.502c-2.653,0.51-4.921,2.189-6.973,3.947c-5.928,5.081-10.83,11.288-14.529,18.154
		c-3.7-6.866-8.602-13.073-14.529-18.154c-2.052-1.758-4.32-3.436-6.973-3.947c-2.653-0.51-5.77,0.477-6.959,2.903
		c-1.609,3.282,0.86,7.011,3.148,9.863c9.251,11.527,17.71,23.688,25.313,36.363c7.604-12.675,16.062-24.836,25.313-36.363
		c2.288-2.852,4.757-6.58,3.148-9.863C843.453,1447.979,840.336,1446.992,837.683,1447.502z"/>
</g>
</svg>
