<?xml version="1.0" standalone="no"?>
<!DOCTYPE svg PUBLIC "-//W3C//DTD SVG 1.1//EN" "http://www.w3.org/Graphics/SVG/1.1/DTD/svg11.dtd">
<!--Generator: Xara Designer (www.xara.com), SVG filter version: 3.0.0.6-->
<svg stroke-width="0.501" stroke-linejoin="bevel" fill-rule="evenodd" xmlns:xlink="http://www.w3.org/1999/xlink" xmlns="http://www.w3.org/2000/svg" version="1.1" overflow="visible" width="450pt" height="450pt" viewBox="0 0 450 450">
 <defs>
  <marker id="DefaultArrow2" markerUnits="strokeWidth" viewBox="0 0 1 1" markerWidth="1" markerHeight="1" overflow="visible" orient="auto">
   <!-- REF_ARROW_STRAIGHT (-2) -->
   <g transform="scale(0.0092592592)">
    <!-- 1/108 -->
    <path d="M -9 54 L -9 -54 L 117 0 z"/>
   </g>
  </marker>
  <marker id="DefaultArrow3" markerUnits="strokeWidth" viewBox="0 0 1 1" markerWidth="1" markerHeight="1" overflow="visible" orient="auto">
   <!-- REF_ARROW_ANGLED -->
   <g transform="scale(0.0092592592)">
    <path d="M -27 54 L -9 0 L -27 -54 L 135 0 z"/>
   </g>
  </marker>
  <marker id="DefaultArrow4" markerUnits="strokeWidth" viewBox="0 0 1 1" markerWidth="1" markerHeight="1" overflow="visible" orient="auto">
   <!-- REF_ARROW_ROUNDED -->
   <g transform="scale(0.0092592592)">
    <path d="M -9,0 L -9,-45 C -9,-51.708 2.808,-56.580 9,-54 L 117,-9 C 120.916,-7.369 126.000,-4.242 126,0 C 126,4.242 120.916,7.369 117,9 L 9,54 C 2.808,56.580 -9,51.708 -9,45 z"/>
   </g>
  </marker>
  <marker id="DefaultArrow5" markerUnits="strokeWidth" viewBox="0 0 1 1" markerWidth="1" markerHeight="1" overflow="visible" orient="auto">
   <!-- REF_ARROW_SPOT -->
   <g transform="scale(0.0092592592)">
    <path d="M -54, 0 C -54,29.807 -29.807,54 0,54 C 29.807,54 54,29.807 54,0 C 54,-29.807 29.807,-54 0,-54 C -29.807,-54 -54,-29.807 -54,0 z"/>
   </g>
  </marker>
  <marker id="DefaultArrow6" markerUnits="strokeWidth" viewBox="0 0 1 1" markerWidth="1" markerHeight="1" overflow="visible" orient="auto">
   <!-- REF_ARROW_DIAMOND -->
   <g transform="scale(0.0092592592)">
    <path d="M -63,0 L 0,63 L 63,0 L 0,-63 z"/>
   </g>
  </marker>
  <marker id="DefaultArrow7" markerUnits="strokeWidth" viewBox="0 0 1 1" markerWidth="1" markerHeight="1" overflow="visible" orient="auto">
   <!-- REF_ARROW_FEATHER -->
   <g transform="scale(0.0092592592)">
    <path d="M 18,-54 L 108,-54 L 63,0 L 108,54 L 18, 54 L -36,0 z"/>
   </g>
  </marker>
  <marker id="DefaultArrow8" markerUnits="strokeWidth" viewBox="0 0 1 1" markerWidth="1" markerHeight="1" overflow="visible" orient="auto">
   <!-- REF_ARROW_FEATHER2 -->
   <g transform="scale(0.0092592592)">
    <path d="M -36,0 L 18,-54 L 54,-54 L 18,-18 L 27,-18 L 63,-54 L 99,-54 L 63,-18 L 72,-18 L 108,-54 L 144,-54 L 90,0 L 144,54 L 108,54 L 72,18 L 63,18 L 99,54 L 63,54 L 27,18 L 18,18 L 54,54 L 18,54 z"/>
   </g>
  </marker>
  <marker id="DefaultArrow9" markerUnits="strokeWidth" viewBox="0 0 1 1" markerWidth="1" markerHeight="1" overflow="visible" orient="auto">
   <!-- REF_ARROW_HOLLOWDIAMOND -->
   <g transform="scale(0.0092592592)">
    <path d="M 0,45 L -45,0 L 0, -45 L 45, 0 z M 0, 63 L-63, 0 L 0, -63 L 63, 0 z"/>
   </g>
  </marker>
  <filter id="StainedFilter">
   <feBlend mode="multiply" in2="BackgroundImage" in="SourceGraphic" result="blend"/>
   <feComposite in="blend" in2="SourceAlpha" operator="in" result="comp"/>
  </filter>
  <filter id="BleachFilter">
   <feBlend mode="screen" in2="BackgroundImage" in="SourceGraphic" result="blend"/>
   <feComposite in="blend" in2="SourceAlpha" operator="in" result="comp"/>
  </filter>
  <filter id="InvertTransparencyBitmapFilter">
   <feComponentTransfer>
    <feFuncR type="gamma" amplitude="1.055" exponent=".416666666" offset="-0.055"/>
    <feFuncG type="gamma" amplitude="1.055" exponent=".416666666" offset="-0.055"/>
    <feFuncB type="gamma" amplitude="1.055" exponent=".416666666" offset="-0.055"/>
   </feComponentTransfer>
   <feComponentTransfer>
    <feFuncR type="linear" slope="-1" intercept="1"/>
    <feFuncG type="linear" slope="-1" intercept="1"/>
    <feFuncB type="linear" slope="-1" intercept="1"/>
    <feFuncA type="linear" slope="1" intercept="0"/>
   </feComponentTransfer>
   <feComponentTransfer>
    <feFuncR type="gamma" amplitude="1" exponent="2.4" offset="0"/>
    <feFuncG type="gamma" amplitude="1" exponent="2.4" offset="0"/>
    <feFuncB type="gamma" amplitude="1" exponent="2.4" offset="0"/>
   </feComponentTransfer>
  </filter>
 </defs>
 <g id="Document" fill="none" stroke="black" font-family="Times New Roman" font-size="16" transform="scale(1 -1)">
  <g id="Spread" transform="translate(0 -450)">
   <g id="Layer 1">
    <g id="Group">
     <g id="Group_1">
      <g id="Group_2">
       <path d="M 235.301,439.233 L 233.258,430.867 L 240.109,425.648 L 231.522,425.008 L 228.677,416.878 L 225.412,424.847 L 216.801,425.042 L 223.374,430.61 L 220.897,438.858 L 228.222,434.329 L 235.301,439.233 Z" fill="#e5e5e5" stroke="none" stroke-width="0.133" fill-rule="evenodd" marker-start="none" marker-end="none" stroke-miterlimit="79.8403193612775"/>
       <path d="M 237.147,423.688 L 230.296,428.905 L 232.339,437.273 L 225.261,432.367 L 217.935,436.899 L 220.411,428.649 L 213.841,423.082 L 222.45,422.887 L 225.714,414.917 L 228.559,423.046 L 237.147,423.688 Z" fill="#032896" stroke="none" stroke-linejoin="miter" stroke-width="0.194" marker-start="none" marker-end="none" stroke-miterlimit="79.8403193612775"/>
      </g>
      <g id="Group_3">
       <path d="M 194.305,437.551 L 200.984,431.76 L 208.864,435.63 L 205.522,427.421 L 211.617,421.001 L 202.873,421.721 L 198.757,413.884 L 196.696,422.537 L 188.057,424.112 L 195.529,428.74 L 194.305,437.551 Z" fill="#e5e5e5" stroke="none" stroke-width="0.133" fill-rule="evenodd" marker-start="none" marker-end="none" stroke-miterlimit="79.8403193612775"/>
       <path d="M 207.13,419.337 L 202.01,424.73 L 204.817,431.625 L 198.198,428.372 L 192.587,433.239 L 193.618,425.837 L 187.341,421.949 L 194.598,420.626 L 196.329,413.357 L 199.784,419.941 L 207.13,419.337 Z" fill="#fffaff" stroke="none" stroke-linejoin="miter" stroke-width="0.884" marker-start="none" marker-end="none" stroke-miterlimit="79.8403193612775"/>
       <path d="M 206.2,433.279 L 202.856,425.069 L 208.952,418.651 L 200.205,419.369 L 196.093,411.532 L 194.032,420.185 L 185.393,421.76 L 192.865,426.389 L 191.64,435.2 L 198.32,429.408 L 206.2,433.279 Z M 203.466,430.334 L 198.107,427.703 L 193.566,431.643 L 194.398,425.651 L 189.317,422.503 L 195.193,421.433 L 196.592,415.551 L 199.39,420.879 L 205.337,420.388 L 201.19,424.754 L 203.466,430.334 Z" fill="#ed0000" stroke="none" stroke-width="0.22" fill-rule="evenodd" marker-start="none" marker-end="none" stroke-miterlimit="79.8403193612775"/>
      </g>
      <g id="Group_4">
       <path d="M 174.165,432.704 L 174.586,424.102 L 182.638,421.047 L 174.588,417.991 L 174.172,409.388 L 168.777,416.099 L 160.465,413.838 L 165.183,421.047 L 160.463,428.249 L 168.774,425.989 L 174.165,432.704 Z" fill="#e5e5e5" stroke="none" stroke-width="0.133" fill-rule="evenodd" marker-start="none" marker-end="none" stroke-miterlimit="79.8403193612775"/>
       <path d="M 180.356,418.326 L 172.306,421.38 L 171.885,429.983 L 166.493,423.267 L 158.181,425.528 L 162.901,418.323 L 158.184,411.117 L 166.493,413.378 L 171.89,406.665 L 172.306,415.268 L 180.356,418.326 Z" fill="#032896" stroke="none" stroke-linejoin="miter" stroke-width="0.194" marker-start="none" marker-end="none" stroke-miterlimit="79.8403193612775"/>
      </g>
      <g id="Group_5">
       <path d="M 135.286,419.229 L 143.372,415.655 L 149.768,421.669 L 148.985,412.84 L 156.696,408.492 L 148.125,406.613 L 146.493,397.913 L 141.983,405.58 L 133.261,404.549 L 139.044,411.166 L 135.286,419.229 Z" fill="#e5e5e5" stroke="none" stroke-width="0.133" fill-rule="evenodd" marker-start="none" marker-end="none" stroke-miterlimit="79.8403193612775"/>
       <path d="M 152.894,405.584 L 146.417,409.237 L 147.073,416.653 L 141.703,411.6 L 134.911,414.604 L 138.069,407.831 L 133.21,402.272 L 140.534,403.138 L 144.325,396.698 L 145.695,404.008 L 152.894,405.584 Z" fill="#fffaff" stroke="none" stroke-linejoin="miter" stroke-width="0.884" marker-start="none" marker-end="none" stroke-miterlimit="79.8403193612775"/>
       <path d="M 147.91,418.641 L 147.125,409.812 L 154.838,405.466 L 146.266,403.584 L 144.635,394.885 L 140.125,402.551 L 131.403,401.519 L 137.186,408.139 L 133.428,416.203 L 141.515,412.626 L 147.91,418.641 Z M 146.162,415.023 L 141.812,410.934 L 136.313,413.367 L 138.87,407.883 L 134.937,403.382 L 140.868,404.086 L 143.931,398.873 L 145.042,404.788 L 150.87,406.066 L 145.627,409.02 L 146.162,415.023 Z" fill="#ed0000" stroke="none" stroke-width="0.22" fill-rule="evenodd" marker-start="none" marker-end="none" stroke-miterlimit="79.8403193612775"/>
      </g>
      <g id="Group_6">
       <path d="M 117.477,408.785 L 120.363,400.671 L 128.954,400.071 L 122.129,394.821 L 124.216,386.463 L 117.113,391.33 L 109.807,386.767 L 112.243,395.031 L 105.644,400.562 L 114.252,400.799 L 117.477,408.785 Z" fill="#e5e5e5" stroke="none" stroke-width="0.133" fill-rule="evenodd" marker-start="none" marker-end="none" stroke-miterlimit="79.8403193612775"/>
       <path d="M 127.554,396.806 L 118.964,397.405 L 116.077,405.519 L 112.854,397.534 L 104.245,397.298 L 110.844,391.762 L 108.407,383.502 L 115.71,388.066 L 122.816,383.198 L 120.729,391.554 L 127.554,396.806 Z" fill="#032896" stroke="none" stroke-linejoin="miter" stroke-width="0.194" marker-start="none" marker-end="none" stroke-miterlimit="79.8403193612775"/>
      </g>
      <g id="Group_7">
       <path d="M 84.176,384.711 L 92.945,383.585 L 97.364,391.171 L 99.126,382.483 L 107.755,380.51 L 100.074,376.271 L 100.986,367.463 L 94.481,373.53 L 86.411,370.06 L 90.073,378.05 L 84.176,384.711 Z" fill="#e5e5e5" stroke="none" stroke-width="0.133" fill-rule="evenodd" marker-start="none" marker-end="none" stroke-miterlimit="79.8403193612775"/>
       <path d="M 104.939,376.64 L 97.691,378.297 L 96.209,385.595 L 92.498,379.222 L 85.132,380.168 L 90.086,374.575 L 87.011,367.864 L 93.787,370.778 L 99.251,365.683 L 98.486,373.08 L 104.939,376.64 Z" fill="#fffaff" stroke="none" stroke-linejoin="miter" stroke-width="0.884" marker-start="none" marker-end="none" stroke-miterlimit="79.8403193612775"/>
       <path d="M 96.446,387.736 L 98.205,379.048 L 106.835,377.077 L 99.152,372.833 L 100.066,364.03 L 93.559,370.096 L 85.493,366.626 L 89.153,374.618 L 83.256,381.278 L 92.025,380.15 L 96.446,387.736 Z M 95.799,383.77 L 92.792,378.613 L 86.829,379.38 L 90.84,374.85 L 88.348,369.416 L 93.836,371.78 L 98.257,367.654 L 97.637,373.639 L 102.861,376.523 L 96.994,377.864 L 95.799,383.77 Z" fill="#ed0000" stroke="none" stroke-width="0.22" fill-rule="evenodd" marker-start="none" marker-end="none" stroke-miterlimit="79.8403193612775"/>
      </g>
      <g id="Group_8">
       <path d="M 70.151,369.589 L 75.214,362.622 L 83.623,364.477 L 78.564,357.51 L 82.928,350.086 L 74.741,352.743 L 69.023,346.3 L 69.023,354.916 L 61.126,358.354 L 69.317,361.016 L 70.151,369.589 Z" fill="#e5e5e5" stroke="none" stroke-width="0.133" fill-rule="evenodd" marker-start="none" marker-end="none" stroke-miterlimit="79.8403193612775"/>
       <path d="M 83.206,360.948 L 74.798,359.094 L 69.733,366.06 L 68.901,357.489 L 60.71,354.827 L 68.605,351.383 L 68.605,342.772 L 74.318,349.216 L 82.512,346.555 L 78.144,353.98 L 83.206,360.948 Z" fill="#032896" stroke="none" stroke-linejoin="miter" stroke-width="0.194" marker-start="none" marker-end="none" stroke-miterlimit="79.8403193612775"/>
      </g>
      <g id="Group_9">
       <path d="M 45.103,337.008 L 53.832,338.411 L 55.924,346.937 L 60.073,339.105 L 68.909,339.656 L 62.742,333.414 L 66.11,325.226 L 58.154,329.203 L 51.397,323.59 L 52.645,332.289 L 45.103,337.008 Z" fill="#e5e5e5" stroke="none" stroke-width="0.133" fill-rule="evenodd" marker-start="none" marker-end="none" stroke-miterlimit="79.8403193612775"/>
       <path d="M 67.303,335.147 L 59.883,334.684 L 56.393,341.263 L 54.64,334.1 L 47.306,332.92 L 53.643,328.961 L 52.593,321.653 L 58.266,326.367 L 64.951,323.026 L 62.121,329.905 L 67.303,335.147 Z" fill="#fffaff" stroke="none" stroke-linejoin="miter" stroke-width="0.884" marker-start="none" marker-end="none" stroke-miterlimit="79.8403193612775"/>
       <path d="M 56.015,343.384 L 60.163,335.55 L 68.998,336.104 L 62.831,329.858 L 66.201,321.674 L 58.241,325.648 L 51.49,320.036 L 52.736,328.738 L 45.194,333.456 L 53.924,334.858 L 56.015,343.384 Z M 56.518,339.397 L 55.095,333.599 L 49.159,332.649 L 54.288,329.439 L 53.437,323.522 L 58.032,327.342 L 63.439,324.637 L 61.151,330.202 L 65.344,334.448 L 59.337,334.071 L 56.518,339.397 Z" fill="#ed0000" stroke="none" stroke-width="0.22" fill-rule="evenodd" marker-start="none" marker-end="none" stroke-miterlimit="79.8403193612775"/>
      </g>
      <g id="Group_10">
       <path d="M 36.011,318.454 L 42.852,313.225 L 50.383,317.406 L 47.524,309.284 L 53.828,303.416 L 45.224,303.623 L 41.584,295.816 L 39.122,304.073 L 30.574,305.11 L 37.661,310.001 L 36.011,318.454 Z" fill="#e5e5e5" stroke="none" stroke-width="0.133" fill-rule="evenodd" marker-start="none" marker-end="none" stroke-miterlimit="79.8403193612775"/>
       <path d="M 50.989,313.906 L 43.462,309.728 L 36.617,314.955 L 38.269,306.504 L 31.18,301.612 L 39.732,300.567 L 42.192,292.315 L 45.825,300.123 L 54.438,299.915 L 48.13,305.783 L 50.989,313.906 Z" fill="#032896" stroke="none" stroke-linejoin="miter" stroke-width="0.194" marker-start="none" marker-end="none" stroke-miterlimit="79.8403193612775"/>
      </g>
      <g id="Group_11">
       <path d="M 21.4,279.99 L 29.347,283.863 L 28.876,292.63 L 35.119,286.337 L 43.415,289.425 L 39.322,281.664 L 44.92,274.805 L 36.152,276.303 L 31.314,268.974 L 29.986,277.66 L 21.4,279.99 Z" fill="#e5e5e5" stroke="none" stroke-width="0.133" fill-rule="evenodd" marker-start="none" marker-end="none" stroke-miterlimit="79.8403193612775"/>
       <path d="M 43.185,284.645 L 36.219,282.051 L 30.972,287.336 L 31.369,279.972 L 24.694,276.716 L 31.905,274.764 L 33.02,267.466 L 37.082,273.621 L 44.448,272.363 L 39.746,278.125 L 43.185,284.645 Z" fill="#fffaff" stroke="none" stroke-linejoin="miter" stroke-width="0.884" marker-start="none" marker-end="none" stroke-miterlimit="79.8403193612775"/>
       <path d="M 29.995,289.257 L 36.235,282.962 L 44.531,286.054 L 40.44,278.288 L 46.036,271.432 L 37.267,272.929 L 32.434,265.6 L 31.102,274.289 L 22.517,276.618 L 30.465,280.492 L 29.995,289.257 Z M 31.632,285.587 L 31.951,279.627 L 26.545,276.996 L 32.385,275.409 L 33.285,269.501 L 36.575,274.489 L 42.535,273.469 L 38.732,278.13 L 41.515,283.409 L 35.875,281.308 L 31.632,285.587 Z" fill="#ed0000" stroke="none" stroke-width="0.22" fill-rule="evenodd" marker-start="none" marker-end="none" stroke-miterlimit="79.8403193612775"/>
      </g>
      <g id="Group_12">
       <path d="M 18.031,259.542 L 26.109,256.561 L 32.073,262.775 L 31.735,254.17 L 39.488,250.424 L 31.206,248.085 L 30.028,239.552 L 25.241,246.716 L 16.768,245.187 L 22.098,251.95 L 18.031,259.542 Z" fill="#e5e5e5" stroke="none" stroke-width="0.133" fill-rule="evenodd" marker-start="none" marker-end="none" stroke-miterlimit="79.8403193612775"/>
       <path d="M 33.683,259.611 L 27.72,253.398 L 19.64,256.376 L 23.709,248.789 L 18.376,242.024 L 26.857,243.545 L 31.639,236.385 L 32.811,244.917 L 41.102,247.258 L 33.344,251.006 L 33.683,259.611 Z" fill="#032896" stroke="none" stroke-linejoin="miter" stroke-width="0.194" marker-start="none" marker-end="none" stroke-miterlimit="79.8403193612775"/>
      </g>
      <g id="Group_13">
       <path d="M 15.2,218.604 L 21.708,224.587 L 18.749,232.853 L 26.532,228.606 L 33.599,233.938 L 31.894,225.33 L 39.22,220.358 L 30.39,219.288 L 27.848,210.882 L 24.092,218.825 L 15.2,218.604 Z" fill="#e5e5e5" stroke="none" stroke-width="0.133" fill-rule="evenodd" marker-start="none" marker-end="none" stroke-miterlimit="79.8403193612775"/>
       <path d="M 34.743,229.292 L 28.809,224.816 L 22.272,228.38 L 24.755,221.438 L 19.291,216.408 L 26.758,216.6 L 29.914,209.926 L 32.047,216.985 L 39.465,217.885 L 33.311,222.063 L 34.743,229.292 Z" fill="#fffaff" stroke="none" stroke-linejoin="miter" stroke-width="0.884" marker-start="none" marker-end="none" stroke-miterlimit="79.8403193612775"/>
       <path d="M 20.788,229.942 L 28.565,225.692 L 35.632,231.027 L 33.932,222.415 L 41.253,217.445 L 32.424,216.372 L 29.887,207.969 L 26.127,215.914 L 17.233,215.693 L 23.743,221.676 L 20.788,229.942 Z M 23.405,226.892 L 25.414,221.271 L 20.986,217.204 L 27.036,217.354 L 29.588,211.949 L 31.314,217.671 L 37.318,218.396 L 32.339,221.775 L 33.497,227.63 L 28.692,224.003 L 23.405,226.892 Z" fill="#ed0000" stroke="none" stroke-width="0.22" fill-rule="evenodd" marker-start="none" marker-end="none" stroke-miterlimit="79.8403193612775"/>
      </g>
      <g id="Group_14">
       <path d="M 17.83,198.041 L 26.423,197.5 L 30.358,205.16 L 32.497,196.819 L 40.998,195.449 L 33.734,190.837 L 35.047,182.322 L 28.409,187.817 L 20.728,183.926 L 23.899,191.933 L 17.83,198.041 Z" fill="#e5e5e5" stroke="none" stroke-width="0.133" fill-rule="evenodd" marker-start="none" marker-end="none" stroke-miterlimit="79.8403193612775"/>
       <path d="M 32.807,202.587 L 28.871,194.927 L 20.277,195.468 L 26.348,189.362 L 23.175,181.353 L 30.867,185.24 L 37.497,179.749 L 36.178,188.26 L 43.452,192.874 L 34.946,194.246 L 32.807,202.587 Z" fill="#032896" stroke="none" stroke-linejoin="miter" stroke-width="0.194" marker-start="none" marker-end="none" stroke-miterlimit="79.8403193612775"/>
      </g>
      <g id="Group_15">
       <path d="M 26.92,157.897 L 31.367,165.538 L 26.095,172.56 L 34.785,170.806 L 39.959,177.989 L 40.876,169.262 L 49.346,166.678 L 41.227,163.045 L 41.287,154.263 L 35.348,160.739 L 26.92,157.897 Z" fill="#e5e5e5" stroke="none" stroke-width="0.133" fill-rule="evenodd" marker-start="none" marker-end="none" stroke-miterlimit="79.8403193612775"/>
       <path d="M 42.428,173.89 L 38.083,167.858 L 30.785,169.33 L 35.21,163.433 L 31.479,157.012 L 38.555,159.402 L 43.543,153.961 L 43.493,161.335 L 50.313,164.389 L 43.198,166.561 L 42.428,173.89 Z" fill="#fffaff" stroke="none" stroke-linejoin="miter" stroke-width="0.884" marker-start="none" marker-end="none" stroke-miterlimit="79.8403193612775"/>
       <path d="M 28.905,170.382 L 37.591,168.623 L 42.763,175.809 L 43.686,167.081 L 52.151,164.498 L 44.034,160.862 L 44.096,152.083 L 38.155,158.561 L 29.724,155.718 L 34.173,163.36 L 28.905,170.382 Z M 32.307,168.241 L 35.889,163.468 L 32.863,158.274 L 38.597,160.205 L 42.633,155.797 L 42.589,161.772 L 48.11,164.243 L 42.355,165.997 L 41.729,171.933 L 38.212,167.048 L 32.307,168.241 Z" fill="#ed0000" stroke="none" stroke-width="0.22" fill-rule="evenodd" marker-start="none" marker-end="none" stroke-miterlimit="79.8403193612775"/>
      </g>
      <g id="Group_16">
       <path d="M 35.348,139.014 L 43.723,141.006 L 45.25,149.483 L 49.733,142.13 L 58.263,143.301 L 52.663,136.771 L 56.406,129.009 L 48.452,132.327 L 42.241,126.362 L 42.935,134.945 L 35.348,139.014 Z" fill="#e5e5e5" stroke="none" stroke-width="0.133" fill-rule="evenodd" marker-start="none" marker-end="none" stroke-miterlimit="79.8403193612775"/>
       <path d="M 48.344,147.739 L 46.817,139.261 L 38.439,137.27 L 46.028,133.201 L 45.334,124.616 L 51.555,130.58 L 59.499,127.265 L 55.753,135.02 L 61.362,141.557 L 52.826,140.386 L 48.344,147.739 Z" fill="#032896" stroke="none" stroke-linejoin="miter" stroke-width="0.194" marker-start="none" marker-end="none" stroke-miterlimit="79.8403193612775"/>
      </g>
      <g id="Group_17">
       <path d="M 55.665,103.285 L 57.728,111.881 L 50.657,117.089 L 59.485,117.908 L 62.375,126.276 L 65.762,118.183 L 74.617,118.144 L 67.886,112.328 L 70.471,103.935 L 62.919,108.429 L 55.665,103.285 Z" fill="#e5e5e5" stroke="none" stroke-width="0.133" fill-rule="evenodd" marker-start="none" marker-end="none" stroke-miterlimit="79.8403193612775"/>
       <path d="M 65.916,123.059 L 63.49,116.032 L 56.078,115.345 L 62.011,110.969 L 60.286,103.746 L 66.375,108.071 L 72.715,104.292 L 70.547,111.342 L 76.2,116.227 L 68.762,116.262 L 65.916,123.059 Z" fill="#fffaff" stroke="none" stroke-linejoin="miter" stroke-width="0.884" marker-start="none" marker-end="none" stroke-miterlimit="79.8403193612775"/>
       <path d="M 53.975,115.811 L 62.801,116.626 L 65.687,124.995 L 69.081,116.9 L 77.931,116.861 L 71.202,111.046 L 73.787,102.654 L 66.235,107.15 L 58.978,102.002 L 61.042,110.602 L 53.975,115.811 Z M 57.848,114.74 L 62.653,111.199 L 61.248,105.354 L 66.185,108.853 L 71.318,105.791 L 69.557,111.501 L 74.136,115.455 L 68.117,115.48 L 65.812,120.985 L 63.849,115.296 L 57.848,114.74 Z" fill="#ed0000" stroke="none" stroke-width="0.22" fill-rule="evenodd" marker-start="none" marker-end="none" stroke-miterlimit="79.8403193612775"/>
      </g>
      <g id="Group_18">
       <path d="M 69.169,87.692 L 76.636,91.978 L 75.695,100.539 L 82.079,94.761 L 89.927,98.303 L 86.409,90.454 L 92.2,84.073 L 83.633,84.997 L 79.37,77.516 L 77.6,85.943 L 69.169,87.692 Z" fill="#e5e5e5" stroke="none" stroke-width="0.133" fill-rule="evenodd" marker-start="none" marker-end="none" stroke-miterlimit="79.8403193612775"/>
       <path d="M 79.157,99.744 L 80.096,91.184 L 72.629,86.897 L 81.058,85.149 L 82.83,76.719 L 87.103,84.203 L 95.661,83.279 L 89.868,89.651 L 93.394,97.511 L 85.54,93.966 L 79.157,99.744 Z" fill="#032896" stroke="none" stroke-linejoin="miter" stroke-width="0.194" marker-start="none" marker-end="none" stroke-miterlimit="79.8403193612775"/>
      </g>
      <g id="Group_19">
       <path d="M 98.824,59.268 L 98.379,68.097 L 90.125,71.099 L 98.364,74.376 L 98.775,83.218 L 104.308,76.409 L 112.815,78.87 L 107.998,71.391 L 112.844,64.067 L 104.332,66.249 L 98.824,59.268 Z" fill="#e5e5e5" stroke="none" stroke-width="0.133" fill-rule="evenodd" marker-start="none" marker-end="none" stroke-miterlimit="79.8403193612775"/>
       <path d="M 103.082,81.131 L 102.735,73.706 L 95.819,70.954 L 102.744,68.43 L 103.126,61.013 L 107.749,66.881 L 114.897,65.044 L 110.829,71.195 L 114.875,77.477 L 107.729,75.413 L 103.082,81.131 Z" fill="#fffaff" stroke="none" stroke-linejoin="miter" stroke-width="0.884" marker-start="none" marker-end="none" stroke-miterlimit="79.8403193612775"/>
       <path d="M 93.668,70.809 L 101.907,74.081 L 102.315,82.923 L 107.855,76.116 L 116.355,78.574 L 111.541,71.097 L 116.388,63.775 L 107.874,65.956 L 102.364,58.972 L 101.919,67.806 L 93.668,70.809 Z M 97.688,70.874 L 103.295,68.831 L 103.596,62.829 L 107.346,67.577 L 113.134,66.088 L 109.834,71.07 L 113.111,76.155 L 107.331,74.481 L 103.567,79.112 L 103.287,73.1 L 97.688,70.874 Z" fill="#ed0000" stroke="none" stroke-width="0.22" fill-rule="evenodd" marker-start="none" marker-end="none" stroke-miterlimit="79.8403193612775"/>
      </g>
      <g id="Group_20">
       <path d="M 116.261,48.209 L 122.207,54.435 L 118.876,62.379 L 126.637,58.648 L 133.158,64.271 L 132.011,55.747 L 139.372,51.269 L 130.896,49.725 L 128.929,41.343 L 124.841,48.924 L 116.261,48.209 Z" fill="#e5e5e5" stroke="none" stroke-width="0.133" fill-rule="evenodd" marker-start="none" marker-end="none" stroke-miterlimit="79.8403193612775"/>
       <path d="M 122.423,62.596 L 125.752,54.653 L 119.806,48.426 L 128.385,49.138 L 132.474,41.557 L 134.449,49.946 L 142.917,51.487 L 135.556,55.955 L 136.708,64.492 L 130.182,58.865 L 122.423,62.596 Z" fill="#032896" stroke="none" stroke-linejoin="miter" stroke-width="0.194" marker-start="none" marker-end="none" stroke-miterlimit="79.8403193612775"/>
      </g>
      <g id="Group_21">
       <path d="M 152.865,29.461 L 149.902,37.791 L 141.134,38.297 L 148.086,43.802 L 145.939,52.389 L 153.195,47.456 L 160.637,52.256 L 158.17,43.709 L 164.915,38.086 L 156.135,37.73 L 152.865,29.461 Z" fill="#e5e5e5" stroke="none" stroke-width="0.133" fill-rule="evenodd" marker-start="none" marker-end="none" stroke-miterlimit="79.8403193612775"/>
       <path d="M 150.665,51.628 L 152.463,44.417 L 146.628,39.796 L 153.988,39.366 L 156.483,32.371 L 159.225,39.319 L 166.599,39.612 L 160.938,44.335 L 163.009,51.515 L 156.757,47.487 L 150.665,51.628 Z" fill="#fffaff" stroke="none" stroke-linejoin="miter" stroke-width="0.884" marker-start="none" marker-end="none" stroke-miterlimit="79.8403193612775"/>
       <path d="M 144.609,39.04 L 151.561,44.54 L 149.416,53.125 L 156.674,48.197 L 164.112,52.99 L 161.648,44.447 L 168.392,38.824 L 159.61,38.469 L 156.338,30.198 L 153.375,38.531 L 144.609,39.04 Z M 148.442,40.256 L 154.401,39.909 L 156.411,34.245 L 158.64,39.869 L 164.611,40.106 L 160.021,43.931 L 161.699,49.743 L 156.644,46.479 L 151.707,49.834 L 153.165,43.996 L 148.442,40.256 Z" fill="#ed0000" stroke="none" stroke-width="0.22" fill-rule="evenodd" marker-start="none" marker-end="none" stroke-miterlimit="79.8403193612775"/>
      </g>
      <g id="Group_22">
       <path d="M 172.795,23.898 L 176.675,31.582 L 171.179,38.214 L 179.69,36.902 L 184.295,44.176 L 185.675,35.688 L 194.021,33.544 L 186.357,29.603 L 186.913,21.011 L 180.798,27.075 L 172.795,23.898 Z" fill="#e5e5e5" stroke="none" stroke-width="0.133" fill-rule="evenodd" marker-start="none" marker-end="none" stroke-miterlimit="79.8403193612775"/>
       <path d="M 174.51,39.454 L 180.004,32.823 L 176.125,25.136 L 184.126,28.311 L 190.243,22.246 L 189.694,30.846 L 197.348,34.783 L 189.005,36.917 L 187.627,45.421 L 183.019,38.139 L 174.51,39.454 Z" fill="#032896" stroke="none" stroke-linejoin="miter" stroke-width="0.194" marker-start="none" marker-end="none" stroke-miterlimit="79.8403193612775"/>
      </g>
      <g id="Group_23">
       <path d="M 213.339,16.58 L 208.041,23.66 L 199.518,21.547 L 204.527,28.865 L 199.936,36.431 L 208.326,33.866 L 214.015,40.654 L 214.187,31.761 L 222.294,28.385 L 214.015,25.447 L 213.339,16.58 Z" fill="#e5e5e5" stroke="none" stroke-width="0.133" fill-rule="evenodd" marker-start="none" marker-end="none" stroke-miterlimit="79.8403193612775"/>
       <path d="M 204.677,37.102 L 208.527,30.745 L 204.323,24.603 L 211.479,26.373 L 215.933,20.431 L 216.495,27.878 L 223.452,30.341 L 216.646,33.177 L 216.498,40.647 L 211.72,34.949 L 204.677,37.102 Z" fill="#fffaff" stroke="none" stroke-linejoin="miter" stroke-width="0.884" marker-start="none" marker-end="none" stroke-miterlimit="79.8403193612775"/>
       <path d="M 202.618,23.285 L 207.63,30.596 L 203.038,38.162 L 211.432,35.604 L 217.116,42.385 L 217.293,33.494 L 225.399,30.12 L 217.114,27.179 L 216.437,18.311 L 211.139,25.393 L 202.618,23.285 Z M 205.919,25.582 L 211.712,27.014 L 215.308,22.199 L 215.773,28.229 L 221.407,30.224 L 215.89,32.519 L 215.772,38.567 L 211.91,33.954 L 206.201,35.696 L 209.322,30.55 L 205.919,25.582 Z" fill="#ed0000" stroke="none" stroke-width="0.22" fill-rule="evenodd" marker-start="none" marker-end="none" stroke-miterlimit="79.8403193612775"/>
      </g>
      <g id="Group_24">
       <path d="M 233.891,16.998 L 235.411,25.471 L 228.248,30.255 L 236.778,31.431 L 239.109,39.719 L 242.86,31.979 L 251.47,32.312 L 245.255,26.344 L 248.245,18.269 L 240.65,22.332 L 233.891,16.998 Z" fill="#e5e5e5" stroke="none" stroke-width="0.133" fill-rule="evenodd" marker-start="none" marker-end="none" stroke-miterlimit="79.8403193612775"/>
       <path d="M 231.084,32.395 L 238.244,27.612 L 236.726,19.137 L 243.484,24.468 L 251.082,20.405 L 248.094,28.489 L 254.303,34.45 L 245.698,34.11 L 241.945,41.865 L 239.613,33.569 L 231.084,32.395 Z" fill="#032896" stroke="none" stroke-linejoin="miter" stroke-width="0.194" marker-start="none" marker-end="none" stroke-miterlimit="79.8403193612775"/>
      </g>
      <g id="Group_25">
       <path d="M 274.833,21.588 L 267.732,26.858 L 260.169,22.396 L 262.877,30.841 L 256.312,36.777 L 265.086,36.719 L 268.597,44.85 L 271.305,36.379 L 280.039,35.461 L 272.945,30.277 L 274.833,21.588 Z" fill="#e5e5e5" stroke="none" stroke-width="0.133" fill-rule="evenodd" marker-start="none" marker-end="none" stroke-miterlimit="79.8403193612775"/>
       <path d="M 260.663,38.778 L 266.17,33.787 L 263.898,26.698 L 270.25,30.443 L 276.215,26.02 L 274.625,33.318 L 280.587,37.668 L 273.253,38.44 L 270.976,45.554 L 268.026,38.728 L 260.663,38.778 Z" fill="#fffaff" stroke="none" stroke-linejoin="miter" stroke-width="0.884" marker-start="none" marker-end="none" stroke-miterlimit="79.8403193612775"/>
       <path d="M 262.64,24.948 L 265.354,33.385 L 258.789,39.324 L 267.565,39.272 L 271.07,47.396 L 273.785,38.928 L 282.516,38.011 L 275.418,32.826 L 277.305,24.133 L 270.204,29.404 L 262.64,24.948 Z M 265.148,28.093 L 270.289,31.121 L 275.113,27.537 L 273.832,33.447 L 278.661,36.969 L 272.719,37.592 L 270.875,43.354 L 268.494,37.829 L 262.526,37.865 L 266.987,33.827 L 265.148,28.093 Z" fill="#ed0000" stroke="none" stroke-width="0.22" fill-rule="evenodd" marker-start="none" marker-end="none" stroke-miterlimit="79.8403193612775"/>
      </g>
      <g id="Group_26">
       <path d="M 294.538,27.886 L 293.484,36.429 L 285.226,38.88 L 293.024,42.528 L 292.802,51.133 L 298.674,44.85 L 306.8,47.713 L 302.627,40.174 L 307.874,33.344 L 299.415,34.981 L 294.538,27.886 Z" fill="#e5e5e5" stroke="none" stroke-width="0.133" fill-rule="evenodd" marker-start="none" marker-end="none" stroke-miterlimit="79.8403193612775"/>
       <path d="M 287.302,41.764 L 295.557,39.313 L 296.613,30.768 L 301.493,37.86 L 309.951,36.225 L 304.704,43.064 L 308.874,50.595 L 300.753,47.724 L 294.876,54.021 L 295.102,45.408 L 287.302,41.764 Z" fill="#032896" stroke="none" stroke-linejoin="miter" stroke-width="0.194" marker-start="none" marker-end="none" stroke-miterlimit="79.8403193612775"/>
      </g>
      <g id="Group_27">
       <path d="M 332.307,44.174 L 323.981,47.154 L 318.041,40.688 L 318.177,49.558 L 310.174,53.33 L 318.585,55.822 L 319.583,64.623 L 324.633,57.303 L 333.259,58.96 L 327.975,51.94 L 332.307,44.174 Z" fill="#e5e5e5" stroke="none" stroke-width="0.133" fill-rule="evenodd" marker-start="none" marker-end="none" stroke-miterlimit="79.8403193612775"/>
       <path d="M 313.755,56.508 L 320.474,53.332 L 320.359,45.889 L 325.348,51.315 L 332.342,48.816 L 328.7,55.337 L 333.142,61.231 L 325.901,59.84 L 321.656,65.987 L 320.817,58.598 L 313.755,56.508 Z" fill="#fffaff" stroke="none" stroke-linejoin="miter" stroke-width="0.884" marker-start="none" marker-end="none" stroke-miterlimit="79.8403193612775"/>
       <path d="M 319.663,43.848 L 319.811,52.709 L 311.804,56.487 L 320.217,58.983 L 321.212,67.776 L 326.268,60.461 L 334.891,62.119 L 329.604,55.097 L 333.934,47.326 L 325.607,50.307 L 319.663,43.848 Z M 321.15,47.584 L 325.191,51.975 L 330.847,49.946 L 327.907,55.23 L 331.504,60.002 L 325.638,58.873 L 322.2,63.85 L 321.526,57.873 L 315.803,56.173 L 321.246,53.605 L 321.15,47.584 Z" fill="#ed0000" stroke="none" stroke-width="0.22" fill-rule="evenodd" marker-start="none" marker-end="none" stroke-miterlimit="79.8403193612775"/>
      </g>
      <g id="Group_28">
       <path d="M 349.298,55.893 L 345.838,63.773 L 337.223,63.752 L 343.647,69.485 L 340.963,77.664 L 348.391,73.33 L 355.355,78.405 L 353.523,69.985 L 360.507,64.948 L 351.935,64.088 L 349.298,55.893 Z" fill="#e5e5e5" stroke="none" stroke-width="0.133" fill-rule="evenodd" marker-start="none" marker-end="none" stroke-miterlimit="79.8403193612775"/>
       <path d="M 338.384,67.11 L 346.995,67.13 L 350.459,59.25 L 353.099,67.442 L 361.671,68.303 L 354.682,73.35 L 356.515,81.76 L 349.558,76.679 L 342.122,81.025 L 344.811,72.838 L 338.384,67.11 Z" fill="#032896" stroke="none" stroke-linejoin="miter" stroke-width="0.194" marker-start="none" marker-end="none" stroke-miterlimit="79.8403193612775"/>
      </g>
      <g id="Group_29">
       <path d="M 380.767,82.312 L 371.938,82.806 L 368.076,74.92 L 365.692,83.463 L 356.946,84.809 L 364.304,89.586 L 362.763,98.308 L 369.682,92.721 L 377.483,96.762 L 374.409,88.529 L 380.767,82.312 Z" fill="#e5e5e5" stroke="none" stroke-width="0.133" fill-rule="evenodd" marker-start="none" marker-end="none" stroke-miterlimit="79.8403193612775"/>
       <path d="M 359.478,88.874 L 366.823,87.735 L 368.824,80.565 L 372.068,87.185 L 379.485,86.774 L 374.141,91.993 L 376.727,98.906 L 370.178,95.515 L 364.362,100.206 L 365.656,92.882 L 359.478,88.874 Z" fill="#fffaff" stroke="none" stroke-linejoin="miter" stroke-width="0.884" marker-start="none" marker-end="none" stroke-miterlimit="79.8403193612775"/>
       <path d="M 368.736,78.41 L 366.363,86.948 L 357.612,88.297 L 364.97,93.08 L 363.43,101.794 L 370.354,96.214 L 378.151,100.253 L 375.074,92.017 L 381.432,85.797 L 372.602,86.291 L 368.736,78.41 Z M 369.1,82.416 L 371.729,87.772 L 377.728,87.432 L 373.409,91.665 L 375.504,97.261 L 370.199,94.512 L 365.49,98.309 L 366.54,92.388 L 361.534,89.132 L 367.485,88.214 L 369.1,82.416 Z" fill="#ed0000" stroke="none" stroke-width="0.22" fill-rule="evenodd" marker-start="none" marker-end="none" stroke-miterlimit="79.8403193612775"/>
      </g>
      <g id="Group_30">
       <path d="M 393.644,98.417 L 388.103,104.999 L 379.843,102.55 L 384.39,109.862 L 379.509,116.952 L 387.859,114.89 L 393.109,121.72 L 393.725,113.128 L 401.845,110.262 L 393.863,107.021 L 393.644,98.417 Z" fill="#e5e5e5" stroke="none" stroke-width="0.133" fill-rule="evenodd" marker-start="none" marker-end="none" stroke-miterlimit="79.8403193612775"/>
       <path d="M 380.01,106.098 L 388.265,108.546 L 393.811,101.96 L 394.034,110.565 L 402.014,113.809 L 393.886,116.681 L 393.275,125.266 L 388.033,118.43 L 379.672,120.502 L 384.559,113.406 L 380.01,106.098 Z" fill="#032896" stroke="none" stroke-linejoin="miter" stroke-width="0.194" marker-start="none" marker-end="none" stroke-miterlimit="79.8403193612775"/>
      </g>
      <g id="Group_31">
       <path d="M 416.272,132.73 L 407.666,130.7 L 406.201,122.041 L 401.489,129.557 L 392.722,128.367 L 398.422,135.035 L 394.471,142.962 L 402.691,139.568 L 409.025,145.655 L 408.412,136.888 L 416.272,132.73 Z" fill="#e5e5e5" stroke="none" stroke-width="0.133" fill-rule="evenodd" marker-start="none" marker-end="none" stroke-miterlimit="79.8403193612775"/>
       <path d="M 394,132.984 L 401.366,133.977 L 405.317,127.667 L 406.551,134.936 L 413.779,136.647 L 407.175,140.134 L 407.692,147.497 L 402.377,142.388 L 395.469,145.237 L 398.786,138.58 L 394,132.984 Z" fill="#fffaff" stroke="none" stroke-linejoin="miter" stroke-width="0.884" marker-start="none" marker-end="none" stroke-miterlimit="79.8403193612775"/>
       <path d="M 405.845,125.577 L 401.148,133.091 L 392.374,131.903 L 398.073,138.576 L 394.122,146.494 L 402.346,143.108 L 408.677,149.193 L 408.062,140.423 L 415.924,136.262 L 407.316,134.23 L 405.845,125.577 Z M 405.059,129.521 L 406.058,135.404 L 411.908,136.78 L 406.566,139.612 L 406.988,145.574 L 402.679,141.434 L 397.088,143.737 L 399.775,138.357 L 395.898,133.816 L 401.863,134.624 L 405.059,129.521 Z" fill="#ed0000" stroke="none" stroke-width="0.22" fill-rule="evenodd" marker-start="none" marker-end="none" stroke-miterlimit="79.8403193612775"/>
      </g>
      <g id="Group_32">
       <path d="M 423.983,151.913 L 416.784,156.625 L 409.576,151.905 L 411.828,160.215 L 405.116,165.602 L 413.707,166.028 L 416.771,174.078 L 419.832,166.028 L 428.433,165.616 L 421.721,160.217 L 423.983,151.913 Z" fill="#e5e5e5" stroke="none" stroke-width="0.133" fill-rule="evenodd" marker-start="none" marker-end="none" stroke-miterlimit="79.8403193612775"/>
       <path d="M 408.718,155.35 L 415.92,160.069 L 423.125,155.355 L 420.864,163.659 L 427.575,169.062 L 418.964,169.477 L 415.91,177.524 L 412.854,169.468 L 404.251,169.049 L 410.972,163.658 L 408.718,155.35 Z" fill="#032896" stroke="none" stroke-linejoin="miter" stroke-width="0.194" marker-start="none" marker-end="none" stroke-miterlimit="79.8403193612775"/>
      </g>
      <g id="Group_33">
       <path d="M 435.731,191.359 L 428.092,186.906 L 429.22,178.195 L 422.519,184.009 L 414.481,180.31 L 417.987,188.352 L 411.89,194.779 L 420.744,193.934 L 425.023,201.604 L 426.998,193.041 L 435.731,191.359 Z" fill="#e5e5e5" stroke="none" stroke-width="0.133" fill-rule="evenodd" marker-start="none" marker-end="none" stroke-miterlimit="79.8403193612775"/>
       <path d="M 414.354,185.098 L 421.109,188.198 L 426.73,183.318 L 425.787,190.631 L 432.199,194.379 L 424.866,195.785 L 423.209,202.977 L 419.619,196.539 L 412.18,197.246 L 417.296,191.848 L 414.354,185.098 Z" fill="#fffaff" stroke="none" stroke-linejoin="miter" stroke-width="0.884" marker-start="none" marker-end="none" stroke-miterlimit="79.8403193612775"/>
       <path d="M 427.847,181.474 L 421.16,187.288 L 413.116,183.588 L 416.617,191.635 L 410.525,198.054 L 419.38,197.219 L 423.658,204.887 L 425.631,196.32 L 434.366,194.636 L 426.727,190.179 L 427.847,181.474 Z M 425.942,185.017 L 425.181,190.933 L 430.372,193.96 L 424.437,195.107 L 423.099,200.933 L 420.188,195.714 L 414.167,196.284 L 418.309,191.923 L 415.928,186.447 L 421.397,188.963 L 425.942,185.017 Z" fill="#ed0000" stroke="none" stroke-width="0.22" fill-rule="evenodd" marker-start="none" marker-end="none" stroke-miterlimit="79.8403193612775"/>
      </g>
      <g id="Group_34">
       <path d="M 437.614,212.006 L 429.342,214.375 L 423.856,207.728 L 423.546,216.335 L 415.538,219.488 L 423.616,222.441 L 424.155,231.038 L 429.466,224.257 L 437.802,226.414 L 432.993,219.267 L 437.614,212.006 Z" fill="#e5e5e5" stroke="none" stroke-width="0.133" fill-rule="evenodd" marker-start="none" marker-end="none" stroke-miterlimit="79.8403193612775"/>
       <path d="M 422.015,210.765 L 427.496,217.406 L 435.774,215.039 L 431.154,222.3 L 435.962,229.45 L 427.614,227.293 L 422.312,234.073 L 421.782,225.474 L 413.69,222.523 L 421.706,219.368 L 422.015,210.765 Z" fill="#032896" stroke="none" stroke-linejoin="miter" stroke-width="0.194" marker-start="none" marker-end="none" stroke-miterlimit="79.8403193612775"/>
      </g>
      <g id="Group_35">
       <path d="M 437.449,253.057 L 431.414,246.594 L 434.998,238.576 L 426.909,242.219 L 420.274,236.364 L 421.319,245.075 L 413.631,249.478 L 422.354,251.214 L 424.248,259.791 L 428.601,252.157 L 437.449,253.057 Z" fill="#e5e5e5" stroke="none" stroke-width="0.133" fill-rule="evenodd" marker-start="none" marker-end="none" stroke-miterlimit="79.8403193612775"/>
       <path d="M 418.777,240.914 L 424.355,245.824 L 431.143,242.767 L 428.136,249.499 L 433.201,254.931 L 425.773,254.17 L 422.119,260.582 L 420.531,253.384 L 413.2,251.922 L 419.653,248.223 L 418.777,240.914 Z" fill="#fffaff" stroke="none" stroke-linejoin="miter" stroke-width="0.884" marker-start="none" marker-end="none" stroke-miterlimit="79.8403193612775"/>
       <path d="M 432.739,241.322 L 424.664,244.967 L 418.023,239.111 L 419.061,247.825 L 411.383,252.223 L 420.105,253.969 L 421.997,262.543 L 426.35,254.905 L 435.2,255.802 L 429.163,249.336 L 432.739,241.322 Z M 429.896,244.168 L 427.468,249.616 L 431.569,254.008 L 425.555,253.398 L 422.597,258.595 L 421.309,252.758 L 415.38,251.575 L 420.601,248.587 L 419.894,242.658 L 424.409,246.64 L 429.896,244.168 Z" fill="#ed0000" stroke="none" stroke-width="0.22" fill-rule="evenodd" marker-start="none" marker-end="none" stroke-miterlimit="79.8403193612775"/>
      </g>
      <g id="Group_36">
       <path d="M 433.347,273.363 L 424.745,273.262 L 421.392,265.322 L 418.629,273.482 L 410.054,274.206 L 416.948,279.351 L 415.001,287.741 L 422.031,282.766 L 429.402,287.221 L 426.841,278.995 L 433.347,273.363 Z" fill="#e5e5e5" stroke="none" stroke-width="0.133" fill-rule="evenodd" marker-start="none" marker-end="none" stroke-miterlimit="79.8403193612775"/>
       <path d="M 418.757,267.705 L 422.106,275.637 L 430.715,275.742 L 424.209,281.374 L 426.767,289.602 L 419.388,285.145 L 412.365,290.121 L 414.32,281.73 L 407.412,276.584 L 415.996,275.859 L 418.757,267.705 Z" fill="#032896" stroke="none" stroke-linejoin="miter" stroke-width="0.194" marker-start="none" marker-end="none" stroke-miterlimit="79.8403193612775"/>
      </g>
      <g id="Group_37">
       <path d="M 421.314,312.725 L 417.449,304.77 L 423.237,298.165 L 414.434,299.262 L 409.818,291.712 L 408.251,300.344 L 399.606,302.285 L 407.43,306.516 L 406.713,315.27 L 413.122,309.258 L 421.314,312.725 Z" fill="#e5e5e5" stroke="none" stroke-width="0.133" fill-rule="evenodd" marker-start="none" marker-end="none" stroke-miterlimit="79.8403193612775"/>
       <path d="M 407.048,295.618 L 410.931,301.953 L 418.319,301.033 L 413.462,306.579 L 416.7,313.264 L 409.826,310.347 L 404.444,315.398 L 405.049,308.052 L 398.474,304.495 L 405.732,302.862 L 407.048,295.618 Z" fill="#fffaff" stroke="none" stroke-linejoin="miter" stroke-width="0.884" marker-start="none" marker-end="none" stroke-miterlimit="79.8403193612775"/>
       <path d="M 420.269,300.122 L 411.476,301.225 L 406.856,293.674 L 405.28,302.306 L 396.647,304.247 L 404.467,308.484 L 403.75,317.235 L 410.159,311.22 L 418.353,314.685 L 414.488,306.727 L 420.269,300.122 Z M 416.713,302.004 L 412.787,306.495 L 415.412,311.899 L 409.844,309.545 L 405.486,313.638 L 405.975,307.683 L 400.657,304.804 L 406.526,303.488 L 407.598,297.614 L 410.739,302.75 L 416.713,302.004 Z" fill="#ed0000" stroke="none" stroke-width="0.22" fill-rule="evenodd" marker-start="none" marker-end="none" stroke-miterlimit="79.8403193612775"/>
      </g>
      <g id="Group_38">
       <path d="M 411.529,330.909 L 403.326,328.319 L 402.418,319.748 L 397.408,326.757 L 388.992,324.965 L 394.099,331.886 L 389.805,339.353 L 397.974,336.628 L 403.737,343.028 L 403.669,334.414 L 411.529,330.909 Z" fill="#e5e5e5" stroke="none" stroke-width="0.133" fill-rule="evenodd" marker-start="none" marker-end="none" stroke-miterlimit="79.8403193612775"/>
       <path d="M 399.204,321.264 L 400.109,329.825 L 408.319,332.424 L 400.461,335.929 L 400.524,344.543 L 394.754,338.139 L 386.59,340.865 L 390.892,333.401 L 385.774,326.474 L 394.198,328.27 L 399.204,321.264 Z" fill="#032896" stroke="none" stroke-linejoin="miter" stroke-width="0.194" marker-start="none" marker-end="none" stroke-miterlimit="79.8403193612775"/>
      </g>
      <g id="Group_39">
       <path d="M 388.673,365.065 L 387.238,356.34 L 394.668,351.659 L 385.917,350.201 L 383.646,341.647 L 379.682,349.475 L 370.843,348.872 L 377.136,355.157 L 373.952,363.344 L 381.811,359.409 L 388.673,365.065 Z" fill="#e5e5e5" stroke="none" stroke-width="0.133" fill-rule="evenodd" marker-start="none" marker-end="none" stroke-miterlimit="79.8403193612775"/>
       <path d="M 379.877,344.602 L 381.793,351.781 L 389.135,353.005 L 382.898,356.938 L 384.096,364.269 L 378.341,359.511 L 371.742,362.819 L 374.417,355.95 L 369.128,350.666 L 376.55,351.17 L 379.877,344.602 Z" fill="#fffaff" stroke="none" stroke-linejoin="miter" stroke-width="0.884" marker-start="none" marker-end="none" stroke-miterlimit="79.8403193612775"/>
       <path d="M 391.264,352.688 L 382.521,351.238 L 380.249,342.684 L 376.275,350.508 L 367.447,349.907 L 373.734,356.199 L 370.554,364.383 L 378.411,360.444 L 385.276,366.101 L 383.839,357.371 L 391.264,352.688 Z M 387.319,353.48 L 382.277,356.664 L 383.253,362.593 L 378.586,358.749 L 373.242,361.429 L 375.409,355.859 L 371.132,351.586 L 377.133,351.997 L 379.833,346.672 L 381.382,352.491 L 387.319,353.48 Z" fill="#ed0000" stroke="none" stroke-width="0.22" fill-rule="evenodd" marker-start="none" marker-end="none" stroke-miterlimit="79.8403193612775"/>
      </g>
      <g id="Group_40">
       <path d="M 374.073,379.634 L 366.937,374.826 L 368.493,366.349 L 361.703,371.653 L 354.139,367.552 L 357.078,375.637 L 350.846,381.582 L 359.451,381.28 L 363.168,389.051 L 365.541,380.768 L 374.073,379.634 Z" fill="#e5e5e5" stroke="none" stroke-width="0.133" fill-rule="evenodd" marker-start="none" marker-end="none" stroke-miterlimit="79.8403193612775"/>
       <path d="M 364.982,366.895 L 363.428,375.362 L 370.567,380.178 L 362.037,381.316 L 359.659,389.596 L 355.938,381.82 L 347.335,382.124 L 353.575,376.183 L 350.626,368.09 L 358.197,372.196 L 364.982,366.895 Z" fill="#032896" stroke="none" stroke-linejoin="miter" stroke-width="0.194" marker-start="none" marker-end="none" stroke-miterlimit="79.8403193612775"/>
      </g>
      <g id="Group_41">
       <path d="M 342.418,405.844 L 343.514,397.069 L 351.966,394.688 L 343.987,390.808 L 344.235,381.961 L 338.215,388.344 L 329.908,385.261 L 334.163,393.072 L 328.788,400.021 L 337.44,398.473 L 342.418,405.844 Z" fill="#e5e5e5" stroke="none" stroke-width="0.133" fill-rule="evenodd" marker-start="none" marker-end="none" stroke-miterlimit="79.8403193612775"/>
       <path d="M 339.782,383.726 L 339.584,391.156 L 346.277,394.41 L 339.182,396.414 L 338.252,403.785 L 334.082,397.591 L 326.816,398.891 L 331.33,393.062 L 327.756,386.496 L 334.729,389.084 L 339.782,383.726 Z" fill="#fffaff" stroke="none" stroke-linejoin="miter" stroke-width="0.884" marker-start="none" marker-end="none" stroke-miterlimit="79.8403193612775"/>
       <path d="M 348.408,394.709 L 340.435,390.841 L 340.682,381.994 L 334.652,388.372 L 326.358,385.292 L 330.603,393.106 L 325.233,400.053 L 333.883,398.504 L 338.865,405.875 L 339.962,397.097 L 348.408,394.709 Z M 344.401,394.351 L 338.665,395.974 L 337.919,401.937 L 334.533,396.928 L 328.65,397.984 L 332.305,393.256 L 329.415,387.947 L 335.054,390.042 L 339.153,385.701 L 338.989,391.72 L 344.401,394.351 Z" fill="#ed0000" stroke="none" stroke-width="0.22" fill-rule="evenodd" marker-start="none" marker-end="none" stroke-miterlimit="79.8403193612775"/>
      </g>
      <g id="Group_42">
       <path d="M 324.225,415.6 L 318.754,408.96 L 322.658,401.277 L 314.639,404.429 L 308.555,398.345 L 309.07,406.932 L 301.403,410.857 L 309.738,413.017 L 311.091,421.525 L 315.723,414.261 L 324.225,415.6 Z" fill="#e5e5e5" stroke="none" stroke-width="0.133" fill-rule="evenodd" marker-start="none" marker-end="none" stroke-miterlimit="79.8403193612775"/>
       <path d="M 319.136,400.801 L 315.237,408.474 L 320.71,415.124 L 312.207,413.786 L 307.572,421.047 L 306.219,412.533 L 297.884,410.376 L 305.556,406.457 L 305.034,397.861 L 311.123,403.953 L 319.136,400.801 Z" fill="#032896" stroke="none" stroke-linejoin="miter" stroke-width="0.194" marker-start="none" marker-end="none" stroke-miterlimit="79.8403193612775"/>
      </g>
      <g id="Group_43">
       <path d="M 286.334,431.617 L 289.91,423.527 L 298.691,423.681 L 292.168,417.667 L 294.952,409.268 L 287.349,413.646 L 280.283,408.3 L 282.107,417.006 L 274.958,422.113 L 283.69,423.124 L 286.334,431.617 Z" fill="#e5e5e5" stroke="none" stroke-width="0.133" fill-rule="evenodd" marker-start="none" marker-end="none" stroke-miterlimit="79.8403193612775"/>
       <path d="M 290.18,409.675 L 287.849,416.735 L 293.322,421.778 L 285.949,421.653 L 282.936,428.444 L 280.727,421.312 L 273.395,420.463 L 279.396,416.182 L 277.865,408.864 L 283.796,413.35 L 290.18,409.675 Z" fill="#fffaff" stroke="none" stroke-linejoin="miter" stroke-width="0.884" marker-start="none" marker-end="none" stroke-miterlimit="79.8403193612775"/>
       <path d="M 295.277,422.677 L 288.758,416.678 L 291.541,408.276 L 283.93,412.647 L 276.875,407.309 L 278.689,416.014 L 271.545,421.12 L 280.275,422.128 L 282.923,430.622 L 286.502,422.531 L 295.277,422.677 Z M 291.544,421.182 L 285.583,421.082 L 283.15,426.578 L 281.351,420.804 L 275.412,420.122 L 280.275,416.647 L 279.038,410.732 L 283.833,414.363 L 289.008,411.385 L 287.118,417.102 L 291.544,421.182 Z" fill="#ed0000" stroke="none" stroke-width="0.22" fill-rule="evenodd" marker-start="none" marker-end="none" stroke-miterlimit="79.8403193612775"/>
      </g>
      <g id="Group_44">
       <path d="M 266.032,435.719 L 262.749,427.768 L 268.733,421.567 L 260.141,422.228 L 256.109,414.63 L 254.085,422.989 L 245.604,424.496 L 252.939,429.003 L 251.738,437.533 L 258.297,431.946 L 266.032,435.719 Z" fill="#e5e5e5" stroke="none" stroke-width="0.133" fill-rule="evenodd" marker-start="none" marker-end="none" stroke-miterlimit="79.8403193612775"/>
       <path d="M 265.505,420.078 L 259.529,426.271 L 262.812,434.233 L 255.073,430.462 L 248.515,436.046 L 249.718,427.509 L 242.381,423.002 L 250.865,421.507 L 252.886,413.133 L 256.922,420.743 L 265.505,420.078 Z" fill="#032896" stroke="none" stroke-linejoin="miter" stroke-width="0.194" marker-start="none" marker-end="none" stroke-miterlimit="79.8403193612775"/>
      </g>
     </g>
     <g id="Group_45">
      <g id="Group_46">
       <path d="M 245.474,389.573 L 240.885,370.744 L 256.31,359.012 L 236.985,357.558 L 230.594,339.259 L 223.239,357.19 L 203.864,357.616 L 218.645,370.153 L 213.062,388.713 L 229.552,378.528 L 245.474,389.573 Z" fill="#e5e5e5" stroke="none" stroke-width="0.301" fill-rule="evenodd" marker-start="none" marker-end="none" stroke-miterlimit="79.8403193612775"/>
       <path d="M 249.645,354.595 L 234.22,366.327 L 238.808,385.157 L 222.884,374.111 L 206.395,384.295 L 211.978,365.737 L 197.197,353.198 L 216.573,352.774 L 223.926,334.841 L 230.319,353.14 L 249.645,354.595 Z" fill="#032896" stroke="none" stroke-linejoin="miter" stroke-width="0.436" marker-start="none" marker-end="none" stroke-miterlimit="79.8403193612775"/>
      </g>
      <g id="Group_47">
       <path d="M 141.386,367.398 L 160.198,360.924 L 173.39,375.63 L 173.315,355.687 L 191.437,347.414 L 172.577,341.562 L 170.584,321.744 L 159.005,338.071 L 139.65,334.095 L 151.351,350.039 L 141.386,367.398 Z" fill="#e5e5e5" stroke="none" stroke-width="0.301" fill-rule="evenodd" marker-start="none" marker-end="none" stroke-miterlimit="79.8403193612775"/>
       <path d="M 183.466,340.169 L 168.242,347.116 L 168.307,363.867 L 157.225,351.514 L 141.424,356.953 L 149.796,342.37 L 139.966,328.979 L 156.224,332.32 L 165.951,318.605 L 167.625,335.253 L 183.466,340.169 Z" fill="#fffaff" stroke="none" stroke-linejoin="miter" stroke-width="1.989" marker-start="none" marker-end="none" stroke-miterlimit="79.8403193612775"/>
       <path d="M 169.804,368.483 L 169.73,348.54 L 187.849,340.267 L 168.992,334.417 L 166.997,314.597 L 155.42,330.924 L 136.063,326.948 L 147.766,342.892 L 137.801,360.253 L 156.613,353.779 L 169.804,368.483 Z M 166.573,360.041 L 157.601,350.042 L 144.811,354.445 L 151.587,342.641 L 143.629,331.8 L 156.792,334.506 L 164.663,323.405 L 166.019,336.88 L 178.841,340.857 L 166.519,346.482 L 166.573,360.041 Z" fill="#ed0000" stroke="none" stroke-width="0.496" fill-rule="evenodd" marker-start="none" marker-end="none" stroke-miterlimit="79.8403193612775"/>
      </g>
      <g id="Group_48">
       <path d="M 96.573,325.239 L 110.418,311.68 L 128.381,318.953 L 119.765,301.592 L 132.235,286.754 L 113.062,289.586 L 102.803,273.145 L 99.572,292.255 L 80.763,296.933 L 97.938,305.909 L 96.573,325.239 Z" fill="#e5e5e5" stroke="none" stroke-width="0.301" fill-rule="evenodd" marker-start="none" marker-end="none" stroke-miterlimit="79.8403193612775"/>
       <path d="M 128.778,310.966 L 110.814,303.692 L 96.968,317.251 L 98.335,297.921 L 81.158,288.942 L 99.967,284.268 L 103.199,265.156 L 113.459,281.6 L 132.63,278.766 L 120.16,293.605 L 128.778,310.966 Z" fill="#032896" stroke="none" stroke-linejoin="miter" stroke-width="0.436" marker-start="none" marker-end="none" stroke-miterlimit="79.8403193612775"/>
      </g>
      <g id="Group_49">
       <path d="M 63.335,224.124 L 78.476,237.027 L 72.522,255.866 L 89.655,245.66 L 105.993,257.055 L 101.442,237.842 L 117.493,226.048 L 97.546,224.38 L 91.126,205.692 L 83.349,223.875 L 63.335,224.124 Z" fill="#e5e5e5" stroke="none" stroke-width="0.301" fill-rule="evenodd" marker-start="none" marker-end="none" stroke-miterlimit="79.8403193612775"/>
       <path d="M 108.178,246.512 L 94.457,236.935 L 80.065,245.51 L 85.065,229.686 L 72.348,218.844 L 89.161,218.638 L 95.692,203.363 L 101.085,219.062 L 117.839,220.463 L 104.357,230.37 L 108.178,246.512 Z" fill="#fffaff" stroke="none" stroke-linejoin="miter" stroke-width="1.989" marker-start="none" marker-end="none" stroke-miterlimit="79.8403193612775"/>
       <path d="M 76.854,249.145 L 93.988,238.939 L 110.325,250.333 L 105.774,231.121 L 121.825,219.324 L 101.878,217.658 L 95.458,198.969 L 87.682,217.154 L 67.665,217.403 L 82.807,230.307 L 76.854,249.145 Z M 82.479,242.069 L 86.526,229.258 L 76.229,220.484 L 89.84,220.317 L 95.128,207.951 L 99.49,220.66 L 113.052,221.793 L 102.141,229.812 L 105.236,242.877 L 94.127,235.127 L 82.479,242.069 Z" fill="#ed0000" stroke="none" stroke-width="0.496" fill-rule="evenodd" marker-start="none" marker-end="none" stroke-miterlimit="79.8403193612775"/>
      </g>
      <g id="Group_50">
       <path d="M 77.439,163.659 L 96.056,169.038 L 98.565,188.255 L 109.436,172.212 L 128.49,175.764 L 116.589,160.465 L 125.852,143.443 L 107.625,150.037 L 94.297,135.966 L 94.936,155.336 L 77.439,163.659 Z" fill="#e5e5e5" stroke="none" stroke-width="0.301" fill-rule="evenodd" marker-start="none" marker-end="none" stroke-miterlimit="79.8403193612775"/>
       <path d="M 105.714,184.669 L 103.204,165.451 L 84.587,160.071 L 102.086,151.747 L 101.449,132.376 L 114.774,146.448 L 133.002,139.857 L 123.738,156.88 L 135.639,172.173 L 116.584,168.622 L 105.714,184.669 Z" fill="#032896" stroke="none" stroke-linejoin="miter" stroke-width="0.436" marker-start="none" marker-end="none" stroke-miterlimit="79.8403193612775"/>
      </g>
      <g id="Group_51">
       <path d="M 148.455,84.581 L 144.824,104.141 L 125.527,108.377 L 142.919,118.136 L 141.193,137.982 L 155.574,124.452 L 173.803,132.481 L 165.299,114.362 L 178.294,99.475 L 158.654,101.804 L 148.455,84.581 Z" fill="#e5e5e5" stroke="none" stroke-width="0.301" fill-rule="evenodd" marker-start="none" marker-end="none" stroke-miterlimit="79.8403193612775"/>
       <path d="M 151.42,134.612 L 152.878,117.944 L 138.267,109.747 L 154.475,106.187 L 157.528,89.758 L 166.094,104.227 L 182.591,102.269 L 171.674,114.773 L 178.815,129.993 L 163.504,123.249 L 151.42,134.612 Z" fill="#fffaff" stroke="none" stroke-linejoin="miter" stroke-width="1.989" marker-start="none" marker-end="none" stroke-miterlimit="79.8403193612775"/>
       <path d="M 133.513,108.778 L 150.904,118.539 L 149.178,138.38 L 163.56,124.853 L 181.79,132.88 L 173.284,114.76 L 186.281,99.875 L 166.64,102.205 L 156.44,84.983 L 152.809,104.543 L 133.513,108.778 Z M 142.451,110.124 L 155.572,107.241 L 158.041,93.94 L 164.975,105.654 L 178.331,104.068 L 169.492,114.189 L 175.275,126.51 L 162.882,121.052 L 153.102,130.251 L 154.277,116.757 L 142.451,110.124 Z" fill="#ed0000" stroke="none" stroke-width="0.496" fill-rule="evenodd" marker-start="none" marker-end="none" stroke-miterlimit="79.8403193612775"/>
      </g>
      <g id="Group_52">
       <path d="M 207.57,66.787 L 212.406,85.552 L 197.135,97.484 L 216.476,98.686 L 223.107,116.899 L 230.228,98.872 L 249.596,98.191 L 234.649,85.851 L 239.987,67.217 L 223.634,77.618 L 207.57,66.787 Z" fill="#e5e5e5" stroke="none" stroke-width="0.301" fill-rule="evenodd" marker-start="none" marker-end="none" stroke-miterlimit="79.8403193612775"/>
       <path d="M 203.858,101.818 L 219.13,89.883 L 214.294,71.117 L 230.36,81.951 L 246.714,71.552 L 241.375,90.182 L 256.32,102.526 L 236.95,103.205 L 229.835,121.229 L 223.203,103.018 L 203.858,101.818 Z" fill="#032896" stroke="none" stroke-linejoin="miter" stroke-width="0.436" marker-start="none" marker-end="none" stroke-miterlimit="79.8403193612775"/>
      </g>
      <g id="Group_53">
       <path d="M 312.024,88.71 L 293.21,95.176 L 280.025,80.463 L 280.091,100.406 L 261.967,108.669 L 280.821,114.529 L 282.802,134.35 L 294.391,118.03 L 313.746,122.014 L 302.052,106.064 L 312.024,88.71 Z" fill="#e5e5e5" stroke="none" stroke-width="0.301" fill-rule="evenodd" marker-start="none" marker-end="none" stroke-miterlimit="79.8403193612775"/>
       <path d="M 269.931,115.914 L 285.159,108.98 L 285.104,92.227 L 296.181,104.583 L 311.983,99.154 L 303.604,113.733 L 313.43,127.131 L 297.171,123.781 L 287.436,137.489 L 285.772,120.842 L 269.931,115.914 Z" fill="#fffaff" stroke="none" stroke-linejoin="miter" stroke-width="1.989" marker-start="none" marker-end="none" stroke-miterlimit="79.8403193612775"/>
       <path d="M 283.607,87.611 L 283.67,107.553 L 265.551,115.816 L 284.403,121.677 L 286.388,141.497 L 297.975,125.175 L 317.33,129.162 L 305.634,113.211 L 315.606,95.857 L 296.792,102.322 L 283.607,87.611 Z M 286.835,96.053 L 295.804,106.056 L 308.596,101.659 L 301.813,113.461 L 309.768,124.306 L 296.607,121.594 L 288.729,132.691 L 287.38,119.217 L 274.557,115.231 L 286.882,109.612 L 286.835,96.053 Z" fill="#ed0000" stroke="none" stroke-width="0.496" fill-rule="evenodd" marker-start="none" marker-end="none" stroke-miterlimit="79.8403193612775"/>
      </g>
      <g id="Group_54">
       <path d="M 356.843,130.866 L 342.992,144.416 L 325.035,137.133 L 333.638,154.494 L 321.161,169.327 L 340.338,166.507 L 350.589,182.954 L 353.828,163.845 L 372.641,159.175 L 355.468,150.19 L 356.843,130.866 Z" fill="#e5e5e5" stroke="none" stroke-width="0.301" fill-rule="evenodd" marker-start="none" marker-end="none" stroke-miterlimit="79.8403193612775"/>
       <path d="M 324.63,145.122 L 342.592,152.405 L 356.445,138.853 L 355.067,158.182 L 372.239,167.169 L 353.429,171.835 L 350.186,190.945 L 339.936,174.496 L 320.765,177.317 L 333.238,162.487 L 324.63,145.122 Z" fill="#032896" stroke="none" stroke-linejoin="miter" stroke-width="0.436" marker-start="none" marker-end="none" stroke-miterlimit="79.8403193612775"/>
      </g>
      <g id="Group_55">
       <path d="M 390.086,231.911 L 374.921,219.036 L 380.839,200.187 L 363.725,210.426 L 347.366,199.063 L 351.954,218.266 L 335.923,230.09 L 355.873,231.722 L 362.329,250.396 L 370.074,232.198 L 390.086,231.911 Z" fill="#e5e5e5" stroke="none" stroke-width="0.301" fill-rule="evenodd" marker-start="none" marker-end="none" stroke-miterlimit="79.8403193612775"/>
       <path d="M 345.202,209.611 L 358.939,219.165 L 373.315,210.563 L 368.348,226.396 L 381.083,237.211 L 364.27,237.45 L 357.767,252.738 L 352.346,237.049 L 335.588,235.677 L 349.053,225.747 L 345.202,209.611 Z" fill="#fffaff" stroke="none" stroke-linejoin="miter" stroke-width="1.989" marker-start="none" marker-end="none" stroke-miterlimit="79.8403193612775"/>
       <path d="M 376.52,206.917 L 359.405,217.154 L 343.049,205.794 L 347.636,224.996 L 331.606,236.823 L 351.558,238.451 L 358.01,257.129 L 365.755,238.928 L 385.769,238.641 L 370.602,225.765 L 376.52,206.917 Z M 370.91,214.002 L 366.888,226.822 L 377.2,235.576 L 363.589,235.769 L 358.326,248.147 L 353.937,235.446 L 340.373,234.337 L 351.27,226.298 L 348.151,213.238 L 359.275,220.967 L 370.91,214.002 Z" fill="#ed0000" stroke="none" stroke-width="0.496" fill-rule="evenodd" marker-start="none" marker-end="none" stroke-miterlimit="79.8403193612775"/>
      </g>
      <g id="Group_56">
       <path d="M 375.969,292.45 L 357.357,287.062 L 354.859,267.846 L 343.98,283.881 L 324.929,280.319 L 336.82,295.624 L 327.549,312.643 L 345.778,306.057 L 359.101,320.135 L 358.47,300.765 L 375.969,292.45 Z" fill="#e5e5e5" stroke="none" stroke-width="0.301" fill-rule="evenodd" marker-start="none" marker-end="none" stroke-miterlimit="79.8403193612775"/>
       <path d="M 347.704,271.425 L 350.205,290.646 L 368.821,296.035 L 351.316,304.348 L 351.943,323.719 L 338.625,309.641 L 320.393,316.223 L 329.669,299.205 L 317.776,283.905 L 336.824,287.465 L 347.704,271.425 Z" fill="#032896" stroke="none" stroke-linejoin="miter" stroke-width="0.436" marker-start="none" marker-end="none" stroke-miterlimit="79.8403193612775"/>
      </g>
      <g id="Group_57">
       <path d="M 304.974,371.507 L 308.596,351.945 L 327.891,347.7 L 310.491,337.951 L 312.207,318.106 L 297.834,331.643 L 279.6,323.621 L 288.113,341.736 L 275.127,356.63 L 294.767,354.292 L 304.974,371.507 Z" fill="#e5e5e5" stroke="none" stroke-width="0.301" fill-rule="evenodd" marker-start="none" marker-end="none" stroke-miterlimit="79.8403193612775"/>
       <path d="M 301.984,321.479 L 300.532,338.147 L 315.148,346.336 L 298.942,349.907 L 295.9,366.335 L 287.326,351.872 L 270.828,353.839 L 281.739,341.33 L 274.589,326.111 L 289.904,332.849 L 301.984,321.479 Z" fill="#fffaff" stroke="none" stroke-linejoin="miter" stroke-width="1.989" marker-start="none" marker-end="none" stroke-miterlimit="79.8403193612775"/>
       <path d="M 319.903,347.301 L 302.507,337.551 L 304.222,317.71 L 289.848,331.244 L 271.615,323.225 L 280.13,341.341 L 267.14,356.233 L 286.781,353.894 L 296.99,371.112 L 300.612,351.547 L 319.903,347.301 Z M 310.965,345.961 L 297.845,348.85 L 295.383,362.153 L 288.443,350.443 L 275.088,352.036 L 283.921,341.91 L 278.133,329.593 L 290.528,335.044 L 300.303,325.84 L 299.136,339.335 L 310.965,345.961 Z" fill="#ed0000" stroke="none" stroke-width="0.496" fill-rule="evenodd" marker-start="none" marker-end="none" stroke-miterlimit="79.8403193612775"/>
      </g>
     </g>
    </g>
   </g>
  </g>
 </g>
</svg>
