<?xml version="1.0" encoding="UTF-8" standalone="no"?>
<!-- Created with Inkscape (http://www.inkscape.org/) -->
<svg
    xmlns:inkscape="http://www.inkscape.org/namespaces/inkscape"
    xmlns:rdf="http://www.w3.org/1999/02/22-rdf-syntax-ns#"
    xmlns="http://www.w3.org/2000/svg"
    xmlns:sodipodi="http://sodipodi.sourceforge.net/DTD/sodipodi-0.dtd"
    xmlns:cc="http://creativecommons.org/ns#"
    xmlns:xlink="http://www.w3.org/1999/xlink"
    xmlns:dc="http://purl.org/dc/elements/1.1/"
    xmlns:svg="http://www.w3.org/2000/svg"
    xmlns:ns1="http://sozi.baierouge.fr"
    id="svg4969"
    sodipodi:docname="Новый документ 4"
    viewBox="0 0 533.6 755.89"
    version="1.1"
    inkscape:version="0.48.0 r9654"
  >
  <defs
      id="defs4971"
    >
    <radialGradient
        id="radialGradient4731"
        gradientUnits="userSpaceOnUse"
        cy="5965.9"
        cx="467.51"
        gradientTransform="matrix(.52452 -.023833 .026082 .56894 -202.22 2610.4)"
        r="160.1"
        inkscape:collect="always"
      >
      <stop
          id="stop3627"
          style="stop-color:#550000"
          offset="0"
      />
      <stop
          id="stop3629"
          style="stop-color:#b01489"
          offset=".65451"
      />
      <stop
          id="stop3631"
          style="stop-color:#f9eef9"
          offset="1"
      />
    </radialGradient
    >
    <radialGradient
        id="radialGradient4733"
        gradientUnits="userSpaceOnUse"
        cy="6369.9"
        cx="473.42"
        gradientTransform="matrix(-.63405 -.013333 .010141 -.63019 483.66 10337)"
        r="178.66"
        inkscape:collect="always"
      >
      <stop
          id="stop6879"
          style="stop-color:#550000"
          offset="0"
      />
      <stop
          id="stop6881"
          style="stop-color:#b01489"
          offset=".68667"
      />
      <stop
          id="stop6883"
          style="stop-color:#f9eef9"
          offset="1"
      />
    </radialGradient
    >
    <radialGradient
        id="radialGradient4735"
        gradientUnits="userSpaceOnUse"
        cy="6420.2"
        cx="582.75"
        gradientTransform="matrix(-1.081 .096962 -.064847 -1.0455 1311.8 12939)"
        r="178.66"
        inkscape:collect="always"
      >
      <stop
          id="stop3585"
          style="stop-color:#550000"
          offset="0"
      />
      <stop
          id="stop3587"
          style="stop-color:#b01489"
          offset=".58737"
      />
      <stop
          id="stop3589"
          style="stop-color:#f9eef9"
          offset="1"
      />
    </radialGradient
    >
    <radialGradient
        id="radialGradient4737"
        xlink:href="#linearGradient6917"
        gradientUnits="userSpaceOnUse"
        cy="6371.4"
        cx="312.97"
        gradientTransform="matrix(-.15480 .71502 -1.3461 -.38081 8783.4 8515.7)"
        r="149.26"
        inkscape:collect="always"
    />
    <linearGradient
        id="linearGradient6917"
      >
      <stop
          id="stop6919"
          style="stop-color:#550000"
          offset="0"
      />
      <stop
          id="stop6921"
          style="stop-color:#b01489"
          offset=".69081"
      />
      <stop
          id="stop6923"
          style="stop-color:#f9eef9"
          offset="1"
      />
    </linearGradient
    >
    <radialGradient
        id="radialGradient4739"
        xlink:href="#linearGradient5505"
        gradientUnits="userSpaceOnUse"
        cy="6007.9"
        cx="708.25"
        gradientTransform="matrix(.63416 0 0 .76452 -52.132 1460.9)"
        r="154.37"
        inkscape:collect="always"
    />
    <linearGradient
        id="linearGradient5505"
      >
      <stop
          id="stop5507"
          style="stop-color:#550000"
          offset="0"
      />
      <stop
          id="stop5509"
          style="stop-color:#b01489"
          offset=".54698"
      />
      <stop
          id="stop5511"
          style="stop-color:#f9eef9"
          offset="1"
      />
    </linearGradient
    >
    <radialGradient
        id="radialGradient4741"
        xlink:href="#linearGradient5505"
        gradientUnits="userSpaceOnUse"
        cy="6005.7"
        cx="299.74"
        gradientTransform="matrix(.63416 0 0 .71877 -52.132 1735.7)"
        r="159.53"
        inkscape:collect="always"
    />
    <linearGradient
        id="linearGradient4743"
        y2="6421.7"
        gradientUnits="userSpaceOnUse"
        x2="338.21"
        gradientTransform="matrix(.24737 -.59536 .73620 .31460 -4283.5 4463.9)"
        y1="6269.2"
        x1="376.73"
        inkscape:collect="always"
      >
      <stop
          id="stop6847"
          style="stop-color:#550000"
          offset="0"
      />
      <stop
          id="stop6849"
          style="stop-color:#b01489"
          offset=".74655"
      />
      <stop
          id="stop6851"
          style="stop-color:#f9eef9"
          offset="1"
      />
    </linearGradient
    >
    <radialGradient
        id="radialGradient4745"
        gradientUnits="userSpaceOnUse"
        cy="5973.1"
        cx="602.17"
        gradientTransform="matrix(.63378 .025241 -.024055 .78927 91.782 1299.2)"
        r="150.64"
        inkscape:collect="always"
      >
      <stop
          id="stop7011"
          style="stop-color:#550000"
          offset="0"
      />
      <stop
          id="stop7013"
          style="stop-color:#b01489"
          offset=".40719"
      />
      <stop
          id="stop7015"
          style="stop-color:#f9eef9"
          offset="1"
      />
    </radialGradient
    >
    <radialGradient
        id="radialGradient4747"
        xlink:href="#linearGradient5505"
        gradientUnits="userSpaceOnUse"
        cy="6065.5"
        cx="702.61"
        gradientTransform="matrix(.38177 .39146 -.48781 .62165 3093.6 2068)"
        r="226.21"
        inkscape:collect="always"
    />
    <linearGradient
        id="linearGradient4749"
        y2="6411.7"
        gradientUnits="userSpaceOnUse"
        x2="421.93"
        gradientTransform="matrix(.17601 .59505 -.55695 .41966 3524.3 3402.2)"
        y1="6224.1"
        x1="390.2"
        inkscape:collect="always"
      >
      <stop
          id="stop6839"
          style="stop-color:#550000"
          offset="0"
      />
      <stop
          id="stop6841"
          style="stop-color:#b01489"
          offset=".84783"
      />
      <stop
          id="stop6843"
          style="stop-color:#f9eef9"
          offset="1"
      />
    </linearGradient
    >
    <linearGradient
        id="linearGradient4751"
        y2="6445.2"
        xlink:href="#linearGradient6825"
        gradientUnits="userSpaceOnUse"
        x2="270.49"
        gradientTransform="matrix(.94960 .31648 .24318 -.82708 -1560.1 11150)"
        y1="6289.2"
        x1="346.11"
        inkscape:collect="always"
    />
    <linearGradient
        id="linearGradient6825"
      >
      <stop
          id="stop6827"
          style="stop-color:#550000"
          offset="0"
      />
      <stop
          id="stop6829"
          style="stop-color:#b01489"
          offset=".67739"
      />
      <stop
          id="stop6831"
          style="stop-color:#efd4ef"
          offset="1"
      />
    </linearGradient
    >
    <radialGradient
        id="radialGradient4753"
        xlink:href="#linearGradient5505"
        gradientUnits="userSpaceOnUse"
        cy="6105.9"
        cx="301.67"
        gradientTransform="matrix(.27067 -0.328 .51170 .55178 -3074.9 2880.6)"
        r="293.77"
        inkscape:collect="always"
    />
    <radialGradient
        id="radialGradient4755"
        gradientUnits="userSpaceOnUse"
        cy="6336.3"
        cx="600.21"
        gradientTransform="matrix(.30030 .57787 -0.806 .54732 5278.3 2454.8)"
        r="178.1"
        inkscape:collect="always"
      >
      <stop
          id="stop6889"
          style="stop-color:#550000"
          offset="0"
      />
      <stop
          id="stop6891"
          style="stop-color:#b01489"
          offset=".59769"
      />
      <stop
          id="stop6893"
          style="stop-color:#f9eef9"
          offset="1"
      />
    </radialGradient
    >
    <radialGradient
        id="radialGradient4757"
        gradientUnits="userSpaceOnUse"
        cy="6312.8"
        cx="412.65"
        gradientTransform="matrix(.064724 -1.5488 .90683 -.53111 -5298.2 10213)"
        r="178.66"
        inkscape:collect="always"
      >
      <stop
          id="stop3601"
          style="stop-color:#550000"
          offset="0"
      />
      <stop
          id="stop3603"
          style="stop-color:#b01489"
          offset=".44666"
      />
      <stop
          id="stop3605"
          style="stop-color:#f9eef9"
          offset="1"
      />
    </radialGradient
    >
    <linearGradient
        id="linearGradient4759"
        y2="6445.2"
        xlink:href="#linearGradient6825"
        gradientUnits="userSpaceOnUse"
        x2="270.49"
        gradientTransform="matrix(.98518 -.068563 -.0011237 -.87526 -132.05 11601)"
        y1="6289.2"
        x1="346.11"
        inkscape:collect="always"
    />
    <linearGradient
        id="linearGradient4761"
        y2="6445.2"
        xlink:href="#linearGradient6825"
        gradientUnits="userSpaceOnUse"
        x2="270.49"
        gradientTransform="matrix(.75767 .037428 .051159 -.87174 -348.34 11548)"
        y1="6289.2"
        x1="346.11"
        inkscape:collect="always"
    />
    <radialGradient
        id="radialGradient4763"
        gradientUnits="userSpaceOnUse"
        cy="6119.6"
        cx="304.37"
        gradientTransform="matrix(.68080 -.36156 .53549 1.3176 -3335.6 -1816.2)"
        r="124.34"
        inkscape:collect="always"
      >
      <stop
          id="stop3619"
          style="stop-color:#550000"
          offset="0"
      />
      <stop
          id="stop3621"
          style="stop-color:#b01489"
          offset=".62013"
      />
      <stop
          id="stop3623"
          style="stop-color:#f9eef9"
          offset="1"
      />
    </radialGradient
    >
    <radialGradient
        id="radialGradient4765"
        gradientUnits="userSpaceOnUse"
        cy="6075.9"
        cx="609.33"
        gradientTransform="matrix(.93945 .029145 -.022150 0.933 -109.68 417.7)"
        r="142.32"
        inkscape:collect="always"
      >
      <stop
          id="stop3609"
          style="stop-color:#550000"
          offset="0"
      />
      <stop
          id="stop3611"
          style="stop-color:#820a44"
          offset=".58654"
      />
      <stop
          id="stop3613"
          style="stop-color:#8a0d6b"
          offset=".74770"
      />
      <stop
          id="stop3615"
          style="stop-color:#f9eef9"
          offset="1"
      />
    </radialGradient
    >
    <radialGradient
        id="radialGradient4767"
        gradientUnits="userSpaceOnUse"
        cy="6161.6"
        cx="462.14"
        gradientTransform="matrix(1 0 0 .42488 0 3543.7)"
        r="99.468"
        inkscape:collect="always"
      >
      <stop
          id="stop7147"
          style="stop-color:#ffde00"
          offset="0"
      />
      <stop
          id="stop7149"
          style="stop-color:#ffff00"
          offset="1"
      />
    </radialGradient
    >
    <filter
        id="filter7161"
        width="1.1097"
        y="-.12912"
        x="-.054860"
        height="1.2582"
        color-interpolation-filters="sRGB"
        inkscape:collect="always"
      >
      <feGaussianBlur
          id="feGaussianBlur7163"
          stdDeviation="4.5472899"
          inkscape:collect="always"
      />
    </filter
    >
    <radialGradient
        id="radialGradient4769"
        gradientUnits="userSpaceOnUse"
        cy="6215.3"
        cx="209.65"
        gradientTransform="matrix(-.63820 .092668 -.083299 -.95805 792.52 12142)"
        r="147.45"
        inkscape:collect="always"
      >
      <stop
          id="stop3635"
          style="stop-color:#550000"
          offset="0"
      />
      <stop
          id="stop3637"
          style="stop-color:#b01489"
          offset=".62003"
      />
      <stop
          id="stop3639"
          style="stop-color:#f9eef9"
          offset="1"
      />
    </radialGradient
    >
    <radialGradient
        id="radialGradient4771"
        xlink:href="#linearGradient5505"
        gradientUnits="userSpaceOnUse"
        cy="6201.6"
        cx="613.82"
        gradientTransform="matrix(.76164 .29789 -.56169 1.8507 3371.8 -5465.2)"
        r="112.7"
        inkscape:collect="always"
    />
    <radialGradient
        id="radialGradient4773"
        xlink:href="#linearGradient6917"
        gradientUnits="userSpaceOnUse"
        cy="6371.4"
        cx="312.97"
        gradientTransform="matrix(.069691 -.54872 -1.9817 .32631 12900 4319.9)"
        r="149.26"
        inkscape:collect="always"
    />
    <radialGradient
        id="radialGradient4775"
        gradientUnits="userSpaceOnUse"
        cy="6197.7"
        cx="622.72"
        gradientTransform="matrix(.78394 -1.2653 .38166 .32848 -2487.3 5022.3)"
        r="105.1"
        inkscape:collect="always"
      >
      <stop
          id="stop6973"
          style="stop-color:#550000"
          offset="0"
      />
      <stop
          id="stop6975"
          style="stop-color:#b01489"
          offset=".75472"
      />
      <stop
          id="stop6977"
          style="stop-color:#f9eef9"
          offset="1"
      />
    </radialGradient
    >
    <radialGradient
        id="radialGradient4967"
        gradientUnits="userSpaceOnUse"
        cx="324.06"
        cy="6338.1"
        r="149.26"
        gradientTransform="matrix(-0.0156 -.55476 -1.3845 -.0010930 9029.6 6465.3)"
        inkscape:collect="always"
      >
      <stop
          id="stop3559"
          style="stop-color:#550000"
          offset="0"
      />
      <stop
          id="stop3561"
          style="stop-color:#b01489"
          offset=".54091"
      />
      <stop
          id="stop3563"
          style="stop-color:#f9eef9"
          offset="1"
      />
    </radialGradient
    >
  </defs
  >
  <sodipodi:namedview
      id="base"
      bordercolor="#666666"
      inkscape:pageshadow="2"
      inkscape:window-y="92"
      fit-margin-left="0"
      pagecolor="#ffffff"
      fit-margin-top="0"
      inkscape:window-maximized="0"
      inkscape:zoom="0.35"
      inkscape:window-x="92"
      inkscape:window-height="870"
      showgrid="false"
      borderopacity="1.0"
      inkscape:current-layer="layer1"
      inkscape:cx="-244.22679"
      inkscape:cy="323.65915"
      fit-margin-right="0"
      fit-margin-bottom="0"
      inkscape:window-width="1335"
      inkscape:pageopacity="0.0"
      inkscape:document-units="px"
  />
  <g
      id="layer1"
      inkscape:label="Layer 1"
      inkscape:groupmode="layer"
      transform="translate(-78.914 -100.13)"
    >
    <g
        id="g4703"
        transform="matrix(.95892 0 0 .88169 99.623 -5107.9)"
      >
      <path
          id="path7340"
          d="m282.42 5991.6c2.7787-38.004-19.12-57.398-26.782-67.489-6.453-8.4996-24.022-10.215-54.719-17.317-50.868 5.2072-55.24 13.646-71.03 30.266-13.985 14.72-17.901 28.821-13.831 53.013 12.603 74.924 36.602 90.154 84.862 90.154s76.941-26.261 81.501-88.626z"
          sodipodi:nodetypes="sscssss"
          style="fill:url(#radialGradient4731)"
          inkscape:connector-curvature="0"
      />
      <path
          id="path7328"
          d="m267.06 6368.2c18.527-8.2756 27.161-10.09 27.161 16.209 0 33.352 33.759 372.07 25.868 374.43-17.308 5.1722-27.926 10.966-28.892-6.1855 0.75229-76.515-0.94532-105.57-2.1496-123.49-6.4669-96.216-16.699-151.18-21.988-260.96z"
          sodipodi:nodetypes="csscsc"
          style="fill:#008000"
          inkscape:connector-curvature="0"
      />
      <path
          id="path7330"
          style="fill-rule:evenodd;fill:#000000"
          d="m281.29 6382.2c0.42581-0.1156 1.4223 1.8878 2.8603 5.7763s3.3123 9.6637 5.4326 17.097c2.1203 7.4334 4.4818 16.526 6.9073 27.033 2.4256 10.506 4.912 22.427 7.3562 35.482 2.7448 14.655 5.4235 30.761 7.8409 47.945 2.4175 17.185 4.5726 35.448 6.3185 54.399 0.0172 0.1865 0.0343 0.373 0.0515 0.5596 1.7283 18.846 2.9375 37.117 3.6057 54.4 0.66817 17.283 0.7953 33.578 0.48409 48.479-0.27672 13.436-0.88569 25.774-1.7882 36.671-0.90247 10.897-2.0916 20.355-3.3424 28.092-1.2508 7.7369-2.5528 13.755-3.6283 17.817-1.0755 4.0614-1.9134 6.1686-2.3503 6.0893-0.43683-0.079-0.44646-2.3383-0.18405-6.5016 0.2624-4.1632 0.78555-10.233 1.3072-17.961 0.52162-7.7281 1.0312-17.117 1.3267-27.914 0.29547-10.797 0.37025-23.004 0.21218-36.329-0.1797-14.758-0.69216-30.882-1.619-47.997-0.92683-17.115-2.2679-35.22-3.982-53.932-0.017-0.1852-0.034-0.3705-0.051-0.5556-1.7306-18.814-3.7242-36.957-5.8568-54.055s-4.4032-33.151-6.6399-47.795c-1.995-13.055-3.9462-24.987-5.7715-35.538s-3.5218-19.721-4.9302-27.273c-1.4084-7.5516-2.5241-13.486-3.1697-17.566-0.64555-4.0798-0.81584-6.3066-0.39003-6.4222z"
          sodipodi:nodetypes="cc"
          inkscape:connector-curvature="0"
          inkscape:path-effect="#path-effect3539"
          inkscape:original-d="m 281.28747,6382.1886 c 26.44329,97.3934 48.27272,277.8351 29.74804,379.8402"
      />
      <path
          id="path7332"
          sodipodi:nodetypes="sscssss"
          style="opacity:.92607;fill:url(#radialGradient4733)"
          inkscape:connector-curvature="0"
          d="m359.46 6309.6c9.2919 50.931-17.444 79.731-26.316 94.268-7.4722 12.243-30.94 16.674-71.345 29.952-69.43-0.8968-76.563-11.754-100.3-32.271-21.026-18.172-28.367-36.722-26.401-69.847 6.0906-102.59 36.268-126.03 101.42-131.84 65.15-5.8135 107.7 26.157 122.95 109.74z"
      />
      <path
          id="path3569"
          d="m335.23 6207.1c-4.7773-0.6764-9.6926-1.1277-14.793-1.3775-31.535-1.5445-55.373 2.1516-73.422 17.742-13.227-5.6047-28.297-8.6968-45.098-9.5197-65.28-3.1976-97.568 15.914-113.8 116.96-5.2423 32.627 0.19507 52.057 19.273 73 21.539 23.645 27.544 35.419 96.408 45.87 38.981-7.1704 62.316-8.6471 72.138-18.055 11.368 3.5648 26.152 6.7626 46.382 9.8328 41.446-7.6238 65.174-8.7814 73.811-19.911 10.254-13.215 39.683-38.13 35.512-89.992-6.3098-78.457-40.034-116.57-96.407-124.55z"
          style="opacity:.92607;fill:url(#radialGradient4735)"
          inkscape:connector-curvature="0"
      />
      <path
          id="path7334"
          d="m241.25 6357.5c-11.722 44.846-45.12 51.097-56.804 59.997-9.8405 7.4964-29.331-3.0301-63.375-5.829-49.912-24.227-46.611-21.032-56.358-45.864-8.6326-21.994-7.2265-39.666 6.1928-66.124 41.56-81.939 71.882-90.918 121.13-73.634 49.245 17.284 68.453 57.858 49.217 131.45z"
          sodipodi:nodetypes="sscssss"
          style="opacity:.98054;fill:url(#radialGradient4737)"
          inkscape:connector-curvature="0"
      />
      <path
          id="path7336"
          sodipodi:nodetypes="sscssss"
          style="fill:url(#radialGradient4739)"
          inkscape:connector-curvature="0"
          d="m319.77 5998.5c21.018-45.695 53.171-53.981 66.471-60.7 11.202-5.6586 28.411 3.6866 61.025 15.272 43.516 38.811 42.3 51.379 46.502 80.759 3.7222 26.022-1.4257 44.836-20.17 70.16-58.052 78.43-89.553 80.553-133.9 49.439-44.349-31.114-54.417-79.943-19.926-154.93z"
      />
      <path
          id="path7338"
          sodipodi:nodetypes="sscssss"
          style="opacity:.92607;fill:url(#radialGradient4741)"
          inkscape:connector-curvature="0"
          d="m75.734 6126.2c-34.908-32.756-35.516-70.427-38.588-86.674-2.5869-13.684 8.8939-31.064 25.405-65.24 42.037-40.885 52.56-36.986 78.58-35.76 23.047 1.0859 38.127 10.648 56.04 36.746 55.478 80.828 50.938 116.52 15.327 159.9-35.611 43.371-79.479 44.786-136.76-8.9672z"
      />
      <path
          id="path7342"
          d="m469.68 6145.5c42.884 15.013 50.203 32.815 58.058 45.304 6.6157 10.519 9.6763 51.891 4.5616 86.295-28.062 24.194-38.817 39.665-64.048 32.849-22.992-6.2106-42.02 20.135-66.864 4.668-76.942-47.902-83.567-79.339-63.269-128.19 20.297-48.851 61.187-65.565 131.56-40.927z"
          sodipodi:nodetypes="sscssss"
          style="opacity:.92607;fill:url(#linearGradient4743)"
          inkscape:connector-curvature="0"
      />
      <path
          id="path7344"
          sodipodi:nodetypes="sscssss"
          style="opacity:.96887;fill:url(#radialGradient4745)"
          inkscape:connector-curvature="0"
          d="m411.28 6079.1c22.827-43.584 11.4-80.504 9.1492-97.366-1.8959-14.201-18.376-27.308-45.003-55.105-53.091-25.812-61.877-18.498-86.283-8.6139-21.617 8.7544-32.941 23.11-41.694 54.529-27.109 97.308-11.405 130.58 36.355 160.97 47.76 30.382 90.017 17.112 127.48-54.411z"
      />
      <path
          id="path7346"
          d="m322.91 6011.8c54.337-33.275 97.487-21.666 117.47-20.203 16.831 1.2319 30.986 21.426 61.784 53.483 25.943 66.464 16.361 78.458 2.2371 110.88-12.51 28.717-30.763 44.6-69.214 58.623-119.08 43.432-157.47 25.976-189.38-33.198-31.915-59.174-12.065-114.98 77.105-169.59z"
          sodipodi:nodetypes="sscssss"
          style="fill:url(#radialGradient4747)"
          inkscape:connector-curvature="0"
      />
      <path
          id="path7348"
          sodipodi:nodetypes="sscssss"
          style="fill:url(#linearGradient4749)"
          inkscape:connector-curvature="0"
          d="m97.704 6325.7c-30.727 26.591-47.044 46.603-57.718 45.166-8.9893-1.2103-17.483-32.41-32.568-59.024-10.898-54.723-3.5764-71.086 11.124-93.909 14.38-22.325 18.576-36.144 39.884-47.165 65.99-34.13 85.82-19.38 100.26 29.446 14.442 48.826-10.56 81.849-60.985 125.49z"
      />
      <path
          id="path3595"
          sodipodi:nodetypes="sscssss"
          style="fill:url(#linearGradient4751)"
          inkscape:connector-curvature="0"
          d="m442.65 6106.7c18.266-45.37-10.059-81.071-18.771-97.638-7.3369-13.954-35.081-25.523-82.068-50.799-84.017-20.95-94.136-12.896-125.66-0.8976-27.918 10.627-39.351 25.909-41.553 57.932-6.8175 99.177 26.407 130.87 104.33 156.84 77.918 25.968 133.75 9.0163 163.72-65.438z"
      />
      <path
          id="path7350"
          d="m124.84 6264.9c-81.464-27.068-113.64-73.189-131.88-92.014-15.367-15.856-11.911-41.594-14.55-89.905 31.516-66.244 51.12-65.437 92.621-73.794 36.758-7.4023 68.147-1.3555 117.65 23.965 153.32 78.417 175.84 124.06 156.38 190.93-19.456 66.867-86.538 85.242-220.22 40.822z"
          sodipodi:nodetypes="sscssss"
          style="fill:url(#radialGradient4753)"
          inkscape:connector-curvature="0"
      />
      <path
          id="path7352"
          d="m438.5 6224.5c31.741 20.679 32.23 72.63 33.249 88.777 0.8584 13.6-21.386 55.357-51.516 65.848-49.841 46.902-54.405 25.875-86.201 31.784-24.984 4.6426-40.012-16.554-55.79-44.639-48.864-86.979-38.804-120.59 6.2038-156.45s72.708-38.318 154.05 14.679z"
          sodipodi:nodetypes="sscssss"
          style="opacity:.99611;fill:url(#radialGradient4755)"
          inkscape:connector-curvature="0"
      />
      <path
          id="path3565"
          d="m452.51 6180.6c-5.9172 48.944-1.1142 29.299-8.7406 40.224-25.61 36.687-30.395 51.469-80.468 49.377-23.247-8.0089-1.8395-27.756 14.562-53.39 9.8732-15.431 28.175-33.076 34.723-64.082 20.282-96.026-11.517-112.39 11.48-111.14 11.498 0.6225 20.577 1.9491 29.733 51.322 4.7057 25.376 3.5649 47.531-1.2903 87.69z"
          sodipodi:nodetypes="sscsssss"
          style="fill:url(#radialGradient4757)"
          inkscape:connector-curvature="0"
      />
      <path
          id="path3591"
          d="m352.06 6062.9c4.5907-49.919-32.123-72.676-44.974-84.952-10.823-10.34-40.255-10.53-91.686-16.22-85.197 12.725-92.507 24.248-118.93 47.777-23.402 20.84-29.936 39.698-23.079 70.795 21.236 96.307 61.461 113.39 142.3 107.76 80.838-5.626 128.84-43.24 136.37-125.16z"
          sodipodi:nodetypes="sscssss"
          style="fill:url(#linearGradient4759)"
          inkscape:connector-curvature="0"
      />
      <path
          id="path7354"
          sodipodi:nodetypes="sscssss"
          style="fill:url(#linearGradient4761)"
          inkscape:connector-curvature="0"
          d="m351.14 6084c6.4784-49.219-20.253-75.82-29.353-89.424-7.6646-11.458-30.166-14.806-69.169-25.991-65.926 3.5312-72.203 14.222-93.812 34.818-19.139 18.243-25.258 36.321-21.861 68.024 10.521 98.185 40.274 119.51 102.44 122.58 62.17 3.0709 101.12-29.237 111.75-110.01z"
      />
      <path
          id="path7356"
          sodipodi:nodetypes="zscsszz"
          style="fill:url(#radialGradient4763)"
          inkscape:connector-curvature="0"
          d="m192.22 6086.9c-16.609-37.478-9.392-32.977-21.288-69.761-3.5106-10.855-31.491-16.097-60.678-6.8114-43.249 36.38-45.465 28.676-54.368 58.521-7.8861 26.434-4.3681 64.815 6.5084 92.335 33.685 85.229 43.931 102.84 96.505 64.638 52.574-38.199 49.931-101.44 33.321-138.92z"
      />
      <path
          id="path7358"
          d="m433.35 6136.8c13.336-43.2-19.077-88.434-24.442-104.16-4.5185-13.241-8.1828-12.752-38.79-36.619-55.359-19.625-62.302-11.932-83.588-0.4143-18.853 10.201-26.859 24.771-29.158 55.225-7.1197 94.316 14.162 124.34 65.333 148.75 51.17 24.417 88.76 8.1049 110.65-62.788z"
          sodipodi:nodetypes="sscssss"
          style="fill:url(#radialGradient4765)"
          inkscape:connector-curvature="0"
      />
      <path
          id="path7360"
          sodipodi:rx="99.467529"
          sodipodi:ry="42.261906"
          style="opacity:.91440;filter:url(#filter7161);fill:url(#radialGradient4767)"
          sodipodi:type="arc"
          d="m561.61 6161.6c0 23.341-44.533 42.262-99.468 42.262-54.934 0-99.468-18.921-99.468-42.262s44.533-42.262 99.468-42.262c54.934 0 99.468 18.921 99.468 42.262z"
          transform="matrix(.60501 0 0 1.1155 -40.152 -681.57)"
          sodipodi:cy="6161.6479"
          sodipodi:cx="462.14285"
      />
      <path
          id="path7364"
          sodipodi:nodetypes="sscsssss"
          style="fill:url(#radialGradient4769)"
          inkscape:connector-curvature="0"
          d="m194.86 6203.3c-6.1909-39.937-43.023-19.252-52.413-29.299-7.9087-8.4623-19.976-31.837-44.485-47.653-17.627-13.922-49.611-6.6997-54.003 4.1513-7.1257 17.604-15.882 22.348-15.07 49.241 1.7263 57.162 46.098 91.2 71.307 102.65 25.209 11.454 39.045-6.675 56.315-28.656 28.328-36.056 48.508 15.101 38.349-50.438z"
      />
      <path
          id="path7362"
          d="m437.74 6146.6c-2.0912-34.99-6.8688-31.243-13.315-55.318-2.9855-11.151-10.874-26.629-1.441-47.667-11.67-3.5857-19.64 3.0024-29.363 4.7273-29.127 4.9062-42.186 15.738-62.019 33.779-18.903 17.195-26.049 29.08-31.853 54.983-17.976 80.223-15.262 91.5 28.768 95.8s113.59-13.257 109.22-86.305z"
          sodipodi:nodetypes="ssccssss"
          style="fill:url(#radialGradient4771)"
          inkscape:connector-curvature="0"
      />
      <path
          id="path3550"
          d="m425.49 6191c1.631-34.368-41.381-38.4-53.795-44.998-10.455-5.557-41.115 3.0408-88.555 6.0151-77.443 19.907-71.697 17.36-94.703 36.778-20.376 17.198-25.393 30.818-17.501 50.938 24.44 62.313 62.195 68.527 136.01 53.999 73.813-14.528 115.87-46.333 118.55-102.73z"
          sodipodi:nodetypes="sscssss"
          style="opacity:.98054;fill:url(#radialGradient4773)"
          inkscape:connector-curvature="0"
      />
      <path
          id="path7366"
          sodipodi:nodetypes="ssccssss"
          style="fill:url(#radialGradient4775)"
          inkscape:connector-curvature="0"
          d="m418.96 6234.8c12.839-30.044 9.3697-27.851 16.107-49.549 3.1204-10.049 5.884-24.766 18.081-40.641-3.482-5.4251-9.4022-1.4811-14.15-2.0119-14.122-1.8123-23.837 4.6815-39.214 15.89-14.656 10.683-22.308 19.279-34.893 40.015-38.974 64.22-42.258 74.321-25.503 86.978 16.755 12.656 52.768 12.04 79.573-50.682z"
      />
      <path
          id="path3542"
          d="m219.35 6205.7c-11.229-0.038-28.58 3.4531-54.113 4.5922-49.912 13.146-46.611 11.411-56.357 24.885-8.6326 11.934-7.2268 21.529 6.1925 35.885 41.56 44.462 71.878 49.33 121.12 39.951 4.1675-0.7937 8.0847-1.6904 11.817-2.6683 6.965 1.4693 14.708 2.3571 23.208 2.6864 44.964 1.7419 68.903-6.7387 88.456-52.221 6.3134-14.686 4.1387-23.469-7.3571-32.999-12.979-10.76-9.5635-9.6558-56.414-14.684-20.059 2.2196-35.058 1.7709-44.739 2.8497-9.1875-3.0868-17.724-4.8463-22.554-6.8429-2.4601-1.017-5.5173-1.4212-9.2603-1.434z"
          style="opacity:.98054;fill:url(#radialGradient4967)"
          inkscape:connector-curvature="0"
      />
    </g
    >
  </g
  >
  <metadata
    >
    <rdf:RDF
      >
      <cc:Work
        >
        <dc:format
          >image/svg+xml</dc:format
        >
        <dc:type
            rdf:resource="http://purl.org/dc/dcmitype/StillImage"
        />
        <cc:license
            rdf:resource="http://creativecommons.org/licenses/publicdomain/"
        />
        <dc:publisher
          >
          <cc:Agent
              rdf:about="http://openclipart.org/"
            >
            <dc:title
              >Openclipart</dc:title
            >
          </cc:Agent
          >
        </dc:publisher
        >
        <dc:title
          >Peony</dc:title
        >
        <dc:date
          >2011-04-23T13:50:50</dc:date
        >
        <dc:description
          >a peony</dc:description
        >
        <dc:source
          >https://openclipart.org/detail/133717/peony-by-nadenka1</dc:source
        >
        <dc:creator
          >
          <cc:Agent
            >
            <dc:title
              >Nadenka1</dc:title
            >
          </cc:Agent
          >
        </dc:creator
        >
        <dc:subject
          >
          <rdf:Bag
            >
            <rdf:li
              >Flower</rdf:li
            >
            <rdf:li
              >Peony</rdf:li
            >
          </rdf:Bag
          >
        </dc:subject
        >
      </cc:Work
      >
      <cc:License
          rdf:about="http://creativecommons.org/licenses/publicdomain/"
        >
        <cc:permits
            rdf:resource="http://creativecommons.org/ns#Reproduction"
        />
        <cc:permits
            rdf:resource="http://creativecommons.org/ns#Distribution"
        />
        <cc:permits
            rdf:resource="http://creativecommons.org/ns#DerivativeWorks"
        />
      </cc:License
      >
    </rdf:RDF
    >
  </metadata
  >
</svg
>
