<?xml version="1.0" encoding="UTF-8" standalone="no"?>
<!-- Created with Inkscape (http://www.inkscape.org/) -->

<svg
   xmlns:dc="http://purl.org/dc/elements/1.1/"
   xmlns:cc="http://creativecommons.org/ns#"
   xmlns:rdf="http://www.w3.org/1999/02/22-rdf-syntax-ns#"
   xmlns:svg="http://www.w3.org/2000/svg"
   xmlns="http://www.w3.org/2000/svg"
   xmlns:xlink="http://www.w3.org/1999/xlink"
   xmlns:sodipodi="http://sodipodi.sourceforge.net/DTD/sodipodi-0.dtd"
   xmlns:inkscape="http://www.inkscape.org/namespaces/inkscape"
   width="500"
   height="500.00003"
   id="svg2"
   version="1.1"
   inkscape:version="0.48.3.1 r9886"
   sodipodi:docname="Pravyy-Sektor-Sign.svg">
  <defs
     id="defs4">
    <radialGradient
       inkscape:collect="always"
       xlink:href="#linearGradient24486"
       id="radialGradient5501"
       gradientUnits="userSpaceOnUse"
       gradientTransform="matrix(-1.2396035,-1.2395898,1.2499998,-1.2499999,-432.38962,4982.1011)"
       cx="986.08649"
       cy="1454.9969"
       fx="986.08649"
       fy="1454.9969"
       r="200" />
    <linearGradient
       inkscape:collect="always"
       id="linearGradient24486">
      <stop
         style="stop-color:#000000;stop-opacity:0"
         offset="0"
         id="stop24488" />
      <stop
         id="stop24490"
         offset="0.51951921"
         style="stop-color:#000000;stop-opacity:0" />
      <stop
         style="stop-color:#000000;stop-opacity:0.5"
         offset="1"
         id="stop24492" />
    </linearGradient>
    <radialGradient
       r="200"
       fy="1454.9969"
       fx="986.08649"
       cy="1454.9969"
       cx="986.08649"
       gradientTransform="matrix(-1.2396035,-1.2395898,1.2499998,-1.2499999,-432.38962,4982.1011)"
       gradientUnits="userSpaceOnUse"
       id="radialGradient5725"
       xlink:href="#linearGradient24486"
       inkscape:collect="always" />
  </defs>
  <sodipodi:namedview
     id="base"
     pagecolor="#ffffff"
     bordercolor="#666666"
     borderopacity="1.0"
     inkscape:pageopacity="0.0"
     inkscape:pageshadow="2"
     inkscape:zoom="0.35"
     inkscape:cx="470.71428"
     inkscape:cy="-44.285673"
     inkscape:document-units="px"
     inkscape:current-layer="layer1"
     showgrid="false"
     inkscape:window-width="1280"
     inkscape:window-height="1000"
     inkscape:window-x="0"
     inkscape:window-y="24"
     inkscape:window-maximized="1"
     fit-margin-top="0"
     fit-margin-left="0"
     fit-margin-right="0"
     fit-margin-bottom="0" />
  <metadata
     id="metadata7">
    <rdf:RDF>
      <cc:Work
         rdf:about="">
        <dc:format>image/svg+xml</dc:format>
        <dc:type
           rdf:resource="http://purl.org/dc/dcmitype/StillImage" />
        <dc:title></dc:title>
      </cc:Work>
    </rdf:RDF>
  </metadata>
  <g
     inkscape:label="Layer 1"
     inkscape:groupmode="layer"
     id="layer1"
     transform="translate(-18.57143,11.923515)">
    <g
       transform="translate(104.57143,-1702.9357)"
       id="g5526">
      <g
         transform="matrix(0.82781457,0,0,1.32626,-292.95364,-555.48947)"
         id="g4314">
        <rect
           style="color:#000000;fill:#da251c;fill-opacity:1;fill-rule:nonzero;stroke:none;stroke-width:4;marker:none;visibility:visible;display:inline;overflow:visible;enable-background:accumulate"
           id="rect4299"
           width="604"
           height="377"
           x="250"
           y="1841.5"
           transform="translate(0,-147.63782)" />
        <path
           id="rect4303"
           transform="translate(0,-147.63782)"
           style="color:#000000;fill:#1f1a17;fill-opacity:1;fill-rule:nonzero;stroke:none;stroke-width:4;marker:none;visibility:visible;display:inline;overflow:visible;enable-background:accumulate"
           d="m 854,2030 0,188.5 -604,0 0,-188.5 z"
           inkscape:connector-curvature="0"
           sodipodi:nodetypes="ccccc" />
      </g>
      <path
         style="color:#000000;fill:#ffffff;fill-opacity:1;fill-rule:nonzero;stroke:none;stroke-width:4;marker:none;visibility:visible;display:inline;overflow:visible;enable-background:accumulate"
         d="m 163.96641,1723.9185 -35.91456,77.0461 10.70091,226.9919 -41.399212,0 0,19.2624 51.096882,0 -1.13723,93.7669 16.65321,17.1202 16.72039,-17.1202 -1.13723,-93.7669 51.02987,0 0,-19.2624 -41.3322,0 10.70091,-226.9919 -35.98174,-77.0461 z m -138.041131,104.2658 0,271.6679 106.206361,0 0,-33.7739 -65.743582,0 38.255472,-164.5914 -78.718251,-73.3026 z m 276.149421,0 -78.71823,73.3026 38.25547,164.5914 -65.74358,0 0,33.7739 106.20634,0 0,-271.6679 z"
         id="rect3792"
         inkscape:connector-curvature="0" />
      <rect
         style="color:#000000;fill:url(#radialGradient5725);fill-opacity:1;fill-rule:nonzero;stroke:none;stroke-width:4;marker:none;visibility:visible;display:inline;overflow:visible;enable-background:accumulate"
         id="rect5499"
         width="500"
         height="500"
         x="-86"
         y="1691.0122"
         inkscape:export-filename="/home/grin/Рабочий стол/ukrop200-1.png"
         inkscape:export-xdpi="45"
         inkscape:export-ydpi="45" />
    </g>
  </g>
</svg>
