<?xml version="1.0" encoding="UTF-8" standalone="no"?>
<!-- Created with Inkscape (http://www.inkscape.org/) -->
<svg
    xmlns:inkscape="http://www.inkscape.org/namespaces/inkscape"
    xmlns:rdf="http://www.w3.org/1999/02/22-rdf-syntax-ns#"
    xmlns="http://www.w3.org/2000/svg"
    xmlns:sodipodi="http://sodipodi.sourceforge.net/DTD/sodipodi-0.dtd"
    xmlns:cc="http://creativecommons.org/ns#"
    xmlns:xlink="http://www.w3.org/1999/xlink"
    xmlns:dc="http://purl.org/dc/elements/1.1/"
    xmlns:svg="http://www.w3.org/2000/svg"
    xmlns:ns1="http://sozi.baierouge.fr"
    id="svg8057"
    sodipodi:docname="punaise rouge.svg"
    height="297mm"
    width="210mm"
    version="1.1"
    inkscape:version="0.48.4 r9939"
  >
  <defs
      id="defs3"
    >
    <linearGradient
        id="linearGradient7093"
        inkscape:collect="always"
      >
      <stop
          id="stop7095"
          style="stop-color:#ffaaaa"
          offset="0"
      />
      <stop
          id="stop7097"
          style="stop-color:#ff5555"
          offset="1"
      />
    </linearGradient
    >
    <linearGradient
        id="linearGradient8159"
        y2="254.59"
        xlink:href="#linearGradient7093"
        gradientUnits="userSpaceOnUse"
        x2="-145.21"
        gradientTransform="matrix(8.4441 0 0 6.9643 1577.5 -1494.6)"
        y1="265.45"
        x1="-140.41"
        inkscape:collect="always"
    />
    <linearGradient
        id="linearGradient8162"
        y2="254.59"
        xlink:href="#linearGradient7093"
        gradientUnits="userSpaceOnUse"
        x2="-145.21"
        gradientTransform="matrix(7.095 0 0 6.1903 1576.9 -879.14)"
        y1="265.45"
        x1="-140.41"
        inkscape:collect="always"
    />
    <radialGradient
        id="radialGradient8165"
        fx="-152.74"
        fy="199.18"
        gradientUnits="userSpaceOnUse"
        cy="181.31"
        cx="-147.75"
        gradientTransform="matrix(-10.948 5.323 -3.4952 -7.4805 -729.65 2406.4)"
        r="34.438"
        inkscape:collect="always"
      >
      <stop
          id="stop7065"
          style="stop-color:#aa0000"
          offset="0"
      />
      <stop
          id="stop7067"
          style="stop-color:#aa0000"
          offset=".065367"
      />
      <stop
          id="stop7069"
          style="stop-color:#ff5555"
          offset=".46428"
      />
      <stop
          id="stop7071"
          style="stop-color:#800000"
          offset=".79447"
      />
      <stop
          id="stop7073"
          style="stop-color:#ff2a2a"
          offset=".84161"
      />
      <stop
          id="stop7075"
          style="stop-color:#ffaaaa"
          offset="1"
      />
    </radialGradient
    >
    <linearGradient
        id="linearGradient8168"
        y2="113.32"
        gradientUnits="userSpaceOnUse"
        x2="-236.91"
        gradientTransform="matrix(7.0559 -4.2798 4.1956 7.1976 1722 -1468.7)"
        y1="114.42"
        x1="-276.06"
        inkscape:collect="always"
      >
      <stop
          id="stop7049"
          style="stop-color:#aa0000"
          offset="0"
      />
      <stop
          id="stop7051"
          style="stop-color:#ff5555"
          offset="1"
      />
    </linearGradient
    >
    <radialGradient
        id="radialGradient8171"
        fx="-166.19"
        fy="243.28"
        gradientUnits="userSpaceOnUse"
        cy="249.39"
        cx="-161.97"
        gradientTransform="matrix(4.5554 7.1527 -9.2017 6.0982 3461.1 231.21)"
        r="36.711"
        inkscape:collect="always"
      >
      <stop
          id="stop7033"
          style="stop-color:#aa0000;stop-opacity:0"
          offset="0"
      />
      <stop
          id="stop7045"
          style="stop-color:#aa0000"
          offset=".26379"
      />
      <stop
          id="stop7043"
          style="stop-color:#ff5555"
          offset=".53162"
      />
      <stop
          id="stop7041"
          style="stop-color:#800000"
          offset=".80494"
      />
      <stop
          id="stop7039"
          style="stop-color:#ff2a2a"
          offset=".93572"
      />
      <stop
          id="stop7035"
          style="stop-color:#ffaaaa"
          offset="1"
      />
    </radialGradient
    >
    <linearGradient
        id="linearGradient8174"
        y2="884.25"
        gradientUnits="userSpaceOnUse"
        x2="637.81"
        gradientTransform="matrix(8.209 0 0 8.3739 1716.2 -1480.6)"
        y1="884.25"
        x1="536.48"
        inkscape:collect="always"
      >
      <stop
          id="stop7025"
          style="stop-color:#4d4d4d"
          offset="0"
      />
      <stop
          id="stop7027"
          style="stop-color:#666666"
          offset="1"
      />
    </linearGradient
    >
    <linearGradient
        id="linearGradient8177"
        y2="273.53"
        gradientUnits="userSpaceOnUse"
        x2="-144.96"
        gradientTransform="matrix(8.209 0 0 8.3739 1716.2 -1480.6)"
        y1="301.82"
        x1="-128.29"
        inkscape:collect="always"
      >
      <stop
          id="stop7017"
          style="stop-color:#cccccc"
          offset="0"
      />
      <stop
          id="stop7019"
          style="stop-color:#000000"
          offset="1"
      />
    </linearGradient
    >
  </defs
  >
  <sodipodi:namedview
      id="base"
      bordercolor="#666666"
      inkscape:pageshadow="2"
      inkscape:window-y="-8"
      pagecolor="#ffffff"
      inkscape:window-height="746"
      inkscape:window-maximized="1"
      inkscape:zoom="0.175"
      inkscape:window-x="-8"
      showgrid="false"
      borderopacity="1.0"
      inkscape:current-layer="layer1"
      inkscape:cx="1640.0585"
      inkscape:cy="887.65336"
      inkscape:window-width="1024"
      inkscape:pageopacity="0.0"
      inkscape:document-units="mm"
  />
  <g
      id="layer1"
      inkscape:label="Layer 1"
      inkscape:groupmode="layer"
    >
    <path
        id="path7013"
        sodipodi:nodetypes="cccccc"
        style="fill:url(#linearGradient8177)"
        inkscape:connector-curvature="0"
        d="m567.99 789.48 87.515 171.88c24.86 51.796 14.906 79.347 3.5694 83.718-9.8679 6.3618-44.503 23.994-79.096-51.56-7.3867-16.5-82.873-168.36-82.873-168.36 25.662-6.9826 47.842-22.659 70.885-35.678z"
    />
    <path
        id="path7011"
        d="m540.79 801.21 12.009-5.511c7.2882-3.3445 21.218 10.415 31.233 30.85l41.81 85.33c15.842 39.284 13.702 57.343 6.4782 60.658-6.2883 4.825-30.228-14.125-44.799-43.074l-41.817-85.33c-10.017-20.434-12.21-39.579-4.9214-42.924z"
        sodipodi:nodetypes="ssscccss"
        style="fill:url(#linearGradient8174)"
        inkscape:connector-curvature="0"
    />
    <path
        id="path7006"
        d="m739.44 536.46c0 103.4-60.028 216.11-231.15 297.55-144.24 68.647-319.5-16.358-348.12-150.45-32.003-149.92 111.19-334.33 297.36-334.33s281.91 83.825 281.91 187.23z"
        sodipodi:nodetypes="sssss"
        style="fill:url(#radialGradient8171)"
        inkscape:connector-curvature="0"
    />
    <path
        id="rect7008"
        sodipodi:nodetypes="ssscccss"
        style="fill:url(#linearGradient8168)"
        inkscape:connector-curvature="0"
        d="m266.34 344.56 88.311-53.566c53.594-32.508 113.41-30.084 134.11 5.4356l86.455 148.32c31.908 84.375 1.8874 184.69-86.938 222.54-82.544 35.277-170.56 22.4-194.85-51.611l-86.46-148.33c-20.705-35.52 5.7728-90.286 59.367-122.79z"
    />
    <path
        id="path7003"
        sodipodi:nodetypes="sssss"
        style="fill:url(#radialGradient8165)"
        inkscape:connector-curvature="0"
        d="m551.73 167.18c0 89.192-56.385 186.41-217.13 256.66-135.48 59.21-300.11-14.11-327-129.78-30.056-129.31 105.9-265.42 279.32-288.38 119.2-15.773 264.81 72.308 264.81 161.5z"
    />
    <path
        id="path7081"
        sodipodi:nodetypes="ccc"
        style="fill:url(#linearGradient8162)"
        inkscape:connector-curvature="0"
        d="m350.92 753.03c136.81 138.4 331.96-59.56 297.68-159.36-42.44 95.82-188.41 189.84-297.68 159.36z"
    />
    <path
        id="path7099"
        d="m142.86 326.07c111.4 102.86 342.81-40.84 302.01-153.12-50.51 107.8-160.65 181.82-302.01 153.12z"
        sodipodi:nodetypes="ccc"
        style="fill:url(#linearGradient8159)"
        inkscape:connector-curvature="0"
    />
  </g
  >
  <metadata
    >
    <rdf:RDF
      >
      <cc:Work
        >
        <dc:format
          >image/svg+xml</dc:format
        >
        <dc:type
            rdf:resource="http://purl.org/dc/dcmitype/StillImage"
        />
        <cc:license
            rdf:resource="http://creativecommons.org/licenses/publicdomain/"
        />
        <dc:publisher
          >
          <cc:Agent
              rdf:about="http://openclipart.org/"
            >
            <dc:title
              >Openclipart</dc:title
            >
          </cc:Agent
          >
        </dc:publisher
        >
        <dc:title
          >Punaise rouge</dc:title
        >
        <dc:date
          >2013-01-11T13:06:51</dc:date
        >
        <dc:description
          >Une grosse punaise rouge.</dc:description
        >
        <dc:source
          >https://openclipart.org/detail/174188/punaise-rouge-by-defaz36-174188</dc:source
        >
        <dc:creator
          >
          <cc:Agent
            >
            <dc:title
              >defaz36</dc:title
            >
          </cc:Agent
          >
        </dc:creator
        >
        <dc:subject
          >
          <rdf:Bag
            >
            <rdf:li
              >Punaise</rdf:li
            >
            <rdf:li
              >pin</rdf:li
            >
            <rdf:li
              >rouge.</rdf:li
            >
          </rdf:Bag
          >
        </dc:subject
        >
      </cc:Work
      >
      <cc:License
          rdf:about="http://creativecommons.org/licenses/publicdomain/"
        >
        <cc:permits
            rdf:resource="http://creativecommons.org/ns#Reproduction"
        />
        <cc:permits
            rdf:resource="http://creativecommons.org/ns#Distribution"
        />
        <cc:permits
            rdf:resource="http://creativecommons.org/ns#DerivativeWorks"
        />
      </cc:License
      >
    </rdf:RDF
    >
  </metadata
  >
</svg
>
