<svg width="490" height="393" xmlns="http://www.w3.org/2000/svg" xmlns:undefined="http://www.inkscape.org/namespaces/inkscape" xmlns:xlink="http://www.w3.org/1999/xlink">
 <defs>
  <filter id="imagebot_9">
   <feGaussianBlur  stdDeviation="6.98194" id="imagebot_27"/>
  </filter>
  <linearGradient id="imagebot_26">
   <stop stop-color="#ffffff" stop-opacity="0.57463" offset="0" id="imagebot_29"/>
   <stop stop-color="#ffffff" stop-opacity="0" offset="1" id="imagebot_28"/>
  </linearGradient>
  <linearGradient x1="0.41098" y1="1.00072" x2="0.60418" xlink:href="#imagebot_26" y2="-0.00073" id="imagebot_6"/>
 </defs>
 <g label="Calque 1" id="imagebot_2">
  <rect transform="translate(27.436 47.7937) matrix(1 0 0 1 -1252.5 -841.29)" label="Calque 1" fill-rule="evenodd" fill="#ffffff" x="1252.5" y="841.29" width="430" height="304" id="imagebot_25"/>
  <g transform="translate(-211 -239) matrix(2.23884 -0.43369 -0.0781017 2.26491 -1365.95 1116.18)" label="Calque 1" id="imagebot_4">
   <path label="Calque 1" filter="url(#imagebot_9)" fill-rule="evenodd" fill="#666666" d="M 723.06 -127.14 C 716.41 -135.72 718.73 -144.12 728.25 -145.88 C 731.84 -146.54 735.96 -146.16 740.03 -144.98 L 713.12 -179.72 C 711.31 -182.06 711.94 -184.35 714.54 -184.83 L 752.75 -191.9 C 752.93 -189.18 754.12 -186.16 756.49 -183.1 C 763.14 -174.52 776.26 -168.98 785.77 -170.74 C 795.29 -172.5 797.61 -180.89 790.96 -189.48 C 788.6 -192.53 785.4 -195.18 781.85 -197.27 L 820.06 -204.34 C 822.66 -204.82 826.23 -203.31 828.05 -200.96 L 854.28 -167.1 C 855.79 -168.69 858.01 -169.87 860.92 -170.41 C 870.43 -172.16 883.55 -166.62 890.2 -158.04 C 896.85 -149.45 894.53 -141.06 885.01 -139.3 C 882.1 -138.76 878.85 -138.92 875.56 -139.63 L 901.79 -105.77 C 903.6 -103.42 902.97 -101.13 900.37 -100.65 L 862.16 -93.586 C 861.98 -96.304 860.79 -99.323 858.42 -102.38 C 851.77 -110.96 838.65 -116.5 829.14 -114.75 C 819.62 -112.99 817.3 -104.59 823.95 -96.005 C 826.31 -92.948 829.51 -90.301 833.07 -88.208 L 794.85 -81.143 C 792.25 -80.663 788.68 -82.173 786.86 -84.518 L 759.96 -119.25 C 758.51 -117.05 755.93 -115.43 752.34 -114.77 C 742.83 -113.01 729.71 -118.55 723.06 -127.14 Z" id="imagebot_8"/>
   <path label="Calque 1" fill-rule="evenodd" fill="#204a87" d="M 729.06 -133.14 C 722.41 -141.72 724.73 -150.12 734.25 -151.88 C 737.84 -152.54 741.96 -152.16 746.03 -150.98 L 719.12 -185.72 C 717.31 -188.06 717.94 -190.35 720.54 -190.83 L 758.75 -197.9 C 758.93 -195.18 760.12 -192.16 762.49 -189.1 C 769.14 -180.52 782.26 -174.98 791.77 -176.74 C 801.29 -178.5 803.61 -186.89 796.96 -195.48 C 794.6 -198.53 791.4 -201.18 787.85 -203.27 L 826.06 -210.34 C 828.66 -210.82 832.23 -209.31 834.05 -206.96 L 860.28 -173.1 C 861.79 -174.69 864.01 -175.87 866.92 -176.41 C 876.43 -178.16 889.55 -172.62 896.2 -164.04 C 902.85 -155.45 900.53 -147.06 891.01 -145.3 C 888.1 -144.76 884.85 -144.92 881.56 -145.63 L 907.79 -111.77 C 909.6 -109.42 908.97 -107.13 906.37 -106.65 L 868.16 -99.586 C 867.98 -102.3 866.79 -105.32 864.42 -108.38 C 857.77 -116.96 844.65 -122.5 835.14 -120.75 C 825.62 -118.99 823.3 -110.59 829.95 -102.01 C 832.31 -98.948 835.51 -96.301 839.07 -94.208 L 800.85 -87.143 C 798.25 -86.663 794.68 -88.173 792.86 -90.518 L 765.96 -125.25 C 764.51 -123.05 761.93 -121.43 758.34 -120.77 C 748.83 -119.01 735.71 -124.55 729.06 -133.14 Z" id="imagebot_7"/>
   <path label="Calque 1" fill-rule="evenodd" fill="url(#imagebot_6)" d="M 729.06 -133.14 C 722.41 -141.72 724.73 -150.12 734.25 -151.88 C 737.84 -152.54 741.96 -152.16 746.03 -150.98 L 719.12 -185.72 C 717.31 -188.06 717.94 -190.35 720.54 -190.83 L 758.75 -197.9 C 758.93 -195.18 760.12 -192.16 762.49 -189.1 C 769.14 -180.52 782.26 -174.98 791.77 -176.74 C 801.29 -178.5 803.61 -186.89 796.96 -195.48 C 794.6 -198.53 791.4 -201.18 787.85 -203.27 L 826.06 -210.34 C 828.66 -210.82 832.23 -209.31 834.05 -206.96 L 860.28 -173.1 C 861.79 -174.69 864.01 -175.87 866.92 -176.41 C 876.43 -178.16 889.55 -172.62 896.2 -164.04 C 902.85 -155.45 900.53 -147.06 891.01 -145.3 C 888.1 -144.76 884.85 -144.92 881.56 -145.63 L 907.79 -111.77 C 909.6 -109.42 908.97 -107.13 906.37 -106.65 L 868.16 -99.586 C 867.98 -102.3 866.79 -105.32 864.42 -108.38 C 857.77 -116.96 844.65 -122.5 835.14 -120.75 C 825.62 -118.99 823.3 -110.59 829.95 -102.01 C 832.31 -98.948 835.51 -96.301 839.07 -94.208 L 800.85 -87.143 C 798.25 -86.663 794.68 -88.173 792.86 -90.518 L 765.96 -125.25 C 764.51 -123.05 761.93 -121.43 758.34 -120.77 C 748.83 -119.01 735.71 -124.55 729.06 -133.14 Z" id="imagebot_5"/>
  </g>
  <title>Calque 1</title>
 </g>
 </svg>