<?xml version="1.0" standalone="yes"?>
<svg xmlns="http://www.w3.org/2000/svg" xmlns:xlink="http://www.w3.org/1999/xlink" xmlns:svg="http://www.w3.org/2000/svg" xmlns:dc="http://purl.org/dc/elements/1.1/" xmlns:cc="http://web.resource.org/cc/" xmlns:rdf="http://www.w3.org/1999/02/22-rdf-syntax-ns#" width="308" height="257">
<path style="fill:#ffffff; stroke:none;" d="M0 0L0 257L308 257L308 0L0 0z"/>
<path style="fill:#6ab280; stroke:none;" d="M108.667 2.33333L109.333 2.66667L108.667 2.33333z"/>
<path style="fill:#108c40; stroke:none;" d="M12 91L23 87L27 83L25 80C37.3875 76.8869 45.8882 65.4913 55.2855 57.2546C60.3571 52.8094 64.7363 46.912 70 54C59.2271 60.193 40.2858 75.6729 35 87L40 88L35 91L30 88C26.6202 94.3307 17.0769 101.566 10 103L28 125L22 127C22.6742 141.755 32.0456 159.567 38 173L39 173L40 161C46.2241 161.024 51.5926 156.112 57.9992 156.333C64.1361 156.544 70.7048 165.412 74 170L76 170C79.6794 161.814 90.3646 158.435 91 170C115.677 152.617 136.634 125.149 157.221 103.456C166.337 93.8501 181.203 86.2386 187 74C183.07 73.3629 173.815 68.4881 173 75L178 73L175 77L178 78L173 84L169 81L170 76L159 73C159.86 76.0809 160.908 76.522 164 76L159 87L150 77L143 81C147.577 88.1061 153.732 90.8652 162 89L159 92L164 92L158 98L158 94L157 97L153 96L155 91L148 94L148 95C149.893 98.0413 144.363 104.245 142 101C132.675 99.0639 126.643 88.4799 139 86C142.082 79.5345 147.933 73.3412 155 77L158 72L158 71L156 67L153 68L153 61C156.277 60.741 157.823 60.4364 158 57L154 59L156 55L148 61L147 60L149 56L142 51L142 57L135 59L136 63L121 57L121 60L117 60L117 59C120.154 57.869 120.837 56.2813 121 53L113 64L114 64C119.325 60.2102 121.187 66.7852 126.09 67.8225C128.811 68.3984 132.181 67.0376 135 67L129 73L131 69L124 72L124 73L128 77C134.639 72.764 138.749 68.0822 137 60C144.31 59.9233 144.264 61.7026 145 68L151 64L151 70L149 73L145 75L142 74L141 75L141 81L137 81L134 84L136 78L132 76L134 81L130 79L134 86L128 88L130 83L129 82L125 88L122 87L128 79L121 83L125 76C119.608 77.6155 118.011 81.3883 112 79L111 83L115 90L112 88L106 87L96 101L100 105L95 106L95 107L96 111L104 110L101 108L113 99L121 106L125 106L126 111L123 109L119 109C124.076 116.49 126.859 116.497 121 125L132 118L121 129L120 126C112.526 129.548 109.959 122.356 104 119L107 114L96 113C99.6038 119.738 110.439 123.972 110 132C117.524 133.556 116.393 138.203 112 143L111 140L110 140L111 145L107 149L100 142L96 143L93 139L93 146L98 145L93 148L96 150C93.2916 152.701 89.966 157.215 86.0154 158.029C80.5997 159.146 72.9257 148.532 72 144L73 144L74 146L76 144L78 137L78 136L76 133L85 125L85 124L82 123L79 125L80 128L74 131C69.4387 129.992 64.8273 132.312 62 136C57.594 134.235 54.7986 132.503 53 128L49 129L48 122C53.1385 115.984 40.1984 106.912 38 102L47 107L39 97L29 104L30 98L25 101C29.3111 92.4983 36.2829 92.1049 45 92L47 85L51 86L54 82L51 83L60 79L58 83L62 84L67 84L68 83L63 76L70 74C69.2009 69.0917 71.2458 66.9584 75 64L70 59L82 60L81 57L96 48L94 45L102 49L102 45C106.644 47.4894 106.113 51.5688 101 53L102 58C95.4325 56.9909 92.7953 51.6339 86 55C89.5623 63.8299 94.3811 61.476 102 61L101 67L98 65L98 72L99 69L107 69L104 67L106 61L111 61L111 59L106 58L110 54L105 56L113 46L109 47C115.706 40.5861 117.311 44.8379 125 45L128 48L128 41L134 40L125 34L137 33L136 37L152 44L147 53L153 55L158 50L158 54L162 52L160 54L160 55L163 62L170 64L170 63L163 55C167.453 56.0496 171.005 58.1101 171 63L185 61C178.874 53.7628 170.566 49.2333 163.174 43.4915C152.379 35.107 142.038 25.9177 131 17.6265C125.692 13.6397 116.819 4.10294 110 3.64737C102.464 3.14395 91.2773 17.265 86 21.9498C68.3595 37.6099 50.7056 53.258 33 68.8449C26.1692 74.8583 14.5384 81.9563 12 91z"/>
<path style="fill:#918c59; stroke:none;" d="M108 10L111 11C112.093 8.11348 109.499 7.92432 108 10z"/>
<path style="fill:#b1ccbd; stroke:none;" d="M109 9L108 10L108 11L108 12L111 9L109 9z"/>
<path style="fill:#506a38; stroke:none;" d="M100 14C102.474 19.1969 107.706 23.7033 113 26L114 25L114 23L100 14z"/>
<path style="fill:#73c290; stroke:none;" d="M116 17L119 14L116 17z"/>
<path style="fill:#50a470; stroke:none;" d="M97 16L104 22L103 25L107 21L97 16z"/>
<path style="fill:#309856; stroke:none;" d="M115 16L109 20C113.572 24.146 119.651 21.6404 115 16z"/>
<path style="fill:#99cea4; stroke:none;" d="M91 17L92 18L91 17z"/>
<path style="fill:#6ab280; stroke:none;" d="M99 28L100 28L101 28L104 22C94.9873 15.4573 92.3613 20.4703 99 28M117 18L117 20L119 20L119 18L117 18z"/>
<path style="fill:#50a470; stroke:none;" d="M92 20L91 25L100 29L92 20z"/>
<path style="fill:#2a682d; stroke:none;" d="M90 22L85 27L85 31L86 31L87 28L88 28L91 32L91 28L98 29L90 22z"/>
<path style="fill:#6ab280; stroke:none;" d="M84 28L82 37L89 31L89 30L88 28L87 28L86 31L84 28z"/>
<path style="fill:#52b076; stroke:none;" d="M81 30L77 34L77 35C82.1901 40.3188 87.1092 37.0663 90 31L82 37L81 30z"/>
<path style="fill:#73c290; stroke:none;" d="M100 33L100 35L102 35L102 33L100 33z"/>
<path style="fill:#89b68f; stroke:none;" d="M130 34L134 38C134.069 34.7355 133.265 33.9313 130 34z"/>
<path style="fill:#506a38; stroke:none;" d="M133 33L136 36L137 33L133 33z"/>
<path style="fill:#50a470; stroke:none;" d="M125 34C126.807 37.1777 128.313 37.502 131 35L125 34z"/>
<path style="fill:#316e3b; stroke:none;" d="M153 35L153 36L166 45L160 36L153 35z"/>
<path style="fill:#97b69d; stroke:none;" d="M160 35L160 36L166 36L160 35z"/>
<path style="fill:#506a38; stroke:none;" d="M77 36L81 41L77 36z"/>
<path style="fill:#50a470; stroke:none;" d="M134 39L137 39L136 44L146 46L145 49L151 49C149.374 44.8158 136.922 31.6749 134 39z"/>
<path style="fill:#577157; stroke:none;" d="M138 36L152 47C150.212 41.4563 143.497 37.3151 138 36z"/>
<path style="fill:#12391b; stroke:none;" d="M158 36L158 37L160 40L165 36L158 36z"/>
<path style="fill:#4c5330; stroke:none;" d="M165 36L163 39L163 40L170 39L169 42L174 43L170 49L171 49C175.396 44.116 188.651 44.4111 188 38L190 41L205 44L206 44L210 40C197.855 34.7608 178.155 36 165 36z"/>
<path style="fill:#b1ccbd; stroke:none;" d="M178 36L178 37L184 37L178 36z"/>
<path style="fill:#97b69d; stroke:none;" d="M191 37L191 38L197 38L191 37z"/>
<path style="fill:#6ab280; stroke:none;" d="M85 42L92 38L85 42z"/>
<path style="fill:#52b076; stroke:none;" d="M94 38L93 42L94 42L96 39L94 38M135 38C128.958 43.1031 129.597 46.8539 137 50L142 43L136 44L135 38z"/>
<path style="fill:#12391b; stroke:none;" d="M188 38C187.294 44.4041 176.205 44.0935 171 47L171 50C176.307 53.2612 180.495 56.7891 187 56L189 42L191 42C192.621 48.8896 189.944 59.4264 194.179 65.5664C197.021 69.687 201.699 67.1485 202.308 62.9954C202.825 59.4652 200.549 56.9388 199 54L206 54L205 42L188 38z"/>
<path style="fill:#97b69d; stroke:none;" d="M203 38L203 39L209 39L203 38z"/>
<path style="fill:#12391b; stroke:none;" d="M166 39C166.292 43.104 166.183 45.8812 170 48L174 43L169 42L170 39L166 39z"/>
<path style="fill:#5a803f; stroke:none;" d="M209 50L213 40L211 42L212 46L213 46L213 43L243 42C235.738 38.9517 219.844 37.84 212.04 39.2245C206.037 40.2897 203.138 46.7576 209 50z"/>
<path style="fill:#8c7a49; stroke:none;" d="M162 40L167 43L162 40z"/>
<path style="fill:#12391b; stroke:none;" d="M175 40L175 43L179 40L175 40z"/>
<path style="fill:#899c87; stroke:none;" d="M212 40C207.685 44.5695 205.791 53.7821 205 60L210 60L210 59L207 59C207.343 48.529 221.75 52.0009 230 52L230 51L210 50L212 40z"/>
<path style="fill:#b1ccbd; stroke:none;" d="M233 40L233 41L237 41L233 40z"/>
<path style="fill:#6d7051; stroke:none;" d="M97 41L97 43L99 43L99 41L97 41z"/>
<path style="fill:#6ab280; stroke:none;" d="M109 47C113.949 45.7431 121.442 43.4773 115 50L114 50L110 49L114 56L117 50C121.261 50.135 123.15 48.8082 125 45C117.516 44.3693 114.839 38.9867 109 47z"/>
<path style="fill:#5a803f; stroke:none;" d="M128 43L131 41L128 43z"/>
<path style="fill:#50a470; stroke:none;" d="M229 43L229 44C241.219 44.2522 252.846 45.2805 265 46.7145C272.847 47.6404 278.947 45.6737 281 55L274 55L274 56L282 56L281 45L272 45L272 44L275 44C261.831 38.4742 242.832 42.7145 229 43z"/>
<path style="fill:#b1ccbd; stroke:none;" d="M246 41L246 42L253 42L246 41z"/>
<path style="fill:#2a682d; stroke:none;" d="M189 42L187 56L179 55L185 61L176 62L175 62L175 66L178 65C178.635 70.6824 181.318 73.3653 187 74C177.914 86.7758 157.211 95.7739 153 111L160 108L151 115L153 117L147 121L147 122L150 125L149 125L141 126L143 130L137 132L139 134C132.55 136.046 126.345 139.451 124 146L120 146C121.775 151.886 123.244 154.916 119 160L122 164L123 164L124 161C128.795 163.253 130.364 160.84 130 156L135 156L128 154L132 152L132 151L128 151L131 146L128 147L127 144L152 130L152 129L147 129L153 125C153.87 118.244 161.516 118.016 167 118L161 115L164 111L165 107L165 106L162 106L172 93L192 132L193 132L193 129L245 132L245 131L208 127L208 128L210 128L210 129C206.128 127.759 186.685 126.483 190 120L190 119L186 118L188 114L184 114L180 104L184 104L184 102L180 100L189 101C186.195 96.5508 180.497 99.1993 178.046 95.5285C175.489 91.6981 180.924 88.303 182 95L184 95L185 82L185 81L190 81L189 73L195 70L191 42L189 42z"/>
<path style="fill:#b1ccbd; stroke:none;" d="M260 42L260 43L265 43L260 42z"/>
<path style="fill:#73c290; stroke:none;" d="M84 43L83 46L84 43z"/>
<path style="fill:#99cea4; stroke:none;" d="M89 43L87 46L89 43z"/>
<path style="fill:#316e3b; stroke:none;" d="M112 47L112 48L114 50L115 50L119 44L118 43L112 47z"/>
<path style="fill:#506a38; stroke:none;" d="M210 43L210 50L213 49L210 43z"/>
<path style="fill:#2c4328; stroke:none;" d="M211 43L212 50L215 50L215 49L214 45L211 43z"/>
<path style="fill:#2a682d; stroke:none;" d="M213 43C215.361 53.6954 232.864 51.9748 242 52L241 49L243 51L244 51L245 51L248 51L248 46L250 53L280 54C279.693 44.7717 271.011 47.3477 264 46.4244C247.434 44.2429 229.701 43.0018 213 43z"/>
<path style="fill:#309856; stroke:none;" d="M80 45L79 52L81 53L89 47L89 46L83 44L80 45z"/>
<path style="fill:#2c4328; stroke:none;" d="M220 44L221 49L222 49L222 44L220 44z"/>
<path style="fill:#89b68f; stroke:none;" d="M243 44L243 45L251 45L243 44z"/>
<path style="fill:#577157; stroke:none;" d="M272 44L272 45L281 45L282 56L274 56L274 57L284 58L284 44L272 44z"/>
<path style="fill:#79a08a; stroke:none;" d="M284 44L284 45L289 45L284 44z"/>
<path style="fill:#c6ded4; stroke:none;" d="M289 44L289 45L293 45L289 44z"/>
<path style="fill:#506a38; stroke:none;" d="M94 45L97 47L94 45z"/>
<path style="fill:#5a803f; stroke:none;" d="M102 45L102 49L99 48C99.8932 52.1471 102.837 49.9302 106 49L102 45z"/>
<path style="fill:#108c40; stroke:none;" d="M119 45L117 49L119 45z"/>
<path style="fill:#316e3b; stroke:none;" d="M128 45L123 48L124 53L134 53L133 58L139 55L142 57C140.14 51.2301 133.456 47.0988 128 45z"/>
<path style="fill:#5a803f; stroke:none;" d="M139 48L144 46L139 48z"/>
<path style="fill:#6e6b3a; stroke:none;" d="M230 45L230 47L232 47L232 45L230 45z"/>
<path style="fill:#12391b; stroke:none;" d="M283 45L284 60L285 60L285 53L298 54L296 46C295.745 51.8145 288.055 45.0179 283 45z"/>
<path style="fill:#577157; stroke:none;" d="M291 45L296 51L296 46L298 54L285 53L285 57L286 57L286 54L296.397 57.7423L299 76L300 76L299 45L291 45z"/>
<path style="fill:#6ab280; stroke:none;" d="M80 46L73 53C77.6374 52.7941 80.0746 50.0909 82 46L80 46z"/>
<path style="fill:#97b69d; stroke:none;" d="M96 49L100 46L96 49z"/>
<path style="fill:#6ab280; stroke:none;" d="M141 52L147 54L149 49L145 49L146 46L141 52z"/>
<path style="fill:#577157; stroke:none;" d="M244 46L244 48L247 48L247 46L244 46z"/>
<path style="fill:#5a803f; stroke:none;" d="M248 46L248 51L246 49L245 49L245 51L244 51L243 51L243 49L241 49C243.245 53.4948 247 55.6136 252 55L249 57C250.243 60.5383 252.431 60.8031 256 61L256 63L223 61L221 64L221 65L223 75L231 75L231 74L224 74L224 62C234.352 62.0069 248.459 61.9574 258 66C258.905 62.1546 259.401 59.4552 256 57L258 55L258 54L249 54L248 46z"/>
<path style="fill:#577157; stroke:none;" d="M74 47L74 49L76 49L76 47L74 47z"/>
<path style="fill:#6ab280; stroke:none;" d="M91 48L91 49L101 55L107 49L91 48z"/>
<path style="fill:#309856; stroke:none;" d="M136 48L141 52L136 48z"/>
<path style="fill:#79a08a; stroke:none;" d="M292 48L295 51L292 48z"/>
<path style="fill:#50a470; stroke:none;" d="M60 55L61 55L64 50L68 51C63.9831 48.1387 61.2167 50.8064 60 55z"/>
<path style="fill:#508f5b; stroke:none;" d="M81 57L81 59L82 60L84 60L87 58L86 55L93 53L91 49L81 57z"/>
<path style="fill:#577157; stroke:none;" d="M91 49C93.0768 54.3564 96.1387 57.5579 102 58C99.8068 53.4339 95.936 50.2346 91 49z"/>
<path style="fill:#6e6b3a; stroke:none;" d="M122 49L123 51L124 51L125 49L122 49z"/>
<path style="fill:#4c5330; stroke:none;" d="M64 50L61 55L59 53L51 66L61 60L57 61L58 58L63 59L62 56L65 57L70 54L64 50z"/>
<path style="fill:#309856; stroke:none;" d="M117 50L117 53L120 53L120 50L117 50z"/>
<path style="fill:#97b69d; stroke:none;" d="M120 53L123 50L120 53z"/>
<path style="fill:#52b076; stroke:none;" d="M157 50L152 56L158 54L157 50z"/>
<path style="fill:#918c59; stroke:none;" d="M199 50L199 52L201 52L201 50L199 50z"/>
<path style="fill:#99cea4; stroke:none;" d="M80 51L77 56L80 51z"/>
<path style="fill:#506a38; stroke:none;" d="M105 56L108 54L109 54L110 54L114 56C111.609 50.9789 106.967 50.1035 105 56z"/>
<path style="fill:#52b076; stroke:none;" d="M123 51L117 59L117 60L121 60L124 57L126 54L123 51z"/>
<path style="fill:#6d7051; stroke:none;" d="M207 56L219 59L223 58L224 53C218.211 53.3387 208.378 48.0646 207 56z"/>
<path style="fill:#508f5b; stroke:none;" d="M219 52L219 53L224 53L224 57L225 54L238 53L219 52z"/>
<path style="fill:#79a08a; stroke:none;" d="M129 55L134 53L129 55M139 52L142 54L139 52z"/>
<path style="fill:#4c5330; stroke:none;" d="M159 52L159 54L162 54L162 52L159 52z"/>
<path style="fill:#97b69d; stroke:none;" d="M238 52L238 53L243 53L238 52z"/>
<path style="fill:#5a803f; stroke:none;" d="M280 52L266 55L266 56C268.985 56.9335 281.694 56.4943 280 52z"/>
<path style="fill:#2a682d; stroke:none;" d="M114 57L115 58L120 53L114 57z"/>
<path style="fill:#89b68f; stroke:none;" d="M146 54L146 55L153 57L146 54z"/>
<path style="fill:#506a38; stroke:none;" d="M236 53L236 54L239 55L240 60L224 59L224 61L256 63L256 61C250.275 60.6873 249.858 59.4419 252 55L236 53z"/>
<path style="fill:#899c87; stroke:none;" d="M249 53L249 54L271 55L249 53z"/>
<path style="fill:#69a078; stroke:none;" d="M66 54L65 57L62 56L60 60L69 55L66 54z"/>
<path style="fill:#506a38; stroke:none;" d="M123 55L135 64C132.744 59.371 128.321 54.906 123 55z"/>
<path style="fill:#50a470; stroke:none;" d="M126 54L136 63L135 59L139 55L133 55L126 54z"/>
<path style="fill:#99cea4; stroke:none;" d="M156 55L156 56L160 57L160 54L156 55z"/>
<path style="fill:#6e6b3a; stroke:none;" d="M199 54L205 59L206 54L199 54z"/>
<path style="fill:#27833a; stroke:none;" d="M223 56C223.991 60.6261 235.631 59.9816 240 60L238 58L239 55L223 56z"/>
<path style="fill:#1c6532; stroke:none;" d="M286 54L285 60L284 60L278 58L277 65L274 56L266 56L264 64L265 61C261.064 61.8435 262.373 64.683 263 68L260 69L260 71L264 75L263 76L259 73L258 73C255.987 82.6539 236.059 78 228 78L228 84L222 85L223 79C219.402 81.3323 220.003 85.0129 220 89L223 90L224 90L227 87L228 91L230 91L231 81L232 81L234 86L237 81L237 87L238 87C238 85.7977 237.756 84.1763 238 83C239.898 73.8573 249.803 85.3595 245 86L245 87L248 90L249 90L249 86L253 87C253.338 82.6251 254.669 80.9032 259 80L259 81C254.187 85.0264 254.532 91.4041 256 97L246 98L246 99C249.553 99 255.516 100.992 256 97L257 97L259 102L259 103L257 112L256 112L255 110L243 111L248 120L239 119C240.448 123.09 246.043 124.305 249 121L250 121L251 121L251 123L252 123L253 123L253 121L259 121L259 120L249 120L249 117L255 117L255 118L250 118L250 119C255.716 118.996 273.563 120.933 277 117L286 117L286 116L283 113L289 117L289 92L288 92L288 97L287 97L285 77L284 77C284.069 85.3617 289.639 100.586 277 101L278 110L275 110L276 101L266 97L284 98L284 85L283 85L283 95C278.149 88.0564 288.696 73.8592 276.004 73.044C274.014 72.9162 271.993 73.0002 270 73C271.283 78.3863 270.49 83.2209 276 86L275 75L276 75L277 95L275 88L268 93L268 73L266 73L266 83L265 83C263.996 68.2025 275.486 67.4297 286 75L286 54z"/>
<path style="fill:#79a08a; stroke:none;" d="M57 55L56 57L58 57L57 55z"/>
<path style="fill:#52b076; stroke:none;" d="M160 55L158 57C157.87 61.4826 156.514 65.0466 162 66L166 69L172 76C176.199 66.52 174.198 63.7422 163 62L160 55z"/>
<path style="fill:#316e3b; stroke:none;" d="M163 57L166 56C166.68 59.6704 168.359 60.3128 172 60C169.709 57.4406 165.908 53.7067 163 57z"/>
<path style="fill:#506a38; stroke:none;" d="M256 55C256.372 57.2336 262.422 66.6056 256 65L257 76L222 76L222 77C229.867 78.873 256.888 82.6626 258 73L259 73L259 76L263 76L264 75L260 71L260 69L263 68L266 55L256 55z"/>
<path style="fill:#899c87; stroke:none;" d="M287 55L288 85L289 85L287 55z"/>
<path style="fill:#6ab280; stroke:none;" d="M89 56L95 61L89 56z"/>
<path style="fill:#52b076; stroke:none;" d="M106 58C109.058 58.7099 110.268 58.6691 112 56L106 58z"/>
<path style="fill:#79a08a; stroke:none;" d="M112 56L111 61C114.036 59.9996 114.494 59.1372 114 56L112 56z"/>
<path style="fill:#4c5330; stroke:none;" d="M156 56L154 59C156.251 58.5267 157.118 58.1397 156 56z"/>
<path style="fill:#50a470; stroke:none;" d="M164 56L163 57L167 60L166 56L164 56z"/>
<path style="fill:#12391b; stroke:none;" d="M207 59L219 59C216.973 55.2032 208.062 54.042 207 59M288 58L292 57L291 62L288 61L289 73L293 73L291 76L293 79L290 78L293 80L291 82L291 83L290 98L294 98L292 101L294 104L291 103L291 113L294 112L294 115L291 114L299 117L299 119L294 119C295.099 122.321 296.59 122.737 300 123L297 61L296 61L296 65L293 65L296 57L288 58z"/>
<path style="fill:#50a470; stroke:none;" d="M54 57L50 62L53 63L56 57L54 57z"/>
<path style="fill:#2a682d; stroke:none;" d="M85 57L84 60L85 57z"/>
<path style="fill:#52b076; stroke:none;" d="M147 60L148 61L152 57L147 60z"/>
<path style="fill:#12391b; stroke:none;" d="M186 57L187 60L186 57M275 57L277 65L276 62L278 57L275 57z"/>
<path style="fill:#506a38; stroke:none;" d="M288 61L291 62L292 57L288 61M293 57L293 65L296 65L297 57L293 57z"/>
<path style="fill:#79a08a; stroke:none;" d="M297 57L297 70L298 70L297 57z"/>
<path style="fill:#2c4328; stroke:none;" d="M58 58L57 61L60 59L58 58z"/>
<path style="fill:#5a803f; stroke:none;" d="M86 58L84 61L91 67L93 67C93.0017 62.0877 89.9713 60.3644 86 58z"/>
<path style="fill:#508f5b; stroke:none;" d="M125 58L130 62L125 58z"/>
<path style="fill:#2a682d; stroke:none;" d="M208 58L208 59L219 60L219 61C212.065 61.0246 206.754 63.817 205 71L206 71L207 69L222 66L222 65L216 66L216 65L221 62C218.024 57.8255 212.787 58.0396 208 58z"/>
<path style="fill:#12391b; stroke:none;" d="M220 58L221 62L216 65L216 66C220.589 65.1594 222.75 63.5396 224 59L220 58z"/>
<path style="fill:#97b69d; stroke:none;" d="M299 58L299 65L300 65L299 58z"/>
<path style="fill:#316e3b; stroke:none;" d="M70 59L83 69L82 72L87 73L85 67L93 71L95 65L93 67C84.7592 62.7314 79.6882 59.2795 70 59z"/>
<path style="fill:#52b076; stroke:none;" d="M138 67L140 67L146 62C141.766 58.1285 138.204 62.2211 138 67z"/>
<path style="fill:#27833a; stroke:none;" d="M203 59L202 67L207 64L205 59L203 59z"/>
<path style="fill:#5a803f; stroke:none;" d="M286 59L286 75L280 73L280 74L283 85L284 85L284 77L285 77L287 87L290 87L290 82L289 82L289 85L288 85L286 59z"/>
<path style="fill:#6ab280; stroke:none;" d="M93 63L93 71L98 72L102 61L93 63z"/>
<path style="fill:#52b076; stroke:none;" d="M122 60L128 65L122 60z"/>
<path style="fill:#27833a; stroke:none;" d="M137 60L138 63L141 60L137 60z"/>
<path style="fill:#50a470; stroke:none;" d="M167 60L172 64L167 60z"/>
<path style="fill:#6e6b3a; stroke:none;" d="M170 60L170 62L172 62L172 60L170 60z"/>
<path style="fill:#8c7a49; stroke:none;" d="M206 63L207 63L210 63L219 61C215.682 59.0883 206.967 58.4895 206 63z"/>
<path style="fill:#508f5b; stroke:none;" d="M264 60L264 64C265.813 62.4444 265.813 61.5556 264 60z"/>
<path style="fill:#52b076; stroke:none;" d="M106 61L106 67C108.252 64.6558 108.78 63.0475 106 61z"/>
<path style="fill:#506a38; stroke:none;" d="M108 61L104 69L108 72L113 61L108 61z"/>
<path style="fill:#309856; stroke:none;" d="M153 61L170 78L171 78L166 69L162 66L157 61L153 61z"/>
<path style="fill:#12391b; stroke:none;" d="M207 61L205 68L206 68L210 65L210 61L207 61z"/>
<path style="fill:#577157; stroke:none;" d="M25 80L27 83L21 89L21 90L24 91C21.4837 94.17 19.7494 94.3672 16 93L18 98C23.3567 96.9192 28.2967 93.3008 30 88L37 88C35.4104 79.5331 52.8071 70.847 57 64L51 66L52 62L25 80z"/>
<path style="fill:#50a470; stroke:none;" d="M114 62L108 72L99 69L96 76L96 77L104 83L103 81L106 82L99 75C101.642 73.7013 104.466 72.19 105 76C107.746 78.1221 109.646 80.9728 113 79L114 81L115 81L124 72L124 71L114 62z"/>
<path style="fill:#2a682d; stroke:none;" d="M115 62L125 72C125.083 66.5553 119.907 63.3367 115 62z"/>
<path style="fill:#50a470; stroke:none;" d="M118 62L123 66L118 62z"/>
<path style="fill:#6e6b3a; stroke:none;" d="M140 67L141 68L143 68L146 62L140 67z"/>
<path style="fill:#5a803f; stroke:none;" d="M170 66L175 62L170 66z"/>
<path style="fill:#1c6532; stroke:none;" d="M224 62L224 74L257 76L256 64L224 62z"/>
<path style="fill:#52b076; stroke:none;" d="M75 63L69 68L69 69L73 72L79 66L79 65L75 63M88 64L91 66L88 64z"/>
<path style="fill:#6e6b3a; stroke:none;" d="M99 64L99 67L101 67L101 64L99 64z"/>
<path style="fill:#506a38; stroke:none;" d="M104 67L107 64L104 67z"/>
<path style="fill:#50a470; stroke:none;" d="M141 68L144 73L145 70L147 70L148 73L149 73L148 68L151 64L141 68z"/>
<path style="fill:#2c4328; stroke:none;" d="M49 65L48 68C50.1579 67.0224 50.5007 66.8117 49 65z"/>
<path style="fill:#2a682d; stroke:none;" d="M153 65L153 68L156 67C157.408 72.7485 162.496 75.5874 168 77C165.114 71.6096 158.757 66.9411 153 65z"/>
<path style="fill:#506a38; stroke:none;" d="M176 65L174 72L179 71L176 65z"/>
<path style="fill:#6e6b3a; stroke:none;" d="M211 65L211 67L214 67L214 65L211 65z"/>
<path style="fill:#12391b; stroke:none;" d="M222 65L214 67L213 71L206 69L205 88L209 86L210 89L213 87L213 86L213 85L213 83L213 82L211 80L214 81L211 79L211 72L213 74L214 74L222 69L222 70L219 70L219 71L222 71L222 76L218 72C214.37 75.2993 217.276 84.9139 219 89L220 89L222 77L222 76L222 65z"/>
<path style="fill:#6ab280; stroke:none;" d="M57 71L63 66L57 71z"/>
<path style="fill:#73c290; stroke:none;" d="M74 70L80 67L74 70z"/>
<path style="fill:#508f5b; stroke:none;" d="M125 68L126 71L131 69L129 73L135 67L125 68z"/>
<path style="fill:#6e6b3a; stroke:none;" d="M290 66L290 68L292 68L292 66L290 66z"/>
<path style="fill:#6d7051; stroke:none;" d="M77 68L80 71L81 68L80 67L77 68z"/>
<path style="fill:#89b68f; stroke:none;" d="M85 67L85 71L89 71L85 67z"/>
<path style="fill:#99cea4; stroke:none;" d="M137 67L138 73L143 74L143 69L137 67z"/>
<path style="fill:#508f5b; stroke:none;" d="M194 67L203 69L203 86L202 86L202 76L201 76L201 88L204 88L205 67L194 67z"/>
<path style="fill:#4c5330; stroke:none;" d="M46 68L43 70L41 75L49 72L46 68z"/>
<path style="fill:#577157; stroke:none;" d="M62 68L61 73L66 73L64 68L62 68z"/>
<path style="fill:#4c5330; stroke:none;" d="M148 68L148 70L151 70L151 68L148 68z"/>
<path style="fill:#79a08a; stroke:none;" d="M64 69L67 71L64 69z"/>
<path style="fill:#506a38; stroke:none;" d="M69 69C69.4975 73.4637 70.9361 75.9951 75 78L69 69z"/>
<path style="fill:#508f5b; stroke:none;" d="M73 70L74 74L83 69L80 71L73 70z"/>
<path style="fill:#4c5330; stroke:none;" d="M133 75C136.162 73.6427 138.095 72.5585 138 69L133 75z"/>
<path style="fill:#2c4328; stroke:none;" d="M196 80L196 81L196 82L194 86L200 84L197 87L200 90L198 93L198 94C203.565 92.8074 202.284 74.8195 198 72L201 69C194.688 69.2055 189.424 75.3539 196 80z"/>
<path style="fill:#99cea4; stroke:none;" d="M202 69L202 86L203 86L202 69z"/>
<path style="fill:#6d7051; stroke:none;" d="M211 69L211 71L213 71L213 69L211 69z"/>
<path style="fill:#27833a; stroke:none;" d="M211 74L211 78L211 79L214 81L211 80L218 94L217 89L226 98L227 98C229.064 88.1043 247.988 93 256 93C255.081 88.4151 255.773 84.5453 259 81L259 80C253.007 80.6898 252.109 86.1188 248 90L244 87L244 84L239 84L239 80L238 80C237.718 88.8747 230.704 94.062 223 88C214.25 87.6004 214.906 72.8486 222 70L211 74z"/>
<path style="fill:#50a470; stroke:none;" d="M89 70L89 78L90 78L94 71L89 70z"/>
<path style="fill:#89b68f; stroke:none;" d="M112 70L115 74L116 73L112 70z"/>
<path style="fill:#6e6b3a; stroke:none;" d="M145 70L143 75L147 70L145 70z"/>
<path style="fill:#50a470; stroke:none;" d="M192 70L189 74L192 73L192 77L190 76L188 85L192 86L193 81L191 79L191 78L192 70z"/>
<path style="fill:#316e3b; stroke:none;" d="M201 70L198 72L201 76L202 76L201 70z"/>
<path style="fill:#506a38; stroke:none;" d="M265 83L266 83L266 73L283 73L283 71C271.482 70.9046 263.306 67.8383 265 83z"/>
<path style="fill:#6e6b3a; stroke:none;" d="M294 70L294 72L296 72L296 70L294 70z"/>
<path style="fill:#1b9f51; stroke:none;" d="M86 71L74 74L79 77L75 81L75 84L85 82L89 71L86 71M95 87L97 82L103 86L99 87L99 88L101 89L101 90L100 93L104 84L112 87L108 81L103 81L104 83L103 83L95 75L96 71C88.9142 74.5316 87.599 82.9953 95 87z"/>
<path style="fill:#577157; stroke:none;" d="M217 75L222 76L222 71L217 75z"/>
<path style="fill:#b1ccbd; stroke:none;" d="M300 71L300 83L301 83L300 71z"/>
<path style="fill:#6e6b3a; stroke:none;" d="M76 72L77 75L80 73L76 72M98 75L98 72C95.3925 73.1195 94.9321 74.3414 98 75z"/>
<path style="fill:#1b9f51; stroke:none;" d="M102 72L106 75L102 72z"/>
<path style="fill:#2a682d; stroke:none;" d="M123 72L115 81L122 76L127 79L128 74L123 72z"/>
<path style="fill:#99cea4; stroke:none;" d="M146.667 72.3333L147.333 72.6667L146.667 72.3333z"/>
<path style="fill:#97b69d; stroke:none;" d="M157 72L156 77L159 76L157 72z"/>
<path style="fill:#8c7a49; stroke:none;" d="M207 72L207 74L209 74L209 72L207 72M211 72L211 74L213 74L213 72L211 72z"/>
<path style="fill:#506a38; stroke:none;" d="M99 75L108 81L115 90C113.777 82.3323 107.884 78.4146 103 73L99 75z"/>
<path style="fill:#108c40; stroke:none;" d="M135 77L139 74C136.11 73.0128 135.141 74.107 135 77z"/>
<path style="fill:#69a078; stroke:none;" d="M139 73L142 75L139 73z"/>
<path style="fill:#506a38; stroke:none;" d="M174 73L175 76L178 73L174 73z"/>
<path style="fill:#2c4328; stroke:none;" d="M191 73L191 77L192 77L191 73z"/>
<path style="fill:#6e6b3a; stroke:none;" d="M194 73L194 75L196 75L196 73L194 73z"/>
<path style="fill:#2c4328; stroke:none;" d="M233 74L233 75L239 75L239 73L233 74z"/>
<path style="fill:#12391b; stroke:none;" d="M268 73L268 93L275 88C274.097 91.3366 274.141 92.9346 277 95L276 75L275 75L276 86L270 73L268 73z"/>
<path style="fill:#4c5330; stroke:none;" d="M289 73C289.003 77.9218 288.372 83.1686 293 86L291 83L291 82L293 80L290 78L293 79L291 76L293 73L289 73z"/>
<path style="fill:#6e6b3a; stroke:none;" d="M294 73L296 76L296 73L294 73z"/>
<path style="fill:#899c87; stroke:none;" d="M298 73L298 84L299 84L298 73z"/>
<path style="fill:#6ab280; stroke:none;" d="M66 76L71 79L70 84C73.6913 80.0393 72.182 72.9431 66 76z"/>
<path style="fill:#73c290; stroke:none;" d="M81 79L87 74L81 79z"/>
<path style="fill:#69a078; stroke:none;" d="M123 85L129 82L134 86L129 80L132 76L136 80L140 79L138 76C129.337 75.4145 127.993 77.7025 123 85z"/>
<path style="fill:#2a682d; stroke:none;" d="M137 74L142 79L137 74z"/>
<path style="fill:#50a470; stroke:none;" d="M142 88L137 93L133 91L137 94L134 98C142.54 103.271 143.991 96.248 152 94L152 93L140 83L146 85L143 81L154 77C148.019 70.9917 135.703 83.3842 142 88z"/>
<path style="fill:#6e6b3a; stroke:none;" d="M64 75L63 76L63 77L64 78L65 78L66 77L66 76L64 75z"/>
<path style="fill:#2c4328; stroke:none;" d="M148 76L154 78L148 76z"/>
<path style="fill:#97b69d; stroke:none;" d="M171 76L176 78L175 75L171 76z"/>
<path style="fill:#52b076; stroke:none;" d="M155 76L158 80L155 76z"/>
<path style="fill:#27833a; stroke:none;" d="M156 77L159 80L159 76L156 77z"/>
<path style="fill:#4c5330; stroke:none;" d="M159 76L162 78L159 76z"/>
<path style="fill:#69a078; stroke:none;" d="M163 76L158 80L158 81L161 85L163 76z"/>
<path style="fill:#8c7a49; stroke:none;" d="M194 76L194 78L196 78L196 76L194 76z"/>
<path style="fill:#6d7051; stroke:none;" d="M211 76L211 78L213 78L213 76L211 76z"/>
<path style="fill:#2c4328; stroke:none;" d="M299 76L299 87L300 87L299 76z"/>
<path style="fill:#50a470; stroke:none;" d="M64 78L70 84L71 79L64 78z"/>
<path style="fill:#99cea4; stroke:none;" d="M74 80L79 77L74 80z"/>
<path style="fill:#4c5330; stroke:none;" d="M88 77L88 82L89 82L88 77z"/>
<path style="fill:#50a470; stroke:none;" d="M121 83L126 77L121 83z"/>
<path style="fill:#2a682d; stroke:none;" d="M169 81L174 80C171.643 77.5535 169.977 77.5667 169 81z"/>
<path style="fill:#6e6b3a; stroke:none;" d="M198 77L198 79L200 79L200 77L198 77M294 77L294 79L296 79L296 77L294 77z"/>
<path style="fill:#50a470; stroke:none;" d="M73 78C71.7607 82.8211 71.7316 87.5609 67 90L67 94L74 87L80 89L81 88L80 85L86 83C88.9459 83.746 90.3114 84.1971 91 81L88 82L88 78L85 82C80.0897 82.1068 74.8022 85.4453 75 78L73 78z"/>
<path style="fill:#506a38; stroke:none;" d="M149 78L149 79L160 85C158.346 79.3819 154.339 78.4617 149 78z"/>
<path style="fill:#508f5b; stroke:none;" d="M173 84L178 78C174.425 79.0366 172.938 80.2233 173 84z"/>
<path style="fill:#4c5330; stroke:none;" d="M191 78L191 80L193 80L193 78L191 78z"/>
<path style="fill:#6d7051; stroke:none;" d="M193 78L192 86L190 88L189 88L185 85L184 95L182 95C181.242 85.266 174.2 93.4458 178.603 96.7955C180.939 98.5724 186.081 98.1799 189 99L189 91L190 91C190.966 96.563 195.323 96.1003 200 95L200 94L191 94L191 87L192 87L196 89L193 87L196 82L196 81L196 80L193 78z"/>
<path style="fill:#2c4328; stroke:none;" d="M222 85L223 85L227 80L226 84L228 78C223.217 78.3814 222.255 80.393 222 85z"/>
<path style="fill:#12391b; stroke:none;" d="M278 78L281 82L278 78z"/>
<path style="fill:#5a803f; stroke:none;" d="M56 80L56 81L60 79L56 80z"/>
<path style="fill:#506a38; stroke:none;" d="M131 79L134 81L131 79z"/>
<path style="fill:#97b69d; stroke:none;" d="M137 81L141 80L137 81z"/>
<path style="fill:#8c7a49; stroke:none;" d="M207 79L207 81L209 81L209 79L207 79z"/>
<path style="fill:#506a38; stroke:none;" d="M239 79L239 84L244 84C243.272 80.6494 242.403 79.5875 239 79z"/>
<path style="fill:#6ab280; stroke:none;" d="M51 83L54 82L56 84L52 88L60 97L67 95L67 94C61.6433 92.9421 57.9183 91.8809 57 86L61 87L61 83C57.2164 81.4655 53.8781 78.9766 51 83z"/>
<path style="fill:#8c7a49; stroke:none;" d="M78 80L78 82L80 82L80 80L78 80z"/>
<path style="fill:#4c5330; stroke:none;" d="M136 80L134 84C136.649 83.4324 137.355 82.4122 136 80z"/>
<path style="fill:#8c7a49; stroke:none;" d="M198 80L198 82L200 82L200 80L198 80z"/>
<path style="fill:#899c87; stroke:none;" d="M224 80L224 83L227 83L227 80L224 80z"/>
<path style="fill:#6e6b3a; stroke:none;" d="M294 80L294 82L297 82L297 80L294 80z"/>
<path style="fill:#99cea4; stroke:none;" d="M147 81L150 83L147 81z"/>
<path style="fill:#309856; stroke:none;" d="M185 81L185 82L187 85L188 85L190 82L185 81z"/>
<path style="fill:#12391b; stroke:none;" d="M231 81L230 91C236.208 90.5092 236.938 86.5895 237 81C233.964 82.0004 233.506 82.8629 234 86L231 81M244 81L244 87L248 86L244 81z"/>
<path style="fill:#508f5b; stroke:none;" d="M62 82L61 86L62 88L66 83L62 82z"/>
<path style="fill:#50a470; stroke:none;" d="M97 82L93 88L99 96L96 95L97 99L88 105L94 103L95 106L100 105L96 101L102 95L102 94L99 88L99 87L103 86L97 82z"/>
<path style="fill:#99cea4; stroke:none;" d="M65 84L65 86L66 87L68 87L68 83L65 84z"/>
<path style="fill:#1b9f51; stroke:none;" d="M86 83L88 86L89 85L88 83L86 83z"/>
<path style="fill:#8c7a49; stroke:none;" d="M93 83L93 85L95 85L95 83L93 83z"/>
<path style="fill:#2a682d; stroke:none;" d="M140 83C142.362 87.9597 146.695 91.5547 152 93C150.303 87.722 145.262 84.2511 140 83z"/>
<path style="fill:#50a470; stroke:none;" d="M148 83L148 84L154 87L148 83z"/>
<path style="fill:#506a38; stroke:none;" d="M207 83L207 85L209 85L209 83L207 83z"/>
<path style="fill:#6e6b3a; stroke:none;" d="M211 83L211 85L213 85L213 83L211 83z"/>
<path style="fill:#2a682d; stroke:none;" d="M213 83L211 89L206 86L204 89L206 92L207 92L213 90L212 96L225 99C224.46 102.897 223.41 110.016 228 111C226.779 101.342 226.501 94.0684 217 89L218 94L213 83z"/>
<path style="fill:#577157; stroke:none;" d="M300 83L300 87L299 87L299 84L298 84L299 113L300 113C302.831 106.275 302.867 89.8333 300 83z"/>
<path style="fill:#2a682d; stroke:none;" d="M51 84L52 88L56 84L51 84z"/>
<path style="fill:#108c40; stroke:none;" d="M69 84L72 88L71 84L69 84z"/>
<path style="fill:#6ab280; stroke:none;" d="M80 85L81 94L92 85L80 85z"/>
<path style="fill:#316e3b; stroke:none;" d="M104 84L104 91L106 91L104 84z"/>
<path style="fill:#52b076; stroke:none;" d="M105 84C106.897 87.0724 108.374 88.2182 112 88L105 84z"/>
<path style="fill:#12391b; stroke:none;" d="M193 84L196 89L192 89L192 93L200 93L200 87L200 86L193 84z"/>
<path style="fill:#6e6b3a; stroke:none;" d="M198 84L198 86L200 86L200 84L198 84z"/>
<path style="fill:#12391b; stroke:none;" d="M281 84C280.438 88.4727 279.575 91.6334 283 95L283 84L281 84z"/>
<path style="fill:#79a08a; stroke:none;" d="M284 84L286 91L284 84z"/>
<path style="fill:#6e6b3a; stroke:none;" d="M295 84L295 86L297 86L297 84L295 84z"/>
<path style="fill:#69a078; stroke:none;" d="M23 85C19.2398 87.2715 16.2893 88.0314 17 93L19 91L24 93L21 90L21 89L25 85L23 85z"/>
<path style="fill:#52b076; stroke:none;" d="M47 85L45 92L37 95L37 96L39 98L51 103L43 94L50 92L55 96L52 86L47 85z"/>
<path style="fill:#6e6b3a; stroke:none;" d="M122 85L125 88L122 85z"/>
<path style="fill:#4c5330; stroke:none;" d="M128 88L132 87L128 88z"/>
<path style="fill:#50a470; stroke:none;" d="M158 85L158 87L160 85L158 85z"/>
<path style="fill:#12391b; stroke:none;" d="M188 85L189 88L190 88L190 85L188 85z"/>
<path style="fill:#6d8753; stroke:none;" d="M290 85L287 87L287 97L288 97L288 92L289 92L289 104L290 104L290 85z"/>
<path style="fill:#506a38; stroke:none;" d="M57 86L57 91L59 91L57 86z"/>
<path style="fill:#108c40; stroke:none;" d="M58 92L68 93L67 87L62 90L63 86L58 92z"/>
<path style="fill:#73c290; stroke:none;" d="M64 86L66 89L66 86L64 86z"/>
<path style="fill:#506a38; stroke:none;" d="M68 86L67 89L68 90L71 89L68 86z"/>
<path style="fill:#6d8753; stroke:none;" d="M89 89L93 86L89 89z"/>
<path style="fill:#316e3b; stroke:none;" d="M137 94L133 91L137 93L142 88C128.661 81.7009 130.492 100.027 137 94z"/>
<path style="fill:#6d7051; stroke:none;" d="M207 86L207 88L209 88L209 86L207 86z"/>
<path style="fill:#12391b; stroke:none;" d="M249 89L252 86L249 89z"/>
<path style="fill:#6ab280; stroke:none;" d="M35 91L40 88L35 91z"/>
<path style="fill:#1b9f51; stroke:none;" d="M74 87L70 91L70 96L72 94L87 106L86 110C90.0101 110.378 92.7856 110.611 93 106L95 106L94 103C86.0228 106.16 75.584 94.8787 76 87L74 87z"/>
<path style="fill:#50a470; stroke:none;" d="M148 87L152 90L148 87z"/>
<path style="fill:#97b69d; stroke:none;" d="M191 87L191 94L192 94L191 87z"/>
<path style="fill:#4c5330; stroke:none;" d="M202 87L202 97L205 87L202 87z"/>
<path style="fill:#918c59; stroke:none;" d="M224 87L224 90L227 90L227 87L224 87z"/>
<path style="fill:#506a38; stroke:none;" d="M51 88C51.222 93.211 54.789 96.778 60 97L60 95L51 88z"/>
<path style="fill:#4c5330; stroke:none;" d="M62 88L62 90L64 90L64 88L62 88z"/>
<path style="fill:#5a803f; stroke:none;" d="M76 88C74.8126 95.2428 83.5787 102.191 90 104L91 100L81 94L82 90L76 88z"/>
<path style="fill:#506a38; stroke:none;" d="M91 90L94 89L91 90z"/>
<path style="fill:#73c290; stroke:none;" d="M201 88L200 95L201 88z"/>
<path style="fill:#50a470; stroke:none;" d="M25 121L12 102L12 101C5.35109 97.1214 12.0907 93.1599 17 93L17 92L12 89C-5.35957 97.1017 15.6541 114.121 25 121z"/>
<path style="fill:#1b9f51; stroke:none;" d="M87 89L83 92C84.8892 98.6564 90.6415 101.51 97 99C95.8964 93.8783 91.5884 91.0905 87 89z"/>
<path style="fill:#52b076; stroke:none;" d="M89 89L95 94L89 89z"/>
<path style="fill:#8c7a49; stroke:none;" d="M92 89L92 91L94 91L94 89L92 89z"/>
<path style="fill:#5a803f; stroke:none;" d="M94 89C94.1643 92.8442 95.6672 94.2005 99 96L94 89z"/>
<path style="fill:#69a078; stroke:none;" d="M131 97L127 92L126 92L121 93L122 90C118.061 89.403 114.856 93.1226 119.188 95.9329C122.274 97.9348 127.355 96.122 131 97z"/>
<path style="fill:#73c290; stroke:none;" d="M152 93L155 91L159 95C159.098 90.0033 153.578 87.3848 152 93z"/>
<path style="fill:#506a38; stroke:none;" d="M158 90L158 91L162 89L158 90z"/>
<path style="fill:#5a803f; stroke:none;" d="M102 90L101 94L105 91L102 90z"/>
<path style="fill:#12391b; stroke:none;" d="M204 90L204 104L200 95L192 96L194 103L193 108L203 114L204 114L199 104L206 114L221 114C219.279 110.954 218.216 110.724 215 112L215 103L216 103L216 108L225 110L225 99L210 96L213 93L210 90L209 90L204 90z"/>
<path style="fill:#4c5330; stroke:none;" d="M207 90L207 92L209 92L209 90L207 90z"/>
<path style="fill:#8c7a49; stroke:none;" d="M210 90L210 92L213 92L213 90L210 90z"/>
<path style="fill:#b1ccbd; stroke:none;" d="M301 90L301 98L302 98L301 90z"/>
<path style="fill:#316e3b; stroke:none;" d="M19 91L22 95L21 91L19 91z"/>
<path style="fill:#4c5330; stroke:none;" d="M123 91L124 94L125 94L126 91L123 91z"/>
<path style="fill:#899c87; stroke:none;" d="M189 91L188 96L189 96L189 91z"/>
<path style="fill:#506a38; stroke:none;" d="M284 91L284 98L266 97L276 101L275 107L278 107L277 101C283.461 100.923 286.752 97.5739 284 91z"/>
<path style="fill:#8c7a49; stroke:none;" d="M295 91L295 93L297 93L297 91L295 91z"/>
<path style="fill:#316e3b; stroke:none;" d="M31 92C32.1012 96.201 33.4261 98.7992 38 99L39 93L31 92z"/>
<path style="fill:#1b9f51; stroke:none;" d="M49 92L53 99L52 100L47 93L43 94L49.8835 104L49 119L53 117L51 112L66 102C64.1923 96.1617 54.1945 95.3306 49 92z"/>
<path style="fill:#52b076; stroke:none;" d="M87 92L94 98L87 92z"/>
<path style="fill:#69a078; stroke:none;" d="M158 98L164 92C160.303 93.0336 159.034 94.3032 158 98z"/>
<path style="fill:#506a38; stroke:none;" d="M228 92L228 94L255 95L255 93L228 92z"/>
<path style="fill:#89b68f; stroke:none;" d="M299 92L299 106L300 106L299 92z"/>
<path style="fill:#27833a; stroke:none;" d="M12 101L12 102L9 102C14.6515 104.18 21.3182 96.427 14.6597 93.6227C9.47754 91.4401 6.22778 99.065 12 101z"/>
<path style="fill:#97b69d; stroke:none;" d="M17 93L20 95L17 93z"/>
<path style="fill:#89b68f; stroke:none;" d="M62 96L62 97C64.0783 98.9566 65.5081 100.057 63 102L63 103L66 103L66 104L64 109L71 103C67.8838 101.193 67.8158 99.5088 68 96L73 101L77 102L75 100L75 99C77.0562 96.5421 74.301 95.1447 72 94L70 96L71 93L62 96z"/>
<path style="fill:#506a38; stroke:none;" d="M154 93L153 94L153 96L157 97L156 93L154 93z"/>
<path style="fill:#108c40; stroke:none;" d="M171 93L170 102L165 99L162 106C168.705 109.601 174.704 123.716 174 131C179.913 128.988 183.501 130.44 184 137C194.198 139.686 193.307 150.961 201 156L195 141L196 141L200 149L201 149L185.298 118L171 93z"/>
<path style="fill:#6e6b3a; stroke:none;" d="M206 93L209 96L208 93L206 93z"/>
<path style="fill:#918c59; stroke:none;" d="M10 99L11 99L12 96L14 98C15.0496 93.3782 10.65 95.1008 10 99z"/>
<path style="fill:#97b69d; stroke:none;" d="M29 94L28 98L31 98L29 94z"/>
<path style="fill:#6d7051; stroke:none;" d="M30 94L30 99C33.5505 98.2233 32.7602 95.4733 30 94z"/>
<path style="fill:#73c290; stroke:none;" d="M47 94L52 100L53 99L47 94z"/>
<path style="fill:#6d7051; stroke:none;" d="M105 94L104 95L104 96L104 97L107 94L105 94z"/>
<path style="fill:#8c7a49; stroke:none;" d="M210 94L210 96L212 96L212 94L210 94z"/>
<path style="fill:#69a078; stroke:none;" d="M227 94L227 108L232 108L232 107L228 107L228 95L234 95L227 94z"/>
<path style="fill:#6e6b3a; stroke:none;" d="M291 94L292 97L293 97L294 94L291 94z"/>
<path style="fill:#506a38; stroke:none;" d="M295 94L295 97L297 97L297 94L295 94M109 98L112 95L109 98z"/>
<path style="fill:#1c6532; stroke:none;" d="M142 104L150 95C145.223 96.3457 142.758 99.0901 142 104z"/>
<path style="fill:#1b9f51; stroke:none;" d="M188 96L192 102L192 95L188 96z"/>
<path style="fill:#316e3b; stroke:none;" d="M200 95C200.049 99.1606 200.17 101.888 204 104L202 95L200 95z"/>
<path style="fill:#1c6532; stroke:none;" d="M228 95L228 107L234 107L233 103L232 103L230 105L231 97L238 102L235 107L239 107L240 102L253 103L249 105C249.841 108.925 252.708 107.885 256 107L253.566 102.688L242.093 100.812L228 95z"/>
<path style="fill:#5a803f; stroke:none;" d="M235 95L235 96L256 97C250.881 93.1216 241.237 95 235 95z"/>
<path style="fill:#99cea4; stroke:none;" d="M2.33333 96.6667L2.66667 97.3333L2.33333 96.6667z"/>
<path style="fill:#b1ccbd; stroke:none;" d="M12 96L11 97L11 98L11 99L14 96L12 96z"/>
<path style="fill:#577157; stroke:none;" d="M40 96C41.3822 101.031 45.8479 105.152 51 106C49.4093 101.049 44.935 97.3847 40 96z"/>
<path style="fill:#316e3b; stroke:none;" d="M68 96C67.0187 102.329 70.9928 103.95 74 98L68 96z"/>
<path style="fill:#4c5330; stroke:none;" d="M124 96L123 99L124 100L127 99L127 97L124 96z"/>
<path style="fill:#12391b; stroke:none;" d="M237 96C240.088 103.371 249.422 103.463 256 101L256 100L246 99L246 98L255 98L237 96z"/>
<path style="fill:#5a803f; stroke:none;" d="M77 97L75 99L75 100L84 104L77 97z"/>
<path style="fill:#12391b; stroke:none;" d="M167 97L166 102L170 102L169 97L167 97z"/>
<path style="fill:#6d7051; stroke:none;" d="M206 100L209 97L206 100z"/>
<path style="fill:#6e6b3a; stroke:none;" d="M210 97L210 100L213 99L213 98L210 97z"/>
<path style="fill:#12391b; stroke:none;" d="M231 97L234 107L238 102L234 97L231 97z"/>
<path style="fill:#69a078; stroke:none;" d="M256 97L256 112L257 112L259 103L259 102L256 97z"/>
<path style="fill:#316e3b; stroke:none;" d="M25 101L29 98L25 101z"/>
<path style="fill:#89b68f; stroke:none;" d="M31 99L36 101L31 99z"/>
<path style="fill:#506a38; stroke:none;" d="M116 98L116 101L119 101L119 98L116 98M152 98L152 100L154 100L154 98L152 98z"/>
<path style="fill:#316e3b; stroke:none;" d="M231 98L230 105L231 98z"/>
<path style="fill:#577157; stroke:none;" d="M290 98L288 112L291 103L294 104L292 101L294 98L290 98z"/>
<path style="fill:#506a38; stroke:none;" d="M295 98C295.013 101.194 294.597 103.271 298 104L298 98L295 98z"/>
<path style="fill:#899c87; stroke:none;" d="M301 98L301 105L302 105L301 98z"/>
<path style="fill:#6e6b3a; stroke:none;" d="M109 100L121 107L113 99L109 100z"/>
<path style="fill:#6ab280; stroke:none;" d="M120 99L125 104C124.845 100.4 123.453 99.5896 120 99z"/>
<path style="fill:#50a470; stroke:none;" d="M126 99L126 106L130 107L131 104L128 103L129 100L128 99L126 99M133 99L139 104L133 99z"/>
<path style="fill:#506a38; stroke:none;" d="M29 104L33 101L32 100L29 104z"/>
<path style="fill:#899c87; stroke:none;" d="M99 100L100 104L103 103L103 101L99 100z"/>
<path style="fill:#50a470; stroke:none;" d="M108 100L101 108L104 109L102 111L102 112L107 114L105 117L112 120L108 115C112.447 113.615 114.901 109.397 116 105L108 100z"/>
<path style="fill:#6e6b3a; stroke:none;" d="M180 100L184 102C184.587 106.33 187.591 114.809 192 108L189 108L189 107L189 106L192 105C190.325 99.9526 184.595 100.853 180 100z"/>
<path style="fill:#52b076; stroke:none;" d="M67 106C67.9182 111.95 72.0496 116.082 78 117L74 113L75 110L80 110L77 108C81.3303 97.9937 70.7166 103.966 67 106z"/>
<path style="fill:#4c5330; stroke:none;" d="M128 102L128 103L133 104L128 102z"/>
<path style="fill:#6d7051; stroke:none;" d="M38 102L41 106L42 105L41 102L38 102z"/>
<path style="fill:#2c4328; stroke:none;" d="M187 102L187 105L189 105L189 102L187 102z"/>
<path style="fill:#12391b; stroke:none;" d="M240 102L239 108L240 108L241 105L244 107L248 108L249 108L250 105L253 103L240 102z"/>
<path style="fill:#508f5b; stroke:none;" d="M60 103L61 109L58 110L61 114C63.3946 110.896 63.7167 110.945 67 112L64 109L66 107L66 104L60 103z"/>
<path style="fill:#69a078; stroke:none;" d="M78 103L77 108L80 110L75 110L74 113L85 119L84 114L91 112L87 118L92 113L97 115L97 107L86 111L87 106L78 103z"/>
<path style="fill:#309856; stroke:none;" d="M192 103L190 105L190 106L191 113L194 103L192 103z"/>
<path style="fill:#27833a; stroke:none;" d="M215 103L215 112C217.05 111.551 221.149 111.696 218 114L218 115L233 113L233 111L216 108L215 103z"/>
<path style="fill:#b1ccbd; stroke:none;" d="M302 103L302 114L303 114L302 103z"/>
<path style="fill:#69a078; stroke:none;" d="M40 107L43 108L44 104L40 107z"/>
<path style="fill:#8c7a49; stroke:none;" d="M180 104L180 106L182 106L182 104L180 104z"/>
<path style="fill:#12391b; stroke:none;" d="M182 104L181 108L185 107L185 105L184 104L182 104z"/>
<path style="fill:#27833a; stroke:none;" d="M199 104L204 114L203 114C200.869 111.046 197.597 110.029 195 113L205 117C206.018 111.145 204.523 106.777 199 104z"/>
<path style="fill:#50a470; stroke:none;" d="M30 106L30 107L35 110L30 112L30 113L39 111L34 118C42.6389 119.755 42.269 103.375 30 106z"/>
<path style="fill:#6ab280; stroke:none;" d="M116 105C117.61 110.23 122.092 110.4 125 106L116 105z"/>
<path style="fill:#97b69d; stroke:none;" d="M127 105L134 112L135 109L127 105z"/>
<path style="fill:#316e3b; stroke:none;" d="M240 108L248 106L244 107C242.335 104.709 241.319 105.887 240 108z"/>
<path style="fill:#4c5330; stroke:none;" d="M292 105L292 109L294 107L298 108L292 105z"/>
<path style="fill:#89b68f; stroke:none;" d="M47 106L45 112L50 106L47 106z"/>
<path style="fill:#8c7a49; stroke:none;" d="M93 106L93 108L95 108L95 106L93 106z"/>
<path style="fill:#4c5330; stroke:none;" d="M135 106L136 110L137 110L137 106L135 106z"/>
<path style="fill:#2c4328; stroke:none;" d="M189 106L189 108L191 108L191 106L189 106z"/>
<path style="fill:#577157; stroke:none;" d="M43 107L44 110L46 110L47 107L43 107z"/>
<path style="fill:#6ab280; stroke:none;" d="M51 112L53 117C49.0949 119.209 50.0373 121.951 50 126L55 120L65 133L63 131L58 131L57 132L58 135C64.1649 133.084 67.9572 132.671 72 127L63 123L63 122L67 119L68 119L71 121C69.2851 117.001 67.2103 115.129 63 114L65 116L61 121L58 110L61 108L51 112z"/>
<path style="fill:#1c6532; stroke:none;" d="M91 170C90.8068 162.035 82.7445 158.482 78 166L80 165L80 166C78.1995 172.78 83.7787 174.333 89 177L104 162L99 167L100 171L106 169L104 166L108 165C109.019 172.368 123.197 165.543 127 164L124 161L123 164L122 164L121 161L109 162L109 161L113 161L108 155L121 149L121 148L118 148C124.363 139.033 132.43 132.913 143 130L141 126L149 125L150 125L147 122L147 121L153 117L151 115L160 108C151.428 107.772 143.529 117.374 138.015 122.999C122.509 138.817 106.668 154.332 91 170z"/>
<path style="fill:#4c5330; stroke:none;" d="M162 107L164 111L161 115C167.293 116.786 169.056 122.255 171 128L174 127L166 107L162 107z"/>
<path style="fill:#5a803f; stroke:none;" d="M181 108L181 109L184 114L186 114L185 107L181 108z"/>
<path style="fill:#6e6b3a; stroke:none;" d="M228 108L240 114L237 114L237 116L245 117L243 111L255 112L255 110L228 108z"/>
<path style="fill:#6d8753; stroke:none;" d="M234 107L234 108C238.337 109.585 254.836 112.433 256 107L234 107z"/>
<path style="fill:#508f5b; stroke:none;" d="M275 107L275 110L278 110L278 107L275 107z"/>
<path style="fill:#50a470; stroke:none;" d="M283 107L284 112L285 112L283 107z"/>
<path style="fill:#1b9f51; stroke:none;" d="M82 108L84 111L82 108z"/>
<path style="fill:#2a682d; stroke:none;" d="M114 108L122 121L123 121L126 118L126 116L114 108z"/>
<path style="fill:#5a803f; stroke:none;" d="M194 108L194 110L198 110L198 108L194 108z"/>
<path style="fill:#6d7051; stroke:none;" d="M29 109L32 112L29 109z"/>
<path style="fill:#506a38; stroke:none;" d="M123 109L123 111L126 111L126 109L123 109z"/>
<path style="fill:#899c87; stroke:none;" d="M290 109L288 112L290 124L301 124L301 111L300 111L300 123L291 123L290 109z"/>
<path style="fill:#6e6b3a; stroke:none;" d="M292 109L292 111L294 111L294 109L292 109M296 109L296 111L298 111L298 109L296 109z"/>
<path style="fill:#27833a; stroke:none;" d="M64 110L60 116C65.6052 114.759 68.0193 116.204 71 121L68 119L67 119L64 124L68 122L66 126L72 127L70 130L75 126L80 128L77 118L73 120L68 110L65 112L64 110z"/>
<path style="fill:#73c290; stroke:none;" d="M86 110L86 111L90 111L86 110z"/>
<path style="fill:#6d8753; stroke:none;" d="M97 113L101 110L97 113z"/>
<path style="fill:#1c6532; stroke:none;" d="M193 110L194 118L196 116L199 119L195 115L195 111L201 111L193 110z"/>
<path style="fill:#4c5330; stroke:none;" d="M301 110L301 124L293 124L293 126L302 126L301 110z"/>
<path style="fill:#108c40; stroke:none;" d="M35 114L39 111L35 114z"/>
<path style="fill:#506a38; stroke:none;" d="M101 111L99 114L103 116L104 115L101 111z"/>
<path style="fill:#108c40; stroke:none;" d="M112 111L108 115C111.877 121 121.03 129.823 122 117L112 111z"/>
<path style="fill:#508f5b; stroke:none;" d="M114 111L121 117L114 111z"/>
<path style="fill:#309856; stroke:none;" d="M120 111L126 116L120 111z"/>
<path style="fill:#12391b; stroke:none;" d="M186 114L191 111C188.007 111.064 186.654 110.946 186 114M228 114L228 115L240 114C236.493 109.136 232.617 112.802 228 114z"/>
<path style="fill:#99cea4; stroke:none;" d="M31 114L35 112L31 114z"/>
<path style="fill:#506a38; stroke:none;" d="M84 116L88 117L91 112L84 116M127 112L130 115L127 112z"/>
<path style="fill:#1c6532; stroke:none;" d="M197 112L197 113L202 122L205 121C203.838 116.679 201.333 113.329 197 112z"/>
<path style="fill:#6e6b3a; stroke:none;" d="M291 113L291 114L294 115L294 112L291 113z"/>
<path style="fill:#1b9f51; stroke:none;" d="M57 113L57 115L59 115L59 113L57 113M92 113L84 123L89 123L94 113L92 113z"/>
<path style="fill:#8c7a49; stroke:none;" d="M188 113L188 115L190 115L190 113L188 113z"/>
<path style="fill:#4c5330; stroke:none;" d="M190 113L186 118L187 119L190 113z"/>
<path style="fill:#6d8753; stroke:none;" d="M191 113L191 115L193 115L193 113L191 113z"/>
<path style="fill:#6d7051; stroke:none;" d="M195 113L200 116L195 113z"/>
<path style="fill:#12391b; stroke:none;" d="M283 113L286 116L286 117L277 117L284.682 120.028L287 131L292 124L288 125C287.996 119.691 288.186 115.616 283 113z"/>
<path style="fill:#8c7a49; stroke:none;" d="M296 113L296 115L298 115L298 113L296 113z"/>
<path style="fill:#6e6b3a; stroke:none;" d="M34 117L38 114L34 117z"/>
<path style="fill:#50a470; stroke:none;" d="M113 114C113.189 118.082 115.312 119.536 119 121L113 114z"/>
<path style="fill:#6d7051; stroke:none;" d="M205 114L203 117L203 118L203 122L202 122L199 120L205 124L203 126L210 129L210 128C205.929 124.395 206.616 121.052 207 116L214 116L214 114L205 114z"/>
<path style="fill:#577157; stroke:none;" d="M215 115L215 118L219 118L219 117L217 117L217 116C222.661 117.051 232.842 118.942 237 114L215 115z"/>
<path style="fill:#899c87; stroke:none;" d="M302 114L302 126L303 126L302 114z"/>
<path style="fill:#5a803f; stroke:none;" d="M61 119L64 116C61.2326 115.916 60.6757 116.232 61 119z"/>
<path style="fill:#8c7a49; stroke:none;" d="M84 116L84 117L87 118L87 115L84 116z"/>
<path style="fill:#89b68f; stroke:none;" d="M92 117L92 118L100 120C98.0342 116.094 96.0055 115.074 92 117z"/>
<path style="fill:#1b9f51; stroke:none;" d="M191 115L192 118L188 118L194 118L194 116L191 115z"/>
<path style="fill:#99cea4; stroke:none;" d="M214 115L207 116L207 120L208 120L208 117L214 115z"/>
<path style="fill:#69a078; stroke:none;" d="M223 115L223 116L228 116L223 115z"/>
<path style="fill:#6d8753; stroke:none;" d="M42 116C42.5875 119.403 43.6494 120.272 47 121C46.272 117.649 45.403 116.588 42 116z"/>
<path style="fill:#309856; stroke:none;" d="M64 116L60 120L64 116z"/>
<path style="fill:#50a470; stroke:none;" d="M126 116L114 128L114 129L120 126L121 129L125 125L121 125L126 116z"/>
<path style="fill:#52b076; stroke:none;" d="M189 116L189 117L192 118L189 116z"/>
<path style="fill:#12391b; stroke:none;" d="M195 116L188 120C190.694 123.736 194.721 123 199 123L200 118L197 119L195 116z"/>
<path style="fill:#1b9f51; stroke:none;" d="M199 116L202 120L199 116z"/>
<path style="fill:#73c290; stroke:none;" d="M217 116L217 117L232 118L232 117L217 116z"/>
<path style="fill:#6ab280; stroke:none;" d="M231 119L248 120C244.607 115.241 234.594 114.016 231 119z"/>
<path style="fill:#6e6b3a; stroke:none;" d="M291 116L299 119L299 117L291 116z"/>
<path style="fill:#6d7051; stroke:none;" d="M73 120L77 118L81 124L84 121C83.0564 116.035 74.12 114.773 73 120z"/>
<path style="fill:#506a38; stroke:none;" d="M104 117C106.488 121.878 110.653 126.495 116 128C115.752 121.897 109.7 117.834 104 117z"/>
<path style="fill:#1b9f51; stroke:none;" d="M208 117L212 120L208 117z"/>
<path style="fill:#12391b; stroke:none;" d="M209 117L209 118L215 118L209 117z"/>
<path style="fill:#1c6532; stroke:none;" d="M238 117L238 118L241 118L238 117z"/>
<path style="fill:#6d8753; stroke:none;" d="M251 120L255 118C252.636 116.638 246.855 117.672 251 120z"/>
<path style="fill:#577157; stroke:none;" d="M288 117L288 125L290 125L288 117z"/>
<path style="fill:#50a470; stroke:none;" d="M85 118L81 124L78 122C78.8156 128.691 85.6455 120.718 87 118L85 118z"/>
<path style="fill:#6d8753; stroke:none;" d="M93 121L93 122L91 124L100 122L97 124L100 129L101 129L101 118C99.8952 118.59 85.4419 119.378 93 121z"/>
<path style="fill:#50a470; stroke:none;" d="M127 123L132 118L127 123z"/>
<path style="fill:#27833a; stroke:none;" d="M134 142L132 140L131 140L127 144L128 147L131 146L128 151C135.399 152.919 138.398 153.833 146 151L146 150L143 150L141 145L141 144C145.442 141.71 149.177 137.422 154 141L155 141L151 135C163.862 135.265 172.003 133.297 168 118C152.511 118.002 156.449 125.52 146.711 133.862C142.386 137.566 137.056 136.765 134 142z"/>
<path style="fill:#8c7a49; stroke:none;" d="M212 118L213 121L216 119L216 125L219 125L219 118L212 118z"/>
<path style="fill:#2c4328; stroke:none;" d="M219 118L219 125L216 125L216 119L208 120L208 126L264 129L264 128L261 128L261 122L267 122L265 129L265 130L277 130L277 129L273 129L273 124L269 125L271 122L271 121C263.168 121 259.091 122.037 253 127L253 123L237 122L239 120L219 118z"/>
<path style="fill:#508f5b; stroke:none;" d="M259 118L278 125L279 122L284 122L259 118z"/>
<path style="fill:#2c4328; stroke:none;" d="M291 118L293 122L291 118z"/>
<path style="fill:#73c290; stroke:none;" d="M37 123L42 119L37 123z"/>
<path style="fill:#6d8753; stroke:none;" d="M220 119L220 125C223.403 124.271 222.987 122.194 223 119L220 119z"/>
<path style="fill:#8c7a49; stroke:none;" d="M225 119L225 122L227 122L227 119L225 119z"/>
<path style="fill:#89b68f; stroke:none;" d="M251 119L251 120L259 120L251 119z"/>
<path style="fill:#577157; stroke:none;" d="M277 119L277 120L284 121L283 130L282 130L282 127L277 129L277 130L284 131L284 126L285 126L285 132C291.151 123.88 284.985 119.006 277 119z"/>
<path style="fill:#108c40; stroke:none;" d="M293 119L291 122L291 123L295 123L293 119z"/>
<path style="fill:#1b9f51; stroke:none;" d="M54 121L57 122L55 127L56 128L62 127L56 120L54 121z"/>
<path style="fill:#6ab280; stroke:none;" d="M89 120L84 123L84 124C88.6603 125.744 90.939 127.37 93 132L95 133L104 137L103 130L103 129L102 125L101 129L100 129L97 124L100 122C94.9602 121.82 92.4784 124.932 89 120z"/>
<path style="fill:#2a682d; stroke:none;" d="M102 120L102 125L105 123L105 122L102 120z"/>
<path style="fill:#2c4328; stroke:none;" d="M206 120L206 125L207 125L206 120z"/>
<path style="fill:#899c87; stroke:none;" d="M207 120L207 127L217 127L217 126L208 126L207 120z"/>
<path style="fill:#6d8753; stroke:none;" d="M229 120L229 122L231 122L231 120L229 120M233 120L233 122L235 122L235 120L233 120M237 120L237 122L239 122L239 120L237 120z"/>
<path style="fill:#6e6b3a; stroke:none;" d="M259 120L253 121L253 127L255 124C257.724 123.536 259.448 122.975 259 120z"/>
<path style="fill:#89b68f; stroke:none;" d="M272 120L272 121L277 121L272 120z"/>
<path style="fill:#2a682d; stroke:none;" d="M90 124L91 124L93 122C90.8603 120.882 90.4732 121.749 90 124z"/>
<path style="fill:#577157; stroke:none;" d="M126 121L125 126L126 126L126 121z"/>
<path style="fill:#4c5330; stroke:none;" d="M155 126L159 124L161 130L158 133L161 131L164 132L166 129C163.123 124.843 157.851 117.46 155 126z"/>
<path style="fill:#27833a; stroke:none;" d="M172 121L174 127C169.811 129.422 169.211 133.4 169 138L155 143L154 143C148.789 152.365 146.971 163.5 134 163L134 162L145 155L131 157C127.872 165.984 117.457 167.994 109 168L109 171C103.458 171.738 92.9134 175.429 91 181L97 180L97 181C81.0148 185.406 60.0688 193.268 54 209C48.6432 198.072 49.3388 191.285 49 180L51 184L54 182C56.0878 192.012 70.7729 186.074 73 179L57 187L57 186L59 183L56 184L55 174L55 164L60 174L61 174L63 169L64 175L59 178C65.3871 179.831 76.4503 171.121 79 179L82 179L78 184L78 185L89 183L89 182L84 182L88 178C84.9497 172.159 78.7596 173.074 80 165L76 170L74 170C71.8331 165.522 65.366 157.188 60.0748 156.447C55.1023 155.75 50.7779 164.417 47 159L46 159C45.2222 163.779 42.2452 165.214 38 167C41.6087 195.53 57.6167 225.229 68 252L84 246L88 242L88 241L85 241L85 240L106 234L106 233L103 233L103 232L111.414 216.26L122.667 208.725L123.785 197.264L138 184L125 193L126 188L102 202L102 203L108 201L108 202C103.819 205.018 105.64 209.438 106 214L101 214L99 206L95 208L97 204L92 205L95 199L84 203L84 204L91 204L89 216L91 216L92 208L93 208L92 216L98 213C98.149 224.063 89.3236 229.943 79 231L79 228L82 230C87.7733 225.55 94.4134 226.68 96 218L89 220L81 224L84 221L83 217L86 219L86 209L85 209L84 216L83 211L76 212L75 208L74 208L73 210L73 211L75 213L72 213L62 219L62 220L69 219C67.3404 221.918 66.1459 221.931 63 221L58 224C58.8775 216.896 55.7001 208.741 59.3171 202.105C62.1563 196.896 69.9582 195.006 75 192.691C89.3593 186.099 103.713 179.53 118 172.781C132.005 166.166 150.124 167.161 151 148L152 148L153 150L154 150L172 139C168.112 142.349 162.414 140.24 163 147L164 147L169 145L167 149L173 155C174.631 151.988 174.377 146.674 176.447 144.459C184.726 135.602 194.158 145.849 195.089 154.91C195.361 157.558 193.513 160.408 193 163L188 163L187 169C192.775 172.326 189.885 175.366 186 179C193.676 179.964 200.778 175.019 203 186C211.897 182.345 214.819 180.375 211 171L212 171C219.479 189.362 194.627 185.356 187 197L210 186.247L218.292 180.61L214.424 170L201 144L200 144L201 149L200 149L196 141L195 141L201 156L188.907 139.704L173 138L179 140L179 139C170.987 134.958 177.081 126.917 172 121z"/>
<path style="fill:#8c7a49; stroke:none;" d="M249 121L249 123L251 123L251 121L249 121M48 124L51 122L48 124M53 123L53 124L57 122L53 123z"/>
<path style="fill:#6d7051; stroke:none;" d="M65 125L68 122L65 125z"/>
<path style="fill:#6e6b3a; stroke:none;" d="M72 122L72 126L74 122L72 122z"/>
<path style="fill:#8c7a49; stroke:none;" d="M212 124L215 124L214 122L212 124z"/>
<path style="fill:#506a38; stroke:none;" d="M261 122L261 128L267 129L267 128L265 127L265 126L267 126L267 125L261 122z"/>
<path style="fill:#8c7a49; stroke:none;" d="M265 122L265 124L267 124L267 122L265 122z"/>
<path style="fill:#4c5330; stroke:none;" d="M269 125L275 123L273 129L282 123L277 125C276.091 120.758 269.909 120.758 269 125z"/>
<path style="fill:#12391b; stroke:none;" d="M279 122L279 123L282 123L279 126L282 130L283 130L283 122L279 122z"/>
<path style="fill:#8c7a49; stroke:none;" d="M104.333 123.667L104.667 124.333L104.333 123.667z"/>
<path style="fill:#316e3b; stroke:none;" d="M105 123L104 126L105 127L108 126L106 129L109 130L111 128L111 127L105 123z"/>
<path style="fill:#4c5330; stroke:none;" d="M165 123L165 126L168 126L168 123L165 123z"/>
<path style="fill:#1b9f51; stroke:none;" d="M190 123L199 127L199 123L190 123z"/>
<path style="fill:#4c5330; stroke:none;" d="M199 123L199 124L205 125L199 123z"/>
<path style="fill:#8c7a49; stroke:none;" d="M225 123L225 125L227 125L227 123L225 123z"/>
<path style="fill:#918c59; stroke:none;" d="M229 123L229 126L231 126L231 123L229 123z"/>
<path style="fill:#6d8753; stroke:none;" d="M273 123L273 125L275 125L275 123L273 123z"/>
<path style="fill:#b1ccbd; stroke:none;" d="M303 123L303 130L304 130L303 123z"/>
<path style="fill:#1c6532; stroke:none;" d="M29 124L28 127L28 128L31 129L28 134L29 134C31.7881 130.821 33.3482 131.28 37 133L37 134C33.5991 136.085 33.1269 138.098 33 142L34 142C34.6423 138.059 36.1267 136.807 40 136L35 141L36 144C25.4018 147.212 40.1488 154.924 37 143L40 144L41 140L46 142L41 146L41 147L49 145L53 149C48.727 139.837 37.2204 129.791 29 124z"/>
<path style="fill:#27833a; stroke:none;" d="M49 129L53 128L55 134C59.7443 131.984 60.2439 130.792 65 133C64.0244 127.237 61.3896 126.732 56 128L55 127L56 124L49 129z"/>
<path style="fill:#2c4328; stroke:none;" d="M158 124L160 129L157 132L151 132L151 133C156.694 133.244 163.802 135.959 166 129L165 129L164 132L161 131L158 133L161 130L158 124z"/>
<path style="fill:#6d8753; stroke:none;" d="M199 124L199 127L203 126L199 124z"/>
<path style="fill:#6d7051; stroke:none;" d="M237 124L243 127L243 124L237 124z"/>
<path style="fill:#8c7a49; stroke:none;" d="M245 124L245 127L247 127L247 124L245 124z"/>
<path style="fill:#27833a; stroke:none;" d="M292 124L287 133L294 128L292 124z"/>
<path style="fill:#6e6b3a; stroke:none;" d="M84 125L87 131L86 125L84 125z"/>
<path style="fill:#316e3b; stroke:none;" d="M86 125L87 131L88 131L89 129L89 128L86 125z"/>
<path style="fill:#8c7a49; stroke:none;" d="M87 125L90 129L90 125L87 125z"/>
<path style="fill:#506a38; stroke:none;" d="M147 129C150.569 128.803 152.757 128.538 154 125L147 129z"/>
<path style="fill:#8c7a49; stroke:none;" d="M249 125L249 127L251 127L251 125L249 125M257 125L257 128L259 128L259 125L257 125z"/>
<path style="fill:#73c290; stroke:none;" d="M75 126L74 129L75 126z"/>
<path style="fill:#50a470; stroke:none;" d="M82 126L76 133L77 139L81 137L83 139L82 132C86.2914 132.628 90.7545 131.719 91 137L94 135L95 139L96 137L97 137L99 139L109 141L105 149L111 145L108 133L104 137L95 133L93 132L91 126L90 126C88.1223 130.028 85.4013 130.605 84 126L82 126z"/>
<path style="fill:#918c59; stroke:none;" d="M103 130L106 131L108 126L103 130z"/>
<path style="fill:#12391b; stroke:none;" d="M169 126C166.167 136.443 160.223 135.076 151 135L159 143L160 143L171 126L169 126z"/>
<path style="fill:#1c6532; stroke:none;" d="M187 126L192 137L193 137L187 126z"/>
<path style="fill:#50a470; stroke:none;" d="M213 127L213 129L250 130L250 131L235 132L235 133L262 131L262 132L260 132L260 133C265.465 133 285.761 136.781 287 131L251 130L251 129L254 129L240.015 128.945L213 127z"/>
<path style="fill:#6d8753; stroke:none;" d="M265 126L265 128L267 128L267 126L265 126z"/>
<path style="fill:#8c7a49; stroke:none;" d="M269 126L269 129L271 129L271 126L269 126z"/>
<path style="fill:#899c87; stroke:none;" d="M284 126L284 131L285 131L284 126z"/>
<path style="fill:#12391b; stroke:none;" d="M287 135L293 133L294 133L295 133L303 135L303 126C295.594 126.006 290.381 127.89 287 135z"/>
<path style="fill:#89b68f; stroke:none;" d="M223 127L223 128L231 128L223 127z"/>
<path style="fill:#6d7051; stroke:none;" d="M277 127L277 129L279 129L279 127L277 127z"/>
<path style="fill:#6ab280; stroke:none;" d="M21.3333 128.667L21.6667 129.333L21.3333 128.667z"/>
<path style="fill:#6e6b3a; stroke:none;" d="M109 128L109 131L111 128L109 128z"/>
<path style="fill:#89b68f; stroke:none;" d="M235 128L235 129L248 129L235 128M72 129L74 131L74 129L72 129z"/>
<path style="fill:#69a078; stroke:none;" d="M107 129C108.544 132.936 110.938 133.628 115 134L112 143C120.732 136.343 113.632 132.711 107 129z"/>
<path style="fill:#2c4328; stroke:none;" d="M177 129L177 130L181 130L177 129z"/>
<path style="fill:#577157; stroke:none;" d="M193 132L194 132L196 130C193.86 128.882 193.473 129.749 193 132z"/>
<path style="fill:#73c290; stroke:none;" d="M225 129L225 130L233 130L225 129z"/>
<path style="fill:#99cea4; stroke:none;" d="M251 129L251 130L260 130L251 129z"/>
<path style="fill:#79a08a; stroke:none;" d="M296 129L296 133L297 133L298 129L296 129z"/>
<path style="fill:#506a38; stroke:none;" d="M298 129L298 130L302 133L298 129z"/>
<path style="fill:#899c87; stroke:none;" d="M30 135L34 130L30 135z"/>
<path style="fill:#99cea4; stroke:none;" d="M60 132L63 130L60 132z"/>
<path style="fill:#108c40; stroke:none;" d="M106 130L105 131L108 133L106 130z"/>
<path style="fill:#1c6532; stroke:none;" d="M175 130C173.725 134.491 174.264 137.562 179 139L179 140L173 138L191 141L184 137L181 130C184.507 138.931 174.087 138.334 177 130L175 130z"/>
<path style="fill:#577157; stroke:none;" d="M177.318 131.086C173.128 133.505 177.736 139.698 181.393 136.953C184.629 134.523 180.847 129.049 177.318 131.086z"/>
<path style="fill:#c6ded4; stroke:none;" d="M199 130L199 131L206 131L199 130z"/>
<path style="fill:#6d8753; stroke:none;" d="M206 130L206 131L212 131L206 130z"/>
<path style="fill:#73c290; stroke:none;" d="M239 130L239 131L250 131L239 130z"/>
<path style="fill:#89b68f; stroke:none;" d="M265 130L265 131L276 131L265 130z"/>
<path style="fill:#b1ccbd; stroke:none;" d="M297 130L297 134L300 134L300 130L297 130z"/>
<path style="fill:#508f5b; stroke:none;" d="M303 130L303 136L295 136L295 137L304 137L303 130z"/>
<path style="fill:#50a470; stroke:none;" d="M48 131L46 136L48 138L53 134L48 131z"/>
<path style="fill:#73c290; stroke:none;" d="M49 131L49 133L51 133L51 131L49 131z"/>
<path style="fill:#b1ccbd; stroke:none;" d="M215 131L215 132L219 132L215 131z"/>
<path style="fill:#79a08a; stroke:none;" d="M219 131L219 132L226 132L219 131z"/>
<path style="fill:#73c290; stroke:none;" d="M252 131L252 132L262 132L252 131z"/>
<path style="fill:#506a38; stroke:none;" d="M82 134L85 133L82 134z"/>
<path style="fill:#316e3b; stroke:none;" d="M87 132L83 139L86 140L84 144C87.0507 141.372 87.3254 139.782 86 136L91 138L91 132L88 134L87 132z"/>
<path style="fill:#8c7a49; stroke:none;" d="M88 132L88 134L90 134L90 132L88 132z"/>
<path style="fill:#2c4328; stroke:none;" d="M126 140L139 134C133.664 130.779 128.38 135.113 126 140M140 137L148 133C144.154 132.343 141.375 133.164 140 137z"/>
<path style="fill:#b1ccbd; stroke:none;" d="M226 132L226 133L235 133L226 132z"/>
<path style="fill:#2a682d; stroke:none;" d="M247 132L247 133L303 136L303 135L295 133L294 133L275 133.285L247 132z"/>
<path style="fill:#6e6b3a; stroke:none;" d="M59 135C61.3962 135.575 61.487 135.475 62 133L59 135z"/>
<path style="fill:#8c7a49; stroke:none;" d="M83 133L83 135L85 135L85 133L83 133z"/>
<path style="fill:#506a38; stroke:none;" d="M108 133C108.223 139.775 113.015 140.839 115 134L108 133z"/>
<path style="fill:#6d8753; stroke:none;" d="M177 133L180 136L179 133L177 133z"/>
<path style="fill:#79a08a; stroke:none;" d="M247 133L247 134L255 134L247 133z"/>
<path style="fill:#c6ded4; stroke:none;" d="M256 134L256 135L263 135L256 134z"/>
<path style="fill:#79a08a; stroke:none;" d="M263 134L263 135L267 135L263 134z"/>
<path style="fill:#508f5b; stroke:none;" d="M267 134L267 135L272 135L267 134z"/>
<path style="fill:#506a38; stroke:none;" d="M93 135C93.1336 139.047 95.1285 141.732 99 143L97 137L96 137L95 139L93 135z"/>
<path style="fill:#4c5330; stroke:none;" d="M166 135L166 138L169 138L169 135L166 135z"/>
<path style="fill:#97b69d; stroke:none;" d="M275 135L275 136L281 136L275 135z"/>
<path style="fill:#6d8753; stroke:none;" d="M281 135L281 136L286 136L281 135M35 137L35 138L39 140L40 140L40 136L35 137z"/>
<path style="fill:#6d7051; stroke:none;" d="M86 136L89 140L89 136L86 136z"/>
<path style="fill:#27833a; stroke:none;" d="M106 136L104 139C106.251 138.527 107.118 138.14 106 136z"/>
<path style="fill:#b1ccbd; stroke:none;" d="M287 136L287 137L295 137L287 136z"/>
<path style="fill:#6d7051; stroke:none;" d="M34 137L34 141L39 141L39 140L34 137z"/>
<path style="fill:#69a078; stroke:none;" d="M76 138L76 144L73 144L72 144L73 149L78 143C83.0693 146.641 89.6067 151.243 87 158L96 150L86 146L92 137L84 144L81 137L76 138z"/>
<path style="fill:#5a803f; stroke:none;" d="M99 137L97 141L105 148L107 140L99 137z"/>
<path style="fill:#97b69d; stroke:none;" d="M35 138L35 140L39 140L39 138L35 138z"/>
<path style="fill:#4c5330; stroke:none;" d="M132 142L135 139L132 142z"/>
<path style="fill:#2c4328; stroke:none;" d="M141 144L141 145L146 150L146 151L128 154L135 156L130 159L131 159L132 157C136.778 160.203 140.391 156.916 145 155L134 162L134 163C145.472 164.604 154.999 149.411 154 139L141 144z"/>
<path style="fill:#4c5330; stroke:none;" d="M155 139L155 145L159 143L159 141L155 139z"/>
<path style="fill:#12391b; stroke:none;" d="M160 146L169 153L169 154L164 152L171 162C167.026 162.966 164.295 163.756 161 161L165 161L165 160L156 157L158 161L154 157L153 157L151 163L154 150L155 150L158 151L156 148L155 148L154 148L152 148L151 148C150.338 155.581 148.281 161.078 141 164L141 165L144 165L144 166L139 166C138.451 171.259 134.918 173.109 130 174L131 177C135.756 175.062 156.451 165.863 159 169C168.351 168.227 171.339 181.744 178 172L178 171L178 170L176 168C182.609 166.554 171.349 162.994 175 159L171 159L171 156L174 157L165 145L163 147L172 139C166.299 140.063 162.375 140.145 160 146z"/>
<path style="fill:#918c59; stroke:none;" d="M41 140C40.0489 144.995 44.2028 147.448 46 142L43 140L41 140z"/>
<path style="fill:#508f5b; stroke:none;" d="M92 140L86 146L91 150L92 150L98 145L93 146L92 140z"/>
<path style="fill:#8c7a49; stroke:none;" d="M107 140L107 143L109 142L109 141L107 140z"/>
<path style="fill:#12391b; stroke:none;" d="M125 140C122.697 141.684 115.259 146.738 121 148L124 146L125 140z"/>
<path style="fill:#2c4328; stroke:none;" d="M187 169L188 163L193 163L194 159L192 156L195 158C196.646 153.241 191.859 142.573 186.895 140.785C183.373 139.517 174.913 142.393 174.777 146.769C174.641 151.141 178.493 157.119 180.496 160.83C182.308 164.187 183.259 167.693 187 169z"/>
<path style="fill:#5a803f; stroke:none;" d="M78 143L73 149C75.7287 151.564 81.5474 159.695 85.6605 158.288C91.949 156.136 86.6301 148.88 80 152L78 150L80 143L78 143z"/>
<path style="fill:#4c5330; stroke:none;" d="M134 144L137 147L134 144M165 144L166 148L169 147L169 145L165 144z"/>
<path style="fill:#27833a; stroke:none;" d="M177 145L177 146L181 145L177 145z"/>
<path style="fill:#4c5330; stroke:none;" d="M185 144L186 147L188 147L189 144L185 144z"/>
<path style="fill:#899c87; stroke:none;" d="M33 145L33 149L37 145L33 145z"/>
<path style="fill:#108c40; stroke:none;" d="M80 145L78 150L80 152L85 150L85 148L82 145L80 145z"/>
<path style="fill:#4c5330; stroke:none;" d="M156 150L163 149L163 147C159.561 146.433 157.884 147.019 156 150z"/>
<path style="fill:#506a38; stroke:none;" d="M108 155L110 158L111 158C113.181 153.414 115.783 150.402 121 150C115.381 147.394 111.895 151.161 108 155z"/>
<path style="fill:#27833a; stroke:none;" d="M177 149L177 150L183 149L177 149z"/>
<path style="fill:#316e3b; stroke:none;" d="M183 150L184 154L188 154L187 151L191 148L183 150M155 150L154 150L151 163L154 162C151.765 151.22 162.122 152.152 169 154C164.141 147.869 160.974 151.705 155 150z"/>
<path style="fill:#99cea4; stroke:none;" d="M29.3333 150.667L29.6667 151.333L29.3333 150.667z"/>
<path style="fill:#6d7051; stroke:none;" d="M115 150C112.761 154.408 109.436 157.937 115 161L118 150L115 150z"/>
<path style="fill:#899c87; stroke:none;" d="M118 150C115.278 154.329 111.808 159.8 119 161L119 160C116.184 156.09 119.119 153.929 122 151L118 150z"/>
<path style="fill:#508f5b; stroke:none;" d="M52 151L52 154L55 154L55 151L52 151z"/>
<path style="fill:#2c4328; stroke:none;" d="M153 155L158 161L156 157L165 151L153 155z"/>
<path style="fill:#1c6532; stroke:none;" d="M174 151L174 157L171 156L171 159C173.973 159.266 174.798 160 175 163C176.936 164.941 178.299 166.058 176 168L178 170L178 171L178 172L176 172C175.833 180.785 165.071 167.869 159 169C158.218 162.352 134.382 180.792 130 174C135.083 173.476 139.549 171.717 139 166L144 166L144 165L116 173L118 176L103 179L106 182L106 184C93.8602 187.496 82.6755 188.952 71 194C66.8253 195.805 60.8559 197.603 58.8897 202.105C55.3519 210.204 59.2657 216.326 61 224L62 224L63 221L65 223L66 223L60 219L60 217L63 219L66 218L64 215L65 214L66 214L68 217L68 213L71 215L72 215L74 208L83 211L82 214L83 214L85 205L86 205L88 221L85 222L84 217L83 217L84 223L89 220C95.6732 221.025 92.8531 212.593 93 208L92 208L91 216L89 216L89 203L84 204L84 203L134.961 182.037L145.947 183.332L155.019 177.178L166 174L158 176L160 171L161 171L163 173L164 170C166.598 172.918 169.998 176.154 165 178L166 181L152 189L148 186L149 189L140 193L141 188L125 196L125 197L130 198L130 202L137 202L137 201L132 201C135.059 195.117 144.06 192.485 150 190L156 193L157 189L158 189C156.717 193.897 154.545 195.932 150 198L150 199L162 197L162 201L161 201C158.326 197.296 152.474 201.172 149 202.431C140.531 205.498 132.119 210.715 124 214.759C120.476 216.514 116.548 219.349 113 217C105.05 220.005 107.7 227.11 103 232L103 233L106 233L106 234L85 240L85 241L88 241L88 242L83 244L83 245C97.1772 242.473 112.071 232.514 125 226.258C145.061 216.552 169.37 209.224 187.424 196.177C197.13 189.163 220.631 186.408 212 171L211 171C213.762 180.709 211.356 181.226 203 186C202.415 180.766 200.21 178.061 195 177L195 178L199 179L199 180L188 183L194 190L182 194L182 190L187 189L187 188C179.897 188.368 166.009 200.14 162 192L188 181L186 178C188.441 177.122 191.961 175.563 191.168 172.213C190.443 169.147 185.934 169.009 184.125 166.725C180.637 162.322 178.557 155.995 176 151L174 151z"/>
<path style="fill:#577157; stroke:none;" d="M46 152L44 156L49 156L49 152L46 152z"/>
<path style="fill:#97b69d; stroke:none;" d="M117 160C121.377 158.73 122.663 156.454 123 152C118.299 153.155 117.156 155.297 117 160z"/>
<path style="fill:#918c59; stroke:none;" d="M47.3333 153.667L47.6667 154.333L47.3333 153.667z"/>
<path style="fill:#89b68f; stroke:none;" d="M83 156L87 153L83 156z"/>
<path style="fill:#1c6532; stroke:none;" d="M35 154L35 155L48 157L35 154z"/>
<path style="fill:#2a682d; stroke:none;" d="M159 154C159.424 158.307 162.198 159.458 166 161L159 154z"/>
<path style="fill:#12391b; stroke:none;" d="M161 154C161.204 158.059 164.497 159.453 168 161L161 154z"/>
<path style="fill:#27833a; stroke:none;" d="M162 154L162 155L168 161L164 164L171 162C169.941 156.875 167.022 154.912 162 154z"/>
<path style="fill:#50a470; stroke:none;" d="M68 159L71 162L76 156C72.1528 155.181 69.9105 155.359 68 159z"/>
<path style="fill:#6e6b3a; stroke:none;" d="M51 160L57 156L51 160z"/>
<path style="fill:#4c5330; stroke:none;" d="M192 159L195 156L192 159z"/>
<path style="fill:#8c7a49; stroke:none;" d="M35 158L35 160L37 160L37 158L35 158z"/>
<path style="fill:#2a682d; stroke:none;" d="M47 158L47 159L50 159L49 162L53 161L47 158z"/>
<path style="fill:#6d7051; stroke:none;" d="M47 162L50 159L47 162z"/>
<path style="fill:#316e3b; stroke:none;" d="M186 159L185 164L188 159L186 159z"/>
<path style="fill:#4c5330; stroke:none;" d="M190 159L189 162L192 162L190 159z"/>
<path style="fill:#12391b; stroke:none;" d="M200 159C202.439 162.791 205.634 163.616 210 164L210 163L200 159z"/>
<path style="fill:#6d8753; stroke:none;" d="M44 160L43 161L43 162L43 163L46 160L44 160z"/>
<path style="fill:#4c5330; stroke:none;" d="M172 160L173 163L175 163L176 160L172 160z"/>
<path style="fill:#2a682d; stroke:none;" d="M40 161L39 167L46 164L46 163L40 161z"/>
<path style="fill:#27833a; stroke:none;" d="M109 161L109 162L118 162L109 161z"/>
<path style="fill:#2c4328; stroke:none;" d="M161 161L161 163L166 162L161 161z"/>
<path style="fill:#12391b; stroke:none;" d="M85 181L93.2091 175.152L109 171L108 165L104 166L106 169L100 171L99 167L104 162C97.2859 165.157 88.6821 174.474 85 181z"/>
<path style="fill:#99cea4; stroke:none;" d="M34.3333 163.667L34.6667 164.333L34.3333 163.667z"/>
<path style="fill:#12391b; stroke:none;" d="M55 164L55 174C51.8346 176.824 54.3698 180.745 56 184L59 183L57 186L57 187L66 184L64 180L67 182L68 182L68 178C65.4784 178.438 55.8817 178.268 60 174L59 170L56 172L57 168L55 164z"/>
<path style="fill:#506a38; stroke:none;" d="M196.299 166.137C192.179 168.393 195.028 176.436 199.683 173.762C203.544 171.545 200.6 163.781 196.299 166.137z"/>
<path style="fill:#12391b; stroke:none;" d="M82 167L81 171L85 167L82 167z"/>
<path style="fill:#577157; stroke:none;" d="M55 168L56 172L57 172L57 168L55 168z"/>
<path style="fill:#12391b; stroke:none;" d="M61 169L62 173L63 169L61 169z"/>
<path style="fill:#6e6b3a; stroke:none;" d="M69 169L69 172L72 172L72 169L69 169z"/>
<path style="fill:#577157; stroke:none;" d="M66 170L65 171L65 172L65 173L68 170L66 170z"/>
<path style="fill:#12391b; stroke:none;" d="M164 170L163 173L161 171L160 171L158 176L166 174L154.054 176.982L144.985 183.239L135.91 181.512L121 188L122 192L118 193L118 194L126 188L125 193L138 184L132 192L132 193L142 185L140 193L149 189L148 186L152 189L166 181L165 178C170.241 176.505 167.035 172.375 164 170z"/>
<path style="fill:#89b68f; stroke:none;" d="M214 170L215 171L214 170z"/>
<path style="fill:#4c5330; stroke:none;" d="M44 176L49 172L44 176z"/>
<path style="fill:#6d7051; stroke:none;" d="M57 174L58 177L64 172L57 174z"/>
<path style="fill:#6e6b3a; stroke:none;" d="M98 172L98 174L100 174L100 172L98 172z"/>
<path style="fill:#73c290; stroke:none;" d="M38.3333 173.667L38.6667 174.333L38.3333 173.667z"/>
<path style="fill:#1c6532; stroke:none;" d="M84 180L89 182L89 183L78 185L78 184L82 179L77 174L68 177L68 178L71 180L72 180L73 177C72.7109 187.139 58.1053 189.108 53 182C48.518 191.638 47.6294 199.845 54 209C62.437 192.992 80.2466 187.592 97 181L97 180L91 181L97 174L84 180z"/>
<path style="fill:#12391b; stroke:none;" d="M105 179L105 180L118 175L105 179z"/>
<path style="fill:#4c5330; stroke:none;" d="M174 174L172 175L172 176L174 174z"/>
<path style="fill:#6d8753; stroke:none;" d="M76 175L79 178L76 175z"/>
<path style="fill:#6d7051; stroke:none;" d="M54 176L54 178L56 178L56 176L54 176z"/>
<path style="fill:#12391b; stroke:none;" d="M148 176L147 180L143 178L144 182C146.975 180.688 148.93 179.404 148 176z"/>
<path style="fill:#6d8753; stroke:none;" d="M205 176L210 180L210 176L205 176z"/>
<path style="fill:#899c87; stroke:none;" d="M72 177L72 179L74 179L72 177z"/>
<path style="fill:#8c7a49; stroke:none;" d="M68 181L71 178L68 181z"/>
<path style="fill:#4c5330; stroke:none;" d="M145 178L145 180L147 180L147 178L145 178z"/>
<path style="fill:#12391b; stroke:none;" d="M162 194L165 193L165 197L187 188L187 189L182 190L182 194L194 190L188 183L199 180C192.161 175.334 166.589 187.516 162 194z"/>
<path style="fill:#4c5330; stroke:none;" d="M141 179L144 182L141 179z"/>
<path style="fill:#506a38; stroke:none;" d="M49 180L47 193L50 193C50.4445 188.506 53.0682 183.307 49 180z"/>
<path style="fill:#6d7051; stroke:none;" d="M64 180L65 183L66 183L67 180L64 180M79 180L78 181L78 182L78 183L81 180L79 180z"/>
<path style="fill:#12391b; stroke:none;" d="M86 187L86 188C93.8831 189.458 98.8401 186.977 106 184L106 182C99.0438 179.413 92.4892 184.482 86 187z"/>
<path style="fill:#899c87; stroke:none;" d="M219.333 180.667L219.667 181.333L219.333 180.667z"/>
<path style="fill:#6d7051; stroke:none;" d="M75 182L74 183L74 184L74 185L77 182L75 182z"/>
<path style="fill:#4c5330; stroke:none;" d="M199 182L202 185L199 182z"/>
<path style="fill:#52b076; stroke:none;" d="M42.3333 183.667L42.6667 184.333L42.3333 183.667z"/>
<path style="fill:#6d7051; stroke:none;" d="M70 184L73 187L70 184z"/>
<path style="fill:#4c5330; stroke:none;" d="M131 184L131 186L134 186L134 184L131 184M197 184L196 187L199 187L197 184z"/>
<path style="fill:#8c7a49; stroke:none;" d="M67 185L67 188L69 188L69 185L67 185z"/>
<path style="fill:#6e6b3a; stroke:none;" d="M139 185L139 188L142 188L142 185L139 185z"/>
<path style="fill:#2a682d; stroke:none;" d="M145 185L142 189L142 190L147 185L145 185z"/>
<path style="fill:#108c40; stroke:none;" d="M53 199C60.157 196.779 73.8208 192.38 78 186C70.651 188.63 57.3839 192.307 53 199z"/>
<path style="fill:#506a38; stroke:none;" d="M59 192L66 189C62.7451 187.104 60.2299 188.572 59 192z"/>
<path style="fill:#2c4328; stroke:none;" d="M98 203L96 200L95 200L97 208L98 208L99 206L101 212L105 214L106 214C105.796 209.234 104.515 205.734 108 202L108 201L102 203L102 202L122 192L121 188C113.697 190.613 99.3455 194.485 98 203z"/>
<path style="fill:#12391b; stroke:none;" d="M157 189L156 193L150 190L141 194L142 197L139 195L132 201L137 201L136 204L131 205L130 198L124 200L132 194L132 193C119.102 194.618 126.789 201.712 122.099 208.725C119.071 213.253 112.734 212.904 110 218L113 217L116 219L116 218L114 216L115 215L116 215L117 215L117 218L144 206L140 199L154 193L153 197C156.293 195.228 158.099 192.773 157 189z"/>
<path style="fill:#4c5330; stroke:none;" d="M171 189L170 190L170 191L170 192L173 189L171 189z"/>
<path style="fill:#506a38; stroke:none;" d="M55 191L55 193L58 193L58 191L55 191z"/>
<path style="fill:#4c5330; stroke:none;" d="M168 191L166 194C168.251 193.527 169.118 193.14 168 191z"/>
<path style="fill:#577157; stroke:none;" d="M51 192L54 195L53 192L51 192z"/>
<path style="fill:#4c5330; stroke:none;" d="M153 193L140 199L143 205L149 201L146 203L145 203L143 202C146.004 199.08 154.07 197.924 153 193M162 194L162 195L165 196L165 193L162 194z"/>
<path style="fill:#12391b; stroke:none;" d="M117 196L119 198C113.315 200.063 100.445 205.453 110 212L110 208L115 210C114.556 205.409 114.723 202.379 119 200L115 204L116 211C123.573 207.093 120.254 202.246 121 195L117 196z"/>
<path style="fill:#4c5330; stroke:none;" d="M139 195L139 197L142 197L142 195L139 195M124 200L127 197L124 200z"/>
<path style="fill:#12391b; stroke:none;" d="M143 202L146 203L161 201L162 201L162 197C156.272 197.351 146.441 197.096 143 202z"/>
<path style="fill:#99cea4; stroke:none;" d="M48.3333 200.667L48.6667 201.333L48.3333 200.667z"/>
<path style="fill:#506a38; stroke:none;" d="M96 200L96 203L98 203L98 200L96 200z"/>
<path style="fill:#6e6b3a; stroke:none;" d="M116 200L116 203L119 203L119 200L116 200z"/>
<path style="fill:#4c5330; stroke:none;" d="M126 200L129 203L128 200L126 200z"/>
<path style="fill:#6e6b3a; stroke:none;" d="M92 205L95 202L92 205z"/>
<path style="fill:#4c5330; stroke:none;" d="M131 205L136 203C133.101 201.98 131.692 201.772 131 205z"/>
<path style="fill:#6d7051; stroke:none;" d="M88 204L89 207L90 207L91 204L88 204z"/>
<path style="fill:#506a38; stroke:none;" d="M108 207L111 204L108 207z"/>
<path style="fill:#6e6b3a; stroke:none;" d="M117 204L121 207L117 204z"/>
<path style="fill:#99cea4; stroke:none;" d="M50.3333 205.667L50.6667 206.333L50.3333 205.667z"/>
<path style="fill:#8c7a49; stroke:none;" d="M85 205L85 209L86 209L85 205z"/>
<path style="fill:#506a38; stroke:none;" d="M125 209L130 205L125 209z"/>
<path style="fill:#8c7a49; stroke:none;" d="M95 206L95 208L97 208L97 206L95 206z"/>
<path style="fill:#918c59; stroke:none;" d="M80 207L80 210L83 209L83 208L80 207z"/>
<path style="fill:#2c4328; stroke:none;" d="M146 213L154 211L154 207L146 213z"/>
<path style="fill:#6e6b3a; stroke:none;" d="M154 210L157 207L154 210z"/>
<path style="fill:#b1ccbd; stroke:none;" d="M51.3333 208.667L51.6667 209.333L51.3333 208.667z"/>
<path style="fill:#6e6b3a; stroke:none;" d="M110 211L113 208L110 211z"/>
<path style="fill:#899c87; stroke:none;" d="M76 212L79 209L76 212M72 211L73 214L74 214L75 211L72 211z"/>
<path style="fill:#6e6b3a; stroke:none;" d="M101 214L105 211L101 214z"/>
<path style="fill:#4c5330; stroke:none;" d="M142 212L142 215L145 215L145 212L142 212z"/>
<path style="fill:#8c7a49; stroke:none;" d="M68 213L68 215L71 215L71 213L68 213z"/>
<path style="fill:#1c6532; stroke:none;" d="M97 213C95.8727 225.831 86.9488 223.062 81 231C88.4111 229.679 102.896 222.66 97 213z"/>
<path style="fill:#6d7051; stroke:none;" d="M65 214L64 215L64 216L64 217L67 214L65 214z"/>
<path style="fill:#918c59; stroke:none;" d="M82 214L82 216L84 216L84 214L82 214z"/>
<path style="fill:#4c5330; stroke:none;" d="M138 214L141 216L138 214z"/>
<path style="fill:#918c59; stroke:none;" d="M70 221L77 218L76 215L70 221z"/>
<path style="fill:#506a38; stroke:none;" d="M94 215L94 218L97 218L97 215L94 215z"/>
<path style="fill:#4c5330; stroke:none;" d="M115 215L114 216L114 217L114 218L117 215L115 215z"/>
<path style="fill:#6d7051; stroke:none;" d="M61 216L60 217L60 218L60 219L63 216L61 216z"/>
<path style="fill:#6e6b3a; stroke:none;" d="M90 217L90 220L93 219L93 218L90 217z"/>
<path style="fill:#6d8753; stroke:none;" d="M67 219L66 223L69 219L67 219z"/>
<path style="fill:#8c7a49; stroke:none;" d="M85 219L85 222L88 221L88 220L85 219z"/>
<path style="fill:#12391b; stroke:none;" d="M108 226L120 220C115.432 218.747 110.224 222.081 108 226z"/>
<path style="fill:#8c7a49; stroke:none;" d="M58 220L58 224L61 224L61 220L58 220z"/>
<path style="fill:#6d8753; stroke:none;" d="M81 221L81 224L84 224L84 221L81 221z"/>
<path style="fill:#8c7a49; stroke:none;" d="M70 226L73 223L70 226z"/>
<path style="fill:#4c5330; stroke:none;" d="M117 223L121 226L117 223z"/>
<path style="fill:#918c59; stroke:none;" d="M66 228L69 225L66 228z"/>
<path style="fill:#12391b; stroke:none;" d="M96 226L85 233L91 232L91 236L97 233L97 232L92 233L96 226z"/>
<path style="fill:#6e6b3a; stroke:none;" d="M97 227L92 233L99 231L97 227M100 227L100 230L103 230L103 227L100 227z"/>
<path style="fill:#8c7a49; stroke:none;" d="M73 228L73 231L75 231L75 228L73 228z"/>
<path style="fill:#918c59; stroke:none;" d="M79 228L79 231C81.0059 229.873 81.0059 229.127 79 228z"/>
<path style="fill:#99cea4; stroke:none;" d="M59.3333 229.667L59.6667 230.333L59.3333 229.667z"/>
<path style="fill:#8c7a49; stroke:none;" d="M63 232L63 236L66 235L66 233L65 232L63 232M88 232L88 235L91 235L91 232L88 232z"/>
<path style="fill:#918c59; stroke:none;" d="M84 236L79 236L80 240L87 237L86 233L84 236z"/>
<path style="fill:#577157; stroke:none;" d="M73 238L75 243L76 239L73 238z"/>
<path style="fill:#69a078; stroke:none;" d="M74 239L74 242L76 242L76 239L74 239z"/>
<path style="fill:#b1ccbd; stroke:none;" d="M67.3333 250.667L67.6667 251.333L67.3333 250.667M68.6667 252.333L69.3333 252.667L68.6667 252.333z"/>
</svg>
