<?xml version="1.0" encoding="utf-8"?>
<!-- Generator: Adobe Illustrator 16.0.0, SVG Export Plug-In . SVG Version: 6.00 Build 0)  -->
<!DOCTYPE svg PUBLIC "-//W3C//DTD SVG 1.1//EN" "http://www.w3.org/Graphics/SVG/1.1/DTD/svg11.dtd">
<svg
    xmlns:dc="http://purl.org/dc/elements/1.1/"
    xmlns:cc="http://creativecommons.org/ns#"
    xmlns:rdf="http://www.w3.org/1999/02/22-rdf-syntax-ns#"
    xmlns:svg="http://www.w3.org/2000/svg"
    xmlns:sodipodi="http://sodipodi.sourceforge.net/DTD/sodipodi-0.dtd"
    xmlns:inkscape="http://www.inkscape.org/namespaces/inkscape"
    xmlns="http://www.w3.org/2000/svg"
    xmlns:xlink="http://www.w3.org/1999/xlink"
    xmlns:ns1="http://sozi.baierouge.fr"
    version="1.1"
    id="svg3036"
    sodipodi:docname="Rondo_pixel-peep.png"
    inkscape:version="0.48.2 r9819"
    x="0px"
    y="0px"
    width="1024px"
    height="1024px"
    viewBox="0 0 1024 1024"
    enable-background="new 0 0 1024 1024"
    xml:space="preserve"
  >
<g
      id="g3046"
    >
	<path
        id="path3090"
        inkscape:connector-curvature="0"
        fill="#FEFEFE"
        d="M0,512V0h512h512v512v512H512H0V512z"
    />
	<path
        id="path3088"
        inkscape:connector-curvature="0"
        fill="#E7E7E7"
        d="M0,512V0h512h512v512v512H512H0V512z M405,692.5V682h-11   h-11v10.5V703h11h11V692.5z M639,671.5V661h-96h-96v10.5V682h96h96V671.5z M554,628.5V618h10.5H575v-42.5V533h-32h-32v32v32h21.5   H554v10.5V618h-21.5H511v10.5V639h21.5H554V628.5z M533,564.5V554h10.5H554v10.5V575h-10.5H533V564.5z M469,522v-32h10.5H490v-10.5   V469h-10.5H469v10.5V490h-11h-11v32v32h11h11V522z M661,490v-21h-11h-11v21v21h11h11V490z M490,244.5V234h-21.5H447v10.5V255h21.5   H490V244.5z M597,244.5V234h-21.5H554v10.5V255h21.5H597V244.5z"
    />
	<path
        id="path3086"
        inkscape:connector-curvature="0"
        fill="#D2D2D2"
        d="M0,512V0h512h512v512v512H512H0V512z M703,756.5V746h-10.5   H682v10.5V767h10.5H703V756.5z M405,692.5V682h-11h-11v10.5V703h11h11V692.5z M639,671.5V661h-96h-96v10.5V682h96h96V671.5z    M554,628.5V618h10.5H575v-42.5V533h-32h-32v32v32h21.5H554v10.5V618h-21.5H511v10.5V639h21.5H554V628.5z M533,564.5V554h10.5H554   v10.5V575h-10.5H533V564.5z M469,522v-32h10.5H490v-10.5V469h-10.5H469v10.5V490h-11h-11v32v32h11h11V522z M682,543.5V533h-10.5   H661v10.5V554h10.5H682V543.5z M661,479v-32h-11h-11v-10.5V426h-32h-32v10.5V447h-32h-32v11v11h32h32v-11v-11h32h32v32v32h11h11   V479z M490,244.5V234h-21.5H447v10.5V255h21.5H490V244.5z M597,244.5V234h-21.5H554v10.5V255h21.5H597V244.5z"
    />
	<path
        id="path3084"
        inkscape:connector-curvature="0"
        fill="#BFBFBF"
        d="M0,512V0h512h512v512v512H512H0V512z M703,756.5V746h-10.5   H682v10.5V767h10.5H703V756.5z M405,692.5V682h-11h-11v10.5V703h11h11V692.5z M703,671.5V661H575H447v10.5V682h128h128V671.5z    M554,628.5V618h10.5H575v-42.5V533h-32h-32v32v32h21.5H554v10.5V618h-21.5H511v10.5V639h21.5H554V628.5z M533,564.5V554h10.5H554   v10.5V575h-10.5H533V564.5z M469,522v-32h10.5H490v-21.5V447h-10.5H469v21.5V490h-11h-11v32v32h11h11V522z M682,532.5V511h-10.5   H661v-32v-32h-11h-11v-10.5V426h-32h-32v10.5V447h-32h-32v11v11h32h32v-11v-11h32h32v32v32h11h11v21.5V554h10.5H682V532.5z    M490,244.5V234h-21.5H447v10.5V255h21.5H490V244.5z M597,244.5V234h-21.5H554v10.5V255h21.5H597V244.5z"
    />
	<path
        id="path3082"
        inkscape:connector-curvature="0"
        fill="#AEAEAE"
        d="M0,512V0h512h512v512v512H512H0V512z M703,756.5V746h-10.5   H682v10.5V767h10.5H703V756.5z M405,692.5V682h-11h-11v10.5V703h11h11V692.5z M703,671.5V661H575H447v10.5V682h128h128V671.5z    M554,628.5V618h10.5H575v-42.5V533h-32h-32v32v32h21.5H554v10.5V618h-21.5H511v10.5V639h21.5H554V628.5z M533,564.5V554h10.5H554   v10.5V575h-10.5H533V564.5z M469,522v-32h10.5H490v-21.5V447h-10.5H469v21.5V490h-11h-11v32v32h11h11V522z M682,532.5V511h-10.5   H661v-32v-32h-11h-11v-10.5V426h-32h-32v10.5V447h-32h-32v11v11h32h32v-11v-11h32h32v32v32h11h11v21.5V554h10.5H682V532.5z    M703,458v-11h-10.5H682v11v11h10.5H703V458z M490,244.5V234h-21.5H447v10.5V255h21.5H490V244.5z M597,244.5V234h-21.5H554v10.5   V255h21.5H597V244.5z"
    />
	<path
        id="path3080"
        inkscape:connector-curvature="0"
        fill="#B8C765"
        d="M0,512V0h512h512v512v512H512H0V512z M703,756.5V746h-10.5   H682v10.5V767h10.5H703V756.5z M405,692.5V682h-11h-11v10.5V703h11h11V692.5z M703,671.5V661H575H447v10.5V682h128h128V671.5z    M554,628.5V618h10.5H575v-42.5V533h-32h-32v32v32h21.5H554v10.5V618h-21.5H511v10.5V639h21.5H554V628.5z M533,564.5V554h10.5H554   v10.5V575h-10.5H533V564.5z M469,522v-32h10.5H490v-21.5V447h-10.5H469v21.5V490h-11h-11v32v32h11h11V522z M682,532.5V511h-10.5   H661v-21v-21h21h21v-11v-11h-32h-32v-10.5V426h-32h-32v10.5V447h-21h-21v-10.5V426h-11h-11v21.5V469h32h32v-11v-11h32h32v32v32h11   h11v21.5V554h10.5H682V532.5z M490,244.5V234h-21.5H447v10.5V255h21.5H490V244.5z M597,244.5V234h-21.5H554v10.5V255h21.5H597   V244.5z"
    />
	<path
        id="path3078"
        inkscape:connector-curvature="0"
        fill="#A8B55D"
        d="M85,948.5V938h21h21v-10.5V917h352h352v10.5V938H543H255   v10.5V959h-85H85V948.5z M341,820.5V810h10.5H362v-53.5V703h10.5H383v64v64h-21h-21V820.5z M789,820.5V810h-43h-43v-10.5V789h-10.5   H682v-11v-11h10.5H703v11v11h53.5H810v21v21h-10.5H789V820.5z M682,724.5V703H543.5H405v-10.5V682h149h149v32v32h-10.5H682V724.5z    M447,607.5V554h11h11v-32v-32H330H191v-10.5V469h-10.5H170v-11v-11h-10.5H149v-10.5V426h-11h-11v-53.5V319h11h11v-10.5V298h10.5   H170v-10.5V277h53.5H277v10.5V298h10.5H298v10.5V319h10.5H319v53.5V426h-10.5H298v10.5V447h-10.5H277v11v11h96h96v10.5V490h10.5   H490v-21.5V447h10.5H511v11v11h32h32v-11v-11h-21h-21v-21v-21h-43h-43v-11v-11h-10.5H426v-21v-21h-10.5H405V234V127h10.5H426v-10.5   V106h21.5H469V95.5V85h96h96v10.5V106h10.5H682v10.5V127h10.5H703v43v43h11h11v32v32h-11h-11v21v21h-10.5H682v21.5V362h-10.5H661   v10.5V383h-21.5H618v11v11h-10.5H597v10.5V426h-11h-11v10.5V447h32h32v-10.5V426h21.5H682v10.5V447h-21.5H639v32v32h11h11v-21v-21   h21h21v96v96H575H447V607.5z M554,628.5V618h10.5H575v-42.5V533h-32h-32v32v32h21.5H554v10.5V618h-21.5H511v10.5V639h21.5H554   V628.5z M533,564.5V554h10.5H554v10.5V575h-10.5H533V564.5z M682,532.5V511h-10.5H661v21.5V554h10.5H682V532.5z M490,244.5V234   h-21.5H447v10.5V255h21.5H490V244.5z M597,244.5V234h-21.5H554v10.5V255h21.5H597V244.5z"
    />
	<path
        id="path3076"
        inkscape:connector-curvature="0"
        fill="#2B9769"
        d="M341,820.5V810h10.5H362v-53.5V703h10.5H383v64v64h-21h-21   V820.5z M789,820.5V810h-43h-43v-10.5V789h-10.5H682v-11v-11h10.5H703v11v11h53.5H810v21v21h-10.5H789V820.5z M682,724.5V703H543.5   H405v-10.5V682h149h149v32v32h-10.5H682V724.5z M447,607.5V554h11h11v-32v-32H330H191v-10.5V469h-10.5H170v-11v-11h-10.5H149v-10.5   V426h-11h-11v-53.5V319h11h11v-10.5V298h10.5H170v-10.5V277h53.5H277v10.5V298h10.5H298v10.5V319h10.5H319v53.5V426h-10.5H298v10.5   V447h-10.5H277v11v11h96h96v10.5V490h10.5H490v-21.5V447h10.5H511v11v11h32h32v-11v-11h-21h-21v-21v-21h-43h-43v-11v-11h-10.5H426   v-21v-21h-10.5H405V234V127h10.5H426v-10.5V106h21.5H469V95.5V85h96h96v10.5V106h10.5H682v10.5V127h10.5H703v43v43h11h11v32v32h-11   h-11v21v21h-10.5H682v21.5V362h-10.5H661v10.5V383h-21.5H618v11v11h-10.5H597v10.5V426h-11h-11v10.5V447h32h32v-10.5V426h21.5H682   v10.5V447h-21.5H639v32v32h11h11v-21v-21h21h21v96v96H575H447V607.5z M554,628.5V618h10.5H575v-42.5V533h-32h-32v32v32h21.5H554   v10.5V618h-21.5H511v10.5V639h21.5H554V628.5z M533,564.5V554h10.5H554v10.5V575h-10.5H533V564.5z M682,532.5V511h-10.5H661v21.5   V554h10.5H682V532.5z M490,244.5V234h-21.5H447v10.5V255h21.5H490V244.5z M597,244.5V234h-21.5H554v10.5V255h21.5H597V244.5z"
    />
	<path
        id="path3074"
        inkscape:connector-curvature="0"
        fill="#298A61"
        d="M362,756.5V703h10.5H383v53.5V810h-10.5H362V756.5z    M703,799.5V789h-10.5H682v-11v-11h10.5H703v11v11h43h43v10.5V810h-43h-43V799.5z M682,724.5V703H564.5H447v-10.5V682h128h128v32   v32h-10.5H682V724.5z M447,607.5V554h11h11v42.5V639h42.5H554v-10.5V618h53.5H661v-21.5V575h-11h-11v-21v-21h-10.5H618v-32v-32   h-21.5H575v10.5V490h-32h-32v-10.5V469h-10.5H490v-11v-11h10.5H511v11v11h32h32v-11v-11h-21h-21v-21v-21h-43h-43v-11v-11h-10.5H426   v-21v-21h-10.5H405V234V127h10.5H426v-10.5V106h21.5H469V95.5V85h96h96v10.5V106h10.5H682v10.5V127h10.5H703v21.5V170h-10.5H682   v-10.5V149h-21.5H639v-11v-11H532.5H426v21.5V170h117.5H661v10.5V191h21h21v11v11h11h11v32v32h-11h-11v21v21h-10.5H682v21.5V362   h-10.5H661v10.5V383h-21.5H618v11v11h-10.5H597v10.5V426h-11h-11v10.5V447h32h32v-10.5V426h21.5H682v10.5V447h-21.5H639v32v32h11   h11v-21v-21h21h21v96v96H575H447V607.5z M682,532.5V511h-10.5H661v21.5V554h10.5H682V532.5z M490,244.5V234h-21.5H447v10.5V255   h21.5H490V244.5z M597,244.5V234h-21.5H554v10.5V255h21.5H597V244.5z M191,479.5V469h-10.5H170v-11v-11h-10.5H149v-10.5V426h-11   h-11v-53.5V319h11h11v-10.5V298h10.5H170v-10.5V277h53.5H277v10.5V298h10.5H298v10.5V319h10.5H319v53.5V426h-10.5H298v10.5V447   h-10.5H277v11v11h96h96v10.5V490H330H191V479.5z"
    />
	<path
        id="path3072"
        inkscape:connector-curvature="0"
        fill="#A96A00"
        d="M362,756.5V703h10.5H383v53.5V810h-10.5H362V756.5z    M703,799.5V789h-10.5H682v-11v-11h10.5H703v11v11h43h43v10.5V810h-43h-43V799.5z M447,650v-11h53.5H554v-10.5V618h53.5H661v-32   v-32h10.5H682v-21.5V511h-10.5H661v-21v-21h21h21v96v96H575H447V650z M191,479.5V469h-10.5H170v-11v-11h-10.5H149v-10.5V426h-11   h-11v-53.5V319h11h11v-10.5V298h10.5H170v-10.5V277h53.5H277v10.5V298h10.5H298v10.5V319h10.5H319v53.5V426h-10.5H298v10.5V447   h-10.5H277v11v11h96h96v10.5V490H330H191V479.5z M490,458v-11h10.5H511v11v11h-10.5H490V458z M533,426v-21h-43h-43v-11v-11h-10.5   H426v-21v-21h-10.5H405v-75v-75h117h117v11v11h43h43v32v32h-11h-11v21v21h-10.5H682v21.5V362h-10.5H661v10.5V383h-21.5H618v11v11   h-10.5H597v10.5V426h-11h-11v10.5V447h-21h-21V426z M490,244.5V234h-21.5H447v10.5V255h21.5H490V244.5z M597,244.5V234h-21.5H554   v10.5V255h21.5H597V244.5z M682,159.5V149h-21.5H639v-11v-11H532.5H426v-10.5V106h21.5H469V95.5V85h96h96v10.5V106h10.5H682v10.5   V127h10.5H703v21.5V170h-10.5H682V159.5z"
    />
	<path
        id="path3070"
        inkscape:connector-curvature="0"
        fill="#277E5A"
        d="M362,756.5V703h10.5H383v53.5V810h-10.5H362V756.5z    M703,799.5V789h-10.5H682v-11v-11h10.5H703v11v11h43h43v10.5V810h-43h-43V799.5z M447,650v-11h53.5H554v-10.5V618h53.5H661v-32   v-32h10.5H682v-21.5V511h-10.5H661v-21v-21h21h21v96v96H575H447V650z M191,479.5V469h-10.5H170v-11v-11h-10.5H149v-10.5V426h-11   h-11v-53.5V319h11h11v-10.5V298h10.5H170v-10.5V277h53.5H277v10.5V298h10.5H298v10.5V319h10.5H319v11v11h-21h-21v-11v-11h-53.5H170   v11v11h-10.5H149v10.5V362h85h85v10.5V383h-85h-85v11v11h10.5H170v10.5V426h53.5H277v-10.5V405h21h21v10.5V426h-21h-21v21.5V469h96   h96v10.5V490H330H191V479.5z M490,458v-11h10.5H511v11v11h-10.5H490V458z M533,426v-21h-43h-43v-11v-11h-10.5H426v-21v-21h-10.5   H405v-75v-75h117h117v11v11h43h43v32v32h-11h-11v21v21h-10.5H682v21.5V362h-10.5H661v10.5V383h-21.5H618v11v11h-10.5H597v10.5V426   h-11h-11v10.5V447h-21h-21V426z M490,244.5V234h-21.5H447v10.5V255h21.5H490V244.5z M597,244.5V234h-21.5H554v10.5V255h21.5H597   V244.5z M682,159.5V149h-21.5H639v-11v-11H532.5H426v-10.5V106h21.5H469V95.5V85h96h96v10.5V106h10.5H682v10.5V127h10.5H703v21.5   V170h-10.5H682V159.5z"
    />
	<path
        id="path3068"
        inkscape:connector-curvature="0"
        fill="#9A6202"
        d="M362,756.5V703h10.5H383v53.5V810h-10.5H362V756.5z    M703,799.5V789h-10.5H682v-11v-11h10.5H703v11v11h43h43v10.5V810h-43h-43V799.5z M554,639.5V618h64h64v-53.5V511h-10.5H661v-21   v-21h21h21v96v96h-21h-21v-11v-11h-21.5H618v11v11h-32h-32V639.5z M191,479.5V469h-10.5H170v-11v-11h-10.5H149v-10.5V426h-11h-11   v-53.5V319h11h11v-10.5V298h10.5H170v-10.5V277h53.5H277v10.5V298h10.5H298v10.5V319h10.5H319v11v11h-21h-21v-11v-11h-53.5H170v11   v11h-10.5H149v10.5V362h85h85v10.5V383h-85h-85v11v11h10.5H170v10.5V426h53.5H277v-10.5V405h21h21v10.5V426h-21h-21v21.5V469h96h96   v10.5V490H330H191V479.5z M533,426v-21h-43h-43v-11v-11h-10.5H426v-21v-21h-10.5H405v-75v-75h117h117v11v11h43h43v32v32h-11h-11v21   v21h-10.5H682v21.5V362h-10.5H661v10.5V383h-21.5H618v11v11h-10.5H597v10.5V426h-11h-11v10.5V447h-21h-21V426z M490,244.5V234   h-21.5H447v10.5V255h21.5H490V244.5z M597,244.5V234h-21.5H554v10.5V255h21.5H597V244.5z M682,159.5V149h-21.5H639v-11v-11H532.5   H426v-10.5V106h21.5H469V95.5V85h96h96v10.5V106h10.5H682v10.5V127h10.5H703v21.5V170h-10.5H682V159.5z"
    />
	<path
        id="path3066"
        inkscape:connector-curvature="0"
        fill="#257453"
        d="M362,756.5V703h10.5H383v53.5V810h-10.5H362V756.5z    M703,799.5V789h-10.5H682v-11v-11h10.5H703v11v11h43h43v10.5V810h-43h-43V799.5z M554,639.5V618h64h64v-53.5V511h-10.5H661v-21   v-21h21h21v96v96h-21h-21v-11v-11h-21.5H618v11v11h-32h-32V639.5z M191,479.5V469h-10.5H170v-11v-11h-10.5H149v-10.5V426h64h64   v-10.5V405h21h21v10.5V426h-21h-21v21.5V469h96h96v10.5V490H330H191V479.5z M255,458v-11h-32h-32v11v11h32h32V458z M533,426v-21   h-43h-43v-11v-11h-10.5H426v-21v-21h-10.5H405v-75v-75h117h117v11v11h43h43v32v32h-11h-11v21v21h-10.5H682v21.5V362h-10.5H661v10.5   V383h-21.5H618v11v11h-10.5H597v10.5V426h-11h-11v10.5V447h-21h-21V426z M490,244.5V234h-21.5H447v10.5V255h21.5H490V244.5z    M597,244.5V234h-21.5H554v10.5V255h21.5H597V244.5z M127,372.5V362h96h96v10.5V383h-96h-96V372.5z M277,330v-11h-64h-64v-10.5V298   h64h64v10.5V319h21h21v11v11h-21h-21V330z M682,159.5V149h-21.5H639v-11v-11H532.5H426v-10.5V106h21.5H469V95.5V85h96h96v10.5V106   h10.5H682v10.5V127h10.5H703v21.5V170h-10.5H682V159.5z"
    />
	<path
        id="path3064"
        inkscape:connector-curvature="0"
        fill="#246B4D"
        d="M362,756.5V703h10.5H383v53.5V810h-10.5H362V756.5z    M703,799.5V789h-10.5H682v-11v-11h10.5H703v11v11h43h43v10.5V810h-43h-43V799.5z M554,639.5V618h64h64v-53.5V511h-10.5H661v-21   v-21h21h21v96v96h-10.5H682v-11v-11h-32h-32v11v11h-32h-32V639.5z M191,479.5V469h-10.5H170v-11v-11h-10.5H149v-10.5V426h64h64   v-10.5V405h21h21v10.5V426h-21h-21v21.5V469h96h96v10.5V490H330H191V479.5z M255,458v-11h-32h-32v11v11h32h32V458z M533,426v-21   h-43h-43v-11v-11h-10.5H426v-21v-21h-10.5H405v-75v-75h117h117v11v11h43h43v32v32h-11h-11v21v21h-10.5H682v21.5V362h-10.5H661v10.5   V383h-21.5H618v11v11h-10.5H597v10.5V426h-11h-11v10.5V447h-21h-21V426z M490,244.5V234h-21.5H447v10.5V255h21.5H490V244.5z    M597,244.5V234h-21.5H554v10.5V255h21.5H597V244.5z M127,372.5V362h96h96v10.5V383h-96h-96V372.5z M277,330v-11h-64h-64v-10.5V298   h64h64v10.5V319h21h21v11v11h-21h-21V330z M682,159.5V149h-21.5H639v-11v-11H532.5H426v-10.5V106h21.5H469V95.5V85h96h96v10.5V106   h10.5H682v10.5V127h10.5H703v21.5V170h-10.5H682V159.5z"
    />
	<path
        id="path3062"
        inkscape:connector-curvature="0"
        fill="#835200"
        d="M362,756.5V703h10.5H383v53.5V810h-10.5H362V756.5z    M703,799.5V789h-10.5H682v-11v-11h10.5H703v11v11h43h43v10.5V810h-43h-43V799.5z M554,639.5V618h64h64v-53.5V511h-10.5H661v-21   v-21h21h21v85v85h-42.5H618v11v11h-32h-32V639.5z M191,479.5V469h-10.5H170v-11v-11h-10.5H149v-10.5V426h64h64v-10.5V405h21h21   v10.5V426h-21h-21v21.5V469h96h96v10.5V490H330H191V479.5z M255,458v-11h-32h-32v11v11h32h32V458z M533,426v-21h-43h-43v-11v-11   h-10.5H426v-21v-21h-10.5H405v-75v-75h117h117v11v11h43h43v32v32h-11h-11v21v21h-10.5H682v21.5V362h-10.5H661v10.5V383h-21.5H618   v11v11h-10.5H597v10.5V426h-11h-11v10.5V447h-21h-21V426z M490,244.5V234h-21.5H447v10.5V255h21.5H490V244.5z M597,244.5V234h-21.5   H554v10.5V255h21.5H597V244.5z M127,372.5V362h96h96v10.5V383h-96h-96V372.5z M277,330v-11h-64h-64v-10.5V298h64h64v10.5V319h21h21   v11v11h-21h-21V330z M682,159.5V149h-21.5H639v-11v-11H532.5H426v-10.5V106h21.5H469V95.5V85h96h96v10.5V106h10.5H682v10.5V127   h10.5H703v21.5V170h-10.5H682V159.5z"
    />
	<path
        id="path3060"
        inkscape:connector-curvature="0"
        fill="#784C02"
        d="M362,799.5V789h10.5H383v10.5V810h-10.5H362V799.5z    M703,799.5V789h-10.5H682v-11v-11h10.5H703v11v11h21.5H746v10.5V810h-21.5H703V799.5z M767,799.5V789h11h11v10.5V810h-11h-11   V799.5z M597,650v-11h10.5H618v11v11h-10.5H597V650z M661,490v-21h10.5H682v21v21h-10.5H661V490z M255,479.5V469h21.5H298v10.5V490   h-21.5H255V479.5z M319,479.5V469h43h43v10.5V490h-43h-43V479.5z M426,479.5V469h21.5H469v10.5V490h-21.5H426V479.5z M149,436.5   V426h64h64v-10.5V405h21h21v10.5V426h-21h-21v10.5V447h-64h-64V436.5z M533,415.5V405h21h21v-11v-11h21.5H618v-10.5V362h10.5H639   v-21.5V319h-10.5H618v-21v-21h-42.5H533v-21.5V234h-11h-11v32v32h21.5H554v10.5V319h-42.5H469v-21v-21h-21.5H426v32v32h-10.5H405   v-75v-75h117h117v11v11h32h32v21v21h-10.5H682v11v11h10.5H703v21v21h-10.5H682v21.5V362h-10.5H661v10.5V383h-21.5H618v11v11h-10.5   H597v10.5V426h-32h-32V415.5z M639,255.5V234h-10.5H618v21.5V277h10.5H639V255.5z M490,244.5V234h-21.5H447v10.5V255h21.5H490   V244.5z M597,244.5V234h-21.5H554v10.5V255h21.5H597V244.5z M127,372.5V362h96h96v10.5V383h-96h-96V372.5z M490,351.5V341h42.5H575   v-11v-11h11h11v11v11h-11h-11v10.5V362h-42.5H490V351.5z M277,330v-11h-64h-64v-10.5V298h64h64v10.5V319h21h21v11v11h-21h-21V330z    M682,159.5V149h-21.5H639v-11v-11H532.5H426v-10.5V106h21.5H469V95.5V85h96h96v10.5V106h10.5H682v10.5V127h10.5H703v21.5V170   h-10.5H682V159.5z"
    />
	<path
        id="path3058"
        inkscape:connector-curvature="0"
        fill="#69470C"
        d="M362,799.5V789h10.5H383v10.5V810h-10.5H362V799.5z    M703,799.5V789h-10.5H682v-11v-11h10.5H703v11v11h21.5H746v10.5V810h-21.5H703V799.5z M767,799.5V789h11h11v10.5V810h-11h-11   V799.5z M597,650v-11h10.5H618v11v11h-10.5H597V650z M661,500.5V490h10.5H682v10.5V511h-10.5H661V500.5z M255,479.5V469h11h11v10.5   V490h-11h-11V479.5z M319,479.5V469h43h43v10.5V490h-43h-43V479.5z M447,479.5V469h11h11v10.5V490h-11h-11V479.5z M149,436.5V426   h64h64v-10.5V405h21h21v10.5V426h-21h-21v10.5V447h-64h-64V436.5z M533,415.5V405h32h32v10.5V426h-32h-32V415.5z M127,372.5V362h96   h96v10.5V383h-96h-96V372.5z M639,372.5V362h11h11v-10.5V341h10.5H682v10.5V362h-10.5H661v10.5V383h-11h-11V372.5z M490,351.5V341   h42.5H575v-11v-11h11h11v11v11h-11h-11v10.5V362h-42.5H490V351.5z M277,330v-11h-64h-64v-10.5V298h64h64v10.5V319h21h21v11v11h-21   h-21V330z M405,266v-75h117h117v11v11h32h32v21v21h-10.5H682v-10.5V234h-10.5H661v10.5V255h-11h-11v-21v-21h-10.5H618v10.5V234h-32   h-32v10.5V255h-10.5H533v-21v-21h-21.5H490v10.5V234h10.5H511v32v32h21.5H554v10.5V319h-42.5H469v-10.5V298h10.5H490v-32v-32h-21.5   H447v10.5V255h-10.5H426v43v43h-10.5H405V266z M682,298v-21h10.5H703v21v21h-10.5H682V298z M682,159.5V149h-21.5H639v-11v-11H532.5   H426v-10.5V106h21.5H469V95.5V85h96h96v10.5V106h10.5H682v10.5V127h10.5H703v21.5V170h-10.5H682V159.5z"
    />
	<path
        id="path3056"
        inkscape:connector-curvature="0"
        fill="#6E4704"
        d="M362,799.5V789h10.5H383v10.5V810h-10.5H362V799.5z    M703,799.5V789h-10.5H682v-11v-11h10.5H703v11v11h21.5H746v10.5V810h-21.5H703V799.5z M767,799.5V789h11h11v10.5V810h-11h-11   V799.5z M597,650v-11h10.5H618v11v11h-10.5H597V650z M661,500.5V490h10.5H682v10.5V511h-10.5H661V500.5z M255,479.5V469h11h11v10.5   V490h-11h-11V479.5z M319,479.5V469h43h43v10.5V490h-43h-43V479.5z M447,479.5V469h11h11v10.5V490h-11h-11V479.5z M149,436.5V426   h21h21v10.5V447h-21h-21V436.5z M533,415.5V405h32h32v10.5V426h-32h-32V415.5z M127,372.5V362h11h11v10.5V383h-11h-11V372.5z    M639,372.5V362h11h11v-10.5V341h10.5H682v10.5V362h-10.5H661v10.5V383h-11h-11V372.5z M490,351.5V341h42.5H575v-11v-11h11h11v11   v11h-11h-11v10.5V362h-42.5H490V351.5z M405,266v-75h117h117v11v11h32h32v21v21h-10.5H682v-10.5V234h-10.5H661v10.5V255h-11h-11   v-21v-21h-10.5H618v10.5V234h-32h-32v10.5V255h-10.5H533v-21v-21h-21.5H490v10.5V234h10.5H511v32v32h21.5H554v10.5V319h-42.5H469   v-10.5V298h10.5H490v-32v-32h-21.5H447v10.5V255h-10.5H426v43v43h-10.5H405V266z M149,308.5V298h21h21v10.5V319h-21h-21V308.5z    M682,298v-21h10.5H703v21v21h-10.5H682V298z M682,159.5V149h-21.5H639v-11v-11H532.5H426v-10.5V106h21.5H469V95.5V85h96h96v10.5   V106h10.5H682v10.5V127h10.5H703v21.5V170h-10.5H682V159.5z"
    />
	<path
        id="path3054"
        inkscape:connector-curvature="0"
        fill="#61420E"
        d="M362,799.5V789h10.5H383v10.5V810h-10.5H362V799.5z    M703,799.5V789h-10.5H682v-11v-11h10.5H703v11v11h21.5H746v10.5V810h-21.5H703V799.5z M767,799.5V789h11h11v10.5V810h-11h-11   V799.5z M597,650v-11h10.5H618v11v11h-10.5H597V650z M661,500.5V490h10.5H682v10.5V511h-10.5H661V500.5z M319,479.5V469h43h43v10.5   V490h-43h-43V479.5z M447,479.5V469h11h11v10.5V490h-11h-11V479.5z M149,436.5V426h21h21v10.5V447h-21h-21V436.5z M533,415.5V405   h32h32v10.5V426h-32h-32V415.5z M127,372.5V362h11h11v10.5V383h-11h-11V372.5z M490,351.5V341h42.5H575v-11v-11h11h11v11v11h-11   h-11v10.5V362h-42.5H490V351.5z M149,308.5V298h21h21v10.5V319h-21h-21V308.5z M469,308.5V298h10.5H490v10.5V319h-10.5H469V308.5z    M533,308.5V298h10.5H554v10.5V319h-10.5H533V308.5z M682,298v-21h10.5H703v21v21h-10.5H682V298z M426,244.5V234h-10.5H405v-21.5   V191h117h117v11v11h21.5H682v10.5V234h-10.5H661v10.5V255h-11h-11v-21v-21h-10.5H618v10.5V234h-32h-32v10.5V255h-10.5H533v-21v-21   h-53.5H426v10.5V234h10.5H447v10.5V255h-10.5H426V244.5z M682,159.5V149h-21.5H639v-11v-11H532.5H426v-10.5V106h21.5H469V95.5V85   h96h96v10.5V106h10.5H682v10.5V127h10.5H703v21.5V170h-10.5H682V159.5z"
    />
	<path
        id="path3052"
        inkscape:connector-curvature="0"
        fill="#654206"
        d="M362,799.5V789h10.5H383v10.5V810h-10.5H362V799.5z    M703,799.5V789h-10.5H682v-11v-11h10.5H703v11v11h21.5H746v10.5V810h-21.5H703V799.5z M767,799.5V789h11h11v10.5V810h-11h-11   V799.5z M597,650v-11h10.5H618v11v11h-10.5H597V650z M661,500.5V490h10.5H682v10.5V511h-10.5H661V500.5z M319,479.5V469h43h43v10.5   V490h-43h-43V479.5z M447,479.5V469h11h11v10.5V490h-11h-11V479.5z M533,415.5V405h32h32v10.5V426h-32h-32V415.5z M490,351.5V341   h42.5H575v-11v-11h11h11v11v11h-11h-11v10.5V362h-42.5H490V351.5z M469,308.5V298h10.5H490v10.5V319h-10.5H469V308.5z M533,308.5   V298h10.5H554v10.5V319h-10.5H533V308.5z M682,298v-21h10.5H703v21v21h-10.5H682V298z M426,244.5V234h-10.5H405v-21.5V191h117h117   v11v11h21.5H682v10.5V234h-10.5H661v10.5V255h-11h-11v-21v-21h-10.5H618v10.5V234h-32h-32v10.5V255h-10.5H533v-21v-21h-53.5H426   v10.5V234h10.5H447v10.5V255h-10.5H426V244.5z M682,159.5V149h-21.5H639v-11v-11H532.5H426v-10.5V106h21.5H469V95.5V85h96h96v10.5   V106h10.5H682v10.5V127h10.5H703v21.5V170h-10.5H682V159.5z"
    />
	<path
        id="path3050"
        inkscape:connector-curvature="0"
        fill="#5D3E08"
        d="M362,799.5V789h10.5H383v10.5V810h-10.5H362V799.5z    M703,799.5V789h-10.5H682v-11v-11h10.5H703v11v11h21.5H746v10.5V810h-21.5H703V799.5z M767,799.5V789h11h11v10.5V810h-11h-11   V799.5z M319,479.5V469h43h43v10.5V490h-43h-43V479.5z M533,415.5V405h32h32v10.5V426h-32h-32V415.5z M490,351.5V341h42.5H575v-11   v-11h11h11v11v11h-11h-11v10.5V362h-42.5H490V351.5z M682,298v-21h10.5H703v21v21h-10.5H682V298z M426,244.5V234h-10.5H405v-21.5   V191h42.5H490v11v11h-32h-32v10.5V234h10.5H447v10.5V255h-10.5H426V244.5z M533,244.5V234h10.5H554v10.5V255h-10.5H533V244.5z    M639,234v-21h21.5H682v10.5V234h-10.5H661v10.5V255h-11h-11V234z M597,223.5V213h-32h-32v-11v-11h32h32v11v11h10.5H618v10.5V234   h-10.5H597V223.5z M682,159.5V149h-21.5H639v-11v-11H532.5H426v-10.5V106h21.5H469V95.5V85h96h96v10.5V106h10.5H682v10.5V127h10.5   H703v21.5V170h-10.5H682V159.5z"
    />
	<path
        id="path3048"
        inkscape:connector-curvature="0"
        fill="#1D1D1D"
        d="M362,799.5V789h10.5H383v10.5V810h-10.5H362V799.5z    M703,799.5V789h-10.5H682v-11v-11h10.5H703v11v11h21.5H746v10.5V810h-21.5H703V799.5z M767,799.5V789h11h11v10.5V810h-11h-11   V799.5z M319,479.5V469h43h43v10.5V490h-43h-43V479.5z M682,298v-21h10.5H703v21v21h-10.5H682V298z M426,244.5V234h-10.5H405v-21.5   V191h42.5H490v11v11h-32h-32v10.5V234h10.5H447v10.5V255h-10.5H426V244.5z M533,244.5V234h10.5H554v10.5V255h-10.5H533V244.5z    M639,234v-21h21.5H682v10.5V234h-10.5H661v10.5V255h-11h-11V234z M597,223.5V213h-32h-32v-11v-11h32h32v11v11h10.5H618v10.5V234   h-10.5H597V223.5z M682,159.5V149h-21.5H639v-11v-11H532.5H426v-10.5V106h21.5H469V95.5V85h96h96v10.5V106h10.5H682v10.5V127h10.5   H703v21.5V170h-10.5H682V159.5z"
    />
</g
  >
<metadata
    ><rdf:RDF
      ><cc:Work
        ><dc:format
          >image/svg+xml</dc:format
        ><dc:type
            rdf:resource="http://purl.org/dc/dcmitype/StillImage"
        /><cc:license
            rdf:resource="http://creativecommons.org/licenses/publicdomain/"
        /><dc:publisher
          ><cc:Agent
              rdf:about="http://openclipart.org/"
            ><dc:title
              >Openclipart</dc:title
            ></cc:Agent
          ></dc:publisher
        ><dc:title
          >Rajon Rondo PxL Peep</dc:title
        ><dc:date
          >2014-04-16T16:20:22</dc:date
        ><dc:description
          >Want your own custom PxL Peep? We'll make it for you! http://www.fiverr.com/pxl_peeps/create-your-pixel-peep-likeness</dc:description
        ><dc:source
          >https://openclipart.org/detail/192836/rajon-rondo-pxl-peep-by-pxl_peeps-192836</dc:source
        ><dc:creator
          ><cc:Agent
            ><dc:title
              >pxl_peeps</dc:title
            ></cc:Agent
          ></dc:creator
        ><dc:subject
          ><rdf:Bag
            ><rdf:li
              >athlete</rdf:li
            ><rdf:li
              >avatar</rdf:li
            ><rdf:li
              >basketball</rdf:li
            ><rdf:li
              >boston</rdf:li
            ><rdf:li
              >boston celtics</rdf:li
            ><rdf:li
              >caricature</rdf:li
            ><rdf:li
              >cartoon</rdf:li
            ><rdf:li
              >celtics</rdf:li
            ><rdf:li
              >clipart_issue</rdf:li
            ><rdf:li
              >famous</rdf:li
            ><rdf:li
              >funny</rdf:li
            ><rdf:li
              >nba</rdf:li
            ><rdf:li
              >pxl_peeps</rdf:li
            ><rdf:li
              >rondo</rdf:li
            ><rdf:li
              >rr9</rdf:li
            ><rdf:li
              >sports</rdf:li
            ><rdf:li
              >team</rdf:li
            ></rdf:Bag
          ></dc:subject
        ></cc:Work
      ><cc:License
          rdf:about="http://creativecommons.org/licenses/publicdomain/"
        ><cc:permits
            rdf:resource="http://creativecommons.org/ns#Reproduction"
        /><cc:permits
            rdf:resource="http://creativecommons.org/ns#Distribution"
        /><cc:permits
            rdf:resource="http://creativecommons.org/ns#DerivativeWorks"
        /></cc:License
      ></rdf:RDF
    ></metadata
  ></svg
>
