<?xml version="1.0" encoding="UTF-8" standalone="no"?>
<!DOCTYPE svg PUBLIC "-//W3C//DTD SVG 1.1//EN" "http://www.w3.org/Graphics/SVG/1.1/DTD/svg11.dtd">
<svg xmlns="http://www.w3.org/2000/svg"
   xmlns:xhtml="http://www.w3.org/1999/xhtml"
   xmlns:xlink="http://www.w3.org/1999/xlink"
   version="1.1"
   width="500px" height="500px"
   viewBox="0 0 500 500"
   preserveAspectRatio="xMinYMin"
   style="background-color:white; border: solid 1px black;">
 
<!-- Text Example -->
<text x="25" y="25" fill="black" style="font-size: 48pt; font-family: sans-serif; font-weight: bold;">

<tspan x="10" dy="92">OSCAR</tspan>
<tspan x="10" dy="92">PISTORIUS</tspan>
<tspan x="10" dy="92">CLIPART</tspan>
<tspan x="10" dy="92">REQUEST</tspan>

</text>
</svg>
