<?xml version="1.0" encoding="UTF-8" standalone="no"?>
<!-- Created with Inkscape (http://www.inkscape.org/) -->

<svg
   xmlns:dc="http://purl.org/dc/elements/1.1/"
   xmlns:cc="http://creativecommons.org/ns#"
   xmlns:rdf="http://www.w3.org/1999/02/22-rdf-syntax-ns#"
   xmlns:svg="http://www.w3.org/2000/svg"
   xmlns="http://www.w3.org/2000/svg"
   xmlns:sodipodi="http://sodipodi.sourceforge.net/DTD/sodipodi-0.dtd"
   xmlns:inkscape="http://www.inkscape.org/namespaces/inkscape"
   width="398.21555mm"
   height="300.00223mm"
   viewBox="0 0 1410.9999 1063"
   id="svg4354"
   version="1.1"
   inkscape:version="0.91 r13725"
   sodipodi:docname="saddleshoe.svg"
   inkscape:export-filename="/home/algot/Documents/runeman.org/clipart/saddleshoe.png"
   inkscape:export-xdpi="76.541458"
   inkscape:export-ydpi="76.541458">
  <title
     id="title4409">Saddle Shoe</title>
  <defs
     id="defs4356" />
  <sodipodi:namedview
     id="base"
     pagecolor="#ffffff"
     bordercolor="#666666"
     borderopacity="1.0"
     inkscape:pageopacity="0.0"
     inkscape:pageshadow="2"
     inkscape:zoom="0.5"
     inkscape:cx="786.23343"
     inkscape:cy="538.02287"
     inkscape:document-units="px"
     inkscape:current-layer="layer1"
     showgrid="false"
     fit-margin-top="0"
     fit-margin-left="0"
     fit-margin-right="0"
     fit-margin-bottom="0"
     inkscape:window-width="1366"
     inkscape:window-height="712"
     inkscape:window-x="0"
     inkscape:window-y="0"
     inkscape:window-maximized="1" />
  <metadata
     id="metadata4359">
    <rdf:RDF>
      <cc:Work
         rdf:about="">
        <dc:format>image/svg+xml</dc:format>
        <dc:type
           rdf:resource="http://purl.org/dc/dcmitype/StillImage" />
        <dc:title>Saddle Shoe</dc:title>
        <dc:date>2016-08-02</dc:date>
        <dc:creator>
          <cc:Agent>
            <dc:title>Algot Runeman</dc:title>
          </cc:Agent>
        </dc:creator>
        <dc:rights>
          <cc:Agent>
            <dc:title>Algot Runeman</dc:title>
          </cc:Agent>
        </dc:rights>
        <dc:publisher>
          <cc:Agent>
            <dc:title>runeman.org</dc:title>
          </cc:Agent>
        </dc:publisher>
        <dc:identifier>saddleshoe.svg</dc:identifier>
        <cc:license
           rdf:resource="http://creativecommons.org/publicdomain/zero/1.0/" />
      </cc:Work>
      <cc:License
         rdf:about="http://creativecommons.org/publicdomain/zero/1.0/">
        <cc:permits
           rdf:resource="http://creativecommons.org/ns#Reproduction" />
        <cc:permits
           rdf:resource="http://creativecommons.org/ns#Distribution" />
        <cc:permits
           rdf:resource="http://creativecommons.org/ns#DerivativeWorks" />
      </cc:License>
    </rdf:RDF>
  </metadata>
  <g
     inkscape:label="Layer 1"
     inkscape:groupmode="layer"
     id="layer1"
     transform="translate(848.37628,679.26581)">
    <rect
       style="opacity:1;fill:#ffffff;fill-opacity:1;stroke:#000000;stroke-width:3;stroke-linecap:round;stroke-linejoin:miter;stroke-miterlimit:4;stroke-dasharray:none;stroke-dashoffset:0;stroke-opacity:1"
       id="rect4430"
       width="1408"
       height="1060"
       x="-846.87628"
       y="-677.76581"
       ry="92" />
    <g
       id="g4432"
       transform="translate(-76.765517,48)">
      <path
         inkscape:connector-curvature="0"
         id="path4373"
         d="m 149.83224,97.931872 c -44.31381,8.358448 -67.281954,-3.04019 -315.91951,-156.783473 -77.93989,-48.193819 -144.04679,-78.393019 -173.54649,-79.279949 -27.3643,-0.82296 -47.88624,14.28346 -46.32234,34.09841 1.19473,15.12872 54.67703,123.370792 150.18112,303.94773 l 47.55353,89.91293 -16.17605,9.33925 -16.17606,9.33925 -44.0095,-75.88128 c -95.5191,-164.686546 -167.79497,-264.642228 -272.95457,-377.49021 -68.47635,-73.48249 -72.31899,-80.80536 -76.78903,-146.35048 -4.72247,-69.23356 21.78233,-169.48229 48.95753,-185.1719 11.55866,-6.67339 77.53501,33.01294 307.65378,185.06132 210.817854,139.2956 263.3317725,164.39397 334.966249,160.09231 38.858371,-2.3332 67.912791,-14.26553 95.419601,-39.18753 35.39377,-32.06799 49.66231,-37.22125 125.37941,-45.28252 109.77329,-11.68705 139.12589,-6.41997 170.78254,30.6453 23.87486,27.95389 18.99775,41.91155 -31.83865,91.118566 -81.79513,79.173349 -236.02777,182.22686 -287.16011,191.871443 z"
         style="fill:#000000" />
      <path
         inkscape:connector-curvature="0"
         id="path4386"
         d="m -179.3057,-418.45503 -12.34376,0.20892 c 0,0 -14.51715,3.79514 -16.6136,9.88935 -1.88791,5.48801 6.31587,16.22503 6.31587,16.22503 l 25.65099,16.13524 1.51986,7.65892 -3.94986,15.19689 -8.3068,4.94467 -15.73722,6.51347 -27.52104,-2.1736 -7.86951,3.25491 -16.29184,15.40765 -7.89972,30.3956 9.82666,2.71426 11.29318,-36.69649 6.55229,1.80889 2.57044,44.14832 0.28975,32.65717 4.44226,30.18484 17.86681,39.3246 24.21645,28.40711 19.85774,18.1549 8.39212,14.98795 18.62763,43.153147 20.50124,29.191511 -64.36389,213.883532 16.39672,4.53047 -8.75653,33.69634 6.71405,5.09494 -8.82942,-3.78823 -30.62653,36.7863 -11.61315,31.17817 70.19268,33.87044 10.53238,-40.52687 -12.97838,-44.86306 2.96685,2.25057 11.84247,-45.565 22.94901,6.33937 62.170316,-205.440208 23.924923,-4.248237 31.033607,-11.335352 40.45319,-34.072036 22.405062,-11.908997 53.760412,-17.72603 43.3756,-11.54612 25.39145,-43.66264 -5.9959,-10.70489 13.57388,-25.20903 24.95238,-41.97286 c 0,0 4.21609,-17.66315 -0.84615,-23.76118 -7.60093,-9.15617 -22.94066,-8.20825 -34.83414,-7.81471 -9.90561,0.32777 -19.25235,4.89495 -28.51829,8.41218 -11.70003,4.44118 -23.6858,8.84341 -33.988,15.94829 -16.1135,11.11262 -25.542768,30.55838 -42.20769,40.8256 -10.444183,6.43464 -22.691189,9.86169 -34.748827,12.11976 -13.356942,2.50139 -27.210969,2.65826 -40.74294,1.41302 -11.2861034,-1.03857 -22.528498,-3.5292 -33.195187,-7.36019 -13.646037,-4.90104 -26.277033,-12.36804 -38.753789,-19.75486 -10.868121,-6.43443 -20.881028,-14.21459 -31.321583,-21.32182 -11.933104,-8.12326 -28.590624,-11.86284 -35.799394,-24.36963 -6.16526,-10.69637 -2.81829,-24.59497 -2.68775,-36.94024 0.0749,-7.0867 2.87197,-14.13576 1.99093,-21.16788 -1.50208,-11.98904 -12.19266,-34.13617 -12.19266,-34.13617 l 1.90383,-41.10051 -8.39213,-14.98796 z m 5.5906,640.43 14.30269,5.76023 7.60108,38.29644 -6.58251,25.32998 -45.3043,-21.56374 5.26708,-20.26435 z"
         style="fill:#000000;fill-rule:evenodd;stroke:#cccccc;stroke-width:2.43980384;stroke-linecap:butt;stroke-linejoin:miter;stroke-opacity:1"
         sodipodi:nodetypes="ccsccccccccccccccccccccccccccccccccccccccccccccccsssssssssssssccccccccccc" />
    </g>
    <g
       style="font-style:normal;font-variant:normal;font-weight:500;font-stretch:normal;font-size:133.60877991px;line-height:89.99999762%;font-family:'Always In My Heart';-inkscape-font-specification:'Always In My Heart Medium';text-align:center;letter-spacing:0px;word-spacing:0px;text-anchor:middle;fill:#000000;fill-opacity:1;stroke:none;stroke-width:1px;stroke-linecap:butt;stroke-linejoin:miter;stroke-opacity:1"
       id="text4436">
      <path
         d="m -668.79471,-538.11989 q 9.219,-0.66804 18.70523,-2.13774 -0.66805,-5.07713 -1.06887,-11.49035 -0.40083,-6.54683 -0.53444,-10.28788 0,-3.74104 0,-10.15426 0.13361,-6.54684 0.13361,-6.81405 l 0,-2.00413 -4.94352,12.82644 -12.29201,30.06197 z m -2.9394,7.4821 -8.95178,21.91184 q -0.53444,1.33608 -2.00414,1.87052 -1.33608,0.66804 -2.67217,0.13361 -1.33609,-0.53444 -2.00413,-2.00413 -0.53444,-1.33609 0,-2.67218 l 7.6157,-18.83884 q -4.14187,0.13361 -8.28375,0.13361 -1.46969,0 -2.53856,-1.06887 -1.06887,-1.06887 -1.06887,-2.53857 0,-1.46969 1.06887,-2.53856 1.06887,-1.06887 2.53856,-1.06887 5.47796,0 11.35675,-0.26722 l 13.49449,-33.5358 q 1.6033,-3.60744 4.14187,-10.5551 2.67217,-6.94765 3.34022,-8.55096 l 2.80578,-7.34848 q 0.40083,-1.20248 0.66805,-1.60331 0.80165,-1.4697 2.27135,-1.73691 2.00413,-0.53444 3.47382,0.80165 1.06887,0.93526 1.60331,2.93939 0.26722,1.06887 0.40083,2.53857 0.1336,2.40496 0.26721,6.146 l 0,4.00827 q 0,2.13774 -0.13361,3.74104 0,1.4697 0,1.73692 0,0.53443 -0.1336,6.94765 0,6.27962 0,9.88705 0.1336,3.60744 0.40082,9.75344 0.40083,6.14601 1.20248,11.08953 l 5.47796,-1.06887 q 1.4697,-0.26721 2.67218,0.66805 1.33608,0.80165 1.6033,2.27135 0.26722,1.46969 -0.66804,2.80578 -0.80165,1.20248 -2.27135,1.4697 l -5.47796,0.93526 q 1.73691,7.08126 4.5427,11.08953 4.00826,6.01239 10.55509,5.21074 1.4697,-0.13361 2.67218,0.80165 1.20248,0.93526 1.33608,2.40496 0.13361,1.4697 -0.80165,2.67218 -0.93526,1.20248 -2.40496,1.33608 -10.82231,1.20248 -17.23553,-8.28374 -3.74104,-5.34435 -5.74518,-14.16253 -11.89118,1.73691 -23.11432,2.53857 z"
         style=""
         id="path4443" />
      <path
         d="m -565.70927,-577.26726 q -0.80166,0.66805 -1.60331,2.00413 -1.73691,2.67218 -3.47383,7.48209 -3.20661,8.15014 -6.54683,23.11432 -1.73691,7.4821 -2.93939,13.89532 9.21901,-8.95179 14.02892,-30.06198 1.20248,-5.21074 1.06887,-11.89118 -0.13361,-2.93939 -0.53443,-4.5427 z m -20.84297,97.4008 q 1.46969,-0.13361 2.80578,-2.93939 1.60331,-3.20661 2.40496,-9.0854 1.4697,-10.55509 0.13361,-18.17079 -0.66805,-4.27548 -1.60331,-6.81405 l -2.27135,13.7617 q -0.13361,0.40083 -0.53443,2.27135 l -0.53444,3.60744 q -0.40082,1.87052 -0.80165,4.40909 -0.26722,2.53857 -0.40083,4.67631 -0.26721,5.07713 0.40083,7.48209 l 0.40083,0.80165 z m -3.20661,-39.14737 q -0.80166,-0.66804 -1.06887,-1.4697 -0.53444,-1.46969 0,-2.80578 0.66804,-1.33609 2.00413,-1.87052 l 0.13361,0 q 2.13774,-11.75758 4.27548,-21.11019 3.47383,-14.83058 6.81404,-24.04958 2.00414,-5.61157 4.14188,-8.68457 2.67217,-4.40909 5.87878,-5.47796 2.67218,-1.06887 5.07714,0.13361 2.00413,1.06887 3.073,3.47382 1.33609,2.80579 1.4697,8.01653 0.1336,7.48209 -1.33609,13.6281 -5.34435,23.91597 -16.7011,34.33745 3.47383,0.26722 8.81818,-1.46969 5.61157,-1.73692 9.48622,-5.34435 3.74105,-3.47383 6.81405,-9.61984 0.66804,-1.33608 2.00413,-1.73691 1.4697,-0.53444 2.80579,0.13361 1.33608,0.66804 1.73691,2.13774 0.53444,1.33609 -0.13361,2.67217 -3.47383,7.08127 -8.28374,11.75758 -4.94353,4.6763 -12.29201,6.94765 -6.01239,1.87053 -10.42148,1.73692 0.80165,2.67217 1.46969,6.54683 1.33609,8.68457 -0.26722,20.30853 -0.93526,6.94766 -2.93939,11.22314 -3.20661,6.27961 -8.55096,6.94766 -3.20661,0.40082 -5.47796,-1.60331 -1.73691,-1.6033 -2.53857,-4.27548 -1.20248,-3.74105 -0.80165,-10.02066 0.13361,-2.40496 0.53443,-5.07713 0.40083,-2.80579 0.66805,-4.67631 l 0.80165,-3.87465 q 0.26722,-1.87053 0.26722,-2.00414 l 2.53857,-14.83057 z"
         style=""
         id="path4445" />
      <path
         d="m -542.90602,-557.35955 q 5.61157,1.33609 11.08953,1.73691 l 0.13361,0 q 0.26722,-0.1336 1.20248,-0.1336 3.20661,-0.40083 4.80992,1.87052 0.80165,1.06887 0.80165,2.67217 0,0.66805 -0.13361,1.73692 -0.13361,1.20248 -0.66804,3.60743 l -1.33609,4.94353 q -0.93526,3.47383 -1.33609,5.21074 -1.6033,6.54683 -2.13774,10.82231 -0.80165,5.21075 0,7.48209 0.53444,1.73692 1.73691,2.80579 1.20248,1.06887 2.67218,0.93526 4.80992,-0.26722 9.0854,-9.48622 3.34022,-7.08127 5.34435,-16.43388 0.13361,-1.4697 1.33609,-2.27135 1.33608,-0.93526 2.67217,-0.53444 1.33609,0.26722 2.13774,1.60331 0.93526,1.20248 0.53444,2.53857 -2.13774,10.28787 -5.74518,18.17079 -6.0124,13.09366 -15.09779,13.62809 -4.14187,0.26722 -7.21488,-2.53856 -3.073,-2.67218 -4.27548,-6.27961 -1.06887,-3.74105 -0.13361,-10.5551 0.53444,-4.67631 2.27135,-11.62396 0.53444,-1.73692 1.33609,-5.21074 l 1.20248,-4.80992 0.26722,-1.06887 q -4.40909,-0.26722 -8.55096,-1.06887 l -0.53444,2.93939 q -0.40083,1.73692 -0.66804,2.53857 -0.13361,0.53443 -0.40083,1.20248 l -0.93526,2.67217 q -0.66805,1.73692 -1.4697,3.60744 -0.53443,1.4697 -1.87052,2.13774 -1.20248,0.53444 -2.53857,0 -1.33609,-0.53443 -2.00413,-1.87052 -0.53443,-1.33609 0,-2.67218 0.66804,-2.00413 1.20248,-3.60743 0.66804,-1.73692 0.93526,-2.27135 0.26722,-0.66805 0.40083,-1.20248 0.13361,-0.53444 0.40082,-2.00413 l 1.06887,-4.80992 q 0,-0.26722 0.13361,-0.53444 0,-0.66804 0.13361,-1.20247 0.26722,-1.4697 1.4697,-2.27135 1.20248,-0.80166 2.67217,-0.40083 z"
         style=""
         id="path4447" />
      <path
         d="m -506.3139,-531.03862 q 3.20661,1.87052 6.54683,0.80165 4.14187,-1.46969 7.21487,-6.146 2.93939,-4.5427 2.67218,-8.55096 -0.13361,-3.47383 -3.20661,-4.40909 -3.60744,-1.33609 -7.4821,3.87465 -4.40908,5.74518 -5.74517,14.42975 z m -0.13361,7.74931 q 0.40082,3.87465 2.00413,6.27961 3.34022,4.94353 11.49036,3.073 6.68043,-1.6033 10.42148,-8.68457 1.33609,-2.53856 2.40496,-5.21074 1.06887,-2.80578 2.27135,-6.41322 1.20248,-3.60744 2.13774,-6.14601 0.53443,-1.33608 1.87052,-1.87052 1.33609,-0.66804 2.67218,-0.13361 1.46969,0.53444 2.00413,1.87053 0.66804,1.33608 0.13361,2.80578 l -1.87053,5.61157 q -1.33608,3.74104 -2.53856,6.94766 -1.20248,3.20661 -2.67218,6.01239 -5.21074,9.88705 -15.2314,12.1584 -12.96005,3.073 -18.97245,-6.0124 -4.80991,-7.08126 -3.073,-18.70522 1.4697,-10.82232 7.08127,-18.1708 3.073,-4.00826 7.08126,-5.87878 4.00827,-2.00414 8.55096,-0.53444 7.61571,2.67218 8.01653,10.95592 0.40083,6.41322 -3.87465,12.96005 -4.40909,6.81405 -10.95592,8.95179 -4.5427,1.4697 -8.95179,0.13361 z"
         style=""
         id="path4449" />
      <path
         d="m -462.71778,-513.80309 -2.40496,-2.13774 q -2.67217,-2.67217 -4.6763,-4.00826 -2.53857,-2.00413 -4.27548,-2.40496 -1.20248,-0.40083 -1.87053,0.13361 -0.93526,0.80165 -0.1336,2.27135 1.73691,3.073 6.01239,4.94352 3.87465,1.73692 7.34848,1.20248 z m -11.89118,-27.92423 q 0.13361,-0.26722 2.93939,-6.94766 l 1.87053,-4.27548 q 0.40082,-1.06887 0.66804,-1.60331 0.26722,-0.26721 0.40083,-0.53443 0.13361,-0.26722 0.26722,-0.40083 0.40082,-0.66804 1.06887,-1.06887 2.93939,-1.87052 6.146,0.53444 1.6033,1.20248 3.34022,3.74104 2.67217,4.14188 5.34435,11.22314 2.67218,6.68044 3.87465,12.69283 1.60331,7.21488 0.26722,10.42149 -0.53443,1.33609 -1.06887,2.53857 l 2.40496,0.66804 q 7.34848,2.40496 13.22727,-6.41322 3.47383,-5.07713 8.28374,-18.57162 0.40083,-1.33609 1.73692,-2.00413 1.33609,-0.66805 2.67217,-0.13361 1.4697,0.40082 2.13774,1.73691 0.66805,1.33609 0.13361,2.80579 -4.94352,14.29614 -8.95179,20.30853 -8.95178,13.22727 -21.3774,9.21901 l -2.27135,-0.66805 -3.073,-1.06887 q -2.27135,1.73692 -5.07714,2.53857 -6.27961,1.73691 -13.36087,-1.4697 -6.41322,-2.80578 -9.35262,-7.88291 -1.6033,-2.40496 -1.33609,-5.74518 0.26722,-3.47383 3.20662,-5.74518 3.60743,-2.80578 8.28374,-1.4697 3.073,0.80166 6.81405,3.47383 2.13774,1.73692 5.21074,4.5427 2.67218,2.53857 2.93939,2.80578 0.40083,0.26722 0.80166,0.53444 0.80165,-1.20248 1.33608,-2.67218 0.40083,-1.20247 -0.66804,-6.27961 -1.06887,-5.34435 -3.47383,-11.62396 -2.40496,-6.41322 -4.67631,-9.75344 l -1.06887,2.40495 q -2.93939,6.94766 -3.20661,7.34849 -0.66804,1.33609 -2.13774,1.87052 -1.33609,0.40083 -2.67217,-0.26722 -1.33609,-0.66804 -1.87053,-2.00413 -0.40082,-1.4697 0.26722,-2.80578 z"
         style=""
         id="path4451" />
      <path
         d="m -418.86904,-562.16947 q 0.40083,-0.40082 1.06887,-1.46969 1.33609,-1.73692 3.34022,-5.61157 2.00413,-3.87466 3.20661,-7.88292 1.4697,-4.5427 1.20248,-7.21487 -0.13361,-2.00414 -1.20248,-2.40496 -2.00413,-0.66805 -3.87465,3.60744 -1.87053,4.14187 -2.53857,9.61983 -0.80165,5.34435 -1.20248,11.35674 z m -8.81818,50.90495 q 0.13361,-5.21074 0.13361,-6.0124 0.13361,-2.93939 0.26722,-4.40909 0,-31.93249 2.67217,-51.03855 1.06887,-7.34848 3.60744,-12.96005 2.00413,-4.27548 5.34435,-6.94766 3.47383,-2.67217 8.28374,-0.80165 5.74518,2.00413 6.27962,8.81818 0.40082,4.5427 -1.73692,11.08953 -1.73691,5.07713 -4.40909,10.15426 -2.67217,5.07714 -4.6763,7.61571 -2.27135,2.80578 -4.00827,3.87465 -0.80165,0.53443 -3.47383,1.60331 -0.26721,4.94352 -0.40082,10.42148 l 1.46969,-2.40496 q 3.74105,-6.01239 7.6157,-9.0854 5.47796,-4.54269 10.68871,-3.20661 5.61157,1.33609 6.68044,10.02066 0.40082,3.20661 0.13361,13.49449 -0.13361,8.41735 0.66804,11.89118 0.80165,3.34022 2.53857,3.47383 4.40909,0.53443 8.95178,-7.08127 1.73692,-2.93939 4.00827,-8.81818 0.66804,-1.87052 1.87052,-6.01239 1.33609,-4.27548 2.13774,-6.54683 0.53444,-1.4697 1.87052,-2.00413 1.33609,-0.66805 2.67218,-0.13361 1.4697,0.53443 2.00413,1.87052 0.66804,1.33609 0.13361,2.67218 -0.66804,2.00413 -1.87052,6.146 -1.20248,4.40909 -2.13774,6.68044 -2.40496,6.27961 -4.5427,9.88705 -6.94766,11.49035 -15.89945,10.55509 -6.81404,-0.80165 -8.68457,-9.08539 -1.06887,-4.40909 -0.93526,-13.6281 0.26722,-9.61983 -0.13361,-12.55922 -0.53443,-4.00827 -1.33609,-3.87466 -1.6033,-0.40083 -4.27548,1.73691 -2.93939,2.40496 -6.146,7.4821 -2.80578,4.40909 -4.94353,9.219 -2.13774,4.80992 -2.80578,7.34849 l 0,0.26721 0,10.95592 q 0,1.4697 -1.06887,2.53857 -1.06887,1.06887 -2.53857,1.06887 -2.00413,0 -3.073,-1.73691 -0.93526,-1.06887 -0.93526,-2.53857 z"
         style=""
         id="path4453" />
      <path
         d="m -337.82489,-558.29481 q -4.40909,-0.40083 -9.35262,-1.60331 -1.46969,-0.26721 -2.27135,-1.46969 -0.80165,-1.33609 -0.53443,-2.80579 0.40083,-1.46969 1.6033,-2.27135 1.33609,-0.80165 2.80579,-0.40082 4.94352,1.06887 9.219,1.46969 2.53857,-10.95592 6.14601,-23.24792 0.40083,-1.33609 1.73691,-2.00414 1.33609,-0.80165 2.67218,-0.40082 1.4697,0.40082 2.13774,1.73691 0.80165,1.33609 0.40083,2.80579 -3.34022,10.95592 -5.61157,21.11018 4.27548,-0.26721 9.219,-1.33608 1.4697,-0.40083 2.67218,0.40082 1.33609,0.80165 1.6033,2.27135 0.40083,1.4697 -0.40082,2.80579 -0.80166,1.20247 -2.27135,1.46969 -6.54683,1.4697 -12.42562,1.73692 -4.5427,22.04544 -3.073,34.20384 0.53443,4.40909 2.00413,7.08127 1.60331,2.53857 3.34022,3.20661 4.00826,1.4697 8.41735,-5.87879 4.80992,-8.01652 7.6157,-22.8471 0.40083,-1.46969 1.60331,-2.27135 1.20248,-0.93526 2.67217,-0.53443 1.4697,0.26721 2.27135,1.46969 0.93527,1.20248 0.66805,2.67218 -3.20661,16.16666 -8.68457,25.25206 -3.47383,5.74518 -8.01653,8.15013 -4.40909,2.53857 -9.0854,0.80166 -4.14187,-1.60331 -6.81404,-6.0124 -2.53857,-4.40909 -3.20661,-10.28787 -1.60331,-13.22727 2.93939,-35.27272 z"
         style=""
         id="path4455" />
      <path
         d="m -282.90125,-546.93807 q 0.13361,0 0.26722,0.13361 1.06887,1.06887 1.20248,2.67218 0.13361,1.20248 -0.40082,2.80578 0,0.26722 -0.66805,1.60331 l -0.13361,0.66804 q -0.80165,4.27548 -0.80165,4.40909 -0.26722,2.27135 -0.40083,4.5427 -0.26721,2.53857 -0.26721,2.93939 0,5.34436 1.06887,8.55097 1.46969,3.60743 4.40909,4.40909 2.67217,0.66804 4.94352,-1.33609 2.40496,-2.13774 4.80992,-7.34849 1.73691,-3.87465 3.60743,-10.28787 2.53857,-8.01653 2.80579,-8.68457 0.53443,-1.4697 1.87052,-2.00413 1.33609,-0.66805 2.67218,-0.13361 1.46969,0.53443 2.00413,1.87052 0.66804,1.33609 0.13361,2.67218 -0.13361,0.53443 -2.53857,8.41735 -2.00413,6.68044 -4.00826,11.22314 -2.9394,6.54683 -6.68044,9.75344 -5.21074,4.5427 -11.49036,2.80578 -6.68044,-1.87052 -9.219,-8.95179 -0.40083,-0.93526 -0.66805,-2.13774 -1.06887,1.87053 -2.27135,3.34022 -4.14187,5.61157 -8.68457,6.94766 -6.27961,1.87052 -11.35674,-4.14187 -3.74105,-4.40909 -3.34022,-13.49449 0.40082,-7.74931 3.60743,-15.76584 3.47383,-8.68457 8.68458,-12.82644 7.08126,-5.34435 14.69696,-1.20248 4.27548,2.53857 5.47796,5.21075 0.40083,1.20247 0.66804,2.93939 l 0,0.40082 z m -6.81404,3.87466 q -0.13361,-0.93526 -0.40083,-3.34022 -0.13361,-0.93526 -0.26722,-1.20248 0.13361,-0.26722 -2.13774,-1.4697 -3.47383,-2.00413 -6.81404,0.53444 -3.74105,2.93939 -6.41323,9.75344 -2.80578,6.68044 -3.073,13.49449 -0.26722,6.27961 1.73692,8.55096 2.00413,2.27135 3.74104,1.73691 2.13774,-0.66804 4.94353,-4.40909 2.53856,-3.34022 4.6763,-8.01652 2.13774,-4.5427 2.9394,-7.34849 0.13361,-0.53443 0.26721,-0.93526 l 0,-0.93526 q 0.40083,-3.47383 0.80166,-5.61157 0,-0.40082 0.13361,-0.66804 0,-0.13361 -0.13361,-0.13361 z"
         style=""
         id="path4457" />
      <path
         d="m -254.29643,-561.2342 q 0.40082,-0.53444 1.06887,-1.60331 1.20248,-2.00413 2.93939,-6.41322 1.73691,-4.5427 2.93939,-9.0854 1.33609,-5.07713 1.06887,-8.15013 -0.13361,-2.27135 -1.06887,-2.80579 -1.87052,-0.80165 -3.60743,4.14187 -1.60331,4.67631 -2.27135,10.95592 -0.66805,6.14601 -1.06887,12.96006 z m -1.06887,25.65288 q -0.13361,2.80579 -0.13361,6.0124 l 0.13361,0 q 6.68044,-0.80166 13.09366,-5.21075 6.68044,-4.5427 6.146,-9.35261 -0.26722,-2.13774 -1.6033,-3.20661 -4.00827,-3.20661 -9.75345,1.20248 -5.34435,4.27548 -7.88291,10.55509 z m 4.00826,12.55923 q 8.28374,8.28374 16.96832,6.27961 4.80991,-1.20248 10.28787,-11.89118 4.00826,-8.15014 6.68044,-17.63636 0.40083,-1.4697 1.60331,-2.13774 1.33608,-0.80165 2.80578,-0.40083 1.4697,0.40083 2.13774,1.73692 0.80165,1.20247 0.40083,2.67217 -2.80579,10.28788 -7.21488,18.97245 -7.08126,13.7617 -15.09779,15.63223 -11.89118,2.80578 -22.71349,-7.21488 l 0,3.87466 q 0,1.46969 -1.06887,2.53856 -1.06887,1.06887 -2.53857,1.06887 -1.4697,0 -2.53857,-1.06887 -1.06887,-1.06887 -1.06887,-2.53856 0,-15.63223 0,-21.77824 0.13361,-6.146 0.66805,-18.3044 0.66804,-12.29201 2.00413,-22.04545 1.06887,-7.34848 3.60744,-12.96005 2.00413,-4.27548 5.34435,-6.94766 3.47383,-2.67217 8.28374,-0.80165 5.74518,2.00413 6.27961,8.81818 0.40083,4.5427 -1.73691,11.08953 -1.73691,5.07713 -4.40909,10.15427 -2.67217,5.07713 -4.67631,7.6157 -2.27135,2.80578 -4.00826,3.87465 -0.80165,0.53444 -3.47383,1.60331 l -0.26722,3.87465 q 1.60331,-1.6033 3.20661,-2.80578 2.67218,-2.13774 5.47796,-3.20661 2.9394,-1.20248 6.41323,-0.80165 3.60743,0.26721 6.81404,2.80578 3.74105,2.93939 4.27549,8.01653 0.93526,9.08539 -9.35262,16.16666 -6.01239,4.00826 -13.09366,5.74518 z"
         style=""
         id="path4459" />
      <path
         d="m -215.87138,-531.03862 q 3.20661,1.87052 6.54683,0.80165 4.14187,-1.46969 7.21487,-6.146 2.93939,-4.5427 2.67218,-8.55096 -0.13361,-3.47383 -3.20661,-4.40909 -3.60744,-1.33609 -7.4821,3.87465 -4.40908,5.74518 -5.74517,14.42975 z m -0.13361,7.74931 q 0.40083,3.87465 2.00413,6.27961 3.34022,4.94353 11.49036,3.073 6.68043,-1.6033 10.42148,-8.68457 1.33609,-2.53856 2.40496,-5.21074 1.06887,-2.80578 2.27135,-6.41322 1.20248,-3.60744 2.13774,-6.14601 0.53443,-1.33608 1.87052,-1.87052 1.33609,-0.66804 2.67218,-0.13361 1.46969,0.53444 2.00413,1.87053 0.66804,1.33608 0.13361,2.80578 l -1.87053,5.61157 q -1.33608,3.74104 -2.53856,6.94766 -1.20248,3.20661 -2.67218,6.01239 -5.21074,9.88705 -15.2314,12.1584 -12.96005,3.073 -18.97245,-6.0124 -4.80991,-7.08126 -3.073,-18.70522 1.4697,-10.82232 7.08127,-18.1708 3.073,-4.00826 7.08126,-5.87878 4.00827,-2.00414 8.55096,-0.53444 7.61571,2.67218 8.01653,10.95592 0.40083,6.41322 -3.87465,12.96005 -4.40909,6.81405 -10.95592,8.95179 -4.5427,1.4697 -8.95179,0.13361 z"
         style=""
         id="path4461" />
      <path
         d="m -132.5997,-513.9367 -0.53443,-0.53443 q -4.27549,-4.94353 -6.94766,-11.62397 -2.53857,-6.81404 -2.40496,-13.36087 -2.13774,4.00826 -3.34022,8.15013 -2.27135,7.48209 -0.93526,12.69284 1.33609,4.6763 6.01239,5.74517 4.67631,0.93526 8.15014,-1.06887 z m 4.94353,-5.34435 q 2.93939,-5.21074 3.20661,-13.09366 0.40082,-9.219 -2.67218,-14.42975 -1.06887,-2.13774 -2.40496,-2.53856 -1.06887,-0.53444 -2.67217,0.40082 -0.13361,0 -0.26722,0.26722 -0.40083,0.80165 -0.93526,2.00413 -2.9394,5.87879 -1.20248,13.6281 1.87052,7.74931 6.94766,13.7617 z m -0.53444,-37.27685 1.33609,0.53444 q 3.60744,1.33609 6.01239,5.61157 4.14188,7.21487 3.60744,18.43801 -0.40083,10.42148 -4.80992,17.50275 2.00414,1.06887 4.00827,1.20248 4.80991,0.26721 8.55096,-6.41322 0.93526,-1.60331 1.6033,-3.20662 0.80166,-1.6033 1.20248,-2.67217 0.40083,-1.06887 0.93527,-2.93939 0.53443,-2.00414 0.80165,-2.80579 0.26722,-0.80165 0.80165,-3.20661 0.53444,-2.53857 0.80165,-3.47383 0.26722,-1.46969 1.4697,-2.27135 1.33609,-0.80165 2.805784,-0.40082 1.469697,0.26721 2.27135,1.6033 0.801652,1.20248 0.400826,2.67218 -0.133609,0.80165 -0.801653,3.34022 -0.534435,2.53856 -0.801653,3.47383 -0.133608,0.93526 -0.801652,3.073 -0.534435,2.13774 -1.06887,3.47383 -0.534432,1.33608 -1.469692,3.20661 -0.80166,1.87052 -1.73692,3.60743 -6.01239,10.5551 -15.36501,10.15427 -4.27548,-0.26722 -8.55096,-2.93939 -6.41322,4.94352 -15.09779,3.073 -9.0854,-1.73691 -11.62397,-10.82231 -1.87052,-7.21488 0.93526,-16.7011 2.67218,-8.81818 8.15014,-15.63223 6.146,-7.6157 13.09366,-8.81818 2.00413,-0.26721 3.34022,1.33609 z"
         style=""
         id="path4463" />
      <path
         d="m -84.661297,-548.54137 q -0.534435,0.26722 -1.469697,1.06887 -2.538566,2.00413 -5.611568,7.08126 -2.538567,4.27549 -4.809916,8.81818 -2.137741,4.67631 -2.672176,6.41323 -0.267218,0.66804 -0.534435,2.00413 -0.935261,5.61157 -2.004131,10.95592 0,0.53443 -0.13361,0.80165 0,0.53444 -0.26722,1.06887 -0.26721,0.40083 -0.66804,0.80165 -1.87052,1.87053 -4.14187,0.80166 -1.4697,-0.66805 -1.87053,-2.27135 -0.1336,-0.26722 -0.1336,-0.66805 l 0,-0.66804 0,-0.66805 q 0.1336,-1.20247 0.66804,-3.87465 0.80165,-4.5427 1.4697,-7.6157 1.73691,-11.75757 2.53856,-23.91597 0.13361,-1.4697 1.20248,-2.40496 1.20248,-1.06887 2.67218,-0.93526 1.469694,0.13361 2.404955,1.33609 1.06887,1.06887 0.935261,2.53856 -0.133608,1.4697 -0.133608,2.80579 3.340219,-5.34435 6.279612,-7.88292 5.745178,-4.94353 10.421485,-1.4697 2.404958,1.73692 3.34022,5.47796 0.668044,2.53857 0.801652,6.41322 0,2.40496 -0.267217,7.88292 -0.133609,5.47796 -0.133609,6.54683 -0.133609,8.15014 1.202479,11.62397 0.534435,1.6033 1.336088,2.27135 0.935261,0.53443 2.672175,0.40082 2.672176,-0.26722 4.008264,-1.33609 0.935261,-0.93526 3.073002,-4.27548 2.939393,-4.5427 5.611569,-11.22313 l 0.801652,-2.27135 0,-0.26722 0.133609,-1.06887 q 0.133609,-0.13361 0.133609,-0.26722 0.133609,-0.26722 0.133609,-0.40083 l 0.534435,-0.93526 2.672175,-6.41322 q 0.668044,-1.33609 2.004132,-1.87052 1.336088,-0.53444 2.672176,0.13361 1.469696,0.53443 2.004131,1.87052 0.534435,1.33609 0,2.80578 l -1.603305,3.60744 0,0.26722 q -0.267218,0.93526 -2.805784,7.48209 -2.939394,7.34848 -6.146004,12.55923 -2.672176,4.14187 -4.542699,5.74517 -3.073002,2.53857 -8.150135,3.07301 -4.275481,0.40082 -7.348483,-1.73692 -2.672176,-1.87052 -4.008264,-5.61157 -1.736914,-4.6763 -1.603305,-14.29614 0.133609,-1.20248 0.267217,-6.41322 0.133609,-5.21074 0.133609,-7.74931 -0.133609,-3.073 -0.534435,-4.6763 -0.267217,-1.06887 -0.534435,-1.4697 z"
         style=""
         id="path4465" />
      <path
         d="m -16.067812,-558.29481 q -4.409089,-0.40083 -9.352614,-1.60331 -1.469697,-0.26721 -2.27135,-1.46969 -0.801652,-1.33609 -0.534435,-2.80579 0.400827,-1.46969 1.603306,-2.27135 1.336088,-0.80165 2.805784,-0.40082 4.943525,1.06887 9.219006,1.46969 2.538567,-10.95592 6.1460038,-23.24792 0.4008263,-1.33609 1.7369141,-2.00414 1.3360878,-0.80165 2.6721756,-0.40082 1.4696966,0.40082 2.1377405,1.73691 0.8016527,1.33609 0.4008263,2.80579 -3.3402195,10.95592 -5.6115687,21.11018 4.2754809,-0.26721 9.2190058,-1.33608 1.4696966,-0.40083 2.6721756,0.40082 1.3360878,0.80165 1.6033053,2.27135 0.4008264,1.4697 -0.4008263,2.80579 -0.8016527,1.20247 -2.2713493,1.46969 -6.5468302,1.4697 -12.4256165,1.73692 -4.5426982,22.04544 -3.0730022,34.20384 0.534435,4.40909 2.004132,7.08127 1.6033053,2.53857 3.3402195,3.20661 4.0082634,1.4697 8.4173531,-5.87879 4.8099161,-8.01652 7.6157005,-22.8471 0.4008263,-1.46969 1.6033049,-2.27135 1.202479,-0.93526 2.672176,-0.53443 1.469697,0.26721 2.271349,1.46969 0.935262,1.20248 0.668044,2.67218 -3.206611,16.16666 -8.6845705,25.25206 -3.4738283,5.74518 -8.01652681,8.15013 -4.40908969,2.53857 -9.08539699,0.80166 -4.1418727,-1.60331 -6.8140477,-6.0124 -2.538567,-4.40909 -3.206611,-10.28787 -1.603305,-13.22727 2.939393,-35.27272 z"
         style=""
         id="path4467" />
      <path
         d="m 17.708108,-562.16947 q 0.400826,-0.40082 1.06887,-1.46969 1.336088,-1.73692 3.34022,-5.61157 2.004131,-3.87466 3.20661,-7.88292 1.469697,-4.5427 1.202479,-7.21487 -0.133608,-2.00414 -1.202479,-2.40496 -2.004131,-0.66805 -3.874654,3.60744 -1.870523,4.14187 -2.538567,9.61983 -0.801653,5.34435 -1.202479,11.35674 z m -8.8181797,50.90495 q 0.1336088,-5.21074 0.1336088,-6.0124 0.1336088,-2.93939 0.2672176,-4.40909 0,-31.93249 2.6721753,-51.03855 1.068871,-7.34848 3.607437,-12.96005 2.004132,-4.27548 5.344352,-6.94766 3.473828,-2.67217 8.283744,-0.80165 5.745177,2.00413 6.279613,8.81818 0.400826,4.5427 -1.736915,11.08953 -1.736914,5.07713 -4.409089,10.15426 -2.672176,5.07714 -4.676308,7.61571 -2.271349,2.80578 -4.008263,3.87465 -0.801653,0.53443 -3.473828,1.60331 -0.267218,4.94352 -0.400827,10.42148 l 1.469697,-2.40496 q 3.741046,-6.01239 7.6157,-9.0854 5.47796,-4.54269 10.688703,-3.20661 5.611569,1.33609 6.680439,10.02066 0.400826,3.20661 0.133609,13.49449 -0.133609,8.41735 0.668043,11.89118 0.801653,3.34022 2.538567,3.47383 4.40909,0.53443 8.951789,-7.08127 1.736914,-2.93939 4.008263,-8.81818 0.668044,-1.87052 1.870523,-6.01239 1.336088,-4.27548 2.13774,-6.54683 0.534435,-1.4697 1.870523,-2.00413 1.336088,-0.66805 2.672176,-0.13361 1.469696,0.53443 2.004132,1.87052 0.668043,1.33609 0.133608,2.67218 -0.668044,2.00413 -1.870523,6.146 -1.202479,4.40909 -2.13774,6.68044 -2.404958,6.27961 -4.542699,9.88705 -6.947656,11.49035 -15.899444,10.55509 -6.814048,-0.80165 -8.684571,-9.08539 -1.06887,-4.40909 -0.935262,-13.6281 0.267218,-9.61983 -0.133608,-12.55922 -0.534435,-4.00827 -1.336088,-3.87466 -1.603305,-0.40083 -4.275481,1.73691 -2.939393,2.40496 -6.146004,7.4821 -2.805784,4.40909 -4.943525,9.219 -2.13774,4.80992 -2.805784,7.34849 l 0,0.26721 0,10.95592 q 0,1.4697 -1.06887,2.53857 -1.068871,1.06887 -2.538567,1.06887 -2.004132,0 -3.0730022,-1.73691 -0.9352615,-1.06887 -0.9352615,-2.53857 z"
         style=""
         id="path4469" />
      <path
         d="m 66.220597,-531.03862 q 3.206611,1.87052 6.546831,0.80165 4.141872,-1.46969 7.214874,-6.146 2.939393,-4.5427 2.672175,-8.55096 -0.133608,-3.47383 -3.20661,-4.40909 -3.607437,-1.33609 -7.482092,3.87465 -4.40909,5.74518 -5.745178,14.42975 z m -0.133608,7.74931 q 0.400826,3.87465 2.004131,6.27961 3.34022,4.94353 11.490355,3.073 6.680439,-1.6033 10.421485,-8.68457 1.336088,-2.53856 2.404958,-5.21074 1.068871,-2.80578 2.27135,-6.41322 1.202479,-3.60744 2.13774,-6.14601 0.534435,-1.33608 1.870523,-1.87052 1.336089,-0.66804 2.672179,-0.13361 1.46969,0.53444 2.00413,1.87053 0.66804,1.33608 0.13361,2.80578 l -1.87053,5.61157 q -1.33608,3.74104 -2.538563,6.94766 -1.202479,3.20661 -2.672175,6.01239 -5.210743,9.88705 -15.231401,12.1584 -12.960052,3.073 -18.972447,-6.0124 -4.809916,-7.08126 -3.073002,-18.70522 1.469697,-10.82232 7.081265,-18.1708 3.073002,-4.00826 7.081266,-5.87878 4.008263,-2.00414 8.550962,-0.53444 7.6157,2.67218 8.016526,10.95592 0.400827,6.41322 -3.874654,12.96005 -4.40909,6.81405 -10.95592,8.95179 -4.542699,1.4697 -8.951788,0.13361 z"
         style=""
         id="path4471" />
      <path
         d="m 152.16446,-542.66258 q -0.26722,-2.67218 -0.80166,-4.40909 -0.53443,-1.73692 -0.93526,-2.00414 l -0.53443,-0.40082 q -1.4697,-0.40083 -4.67631,3.073 -4.00826,4.40909 -6.41322,11.49035 -2.40496,6.94766 -1.20248,12.96006 1.06887,5.61157 7.34848,7.08126 6.54683,1.4697 11.08953,-2.53857 8.28375,-7.34848 12.82644,-24.98484 0.40083,-1.46969 1.60331,-2.13774 1.33609,-0.80165 2.80578,-0.40082 1.4697,0.40082 2.13774,1.73691 0.80166,1.20248 0.40083,2.67218 -5.07713,19.7741 -14.96418,28.45867 -3.47383,3.073 -8.28375,4.14187 -4.6763,1.06887 -9.219,0.13361 -4.80992,-1.20248 -8.41736,-4.40909 -3.47382,-3.20661 -4.5427,-8.41736 -1.46969,-7.88291 1.4697,-16.43388 3.073,-8.68457 8.15014,-14.29614 6.146,-6.54683 11.89118,-5.07713 6.41322,1.87052 7.48209,13.22727 0.13361,1.4697 -0.80165,2.67218 -0.93526,1.06887 -2.53857,1.20247 -1.4697,0.13361 -2.67217,-0.80165 -1.06888,-0.93526 -1.20248,-2.53856 z"
         style=""
         id="path4473" />
      <path
         d="m 171.33524,-539.99041 q 11.49035,-16.16666 16.30027,-37.27685 0.93526,-4.27548 0.40082,-7.88292 -0.1336,-1.73691 -0.66804,-2.40495 -0.26722,-0.26722 -0.80165,-0.13361 -0.66805,0.13361 -2.00413,1.87052 -1.60331,2.00413 -3.20661,5.61157 -2.27135,4.80991 -4.40909,12.02479 -3.74105,12.42562 -5.21075,24.71762 -0.26721,1.73692 -0.40082,3.47383 z m 1.6033,11.22314 q 0.53444,6.41322 2.40496,9.88705 2.40496,3.87465 5.07713,4.67631 3.74105,1.06887 6.68044,-0.66805 2.67218,-1.73691 4.94353,-6.146 3.74104,-7.21488 4.94352,-18.83884 0.13361,-1.4697 1.33609,-2.40496 1.20248,-0.93526 2.67218,-0.80165 1.6033,0.13361 2.53856,1.33609 0.93526,1.20248 0.80166,2.67217 -1.33609,12.82645 -5.61157,21.2438 -3.073,6.146 -7.6157,8.95179 -5.74518,3.60743 -12.82645,1.6033 -5.47796,-1.6033 -9.219,-8.15013 -5.47796,-9.21901 -2.80579,-29.12672 1.73692,-14.16253 6.27962,-27.79062 2.67217,-8.28375 5.47796,-13.89532 2.27135,-4.6763 4.54269,-7.48209 3.47383,-4.00826 7.08127,-4.67631 4.80992,-0.66804 7.74931,2.67218 2.00413,2.27135 2.53857,6.27961 0.80165,5.21074 -0.80166,11.08953 -6.54683,27.79063 -25.11845,48.76721 -0.40082,0.53443 -1.06887,0.80165 z"
         style=""
         id="path4475" />
      <path
         d="m 227.78702,-546.93807 q 0.13361,0 0.26722,0.13361 1.06887,1.06887 1.20247,2.67218 0.13361,1.20248 -0.40082,2.80578 0,0.26722 -0.66805,1.60331 l -0.1336,0.66804 q -0.80166,4.27548 -0.80166,4.40909 -0.26721,2.27135 -0.40082,4.5427 -0.26722,2.53857 -0.26722,2.93939 0,5.34436 1.06887,8.55097 1.4697,3.60743 4.40909,4.40909 2.67217,0.66804 4.94352,-1.33609 2.40496,-2.13774 4.80992,-7.34849 1.73691,-3.87465 3.60744,-10.28787 2.53856,-8.01653 2.80578,-8.68457 0.53444,-1.4697 1.87052,-2.00413 1.33609,-0.66805 2.67218,-0.13361 1.4697,0.53443 2.00413,1.87052 0.66805,1.33609 0.13361,2.67218 -0.13361,0.53443 -2.53857,8.41735 -2.00413,6.68044 -4.00826,11.22314 -2.93939,6.54683 -6.68044,9.75344 -5.21074,4.5427 -11.49035,2.80578 -6.68044,-1.87052 -9.21901,-8.95179 -0.40083,-0.93526 -0.66804,-2.13774 -1.06887,1.87053 -2.27135,3.34022 -4.14188,5.61157 -8.68457,6.94766 -6.27962,1.87052 -11.35675,-4.14187 -3.74105,-4.40909 -3.34022,-13.49449 0.40083,-7.74931 3.60744,-15.76584 3.47383,-8.68457 8.68457,-12.82644 7.08126,-5.34435 14.69696,-1.20248 4.27548,2.53857 5.47796,5.21075 0.40083,1.20247 0.66805,2.93939 l 0,0.40082 z m -6.81405,3.87466 q -0.13361,-0.93526 -0.40083,-3.34022 -0.13361,-0.93526 -0.26721,-1.20248 0.1336,-0.26722 -2.13774,-1.4697 -3.47383,-2.00413 -6.81405,0.53444 -3.74105,2.93939 -6.41322,9.75344 -2.80579,6.68044 -3.07301,13.49449 -0.26721,6.27961 1.73692,8.55096 2.00413,2.27135 3.74104,1.73691 2.13775,-0.66804 4.94353,-4.40909 2.53857,-3.34022 4.67631,-8.01652 2.13774,-4.5427 2.93939,-7.34849 0.13361,-0.53443 0.26722,-0.93526 l 0,-0.93526 q 0.40082,-3.47383 0.80165,-5.61157 0,-0.40082 0.13361,-0.66804 0,-0.13361 -0.13361,-0.13361 z"
         style=""
         id="path4477" />
      <path
         d="m 259.86563,-513.80309 -2.40496,-2.13774 q -2.67218,-2.67217 -4.67631,-4.00826 -2.53856,-2.00413 -4.27548,-2.40496 -1.20248,-0.40083 -1.87052,0.13361 -0.93526,0.80165 -0.13361,2.27135 1.73691,3.073 6.01239,4.94352 3.87466,1.73692 7.34849,1.20248 z m -11.89118,-27.92423 q 0.1336,-0.26722 2.93939,-6.94766 l 1.87052,-4.27548 q 0.40083,-1.06887 0.66805,-1.60331 0.26721,-0.26721 0.40082,-0.53443 0.13361,-0.26722 0.26722,-0.40083 0.40083,-0.66804 1.06887,-1.06887 2.93939,-1.87052 6.146,0.53444 1.60331,1.20248 3.34022,3.74104 2.67218,4.14188 5.34435,11.22314 2.67218,6.68044 3.87466,12.69283 1.6033,7.21488 0.26722,10.42149 -0.53444,1.33609 -1.06887,2.53857 l 2.40495,0.66804 q 7.34849,2.40496 13.22727,-6.41322 3.47383,-5.07713 8.28375,-18.57162 0.40082,-1.33609 1.73691,-2.00413 1.33609,-0.66805 2.67218,-0.13361 1.46969,0.40082 2.13774,1.73691 0.66804,1.33609 0.13361,2.80579 -4.94353,14.29614 -8.95179,20.30853 -8.95179,13.22727 -21.37741,9.21901 l -2.27134,-0.66805 -3.07301,-1.06887 q -2.27135,1.73692 -5.07713,2.53857 -6.27961,1.73691 -13.36088,-1.4697 -6.41322,-2.80578 -9.35261,-7.88291 -1.60331,-2.40496 -1.33609,-5.74518 0.26722,-3.47383 3.20661,-5.74518 3.60744,-2.80578 8.28374,-1.4697 3.07301,0.80166 6.81405,3.47383 2.13774,1.73692 5.21074,4.5427 2.67218,2.53857 2.9394,2.80578 0.40082,0.26722 0.80165,0.53444 0.80165,-1.20248 1.33609,-2.67218 0.40082,-1.20247 -0.66805,-6.27961 -1.06887,-5.34435 -3.47382,-11.62396 -2.40496,-6.41322 -4.67631,-9.75344 l -1.06887,2.40495 q -2.93939,6.94766 -3.20661,7.34849 -0.66805,1.33609 -2.13774,1.87052 -1.33609,0.40083 -2.67218,-0.26722 -1.33609,-0.66804 -1.87052,-2.00413 -0.40083,-1.4697 0.26722,-2.80578 z"
         style=""
         id="path4479" />
      <path
         d="m 309.44705,-513.80309 -2.40496,-2.13774 q -2.67218,-2.67217 -4.67631,-4.00826 -2.53856,-2.00413 -4.27548,-2.40496 -1.20248,-0.40083 -1.87052,0.13361 -0.93526,0.80165 -0.13361,2.27135 1.73691,3.073 6.0124,4.94352 3.87465,1.73692 7.34848,1.20248 z m -11.89118,-27.92423 q 0.13361,-0.26722 2.93939,-6.94766 l 1.87052,-4.27548 q 0.40083,-1.06887 0.66805,-1.60331 0.26721,-0.26721 0.40082,-0.53443 0.13361,-0.26722 0.26722,-0.40083 0.40083,-0.66804 1.06887,-1.06887 2.93939,-1.87052 6.14601,0.53444 1.6033,1.20248 3.34021,3.74104 2.67218,4.14188 5.34436,11.22314 2.67217,6.68044 3.87465,12.69283 1.60331,7.21488 0.26722,10.42149 -0.53444,1.33609 -1.06887,2.53857 l 2.40496,0.66804 q 7.34848,2.40496 13.22726,-6.41322 3.47383,-5.07713 8.28375,-18.57162 0.40083,-1.33609 1.73691,-2.00413 1.33609,-0.66805 2.67218,-0.13361 1.4697,0.40082 2.13774,1.73691 0.66804,1.33609 0.13361,2.80579 -4.94353,14.29614 -8.95179,20.30853 -8.95179,13.22727 -21.3774,9.21901 l -2.27135,-0.66805 -3.07301,-1.06887 q -2.27135,1.73692 -5.07713,2.53857 -6.27961,1.73691 -13.36088,-1.4697 -6.41322,-2.80578 -9.35261,-7.88291 -1.60331,-2.40496 -1.33609,-5.74518 0.26722,-3.47383 3.20661,-5.74518 3.60744,-2.80578 8.28375,-1.4697 3.073,0.80166 6.81404,3.47383 2.13774,1.73692 5.21075,4.5427 2.67217,2.53857 2.93939,2.80578 0.40082,0.26722 0.80165,0.53444 0.80165,-1.20248 1.33609,-2.67218 0.40083,-1.20247 -0.66804,-6.27961 -1.06888,-5.34435 -3.47383,-11.62396 -2.40496,-6.41322 -4.67631,-9.75344 l -1.06887,2.40495 q -2.93939,6.94766 -3.20661,7.34849 -0.66805,1.33609 -2.13774,1.87052 -1.33609,0.40083 -2.67218,-0.26722 -1.33609,-0.66804 -1.87052,-2.00413 -0.40083,-1.4697 0.26722,-2.80578 z"
         style=""
         id="path4481" />
      <path
         d="m 355.68825,-551.21355 q -0.13361,1.06887 -1.33609,8.28375 -1.20248,6.68044 -1.73691,11.75757 -0.80165,6.68044 -0.66805,10.55509 0.26722,4.27549 1.06887,5.21075 0.80166,0.93526 1.33609,1.06887 0.40083,0 1.20248,-0.53444 2.53857,-1.87052 5.74518,-8.01653 3.073,-6.01239 7.88292,-19.9077 0.53443,-1.33609 1.87052,-2.00414 1.33609,-0.66804 2.67218,-0.1336 1.46969,0.40082 2.13774,1.73691 0.66804,1.33609 0.26721,2.80578 -5.07713,14.42975 -8.41735,20.84297 -4.00826,7.6157 -7.88292,10.42149 -3.073,2.27135 -6.146,1.87052 -3.34022,-0.26722 -6.0124,-3.34022 -2.53856,-2.93939 -2.93939,-9.61983 -0.13361,-4.67631 0.66804,-11.89118 0.53444,-4.5427 1.73692,-11.75757 1.20248,-7.21488 1.33609,-8.15014 0.26721,-1.6033 1.33608,-2.40496 1.20248,-0.93526 2.67218,-0.66804 1.6033,0.13361 2.40496,1.33609 0.93526,1.06887 0.80165,2.53856 z m 0.80165,-22.31266 q 1.06887,1.06887 1.06887,2.53856 0,1.4697 -1.06887,2.53857 -1.06887,1.06887 -2.53856,1.06887 -1.4697,0 -2.53857,-1.06887 -1.06887,-1.06887 -1.06887,-2.53857 0,-1.46969 1.06887,-2.53856 1.06887,-1.06887 2.53857,-1.06887 1.46969,0 2.53856,1.06887 z"
         style=""
         id="path4483" />
      <path
         d="m 387.54556,-542.66258 q -0.26722,-2.67218 -0.80165,-4.40909 -0.53444,-1.73692 -0.93526,-2.00414 l -0.53444,-0.40082 q -1.4697,-0.40083 -4.67631,3.073 -4.00826,4.40909 -6.41322,11.49035 -2.40496,6.94766 -1.20248,12.96006 1.06887,5.61157 7.34849,7.08126 6.54683,1.4697 11.08952,-2.53857 8.28375,-7.34848 12.82645,-24.98484 0.40082,-1.46969 1.6033,-2.13774 1.33609,-0.80165 2.80579,-0.40082 1.46969,0.40082 2.13774,1.73691 0.80165,1.20248 0.40082,2.67218 -5.07713,19.7741 -14.96418,28.45867 -3.47383,3.073 -8.28374,4.14187 -4.67631,1.06887 -9.21901,0.13361 -4.80992,-1.20248 -8.41735,-4.40909 -3.47383,-3.20661 -4.5427,-8.41736 -1.4697,-7.88291 1.4697,-16.43388 3.073,-8.68457 8.15013,-14.29614 6.146,-6.54683 11.89118,-5.07713 6.41322,1.87052 7.48209,13.22727 0.13361,1.4697 -0.80165,2.67218 -0.93526,1.06887 -2.53857,1.20247 -1.46969,0.13361 -2.67217,-0.80165 -1.06887,-0.93526 -1.20248,-2.53856 z"
         style=""
         id="path4485" />
      <path
         d="m -373.73225,-393.55519 -2.40496,-2.13774 q -2.67217,-2.67218 -4.6763,-4.00826 -2.53857,-2.00413 -4.27548,-2.40496 -1.20248,-0.40083 -1.87053,0.13361 -0.93526,0.80165 -0.13361,2.27135 1.73692,3.073 6.0124,4.94352 3.87465,1.73692 7.34848,1.20248 z m -11.89118,-27.92423 q 0.13361,-0.26722 2.93939,-6.94766 l 1.87053,-4.27548 q 0.40082,-1.06887 0.66804,-1.60331 0.26722,-0.26721 0.40083,-0.53443 0.13361,-0.26722 0.26721,-0.40083 0.40083,-0.66804 1.06888,-1.06887 2.93939,-1.87052 6.146,0.53444 1.6033,1.20248 3.34022,3.74104 2.67217,4.14187 5.34435,11.22314 2.67218,6.68044 3.87465,12.69283 1.60331,7.21488 0.26722,10.42149 -0.53443,1.33609 -1.06887,2.53857 l 2.40496,0.66804 q 7.34848,2.40496 13.22727,-6.41322 3.47383,-5.07714 8.28374,-18.57162 0.40083,-1.33609 1.73692,-2.00413 1.33609,-0.66805 2.67217,-0.13361 1.4697,0.40082 2.13774,1.73691 0.66805,1.33609 0.13361,2.80579 -4.94352,14.29613 -8.95179,20.30853 -8.95178,13.22727 -21.3774,9.21901 l -2.27135,-0.66805 -3.073,-1.06887 q -2.27135,1.73692 -5.07714,2.53857 -6.27961,1.73691 -13.36087,-1.4697 -6.41322,-2.80578 -9.35262,-7.88292 -1.6033,-2.40495 -1.33609,-5.74517 0.26722,-3.47383 3.20661,-5.74518 3.60744,-2.80579 8.28375,-1.4697 3.073,0.80165 6.81405,3.47383 2.13774,1.73691 5.21074,4.5427 2.67217,2.53857 2.93939,2.80578 0.40083,0.26722 0.80166,0.53444 0.80165,-1.20248 1.33608,-2.67218 0.40083,-1.20248 -0.66804,-6.27961 -1.06887,-5.34435 -3.47383,-11.62396 -2.40496,-6.41323 -4.67631,-9.75344 l -1.06887,2.40495 q -2.93939,6.94766 -3.20661,7.34849 -0.66804,1.33608 -2.13774,1.87052 -1.33609,0.40083 -2.67217,-0.26722 -1.33609,-0.66804 -1.87053,-2.00413 -0.40082,-1.4697 0.26722,-2.80578 z"
         style=""
         id="path4487" />
      <path
         d="m -306.64811,-426.69017 q 0.1336,0 0.26721,0.13361 1.06887,1.06887 1.20248,2.67218 0.13361,1.20248 -0.40082,2.80578 0,0.26722 -0.66805,1.60331 l -0.13361,0.66804 q -0.80165,4.27548 -0.80165,4.40909 -0.26722,2.27135 -0.40083,4.5427 -0.26721,2.53857 -0.26721,2.93939 0,5.34435 1.06887,8.55096 1.46969,3.60744 4.40909,4.40909 2.67217,0.66805 4.94352,-1.33608 2.40496,-2.13774 4.80992,-7.34849 1.73691,-3.87465 3.60743,-10.28787 2.53857,-8.01653 2.80579,-8.68457 0.53443,-1.4697 1.87052,-2.00413 1.33609,-0.66805 2.67218,-0.13361 1.46969,0.53443 2.00413,1.87052 0.66804,1.33609 0.13361,2.67217 -0.13361,0.53444 -2.53857,8.41736 -2.00413,6.68044 -4.00826,11.22314 -2.9394,6.54683 -6.68044,9.75344 -5.21074,4.5427 -11.49036,2.80578 -6.68044,-1.87052 -9.219,-8.95179 -0.40083,-0.93526 -0.66805,-2.13774 -1.06887,1.87053 -2.27135,3.34022 -4.14187,5.61157 -8.68457,6.94766 -6.27961,1.87052 -11.35674,-4.14187 -3.74105,-4.40909 -3.34022,-13.49449 0.40082,-7.74931 3.60744,-15.76584 3.47382,-8.68457 8.68457,-12.82644 7.08126,-5.34435 14.69696,-1.20248 4.27548,2.53857 5.47796,5.21074 0.40083,1.20248 0.66805,2.9394 l 0,0.40082 z m -6.81405,3.87466 q -0.13361,-0.93526 -0.40083,-3.34022 -0.13361,-0.93526 -0.26722,-1.20248 0.13361,-0.26722 -2.13774,-1.4697 -3.47382,-2.00413 -6.81404,0.53444 -3.74105,2.93939 -6.41323,9.75344 -2.80578,6.68044 -3.073,13.49449 -0.26722,6.27961 1.73692,8.55096 2.00413,2.27135 3.74104,1.73691 2.13774,-0.66804 4.94353,-4.40909 2.53856,-3.34022 4.6763,-8.01652 2.13774,-4.5427 2.9394,-7.34849 0.13361,-0.53443 0.26721,-0.93526 l 0,-0.93526 q 0.40083,-3.47383 0.80166,-5.61157 0,-0.40083 0.13361,-0.66804 0,-0.13361 -0.13361,-0.13361 z"
         style=""
         id="path4489" />
      <path
         d="m -263.21274,-407.98494 q -0.66804,-2.53856 -1.20247,-5.47796 -1.4697,-7.21487 -1.60331,-7.48209 -0.13361,-0.53443 -0.13361,-1.06887 -3.073,-4.14187 -5.87879,-4.14187 -3.20661,0 -6.41322,5.21074 -3.60743,5.87879 -4.27548,13.09366 -0.80165,7.21488 2.00413,10.95592 2.13774,2.93939 6.14601,1.33609 4.27548,-1.73692 7.34848,-6.0124 2.00413,-2.80578 4.00826,-6.41322 z m 3.34022,-15.09779 q 0.66805,1.20248 1.20248,2.80578 0,0.13361 0.13361,0.26722 3.74105,-14.02892 6.54683,-33.40219 0,-0.40083 0,-0.66805 0,-0.80165 0.13361,-2.93939 0.13361,-2.13774 0.13361,-3.20661 0.26722,-3.60744 -0.26722,-5.34435 -0.53443,-2.67218 -1.6033,-2.67218 -1.4697,-0.13361 -3.07301,2.53857 -3.74104,6.27961 -4.27548,21.91184 -0.40082,11.22314 1.06887,20.70936 z m -7.88291,-9.35261 q -0.66805,-7.6157 -0.40083,-15.0978 0.93526,-19.23966 8.01653,-27.92423 4.6763,-5.74518 10.42148,-5.34435 3.20661,0.13361 5.47796,2.27135 2.40496,2.13774 3.60744,5.74517 0.93526,3.07301 0.66804,8.15014 0,1.20248 -0.26722,3.60744 -0.1336,2.40495 -0.1336,3.47383 0,0.66804 -0.40083,1.46969 -6.0124,30.86363 -14.83058,48.90082 l 1.06888,3.60743 q 2.00413,5.61157 4.14187,7.48209 0.53443,0.53444 1.06887,0.53444 0.80165,0 2.00413,-0.93526 7.74931,-6.0124 11.22314,-24.98484 0.26721,-1.4697 1.46969,-2.27135 1.33609,-0.93527 2.80579,-0.66805 1.46969,0.26722 2.27135,1.60331 0.93526,1.20248 0.66804,2.67217 -4.00826,21.64463 -13.89531,29.26033 -3.34022,2.53856 -6.54683,2.53856 -3.20661,0 -5.87879,-2.27135 -2.93939,-2.67217 -5.21074,-8.15013 l -0.93526,1.46969 q -4.27548,5.87879 -10.5551,8.41736 -3.34022,1.73691 -7.6157,0.93526 -4.14187,-0.80165 -7.08126,-4.67631 -4.27548,-5.87878 -3.34022,-16.03305 0.93526,-8.95179 5.34435,-16.16666 5.34435,-8.41736 12.55922,-8.55097 2.13775,0 4.27549,0.93527 z"
         style=""
         id="path4491" />
      <path
         d="m -213.3704,-407.98494 q -0.66805,-2.53856 -1.20248,-5.47796 -1.4697,-7.21487 -1.60331,-7.48209 -0.13361,-0.53443 -0.13361,-1.06887 -3.073,-4.14187 -5.87878,-4.14187 -3.20661,0 -6.41323,5.21074 -3.60743,5.87879 -4.27548,13.09366 -0.80165,7.21488 2.00414,10.95592 2.13774,2.93939 6.146,1.33609 4.27548,-1.73692 7.34848,-6.0124 2.00413,-2.80578 4.00827,-6.41322 z m 3.34021,-15.09779 q 0.66805,1.20248 1.20248,2.80578 0,0.13361 0.13361,0.26722 3.74105,-14.02892 6.54683,-33.40219 0,-0.40083 0,-0.66805 0,-0.80165 0.13361,-2.93939 0.13361,-2.13774 0.13361,-3.20661 0.26722,-3.60744 -0.26722,-5.34435 -0.53443,-2.67218 -1.6033,-2.67218 -1.4697,-0.13361 -3.073,2.53857 -3.74105,6.27961 -4.27549,21.91184 -0.40082,11.22314 1.06887,20.70936 z m -7.88291,-9.35261 q -0.66805,-7.6157 -0.40083,-15.0978 0.93526,-19.23966 8.01653,-27.92423 4.6763,-5.74518 10.42148,-5.34435 3.20661,0.13361 5.47796,2.27135 2.40496,2.13774 3.60744,5.74517 0.93526,3.07301 0.66804,8.15014 0,1.20248 -0.26721,3.60744 -0.13361,2.40495 -0.13361,3.47383 0,0.66804 -0.40083,1.46969 -6.01239,30.86363 -14.83057,48.90082 l 1.06887,3.60743 q 2.00413,5.61157 4.14187,7.48209 0.53443,0.53444 1.06887,0.53444 0.80165,0 2.00413,-0.93526 7.74931,-6.0124 11.22314,-24.98484 0.26722,-1.4697 1.46969,-2.27135 1.33609,-0.93527 2.80579,-0.66805 1.4697,0.26722 2.27135,1.60331 0.93526,1.20248 0.66804,2.67217 -4.00826,21.64463 -13.89531,29.26033 -3.34022,2.53856 -6.54683,2.53856 -3.20661,0 -5.87879,-2.27135 -2.93939,-2.67217 -5.21074,-8.15013 l -0.93526,1.46969 q -4.27548,5.87879 -10.5551,8.41736 -3.34021,1.73691 -7.6157,0.93526 -4.14187,-0.80165 -7.08126,-4.67631 -4.27548,-5.87878 -3.34022,-16.03305 0.93526,-8.95179 5.34435,-16.16666 5.34435,-8.41736 12.55923,-8.55097 2.13774,0 4.27548,0.93527 z"
         style=""
         id="path4493" />
      <path
         d="m -183.30216,-419.74251 q 11.49036,-16.16666 16.30027,-37.27685 0.93526,-4.27548 0.40083,-7.88292 -0.13361,-1.73691 -0.66804,-2.40496 -0.26722,-0.26721 -0.80166,-0.1336 -0.66804,0.1336 -2.00413,1.87052 -1.6033,2.00413 -3.20661,5.61157 -2.27135,4.80991 -4.40909,12.02479 -3.74105,12.42561 -5.21074,24.71762 -0.26722,1.73692 -0.40083,3.47383 z m 1.60331,11.22314 q 0.53443,6.41322 2.40496,9.88705 2.40495,3.87465 5.07713,4.6763 3.74104,1.06887 6.68044,-0.66804 2.67217,-1.73691 4.94352,-6.146 3.74105,-7.21488 4.94353,-18.83884 0.13361,-1.4697 1.33609,-2.40496 1.20247,-0.93526 2.67217,-0.80165 1.60331,0.13361 2.53857,1.33609 0.93526,1.20247 0.80165,2.67217 -1.33609,12.82644 -5.61157,21.2438 -3.073,6.146 -7.6157,8.95179 -5.74518,3.60743 -12.82644,1.6033 -5.47796,-1.6033 -9.21901,-8.15013 -5.47796,-9.21901 -2.80578,-29.12672 1.73691,-14.16253 6.27961,-27.79062 2.67218,-8.28375 5.47796,-13.89532 2.27135,-4.67631 4.5427,-7.48209 3.47383,-4.00826 7.08126,-4.67631 4.80992,-0.66804 7.74931,2.67218 2.00414,2.27135 2.53857,6.27961 0.80165,5.21074 -0.80165,11.08953 -6.54683,27.79063 -25.11845,48.7672 -0.40083,0.53444 -1.06887,0.80166 z"
         style=""
         id="path4495" />
      <path
         d="m -150.63273,-410.79072 q 3.20662,1.87052 6.54684,0.80165 4.14187,-1.4697 7.21487,-6.146 2.93939,-4.5427 2.67217,-8.55097 -0.1336,-3.47382 -3.20661,-4.40908 -3.60743,-1.33609 -7.48209,3.87465 -4.40909,5.74518 -5.74518,14.42975 z m -0.1336,7.74931 q 0.40082,3.87465 2.00413,6.27961 3.34022,4.94352 11.49035,3.073 6.68044,-1.6033 10.42149,-8.68457 1.33609,-2.53857 2.40496,-5.21074 1.06887,-2.80579 2.27135,-6.41322 1.20247,-3.60744 2.13774,-6.14601 0.53443,-1.33608 1.87052,-1.87052 1.33609,-0.66804 2.67217,-0.13361 1.4697,0.53444 2.00414,1.87052 0.66804,1.33609 0.1336,2.80579 l -1.87052,5.61157 q -1.33609,3.74104 -2.53857,6.94765 -1.20247,3.20662 -2.67217,6.0124 -5.21074,9.88705 -15.2314,12.1584 -12.96005,3.073 -18.97245,-6.0124 -4.80991,-7.08126 -3.073,-18.70523 1.4697,-10.82231 7.08126,-18.17079 3.07301,-4.00826 7.08127,-5.87879 4.00826,-2.00413 8.55096,-0.53443 7.6157,2.67217 8.01653,10.95592 0.40083,6.41322 -3.87466,12.96005 -4.40909,6.81405 -10.95592,8.95179 -4.54269,1.4697 -8.95178,0.13361 z"
         style=""
         id="path4497" />
      <path
         d="m -73.373452,-393.55519 -2.404958,-2.13774 q -2.672176,-2.67218 -4.676308,-4.00826 -2.538566,-2.00413 -4.275481,-2.40496 -1.202479,-0.40083 -1.870523,0.13361 -0.935261,0.80165 -0.133608,2.27135 1.736914,3.073 6.012395,4.94352 3.874654,1.73692 7.348483,1.20248 z m -11.891182,-27.92423 q 0.133609,-0.26722 2.939393,-6.94766 l 1.870523,-4.27548 q 0.400827,-1.06887 0.668044,-1.60331 0.267218,-0.26721 0.400827,-0.53443 0.133608,-0.26722 0.267217,-0.40083 0.400826,-0.66804 1.06887,-1.06887 2.939394,-1.87052 6.146004,0.53444 1.603306,1.20248 3.34022,3.74104 2.672175,4.14187 5.344351,11.22314 2.672176,6.68044 3.874655,12.69283 1.603305,7.21488 0.267217,10.42149 -0.534435,1.33609 -1.06887,2.53857 l 2.404958,0.66804 q 7.348483,2.40496 13.227269,-6.41322 3.473828,-5.07714 8.283744,-18.57162 0.400827,-1.33609 1.736915,-2.00413 1.336087,-0.66805 2.672175,-0.13361 1.469697,0.40082 2.137741,1.73691 0.668044,1.33609 0.133608,2.80579 -4.943524,14.29613 -8.951788,20.30853 -8.951788,13.22727 -21.377405,9.21901 l -2.271349,-0.66805 -3.073002,-1.06887 q -2.271349,1.73692 -5.077133,2.53857 -6.279613,1.73691 -13.360878,-1.4697 -6.413222,-2.80578 -9.352615,-7.88292 -1.603305,-2.40495 -1.336088,-5.74517 0.267218,-3.47383 3.206611,-5.74518 3.607437,-2.80579 8.283744,-1.4697 3.073002,0.80165 6.814048,3.47383 2.137741,1.73691 5.210742,4.5427 2.672176,2.53857 2.939394,2.80578 0.400826,0.26722 0.801652,0.53444 0.801653,-1.20248 1.336088,-2.67218 0.400826,-1.20248 -0.668044,-6.27961 -1.06887,-5.34435 -3.473828,-11.62396 -2.404958,-6.41323 -4.676307,-9.75344 l -1.068871,2.40495 q -2.939393,6.94766 -3.20661,7.34849 -0.668044,1.33608 -2.137741,1.87052 -1.336088,0.40083 -2.672175,-0.26722 -1.336088,-0.66804 -1.870523,-2.00413 -0.400827,-1.4697 0.267217,-2.80578 z"
         style=""
         id="path4499" />
      <path
         d="m -29.524716,-441.92157 q 0.400826,-0.40082 1.06887,-1.46969 1.336088,-1.73692 3.34022,-5.61157 2.004131,-3.87466 3.20661,-7.88292 1.469697,-4.5427 1.202479,-7.21488 -0.133608,-2.00413 -1.202479,-2.40495 -2.004131,-0.66805 -3.874654,3.60743 -1.870523,4.14188 -2.538567,9.61984 -0.801653,5.34435 -1.202479,11.35674 z m -8.818179,50.90495 q 0.133608,-5.21074 0.133608,-6.0124 0.133609,-2.93939 0.267218,-4.40909 0,-31.9325 2.672175,-51.03855 1.068871,-7.34848 3.607438,-12.96005 2.004131,-4.27548 5.344351,-6.94766 3.473828,-2.67218 8.283744,-0.80165 5.745178,2.00413 6.279613,8.81818 0.400826,4.5427 -1.736914,11.08953 -1.736915,5.07713 -4.40909,10.15426 -2.672176,5.07714 -4.676307,7.6157 -2.27135,2.80579 -4.008264,3.87466 -0.801652,0.53443 -3.473828,1.6033 -0.267218,4.94353 -0.400826,10.42149 l 1.469696,-2.40496 q 3.741046,-6.01239 7.615701,-9.0854 5.47796,-4.5427 10.688702,-3.20661 5.6115687,1.33609 6.680439,10.02066 0.4008263,3.20661 0.1336088,13.49449 -0.1336088,8.41735 0.6680439,11.89118 0.8016526,3.34022 2.53856679,3.47383 4.40908971,0.53443 8.95178821,-7.08127 1.7369143,-2.93939 4.0082633,-8.81818 0.668044,-1.87052 1.870523,-6.01239 1.336088,-4.27548 2.137741,-6.54683 0.534435,-1.4697 1.870522,-2.00413 1.336088,-0.66805 2.672176,-0.13361 1.469697,0.53443 2.004132,1.87052 0.668044,1.33609 0.133609,2.67218 -0.668044,2.00413 -1.870523,6.146 -1.202479,4.40909 -2.137741,6.68044 -2.404958,6.27961 -4.542698,9.88705 -6.9476569,11.49035 -15.8994452,10.55509 -6.8140478,-0.80165 -8.6845708,-9.0854 -1.06887,-4.40908 -0.935261,-13.62809 0.267217,-9.61983 -0.133609,-12.55923 -0.534435,-4.00826 -1.336088,-3.87465 -1.603305,-0.40083 -4.275481,1.73691 -2.939393,2.40496 -6.146004,7.4821 -2.805784,4.40908 -4.943525,9.219 -2.13774,4.80992 -2.805784,7.34848 l 0,0.26722 0,10.95592 q 0,1.4697 -1.06887,2.53857 -1.06887,1.06887 -2.538567,1.06887 -2.004132,0 -3.073002,-1.73692 -0.935261,-1.06887 -0.935261,-2.53856 z"
         style=""
         id="path4501" />
      <path
         d="m 31.279812,-393.6888 -0.534435,-0.53443 q -4.275481,-4.94353 -6.947657,-11.62397 -2.538567,-6.81404 -2.404958,-13.36088 -2.13774,4.00827 -3.340219,8.15014 -2.27135,7.48209 -0.935262,12.69283 1.336088,4.67631 6.012395,5.74518 4.676308,0.93526 8.150136,-1.06887 z m 4.943525,-5.34435 q 2.939393,-5.21074 3.20661,-13.09366 0.400827,-9.21901 -2.672175,-14.42975 -1.06887,-2.13774 -2.404958,-2.53856 -1.06887,-0.53444 -2.672176,0.40082 -0.133609,0 -0.267217,0.26722 -0.400827,0.80165 -0.935262,2.00413 -2.939393,5.87879 -1.202479,13.6281 1.870523,7.74931 6.947657,13.7617 z m -0.534435,-37.27685 1.336087,0.53444 q 3.607438,1.33608 6.012396,5.61156 4.141872,7.21488 3.607437,18.43802 -0.400827,10.42148 -4.809916,17.50275 2.004131,1.06887 4.008263,1.20248 4.809916,0.26721 8.550962,-6.41323 0.935261,-1.6033 1.603305,-3.20661 0.801653,-1.6033 1.202479,-2.67217 0.400827,-1.06887 0.935262,-2.9394 0.534435,-2.00413 0.801652,-2.80578 0.267218,-0.80165 0.801653,-3.20661 0.534435,-2.53857 0.801653,-3.47383 0.267217,-1.4697 1.469696,-2.27135 1.336088,-0.80165 2.805785,-0.40082 1.469696,0.26721 2.271349,1.6033 0.801653,1.20248 0.400826,2.67218 -0.133609,0.80165 -0.801652,3.34022 -0.534436,2.53856 -0.801653,3.47382 -0.133609,0.93527 -0.801653,3.07301 -0.534435,2.13774 -1.06887,3.47382 -0.534435,1.33609 -1.469697,3.20662 -0.801652,1.87052 -1.736914,3.60743 -6.012395,10.5551 -15.365009,10.15427 -4.275481,-0.26722 -8.550962,-2.93939 -6.413222,4.94352 -15.097792,3.073 -9.085397,-1.73692 -11.623964,-10.82231 -1.8705232,-7.21488 0.935261,-16.7011 2.672176,-8.81818 8.150136,-15.63223 6.146004,-7.6157 13.09366,-8.81818 2.004132,-0.26721 3.34022,1.33609 z"
         style=""
         id="path4503" />
      <path
         d="m 64.654857,-410.79072 q 3.206611,1.87052 6.546831,0.80165 4.141872,-1.4697 7.214874,-6.146 2.939393,-4.5427 2.672175,-8.55097 -0.133608,-3.47382 -3.20661,-4.40908 -3.607437,-1.33609 -7.482092,3.87465 -4.40909,5.74518 -5.745178,14.42975 z m -0.133608,7.74931 q 0.400826,3.87465 2.004131,6.27961 3.34022,4.94352 11.490355,3.073 6.680439,-1.6033 10.421485,-8.68457 1.336088,-2.53857 2.404958,-5.21074 1.06887,-2.80579 2.27135,-6.41322 1.202479,-3.60744 2.13774,-6.14601 0.534435,-1.33608 1.870523,-1.87052 1.336088,-0.66804 2.672176,-0.13361 1.469693,0.53444 2.004133,1.87052 0.66804,1.33609 0.13361,2.80579 l -1.87053,5.61157 q -1.336084,3.74104 -2.538563,6.94765 -1.202479,3.20662 -2.672175,6.0124 -5.210743,9.88705 -15.231401,12.1584 -12.960052,3.073 -18.972447,-6.0124 -4.809916,-7.08126 -3.073002,-18.70523 1.469697,-10.82231 7.081265,-18.17079 3.073002,-4.00826 7.081266,-5.87879 4.008263,-2.00413 8.550962,-0.53443 7.6157,2.67217 8.016526,10.95592 0.400827,6.41322 -3.874654,12.96005 -4.40909,6.81405 -10.95592,8.95179 -4.542699,1.4697 -8.951788,0.13361 z"
         style=""
         id="path4505" />
    </g>
  </g>
</svg>
