<?xml version="1.0" encoding="UTF-8" standalone="no"?>
<svg id="svg4159" xmlns:rdf="http://www.w3.org/1999/02/22-rdf-syntax-ns#" xmlns="http://www.w3.org/2000/svg" height="565" viewBox="0 0 344 565" width="344" version="1.1" xmlns:cc="http://creativecommons.org/ns#" xmlns:dc="http://purl.org/dc/elements/1.1/">
<path id="path4169" d="m174.97 562.49c-3.01-1.16-6.37-2.49-7.47-2.95-2.877-1.2155-5.4326-0.70219-10.178 2.0443l-4.18 2.42h-47.097-47.097l-1.1032-2.75c-3.8463-9.5879-6.2833-29.175-6.1898-49.75 0.11441-25.192 2.7066-37.358 11.812-55.44 3.3881-6.728 3.4374-7.0001 2.273-12.552-1.1139-5.3106-1.0096-6.1666 1.625-13.342 1.5484-4.2168 2.9555-9.692 3.127-12.167 0.66931-9.6615 5.6634-25.733 10.101-32.505 1.6815-2.5662 1.2197-4.1353-1.8724-6.3632-8.7375-6.2952-13.496-22.932-9.7443-34.068 1.9716-5.8527 1.9716-5.8944 0-11.625-3.423-9.9492-2.2613-12.762 7.4096-17.938 6.0757-3.2521 6.4615-3.9035 3.953-6.6753-2.5507-2.8185-0.35754-6.4853 5.4139-9.0515l4.748-2.1-2.915-0.79c-6.148-1.66-6.402-8-0.585-14.61 6.4972-7.3812 3.1252-15.267-7.7845-18.205-6.0047-1.6169-7.907-4.2568-6.2899-8.7287l1.3011-3.5982-4.6133-3.9434c-3.182-2.72-4.614-4.71-4.614-6.42 0-1.3624-0.84451-4.3649-1.8767-6.6722s-2.8638-6.4451-4.0703-9.1951c-1.234-2.8127-2.2886-7.468-2.4108-10.641-0.35846-9.3099-9.2151-13.765-24.683-12.415-7.4695 0.65158-7.6089 0.62099-8.7687-1.9245-3.4082-7.4803 8.4886-42.263 15.357-44.898 0.932-0.36 1.453-1.98 1.453-4.51 0-3.3881 0.58356-4.453 4.0807-7.4464 3.7325-3.1948 3.9758-3.6922 2.8517-5.8279-3.515-6.68-12.392-15.76-16.16-16.53-4.418-0.89-7.675-7.69-7.817-16.31-0.041-2.48-0.447-6.525-0.904-9-0.456-2.475-1.395-7.895-2.087-12.045-1.466-8.79-5.105-14.252-9.718-14.591-1.5104-0.111-3.329-0.238-4.0415-0.283-9.1227-0.572-8.1057-21.178 1.4267-28.905 6.0448-4.9 14.041-11.33 19.07-15.336 5.704-4.543 24.894-14.213 32.381-16.316 3.07-0.8625 7.328-2.4582 9.461-3.5461 2.134-1.0878 4.83-1.9779 5.99-1.9779 1.1607 0 4.2562-0.73113 6.8788-1.6247 4.9091-1.6727 23.804-1.5921 27.881 0.11893 4.2802 1.7967 7.688 13.36 5.101 17.309-2.5688 3.9205-0.2038 9.7 5.5739 13.621 5.1076 3.4664 12.58 10.775 18.533 18.125 2.2 2.7167 6.3625 7.2465 9.25 10.066 5.4947 5.3657 6.6771 8.9555 3.75 11.385-4.8598 4.0332-0.51979 5.7362 11.518 4.5197l10.09-1.02 2.25-5.5c4.4132-10.781 4.755-11.206 10.14-12.609 7.0154-1.828 8.5639-1.7094 12.518 0.95826 1.9152 1.2922 5.7713 3.1039 8.5691 4.0262 2.7978 0.92227 6.4708 3.0298 8.1622 4.6835l3.0752 3.0066 25.76-2.0531c14.168-1.1292 26.245-2.4524 26.838-2.9403 1.044-0.85923 12.14-2.2981 27.578-3.5762 4.125-0.3415 12.59-1.2778 18.81-2.0806 16.543-2.1351 21.886 0.19789 25.672 11.21 4.7536 13.827-4.4045 20.88-27.521 21.194-21.509 0.29212-34.068 2.57-37.559 6.8121-0.60382 0.73375-2.1788 1.5333-3.5 1.7767-1.3212 0.24344-2.4022 0.5335-2.4022 0.64456 0 0.11107-0.9 0.3145-2 0.45209-1.1 0.13758-6.05 1.2519-11 2.4763s-10.936 2.6943-13.302 3.2666c-7.5685 1.8307-11.18 7.5802-14.7 23.404-1.6633 7.4763-1.6541 9.401 0.11352 23.621 0.7946 6.3923 0.0178 8.9236-3.3489 10.912-5.473 3.233-12.258 10.696-12.347 13.579-0.0461 1.5045-0.15863 5.2758-0.25 8.3808-0.21416 7.2776-2.0339 9.2838-10.785 11.89-6.89 2.06-12.88 6.02-12.88 8.52 0 0.75676-0.9 1.8576-2 2.4463-2.3561 1.2609-2.5246 3.7219-0.44339 6.475 1.2732 1.6842 1.7898 1.7897 3.5089 0.71613 2.6066-1.6279 3.6326-0.91557 4.4222 3.0703 0.35285 1.7812 1.2735 5.2635 2.0459 7.7385 0.77239 2.475 1.6472 6.0996 1.944 8.0546 0.37941 2.4989 1.9944 5.0234 5.4376 8.5 9.8539 9.9495 19.827 33 22.132 51.155 0.61394 4.8348 1.5295 10.418 2.0345 12.406 2.4759 9.7502-0.55011 33.52-5.0766 39.877-1.0754 1.5103-2.4183 3.9638-2.9842 5.4521-0.56585 1.4883-3.0897 5.0435-5.6085 7.9004-4.78 5.43-8.41 13.73-8.41 19.26 0 4.0537-7.7292 13.01-12.235 14.178-2.593 0.6719-3.4582 1.7806-5.6627 7.256-1.4312 3.5546-3.5681 8.0379-4.7488 9.9629-6.1536 10.033-10.506 19.578-10.882 23.868-0.22355 2.5478-0.9061 10.032-1.5168 16.632-1.0962 11.847-1.0766 12.089 1.5393 19 1.4573 3.85 3.2535 8.8552 3.9917 11.123 3.7906 11.644 16.057 33.683 22.764 40.902 3.7125 3.9952 6.75 8.0348 6.75 8.9768 0 1.1054 0.52761 1.5103 1.4878 1.1418 7.95-3.0507 15.255-1.843 21.026 3.476 3.0825 2.8414 5.3727 4.1005 7.6684 4.2161 6.9097 0.34789 6.2178 6.9251-1.1149 10.597-21.574 10.804-49.244 15.508-62.099 10.557zm33.03-4.01c12.016-2.8819 30-10.263 30-12.312 0-0.92278-0.58358-1.1473-1.75-0.67333-0.9625 0.39113-2.875 1.0656-4.25 1.4989-1.375 0.43325-4.5857 1.6982-7.135 2.811-16.567 7.232-36.384 8.6961-40.91 3.0226-1.3204-1.6552-1.9686-1.7751-4.4661-0.82554-3.0374 1.1548-2.0621 2.9456 1.6232 2.9806 0.88687 0.008 3.3519 1.3976 5.4778 3.0871 4.2611 3.3863 8.6524 3.4706 21.41 0.41085zm-82.478-0.0561c2.0713-0.86545 7.8638-2.6369 12.872-3.9366 7.947-2.0623 8.5678-2.3712 4.8771-2.4265-4.4526-0.0667-15.028 2.8264-21.771 5.9561-5.1028 2.3683-1.5361 2.7292 4.0218 0.40699zm-44.858-1.9271c6.0785-1.5832 6.664-1.8519 23.509-10.787 5.87-3.1136 13.455-6.4346 16.856-7.3801 7.9664-2.2148 8.0074-2.4857 1.8001-11.892-6.0929-9.233-10.105-22.096-12.302-39.44-0.73144-5.775-1.8241-11.767-2.4282-13.315-0.60408-1.5483-1.1194-5.8233-1.1451-9.5l-0.0468-6.6849-2.0302 5c-1.1166 2.75-3.5204 9.05-5.3417 14-5.8515 15.903-7.3395 17.651-9.4864 11.146-0.98717-2.9912-0.6621-4.4789 3.0043-13.75 2.2612-5.7178 4.9747-12.83 6.03-15.804 5.544-15.61 15.784-29.39 30.924-41.63 6.325-5.112 14.425-12.312 18-16 11.917-12.295 18.054-16.365 19.396-12.866 0.83635 2.1795 1.0676 1.9046-13.882 16.506-15.19 14.836-18.981 19.682-18.278 23.362 0.26302 1.3759 0.14591 7.7983-0.26026 14.272-0.66908 10.664-0.55019 12.142 1.2652 15.721 1.6673 3.2874 1.842 4.6569 1.0405 8.1593-0.55484 2.4246-0.59455 4.8674-0.0937 5.7624 0.55228 0.98687 0.27398 2.9351-0.76292 5.3407-6.0551 14.048-5.6506 40.852 0.74204 49.172 1.0079 1.3117 1.8325 3.8136 1.8325 5.5598 0 3.0338 4.3889 9.4753 11.117 16.316 3.613 3.6736 9.0175 4.823 14.1 2.9986 2.3556-0.84553 7.526-2.5375 11.49-3.76 6.6466-2.0498 10.937-4.4366 15.143-8.4249 0.90736-0.86026 3.1122-2.7315 4.8998-4.1583 3.4838-2.7808 4.1669-5.1273 1.7613-6.0504-6.3225-2.4262-23.358-33.715-25.906-47.581-1.0041-5.4641-2.3865-5.4882-3.1251-0.0544-0.9359 6.8858-1.4426 8.2694-3.0285 8.2694-2.8651 0-2.6599-12.206 0.56729-33.756 0.90283-6.0285 0.83878-7.6094-0.37872-9.3476-2.3314-3.3286 8.2429-28.062 18.767-43.897 7.5842-11.411 6.0424-14.04-11.179-19.06-3.9991-1.1657-9.3991-3.6477-12-5.5155s-6.079-4.1317-7.729-5.0308c-1.65-0.89916-3.826-2.3602-4.8356-3.2467-4.0285-3.5374-53.092-27.92-57.845-28.746-1.8257-0.31742-5.0161-1.2124-7.0897-1.9889-4.8731-1.8247-4.3838-2.0103-6.7073 2.5441-5.9193 11.603-3.842 23.255 6.0015 33.663 5.2734 5.5758 6.4832 9.8852 3.476 12.381-0.825 0.68469-1.5 1.7436-1.5 2.3531 0 0.60952-0.98052 3.4739-2.1789 6.3653-3.5927 8.6681 0.18834 8.1352 4.6516-0.6556 2.0647-4.0666 15.045-18.043 17.549-18.896 1.9932-0.67916 0.8795 2.2484-2.3702 6.2303-17.165 21.032-32.314 51.964-28.274 57.731 2.3993 3.4255 2.041 5.2592-2.4026 12.295-4.7369 7.5003-10.498 23.42-12.006 33.175-2.801 18.119-3.2283 22.599-3.0389 31.863 0.13298 6.5045 1.0475 13.444 2.636 20 1.3378 5.5218 2.4329 11.502 2.4337 13.29 0.0028 6.9716 6.4032 8.9432 18.665 5.7494zm53.088-6.43c5.3511-1.4352 5.3389-2.3572-0.0657-4.9736-7.7625-3.7578-15.452-2.6817-15.441 2.1608 0.007 3.1466-0.16203 3.0497 3.1367 1.7955 1.9544-0.74305 3.02-0.54198 4.8101 0.90759 1.2648 1.0242 2.5268 1.7243 2.8046 1.5558 0.27775-0.16845 2.4175-0.81921 4.755-1.4461zm72.75-3.7757c4.4-1.4362 8.45-3.0285 9-3.5383 1.4869-1.3782-14.331 0.10739-18.5 1.7375-1.925 0.75277-4.7375 1.6349-6.25 1.9602-3.1084 0.66866-3.6247 2.1632-1 2.8943 2.7244 0.75894 8.0367-0.20957 16.75-3.0538zm-79.351-40.567c-0.24115-10.465 0.11383-17.949 1.1264-23.75 0.87138-4.9919 1.3048-11.961 1.0554-16.97-0.23276-4.675-0.52588-14.451-0.65139-21.725-0.261-15.125-1.0611-17.133-5.2647-13.212-7.9522 7.418-11.715 25.841-8.5654 41.937 0.69952 3.575 1.7385 10.1 2.3088 14.5 1.7874 13.789 7.86 34.5 10.116 34.5 0.12501 0 0.0688-6.8759-0.12483-15.28zm-90.15-308.72c14.033-4.8069 21.418-6.1941 29.422-5.5274l8.1873 0.68199 8.4456-7.162c11.581-9.8212 16.994-13.274 30.678-19.571 13.037-5.9991 13.226-6.167 9.7631-8.6886-2.4018-1.7491-2.5771-1.7009-12.216 3.3611-17.464 9.1712-26.643 15.369-34.705 23.43-2.3841 2.3841-3.1943 2.6175-7.0692 2.0364-13.122-1.9677-41.526 5.59-42.332 11.264-0.34688 2.4402 3.0398 2.5008 9.8274 0.17577zm102.15-43.637c4.6361-1.5164 4.9806-1.8468 4.4311-4.25-1.8579-8.126-1.808-8.462 2.1673-14.606 7.2394-11.188 7.4-16.78 0.71019-24.73-1.35-1.6-2.46-3.29-2.46-3.76 0-0.4656-1.1293-2.1887-2.5096-3.8291-2.9218-3.4724-2.2955-9.0762 2.0669-18.492 2.6391-5.6962 1.9048-9.2946-1.7041-8.3508-3.1365 0.82022-3.3439-1.996-0.4284-5.8184l2.6466-3.4699-6.2579-8.2699c-16.02-21.18-23.64-26.338-29-19.639-5.11 6.377-7.26 8.254-12.998 11.338-2.922 1.569-6.887 4.072-8.812 5.562-4.803 3.717-25.85 13.303-35.096 15.985l-7.5957 2.2029-3.6543 7.7148c-2.01 4.243-3.654 8.318-3.654 9.057 0 2.2916 1.4287 0.07799 3.0658-4.7501 2.0882-6.1588 4.2307-6.9467 3.3148-1.2192-0.64664 4.0438-0.58439 4.1779 1.6153 3.4798 2.2606-0.71748 2.2796-0.65317 1.5963 5.3863-0.86216 7.6205-0.21957 7.7822 1.9035 0.47911 1.5644-5.3813 2.9064-6.0967 3.6572-1.9496 0.55934 3.0897 2.473 2.9002 3.8315-0.37944 1.7751-4.2854 3.3945-3.8708 2.546 0.65188-0.8321 4.4355 1.3871 3.338 3.4833-1.7227 1.496-3.61 3.454-3.965 2.576-0.467-0.361 1.442-0.196 2.5 0.392 2.5 0.56 0 1.019-0.87 1.019-1.933 0-1.0629 0.8516-2.2029 1.8925-2.5333 1.0408-0.33035 2.4525-1.9526 3.1369-3.6051 0.68446-1.6524 1.7454-2.8295 2.3575-2.6156 0.612 0.214 2.463-0.735 4.113-2.11l3-2.4992 0.51324 2.8981 0.513 2.898 1.807-2.5c1.598-2.211 1.7855-2.2688 1.6216-0.5-0.37329 4.0297 0.14379 3.9033 3.0659-0.75 1.6406-2.6125 3.673-4.75 4.5165-4.75 0.84844 0 2.3576-1.8989 3.3776-4.25 3.2827-7.5661 18.809-12.078 20.818-6.0499 0.20618 0.61854 1.5117 2.3513 2.9012 3.8506 1.5694 1.6934 2.3352 3.457 2.0217 4.6558-0.27756 1.0614-0.0217 3.3152 0.5685 5.0083 0.79499 2.2805 0.76047 3.5792-0.1332 5.0102-0.93731 1.5009-0.93926 2.2535-0.009 3.3748 0.80321 0.96782 0.99331 3.3979 0.57722 7.3788-0.52341 5.0077-0.34033 6.1379 1.171 7.2286 2.6104 1.8839 3.4721 3.7134 2.3958 5.0866-3.1701 4.0447-1.8139 11.452 1.5409 8.4164 2.3038-2.0849 3.2323-2.1658 3.2323-0.28167 0 0.78572 0.7101 2.1387 1.578 3.0066 1.1012 1.1012 1.3793 2.4826 0.92054 4.5714-0.67138 3.0568 0.24228 3.8526 2.1886 1.9063 2.2928-2.2928 2.1236 0.90143-0.23136 4.367-3.1435 4.626-3.0913 5.0186 0.56064 4.2165 2.9653-0.65129 2.9958-0.61729 1.8003 2.0066-1.0765 2.3626-1.6238 2.6018-4.7664 2.0831-1.9526-0.32234-5.6878-0.86833-8.3003-1.2133-4.3419-0.57337-4.75-0.85973-4.75-3.3334 0-3.6242-0.84938-4.2584-3.3539-2.5041-3.8204 2.6759-9.0854 1.8862-11.902-1.7853-1.5969-2.0814-4.3328-3.8928-7.6091-5.0377-3.871-1.3528-5.267-2.3907-5.7376-4.2658-2.179-8.68-11.399-6.2-11.399 3.07 0 1.4385-0.53969 3.5983-1.1993 4.7997-1.3679 2.4912-1.1306 6.5459 0.49914 8.531 1.4339 1.7466-1.4852 3.5219-6.0903 3.704-9.1717 0.36259-5.22 2.4943 4.3265 2.3339 8.4612-0.14214 10.633 0.16116 14.205 1.9835 2.3193 1.1832 9.5137 3.4772 15.988 5.0978 13.082 3.2748 22.838 6.2678 23.904 7.3336 1.0065 1.0065 1.8983 0.89451 7.5183-0.94369zm25.93-1.1c0.0447-0.4125 0.17169-1.9795 0.28225-3.4822 0.28743-3.9072 1.8793-5.0407 7.3339-5.2224 11.395-0.37955 13.935-3.9253 13.044-18.21-0.40773-6.5354-0.19274-9.2426 0.86179-10.852 6.86-10.46-11.61-25.969-30.1-25.279l-8 0.29872-0.29673 4.5527c-0.34786 5.337 0.86945 6.7678 8.0325 9.4409 10.347 3.8613 11.229 19.003 1.2642 21.704-2.481 0.67252-3.6619 2.1667-6.8262 8.6371l-3.8262 7.8239 1.666 5.0934c1.5981 4.886 1.7947 5.0747 4.8262 4.6344 1.7381-0.25249 4.5102-0.0313 6.1602 0.49149 3.815 1.2088 5.4786 1.3198 5.5812 0.37246zm32.462-24.704c2.3464-0.98041 6.4821-1.3874 12.702-1.25 9.9543 0.21986 11.427-0.6283 8.3624-4.8156-3.9366-5.3785-30.538 0.96965-27.135 6.4755 0.8596 1.3909 1.9344 1.3183 6.0705-0.40991zm-76.95-3.8c2.7023-2.5615 3.0958-6.4586 0.94002-9.3089-0.8075-1.0676-1.4906-3.7411-1.518-5.9411-0.0457-3.6738-0.45491-4.2649-5.0177-7.2484-3.0049-1.9648-5.505-4.5332-6.3271-6.5-4.3474-10.4-20.72-6.0954-18.45 4.8513 0.5585 2.6934 1.3003 6.66 1.6484 8.8146 0.54182 3.3536 1.2806 4.2712 5.1329 6.3745 2.475 1.3513 6.75 4.1436 9.5 6.205 7.6483 5.7331 10.384 6.2676 14.092 2.753zm-20.736-14.88c-2.7347-1.0022-3.8167-3.3141-3.8402-8.2057-0.0185-3.838 2.168-2.9853 3.6117 1.4084 0.74237 2.2593 1.8492 3.5337 3.2522 3.7447 1.1698 0.17591 2.5917 1.1884 3.1598 2.25 1.1902 2.224-1.3907 2.559-6.1835 0.80251zm130.55 16.29c0.97-1.57-2.49-5.16-4.99-5.16-3.1864 0-4.239 2.6598-1.7873 4.5162 2.0794 1.5746 5.9716 1.9462 6.7747 0.64673zm-31.4-7.05c3.1024-1.4272 6.5781-2.077 11.191-2.0921 7.5372-0.0247 8.8579-0.97311 5.7219-4.1091-5.681-5.681-31.889 2.5914-26.973 8.5141 1.3031 1.5702 1.9356 1.4247 10.061-2.313zm-40.985-0.12929c1.4844-1.4844 1.8431-2.7355 1.3617-4.75-0.92699-3.8793-1.0896-4.0568-4.6631-5.0893-1.7676-0.51072-4.0185-1.2571-5.0019-1.6586-1.6664-0.68038-1.6569-0.50074 0.14018 2.6416 1.0605 1.8544 2.4625 5.0591 3.1156 7.1216 1.3543 4.2773 2.2107 4.5716 5.0475 1.7348zm73.678-7.0538c3.2569-5.5331 6.8735-7.0008 35.223-14.295 8.622-2.2183 13.549-17.89 7.9969-25.439-4.7978-6.524-6.3587-5.629-4.2521 2.4381 1.55 5.966 1.45 14.866-0.17 14.866-0.55 0-1.3151-3.4753-1.7003-7.7229-1.301-14.347-5.2719-16.343-5.3442-2.686-0.073 13.779-0.65996 14.056-27.955 13.203-3.4422-0.10762-7.8672 4.2464-11.434 11.25l-3.4336 6.7431 2.7394 2.3563c3.6964 3.1796 6.1541 2.969 8.3213-0.71275zm-35.066-3.615c2.1297-0.92624 6.7971-2.1862 10.372-2.8 6.4388-1.1054 6.5028-1.1484 6.7943-4.5659 0.16187-1.8975 0.98593-5.5887 1.8312-8.2027 1.4781-4.5708 1.436-5.0558-1.1014-12.675-3.0359-9.1159-2.9674-9.0407-11.323-12.423-3.4645-1.4022-7.0727-3.5048-8.0182-4.6724-1.6008-1.9769-2.0616-2.0403-6.7008-0.92249-7.8598 1.8938-8.7498 4.9758-5.3106 18.392 1.21 4.695-0.45 6.549-5.86 6.549-4.2638 0-4.233 1.587 0.0656 3.3831 5.7221 2.3909 12.349 9.554 13.776 14.891 0.69514 2.599 1.3406 4.7255 1.4344 4.7255s1.9129-0.75783 4.0426-1.6841zm-140.24-2.9c0.33384-0.86998 0.5933-2.5575 0.57658-3.75-0.03426-2.4425-1.1686-0.99548-2.416 3.0818-0.7743 2.5309 0.89232 3.1364 1.8394 0.66821zm165.2-4.67c0.90545-1.7875 2.2963-3.9928 3.0908-4.9007 0.97959-1.1194 1.0988-1.8644 0.37046-2.3145-1.9983-1.235-4.8833 0.53066-5.9726 3.6554-2.3339 6.6949-0.43801 9.3824 2.5113 3.5599zm64.384-8.239c3.5927-1.8578 4.0203-3.2817 3.6074-12.011-0.47981-10.143-7.6493-9.8097-8.1434 0.37864-0.10161 2.0953-0.7248 5.4459-1.3849 7.4459-1.8751 5.6816 0.19677 7.1465 5.9209 4.1864zm-29.054-7.8028c4.0012-1.4115 4.7824-2.8264 2.3277-4.216-3.61-2.048-34.75-0.289-34.75 1.963 0 3.2425 24.746 4.9622 32.425 2.2533zm-157.92-9.522c0-1.158-0.285-1.194-1.5-0.186-0.825 0.68469-1.4857 2.2023-1.4682 3.3724 0.03118 2.0858 0.0606 2.0895 1.5 0.18642 0.807-1.068 1.468-2.585 1.468-3.373zm219.1 0.48835c19.733-2.6955 14.594-6.1021-7.7304-5.1243-16.39 0.71782-21.283 1.9362-18.591 4.6287 1.1459 1.1459 13.05 2.766 15.721 2.1395 1.1-0.25802 5.8701-0.99778 10.6-1.6439zm-216.1-38.475c0-1.8037-3.2672-3.8718-3.7675-2.3847-0.24324 0.72304-1.5201 1.7244-2.8374 2.2252-2.763 1.0505-3.08 3.1324-0.82095 5.3914 1.591 1.591 7.426-2.52 7.426-5.232zm7.3688-6.8263c1.6623-2.2808 1.7028-2.7301 0.36666-4.0662-1.75-1.747-5.74-0.254-5.74 2.146 0 4.8396 2.5708 5.7588 5.3688 1.9196z"/>
</svg>
