<?xml version="1.0" encoding="UTF-8" standalone="no"?>
<!-- Created with Inkscape (http://www.inkscape.org/) -->
<svg
    xmlns:dc="http://purl.org/dc/elements/1.1/"
    xmlns:cc="http://creativecommons.org/ns#"
    xmlns:rdf="http://www.w3.org/1999/02/22-rdf-syntax-ns#"
    xmlns:svg="http://www.w3.org/2000/svg"
    xmlns="http://www.w3.org/2000/svg"
    xmlns:sodipodi="http://sodipodi.sourceforge.net/DTD/sodipodi-0.dtd"
    xmlns:inkscape="http://www.inkscape.org/namespaces/inkscape"
    xmlns:ns1="http://sozi.baierouge.fr"
    xmlns:xlink="http://www.w3.org/1999/xlink"
    width="461.5517"
    height="396.77377"
    id="svg2"
    version="1.1"
    inkscape:version="0.48.4 r9939"
    sodipodi:docname="Salacot_explorer.svg"
  >
  <defs
      id="defs4"
  />
  <sodipodi:namedview
      id="base"
      pagecolor="#ffffff"
      bordercolor="#666666"
      borderopacity="1.0"
      inkscape:pageopacity="0.0"
      inkscape:pageshadow="2"
      inkscape:zoom="1.072"
      inkscape:cx="123.68306"
      inkscape:cy="181.90601"
      inkscape:document-units="px"
      inkscape:current-layer="layer2"
      showgrid="false"
      fit-margin-top="0"
      fit-margin-left="0"
      fit-margin-right="0"
      fit-margin-bottom="0"
      borderlayer="true"
      inkscape:window-width="1366"
      inkscape:window-height="706"
      inkscape:window-x="-8"
      inkscape:window-y="-8"
      inkscape:window-maximized="1"
  />
  <g
      inkscape:groupmode="layer"
      id="layer2"
      inkscape:label="Salacot"
      style="display:inline"
      transform="translate(-19.040815,-43.061334)"
    >
    <g
        id="g3048"
      >
      <path
          sodipodi:nodetypes="ssssss"
          inkscape:connector-curvature="0"
          id="path2999"
          d="m 89.552239,205.22388 c -46.949438,29.93978 -92.1673316,96.54197 -56.968291,150.50615 41.689291,63.91449 146.994442,99.98249 245.401122,75.24012 107.19549,-26.95214 188.23085,-117.95191 199.40785,-171.08659 11.38847,-54.14 -22.25274,-82.9794 -80.00486,-105.03281 -41.11522,-15.70039 -227.79075,-0.67183 -307.835821,50.37313 z"
          style="color:#000000;fill:#d2b48c;stroke:#816647;stroke-width:2;stroke-linecap:butt;stroke-linejoin:miter;stroke-miterlimit:4;stroke-opacity:1;stroke-dasharray:none;stroke-dashoffset:0;marker:none;visibility:visible;display:inline;overflow:visible;enable-background:accumulate"
      />
    </g
    >
    <path
        style="color:#000000;fill:#d2b48c;stroke:#816647;stroke-width:2;stroke-linecap:butt;stroke-linejoin:miter;stroke-miterlimit:4;stroke-opacity:1;stroke-dasharray:none;stroke-dashoffset:0;marker:none;visibility:visible;display:inline;overflow:visible;enable-background:accumulate"
        d="m 200.52282,67.95248 c -35.42037,11.794193 -70.01885,30.252132 -90.66587,67.94669 -20.647011,37.69457 -27.342563,94.62575 -17.510915,133.23574 22.756705,51.77974 90.469355,64.646 159.706415,55.3609 67.747,-9.08527 134.03826,-72.90298 143.05666,-85.70317 23.07776,-32.75522 1.31923,-90.36719 1.31923,-90.36719 C 389.39236,104.83784 336.68392,50.325377 265.16504,54.100574 224.92856,25.077535 200.52282,67.95248 200.52282,67.95248 z"
        id="path3003"
        inkscape:connector-curvature="0"
        sodipodi:nodetypes="csscsccc"
    />
  </g
  >
  <g
      id="g3088"
      transform="translate(-19.040815,-43.061334)"
    >
    <g
        id="g3028"
        style="display:inline"
      >
      <g
          id="g3017"
        >
        <path
            style="color:#000000;fill:none;stroke:#816647;stroke-width:2;stroke-linecap:butt;stroke-linejoin:miter;stroke-miterlimit:4;stroke-opacity:1;stroke-dasharray:none;stroke-dashoffset:0;marker:none;visibility:visible;display:inline;overflow:visible;enable-background:accumulate"
            d="M 89.552239,205.22388 C 41.888826,234.01345 1.3425946,288.57356 36.541635,342.53774 78.230926,406.45223 186.04744,444.3568 282.60237,413.16056 388.47863,378.95266 458.30055,310.37978 469.47755,257.2451 c 11.38847,-54.14 -14.33737,-80.34094 -72.08949,-102.39435"
            id="path3001"
            inkscape:connector-curvature="0"
            sodipodi:nodetypes="csssc"
        />
        <g
            id="g3921"
          >
          <g
              id="g3039"
            >
            <path
                inkscape:connector-curvature="0"
                id="path3027"
                d="m 201.49254,67.630597 c 0,0 -6.52985,6.529851 -6.52985,13.059701 11.19403,10.727612 48.97388,9.794776 48.97388,9.794776 -1.86567,-6.063432 -0.93284,-22.854477 -0.93284,-22.854477 5.1306,3.264925 10.72761,19.123134 10.72761,19.123134 20.05597,-1.399254 23.78732,-13.526119 23.78732,-13.526119 1.39925,-9.794776 -12.12687,-19.123135 -12.12687,-19.123135"
                style="color:#000000;fill:none;stroke:#816647;stroke-width:2;stroke-linecap:butt;stroke-linejoin:miter;stroke-miterlimit:4;stroke-opacity:1;stroke-dasharray:none;stroke-dashoffset:0;marker:none;visibility:visible;display:inline;overflow:visible;enable-background:accumulate"
            />
            <path
                sodipodi:nodetypes="cc"
                inkscape:connector-curvature="0"
                id="path3029"
                d="M 131.52985,257.46269 C 116.13806,155.31717 213.6194,87.686567 213.6194,87.686567"
                style="color:#000000;fill:none;stroke:#816647;stroke-width:2;stroke-linecap:butt;stroke-linejoin:miter;stroke-miterlimit:4;stroke-opacity:1;stroke-dasharray:none;stroke-dashoffset:0;marker:none;visibility:visible;display:inline;overflow:visible;enable-background:accumulate"
            />
            <path
                sodipodi:nodetypes="cc"
                inkscape:connector-curvature="0"
                id="path3031"
                d="m 271.92164,59.235074 c 6.06344,-2.798508 25.3572,-2.70754 25.3572,-2.70754"
                style="color:#000000;fill:none;stroke:#816647;stroke-width:2;stroke-linecap:butt;stroke-linejoin:miter;stroke-miterlimit:4;stroke-opacity:1;stroke-dasharray:none;stroke-dashoffset:0;marker:none;visibility:visible;display:inline;overflow:visible;enable-background:accumulate"
            />
            <path
                sodipodi:nodetypes="cc"
                inkscape:connector-curvature="0"
                id="path3035"
                d="M 395.05597,153.91791 C 372.20149,74.160447 277.51866,73.227612 277.51866,73.227612"
                style="color:#000000;fill:none;stroke:#816647;stroke-width:2;stroke-linecap:butt;stroke-linejoin:miter;stroke-miterlimit:4;stroke-opacity:1;stroke-dasharray:none;stroke-dashoffset:0;marker:none;visibility:visible;display:inline;overflow:visible;enable-background:accumulate"
            />
            <path
                sodipodi:nodetypes="cc"
                inkscape:connector-curvature="0"
                id="path3037"
                d="m 243.54982,80.34903 c 55.67435,38.45109 65.68526,141.19948 65.68526,141.19948"
                style="color:#000000;fill:none;stroke:#816647;stroke-width:2;stroke-linecap:butt;stroke-linejoin:miter;stroke-miterlimit:4;stroke-opacity:1;stroke-dasharray:none;stroke-dashoffset:0;marker:none;visibility:visible;display:inline;overflow:visible;enable-background:accumulate"
            />
          </g
          >
          <path
              style="fill:#816647;fill-opacity:1;stroke:none"
              d="m 249.25561,83.944137 c -2.16211,-1.794705 -5.98787,-3.183195 -6.00418,-3.818254 l -0.0427,-1.661259 0,-4.650778 c 0,-2.557928 -0.22124,-5.984853 0.22729,-5.375972 1.67846,2.278543 2.27498,2.774743 3.30036,4.525112 1.60354,2.737312 6.23773,12.533265 6.35987,13.628198 0.0992,0.889811 -2.95498,-1.911855 -3.84068,-2.647047 z"
              id="path3919"
              inkscape:connector-curvature="0"
              sodipodi:nodetypes="cscsscsc"
          />
        </g
        >
      </g
      >
      <path
          style="color:#000000;fill:#fffff0;stroke:#fffacd;stroke-width:2;stroke-linecap:butt;stroke-linejoin:miter;stroke-miterlimit:4;stroke-opacity:1;stroke-dasharray:none;stroke-dashoffset:0;marker:none;visibility:visible;display:inline;overflow:visible;enable-background:accumulate"
          d="M 397.78125,152.375 C 357.44328,208.04145 244.19319,259.74892 131.9375,259.25 c -12.13935,-4.45109 -30.60882,-30.28407 -41.625,-61.75 -3.755137,25.29206 -3.206913,51.05414 2.03125,71.625 22.7567,51.77974 90.48169,64.6601 159.71875,55.375 67.747,-9.08527 134.01285,-72.91856 143.03125,-85.71875 19.51487,-27.69827 7.02646,-73.02582 2.6875,-86.40625 z"
          id="path2989"
          inkscape:connector-curvature="0"
      />
      <g
          id="g3078"
        >
        <g
            transform="matrix(0.98347487,-0.18104468,0.18104468,0.98347487,-25.071965,64.870794)"
            id="g3050"
          >
          <path
              sodipodi:type="arc"
              style="fill:#eeeeee;stroke:#eeeeee;stroke-width:2;stroke-miterlimit:4;stroke-opacity:1;stroke-dasharray:none"
              id="path3046"
              sodipodi:cx="343.28357"
              sodipodi:cy="171.17537"
              sodipodi:rx="6.529851"
              sodipodi:ry="8.3955221"
              d="m 349.81342,171.17537 c 0,4.63672 -2.92351,8.39552 -6.52985,8.39552 -3.60634,0 -6.52985,-3.7588 -6.52985,-8.39552 0,-4.63672 2.92351,-8.39552 6.52985,-8.39552 3.60634,0 6.52985,3.7588 6.52985,8.39552 z"
              transform="translate(-0.46641791,-1.3992537)"
          />
          <path
              transform="matrix(0.57803812,0,0,0.57803812,144.38616,70.830227)"
              d="m 349.81342,171.17537 c 0,4.63672 -2.92351,8.39552 -6.52985,8.39552 -3.60634,0 -6.52985,-3.7588 -6.52985,-8.39552 0,-4.63672 2.92351,-8.39552 6.52985,-8.39552 3.60634,0 6.52985,3.7588 6.52985,8.39552 z"
              sodipodi:ry="8.3955221"
              sodipodi:rx="6.529851"
              sodipodi:cy="171.17537"
              sodipodi:cx="343.28357"
              id="path3048"
              style="fill:#000000;fill-opacity:1;stroke:none"
              sodipodi:type="arc"
          />
        </g
        >
        <g
            id="g3050-4"
            transform="matrix(0.8621574,-0.22723611,0.25486313,0.96697714,31.853621,62.051711)"
          >
          <path
              sodipodi:type="arc"
              style="fill:#eeeeee;stroke:#eeeeee;stroke-width:2;stroke-miterlimit:4;stroke-opacity:1;stroke-dasharray:none"
              id="path3046-0"
              sodipodi:cx="343.28357"
              sodipodi:cy="171.17537"
              sodipodi:rx="6.529851"
              sodipodi:ry="8.3955221"
              d="m 349.81342,171.17537 c 0,4.63672 -2.92351,8.39552 -6.52985,8.39552 -3.60634,0 -6.52985,-3.7588 -6.52985,-8.39552 0,-4.63672 2.92351,-8.39552 6.52985,-8.39552 3.60634,0 6.52985,3.7588 6.52985,8.39552 z"
              transform="translate(-0.46641791,-1.3992537)"
          />
          <path
              transform="matrix(0.57803812,0,0,0.57803812,144.38616,70.830227)"
              d="m 349.81342,171.17537 c 0,4.63672 -2.92351,8.39552 -6.52985,8.39552 -3.60634,0 -6.52985,-3.7588 -6.52985,-8.39552 0,-4.63672 2.92351,-8.39552 6.52985,-8.39552 3.60634,0 6.52985,3.7588 6.52985,8.39552 z"
              sodipodi:ry="8.3955221"
              sodipodi:rx="6.529851"
              sodipodi:cy="171.17537"
              sodipodi:cx="343.28357"
              id="path3048-9"
              style="fill:#000000;fill-opacity:1;stroke:none"
              sodipodi:type="arc"
          />
        </g
        >
      </g
      >
    </g
    >
    <g
        id="g3060"
      >
      <path
          style="color:#000000;fill:#8b4513;stroke:#8b4513;stroke-width:2;stroke-linecap:butt;stroke-linejoin:miter;stroke-miterlimit:4;stroke-opacity:1;stroke-dasharray:none;stroke-dashoffset:0;marker:none;visibility:visible;display:inline;overflow:visible;enable-background:accumulate"
          d="m 27.985075,270.52239 c 6.800329,8.02707 262.590165,169.31126 274.720145,163.24627 27.05224,10.72761 14.92538,-16.32463 14.92538,-16.32463 C 290.08077,407.55574 37.961016,258.93901 36.847015,255.59701 c 0,0 -10.727612,8.39553 -8.86194,14.92538 z"
          id="path3086"
          inkscape:connector-curvature="0"
          sodipodi:nodetypes="ccccc"
      />
      <g
          id="g3052"
        >
        <path
            sodipodi:nodetypes="cssssssccsssssssccc"
            inkscape:connector-curvature="0"
            id="path3092"
            d="m 224.28125,366.625 c -4.51199,0.33898 -8.61102,1.81531 -11.75,4.15625 -3.58741,2.67535 -5.96875,6.57511 -5.96875,10.9375 0,4.36238 2.38134,8.2309 5.96875,10.90625 3.5874,2.67536 8.43788,4.28125 13.71875,4.28125 5.28088,0 10.06884,-1.60589 13.65625,-4.28125 3.5874,-2.67535 6,-6.54387 6,-10.90625 0,-1.36325 -0.25599,-2.68997 -0.6875,-3.9375 -1.79514,-2.43489 -3.93216,-2.12508 -5.2274,-2.17692 1.14289,1.56102 1.9149,4.29377 1.9149,6.11442 0,2.91303 -1.56922,5.6263 -4.375,7.71875 -2.80579,2.09245 -6.80645,3.46875 -11.28125,3.46875 -4.4748,0 -8.50672,-1.3763 -11.3125,-3.46875 -2.80579,-2.09245 -4.375,-4.80572 -4.375,-7.71875 0,-2.91304 1.56921,-5.6263 4.375,-7.71875 2.80578,-2.09245 6.8377,-3.46875 11.3125,-3.46875 0.72103,0 1.39995,0.0566 2.09375,0.125 1.39245,-2.80983 -0.8788,-3.64287 -3.84375,-4.03125 -0.0717,0.005 -0.14729,-0.005 -0.21875,0 z"
            style="font-size:medium;font-style:normal;font-variant:normal;font-weight:normal;font-stretch:normal;text-indent:0;text-align:start;text-decoration:none;line-height:normal;letter-spacing:normal;word-spacing:normal;text-transform:none;direction:ltr;block-progression:tb;writing-mode:lr-tb;text-anchor:start;baseline-shift:baseline;color:#000000;fill:#eeeeee;stroke:#eeeeee;stroke-width:2;marker:none;visibility:visible;display:inline;overflow:visible;enable-background:accumulate;font-family:Sans;-inkscape-font-specification:Sans"
        />
        <g
            id="g3974"
          >
          <path
              sodipodi:type="arc"
              style="fill:#333333;fill-opacity:1;stroke:#333333;stroke-width:2;stroke-miterlimit:4;stroke-opacity:1;stroke-dasharray:none"
              id="path3930"
              sodipodi:cx="272.50229"
              sodipodi:cy="408.19897"
              sodipodi:rx="3.5833113"
              sodipodi:ry="3.0714097"
              d="m 276.0856,408.19897 c 0,1.6963 -1.6043,3.07141 -3.58331,3.07141 -1.97901,0 -3.58331,-1.37511 -3.58331,-3.07141 0,-1.69629 1.6043,-3.07141 3.58331,-3.07141 1.97901,0 3.58331,1.37512 3.58331,3.07141 z"
          />
          <path
              transform="translate(-80.027277,-45.388611)"
              sodipodi:type="arc"
              style="fill:#333333;fill-opacity:1;stroke:#333333;stroke-width:2;stroke-miterlimit:4;stroke-opacity:1;stroke-dasharray:none"
              id="path3930-5"
              sodipodi:cx="272.50229"
              sodipodi:cy="408.19897"
              sodipodi:rx="3.5833113"
              sodipodi:ry="3.0714097"
              d="m 276.0856,408.19897 c 0,1.6963 -1.6043,3.07141 -3.58331,3.07141 -1.97901,0 -3.58331,-1.37511 -3.58331,-3.07141 0,-1.69629 1.6043,-3.07141 3.58331,-3.07141 1.97901,0 3.58331,1.37512 3.58331,3.07141 z"
          />
          <path
              transform="translate(-107.66996,-61.428195)"
              sodipodi:type="arc"
              style="fill:#333333;fill-opacity:1;stroke:#333333;stroke-width:2;stroke-miterlimit:4;stroke-opacity:1;stroke-dasharray:none"
              id="path3930-51"
              sodipodi:cx="272.50229"
              sodipodi:cy="408.19897"
              sodipodi:rx="3.5833113"
              sodipodi:ry="3.0714097"
              d="m 276.0856,408.19897 c 0,1.6963 -1.6043,3.07141 -3.58331,3.07141 -1.97901,0 -3.58331,-1.37511 -3.58331,-3.07141 0,-1.69629 1.6043,-3.07141 3.58331,-3.07141 1.97901,0 3.58331,1.37512 3.58331,3.07141 z"
          />
        </g
        >
      </g
      >
    </g
    >
  </g
  >
  <metadata
    >
    <rdf:RDF
      >
      <cc:Work
        >
        <dc:format
          >image/svg+xml</dc:format
        >
        <dc:type
            rdf:resource="http://purl.org/dc/dcmitype/StillImage"
        />
        <cc:license
            rdf:resource="http://creativecommons.org/licenses/publicdomain/"
        />
        <dc:publisher
          >
          <cc:Agent
              rdf:about="http://openclipart.org/"
            >
            <dc:title
              >Openclipart</dc:title
            >
          </cc:Agent
          >
        </dc:publisher
        >
        <dc:title
          >Salacot</dc:title
        >
        <dc:date
          >2014-03-26T21:35:23</dc:date
        >
        <dc:description
          >Just a salacot, a hat for Safari.</dc:description
        >
        <dc:source
          >https://openclipart.org/detail/192129/salacot-by-solvera-192129</dc:source
        >
        <dc:creator
          >
          <cc:Agent
            >
            <dc:title
              >SOlvera</dc:title
            >
          </cc:Agent
          >
        </dc:creator
        >
        <dc:subject
          >
          <rdf:Bag
            >
            <rdf:li
              >Salacot</rdf:li
            >
            <rdf:li
              >explorer</rdf:li
            >
            <rdf:li
              >hat</rdf:li
            >
            <rdf:li
              >hunter</rdf:li
            >
            <rdf:li
              >safari</rdf:li
            >
            <rdf:li
              >summer</rdf:li
            >
          </rdf:Bag
          >
        </dc:subject
        >
      </cc:Work
      >
      <cc:License
          rdf:about="http://creativecommons.org/licenses/publicdomain/"
        >
        <cc:permits
            rdf:resource="http://creativecommons.org/ns#Reproduction"
        />
        <cc:permits
            rdf:resource="http://creativecommons.org/ns#Distribution"
        />
        <cc:permits
            rdf:resource="http://creativecommons.org/ns#DerivativeWorks"
        />
      </cc:License
      >
    </rdf:RDF
    >
  </metadata
  >
</svg
>
