<?xml version="1.0" encoding="UTF-8"?>
<svg xmlns="http://www.w3.org/2000/svg" xmlns:xlink="http://www.w3.org/1999/xlink" width="612pt" height="792pt" viewBox="0 0 612 792" version="1.1">
<defs>
<g>
<symbol overflow="visible" id="glyph0-0">
<path style="stroke:none;" d=""/>
</symbol>
<symbol overflow="visible" id="glyph0-1">
<path style="stroke:none;" d="M 5.25 -4.53125 C 5.25 -5.765625 4.421875 -6.46875 2.96875 -6.46875 C 1.515625 -6.46875 0.5625 -5.71875 0.5625 -4.546875 C 0.5625 -3.5625 1.0625 -3.09375 2.5625 -2.734375 L 3.484375 -2.515625 C 4.1875 -2.34375 4.46875 -2.09375 4.46875 -1.625 C 4.46875 -1.046875 3.875 -0.640625 3 -0.640625 C 2.453125 -0.640625 2 -0.796875 1.75 -1.0625 C 1.59375 -1.25 1.53125 -1.421875 1.46875 -1.875 L 0.40625 -1.875 C 0.453125 -0.421875 1.265625 0.28125 2.921875 0.28125 C 4.5 0.28125 5.515625 -0.5 5.515625 -1.71875 C 5.515625 -2.65625 4.984375 -3.171875 3.734375 -3.46875 L 2.765625 -3.703125 C 1.953125 -3.890625 1.609375 -4.15625 1.609375 -4.59375 C 1.609375 -5.171875 2.125 -5.546875 2.9375 -5.546875 C 3.75 -5.546875 4.171875 -5.203125 4.203125 -4.53125 Z M 5.25 -4.53125 "/>
</symbol>
<symbol overflow="visible" id="glyph0-2">
<path style="stroke:none;" d="M 6.15625 -2.8125 C 6.15625 -3.765625 6.078125 -4.34375 5.90625 -4.8125 C 5.5 -5.84375 4.53125 -6.46875 3.359375 -6.46875 C 1.609375 -6.46875 0.484375 -5.125 0.484375 -3.0625 C 0.484375 -1 1.578125 0.28125 3.34375 0.28125 C 4.78125 0.28125 5.765625 -0.546875 6.03125 -1.90625 L 5.015625 -1.90625 C 4.734375 -1.078125 4.171875 -0.640625 3.375 -0.640625 C 2.734375 -0.640625 2.203125 -0.9375 1.859375 -1.46875 C 1.625 -1.828125 1.53125 -2.1875 1.53125 -2.8125 Z M 1.546875 -3.625 C 1.625 -4.78125 2.34375 -5.546875 3.34375 -5.546875 C 4.328125 -5.546875 5.09375 -4.734375 5.09375 -3.703125 C 5.09375 -3.671875 5.09375 -3.640625 5.078125 -3.625 Z M 1.546875 -3.625 "/>
</symbol>
<symbol overflow="visible" id="glyph0-3">
<path style="stroke:none;" d=""/>
</symbol>
<symbol overflow="visible" id="glyph0-4">
<path style="stroke:none;" d="M 1.796875 -6.28125 L 0.796875 -6.28125 L 0.796875 0 L 1.796875 0 Z M 1.796875 -8.75 L 0.796875 -8.75 L 0.796875 -7.484375 L 1.796875 -7.484375 Z M 1.796875 -8.75 "/>
</symbol>
<symbol overflow="visible" id="glyph0-5">
<path style="stroke:none;" d="M 0.84375 -6.28125 L 0.84375 0 L 1.84375 0 L 1.84375 -3.46875 C 1.84375 -4.75 2.515625 -5.59375 3.546875 -5.59375 C 4.34375 -5.59375 4.84375 -5.109375 4.84375 -4.359375 L 4.84375 0 L 5.84375 0 L 5.84375 -4.75 C 5.84375 -5.796875 5.0625 -6.46875 3.859375 -6.46875 C 2.921875 -6.46875 2.3125 -6.109375 1.765625 -5.234375 L 1.765625 -6.28125 Z M 0.84375 -6.28125 "/>
</symbol>
<symbol overflow="visible" id="glyph0-6">
<path style="stroke:none;" d="M 0.640625 -1.9375 C 0.84375 -0.546875 1.75 0.28125 3.046875 0.28125 C 3.984375 0.28125 4.84375 -0.1875 5.328125 -0.9375 C 5.875 -1.765625 6.109375 -2.8125 6.109375 -4.359375 C 6.109375 -5.78125 5.890625 -6.703125 5.390625 -7.453125 C 4.921875 -8.140625 4.171875 -8.515625 3.234375 -8.515625 C 1.625 -8.515625 0.453125 -7.3125 0.453125 -5.640625 C 0.453125 -4.0625 1.53125 -2.9375 3.078125 -2.9375 C 3.875 -2.9375 4.46875 -3.234375 5.015625 -3.890625 C 5 -1.8125 4.328125 -0.65625 3.125 -0.65625 C 2.375 -0.65625 1.859375 -1.125 1.6875 -1.9375 Z M 3.234375 -7.578125 C 4.21875 -7.578125 4.953125 -6.765625 4.953125 -5.65625 C 4.953125 -4.625 4.21875 -3.875 3.1875 -3.875 C 2.171875 -3.875 1.53125 -4.578125 1.53125 -5.71875 C 1.53125 -6.796875 2.25 -7.578125 3.234375 -7.578125 Z M 3.234375 -7.578125 "/>
</symbol>
<symbol overflow="visible" id="glyph0-7">
<path style="stroke:none;" d="M 3.921875 -2.046875 L 3.921875 0 L 4.984375 0 L 4.984375 -2.046875 L 6.234375 -2.046875 L 6.234375 -2.984375 L 4.984375 -2.984375 L 4.984375 -8.515625 L 4.203125 -8.515625 L 0.34375 -3.15625 L 0.34375 -2.046875 Z M 3.921875 -2.984375 L 1.265625 -2.984375 L 3.921875 -6.703125 Z M 3.921875 -2.984375 "/>
</symbol>
<symbol overflow="visible" id="glyph0-8">
<path style="stroke:none;" d="M 4.6875 -4.46875 C 5.5625 -5 5.859375 -5.4375 5.859375 -6.234375 C 5.859375 -7.578125 4.8125 -8.515625 3.296875 -8.515625 C 1.796875 -8.515625 0.75 -7.578125 0.75 -6.234375 C 0.75 -5.453125 1.03125 -5.015625 1.890625 -4.46875 C 0.921875 -4.015625 0.4375 -3.296875 0.4375 -2.359375 C 0.4375 -0.796875 1.625 0.28125 3.296875 0.28125 C 4.984375 0.28125 6.15625 -0.796875 6.15625 -2.359375 C 6.15625 -3.296875 5.671875 -4.015625 4.6875 -4.46875 Z M 3.296875 -7.578125 C 4.203125 -7.578125 4.78125 -7.046875 4.78125 -6.21875 C 4.78125 -5.421875 4.1875 -4.890625 3.296875 -4.890625 C 2.40625 -4.890625 1.828125 -5.421875 1.828125 -6.234375 C 1.828125 -7.046875 2.40625 -7.578125 3.296875 -7.578125 Z M 3.296875 -4.015625 C 4.359375 -4.015625 5.078125 -3.34375 5.078125 -2.34375 C 5.078125 -1.328125 4.359375 -0.65625 3.28125 -0.65625 C 2.25 -0.65625 1.53125 -1.34375 1.53125 -2.34375 C 1.53125 -3.34375 2.25 -4.015625 3.296875 -4.015625 Z M 3.296875 -4.015625 "/>
</symbol>
<symbol overflow="visible" id="glyph0-9">
<path style="stroke:none;" d="M 5.71875 -8.515625 L 1.3125 -8.515625 L 0.6875 -3.875 L 1.65625 -3.875 C 2.140625 -4.46875 2.5625 -4.671875 3.21875 -4.671875 C 4.359375 -4.671875 5.078125 -3.890625 5.078125 -2.625 C 5.078125 -1.40625 4.375 -0.65625 3.21875 -0.65625 C 2.296875 -0.65625 1.734375 -1.125 1.46875 -2.09375 L 0.421875 -2.09375 C 0.5625 -1.390625 0.6875 -1.0625 0.9375 -0.75 C 1.421875 -0.09375 2.28125 0.28125 3.234375 0.28125 C 4.953125 0.28125 6.15625 -0.96875 6.15625 -2.765625 C 6.15625 -4.453125 5.046875 -5.609375 3.40625 -5.609375 C 2.8125 -5.609375 2.328125 -5.453125 1.84375 -5.09375 L 2.171875 -7.46875 L 5.71875 -7.46875 Z M 5.71875 -8.515625 "/>
</symbol>
<symbol overflow="visible" id="glyph0-10">
<path style="stroke:none;" d="M 6.078125 -1.046875 L 1.59375 -1.046875 C 1.703125 -1.734375 2.09375 -2.1875 3.125 -2.796875 L 4.328125 -3.4375 C 5.515625 -4.09375 6.125 -4.96875 6.125 -6.015625 C 6.125 -6.71875 5.84375 -7.375 5.34375 -7.84375 C 4.84375 -8.296875 4.21875 -8.515625 3.40625 -8.515625 C 2.328125 -8.515625 1.53125 -8.125 1.0625 -7.40625 C 0.75 -6.953125 0.625 -6.421875 0.59375 -5.5625 L 1.65625 -5.5625 C 1.6875 -6.125 1.765625 -6.484375 1.90625 -6.75 C 2.1875 -7.265625 2.734375 -7.578125 3.375 -7.578125 C 4.328125 -7.578125 5.046875 -6.90625 5.046875 -5.984375 C 5.046875 -5.3125 4.65625 -4.734375 3.90625 -4.3125 L 2.796875 -3.6875 C 1.015625 -2.671875 0.5 -1.875 0.40625 0 L 6.078125 0 Z M 6.078125 -1.046875 "/>
</symbol>
</g>
</defs>
<g id="surface1">
<g style="fill:rgb(0%,0%,0%);fill-opacity:1;">
  <use xlink:href="#glyph0-1" x="36" y="54"/>
  <use xlink:href="#glyph0-2" x="42" y="54"/>
  <use xlink:href="#glyph0-2" x="48.672" y="54"/>
  <use xlink:href="#glyph0-3" x="55.344" y="54"/>
  <use xlink:href="#glyph0-4" x="58.68" y="54"/>
  <use xlink:href="#glyph0-5" x="61.344" y="54"/>
  <use xlink:href="#glyph0-3" x="68.016" y="54"/>
  <use xlink:href="#glyph0-6" x="71.352" y="54"/>
  <use xlink:href="#glyph0-7" x="78.024" y="54"/>
  <use xlink:href="#glyph0-8" x="84.696" y="54"/>
  <use xlink:href="#glyph0-9" x="91.368" y="54"/>
  <use xlink:href="#glyph0-10" x="98.04" y="54"/>
  <use xlink:href="#glyph0-8" x="104.712" y="54"/>
</g>
</g>
</svg>
