<?xml version="1.0" encoding="UTF-8" standalone="no"?>
<!-- Created with Inkscape (http://www.inkscape.org/) -->

<svg
   xmlns:dc="http://purl.org/dc/elements/1.1/"
   xmlns:cc="http://creativecommons.org/ns#"
   xmlns:rdf="http://www.w3.org/1999/02/22-rdf-syntax-ns#"
   xmlns:svg="http://www.w3.org/2000/svg"
   xmlns="http://www.w3.org/2000/svg"
   xmlns:sodipodi="http://sodipodi.sourceforge.net/DTD/sodipodi-0.dtd"
   xmlns:inkscape="http://www.inkscape.org/namespaces/inkscape"
   width="765"
   height="990"
   id="svg2"
   version="1.1"
   inkscape:version="0.48.4 r9939"
   sodipodi:docname="Folders-chinese2.svg">
  <defs
     id="defs4" />
  <sodipodi:namedview
     id="base"
     pagecolor="#ffffff"
     bordercolor="#666666"
     borderopacity="1.0"
     inkscape:pageopacity="0.0"
     inkscape:pageshadow="2"
     inkscape:zoom="0.70710678"
     inkscape:cx="368.03794"
     inkscape:cy="491.73695"
     inkscape:document-units="px"
     inkscape:current-layer="layer1"
     showgrid="false"
     units="in"
     inkscape:window-width="1280"
     inkscape:window-height="962"
     inkscape:window-x="-8"
     inkscape:window-y="-8"
     inkscape:window-maximized="1" />
  <metadata
     id="metadata7">
    <rdf:RDF>
      <cc:Work
         rdf:about="">
        <dc:format>image/svg+xml</dc:format>
        <dc:type
           rdf:resource="http://purl.org/dc/dcmitype/StillImage" />
        <dc:title />
      </cc:Work>
    </rdf:RDF>
  </metadata>
  <g
     inkscape:label="Layer 1"
     inkscape:groupmode="layer"
     id="layer1"
     transform="translate(0,-62.35975)">
    <path
       transform="translate(0,62.35975)"
       style="fill:#0044aa;fill-opacity:1;stroke:none"
       d="m 0,0.0505066 765,0 0,990.0000034 -765,0 z"
       id="rect2993" />
    <path
       inkscape:connector-curvature="0"
       id="path2992"
       style="font-size:249.99987793px;font-style:normal;font-variant:normal;font-weight:normal;font-stretch:normal;text-align:end;line-height:125%;letter-spacing:0px;word-spacing:0px;writing-mode:lr-tb;text-anchor:end;fill:#002255;fill-opacity:1;stroke:none;font-family:MS Gothic;-inkscape-font-specification:MS Gothic"
       d="m 358.00788,917.56241 0,-63.47653 -63.47653,0 0,63.47653 z m 0,-126.95306 18.55468,0 c 5.20819,0.65124 5.53371,2.60436 0.97656,5.85937 l 0,39.06248 84.9609,0 0,107.42183 -19.53125,0 0,-6.83594 -65.42965,0 0,73.24211 -19.53124,0 0,-73.24211 -63.47653,0 0,12.69531 -19.53124,0 0,-113.2812 83.00777,0 z m 84.96089,126.95306 0,-63.47653 -65.42965,0 0,63.47653 z" />
    <path
       inkscape:connector-curvature="0"
       id="path2994"
       style="font-size:249.99987793px;font-style:normal;font-variant:normal;font-weight:normal;font-stretch:normal;text-align:end;line-height:125%;letter-spacing:0px;word-spacing:0px;writing-mode:lr-tb;text-anchor:end;fill:#002255;fill-opacity:1;stroke:none;font-family:MS Gothic;-inkscape-font-specification:MS Gothic"
       d="m 621.67963,949.78896 c -32.55217,27.99479 -66.08076,47.20049 -100.58589,57.61714 l -8.78906,-23.43747 c 34.50514,-9.76561 65.42957,-26.36714 92.77339,-49.80466 -22.78654,-24.73949 -38.08599,-53.38529 -45.89841,-85.93746 l -46.87498,0 0,-18.55468 93.74995,0 0,-37.10936 21.48437,0 c 6.51027,1.30228 6.83579,3.90644 0.97656,7.8125 l 0,29.29686 94.72652,0 0,18.55468 -45.89842,0 c -5.20851,30.59905 -18.88036,59.24484 -41.0156,85.93746 22.78628,20.18231 53.05967,35.15625 90.82026,44.92185 l -8.78905,23.43748 c -33.2033,-8.46353 -65.42982,-26.04163 -96.67964,-52.73434 z m -0.97657,-31.24999 c 19.5311,-23.43739 31.57535,-46.87486 36.1328,-70.31246 l -76.17184,0 c 3.90616,22.13552 17.25249,45.57299 40.03904,70.31246 z" />
    <path
       inkscape:connector-curvature="0"
       id="path2997"
       style="font-size:100px;font-style:normal;font-variant:normal;font-weight:normal;font-stretch:normal;text-align:start;line-height:125%;letter-spacing:0px;word-spacing:0px;writing-mode:lr-tb;text-anchor:start;fill:#f9f9f9;fill-opacity:1;stroke:none;font-family:Impact;-inkscape-font-specification:Impact"
       d="m 77.037109,178.26414 -20.55664,0 0,-13.76953 c -3.2e-5,-4.00384 -0.219758,-6.50221 -0.65918,-7.49511 -0.439484,-0.99278 -1.407907,-1.48919 -2.905273,-1.48926 -1.692735,7e-5 -2.766953,0.60228 -3.222657,1.80664 -0.455753,1.20449 -0.683617,3.80865 -0.683593,7.8125 l 0,36.71875 c -2.4e-5,3.84116 0.22784,6.34767 0.683593,7.51953 0.455704,1.17189 1.481094,1.75782 3.076172,1.75781 1.529919,1e-5 2.530894,-0.58592 3.00293,-1.75781 0.471974,-1.17186 0.707976,-3.92251 0.708008,-8.25195 l 0,-9.91211 20.55664,0 0,3.07617 c -5.2e-5,8.17059 -0.577851,13.96486 -1.733398,17.38281 -1.155648,3.41798 -3.710984,6.41277 -7.666016,8.98438 -3.955117,2.57161 -8.829786,3.85742 -14.624023,3.85742 -6.022158,0 -10.986345,-1.0905 -14.892578,-3.27149 -3.90626,-2.18098 -6.494148,-5.20018 -7.763672,-9.05761 -1.269536,-3.85741 -1.904301,-9.65981 -1.904297,-17.40723 l 0,-23.0957 c -4e-6,-5.69656 0.195309,-9.96902 0.585937,-12.81738 0.390621,-2.84825 1.554357,-5.59076 3.491211,-8.22754 1.93684,-2.63665 4.622384,-4.71184 8.056641,-6.22559 3.434226,-1.51359 7.381162,-2.27043 11.84082,-2.27051 6.054654,8e-5 11.051394,1.17196 14.990235,3.51563 3.938755,2.34382 6.526643,5.26537 7.763672,8.76465 1.236927,3.49941 1.855416,8.94374 1.855468,16.333 z" />
    <path
       inkscape:connector-curvature="0"
       id="path2999"
       style="font-size:100px;font-style:normal;font-variant:normal;font-weight:normal;font-stretch:normal;text-align:start;line-height:125%;letter-spacing:0px;word-spacing:0px;writing-mode:lr-tb;text-anchor:start;fill:#f9f9f9;fill-opacity:1;stroke:none;font-family:Impact;-inkscape-font-specification:Impact"
       d="m 131.77344,143.79149 0,79.05273 -20.55664,0 0,-33.20312 -6.15235,0 0,33.20312 -20.556638,0 0,-79.05273 20.556638,0 0,28.27148 6.15235,0 0,-28.27148 z" />
    <path
       inkscape:connector-curvature="0"
       id="path3001"
       style="font-size:100px;font-style:normal;font-variant:normal;font-weight:normal;font-stretch:normal;text-align:start;line-height:125%;letter-spacing:0px;word-spacing:0px;writing-mode:lr-tb;text-anchor:start;fill:#f9f9f9;fill-opacity:1;stroke:none;font-family:Impact;-inkscape-font-specification:Impact"
       d="m 160.5332,143.79149 0,79.05273 -20.55664,0 0,-79.05273 z" />
    <path
       inkscape:connector-curvature="0"
       id="path3003"
       style="font-size:100px;font-style:normal;font-variant:normal;font-weight:normal;font-stretch:normal;text-align:start;line-height:125%;letter-spacing:0px;word-spacing:0px;writing-mode:lr-tb;text-anchor:start;fill:#f9f9f9;fill-opacity:1;stroke:none;font-family:Impact;-inkscape-font-specification:Impact"
       d="m 214.78125,143.79149 0,79.05273 -18.01758,0 -10.69336,-35.9375 0,35.9375 -17.1875,0 0,-79.05273 17.1875,0 11.52344,35.5957 0,-35.5957 z" />
    <path
       inkscape:connector-curvature="0"
       id="path3005"
       style="font-size:100px;font-style:normal;font-variant:normal;font-weight:normal;font-stretch:normal;text-align:start;line-height:125%;letter-spacing:0px;word-spacing:0px;writing-mode:lr-tb;text-anchor:start;fill:#f9f9f9;fill-opacity:1;stroke:none;font-family:Impact;-inkscape-font-specification:Impact"
       d="m 222.98437,143.79149 34.27735,0 0,15.82031 -13.7207,0 0,14.99024 12.84179,0 0,15.03906 -12.84179,0 0,17.38281 15.08789,0 0,15.82031 -35.64454,0 z" />
    <path
       inkscape:connector-curvature="0"
       id="path3007"
       style="font-size:100px;font-style:normal;font-variant:normal;font-weight:normal;font-stretch:normal;text-align:start;line-height:125%;letter-spacing:0px;word-spacing:0px;writing-mode:lr-tb;text-anchor:start;fill:#f9f9f9;fill-opacity:1;stroke:none;font-family:Impact;-inkscape-font-specification:Impact"
       d="m 308.14062,167.71727 -19.09179,0 0,-5.85938 c -3e-5,-2.73431 -0.24417,-4.47584 -0.73242,-5.2246 -0.48831,-0.74864 -1.30211,-1.12298 -2.44141,-1.12305 -1.237,7e-5 -2.17287,0.50462 -2.80762,1.51367 -0.63478,1.00918 -0.95217,2.53913 -0.95215,4.58984 -2e-5,2.63678 0.35806,4.62246 1.07422,5.95704 0.68357,1.33468 2.62042,2.94601 5.81055,4.83398 9.1471,5.43624 14.90881,9.89587 17.28516,13.37891 2.37625,3.4831 3.5644,9.09833 3.56445,16.8457 -5e-5,5.63152 -0.65923,9.78191 -1.97754,12.45117 -1.31841,2.66928 -3.8656,4.90723 -7.6416,6.71387 -3.77608,1.80664 -8.17061,2.70996 -13.1836,2.70996 -5.50132,0 -10.19695,-1.04167 -14.08691,-3.125 -3.88998,-2.08333 -6.43718,-4.73632 -7.6416,-7.95899 -1.20443,-3.22264 -1.80664,-7.7962 -1.80664,-13.7207 l 0,-5.17578 19.0918,0 0,9.61914 c -3e-5,2.96226 0.26853,4.86655 0.80566,5.71289 0.53709,0.84637 1.48923,1.26954 2.85644,1.26953 1.36717,1e-5 2.38442,-0.53709 3.05176,-1.61133 0.66729,-1.0742 1.00095,-2.66925 1.00098,-4.78515 -3e-5,-4.65493 -0.6348,-7.69854 -1.9043,-9.13086 -1.30211,-1.43226 -4.50848,-3.82484 -9.61914,-7.17774 -5.11069,-3.38537 -8.4961,-5.84305 -10.15625,-7.37304 -1.66016,-1.52991 -3.03549,-3.64579 -4.12597,-6.34766 -1.0905,-2.70177 -1.63575,-6.15229 -1.63575,-10.35156 0,-6.05462 0.77311,-10.4817 2.31934,-13.28125 1.54622,-2.79941 4.04459,-4.98853 7.49512,-6.56738 3.4505,-1.5787 7.61716,-2.36809 12.5,-2.36817 5.33851,8e-5 9.88766,0.86271 13.64746,2.58789 3.75972,1.72534 6.24995,3.89819 7.4707,6.51856 1.22066,2.62051 1.83101,7.072 1.83105,13.35449 z" />
    <path
       inkscape:connector-curvature="0"
       id="path3009"
       style="font-size:100px;font-style:normal;font-variant:normal;font-weight:normal;font-stretch:normal;text-align:start;line-height:125%;letter-spacing:0px;word-spacing:0px;writing-mode:lr-tb;text-anchor:start;fill:#f9f9f9;fill-opacity:1;stroke:none;font-family:Impact;-inkscape-font-specification:Impact"
       d="m 316.34375,143.79149 34.27734,0 0,15.82031 -13.7207,0 0,14.99024 12.8418,0 0,15.03906 -12.8418,0 0,17.38281 15.08789,0 0,15.82031 -35.64453,0 z" />
    <path
       inkscape:connector-curvature="0"
       id="path3011"
       style="font-size:100px;font-style:normal;font-variant:normal;font-weight:normal;font-stretch:normal;text-align:start;line-height:125%;letter-spacing:0px;word-spacing:0px;writing-mode:lr-tb;text-anchor:start;fill:#f9f9f9;fill-opacity:1;stroke:none;font-family:Impact;-inkscape-font-specification:Impact"
       d="m 417.4668,209.36766 0,13.47656 -43.40821,0 0,-11.27929 c 12.85806,-21.02862 20.49966,-34.0413 22.92481,-39.03809 2.4251,-4.99669 3.63766,-8.8948 3.63769,-11.69434 -3e-5,-2.14837 -0.36624,-3.75156 -1.09863,-4.80957 -0.73245,-1.05787 -1.84736,-1.58684 -3.34473,-1.58691 -1.49741,7e-5 -2.61232,0.58601 -3.34472,1.75781 -0.73244,1.17194 -1.09866,3.49941 -1.09864,6.98242 l 0,7.51954 -17.67578,0 0,-2.88086 c 0,-4.42703 0.22787,-7.91824 0.6836,-10.47364 0.45572,-2.55527 1.57877,-5.06991 3.36914,-7.54394 1.79035,-2.47388 4.11783,-4.34563 6.98242,-5.61524 2.86457,-1.26945 6.29881,-1.90421 10.30273,-1.90429 7.84502,8e-5 13.77764,1.94506 17.79786,5.83496 4.02013,3.89004 6.03022,8.81354 6.03027,14.77051 -5e-5,4.52479 -1.13123,9.30994 -3.39356,14.35546 -2.26241,5.04562 -8.92744,15.75524 -19.99511,32.12891 z" />
    <path
       inkscape:connector-curvature="0"
       id="path3014"
       style="font-size:36px;font-style:normal;font-variant:normal;font-weight:normal;font-stretch:normal;text-align:start;line-height:125%;letter-spacing:0px;word-spacing:0px;writing-mode:lr-tb;text-anchor:start;fill:#f9f9f9;fill-opacity:1;stroke:none;font-family:Impact;-inkscape-font-specification:Impact"
       d="m 42.9375,256.29694 0,28.45898 -6.486328,0 -3.84961,-12.9375 0,12.9375 -6.1875,0 0,-28.45898 6.1875,0 4.148438,12.81445 0,-12.81445 z" />
    <path
       inkscape:connector-curvature="0"
       id="path3016"
       style="font-size:36px;font-style:normal;font-variant:normal;font-weight:normal;font-stretch:normal;text-align:start;line-height:125%;letter-spacing:0px;word-spacing:0px;writing-mode:lr-tb;text-anchor:start;fill:#f9f9f9;fill-opacity:1;stroke:none;font-family:Impact;-inkscape-font-specification:Impact"
       d="m 52.025391,270.4649 -6.66211,0 0,-1.56445 c -10e-7,-1.80467 0.208007,-3.19627 0.624024,-4.1748 0.416013,-0.9785 1.250973,-1.84275 2.504882,-2.59278 1.253901,-0.74997 2.882806,-1.12497 4.886719,-1.125 2.402333,3e-5 4.212878,0.42483 5.431641,1.27442 1.218734,0.84963 1.951155,1.8926 2.197265,3.1289 0.246077,1.23635 0.369124,3.78225 0.369141,7.6377 l 0,11.70703 -6.908203,0 0,-2.07422 c -0.433603,0.83203 -0.993173,1.45606 -1.678711,1.87207 -0.685555,0.41602 -1.502936,0.62402 -2.452148,0.62403 -1.242193,-10e-6 -2.38184,-0.34864 -3.418946,-1.0459 -1.037111,-0.69727 -1.555665,-2.22363 -1.555664,-4.5791 l 0,-1.91602 c -10e-7,-1.74609 0.27539,-2.93554 0.826172,-3.56836 0.550779,-0.6328 1.916012,-1.37108 4.095703,-2.21484 2.332023,-0.91405 3.580069,-1.52929 3.744141,-1.84571 0.164053,-0.31639 0.246084,-0.96092 0.246094,-1.93359 -10e-6,-1.21873 -0.09083,-2.01268 -0.272461,-2.38184 -0.18165,-0.36912 -0.483408,-0.55369 -0.905274,-0.55371 -0.480477,2e-5 -0.779305,0.1553 -0.896484,0.46582 -0.117195,0.31057 -0.175789,1.11623 -0.175781,2.417 z m 2.25,3.19922 c -1.136728,0.83205 -1.795907,1.52931 -1.977539,2.0918 -0.181649,0.56251 -0.272469,1.3711 -0.272461,2.42578 -8e-6,1.20704 0.07909,1.98633 0.237304,2.33789 0.158195,0.35157 0.471672,0.52735 0.94043,0.52735 0.445303,0 0.735342,-0.1377 0.870117,-0.41309 0.134756,-0.27539 0.202139,-0.99902 0.202149,-2.1709 z" />
    <path
       inkscape:connector-curvature="0"
       id="path3018"
       style="font-size:36px;font-style:normal;font-variant:normal;font-weight:normal;font-stretch:normal;text-align:start;line-height:125%;letter-spacing:0px;word-spacing:0px;writing-mode:lr-tb;text-anchor:start;fill:#f9f9f9;fill-opacity:1;stroke:none;font-family:Impact;-inkscape-font-specification:Impact"
       d="m 70.833984,261.42975 -0.123047,2.21484 c 0.550773,-0.87888 1.207022,-1.53806 1.96875,-1.97754 0.761708,-0.43943 1.628895,-0.65915 2.601563,-0.65918 1.898423,3e-5 3.392562,0.87893 4.482422,2.63672 0.597638,-0.87888 1.271466,-1.53806 2.021484,-1.97754 0.74998,-0.43943 1.582011,-0.65915 2.496094,-0.65918 1.207008,3e-5 2.206031,0.293 2.99707,0.87891 0.79099,0.58596 1.297826,1.30373 1.520508,2.15332 0.22263,0.84963 0.333958,2.22951 0.333984,4.13965 l 0,16.57617 -6.890625,0 0,-15.20508 c -1.9e-5,-1.99217 -0.0674,-3.22557 -0.202148,-3.70019 -0.134785,-0.47459 -0.448261,-0.7119 -0.94043,-0.71192 -0.503924,2e-5 -0.829119,0.2344 -0.975586,0.70313 -0.146501,0.46877 -0.219743,1.70509 -0.219726,3.70898 l 0,15.20508 -6.890625,0 0,-14.81836 c -1.1e-5,-2.28514 -0.05567,-3.65623 -0.166992,-4.11328 -0.111339,-0.45701 -0.418955,-0.68553 -0.922852,-0.68555 -0.316415,2e-5 -0.585946,0.12014 -0.808594,0.36035 -0.222664,0.24026 -0.345711,0.53323 -0.36914,0.87891 -0.02345,0.34572 -0.03517,1.08107 -0.03516,2.20606 l 0,16.17187 -6.890625,0 0,-23.32617 z" />
    <path
       inkscape:connector-curvature="0"
       id="path3020"
       style="font-size:36px;font-style:normal;font-variant:normal;font-weight:normal;font-stretch:normal;text-align:start;line-height:125%;letter-spacing:0px;word-spacing:0px;writing-mode:lr-tb;text-anchor:start;fill:#f9f9f9;fill-opacity:1;stroke:none;font-family:Impact;-inkscape-font-specification:Impact"
       d="m 107.67773,273.50592 -9.193355,0 0,5.04492 c -8e-6,1.05469 0.07616,1.73438 0.228516,2.03906 0.152335,0.3047 0.445303,0.45704 0.878906,0.45704 0.539053,0 0.899403,-0.20215 1.081053,-0.60645 0.18163,-0.40429 0.27245,-1.18652 0.27246,-2.34668 l 0,-3.07617 6.73242,0 0,1.72266 c -1e-5,1.44141 -0.0908,2.54883 -0.27246,3.32226 -0.18165,0.77344 -0.60646,1.59961 -1.27441,2.47852 -0.66798,0.8789 -1.51466,1.53808 -2.54004,1.97754 -1.0254,0.43945 -2.31153,0.65917 -3.858398,0.65918 -1.500008,-10e-6 -2.824225,-0.2168 -3.972656,-0.6504 -1.148442,-0.43359 -2.041996,-1.02831 -2.680664,-1.78417 -0.638674,-0.75586 -1.081057,-1.58789 -1.327149,-2.4961 -0.246095,-0.9082 -0.369142,-2.22948 -0.369141,-3.96387 l 0,-6.80273 c -10e-7,-2.03905 0.27539,-3.64744 0.826172,-4.8252 0.550779,-1.17771 1.453122,-2.08005 2.707032,-2.70703 1.2539,-0.62693 2.695305,-0.9404 4.324218,-0.94043 1.992176,3e-5 3.635726,0.37796 4.930666,1.13379 1.29491,0.75588 2.20311,1.75784 2.72461,3.00586 0.52147,1.24807 0.78221,3.00295 0.78222,5.26465 z m -7.11914,-3.79687 0,-1.70508 c -10e-6,-1.20702 -0.0645,-1.98631 -0.19336,-2.33789 -0.12891,-0.35155 -0.392583,-0.52733 -0.791011,-0.52735 -0.492197,2e-5 -0.796884,0.14944 -0.914063,0.44825 -0.117195,0.29884 -0.175789,1.10451 -0.175781,2.41699 l 0,1.70508 z" />
    <path
       inkscape:connector-curvature="0"
       id="path3022"
       style="font-size:36px;font-style:normal;font-variant:normal;font-weight:normal;font-stretch:normal;text-align:start;line-height:125%;letter-spacing:0px;word-spacing:0px;writing-mode:lr-tb;text-anchor:start;fill:#f9f9f9;fill-opacity:1;stroke:none;font-family:Impact;-inkscape-font-specification:Impact"
       d="m 114.86719,287.46295 20.30273,0 0,1.79297 -20.30273,0 z" />
    <path
       inkscape:connector-curvature="0"
       id="path3024"
       style="font-size:36px;font-style:normal;font-variant:normal;font-weight:normal;font-stretch:normal;text-align:start;line-height:125%;letter-spacing:0px;word-spacing:0px;writing-mode:lr-tb;text-anchor:start;fill:#f9f9f9;fill-opacity:1;stroke:none;font-family:Impact;-inkscape-font-specification:Impact"
       d="m 134.76562,287.46295 20.30274,0 0,1.79297 -20.30274,0 z" />
    <path
       inkscape:connector-curvature="0"
       id="path3026"
       style="font-size:36px;font-style:normal;font-variant:normal;font-weight:normal;font-stretch:normal;text-align:start;line-height:125%;letter-spacing:0px;word-spacing:0px;writing-mode:lr-tb;text-anchor:start;fill:#f9f9f9;fill-opacity:1;stroke:none;font-family:Impact;-inkscape-font-specification:Impact"
       d="m 154.66406,287.46295 20.30274,0 0,1.79297 -20.30274,0 z" />
    <path
       inkscape:connector-curvature="0"
       id="path3028"
       style="font-size:36px;font-style:normal;font-variant:normal;font-weight:normal;font-stretch:normal;text-align:start;line-height:125%;letter-spacing:0px;word-spacing:0px;writing-mode:lr-tb;text-anchor:start;fill:#f9f9f9;fill-opacity:1;stroke:none;font-family:Impact;-inkscape-font-specification:Impact"
       d="m 174.5625,287.46295 20.30273,0 0,1.79297 -20.30273,0 z" />
    <path
       inkscape:connector-curvature="0"
       id="path3030"
       style="font-size:36px;font-style:normal;font-variant:normal;font-weight:normal;font-stretch:normal;text-align:start;line-height:125%;letter-spacing:0px;word-spacing:0px;writing-mode:lr-tb;text-anchor:start;fill:#f9f9f9;fill-opacity:1;stroke:none;font-family:Impact;-inkscape-font-specification:Impact"
       d="m 194.46094,287.46295 20.30273,0 0,1.79297 -20.30273,0 z" />
    <path
       inkscape:connector-curvature="0"
       id="path3032"
       style="font-size:36px;font-style:normal;font-variant:normal;font-weight:normal;font-stretch:normal;text-align:start;line-height:125%;letter-spacing:0px;word-spacing:0px;writing-mode:lr-tb;text-anchor:start;fill:#f9f9f9;fill-opacity:1;stroke:none;font-family:Impact;-inkscape-font-specification:Impact"
       d="m 214.35937,287.46295 20.30274,0 0,1.79297 -20.30274,0 z" />
    <path
       inkscape:connector-curvature="0"
       id="path3034"
       style="font-size:36px;font-style:normal;font-variant:normal;font-weight:normal;font-stretch:normal;text-align:start;line-height:125%;letter-spacing:0px;word-spacing:0px;writing-mode:lr-tb;text-anchor:start;fill:#f9f9f9;fill-opacity:1;stroke:none;font-family:Impact;-inkscape-font-specification:Impact"
       d="m 234.25781,287.46295 20.30274,0 0,1.79297 -20.30274,0 z" />
    <path
       inkscape:connector-curvature="0"
       id="path3036"
       style="font-size:36px;font-style:normal;font-variant:normal;font-weight:normal;font-stretch:normal;text-align:start;line-height:125%;letter-spacing:0px;word-spacing:0px;writing-mode:lr-tb;text-anchor:start;fill:#f9f9f9;fill-opacity:1;stroke:none;font-family:Impact;-inkscape-font-specification:Impact"
       d="m 254.15625,287.46295 20.30273,0 0,1.79297 -20.30273,0 z" />
    <path
       inkscape:connector-curvature="0"
       id="path3038"
       style="font-size:36px;font-style:normal;font-variant:normal;font-weight:normal;font-stretch:normal;text-align:start;line-height:125%;letter-spacing:0px;word-spacing:0px;writing-mode:lr-tb;text-anchor:start;fill:#f9f9f9;fill-opacity:1;stroke:none;font-family:Impact;-inkscape-font-specification:Impact"
       d="m 274.05469,287.46295 20.30273,0 0,1.79297 -20.30273,0 z" />
    <path
       inkscape:connector-curvature="0"
       id="path3040"
       style="font-size:36px;font-style:normal;font-variant:normal;font-weight:normal;font-stretch:normal;text-align:start;line-height:125%;letter-spacing:0px;word-spacing:0px;writing-mode:lr-tb;text-anchor:start;fill:#f9f9f9;fill-opacity:1;stroke:none;font-family:Impact;-inkscape-font-specification:Impact"
       d="m 293.95312,287.46295 20.30274,0 0,1.79297 -20.30274,0 z" />
    <path
       inkscape:connector-curvature="0"
       id="path3042"
       style="font-size:36px;font-style:normal;font-variant:normal;font-weight:normal;font-stretch:normal;text-align:start;line-height:125%;letter-spacing:0px;word-spacing:0px;writing-mode:lr-tb;text-anchor:start;fill:#f9f9f9;fill-opacity:1;stroke:none;font-family:Impact;-inkscape-font-specification:Impact"
       d="m 313.85156,287.46295 20.30274,0 0,1.79297 -20.30274,0 z" />
    <path
       inkscape:connector-curvature="0"
       id="path3044"
       style="font-size:36px;font-style:normal;font-variant:normal;font-weight:normal;font-stretch:normal;text-align:start;line-height:125%;letter-spacing:0px;word-spacing:0px;writing-mode:lr-tb;text-anchor:start;fill:#f9f9f9;fill-opacity:1;stroke:none;font-family:Impact;-inkscape-font-specification:Impact"
       d="m 333.75,287.46295 20.30273,0 0,1.79297 -20.30273,0 z" />
    <path
       inkscape:connector-curvature="0"
       id="path3046"
       style="font-size:36px;font-style:normal;font-variant:normal;font-weight:normal;font-stretch:normal;text-align:start;line-height:125%;letter-spacing:0px;word-spacing:0px;writing-mode:lr-tb;text-anchor:start;fill:#f9f9f9;fill-opacity:1;stroke:none;font-family:Impact;-inkscape-font-specification:Impact"
       d="m 353.64844,287.46295 20.30273,0 0,1.79297 -20.30273,0 z" />
    <path
       inkscape:connector-curvature="0"
       id="path3048"
       style="font-size:36px;font-style:normal;font-variant:normal;font-weight:normal;font-stretch:normal;text-align:start;line-height:125%;letter-spacing:0px;word-spacing:0px;writing-mode:lr-tb;text-anchor:start;fill:#f9f9f9;fill-opacity:1;stroke:none;font-family:Impact;-inkscape-font-specification:Impact"
       d="m 373.54687,287.46295 20.30274,0 0,1.79297 -20.30274,0 z" />
    <path
       inkscape:connector-curvature="0"
       id="path3050"
       style="font-size:36px;font-style:normal;font-variant:normal;font-weight:normal;font-stretch:normal;text-align:start;line-height:125%;letter-spacing:0px;word-spacing:0px;writing-mode:lr-tb;text-anchor:start;fill:#f9f9f9;fill-opacity:1;stroke:none;font-family:Impact;-inkscape-font-specification:Impact"
       d="m 393.44531,287.46295 20.30274,0 0,1.79297 -20.30274,0 z" />
    <path
       inkscape:connector-curvature="0"
       id="path3052"
       style="font-size:36px;font-style:normal;font-variant:normal;font-weight:normal;font-stretch:normal;text-align:start;line-height:125%;letter-spacing:0px;word-spacing:0px;writing-mode:lr-tb;text-anchor:start;fill:#f9f9f9;fill-opacity:1;stroke:none;font-family:Impact;-inkscape-font-specification:Impact"
       d="m 41.320312,301.29694 0,5.69531 -4.394531,0 0,22.76367 -7.40039,0 0,-22.76367 -4.376954,0 0,-5.69531 z" />
    <path
       inkscape:connector-curvature="0"
       id="path3054"
       style="font-size:36px;font-style:normal;font-variant:normal;font-weight:normal;font-stretch:normal;text-align:start;line-height:125%;letter-spacing:0px;word-spacing:0px;writing-mode:lr-tb;text-anchor:start;fill:#f9f9f9;fill-opacity:1;stroke:none;font-family:Impact;-inkscape-font-specification:Impact"
       d="m 58.880859,318.50592 -9.193359,0 0,5.04492 c -8e-6,1.05469 0.07616,1.73438 0.228516,2.03906 0.152335,0.3047 0.445303,0.45704 0.878906,0.45704 0.539053,0 0.899404,-0.20215 1.081055,-0.60645 0.18163,-0.40429 0.27245,-1.18652 0.27246,-2.34668 l 0,-3.07617 6.732422,0 0,1.72266 c -1.7e-5,1.44141 -0.09084,2.54883 -0.272461,3.32226 -0.181657,0.77344 -0.606461,1.59961 -1.274414,2.47852 -0.667984,0.8789 -1.514662,1.53808 -2.540039,1.97754 -1.025403,0.43945 -2.311534,0.65917 -3.858398,0.65918 -1.500008,-10e-6 -2.824225,-0.2168 -3.972656,-0.6504 -1.148442,-0.43359 -2.041996,-1.02831 -2.680664,-1.78417 -0.638674,-0.75586 -1.081057,-1.58789 -1.327149,-2.4961 -0.246095,-0.9082 -0.369142,-2.22948 -0.369141,-3.96387 l 0,-6.80273 c -1e-6,-2.03905 0.27539,-3.64744 0.826172,-4.8252 0.550779,-1.17771 1.453122,-2.08005 2.707032,-2.70703 1.2539,-0.62693 2.695305,-0.9404 4.324218,-0.94043 1.992177,3e-5 3.63573,0.37796 4.930664,1.13379 1.294907,0.75588 2.203109,1.75784 2.72461,3.00586 0.521467,1.24807 0.782209,3.00295 0.782226,5.26465 z m -7.11914,-3.79687 0,-1.70508 c -10e-6,-1.20702 -0.06446,-1.98631 -0.19336,-2.33789 -0.128916,-0.35155 -0.392587,-0.52733 -0.791015,-0.52735 -0.492197,2e-5 -0.796884,0.14944 -0.914063,0.44825 -0.117195,0.29884 -0.175789,1.10451 -0.175781,2.41699 l 0,1.70508 z" />
    <path
       inkscape:connector-curvature="0"
       id="path3056"
       style="font-size:36px;font-style:normal;font-variant:normal;font-weight:normal;font-stretch:normal;text-align:start;line-height:125%;letter-spacing:0px;word-spacing:0px;writing-mode:lr-tb;text-anchor:start;fill:#f9f9f9;fill-opacity:1;stroke:none;font-family:Impact;-inkscape-font-specification:Impact"
       d="m 67.564453,315.4649 -6.662109,0 0,-1.56445 c -10e-7,-1.80467 0.208006,-3.19627 0.624023,-4.1748 0.416014,-0.9785 1.250974,-1.84275 2.504883,-2.59278 1.253901,-0.74997 2.882806,-1.12497 4.886719,-1.125 2.402332,3e-5 4.212877,0.42483 5.43164,1.27442 1.218735,0.84963 1.951156,1.8926 2.197266,3.1289 0.246077,1.23635 0.369124,3.78225 0.369141,7.6377 l 0,11.70703 -6.908204,0 0,-2.07422 c -0.433603,0.83203 -0.993173,1.45606 -1.67871,1.87207 -0.685555,0.41602 -1.502937,0.62402 -2.452149,0.62403 -1.242192,-10e-6 -2.381839,-0.34864 -3.418945,-1.0459 -1.037111,-0.69727 -1.555665,-2.22363 -1.555664,-4.5791 l 0,-1.91602 c -10e-7,-1.74609 0.275389,-2.93554 0.826172,-3.56836 0.550779,-0.6328 1.916012,-1.37108 4.095703,-2.21484 2.332023,-0.91405 3.580068,-1.52929 3.74414,-1.84571 0.164053,-0.31639 0.246084,-0.96092 0.246094,-1.93359 -1e-5,-1.21873 -0.09083,-2.01268 -0.272461,-2.38184 -0.18165,-0.36912 -0.483407,-0.55369 -0.905273,-0.55371 -0.480477,2e-5 -0.779305,0.1553 -0.896485,0.46582 -0.117195,0.31057 -0.175788,1.11623 -0.175781,2.417 z m 2.25,3.19922 c -1.136727,0.83205 -1.795906,1.52931 -1.977539,2.0918 -0.181648,0.56251 -0.272468,1.3711 -0.272461,2.42578 -7e-6,1.20704 0.07909,1.98633 0.237305,2.33789 0.158195,0.35157 0.471671,0.52735 0.940429,0.52735 0.445304,0 0.735343,-0.1377 0.870118,-0.41309 0.134756,-0.27539 0.202138,-0.99902 0.202148,-2.1709 z" />
    <path
       inkscape:connector-curvature="0"
       id="path3058"
       style="font-size:36px;font-style:normal;font-variant:normal;font-weight:normal;font-stretch:normal;text-align:start;line-height:125%;letter-spacing:0px;word-spacing:0px;writing-mode:lr-tb;text-anchor:start;fill:#f9f9f9;fill-opacity:1;stroke:none;font-family:Impact;-inkscape-font-specification:Impact"
       d="m 95.056641,315.23639 -6.697266,0 0,-2.68945 c -1e-5,-0.93749 -0.07618,-1.57323 -0.228516,-1.90723 -0.152353,-0.33397 -0.433603,-0.50096 -0.84375,-0.50098 -0.410165,2e-5 -0.685555,0.14651 -0.826172,0.43946 -0.140633,0.29298 -0.210945,0.94923 -0.210937,1.96875 l 0,11.0039 c -8e-6,0.83204 0.10546,1.45606 0.316406,1.87207 0.210929,0.41602 0.521476,0.62403 0.931641,0.62403 0.480459,0 0.805654,-0.2168 0.975586,-0.65039 0.169911,-0.43359 0.254872,-1.25391 0.254883,-2.46094 l 0,-2.77735 6.328125,0 c -0.01174,1.86329 -0.07912,3.26075 -0.202149,4.19239 -0.123063,0.93164 -0.515641,1.88672 -1.177734,2.86523 -0.662124,0.97852 -1.526381,1.7168 -2.592774,2.21485 -1.066418,0.49804 -2.384776,0.74706 -3.955078,0.74707 -2.003913,-10e-6 -3.591802,-0.34278 -4.763672,-1.02832 -1.171878,-0.68555 -2.000978,-1.64649 -2.487304,-2.88282 -0.48633,-1.23632 -0.729494,-2.9912 -0.729493,-5.26465 l 0,-6.62695 c -10e-7,-1.98045 0.199218,-3.47459 0.597657,-4.48242 0.398435,-1.00779 1.248044,-1.90721 2.548828,-2.69824 1.300776,-0.791 2.882805,-1.1865 4.746094,-1.18653 1.851551,3e-5 3.433581,0.39261 4.746093,1.17774 1.312485,0.78518 2.185531,1.77541 2.619141,2.9707 0.433577,1.19533 0.650374,2.88869 0.650391,5.08008 z" />
    <path
       inkscape:connector-curvature="0"
       id="path3060"
       style="font-size:36px;font-style:normal;font-variant:normal;font-weight:normal;font-stretch:normal;text-align:start;line-height:125%;letter-spacing:0px;word-spacing:0px;writing-mode:lr-tb;text-anchor:start;fill:#f9f9f9;fill-opacity:1;stroke:none;font-family:Impact;-inkscape-font-specification:Impact"
       d="m 104.25,301.29694 0,6.39843 c 0.60937,-0.56247 1.26855,-0.98435 1.97754,-1.26562 0.70897,-0.28123 1.46776,-0.42185 2.27637,-0.42188 1.24217,3e-5 2.29979,0.31643 3.17285,0.94922 0.87303,0.63284 1.40623,1.36233 1.59961,2.18848 0.19334,0.82619 0.29002,2.33498 0.29004,4.52637 l 0,16.08398 -7.10157,0 0,-16.41797 c -10e-6,-1.35936 -0.0674,-2.2324 -0.20214,-2.61914 -0.13478,-0.3867 -0.43654,-0.58006 -0.90528,-0.58008 -0.4336,2e-5 -0.72657,0.19924 -0.8789,0.59766 -0.15236,0.39846 -0.22853,1.18947 -0.22852,2.37305 l 0,16.64648 -7.101563,0 0,-28.45898 z" />
    <path
       inkscape:connector-curvature="0"
       id="path3062"
       style="font-size:36px;font-style:normal;font-variant:normal;font-weight:normal;font-stretch:normal;text-align:start;line-height:125%;letter-spacing:0px;word-spacing:0px;writing-mode:lr-tb;text-anchor:start;fill:#f9f9f9;fill-opacity:1;stroke:none;font-family:Impact;-inkscape-font-specification:Impact"
       d="m 132.07617,318.50592 -9.19336,0 0,5.04492 c -1e-5,1.05469 0.0762,1.73438 0.22852,2.03906 0.15233,0.3047 0.4453,0.45704 0.8789,0.45704 0.53906,0 0.89941,-0.20215 1.08106,-0.60645 0.18163,-0.40429 0.27245,-1.18652 0.27246,-2.34668 l 0,-3.07617 6.73242,0 0,1.72266 c -2e-5,1.44141 -0.0908,2.54883 -0.27246,3.32226 -0.18166,0.77344 -0.60646,1.59961 -1.27441,2.47852 -0.66799,0.8789 -1.51467,1.53808 -2.54004,1.97754 -1.02541,0.43945 -2.31154,0.65917 -3.8584,0.65918 -1.50001,-10e-6 -2.82423,-0.2168 -3.97266,-0.6504 -1.14844,-0.43359 -2.04199,-1.02831 -2.68066,-1.78417 -0.63867,-0.75586 -1.08106,-1.58789 -1.32715,-2.4961 -0.24609,-0.9082 -0.36914,-2.22948 -0.36914,-3.96387 l 0,-6.80273 c 0,-2.03905 0.27539,-3.64744 0.82617,-4.8252 0.55078,-1.17771 1.45312,-2.08005 2.70703,-2.70703 1.2539,-0.62693 2.69531,-0.9404 4.32422,-0.94043 1.99218,3e-5 3.63573,0.37796 4.93067,1.13379 1.2949,0.75588 2.2031,1.75784 2.72461,3.00586 0.52146,1.24807 0.7822,3.00295 0.78222,5.26465 z m -7.11914,-3.79687 0,-1.70508 c -1e-5,-1.20702 -0.0645,-1.98631 -0.19336,-2.33789 -0.12891,-0.35155 -0.39259,-0.52733 -0.79101,-0.52735 -0.4922,2e-5 -0.79689,0.14944 -0.91407,0.44825 -0.11719,0.29884 -0.17579,1.10451 -0.17578,2.41699 l 0,1.70508 z" />
    <path
       inkscape:connector-curvature="0"
       id="path3064"
       style="font-size:36px;font-style:normal;font-variant:normal;font-weight:normal;font-stretch:normal;text-align:start;line-height:125%;letter-spacing:0px;word-spacing:0px;writing-mode:lr-tb;text-anchor:start;fill:#f9f9f9;fill-opacity:1;stroke:none;font-family:Impact;-inkscape-font-specification:Impact"
       d="m 141.51562,306.42975 -0.28125,3.05859 c 1.03125,-2.19138 2.52539,-3.35154 4.48243,-3.48047 l 0,8.20899 c -1.3008,10e-6 -2.25587,0.17579 -2.86524,0.52734 -0.60938,0.35158 -0.98438,0.84084 -1.125,1.46778 -0.14063,0.62696 -0.21094,2.0713 -0.21094,4.333 l 0,9.21094 -7.10156,0 0,-23.32617 z" />
    <path
       inkscape:connector-curvature="0"
       id="path3066"
       style="font-size:36px;font-style:normal;font-variant:normal;font-weight:normal;font-stretch:normal;text-align:start;line-height:125%;letter-spacing:0px;word-spacing:0px;writing-mode:lr-tb;text-anchor:start;fill:#f9f9f9;fill-opacity:1;stroke:none;font-family:Impact;-inkscape-font-specification:Impact"
       d="m 152.13281,332.46295 20.30274,0 0,1.79297 -20.30274,0 z" />
    <path
       inkscape:connector-curvature="0"
       id="path3068"
       style="font-size:36px;font-style:normal;font-variant:normal;font-weight:normal;font-stretch:normal;text-align:start;line-height:125%;letter-spacing:0px;word-spacing:0px;writing-mode:lr-tb;text-anchor:start;fill:#f9f9f9;fill-opacity:1;stroke:none;font-family:Impact;-inkscape-font-specification:Impact"
       d="m 172.03125,332.46295 20.30273,0 0,1.79297 -20.30273,0 z" />
    <path
       inkscape:connector-curvature="0"
       id="path3070"
       style="font-size:36px;font-style:normal;font-variant:normal;font-weight:normal;font-stretch:normal;text-align:start;line-height:125%;letter-spacing:0px;word-spacing:0px;writing-mode:lr-tb;text-anchor:start;fill:#f9f9f9;fill-opacity:1;stroke:none;font-family:Impact;-inkscape-font-specification:Impact"
       d="m 191.92969,332.46295 20.30273,0 0,1.79297 -20.30273,0 z" />
    <path
       inkscape:connector-curvature="0"
       id="path3072"
       style="font-size:36px;font-style:normal;font-variant:normal;font-weight:normal;font-stretch:normal;text-align:start;line-height:125%;letter-spacing:0px;word-spacing:0px;writing-mode:lr-tb;text-anchor:start;fill:#f9f9f9;fill-opacity:1;stroke:none;font-family:Impact;-inkscape-font-specification:Impact"
       d="m 211.82812,332.46295 20.30274,0 0,1.79297 -20.30274,0 z" />
    <path
       inkscape:connector-curvature="0"
       id="path3074"
       style="font-size:36px;font-style:normal;font-variant:normal;font-weight:normal;font-stretch:normal;text-align:start;line-height:125%;letter-spacing:0px;word-spacing:0px;writing-mode:lr-tb;text-anchor:start;fill:#f9f9f9;fill-opacity:1;stroke:none;font-family:Impact;-inkscape-font-specification:Impact"
       d="m 231.72656,332.46295 20.30274,0 0,1.79297 -20.30274,0 z" />
    <path
       inkscape:connector-curvature="0"
       id="path3076"
       style="font-size:36px;font-style:normal;font-variant:normal;font-weight:normal;font-stretch:normal;text-align:start;line-height:125%;letter-spacing:0px;word-spacing:0px;writing-mode:lr-tb;text-anchor:start;fill:#f9f9f9;fill-opacity:1;stroke:none;font-family:Impact;-inkscape-font-specification:Impact"
       d="m 251.625,332.46295 20.30273,0 0,1.79297 -20.30273,0 z" />
    <path
       inkscape:connector-curvature="0"
       id="path3078"
       style="font-size:36px;font-style:normal;font-variant:normal;font-weight:normal;font-stretch:normal;text-align:start;line-height:125%;letter-spacing:0px;word-spacing:0px;writing-mode:lr-tb;text-anchor:start;fill:#f9f9f9;fill-opacity:1;stroke:none;font-family:Impact;-inkscape-font-specification:Impact"
       d="m 271.52344,332.46295 20.30273,0 0,1.79297 -20.30273,0 z" />
    <path
       inkscape:connector-curvature="0"
       id="path3080"
       style="font-size:36px;font-style:normal;font-variant:normal;font-weight:normal;font-stretch:normal;text-align:start;line-height:125%;letter-spacing:0px;word-spacing:0px;writing-mode:lr-tb;text-anchor:start;fill:#f9f9f9;fill-opacity:1;stroke:none;font-family:Impact;-inkscape-font-specification:Impact"
       d="m 291.42187,332.46295 20.30274,0 0,1.79297 -20.30274,0 z" />
    <path
       inkscape:connector-curvature="0"
       id="path3082"
       style="font-size:36px;font-style:normal;font-variant:normal;font-weight:normal;font-stretch:normal;text-align:start;line-height:125%;letter-spacing:0px;word-spacing:0px;writing-mode:lr-tb;text-anchor:start;fill:#f9f9f9;fill-opacity:1;stroke:none;font-family:Impact;-inkscape-font-specification:Impact"
       d="m 311.32031,332.46295 20.30274,0 0,1.79297 -20.30274,0 z" />
    <path
       inkscape:connector-curvature="0"
       id="path3084"
       style="font-size:36px;font-style:normal;font-variant:normal;font-weight:normal;font-stretch:normal;text-align:start;line-height:125%;letter-spacing:0px;word-spacing:0px;writing-mode:lr-tb;text-anchor:start;fill:#f9f9f9;fill-opacity:1;stroke:none;font-family:Impact;-inkscape-font-specification:Impact"
       d="m 331.21875,332.46295 20.30273,0 0,1.79297 -20.30273,0 z" />
    <path
       inkscape:connector-curvature="0"
       id="path3086"
       style="font-size:36px;font-style:normal;font-variant:normal;font-weight:normal;font-stretch:normal;text-align:start;line-height:125%;letter-spacing:0px;word-spacing:0px;writing-mode:lr-tb;text-anchor:start;fill:#f9f9f9;fill-opacity:1;stroke:none;font-family:Impact;-inkscape-font-specification:Impact"
       d="m 351.11719,332.46295 20.30273,0 0,1.79297 -20.30273,0 z" />
    <path
       inkscape:connector-curvature="0"
       id="path3088"
       style="font-size:36px;font-style:normal;font-variant:normal;font-weight:normal;font-stretch:normal;text-align:start;line-height:125%;letter-spacing:0px;word-spacing:0px;writing-mode:lr-tb;text-anchor:start;fill:#f9f9f9;fill-opacity:1;stroke:none;font-family:Impact;-inkscape-font-specification:Impact"
       d="m 371.01562,332.46295 20.30274,0 0,1.79297 -20.30274,0 z" />
    <path
       inkscape:connector-curvature="0"
       id="path3090"
       style="font-size:36px;font-style:normal;font-variant:normal;font-weight:normal;font-stretch:normal;text-align:start;line-height:125%;letter-spacing:0px;word-spacing:0px;writing-mode:lr-tb;text-anchor:start;fill:#f9f9f9;fill-opacity:1;stroke:none;font-family:Impact;-inkscape-font-specification:Impact"
       d="m 390.91406,332.46295 20.30274,0 0,1.79297 -20.30274,0 z" />
  </g>
</svg>
