<?xml version="1.0" encoding="UTF-8" standalone="no"?>
<!-- Created with Inkscape (http://www.inkscape.org/) -->

<svg
   xmlns:dc="http://purl.org/dc/elements/1.1/"
   xmlns:cc="http://creativecommons.org/ns#"
   xmlns:rdf="http://www.w3.org/1999/02/22-rdf-syntax-ns#"
   xmlns:svg="http://www.w3.org/2000/svg"
   xmlns="http://www.w3.org/2000/svg"
   xmlns:sodipodi="http://sodipodi.sourceforge.net/DTD/sodipodi-0.dtd"
   xmlns:inkscape="http://www.inkscape.org/namespaces/inkscape"
   width="288.69363mm"
   height="288.65338mm"
   viewBox="0 0 1022.9302 1022.7876"
   id="svg6127"
   version="1.1"
   inkscape:version="0.91 r13725"
   sodipodi:docname="Seicho-No-Ie.svg">
  <defs
     id="defs6129" />
  <sodipodi:namedview
     id="base"
     pagecolor="#ffffff"
     bordercolor="#666666"
     borderopacity="1.0"
     inkscape:pageopacity="0.0"
     inkscape:pageshadow="2"
     inkscape:zoom="0.35"
     inkscape:cx="-37.743128"
     inkscape:cy="271.28747"
     inkscape:document-units="px"
     inkscape:current-layer="layer1"
     showgrid="false"
     fit-margin-top="0"
     fit-margin-left="0"
     fit-margin-right="0"
     fit-margin-bottom="0"
     inkscape:window-width="1916"
     inkscape:window-height="1035"
     inkscape:window-x="4"
     inkscape:window-y="1"
     inkscape:window-maximized="1" />
  <metadata
     id="metadata6132">
    <rdf:RDF>
      <cc:Work
         rdf:about="">
        <dc:format>image/svg+xml</dc:format>
        <dc:type
           rdf:resource="http://purl.org/dc/dcmitype/StillImage" />
        <dc:title></dc:title>
      </cc:Work>
    </rdf:RDF>
  </metadata>
  <g
     inkscape:label="Layer 1"
     inkscape:groupmode="layer"
     id="layer1"
     transform="translate(51.542586,219.13787)">
    <g
       id="g6701">
      <path
         sodipodi:nodetypes="csssscccsssssscscsssssscsssssscccscsssssscsccsscssscsssssscccsssscccssssscccsscsscsscscsccssccssccssssssscssssssssssssssssssssssscssssscsscsssssscssssssssssscsssssssssscccsssssssssssssssccssscscssssscsssssssssssssscccsscsscsssssscsssscssccsscscsssscccccsscccccccssscccccccsssscccccsssscccccssssss"
         style="fill:#ff0000;fill-opacity:1"
         d="m 483.9594,800.75597 c -0.60529,-1.5916 -3.79433,-13.2438 -7.08675,-25.8938 -11.58396,-44.5073 -16.57653,-58.4354 -22.67221,-63.25 -4.40981,-3.4831 -10.07671,0.167 -15.91359,10.25 -5.47203,9.4527 -16.87677,37.2783 -31.50255,76.8607 -1.00202,2.7119 -1.29719,2.8316 -5.67062,2.301 -2.53746,-0.3078 -7.15356,-0.8536 -10.258,-1.2127 l -5.64443,-0.6531 -0.59208,-6.1479 c -0.32565,-3.3814 -1.05554,-15.148 -1.62199,-26.148 -1.8744,-36.3997 -4.1907,-54.4303 -8.18525,-63.7158 -2.48272,-5.7713 -3.34449,-6.526 -8.36941,-7.3295 -3.61834,-0.5786 -4.36132,-0.2783 -8.6492,3.4961 -8.14555,7.17 -15.7414,18.6106 -35.55321,53.5492 -15.69802,27.6838 -15.57749,27.4863 -16.78523,27.4936 -0.57488,0 -4.84988,-1.277 -9.5,-2.8456 l -8.45477,-2.852 0.31787,-3.898 c 0.17483,-2.1439 2.06962,-15.148 4.21064,-28.898 4.97474,-31.9487 6.3344,-45.0356 5.71421,-55 -0.65942,-10.5947 -2.60473,-15.1266 -7.34282,-17.1063 -3.56312,-1.4888 -3.86578,-1.4389 -10.20023,1.6795 -8.49437,4.1818 -21.78931,17.351 -46.2857,45.848 -10.12768,11.7817 -19.14606,21.8695 -20.04085,22.4172 -1.24385,0.7615 -3.55158,-0.1324 -9.8019,-3.7967 -7.97073,-4.6729 -8.1585,-4.8707 -7.51416,-7.9172 0.36347,-1.7185 5.36066,-17.0745 11.10486,-34.1245 11.49606,-34.1228 16.33808,-51.3251 16.33808,-58.0446 0,-3.5977 -0.45935,-4.7103 -2.49559,-6.0445 -5.28859,-3.4652 -14.20386,0.9774 -41.69919,20.7791 -38.79387,27.9389 -42.39857,30.4987 -45.48775,32.3028 l -3.18257,1.8587 -4.3174,-3.6261 c -2.3746,-1.9943 -6.1175,-5.2 -8.3175,-7.1237 l -4,-3.4976 4.404,-8.3021 c 2.4222,-4.5661 9.8094,-17.752 16.41606,-29.302 14.64846,-25.6091 23.25304,-43.1267 24.76784,-50.4234 1.13702,-5.477 1.13408,-5.4891 -2.02957,-8.3158 -2.68921,-2.4028 -3.72691,-2.7351 -6.86328,-2.1975 -11.18037,1.9165 -21.56785,6.1738 -60.132946,24.6453 l -31.4379,15.0578 -2.311,-2.8832 c -1.2711,-1.5858 -3.6614,-4.7566 -5.3118,-7.0462 l -3.0007,-4.1631 17.1963,-19.3369 c 30.825,-34.6622 41.047796,-48.0365 44.375896,-58.0564 1.3192,-3.9717 1.4008,-5.43 0.4343,-7.7632 -2.3615,-5.7013 -4.2748,-6.5273 -14.865396,-6.4176 -11.972,0.124 -24.5648,2.7439 -61.5567,12.8066 -15.3532,4.1765 -28.4255997,7.5936 -29.0497997,7.5936 -1.4733,0 -9.0066,-15.4284 -8.1835,-16.7602 0.3452,-0.5586 8.8448,-7.23 18.8878997,-14.8253 25.1152,-18.994 35.9463,-27.5811 44.9506,-35.6378 7.882,-7.0526 13.8097,-14.7364 13.8097,-17.9011 0,-4.1406 -2.302,-6.8154 -7.396,-8.5938 -4.3995,-1.5359 -8.7616,-1.7818 -31.604,-1.7818 -14.575,0 -35.97489971,0.3995 -47.5554,0.8877 l -21.0553,0.8878 -2.2656,-8.2669 c -1.246,-4.5467 -1.8961,-8.6184 -1.4446,-9.0481 0.4515,-0.4298 13.1959,-7.1761 28.3209003,-14.9919 49.7452997,-25.7057 60.9999997,-33.2978 60.9999997,-41.1485 0,-2.8937 -0.5671,-4.1456 -2.4312,-5.367 -7.4502,-4.8816 -20.2811,-7.6745 -63.9372,-13.9173 -17.5277,-2.5065 -32.9441,-4.8271 -34.2587,-5.1571 -2.7843,-0.6988 -3.18,-2.0896 -3.6036,-12.66634 l -0.312,-7.78761 8.0214,-2.40653 c 4.4117,-1.3236 17.4713,-4.94413 29.0213,-8.04563 37.3181,-10.02095 52.9649,-15.33038 59.25,-20.10532 2.532,-1.92361 3.25,-3.21144 3.25,-5.82931 0,-7.46541 -11.3833,-13.27844 -66,-33.70382 -16.225,-6.06777 -29.7577,-11.18995 -30.0726,-11.38263 -0.3149,-0.19267 -0.09,-4.06985 0.5,-8.61596 l 1.0726,-8.26564 3.5,-0.74722 c 1.925,-0.41098 16.1,-1.68426 31.5,-2.82952 43.8166,-3.25855 65.347,-7.08133 68.9635,-12.24464 0.8451,-1.20647 1.5365,-3.70743 1.5365,-5.5577 0,-6.94379 -14.1393,-17.53297 -59.49999971,-44.56057 -12.65000029,-7.53735 -23.77960029,-14.29396 -24.73250029,-15.0147 -1.6265,-1.23034 -1.5602,-1.82406 1.0846,-9.71302 3.4594,-10.31854 2.0168,-9.99319 28.3793003,-6.40083 38.3561997,5.22671 50.3423997,6.49815 61.2082997,6.49267 13.3148,-0.007 17.8138,-1.06054 19.4012,-4.54454 1.8195,-3.99339 1.4286,-5.72888 -2.7132,-12.04484 -5.2325,-7.97942 -16.1133,-18.817289 -44.9193,-44.742119 l -24.2639,-21.83707 1.8961,-3.16293 c 1.0429,-1.7396 3.122,-5.29854 4.6203,-7.90874 3.2906,-5.73245 0.5708,-6.15773 30.5391,4.77529 56.965596,20.78216 70.865096,23.43344 75.532596,14.40756 1.505,-2.91045 1.5044,-3.53839 -0.01,-8.29296 -2.5918,-8.14868 -10.4335,-20.28354 -30.464996,-47.1440696 -10.2542,-13.7500004 -20.0903,-27.1100704 -21.858,-29.6890504 l -3.214,-4.68906 6.6205,-7.56094 c 3.6415,-4.15852 7.0372,-7.56095 7.5462,-7.56095 1.6589,0 8.2276,3.692 30.464096,17.1228 26.68325,16.11662 41.68628,24.03908 50.73694,26.79202 8.91355,2.7112304 10.84121,2.6321204 14.68555,-0.60268 3.17062,-2.6679 3.1909,-2.74399 2.73207,-10.25 -0.63881,-10.45041 -5.65011,-22.74816 -23.94238,-58.75468 -8.15682,-16.0559 -14.83058,-29.428311 -14.83058,-29.716481 0,-0.89289 13.2332,-10.59311 14.39913,-10.55488 0.60548,0.0199 5.82587,4.33735 11.60087,9.59443 38.20816,34.781541 50.33964,44.792301 60.44634,49.879661 6.31098,3.17672 10.62045,3.19818 14.2479,0.071 2.80419,-2.4175 2.8057,-2.42574 2.70283,-14.75 -0.11804,-14.14216 -1.69778,-22.38038 -11.9654,-62.398771 -3.53742,-13.78723 -6.43167,-25.36908 -6.43167,-25.73747 0,-1.15489 14.0306,-7.79408 15.08893,-7.13999 0.55337,0.342 7.80456,9.69454 16.11377,20.78343 26.09772,34.82819 40.35615,50.490201 49.40891,54.272691 2.69331,1.12534 3.75605,1.08361 7.23812,-0.28419 3.54026,-1.39065 4.31787,-2.28084 5.86579,-6.715031 1.51476,-4.33921 1.76798,-8.36155 1.67533,-26.61186 -0.06,-11.825 -0.84753,-29.73963 -1.75,-39.81028 -2.19454,-24.48895 -2.1724,-30.89558 0.10915,-31.57963 5.82809,-1.74736 16.87622,-4.61009 17.79173,-4.61009 0.59505,0 3.84102,5.7375 7.21326,12.75 3.37223,7.0125 10.66732,22.17893 16.2113,33.70317 11.58852,24.08901 17.33292,33.77755 23.1347,39.0191 3.66843,3.31421 4.49772,3.63829 7.7534,3.02995 4.72166,-0.88226 5.51665,-1.61268 7.97501,-7.32729 3.2301,-7.50857 5.82824,-22.46121 9.15267,-52.67493 3.87838,-35.2482 4.72406,-40.28711 6.86417,-40.89966 0.90957,-0.26034 5.92237,-0.61442 11.13957,-0.78684 l 9.48581,-0.3135 6.24306,22 c 13.32425,46.9535 17.60778,59.35786 23.91375,69.25 3.08225,4.83512 3.64902,5.25 7.17206,5.25 8.27022,0 13.46272,-10.14559 29.6843,-58 4.56772,-13.475 9.26779,-27.0426 10.4446,-30.15021 l 2.13964,-5.65022 4.21548,0.53816 c 2.31852,0.29599 7.58875,1.03983 11.71162,1.65299 l 7.49614,1.11482 0.71791,5.74732 c 0.39486,3.16102 1.86664,18.68478 3.27064,34.49723 3.914,44.0812 6.95212,59.32342 12.22402,61.32779 3.96906,1.50903 5.11986,1.1249 9.93971,-3.31789 6.02445,-5.55314 15.97234,-20.75724 32.88461,-50.25999 7.56683,-13.2 14.59968,-25.20345 15.62856,-26.67433 l 1.87071,-2.67433 8.98578,3.01367 c 6.49929,2.17975 8.98541,3.47321 8.98442,4.67433 -7.6e-4,0.91336 -1.32948,12.52174 -2.95272,25.7964 -5.38841,44.06586 -6.24311,63.589871 -3.13702,71.659331 1.39574,3.62604 6.40283,5.84083 10.20677,4.51476 5.46226,-1.90415 17.80786,-13.90887 36.91928,-35.899881 22.43854,-25.81943 29.88641,-33.90995 31.2164,-33.90995 0.52079,0 5.20609,2.50667 10.41178,5.57038 9.35815,5.50756 9.45715,5.60623 8.77959,8.75 -0.3769,1.74879 -4.67026,15.3963 -9.54079,30.3278 -11.21069,34.368421 -13.9491,44.746801 -14.6192,55.405631 l -0.53776,8.5538 3.30954,2.78479 c 2.62199,2.20626 3.9469,2.65922 6.37752,2.18034 8.26607,-1.62858 21.87787,-10.87626 48.06798,-32.65674 25.65816,-21.3381 29.33778,-24.13196 30.7124,-23.31932 3.0935,1.82878 15.7876,13.76017 15.7876,14.83902 0,0.65481 -6.56525,12.18715 -14.58945,25.62743 -29.15992,48.8419804 -33.34419,59.2150504 -26.75323,66.3231004 2.48927,2.6845696 3.01573,2.8283396 8.32508,2.2733996 9.20909,-0.96254 21.90799,-6.0005696 50.0176,-19.8434296 14.575,-7.1776104 28.79592,-14.0874304 31.60205,-15.3551604 l 5.10206,-2.30496 6.2524,8.44188 6.2524,8.4418804 -4.85445,5.68976 c -2.66995,3.12937003 -10.64809,12.23017 -17.7292,20.2239896 -27.6635,31.22915 -38.94181,47.66471 -37.27243,54.31605 0.31337,1.24859 1.50472,3.2737 2.64743,4.50026 1.80217,1.9344 3.10008,2.23008 9.7887,2.22993 11.91424,-2.7e-4 19.38849,-1.60708 60.7643,-13.06313 13.77929,-3.81519 25.71523,-6.9367 26.52432,-6.9367 0.86157,0 3.44996,3.98372 6.24742,9.61525 4.60962,9.27958 4.7145,9.68362 3.00432,11.57335 -0.97463,1.07695 -10.10994,8.31879 -20.30069,16.09297 -34.4471,26.278539 -45.28459,35.614789 -50.51349,43.516189 -2.53972,3.83777 -2.6602,4.43782 -1.46864,7.3145 0.8309,2.00598 2.58559,3.69257 4.87577,4.68654 5.518,2.39489 31.23942,2.68161 65.50942,0.73025 16.39028,-0.93327 30.12441,-1.3216 30.52031,-0.86295 0.3959,0.45864 1.72,4.6589 2.9425,9.3339 1.2224,4.675 2.4526,9.29061 2.7336,10.25692 0.4224,1.45193 -5.4465,4.67656 -33.80852,18.57591 -45.60847,22.35133 -53.59786,27.57398 -51.91349,33.93576 1.65603,6.25477 13.6505,9.71174 61.59391,17.75219 18.15,3.04389 33.7577,5.76782 34.6838,6.05317 1.7492,0.53894 2.3847,4.06511 3.1068,17.23811 0.2746,5.00893 0.015,6.489 -1.2554,7.16911 -0.8808,0.47138 -12.3865,3.62449 -25.56832,7.0069 -42.72273,10.96256 -56.14571,15.47864 -64.14784,21.58216 -2.7525,2.09944 -3.31904,3.19321 -3.31904,6.40786 0,3.25641 0.59393,4.36587 3.71399,6.93769 8.14807,6.71633 21.26563,12.3274 60.85859,26.03246 14.11112,4.8845 26.02582,9.2569 26.47702,9.7164 0.7924,0.8067 -1.1934,19.8125 -2.1724,20.7915 -0.4642,0.4642 -9.9886,1.2327 -44.3772,3.5806 -28.79591,1.9661 -47.06823,5.3638 -52.50023,9.7624 -1.49206,1.2082 -2.36775,3.2859 -2.72658,6.4694 -0.52332,4.643 -0.46968,4.7472 5.38054,10.4606 7.78716,7.605 20.51127,15.9096 50.82631,33.1726 13.73901,7.8238 25.09646,14.3414 25.23876,14.4837 0.1423,0.1423 -1.12642,4.3888 -2.81938,9.4367 -2.96615,8.844 -3.18711,9.1779 -6.07491,9.1779 -1.64824,0 -14.3331,-1.3428 -28.18858,-2.9839 -41.4235,-4.9065 -60.20003,-5.6107 -67.79437,-2.5425 -2.87387,1.1611 -4.28471,6.0423 -2.78966,9.6517 3.56369,8.6035 16.54959,22.5167 45.97287,49.2556 9.61138,8.7345 18.55249,16.9095 19.86914,18.1666 l 2.39391,2.2857 -4.66301,7.9539 -4.66301,7.9538 -29.7309,-9.7607 c -35.9122,-11.79 -49.03988,-15.1749 -59.53182,-15.35 -7.20183,-0.1202 -7.95346,0.062 -9.78704,2.3698 -5.41079,6.8107 3.29942,22.7959 38.47388,70.6079 14.6086,19.8572 14.17537,17.7985 5.71158,27.1416 l -4.75549,5.2495 -22.42101,-13.1381 c -37.1621,-21.776 -56.40058,-30.8609 -65.35202,-30.8609 -4.80655,0 -7.84867,3.7022 -7.73406,9.4123 0.22197,11.0588 4.91571,23.0973 28.55309,73.2329 4.1866,8.8799 7.61199,16.3972 7.61199,16.7051 0,0.3079 -3.57519,3.2813 -7.94486,6.6077 l -7.94487,6.0479 -12.80513,-10.7375 c -7.04283,-5.9056 -18.65514,-15.6295 -25.80514,-21.6087 -21.98983,-18.3891 -35.98042,-27.6597 -41.74204,-27.6597 -10.1984,0 -9.31002,13.2217 4.70436,70.0145 4.13748,16.767 7.52607,30.9477 7.53019,31.5126 0.007,0.9823 -16.05558,9.4729 -17.92109,9.4729 -0.49455,0 -10.48829,-11.8125 -22.2083,-26.25 -22.39014,-27.5817 -37.60558,-44.2193 -43.18963,-47.2265 -2.95345,-1.5906 -3.66704,-1.6358 -6.25368,-0.396 -5.59635,2.6822 -5.96494,5.5423 -5.52508,42.8725 0.2171,18.425 0.4421,39.5283 0.5,46.8964 l 0.10527,13.3965 -8.5,2.338 c -4.675,1.2859 -8.76075,2.345 -9.07945,2.3536 -0.63978,0.017 -7.29624,-11.625 -23.25625,-40.6749 -12.1582,-22.1299 -18.46851,-32.0255 -24.31097,-38.1236 -3.50143,-3.6547 -4.66034,-4.2782 -7.44768,-4.0071 -6.88465,0.6696 -9.91718,11.3543 -16.97826,59.8205 -2.76444,18.9747 -5.40371,34.8769 -5.86505,35.3383 -0.46133,0.4613 -5.37563,1.0887 -10.92065,1.3943 l -10.08187,0.5555 -1.10053,-2.8937 z m 11.68207,-188.9254 c 26.74349,-2.8085 51.89441,-8.6437 76.10864,-17.6577 l 5.25,-1.9544 0,-96.9282 0,-96.9281 54,0 54,0 0,60.6743 0,60.6743 2.62029,-2.4243 c 1.44116,-1.3334 7.18486,-7.8736 12.76378,-14.5338 73.87314,-88.1906 94.44371,-210.02668 53.78645,-318.56813 l -3.86655,-10.32241 -91.15198,-0.25526 -91.15199,-0.25526 0,-52.49474 0,-52.494739 54.94014,0 54.94014,0 -5.19014,-4.84724 c -25.31976,-23.64694 -63.12776,-46.8568 -97.19014,-59.6638196 -36.18548,-13.60528 -66.28608,-19.3628204 -105.5,-20.1796904 -35.21123,-0.73348 -64.35317,2.81252 -94,11.4379704 l -9.5,2.76392 -0.25515,93.2444296 -0.25516,93.244429 -55.49484,0 -55.49485,0 0,-59.5 c 0,-32.724999 -0.34876,-59.499999 -0.77503,-59.499999 -2.41587,0 -27.86523,28.56632 -38.72472,43.467609 -58.76772,80.64044 -76.57295,185.62124 -47.7492,281.53243 l 3.75657,12.5 95.74619,0.255 95.74619,0.255 0,52.995 0,52.995 -64,0 c -35.2,0 -64,0.3823 -64,0.8495 0,1.6003 27.49143,27.7361 38,36.1263 21.07342,16.8251 50.76445,34.3515 75.23893,44.4128 26.51152,10.8987 58.36112,18.8315 86.26107,21.4851 15.10473,1.4366 45.52183,1.235 61.14136,-0.4053 z"
         id="path6688"
         inkscape:connector-curvature="0" />
      <path
         sodipodi:nodetypes="ssccsssssssssscsssscsssscscscscsscs"
         inkscape:connector-curvature="0"
         id="path6686"
         d="m 398.6232,473.25037 c -0.28568,-1.8635 -1.45016,-25.1831 -2.58773,-51.8214 -1.13757,-26.6382 -2.23312,-48.5979 -2.43455,-48.7994 -0.43217,-0.4321 -79.12774,-3.2124 -91.85081,-3.245 -4.8125,-0.012 -8.75,-0.4385 -8.75,-0.947 0,-0.5085 15.075,-17.9244 33.5,-38.70191 18.425,-20.77756 33.5,-38.11321 33.5,-38.52367 0,-0.41045 -15.53758,-17.75708 -34.52796,-38.54807 -32.03891,-35.07672 -34.32771,-37.8223 -31.75,-38.08635 1.52788,-0.15651 24.27051,-1.32407 50.53919,-2.59457 26.26868,-1.2705 47.92829,-2.49244 48.13248,-2.71543 0.20419,-0.22299 1.09715,-23.54095 1.98435,-51.81769 0.88721,-28.27673 1.7899,-51.58904 2.00599,-51.80513 0.31036,-0.31036 52.19087,47.70521 71.15355,65.85283 l 4.03761,3.86406 36.8568,-35.52201 c 20.27124,-19.53711 37.07242,-35.3064 37.33596,-35.04286 0.26354,0.26354 1.5249,23.4999 2.80301,51.63634 1.27812,28.13645 2.50208,51.33541 2.71991,51.55324 0.44179,0.44179 80.79764,3.35183 92.95911,3.36646 4.2625,0.005 7.75,0.37032 7.75,0.81154 0,0.44122 -15.075,17.83177 -33.5,38.64566 -18.425,20.81388 -33.5,38.22867 -33.5,38.69953 0,0.47086 15.53548,17.84281 34.52329,38.60435 34.09566,37.28068 34.48274,37.75188 31.25,38.03948 -1.80031,0.1601 -24.51718,1.304 -50.48194,2.5419 -25.96475,1.238 -47.42064,2.4628 -47.67976,2.7219 -0.25912,0.2592 -1.21386,23.6389 -2.12165,51.955 -0.90779,28.3161 -1.8036,51.637 -1.99068,51.824 -0.27436,0.2744 -51.9358,-47.7005 -70.59968,-65.5616 l -4.60043,-4.4026 -32.89957,31.7228 c -18.09477,17.4476 -34.78002,33.5141 -37.07833,35.7034 l -4.17874,3.9805 z"
         style="fill:#008000;fill-opacity:1" />
    </g>
  </g>
</svg>
