<?xml version="1.0" encoding="UTF-8" standalone="no"?>
<!-- Created with Inkscape (http://www.inkscape.org/) -->

<svg
   xmlns:dc="http://purl.org/dc/elements/1.1/"
   xmlns:cc="http://creativecommons.org/ns#"
   xmlns:rdf="http://www.w3.org/1999/02/22-rdf-syntax-ns#"
   xmlns:svg="http://www.w3.org/2000/svg"
   xmlns="http://www.w3.org/2000/svg"
   xmlns:xlink="http://www.w3.org/1999/xlink"
   xmlns:sodipodi="http://sodipodi.sourceforge.net/DTD/sodipodi-0.dtd"
   xmlns:inkscape="http://www.inkscape.org/namespaces/inkscape"
   width="799.57977"
   height="799.57977"
   id="svg10639"
   version="1.1"
   inkscape:version="0.48.4 r9939"
   sodipodi:docname="Новый документ 25">
  <defs
     id="defs10641">
    <filter
       color-interpolation-filters="sRGB"
       inkscape:collect="always"
       id="filter14170"
       x="-0.26666668"
       width="1.5333333"
       y="-0.26666668"
       height="1.5333333">
      <feGaussianBlur
         inkscape:collect="always"
         stdDeviation="28.912811"
         id="feGaussianBlur14172" />
    </filter>
    <radialGradient
       inkscape:collect="always"
       xlink:href="#linearGradient14146"
       id="radialGradient14152"
       cx="-3948.4844"
       cy="-9517.4697"
       fx="-3948.4844"
       fy="-9517.4697"
       r="130.10765"
       gradientUnits="userSpaceOnUse"
       gradientTransform="matrix(-0.00879936,0.8475801,-0.90675213,-0.00941367,-12613.215,-6260.4075)" />
    <linearGradient
       id="linearGradient14146">
      <stop
         style="stop-color:#cad6f2;stop-opacity:1"
         offset="0"
         id="stop14148" />
      <stop
         id="stop14154"
         offset="0.5"
         style="stop-color:#8792c6;stop-opacity:1" />
      <stop
         style="stop-color:#213f89;stop-opacity:0"
         offset="1"
         id="stop14150" />
    </linearGradient>
    <radialGradient
       r="130.10765"
       fy="-9517.4697"
       fx="-3948.4844"
       cy="-9517.4697"
       cx="-3948.4844"
       gradientTransform="matrix(-0.00879936,0.8475801,-0.90675213,-0.00941367,-12613.215,-6260.4075)"
       gradientUnits="userSpaceOnUse"
       id="radialGradient10637"
       xlink:href="#linearGradient14146"
       inkscape:collect="always" />
    <radialGradient
       inkscape:collect="always"
       xlink:href="#linearGradient14146"
       id="radialGradient11170"
       gradientUnits="userSpaceOnUse"
       gradientTransform="matrix(-0.00879936,0.8475801,-0.90675213,-0.00941367,-12613.215,-6260.4075)"
       cx="-3948.4844"
       cy="-9517.4697"
       fx="-3948.4844"
       fy="-9517.4697"
       r="130.10765" />
  </defs>
  <sodipodi:namedview
     id="base"
     pagecolor="#ffffff"
     bordercolor="#666666"
     borderopacity="1.0"
     inkscape:pageopacity="0.0"
     inkscape:pageshadow="2"
     inkscape:zoom="0.35"
     inkscape:cx="1136.4685"
     inkscape:cy="322.89703"
     inkscape:document-units="px"
     inkscape:current-layer="layer1"
     showgrid="false"
     fit-margin-top="0"
     fit-margin-left="0"
     fit-margin-right="0"
     fit-margin-bottom="0"
     inkscape:window-width="1920"
     inkscape:window-height="1018"
     inkscape:window-x="-8"
     inkscape:window-y="-8"
     inkscape:window-maximized="1" />
  <metadata
     id="metadata10644">
    <rdf:RDF>
      <cc:Work
         rdf:about="">
        <dc:format>image/svg+xml</dc:format>
        <dc:type
           rdf:resource="http://purl.org/dc/dcmitype/StillImage" />
        <dc:title></dc:title>
      </cc:Work>
    </rdf:RDF>
  </metadata>
  <g
     inkscape:label="Layer 1"
     inkscape:groupmode="layer"
     id="layer1"
     transform="translate(1148.6113,-55.679443)">
    <rect
       style="fill:#000000;fill-opacity:1;stroke:none"
       id="rect11163"
       width="799.57977"
       height="799.57977"
       x="-1148.6113"
       y="55.679443"
       rx="0.41684714"
       ry="0.45168993" />
    <g
       id="g11165"
       transform="translate(-1123.8215,-76.89306)">
      <path
         sodipodi:type="arc"
         style="fill:url(#radialGradient11170);fill-opacity:1;stroke:none"
         id="path14133"
         sodipodi:cx="-3948.4844"
         sodipodi:cy="-9517.4697"
         sodipodi:rx="130.10765"
         sodipodi:ry="130.10765"
         d="m -3818.3767,-9517.4697 c 0,71.8564 -58.2512,130.1076 -130.1077,130.1076 -71.8564,0 -130.1076,-58.2512 -130.1076,-130.1076 0,-71.8565 58.2512,-130.1077 130.1076,-130.1077 71.8565,0 130.1077,58.2512 130.1077,130.1077 z"
         transform="matrix(1.2934782,0,0,1.2934782,5482.2785,12843.002)" />
      <path
         transform="translate(4294.4925,9583.1407)"
         d="m -3792.478,-8978.0449 -126.9506,-71.5878 -1.4784,145.7363 -1.4784,-145.7363 -126.9505,71.5878 125.4722,-74.1485 -125.4722,-74.1485 126.9505,71.5879 1.4784,-145.7364 1.4784,145.7364 126.9506,-71.5879 -125.4722,74.1485 z"
         inkscape:randomized="0"
         inkscape:rounded="0"
         inkscape:flatsided="false"
         sodipodi:arg2="1.0471976"
         sodipodi:arg1="0.52359878"
         sodipodi:r2="2.9567459"
         sodipodi:r1="148.297"
         sodipodi:cy="-9052.1934"
         sodipodi:cx="-3920.907"
         sodipodi:sides="6"
         id="path14174"
         style="opacity:0.21757322;fill:#fef5ff;fill-opacity:1;stroke:none"
         sodipodi:type="star" />
      <path
         sodipodi:type="arc"
         style="fill:#fef5ff;fill-opacity:1;stroke:none;filter:url(#filter14170)"
         id="path14156"
         sodipodi:cx="-3948.4844"
         sodipodi:cy="-9517.4697"
         sodipodi:rx="130.10765"
         sodipodi:ry="130.10765"
         d="m -3818.3767,-9517.4697 c 0,71.8564 -58.2512,130.1076 -130.1077,130.1076 -71.8564,0 -130.1076,-58.2512 -130.1076,-130.1076 0,-71.8565 58.2512,-130.1077 130.1076,-130.1077 71.8565,0 130.1077,58.2512 130.1077,130.1077 z"
         transform="matrix(0.15217395,0,0,0.15217395,974.44193,1979.2583)" />
    </g>
  </g>
</svg>
