<?xml version="1.0" encoding="UTF-8" standalone="no"?>
<!-- Created with Inkscape (http://www.inkscape.org/) -->
<svg xmlns:inkscape="http://www.inkscape.org/namespaces/inkscape" xmlns:rdf="http://www.w3.org/1999/02/22-rdf-syntax-ns#" xmlns:ns1="http://sozi.baierouge.fr" xmlns:dc="http://purl.org/dc/elements/1.1/" xmlns="http://www.w3.org/2000/svg" xmlns:cc="http://web.resource.org/cc/" xmlns:xlink="http://www.w3.org/1999/xlink" xmlns:sodipodi="http://sodipodi.sourceforge.net/DTD/sodipodi-0.dtd" id="svg4854" version="1.0" viewBox="0 0 1127.9 1252.7" inkscape:version="0.91 r13725" xmlns:svg="http://www.w3.org/2000/svg">
  <g id="layer1" transform="translate(-161.34 -1.4966)">
    <path id="path4931" style="fill:#000000" d="m1068.8 1253.9c-12-0.5-19.9-1.8-25-4-1.1-0.5-6.3-2-11.5-3.4s-10.9-3-12.5-3.5c-1.7-0.5-5.3-1.2-8-1.6-2.8-0.4-6.4-1-8-1.5-1.7-0.5-7.51-2.1-13.01-3.6s-10.43-3.1-10.95-3.5c-0.53-0.5-1.88-0.9-3-0.9-3.17 0-39.27-18.4-42.05-21.5-0.55-0.6-2.8-2.4-5-3.9-2.2-1.6-5.02-3.8-6.26-5-1.25-1.1-3.05-2.8-4-3.6-2.98-2.7-21.36-17.4-23.89-19.1-1.32-0.8-8.58-7.6-16.13-15s-16.42-16-19.72-19.1-11.7-11.2-18.66-18.1c-11.76-11.6-25.8-23.7-27.45-23.7-0.39 0-3-1.7-5.8-3.9-6.31-4.8-19.95-11-33.09-15.1-3.3-1-7.35-2.3-9-2.9-6.96-2.4-19.67-6.1-28.94-8.5-5.47-1.5-11.27-3.3-12.91-4.1-1.63-0.8-4.03-1.5-5.33-1.5s-5.13-1.1-8.52-2.5c-3.38-1.3-6.62-2.5-7.2-2.5-1.29 0-23.05-8.6-26.75-10.5-3.97-2.2-9.91-5-14-6.8-8.06-3.4-24.75-20.2-28.52-28.7-6.33-14.1-7.4-18.98-7.48-33.97-0.12-20.7 3.14-40.51 9.71-59 1.27-3.57 4.44-13.92 7.04-23 4.49-15.65 4.74-17.15 4.82-29.23 0.07-12.54 0.03-12.78-2.57-15.2-1.46-1.35-2.81-2.82-3-3.26-0.52-1.19-7.27-6.75-17.85-14.72-3.58-2.69-7.04-5.55-7.69-6.34-0.65-0.8-1.64-1.16-2.2-0.82-0.56 0.35-1.5-0.28-2.1-1.4-0.59-1.11-2.75-2.94-4.8-4.06-2.04-1.13-5.06-3.05-6.71-4.28-9.24-6.86-11.89-8.69-12.64-8.69-0.45 0-4.55-2.52-9.1-5.6-4.54-3.08-10.02-6.5-12.18-7.6-5.39-2.76-15.58-9.8-15.58-10.77 0-0.44-0.79-1.06-1.75-1.39-1.88-0.64-5.15-2.46-28.03-15.58-13.58-7.79-23.17-13.05-30.72-16.87-1.65-0.83-4.8-2.71-7-4.18-12.23-8.16-21.39-14.01-21.97-14.01-0.36 0-4.72-2.7-9.7-6-4.97-3.3-9.62-6-10.32-6s-1.87-0.72-2.6-1.6c-2.89-3.49-15.19-10.99-60.65-37.02-2.34-1.34-7.12-4.44-10.64-6.9s-6.71-4.48-7.08-4.48c-0.97 0-9.57-5.97-12.53-8.7-3.68-3.39-4.91-2.96-4.31 1.5 0.41 3.08 0.01 4.39-2.1 6.9-1.43 1.7-2.6 4.2-2.6 5.56s-0.9 3.62-2 5.02c-1.1 1.39-2 3.15-2 3.9 0 2.12-11.86 13.09-13.47 12.48-0.87-0.34-2.17 0.75-3.41 2.86-1.31 2.23-3.12 3.68-5.25 4.24-4.44 1.15-4.59 2.63-0.49 5.04 5.79 3.42 6.86 6.02 7.17 17.49 0.23 8.26-0.08 11.04-1.6 14.51-1.17 2.67-1.67 5.4-1.31 7.2 0.39 1.95-0.07 3.98-1.4 6.2-1.09 1.82-2.29 4.57-2.65 6.12-0.48 2.05-1.81 3.33-4.88 4.73-2.32 1.05-5.11 1.94-6.21 1.97s-3.23 1.06-4.73 2.29l-2.73 2.23 4.86 4.19 4.86 4.18v9.02c0 6.46-0.4 9.35-1.38 10.17-0.76 0.63-1.38 2.84-1.38 4.91 0 2.91-0.57 4.13-2.5 5.4-1.76 1.15-2.5 2.54-2.5 4.66 0 3.63-4.16 7.93-7.65 7.93-1.66 0-2.35 0.57-2.35 1.95 0 2.41-3.61 5.04-6.98 5.09-1.69 0.03-3.18 1.05-4.52 3.1-1.39 2.12-4.14 3.95-8.98 5.96-7.99 3.33-9.27 3.46-14.15 1.42-4.25-1.78-7.37-0.61-7.39 2.77-0.04 6.49-9.84 21.71-13.97 21.71-1.07 0-2.74 0.87-3.73 1.92-2.87 3.08-15.6 12.07-17.26 12.2-0.84 0.07-2.1 0.04-2.8-0.05-0.71-0.09-2.45 0.76-3.89 1.88-1.43 1.13-3.83 2.05-5.33 2.05s-4.28 1.06-6.19 2.35c-3.71 2.52-8.56 3.88-9.34 2.61-0.26-0.42-2.27-0.53-4.45-0.23-4.81 0.64-8.48-1.41-9.45-5.29-0.37-1.47-0.5-2.84-0.3-3.05 0.21-0.2 2.14 0.46 4.3 1.48 2.16 1.03 5.74 2.14 7.95 2.47 3.28 0.5 4.24 0.27 5.21-1.28 0.82-1.31 2.88-2.11 6.6-2.58 4.17-0.52 5.38-1.05 5.29-2.33-0.1-1.3 1.13-1.77 5.88-2.22 7.71-0.74 9.5-1.59 9.5-4.53 0-1.91 0.52-2.4 2.56-2.4 3.95 0 6.34-1.66 5.73-3.98-0.46-1.76-0.04-2.02 3.34-2.03 5.24-0.02 6.64-1.06 5.82-4.33-0.59-2.34-0.38-2.66 1.83-2.66 1.37 0 3.56-0.87 4.85-1.93 2.05-1.68 2.2-2.21 1.12-3.99-1.62-2.65-1.58-3.08 0.28-3.08 2.25 0 2.93-2.77 1.38-5.66-1.21-2.26-1.15-2.69 0.55-3.94 2.49-1.81 6.69-1.77 11.19 0.1 4.67 1.95 5.35 1.9 5.35-0.45 0-1.75 0.51-1.89 4.85-1.38 6.22 0.74 10.15-1.5 10.15-5.78 0-2.69 0.26-2.89 3.91-2.89 5.95 0 7.09-0.72 6.43-4.04-0.61-3.04-0.99-2.79 7.05-4.45 3.15-0.65 4.02-3.22 2.09-6.18-1.98-3.01-1.18-4.33 2.61-4.33 3.65 0 4.79-2.36 2.41-5-1.72-1.89-1.39-5.66 0.4-4.56 3.12 1.93 5.49-3.03 2.6-5.44-1.95-1.61-1.92-3.62 0.06-4.38 1.01-0.39 1.46-1.55 1.25-3.25-0.23-1.94-1.97-3.8-6.57-7.01-3.44-2.41-8.02-5.08-10.17-5.94-7.18-2.88-6.36-7.49 0.87-4.94 5.62 1.99 10.06 2 10.06 0.02 0-0.88 0.92-1.5 2.25-1.51 3.85-0.03 11.1-2.6 12.19-4.33 0.74-1.17 0.68-2.22-0.2-3.64-1.65-2.64-1.6-2.82 0.9-3.2 1.17-0.17 2.52-1.35 2.99-2.62 0.67-1.84 0.32-2.8-1.74-4.7-2.9-2.69-2.45-4.5 1.11-4.5 2.12 0 5.5-3.18 5.5-5.18 0-0.4-1.16-1.81-2.57-3.12l-2.57-2.38 2.57-1.68c3.73-2.45 3.32-5.42-1-7.23-3.66-1.53-4.22-3.9-0.93-3.91 4.59-0.01 1.73-5.8-3.37-6.82-1.63-0.33-3.22-1.56-3.89-3.04-0.74-1.63-2.11-2.61-3.93-2.81-1.7-0.2-2.93-1.01-3.13-2.08-0.29-1.54 0.57-1.75 7.32-1.75h7.65l-0.65-3c-0.64-2.87-0.52-3 2.73-3 4.77 0 7.35-2.04 5.93-4.69-1.43-2.67-0.69-3.27 3.24-2.63 2.7 0.44 3.52 0.09 4.97-2.12 0.95-1.46 1.47-3.47 1.15-4.47-0.39-1.25 0.23-2.35 1.95-3.48 2.68-1.75 3.27-4.46 1.39-6.34-1.73-1.73-0.32-4.2 2.05-3.58 1.48 0.39 2.33-0.14 3.15-1.93 0.94-2.05 0.69-3.42-1.43-8.07-1.46-3.19-3.76-6.35-5.35-7.35-1.53-0.97-5.26-3.6-8.28-5.86-3.03-2.25-7.96-5.59-10.96-7.41-5.83-3.53-11.89-8.14-15.54-11.82-2.98-3-3.57-2.83-2.85 0.78 0.43 2.13 0.09 3.6-1.14 4.96-1.43 1.58-1.55 2.46-0.67 5 0.59 1.69 0.85 3.65 0.58 4.35s0.15 2.8 0.93 4.66c1.64 3.9 0.56 7.58-2.51 8.55-1.08 0.35-1.84 1.53-1.84 2.87 0 2.37-2.45 5.12-6.25 7.02-1.23 0.61-2.41 1.99-2.61 3.06-0.51 2.62-3.06 4.43-6.29 4.47-4.9 0.06-5.23 5.75-0.6 10.5 7.55 7.75 7.86 8.37 5.25 10.53-2.18 1.81-1.87 2.76 1.42 4.47 3.44 1.77 4.62 4.64 3.11 7.48-0.88 1.63-0.6 2.75 1.42 5.8 1.38 2.08 2.79 5.2 3.13 6.94 0.56 2.76 0.35 3.19-1.73 3.48-2.02 0.29-2.31 0.82-2.07 3.8 0.34 4.14-1.49 9.03-3.38 9.03-0.97 0-1.18 0.85-0.76 2.99 0.75 3.72-1.5 7.41-6.22 10.19-2.33 1.38-3.42 2.76-3.42 4.34 0 2.73-6.69 8.48-9.87 8.48-1.27 0-2.65 1.1-3.54 2.83-1.58 3.04-6.77 5.17-12.6 5.17-1.92 0-3.78 0.7-4.51 1.69-1.68 2.3-17.01 1.99-22.11-0.45-4.43-2.11-5.79-1.29-9.56 5.77-3.32 6.21-5.59 8.99-7.35 8.99-0.67 0-2.82 1.95-4.76 4.32-2.38 2.91-4.87 4.72-7.61 5.54-2.25 0.67-5.12 2.26-6.4 3.54-4.09 4.09-15.49 4.28-20.44 0.35-1.88-1.48-1.51-3.54 0.84-4.8 1.72-0.92 2.49-0.74 4.31 0.97 1.59 1.49 3.54 2.08 6.84 2.08 4.27 0 4.65-0.2 4.94-2.67 0.29-2.46 0.71-2.7 5.17-2.88 5.58-0.23 10.05-3.44 7.86-5.64-0.67-0.66-1.21-2-1.21-2.96 0-1.51 0.67-1.67 4.97-1.16 4.05 0.48 5.1 0.28 5.61-1.05 0.4-1.04-0.2-2.31-1.64-3.48-2.73-2.22-1.85-4.16 1.89-4.16 1.51 0 3.51-0.91 4.48-2.05 1.68-1.96 1.66-2.16-0.3-4.65-1.92-2.44-1.94-2.72-0.37-4.45 2.27-2.52 4.87-2.32 8.8 0.68 3.17 2.41 9.87 4.59 17.78 5.78 3.35 0.5 3.71 0.34 3.5-1.54-0.21-1.98 0.26-2.11 7.97-2.19 9.01-0.08 12.17-1.49 8.84-3.93-3.07-2.24-1.31-4.65 2.9-3.96 3.36 0.54 8.5-0.82 11.37-3.02 1.02-0.78 0.69-1.49-1.5-3.24l-2.8-2.24 2.5-1.02c1.37-0.57 3.66-1.27 5.08-1.58 2.85-0.6 7.92-4.21 7.92-5.63 0-0.5-1.37-1.61-3.04-2.47-3.64-1.89-3.19-3.03 1.51-3.92 3.18-0.59 5.53-2.89 5.53-5.4 0-0.54-1.35-1.44-3-2.02-4.12-1.43-3.77-3.6 0.75-4.72 3.18-0.79 3.79-1.38 4.03-3.93 0.25-2.62-0.29-3.35-4.32-5.77-4.67-2.8-5.39-4.93-1.88-5.58 1.05-0.2 2.49-0.83 3.19-1.4 2.16-1.75-1.46-4.75-5.74-4.75-3.9 0-8.08-2.29-6.69-3.66 0.46-0.46 2.03-0.84 3.49-0.84 2.24 0 2.71-0.49 2.96-3.05 0.35-3.52-2.96-8.45-5.68-8.45-0.95 0-2.61-0.68-3.67-1.52-1.91-1.5-1.91-1.56 0.31-3.13 3.18-2.25 2.79-4.12-1.25-6.05-1.93-0.92-3.5-2.31-3.5-3.1 0-1.16 1.19-1.3 6.43-0.74 4.19 0.45 7.17 0.29 8.56-0.46 2.04-1.09 2.06-1.26 0.49-3.65-2.05-3.14-1.37-3.85 3.73-3.85 4.9 0 7-2.32 5.01-5.52-1.08-1.73-1.01-2.1 0.5-2.58 6.97-2.2 7.42-2.98 4.28-7.39-1.41-1.98-1.82-3.68-1.39-5.8 0.49-2.46 0.22-3.13-1.51-3.67-2.34-0.75-4.52-4.06-3.62-5.52 0.37-0.58 1.51-0.59 3.03-0.01 1.97 0.75 2.65 0.56 3.46-0.97 0.56-1.04 0.71-2.71 0.34-3.71-0.95-2.54-6.41-9.53-8.81-11.27-1.1-0.8-3-2.6-4.22-4-11.89-13.68-12.31-14.31-10.32-15.54 0.54-0.33 2.9 1.18 5.25 3.34 8.02 7.38 35.47 28.78 48.29 37.66 3.85 2.66 7.22 5.12 7.5 5.47 0.27 0.34 3.42 2.61 7 5.04 3.57 2.43 8.52 6.04 11 8.01 5.06 4.04 15.75 11.13 24 15.91 3.02 1.75 7.52 4.49 10 6.07 2.47 1.58 6.3 3.77 8.5 4.87s5.12 2.62 6.5 3.39c1.37 0.77 3.85 2.13 5.5 3.01 1.65 0.89 5.19 2.8 7.87 4.25 2.69 1.44 12.59 7.72 22 13.94 9.42 6.23 19.38 12.33 22.13 13.55 6.43 2.87 6.12 2.7 14.15 7.98 3.76 2.47 7.75 5.04 8.85 5.71 1.1 0.66 7.53 4.71 14.29 8.99 15.78 10.01 29.3 18.18 31.21 18.89 0.82 0.3 2.17 0.95 3 1.45 0.82 0.49 3.07 1.67 5 2.6 1.92 0.94 5.79 3.2 8.6 5.03s5.47 3.32 5.91 3.32 4.89 2.63 9.89 5.84c5 3.22 10.67 6.7 12.6 7.74 1.92 1.04 4.62 2.88 6 4.08 1.37 1.21 4.62 3.69 7.21 5.52 2.6 1.83 7.5 5.35 10.89 7.82 12.07 8.8 19.57 14.06 32.9 23.07 15.7 10.61 26.23 20.35 29.54 27.33 3.89 8.22 2.3 19.23-7.07 49.1-2.42 7.7-4.89 16.48-5.5 19.5-0.6 3.03-1.46 6.4-1.91 7.5-2.82 6.94-6.97 36.34-7.02 49.76-0.04 10.54 0.28 12.75 3.12 21.51 1.74 5.3 4.1 11 5.25 12.6 5.69 7.7 15.94 15.8 27.59 21.9 4.67 2.4 11.57 6.1 15.33 8.1s7.6 3.6 8.55 3.6c0.94 0 2.14 0.4 2.67 0.9 1.99 1.7 12.21 5.3 24.83 8.6 7.21 1.9 16.27 4.4 20.12 5.6 3.85 1.1 8.57 2.5 10.5 3 17.58 4.5 30.99 8.9 33.51 10.9 0.55 0.5 3.48 1.8 6.5 2.9 10.21 3.9 25.07 12.5 33.4 19.4 8.32 6.9 37.65 34 56.52 52.3 8.56 8.3 16.9 16.1 18.53 17.3 1.63 1.3 7.27 6.4 12.52 11.4 12.35 11.9 19.95 18.3 22.77 19.2 1.24 0.4 3.56 1.8 5.15 3.1 1.6 1.3 6.43 4.3 10.75 6.5 4.31 2.2 13.47 6.9 20.35 10.4 19.41 10.1 36.51 14.8 52.71 14.7 7.1-0.1 8.6 0.2 11 2.2 5 4 15.7 7.4 33.3 10.4 6.3 1.1 18.1-0.2 21.6-2.3 7.9-4.9 10.4-9.7 6.5-12.2-1.6-0.9-2.6-0.9-4.8 0.2-9.2 4.4-15.5 6.5-19.2 6.5-3 0-13.1-8.7-13.1-11.3 0-2.3 1.9-3.1 2.7-1 0.8 2.2 3.7 4.8 7.7 7 3.4 1.8 7.4 1.4 13.9-1.6 2.5-1.1 5.5-2.1 6.6-2.1 3 0 2.6-0.9-2.7-6.1-2.6-2.6-6.2-6.3-8.1-8.4-1.9-2-4.8-4.2-6.5-4.9s-4-1.6-5.1-2.1c-2.4-1-2.1-0.9-7-1.8-7.1-1.4-13.5-4.1-14.1-5.9-0.8-2.5 0.4-3.9 2.4-2.9 2.6 1.4 13 4.7 20.5 6.7 3.8 1 7.1 2.4 7.4 3.1s1.1 1.3 1.8 1.3 3.9 2.8 7.1 6.3c10.5 11.1 18.8 18.8 22.6 20.8 6.3 3.3 16.5 5.2 23.8 4.5 8.6-0.8 18.7-5.5 19.5-8.9 1.3-5-1-8-28.1-36.7-7.4-7.8-6.7-7.4-18.5-13.2-9.4-4.6-17.9-11-20-15-0.9-1.5-0.8-2.4 0.5-3.6 1.4-1.4 1.9-1.2 5.8 2.9 5.1 5.3 18.2 13.7 22.9 14.6 2.3 0.5 5.1 2.6 9.4 7.2 17.1 18.2 24.4 26.3 29 31.9 4.1 5 6.2 6.6 11.2 8.7 11 4.4 25.2 3.3 33.5-2.8 1.5-1.1 2.9-2.6 3.2-3.3 0.6-1.7-1.8-7.6-3.8-9.3-0.8-0.7-2.9-3.7-4.6-6.6-1.7-3-3.5-5.5-4-5.5s-2.7-2.6-4.9-5.7c-2.1-3.2-6-8-8.5-10.6-2.6-2.7-5.4-6.2-6.3-7.8-1-1.6-2-2.9-2.4-2.9-0.3 0-2.6-1.9-5.1-4.2-2.5-2.4-6.3-5.2-8.4-6.2-11.3-5.7-20.8-13.6-24.1-19.9-1.6-3-1.4-9.8 0.2-10.3 0.6-0.2 1.7 1.7 2.4 4.3 1.8 5.9 6.4 10.5 16.1 16.2 12.7 7.5 17.6 10.9 23.1 16.4 8.5 8.4 19.9 22.6 19.9 24.7 0 0.6 0.4 1 0.9 1s3 3.2 5.5 7c3.2 4.9 5.4 7.2 7.3 7.7 5.3 1.4 16.9 0.3 18.3-1.7 0.3-0.3 2.7-1.8 5.4-3.1 5.7-2.8 8.4-6 9.1-10.9 1.1-7.1-1.2-7.3-11.1-1.4-12.8 7.8-21.6 6.3-28.2-4.7-2.9-4.7-2.8-8.1 0.2-11.6 2.1-2.4 2.5-2.5 3.1-1.1 0.3 0.9 0 2.9-0.8 4.5-1.9 3.7-1 5.9 4.2 10.6 5.1 4.7 7.3 4.7 16.5 0.2 4-1.9 8-3.5 8.9-3.5 3 0 1.8-3-1.3-3.6-3.6-0.7-4.8-2.1-2.6-3 1.2-0.4 0.6-1.8-2.7-6.7-2.3-3.4-4.4-6.4-4.7-6.7-0.3-0.2-2.1-2.4-3.9-4.8-3-3.8-12.3-10.7-19.1-14.1-2.6-1.4-7.5-4.5-19.9-12.7-4-2.7-10-7.7-13.2-11.2-5.6-5.9-5.9-6.5-5.9-11.2 0-3.6 0.4-5.2 1.6-5.6 2.3-0.9 3.6 0.9 4.1 6 0.5 3.9 1.2 5.1 5.9 9.3 5.1 4.6 19 13.5 35.4 22.8 10.6 6.1 19 14.5 23.8 24.2 4.8 9.5 11.9 13.8 24.7 15 6.8 0.7 11.7-1 20.1-6.6 2.5-1.7 5.4-3.1 6.4-3.1 1.2 0 2-0.6 2-1.7 0-0.9 0.8-2.6 1.9-3.7 2-2.2 5.1-10.4 5.1-13.5 0-2.4-3.6-5.1-6.7-5.1-1.3 0-7.1 1.7-13 3.6-9.8 3.3-11.5 3.6-17.8 3-3.8-0.3-7.9-1.2-9-2-4.9-3.2-8.4-7.4-9.1-11-0.8-4.7 0.7-7.8 5.2-10.2 1.9-1 3.3-2.2 3.1-2.7s-3.2-2.1-6.8-3.5c-3.6-1.5-9.2-4.2-12.5-6.1-3.2-1.9-7.7-4.4-9.9-5.6-7.3-4.1-15-8.5-18-10.5-1.7-1.1-3.7-2.3-4.5-2.7s-4.9-2.7-9-5.1c-4.1-2.3-8.2-4.6-9-5.1s-5-2.6-9.3-4.7-9.4-5.2-11.5-6.8c-2-1.7-6.6-4.4-10.2-6.1-7.7-3.6-14.4-7.3-22.3-12.6-3.2-2.1-6-3.9-6.4-3.9-0.8 0-14.2-8.8-17.8-11.8-1.7-1.3-5.7-4.9-9.1-8-3.3-3.1-8-7.2-10.4-9.2-2.4-1.9-5.7-5-7.4-7-1.7-1.9-5.6-5.8-8.6-8.6-3-2.9-6-5.7-6.5-6.3-0.6-0.5-5.9-5.8-11.8-11.7-5.9-5.94-10.7-11.36-10.7-12.07s-0.5-1.3-1-1.3c-1.1 0-14.3-13.12-25.78-25.56-4.26-4.62-5.94-7.13-5.25-7.82 1.6-1.6 1.19-2.81-0.76-2.19-1.26 0.4-3.03-0.83-6.03-4.18-16.89-18.85-29.46-31.7-49.15-50.25-9.05-8.52-17.96-17.06-19.78-18.97-1.83-1.92-8.37-8.84-14.54-15.38-6.18-6.55-16.38-16.91-22.67-23.03-13.18-12.8-32.94-31.94-41.3-40.02-3.17-3.05-5.78-5.9-5.81-6.32-0.03-0.43-2.99-3.03-6.57-5.78s-9.12-7.7-12.31-11-9.8-9.68-14.68-14.18c-4.89-4.5-11.58-10.68-14.88-13.74s-6.35-5.57-6.76-5.57c-0.93-0.01-1.77-0.79-29.74-28.03-12.38-12.05-23.87-22.94-25.55-24.19-1.67-1.26-6.59-5.66-10.94-9.79-23.28-22.09-26.82-25.39-36.99-34.5-4.3-3.85-9.22-8.56-10.92-10.46-1.71-1.91-4.37-4.61-5.92-6-13.52-12.18-65.16-65.39-72.63-74.84-2.09-2.65-8.25-9.53-13.68-15.29-14.8-15.68-27.5-30.01-35.38-39.91-2.84-3.57-8.24-9.73-11.99-13.68-3.74-3.95-9.35-10.36-12.45-14.25s-5.97-7.07-6.38-7.07-1.49-1.23-2.41-2.75c-0.91-1.51-3.54-4.77-5.85-7.25-2.3-2.47-5.88-6.78-7.95-9.57s-5.05-6.4-6.62-8.02c-2.61-2.7-7.54-8.99-23.84-30.43-9.12-11.99-15.4-20.4-22-29.49-6.01-8.27-8.09-10.98-20.86-27.25-3.76-4.81-7.54-10.09-8.39-11.74-3.02-5.85-15.9-21.84-27.8-34.5-3.36-3.57-7.7-8.97-9.65-12-1.95-3.02-7.47-9.77-12.27-15-14.51-15.82-32.53-37.64-32.53-39.41 0-2.87 3.82-0.05 13.23 9.79 11.94 12.47 12.2 12.75 14.22 15.87 2.11 3.27 3.61 3.48 5.31 0.75 1.31-2.09 3.72-2.65 4.69-1.07 0.85 1.37-1.56 6.07-3.11 6.07-2.24 0-1.62 1.01 5.44 8.91 3.73 4.18 10.93 12.64 16 18.81s10.15 12.25 11.28 13.5c8.63 9.6 14.7 17.52 21.03 27.48 1.12 1.75 2.57 2.97 3.22 2.7 2.54-1.05 6.63-7.81 7.25-11.99 0.94-6.26-0.11-9.2-4.12-11.57-2.79-1.65-3.27-2.35-2.35-3.45 0.63-0.76 1.73-1.39 2.44-1.39 1.84 0 10.47-9.88 10.47-11.99 0-0.98-1.18-2.55-2.62-3.49l-2.61-1.71 4.11-4.19c4.66-4.74 5.55-8.74 1.87-8.35-3.5 0.37-2.79-2.77 1.25-5.49 4.17-2.81 4.77-6.28 1.08-6.28-3.51 0-3.55-1.75-0.11-4.82 1.84-1.63 3.03-3.67 3.03-5.18 0-2.11-0.47-2.5-3.04-2.5-3.76 0-4.74-2.16-2.52-5.55 0.94-1.44 1.39-3.38 1.04-4.49-0.57-1.82-1.88-2.41-6.98-3.18-2.77-0.42-2.51-2.59 0.5-4.12 1.95-0.99 2.46-1.98 2.35-4.49-0.21-4.3-1.86-6.06-6.35-6.78-5.64-0.9-6.79-1.87-5.21-4.42 2.89-4.65-1.17-8.41-7.92-7.33l-4.19 0.67 0.63-3.13c0.89-4.46-1.65-5.66-8.79-4.18-7.27 1.51-8.62 3.24-5.26 6.79 4.16 4.4 4.02 9.21-0.4 13.34-2.97 2.77-3.04 3.02-1.44 4.8 0.94 1.02 3.7 2.37 6.14 2.98 2.44 0.62 4.44 1.58 4.44 2.13 0 0.56 1.12 1.44 2.5 1.96 2.93 1.12 3.19 2.51 0.75 3.9-2.51 1.43-0.36 4.57 3.2 4.71 5.19 0.19 6.18 5.79 1.04 5.86-2.3 0.03-3.07 0.54-3.3 2.21-0.17 1.19-1.34 3.22-2.61 4.5-1.36 1.39-2.52 4.07-2.85 6.65-0.72 5.5-2.6 7.53-10.46 11.28-6.78 3.24-10.55 3.46-11.09 0.65-0.36-1.92 1.46-2.84 9.32-4.69 6.4-1.5 7.89-3.06 7.95-8.3 0.04-3.46 0.66-4.87 3.3-7.44 3.93-3.84 4.51-8.79 1.15-9.86-1.74-0.55-1.99-1.2-1.48-3.9 0.79-4.21-2.07-6.99-7.24-7.03-3.05-0.03-3.74-0.43-4-2.29-0.19-1.34-1.02-2.25-2.05-2.25-1.83 0-4.13-1.81-4.13-3.25 0-0.47 1.94-1.72 4.31-2.77 4.93-2.18 7.67-6.15 6.07-8.79-0.56-0.93-2.68-2.51-4.7-3.52-3.99-1.98-4.78-4.18-1.84-5.12 1.7-0.54 4.16-4.4 4.16-6.52 0-1.44-8.9-7.01-9.54-5.97-0.85 1.38-3.7 1.16-3.23-0.25 1.37-4.11 13.04-1.39 15.75 3.66 2.12 3.97 7.47 3.41 9.8-1.02 1.79-3.41-0.04-5.17-3.87-3.72-2.19 0.83-3.77 0.89-5.05 0.2-3.39-1.82-2.11-3.71 3.32-4.87 7.84-1.68 11.1-5.34 4.35-4.89-4.3 0.29-5.42-0.71-3.24-2.89 1.08-1.08 3.52-1.74 6.8-1.84 3.12-0.1 5.46-0.71 6-1.55 1.3-2.06 1.11-2.6-1.09-3.18-2.17-0.56-2.8-3.7-0.75-3.71 9.58-0.04 18.78-10.73 10.75-12.5-4.09-0.89-3.76-2.56 1.05-5.31 4.35-2.47 7.94-7.37 7.94-10.81 0-1.58-0.79-2.29-3.11-2.75-2.53-0.51-3.75-0.08-6.43 2.28-1.82 1.6-4.8 3.22-6.63 3.61-1.83 0.38-4.84 1.62-6.69 2.74-2.42 1.48-4.85 2-8.72 1.87-5.1-0.17-5.57 0.04-9.3 3.99-2.15 2.29-4.16 5.35-4.45 6.8-0.6 2.99-11.41 14.82-15.62 17.08-1.53 0.83-4.02 2.37-5.52 3.44-3.67 2.59-20.36 3.22-24.79 0.92-1.61-0.83-3.17-1.26-3.47-0.96-1.14 1.14-0.78 9.22 0.53 11.96 1.65 3.44 0.29 7.65-3.43 10.57-1.3 1.02-2.36 2.33-2.36 2.89 0 1.84-5.19 5.18-8.03 5.18-4.54 0-5.3 4.28-1.56 8.72 1.33 1.58 2.72 4.65 3.1 6.83 0.37 2.17 1.42 5.08 2.34 6.45 2.64 3.95 3.98 7.22 4.51 11 0.27 1.93 0.8 4.71 1.17 6.19 0.43 1.7 0.08 3.87-0.93 5.9-0.88 1.77-1.6 4.08-1.6 5.13 0 2.63-1.81 5.9-4.58 8.28-1.28 1.1-2.62 3.66-2.97 5.68-0.6 3.42-0.42 3.79 2.7 5.36 4.95 2.5 8.85 6.53 8.85 9.15 0 1.27 0.36 2.31 0.82 2.31 0.45 0 2.36 1.4 4.25 3.12 1.88 1.71 5.23 4.27 7.43 5.69 5.45 3.52 9.5 7.3 9.5 8.88 0 0.72 1.63 3.12 3.63 5.33 3.5 3.88 3.62 4.24 3.06 9.68-0.52 5-0.3 5.98 1.86 8.55 2.86 3.4 3.15 7.74 0.77 11.39-1.35 2.05-1.45 2.94-0.5 4.45 1.86 2.99 1.38 6.51-1.33 9.74-2.04 2.42-2.34 3.45-1.58 5.44 1.4 3.69-2.39 9.3-8.27 12.22-1.18 0.59-2.93 2.73-3.89 4.77-1.12 2.37-3.14 4.41-5.6 5.66-2.12 1.08-4.63 3.16-5.58 4.61-1.98 3.02-7.13 5.47-11.48 5.47-1.64 0-3.25 0.45-3.59 1-0.82 1.32-7.1 1.29-9.59-0.04-1.08-0.58-2.31-0.83-2.73-0.57-0.43 0.27-0.36 4.1 0.16 8.51 0.82 7.1 0.72 8.36-0.91 10.82-1.01 1.53-1.73 3.91-1.59 5.28 0.31 3.21-4.67 10.92-7.53 11.64-1.21 0.3-2.62 1.79-3.15 3.33-1.28 3.66-4.62 6.67-8.19 7.39-1.86 0.37-3.44 1.64-4.43 3.55-2.29 4.43-5.31 6.09-11.11 6.09-3.94 0-5.56 0.49-7.03 2.11-1.74 1.92-2.58 2.05-9.56 1.44-4.34-0.38-7.9-0.27-8.22 0.25-0.31 0.5 0.33 2.64 1.41 4.77 1.08 2.12 1.97 5.28 1.97 7.01 0 2.41 1.06 4.23 4.49 7.66 2.48 2.47 4.77 5.81 5.09 7.42 0.4 2.01 1.7 3.52 4.2 4.88 2.36 1.28 4.48 3.64 6.08 6.76 2.38 4.65 2.4 4.92 0.79 8.29-1.6 3.36-1.58 3.6 0.54 6.46 2.05 2.78 2.11 3.31 0.92 8.21-0.7 2.89-1.37 7.74-1.48 10.78-0.21 5.47-3.27 12.38-6.3 14.25-0.8 0.49-1.06 1.85-0.69 3.69 0.66 3.29-2.17 8.73-6.85 13.17-1.54 1.46-2.79 3.3-2.79 4.08 0 2-3.99 5.39-7.25 6.16-4.2 0.99-3.31 3.2 1.88 4.65 8.52 2.39 15.97 12.37 10.72 14.38-1.32 0.51-0.82 1.38 2.64 4.58 3.83 3.54 4.22 4.3 3.72 7.39-0.43 2.66-0.1 3.86 1.46 5.28 3.42 3.09 5.06 7.25 4.36 11.01-0.35 1.88-1.29 3.68-2.09 3.98-2.08 0.8-1.78 3.73 0.6 5.89 1.48 1.34 1.97 2.83 1.75 5.38-0.28 3.32-1.73 4.8-6.29 6.39-0.57 0.2-0.16 1.9 0.94 3.95 1.54 2.86 1.72 4.07 0.85 5.92-1.02 2.18-6.37 5.49-12.54 7.75-2.36 0.87-2.75 1.57-2.75 4.9 0 5.31-3.1 9.16-7.37 9.16-2.48 0-4.07 0.93-6.96 4.08-3.28 3.57-4.21 4.03-7.46 3.75-3.16-0.28-3.76-0.01-4.02 1.82-0.59 4.11-3.84 5.83-11.55 6.1-3.93 0.14-8.76 0.52-10.75 0.84-2.72 0.45-4.84-0.03-8.69-1.98-2.81-1.42-5.31-2.25-5.56-1.84s-0.79 2.55-1.18 4.74c-0.39 2.2-1.43 4.8-2.29 5.79-1.25 1.44-1.36 2.38-0.51 4.62 1.85 4.91-1.13 9.84-7.13 11.77-2.37 0.77-2.96 1.53-3 3.88-0.03 2.84-0.19 2.93-4.93 2.93-3.63 0-5.17-0.46-6-1.8-0.88-1.43-0.75-2.01 0.65-2.8 0.96-0.55 1.75-1.64 1.75-2.43 0-0.78 1.23-1.68 2.75-1.99 7.95-1.64 10.39-2.7 11.44-5 0.94-2.07 0.76-2.69-1.24-4.31l-2.34-1.9 2.69-2.5c2.91-2.7 3.41-5.65 1.47-8.76-1.03-1.65-0.91-2.19 0.75-3.41 1.95-1.44 1.95-1.48-0.27-3.57-2.82-2.63-3.06-7.03-0.39-7.03 1.03 0 3.08 0.96 4.57 2.13 1.94 1.53 3.01 1.82 3.79 1.05 1.59-1.59 4.38 0.25 5.57 3.67 0.66 1.89 2.1 3.27 4.15 3.98 2.87 1 3.21 0.89 4.05-1.31 0.86-2.26 1.08-2.32 3.71-1.01 5.29 2.64 10.58 2.9 13.32 0.65 2.18-1.78 2.32-2.28 1.19-4.13-1.93-3.16-0.57-4.31 4.24-3.59 7.56 1.14 11.65-1.92 9.35-6.98-1.82-3.99 0.33-5.17 3.71-2.03 3.31 3.06 6.03 3.3 7.45 0.64 1.54-2.88 1.25-8.17-0.56-10.17-2.58-2.85-0.86-3.91 5.39-3.31 4.65 0.44 6.31 0.16 8.96-1.51 5.06-3.19 3.83-6.65-3.3-9.23-5.4-1.95-4.21-4.35 2.16-4.35 5.98 0 8.61-1.73 8.19-5.41-0.23-1.94-1.55-3.26-5.3-5.28-5.9-3.18-6.43-5.17-1.51-5.64 4.45-0.42 6.01-1.73 6.01-5.07 0-3.91-2.33-6.57-7.45-8.52-5.27-2.02-6.12-4.58-1.52-4.58 1.78 0 3.27-0.62 3.61-1.51 1.08-2.81-1.49-4.67-12.97-9.36-1.85-0.75-2.7-1.74-2.48-2.89 0.28-1.42 1.21-1.67 5.07-1.4 5.2 0.38 5.7-0.34 2.81-4.02-2.7-3.42-9.28-5.5-12.62-3.98-1.4 0.64-3.67 1.16-5.05 1.16-3.28 0-8.4-2.68-8.4-4.4 0-1.82 2.66-3.92 3.95-3.12 1.36 0.83 1.36-0.77 0-2.12-0.72-0.72-0.56-1.44 0.53-2.35 1.33-1.09 1.96-0.93 4.05 1.02 1.89 1.78 2.47 1.96 2.47 0.78 0-1.06 1.32-1.72 4.21-2.11 6.21-0.83 8.85-4.96 4.29-6.7-3.7-1.4-3.23-3.97 0.75-4.1 5.84-0.18 8.01-1.32 10.09-5.32l2.01-3.88-2.68-2.14c-3.7-2.95-3.35-4.27 1.36-5.06 4.84-0.82 7.24-3.89 6.78-8.67-0.23-2.38-0.87-3.41-2.31-3.67-1.1-0.19-2.41-0.74-2.91-1.21-1.25-1.19 1.19-3.95 3.49-3.95 2.27 0 3.92-2.88 3.92-6.86 0-3.58-2.28-6.14-5.47-6.14-3.52 0-4.03-2.82-0.76-4.26 3.53-1.55 4.19-2.56 4.21-6.43 0.01-1.97-0.92-4.27-2.42-6-2.13-2.46-2.69-2.65-4.49-1.56-4.37 2.67-7.93-0.04-4.72-3.59 1.47-1.62 1.44-2.08-0.47-5.71-3.46-6.58-4.16-7-8.93-5.43-4.38 1.44-6.36 0.88-8.39-2.36-1.56-2.51 0.99-3.83 6.44-3.33 2.47 0.23 3.93 0.21 3.25-0.04-0.69-0.25-1.25-1.97-1.25-3.82 0-4.86-1.76-8.02-5.62-10.1-1.86-1-3.38-2.47-3.38-3.27 0-0.79-0.72-2.23-1.6-3.2-1.53-1.7-1.22-3.9 0.56-3.9 0.47 0 2.8 1.64 5.19 3.64 3.82 3.19 4.39 3.4 4.69 1.75 0.6-3.27 1.76-3.56 5.78-1.47 2.15 1.12 5.36 2.33 7.14 2.69 3.02 0.6 3.28 0.43 3.87-2.53 0.56-2.79 0.95-3.11 3.25-2.63 5.45 1.13 8.71 0.88 11.41-0.9 2.3-1.51 2.69-2.33 2.19-4.61-0.48-2.21-0.19-2.89 1.46-3.42 1.13-0.36 2.89-0.39 3.9-0.07 1.1 0.35 2.94-0.28 4.58-1.57 2.34-1.84 2.65-2.65 2.12-5.52-0.57-3.01-0.4-3.36 1.66-3.37 6.5-0.04 9.47-3.9 8.2-10.67-0.49-2.56-0.28-3.32 0.88-3.32 2.85 0 3.78-6.49 1.21-8.39-1.27-0.92-1.32-1.63-0.3-4.31 1.12-2.96 1.01-3.35-1.49-5.32-3.33-2.61-3.4-3.76-0.31-4.94 1.32-0.5 2.57-1.43 2.78-2.06 0.25-0.76 2.05-0.27 5.25 1.43 5.57 2.96 7.15 3.18 8.28 1.15 0.53-0.94 2.88-1.55 6.79-1.75 5.57-0.29 5.98-0.47 5.99-2.74 0.01-1.94 0.73-2.61 3.52-3.33 1.92-0.49 3.92-1.31 4.45-1.81 0.52-0.51 1.76-0.93 2.75-0.93 2 0 2.59-4.39 0.75-5.53-1.35-0.83 0.71-3.47 2.71-3.47 2.37 0 9.05-3.81 9.71-5.54 1.05-2.72 0.7-4.46-0.87-4.46-2.63 0-1.62-3.5 1.56-5.37 5.46-3.23 6.13-9.24 1.1-9.82-3.13-0.36-3.63-3.1-0.66-3.65 3.22-0.6 4.5-2.19 4.5-5.62 0-3.37-2.51-6.54-5.18-6.54-2.02 0-5.19-3.59-4.36-4.93 0.36-0.59 1.75-1.07 3.09-1.07 1.35 0 2.45-0.41 2.45-0.91 0-0.51 0.25-1.59 0.56-2.4 0.34-0.88-1.26-3.53-4-6.61-2.51-2.83-4.56-5.98-4.56-7.01 0-1.09-1.53-2.77-3.66-4.02-3.15-1.87-4.05-2-6.55-0.96-3.81 1.58-5.91-0.07-4-3.13s-0.11-5.7-5.57-7.29c-4.57-1.33-7.28-4.67-3.8-4.67 2.71 0 1.72-2.94-1.67-5.01-3.64-2.21-8.83-2.58-11.64-0.83-2.94 1.84-4.97 0.43-4.78-3.34 0.16-3.24 0.26-3.31 4.23-3.02 3.61 0.26 4.21-0.01 5.34-2.49s1.05-2.93-0.82-4.17c-2.84-1.88-2.65-4.14 0.35-4.14 4.16 0 7.57-1.79 7.57-3.97 0-1.12-0.65-2.03-1.45-2.03-0.79 0-1.73-0.47-2.08-1.04-0.88-1.43 1.37-3.95 2.97-3.34 1.86 0.71 4.56-2.34 4.56-5.16 0-1.47-0.98-3.05-2.5-4.05-2.48-1.62-3.43-4.41-1.5-4.41 0.55 0 1-0.93 1-2.06 0-3.47-1.91-5.94-4.57-5.94-2.6 0-4.73-3.07-2.61-3.77 3.68-1.23-1.02-12.23-5.23-12.23-6.06 0-7.73-3.39-2.34-4.78 4.23-1.09 5.06-4.67 1.3-5.61-3.36-0.85-3.38-3.61-0.02-3.61 1.39 0 4.16 0.69 6.16 1.52 5.27 2.2 7.68 1.15 6.99-3.06-0.52-3.24-0.43-3.35 3.14-3.65 3.28-0.27 3.71-0.63 3.97-3.34 0.22-2.2-0.4-3.68-2.25-5.42-3.07-2.89-3.16-3.65-0.54-4.34 3.17-0.83 2.43-4.68-1.71-8.91-4.25-4.36-3.66-6.65 1.23-4.79 2.31 0.88 3.01 0.79 3.71-0.47 1.18-2.1 4.33-0.4 5.13 2.77 0.32 1.29 1.81 2.91 3.31 3.59 2.39 1.09 2.9 1 4.27-0.82 1.44-1.91 1.76-1.95 4.42-0.57 4 2.09 8.61 1.86 11.16-0.53 1.19-1.12 4.15-3.03 6.57-4.25 3.41-1.73 4.52-2.9 4.91-5.23 0.37-2.16 1.14-3.09 2.78-3.32 2.79-0.4 5.63-4.5 4.94-7.14-0.38-1.45 0.37-2.48 2.88-3.96 3.8-2.25 4.22-3.51 1.65-4.97-1.41-0.8-1.53-1.35-0.62-2.8 0.63-0.99 1.98-1.68 3-1.53 12.98 1.89 16.59 1.75 18.24-0.72 0.75-1.13 2.21-2.06 3.23-2.06 1.03 0 3.91-0.54 6.42-1.21 3.42-0.92 4.69-1.8 5.14-3.58 0.32-1.29 0.08-2.86-0.54-3.48-1.88-1.89-1.28-2.73 1.97-2.73 2.19 0 3.97-0.92 6.05-3.16 4.47-4.78 5.12-6.43 3.26-8.29-1.97-1.97-1.14-4.55 1.46-4.55 3.18 0 4.29-6.38 1.98-11.43-0.88-1.94-1.67-2.4-3.39-1.97-2.7 0.68-4.09-1.12-2.42-3.14 1.56-1.87-1.05-6.133-4.59-7.476-2.55-0.971-3.15-2.424-1.44-3.48 1.67-1.036 1.11-4.381-1.1-6.599-1.74-1.741-2.84-1.989-6.41-1.452-4.98 0.745-6.57-0.607-4.02-3.419 1.04-1.156 1.55-3.09 1.35-5.187-0.29-2.987-0.68-3.378-3.68-3.665-4.39-0.42-8.38 3.02-7.52 6.477 0.92 3.654-0.45 7.38-3.9 10.601-2.9 2.706-3.02 3.057-1.44 4.208 2.51 1.838 2.1 3.208-1.15 3.86-1.93 0.385-4.01 2.152-6.33 5.372-3.99 5.54-12.99 12.73-17.19 13.73-3.98 0.94-9.61 5.42-9.61 7.64 0 1.01-0.79 2.28-1.75 2.82-1.41 0.79-1.51 1.24-0.5 2.25 1.72 1.74 1.56 3.53-0.38 4.27-2.28 0.88-4.27-1.08-3.62-3.56 0.47-1.8 0.22-1.98-1.86-1.34-1.32 0.4-3.16 1.41-4.1 2.23-0.97 0.85-4.44 1.7-8 1.96-8.88 0.64-10.03 0.62-12.39-0.16-2.94-0.97-4.96 3.7-6.24 14.46-0.85 7.06-0.77 8.78 0.43 10.11 2.1 2.32-0.52 4.54-3.48 2.96-1.61-0.87-2.76-0.59-5.81 1.39-7.89 5.12-7.93 5.16-6.52 7.5 0.71 1.17 1.02 2.56 0.69 3.08-1.06 1.73-5.36 1.04-6.47-1.04-1.23-2.28-4.95-2.61-9.95-0.87-3.28 1.15-3.47 1.12-15.05-2.48-1.93-0.6-4.58-1.89-5.89-2.87s-3.34-1.78-4.5-1.79-2.77-0.43-3.57-0.94c-3.01-1.9-2.71 0.17 1.1 7.62 2.24 4.37 3.97 9.22 4.02 11.25 0.06 2.27 0.95 4.51 2.42 6.09 2.08 2.24 2.29 3.31 2.02 10.03-0.3 7.52-1.24 10.59-3.91 12.8-0.79 0.66-1.22 2.22-0.96 3.53 0.31 1.63-0.5 3.43-2.61 5.84-1.69 1.92-3.95 5.55-5.03 8.07s-2.88 5.07-3.99 5.67c-1.12 0.6-2.58 2.91-3.25 5.13-1.58 5.28-5.67 8.63-11.61 9.49-2.61 0.38-6.32 1.31-8.24 2.05-1.93 0.75-4.85 1.25-6.5 1.12-2.53-0.2-3.05 0.16-3.31 2.26-0.61 5-2.36 8.92-4.23 9.52-1.14 0.36-2.41 2.25-3.13 4.64-1.39 4.65-4.73 7.29-8.34 6.6-1.37-0.26-2.49-0.16-2.49 0.22 0 1.18-4.92 3.02-8.05 3.02-1.71 0-2.94 0.53-2.92 1.25 0.05 2.24 2.63 4.75 4.88 4.75 3.61 0 7.75 2.73 10.22 6.73 1.28 2.08 3.99 5.36 6.03 7.31l3.71 3.53-0.37 11.47c-0.5 15.26-1.72 19.76-7.15 26.29-1.3 1.56-2.35 4.07-2.35 5.6 0 1.52-0.9 3.58-2 4.57-2.24 2.03-2.63 6.87-0.99 12.51 0.87 3.02 0.62 4.3-1.91 9.49-1.6 3.3-3.45 8.11-4.12 10.69-0.82 3.19-3.07 6.88-7.08 11.61-5 5.89-6.79 7.26-11.96 9.14-6.84 2.5-9.24 2.17-8.76-1.18 0.26-1.83 1.26-2.45 5.32-3.26 6.15-1.23 7.5-2.05 7.5-4.61 0-1.32 1.02-2.35 3.03-3.05 3.61-1.26 6.26-5.82 5.39-9.29-0.47-1.87 0.2-3.5 2.78-6.76 4.63-5.82 6.15-9.48 4.38-10.51-1.02-0.59-1.21-2.69-0.82-8.66 0.42-6.47 0.84-7.96 2.31-8.35 2.73-0.71 3.09-3.04 0.79-5.18-2.27-2.11-1.77-4.09 1.02-4.09 3.22 0 6.55-4.67 6.38-8.96-0.09-2.33 0.42-4.36 1.29-5.08 1.74-1.44 1.92-8.08 0.27-9.73-0.89-0.9-0.74-1.98 0.67-4.59 2.46-4.56 0.88-8.82-3.78-10.19-2.64-0.78-3.3-1.57-3.77-4.48-0.31-1.94-0.9-4.08-1.31-4.75-0.92-1.49-5.08-1.59-7.7-0.18-2.46 1.31-6.36-0.53-5.51-2.61 0.32-0.79 0.85-2.11 1.19-2.95 0.49-1.2-0.08-1.46-2.75-1.25-3.32 0.27-3.36 0.22-3.36-3.89 0-2.29-0.34-4.51-0.75-4.92-0.42-0.41-0.75-1.57-0.75-2.58 0-2.41 2.65-2.35 6.77 0.17 3.88 2.36 5.23 2.51 5.23 0.56 0-1.69 1.96-2.3 7.76-2.39 5.95-0.1 6.57-0.71 5.87-5.81l-0.6-4.37h3.9c2.21 0 4.09-0.54 4.35-1.25 0.69-1.93-1.16-4.75-3.12-4.75-2.28 0-4.16-1.91-4.16-4.23 0-2.35 2.74-3.41 5.06-1.96 1.63 1.02 1.75 0.8 1.24-2.34-0.54-3.3-0.42-3.47 2.39-3.47 1.86 0 3.83 0.93 5.31 2.5 3.18 3.4 6.26 3.4 5.41 0.01-0.87-3.46 1.48-4.11 6.04-1.66 4.13 2.21 9.02 1.55 11.3-1.53 1.69-2.31 1.57-5.25-0.25-5.95-0.83-0.32-1.5-1.43-1.5-2.47 0-1.54 0.74-1.9 3.97-1.9 3.43 0 4.19-0.42 5.57-3.09 1.48-2.85 1.47-3.23-0.07-4.93-2.31-2.55-1.06-3.98 3.48-3.98 5.28 0 6.99-4.35 3.05-7.73-3.66-3.13-2.57-4.74 2.88-4.29 4.74 0.4 5.76-5.4 1.12-6.33-3.85-0.77-4.37-4.65-0.63-4.65 3.23 0 4.61-1.92 3.5-4.86-0.65-1.71-1.44-2.22-2.89-1.84-2.4 0.63-6.6-2.48-5.58-4.13 0.39-0.64 1.39-1.17 2.22-1.17 1.12 0 1.42-0.94 1.19-3.71-0.25-2.97-0.79-3.82-2.72-4.27-3.58-0.84-4.9-3.47-2.85-5.73 2.09-2.31 1.2-3.65-3.24-4.88-3.56-1-5.56-4.41-2.58-4.41 2.92 0 1.6-1.55-2.58-3.03-4.88-1.72-7.16-4.52-4.85-5.95 1.92-1.2 4.96-0.4 11.9 3.12 6.39 3.24 7.93 3.48 8.74 1.36 0.32-0.82 1.17-1.5 1.9-1.5 1.89 0 7.47 4.92 7.47 6.59s2.34 1.84 5.11 0.35c1.65-0.88 2.47-0.52 5.01 2.19 2.45 2.63 3.2 2.97 3.94 1.81 0.5-0.79 0.91-1.83 0.92-2.3 0.02-0.86 0.67-0.76 8.39 1.22 5.02 1.28 6.63 0.58 6.63-2.91 0-2.62 0.32-2.85 4.25-3.14 4-0.29 4.26-0.5 4.56-3.61 0.24-2.44 0.76-3.23 2-3.02 0.93 0.15 2.23-0.07 2.89-0.48 1.48-0.93 0.57-3.7-1.2-3.7-2.28 0-2.71-3.13-0.51-3.71 2.35-0.61 2.66-2.82 0.51-3.65-0.83-0.31-1.5-1.52-1.5-2.68 0-1.6 0.53-2.03 2.25-1.81 4.98 0.64 6.47-3.65 2.37-6.81-3.01-2.32-4.51-10.06-2.14-10.97 2.98-1.14 6.17 0.58 8.09 4.36 2.55 5.04 4.44 7.27 6.15 7.27 0.96 0 1.21-0.64 0.78-2-0.79-2.46 2.1-2.76 5.05-0.53 1.07 0.81 3.42 1.48 5.22 1.5 2.61 0.03 3.47-0.49 4.25-2.53 0.79-2.07 1.42-2.44 3.23-1.89 2.45 0.74 2.44 0.74 5 0.57 2.21-0.15 2.25-2.9 0.07-5.31-2.39-2.64-0.5-4.3 3.05-2.68 2.1 0.96 2.94 0.96 3.89 0 0.96-0.95 0.92-1.39-0.17-2.07-0.79-0.49-1.11-1.57-0.74-2.52 0.47-1.24 1.22-1.47 2.89-0.9 1.24 0.42 3.61 0.79 5.26 0.82 2.68 0.04 2.97-0.25 2.71-2.71-0.28-2.63-0.11-2.75 4.25-2.75 4.68 0 5.81-1.32 3.29-3.84-1.57-1.57 0.54-3.119 4.3-3.141 4.5-0.027 6.64-4.364 3.46-7.006-1.97-1.63-1.01-3.009 2.09-3.009 5.5 0 9.88-9.695 5.88-13.011-1.81-1.506-0.27-3.989 2.48-3.989 0.95 0 2.5-0.859 3.45-1.909 1.59-1.756 1.61-2.152 0.17-4.937-0.87-1.665-2.02-3.308-2.58-3.65-1.72-1.067-1.11-2.515 1.5-3.504 1.37-0.523 2.5-1.312 2.5-1.753 0-1.906-3.44-5.428-7.14-7.314-4.42-2.256-4.65-4.263-0.54-4.75 1.47-0.174 2.68-0.444 2.68-0.601 0-0.156-0.5-1.715-1.11-3.464-1.15-3.278-5.23-6.118-8.81-6.118-3.19 0-8.6 2.981-9.64 5.314-1.2 2.706-7.79 4.47-9.97 2.668-2.64-2.196-1.81-4.258 1.53-3.769 4.42 0.649 4.11-2.689-0.38-4.173-4.01-1.323-6.47-3.81-7.47-7.559-0.88-3.291-4.84-5.534-15.09-8.549-5.77-1.698-7.83-1.935-9.23-1.06-0.99 0.62-2.33 1.128-2.97 1.128-2.14 0-7.86 6.822-7.86 9.367 0 3.227 3.26 10.776 5.43 12.58 0.94 0.78 2.6 3.157 3.68 5.282 2.37 4.634 1.89 12.208-0.94 15.038-3.41 3.412-7.48-0.567-4.67-4.571 2.3-3.296 1.85-8.583-1.12-12.862-1.44-2.075-3.46-4.042-4.5-4.371-1.1-0.348-1.88-1.521-1.88-2.808 0-2.964-2.49-6.338-6.02-8.161-4.72-2.445-7.47-1.891-10.73 2.165l-2.93 3.659-4.71-1.186c-2.6-0.653-5.16-0.911-5.71-0.574-1.91 1.183-5.76-2.417-6.09-5.69-0.2-1.99-1.26-3.877-2.87-5.068-2.23-1.662-3.15-1.762-7.4-0.81-4.5 1.007-5.04 0.913-7.45-1.276-2.14-1.953-7.53-4.104-15.93-6.358-2.74-0.737-0.36-2.853 3.1-2.75 4.42 0.132 13.67 3.073 15.89 5.048 1.17 1.045 2.7 1.275 5.29 0.79 7.42-1.391 16.05 4.325 14.81 9.806-0.34 1.488 0.36 1.75 4.67 1.75 2.79 0 5.08-0.44 5.08-0.977 0-3.799 11.95-5.597 16.66-2.508 3.04 1.995 2.97 2.028 5.79-2.436 1.36-2.156 3.5-4.235 4.76-4.618 1.26-0.384 2.96-1.259 3.79-1.945 4.18-3.484 15.06-2.019 26.26 3.536 7.84 3.891 8.74 4.667 8.74 7.585 0 4.363 9.68 8.864 12.86 5.981 1.18-1.063 3.61-1.618 7.1-1.618 9.26 0 14.04 4.757 14.04 13.994 0 2.367 0.68 4.317 1.9 5.423 1.05 0.95 2.46 3.056 3.14 4.68 1.03 2.491 0.96 3.236-0.41 4.757-1.84 2.028-2.14 4.716-0.63 5.646 0.55 0.34 1 1.461 1 2.492 0 1.456 0.7 1.854 3.16 1.784 3.75-0.107 7.84 3.945 7.84 7.759 0 1.793 0.97 2.924 3.75 4.344 4.93 2.527 8.19 6.986 7.54 10.342-0.33 1.767 0.17 3.245 1.61 4.681 1.15 1.154 2.1 2.773 2.1 3.594 0 0.83 0.45 1.5 1 1.5s1 0.57 1 1.26c0 0.7 0.79 1.76 1.77 2.37 0.97 0.61 3.01 2.9 4.53 5.09 4.43 6.39 3.82 18.48-1.33 26.83-1.19 1.91-2.99 3.93-4.02 4.48-1.57 0.84-1.77 1.77-1.26 6.05 0.58 4.91 0.48 5.17-3.64 9.36-4.23 4.32-4.23 4.32-2.62 7.43 1.41 2.73 1.43 3.52 0.2 6.47-0.77 1.85-3.01 4.35-4.97 5.56s-3.84 3.07-4.17 4.13c-0.65 2.04-5.85 8.93-9.65 12.77-1.96 1.99-2.09 2.58-0.98 4.35 0.78 1.26 1.04 3.46 0.67 5.7-0.54 3.29-0.26 3.92 2.82 6.36 1.88 1.48 4.6 3 6.05 3.36 3.83 0.96 8.6 5.79 8.6 8.71 0 1.82 0.8 2.82 3.02 3.73 6.18 2.56 10.08 10.49 6.78 13.79-0.92 0.92-0.62 1.81 1.36 3.95 3.31 3.59 4.16 6.15 2.64 7.99-1.01 1.22-0.75 1.83 1.48 3.45 2.8 2.04 3.69 6.74 1.83 9.67-0.5 0.78-0.41 2.56 0.22 4.21 0.85 2.27 0.72 3.59-0.64 6.44-0.96 2.03-1.45 4.61-1.12 5.93 0.59 2.35-1.47 7.53-4.27 10.73-1.12 1.27-1.21 2.15-0.38 3.68 2.35 4.39 0.32 9.28-6.28 15.18l-2.93 2.62 2.73 4.67c2.73 4.66 2.73 4.69 1.21 10.68-0.84 3.3-2.45 7.31-3.59 8.91-1.13 1.6-2.06 3.35-2.06 3.89s-0.68 1.25-1.5 1.57c-3.02 1.15-2.75 1.6 10.15 16.63 3.07 3.58 6.96 8.53 8.65 11 1.68 2.48 5.6 7.65 8.71 11.5s6.06 7.73 6.57 8.62c0.5 0.89 2.39 3.36 4.18 5.5 1.8 2.14 5.49 6.81 8.2 10.38 2.72 3.58 5.86 7.7 6.99 9.16 1.12 1.46 2.05 3.13 2.05 3.7 0 0.58 0.59 1.4 1.32 1.84 0.72 0.44 3.71 3.95 6.63 7.8s5.59 7.23 5.93 7.5c0.34 0.28 2.63 3.2 5.08 6.5 4.37 5.88 10.46 13.02 17.92 21 4.48 4.79 13.88 15.69 21.83 25.31 13.89 16.81 25.95 30.45 38.12 43.11 3.48 3.62 7.53 8.16 9 10.08 1.46 1.93 3.16 3.95 3.76 4.5 1.38 1.27 12.68 13.68 17.78 19.55 2.13 2.45 9.59 10.3 16.58 17.45 12.34 12.64 16.55 16.74 52.86 51.5 9.48 9.08 22.23 21.34 28.34 27.25 6.11 5.92 11.39 10.75 11.74 10.75s3.33 2.69 6.62 5.98 6.54 5.99 7.21 6 1.89 1.26 2.69 2.77c0.81 1.52 3.63 4.55 6.28 6.75 2.64 2.2 10.2 9.28 16.8 15.72 15.6 15.23 20.2 19.39 24.74 22.35 5.76 3.76 15.52 12.51 25.59 22.93 7.14 7.4 14.84 14.75 35.09 33.5 32.72 30.3 57.09 54.73 57.09 57.23 0 0.43 0.41 0.77 0.92 0.77 0.99 0 6.45 5.31 25.73 25.06 6.69 6.84 15.46 15.55 19.5 19.34 14.68 13.78 27.93 27.1 30.1 30.27 1.22 1.78 2.97 3.6 3.88 4.04 0.92 0.43 4.46 4.17 7.87 8.29 11.31 13.68 34.11 38.3 46.01 49.57 6.5 6.23 16.8 16.5 36.7 37 5.9 6.1 12.2 11.8 13.8 12.7 1.6 0.8 4.6 3.3 6.5 5.4 5.7 6.1 13.3 12.3 16 13 1.4 0.3 3.2 1.2 4 1.9 0.8 0.6 3.5 2.2 5.9 3.4s8.3 4.9 13.1 8.1c4.9 3.3 9.2 5.9 9.6 5.9s1.4 0.6 2.3 1.4c0.9 0.7 3.2 1.9 5.1 2.6 1.9 0.8 5.1 2.5 7 3.9 1.9 1.5 4.4 3.1 5.5 3.7 10.4 5.7 21.3 11.9 22.5 12.9 0.8 0.8 3.3 2.1 5.5 3s4.9 2.5 6 3.5 4.9 3.4 8.5 5.3c3.6 1.8 9.5 5 13.1 7.1 3.7 2 7.3 3.6 8.1 3.6s2.5 1.2 3.8 2.5c1.3 1.4 3.1 2.5 4 2.5s2.5 0.7 3.5 1.5c1.1 0.8 2.8 1.5 3.7 1.5 1 0 2.7 0.9 3.8 2.1 2.3 2.2 18.5 10.9 20.4 10.9 1.7 0 7.4 2.9 8.1 4.1 0.3 0.5 2.1 0.9 4 0.9 4.2 0 13.3 4 15.9 6.9 1.4 1.6 2.1 4.1 2.4 8.8 0.4 5.4 0 7.5-2.3 12.9-1.5 3.5-3.2 6.4-3.7 6.4-0.6 0-3.2 2-6 4.5-8.1 7.3-14.5 9.8-26.3 10.1l-10 0.2 0.2 3.3c0.1 2.3-1 4.9-3.7 8.9-3.1 4.6-5.2 6.4-11 9.4-6.2 3.3-8 3.8-14.5 3.9l-7.5 0.2v3.3c0 6.7-4.7 11.7-13.4 14.4-7.2 2.3-20.5 2.4-26.1 0.2-7-2.7-8.3-2.8-9-0.6-1.1 3.7-9.6 8.3-18.3 10.2-5.1 1.1-7.4 1-14.9-0.3-4.8-0.8-9.5-1.6-10.3-1.6-0.8-0.1-3.6-0.4-6.3-0.7-4-0.5-5.1-0.2-7.6 1.9-3.4 2.9-10.5 6.3-14.1 6.9-1.4 0.2-8.4 0.1-15.5-0.2zm184-96.8c1.3-1.1 8.8-3.4 10-3 1.6 0.4 8.4-1.2 9-2.1 0.3-0.5-2.1-1.5-5.3-2.1-3.1-0.7-8.5-2.5-11.8-4.1-9.5-4.5-21.4-3.8-21.4 1.2 0 3 6 9 10 9.9 4.7 1.1 8.4 1.2 9.5 0.2zm-823.45-1017.9c3.82-3.21 6.88-9.47 6.91-14.12 0.03-4.44-2.27-3.69-3.03 0.99-0.67 4.07-4.82 9.9-8.43 11.83-1.38 0.75-2.51 1.95-2.51 2.68 0 2.21 3.64 1.5 7.06-1.38zm688.15 1092.6c-4.5-2.2-7.9-5.8-8.8-9.3-0.7-3 1.2-7.6 3.2-7.6 1.4 0 1.5 0.7 1 4.1-0.6 3.8-0.4 4.4 3 7.6s4.1 3.5 8.1 2.9c2.4-0.4 6.4-1.6 8.8-2.7 4.8-2.1 9.6-2.2 10.2-0.2 0.3 0.7-1.4 1.7-3.9 2.4-2.4 0.6-5.1 1.5-6.1 2-0.9 0.5-2.8 0.9-4.1 0.9-1.4 0-2.8 0.5-3.1 1-1 1.6-3.6 1.2-8.3-1.1zm44.6-11.9c-9.3-4.9-10.3-12.1-2.3-16.9 4.4-2.5 4.5-2.5 4.5-0.1 0 1-1.4 2.9-3 4-1.7 1.2-3 3-3 3.9 0 4.3 9.9 9.4 14.4 7.4 1.3-0.6 6.3-1.5 11.1-1.9 7.2-0.5 8.7-0.4 8.3 0.7-0.3 0.9-4 2-10.4 3.1-12.7 2.2-15.1 2.2-19.6-0.2zm39.2-34c0-0.5 0.4-1 1-1 0.5 0 1 0.5 1 1 0 0.6-0.5 1-1 1-0.6 0-1-0.4-1-1zm-1032.3-328.59c-1.08-1.07-0.86-4.17 0.35-4.91 1.74-1.08 7.06 1.63 6.72 3.42-0.31 1.67-5.75 2.82-7.07 1.49zm12.67-0.83c-0.83-2.15 0.42-3.55 3.17-3.55 2.61 0 3.21 1.84 1.25 3.8-1.64 1.63-3.75 1.51-4.42-0.25zm-19.38-6.58c0-2.52 2.52-3.61 4.52-1.95 1.14 0.95 1.23 1.58 0.37 2.62-1.77 2.12-4.89 1.7-4.89-0.67zm30.18-5.22c0.22-1.61 1.1-2.34 3.07-2.56 1.81-0.21 2.75 0.15 2.75 1.05 0 1.93-2.08 3.76-4.27 3.76-1.37 0-1.79-0.6-1.55-2.25zm7.78-9.29c-0.95-1.14-0.86-1.97 0.44-3.95 2.22-3.39 4.6-3.26 4.6 0.25s-3.23 5.88-5.04 3.7zm2.53-15.47c-1.07-1.72 0.55-4.99 2.47-4.99 2.47 0 3.3 2.6 1.42 4.47-1.77 1.78-3.01 1.95-3.89 0.52zm19.88-12.46c-1.07-2.78 1.78-4.8 5.02-3.57 1.5 0.58 4.93 1.04 7.61 1.04 5.27 0 6.84 1.06 4.49 3.01-0.92 0.76-2.71 0.98-4.74 0.57-4.7-0.95-5.93-0.97-8.99-0.12-2.11 0.58-2.89 0.37-3.39-0.93zm-21.7-2.93c-0.8-2.08 1.74-5.04 3.68-4.29 2.23 0.86 2.08 3.39-0.29 4.66-2.5 1.34-2.74 1.31-3.39-0.37zm11.51-1.84c0.35-2.45 2.5-3.28 4.75-1.83 1.19 0.76 1.21 1.19 0.13 2.5-2.06 2.47-5.27 2.04-4.88-0.67zm30.82 0.18c0-1.86 2.02-4.94 3.24-4.94 0.64 0 2.88-1.66 4.96-3.7 3-2.93 4.05-3.44 5.02-2.47 1.7 1.69 0.24 3.8-5.82 8.42-4.93 3.77-7.4 4.66-7.4 2.69zm14.34-15.47c-0.73-1.92 1.99-5 3.56-4.03 1.74 1.08 1.28 3.4-0.92 4.57-1.6 0.86-2.14 0.75-2.64-0.54zm11.13-23.51c-0.33-0.53-0.31-1.41 0.03-1.96 0.92-1.49 3.5-1.2 3.5 0.4 0 1.69-2.71 2.89-3.53 1.56zm-101.8-2.36c-0.7-1.84 2.39-4.6 5.15-4.6 2.42 0 2.99 2.79 0.98 4.8-1.65 1.65-5.47 1.52-6.13-0.2zm110.48-3.15c0.42-2.09 3.45-4.18 4.51-3.11 1.07 1.06-1.02 4.09-3.11 4.5-1.2 0.24-1.63-0.19-1.4-1.39zm-101.05-7.82c-0.87-1.05-0.7-1.9 0.72-3.66 1.99-2.45 4.18-1.99 4.18 0.89 0 1.74-1.79 4.14-3.08 4.14-0.37 0-1.19-0.61-1.82-1.37zm107.47-0.51c-0.87-1.4 1.53-7.25 2.79-6.83 0.62 0.21 1.09 0.91 1.04 1.55-0.06 0.64-0.17 2.29-0.25 3.66-0.15 2.43-2.44 3.47-3.58 1.62zm-73.52-8.55c-0.89-1.07-0.91-1.97-0.09-3.5 1.35-2.52 1.87-2.53 4.99-0.14 2.09 1.61 2.25 2.12 1.12 3.48-1.64 1.98-4.45 2.06-6.02 0.16zm13.98-0.02c-1.78-2.14-0.38-3.55 3.52-3.55 4.14 0 4.64 2.14 0.9 3.84-3.16 1.44-2.97 1.46-4.42-0.29zm-25.99-4c-1.57-1.89-0.39-5.56 1.77-5.51 0.93 0.01 2.48 1.12 3.45 2.45 1.7 2.34 1.69 2.47-0.18 3.47-2.61 1.4-3.61 1.32-5.04-0.41zm88.65 0.09c-0.85-2.2 0.36-5.64 1.99-5.64 1.02 0 1.35 0.93 1.13 3.18-0.34 3.38-2.2 4.86-3.12 2.46zm-53.29-1.8c-0.79-1.27 3-4.84 5.15-4.84 2.27 0 2.72 2.04 0.89 4.07-1.96 2.16-4.95 2.54-6.04 0.77zm-53.03-1.31c-0.37-0.96 0.03-2.36 0.94-3.27 1.31-1.31 1.86-1.36 3.14-0.3 1.69 1.41 2.1 4.04 0.63 4.04-0.51 0-1.63 0.28-2.49 0.61-0.96 0.37-1.83-0.06-2.22-1.08zm6.23-5.83c-1.92-1.4-1.9-4.77 0.03-5.41 1.59-0.53 4.53 2.64 4.17 4.5-0.42 2.14-2.04 2.49-4.2 0.91zm55.4-3.61c0-2.24 1.35-4.09 3-4.09 1.88 0 3.4 2.55 2.44 4.09-0.74 1.19-5.44 1.19-5.44 0zm2.38-8.54c-0.71-1.83 0.32-3.55 2.12-3.55 2.05 0 2.83 1.89 1.46 3.55-1.54 1.85-2.87 1.85-3.58 0zm-4.92-11.6c-0.96-1.56 0.38-5.95 1.8-5.91 1.67 0.04 4.99 4.74 4.23 5.97-0.81 1.32-5.2 1.27-6.03-0.06zm-8.1-11.45c-1.07-2.77 1.12-3.95 4.62-2.5 3.81 1.58 3.43 3.4-0.82 3.82-2.22 0.22-3.37-0.18-3.8-1.32zm53.64 0c-1-1.19-1-1.8 0-3 2.59-3.12 5.91-1.07 4.01 2.48-1.29 2.41-2.34 2.55-4.01 0.52zm9.51-8.48c-0.75-1.21 1.19-5.02 2.55-5.02 1.65 0 2.25 2.92 0.93 4.52-1.43 1.72-2.62 1.89-3.48 0.5zm6.49-10.39c0-0.76 0.69-1.96 1.54-2.66 1.9-1.58 4.03 0.1 3.12 2.47-0.74 1.93-4.66 2.09-4.66 0.19zm5.18-12.88c0.21-1.49 1.12-2.36 2.71-2.58 1.88-0.27 2.25 0.01 1.75 1.33-0.36 0.92-0.64 2.08-0.64 2.59 0 0.5-0.94 0.91-2.07 0.91-1.58 0-2-0.53-1.75-2.25zm-137.04-0.64c-0.87-0.55-1.11-1.65-0.67-3.04 0.89-2.8 5.82-2.56 6.37 0.31 0.55 2.91-2.85 4.54-5.7 2.73zm22.79-1.69c-2.8-3.37 3.96-7.13 8.04-4.48 1.25 0.81 1.1 1.35-0.92 3.51-2.75 2.92-5.22 3.26-7.12 0.97zm12.43 0.08c-1.05-2.73 0.45-4.65 3.37-4.31 3.62 0.41 4.06 3.13 0.76 4.64-3.29 1.49-3.44 1.48-4.13-0.33zm100.78-5.83c-0.83-0.99-0.73-1.82 0.37-3.25 1.46-1.89 1.51-1.89 2.97 0 1.1 1.43 1.2 2.26 0.38 3.25-0.61 0.73-1.45 1.33-1.86 1.33-0.42 0-1.26-0.6-1.86-1.33zm-127.63-3.3c-0.9-0.89-1.38-2.28-1.07-3.08 0.3-0.8 0.56-1.64 0.56-1.87 0-0.9 2.84-0.34 5.84 1.16 3.41 1.7 4.11 3.84 1.57 4.82-2.71 1.04-5.21 0.67-6.9-1.03zm40.5-0.85c-1.91-2.3-0.46-4.52 2.95-4.52 2.26 0 3.04 0.47 3.04 1.8 0 3.71-3.76 5.41-5.99 2.72zm81.69-2.15c-1.58-1.57-0.64-3.5 1.55-3.19 1.23 0.18 2.25 0.99 2.25 1.81 0 1.59-2.64 2.55-3.8 1.38zm-129.06-4.55c-2.01-1.12-2.14-4.16-0.24-5.74 1.71-1.42 6.54-0.38 7.29 1.57 1.13 2.95-3.9 5.94-7.05 4.17zm56.61-3.48c-1.72-0.69-1.58-3.82 0.23-5.33 3.2-2.65 6.29 1.82 3.32 4.79-1.28 1.28-1.6 1.33-3.55 0.54zm-1.27-13.86c-1.03-1.24-0.93-1.87 0.53-3.5 2.37-2.61 3.29-2.49 4.7 0.6 0.95 2.08 0.9 2.74-0.27 3.48-2.09 1.32-3.53 1.15-4.96-0.58zm-3.62-8.98c-0.79-2.06 0.28-4.5 1.98-4.5 2 0 3.99 2.7 3.3 4.49-0.75 1.95-4.53 1.96-5.28 0.01zm-6.14-13.29c-2.06-1.59-2.14-1.94-0.81-3.73 1.45-1.94 1.52-1.93 4.15 0.67 4.14 4.09 1.34 6.66-3.34 3.06zm-7.33-11.09c-2-1.62-2.14-2.12-0.99-3.5 1.76-2.12 2.67-2.04 5.16 0.45 1.65 1.64 1.83 2.36 0.88 3.5-1.55 1.87-2.26 1.81-5.05-0.45zm-13.51-11.57c-0.76-1.96 0.35-3.55 2.47-3.55 2.06 0 4.15 1.87 4.15 3.7 0 1.82-5.92 1.69-6.62-0.15zm-13.36-2.52c-3.57-3.58 0.11-7.07 5.34-5.08 3.21 1.22 3.31 2.35 0.45 5.01-2.72 2.53-3.32 2.54-5.79 0.07zm4.33-12.03c-3.06-1.22-3.61-2.59-1.79-4.42 1.92-1.92 7.78-2.08 9.3-0.24 2.35 2.84-3.29 6.35-7.51 4.66zm12.71-2.87c-0.77-1.44-0.55-2.28 0.92-3.61 1.54-1.39 2.65-1.56 5.64-0.86 4.77 1.13 5.3 2.82 1.49 4.78-4.02 2.08-6.83 1.97-8.05-0.31zm13.38-6.3c-0.81-2.54 1.65-4.83 5.19-4.83 3.02 0 3.87 1.69 2.31 4.6-1.71 3.21-6.51 3.35-7.5 0.23zm9.81-8.05c-2.59-1.24-2.94-3.96-0.75-5.78 0.82-0.68 1.5-2.29 1.5-3.56 0-2.52 3.35-5.44 6.24-5.44 2.36 0 4.25 4.71 2.65 6.63-0.62 0.75-1.81 1.37-2.63 1.37-0.99 0-1.33 0.66-0.99 1.94 0.49 1.88-1.69 6.13-3.08 6-0.38-0.04-1.71-0.56-2.94-1.16zm6.68-20.63c-2.03-1.64-2.18-2.15-1.03-3.53 2.74-3.31 8.71-0.39 6.47 3.16-1.52 2.4-2.82 2.49-5.44 0.37zm1.24-14.74c-1.8-1.26-2.03-1.88-1.1-3 1.48-1.78 3.03-1.78 5.45-0.01 1.61 1.18 1.7 1.63 0.57 3-1.66 1.99-2.09 1.99-4.92 0.01zm-4.42-12.47c-2.21-1.31-2.28-4.8-0.12-5.63 2.37-0.91 4.87 1.04 4.87 3.79 0 2.64-2.05 3.43-4.75 1.84zm-10.82-12.52c-1.51-1.81-0.24-4.72 2.28-5.21 1.72-0.34 5.17 4.36 4.27 5.82-0.94 1.53-5.1 1.14-6.55-0.61zm-11.35-12.73c-2.1-1.54-1.77-5.03 0.51-5.47 2.46-0.47 6.15 3 5.36 5.04-0.79 2.07-3.37 2.26-5.87 0.43zm-7.48-11.06c-0.63-0.75-0.86-2.1-0.51-3 1.23-3.22 8.41-1.16 8.41 2.41 0 1.56-0.69 1.96-3.38 1.96-1.86 0-3.89-0.61-4.52-1.37zm-4.9-18.83c-2.67-2.66 0.52-6.1 3.42-3.69 1.84 1.52 1.74 3.54-0.21 4.29-2.01 0.77-1.81 0.81-3.21-0.6zm35.46-8.46c-1.12-1.12-0.74-4.85 0.69-6.8 1.29-1.77 1.52-1.73 5 1.05 3.94 3.15 4.55 4.85 2.06 5.81-2.11 0.81-6.91 0.77-7.75-0.06zm-32.48-4.59c0.17-1.23 0.99-2.25 1.82-2.25 0.82 0 1.64 1.02 1.82 2.25 0.24 1.74-0.18 2.25-1.82 2.25-1.65 0-2.07-0.51-1.82-2.25zm46.45 0.75c-1.35-3.51 1.21-5.63 5.76-4.76 3.48 0.66 4.52 3.12 2.08 4.91-2.48 1.81-7.12 1.72-7.84-0.15zm-26.88-0.19c-2.1-0.54-2.35-4.56-0.4-6.19 1.04-0.86 1.99-0.64 4 0.95 2.99 2.35 3.4 4.43 1.06 5.33-1.67 0.64-1.91 0.63-4.66-0.09zm-11.55-4.51c-2.67-2.66-0.19-7.5 3.18-6.2 2.24 0.86 3.28 5.37 1.5 6.5-1.9 1.2-3.27 1.12-4.68-0.3zm52.16-4.3c-0.97-2.52 0.31-4.18 3.75-4.87 2.21-0.44 3.74-0.2 4.66 0.72 1.18 1.18 0.98 1.7-1.33 3.52-3.17 2.49-6.26 2.77-7.08 0.63zm-69.86-10.5c-0.34-0.55 0.08-1 0.94-1 0.85 0 1.56 0.45 1.56 1s-0.43 1-0.95 1c-0.51 0-1.21-0.45-1.55-1zm77.63-1.72c-0.7-1.25-0.42-2.47 1.02-4.5 2.21-3.09 4-3.5 5.81-1.32 1.67 2.01 0.48 5.02-2.53 6.39-3.21 1.47-3.16 1.47-4.3-0.57zm0.87-16.2c0-1.94 2.44-5.08 3.94-5.08 1.98 0 3.19 2.88 2.09 4.94-1.47 2.74-6.03 2.84-6.03 0.14zm-1.52-11.74c-0.82-0.81-1.48-2.11-1.48-2.87 0-1.81 3.41-3.63 5.39-2.87 1.7 0.65 3.04 3.89 2.19 5.27-1.04 1.68-4.62 1.96-6.1 0.47zm-90.16-4.92c-0.74-1.93 3.96-6.97 5.57-5.98 1.7 1.05 1.34 6.26-0.48 6.96-2.67 1.02-4.45 0.68-5.09-0.98zm100.08-0.92c-1.32-2.02-1.4-2.8-0.4-4 1.57-1.89 5.03-1.92 7.55-0.08 1.91 1.39 1.9 1.47-0.48 4-3.04 3.24-4.59 3.26-6.67 0.08zm15.53-1.08c-1.79-2.15-0.05-4.82 3.42-5.23 3.4-0.41 4.53 2.18 2.11 4.85-2.15 2.38-3.78 2.49-5.53 0.38zm11.45-5.86c-1.17-3.06 0.06-5.06 3.13-5.06 2.39 0 3.05 0.48 3.32 2.39 0.52 3.64-5.17 6-6.45 2.67zm-124.81-7.13c-2.05-2.05-1.99-2.74 0.45-4.95 2.41-2.18 3.67-1.27 4.58 3.3 0.56 2.79 0.37 3.22-1.41 3.22-1.13 0-2.76-0.7-3.62-1.57zm136.74-3.06c-1.48-3.84 3.83-6.66 6.02-3.2 0.76 1.21 0.69 2.1-0.26 3.25-1.72 2.06-4.97 2.03-5.76-0.05zm-139.31-8.37c0-1.93 0.5-3 1.43-3 2.01 0 3.13 4.03 1.42 5.11-2.28 1.45-2.85 1.02-2.85-2.11zm145.25-2.66c-2.73-1.1-0.16-7.34 3.03-7.34 2.12 0 3.43 5.94 1.57 7.11-1.48 0.94-2.69 1-4.6 0.23zm-141.25-1.84c-1.67-2.01 0.33-4.5 3.62-4.5 2.59 0 2.94 1.08 1.34 4.07-1.24 2.31-3.26 2.49-4.96 0.43zm7.25-9.15c-1.85-0.76-1.48-4.49 0.71-7.35 2.53-3.28 4.29-1.64 3.85 3.61-0.31 3.82-1.67 4.94-4.56 3.74zm134.11-4.85c-0.96-2.49 0.42-4.5 3.1-4.5 2.15 0 2.54 0.46 2.54 3 0 2.55-0.39 3-2.54 3-1.39 0-2.79-0.67-3.1-1.5zm-132.01-8c-0.63-1.67 2.11-6.5 3.69-6.5 1.45 0 3.32 4.61 2.62 6.44-0.77 2-5.54 2.04-6.31 0.06zm125.69-1.95c-1.75-2.1-0.87-5 1.62-5.35 2.43-0.35 5.5 3.22 4.65 5.42-0.7 1.82-4.74 1.78-6.27-0.07zm-9.55-8.56c-0.96-1.55 0.47-4.99 2.07-4.99 1.93 0 5.66 3.83 4.91 5.04-0.79 1.28-6.19 1.24-6.98-0.05zm-120.01-4.38c-1.64-1.19-1.74-1.76-0.72-4 0.66-1.43 1.8-2.61 2.54-2.61 2.12 0 6.02 4.71 5.35 6.45-0.74 1.93-4.64 2.02-7.17 0.16zm221.02-2.61c-0.34-0.55-0.31-1.49 0.06-2.1 0.67-1.09 2.38 0.58 2.42 2.35 0.02 1.1-1.76 0.92-2.48-0.25zm-111.5-3c0-3.58 2.68-4.11 5.44-1.06 2.23 2.47 1.25 4.06-2.5 4.06-2.6 0-2.94-0.34-2.94-3zm99.36-4.5c-0.98-2.54 0.33-4.22 3.65-4.71 4.1-0.6 5.22 1.79 2.04 4.37-2.76 2.23-4.92 2.36-5.69 0.34zm-112.35-0.98c-1.51-1.81-0.78-4.04 1.76-5.39 1.41-0.76 2.67-0.53 5.05 0.92 3.85 2.33 4.01 3.69 0.61 4.98-3.62 1.37-5.99 1.21-7.42-0.51zm-98.3-1.52c0.28-1.1 0.92-2 1.4-2 0.49 0 0.89 0.9 0.89 2s-0.64 2-1.41 2c-0.91 0-1.22-0.7-0.88-2zm78.29-6.5c-1.12-1.34-1.07-1.86 0.32-3.25 2.2-2.2 7.18-0.62 7.18 2.28 0 2.6-5.56 3.32-7.5 0.97zm142-1.84c0-0.74 0.91-2.17 2.02-3.18 2.45-2.21 4.52-0.78 3.51 2.42-0.75 2.37-5.53 3.03-5.53 0.76zm-184-3.22c0-0.85 0.45-1.28 1-0.94s1 1.05 1 1.56c0 0.52-0.45 0.94-1 0.94s-1-0.7-1-1.56zm59.05-3.87c-1.38-1.66 0.18-5.56 2.23-5.58 0.67-0.01 2.23-0.29 3.47-0.62 1.87-0.5 2.24-0.2 2.21 1.77-0.06 4.94-5.13 7.78-7.91 4.43zm133.39-7.66c-1.06-1.71 2.27-4.59 3.68-3.18 0.63 0.63 0.87 1.84 0.54 2.71-0.69 1.8-3.23 2.08-4.22 0.47zm-122.19-1.62c-1.72-0.62-1.57-2.83 0.32-4.71 2.36-2.36 4.43-1.95 4.43 0.89 0 2.55-2.56 4.6-4.75 3.82zm124.41-8.95c-1.2-1.21-0.69-4.11 0.82-4.69 1.65-0.63 3.99 2.78 3 4.37-0.69 1.13-2.83 1.3-3.82 0.32zm-118.28-1.8c-1.54-1.12-1.63-1.71-0.62-3.93 2.12-4.64 6.87-2.75 5.57 2.23-0.7 2.66-2.7 3.35-4.95 1.7zm74.02-3.91c-0.81-2.11 0.33-3.63 2.72-3.63 1.52 0 1.94 0.56 1.7 2.24-0.38 2.62-3.56 3.61-4.42 1.39zm-71.74-7.29c-0.36-0.37-0.66-1.49-0.66-2.5 0-2.16 3.2-2.5 4.85-0.51 1.79 2.16-2.18 5.02-4.19 3.01zm76.86-2.7c-1.47-1.07-1.57-1.67-0.62-3.47 1.72-3.21 4.1-2.76 4.1 0.77 0 3.57-1.12 4.43-3.48 2.7zm-77.86-6.3c-1.43-1.44-0.62-4.34 1.21-4.34 2.26 0 4.56 2.5 3.65 3.96-0.72 1.17-3.83 1.41-4.86 0.38zm71-4c-1.7-1.7-0.55-3.46 2.08-3.15 3.6 0.41 4.49 3.81 1 3.81-1.33 0-2.71-0.3-3.08-0.66zm-72.7-5.88c-0.92-1.11-0.98-1.84-0.19-2.63 1.58-1.58 4.23-0.23 4.23 2.14 0 2.4-2.23 2.67-4.04 0.49zm70.37-4.02c-0.79-2.06 0.9-3.67 3-2.86 2.11 0.81 2.16 3.02 0.08 3.82-2.22 0.85-2.4 0.79-3.08-0.96zm-173.13-2.64c-0.66-0.66-1.2-1.73-1.2-2.39 0-1.94 3.22-2.61 4.84-0.99 1.22 1.22 1.25 1.76 0.2 3.03-1.55 1.87-2.26 1.93-3.84 0.35zm12.39-0.1c-2.71-1.98-1.77-6.2 1.38-6.2 3.12 0 5.41 5.02 2.99 6.55-1.93 1.21-2.26 1.19-4.37-0.35zm85.15-3.82c-0.96-0.54-1.74-1.63-1.74-2.43 0-1.83 3.38-1.89 4.89-0.08 1.61 1.95-0.77 3.84-3.15 2.51zm-74.99-1.94c-2.27-1.34-2.27-5.52-0.01-6.39 1.15-0.44 2.34 0.08 3.54 1.56 3.17 3.91 0.68 7.31-3.53 4.83zm166.25-2.44c0-0.82 0.45-1.5 1-1.5s1 0.68 1 1.5c0 0.83-0.45 1.5-1 1.5s-1-0.67-1-1.5zm-101-0.99c-1-1.2-1.04-1.87-0.17-2.74 1.52-1.52 6.67 0.22 6.67 2.26 0 2.07-4.88 2.44-6.5 0.48zm83-0.01c-0.92-1.1-1-1.9-0.27-2.63 1.65-1.65 4.77-0.58 4.77 1.63 0 2.49-2.76 3.1-4.5 1zm-140.43-6.07c-1.9-1.9-1.98-2.87-0.32-4.15 1.82-1.4 6.18 0.01 6.59 2.15 0.64 3.32-3.6 4.68-6.27 2zm134.81-1.88c-0.72-1.87 0.33-3.55 2.21-3.55 2.04 0 3 3.01 1.3 4.09-1.99 1.26-2.88 1.12-3.51-0.54zm-76-2c-0.91-2.35 0.5-3.55 4.17-3.55 3.89 0 4.74 2.24 1.51 3.97-2.72 1.45-5.03 1.28-5.68-0.42zm11.62-2.05c-1-1.19-1-1.8 0-3 1.6-1.93 3.9-1.92 4.64 0.02 0.57 1.49-1.19 4.48-2.64 4.48-0.42 0-1.32-0.67-2-1.5zm56.12-0.38c-2.21-1.43-0.31-3.12 3.51-3.12 2.8 0 3.45 0.36 3.18 1.75-0.37 1.95-4.51 2.8-6.69 1.37zm23.23-1.65c-0.71-1.85 1.85-4.47 4.37-4.47 1.59 0 0.33 2.88-2.16 4.95-1.28 1.06-1.65 0.98-2.21-0.48zm-146.35-0.97c-1-1.19-1-1.8 0-3 1.67-2.02 6.61-1.93 7.41 0.13 1.4 3.67-4.77 6.06-7.41 2.87zm74.04-0.95c-1.77-2.13-0.86-5 1.72-5.37 2.32-0.33 2.97 1.76 1.63 5.24-0.76 1.97-1.8 2.01-3.35 0.13zm5.48-7.5c-1.1-1.79 0.51-5.19 2.31-4.84 2.23 0.43 2.24 5.16 0.01 5.59-0.91 0.17-1.95-0.16-2.32-0.75zm-75.95-3.62c-1.9-1.9-1.69-3.32 0.74-4.85 1.2-0.76 2.19-0.75 3.44 0.04 2.34 1.48 2.2 3.34-0.39 5.06-1.87 1.24-2.34 1.21-3.79-0.25zm77.09-9.09c-1.54-1.54-0.58-3.46 1.58-3.16 2.83 0.41 3.72 3.82 1 3.82-1.05 0-2.21-0.3-2.58-0.66zm-77.41-3.18c-0.66-0.41-1.33-1.85-1.48-3.2-0.21-1.86 0.25-2.53 1.91-2.76 3.14-0.46 4.84 3.02 2.51 5.13-0.96 0.86-2.28 1.24-2.94 0.83zm-3.05-11.36c-2.97-2.97 0.12-7.44 3.31-4.79 1.95 1.63 1.9 4.62-0.1 5.39-2.01 0.77-1.81 0.81-3.21-0.6zm109.05-2.46c-1.85-0.75-1.52-3.12 0.59-4.25 1.26-0.68 2.2-0.64 2.96 0.11 0.75 0.76 0.79 1.7 0.11 2.96-1.01 1.89-1.5 2.05-3.66 1.18zm7.13-2.79c-0.78-2.02 0.37-3.55 2.67-3.55 2.38 0 2.67 3.51 0.36 4.4-2.21 0.84-2.41 0.79-3.03-0.85zm-123.13-2.21c-2.05-0.82-1.42-4.15 0.92-4.89 2.77-0.88 5.41 2.15 3.69 4.22-1.14 1.37-2.42 1.56-4.61 0.67zm132.84-0.72c-1.71-2.06-0.7-4.62 1.82-4.62 2.85 0 3.33 1.48 1.29 4-1.61 1.99-1.92 2.05-3.11 0.62zm4.86-8.17c-1.06-1.27-1-1.83 0.3-3.13 2.14-2.14 4.75-0.96 4.75 2.15 0 2.94-2.95 3.51-5.05 0.98zm-151.77-2.67c0.17-1.23 1.35-2.74 2.6-3.36 1.26-0.63 2.88-1.94 3.6-2.93 0.9-1.23 2.05-1.6 3.71-1.18 7.07 1.78 7.85 6.69 1.06 6.69-2.26 0-4.44 0.64-5.15 1.5-0.69 0.83-2.35 1.5-3.7 1.5-1.95 0-2.38-0.44-2.12-2.22zm153.81-5.28c-1.11-1.34-1.07-1.85 0.22-3.14 1.25-1.25 1.98-1.32 3.73-0.39 1.21 0.65 2.03 1.91 1.86 2.85-0.43 2.25-4.15 2.68-5.81 0.68zm-134.74-3.6c-4.13-1.53-2.23-4.9 2.77-4.9 2.25 0 3.18 1.3 2.4 3.34-0.79 2.05-2.48 2.56-5.17 1.56zm145.25-0.9c-0.98-1.57 0.4-3 2.89-3 2.95 0 3.87 0.98 2.47 2.66-1.3 1.58-4.48 1.78-5.36 0.34zm12.7-0.2c-1.76-1.75-1.47-3.58 0.73-4.76 2.97-1.59 4.07-1.25 4.07 1.26 0 2.15-1.64 4.7-3 4.7-0.33 0-1.14-0.54-1.8-1.2zm-111.63-1.37c-3.7-3.7-0.15-7.23 4.56-4.55 3.33 1.89 3.65 3.64 0.93 5.09-2.63 1.4-3.65 1.3-5.49-0.54zm-12.04-3.03c-0.93-0.93-2.48-1.38-3.67-1.07-4.39 1.15-9.5-3.87-7.4-7.27 0.4-0.65-0.47-1.06-2.28-1.06-3.87 0-5.71-2.15-4.22-4.93 0.61-1.14 1.43-2.06 1.82-2.05 1.67 0.03 7.35 4.35 11.49 8.71 2.1 2.22 3.71 3.08 5.14 2.76 1.29-0.29 3.23 0.49 5.09 2.04 2.5 2.09 2.75 2.66 1.5 3.47-2.27 1.47-5.67 1.2-7.47-0.6zm23.47-0.9c-1-1.19-1-1.8 0-3 1.62-1.96 6.89-1.95 7.64 0.02 1.39 3.63-5.02 6.14-7.64 2.98zm109.77-0.7c-0.79-2.13 0.26-3.8 2.38-3.8 1.48 0 1.9 0.57 1.67 2.24-0.36 2.48-3.3 3.61-4.05 1.56zm-164.07-2.43c-0.39-0.38-0.7-1.52-0.7-2.53 0-1.31 0.74-1.84 2.57-1.84 2.08 0 2.51 0.42 2.25 2.24-0.32 2.22-2.77 3.49-4.12 2.13zm65.5-0.57c-1.84-1.84-1.43-3.8 0.8-3.8 1.46 0 2 0.67 2 2.5 0 2.73-0.94 3.17-2.8 1.3zm106.9-7.17c-1.67-2.01-0.24-4.79 2.26-4.43 2.46 0.35 3.46 3.67 1.48 4.92-1.85 1.17-2.42 1.1-3.74-0.49zm-106.95-0.95c-0.92-1.1-0.85-1.68 0.29-2.63 2.09-1.74 5.06-0.88 5.06 1.47 0 2.42-3.65 3.21-5.35 1.16zm-67.69-3.36c-1.58-1.58-1.57-1.76 0.12-3 0.99-0.72 2.35-1.32 3.04-1.32 1.95 0 4.35 2.91 3.73 4.53-0.77 1.99-4.82 1.87-6.89-0.21zm72.55-4.8c-1.62-1.96-0.58-4.52 1.83-4.52 3.07 0 4.54 2.48 2.62 4.4-1.99 1.99-2.88 2.01-4.45 0.12zm103.95-0.06c-1.58-1.91-0.42-4.69 1.78-4.27s2.88 4.36 0.88 5.13c-0.81 0.31-2.01-0.08-2.66-0.86zm-169.5-2.88c-1.48-1.08-1.68-1.73-0.82-2.6 1.39-1.42 5.7 0.5 5.1 2.28-0.59 1.77-2.16 1.89-4.28 0.32zm165.79-5.24c-1.72-0.69-1.57-2.83 0.3-4.378 1.27-1.06 1.82-1.008 3.13 0.298 2.79 2.79 0.4 5.63-3.43 4.08zm-62.21-2.79c-1.64-1.972-0.93-4.946 1.29-5.373 2.01-0.386 5.67 2.438 5.67 4.373 0 2.52-5.1 3.25-6.96 1zm-122.84-2.112c-1.22-0.862-3.1-3.272-4.16-5.357-2.11-4.131-6.63-6.68-10.2-5.747-3.88 1.015-7.8-1.999-7.83-6.021-0.02-2.97-1.06-3.41-5.31-2.238-5.66 1.564-10.24-0.792-11.83-6.087-1.48-4.944-0.38-7.484 3.23-7.484 2.1 0 2.4 0.464 2.4 3.713 0 5.218 2.41 7.478 6.28 5.878 4.75-1.968 7.88-0.551 9.4 4.25 1.29 4.067 1.42 4.159 5.82 4.159 5.52 0.001 11.26 3.301 12.99 7.475 2.31 5.589 3.64 5.754 8.03 1 3.22-3.488 3.98-5.051 3.98-8.208 0-3.646 0.17-3.88 2.69-3.584 2.09 0.246 2.88 1.045 3.53 3.567 0.63 2.455 1.38 3.25 3.08 3.25 3.16 0 6.35-2.488 7.12-5.542 0.49-1.954 1.19-2.511 2.85-2.273 1.27 0.181 2.36 1.164 2.57 2.315 0.47 2.595 3.07 5.5 4.92 5.5 0.8 0 3.45-2.138 5.88-4.75 3.54-3.793 4.33-5.287 3.94-7.413-0.6-3.183 1.47-5.274 4.31-4.372 2.28 0.725 4.11-1.841 4.11-5.777 0-3.227-2.2-4.928-5.35-4.139-3.48 0.874-8.83-2.321-8.44-5.038 0.23-1.635 0.93-1.959 3.72-1.733 1.89 0.153 3.98 0.738 4.66 1.299 0.84 0.699 1.44 0.672 1.91-0.087 0.95-1.54-3.71-8.283-7.98-11.539-3.96-3.024-3.44-5.54 0.98-4.695 1.46 0.278 2.5 0.011 2.5-0.64 0-1.36 1.96-1.425 4-0.132 1.22 0.782 1.27 1.315 0.26 2.945-1.05 1.702-0.78 2.716 1.88 6.993 2.08 3.343 2.92 5.737 2.53 7.213-0.41 1.559 0.28 3.182 2.31 5.504 2.55 2.903 2.78 3.682 1.96 6.57-0.52 1.803-0.94 3.386-0.94 3.519 0 0.865-16.49 17.968-18.28 18.966-3.41 1.895-7.84 1.547-10.35-0.813l-2.26-2.119-2.69 2.119c-2.89 2.273-7.35 2.789-9.09 1.051-0.76-0.756-2.69 0.554-6.64 4.5-5.92 5.924-8.54 6.764-12.49 4.002zm111.46 0.902c-1.28-1.286-0.65-5.405 0.92-6.008 1.93-0.739 6.97 3.959 5.98 5.568-0.74 1.2-5.81 1.52-6.9 0.44zm-12.01-2.468c-1.46-0.853-1.71-1.783-1.18-4.568 0.43-2.321 0.3-3.28-0.39-2.853-1.87 1.157-5.23-1.424-4.89-3.765 0.4-2.845 4.16-3.427 5.96-0.923 0.74 1.03 2.13 2.166 3.1 2.525 0.96 0.359 1.75 1.512 1.75 2.562s1 2.578 2.23 3.394c1.93 1.283 2.05 1.708 0.88 3.122-1.55 1.864-4.75 2.081-7.46 0.506zm-13.93-1.003c-2.19-1.223-2.24-4.73-0.09-5.556 1.99-0.763 4.75 0.828 5.18 2.98 0.42 2.149-2.87 3.817-5.09 2.576zm51.03-2.614c-3.3-0.751-1-6.251 2.61-6.251 1.15 0 3.61 3.238 3.09 4.075-0.92 1.495-3.83 2.603-5.7 2.176zm9.35-12.625c-2.34-2.816 1.71-6.858 4.52-4.521 1.86 1.54 1.74 4.541-0.21 5.288-2.31 0.889-3.04 0.76-4.31-0.767zm7.26-14.126c-0.79-2.065 0.28-4.5 1.98-4.5 2 0 3.99 2.697 3.3 4.487-0.75 1.954-4.53 1.963-5.28 0.013zm-154.16-7.7c-1.68-1.673-1.5-4.749 0.3-5.442 0.83-0.318 3.12 0.184 5.08 1.116 3.44 1.63 3.51 1.767 1.84 3.61-1.96 2.165-5.43 2.509-7.22 0.716zm-9.63-3.372c-1.89-1.886-1.96-2.647-0.37-4.228 1.67-1.675 4.36-1.496 6.27 0.418 1.49 1.492 1.49 1.767-0.08 3.5-2.08 2.294-3.75 2.383-5.82 0.31zm165.81 0.119c-0.82-2.126 0.41-3.547 3.07-3.547 2.65 0 3.94 2.203 2.27 3.878-1.59 1.584-4.68 1.393-5.34-0.331zm-140.97-1.685c-0.84-1.353 3.33-4.808 5.84-4.84 0.96-0.012 1.75 0.714 1.75 1.617 0 3.237-6 5.787-7.59 3.223zm13.06-8.906c-0.89-1.445 1.39-3.956 3.59-3.956 2.7 0 3.51 2.11 1.4 3.651-2.21 1.615-4.11 1.731-4.99 0.305zm-56.42-3.036c-3-1.064-6.6-1.818-8-1.677-2.06 0.206-2.62-0.233-2.89-2.243-0.18-1.375-0.75-2.928-1.25-3.45-1.23-1.28-1.17-8.55 0.07-8.55 0.55 0 2.15 1.838 3.57 4.085 3.39 5.368 10.27 8.479 20.69 9.35 5.83 0.487 8.9 0.254 12.43-0.945 2.58-0.875 7.65-1.971 11.26-2.435 7.87-1.012 24.68-5.626 27.78-7.625 3.01-1.947 5.02-1.796 6.23 0.467 0.82 1.528 0.56 2.198-1.33 3.437-1.29 0.847-3.65 1.521-5.23 1.5-1.59-0.022-12.09 2.256-23.35 5.063-23.09 5.759-30.66 6.332-39.98 3.023zm91.31-4.42c-0.67-1.747 0.19-4.5 1.41-4.5 2 0 4.52 2.799 3.92 4.355-0.79 2.057-4.56 2.159-5.33 0.145zm-55.96-4.652c-0.85-1.371 2.1-3.751 5.6-4.526 2.23-0.495 13.89-12.632 14.87-15.48 0.21-0.601 1.02-1.824 1.82-2.717 0.79-0.894 2.75-3.526 4.36-5.849 1.95-2.8188 3.42-4.0304 4.43-3.643 2.11 0.8092 1.97 1.3591-2 7.9955-5.17 8.6445-15.9 20.042-21.57 22.912-5.46 2.77-6.49 2.95-7.51 1.308z"/>
  </g>
  <metadata>
    <rdf:RDF>
      <cc:Work>
        <dc:format>image/svg+xml</dc:format>
        <dc:type rdf:resource="http://purl.org/dc/dcmitype/StillImage"/>
        <cc:license rdf:resource="http://creativecommons.org/licenses/publicdomain/"/>
        <dc:publisher>
          <cc:Agent rdf:about="http://openclipart.org/">
            <dc:title>Openclipart</dc:title>
          </cc:Agent>
        </dc:publisher>
      </cc:Work>
      <cc:License rdf:about="http://creativecommons.org/licenses/publicdomain/">
        <cc:permits rdf:resource="http://creativecommons.org/ns#Reproduction"/>
        <cc:permits rdf:resource="http://creativecommons.org/ns#Distribution"/>
        <cc:permits rdf:resource="http://creativecommons.org/ns#DerivativeWorks"/>
      </cc:License>
    </rdf:RDF>
  </metadata>
</svg>
