<?xml version="1.0" encoding="UTF-8" standalone="no"?>
<!-- Created with Inkscape (http://www.inkscape.org/) -->

<svg
   xmlns:dc="http://purl.org/dc/elements/1.1/"
   xmlns:cc="http://creativecommons.org/ns#"
   xmlns:rdf="http://www.w3.org/1999/02/22-rdf-syntax-ns#"
   xmlns:svg="http://www.w3.org/2000/svg"
   xmlns="http://www.w3.org/2000/svg"
   xmlns:sodipodi="http://sodipodi.sourceforge.net/DTD/sodipodi-0.dtd"
   xmlns:inkscape="http://www.inkscape.org/namespaces/inkscape"
   width="744.09448819"
   height="1052.3622047"
   id="svg2"
   version="1.1"
   inkscape:version="0.48.4 r9939"
   sodipodi:docname="smartphone.svg">
  <defs
     id="defs4" />
  <sodipodi:namedview
     id="base"
     pagecolor="#ffffff"
     bordercolor="#666666"
     borderopacity="1.0"
     inkscape:pageopacity="0.0"
     inkscape:pageshadow="2"
     inkscape:zoom="0.69827687"
     inkscape:cx="573.40469"
     inkscape:cy="515.15602"
     inkscape:document-units="px"
     inkscape:current-layer="layer1"
     showgrid="false"
     showguides="true"
     inkscape:guide-bbox="true"
     inkscape:window-width="1280"
     inkscape:window-height="961"
     inkscape:window-x="-8"
     inkscape:window-y="-8"
     inkscape:window-maximized="1" />
  <metadata
     id="metadata7">
    <rdf:RDF>
      <cc:Work
         rdf:about="">
        <dc:format>image/svg+xml</dc:format>
        <dc:type
           rdf:resource="http://purl.org/dc/dcmitype/StillImage" />
        <dc:title />
      </cc:Work>
    </rdf:RDF>
  </metadata>
  <g
     inkscape:label="Livello 1"
     inkscape:groupmode="layer"
     id="layer1">
    <g
       id="g4245"
       transform="translate(261.9881,-96.682236)">
      <rect
         ry="29.708712"
         y="528.77173"
         x="47.256958"
         height="188.1832"
         width="125.60437"
         id="rect3861-8"
         style="fill:#ffffff;fill-opacity:1;stroke:none" />
      <rect
         ry="27.125698"
         y="536.52173"
         x="55.00753"
         height="171.82167"
         width="109.67341"
         id="rect3861"
         style="fill:#000000;fill-opacity:1;stroke:none" />
      <rect
         y="560.45764"
         x="65.988731"
         height="124.29652"
         width="87.738724"
         id="rect3774"
         style="fill:#ffffff;fill-opacity:1;stroke:#4d4d4d;stroke-width:0.91394508;stroke-miterlimit:4;stroke-opacity:1;stroke-dasharray:none" />
      <rect
         y="547.59607"
         x="91.512756"
         height="3.6557803"
         width="36.5578"
         id="rect3776"
         style="fill:#ffffff;fill-opacity:1;stroke:#4d4d4d;stroke-width:0.36557803;stroke-linecap:round;stroke-linejoin:round;stroke-miterlimit:4;stroke-opacity:1;stroke-dasharray:none" />
      <path
         transform="matrix(2.0162052,0,0,1.9355568,-351.37951,-490.64331)"
         sodipodi:open="true"
         sodipodi:end="10.949226"
         sodipodi:start="4.712389"
         d="m 228.76521,609.48843 c 2.00281,0 3.6264,1.69125 3.6264,3.7775 0,2.08625 -1.62359,3.7775 -3.6264,3.7775 -2.0028,0 -3.62639,-1.69125 -3.62639,-3.7775 0,-2.0182 1.52298,-3.67993 3.45838,-3.77344"
         sodipodi:ry="3.7774971"
         sodipodi:rx="3.6263971"
         sodipodi:cy="613.26593"
         sodipodi:cx="228.76521"
         id="path3859"
         style="fill:#ffffff;fill-opacity:1;stroke:none"
         sodipodi:type="arc" />
    </g>
  </g>
</svg>
