<?xml version="1.0" encoding="UTF-8" standalone="no"?>
<svg
   xmlns:dc="http://purl.org/dc/elements/1.1/"
   xmlns:cc="http://creativecommons.org/ns#"
   xmlns:rdf="http://www.w3.org/1999/02/22-rdf-syntax-ns#"
   xmlns:svg="http://www.w3.org/2000/svg"
   xmlns="http://www.w3.org/2000/svg"
   xmlns:sodipodi="http://sodipodi.sourceforge.net/DTD/sodipodi-0.dtd"
   xmlns:inkscape="http://www.inkscape.org/namespaces/inkscape"
   version="1.0"
   viewBox="0 0 5125.453413166626 2048.620025763888"
   id="svg2"
   inkscape:version="0.48.4 r9939"
   width="100%"
   height="100%"
   sodipodi:docname="Spammers-are-Contributors-Too-2015012321.svg">
  <defs
     id="defs68" />
  <sodipodi:namedview
     pagecolor="#ffffff"
     bordercolor="#666666"
     borderopacity="1"
     objecttolerance="10"
     gridtolerance="10"
     guidetolerance="10"
     inkscape:pageopacity="0"
     inkscape:pageshadow="2"
     inkscape:window-width="1366"
     inkscape:window-height="709"
     id="namedview66"
     showgrid="false"
     inkscape:object-nodes="true"
     inkscape:snap-global="true"
     fit-margin-top="0"
     fit-margin-left="0"
     fit-margin-right="0"
     fit-margin-bottom="0"
     inkscape:zoom="0.2329549909311571"
     inkscape:cx="2562.726806640625"
     inkscape:cy="1024.309967170139"
     inkscape:window-x="0"
     inkscape:window-y="27"
     inkscape:window-maximized="1"
     inkscape:current-layer="svg2" />
  <metadata
     id="metadata4">
Created by potrace 1.10, written by Peter Selinger 2001-2011
<rdf:RDF>
  <cc:Work
     rdf:about="">
    <dc:format>image/svg+xml</dc:format>
    <dc:type
       rdf:resource="http://purl.org/dc/dcmitype/StillImage" />
    <dc:title></dc:title>
  </cc:Work>
</rdf:RDF>
</metadata>
  <path
     id="path3324"
     d="m 0,1023.999999999999 0,1024 2522.746418168235,0 2602.706994998391,0.620025763889 0,-1024 0,-1023.9999999999995452 L 2522.746418168235,-4.547473508864642e-13 l -2522.746418168235,0 z"
     style="fill:#000000;stroke:none"
     inkscape:connector-curvature="0"
     sodipodi:nodetypes="ccccccccc" />
  <g
     id="g4929"
     style="fill:#ffffff"
     transform="translate(-9902.773149333374,2885.662506232638)">
    <path
       inkscape:connector-curvature="0"
       id="path4569"
       d="m 12227.70939781086,-1899.661969086878 5.99999999999,-10.392304845412 -6.84160068988,-3.949999999998 c -6.8416006899,-3.949999999999 -6.8416006899,-3.949999999999 -5.99781847255,-6.811473670983 0.49019237888,-1.449038105671 2.0169872981,-4.493524478539 3.49019237887,-6.645190528374 l 2.55980762112,-3.833716857412 7.18801085141,4.15 7.18801085141,4.149999999999 11.54019237888,-20.588199529313 c 13.34019237886,-23.705890982937 13.2,-22.863070659909 4.62634850253,-27.813070659908 -5.88897274573,-3.399999999996 -5.98538290726,-4.033012701893 -0.5791651246,-11.996856578222 3.49641016151,-5.25596004384 3.63301270189,-5.29256258422 6.89089653438,-4.335382907251 5.67294734194,1.774166975081 18.34634110061,10.823205080761 21.21666049839,15.251666049842 5.03801085141,7.873909236273 5.05140831104,7.650704155514 -10.37897644668,35.576914536236 l -13.66698729812,24.671916386724 5.65237020534,3.609807621136 5.73897274574,3.659807621134 -3.69999999999,6.408587988004 -3.75,6.495190528384 -6.0621778265,-3.499999999998 -6.06217782649,-3.5 -6,10.392304845416 -5.99999999998,10.392304845409 -9.52627944164,-5.499999999998 -9.52627944163,-5.5 6,-10.392304845416 z"
       style="fill:#ffffff;fill-opacity:1;stroke:none" />
    <path
       inkscape:connector-curvature="0"
       id="path4571"
       d="m 12209.70939781086,-1867.26966424146 -11.9,-3e-12 -0.3,8.100000000003 -0.3,8.099999999997 -7.29999999999,0.100000000002 -7.20000000001,0.200000000002 0,-8.299999999999 0,-8.299999999999 -23.6,0.299999999996 c -27.3,0.299999999997 -26.4,9e-13 -26.4,10.200000000001 l 0,6.099999999999 -8.4,0 -8.39999999999,9e-13 -0.70000000001,-5.299999999998 c -1,-7.900000000011 0.4,-19.6 2.9,-24.400000000012 4.2,-8.3 4.1,-8.200000000001 35.9,-8.799999999997 l 28.2,-0.5 0.3,-6.700000000003 0.3,-6.799999999997 7.4,-2e-12 7.4,2e-12 0.3,6.799999999998 0.3,6.700000000003 11.8,-2e-12 11.7,-9e-13 0,11.3 0,11.2 -12.00000000001,4e-12 z"
       style="fill:#ffffff;fill-opacity:1;stroke:none" />
    <path
       inkscape:connector-curvature="0"
       id="path4573"
       d="m 12246.76195669412,-1867.87735939606 6,10.392304845414 6.84160068989,-3.949999999996 6.84160068991,-3.950000000005 3.44641016151,5.169357503464 c 1.92320508075,2.93108891325 3.62320508075,5.875575286117 3.75,6.495190528384 0.19019237886,0.92942286341 -1.86147367097,2.575833024919 -6.62461339179,5.325833024919 l -6.8416006899,3.950000000005 12.05980762114,20.288199529307 c 13.90980762113,23.492493523321 13.2,22.86307065991 21.86025403785,17.86307065991 l 5.02294734194,-2.899999999995 4.2,7.274613391789 4.20000000001,7.274613391789 -3.11410161514,2.60621778265 c -5.16576766498,4.252627944162 -18.09012331796,9.866987298108 -23.27384017537,10.088526329025 -9.28801085141,0.512693304104 -9.15140831103,0.549295844484 -25.57102355331,-26.690311995862 l -14.53301270188,-24.171916386721 -5.95237020536,3.090192378864 -6.03897274573,3.140192378863 -3.7,-6.408587988004 -3.75,-6.495190528384 6.06217782649,-3.5 6.06217782649,-3.5 -6,-10.392304845413 -6,-10.392304845413 9.52627944163,-5.5 9.52627944163,-5.5 6,10.392304845413 z"
       style="fill:#ffffff;fill-opacity:1;stroke:none" />
    <path
       inkscape:connector-curvature="0"
       d="m 11832.13820237029,-1857.778445842561 -9.3,-0.29999999999 0,-11 0,-11 9.3,-0.3 9.2,-0.299999999999 0,11.6 0,11.600000000001 -9.2,-0.299999999999 z m -63,0 -40.8,0.20000000001 0,-11.5 0,-11.5 40.3,0 c 22.2,0 40.7,0.29999999999 41.1,0.7 0.3,0.4 0.5,5.4 0.4,11.200000000001 l -0.3,10.6 -40.7,0.3 z"
       style="fill:#ffffff;fill-opacity:1;stroke:none"
       id="path4575" />
    <path
       inkscape:connector-curvature="0"
       d="m 11959.70076609963,-1857.878445842551 -9.29999999999,-0.299999999999 -0.3,-11.200000000001 -0.3,-11.299999999999 9.6,0 9.5,0 0,11.5 0,11.6 -9.2,-0.299999999999 z m -63,0 -40.79999999999,0.200000000001 0,-11.5 0,-11.5 41,0 41.1,0 -0.3,11.299999999999 -0.3,11.200000000001 -40.7,0.299999999999 z"
       style="fill:#ffffff;fill-opacity:1;stroke:none"
       id="path4577" />
    <path
       inkscape:connector-curvature="0"
       d="m 11704.57556993271,-1857.77844584255 -9.3,-0.3 -0.3,-11.2 -0.3,-11.3 9.6,0 9.5,0 0,11.5 0,11.600000000001 -9.2,-0.299999999999 z m -63,0 -40.8,0.2 0,-11.5 0,-11.5 41,0 41.1,0 -0.3,11.3 -0.3,11.2 -40.7,0.3 z"
       style="fill:#ffffff;fill-opacity:1;stroke:none"
       id="path4579" />
    <path
       inkscape:connector-curvature="0"
       id="path4635"
       d="m 14282.45147325911,-2393.39420243688 c 9.29999999999,2.4 15.59999999999,8.6 17.5,17 l 0.79999999999,3.5 -9,0 -8.89999999999,0 -1.10000000001,-3 c -1.39999999999,-4.1 -5.39999999999,-6 -12.79999999999,-6 -8,0 -11.40000000001,3.1 -9.40000000001,8.5 1,2.4 5.2,4.2 16.8,6.9 16.2,3.9 20.8,6.4 24.3,13 1.9,3.599999999999 1.8,12.099999999999 -0.1,16.599999999999 -1.7,4 -6.7,9.1 -11.29999999999,11.400000000001 -5.20000000001,2.599999999999 -18,4 -25.90000000001,2.700000000002 -13.20000000001,-2 -21.4,-8.200000000002 -23.9,-17.900000000001 -1.5,-5.800000000001 -1.1,-6.200000000002 7.7,-6.200000000002 7.8,0 9.8,0.6 9.8,2.900000000001 0,2.700000000002 2.9,6 6.7,7.599999999999 10.1,4.200000000002 22.1,-1.5 19.2,-9.199999999999 -1.1,-3 -4.9,-4.800000000001 -17,-7.800000000001 -12.8,-3.199999999999 -15.5,-4.199999999999 -19.8,-7.299999999998 -3.9,-2.900000000001 -6.1,-7.599999999999 -6.1,-13 0,-5.599999999999 2.3,-10.300000000001 6.9,-14.5 3.5,-3.200000000002 5.9,-4.200000000002 13.6,-6 4.6,-1.099999999999 16.5,-0.599999999999 22,0.799999999998 z"
       style="fill:#ffffff;fill-opacity:1;stroke:none" />
    <path
       inkscape:connector-curvature="0"
       id="path4637"
       d="m 13943.67437119984,-2006.492599925691 c 5.70000000001,1.9 11.10000000001,7.7 12.9,13.599999999999 0.9,3 1.3,11.900000000001 1.3,29.8 l 0,25.5 -9.19999999999,0.3 -9.10000000001,0.3 -0.39999999999,-23.8 c -0.30000000001,-19.8 -0.60000000001,-24.3 -2,-26.900000000001 -2.90000000001,-5.299999999999 -10.20000000001,-6.900000000001 -17.40000000001,-3.900000000001 -2.5,1 -4,2.599999999999 -5.4,5.700000000001 -1.69999999999,3.799999999999 -2,6.7 -2,26.5 l 0,22.299999999999 -9.5,0 -9.5,0 0,-34.5 0,-34.5 9,0 9,0 0,4.200000000001 0,4.2 3.30000000001,-3.2 c 6.79999999999,-6.599999999999 19.19999999999,-9 29,-5.599999999999 z"
       style="fill:#ffffff;fill-opacity:1;stroke:none" />
    <path
       inkscape:connector-curvature="0"
       id="path4639"
       d="m 14078.01655700043,-2394.375393616125 c 2.7,1.199999999998 6,3.199999999998 7.29999999999,4.4 3.1,2.899999999999 6.20000000001,9 6.20000000001,12.199999999999 0,2.5 -0.10000000001,2.5 -8.60000000001,2.5 l -8.5,0 -1.1,-3 c -1.29999999999,-3.900000000001 -5.4,-6 -11.70000000001,-6 -8.29999999999,0 -12.20000000001,2.900000000001 -10.6,8 0.89999999999,2.900000000001 4.5,4.400000000001 16.7,7.400000000001 16.4,3.900000000001 21,6.400000000001 24.4,12.799999999998 1.79999999999,3.400000000002 1.79999999999,12.900000000002 0,17.100000000001 -3.20000000001,7.699999999999 -12.20000000001,12.899999999999 -24.6,14.199999999999 -19,2 -36.19999999999,-7.300000000002 -36.4,-19.699999999999 l -0.1,-4.300000000001 7.6,-0.199999999999 c 4.1,-0.100000000001 8,0.199999999999 8.5,0.5 0.5,0.399999999999 1.4,2 1.9,3.6 1.5,4.5 5.6,6.9 12.2,7.299999999997 6.5,0.5 11.70000000001,-1.900000000001 13.20000000001,-5.900000000001 2.10000000001,-5.799999999997 -1.70000000001,-8.5 -17.29999999999,-12.400000000001 -17.80000000001,-4.299999999997 -23.70000000001,-8.099999999999 -25.20000000001,-16 -1.79999999999,-9.699999999998 4.20000000001,-19.799999999997 13.5,-22.799999999997 7.60000000001,-2.400000000001 8.20000000001,-2.5 18.10000000001,-2.200000000003 7.2,0.200000000003 10.7,0.800000000002 14.5,2.5 z"
       style="fill:#ffffff;fill-opacity:1;stroke:none" />
    <path
       inkscape:connector-curvature="0"
       id="path4641"
       d="m 13944.31427156302,-1966.234757591979 c 5.4,1.799999999999 11,7.599999999999 12.79999999999,13.099999999999 0.70000000001,2.400000000001 1.4,13.599999999999 1.60000000001,30 l 0.5,26.299999999999 -9.5,0 -9.5,0 -0.4,-23.799999999999 c -0.3,-21.200000000001 -0.5,-24 -2.20000000001,-26.900000000001 -3.2,-5.3 -10,-6.8 -17.1,-3.9 -6.4,2.7 -7,5.2 -7.29999999999,31.299999999999 l -0.3,23.3 -9.5,0 -9.4,0 0,-34.5 0,-34.5 9,0 9,0 0,4.099999999999 0,4.099999999999 4.10000000001,-3.599999999999 c 7.5,-6.3 18.5,-8.3 28.2,-5 z"
       style="fill:#ffffff;fill-opacity:1;stroke:none" />
    <path
       inkscape:connector-curvature="0"
       id="path4643"
       d="m 14233.2070780028,-1974.794796181373 -8.89999999999,0 -0.4,-7.29999999999 c -0.29999999999,-6.200000000001 -0.79999999999,-8 -3,-10.9 -4.4,-5.799999999999 -9,-6.799999999999 -31,-6.799999999999 l -18.79999999999,0 0,-9.5 0,-9.5 34.5,0 34.5,0 0,9 0,9 -5.4,0 -5.5,0 5.29999999999,5.299999999999 c 5.5,5.5 7.3,9.5 7.5,16.5 l 0.10000000001,4.200000000001 -8.9,0 z"
       style="fill:#ffffff;fill-opacity:1;stroke:none" />
    <path
       inkscape:connector-curvature="0"
       id="path4645"
       d="m 13983.0249721508,-2394.108484631915 c 9,4.200000000001 15.8,12.8 15.9,20 l 0,2.8 -9,0 -9,0 -1.6,-4 c -3.6,-8.9 -16.4,-10.3 -23.3,-2.5 -3.6,4.1 -5.1,9 -5.1,16.800000000002 0,9.199999999998 1.70000000001,14.199999999998 6.1,18.199999999998 3.60000000001,3.2 4.4,3.5 10,3.5 5.70000000001,0 6.4,-0.3 9.4,-3.4 1.70000000001,-1.8 3.6,-4.900000000001 4.1,-6.700000000001 l 1,-3.4 8.9,0 9,0 -0.29999999999,3 c -0.5,4.6 -3.60000000001,10.8 -7.60000000001,15.3 -6.89999999999,7.6 -19,11.1 -31.2,9.2 -12.1,-1.9 -19.5,-7.3 -24.7,-17.9 -3,-6.2 -3.20000000001,-7.2 -3.20000000001,-17.6 0,-9.8 0.30000000001,-11.6 2.60000000001,-16.5 6.69999999999,-14.3 17.09999999999,-20.3 34,-19.6 6.59999999999,0.3 9.89999999999,0.900000000001 14,2.8 z"
       style="fill:#ffffff;fill-opacity:1;stroke:none" />
    <path
       inkscape:connector-curvature="0"
       id="path4647"
       d="m 14186.22782973485,-2392.247271664403 c 7.8,3.5 11.8,8.099999999999 13.6,15.8 l 0.7,3.299999999999 -9,0 -8.9,0 -1.1,-3 c -1.4,-4.099999999999 -5.4,-6 -12.79999999999,-6 -8,0 -11.4,3.100000000001 -9.4,8.5 1,2.5 5.20000000001,4.200000000001 16.9,7 17.70000000001,4.1 23.5,7.9 25.29999999999,16.200000000001 1.1,4.799999999999 0,12.5 -2.29999999999,15.9 -5.29999999999,8.1 -13.79999999999,11.699999999999 -28,11.800000000002 -11.29999999999,0 -17.79999999999,-1.699999999999 -24.29999999999,-6.300000000002 -4.4,-3.200000000001 -8.5,-10.9 -8,-15 0.29999999999,-2.5 0.5,-2.599999999999 7.89999999999,-2.800000000001 4.20000000001,-0.1 8,0.200000000002 8.5,0.5 0.5,0.400000000001 1.4,2 1.9,3.6 1.70000000001,5 5.70000000001,7.1 13.6,7.1 6.10000000001,0 7.20000000001,-0.299999999999 9.5,-2.7 5.4,-5.400000000001 2.70000000001,-10.599999999999 -7,-13.199999999999 -21.70000000001,-6 -24.39999999999,-6.900000000001 -27.6,-9.5 -5,-4 -6.79999999999,-9.5 -5.29999999999,-16.599999999999 2.7,-12.5 11.89999999999,-17.699999999999 30.79999999999,-17.099999999999 7.70000000001,0.199999999998 11.20000000001,0.800000000001 15,2.5 z"
       style="fill:#ffffff;fill-opacity:1;stroke:none" />
    <path
       inkscape:connector-curvature="0"
       id="path4649"
       d="m 14137.92846244237,-1998.509872498125 -10.5,0 0,7 0,7 -6,0 -5.9,0 -0.29999999999,-6.700000000001 -0.3,-6.799999999999 -19,-0.29999999999 c -22.6,-0.29999999999 -22.9,-0.20000000001 -23.1,8 l -0.20000000001,5.29999999999 -7,0.299999999999 -7,0.3 -0.6,-4.8 c -0.9,-6.2 0.8,-18.7 2.8,-21.799999999999 3.7,-5.700000000001 5.1,-6 30.6,-6.5 l 23.5,-0.5 0.29999999999,-5.700000000001 0.3,-5.799999999999 5.9,0 5.9,0 0.3,5.799999999999 0.29999999999,5.700000000001 10.29999999999,0.299999999999 10.20000000001,0.3 0,9.399999999999 0,9.5 -10.5,0 z"
       style="fill:#ffffff;fill-opacity:1;stroke:none" />
    <path
       inkscape:connector-curvature="0"
       id="path4651"
       d="m 14024.55235746126,-1998.022264579073 -10.5,0 0,7 0,7 -6,0 -5.9,0 -0.29999999999,-6.7 -0.3,-6.8 -19.6,-0.299999999999 c -22.5,-0.299999999999 -22,-0.5 -22.70000000001,8.4 l -0.39999999999,5.399999999999 -6.8,0 -6.7,0 -0.70000000001,-4.799999999999 c -0.79999999999,-6.200000000001 0.8,-18.6 2.8,-21.700000000001 3.7,-5.7 5.1,-6 30.6,-6.5 l 23.5,-0.5 0.3,-5.7 0.29999999999,-5.8 5.9,0 6,0 0,6 0,6 10.5,0 10.5,0 0,9.5 0,9.5 -10.5,0 z"
       style="fill:#ffffff;fill-opacity:1;stroke:none" />
    <path
       inkscape:connector-curvature="0"
       d="m 11460.0253363194,-1859.578445842549 -8,0 0,-9.5 0,-9.5 7.3,0 c 4.1,0 7.7,0.299999999999 8,0.7 0.4,0.3 0.7,4.600000000001 0.7,9.5 l 0,8.8 -8,0 z m -53.5,0 -34.5,0 0,-9.5 0,-9.5 34.5,0 34.5,0 0,9.5 0,9.5 -34.5,0 z"
       style="fill:#ffffff;fill-opacity:1;stroke:none"
       id="path4653" />
    <path
       inkscape:connector-curvature="0"
       d="m 11573.86913020586,-1859.57844584255 -8,0 0,-9.5 0,-9.5 7.3,0 c 4.1,0 7.7,0.299999999999 8,0.700000000001 0.39999999999,0.299999999999 0.7,4.600000000009 0.7,9.5 l 0,8.799999999999 -8,0 z m -53.5,0 -34.5,0 0,-9.5 0,-9.5 34.5,0 34.5,0 0,9.5 0,9.5 -34.5,0 z"
       style="fill:#ffffff;fill-opacity:1;stroke:none"
       id="path4655" />
    <path
       inkscape:connector-curvature="0"
       id="path4657"
       d="m 10557.33427293759,-2168.362506232656 c 4,6.700000000009 9,14.9 11.1,18.200000000009 2.1,3.299999999991 11.70000000001,19 21.5,35 9.70000000001,15.899999999991 18.70000000001,30.599999999999 20,32.5 1.20000000001,1.899999999991 9,14.5 17.20000000001,28 40,65.200000000011 46.89999999999,76.200000000011 47.7,76.200000000011 0.5,0 29.8,-45.400000000021 65.10000000001,-100.80000000002 l 64.1,-100.899999999991 76.7,-0.299999999992 c 42.20000000001,-0.100000000009 76.70000000001,0.100000000001 76.70000000001,0.399999999991 0,0.299999999992 -11.10000000001,17.100000000009 -24.70000000001,37.20000000001 -13.5,20.199999999999 -36.6,54.5 -51.1,76.199999999999 -14.6,21.700000000002 -34.7,51.600000000001 -44.7,66.5 -10,14.800000000001 -32.9,48.900000000001 -50.8,75.600000000001 l -32.6,48.7 6.6,9.8 c 3.6,5.5 52.4,78.6 108.4,162.6 93.30000000001,139.9 101.9,153 101.9,156.700000000001 l 0,4.099999999999 -80.9,0 -80.8,0 -16.79999999999,-26.79999999999 c -9.3,-14.70000000001 -18.70000000001,-29.600000000009 -21,-33.20000000001 -5.9,-9.200000000001 -18,-28.400000000001 -58.5,-92.5 -19.4,-30.79999999999 -36.9,-58.599999999999 -38.9,-61.700000000001 -2,-3.2 -3.8,-5.799999999999 -4.1,-5.799999999999 -0.3,0 -4,5.5 -8.3,12.20000000001 -4.29999999999,6.79999999999 -11.29999999999,17.700000000001 -15.6,24.29999999999 -25.9,40.299999999999 -86.20000000001,134 -100.6,156.5 l -17.10000000001,26.5 -78.79999999999,0.299999999999 c -63,0.200000000001 -78.6,0 -77.9,-1 0.4,-0.7 50.4,-75.899999999998 111,-167.099999999999 l 110.4,-165.799999999999 -18.70000000001,-27.700000000001 c -24.5,-36.200000000001 -37.2,-55 -50.89999999999,-75.200000000001 -15.9,-23.5 -33.9,-50.1 -51,-75.5 -8.20000000001,-12.1 -17.60000000001,-26.1 -21,-31 -7.9,-11.5 -61.9,-91.6 -62.9,-93.299999999999 -0.6,-0.900000000001 15.79999999999,-1.200000000001 80.6,-1.200000000001 l 81.3,0.100000000001 7.39999999999,12.199999999998 z"
       style="fill:#ffffff;fill-opacity:1;stroke:none" />
    <path
       inkscape:connector-curvature="0"
       id="path4659"
       d="m 13641.30614757128,-1602.028445842548 319,0 0,-70 0,-70 -319,0 -319,0 0,70 0,70 319,0 z"
       style="fill:#ffffff;fill-opacity:1;stroke:none" />
    <path
       inkscape:connector-curvature="0"
       id="path4661"
       d="m 13322.90614757128,-1688.128445842549 c 0.5,0 26.6,0 58,0 31.29999999999,0 57.39999999999,0 58,0 0.7,0 1,-52 1,-154 l 0,-154 73.5,0 73.5,0 0,133.5 0,133.5 54.7,0 54.8,0 0,-133.200000000001 0,-133.299999999999 131.7,-0.299999999999 131.80000000001,-0.200000000001 0,-70 0,-70 -319.00000000002,0 -318.99999999999,0 0,224 c 0,148.700000000001 0.29999999999,224 1,224 z"
       style="fill:#ffffff;fill-opacity:1;stroke:none" />
    <path
       inkscape:connector-curvature="0"
       id="path4665"
       d="m 13218.26181364897,-1937.424260716534 c 12.20000000001,2.899999999999 20.5,8 26.70000000001,16.5 3.29999999999,4.5 6.5,13.299999999999 6.5,17.700000000001 l 0,2.299999999999 -16,0 c -15.9,0 -16,0 -16,-2.299999999999 0,-6.9 -8.3,-12.700000000001 -19.20000000001,-13.5 -14.7,-1 -21.79999999999,2.5 -21.79999999999,11 0,7.7 5.5,10.899999999999 27.1,15.799999999999 27.2,6.200000000001 36.8,10.299999999999 43.1,18.200000000001 5.2,6.399999999999 6.3,10.1 6.3,20.299999999999 -0.1,8 -0.5,9.799999999999 -3.20000000001,15.700000000001 -5.79999999999,12.399999999999 -16.7,20 -33.29999999999,23.399999999999 -11.20000000001,2.200000000001 -35.70000000001,1.5 -44.5,-1.299999999999 -18.4,-6 -28.4,-16.200000000001 -31.5,-32.1 -0.70000000001,-3.4 -1,-6.5 -0.70000000001,-6.9 0.3,-0.299999999999 7.5,-0.5 15.9,-0.5 l 15.20000000001,0.1 1.79999999999,5.3 c 3.29999999999,10.299999999999 13.1,15.5 27.29999999999,14.6 15.3,-1 23.70000000001,-11.200000000001 17.20000000001,-20.9 -3,-4.399999999999 -9,-6.799999999999 -32,-12.6 -27.1,-6.700000000001 -35.9,-11.700000000001 -41,-23.200000000001 -2.9,-6.6 -2.1,-19.700000000001 1.6,-27.299999999999 6.10000000001,-12.4 17.70000000001,-19 39.20000000001,-22.200000000001 5.5,-0.799999999999 24.9,0.4 31.29999999999,1.9 z"
       style="fill:#ffffff;fill-opacity:1;stroke:none" />
    <path
       inkscape:connector-curvature="0"
       id="path4667"
       d="m 12492.1644144145,-1880.372499822544 -12.94005409571,-12.940054095713 -8.48528137424,8.485281374238 c -4.66690475583,4.666904755832 -8.6974134086,8.273149339883 -8.98025612107,7.990306627407 -0.3535533906,-0.353553390593 -3.88908729653,-3.889087296526 -7.99030662741,-7.990306627407 l -7.42462120246,-7.424621202458 8.48528137424,-8.485281374239 8.55599205236,-8.555992052357 -24.96086937588,-24.536605307181 c -30.19345955667,-29.627774131715 -27.2943217538,-28.284271247461 -38.46660889656,-17.819090885893 l -7.14177848998,6.576093065035 -8.76812408671,-9.192388155425 -8.83883476484,-9.263098833536 6.43467170879,-7.424621202458 c 8.13172798365,-9.404520189782 15.27350647363,-15.414927829869 23.33452377916,-19.657568516987 5.16187950266,-2.757716446626 7.35391052434,-3.252691193458 12.72792206136,-2.969848480984 4.03050865276,0.212132034356 7.99030662741,1.202081528017 10.46518036156,2.687005768509 2.54558441227,1.55563491861 13.43502884254,11.879393923933 31.53696244092,29.981327522309 l 27.57716446628,27.577164466275 7.42462120246,-7.000357133754 7.49533188057,-7.071067811859 7.77817459304,7.778174593052 7.77817459305,7.778174593052 -5.7275649276,6.01040764008 c -3.11126983722,3.252691193458 -6.29325035257,6.576093065042 -7.07106781187,7.353910524347 -1.27279220614,1.414213562374 -0.84852813743,1.97989898732 11.3844191771,14.212846301848 l 12.72792206136,12.72792206136 -12.02081528016,12.020815280171 -12.02081528017,12.020815280172 -12.8693434176,-12.869343417597 z"
       style="fill:#ffffff;fill-opacity:1;stroke:none" />
    <path
       inkscape:connector-curvature="0"
       id="path4669"
       d="m 12516.41817700919,-1830.521471748888 -12.58650070512,13.010764773832 8.343860018,8.202438661765 8.27314933989,8.27314933989 -7.21248916811,7.636753236807 c -3.88908729652,4.171930009008 -7.56604255869,7.848885271178 -8.06101730552,8.061017305527 -0.56568542495,0.282842712474 -4.52548339959,-3.111269837214 -9.40452018978,-7.990306627402 l -8.41457069612,-8.41457069612 -24.32447327281,24.324473272818 -24.39518395094,24.395183950935 -0.28284271248,3.67695526217 c -0.28284271248,3.535533905926 0.0707106781,4.030508652762 6.50538238691,10.889444430266 l 6.64680374316,7.212489168103 -9.26309883354,8.838834764831 -9.19238815542,8.768124086721 -7.21248916811,-6.222539674441 c -11.31370849898,-9.758073580374 -19.51614716075,-20.36467529818 -22.20315292926,-28.991378028656 -1.55563491861,-4.808326112067 -0.49497474684,-13.364318164418 2.12132034356,-17.8190908859 1.48492424049,-2.474873734153 12.16223663641,-13.71787155502 29.91061684419,-31.466251762802 l 27.57716446626,-27.577164466276 -7.00035713374,-7.424621202459 -7.07106781186,-7.495331880575 7.77817459305,-7.778174593053 7.77817459305,-7.778174593051 7.49533188058,7.071067811865 7.42462120245,7.000357133747 12.65721138325,-12.657211383239 12.72792206136,-12.727922061358 12.02081528017,12.020815280171 12.02081528016,12.020815280172 -12.65721138324,12.940054095715 z"
       style="fill:#ffffff;fill-opacity:1;stroke:none" />
    <path
       inkscape:connector-curvature="0"
       id="path4671"
       d="m 12541.73259977567,-1904.484841060997 12.65721138324,-13.081475451951 -8.55599205236,-8.131727983645 -8.48528137424,-8.061017305527 8.20243866177,-8.202438661764 8.20243866176,-8.202438661764 8.48528137424,8.485281374238 8.55599205236,8.555992052357 24.53660530718,-24.960869375877 c 29.69848480983,-30.264170234784 28.4256926037,-27.435743110038 17.8190908859,-38.042344827836 l -6.71751442127,-6.717514421273 9.33380951166,-9.333809511661 9.26309883354,-9.263098833545 7.14177848999,6.151828996323 c 14.21284630185,12.232947314526 23.26381310103,26.23366158202 23.26381310103,35.850313806151 -0.0707106781,8.98025612107 0.14142135623,8.768124086713 -31.60767311904,40.941482630707 l -28.92066735053,29.344931419236 7.00035713375,7.424621202465 7.00035713375,7.424621202459 -7.14177848999,7.566042558697 c -5.3033008589,5.586143571374 -7.63675323682,7.495331880571 -8.69741340859,7.283199846222 -0.77781745931,-0.212132034364 -4.45477272148,-3.323401871577 -8.06101730553,-6.929646455636 l -6.50538238692,-6.505382386917 -12.58650070512,12.586500705121 c -6.92964645563,6.929646455628 -12.94005409572,12.657211383238 -13.2228968082,12.657211383239 -0.28284271248,0 -5.79827560573,-5.374011537016 -12.09152595829,-11.950104602053 l -11.52584053335,-11.950104602052 12.65721138325,-12.940054095714 z"
       style="fill:#ffffff;fill-opacity:1;stroke:none" />
    <path
       inkscape:connector-curvature="0"
       id="path4673"
       d="m 12565.1142249633,-1853.139390530263 12.72792206136,12.727922061358 8.48528137424,-8.485281374238 8.48528137424,-8.485281374238 8.13172798364,8.131727983644 8.13172798365,8.131727983646 -8.48528137424,8.485281374239 -8.55599205236,8.555992052357 24.96086937588,24.536605307179 c 30.12274887855,29.557063453599 27.2943217538,28.284271247463 38.25447686219,18.031222920257 l 7.00035713375,-6.434671708798 9.05096679919,9.050966799188 9.05096679918,9.050966799187 -6.78822509938,7.636753236808 c -8.27314933989,9.545941546024 -18.80904037956,17.960512242138 -25.66797615708,20.718228688773 -6.4346717088,2.616295090389 -15.41492782987,2.12132034356 -20.71822868876,-1.06066017178 -2.47487373416,-1.48492424049 -13.50573952067,-11.950104602052 -31.46625176281,-29.91061684419 l -27.57716446627,-27.577164466275 -7.42462120245,7.000357133739 -7.49533188059,7.071067811874 -7.77817459305,-7.778174593053 -7.77817459305,-7.778174593051 7.00035713375,-7.141778489985 6.92964645563,-7.212489168103 -12.02081528017,-12.44507934889 c -6.71751442127,-6.85893577751 -12.37436867077,-12.940054095707 -12.58650070513,-13.435028842537 -0.28284271247,-0.56568542495 3.95979797465,-5.232590180779 11.52584053334,-12.515790027002 l 11.95010460206,-11.525840533342 12.65721138323,12.657211383239 z"
       style="fill:#ffffff;fill-opacity:1;stroke:none" />
    <path
       inkscape:connector-curvature="0"
       id="path4675"
       d="m 12805.49085985263,-1894.102503411905 84.6,0.3 0.10000000001,18.5 0,18.5 -84.60000000001,0.299999999999 -84.69999999999,0.200000000001 0,-19 0,-19 84.59999999999,0.2 z"
       style="fill:#ffffff;fill-opacity:1;stroke:none" />
    <path
       inkscape:connector-curvature="0"
       id="path4677"
       d="m 13113.56669309336,-1888.212083497276 38,0 -0.3,12.700000000001 -0.3,12.799999999999 -36.9,0.3 c -21.5,0.1 -37.3,-0.200000000001 -38,-0.700000000001 -0.7,-0.6 -1,-5 -0.8,-13 l 0.3,-12.1 38,0 z"
       style="fill:#ffffff;fill-opacity:1;stroke:none" />
    <path
       inkscape:connector-curvature="0"
       id="path4663"
       d="m 13319.82764513524,-2023.984835957458 c 2.2,0.599999999999 2.2,0.9 2.2,16.3 l 0,15.6 -9.2,-0.300000000001 c -18.1,-0.699999999999 -27.6,5.100000000001 -33.6,20.200000000001 -1.4,3.4 -1.7,10 -2.2,39 l -0.5,34.9 -16.70000000001,0.1 -16.79999999999,0.1 0,-61.7 0,-61.700000000003 16,0 16,0 0,11.7 0.1,11.700000000002 2.1,-4 c 2.9,-5.500000000002 12.4,-14.700000000002 18.1,-17.400000000002 8.9,-4.3 18.6,-6 24.5,-4.5 z"
       style="fill:#ffffff;fill-opacity:1;stroke:none" />
    <path
       inkscape:connector-curvature="0"
       d="m 13293.52764513524,-1826.784835957458 c -12.5,5.9 -19.4,23.199999999999 -17.3,44 1.90000000001,20.599999999999 12.20000000001,32.199999999999 28.40000000001,32.199999999999 6.1,0 7.7,-0.4 12.39999999999,-3.299999999999 10.8,-6.4 15.5,-17.200000000001 15.5,-35.700000000001 0,-17.6 -4.39999999999,-28.5 -14.39999999999,-35.5 -3.8,-2.699999999999 -5.20000000001,-3 -12.4,-3.299999999999 -6.4,-0.200000000001 -9.1,0.199999999999 -12.20000000001,1.6 z m -17.70000000001,-70.800000000001 c 0.89999999999,0 1.20000000001,6.800000000001 1.20000000001,30.700000000001 l 0,30.799999999999 3,-3.699999999999 c 4.1,-4.900000000001 10.89999999999,-9.200000000001 18.79999999999,-12 9.1,-3.1 24.1,-3.1 32.39999999999,0 12.70000000001,4.599999999999 22.8,14.299999999999 28.8,27.599999999999 10.4,22.8 8.8,55.1 -3.7,75.8 -4.3,7.3 -13,15.000000000001 -21.3,19.100000000001 -6.3,3.1 -6.8,3.199999999999 -20,3.199999999999 -15.5,0 -21.8,-1.5 -29.6,-6.799999999999 -2.7,-1.8 -6,-5.1 -7.4,-7.200000000001 l -2.5,-3.799999999999 -0.3,7.9 -0.29999999999,7.899999999999 -15.89999999999,0 -16,0 0,-84.999999999999 0,-85 15.7,0.199999999999 c 8.70000000001,0.100000000001 16.40000000001,0.300000000001 17.10000000001,0.300000000001 z"
       style="fill:#ffffff;fill-opacity:1;stroke:none"
       id="path4679" />
    <path
       inkscape:connector-curvature="0"
       d="m 12923.83882967286,-1912.381021194946 c -8.29999999999,3 -14.7,11 -16.2,20.200000000001 l -0.70000000001,4.200000000001 27.20000000001,0 c 31,0 28.89999999999,0.799999999999 25,-9.5 -2.60000000001,-6.9 -7.10000000001,-12.200000000001 -12.4,-14.600000000001 -4.9,-2.299999999999 -17.20000000001,-2.399999999999 -22.9,-0.299999999999 z m 30.9,-24.7 c 9.4,3.1 15.4,6.899999999999 22.5,14.1 7.20000000001,7.200000000001 10.9,13.4 14.5,24.1 2.5,7.4 5.29999999999,27.4 4.20000000001,30.3 -0.60000000001,1.399999999999 -5.10000000001,1.6 -44.79999999999,1.6 l -44.20000000001,0 0.6,5.4 c 1.79999999999,17.299999999999 13.20000000001,26.5 31.70000000001,25.399999999999 11,-0.6 16.4,-3.799999999999 25.1,-14.6 1.4,-1.700000000001 28.9,-1.700000000001 28.9,0 0,0.6 -1.9,5 -4.1,9.700000000001 -9.9,20.399999999999 -27,30.1 -52.9,30.1 -19.70000000001,0 -32.20000000001,-4.5 -44.3,-15.9 -24,-22.6 -25,-68.2 -2.1,-93 9.4,-10.2 19.8,-16 34.5,-19.1 6.8,-1.4 23.5,-0.4 30.4,1.9 z"
       style="fill:#ffffff;fill-opacity:1;stroke:none"
       id="path4681" />
    <path
       inkscape:connector-curvature="0"
       d="m 13011.83597272806,-1912.381021194946 c -8.3,3 -14.70000000001,11 -16.20000000001,20.200000000001 l -0.70000000001,4.200000000001 27.20000000001,0 c 31,0 28.90000000001,0.799999999999 25,-9.5 -2.59999999999,-6.899999999991 -7.09999999999,-12.200000000001 -12.4,-14.600000000001 -4.89999999999,-2.29999999999 -17.2,-2.399999999999 -22.89999999999,-0.29999999999 z m 30.89999999999,-24.70000000001 c 9.4,3.10000000001 15.4,6.9 22.5,14.10000000001 7.2,7.200000000001 10.9,13.39999999999 14.5,24.1 2.5,7.4 5.3,27.4 4.2,30.29999999999 -0.59999999999,1.4 -5.09999999999,1.60000000001 -44.79999999999,1.60000000001 l -44.20000000001,0 0.60000000001,5.39999999999 c 1.8,17.3 13.2,26.5 31.7,25.4 11,-0.6 16.4,-3.79999999999 25.1,-14.6 1.4,-1.700000000001 28.9,-1.700000000001 28.9,0 0,0.6 -1.9,5 -4.1,9.7 -9.9,20.4 -27,30.10000000001 -52.9,30.10000000001 -19.7,0 -32.2,-4.5 -44.3,-15.9 -24,-22.6 -25,-68.20000000001 -2.1,-93 9.4,-10.20000000001 19.8,-16 34.5,-19.1 6.8,-1.4 23.5,-0.4 30.4,1.89999999999 z"
       style="fill:#ffffff;fill-opacity:1;stroke:none"
       id="path4683" />
    <path
       inkscape:connector-curvature="0"
       d="m 13102.88873271352,-1912.615550715345 c -4.7,1.799999999999 -12,8.299999999999 -14.2,12.5 -6.6,13.2 -6.7,37.299999999999 -0.1,50.1 2.6,5.200000000001 10.4,11.9 15.4,13.200000000001 2.29999999999,0.6 7.5,0.899999999999 11.70000000001,0.700000000001 16,-0.9 24.5,-10.8 26.79999999999,-30.8 1.29999999999,-11.6 -0.4,-24.299999999999 -4.5,-32.799999999999 -1.9,-4 -7.4,-9.6 -11.70000000001,-11.9 -4.1,-2.1 -18.79999999999,-2.799999999999 -23.39999999999,-1 z m 32.3,-23.9 c 26.60000000001,8.4 41.4,30.700000000001 41.4,61.9 0,19.1 -5,33.1 -15.6,44.6 -7.1,7.700000000001 -14.1,12.4 -23.70000000001,15.799999999999 -6,2.200000000001 -9.5,2.700000000001 -21.29999999999,3 -12.20000000001,0.5 -15.1,0.200000000001 -22,-1.6 -20.5,-5.6 -34.29999999999,-18.9 -41.1,-39.6 -2.3,-7 -2.60000000001,-9.700000000001 -2.70000000001,-21.5 -0.1,-15.4 1.3,-22.3 6.9,-33.600000000001 7.9,-16.299999999999 22.9,-27.299999999999 42.00000000001,-31 10.5,-2 26.1,-1.2 36.1,2 z"
       style="fill:#ffffff;fill-opacity:1;stroke:none"
       id="path4685" />
    <path
       inkscape:connector-curvature="0"
       d="m 13922.42955215366,-1846.323783238538 c -4.2,1.200000000001 -9,6.8 -10.5,12.100000000001 -1.79999999999,6.899999999999 -0.7,17.799999999999 2.5,23.2 3.5,6.100000000002 7.3,7.900000000001 14.70000000001,7.400000000001 6.79999999999,-0.5 9.29999999999,-2.299999999999 12.1,-8.5 6.2,-13.799999999999 1.5,-31.200000000001 -9.3,-34.299999999999 -3.9,-1.200000000001 -5.3,-1.100000000002 -9.5,0.1 z m 39.6,7.9 0,48 -9,0 -9,0 0,-4.2 0,-4.3 -2.7,2.900000000001 c -4.2,4.599999999999 -10.7,7 -18.8,7 -19.7,-0.100000000001 -31.7,-16.100000000001 -30.2,-40.200000000001 1.4,-22.799999999999 19.7,-37.200000000001 39,-30.600000000001 2.6,0.9 6.1,2.9 7.8,4.5 1.7,1.600000000001 3.3,2.9 3.5,2.9 0.2,0 0.4,-7.4 0.4,-16.299999999999 0,-9 0.3,-16.700000000001 0.7,-17 0.3,-0.4 4.6,-0.700000000001 9.5,-0.700000000001 l 8.8,0 0,48 z"
       style="fill:#ffffff;fill-opacity:1;stroke:none"
       id="path4687" />
    <path
       inkscape:connector-curvature="0"
       d="m 13931.74128638101,-1861.427967896212 c 4.20000000001,-1.200000000001 9,-6.799999999999 10.5,-12.099999999999 1.8,-6.900000000001 0.70000000001,-17.8 -2.5,-23.199999999998 -3.5,-6.100000000002 -7.29999999999,-7.900000000001 -14.7,-7.400000000001 -6.8,0.5 -9.3,2.299999999999 -12.1,8.5 -6.2,13.799999999999 -1.5,31.2 9.3,34.299999999999 3.9,1.200000000001 5.3,1.099999999999 9.5,-0.100000000001 z m -39.6,-7.900000000001 0,-48 9,0 9,0 0,4.2 0,4.3 2.70000000001,-2.9 c 4.2,-4.6 10.7,-7 18.79999999999,-7 19.70000000001,0.1 31.70000000001,16.1 30.20000000001,40.200000000001 -1.4,22.799999999999 -19.70000000001,37.199999999999 -39,30.599999999998 -2.60000000001,-0.899999999999 -6.10000000001,-2.899999999999 -7.8,-4.5 -1.7,-1.599999999998 -3.3,-2.899999999999 -3.5,-2.899999999999 -0.2,0 -0.4,7.399999999999 -0.4,16.300000000002 0,9 -0.29999999999,16.699999999998 -0.7,17 -0.3,0.399999999998 -4.6,0.699999999998 -9.5,0.699999999998 l -8.8,0 0,-48 z"
       style="fill:#ffffff;fill-opacity:1;stroke:none"
       id="path4689" />
    <path
       inkscape:connector-curvature="0"
       d="m 14009.02497214966,-2384.367806678266 c -5,1.6 -9.60000000001,7.299999999999 -9.60000000001,12 0,1.9 0.5,2 15,2 11.3,0 15,-0.300000000001 15,-1.300000000001 -0.1,-2.599999999999 -4,-9.599999999999 -6.2,-11.099999999999 -3,-2 -10.4,-2.800000000001 -14.2,-1.6 z m 17,-13.5 c 3.20000000001,0.9 6.89999999999,3.199999999999 10.5,6.4 7.29999999999,6.5 10.89999999999,14.300000000001 11.6,25.200000000002 l 0.60000000001,7.900000000001 -24.70000000001,0 -24.60000000001,0 0,3.099999999999 c 0,4 2.70000000001,9.699999999998 5.4,11.400000000001 6.8,4.5 18.8,3.199999999998 23.8,-2.400000000001 2.7,-3 3.1,-3.099999999999 10.8,-3.099999999999 4.4,0 8,0.199999999998 8,0.5 0,1.699999999998 -5.3,10.5 -8,13.199999999998 -12.69999999999,12.900000000001 -39.19999999999,11.5 -51.19999999999,-2.799999999997 -10.30000000001,-12.200000000003 -10.80000000001,-33.099999999999 -1.2,-47 7.9,-11.400000000001 24.5,-16.700000000003 39,-12.400000000001 z"
       style="fill:#ffffff;fill-opacity:1;stroke:none"
       id="path4691" />
    <path
       inkscape:connector-curvature="0"
       d="m 13919.77269286998,-1787.003632561692 c -13.10000000001,3.8 -15.30000000001,33.5 -3,40.9 2.2,1.4 5,2 9.09999999999,2 5.4,0 6.1,-0.299999999999 9.6,-3.799999999999 4.3,-4.3 6,-9.200000000001 6,-17.3 0,-11.5 -4.5,-19.799999999999 -12.1,-21.899999999999 -4,-1.200000000001 -5.3,-1.100000000001 -9.6,0.1 z m 19.69999999999,-13.5 c 7.10000000001,2.100000000001 14.80000000001,9.700000000001 18.10000000001,17.899999999991 1.99999999999,5.100000000009 2.39999999999,7.70000000001 2.39999999999,17.500000000009 0,10.6 -0.3,12 -2.9,17.799999999999 -5.5,11.9 -15,17.799999999999 -28.2,17.5 -6.69999999999,-0.1 -11.19999999999,-1.899999999999 -16.1,-6.6 l -3.3,-3.100000000001 0,16.19999999999 0,16.200000000001 -9.7,0 -9.8,0 0.3,-46.5 0.2,-46.49999999999 9,0 9,0 0,4.2 0,4.1 3.60000000001,-3.6 c 6.39999999999,-6.4 16.7,-8.299999999999 27.39999999999,-5.100000000001 z"
       style="fill:#ffffff;fill-opacity:1;stroke:none"
       id="path4693" />
    <path
       inkscape:connector-curvature="0"
       d="m 14311.13992520537,-2379.164811420519 c -6.20000000001,2.9 -9.20000000001,9.699999999999 -9.20000000001,20.6 0,9 1.9,14.299999999999 6.4,18.5 2.4,2.199999999999 3.70000000001,2.5 10.3,2.5 7.3,0 7.5,-0.100000000001 10.8,-3.700000000001 4.3,-4.7 5.8,-10.400000000001 5.3,-19.799999999999 -0.70000000001,-12.300000000001 -5.4,-18.400000000001 -15,-19.5 -3.10000000001,-0.400000000001 -5.5,0 -8.60000000001,1.4 z m 22.79999999999,-12.700000000001 c 7.9,3.6 12.5,8 16.20000000001,15.6 3.10000000001,6.3 3.29999999999,7.3 3.29999999999,17.700000000001 0,9.799999999999 -0.29999999999,11.599999999999 -2.7,16.699999999999 -3.5,7.6 -10.3,14.1 -17.6,16.800000000001 -6.6,2.5 -20,3.099999999999 -26.9,1.099999999999 -9.8,-2.700000000001 -18.8,-12.099999999999 -21.9,-22.900000000001 -2.5,-8.599999999999 -1.6,-22.099999999999 2,-29.2 6.70000000001,-13.2 17.6,-19.2 33.6,-18.7 6.60000000001,0.2 9.8,0.9 14,2.9 z"
       style="fill:#ffffff;fill-opacity:1;stroke:none"
       id="path4695" />
    <path
       inkscape:connector-curvature="0"
       d="m 14126.08007881692,-2359.525807197171 c -0.2,0.3 -4.5,1.2 -9.39999999999,2.2 -10.5,1.9 -14.4,4.8 -14.4,10.7 0,11 19.79999999999,11.9 25,1.099999999999 2.4,-4.900000000001 2.79999999999,-14.5 0.7,-14.5 -0.79999999999,0 -1.6,0.199999999998 -1.90000000001,0.5 z m 5.70000000001,-37 c 6.29999999999,1.7 11.5,5 14.29999999999,9.3 1.5,2.2 1.80000000002,6.300000000001 2.30000000002,29.7 0.29999999999,14.8 0.89999999999,27.8 1.29999999999,28.7 0.70000000001,1.7 0,1.8 -8.79999999999,1.8 l -9.60000000001,0 -0.6,-3 c -0.4,-1.7 -0.79999999999,-3 -1,-3 -0.2,0 -2,1.1 -4,2.5 -8,5.5 -23,6.6 -31.7,2.5 -11.4,-5.4 -14.5,-21.6 -6.1,-31 4.29999999999,-4.7 9,-6.4 23.89999999999,-8.6 15.9,-2.3 19.5,-5.1 16.4,-12.6 -1.5,-3.599999999999 -4.29999999999,-4.8 -11,-4.8 -6.6,0 -10.4,2.1 -12,6.5 l -1.29999999999,3.5 -9.3,0 c -5.1,0 -9.30000000001,-0.299999999999 -9.30000000001,-0.799999999999 0,-2.400000000001 2.5,-8.900000000001 4.30000000001,-11.3 2.9,-4 8.8,-7.700000000001 15,-9.400000000001 7,-1.9 19.9,-1.9 27.19999999999,0 z"
       style="fill:#ffffff;fill-opacity:1;stroke:none"
       id="path4697" />
    <path
       inkscape:connector-curvature="0"
       d="m 14230.72433398529,-2357.477322504668 c -0.2,0.300000000001 -4.5,1.200000000002 -9.4,2.200000000002 -10.5,1.9 -14.39999999999,4.799999999998 -14.39999999999,10.5 0.1,5.799999999998 4,8.799999999998 11.5,8.799999999998 6.7,0 11,-2.399999999999 13.5,-7.399999999999 2.39999999999,-5 2.79999999999,-14.6 0.7,-14.6 -0.8,0 -1.6,0.199999999999 -1.9,0.5 z m 5.70000000001,-37 c 6.29999999999,1.700000000002 11.5,5 14.29999999999,9.300000000001 1.5,2.199999999999 1.8,6.299999999999 2.20000000001,29.699999999999 0.29999999999,14.800000000001 1,27.800000000001 1.39999999999,28.700000000002 0.70000000001,1.699999999998 0,1.799999999998 -8.79999999999,1.799999999998 l -9.6,0 -0.60000000001,-3 c -0.39999999999,-1.699999999999 -0.79999999999,-3 -1,-3 -0.2,0 -2,1.1 -4,2.5 -5.1,3.5 -10.6,4.9 -19.39999999999,4.800000000001 -13.5,0 -21.9,-6.599999999999 -22.8,-18 -0.6,-7.400000000001 1.3,-12.700000000001 6,-16.700000000001 4.6,-4 8.4,-5.2 22.5,-7.2 5.9,-0.900000000001 11.9,-2.099999999999 13.3,-2.700000000001 3.39999999999,-1.599999999999 4.7,-5.7 3,-9.7 -1.60000000001,-3.699999999999 -4.3,-5 -11.10000000001,-5 -6.6,0 -10.39999999999,2.1 -12,6.5 l -1.29999999999,3.5 -9.3,0 c -10.4,0 -10.5,-0.1 -7.8,-6.699999999999 3.5,-8.199999999999 8.2,-12.1 18.5,-14.9 6.3,-1.800000000001 19.5,-1.700000000001 26.5,0.1 z"
       style="fill:#ffffff;fill-opacity:1;stroke:none"
       id="path4699" />
    <path
       inkscape:connector-curvature="0"
       d="m 14366.77356656023,-2383.26904767855 c -1.7,0.799999999998 -4.4,3.1 -6,5.1 -2.5,3.299999999998 -2.79999999999,4.699999999998 -3.2,12.4 -0.3,7.5 0,9.199999999999 2,13 3.2,6.1 6.5,8.299999999998 12.6,8.4 10.7,0.2 16.9,-8.199999999999 16,-21.599999999999 -0.4,-7 -3.1,-13.199999999999 -6.8,-15.900000000001 -3.39999999999,-2.5 -10.7,-3.199999999999 -14.6,-1.4 z m 12.5,-13.000000000001 c 1.9,1 4.70000000001,3.200000000002 6.3,4.900000000001 l 2.8,3.1 0,-4.200000000002 0,-4.199999999999 9,0 9,0 0,35.300000000001 c 0,39 -0.4,42.099999999999 -6,48.9 -1.7,2.1 -5.9,5.1 -9.5,6.900000000001 -5.3,2.599999999999 -8,3.199999999999 -15.2,3.599999999999 -18.5,1.1 -32.5,-6.4 -34.9,-18.599999999999 l -0.6,-3.099999999999 9.4,0 c 9.1,0 9.5,0.1 10.6,2.5 1.79999999999,3.900000000001 6.9,6.5 13,6.5 10.6,0 15.1,-5.599999999999 15.2,-18.400000000001 l 0,-6.900000000001 -3.7,3.700000000002 c -11,11 -32.8,7.6 -41.5,-6.5 -5.8,-9.300000000001 -6.4,-27.599999999999 -1.3,-38.700000000002 3.2,-7.199999999998 9.4,-13.199999999998 15.8,-15.599999999999 5.5,-2 17,-1.599999999999 21.6,0.799999999998 z"
       style="fill:#ffffff;fill-opacity:1;stroke:none"
       id="path4701" />
    <path
       inkscape:connector-curvature="0"
       id="path4611"
       d="m 14128.22774024466,-1364.474801390902 c 0.3,21.099999999999 0.3,21.5 2.7,24 3.2,3.4 11.4,3.7 15.4,0.599999999999 3.9,-3.099999999999 4.7,-7.7 4.7,-27.799999999999 l 0,-18.200000000001 8.5,0 8.5,0 -0.2,29.700000000001 -0.3,29.799999999999 -7.7,0.3 -7.8,0.300000000001 0,-4.300000000001 0,-4.199999999999 -3.2,3.199999999999 c -4.4,4.2 -9.6,6.2 -16,6.2 -7.5,0 -11.9,-1.5 -15.5,-5.2 -5.1,-5.5 -5.6,-8.3 -6.1,-33.099999999999 l -0.4,-22.700000000001 8.5,0 8.6,0 0.3,21.400000000001 z"
       style="fill:#ffffff;fill-opacity:1;stroke:none" />
    <path
       inkscape:connector-curvature="0"
       id="path4613"
       d="m 14529.52774024466,-1384.374801390903 c 5.4,2.600000000001 9.1,7.100000000001 10.1,12.3 l 0.7,3.2 -8.2,0 c -7.4,0 -8.1,-0.2 -8.1,-2 0,-5.099999999999 -13.8,-7.7 -18.1,-3.299999999999 -2.7,2.599999999999 -1.8,5.799999999999 2.1,7.799999999999 1.6,0.8 6.7,2.400000000001 11.3,3.5 15.79999999999,3.600000000001 20.9,7 22.29999999999,14.700000000001 1.5,8.099999999999 -2.89999999999,16.299999999999 -11.1,20.599999999999 -5.6,2.900000000001 -20,3.6 -27.9,1.300000000001 -9,-2.600000000001 -15.6,-9.9 -15.6,-17.100000000001 0,-2.399999999999 0.20000000001,-2.5 6.8,-2.5 6.8,0 6.9,0 9.3,3.700000000001 3,4.7 6.1,6.299999999999 12,6.299999999999 6.2,0 10.1,-3 9.7,-7.399999999999 -0.4,-3.800000000001 -3.7,-5.600000000001 -15.8,-8.600000000001 -15.5,-3.899999999999 -21,-8.299999999999 -21,-16.899999999999 0,-10 6.20000000001,-16 19,-18.5 5.70000000001,-1.100000000001 17.5,0.399999999999 22.5,2.899999999999 z"
       style="fill:#ffffff;fill-opacity:1;stroke:none" />
    <path
       inkscape:connector-curvature="0"
       id="path4615"
       d="m 14023.52774024466,-1384.974801390902 c 5.1,2.3 8.3,5.5 10.1,9.7 2.5,6.1 2.2,6.4 -6,6.4 -7.2,0 -7.5,-0.1 -8.8,-2.8 -2.6,-5.5 -15.1,-6.7 -18.4,-1.7 -3,4.6 0.5,7.3 13.8,10.4 19.5,4.6 25,10.3 21.8,22.9 -1.3,5.4 -4.7,9.5 -10.5,12.5 -5.7,3 -21.2,3.6 -28.5,1.2 -8.7,-2.9 -15,-9.8 -15,-16.5 l 0,-3 7.3,0 7.2,0.1 1.8,3.8 c 2,4.5 5.1,6.1 11.6,6.1 6.1,0 10.1,-2.8 10.1,-7 0,-4 -2.7,-5.5 -15.8,-9 -17.5,-4.6 -22,-8.6 -21,-19 0.8,-8.4 6.5,-13.8 17.1,-16 5.9,-1.3 18.5,-0.2 23.2,1.9 z"
       style="fill:#ffffff;fill-opacity:1;stroke:none" />
    <path
       inkscape:connector-curvature="0"
       id="path4617"
       d="m 13976.42774024466,-1387.274801390902 c 1.3,0.5 1.6,2.2 1.6,8 l 0,7.4 -5.7,0 c -7.4,0 -11.70000000001,2.5 -14.3,8.3 -1.7,3.6 -2,6.6 -2,21 l 0,16.8 -8.2,-0.3 -8.3,-0.3 -0.3,-29.8 -0.2,-29.7 8,0 8,0 0,5 0,4.9 3.8,-4.1 c 5.2,-5.5 13.29999999999,-8.8 17.6,-7.2 z"
       style="fill:#ffffff;fill-opacity:1;stroke:none" />
    <path
       inkscape:connector-curvature="0"
       id="path4619"
       d="m 13812.32774024466,-1385.274801390902 c 1.6,0.9 4,2.8 5.2,4.2 l 2.3,2.6 4.1,-3.7 c 4.7,-4.200000000001 7.5,-5.200000000001 15.1,-5.200000000001 8.1,0.100000000001 14.8,3.700000000001 17.8,9.5 2.1,4.200000000001 2.2,5.5 2.2,28.200000000001 l 0,23.799999999999 -8,0 -8,0 0,-19.9 c 0,-21.8 -0.7,-25.399999999999 -5.1,-27.6 -3.6,-1.9 -6.2,-1.9 -10,0.100000000001 -5.2,2.6 -5.9,6.1 -5.9,27.899999999999 l 0,19.600000000001 -8.2,-0.3 -8.3,-0.300000000001 -0.5,-21.699999999999 c -0.5,-20.9 -0.6,-21.800000000001 -2.8,-24 -2.9,-3 -9.1,-3 -12.9,-0.2 -4.5,3.3 -5.2,7.1 -5.2,27.6 l -0.1,18.799999999999 -8,0 -8,0 0,-30 0,-30 7.5,0 7.5,0 0,3.5 c 0,4.200000000001 0.8,4.400000000001 4.1,0.900000000001 4.5,-4.8 9.7,-6.6 17.3,-5.8 2.7,0.3 6.2,1.2 7.9,2 z"
       style="fill:#ffffff;fill-opacity:1;stroke:none" />
    <path
       inkscape:connector-curvature="0"
       id="path4621"
       d="m 13707.62774024466,-1384.774801390902 c 2.2,1 4.7,3 5.4,4.4 l 1.3,2.5 4.2,-3.9 c 8.3,-7.6 23.5,-7.6 30.8,0.1 4.2,4.4 4.7,7.7 4.7,32.3 l 0,23.5 -8,0 -8,0 0,-20.3 c 0,-17.2 -0.3,-20.7 -1.8,-23.7 -3.1,-6.2 -12.2,-6.6 -16.6,-0.7 -2,2.6 -2.1,4.3 -2.4,23.8 l -0.3,21 -8.2,-0.3 -8.2,-0.3 -0.5,-21.5 c -0.3,-11.8 -0.9,-22.3 -1.4,-23.2 -1.4,-3 -7.6,-4.3 -11.8,-2.5 -6.8,2.8 -7.3,4.6 -7.6,27.4 l -0.3,20.3 -8,0 -7.9,0 0,-30 0,-30 7.5,0 7.5,0 0,3.5 c 0,1.9 0.3,3.5 0.7,3.5 0.4,0 2.2,-1.4 3.9,-3.1 6.1,-5.9 16.3,-7 25,-2.8 z"
       style="fill:#ffffff;fill-opacity:1;stroke:none" />
    <path
       inkscape:connector-curvature="0"
       id="path4623"
       d="m 13500.82774024466,-1385.274801390902 c 4.7,1.9 9.1,6 10.79999999999,10.1 2.60000000001,6 2.20000000001,6.299999999999 -6.6,6.299999999999 -7.29999999999,0 -8,-0.2 -8,-2 0,-3.599999999999 -8,-6.799999999999 -14,-5.5 -1.7,0.400000000001 -3.79999999999,1.8 -4.6,3.1 -2.7,4 0,6.8 8.3,8.9 16.80000000001,4.200000000001 20.7,5.700000000001 23.9,8.900000000001 9,9 2.6,26 -11,29.5 -6.4,1.599999999999 -18.29999999999,1.4 -24.4,-0.400000000001 -8.6,-2.599999999999 -15.2,-9.7 -15.2,-16.5 l 0,-3 7.5,0 c 6.2,0 7.5,0.3 7.5,1.6 0,0.9 1.5,3.100000000001 3.40000000001,5 3,3 4,3.4 8.9,3.4 7.1,0 11,-2.7 10.5,-7.4 -0.4,-3.8 -3.7,-5.7 -15.80000000001,-8.6 -15.3,-3.7 -21,-8.299999999999 -21,-16.799999999999 0,-7.1 3.2,-12.700000000001 9.2,-15.8 6.7,-3.5 23.2,-3.900000000001 30.6,-0.8 z"
       style="fill:#ffffff;fill-opacity:1;stroke:none" />
    <path
       inkscape:connector-curvature="0"
       id="path4625"
       d="m 13371.12774024466,-1384.674801390902 c 2.1,1.099999999999 4.3,3.099999999999 5,4.4 l 1.2,2.4 4.2,-3.9 c 9.9,-9.2 27.4,-7.1 33.2,3.8 2.2,4.3 2.3,5.2 2.3,28.3 l 0,23.799999999999 -7.9,0 -8,0 -0.3,-21.899999999999 c -0.3,-19.800000000001 -0.5,-22.100000000001 -2.2,-24 -2.7,-3 -8.1,-3.700000000001 -12.3,-1.700000000001 -5.6,2.700000000001 -6.3,5.700000000001 -6.3,28.1 l 0,19.6 -8.2,-0.3 -8.3,-0.3 -0.5,-21.7 c -0.5,-20.9 -0.6,-21.8 -2.80000000001,-24 -2.89999999999,-3 -9.1,-3 -12.9,-0.2 -4.5,3.3 -5.2,7.1 -5.2,27.6 l -0.1,18.799999999999 -8,0 -8,0 0,-30 0,-30 7.5,0 7.5,0 0,3.5 c 0,1.900000000001 0.30000000001,3.5 0.7,3.5 0.4,0 2.2,-1.400000000001 3.9,-3.099999999999 6.1,-5.900000000001 17.6,-7.1 25.5,-2.7 z"
       style="fill:#ffffff;fill-opacity:1;stroke:none" />
    <path
       inkscape:connector-curvature="0"
       id="path4627"
       d="m 13248.42774024466,-1387.274801390902 c 1.3,0.5 1.6,2.2 1.6,8 l 0,7.4 -5.7,0 c -7.4,0 -11.70000000001,2.5 -14.3,8.3 -1.7,3.6 -2,6.6 -2,21 l 0,16.8 -8.2,-0.3 -8.3,-0.3 -0.3,-29.8 -0.2,-29.7 8,0 8,0 0,5 0,4.9 3.8,-4.1 c 5.2,-5.5 13.29999999999,-8.8 17.6,-7.2 z"
       style="fill:#ffffff;fill-opacity:1;stroke:none" />
    <path
       inkscape:connector-curvature="0"
       id="path4629"
       d="m 14267.02774024466,-1367.374801390903 0,41.5 -8,0 -8,0 0,-41.5 0,-41.5 8,0 8,0 0,41.5 z"
       style="fill:#ffffff;fill-opacity:1;stroke:none" />
    <path
       inkscape:connector-curvature="0"
       id="path4631"
       d="m 14062.02774024466,-1390.374801390903 0,18.5 -6,0 -6,0 0,-18.5 0,-18.5 6,0 6,0 0,18.5 z"
       style="fill:#ffffff;fill-opacity:1;stroke:none" />
    <path
       inkscape:connector-curvature="0"
       id="path4633"
       d="m 13205.52774024466,-1402.374801390903 0,6 -4.4,0.100000000001 c -5.19999999999,0.199999999999 -6.9,1.699999999999 -7.3,6.399999999999 l -0.3,3.5 5.8,0.3 5.7,0.300000000001 0,5.399999999999 0,5.5 -6,0 -6,0 0,24.5 0,24.5 -8,0 -8,0 0,-24.399999999999 0,-24.5 -4.7,-0.300000000001 -4.8,-0.3 0,-5 0,-5 4.8,-0.299999999999 4.7,-0.3 0,-3.7 c 0,-12.6 7.9,-19.400000000001 22,-18.900000000001 l 6.5,0.2 0,6 z"
       style="fill:#ffffff;fill-opacity:1;stroke:none" />
    <path
       inkscape:connector-curvature="0"
       d="m 14439.82774024466,-1373.274801390902 c -8.6,4.6 -9.9,23.3 -2.4,32.1 3.2,3.599999999999 3.6,3.799999999999 9.4,3.799999999999 5,0 6.5,-0.4 8.6,-2.4 3.5,-3.3 5,-8.3 5,-17.1 0,-8.299999999999 -1.6,-12.4 -6,-15.9 -3.2,-2.5 -10.5,-2.8 -14.6,-0.5 z m 37.2,5.9 0,41.5 -8,0 -8,0 0,-3.7 0,-3.7 -2.69999999999,2.7 c -9.20000000001,8.8 -26.80000000001,7.2 -35.30000000001,-3.1 -4.8,-5.7 -7.4,-15.7 -6.8,-25.6 0.6,-9.1 2.9,-14.8 8.2,-20.4 8.9,-9.5 24.1,-10.3 33.4,-1.9 l 2.2,2 0,-14.6 0,-14.7 8.5,0 8.5,0 0,41.5 z"
       style="fill:#ffffff;fill-opacity:1;stroke:none"
       id="path4703" />
    <path
       inkscape:connector-curvature="0"
       d="m 13277.42774024466,-1373.874801390903 c -3,1.200000000001 -6.2,5.600000000001 -7.5,10.400000000001 -1.4,5.099999999999 -0.5,15.5 1.6,19.599999999999 4.7,9.100000000001 19.3,9.200000000001 24,0.100000000001 0.8,-1.700000000001 1.8,-5.700000000001 2.1,-9 1.4,-13.300000000001 -4,-22.200000000001 -13.4,-22 -2.6,0 -5.7,0.399999999999 -6.8,0.899999999999 z m 20.1,-10.599999999999 c 10.8,4.9 15.7,12.7 16.3,26.2 0.5,11.4 -1.4,17.9 -7,24 -6.70000000001,7.3 -10.6,8.8 -22.8,8.9 -9.5,0 -11,-0.3 -15.6,-2.7 -10.4,-5.5 -15.5,-14.7 -15.5,-28.1 0,-7.4 0.7,-10.8 3.2,-15.8 6.9,-13.7 25.9,-19.4 41.4,-12.5 z"
       style="fill:#ffffff;fill-opacity:1;stroke:none"
       id="path4705" />
    <path
       inkscape:connector-curvature="0"
       d="m 13548.22774024466,-1372.874801390903 c -4.6,2.8 -6.5,7.900000000001 -6.5,17 -0.1,11.700000000001 4.3,18 13,18.700000000001 9.7,0.799999999999 14.6,-5.400000000001 14.7,-18.700000000001 0,-8.799999999999 -2.1,-14.2 -6.8,-17.099999999999 -4.1,-2.5 -10.2,-2.400000000001 -14.4,0.1 z m 23,-11.899999999999 c 4.7,2.399999999999 9.2,7.199999999999 12,12.899999999999 1.9,3.900000000001 2.3,6.100000000001 2.3,16 0,10 -0.3,12.100000000001 -2.4,16.200000000001 -4.5,9.2 -13.1,14.799999999999 -22.8,14.799999999999 -6.2,0 -10.4,-1.5 -15,-5.399999999999 l -3.3,-2.800000000001 0,14.1 0,14.1 -8.5,0 -8.5,0 0,-40.5 0,-40.5 8,0 8,0 0,3.700000000001 0,3.699999999999 3.1,-3.199999999999 c 6,-6.1 18.4,-7.6 27.1,-3.1 z"
       style="fill:#ffffff;fill-opacity:1;stroke:none"
       id="path4707" />
    <path
       inkscape:connector-curvature="0"
       d="m 13629.52774024466,-1353.774801390902 c -1.6,0.5 -5.6,1.3 -8.7,1.9 -6.8,1.3 -9.6,3.4 -10.4,7.7 -0.5,2.6 -0.1,3.7 1.9,5.7 2.1,2.1 3.6,2.6 7.6,2.6 6.3,0 9.8,-1.6 11.8,-5.3 1.7,-3.4 3,-13.8 1.7,-13.6 -0.5,0.1 -2.2,0.5 -3.9,1 z m 8.5,-31.9 c 4.4,1.4 8.6,4.299999999999 10.3,7.099999999999 0.79999999999,1.5 1.4,9.7 1.79999999999,25.7 0.3,12.900000000001 0.9,24.3 1.4,25.3 0.70000000001,1.6 0.1,1.8 -7.6,1.5 -7.8,-0.3 -8.4,-0.4 -8.7,-2.599999999999 -0.4,-2.8 -0.4,-2.8 -6,0.5 -3.8,2.2 -6,2.799999999999 -13.1,3.099999999999 -7.5,0.3 -9.19999999999,0 -13.09999999999,-2 -5.80000000001,-3 -9,-8.4 -9,-15.3 0,-10.9 6.9,-16.4 23.5,-18.599999999999 11.5,-1.5 15.19999999999,-3 16.09999999999,-6.400000000001 1.5,-6.2 -6.19999999999,-10.799999999999 -14.4,-8.599999999999 -3.5,1 -4.6,1.9 -5.8,4.7 l -1.4,3.4 -8.1,0 -8.1,0 0.6,-3.2 c 1.6,-7.9 8.4,-13.6 18.7,-15.8 5.10000000001,-1.1 17.9,-0.4 22.9,1.2 z"
       style="fill:#ffffff;fill-opacity:1;stroke:none"
       id="path4709" />
    <path
       inkscape:connector-curvature="0"
       d="m 13890.52774024466,-1371.674801390902 c -1.9,1.799999999999 -3.7,4.5 -4.1,6 l -0.6,2.799999999999 13.1,0 c 14.4,0 14.6,-0.1 11.6,-6 -2.3,-4.399999999999 -5.3,-6 -11.2,-6 -4.6,0 -5.8,0.400000000001 -8.8,3.200000000001 z m 22.2,-13.1 c 9.2,4.4 15.2,14.2 16.1,26.1 l 0.5,6.799999999999 -21.7,0 c -24.4,0 -23.3,-0.399999999999 -19.6,7.8 2.2,4.800000000001 6.4,7.2 12.7,7.2 4,0 9.9,-3 12.1,-6.099999999999 1.1,-1.6 2.6,-1.900000000001 8.3,-1.900000000001 3.8,0 6.9,0.3 6.9,0.8 0,1.5 -4.3,8.800000000001 -6.9,11.5 -5.3,5.800000000001 -9.5,7.2 -21.1,7.2 -12,-0.1 -15.7,-1.399999999999 -22.2,-8.2 -5.9,-6.099999999999 -8.1,-13 -7.6,-23.8 0.5,-10 2.5,-15.399999999999 8.2,-21.299999999999 8.1,-8.700000000001 23.2,-11.3 34.3,-6.1 z"
       style="fill:#ffffff;fill-opacity:1;stroke:none"
       id="path4711" />
    <path
       inkscape:connector-curvature="0"
       d="m 14203.42774024466,-1372.974801390902 c -4.6,2.8 -6.8,8.2 -6.7,17.099999999999 0,11.700000000001 4.29999999999,18 13,18.700000000001 6,0.5 10.2,-1.900000000001 12.79999999999,-7.3 2.5,-5 2.6,-17.3 0.20000000001,-22.6 -3,-7.1 -12.60000000001,-10 -19.3,-5.9 z m 21.6,-12.2 c 4.8,1.9 9.7,6.799999999999 12.8,12.799999999999 2.5,4.600000000001 2.7,6 2.7,16.5 0,12.400000000001 -1.4,16.900000000001 -7,23.3 -8.3,9.400000000001 -24.9,10.400000000001 -33.7,2 l -2.8,-2.699999999999 0,14.299999999999 0,14.200000000001 -8.2,-0.300000000001 -8.3,-0.3 -0.3,-40.299999999999 -0.2,-40.200000000001 8,0 8,0 0,3.700000000001 0.1,3.799999999999 2.3,-2.599999999999 c 5.8,-6.6 16.6,-8.3 26.6,-4.2 z"
       style="fill:#ffffff;fill-opacity:1;stroke:none"
       id="path4713" />
    <path
       inkscape:connector-curvature="0"
       d="m 14300.52774024466,-1371.674801390902 c -2.7,2.5 -3.8,4.599999999999 -4.7,8.799999999999 -1.4,6.8 -0.4,15.5 2.29999999999,19.900000000001 5,8.3 18.9,7.8 23.4,-0.8 2.20000000001,-4.4 3,-14 1.5,-20 -1.79999999999,-7.4 -6.2,-11.1 -13.5,-11.1 -4.79999999999,0 -6,0.4 -9,3.2 z m 23,-12.8 c 5.9,2.7 10.7,7.2 13.7,13 3.3,6.3 3.7,21.099999999999 0.9,28.7 -4.6,12.2 -15.9,18.6 -31,17.7 -13.3,-0.8 -22.9,-7.8 -26.6,-19.4 -2.4,-7.6 -1.7,-21.2 1.3,-27 7.4,-14.3 26,-20.1 41.7,-13 z"
       style="fill:#ffffff;fill-opacity:1;stroke:none"
       id="path4715" />
    <path
       inkscape:connector-curvature="0"
       d="m 14386.82774024466,-1354.374801390903 c -0.20000000001,0.3 -3.1,1 -6.4,1.600000000001 -9.6,1.699999999999 -12.3,2.799999999999 -13.9,5.899999999999 -2.1,4 -1.9,5.700000000001 1,8.5 1.9,2 3.4,2.5 7.4,2.5 9.3,0 12.8,-3.399999999999 13.8,-13.599999999999 0.5,-4.8 -0.20000000001,-6.6 -1.9,-4.900000000001 z m 6.29999999999,-31.299999999999 c 4.4,1.5 8.60000000001,4.4 10.20000000001,7.099999999999 0.79999999999,1.5 1.4,9.7 1.79999999999,25.7 0.3,12.900000000001 0.9,24.3 1.4,25.3 0.70000000001,1.6 0.1,1.800000000001 -7.6,1.5 -7.8,-0.3 -8.4,-0.4 -8.7,-2.599999999999 -0.4,-2.8 -0.4,-2.8 -6,0.5 -3.8,2.2 -6,2.799999999999 -13.1,3.099999999999 -7.6,0.300000000001 -9.1,0.100000000001 -13.1,-2 -5.8,-3.199999999999 -9,-8.5 -9,-15.3 0,-10.899999999999 6.9,-16.399999999999 23.5,-18.599999999999 11.5,-1.5 15.2,-3 16.1,-6.400000000001 1.5,-6.2 -6.3,-10.7 -14.6,-8.5 -3.3,0.900000000001 -4.4,1.8 -5.6,4.600000000001 l -1.4,3.399999999999 -8,0 c -7.7,0 -8,-0.1 -8,-2.299999999999 0,-1.3 1.3,-4.400000000001 2.9,-6.900000000001 3.1,-4.9 8.5,-8.199999999999 16.2,-9.8 5.2,-1.099999999999 18.3,-0.399999999999 23,1.200000000001 z"
       style="fill:#ffffff;fill-opacity:1;stroke:none"
       id="path4717" />
    <g
       transform="translate(1562.539413226724,-549.1901492041755)"
       id="g4745"
       style="fill:#ffffff">
      <path
         style="fill:#ffffff;fill-opacity:1;stroke:none"
         d="m 12701.02984433411,-977.8056794432726 c -10.5,-1.7000000000103 -17,-4.900000000011 -23.6,-11.5 -12,-12.0000000000003 -13.4,-20.7000000000104 -13.4,-82.8000000000103 l 0,-44.799999999999 18.9,0 19,0 0.3,46.299999999999 0.3,46.200000000001 2.6,5.600000000009 c 3.3,7.099999999989 8,10.69999999999 15,11.79999999999 12.8,2.100000000001 25.1,-2.700000000001 29.7,-11.399999999999 4.1,-8.100000000001 4.5,-11.5 4.9,-55.700000000001 l 0.5,-42.799999999999 18.4,0 18.4,0 0,68 0,68.0000000000003 -2.3,0.5 c -1.2,0.2999999999987 -9,0.3999999999986 -17.2,0.2999999999987 l -15,-0.2999999999987 -0.3,-9.2000000000013 c -0.1,-5.1000000000007 -0.6,-9.2999999999987 -1.1,-9.2999999999987 -0.5,0 -2,1.7999999999987 -3.5,4 -4.9,7.5 -16.9,14.5999999999999 -29.1,17.2999999999987 -3.7,0.799999999999 -16.9,0.7000000000013 -22.5,-0.200000000001 z"
         id="path4597"
         inkscape:connector-curvature="0" />
      <path
         style="fill:#ffffff;fill-opacity:1;stroke:none"
         d="m 12841.44234283776,-1777.775582984309 c 2.20000000001,0.599999999999 2.20000000001,0.700000000001 2,17.700000000001 l -0.29999999999,17.099999999999 -10.20000000001,-0.3 c -7.2,-0.2 -11.9,0.200000000001 -15.79999999999,1.3 -7.5,2.2 -15.10000000001,8.599999999999 -18.8,15.799999999999 -4.8,9.400000000001 -5.6,17.6 -5.7,54.5 l 0,33.3 -18.5,0 -18.5,0 0.2,-68.3 0.3,-68.2 9,-0.3 c 5,-0.2 12.7,-0.1 17.29999999999,0.3 l 8.20000000001,0.7 0,11.200000000001 c 0,6.2 0.29999999999,11.599999999999 0.7,11.900000000001 0.3,0.4 1.8,-1.3 3.2,-3.700000000001 6.6,-11.2 18,-19.7 30.1,-22.599999999999 4.2,-1 13.6,-1.2 16.8,-0.400000000001 z"
         id="path4599"
         inkscape:connector-curvature="0" />
      <path
         style="fill:#ffffff;fill-opacity:1;stroke:none"
         d="m 12706.97793591842,-1522.662023537465 c -2.20000000001,-0.6 -2.20000000001,-0.799999999999 -2.20000000001,-17.799999999999 l 0,-17.1 12.70000000001,0 c 12.2,0 13.1,-0.100000000001 18.7,-3 10.8,-5.5 16.4,-14.4 18.5,-29.9 0.6,-4.299999999999 1.1,-22.1 1.1,-39.700000000001 l 0,-31.899999999999 18.5,0 18.5,0 0,68 0,68 -2.29999999999,0.5 c -1.20000000001,0.299999999999 -9,0.399999999999 -17.20000000001,0.299999999999 l -15,-0.299999999999 -0.29999999999,-11 c -0.10000000001,-6 -0.5,-11.700000000001 -0.8,-12.5 -0.29999999999,-0.900000000001 -1.5,0.299999999999 -3.4,3.5 -5.5,9.599999999999 -15.7,17.799999999999 -26.1,21 -3,0.899999999999 -5.9,1.799999999999 -6.4,2 -1.79999999999,0.599999999999 -11.89999999999,0.5 -14.29999999999,-0.100000000001 z"
         id="path4601"
         inkscape:connector-curvature="0" />
      <path
         style="fill:#ffffff;fill-opacity:1;stroke:none"
         d="m 12819.82984433411,-988.8056794432859 -0.3,-20.1 -13,-0.299999999999 c -7.2,-0.100000000001 -13.4,-0.299999999999 -13.79999999999,-0.4 -0.4,0 -0.60000000001,-5.6 -0.5,-12.3 l 0.29999999999,-12.299999999999 13.8,-0.3 13.8,-0.299999999999 -0.3,-37.700000000001 c -0.3,-34.799999999999 -0.4,-37.899999999998 -2.2,-40.399999999998 -2.5,-3.700000000001 -8.2,-5.200000000001 -17.9,-4.5 l -7.7,0.5 0,-14.3 0,-14.2 3.1,-0.700000000001 c 5.2,-1 28.8,-0.700000000001 35.8,0.5 8.4,1.5 14.8,4.700000000001 19.4,9.799999999999 6.5,7.200000000001 6.7,9.100000000001 6.7,57.700000000001 l 0,43.299999999999 11.2,0.3 11.3,0.299999999999 0.3,12.299999999999 c 0.1,6.700000000001 -0.1,12.299999999999 -0.5,12.299999999999 -0.4,0.100000000002 -5.3,0.3 -10.8,0.4 -5.5,0.200000000001 -10.3,0.299999999999 -10.8,0.4 -0.4,0.1 -0.7,9.1000000000034 -0.7,20.1000000000034 l 0,20 -18.5,0 -18.5,0 -0.2,-20.0999999999998 z"
         id="path4603"
         inkscape:connector-curvature="0" />
      <path
         style="fill:#ffffff;fill-opacity:1;stroke:none"
         d="m 12636.95323469101,-1126.512176726299 0.3,20.3 6.4,-0.400000000001 c 3.5,-0.2 9.7,0 13.8,0.400000000001 l 7.4,0.7 -0.3,12.1 -0.3,12.2 -13.80000000001,0.3 -13.79999999999,0.299999999999 0.29999999999,37.200000000001 c 0.30000000001,40 0.5,41.099999999999 5.60000000001,43.799999999999 1.6,0.900000000001 6,1.400000000001 12.39999999999,1.400000000001 l 9.80000000001,0 0,14.2 0,14.2000000000002 -4.5,0.6999999999999 c -7.6,1.0999999999999 -34.4,-0.1999999999999 -40,-1.9000000000001 -9.80000000001,-3.2 -16,-8.7999999999998 -19.1,-17.3999999999997 -1,-3 -1.3,-13.5000000000002 -1.4,-48.1000000000002 l 0,-44.2 -11.5,0 -11.6,0 0.3,-12.8 0.3,-12.7 11,0 11,0 0.29999999999,-20.3 0.20000000001,-20.2 18.5,0 18.5,0 0.2,20.2 z"
         id="path4605"
         inkscape:connector-curvature="0" />
      <path
         style="fill:#ffffff;fill-opacity:1;stroke:none"
         d="m 12700.50268806064,-1325.445099132714 c 0.1,19.4 0.6,35.300000000001 1,35.200000000001 0.4,0 2.5,-2.4 4.70000000001,-5.200000000001 4.7,-6 11.1,-10.6 19.29999999999,-13.799999999999 4.8,-2 7.6,-2.300000000001 18.20000000001,-2.300000000001 9.1,0 14,0.400000000001 17.89999999999,1.700000000001 15.70000000001,4.9 24.70000000001,15.7 28.20000000001,33.7 0.70000000001,3.3 1.29999999999,25.5 1.6,54.7 l 0.5,49.3 -19.1,0 -19.1,0 0,-43.8 c 0,-45.2 -0.3,-49.1 -4.3,-56.9 -3.79999999999,-7.200000000001 -13.6,-10.9 -24.79999999999,-9.3 -8.8,1.2 -15.4,5.3 -18.70000000001,11.5 -4.1,8.099999999999 -4.5,11.5 -4.89999999999,55.7 l -0.5,42.8 -18.4,0 -18.4,0 0,-93.8 c 0,-51.6 0.3,-94.1 0.6,-94.5 0.3,-0.3 8.5,-0.5 18.2,-0.4 l 17.7,0.2 0.3,35.2 z"
         id="path4607"
         inkscape:connector-curvature="0" />
      <path
         style="fill:#ffffff;fill-opacity:1;stroke:none"
         d="m 12755.10268806067,-1274.592128093873 c -0.1,-19.4 -0.6,-35.3 -1,-35.200000000001 -0.4,0 -2.5,2.299999999999 -4.7,5.1 -7.9,10 -19.3,15.700000000001 -33.60000000001,16.5 -27,1.700000000001 -44.39999999999,-10.1 -49.7,-33.7 -1.1,-5 -1.5,-17.600000000001 -1.9,-56.200000000001 l -0.5,-49.799999999998 19.1,0 19,0 0.3,46.299999999999 c 0.3,45.9 0.3,46.200000000001 2.6,51.4 4.20000000001,9.200000000001 10.20000000001,12.6 21.9,12.5 10.8,-0.100000000001 19.2,-4.299999999999 23.1,-11.7 4.20000000001,-8.200000000001 4.5,-11.400000000001 4.9,-55.700000000001 l 0.5,-42.799999999999 18.4,0 18.4,0 0,93.799999999999 c 0,51.599999999999 -0.3,94.200000000001 -0.6,94.5 -0.4,0.400000000001 -8.60000000001,0.599999999999 -18.3,0.400000000001 l -17.6,-0.200000000001 -0.3,-35.200000000001 z"
         id="path4609"
         inkscape:connector-curvature="0" />
      <path
         id="path4719"
         style="fill:#ffffff;fill-opacity:1;stroke:none"
         d="m 12704.99086127409,-1147.770086222506 c 1.39999999999,-0.799999999999 6.6,-2.099999999999 11.5,-3 21.1,-3.899999999999 23.79999999999,-4.5 28,-6.5 2.39999999999,-1.2 5.29999999999,-3.5 6.39999999999,-5 2.60000000001,-3.599999999999 3.8,-10.399999999999 2.8,-15.299999999999 -2,-9.299999999999 -8.10000000001,-12.9 -22.3,-13 -8.6,0 -10,0.200000000001 -15.2,2.9 -6.3,3.200000000001 -11.60000000001,9.200000000001 -13.3,15.200000000001 -1.39999999999,4.9 -2.6,26.2 -1.39999999999,26.2 0.5,-0.1 2.1,-0.7 3.5,-1.5 z m -9.3,72.700000000001 c -14.3,-3.799999999999 -23,-9.799999999999 -28.4,-19.4 l -2.9,-5.30000000001 -0.6,-49.5 c -0.7,-47.19999999999 -1.2,-56 -3.9,-61 -1.1,-2 -0.7,-2 17.9,-2 l 18.90000000001,0 1.09999999999,3.100000000001 c 0.6,1.799999999999 1.1,4.5 1.1,6 0,3.5 1.9,3.799999999999 4.60000000001,0.799999999999 3.39999999999,-3.700000000001 13.79999999999,-8.799999999999 22.39999999999,-10.9 9.4,-2.200000000001 24.20000000001,-2.700000000001 33.10000000001,-1 11.5,2.200000000001 22.5,9.200000000001 27.2,17.299999999999 6.7,11.3 7.6,28.3 2.2,39.4 -7.39999999999,15 -19.7,20.900000000001 -53.2,25.3 -25,3.299999999999 -32.4,6.2 -33.7,13.4 -0.9,4.6 1,12.6 3.7,15.4 4.4,4.799999999999 7.5,5.7 19.2,5.7 9.5,0 11.60000000001,-0.299999999999 15.20000000001,-2.299999999999 5,-2.599999999989 9.1,-8.200000000001 9.9,-13.4 l 0.7,-3.799999999999 17.1,-0.1 c 16.5,-0.100000000001 19.8,0 20.4,0.6 0.20000000001,0.100000000001 -0.4,3.299999999999 -1.29999999999,7 -4.5,19.700000000001 -18.30000000001,30.9 -44.5,36.100000000001 -9.80000000001,2 -36.4,1.1 -46.20000000001,-1.4 z"
         inkscape:connector-curvature="0" />
      <path
         id="path4721"
         style="fill:#ffffff;fill-opacity:1;stroke:none"
         d="m 12682.97556941084,-929.712802885135 c 2.4,11.599999999999 11.9,20.7000000000012 23.9,22.599999999999 l 4.2,0.7000000000012 0,-30.2999999999993 0,-30.300000000012 -3.5,0.6000000000099 c -6,1 -15.4,5.7999999999993 -19,9.7999999999993 -5.5,6.0999999999898 -7.6,16.5 -5.6,26.9000000000001 z m -27.4,-24.400000000001 c 6.3,-29.8999999999978 35.2,-50.599999999999 70.5,-50.599999999999 l 9,0 0,49.099999999999 0,49.2000000000012 5.2,-0.599999999999 c 12.7,-1.400000000001 20.7,-6.2000000000012 25.2,-15.1000000000022 3.8,-7.2999999999988 4.8,-20.099999999999 2.2,-28.6999999999998 -1.9,-6.5 -7.9,-14.599999999999 -12.29999999999,-16.8000000000002 l -3.3,-1.599999999999 0,-16.400000000001 0,-16.2999999999989 2.70000000001,0.700000000001 c 6,1.3999999999982 17.39999999999,7.8999999999982 23.2,13.1999999999879 7.10000000001,6.300000000012 12.9,15.7000000000103 16.10000000001,25.800000000012 3.20000000001,9.8999999999983 3.89999999999,30.199999999988 1.5,41.100000000009 -3.60000000001,16.7999999999893 -13.5,31.599999999979 -26.79999999999,40.2999999999893 -25.70000000001,16.7000000000107 -64.5,15.6000000000017 -88.5,-2.599999999999 -11.8,-8.900000000001 -21.5,-24.400000000001 -24.60000000001,-38.7999999999993 -1.89999999999,-9.1000000000017 -1.89999999999,-23.2000000000007 -0.1,-31.899999999991 z"
         inkscape:connector-curvature="0" />
      <path
         id="path4723"
         style="fill:#ffffff;fill-opacity:1;stroke:none"
         d="m 12750.5779359184,-1452.362023537462 c -1.4,0.8 -6.6,2.099999999999 -11.5,3 -21.1,3.9 -23.8,4.5 -28,6.5 -6.2,3.099999999999 -8.7,7 -9.2,14.599999999999 -0.7,11.200000000001 4,16.6 16.1,18.3 19.1,2.7 32.7,-5.7 35.6,-22.2 1.2,-7.2 1.5,-21.7 0.4,-21.7 -0.5,0.1 -2,0.7 -3.4,1.5 z m 7.7,-73.2 c 13.9,3.2 25.3,10.7 30.20000000001,20.099999999999 l 2.7,5.099999999999 0.6,50.000000000001 c 0.5,40.5 0.9,51 2.2,55.2 0.8,2.8 1.8,5.599999999999 2.1,6.2 0.5,0.8 -4.79999999999,1.1 -18.2,1.1 l -19,0 -1.1,-3.1 c -0.6,-1.8 -1.1,-4.5 -1.1,-6 0,-3.7 -0.8,-3.599999999999 -5.6,0.2 -10.8,8.6 -24.8,12.400000000001 -43.4,11.6 -13.8,-0.5 -20.1,-2.3 -28.69999999999,-8 -16.80000000001,-11.2 -20.5,-40.1 -7.30000000001,-56.7 7.4,-9.3 19,-13.700000000001 46.30000000001,-17.6 26.89999999999,-3.7 33,-5.900000000001 35.69999999999,-12.5 1.80000000001,-4.2 0,-13.2 -3.19999999999,-16.7 -4.5,-4.700000000001 -7.5,-5.6 -19.30000000001,-5.700000000001 -9.5,0 -11.6,0.3 -15.19999999999,2.200000000001 -5,2.7 -7.80000000001,6.5 -9.5,12.599999999999 l -1.20000000001,4.6 -17.9,0.300000000001 c -9.8,0.199999999999 -18.3,0 -18.9,-0.300000000001 -1.4,-0.9 1.8,-13.4 4.9,-19.1 3.5,-6.4 11.6,-13.9 19.1,-17.699999999999 5.5,-2.800000000001 17.20000000001,-6.300000000001 24.70000000001,-7.5 5.79999999999,-0.9 35.1,0.299999999999 41.1,1.699999999999 z"
         inkscape:connector-curvature="0" />
    </g>
    <path
       inkscape:connector-curvature="0"
       id="path4583"
       d="m 13567.31035834696,-1553.204895676557 c -36.60000000001,22.80000000001 -85.4,53.1 -93.3,58.1 -4.9,3.1 -12.8,7.9 -17.5,10.79999999999 l -8.5,5.20000000001 65.5,0.5 65.5,0.5 0.3,20.29999999999 0.2,20.20000000001 -98.5,0 -98.5,0 0.1,-21.70000000001 0,-21.79999999999 13.2,-8.1 c 7.3,-4.4 28.1,-17.3 46.20000000001,-28.60000000001 18.2,-11.29999999999 41.7,-25.89999999999 52.2,-32.39999999999 10.6,-6.5 19.3,-12.19999999999 19.3,-12.60000000001 0,-0.5 -29.5,-0.79999999999 -65.5,-0.79999999999 l -65.5,0 0,-20 0,-20 98.5,-0.20000000001 98.5,-0.29999999999 0,21.70000000001 0,21.59999999998 -12.20000000001,7.60000000001 z"
       style="fill:#ffffff;fill-opacity:1;stroke:none" />
    <path
       inkscape:connector-curvature="0"
       id="path4585"
       d="m 14068.13163097087,-1619.478445842547 98.5,0 -0.2,21.5 -0.3,21.5 -98.3,0.29999999999 -98.2,0.20000000001 0,-21.799999999991 0,-21.700000000009 98.5,0 z"
       style="fill:#ffffff;fill-opacity:1;stroke:none" />
    <path
       inkscape:connector-curvature="0"
       id="path4587"
       d="m 13978.00614757128,-1601.728445842547 17.8,0.299999999999 0.5,29.5 0.5,29.5 79.5,0.200000000001 c 43.7,0.200000000009 79.8,0.299999999999 80.3,0.299999999999 0.4,0 0.6,9.6 0.5,21.200000000001 l -0.3,21.299999999999 -80.3,0.29999999999 -80.2,0.20000000001 0,29.5 0,29.5 -18,0 -18,0 0,-81.1 0,-81 17.7,0.29999999999 z"
       style="fill:#ffffff;fill-opacity:1;stroke:none" />
    <path
       inkscape:connector-curvature="0"
       id="path4589"
       d="m 13822.63163097085,-1601.478445842547 0,18 -52,0 -52,0 0,21 0,21 47.5,0 47.5,0 0,17 0,17 -47.5,0 -47.5,0 0,24 0,24 52.8,0.2 52.7,0.3 0.3,18.2 0.2,18.3 -74.4,0 c -48.7,0 -74.5,-0.3 -74.79999999999,-1 -0.1,-0.5 -0.20000000001,-44.9 0,-98.5 l 0.20000000001,-97.5 73.5,0 73.5,0 0,18 z"
       style="fill:#ffffff;fill-opacity:1;stroke:none" />
    <path
       inkscape:connector-curvature="0"
       id="path4591"
       d="m 14051.63163097087,-1465.978445842547 80,0 0.2,-47.8 0.3,-47.7 18,0 18,0 0.3,69.199999999989 0.2,69.300000000011 -98.5,0.199999999989 -98.5,0.300000000011 0,-21.800000000011 0,-21.699999999989 80,0 z"
       style="fill:#ffffff;fill-opacity:1;stroke:none" />
    <path
       inkscape:connector-curvature="0"
       id="path4593"
       d="m 13969.63163097087,-1601.478445842547 0,18 -52,0 -52,0 0,21 0,21 47.5,0 47.5,0 0,17 0,17 -47.5,0 -47.5,0 0,24 0,24 52.80000000001,0.2 52.69999999999,0.3 0.30000000001,18.2 0.19999999999,18.3 -74.5,0 -74.5,0 0,-98.5 0,-98.5 73.5,0 73.5,0 0,18 z"
       style="fill:#ffffff;fill-opacity:1;stroke:none" />
    <path
       inkscape:connector-curvature="0"
       id="path4595"
       d="m 13655.92516514952,-1620.712765524007 c 26.9,7.40000000001 47.2,25.7 54.7,49.6 1.3,4.1 2.6,9.5 2.70000000001,12 l 0.39999999999,4.5 -20.39999999999,0 -20.29999999999,0 -2.3,-6.29999999999 c -4.1,-11.400000000011 -10,-17.80000000001 -21.1,-22.900000000011 -4.6,-2.099999999989 -7.79999999999,-2.7 -15.70000000001,-3.099999999989 -17.1,-0.80000000001 -27.90000000001,3 -38.29999999999,13.29999999999 -11.79999999999,11.9 -17.6,29.5 -17.6,53.5 0,32.1 12.2,54.299999999999 34.29999999999,63 11.5,4.5 31.29999999999,3.6 43.39999999999,-2.1 10.70000000001,-5 19,-17.600000000001 21.4,-32.100000000001 l 0.80000000001,-4.799999999999 -21.6,-0.200000000001 -21.59999999999,-0.299999999999 0,-16 0,-16 41,0 41,0 0,53 0,53 -13.29999999999,0.299999999999 c -15.29999999999,0.3 -13.90000000001,1.3 -16.20000000001,-11.799999999999 -1.7,-10.4 -2.2,-11 -5.29999999999,-6.799999999999 -3.90000000001,5 -14.70000000001,13.40000000001 -21,16.299999999999 -3,1.4 -9.20000000001,3.5 -13.79999999999,4.6 -7.20000000001,1.9 -10.20000000001,2.100000000001 -21.4,1.600000000001 -32.3,-1.4 -57.20000000001,-14.8 -74,-40.200000000001 -25.20000000001,-37.799999999999 -22.8,-96.29999999999 5.4,-131.79999999999 13.6,-17.20000000001 32.6,-28 56.29999999999,-32.20000000001 12.20000000001,-2.1 30.70000000001,-1.29999999999 42.5,1.9 z"
       style="fill:#ffffff;fill-opacity:1;stroke:none" />
    <path
       inkscape:connector-curvature="0"
       d="m 13382.51035834697,-1520.144126161098 0,-62.1 -23.1,0 c -31.3,0 -37.8,1.7 -48.9,12.899999999999 -6.4,6.4 -11.1,15.3 -13.6,25.700000000001 -2.1,9 -2.1,30.799999999999 0,42.4 3,16.399999999999 11.7,29.6 23.4,35.799999999999 10.3,5.5 15.5,6.4 39.9,6.9 l 22.29999999999,0.5 0,-62.100000000001 z m -67.5,95 c -14.9,-4.200000000001 -24,-9 -34.8,-18.4 -12.8,-11.1 -22.59999999999,-29.89999999999 -26.89999999999,-51.7 -1.9,-10.200000000001 -1.60000000001,-40.600000000001 0.6,-51 6.7,-31.600000000001 21.1,-51.8 45.1,-63.5 17.5,-8.600000000001 19.09999999999,-8.8 76.09999999999,-9.200000000001 l 50.1,-0.4 0.7,3.200000000001 c 0.8,4.4 0.8,192.4 -0.1,193.299999999999 -0.4,0.4 -23.7,0.600000000001 -51.8,0.4 -49.5,-0.4 -51.2,-0.5 -59,-2.700000000001 z"
       style="fill:#ffffff;fill-opacity:1;stroke:none"
       id="path4725" />
    <path
       inkscape:connector-curvature="0"
       id="path4555"
       d="m 13518.47323558621,-2173.673225362919 c 0.29999999999,30.5 0.70000000001,32.5 6,36.200000000001 3.60000000001,2.5 13.70000000001,2.1 17.9,-0.700000000001 6.79999999999,-4.5 7.39999999999,-7 7.70000000001,-37 l 0.39999999999,-26.700000000001 10.9,0 10.89999999999,0 0,41 0,41 -10.5,0 -10.5,0 0,-5.7 0,-5.600000000001 -3.79999999999,4.100000000001 c -7,7.6 -19.29999999999,10.799999999999 -31.20000000001,8.299999999999 -8,-1.700000000001 -12.89999999999,-5.5 -16.5,-12.6 l -3,-6 -0.29999999999,-32.3 -0.29999999999,-32.2 11,0 11,0 0.29999999999,28.2 z"
       style="fill:#ffffff;fill-opacity:1;stroke:none" />
    <path
       inkscape:connector-curvature="0"
       id="path4559"
       d="m 13623.66029202374,-2120.973225362922 c -5.3,-2.5 -10.9,-8.599999999999 -12.5,-13.599999999999 -0.9,-2.600000000001 -1.4,-13.8 -1.6,-35.5 l -0.4,-31.8 11,0 10.9,0 0.4,27.8 c 0.29999999999,24.8 0.6,28.099999999999 2.2,31.399999999999 2.6,5 7.2,7.2 14.3,6.600000000001 6.39999999999,-0.600000000001 10,-2.900000000001 12.79999999999,-8.400000000001 1.8,-3.599999999999 2,-6.299999999999 2.3,-30.7 l 0.29999999999,-26.699999999999 11,0 10.9,0 0,40.999999999999 0,41 -10.5,0 -10.5,0 0,-5.6 0,-5.6 -4,4 c -4.1,4 -9,6.9 -14.5,8.300000000001 -5,1.300000000002 -17.4,0.1 -22.1,-2.199999999998 z"
       style="fill:#ffffff;fill-opacity:1;stroke:none" />
    <path
       inkscape:connector-curvature="0"
       id="path4561"
       d="m 13909.10614757129,-2132.758954289653 c -0.9,-0.599999999999 -1.2,-3.5 -1,-10.7 l 0.3,-9.899999999999 6.2,0.299999999999 c 10.1,0.4 17.1,-3.7 21,-12.4 1.5,-3.4 1.8,-7.7 2.1,-27.299999999998 l 0.4,-23.200000000001 10.9,0 10.9,0 0,41 0,41 -10.5,0 -10.5,0 0,-7.7 0,-7.6 -3,4.5 c -1.70000000001,2.5 -4.8,5.799999999999 -6.9,7.299999999999 -6.4,4.4 -16.5,6.8 -19.9,4.700000000001 z"
       style="fill:#ffffff;fill-opacity:1;stroke:none" />
    <path
       inkscape:connector-curvature="0"
       id="path4563"
       d="m 13734.87369909122,-2120.373225362921 c -5,-2 -11.7,-9.2 -13.4,-14.4 -0.8,-2.400000000001 -1.3,-14.400000000001 -1.5,-35.3 l -0.4,-31.8 11,0 10.9,0 0.4,27.8 c 0.3,24.7 0.5,28.1 2.2,31.5 2.6,5.2 6.5,7 13.8,6.5 6.9,-0.5 10.4,-2.7 13.3,-8.4 1.79999999999,-3.6 2,-6.3 2.29999999999,-30.700000000001 l 0.3,-26.699999999999 11,0 10.89999999999,0 0,41 0,41 -10.5,0 -10.5,0 0,-5.7 0,-5.8 -3.89999999999,4.3 c -3.70000000001,4 -8.10000000001,6.599999999998 -14.60000000001,8.299999999999 -4.5,1.200000000001 -16.39999999999,0.299999999998 -21.29999999999,-1.599999999999 z"
       style="fill:#ffffff;fill-opacity:1;stroke:none" />
    <path
       inkscape:connector-curvature="0"
       id="path4567"
       d="m 13412.6827893262,-2118.473225362922 c -1.29999999999,-0.5 -1.6,-2.399999999999 -1.6,-10.799999999999 l 0,-10.3 5.3,0.5 c 10.4,0.8 18.7,-3.600000000001 22.29999999999,-12.100000000001 1.60000000001,-3.599999999999 1.9,-7.699999999999 2.20000000001,-27.5 l 0.4,-23.199999999999 10.89999999999,0 10.9,0 0,41 0,41 -10.5,0 -10.5,0 0,-7.700000000001 0,-7.6 -3,4.5 c -1.70000000001,2.5 -4.79999999999,5.800000000001 -6.9,7.300000000001 -6.20000000001,4.199999999999 -15.29999999999,6.5 -19.5,4.899999999999 z"
       style="fill:#ffffff;fill-opacity:1;stroke:none" />
    <path
       inkscape:connector-curvature="0"
       id="path4581"
       d="m 13887.57897660005,-2113.324865252164 c 0,-19.2 -0.7,-24.5 -2.5,-19.2 -0.9,2.6 -8.9,8.2 -14.20000000001,9.900000000001 -10.29999999999,3.199999999999 -25.5,-0.599999999999 -31.2,-7.800000000001 -5.20000000001,-6.699999999999 -5.5,-9 -5.9,-43.1 l -0.3,-31.8 11,0 10.9,0 0.4,27.8 c 0.29999999999,23.6 0.7,28.300000000002 2.1,31.499999999999 2.3,4.900000000002 7.1,7.100000000001 14.5,6.5 6.3,-0.599999999998 9.9,-2.899999999999 12.70000000001,-8.399999999999 1.8,-3.600000000001 2,-6.3 2.3,-30.6 l 0.29999999999,-26.8 11,0 10.89999999999,0 0,56.5 0,56.5 -11,0 -11,0 0,-21 z"
       style="fill:#ffffff;fill-opacity:1;stroke:none" />
    <path
       inkscape:connector-curvature="0"
       d="m 13927.32271666818,-2274.330962528066 c 4.9,-2.300000000001 6.9,-4.5 9.4,-10.200000000001 4.20000000001,-9.6 3.29999999999,-24.699999999999 -1.9,-32.199999999999 -3.69999999998,-5.400000000001 -6.79999999999,-7.2 -13.5,-7.6 -5,-0.3 -6.6,0 -9.5,2 -7.19999999998,4.9 -10,11.699999999999 -10,24.299999999999 0.10000000001,14.8 6.20000000001,24 16.60000000001,25.1 3.6,0.3 6,0 8.89999999999,-1.4 z m 11.5,27.299999999999 0,-20.6 -3.6,3.5 c -9.9,9.6 -27.5,11.1 -39.09999999998,3.300000000001 -19.90000000002,-13.400000000001 -23.20000000001,-51.5 -6.10000000001,-70.200000000002 6.9,-7.599999999999 12.9,-10 24.29999999999,-9.9 10.8,0.100000000001 17.9,2.7 22.5,8.3 l 3,3.6 0,-5.299999999999 0,-5.200000000001 10.5,0 10.5,0 0,56.500000000001 0,56.5 -11,0 -11,0 0,-20.5 z"
       style="fill:#ffffff;fill-opacity:1;stroke:none"
       id="path4727" />
    <path
       inkscape:connector-curvature="0"
       id="path4557"
       d="m 13934.32487626892,-2270.929238282858 c 8.7,1.9 14,4.599999999999 17.79999999999,9.299999999999 2.60000000001,3.200000000001 6.10000000001,11.4 6.10000000001,14.5 0,0.4 -4.70000000001,0.8 -10.4,0.8 -10,0 -10.5,-0.1 -11.1,-2.3 -1.20000000001,-3.799999999999 -4.5,-6.5 -9.70000000001,-7.7 -11.9,-2.9 -21.4,3.3 -16.29999999999,10.6 1.89999999999,2.800000000001 4.5,3.7 19.7,7.4 15.3,3.7 18.6,5 23.4,9.2 4.6,4.1 6.4,8.3 6.4,15 0,8.200000000001 -1.60000000001,12.3 -6.8,17.6 -7.3,7.5 -13.6,9.6 -29.2,9.6 -14.5,0.1 -21.5,-1.6 -28.3,-6.800000000001 -5.3,-4.099999999999 -9.5,-10.800000000002 -10.3,-16.699999999998 l -0.6,-4.600000000001 9.3,-0.1 c 5.2,-0.1 9.9,0.1 10.4,0.6 0.6,0.4 1.89999999999,2.5 3,4.6 3.29999999999,6.5 6.39999999999,8.1 15.29999999999,8.1 6.39999999999,0 8.20000000001,-0.400000000002 10.89999999999,-2.300000000002 5.30000000002,-3.800000000001 5.30000000002,-10.199999999998 0,-13.699999999998 -1.29999999999,-0.800000000002 -9.19999999998,-3.300000000002 -17.69999999998,-5.5 -22.90000000002,-6 -28.10000000001,-9.900000000002 -28.80000000002,-21.700000000003 -0.5,-7.5 0.80000000002,-11.799999999997 5.30000000002,-17 7.39999999999,-8.599999999999 25,-12.400000000001 41.59999999998,-8.900000000001 z"
       style="fill:#ffffff;fill-opacity:1;stroke:none" />
    <path
       inkscape:connector-curvature="0"
       id="path4565"
       d="m 13714.45084826878,-2254.945429599048 c 15.09999999999,3.6 24.39999999999,12.6 26.79999999999,25.700000000001 l 0.6,3.799999999999 -11,0 -11,0 -0.7,-2.699999999999 c -1.8,-7.200000000001 -9.6,-12.1 -17.6,-11 -12,1.599999999999 -19.1,15.199999999999 -16.8,32.299999999999 1.6,12.100000000001 7.3,18.5 17,19.200000000001 9.3,0.699999999999 14.9,-3.1 17.8,-12.1 l 1.3,-3.700000000001 10.5,0 10.6,0 -0.70000000001,4.1 c -3.2,19.8 -24.2,32.4 -46.79999999999,28 -22.4,-4.4 -35.5,-24.399999999999 -31.9,-48.799999999999 3.8,-26.200000000001 25.8,-40.900000000001 51.9,-34.800000000001 z"
       style="fill:#ffffff;fill-opacity:1;stroke:none" />
    <path
       inkscape:connector-curvature="0"
       d="m 13471.24938178053,-2243.682950168664 c -5.89999999999,2.7 -8.79999999999,6.3 -10.39999999999,12.7 l -0.60000000001,2.7 18,0.3 c 17.5,0.3 18,0.2 18,-1.7 0,-3.1 -4.19999999999,-10.7 -7.09999999999,-12.8 -3.6,-2.599999999999 -13.3,-3.2 -17.90000000001,-1.2 z m 24.5,-15.1 c 13.8,6.3 21.9,19.3 23.20000000001,37.3 l 0.6,8.300000000002 -29.7,0 -29.8,0 0.7,3.199999999998 c 2.4,12.2 7.8,16.800000000002 19.7,16.800000000002 7.5,0 16.8,-4.800000000002 16.8,-8.699999999999 0,-1 2.4,-1.300000000001 10,-1.300000000001 6.7,0 10,0.400000000001 10,1.099999999999 0,0.599999999999 -1.4,3.800000000002 -3.2,7.099999999999 -5.9,11.2 -16.20000000001,17.400000000001 -30.30000000001,18.5 -22.5,1.7 -39.6,-10.099999999999 -44.5,-30.8 -0.79999999999,-3.1 -1.1,-8.8 -0.79999999999,-14.5 0.39999999999,-8 1,-10.3 4.1,-16.8 5.5,-11.6 15.9,-20.1 27.9,-22.6 7.1,-1.5 19.29999999999,-0.4 25.29999999999,2.4 z"
       style="fill:#ffffff;fill-opacity:1;stroke:none"
       id="path4729" />
    <path
       inkscape:connector-curvature="0"
       d="m 13806.93299376483,-2236.440033664307 c -7.9,4.1 -11,10.9 -11,24.4 0,16.5 6.6,25.400000000001 18.8,25.400000000001 10,0 15.89999999999,-4.600000000001 18.79999999999,-14.700000000001 2.29999999999,-7.9 1.6,-20.299999999999 -1.5,-26.7 -4.60000000001,-9.4 -15.79999999999,-13.2 -25.10000000001,-8.4 z m 23.1,-16.8 c 12.1,3.7 21.8,13.7 25.5,26.4 2,7.1 2.1,21.200000000001 0.1,27.8 -4.9,16.5 -15.9,26.1 -32.79999999999,28.7 -19.20000000001,3 -37.5,-5.5 -44.9,-20.7 -10.8,-22 -2.4,-51.099999999999 17.29999999999,-60.2 9.8,-4.4 24,-5.2 34.8,-2 z"
       style="fill:#ffffff;fill-opacity:1;stroke:none"
       id="path4731" />
    <path
       inkscape:connector-curvature="0"
       d="m 13582.25080104438,-2239.105562980947 c -7.9,4.1 -11,10.9 -11,24.299999999999 0,12.700000000001 2.9,19.400000000001 10.3,23.600000000001 3.2,1.699999999999 5.1,2 10.3,1.699999999999 7,-0.400000000001 10.39999999999,-2.300000000002 14.1,-7.699999999999 4.9,-7.300000000001 5.6,-24.600000000001 1.29999999999,-33.5 -4.5,-9.4 -15.7,-13.2 -25,-8.4 z m 16.9,-18.200000000001 c 15.5,2.600000000001 27.2,12.800000000001 31.6,27.800000000001 1.9,6.3 2.2,21 0.5,27.199999999999 -1.9,7 -5.7,13.800000000001 -10.5,18.5 -15.8,15.800000000001 -47,15.100000000001 -61.7,-1.5 -10.8,-12 -13.5,-30.799999999999 -7.1,-48.099999999999 4.29999999999,-11.8 14.7,-20.6 27.5,-23.400000000001 7.79999999999,-1.699999999999 11.6,-1.799999999999 19.7,-0.5 z"
       style="fill:#ffffff;fill-opacity:1;stroke:none"
       id="path4733" />
  </g>
</svg>
