<?xml version="1.0" encoding="UTF-8" standalone="no"?>
<!-- Generator: Adobe Illustrator 15.0.0, SVG Export Plug-In . SVG Version: 6.00 Build 0)  -->
<svg
    xmlns:inkscape="http://www.inkscape.org/namespaces/inkscape"
    xmlns:rdf="http://www.w3.org/1999/02/22-rdf-syntax-ns#"
    xmlns="http://www.w3.org/2000/svg"
    xmlns:dc="http://purl.org/dc/elements/1.1/"
    xmlns:ns1="http://sozi.baierouge.fr"
    xmlns:cc="http://web.resource.org/cc/"
    xmlns:xlink="http://www.w3.org/1999/xlink"
    xmlns:sodipodi="http://sodipodi.sourceforge.net/DTD/sodipodi-0.dtd"
    enable-background="new 0 0 665.637 657.348"
    xml:space="preserve"
    version="1.1"
    y="0px"
    x="0px"
    viewBox="0 0 665.637 657.348"
  >
<g
      id="Layer_3"
    >
	<g
      >
		<g
        >
			<path
            d="m228.37 70.651c-12.986 45.621 34.787 110.59 49.921 153.17-2.05-5.771-22.945-41.873-26.362-47.049-29.63-44.87-43.44-109.51-111.99-105.68-47.468 2.647-91.829 40.057-117.12 76.889-54.124 78.81 22.848 150.18 33.52 149.55-113.5 6.717-32.052 225.09 84.097 204.07 53.823-9.741 84.57-48.74 126.16-73.936 3.037 39.234 3.641 97.521-20.852 102.84-1.111 7.247 6.569 12.214 16.527 7.868 13.322-5.815 32.433-49.758 40.556-61.832 15.744-23.409 30.526-42.07 49.187-60.382 13.31 4.589 25.107 12.612 34.337 24.87 45.221 60.048 35.648 163.29 152.62 132.37 109.4-28.915 98.04-120.2 44.327-187.85 27.138-1.057 56.946-23.903 69.545-44.894 17.146-28.563 11.083-70.479-6.721-96.659-30.23-44.458-84.188-18.22-131.29-13.171 15.393-1.649 47.094-33.95 58.385-44.412 20.342-18.85 29.706-39.872 28.063-66.283-2.65-42.577-34.025-77.174-74.614-95.14-17.771-7.867-42.448-17.396-62.437-9.882-13.646 5.129-26.301 29.36-42.196 30.36h-0.019c-13.604 0-27.171-20.944-35.841-28.243-18.035-15.18-24.632-15.457-51.022-16.579-55.07-2.355-92.11 18.383-106.8 69.995z"
            fill="#879B40"
        />
			<path
            d="m228.6 70.718c-1.86 6.558-2.42 13.425-2.106 20.224 0.319 6.809 1.479 13.56 3.115 20.178 3.307 13.247 8.419 25.975 14.031 38.412 5.662 12.432 11.924 24.581 18.092 36.779 6.132 12.211 12.343 24.432 17.076 37.323l-1.049 0.373c-1.011-2.493-2.393-4.976-3.685-7.426-1.319-2.454-2.671-4.894-4.035-7.327-2.729-4.867-5.508-9.707-8.314-14.531-2.81-4.82-5.639-9.636-8.538-14.394-0.73-1.189-1.451-2.368-2.222-3.516-0.772-1.163-1.539-2.347-2.286-3.529-1.5-2.368-2.952-4.765-4.369-7.181-5.668-9.664-10.792-19.606-16.115-29.406-5.326-9.793-10.836-19.492-17.32-28.483-6.467-8.968-14.006-17.24-23.069-23.442-9.021-6.238-19.533-10.135-30.397-11.518-5.431-0.719-10.938-0.864-16.428-0.578-5.486 0.275-10.941 1.037-16.312 2.207-10.748 2.34-21.105 6.346-30.895 11.406-9.795 5.07-19.025 11.232-27.66 18.127-8.635 6.901-16.679 14.547-24.096 22.748-7.404 8.192-14.276 16.96-20.187 26.221-5.84 9.286-10.404 19.373-13.083 29.96-2.699 10.576-3.459 21.612-2.285 32.461 1.166 10.854 4.244 21.489 8.749 31.477 4.508 9.992 10.405 19.376 17.351 27.876 3.478 4.243 7.225 8.273 11.253 11.95 2.016 1.831 4.108 3.576 6.285 5.124 1.087 0.77 2.2 1.495 3.314 2.097 0.555 0.299 1.114 0.569 1.639 0.768 0.499 0.205 1.07 0.313 1.153 0.294l0.253 4.275c-9.361 0.533-18.688 2.646-26.764 7.188-4.03 2.256-7.715 5.103-10.884 8.452-3.177 3.345-5.821 7.188-7.943 11.316-4.245 8.283-6.311 17.642-6.918 27.042-0.602 9.429 0.215 18.962 1.973 28.305 3.566 18.706 10.756 36.713 20.417 53.175 9.703 16.434 22.018 31.458 36.921 43.402 7.45 5.951 15.56 11.096 24.235 15.033 8.666 3.937 17.903 6.647 27.357 7.762 9.455 1.139 19.067 0.646 28.419-1.313 9.382-1.874 18.545-4.807 27.331-8.613 17.63-7.604 33.508-18.703 48.767-30.391 15.284-11.687 30.249-23.982 46.828-34.004l1.049-0.634 0.094 1.221c0.703 9.217 1.198 18.452 1.406 27.7 0.192 9.247 0.087 18.512-0.601 27.755-0.722 9.228-1.915 18.492-4.679 27.428-1.409 4.442-3.229 8.832-5.997 12.709-1.387 1.927-3.027 3.712-4.978 5.144-1.942 1.436-4.201 2.482-6.575 2.994l0.659-0.701c-0.256 1.644-0.002 3.338 0.828 4.729 0.816 1.398 2.17 2.459 3.722 3.062 3.148 1.226 6.829 0.73 10.058-0.552 0.84-0.326 1.562-0.68 2.289-1.154 0.723-0.464 1.414-1.005 2.081-1.58 1.332-1.156 2.562-2.464 3.731-3.825 2.334-2.735 4.435-5.698 6.434-8.726 7.961-12.176 14.405-25.307 21.34-38.192 1.751-3.207 3.52-6.464 5.628-9.512 2.038-3.037 4.105-6.062 6.204-9.061 4.195-6.001 8.528-11.911 13.031-17.694 8.996-11.574 18.743-22.583 29.187-32.884l0.56-0.553 0.756 0.256c10.305 3.485 19.91 9.229 27.711 16.884 3.93 3.798 7.334 8.11 10.41 12.551 3.095 4.441 5.915 9.062 8.529 13.783 10.463 18.926 17.626 39.274 26.259 58.76 4.327 9.732 9.037 19.298 14.932 28.039 5.867 8.721 13.087 16.57 21.911 22.089 8.783 5.571 18.994 8.624 29.4 9.571 10.429 0.977 21.027 0.061 31.424-1.803 10.396-1.911 20.702-4.66 30.655-8.222 9.942-3.583 19.551-8.098 28.344-13.84 8.781-5.732 16.716-12.766 22.978-21.093 6.282-8.303 10.791-17.889 13.226-28.008 2.462-10.122 2.899-20.707 1.813-31.125-1.089-10.432-3.666-20.713-7.246-30.626-7.212-19.846-18.273-38.236-31.438-54.81l-3.057-3.848 4.915-0.2c6.509-0.265 12.994-1.828 19.187-4.165 6.202-2.344 12.135-5.471 17.729-9.114 5.596-3.646 10.858-7.826 15.7-12.428 4.828-4.61 9.256-9.655 12.942-15.136 7.396-10.902 10.963-24.113 11.536-37.373 0.581-13.292-1.654-26.736-6.196-39.269-2.291-6.261-5.18-12.304-8.727-17.905-3.528-5.605-7.771-10.686-12.836-14.778-5.047-4.103-10.898-7.132-17.155-8.995-6.256-1.887-12.872-2.654-19.525-2.721-13.35-0.104-26.767 2.361-40.126 4.993-13.379 2.649-26.813 5.685-40.632 7.175l-0.539-5.025c1.638-0.176 3.425-0.762 5.165-1.504 1.749-0.748 3.481-1.665 5.184-2.663 3.406-2.003 6.7-4.322 9.918-6.755 6.432-4.886 12.576-10.244 18.604-15.735 6.044-5.495 11.893-11.165 17.93-16.816 5.937-5.452 11.321-11.441 15.722-18.095 4.401-6.641 7.752-13.944 9.745-21.636 2.004-7.689 2.681-15.716 2.307-23.717-0.362-8.002-1.797-15.948-4.233-23.589-2.437-7.642-5.865-14.971-10.097-21.814-8.477-13.701-20.027-25.449-33.188-34.867-6.585-4.717-13.582-8.869-20.866-12.443-3.634-1.784-7.381-3.421-11.13-5.019-3.754-1.585-7.54-3.074-11.376-4.403-7.663-2.646-15.559-4.703-23.577-5.333-4.002-0.308-8.028-0.243-11.971 0.351-1.971 0.294-3.918 0.723-5.818 1.299-0.948 0.289-1.896 0.602-2.811 0.973-0.842 0.348-1.735 0.804-2.568 1.296-3.371 2.006-6.389 4.741-9.309 7.555-2.922 2.83-5.748 5.804-8.702 8.688-2.957 2.875-6.031 5.671-9.522 8.035-3.479 2.335-7.48 4.349-11.954 4.349h0.013c-2.724 0-5.347-0.733-7.701-1.86-2.366-1.132-4.51-2.589-6.52-4.182-4.013-3.208-7.513-6.906-10.906-10.65-3.402-3.729-6.616-7.64-10.211-11.051-3.73-3.274-7.677-6.457-11.848-9.164-4.176-2.72-8.743-4.79-13.598-5.912-4.848-1.151-9.868-1.582-14.882-1.905-5.019-0.295-10.063-0.547-15.084-0.709-5.025-0.131-10.056-0.065-15.072 0.245-10.024 0.621-20.021 2.223-29.593 5.29-9.565 3.043-18.659 7.664-26.554 13.878-7.913 6.192-14.541 13.958-19.71 22.57-5.14 8.63-8.93 18.042-11.7 27.71zm-0.47-0.133c2.753-9.707 6.532-19.173 11.729-27.855 5.18-8.676 11.838-16.516 19.802-22.776 7.941-6.292 17.109-10.939 26.719-14.077 9.623-3.147 19.68-4.818 29.759-5.502 5.044-0.342 10.102-0.438 15.153-0.335 5.055 0.133 10.081 0.354 15.127 0.621 5.035 0.306 10.108 0.676 15.093 1.808 4.992 1.099 9.762 3.205 14.054 5.944 4.313 2.743 8.268 5.87 12.141 9.202 3.757 3.499 6.988 7.369 10.416 11.047 3.405 3.686 6.897 7.298 10.798 10.353 1.951 1.516 4.009 2.846 6.204 3.867 2.188 1.021 4.533 1.588 6.869 1.588h0.021-0.009c1.852 0 3.806-0.501 5.6-1.236 1.813-0.735 3.538-1.705 5.181-2.833 3.286-2.271 6.259-5.033 9.146-7.899 2.887-2.874 5.683-5.868 8.622-8.775 2.949-2.89 6.017-5.754 9.684-7.993 0.928-0.557 1.855-1.051 2.904-1.498 0.982-0.409 1.98-0.751 2.988-1.07 2.017-0.635 4.08-1.112 6.161-1.446 4.164-0.674 8.39-0.784 12.563-0.509 8.363 0.567 16.497 2.604 24.347 5.217 3.929 1.313 7.794 2.785 11.612 4.349 3.812 1.576 7.602 3.182 11.35 4.971 7.479 3.57 14.682 7.737 21.483 12.498 13.58 9.516 25.664 21.444 34.565 35.615 4.451 7.068 8.09 14.677 10.7 22.645 2.612 7.964 4.186 16.284 4.632 24.665 0.469 8.369-0.182 16.882-2.284 25.084-2.081 8.204-5.627 16.026-10.251 23.076-4.618 7.062-10.259 13.381-16.365 19.048-5.913 5.583-11.803 11.371-17.883 16.926-6.082 5.564-12.298 11.016-18.918 16.068-3.317 2.519-6.732 4.941-10.392 7.106-1.832 1.079-3.727 2.094-5.747 2.964-2.023 0.857-4.163 1.615-6.61 1.896l-0.539-5.025c13.408-1.471 26.718-4.498 40.161-7.195 6.726-1.353 13.494-2.643 20.352-3.614 6.854-0.968 13.807-1.626 20.833-1.571 7.014 0.056 14.131 0.846 20.995 2.897 6.856 2.034 13.387 5.415 18.958 9.952 5.592 4.517 10.221 10.098 13.97 16.061 3.771 5.963 6.812 12.338 9.22 18.923 4.767 13.182 7.11 27.249 6.496 41.31-0.321 7.021-1.396 14.045-3.427 20.833-1.017 3.392-2.26 6.725-3.767 9.946-0.756 1.616-1.558 3.177-2.461 4.772l-0.647 1.106-0.704 1.158c-0.47 0.754-0.953 1.497-1.446 2.231-3.971 5.865-8.644 11.146-13.718 15.968-5.089 4.809-10.598 9.158-16.475 12.967-5.877 3.804-12.125 7.081-18.733 9.559-6.6 2.468-13.59 4.153-20.771 4.429l1.857-4.048c13.401 16.972 24.677 35.803 32.06 56.284 3.663 10.232 6.311 20.888 7.417 31.774 1.104 10.87 0.627 22.001-2.008 32.707-2.603 10.701-7.429 20.888-14.101 29.651-6.651 8.794-15.02 16.149-24.174 22.088-9.163 5.961-19.113 10.542-29.323 14.175-10.231 3.604-20.705 6.342-31.382 8.254-10.669 1.858-21.62 2.768-32.542 1.694-5.45-0.54-10.879-1.595-16.125-3.295-5.245-1.694-10.296-4.045-14.952-7.011-9.364-5.921-16.908-14.248-22.923-23.285-6.043-9.07-10.741-18.854-15.043-28.705-8.559-19.724-15.543-40.007-25.711-58.711-2.539-4.666-5.273-9.219-8.271-13.587-2.988-4.38-6.224-8.536-9.976-12.216-7.445-7.418-16.644-13-26.601-16.442l1.315-0.296c-10.431 10.158-20.17 21.018-29.184 32.464-4.513 5.719-8.86 11.57-13.076 17.521-2.109 2.975-4.185 5.969-6.237 8.987-2.072 2.952-3.818 6.119-5.588 9.311-6.999 12.79-13.539 25.921-21.596 38.225-2.034 3.063-4.173 6.07-6.59 8.89-1.214 1.405-2.495 2.766-3.926 4.003-0.719 0.615-1.47 1.203-2.285 1.724-0.803 0.527-1.732 0.977-2.598 1.305-1.767 0.692-3.638 1.176-5.565 1.32-1.922 0.142-3.915-0.061-5.767-0.793-1.844-0.719-3.537-2.026-4.564-3.8-1.048-1.763-1.346-3.898-1.031-5.854l0.093-0.581 0.566-0.12c2.143-0.458 4.167-1.389 5.941-2.692 1.779-1.299 3.31-2.947 4.62-4.76 2.62-3.648 4.407-7.893 5.79-12.228 2.724-8.724 3.938-17.9 4.673-27.054 0.703-9.172 0.831-18.394 0.66-27.604-0.171-9.214-0.686-18.423-1.404-27.615l1.143 0.586c-16.44 9.974-31.341 22.251-46.635 33.987-7.657 5.864-15.414 11.635-23.533 16.896-8.109 5.268-16.582 10.029-25.467 13.923-8.877 3.904-18.164 6.904-27.67 8.881-9.495 2.068-19.379 2.662-29.076 1.567-9.707-1.066-19.206-3.773-28.112-7.735-8.916-3.962-17.247-9.157-24.898-15.171-15.304-12.071-27.952-27.256-37.952-43.905-9.959-16.682-17.428-34.946-21.235-54.104-1.875-9.572-2.802-19.388-2.25-29.213 0.561-9.794 2.63-19.685 7.126-28.635 2.241-4.462 5.104-8.646 8.55-12.309 3.439-3.667 7.455-6.795 11.824-9.264 8.763-4.974 18.732-7.235 28.556-7.837l0.253 4.275c-1.32 0.036-2.117-0.278-2.919-0.554-0.783-0.294-1.482-0.636-2.158-0.995-1.345-0.721-2.577-1.522-3.771-2.36-2.38-1.681-4.589-3.514-6.713-5.428-4.242-3.832-8.117-8.007-11.722-12.396-7.191-8.788-13.29-18.473-17.979-28.84-4.683-10.359-7.908-21.445-9.139-32.813-1.241-11.38-0.408-22.98 2.449-34.04 2.833-11.077 7.625-21.574 13.693-31.169 6.134-9.555 13.126-18.405 20.713-26.761 7.617-8.315 15.869-16.053 24.73-23.04 8.862-6.98 18.339-13.221 28.42-18.355 10.072-5.132 20.785-9.115 31.898-11.427 5.553-1.149 11.204-1.879 16.876-2.105 5.664-0.237 11.366-0.03 17.003 0.773 5.635 0.797 11.201 2.2 16.519 4.27 5.32 2.058 10.374 4.788 15.032 8.053 9.35 6.54 16.988 15.129 23.468 24.307 6.495 9.205 11.948 19.03 17.192 28.901 5.241 9.878 10.258 19.849 15.799 29.511 1.385 2.414 2.804 4.809 4.269 7.173 0.733 1.185 1.473 2.352 2.233 3.522 0.775 1.179 1.499 2.39 2.219 3.587 2.865 4.808 5.647 9.649 8.414 14.505 2.763 4.857 5.497 9.729 8.183 14.631 1.343 2.451 2.673 4.909 3.975 7.386 1.282 2.5 2.613 4.918 3.677 7.613l-1.049 0.373c-2.252-6.425-4.983-12.686-7.847-18.88-2.87-6.193-5.896-12.317-8.943-18.434-6.099-12.229-12.296-24.424-17.899-36.904-5.601-12.466-10.705-25.23-14.005-38.536-1.632-6.647-2.787-13.435-3.098-20.288-0.29-6.838 0.28-13.771 2.17-20.377z"
        />
		</g
      >
		<path
          d="m500.52 538.47h-0.01c-42.189 0-54.185-79.553-72.306-108.78-32.504-52.422-82.176-70.896-125.28-21.247-28.068-52.648-85.575 3.786-113.13 24.424-47.393 35.492-94.718 38.42-128.16-15.898-15.138-24.585-27.71-60.122-12.13-87.799 12.81-22.757 40.946-26.646 62.781-36.709-11.253 5.187-43.847-32.196-49.009-39.284-12.152-16.682-19.757-35.18-16.206-56.017 6.993-41.026 53.628-82.651 95.173-84.97 41.96-2.33 57.397 56.158 76.764 81.785 24.946 33.008 62.429 53.923 86.718 87.592-4.429-41.733-3.193-98.919-20.269-137.62-16.998-38.532-31.734-92.948 25.592-101.23 19.18-2.771 39.333-4.364 52.871 10.733 15.632 17.433 34.555 34.178 59.63 33.238 49.475-1.854 76.632-54.222 118.28-1.259 33.558 42.671-2.899 88.211-40.141 114.24-12.488 8.729-31.965 13.484-38.721 27.243 21.021 18.188 54.975 19.836 80.922 25.081 19.632 3.97 50.336 1.689 65.551 15.817 47.271 43.895-36.436 111.12-84.397 90.397 43.894 59.322 98.218 180.26-24.533 180.26-8.13 0.02-3.03 0.02 0.02 0.02z"
          fill="#B4C748"
      />
	</g
    >
</g
  >
<g
      id="Layer_6"
    >
	<g
        id="Layer_7"
      >
		<path
          d="m123.91 250.29c3.711-1.829 8.577-3.222 14.944-4.155 9.951-1.46 18.171-5.069 28.373-5.423 2.646-22.768 13.716-44.317 20.366-66.085 7.619-24.937 9.036-49.864 8.36-75.764-17.252 0.735-24.773-6.026-39.266-12.435-15.209-6.721-34.672 8.084-49.869 0.756-1.505-0.727-30.324-28.281-22.422-2.938-0.581-1.863-23.834-1.081-26.408 0.854-6.711 5.044-6.832 23.545-7.867 31.396-3.264 24.771-3.208 49.901-1.386 74.789 1.309 17.876 1.746 35.308 11.586 50.638 5.484 8.542 16.924-0.576 21.737 8.041 3.742 6.701-0.24 19.279 1.697 26.576 2.234 8.416 2.478 17.518 4.497 25.094-6.381 1.483-12.709 4.113-18.795 8.067-44.238 28.772-22.232 82.575 3.165 114.72-78.188 55.903 46.718 75.911-14.11 135.87 2.542-2.77 54.503 14.378 66.451 9.168 23.229-10.129 20.157-18.432 21.201-42.09 0.48-10.895-6.64-17.616-1.691-28.556 2.084-4.608 22.599-10.504 27.686-20.417 6.12-11.927 5.727-19.813 2.488-26.129-5.822-11.361-24.184-19.562-23.063-33.78 1.104-14.017 24.254-25.499 27.71-40.517 2.473-10.764-3.557-51.592-9.799-58.811-11.222-12.979-42.967-8.768-58.121-11.31 4.32-28.3-6.06-48.41 12.53-57.57z"
          fill="#323330"
      />
		<path
          d="m176.04 163.45c-6.42 22.98-6.924 72.302-36.639 73.239-21.233 0.671-48.82 6.615-67.826-6.274-17.758-12.045-16.654-40.673-15.718-60.802 0.573-12.308 4.425-24.585 5.825-36.837 1.542-13.487-0.29-29.751 13.569-35.446 15.103-6.205 42.429 1.081 59.064-0.722 21.321-2.31 35.415 5.639 55.9 8.735 1.04 19.85-8.99 39.57-14.17 58.1z"
          fill="#CFDF61"
      />
	</g
    >
	<ellipse
        cy="556.14"
        cx="351.32"
        rx="263.32"
        ry="101.21"
        fill="#293D22"
    />
	<g
      >
		<g
        >
			<g
          >
				<path
              d="m190.7 570.74c2.089 1.252 3.44 2.566 1.95 3.67-2.126 1.573-5.147 0.129-7.904-0.111-5.454-0.476-8.299 2.511-6.043 6.393 0.803 1.382 2.589 2.439 4.49 3.068 0.808 0.267 6.193 1.356 6.538 0.691-0.577 1.112 0.276 2.905 1.411 3.976 1.544 1.454 4.538 2.372 6.745 2.383 3.749 0.021 3.246-2.886 4.085-4.96-0.273 0.678 1.168 2.855 1.615 3.604 0.805 1.349 2.035 2.312 3.909 2.978 3.021 1.076 6.203 0.761 8.499-0.435 1.006-0.523 2.314-1.299 2.313-2.351-0.002-0.719-1.41-1.949-1.017-2.627 0.335-0.579 2.212-0.586 2.964-0.759 1.565-0.358 1.77-0.634 2.589-1.749 1.71-2.323 1.319-4.528-1.893-6.554-2.84-1.791-8.771-1.422-12.15-1.891 0.458 0.063 3.564 0.112 4.023 0.1 3.979-0.103 8.922 1.021 10.725-2.14 1.248-2.189 0.526-5.419-1.802-7.278-2.943-2.352-9.094-2.236-12.419-0.944-0.332-1.956-1.348-4.979-4.09-5.931-4.032-1.4-10.13-0.013-11.323 3.147-0.755 2 3.404 7.615-0.418 7.032-2.652-0.405-6.791-4.712-9.834-3.134 1.08 0.94 4.55 2.33 7.02 3.81z"
              fill="#879B40"
          />
			</g
        >
			<g
          >
				<path
              d="m370.39 575.47c3.381 0.938 5.744 2.195 4.224 4.227-2.169 2.898-6.899 2.16-10.706 2.802-6.617 1.113-10.405 6.778-5.788 11.329 1.615 1.592 4.428 2.379 7.229 2.457 1.19 0.033 8.826-0.73 9.079-1.791-0.424 1.774 1.248 3.9 3.055 4.885 2.458 1.339 6.653 1.27 9.556 0.324 4.931-1.606 3.51-5.27 3.968-8.354-0.149 1.007 2.338 3.302 3.113 4.104 1.396 1.446 3.215 2.191 5.768 2.268 4.117 0.122 8.062-1.646 10.636-4.1 1.128-1.074 2.559-2.573 2.27-3.895-0.197-0.903-2.293-1.905-2.007-2.908 0.245-0.861 2.562-1.577 3.434-2.075 1.814-1.035 1.979-1.452 2.617-3.127 1.331-3.492 0.076-6.028-4.635-7.437-4.166-1.244-11.412 1.258-15.893 1.851 0.606-0.079 4.547-1.11 5.117-1.285 4.95-1.517 11.498-1.812 12.36-6.285 0.597-3.098-1.808-6.987-5.469-8.399-5.049-1.948-11.701-0.26-15.931 2.681-1.384-2.387-4.325-5.996-8.314-6.315-5.762-0.461-12.992 2.712-13.192 7.658-0.111 2.756 8.295 8.913 2.935 9.477-3.721 0.392-11.435-3.999-14.826-0.781 1.98 0.92 7.41 1.58 11.4 2.69z"
              fill="#879B40"
          />
			</g
        >
			<g
          >
				<path
              d="m540.98 550.52c0.641 1.82 0.539 3.338-1.767 3.49-3.289 0.218-4.506-2.18-6.738-3.636-4.416-2.88-10.129-2.09-12.321 2.044-0.781 1.473-0.29 3.162 0.772 4.526 0.451 0.58 4.135 3.799 5.206 3.422-1.793 0.631-3.153 2.426-3.432 3.752-0.377 1.805 1.143 3.729 3.013 4.572 3.178 1.436 6.187-1.072 9.188-2.349-0.98 0.417-2.329 2.636-2.851 3.382-0.94 1.342-1.115 2.54-0.459 3.7 1.058 1.869 3.807 2.616 6.826 2.401 1.322-0.095 3.119-0.293 4.306-1.085 0.811-0.541 1.209-1.889 2.229-2.271 0.869-0.326 2.131 0.251 2.813 0.353 1.418 0.211 1.843 0.064 3.535-0.491 3.53-1.156 5.511-2.764 5.415-5.165-0.085-2.124-4.473-3.894-6.472-5.468 0.271 0.214 2.432 1.367 2.763 1.521 2.867 1.33 5.038 3.643 9.041 2.124 2.772-1.052 5.118-3.316 5.164-5.264 0.059-2.461-4.181-4.65-7.583-5.104 1.325-1.394 2.846-3.658 1.483-5.372-2.001-2.519-7.727-4.402-11.091-2.878-2.127 0.964-3.465 6.64-6.098 4.556-1.828-1.447-1.691-6.33-5.709-6.697 0.18 1.21 2.02 3.81 2.77 5.96z"
              fill="#879B40"
          />
			</g
        >
			<g
          >
				<path
              d="m124.75 521.64c-0.376 1.522-1.163 2.939-3.368 3.497-3.147 0.797-3.117-1.058-4.308-1.806-2.355-1.48-7.614 0.601-11.332 4.063-1.324 1.234-1.66 2.363-1.335 3.21 0.138 0.359 2.058 2.308 3.074 1.871-1.698 0.73-3.333 2.274-3.876 3.33-0.738 1.435 0.194 2.814 1.69 3.386 2.541 0.971 5.527-1.284 8.469-2.64-0.961 0.443-2.452 2.478-2.983 3.158-0.955 1.226-1.153 2.272-0.523 3.31 1.016 1.671 3.763 2.445 6.765 2.314 1.314-0.059 3.122-0.195 4.238-0.984 0.763-0.539 1.027-1.929 2.053-2.319 0.875-0.333 2.264 0.284 3.008 0.405 1.549 0.251 1.995 0.114 3.791-0.469 3.746-1.217 5.766-3.118 5.674-5.829-0.081-2.396-4.569-3.988-6.274-5.367 0.231 0.188 2.262 1.164 2.587 1.297 2.816 1.147 5.097 3.733 9.828 1.749 3.275-1.374 6.283-4.342 6.768-6.708 0.61-2.993-3.477-4.864-7.051-4.747 2.054-1.772 4.929-4.721 4.449-6.341-0.705-2.381-5.631-2.698-10.135-0.232-2.849 1.561-7.341 7.326-8.799 5.925-1.013-0.973 2.153-5.567-1.359-4.813-0.66 1.03-0.61 2.93-1.05 4.73z"
              fill="#879B40"
          />
			</g
        >
			<g
          >
				<path
              d="m106.55 581.03c2.318 0.464 4.343 1.176 4.792 2.508 0.64 1.899-2.275 1.476-3.718 1.941-2.854 0.922-0.391 3.959 5.02 6.928 1.927 1.058 3.8 1.624 5.224 1.744 0.605 0.051 3.923-0.314 3.293-1.017 1.054 1.173 3.502 2.623 5.208 3.327 2.32 0.959 4.588 0.999 5.547 0.354 1.63-1.098-1.854-3.736-3.726-5.906 0.612 0.709 3.722 2.297 4.771 2.864 1.89 1.022 3.554 1.562 5.218 1.589 2.683 0.043 3.969-1.365 3.941-3.319-0.012-0.855-0.097-2.062-1.205-3.049-0.756-0.674-2.845-1.311-3.326-2.081-0.407-0.653 0.685-1.327 0.957-1.757 0.565-0.895 0.41-1.226-0.201-2.533-1.273-2.726-3.646-4.505-7.616-5.09-3.51-0.516-6.751 1.857-9.152 2.561 0.325-0.095 2.185-1.086 2.444-1.251 2.262-1.432 6.412-2.284 4.657-5.587-1.215-2.287-4.581-4.63-7.774-5.247-4.038-0.779-7.965 1.469-8.827 3.565-1.996-1.412-5.328-3.335-7.865-3.163-3.729 0.25-6.074 2.996-3.696 5.71 1.503 1.716 9.266 5.021 6.726 5.601-1.763 0.402-8.244-1.924-8.005 0.033 1.515 0.5 4.585 0.74 7.325 1.29z"
              fill="#879B40"
          />
			</g
        >
			<g
          >
				<path
              d="m286.97 637.66c2.552 0.804 4.423 1.81 3.594 3.242-1.182 2.045-4.621 1.266-7.236 1.614-5.171 0.689-6.108 4.354-2.248 7.884 1.376 1.257 3.435 1.949 5.392 2.155 0.831 0.087 6.066-0.079 6.081-0.841-0.025 1.274 1.496 2.909 2.937 3.723 1.96 1.105 4.948 1.271 6.906 0.711 3.326-0.952 1.765-3.749 1.677-6.026 0.029 0.744 2.186 2.553 2.873 3.185 1.239 1.137 2.692 1.774 4.611 1.937 3.094 0.262 5.838-0.927 7.494-2.712 0.726-0.781 1.642-1.884 1.258-2.901-0.262-0.695-1.999-1.517-1.895-2.275 0.089-0.646 1.803-1.139 2.428-1.5 1.301-0.752 1.387-1.069 1.719-2.346 0.693-2.659-0.526-4.634-4.346-5.776-3.377-1.011-8.733 0.765-12.061 1.106 0.45-0.047 3.344-0.738 3.764-0.858 3.643-1.046 8.731-1.187 9.076-4.616 0.238-2.374-1.856-5.24-4.915-6.467-3.868-1.551-9.68-0.086-12.188 1.89-1.264-1.812-3.753-4.495-6.866-4.843-4.577-0.511-9.635 2.044-9.07 5.398 0.357 2.121 7.066 6.795 3.247 7.035-2.651 0.167-8.755-3.287-10.71-1.092 1.55 0.75 5.49 1.44 8.5 2.39z"
              fill="#879B40"
          />
			</g
        >
			<g
          >
				<path
              d="m415.19 628.7c2.775 0.505 4.594 1.358 2.972 3.271-2.315 2.729-6.183 2.532-9.555 3.474-5.115 1.428-10.142 6.151-6.594 10.413 1.038 1.246 3.3 1.606 5.603 1.375 0.979-0.1 7.415-1.595 7.821-2.526-0.681 1.559 0.282 3.171 1.554 3.784 1.729 0.835 5.125 0.248 7.678-0.911 4.334-1.969 4.012-4.836 5.045-7.48-0.337 0.864 1.19 2.468 1.636 3.034 0.802 1.021 2.083 1.392 4.11 1.104 3.269-0.465 6.86-2.476 9.563-4.842 1.184-1.035 2.729-2.459 2.834-3.5 0.071-0.711-1.382-1.249-0.902-2.114 0.415-0.749 2.483-1.646 3.321-2.175 1.744-1.1 1.985-1.464 2.925-2.934 1.961-3.064 1.54-5-2.12-5.603-3.234-0.532-9.908 2.434-13.824 3.445 0.531-0.137 4.076-1.465 4.595-1.679 4.506-1.862 10.128-2.895 11.823-6.786 1.176-2.694-0.065-5.591-3.024-6.55-3.742-1.213-10.81 1.272-14.393 3.979-0.818-1.938-2.915-4.841-6.37-4.746-5.451 0.15-11.844 3.477-12.704 7.913-0.466 2.405 5.955 7.066 1.242 8.064-3.271 0.691-9.401-2.503-12.749 0.627 1.63 0.68 6.25 0.8 9.52 1.39z"
              fill="#879B40"
          />
			</g
        >
			<g
          >
				<path
              d="m525.47 505.39c1.548 1.654 2.278 2.882 0.262 2.362-2.875-0.739-5.198-3.063-7.898-4.862-5.34-3.562-9.901-4.455-10.128-1.533-0.081 1.041 1.066 2.603 2.632 4.046 0.665 0.613 5.532 4.368 6.369 4.31-1.401 0.098-1.895 1.364-1.57 2.506 0.441 1.554 2.782 3.74 5.025 5.026 3.81 2.183 5.592 0.594 7.871 0.213-0.745 0.125-0.941 1.865-1.08 2.442-0.252 1.04 0.175 2.167 1.45 3.501 2.057 2.15 5.343 3.699 8.387 4.354 1.333 0.286 3.109 0.61 3.871 0.146 0.521-0.316 0.126-1.573 0.935-1.654 0.702-0.071 2.367 0.892 3.145 1.202 1.617 0.646 1.979 0.628 3.383 0.588 2.928-0.085 3.827-1.1 2.089-3.45-1.536-2.078-7.011-5.043-9.884-7.047 0.39 0.271 3.193 1.961 3.612 2.2 3.634 2.082 7.444 4.944 10.368 4.794 2.024-0.104 2.626-1.433 1.225-3.126-1.773-2.142-7.248-5.316-10.651-6.77 0.284-0.72 0.056-2.016-2.303-3.773-3.466-2.585-9.454-5.871-11.399-5.758-1.23 0.07 0.824 4.203-2.679 1.748-2.432-1.704-5.001-5.499-8.624-6.957 0.77 0.96 3.76 3.54 5.58 5.49z"
              fill="#879B40"
          />
			</g
        >
			<g
          >
				<path
              d="m246.84 527.1c2.988 1.012 5.035 2.33 3.294 4.229-2.486 2.709-6.803 1.762-10.452 2.236-6.292 0.818-10.71 5.888-6.964 10.638 1.3 1.648 3.857 2.578 6.512 2.839 1.128 0.11 8.54-0.121 8.889-1.164-0.584 1.744 0.856 4.009 2.561 5.159 2.318 1.563 6.512 1.877 9.488 1.163 5.057-1.212 3.854-5.145 4.569-8.267-0.233 1.02 2.109 3.595 2.849 4.499 1.333 1.631 3.164 2.595 5.809 2.933 4.262 0.544 8.483-0.921 11.3-3.282 1.233-1.033 2.81-2.494 2.571-3.929-0.162-0.979-2.304-2.23-1.938-3.261 0.313-0.883 2.789-1.432 3.74-1.879 1.979-0.931 2.181-1.357 2.982-3.061 1.67-3.552 0.308-6.771-4.115-8.038-4.819-1.383-10.897 0.116-16.276 0.902 0.612-0.047 4.674-0.853 5.268-0.995 5.156-1.233 11.865-1.149 13.335-5.617 1.019-3.094-0.881-7.118-4.281-8.62-4.864-2.148-11.645-0.578-16.102 2.049-0.91-2.338-3.053-5.853-6.688-6.19-5.587-0.519-12.59 2.382-13.786 6.937-0.667 2.541 6.067 8.663 0.956 9.016-3.548 0.245-9.803-4.076-13.482-1.158 1.62 0.9 6.44 1.66 9.96 2.86z"
              fill="#879B40"
          />
			</g
        >
			<g
          >
				<path
              d="m166.72 486.1c-0.116 0.79-0.583 1.667-2.249 2.511-2.377 1.204-2.568 0.33-3.635 0.324-2.108-0.011-6.175 2.369-8.749 4.984-0.918 0.932-1.031 1.556-0.654 1.878 0.16 0.138 1.937 0.6 2.717 0.104-1.305 0.827-2.5 2.068-2.864 2.781-0.494 0.968 0.334 1.494 1.552 1.425 2.067-0.117 4.33-2.17 6.556-3.67-0.727 0.49-1.811 2.013-2.204 2.538-0.71 0.946-0.843 1.608-0.339 2.06 0.813 0.728 2.945 0.495 5.246-0.349 1.008-0.37 2.384-0.91 3.226-1.661 0.575-0.512 0.759-1.396 1.527-1.879 0.658-0.414 1.706-0.396 2.264-0.509 1.161-0.235 1.493-0.427 2.814-1.203 2.756-1.621 4.187-3.196 4.027-4.676-0.141-1.308-3.517-1.073-4.865-1.377 0.183 0.042 1.743 0.063 1.989 0.054 2.139-0.075 3.915 0.786 7.248-1.413 2.309-1.521 4.318-3.815 4.54-5.157 0.279-1.696-2.763-1.646-5.361-0.715 1.374-1.37 3.243-3.483 2.757-4.108-0.713-0.919-4.414 0.233-7.565 2.494-1.993 1.429-4.822 5.223-6.097 4.961-0.886-0.183 1.015-3.021-1.688-1.724-0.41 0.62-0.09 1.41-0.23 2.34z"
              fill="#879B40"
          />
			</g
        >
			<g
          >
				<path
              d="m392.8 493.01c1.745 2.229 2.523 4.203-0.19 4.821-3.871 0.882-6.755-1.895-10.061-3.285-5.61-2.36-13.039-0.597-13.642 5.043-0.205 1.918 1.211 3.832 3.219 5.263 0.852 0.607 7.179 3.838 8.264 3.194-1.815 1.075-2.396 3.483-1.892 5.14 0.686 2.251 3.902 4.37 6.896 5.158 5.085 1.337 7.113-2.178 10.001-4.203-0.943 0.662-0.986 3.653-1.075 4.664-0.162 1.82 0.576 3.355 2.438 4.771 3.001 2.284 7.476 3.02 11.446 2.496 1.738-0.229 4.048-0.622 4.906-1.777 0.586-0.789-0.183-2.645 0.84-3.236 0.877-0.51 3.197 0.177 4.252 0.268 2.195 0.188 2.654-0.034 4.454-0.91 3.754-1.829 4.741-4.236 2.248-7.582-2.203-2.958-9.561-4.921-13.366-6.76 0.516 0.249 4.257 1.531 4.818 1.7 4.871 1.47 10.076 4.539 14.034 2.066 2.741-1.712 3.69-5.35 1.909-7.983-2.527-3.732-8.535-5.897-13.881-6.2 0.662-2.124 0.954-5.648-1.781-7.763-3.688-2.851-11.043-4.827-15.018-1.785-2.035 1.559-0.508 9.53-4.859 7.313-3.021-1.539-5.268-7.993-10.157-7.545 0.73 1.53 4.14 4.51 6.2 7.15z"
              fill="#879B40"
          />
			</g
        >
			<g
          >
				<path
              d="m482.23 554.31c1.298-2.046 2.911-3.434 5.292-2.425 3.398 1.438 2.187 4.243 2.782 6.588 1.177 4.637 7.198 6.193 12.917 3.589 2.036-0.929 3.133-2.558 3.422-4.194 0.124-0.694-0.313-5.189-1.543-5.367 2.06 0.298 4.623-0.629 5.85-1.652 1.669-1.391 1.74-3.815 0.703-5.539-1.762-2.927-6.106-2.287-9.761-2.726 1.194 0.144 3.928-1.197 4.876-1.605 1.71-0.737 2.591-1.751 2.657-3.23 0.107-2.383-2.074-4.792-5.07-6.502-1.312-0.749-3.149-1.722-4.715-1.669-1.068 0.036-2.185 1.194-3.403 0.935-1.045-0.223-1.995-1.673-2.633-2.243-1.328-1.187-1.84-1.326-3.902-1.884-4.3-1.162-7.324-0.691-8.86 2.072-1.356 2.443 1.885 7.149 2.634 9.945-0.102-0.378-1.406-2.885-1.63-3.25-1.94-3.178-2.544-7.255-8.131-8.283-3.868-0.713-8.403 0.331-10.261 2.55-2.349 2.805 0.284 7.908 3.654 10.403-2.967 0.688-7.389 2.243-7.926 4.83-0.789 3.803 3.536 8.705 9.168 8.872 3.563 0.106 11.247-4.741 11.716-1.403 0.325 2.317-5.415 6.967-1.761 9.118 1.24-1.22 2.38-4.53 3.92-6.95z"
              fill="#879B40"
          />
			</g
        >
			<g
          >
				<path
              d="m519.51 604.2c2.03-1.282 3.8-2.136 4.233-1.457 0.619 0.967-1.964 2.738-3.365 4.256-2.772 3.001-1.396 4.074 2.961 2.309 1.553-0.629 3.27-1.708 4.661-2.77 0.591-0.45 3.889-3.328 3.474-3.422 0.694 0.157 2.55-0.501 3.916-1.194 1.858-0.943 3.878-2.508 4.791-3.586 1.554-1.83-1.086-1.301-2.561-1.535 0.481 0.076 2.891-0.836 3.69-1.12 1.442-0.514 2.709-1.195 3.958-2.15 2.015-1.54 2.885-3.021 2.637-4.054-0.109-0.452-0.349-1.042-1.266-0.987-0.626 0.036-2.157 0.787-2.633 0.628-0.398-0.135 0.182-1.063 0.259-1.426 0.161-0.757-0.025-0.844-0.794-1.212-1.601-0.767-3.758-0.533-6.613 1.188-2.524 1.522-4.045 4.592-5.629 6.39 0.214-0.243 1.287-1.868 1.424-2.106 1.193-2.067 3.749-4.649 1.215-5.496-1.755-0.587-5.132-0.137-7.654 1.181-3.189 1.664-4.953 5.058-4.756 6.799-2.063 0.308-5.466 1.068-7.382 2.694-2.816 2.391-3.608 5.782-0.881 6.125 1.726 0.216 8.806-2.655 6.759-0.507-1.42 1.492-7.267 4.32-7.018 5.816 1.38-0.73 4.16-2.83 6.56-4.35z"
              fill="#879B40"
          />
			</g
        >
		</g
      >
	</g
    >
	<path
        d="m137.59 192.47c-2.132 6.396 0.387 12.995 5.625 14.742 5.238 1.746 11.214-2.023 13.345-8.419l23.159-69.478c2.132-6.395-0.387-12.995-5.625-14.741s-11.213 2.022-13.345 8.418l-23.17 69.48z"
        fill="#DEE4B2"
    />
</g
  >
<g
      id="Layer_4"
    >
	<path
        d="m365 511.02c12.556 6.766 36.472-0.908 22.55-15.431-13.494-14.077-32.295-0.725-20.785 16.313"
        fill="#E0ADA6"
    />
	<path
        d="m279.31 358.95c6.038 12.517 14.125 15.144 24.755 22.592 7.646 5.357 10.705 15.01 18.818 19.481 11.022 6.075 20.71 1.702 26.372-7.948 6.719-11.451 11.313-18.317 21.411-28.068 12.647-12.212 27.108-46.517 1.99-52.557-24.815-5.967-59.92-13.825-85.093-5.204-21.56 7.39-16.06 35.51-8.25 51.71z"
        fill="#F8F6E4"
    />
	<path
        d="m289.89 301.52c0.495 1.82 0.912 3.674 1.143 5.61 0.89 7.459 0.599 15.037 2.091 22.428 3.138 15.535 20.569 34.769 37.434 34.704 18.461-0.07 36.356-20.285 41.975-36.591 3.423-9.933 15.061-46.435 6.153-53.915-9.54-8.012-33.2-1.94-45.117-4.075-10.89-1.951-34.248-9.965-40.349 3.147-1.02 2.19-0.449 4.357-0.975 6.482-0.803 3.253-0.928 1.218-3.192 2.339-3.506 1.735-2.797 6.411-2.108 9.534 0.8 3.56 2.03 6.89 2.97 10.34z"
        fill="#F0BEB4"
    />
	<path
        d="m340.54 307.87c-3.084 3.372-3.113 5.745-3.73 9.813-0.536 3.527-2.321 7.178-2.906 10.938 6.875 1.385 5.417-5.525 5.656-9.489 0.186-3.079 1.396-3.04 2.531-5.311 1.069-2.14 1.049-2.001 0.248-4.65-0.115-0.382 2.431-1.909 0.521-2.474-0.797-0.234-2.271 0.999-2.712 1.565"
        fill="#CB8C84"
    />
	<path
        d="m354.62 302.06c4.467-0.003 9.433-2.547 13.059 1.485-4.036 0.127-7.509 0.781-11.551 0.567-2.988-0.157-4.91 0.539-7.523 1.767-1.018 0.477-4.601 2.613-5.73 1.557-3.7-3.46 10.23-5.38 11.74-5.38z"
        fill="#B65C31"
    />
	<path
        d="m327.8 302.97c-3.002-1.223-5.607-3.644-8.952-4.567-3.774-1.043-8.099-0.753-11.971-0.477-2.244 0.16-4.521 0.25-6.706 0.783 8.247-2.012 15.938 4.736 23.971 5.369 1.721 0.135 5.793-0.108 2.482-1.696"
        fill="#B65C31"
    />
	<path
        d="m302.7 302.58c5.421-1.152 14.609-2.908 19.385 1.009 2.944 2.415 2.221 4.572-1.482 5.609-3.628 1.016-6.068-0.947-9.026-2.532-2.963-1.587-6.221-2.518-9.09-4.291 0.318-0.31 0.555-0.054 0.998-0.187"
        fill="#FFFFFF"
    />
	<path
        d="m362.9 311.6c-6.207 3.709-14.006-0.432-20.568-0.23-0.094 0.003 0.235-1.021 0.282-1.108 0.18-0.335 0.447-0.615 0.753-0.839 0.488-0.357 1.021-0.553 1.586-0.752 1.28-0.454 2.48-1.075 3.793-1.451 1.219-0.35 2.476-0.542 3.744-0.563 2.489-0.042 5.079 0.468 7.165 1.881 0.606 0.411 1.163 0.888 1.687 1.398 0.16 0.14 1.54 1.68 1.57 1.66z"
        fill="#FFFFFF"
    />
	<path
        d="m356.37 309.67c0.516-0.668 0.124-1.521-0.565-1.897-0.326-0.179-0.755-0.221-1.11-0.334-0.471-0.15-0.929-0.282-1.42-0.357-0.688-0.104-1.404-0.095-2.1-0.157-0.757-0.067-1.404 0.157-1.748 0.9-0.326 0.705-0.669 1.278-0.373 2.07 0.414 1.105 1.464 2.108 2.625 2.354 0.802 0.17 1.614 0.002 2.317-0.404 0.347-0.2 0.632-0.471 0.952-0.706 0.316-0.231 0.471-0.505 0.732-0.804 0.21-0.24 0.49-0.41 0.69-0.66z"
        fill="#77823C"
    />
	<path
        d="m312.58 303.09c-1.7 4.143 2.519 6.341 5.301 2.93 2.869-3.517-2.744-3.68-4.792-4.032l-0.51 1.1z"
        fill="#77823C"
    />
	<path
        d="m313.68 301.8c-0.36 0.811-0.577 1.62-0.554 2.522 1.414-0.952 1.681-2.107 0.357-2.131"
        fill="#FFFFFF"
    />
	<path
        d="m346.79 342.8c-0.344 0.777-9.108 0.242-10.077 0.265-1.665 0.039-3.534 0.846-5.07 0.741-1.615-0.109-2.856-1.264-4.375-1.731-3.63-1.12-7.401 0.587-10.837-1.549 1.595 1.697 1.648 4.349 3.37 5.921 1.847 1.688 4.491 2.821 6.813 3.683 3.64 1.352 6.5 1.435 10.184 0.346 3.55-1.04 8.45-4.14 10.01-7.67z"
        fill="#C77D71"
    />
	<path
        d="m339.22 347.12c1.556-0.792 3.057-1.421 4.235-2.746-6.667 0.304-12.576 2.369-19.304 0.003-1.674-0.589-4.585-2.902-6.446-2.91-0.2 0.83 11.25 10.88 21.51 5.66z"
        fill="#7E615B"
    />
	<path
        d="m293.1 267.49c0.097 6.768-0.652 13.204 0.419 19.892 0.285 1.779 0.289 3.715 1.148 5.222 1.846-2.503 0.963-7.211 1.189-10.243 0.239-3.187 1.168-7.391 0.338-10.56-0.454-1.733-1.511-3.249-2.899-4.311"
        fill="#B65C31"
    />
	<path
        d="m378.57 283.76c-0.499 3.172-0.694 6.663-1.544 9.768 2.948-0.984 3.913-5.437 4.271-8.176 0.291-2.217 0.447-8.979-2.544-4.961-0.746 1-0.592 4.156-0.379 5.329"
        fill="#B65C31"
    />
	<path
        d="m304.47 232c-3.137-0.393-11.37-2.353-14.899-0.393-3.528 1.961-13.331 6.666-13.331 11.763 0 5.098-1.96 19.604 20.389 26.662s62.734 17.644 79.594 13.331 30.19-10.586 29.015-19.604c-1.177-9.018-12.939-23.133-18.036-24.31-0.828-0.19-5.405-0.377-5.882-2.744-2.459-12.215 3.138-49.011 3.138-49.011s-13.724-14.899-31.76-12.939c-18.036 1.961-21.957-2.744-28.23 2.353-6.273 5.098-6.273 3.529-6.273 8.234s-11.763 48.618-11.763 48.618l-1.97-1.96z"
        fill="#4A6E3E"
    />
	<path
        d="m306.43 233.96c5.489 2.745 23.918 7.45 28.623 8.234s36.855 3.529 39.601 2.745c2.745-0.785 5.489 0.392 5.489 0.392s2.353 8.233-0.392 9.802c-2.745 1.568-25.094 6.273-28.23 5.882-3.137-0.393-37.248-3.921-40.386-6.665-3.137-2.745-9.018-12.939-9.802-14.115-0.78-1.16 5.1-6.26 5.1-6.26z"
        fill="#836229"
    />
	<path
        d="m324.86 240.63c-1.961 2.353-6.273 12.547-2.353 15.291 3.921 2.745 32.935 6.273 32.935 4.705s-0.783-17.644-0.783-17.644l-29.8-2.35z"
        fill="#47423B"
    />
	<path
        d="m321.33 179.46c-1.604 2.608 22.35 7.058 29.799 8.626 7.45 1.568 26.271 2.744 28.23 0s-3.529-8.625-10.979-10.194c-7.45-1.57-40.78-8.63-47.05 1.56z"
        fill="#658751"
    />
	<path
        d="m292.31 305.72c-3.921 0.783-31.759 9.41-35.288 11.37-3.528 1.96-27.446 19.213-31.367 23.525s-17.252 25.878-16.859 41.953c0.392 16.075-5.098 56.853-5.098 63.126s-3.137 50.971 5.098 57.637c8.233 6.666 15.406 16.094 47.051 18.821 34.111 2.94 100.37-7.45 105.08-5.49 4.705 1.961 7.449-3.137 7.842-5.881 0.393-2.745-1.568-13.331-1.568-13.331l-4.313-24.702s-43.129-11.763-44.306-12.546c-1.176-0.784-0.969-70.825 6.666-79.986 1.959-2.351-3.521-2.352-6.269-3.136-14.188-4.047-25.746-12.249-34.512-24.095-9.689-13.096-4.816-25.332-5.486-40.993l13.34-6.27z"
        fill="#4A6E3E"
    />
	<path
        d="m384.65 318.66c2.499 27.162-28.623 58.838-54.265 59.986-0.013 0.001-0.026 0.001-0.04 0.002 1.961 10.194 4.705 14.507 7.45 17.644l20.388 98.022s36.857 19.996 40.386 22.349 19.604 10.587 26.662 8.626c7.058-1.96 30.583-10.193 35.287-22.349 4.705-12.155 10.587-29.015 5.882-47.051-4.705-18.033-19.207-90.155-30.185-101.15-10.985-11.005-36.261-40.039-53.743-37.768-0.366 0.048-0.729 0.108-1.088 0.184 3.523-0.739-1.041 15.825-4.245 25.473"
        fill="#4A6E3E"
    />
	<path
        d="m301.72 400.21c-3.433 0.821-1.961 18.429-1.961 18.429s-0.784 19.604-1.176 22.741c-0.393 3.136-1.961 29.799-4.705 34.111-2.745 4.313-3.921 6.665-3.529 7.842 0.393 1.176 0.784 8.626 9.41 12.547s25.878 7.841 29.799 6.273c3.921-1.568 13.331-5.882 13.331-5.882l7.45-8.233 3.136-81.554c0-0.01-15.69-14.91-51.76-6.28z"
        fill="#CCD0D9"
    />
	<path
        d="m301.72 423.93c-3.433 0.611-1.961 13.731-1.961 13.731s-0.784 14.606-1.177 16.947c-0.783 4.688-0.993 9.473-1.731 14.173-0.38 2.418-0.459 5.802-1.57 8.018-2.506 4.994-4.198 3.914-2.223 9.443 4.038 11.305 25.888 16.808 36.505 13.645 3.258-0.971 10.312-1.947 12.766-4.442 3.117-3.17 5.975-12.08 7.642-16.49 2.393-6.328 1.65-14.348 1.996-21.053 0.504-9.764 1.006-19.536 1.509-29.297 0 0-15.69-11.1-51.76-4.67z"
        fill="#F0C344"
    />
	<path
        d="m331.34 430.14c6.616 0.672 18.027-2.796 19.714-10.412 2.26-10.208-12.311-7.644-17.521-7.265-1.638 0.119-2.932-0.305-4.323-0.238-1.844 0.088-2.235 0.398-3.788 0.184-1.219-0.169-2.409-1.324-4.062-1.222-1.356 0.084-2.509 1.408-3.716 1.491-3.074 0.209-3.78-1.902-5.932-2.624-2.028-0.681-3.755 1.711-4.307-1.825-3.457 3.112-3.4-1.331-5.774-0.923-2.732 0.473-2.783 8.797-2.788 10.914-0.009 3.602 0.609 5.394 3.561 8.05 0.005 0.005 0.011 0.01 0.017 0.016 0.009 0.008 0.018 0.016 0.026 0.023 4.549 4.073 17.221 3.645 22.882 3.46 1.75-0.05 3.83 0.16 6.01 0.38z"
        fill="#F8F6E4"
    />
	<path
        d="m304.07 400.99c-1.3 2.112 8.626 5.097 12.938 5.882 4.313 0.784 29.799 0.784 30.583-1.568s-4.313-4.705-7.842-5.881c-3.53-1.17-32.54-3.52-35.68 1.57z"
        fill="#B2BAC8"
    />
	<path
        d="m347.6 410.01c-6.867 7.055-18.034 16.736-3.705 21.208-1.3-0.406 0.665 7.935 1.359 8.798 1.308 1.63-9.921 10.142-3.586 15.477-6.369 0.923-5.179 5.129-5.371 10.06-0.02 0.493 0.991 3.399 0.978 4.75-0.146 14.835 16.04 24.972 29.862 22.184 12.731-2.568 24.853-18.453 28.723-30.189 4.952-15.018-4.088-25.931-13.911-36.421-6.514-6.956-21.24-20.231-31.541-16.734-1.079 0.367-2.271 0.993-3.2 1.653"
        fill="#EACBC6"
    />
	<path
        d="m342.11 417.46c7.794 0.188 6.068 9.786-1.613 8.567-8.242-1.309-4.12-5.952 1.613-7.783"
        fill="#E0ADA6"
    />
	<path
        d="m312.7 355.51c-0.498 7.949 2.964 11.584 10.411 14.441 5.311 2.039 10.662-0.563 14.961-3.623 1.552-1.105 4.507-2.319 5.366-3.965 0.411-0.787-0.486-6.035-0.723-5.906-2.975 1.614-6.97 2.865-10.269 3.521-5.825 1.157-10.275 0.176-15.55-2.544-2.194-1.131-3.104-3.665-5.332-4.646-0.837 2.151 1.017 3.224 1.331 5.074"
        fill="#B65C31"
    />
	<path
        d="m301.13 490.98c9.951 1.214 26.659 2.204 35.345 5.882-5.396 3.257-34.159-0.186-34.168-5.882"
        fill="#FFDE75"
    />
	<ellipse
        cy="307.71"
        cx="350.21"
        rx=".498"
        ry=".515"
        fill="#FFFFFF"
    />
	<ellipse
        cy="310.51"
        cx="350.91"
        rx=".481"
        ry="1.388"
        fill="#FFFFFF"
    />
	<path
        d="m299.61 457.2c-0.054 10.896 5.573 19.378 8.353 19.348 2.89 0.03 1.857-8.451 1.912-19.348-0.055-10.895 0.978-19.376-1.912-19.346-2.78-0.03-8.41 8.45-8.35 19.35z"
        fill="#F8F6E4"
    />
</g
  >
<g
      id="Layer_2"
    >
	<g
      >
		<path
          d="m295.4 271.38c0.501 20.457-8.949 40.611-2.35 60.823 4.877 14.935 17.78 29.165 33.62 32.151 15.979 3.013 31.252-11.358 39.631-23.156 12.023-16.929 7.828-38.335 12.333-57.475 0.217-0.92-1.303-0.919-1.49-0.119-4.044 17.182-0.932 35.731-8.687 52.021-7.322 15.381-26.112 31.972-44.143 27.063-15.223-4.145-27.324-20.172-31.363-34.808-5.131-18.596 4.004-37.858 3.339-56.634-0.02-0.52-0.91-0.34-0.89 0.14z"
      />
	</g
    >
	<g
      >
		<path
          d="m312.37 355.74c-0.007-0.006-0.014-0.013-0.021-0.019-0.069-0.061-0.189-0.106-0.275-0.053-0.932 0.581 0.264 3.403 0.466 4.107 0.514 1.795 1.302 4.908 3.14 5.805 0.544 0.266 0.606-0.357 0.465-0.721-0.689-1.77-1.731-3.364-2.364-5.189-0.266-0.767-0.495-1.546-0.703-2.33-0.08-0.301-0.119-0.613-0.294-0.879-0.339-0.516-0.007-0.214-0.319-0.116 0.26-0.09 0.01-0.49-0.12-0.6z"
      />
	</g
    >
	<g
      >
		<path
          d="m314.68 361.03c-0.438 1.334-0.082 2.849 0.537 4.066 0.563 1.11 2.299 2.874 3.666 2.44 0.491-0.155 0.378-0.677 0.117-0.988-0.359-0.431-0.763-0.549-1.228-0.831-0.51-0.309-0.835-0.774-1.107-1.29-0.506-0.959-0.543-2.106-0.85-3.132-0.13-0.41-0.96-0.85-1.14-0.27z"
      />
	</g
    >
	<g
      >
		<path
          d="m318.46 362.15c1.246 1.187 1.111 3.101 1.861 4.571 0.855 1.679 2.768 2.926 4.59 2 0.283-0.145-0.232-0.695-0.382-0.75-0.927-0.344-2.205-0.564-2.986-1.203-0.439-0.358-0.55-1.305-0.712-1.813-0.432-1.349-1.052-2.753-2.397-3.394-0.43-0.21-0.1 0.46 0.03 0.58z"
      />
	</g
    >
	<g
      >
		<path
          d="m325.78 362.96c3.131 2.331-0.766 6.019 0.118 8.773 0.111 0.347 0.634 0.647 0.982 0.528 1.835-0.631 2.17-4.01 2.112-5.662-0.066-1.949-1.157-3.371-2.843-4.233-0.59-0.31-0.9 0.2-0.37 0.59z"
      />
	</g
    >
	<g
      >
		<path
          d="m340.34 358.52c0.459 2.204-0.52 3.613-1.915 5.211-0.879 1.006-2.716 2.224-2.492 3.71 0.047 0.317 0.445 0.524 0.741 0.465 1.769-0.354 3.343-2.813 4.32-4.237 1.186-1.727 1.557-3.83 0.289-5.597-0.3-0.41-1.04-0.03-0.94 0.46z"
      />
	</g
    >
	<g
      >
		<path
          d="m338.72 359.46c-1.813 1.289-3.144 2.694-4.573 4.393-0.74 0.88-1.535 1.705-2.353 2.513-0.606 0.6-1.357 1.015-1.58 1.864-0.044 0.168 0.107 0.396 0.272 0.437 1.732 0.416 3.325-1.515 4.341-2.68 1.602-1.836 2.866-4.105 4.598-5.802 0.4-0.39-0.28-1.03-0.71-0.72z"
      />
	</g
    >
	<g
      >
		<path
          d="m312.82 354.29c0.108-0.485-0.07 0.03-0.168 0.205-0.105 0.188-0.129 0.496-0.148 0.705-0.064 0.692-0.09 1.386-0.085 2.08 0.01 1.161 0.007 3.316 1.497 3.525 0.265 0.037 0.517-0.099 0.641-0.329 0.271-0.501 0.076-0.991-0.044-1.513-0.183-0.796-0.246-1.587-0.254-2.402-0.007-0.619 0.105-1.26 0.052-1.873-0.018-0.203-0.021-0.411-0.147-0.584-0.282-0.384 0.041 0.45-0.026-0.054-0.1-0.69-1.21-0.25-1.32 0.23z"
      />
	</g
    >
	<g
      >
		<path
          d="m292.94 270.78c-2 3.35-1.526 8.673-1.42 12.43 0.088 3.077 0.197 8.175 2.703 10.424 0.243 0.219 0.613 0.131 0.496-0.245-2.398-7.679-1.857-14.285-1.24-22.203 0.01-0.2-0.36-0.71-0.54-0.4z"
      />
	</g
    >
	<g
      >
		<path
          d="m292.25 282.35c-1.505-5.652-5.781 0.023-6.345 2.98-0.804 4.225 1.601 7.582 3.085 11.406 1.386 3.572-1.607 7.56 0.934 10.909 0.605 0.798 2.48 0.033 1.844-0.918-1.43-2.135-0.805-4.729-0.576-7.115 0.222-2.315-0.427-4-1.387-6.097-0.941-2.058-2.26-4.238-2.221-6.583 0.032-1.894 1.209-6.593 3.745-4.129 0.32 0.28 1.06-0.02 0.95-0.46z"
      />
	</g
    >
	<g
      >
		<path
          d="m292.21 286.46c0.345-1.442-0.684-2.698-1.882-3.364-0.476-0.264-0.968-0.152-1.232 0.33-1.438 2.609-1.459 8.138 0.547 10.473 0.408 0.475 1.269 0.163 1.148-0.495-0.515-2.838-1.469-6.174 0.027-8.923-0.411 0.11-0.822 0.22-1.232 0.33 0.849 0.467 1.181 0.985 1.738 1.744 0.24 0.36 0.76 0.4 0.87-0.09z"
      />
	</g
    >
	<g
      >
		<path
          d="m293.96 290.9c-1.319-0.222-2.994 0.123-3.21 1.644-0.244 1.724 0.904 4.647 2.747 4.997 0.092 0.018 0.539-0.019 0.574-0.119 0.171-0.485-0.311-0.867-0.568-1.234-0.419-0.595-0.737-1.27-1.001-1.944-0.294-0.748-0.907-3.238 0.56-3.123 0.26 0.01 0.79-0.24 0.9-0.23z"
      />
	</g
    >
	<g
      >
		<path
          d="m377.13 291.62c1.029-0.644 4.907-6.61 5.946-4.67 1.041 1.945-2.503 6.218-3.344 7.854-1.426 2.777-1.777 6.002-2.506 8.994-0.262 1.076-0.461 2.167-0.729 3.242-0.127 0.494-0.274 0.981-0.442 1.463-0.634 1.948 0.858 1.093 0.169 0.27-0.219-0.261-2.079-0.012-2.009 0.305 0.457 2.073 3.211 1.338 3.978-0.157 2.423-4.723 1.898-10.572 4.34-15.414 0.979-1.941 5.446-7.978 0.495-8.076-3.816-0.076-5.229 3.646-7.396 6.218-0.15 0.17 1.26 0.13 1.49-0.01z"
      />
	</g
    >
	<g
      >
		<path
          d="m377.65 294.3c0.509 0.082 0.112-0.572 0.145-0.039 0.009 0.142-0.201 0.428-0.264 0.552-0.282 0.565-0.669 1.1-1.022 1.622-0.642 0.947-1.516 1.973-0.955 3.158 0.067 0.143 0.293 0.332 0.462 0.221 1.24-0.823 2.028-2.311 2.717-3.63 0.638-1.221 0.276-2.689-1.289-2.564-0.46 0.03-0.07 0.63 0.2 0.68z"
      />
	</g
    >
	<g
      >
		<path
          d="m286.84 307.08c-13.102 5.999-27.359 9.058-40.171 15.715-10.671 5.545-20.354 13.977-27.42 23.679-7.681 10.547-10.563 22.734-10.924 35.589-0.216 7.699-0.175 15.27-1.136 22.93-1.055 8.405-2.414 16.767-3.337 25.189-1.695 15.485-2.669 31.096-1.885 46.669 0.491 9.745 1.477 19.171 7.345 27.244 9.047 12.449 25.725 16.846 40.165 18.712 21.617 2.793 43.985 0.475 65.628-0.892 7.83-0.495 15.656-1.171 23.413-2.368 5.988-0.925 12.299-4.013 18.313-3.758 3.993 0.17 9.612 1.559 12.078-2.56 2.521-4.211-2.438-10.7 0.333-14.771 0.057-0.083-0.262-0.291-0.339-0.264-3.835 1.372-2.727 5.587-2.396 8.763 0.694 6.649-3.813 7.428-9.446 7.043-4.324-0.297-7.223 0.52-11.368 1.7-5.976 1.704-12.222 2.501-18.38 3.203-20.363 2.324-41.492 3.533-62.016 3.311-17.685-0.191-40.513-1.776-53.01-16.043-7.633-8.713-7.932-20.832-8.385-31.802-0.644-15.614 0.645-31.352 2.447-46.852 0.828-7.121 1.951-14.207 2.874-21.316 0.992-7.641 0.997-15.242 1.135-22.931 0.241-13.455 3.802-25.619 11.752-36.517 7.118-9.758 17.168-17.752 27.795-23.348 12.116-6.38 25.718-9.221 37.882-15.521 0.3-0.13-0.62-0.93-0.9-0.8z"
      />
	</g
    >
	<g
      >
		<path
          d="m376.08 315.26c25.36 8.925 48.888 22.114 62.757 46.088 14.631 25.29 18.773 56.19 24.598 84.372 2.505 12.12 4.97 23.252 2.828 35.656-1.972 11.421-7.341 22.162-15.588 30.321-8.41 8.321-20.044 12.984-31.862 11.888-12.959-1.202-24.671-9.157-35.089-16.326-3.672-2.527-7.291-5.132-10.952-7.675-3.065-2.13-6.761-5.442-10.475-6.214-0.137-0.029-0.262-0.047-0.335 0.103-0.28 0.609-0.605 1.193-0.978 1.752-0.055 0.092 0.122 0.378 0.233 0.351 3.537-0.869 9.168 4.676 12.022 6.633 5.335 3.655 10.567 7.453 15.967 11.015 9.387 6.19 19.622 11.655 30.935 12.989 22.444 2.646 40.307-16.877 46.547-36.498 3.057-9.611 3.41-20.02 1.545-29.891-2.629-13.92-5.69-27.83-8.753-41.661-5.491-24.793-12.341-50.948-29.066-70.734-13.915-16.461-34.288-27.782-54.844-33.617-0.71-0.19 0.07 1.3 0.5 1.45z"
      />
	</g
    >
	<g
      >
		<path
          d="m360.26 494.26c14.25 2.278 23.995-11.901 30.845-22.083 3.86-5.739 6.593-11.907 6.259-18.922-0.151-3.165-1.171-6.283-2.298-9.211-0.576-1.495-6.05-10.743-5.971-10.869 0.168-0.267 0.095-0.564-0.045-0.82-0.107-0.196-0.215-0.394-0.323-0.59-0.068-0.125-0.288-0.229-0.424-0.151-0.022 0.032-0.046 0.063-0.068 0.096-1.171-0.765-2.558 0.261-1.853 1.552 3.247 5.944 6.843 11.637 7.935 18.441 1.104 6.878-1.765 13.474-5.262 19.204-3.166 5.19-7.187 10.358-11.473 14.658-5.108 5.126-10.647 6.477-17.459 8.019-0.46 0.09-0.22 0.61 0.13 0.67z"
      />
	</g
    >
	<g
      >
		<path
          d="m387.07 432.61c4.472 4.247 11.091 7.061 16.552 9.76 5.016 2.479 10.436 5.097 16.095 5.507 1.336 0.097 2.001-1.239 0.397-1.459-11.949-1.636-21.394-9.451-32.102-14.175-0.22-0.09-1.39-0.05-0.95 0.37z"
      />
	</g
    >
	<g
      >
		<path
          d="m424.98 446.13c9.199 0.146 17.027 5.891 23.114 12.291 2.865 3.013 5.246 6.461 7.13 10.16 1.069 2.099 1.286 7.215 3.502 8.266 0.244 0.116 0.539-0.121 0.671-0.306 4.411-6.193-6.352-17.881-10.387-21.729-6.128-5.847-14.742-11.159-23.526-9.555-0.33 0.06-1.27 0.86-0.49 0.87z"
      />
	</g
    >
	<g
      >
		<path
          d="m442.75 449.42c3.607 1.991 7.939 3.149 11.882 4.261 0.637 0.179 7.216 2.035 6.559-0.338-0.013-0.048-0.165-0.067-0.18-0.015-0.49 1.809-15.185-3.736-17.026-4.39-0.34-0.12-2.14-0.02-1.23 0.49z"
      />
	</g
    >
	<g
      >
		<path
          d="m232.43 491.15c0.692-3.176 6.031-6.088 8.437-7.818 2.602-1.871 5.29-3.599 7.743-5.662 2.052-1.727 15.676-12.306 16.535-8.515 0.012 0.051 0.226 0.225 0.236 0.143 0.982-7.85-13.382 2.285-14.823 3.393-2.746 2.111-5.275 4.455-8.074 6.499-3.367 2.46-10.975 6.338-11.438 11.027-0.05 0.42 1.28 1.37 1.38 0.93z"
      />
	</g
    >
	<g
      >
		<path
          d="m227.72 501.21c6.088-2.616 13.039-6.129 17.783-10.85 2.273-2.263 6.557-6.688 7.297-9.828 0.062-0.259 0.002-0.397-0.23-0.545-0.276-0.175-0.44-0.459-0.768-0.513-0.178-0.029-0.549-0.002-0.643 0.191-0.021 0.045-0.044 0.09-0.065 0.136-0.116 0.24 0.53 0.124 0.608 0.085-1.4 0.708-1.975 0.057-3.063 1.682-1.503 2.244-3.133 4.414-4.816 6.525-4.58 5.742-11.713 8.093-17.136 12.794-0.47 0.42 0.84 0.42 1.03 0.34z"
      />
	</g
    >
	<g
      >
		<path
          d="m224.48 511.28c0.634-0.455 2.206-0.56 2.951-0.826 1.783-0.639 3.52-1.413 5.264-2.149 3.566-1.507 7.101-3.123 10.503-4.972 3.826-2.079 6.294-6.02 8.69-9.523 1.652-2.414 3.115-4.964 4.542-7.516 1.707-3.052 1.342-5.816 2.503-9.1 0.055-0.155-0.222-0.18-0.287-0.066-1.448 2.535-3.76 4.316-5.294 6.802-1.976 3.2-3.574 6.592-5.652 9.75-2.793 4.245-5.396 7-9.848 9.267-3.397 1.73-6.894 3.259-10.309 4.954-1.169 0.581-3.581 1.482-3.992 2.954-0.13 0.51 0.62 0.67 0.94 0.44z"
      />
	</g
    >
	<g
      >
		<path
          d="m359.37 493.36c-0.999-1.996-3.148-2.809-5.113-3.696-3.337-1.509-6.809-2.729-10.142-4.271-5.082-2.353-6.789-5.592-6.876-11.058-0.035-2.205 1.103-5.094-0.361-6.922-0.036-0.046-0.094-0.056-0.138-0.018-1.671 1.479-0.923 5.746-0.916 7.827 0.01 3.011 0.664 5.791 2.48 8.203 1.954 2.595 6.18 3.688 9.031 4.787 3.971 1.528 7.33 4.439 11.202 5.879 0.49 0.18 1.14-0.14 0.84-0.73z"
      />
	</g
    >
	<g
      >
		<path
          d="m353.1 478.41c-4.308-3.651-13.169-5.964-14.661-11.782-0.54-2.104-1.529-10.632 2.063-10.385 0.38 0.026 0.431-0.33 0.188-0.543-4.015-3.527-4.274 6.588-4.171 8.185 0.525 8.158 9.908 11.153 15.889 15.04 0.43 0.29 1.27-0.02 0.69-0.51z"
      />
	</g
    >
	<g
      >
		<path
          d="m356.82 464.51c-2.099-4.627-8.181-7.021-12.32-9.354-3.416-1.925-5.815-3.703-4.07-7.892 0.729-1.748 2.403-4.764 4.506-5.007 0.608-0.07-0.257-1.248-0.531-1.361-3.784-1.558-6.514 8.239-5.661 10.787 0.802 2.396 3.984 3.724 5.949 4.857 4.249 2.452 8.503 4.604 11.895 8.232 0.24 0.26 0.32-0.05 0.22-0.27z"
      />
	</g
    >
	<g
      >
		<path
          d="m366.42 448.38c-1.967-1.434-4.356-2.31-6.656-3.044-4.581-1.463-11.829-2.259-14.873-6.212-2.939-3.817 1.68-9.207 4.184-11.763 3.048-3.11 7.817-1.926 11.492-1.095 0.994 0.225 9.23 3.185 8.535 4.49-0.006 0.012 0.105 0.072 0.123 0.064 1.077-0.494-7.033-4.579-7.959-4.914-3.239-1.172-7.291-1.913-10.682-1.24-3.714 0.738-6.563 5.289-7.852 8.565-3.908 9.938 18.295 12.118 23.002 14.928 0.11 0.06 1.08 0.5 0.69 0.21z"
      />
	</g
    >
	<g
      >
		<path
          d="m370.07 428.8c1.035-0.759 1.847-1.759 2.934-2.467 0.108-0.068 0.219-0.133 0.331-0.194 0.546-0.312-0.505-0.102-0.042-0.035 0.291 0.042 0.568 0.14 0.865 0.101 0.113-0.015 0.978-0.273 0.576-0.521-0.919-0.565-2.64 0.342-3.402 0.855-0.575 0.389-1.098 0.861-1.595 1.344-0.271 0.264-0.75 0.65-0.772 1.063-0.01 0.19 1-0.07 1.1-0.14z"
      />
	</g
    >
	<g
      >
		<path
          d="m363.78 425.75c-1.436-1.162-2.309-2.693-3.338-4.174-0.037-0.052-0.426-0.551-0.498-0.313-0.221 0.722 1.059 2.108 1.455 2.615 0.751 0.964 1.595 1.917 2.627 2.588 0.22 0.15-0.13-0.62-0.25-0.72z"
      />
	</g
    >
	<g
      >
		<path
          d="m386.94 431.38c-2.093-8.436-11.192-13.371-18.244-17.184-5.896-3.188-12.472-8.659-19.375-5.86-7.344 2.978-21.054 21.146-6.078 22.803 1.172 0.13 0.69-1.754-0.32-1.867-7.034-0.787-4.533-7.293-1.775-11.313 2.762-4.027 7.394-8.082 12.439-8.556 2.455-0.23 4.649 1.56 6.723 2.618 2.973 1.517 5.998 2.924 8.958 4.465 6.932 3.607 13.03 7.963 16.651 15.047 0.27 0.49 1.22 0.58 1.03-0.15z"
      />
	</g
    >
	<g
      >
		<path
          d="m335.87 424.31c-1.197 3.554 2.051 3.942 4.762 3.225 0.787-0.208 8.339-3.643 6.676-4.812-0.118-0.084-0.38 0.092-0.466 0.156-1.866 1.4-3.328 2.679-5.624 3.398-2.167 0.68-4.961 0.508-4.221-2.416 0.07-0.31-1.03 0.14-1.13 0.44z"
      />
	</g
    >
	<g
      >
		<path
          d="m347.1 421.78c0.315-1.336-0.084-2.873-1.088-3.811-0.976-0.911-3.174-1.049-3.251 0.672-0.003 0.068 0.045 0.127 0.117 0.125 0.337-0.01 0.609 0.201 0.955 0.117 0.475-0.117 0.837 0.113 1.238 0.348 0.95 0.557 1.676 1.477 1.851 2.568 0.01 0.1 0.15 0.06 0.17-0.02z"
      />
	</g
    >
	<g
      >
		<path
          d="m354.69 410.24c-0.009 0.971 0.168 1.909 0.104 2.889-0.072 1.104-0.611 2.454 0.126 3.381 0.065 0.082 0.581 0.024 0.641-0.059 0.63-0.869 0.512-1.993 0.534-3.039 0.024-1.124-0.049-2.288-0.696-3.236-0.04-0.07-0.7 0-0.7 0.07z"
      />
	</g
    >
	<g
      >
		<path
          d="m379.61 449.19c3.384 1.507 6.999 1.04 8.138-2.824 0.53-1.8 0.423-3.462-0.382-5.153-0.562-1.182-1.427-3.11-2.694-3.712-0.109-0.052-0.263-0.057-0.362 0.021-0.08 0.062-0.104 0.135-0.116 0.232-0.038 0.29 0.25 0.701 0.532 0.775-0.277-0.072-0.792-0.72-0.203-0.036 0.439 0.511 0.837 1.034 1.196 1.606 1.172 1.865 1.376 3.626 0.756 5.724-1.043 3.526-4.245 2.635-7.059 2.621-0.5-0.01-0.03 0.65 0.18 0.74z"
      />
	</g
    >
	<g
      >
		<path
          d="m382.8 455.48c-0.686 2.569-0.006 5.387-1.703 7.675-1.629 2.196-5.158 1.863-7.527 2.038-0.86 0.063-1.195 1.314-0.182 1.377 2.751 0.17 6.472-0.116 8.494-2.259 1.963-2.079 2.602-6.247 1.878-8.923-0.15-0.55-0.84-0.38-0.96 0.08z"
      />
	</g
    >
	<g
      >
		<path
          d="m378.32 471.29c0.035 3.459-0.828 5.917-4.214 7.104-1.506 0.528-5.779 0.89-6.267 2.618-0.055 0.192 0.074 0.447 0.257 0.525 1.106 0.471 2.753-0.586 3.867-0.896 1.428-0.396 2.858-0.745 4.187-1.42 2.984-1.519 3.416-4.755 3.057-7.772-0.07-0.53-0.9-0.87-0.9-0.16z"
      />
	</g
    >
	<g
      >
		<path
          d="m359.8 491.2c0.804 0.982 2.793 0.9 3.994 0.958 1.32 0.063 2.647-0.009 3.942-0.278 1.154-0.241 1.519-0.874 1.807-1.938 0.032-0.117-0.245-0.395-0.357-0.312-0.652 0.484-1.868 0.565-2.664 0.777-0.968 0.256-1.962 0.348-2.959 0.398-0.95 0.049-1.892 0.001-2.841-0.011-0.053 0-1.171 0.002-0.873 0.151-0.22-0.11-0.12 0.17-0.05 0.25z"
      />
	</g
    >
	<g
      >
		<path
          d="m340.32 307.49c6.609-3.768 21.078-8.987 27.102-2.614 0.783 0.829 3.111 0.271 2.027-0.85-4.879-5.039-11.144-4.034-17.404-2.576-2.388 0.556-13.119 2.117-12.716 5.628 0.05 0.38 0.69 0.58 0.99 0.41z"
      />
	</g
    >
	<g
      >
		<path
          d="m343.33 309.33c4.594-2.186 7.674-5.915 13.201-4.814 4.153 0.827 8.679-1.117 12.633 0.909 0.464 0.237 0.426-0.52 0.153-0.717-3.347-2.416-9.1-0.771-12.909-1.045-2.145-0.153-3.434-0.713-5.541 0.286-2.786 1.321-5.369 3.068-7.766 5.004-0.15 0.13 0.05 0.47 0.24 0.38z"
      />
	</g
    >
	<g
      >
		<path
          d="m328.71 304.61c-1.89-4.133-8.39-5.945-12.382-6.972-5.531-1.423-11.682-1.415-17.114 0.367-0.819 0.269 1.263 1.116 1.873 0.918 9.599-3.125 18.589 0.112 26.338 5.729 0.15 0.1 1.5 0.42 1.28-0.05z"
      />
	</g
    >
	<g
      >
		<path
          d="m302.37 299.49c4.987 0.202 9.633 1.045 14.397 2.496 3.393 1.033 6.618 2.466 10.133 3.009 0.159 0.023 1.316-0.188 0.854-0.447-3.799-2.129-8.603-3.099-12.791-4.235-4.082-1.107-8.268-1.641-12.484-1.301-0.52 0.03-0.79 0.44-0.11 0.47z"
      />
	</g
    >
	<g
      >
		<path
          d="m349.58 306.96c3.519 1.086 6.663 1.768 9.974 3.567 2.153 1.17 4.752 3.09 7.294 2.654 0.215-0.037 0.695-0.262 0.489-0.569-0.837-1.252-2.084-1.425-3.463-2.08-1.861-0.884-3.658-1.893-5.527-2.761-2.586-1.201-5.922-2.402-8.725-1.338-0.26 0.1-0.37 0.43-0.04 0.53z"
      />
	</g
    >
	<g
      >
		<path
          d="m343.81 311.89c4.043-1.075 7.081 1.905 11.062 1.8 3.238-0.087 7.804-0.411 10.646-1.909 0.246-0.13-0.503-0.391-0.551-0.399-5.477-0.989-10.04 2.517-15.674 0.133-2.199-0.931-4.345-1.605-6.355-0.016-0.27 0.21 0.71 0.44 0.87 0.4z"
      />
	</g
    >
	<g
      >
		<path
          d="m349.72 307.08c-1.257 1.1-1.157 3.767-0.276 5.085 0.892 1.334 2.383 1.666 3.881 1.33 1.483-0.332 3.132-1.068 4.278-2.082 0.671-0.594 0.267-1.237 0.376-1.67 0.059-0.229 0.087-0.522-0.084-0.71-0.049-0.053-0.142-0.065-0.116 0.035 0.088 0.355-0.298 0.177-0.453 0.063-0.481-0.352-0.895 0.019-1.275 0.303-0.848 0.635-1.777 1.149-2.754 1.554-0.795 0.328-1.922 0.678-2.785 0.444-0.883-0.237-0.17-3.017-0.239-3.766-0.02-0.12-0.3-0.78-0.56-0.56z"
      />
	</g
    >
	<g
      >
		<path
          d="m342.37 314.7c7.033-1.194 13.792 0.863 20.55-1.876 0.04-0.017-0.012-0.108-0.051-0.097-6.746 1.98-14.004-0.682-20.63 1.656-0.16 0.06-0.01 0.34 0.13 0.32z"
      />
	</g
    >
	<g
      >
		<path
          d="m323.67 305.8c1.729-4.02-7.556-4.596-9.522-4.616-3.318-0.035-6.641 0.453-9.925 0.864-1.352 0.169-3.982-0.09-4.782 1.292-0.012 0.02-0.004 0.053 0.011 0.068 1.628 1.75 6.971-0.224 8.971-0.47 3.027-0.373 6.112-0.584 9.152-0.233 2.635 0.305 3.589 1.651 5.421 3.207 0.19 0.15 0.58 0.12 0.68-0.11z"
      />
	</g
    >
	<g
      >
		<path
          d="m302.5 304.07c5.424 2.882 16.169 8.481 21.991 3.832 0.261-0.208-0.117-0.485-0.322-0.492-4.271-0.142-7.646 0.862-11.919-0.559-3.235-1.076-6.204-2.884-9.582-3.493-0.48-0.09-0.53 0.51-0.17 0.71z"
      />
	</g
    >
	<g
      >
		<path
          d="m312.76 301.56c-1.899 2.197-1.392 7.014 2.195 6.774 2.025-0.136 6.382-2.405 5.048-4.98-0.108-0.209-0.379-0.546-0.655-0.514-0.518 0.061-1.121 1.43-1.499 1.828-0.708 0.748-1.658 1.303-2.611 1.674-0.627 0.244-1.726 0.532-2.289 0.005-0.568-0.531 0.424-3.184 0.521-4.004 0.02-0.26-0.37-1.19-0.72-0.78z"
      />
	</g
    >
	<g
      >
		<path
          d="m301.64 308.41c0.832-0.254 1.665-0.428 2.509-0.627 1.133-0.268 2.134-0.192 3.275-0.128 0.168 0.01 0.296-0.154 0.14-0.281-1.742-1.414-4.41 0.102-6.143 0.747-0.25 0.09 0.04 0.34 0.22 0.29z"
      />
	</g
    >
	<g
      >
		<path
          d="m304.72 311.02c1.438-0.912 3.021-0.642 4.609-0.888 0.044-0.007 0.426-0.158 0.25-0.206-0.858-0.23-1.944-0.044-2.811 0.092-0.911 0.143-1.783 0.47-2.545 0.988-0.27 0.19 0.38 0.09 0.5 0.02z"
      />
	</g
    >
	<g
      >
		<path
          d="m359.58 315.46c0.877 0.613 1.87 0.863 3.07 1.05 0.735 0.113 1.469 0.209 2.191 0.358 0.601 0.124 1.111 0.369 1.721 0.476 0.243 0.042 0.187-0.188 0.118-0.272-0.609-0.736-1.502-1.038-2.651-1.261-1.468-0.285-2.988-0.441-4.461-0.724-0.32-0.08-0.07 0.3 0.01 0.36z"
      />
	</g
    >
	<g
      >
		<path
          d="m310.31 343c1.899-0.445 3.206-2.157 5.029-2.795 0.659-0.23 0.094-0.786-0.374-0.762-1.977 0.106-3.222 2.441-4.979 3.094-0.45 0.18 0 0.55 0.32 0.47z"
      />
	</g
    >
	<g
      >
		<path
          d="m316.96 341.44c7.13 5.654 22.614 8.274 30.091 1.964 0.379-0.319 0.048-0.713-0.374-0.537-10.372 4.313-19.554 2.986-29.619-1.516-0.05-0.01-0.16 0.05-0.1 0.1z"
      />
	</g
    >
	<g
      >
		<path
          d="m346.82 343.19c0.026 0 0.005-0.055-0.02-0.055-0.02-0.01 0 0.05 0.02 0.05z"
      />
	</g
    >
	<g
      >
		<path
          d="m346.95 343.14c0.005-0.309 0.099-0.439 0.297-0.635-0.133 0.043-0.265 0.086-0.397 0.128 0.008-0.001 0.016-0.002 0.022-0.004-0.14 0.001-0.28 0.001-0.42 0.001 0.092 0.047 0.133 0.209 0.169 0.297 0.134 0.33 0.171 0.515 0.488 0.69 0.099 0.055 0.532 0.015 0.591-0.094 0.127-0.231 0.146-0.155 0.047-0.375-0.058-0.127-0.119-0.25-0.19-0.37-0.067-0.113-0.154-0.234-0.262-0.314-0.158-0.117-0.766-0.014-0.886 0.145-0.018 0.018-0.016 0.033 0.007 0.045 0.172 0.086 0.228 0.365 0.263 0.529 0 0.03 0.27-0.01 0.27-0.05z"
      />
	</g
    >
	<g
      >
		<path
          d="m352.61 340.27c-0.055-0.011-0.109-0.021-0.164-0.03-0.076 0.006-0.079 0.059-0.082 0.123-0.022 0.674-0.081 1.345-0.252 1.998-0.247 0.951-1.099 1.458-1.381 2.338-0.05 0.152 0.202 0.472 0.354 0.482 1.377 0.096 1.86-1.873 1.962-2.939 0.04-0.47 0.16-1.72-0.44-1.97z"
      />
	</g
    >
	<g
      >
		<path
          d="m317.75 329.02c-2.691 1.628-11.29 1.961-10.279 6.833 0.01 0.047 0.256 0.163 0.266 0.125 0.688-2.481 1.8-3.524 4.266-4.439 2.045-0.759 4.084-1.115 5.847-2.464-0.01-0.01-0.09-0.08-0.11-0.06z"
      />
	</g
    >
	<g
      >
		<path
          d="m344.65 330.62c2.97 2.547 6.709 4.363 7.994 8.269 0.047 0.141 0.873 0.774 0.894 0.726 0.618-1.433-2.249-3.811-3.134-4.619-1.795-1.64-3.838-2.937-5.758-4.412-0.09-0.08-0.05-0.02 0.01 0.03z"
      />
	</g
    >
	<g
      >
		<path
          d="m280.06 312.65c-3.819 4.756-2.279 13.001-2.253 18.669 0.042 9.31 2.396 18.143 7.516 25.967 8.88 13.571 24.964 19.732 40.435 21.671 0.459 0.058 1.963-0.936 1.336-1.02-15.813-2.118-30.677-8.024-40.188-21.416-5.321-7.493-7.467-16.69-7.593-25.757-0.087-6.282-0.312-12.201 1.355-18.304 0.04-0.19-0.56 0.12-0.62 0.19z"
      />
	</g
    >
	<g
      >
		<path
          d="m325.64 378.59c-1.037 2.748-1.517 5.633-2.641 8.374-1.047 2.552-3.5 5.338-3.625 8.136-0.012 0.266 0.381 0.438 0.591 0.313 2.325-1.385 3.299-4.62 4.3-7.02 1.224-2.932 2.686-6.605 1.77-9.788-0.06-0.18-0.34-0.18-0.4-0.01z"
      />
	</g
    >
	<g
      >
		<path
          d="m329.72 378.3c-0.391 3.256 0.572 5.725 2.354 8.449 1.073 1.643 2.358 3.142 3.511 4.728 1.172 1.613 1.492 3.374 2.361 5.084 0.178 0.351 0.983 0.861 1.245 0.286 1.021-2.246-1.167-4.976-2.439-6.701-2.662-3.609-5.94-6.884-6.168-11.652-0.01-0.38-0.79-0.67-0.85-0.2z"
      />
	</g
    >
	<g
      >
		<path
          d="m330.32 379.3c16.86-3.355 31.379-11.662 41.631-25.585 4.535-6.159 8.443-12.952 11.193-20.094 1.98-5.14 3.579-11.587 0.363-16.551-0.72-1.111-2.584-1.021-1.631 0.418 3.683 5.565 0.11 13.587-2.313 18.947-2.642 5.84-6.122 11.322-9.866 16.51-4.264 5.905-9.62 11.013-15.654 15.076-7.465 5.026-16.033 7.178-24.451 9.962-0.7 0.22 0.15 1.42 0.73 1.3z"
      />
	</g
    >
	<g
      >
		<path
          d="m303.37 392.74c0.294 0.495 0.747 0.896 1.233 1.194 0.546 0.334 0.932-0.19 1.141-0.623 0.096-0.199-0.246-0.559-0.353-0.688-0.218-0.264-0.521-0.642-0.852-0.772-0.801-0.316-1.676-0.438-1.924 0.557-0.104 0.417-0.014 0.729 0.206 1.094 0.141 0.232 0.288 0.449 0.486 0.639 0.085 0.082 0.18 0.167 0.286 0.222 0.007 0.004 0.409 0.061 0.316 0.075 0.062 0.009 0.089-0.017 0.085-0.078 0.051-0.32 0.074-0.625 0.275-0.895 0.345-0.459 0.946-0.304 1.406-0.14-0.438-0.5-0.875-1-1.313-1.5-0.11 0.272-0.457 1.104-0.878 0.807-0.19-0.11-0.24-0.05-0.15 0.11z"
      />
	</g
    >
	<g
      >
		<path
          d="m290.27 446.93c-0.002-0.01-0.004-0.02-0.007-0.029 0.011 0.162 0.022 0.323 0.033 0.484-0.081 0.324 0.003 0.038 0.087-0.083 0.098-0.14 0.177-0.284 0.221-0.453 0.254-0.968-0.912-1.603-1.716-1.519-0.776 0.082-1.035 0.894-0.642 1.507 0.392 0.609 1.306 0.956 1.932 0.491-0.126 0.044-0.252 0.087-0.379 0.131-0.2-0.025-0.4-0.051-0.601-0.077 0.007 0.004 0.015 0.007 0.021 0.01-0.295-0.286-0.589-0.571-0.884-0.857-0.158-0.362 0.022-0.586-0.081-0.273-0.026 0.077-0.05 0.153-0.066 0.233-0.104 0.508 0.198 1.03 0.63 1.285 0.73 0.43 1.68 0.09 1.46-0.85z"
      />
	</g
    >
	<g
      >
		<path
          d="m407.82 377.35c-5.25 5.063-7.402 12.336-9.376 19.159-1.221 4.223-2.388 8.411-3.966 12.521-1.196 3.113-3.294 5.834-4.151 9.051-0.091 0.341 0.529 0.244 0.664 0.145 5.349-3.899 6.779-11.473 8.312-17.546 2.135-8.461 4.566-15.773 9.287-23.16 0.27-0.41-0.58-0.34-0.76-0.16z"
      />
	</g
    >
	<g
      >
		<path
          d="m387.12 411.95c1.472 4.237 1.825 10.066 0.491 14.363-0.471 1.518 1.958 2.43 2.401 0.84 1.424-5.107 0.492-10.75-1.553-15.547-0.32-0.75-1.66-0.55-1.34 0.35z"
      />
	</g
    >
	<g
      >
		<path
          d="m429.79 414.85c-9.132-3.481-23.218 9.753-22.48 18.823 0.024 0.304 0.597 0.783 0.858 0.439 2.84-3.732 4.31-8.018 7.683-11.494 4.222-4.353 8.755-5.143 14.198-6.852 0.48-0.16 0-0.83-0.26-0.92z"
      />
	</g
    >
	<g
      >
		<path
          d="m272.41 413.02c-2.586 4.692-1.022 12.133-0.629 17.245 0.314 4.096 0.813 8.18 1.008 12.287 0.214 4.479-1.154 8.878-0.908 13.274 0.04 0.709 1.302 0.819 1.611 0.253 3.445-6.295 2.147-15.19 1.086-22.009-1.086-6.984-2.22-13.853-1.161-20.893 0.07-0.44-0.83-0.46-1.01-0.15z"
      />
	</g
    >
	<g
      >
		<path
          d="m249.72 449.31c5.17 0.595 11.353 0.947 16.492 0.091 0.217-0.036 1.087-0.646 0.552-0.765-2.745-0.608-5.866-0.212-8.677-0.198-2.651 0.012-5.31 0.036-7.95 0.295-0.17 0.01-0.8 0.53-0.41 0.57z"
      />
	</g
    >
	<g
      >
		<path
          d="m253.29 415.13c0.73 3.242 4.037 4.997 6.792 6.341 4.123 2.013 8.61 3.186 12.639 5.408 0.055 0.03 0.6 0.186 0.466 0.053-5.332-5.283-14.962-3.923-18.703-11.452-0.12-0.24-1.24-0.55-1.2-0.35z"
      />
	</g
    >
	<g
      >
		<path
          d="m241.83 356.5c5.313 8.203 8.869 16.454 12.707 25.399 1.8 4.194 4.185 8.156 6.354 12.164 2.331 4.308 3.925 8.925 6.162 13.256 0.19 0.367 0.785 0.035 0.779-0.3-0.158-8.69-7.417-16.908-11.205-24.353-4.683-9.201-7.088-18.697-14.207-26.565-0.25-0.29-0.8 0.05-0.58 0.4z"
      />
	</g
    >
	<g
      >
		<path
          d="m306.51 399.37c-6.629 0.818 1.739 5.466 4.19 6.077 4.24 1.059 8.821 0.965 13.162 1.253 5.397 0.359 10.831 0.544 16.238 0.34 2.087-0.079 9.164 0.162 9.636-2.782 0.927-5.777-16.909-6.887-19.94-7.056-5.634-0.314-11.274-0.197-16.868 0.576-3.672 0.509-7.305 1.126-9.697 4.187 0.006-0.008 0.096 0.036 0.113 0.018 1.828-1.991 5.124-2.304 7.616-2.956 3.931-1.028 8.058-1.335 12.1-1.536 5.67-0.281 11.546-0.006 17.06 1.383 2.615 0.658 6.215 1.873 7.207 4.689 1.336 3.79-17.039 3.17-18.847 3.115-2.797-0.084-5.598-0.229-8.386-0.465-4.455-0.375-9.414-0.066-13.164-2.742-2.184-1.559-2.79-3.313 0.191-3.991-0.08 0.01-0.43-0.14-0.61-0.12z"
      />
	</g
    >
	<g
      >
		<path
          d="m301.18 398.82c-7.358 6.698 10.615 8.769 13.807 9.133 6.682 0.764 13.427 0.967 20.146 1.158 3.406 0.097 9.196-0.886 12.36 0.504 0.822 0.361 0.652-0.627 0.188-0.952-1.617-1.134-4.529-0.698-6.385-0.752-5.46-0.156-10.919-0.244-16.376-0.495-5.572-0.257-11.176-0.617-16.679-1.571-3.336-0.578-10.355-1.987-5.985-6.2 0.35-0.35-0.68-1.19-1.08-0.83z"
      />
	</g
    >
	<g
      >
		<path
          d="m348.91 402.6c1.296 0.271 2.387 0.92 3.229 1.942 0.924 1.121 0.855 2.381 0.843 3.739-0.001 0.164 0.391 0.525 0.557 0.401 1.523-1.129 0.214-3.301-0.718-4.388-0.955-1.116-2.674-2.44-4.242-2.161-0.31 0.05 0.2 0.44 0.33 0.47z"
      />
	</g
    >
	<g
      >
		<path
          d="m299.49 405.63c-1.248 11.96-2.103 24.286-2.4 36.311-0.297 11.996-0.768 23.534-4.061 35.157-0.22 0.774 0.987 1.61 1.303 0.709 3.771-10.765 3.99-22.468 4.025-33.752 0.04-12.7 2.738-25.714 1.666-38.358-0.03-0.29-0.5-0.41-0.54-0.07z"
      />
	</g
    >
	<g
      >
		<path
          d="m291.76 478.18c-8.255 15.554 14.828 22.947 26.161 24.257 8.1 0.936 16.086 0.381 22.962-4.208 1.981-1.322 8.513-5.659 2.824-5.904-0.021-0.001-0.09 0.054-0.057 0.057 3.091 0.258-2.88 4.828-3.258 5.091-2.459 1.708-4.779 2.559-7.762 3.22-7.406 1.643-15.454 0.364-22.655-1.638-9.772-2.717-22.787-9.068-17.497-21.149 0.14-0.29-0.61 0.09-0.7 0.27z"
      />
	</g
    >
	<g
      >
		<path
          d="m294.02 479.35c-1.421 10.06 14.669 13.334 21.664 14.842 7.054 1.521 14.386 2.693 21.392 0.5 1.246-0.39 7.139-2.555 3.837-4.349-0.045-0.024 0.001 0.081 0.016 0.095 0.119 0.104-6.711 2.808-7.375 2.982-5.191 1.372-11.414 0.241-16.571-0.771-6.552-1.285-22.858-3.605-22.468-12.778 0.01-0.2-0.45-0.87-0.5-0.52z"
      />
	</g
    >
	<g
      >
		<path
          d="m299.16 423.68c2.334 1.391 4.516 3.615 7.056 4.585 3.327 1.27 7.083 1.417 10.586 1.95 6.865 1.043 14.974 2.489 21.609-0.322 0.586-0.248 0.219-0.754-0.303-0.593-7.271 2.243-14.847 0.986-22.209-0.142-3.655-0.56-7.509-0.653-10.726-2.631-1.925-1.184-3.403-2.578-5.642-3.144-0.14-0.04-0.63 0.13-0.38 0.29z"
      />
	</g
    >
	<g
      >
		<path
          d="m357.48 422.68c0.055-0.373 0.168-0.387 0.396-0.679 0.133-0.17-0.439-0.008-0.146 0.077 0.512 0.147 0.96 0.631 1.332 0.984 0.777 0.738 1.391 2.086 2.404 2.478 0.199 0.077 0.505-0.039 0.609-0.223 0.792-1.392-1.595-3.378-2.593-4.05-0.646-0.436-1.409-0.669-2.166-0.414-0.355 0.121-0.664 0.407-0.84 0.732-0.225 0.418 0.02 0.799 0.064 1.234 0.06 0.54 0.88 0.29 0.95-0.14z"
      />
	</g
    >
	<g
      >
		<path
          d="m53.566 91.386c6.148 3.74 13.629 3.042 20.47 2.116 4.829-0.653 9.605-1.631 14.447-2.205 4.812-0.571 8.792 0.488 13.452 1.061 0.742 0.092 1.833-0.343 1.028-1.156-4.366-4.407-13.862-2.89-19.284-2.159-9.716 1.31-19.65 4.585-29.359 1.514-0.645-0.203-1.662 0.28-0.761 0.829z"
      />
	</g
    >
	<g
      >
		<path
          d="m52.444 97.424c4.796 3.493 13.35 1.524 18.711 0.902 7.576-0.879 15.494-2.176 23.087-0.836 1.527 0.27 2.286-1.425 1.35-2.586 0.107 0.58 0.214 1.159 0.321 1.739 0.25-0.514 0.015-1.323-0.321-1.739-4.109-5.099-14.377-2.589-19.824-1.903-4.545 0.572-9.068 1.298-13.608 1.9-2.913 0.387-6.205 1.3-9.152 0.886-0.966-0.135-1.33 1.079-0.564 1.637z"
      />
	</g
    >
	<g
      >
		<path
          d="m90.067 97.585c2.002 2.104 1.955 6.63 2.316 9.288 0.721 5.293 0.843 10.666 0.971 15.999 0.224 9.327-0.08 18.647-0.241 27.972-0.262 15.167 1.541 30.392-1.017 45.432-1.092 6.419-2.278 12.819-2.61 19.334-0.251 4.929-0.115 10.676 3.743 14.234 0.693 0.641 4.195 0.972 3.531-0.748-4.556-11.784-0.736-24.611 0.971-36.627 2.04-14.361-0.239-29.299-0.027-43.76 0.149-10.23 0.298-20.477-0.272-30.696-0.327-5.858 0.229-17.789-5.575-21.507-0.792-0.486-2.842-0.004-1.79 1.102z"
      />
	</g
    >
	<g
      >
		<path
          d="m98.951 101.12c3.672 10.402 1.437 22.933 0.041 33.566-0.762 5.804-1.648 11.591-2.194 17.421-0.603 6.44-0.05 12.874 0.396 19.31 0.578 8.347 1.28 16.678 1.476 25.045 0.104 4.446-0.014 8.759 0.51 13.172 0.526 4.428 1.174 8.84 1.744 13.262 0.479 3.72 0.093 8.077 1.758 11.47 0.622 1.267 3.337 2.502 4.457 1.153 2.09-2.518 1.004-6.211 0.655-9.23-0.565-4.887-1.362-9.744-2.149-14.6-2.166-13.37-2.082-27.321-3.142-40.837-1.013-12.924 0.296-24.952 1.724-37.786 1.162-10.449 2.582-22.631-3.056-32.087-0.43-0.71-2.678-1.146-2.219 0.16z"
      />
	</g
    >
	<g
      >
		<path
          d="m55.242 236.3c5.214 1.128 10.708 0.893 16.012 0.956 6.764 0.081 13.624 0.922 20.323-0.223 0.202-0.034 2.019-0.887 1.688-1.162-3.342-2.785-9.905-1.943-14.024-1.994-7.403-0.092-14.835 0.021-22.174 1.053-0.359 0.04-2.252 1.26-1.825 1.36z"
      />
	</g
    >
	<g
      >
		<path
          d="m55.746 244.05c3.593 4.878 10.702 4.806 16.14 4.567 4.122-0.182 8.227-0.638 12.349-0.818 3.726-0.163 6.998 0.618 10.615 1.133 2.204 0.313-0.123-3.167-0.773-3.651-4.85-3.61-11.893-2.572-17.527-2.058-6.736 0.614-14.138 2.348-20.529-0.522-1.065-0.47-0.598 0.92-0.275 1.35z"
      />
	</g
    >
	<g
      >
		<path
          d="m88.204 248.24c-0.313 5.003-0.417 9.929-0.329 14.94 1.321 0.463 2.642 0.926 3.963 1.389-0.002-0.013-0.003-0.025-0.005-0.038-0.075-0.544-3.846-1.688-3.965-1.389-1.306 3.267-1.403 7.716-1.687 11.174-0.309 3.756-0.945 6.488 2.922 7.871 0.128 0.046 2.305 0.578 2.281 0.505-0.424-1.302-0.161-1.644 0.176-2.904 0.021-0.078-0.865-0.427-0.945-0.332-0.773 0.916-1.443 1.982-2.882 1.741 4.429 0.741 3.593 2.51 3.19-0.028-0.309-1.95-0.117-4.028-0.009-5.986 0.183-3.324-0.088-7.442 0.919-10.651-1.322-0.463-2.644-0.926-3.965-1.389 0.002 0.013 0.005 0.025 0.008 0.038 0.179 0.865 3.946 1.197 3.963 1.389-0.468-5.296-1.127-10.498-1.969-15.745-0.051-0.3-1.666-0.58-1.666-0.58z"
      />
	</g
    >
	<g
      >
		<path
          d="m88.327 261.17c-0.042 0.134-0.428 0.362 0.169 0.026 0.198-0.112 0.645-0.034 0.924-0.02 1.259 0.069 2.437 0.11 3.681 0.379 2.615 0.564 5.89 1.613 7.632 3.359-0.032-0.031-0.312-0.526-0.312-1.252 0 0.212-0.015 0.271-0.395 0.756-1.1 1.402-2.985 2.387-4.752 2.37-1.166-0.011-2.925-1.202-3.158-1.833-0.163-0.441-0.105-0.798 0.049-1.362 0.379-1.393-0.007-2.726 0.617-4.097 0.155-0.342-0.137-1.047-0.531-1.115-1.042-0.182-3.587-1.093-4.354 0.117-0.939 1.483-1.175 3.106-0.912 4.839 0.564 3.712 2.996 7.229 6.295 9.03 5.42 2.96 12.988-1.547 11.384-7.969-1.271-5.086-7.281-6.854-11.801-7.475-1.686-0.231-3.991-0.524-5.554 0.321-1.516 0.82-1.524 2.843-0.289 3.977 0.368 0.31 1.097 0.6 1.311-0.07z"
      />
	</g
    >
	<g
      >
		<path
          d="m112.56 248.68c-6.413 8.348-1.403 21.83-1.324 31.347 0.082 9.959-4.649 22.85 0.274 32.184 0.661 1.252 3.81 1.162 3.453-0.578-2.188-10.685 0.141-20.834 0.395-31.574 0.12-5.088-0.935-10.231-1.458-15.277-0.558-5.382-0.086-10.488 0.123-15.837 0.02-0.61-1.18-0.63-1.46-0.26z"
      />
	</g
    >
	<g
      >
		<path
          d="m89.58 278.99c-0.739 12.911-0.869 26.404 0.199 39.299 0.092 1.115 3.349 1.687 3.446 0.45 1.02-12.945-0.653-26.532-1.457-39.463-0.043-0.72-2.143-1.07-2.188-0.29z"
      />
	</g
    >
	<g
      >
		<path
          d="m113.96 245.03c6.615 0.917 13.164 1.337 19.843 1.279 4.767-0.04 12.495 0.185 16.017-3.558 0.613-0.651-0.138-1.514-0.813-1.656-4.956-1.043-10.923 0.833-16.006 1.098-6.404 0.334-12.762 0.093-19.136 0.943-1.22 0.17-1.05 1.74 0.1 1.9z"
      />
	</g
    >
	<g
      >
		<path
          d="m191.03 98.492c-2.171 7.093-3.029 14.718-4.488 21.99-1.618 8.066-3.404 16.099-5.289 24.107-3.229 13.711-6.713 27.455-11.286 40.787-3.575 10.426-7.657 20.674-11.411 31.035-1.766 4.873-3.465 9.778-4.922 14.754-1.07 3.658-2.864 7.239 0.271 10.001 0.27 0.237 1.16 0.443 1.492 0.277 3.167-1.584 2.743-5.015 3.533-8.267 1.198-4.928 2.804-9.756 4.427-14.557 3.663-10.835 7.791-21.507 11.432-32.35 4.273-12.729 7.122-26 10.106-39.076 1.831-8.021 3.498-16.079 5.063-24.156 1.52-7.851 3.561-16.033 3.791-24.043 0.02-0.419-2.59-0.887-2.71-0.495z"
      />
	</g
    >
	<g
      >
		<path
          d="m109.21 234.97c6.626 0.53 13.322 0.162 19.965 0.231 6.76 0.07 13.421 0.889 20.153 1.193 1.56 0.07 3.801-1.692 1.328-2.326-6.54-1.677-13.847-1.545-20.557-1.578-6.883-0.033-13.827 0.006-20.689 0.564-1.7 0.16-2.12 1.78-0.2 1.93z"
      />
	</g
    >
	<g
      >
		<path
          d="m100.87 95.355c12.135-0.821 23.559-7.009 35.101-10.37 5.988-1.743 13.778-3.204 19.892-1.201 2.841 0.931 5.515 2.759 8.085 4.239 6.935 3.996 13.771 8.325 21.197 11.367 2.044 0.837 13.726 3.873 12.934-1.194-0.07-0.452-1.16-0.085-1.361 0.027 0.066 0.047 0.133 0.094 0.198 0.141 0.379 0.172 0.758 0.343 1.137 0.515-0.179-1.336-4.42-1.802-5.4-2.144-3.673-1.279-7.162-3.132-10.59-4.947-6.218-3.294-12.143-7.208-18.502-10.226-7.879-3.738-18.994-1.956-27.081 0.098-12.173 3.093-23.983 8.033-35.957 11.83-2.051 0.652-1.813 2.012 0.35 1.865z"
      />
	</g
    >
	<g
      >
		<path
          d="m99.846 90.932c3.117 0.829-1.546-0.386-2.332-0.548-2.147-0.444-4.373-0.599-6.552-0.81-5.491-0.531-11.045-0.671-16.557-0.813-4.707-0.121-9.469-0.275-14.171 0.008-1.576 0.095-2.967 0.207-4.376 0.941-1.082 0.563-0.286 1.181-0.876 2.016-0.097 0.137 0.692 0.394 0.825 0.334 2.025-0.906 6.062 0.541 8.321 0.497 4.075-0.08 8.142-0.342 12.219-0.393 4.88-0.062 9.766 0.067 14.642 0.264 3.646 0.146 7.535 0.819 11.174 0.421 1.55-0.169-1.98-1.828-2.314-1.917z"
      />
	</g
    >
	<g
      >
		<path
          d="m93.335 90.577c1.788-0.587-2.802-5.179-3.378-5.871-2.251-2.701-4.431-6.459 0.146-7.983 2.521-0.84 5.649-0.987 8.22-0.344-0.943-0.236-0.638-0.609 0.022 0.224 0.319 0.404 0.532 0.885 0.743 1.35 0.411 0.906 0.52 1.896 0.473 2.879-0.093 1.954-1.2 3.587-2.673 4.781-1 0.811-2.254 1.315-3.469 1.687-1.677 0.513-1.486 0.629-2.098 2.197-0.097 0.247 0.885 0.691 1.056 0.74 3.899 1.102 7.073 1.974 10.325-0.987 1.728-1.573 2.375-3.887 2.228-6.146-0.355-5.45-6.928-9.156-11.572-10.359-3.506-0.909-13.723-0.724-11.448 5.239 1.724 4.517 6.58 7.596 9.397 11.396 0.274 0.366 1.526 1.361 2.028 1.197z"
      />
	</g
    >
	<g
      >
		<path
          d="m54.805 87.395c7.151-2.55 13.323-2.322 20.804-1.746 2.885 0.222 5.746 0.267 8.622-0.07 2.41-0.283 2.904-1.535 4.336-3.236 0.094-0.112-0.566-0.356-0.676-0.323-6.341 1.896-13.447 1.267-19.948 0.902-5.25-0.294-11.948-0.742-16.14 3.039-0.363 0.326 2.432 1.637 3.002 1.434z"
      />
	</g
    >
	<g
      >
		<path
          d="m111.3 83.606c3.983 0.949 8.048 0.612 12.11 0.392 2.234-0.121 4.463-0.136 6.698-0.078 2.166 0.055 4.69 0.814 6.785 0.238 0.004-0.001-1.111-1.384-1.34-1.504-3.858-2.032-7.525-2.202-11.821-2.098-4.159 0.102-9.721 0.004-13.523 1.826-0.04 0.014 0.87 1.175 1.08 1.224z"
      />
	</g
    >
	<g
      >
		<path
          d="m203.26 92.106c-2.908-1.177-10.188-0.522-11.243 3.101-0.779 2.674 1.613 5.586 3.729 6.846 3.036 1.808 6.956 2.443 10.434 2.102 2.702-0.267 5.383-1.517 5.354-4.583-0.031-3.366-2.323-6.425-5.502-7.449-5.243-1.69-10.849 1.714-11.326 7.329-0.008 0.08 0.155 0.422 0.258 0.273 1.664-2.422 6.855-1.151 9.362-0.945 0.824 0.068 1.651 0.131 2.468 0.264 0.158 0.025 1.283 0.584 0.879 0.207-2.722-2.545 0.111-3.197-2.411-2.074-0.944 0.421-1.997 0.518-3.014 0.604-1.903 0.16-3.915 0.074-5.767-0.401-0.339-0.095-0.672-0.208-0.998-0.341-1.29-0.483 0.405-0.308 0.01 1.49 0.105-0.479 0.988-0.85 1.355-1.047 2.309-1.243 5.074-1.179 7.282-2.588 0.98-0.615-0.08-2.469-0.86-2.783z"
      />
	</g
    >
	<g
      >
		<path
          d="m199.23 100.92c-2.611 7.339-3.671 15.326-5.302 22.931-1.911 8.908-3.904 17.796-5.938 26.676-3.884 16.96-7.575 34.03-12.032 50.849-3.351 12.641-6.714 25.813-11.68 37.934-1.493 3.645-3.061 7.26-4.69 10.846-0.484 1.066-1.341 2.286-0.536 3.37 0.718 0.966 0.905 0.323 1.122-0.544 0.048-0.193-0.303-0.204-0.365-0.052-0.095 0.232-0.657 1.148-0.345 1.426 0.139 0.122 0.327 0.076 0.451-0.038 0.341-0.316 1.087-0.248 1.522-0.437 1.239-0.533 1.754-2.326 2.271-3.447 1.662-3.609 3.234-7.262 4.76-10.932 4.785-11.513 7.593-24.17 10.817-36.193 4.487-16.732 7.85-33.847 11.536-50.771 1.799-8.256 3.556-16.521 5.321-24.783 1.853-8.673 4.563-17.684 5.048-26.555 0.06-1.06-1.64-1.19-1.96-0.3z"
      />
	</g
    >
	<g
      >
		<path
          d="m165.42 219.11c1.604 0.721 3.449 0.521 5.158 0.323 1.307-0.15 3.62-0.239 4.28-1.508 0.33-0.635-0.32-1.473-0.807-1.81-1.515-1.049-3.057-0.727-4.784-0.396-1.387 0.265-3.505 0.79-4.591 1.703-0.59 0.51 0.28 1.49 0.74 1.7z"
      />
	</g
    >
	<g
      >
		<path
          d="m204.41 161.56c-6.453-2.587-8.502 9.399-0.395 9.812 4.416 0.224 8.981-1.622 10.823-5.872 1.762-4.063-2.365-8.137-5.373-10.174-6.5-4.403-12.508-2.435-16.92 3.667-2.492 3.447-4.128 7.536-5.578 11.504-1.058 2.895-2.803 6.52-2.882 9.635-0.025 0.969 1.826 2.356 2.573 1.364 1.775-2.356 2.282-6.345 3.294-9.094 1.571-4.27 3.469-8.467 6.165-12.152 3.135-4.284 7.432-6.156 12.183-3.099 4.673 3.007 4.741 7.242 0.35 10.169-1.065 0.711-6.915 3.035-6.902-0.284 0.006-1.645 1.479-3.295 3.103-3.364 1.63-0.08 0.39-1.79-0.44-2.13z"
      />
	</g
    >
	<g
      >
		<path
          d="m199.96 167.96c-2.19 2.792-4.468 5.554-5.39 9.082-1.018 3.896 2.058 6.202 5.514 7.003 3.004 0.697 8.197 1.611 9.739-2.052 1.055-2.506-1.584-5.545-3.537-6.71-1.052-0.627-3.688-0.738-4.077 0.858-0.377 1.553 1.966 2.266 2.736 3.46 1.984 3.076-2.006 2.353-3.988 2.075-7.355-1.026-0.74-9.748 0.32-13.374 0.21-0.69-0.99-0.75-1.31-0.35z"
      />
	</g
    >
	<g
      >
		<path
          d="m175.93 209.81c-6.694 11.743-0.009 34.391 15.481 34.142 5.713-0.093 15.4-2.785 16.389-9.564 0.766-5.258-4.009-9.696-7.994-12.265-3.319-2.141-8.733-4.558-12.147-1.343-4.391 4.137 2.778 9.94 7.136 8.157 1.691-0.692 1.445-2.368-0.012-3.151-1.033-0.556-6.196-2.928-2.621-2.376 4.447 0.687 10.768 5.548 11.172 10.284 0.306 3.579-4.907 5.047-7.457 5.808-5.656 1.688-10.646 1.168-14.488-3.625-5.4-6.733-6.277-17.566-3.627-25.546 0.37-1.1-1.36-1.35-1.83-0.52z"
      />
	</g
    >
	<g
      >
		<path
          d="m192.65 218.4c-0.311-3.33-3.557-5.475-2.625-9.049 0.761-2.915 4.423-4.878 6.902-6.077 2.541-1.228 5.479-1.957 8.277-1.36 2.683 0.573 2.766 5.996 2.501 8.163-0.154 1.268-0.798 2.405-2.021 2.861-0.626 0.232-1.319 0.116-1.945-0.036-0.359-0.088-0.694-0.246-1.022-0.411-1.063-0.533 0.677 0.934 0.114 0.097-2.633-3.914 4.532-3.559 5.547-4.915 0.186-0.247-1.339-1.384-1.58-1.464-2.084-0.693-6.189-0.791-7.239 1.757-0.613 1.486 0.891 3.133 1.819 4.084 2.022 2.072 7.285 5.922 8.641 1.099 1.609-5.727-2.608-13.141-8.748-13.379-3.795-0.147-7.783 1.958-10.683 4.226-5.307 4.151-1.4 8.625 0.712 13.294 0.15 0.34 1.35 1.14 1.35 1.12z"
      />
	</g
    >
	<g
      >
		<path
          d="m57.56 332.14c9.904 7.425 22.201 11.961 34.723 10.864 9.966-0.873 17.153-7.714 24.541-13.67 7.81-6.296 15.573-7.02 24.955-3.721 5.845 2.056 11.899 3.703 17.997 4.788 3.549 0.632 12.533 2.407 13.961-2.617 1.274-4.486-3.016-8.572-6.509-10.383-7.215-3.739-16.048-4.548-23.987-5.46-8.185-0.94-16.41-1.343-24.613-2.06-0.981-0.086-1.839 0.048-2.808 0.175-0.833 0.109 0.683 2.747 1.223 2.944 5.633 2.057 12.641 1.514 18.568 1.96 8.449 0.635 16.867 1.532 25.153 3.335 2.668 0.58 17.006 5.104 9.518 9.239-4.931 2.724-13.421 0.089-18.468-1.093-4.906-1.148-9.606-2.833-14.417-4.285-8.483-2.561-15.83 0.141-22.575 5.33-7.004 5.391-13.2 11.009-22.211 12.647-11.705 2.129-25.35-2.969-35.255-8.856-0.313-0.19 0.034 0.73 0.206 0.86z"
      />
	</g
    >
	<g
      >
		<path
          d="m69.917 311.58c-1.717-2.088 9.184-1.917 10.182-1.879 3.666 0.142 7.323 0.443 10.985 0.652 0.316 0.018 0.62-0.041 0.121-0.092-4.813-0.492-9.587-1.001-14.432-1.111-1.347-0.03-11.531-0.579-8.807 2.299 0.364 0.39 1.773-0.08 1.951 0.13z"
      />
	</g
    >
	<g
      >
		<path
          d="m368.36 513.97c5.445 0.969 14.32 1.273 18.797-2.488 0.98-0.824-1.27-1.446-1.971-0.936-4.046 2.95-9.657 1.357-14.291 1.3-2.226-0.028-4.293 0.492-5.35 2.606-0.15 0.302 0.473 0.389 0.633 0.23 2.64-2.601 8.722-1.018 12.074-0.904 3.214 0.108 6.274-0.367 8.904-2.297-0.657-0.312-1.313-0.624-1.971-0.936-4.47 3.914-11.438 1.901-16.77 2.78-0.43 0.08-0.57 0.56-0.05 0.65z"
      />
	</g
    >
	<g
      >
		<path
          d="m271.32 467.08c2.487-0.951 4.795-2.266 7.327-3.116 3.145-1.057 6.54 2.304 9.006 3.731 2.072 1.199 4.496 1.152 6.67 0.389 1.054-0.37-1.125-0.724-1.568-0.58-4.484 1.45-7.81-4.216-12.14-4.412-3.894-0.177-7.257 2.295-10.729 3.652-0.43 0.17 1.07 0.48 1.43 0.34z"
      />
	</g
    >
	<g
      >
		<path
          d="m299.96 231.48c-15.203-4.981-30.526 8.923-23.652 24.521 3.738 8.483 14.478 13.755 22.572 16.949 11.217 4.427 22.983 6.498 34.784 8.68 19.821 3.666 42.306 9.034 61.155-0.989 8.656-4.604 14.332-12.558 11.3-22.421-2.776-9.031-11.294-16.537-19.656-20.166-0.484-0.21-1.29 0.153-0.705 0.67 6.137 5.424 12.937 11.116 16.324 18.744 4.445 10.009-3.614 17.791-12.012 21.875-15.634 7.603-35.144 3.447-51.403 0.408-18.793-3.512-38.999-6.029-54.432-18.344-6.143-4.901-7.793-12.862-4.751-19.939 3.373-7.848 12.25-10.463 20.003-8.433 1.31 0.34 1.76-1.14 0.47-1.56z"
      />
	</g
    >
	<g
      >
		<path
          d="m322.74 176.72c-5.642 4.8-6.688 13.4-7.706 20.277-0.929 6.284-1.744 12.3-3.984 18.254-2.225 5.913-4.496 11.86-5.715 18.078-0.635 3.243-0.974 7.687 2.282 9.695 0.401 0.248 0.539-0.152 0.303-0.456-2.497-3.219 0.597-11.231 1.562-14.568 1.355-4.688 3.121-9.241 4.707-13.853 4.154-12.08 1.646-25.497 9.521-36.352 0.3-0.4-0.56-1.42-0.97-1.07z"
      />
	</g
    >
	<g
      >
		<path
          d="m383.28 187.14c-2.816 9.737-3.746 20.248-4.707 30.315-1.025 10.74-1.271 21.593-0.572 32.361 0.073 1.128 2.31 1.849 3.199 1.745 0.224-0.025 0.447-0.051 0.671-0.077 0.286-0.033 0.379-0.177 0.408-0.433 0.13-1.107-0.763-2.273-1.034-3.376-0.048-0.195-0.838-0.629-0.878-0.361 0.075 0.917-0.306 1.606-1.145 2.069 0.81 0.566 1.619 1.134 2.429 1.7-0.68-10.21-0.489-20.396 0.217-30.598 0.752-10.863 2.823-21.55 3.77-32.374 0.06-0.64-2.17-1.62-2.36-0.97z"
      />
	</g
    >
	<g
      >
		<path
          d="m320.8 179.14c0.249-0.683 0.498-1.366 0.747-2.05-0.81 0.201-1.619 0.401-2.429 0.602 10.114 9.934 28.282 11.257 41.718 12.053 3.377 0.2 22.538 1.622 21.728-5.093-0.597-4.95-11.322-8.079-15.001-9.072-8.217-2.22-17.01-2.493-25.473-2.335-6.186 0.115-13.01 0.319-18.758 2.881-6.463 2.88-5.338 6.998 0.469 10.119 0.179 0.096 1.086-0.121 0.864-0.378-1.546-1.79-3.968-4.462-2.345-6.939 1.658-2.532 6.377-3.019 9.073-3.422 5.877-0.878 12.043-0.739 17.962-0.512 6.927 0.267 13.95 1.237 20.462 3.679 1.992 0.747 10.439 4.34 9.295 7.741-0.838 2.491-9.167 1.98-11.133 2.003-3.7 0.044-7.35-0.267-11.02-0.701-12.052-1.426-26.031-2.39-35.48-10.896-0.423-0.381-2.734 0.059-2.44 0.748 0.252 0.589 0.503 1.177 0.754 1.765 0.14 0.31 0.93 0.06 1.02-0.18z"
      />
	</g
    >
	<g
      >
		<path
          d="m307.88 231.7c-4.798 5.419 12.539 8.708 15.263 9.369 7.159 1.739 14.7 1.868 22.035 2.07 10.37 0.285 20.322 1.672 30.598 2.709 0.238 0.024 1.119-0.194 0.568-0.486-5.466-2.896-12.339-3.175-18.395-3.506-8.358-0.457-16.738-0.357-25.086-1.03-3.325-0.269-25.906-3.286-23.473-8.813 0.25-0.59-1.25-0.62-1.52-0.31z"
      />
	</g
    >
	<g
      >
		<path
          d="m300.85 238.71c-3.881 17.483 21.724 22.201 33.775 23.538 9.971 1.106 20.249 0.772 30.117-1.037 5.26-0.965 15.895-2.927 18.58-8.443 0.793-1.627-2.038-2.041-2.856-1.018-0.627 0.844-1.313 1.638-2.056 2.382-0.411 0.442 0.285 0.738 0.661 0.587 1.093-0.474 2.209-0.886 3.348-1.234-0.549-0.66-1.099-1.319-1.647-1.979-5.527 3.869-10.557 6.018-17.318 7.277-8.656 1.611-17.588 1.756-26.347 1.095-11.64-0.878-35.996-4.72-34.435-21.111 0.1-0.98-1.63-0.88-1.81-0.06z"
      />
	</g
    >
	<g
      >
		<path
          d="m327.81 237.78c-2.489-3.23-6.782 8.818-7.119 9.84-2.58 7.821 7.023 9.119 12.519 8.844 0.573-0.028-0.11-0.304-0.328-0.317-5.033-0.299-11.021-1.953-9.17-8.181 0.599-2.014 1.328-3.997 2.101-5.949 0.319-0.808 0.611-1.624 0.943-2.426 0.131-0.307 0.257-0.614 0.378-0.925 0.447-1.116 0.217-0.023-0.677-0.919 0.24 0.24 1.52 0.25 1.36 0.04z"
      />
	</g
    >
	<g
      >
		<path
          d="m355.48 243.77c0.775 1.186 0.049 5.91 0.019 7.453-0.064 3.359-0.986 7.068-0.405 10.371 0.03 0.176 0.47 1.197 0.668 1.171 2.402-0.32 1.233-16.883-0.417-19.342-0.14-0.2 0.1 0.29 0.13 0.35z"
      />
	</g
    >
	<g
      >
		<path
          d="m320.65 326.49c-2.481 0.137 0.505 5.358 0.968 6.188 1.053 1.888 2.213 4.968 4.194 6.076 0.457 0.256 2.096 1.145 1.024-0.016-1.18-1.276-2.354-2.532-3.327-3.976-0.982-1.457-1.849-3.009-2.521-4.633-0.629-1.522-0.492-2.111 0.037-3.443 0.03-0.05-0.32-0.2-0.37-0.2z"
      />
	</g
    >
	<g
      >
		<path
          d="m335.94 338.75c0.758-0.583 1.751-1.346 2.721-1.502 0.506-0.081 1.009-0.197 1.495-0.357 0.015-0.005 0.883-0.375 0.624-0.402-1.388-0.145-2.782 0.154-4.096 0.592-0.855 0.286-2.32 0.96-2.459 1.983-0.02 0.141 2.564-0.343 2.847-0.623-0.371 0.369 0.315-0.313 0.235-0.234 0.165-0.164 0.295-0.387 0.447-0.565 0.143-0.167 0.315-0.306 0.487-0.442 0.48-0.278 0.262-0.252-0.656 0.078 0.176 0.002 0.351 0.01 0.526 0.023 0.532-0.237 1.065-0.475 1.598-0.711-2.109 0.404-4.142 1.069-5.742 2.552-0.129 0.119 0.701 0.019 0.75 0.009 0.38-0.08 0.9-0.15 1.22-0.4z"
      />
	</g
    >
	<g
      >
		<path
          d="m613.5 351.62c0.604 0 2.767-1.227 2.221-1.227-0.6 0-2.77 1.23-2.22 1.23z"
      />
	</g
    >
</g
  >
<metadata
    ><rdf:RDF
      ><cc:Work
        ><dc:format
          >image/svg+xml</dc:format
        ><dc:type
            rdf:resource="http://purl.org/dc/dcmitype/StillImage"
        /><cc:license
            rdf:resource="http://creativecommons.org/licenses/publicdomain/"
        /><dc:publisher
          ><cc:Agent
              rdf:about="http://openclipart.org/"
            ><dc:title
              >Openclipart</dc:title
            ></cc:Agent
          ></dc:publisher
        ></cc:Work
      ><cc:License
          rdf:about="http://creativecommons.org/licenses/publicdomain/"
        ><cc:permits
            rdf:resource="http://creativecommons.org/ns#Reproduction"
        /><cc:permits
            rdf:resource="http://creativecommons.org/ns#Distribution"
        /><cc:permits
            rdf:resource="http://creativecommons.org/ns#DerivativeWorks"
        /></cc:License
      ></rdf:RDF
    ></metadata
  ></svg
>
