<?xml version="1.0"?>
<svg
    xmlns="http://www.w3.org/2000/svg"
    xmlns:xlink="http://www.w3.org/1999/xlink"
    xmlns:svg="http://www.w3.org/2000/svg"
    xmlns:inkscape="http://www.inkscape.org/namespaces/inkscape"
    xmlns:sodipodi="http://sodipodi.sourceforge.net/DTD/sodipodi-0.dtd"
    xmlns:ns1="http://sozi.baierouge.fr"
    xmlns:dc="http://purl.org/dc/elements/1.1/"
    xmlns:cc="http://web.resource.org/cc/"
    xmlns:rdf="http://www.w3.org/1999/02/22-rdf-syntax-ns#"
    xml:space="preserve"
    width="100%"
    height="100%"
    viewBox="0 0 500 500"
  >
       
  <desc
    >
    Animated Star String Art
    
    REMIX of Star String Art 
    Animation added to show how easy it is to add animation to handcoded files.
    Can be inserted into an SVG image then scaled and positioned where desired.
    
    Original work is from the book, STEAM Coded String Art, written and illustrated by Jay Nick.
    STEAM Coded String Art is available as an eBook from the Apple iBookstore
    http://www.steamcoded.com
    
    Written by Jay Nick
    Handcoding SVG since 2001
    http://www.jaynick.com
    Author of Free eBooks using SVG, published by Catto Creations, LLC
    
    STEAM Coded String Art is published by Catto Creations, LLC
    Catto Creations mission is Family, Literacy, and Enrichment
    Visit http://www.cattocreations.com for award winning children's eBooks
    
    Free ePub3 eBooks at http://www.cattocreations.com/ePub3.html
  </desc
  >
       
  <defs
    >
    <style
        type="text/css"
      ><![CDATA[
      .l1 {stroke:blue;stroke-width:1px;}
      .l2 {stroke:red;stroke-width:1px;}
      .l3 {stroke:green;stroke-width:1px;}
      .l4 {stroke:purple;stroke-width:1px;}
      .l5 {stroke:black;stroke-width:1px;}
      .l6 {stroke:red;stroke-width:1px;}
    ]]>
    </style
    >
  </defs
  >
    
  <g
      transform="translate(0,0) scale(1)"
    >
    <g
        id="half"
      >
      <g
          id="sixth"
        >
        <g
            id="lines"
          >
          <path
              d="M250,0L250,250"
              class="l1"
            >
            <animate
                attributeName="class"
                values="l2;l3;l4;l5;l6;l1;"
                begin="0s"
                dur="12s"
                repeatCount="indefinite"
            />
          </path
          >  
          <path
              d="M250,0L250,125"
              class="l2"
              transform="rotate(-6,250,0)"
            >
            <animate
                attributeName="class"
                values="l3;l4;l5;l6;l1;l2;"
                begin="0s"
                dur="12s"
                repeatCount="indefinite"
            />
          </path
          >  
          <path
              d="M250,0L250,125"
              class="l2"
              transform="rotate(6,250,0)"
            >
            <animate
                attributeName="class"
                values="l3;l4;l5;l6;l1;l2;"
                begin="0s"
                dur="12s"
                repeatCount="indefinite"
            />
          </path
          >  
          <path
              d="M250,0L250,136"
              class="l3"
              transform="rotate(-16.8,250,0)"
            >
            <animate
                attributeName="class"
                values="l4;l5;l6;l1;l2;l3;"
                begin="0s"
                dur="12s"
                repeatCount="indefinite"
            />
          </path
          >  
          <path
              d="M250,0L250,136"
              class="l3"
              transform="rotate(16.8,250,0)"
            >
            <animate
                attributeName="class"
                values="l4;l5;l6;l1;l2;l3;"
                begin="0s"
                dur="12s"
                repeatCount="indefinite"
            />
          </path
          >  
          <g
              transform="rotate(6,250,250)"
            >
            <path
                d="M250,123L250,250"
                class="l4"
                transform="rotate(-12,250,123)"
              >
              <animate
                  attributeName="class"
                  values="l5;l6;l1;l2;l3;l4;"
                  begin="0s"
                  dur="12s"
                  repeatCount="indefinite"
              />
            </path
            >  
            <path
                d="M250,123L250,250"
                class="l4"
                transform="rotate(12,250,123)"
              >
              <animate
                  attributeName="class"
                  values="l5;l6;l1;l2;l3;l4;"
                  begin="0s"
                  dur="12s"
                  repeatCount="indefinite"
              />
            </path
            >  
          </g
          >
          <path
              d="M250,100L250,149"
              class="l5"
              transform="rotate(-53,250,100)"
            >
            <animate
                attributeName="class"
                values="l6;l1;l2;l3;l4;l5;"
                begin="0s"
                dur="12s"
                repeatCount="indefinite"
            />
          </path
          >  
          <path
              d="M250,100L250,149"
              class="l5"
              transform="rotate(53,250,100)"
            >
            <animate
                attributeName="class"
                values="l6;l1;l2;l3;l4;l5;"
                begin="0s"
                dur="12s"
                repeatCount="indefinite"
            />
          </path
          >  
          <g
              transform="rotate(6,250,250)"
            >
            <path
                d="M250,123L250,176"
                class="l6"
                transform="rotate(-30,250,123)"
              >
              <animate
                  attributeName="class"
                  values="l1;l2;l3;l4;l5;l6;"
                  begin="0s"
                  dur="12s"
                  repeatCount="indefinite"
              />
            </path
            >  
            <path
                d="M250,123L250,176"
                class="l6"
                transform="rotate(30,250,123)"
              >
              <animate
                  attributeName="class"
                  values="l1;l2;l3;l4;l5;l6;"
                  begin="0s"
                  dur="12s"
                  repeatCount="indefinite"
              />
            </path
            >  
          </g
          >
        </g
        >
        <use
            xlink:href="#lines"
            transform="rotate(0,250,250)"
        />
        <use
            xlink:href="#lines"
            transform="rotate(12,250,250)"
        />
        <use
            xlink:href="#lines"
            transform="rotate(24,250,250)"
        />
        <use
            xlink:href="#lines"
            transform="rotate(36,250,250)"
        />
        <use
            xlink:href="#lines"
            transform="rotate(48,250,250)"
        />
      </g
      >
      <use
          xlink:href="#sixth"
          transform="rotate(60,250,250)"
      />
      <use
          xlink:href="#sixth"
          transform="rotate(120,250,250)"
      />
    </g
    >
    <use
        xlink:href="#half"
        transform="rotate(180,250,250)"
    />
  </g
  >
<metadata
    ><rdf:RDF
      ><cc:Work
        ><dc:format
          >image/svg+xml</dc:format
        ><dc:type
            rdf:resource="http://purl.org/dc/dcmitype/StillImage"
        /><cc:license
            rdf:resource="http://creativecommons.org/licenses/publicdomain/"
        /><dc:publisher
          ><cc:Agent
              rdf:about="http://openclipart.org/"
            ><dc:title
              >Openclipart</dc:title
            ></cc:Agent
          ></dc:publisher
        ><dc:title
          >Animated Star String Art</dc:title
        ><dc:date
          >2014-06-28T22:19:42</dc:date
        ><dc:description
          >REMIX of Star String Art.  Simple color animation added to show how easy it is to add animation to handcoded files.&#xD;\nSVG code can be inserted into an SVG image then rotated, scaled, and positioned where desired. Handcoded SVG for simplicity.</dc:description
        ><dc:source
          >https://openclipart.org/detail/194545/animated-star-string-art-by-jaynick-194545</dc:source
        ><dc:creator
          ><cc:Agent
            ><dc:title
              >JayNick</dc:title
            ></cc:Agent
          ></dc:creator
        ><dc:subject
          ><rdf:Bag
            ><rdf:li
              >star</rdf:li
            ><rdf:li
              >lineart</rdf:li
            ><rdf:li
              >stringart</rdf:li
            ><rdf:li
              >string</rdf:li
            ><rdf:li
              >art</rdf:li
            ><rdf:li
              >remix</rdf:li
            ><rdf:li
              >rework</rdf:li
            ><rdf:li
              >animated</rdf:li
            ><rdf:li
              >draw</rdf:li
            ><rdf:li
              >STEM</rdf:li
            ><rdf:li
              >STEAM</rdf:li
            ><rdf:li
              >STEAMcoded.org</rdf:li
            ><rdf:li
              >coding</rdf:li
            ><rdf:li
              >learn</rdf:li
            ><rdf:li
              >math</rdf:li
            ><rdf:li
              >art</rdf:li
            ><rdf:li
              >science</rdf:li
            ><rdf:li
              >technology</rdf:li
            ><rdf:li
              >engineering</rdf:li
            ><rdf:li
              >handcoded</rdf:li
            ><rdf:li
              >svg</rdf:li
            ><rdf:li
              >icon</rdf:li
            ><rdf:li
              >animation</rdf:li
            ></rdf:Bag
          ></dc:subject
        ></cc:Work
      ><cc:License
          rdf:about="http://creativecommons.org/licenses/publicdomain/"
        ><cc:permits
            rdf:resource="http://creativecommons.org/ns#Reproduction"
        /><cc:permits
            rdf:resource="http://creativecommons.org/ns#Distribution"
        /><cc:permits
            rdf:resource="http://creativecommons.org/ns#DerivativeWorks"
        /></cc:License
      ></rdf:RDF
    ></metadata
  ></svg
>
