<?xml version="1.0" encoding="UTF-8" standalone="no"?>
<!-- Created with Inkscape (http://www.inkscape.org/) -->

<svg
   xmlns:dc="http://purl.org/dc/elements/1.1/"
   xmlns:cc="http://creativecommons.org/ns#"
   xmlns:rdf="http://www.w3.org/1999/02/22-rdf-syntax-ns#"
   xmlns:svg="http://www.w3.org/2000/svg"
   xmlns="http://www.w3.org/2000/svg"
   xmlns:sodipodi="http://sodipodi.sourceforge.net/DTD/sodipodi-0.dtd"
   xmlns:inkscape="http://www.inkscape.org/namespaces/inkscape"
   width="125.40625"
   height="487.84747"
   id="svg6580"
   version="1.1"
   inkscape:version="0.48.2 r9819"
   sodipodi:docname="New document 4">
  <defs
     id="defs6582" />
  <sodipodi:namedview
     id="base"
     pagecolor="#ffffff"
     bordercolor="#666666"
     borderopacity="1.0"
     inkscape:pageopacity="0.0"
     inkscape:pageshadow="2"
     inkscape:zoom="0.98994949"
     inkscape:cx="21.34375"
     inkscape:cy="415.35135"
     inkscape:document-units="px"
     inkscape:current-layer="layer1"
     showgrid="false"
     fit-margin-top="0"
     fit-margin-left="0"
     fit-margin-right="0"
     fit-margin-bottom="0"
     inkscape:window-width="603"
     inkscape:window-height="587"
     inkscape:window-x="37"
     inkscape:window-y="20"
     inkscape:window-maximized="0" />
  <metadata
     id="metadata6585">
    <rdf:RDF>
      <cc:Work
         rdf:about="">
        <dc:format>image/svg+xml</dc:format>
        <dc:type
           rdf:resource="http://purl.org/dc/dcmitype/StillImage" />
        <dc:title></dc:title>
      </cc:Work>
    </rdf:RDF>
  </metadata>
  <g
     inkscape:label="Layer 1"
     inkscape:groupmode="layer"
     id="layer1"
     transform="translate(-553.65625,-288.4375)">
    <path
       sodipodi:nodetypes="ccccccsccccscccccc"
       inkscape:connector-curvature="0"
       id="rect4967"
       d="m 611.22323,373.67618 0,197.01562 0,29.01563 0,29.01562 0,29.01563 0,29.01562 c 0,0 0.33274,19.34948 0,29.01563 -0.33353,9.68908 -2,29.01562 -2,29.01562 l -2,29.01563 c 0,0 8.38176,5.4801 18.28125,0 l -2,-29.07813 c 0,0 -1.66647,-19.36824 -2,-29.07812 -0.33274,-9.687 0,-29.07813 0,-29.07813 l 0,-29.07812 0,-29.07813 0,-29.07812 0,-29.07813 0,-197.07812"
       style="fill:none;stroke:#000000;stroke-width:0.05;stroke-linecap:square;stroke-linejoin:bevel;stroke-miterlimit:4;stroke-opacity:1;stroke-dasharray:none;stroke-dashoffset:0;display:inline" />
    <path
       sodipodi:nodetypes="ccccccccccccccccccssccccccccccccccccccccccccccccccccccccccscscccccccccccc"
       inkscape:connector-curvature="0"
       id="rect4921"
       d="m 631.74404,336.73232 c -2.12537,0.28618 -3.62996,-0.10027 -5.45605,-1.1502 -2.20353,-1.2667 -3.97513,-1.23683 -6.39981,-1.09121 l -0.7668,0.059 m 18.99298,1.79902 2.2414,-0.14746 2.80176,-0.17695 2.80176,-0.14747 2.80176,-0.17695 2.80175,-0.17695 2.80176,-0.14746 2.80176,-0.17696 2.80176,-0.17695 2.80176,-0.17695 2.80176,-0.14746 2.83125,-0.17696 2.80175,-0.17695 2.80176,-0.14746 c 2.7815,-0.16704 5.01367,2.20106 5.01367,5.33809 l 0,21.47031 c 0,3.13703 -2.23217,5.81987 -5.01367,5.98692 l -2.80176,0.14746 -2.80175,0.17695 -2.80176,0.17695 -2.80176,0.14746 -2.80176,0.17696 -2.80176,0.17695 -2.83125,0.17695 -2.80176,0.14746 -2.80175,0.17696 -2.80176,0.17695 -2.80176,0.14746 -2.80176,0.17695 -2.80176,0.17696 -2.80175,0.17695 -2.80176,0.14746 c -2.16194,0.12986 -3.6478,0.47905 -5.63301,1.82852 -2.13508,1.4513 -3.8737,1.83061 -6.39981,1.85801 l -3.53906,0.20644 -3.56855,0.20645 c -2.42687,0.14571 -4.19445,0.17662 -6.39981,-1.09121 -1.87793,-1.07931 -3.40973,-1.21931 -5.63301,-1.12071 l -2.80176,0.14746 -2.80175,0.17696 -2.07782,0.12728 -0.73293,0.0575 -2.78125,0.15625 -2.8125,0.15625 -2.8125,0.1875 -2.78125,0.15625 -2.8125,0.15625 -2.8125,0.1875 -2.78125,0.15625 -2.84375,0.1875 -2.8125,0.15625 -2.78125,0.1875 -2.8125,0.15625 -2.8125,0.15625 c -2.7815,0.16704 -5.00015,-2.20672 -5,-5.34375 l 4.9e-4,-10.51808 4.9e-4,-10.94891 c 0,-3.13703 2.23217,-5.81987 5.01367,-5.98692 l 5.63301,-0.32441 5.60351,-0.32442 5.60352,-0.3539 5.60351,-0.32442 5.60352,-0.3539 5.60352,-0.32442 5.63301,-0.3539 2.80175,-0.14746 c 2.16001,-0.12968 3.6515,-0.47603 5.63301,-1.82852 2.12847,-1.4529 3.84881,-1.65284 6.37032,-1.85801 l 3.27363,-0.17695"
       style="fill:none;stroke:#000000;stroke-width:0.05;stroke-linecap:square;stroke-linejoin:bevel;stroke-miterlimit:4;stroke-opacity:1;stroke-dasharray:none;stroke-dashoffset:0;display:inline" />
    <text
       transform="matrix(0.9416296,-0.05654515,0,1.0619887,0,0)"
       sodipodi:linespacing="100%"
       id="text4929"
       y="375.90326"
       x="654.62506"
       style="font-size:21.32791519px;font-style:normal;font-variant:normal;font-weight:normal;font-stretch:normal;text-align:center;line-height:100%;letter-spacing:0px;word-spacing:0px;text-anchor:middle;fill:#000000;fill-opacity:1;stroke:none;display:inline;font-family:Helvetica CY;-inkscape-font-specification:Helvetica CY"
       xml:space="preserve"><tspan
         y="375.90326"
         x="654.62506"
         id="tspan4931"
         sodipodi:role="line">WILLOW</tspan></text>
    <path
       style="fill:none;stroke:#000000;stroke-width:0.05;stroke-linecap:square;stroke-linejoin:bevel;stroke-miterlimit:4;stroke-opacity:1;stroke-dasharray:none;stroke-dashoffset:0;display:inline"
       d="m 613.3722,296.43598 c -0.75239,1.00104 -1.29491,1.07125 -2.07148,0.82474 l -1.00829,-0.32012 -2.01659,-0.64014 -2.01663,-0.64015 -2.01659,-0.64014 -2.01661,-0.64005 -2.01659,-0.64015 -2.01663,-0.64014 -2.01659,-0.64015 c -1.00002,-0.31748 -1.88697,1.9395 -1.98867,5.06039 l -0.69615,21.36018 c -0.10172,3.12088 0.62146,5.8889 1.62147,6.20638 l 1.00771,0.31984 1.00772,0.31993 1.00771,0.31984 1.00774,0.31993 1.00771,0.31983 1.00771,0.31994 1.00772,0.31983 1.0077,0.31993 1.00772,0.31984 1.00771,0.31993 1.00772,0.31984 1.00773,0.31993 1.00772,0.31984 1.00771,0.31993 1.00772,0.31984 c 0.79817,0.2885 1.34344,0.71017 1.97994,2.11079 0.74748,1.64467 1.37832,1.91968 2.25083,2.19667 l 1.27859,0.40591 1.2786,0.40581 c 0.90416,0.41195 1.53594,0.33531 2.34644,-0.73735 0.75363,-0.99745 1.29831,-1.07012 2.07558,-0.82333 l 1.00771,0.31984 1.00771,0.31993 1.00775,0.31983 1.0077,0.31994 1.00772,0.31983 1.00771,0.31993 1.00772,0.31984 1.0077,0.31993 1.00772,0.31984 1.00771,0.31984 1.00775,0.31993 1.0077,0.31993 1.00772,0.31984 1.00771,0.31983 1.00771,0.31993 c 1.00001,0.31748 1.88696,-1.9395 1.98868,-5.06048 l 0.69614,-21.36008 c 0.10171,-3.12089 -0.62146,-5.889 -1.62148,-6.20639 l -1.00831,-0.32012 -1.00829,-0.32002 -1.00831,-0.32012 -1.00828,-0.32003 -1.00831,-0.32012 -1.00832,-0.32002 -1.00828,-0.32012 -1.00831,-0.32003 -1.00832,-0.32012 -1.00829,-0.32003 -1.00831,-0.32002 -1.00828,-0.32012 -1.00831,-0.32003 -1.00832,-0.32012 -1.00828,-0.32002 c -0.80609,-0.0538 -1.34383,-0.71008 -1.98055,-2.11098 -0.74686,-1.64326 -1.37676,-1.91921 -2.24848,-2.19592 l -1.27625,-0.40515 -1.27624,-0.40506 c -0.90829,-0.23433 -1.53123,-0.33579 -2.33942,0.73952 z"
       id="path4933"
       inkscape:connector-curvature="0"
       sodipodi:nodetypes="sccccccccsssscccccccccccccccscccscccccccccccccccsssscccccccccccccccscccs" />
    <text
       transform="matrix(0.56315222,0.1787636,-0.05727969,1.7575363,0,0)"
       xml:space="preserve"
       style="font-size:12.82120991px;font-style:normal;font-variant:normal;font-weight:normal;font-stretch:normal;text-align:center;line-height:100%;letter-spacing:0px;word-spacing:0px;text-anchor:middle;fill:#000000;fill-opacity:1;stroke:none;display:inline;font-family:Helvetica CY;-inkscape-font-specification:Helvetica CY"
       x="1101.3789"
       y="72.018784"
       id="text4935"
       sodipodi:linespacing="100%"><tspan
         sodipodi:role="line"
         id="tspan4937"
         x="1101.3789"
         y="72.018784">ASPEN</tspan></text>
    <path
       sodipodi:nodetypes="ccssscc"
       inkscape:connector-curvature="0"
       id="rect4969"
       d="m 618.76128,296.71086 0,-3.12655 c 0.68176,-0.51609 1.11357,-1.34898 1.11357,-2.26997 0,-1.56117 -1.26558,-2.82675 -2.82675,-2.82675 -1.56118,0 -2.82675,1.26558 -2.82675,2.82675 0,0.92099 0.4318,1.75388 1.11357,2.26997 l 0,2.01299"
       style="fill:none;stroke:#000000;stroke-width:0.05;stroke-linecap:square;stroke-linejoin:bevel;stroke-miterlimit:4;stroke-opacity:1;stroke-dasharray:none;stroke-dashoffset:0;display:inline" />
  </g>
</svg>
