<?xml version="1.0" encoding="UTF-8" standalone="no"?>
<!-- Created with Inkscape (http://www.inkscape.org/) -->

<svg
   xmlns:dc="http://purl.org/dc/elements/1.1/"
   xmlns:cc="http://creativecommons.org/ns#"
   xmlns:rdf="http://www.w3.org/1999/02/22-rdf-syntax-ns#"
   xmlns:svg="http://www.w3.org/2000/svg"
   xmlns="http://www.w3.org/2000/svg"
   xmlns:sodipodi="http://sodipodi.sourceforge.net/DTD/sodipodi-0.dtd"
   xmlns:inkscape="http://www.inkscape.org/namespaces/inkscape"
   width="500"
   height="500"
   viewBox="0 0 499.99998 500.00001"
   id="svg2"
   version="1.1"
   inkscape:version="0.91 r13725"
   sodipodi:docname="tamarin.svg">
  <defs
     id="defs4">
    <inkscape:path-effect
       effect="spiro"
       id="path-effect4191"
       is_visible="true" />
    <inkscape:path-effect
       effect="spiro"
       id="path-effect4187"
       is_visible="true" />
    <inkscape:path-effect
       effect="spiro"
       id="path-effect4183"
       is_visible="true" />
    <inkscape:path-effect
       effect="spiro"
       id="path-effect4179"
       is_visible="true" />
    <inkscape:path-effect
       effect="spiro"
       id="path-effect4175"
       is_visible="true" />
    <inkscape:path-effect
       effect="spiro"
       id="path-effect4171"
       is_visible="true" />
    <inkscape:path-effect
       effect="spiro"
       id="path-effect4167"
       is_visible="true" />
    <inkscape:path-effect
       effect="powerstroke"
       id="path-effect4163"
       is_visible="true"
       offset_points="0,0.5"
       sort_points="true"
       interpolator_type="CubicBezierJohan"
       interpolator_beta="0.2"
       start_linecap_type="zerowidth"
       linejoin_type="round"
       miter_limit="4"
       end_linecap_type="zerowidth"
       cusp_linecap_type="round" />
    <inkscape:path-effect
       effect="spiro"
       id="path-effect4161"
       is_visible="true" />
    <inkscape:path-effect
       effect="powerstroke"
       id="path-effect4157"
       is_visible="true"
       offset_points="0,0.5"
       sort_points="true"
       interpolator_type="CubicBezierJohan"
       interpolator_beta="0.2"
       start_linecap_type="zerowidth"
       linejoin_type="round"
       miter_limit="4"
       end_linecap_type="zerowidth"
       cusp_linecap_type="round" />
    <inkscape:path-effect
       effect="spiro"
       id="path-effect4155"
       is_visible="true" />
    <inkscape:path-effect
       effect="powerstroke"
       id="path-effect4151"
       is_visible="true"
       offset_points="10.929869,-17.602973"
       sort_points="true"
       interpolator_type="Linear"
       interpolator_beta="0.2"
       start_linecap_type="zerowidth"
       linejoin_type="round"
       miter_limit="4"
       end_linecap_type="zerowidth"
       cusp_linecap_type="round" />
    <inkscape:path-effect
       effect="spiro"
       id="path-effect4149"
       is_visible="true" />
    <filter
       inkscape:collect="always"
       style="color-interpolation-filters:sRGB"
       id="filter4264"
       x="-0.090166013"
       width="1.180332"
       y="-0.062339127"
       height="1.1246783">
      <feGaussianBlur
         inkscape:collect="always"
         stdDeviation="11.693888"
         id="feGaussianBlur4266" />
    </filter>
  </defs>
  <sodipodi:namedview
     id="base"
     pagecolor="#ffffff"
     bordercolor="#666666"
     borderopacity="1.0"
     inkscape:pageopacity="0.0"
     inkscape:pageshadow="2"
     inkscape:zoom="1"
     inkscape:cx="141.07438"
     inkscape:cy="304.2824"
     inkscape:document-units="px"
     inkscape:current-layer="layer1"
     showgrid="false"
     units="px"
     inkscape:window-width="1366"
     inkscape:window-height="705"
     inkscape:window-x="-8"
     inkscape:window-y="-8"
     inkscape:window-maximized="1" />
  <metadata
     id="metadata7">
    <rdf:RDF>
      <cc:Work
         rdf:about="">
        <dc:format>image/svg+xml</dc:format>
        <dc:type
           rdf:resource="http://purl.org/dc/dcmitype/StillImage" />
        <dc:title></dc:title>
      </cc:Work>
    </rdf:RDF>
  </metadata>
  <g
     inkscape:label="Layer 1"
     inkscape:groupmode="layer"
     id="layer1"
     transform="translate(0,-552.36216)">
    <path
       style="fill:#bfb394;fill-opacity:1;fill-rule:evenodd;stroke:#000000;stroke-width:0.80933523px;stroke-linecap:butt;stroke-linejoin:miter;stroke-opacity:1"
       d="m 245.18115,644.63902 c 5.97955,23.49215 31.87876,39.36037 43.3481,61.19377 11.45204,21.80044 20.24991,51.75134 16.47939,77.87598 -6.03821,41.83663 -32.15952,86.5663 -74.42938,101.81953 -29.4427,10.6245 -72.50906,0.4161 -93.02292,-18.64606 -20.95736,-19.47428 -38.13142,-48.31455 -64.18991,-57.28703 -9.56818,-3.29453 -23.18553,-1.36562 -31.74391,4.33304 -12.150654,8.09061 -18.453573,23.19241 -19.200967,36.64218 -0.659911,11.87544 7.705397,22.85815 13.284477,33.67194 5.90785,11.45103 12.76765,22.64033 21.22835,32.75643 9.82457,11.7469 20.92448,22.9305 33.89751,31.9667 7.23175,5.0372 16.17596,7.7835 24.00515,12.0626 11.62365,6.3531 21.28888,15.8841 34.05528,20.1836 26.0895,8.7864 55.07351,11.3715 82.94912,10.1268 26.99469,-1.2055 56.18962,-3.8025 78.80758,-16.9128 29.82115,-17.2857 60.27399,-41.1178 83.78531,-70.1185 14.94821,-18.4383 9.01817,-32.62459 18.6961,-46.69208 8.02955,-11.67148 15.93824,-24.83933 19.02741,-38.85762 6.49461,-29.47185 7.74292,-58.27042 4.75685,-87.27589 -1.30134,-12.64073 -5.29939,-25.02641 -9.80558,-37.07548 -2.8276,-7.56068 -7.05085,-14.65513 -10.74435,-21.91681 -5.61823,-11.04591 -10.39389,-22.50678 -17.36291,-32.93114 -5.96422,-8.92138 -12.46772,-17.76811 -20.75502,-25.08972 -16.90963,-14.93919 -34.39186,-33.66677 -57.90266,-37.376 -16.56395,-2.61323 -34.41928,4.14287 -48.54674,12.23736 -9.73911,5.58014 -17.80589,14.14967 -22.41164,23.58014 -4.77322,9.77338 -6.84879,21.34091 -4.20464,31.72906 z"
       id="path4204"
       inkscape:connector-curvature="0"
       sodipodi:nodetypes="assassaaaaaaaassssaaaaaaaaa" />
    <path
       style="fill:#958872;fill-opacity:1;fill-rule:evenodd;stroke:#000000;stroke-width:0.80933523px;stroke-linecap:butt;stroke-linejoin:miter;stroke-opacity:1"
       d="m 253.27489,606.03999 c 4.52656,-6.90426 11.57534,-14.3511 20.99599,-17.9715 0,0 -11.84469,-4.96453 -17.35469,-3.0936 -4.37921,1.48698 -7.75974,5.88072 -8.40486,9.99609 -0.6131,3.9112 4.76356,11.06901 4.76356,11.06901 z"
       id="path4206"
       inkscape:connector-curvature="0"
       sodipodi:nodetypes="ssaas" />
    <path
       style="fill:#958872;fill-opacity:1;fill-rule:evenodd;stroke:#000000;stroke-width:0.80933523px;stroke-linecap:butt;stroke-linejoin:miter;stroke-opacity:1"
       d="m 257.57421,584.08079 c 2.15946,-1.93285 -1.76166,-6.40839 -4.65053,-7.93607 -3.83771,-2.02946 -9.44866,-1.65337 -13.40658,0.18597 -4.36688,2.02939 -8.78224,6.2992 -8.59863,10.66488 0.16671,3.96369 4.42033,7.71643 8.59863,9.14132 2.89201,0.98624 9.00234,1.4246 9.20416,-1.15876 0.48664,-6.22913 4.02304,-6.5743 8.85295,-10.89734 z"
       id="path4208"
       inkscape:connector-curvature="0"
       sodipodi:nodetypes="saaaass" />
    <path
       style="fill:#958872;fill-opacity:1;fill-rule:evenodd;stroke:#000000;stroke-width:0.80933523px;stroke-linecap:butt;stroke-linejoin:miter;stroke-opacity:1"
       d="m 233.3931,592.19568 c -5.79636,-7.96416 -0.12555,-11.48612 5.6759,-16.05096 0,0 -11.94531,-6.18409 -18.51328,-6.00124 -4.36387,0.12149 -9.48578,1.49745 -11.99367,4.66365 -2.47507,3.12475 -2.88055,8.05511 -0.85987,11.42666 1.82124,3.03876 6.34429,4.21138 10.06403,5.20011 4.99679,1.32817 17.92396,3.91794 15.62689,0.76178 z"
       id="path4210"
       inkscape:connector-curvature="0"
       sodipodi:nodetypes="ssaaaas" />
    <path
       style="fill:#958872;fill-opacity:1;fill-rule:evenodd;stroke:#000000;stroke-width:0.80933523px;stroke-linecap:butt;stroke-linejoin:miter;stroke-opacity:1"
       d="m 218.02053,591.56623 c 7.0161,1.88679 -40.96732,6.34828 -59.33051,10.66488 -5.65042,1.32823 -12.99616,1.97883 -16.9954,-1.61655 -2.82856,-2.54292 -3.61314,-7.86404 -1.11418,-10.66488 3.9442,-4.42066 12.54221,-2.0565 18.89275,-2.37116 27.37342,-1.35633 49.82676,-13.77345 48.14018,-9.2808 -3.20676,8.54206 3.35271,11.3714 10.40716,13.26851 z"
       id="path4212"
       inkscape:connector-curvature="0"
       sodipodi:nodetypes="ssaasss" />
    <path
       style="fill:#737366;fill-opacity:1;fill-rule:evenodd;stroke:none;stroke-width:1px;stroke-linecap:butt;stroke-linejoin:miter;stroke-opacity:1;filter:url(#filter4264)"
       d="m 333.99998,616.36216 c 27.78079,28.61355 53.26403,63.00598 67,101 14.70553,40.67585 18.44988,85.97703 14,129 -4.32715,41.8363 -15.94107,84.82492 -39,120 -21.23189,32.38804 -49.57965,67.02524 -87,77.00004 -41.43795,11.0457 -88.49628,-5.2014 -126,-26 -17.31955,-9.605 -21.59573,-27.62866 -41,-43.00004 -4.46484,-3.53689 -8.93913,11.12087 -6,16 12.99845,21.57824 30.91823,30.43754 50,40.00004 25.65958,12.8589 54.77965,18.7593 83.33333,21.6667 15.05329,1.5327 31.29196,3.3049 45.33334,-2.3334 33.9205,-13.6207 61.29822,-42.2531 83,-71.66667 20.8846,-28.30598 33.77447,-62.54716 42.33333,-96.66667 6.18306,-24.64848 6.90503,-50.60396 6,-76 -1.03253,-28.97394 -5.1097,-58.10199 -13,-86 -6.50385,-22.99589 -15.05381,-45.91251 -28,-66 -12.26855,-19.03606 -30.45734,-48.83858 -46,-50 -5.07397,-0.37915 -8.54432,9.34943 -5,13 z"
       id="path4214"
       inkscape:connector-curvature="0"
       sodipodi:nodetypes="saaaaassaaaaaaaass"
       transform="matrix(0.85986245,0,0,0.76177706,2.195076,148.69787)" />
  </g>
</svg>
