<?xml version="1.0" encoding="utf-8"?>
<svg version="1.1" id="Layer_1" xmlns="http://www.w3.org/2000/svg" xmlns:xlink="http://www.w3.org/1999/xlink" x="0px" y="0px"
	 viewBox="0 0 1634 1650.27" enable-background="new 0 0 1634 1650.27" xml:space="preserve">
<g>
	<g>
		<path d="M583.927,86.761c158.477-73.167,345.339-81.211,510.08-23.976c74.095,25.137,143.163,63.654,205.425,110.988
			c23.667-35.964,46.87-72.161,70.923-107.816c4.487-10.751,19.027-14.463,27.921-5.956c5.569,8.044,5.956,18.33,8.199,27.921
			c16.938,106.27,34.34,212.54,51.511,318.81c4.718,38.44,15.469,76.338,16.165,115.242c-2.862,2.321-8.662,7.039-11.524,9.359
			c-137.207-6.806-274.415-17.557-411.545-26.452c-17.326,3.094-31.479-20.109-16.398-31.711
			c29.081-31.247,61.256-59.478,91.188-89.951c-120.656-85.851-285.166-106.812-422.141-49.268
			c-13.535,4.408-35.192,19.877-43.699,0.541c-28.308-70.305-53.599-141.925-80.901-212.617
			C574.181,110.196,568.458,92.794,583.927,86.761z"/>
		<g>
			<path fill="#FFFFFF" d="M739.485,125.999c34.559,1.417,47.045-0.035,58.23,10.975c17.673,17.512,15.606,65.485-28.812,63.663
				l-32.423-1.329L739.485,125.999z M761.145,145.492l-1.483,36.16c8.741,0.358,15.594,1.492,20.529-3.452
				c7.455-7.573,9.528-31.54-12.591-32.442L761.145,145.492z"/>
			<path fill="#FFFFFF" d="M882.987,136.805l-1.969,17.711l-38.155-4.242l-1.009,9.075l34.547,3.841l-1.884,16.946l-34.547-3.841
				l-1.191,10.714l39.139,4.351l-2.054,18.476l-61.441-6.831l8.106-72.92L882.987,136.805z"/>
			<path fill="#FFFFFF" d="M934.661,190.933l21.958,4.058c-10.56,42.011-77.242,28.148-68.261-20.446
				c9.156-49.556,75.652-36.031,70.966,3.384l-21.525-3.978c0.065-7.22-3.145-11.432-9.635-12.631
				c-18.717-3.459-25.907,36.263-7.445,39.678C927.426,202.237,932.074,198.884,934.661,190.933z"/>
			<path fill="#FFFFFF" d="M1017.956,165.166l7.19,77.87l-22.103-5.91l-0.702-11.005l-22.848-6.109l-6.099,9.186l-21.997-5.881
				l45.093-63.89L1017.956,165.166z M1001.623,209.646c-0.846-15.223-0.697-15.987-0.345-24.687
				c-2.405,4.534-9.533,15.731-12.938,21.135L1001.623,209.646z"/>
			<path fill="#FFFFFF" d="M1053.96,175.427c32.521,11.779,44.863,14.161,52.204,28.033c11.561,22.022-4.87,67.145-46.679,52.002
				l-30.511-11.05L1053.96,175.427z M1068.729,200.547l-12.324,34.027c8.102,2.935,14.379,6.149,20.614,2.903
				c9.553-5.055,18.485-27.23-2.215-34.73L1068.729,200.547z"/>
			<path fill="#FFFFFF" d="M1188.006,230.821l-7.562,16.136l-34.762-16.29l-3.874,8.267l31.475,14.75l-7.234,15.439l-31.476-14.749
				l-4.574,9.761l35.659,16.71l-7.889,16.833l-55.977-26.231l31.132-66.438L1188.006,230.821z"/>
			<path fill="#FFFFFF" d="M1259.68,272.127l-37.337,63.16l-18.465-10.916c0.092-39.943-0.248-34.685,1.041-48.452
				c-5.588,11.076-6.736,12.694-20.927,36.698l-18.654-11.028l37.336-63.16l19.128,11.307c-0.4,35.414-0.335,39.696-1.106,47.265
				c2.546-6.121,8.954-16.66,7.902-14.879l12.427-21.022L1259.68,272.127z"/>
			<path fill="#FFFFFF" d="M1284.865,344.896l17.961,13.268c-27.898,33.133-81.769-8.534-52.403-48.287
				c29.921-40.5,83.812,0.726,62.31,34.135l-17.607-13.007c3.223-6.462,2.182-11.653-3.126-15.576
				c-15.309-11.309-39.179,21.247-24.077,32.405C1273.41,351.887,1279.056,350.908,1284.865,344.896z"/>
			<path fill="#FFFFFF" d="M1384.968,372.383l-11.966,13.205l-28.449-25.777l-6.13,6.765l25.758,23.34l-11.448,12.636l-25.759-23.34
				l-7.238,7.988l29.182,26.442l-12.482,13.776l-45.812-41.51l49.265-54.371L1384.968,372.383z"/>
		</g>
	</g>
	<g>
		<path d="M348.725,398.61c8.972-11.447,26.22-5.646,30.242,7.425c62.338,120.965,123.053,242.781,185.083,363.979
			c4.64,11.06,14.773,24.209,5.569,36.119c-9.668,11.447-23.745,3.249-35.114,0.851c-34.495-10.209-68.913-20.573-103.408-30.395
			c-4.718,141.462,51.82,284.701,155.77,381.458c16.397,15.778,35.346,28.695,51.742,44.705c4.95,13.535-6.806,24.596-13.071,35.423
			c-42.462,58.782-82.989,119.032-125.993,177.504c-9.745,14.308-24.518,1.701-34.031-5.26
			c-118.645-91.497-207.203-220.042-254.924-361.736c-34.882-101.861-46.251-210.529-40.219-317.65
			c-41.765-2.011-83.53-3.326-125.064-6.806c-13.845,0.851-16.552-13.613-20.419-23.126
			C131.544,598.93,240.676,499.234,348.725,398.61z"/>
		<g>
			<path fill="#FFFFFF" d="M471.334,1306.79c-21.345-27.216-30.551-35.795-29.431-51.429c1.858-24.807,39.697-54.37,67.137-19.384
				l20.026,25.534L471.334,1306.79z M472.113,1277.66l28.477-22.333c-5.318-6.781-8.94-12.832-15.947-13.382
				c-10.547-0.756-30.217,13.165-16.517,30.631L472.113,1277.66z"/>
			<path fill="#FFFFFF" d="M386.935,1189.043l14.929-9.73l20.961,32.163l7.649-4.985l-18.979-29.121l14.284-9.31l18.979,29.121
				l9.031-5.886l-21.502-32.992l15.574-10.15l33.754,51.792l-61.468,40.061L386.935,1189.043z"/>
			<path fill="#FFFFFF" d="M371.115,1114.336l10.063,18.569c-12.81,6.941,12.014,29.359,6.304,6.092
				c-13.874-40.496,13.044-47.663,26.753-41.711c17.298,7.511,36.156,44.602,9.755,59.21l-10.745-19.826
				c5.4-3.427,6.37-8.331,2.911-14.714c-2.9-5.351-6.155-7.05-9.766-5.092c-8.839,4.788,15.156,37.705-8.038,50.272
				C373.004,1180.873,341.484,1130.776,371.115,1114.336z"/>
			<path fill="#FFFFFF" d="M320.473,1056.227l17.396-7.714l8.293,18.703l49.675-22.027l9.097,20.514l-49.675,22.027l8.338,18.805
				l-17.396,7.714L320.473,1056.227z"/>
			<path fill="#FFFFFF" d="M315.7,1044.224c-12.742-37.015-16.36-44.609-14.681-53.462c3.359-17.045,24.426-21.675,34.19-11.188
				c-0.255-15.037,23.058-17.513,27.703-23.612l7.251,21.063c-9.538,6.941-24.947,6.949-19.906,21.591l3.072,8.924l24.442-8.414
				l7.304,21.218L315.7,1044.224z M324.517,1017.457l14.146-4.869c-3.984-11.573-5.435-20.814-14.158-17.812
				C315.913,997.733,321.231,1007.909,324.517,1017.457z"/>
			<path fill="#FFFFFF" d="M273.904,901.452c44.558-10.831,54.671-15.112,65.854-8.978c14.473,7.977,23.194,39.314,10.955,53.918
				c-6.972,8.264-16.591,9.249-61.011,20.047l-5.3-21.806c46.4-11.279,56.043-10.215,52.546-24.601
				c-3.211-13.208-11.664-7.977-57.742,3.224L273.904,901.452z"/>
			<path fill="#FFFFFF" d="M308.221,833.961l-3.246-22.094c43.161-3.558,51.58,64.02,2.679,71.208
				c-49.656,7.295-58.697-59.938-19.702-68.262l3.182,21.657c-6.855,2.269-9.805,6.667-8.846,13.196
				c2.783,18.943,42.671,12.707,39.957-5.76C321.254,837.161,316.581,833.845,308.221,833.961z"/>
			<path fill="#FFFFFF" d="M256.48,746.17l18.996-1.142l1.227,20.424l54.242-3.26l1.346,22.4l-54.242,3.259l1.233,20.533
				l-18.996,1.141L256.48,746.17z"/>
			<path fill="#FFFFFF" d="M256.756,712.282l73.37-0.005l0.001,22.439l-73.37,0.006L256.756,712.282z"/>
			<path fill="#FFFFFF" d="M269.359,635.738c15.314-12.713,42.561-10.765,55.755,3.741c12.913,14.201,11.953,40.595-3.665,53.775
				c-15.645,13.209-42.988,10.643-55.813-3.689C253.064,675.515,253.437,648.962,269.359,635.738z M279.826,674.188
				c6.482,5.491,21.86,6.957,29.694,1.908c8.117-5.23,12.499-24.309-14.097-26.067C273.111,648.554,271.454,667.1,279.826,674.188z"
				/>
			<path fill="#FFFFFF" d="M273.111,545.545l72.512,11.19l-3.271,21.199c-37.421,14.88-32.315,13.182-45.37,17.04
				c12.339,1.071,14.225,1.528,41.846,5.79l-3.305,21.417l-72.511-11.19l3.389-21.96c33.059-12.802,36.977-14.441,44.291-16.538
				c-6.621-0.087-18.795-2.121-16.75-1.806l-24.134-3.724L273.111,545.545z"/>
		</g>
	</g>
	<g>
		<path d="M1346.147,847.358c2.166-14.85-0.077-42.539,23.048-38.208c72.317,7.271,144.401,17.325,216.639,25.832
			c10.596,0.232,25.291,5.569,23.049,19.182c-18.176,259.874-176.189,508.147-410.926,624.703
			c18.871,39.755,39.522,78.813,57.233,119.187c9.127,13.458-6.032,32.407-20.882,25.679
			c-131.949-45.865-263.509-92.89-395.148-139.528c-14.386-2.475-23.126-17.943-13.69-30.319
			c70.77-121.739,142.544-242.935,214.319-364.056c4.873-15.391,28.618-16.939,32.794-0.387
			c11.989,42.694,20.883,86.238,32.407,129.164C1238.871,1143.042,1329.982,999.724,1346.147,847.358z"/>
		<g>
			<path fill="#FFFFFF" d="M1465.172,943.008l-6.886,21.242c-40.257-15.938-17.853-80.258,29.17-65.013
				c47.892,15.524,25.908,79.714-12.606,69.92l6.751-20.823c7.15,1.006,11.744-1.628,13.779-7.906
				c5.87-18.104-32.578-30.417-38.368-12.554C1454.908,934.361,1457.627,939.406,1465.172,943.008z"/>
			<path fill="#FFFFFF" d="M1463.072,1043.441c-18.744,6.804-43.711-4.285-51.213-22.356c-7.357-17.728,2.463-42.247,21.616-49.376
				c19.145-7.132,44.041,4.468,51.286,22.327C1491.827,1011.457,1482.566,1036.357,1463.072,1043.441z M1466.21,1003.716
				c-4.256-7.379-18.242-13.929-27.304-11.827c-9.344,2.167-20.079,18.612,4.462,29.296
				C1463.866,1030.11,1471.695,1013.215,1466.21,1003.716z"/>
			<path fill="#FFFFFF" d="M1460.336,1069.422c-19.07,34.165-22.32,41.94-30.041,46.598c-14.945,8.869-32.442-3.749-31.14-18.012
				c-11.034,10.223-28.418-5.499-36.071-4.891l10.858-19.452c11.517,2.474,21.818,13.95,29.364,0.431l4.6-8.241l-22.572-12.599
				l10.937-19.594L1460.336,1069.422z M1434.511,1080.707l-13.063-7.292c-5.946,10.654-11.875,17.937-3.827,22.429
				C1425.555,1100.273,1429.589,1089.524,1434.511,1080.707z"/>
			<path fill="#FFFFFF" d="M1418.883,1141.885c-22.38,32.124-26.377,39.522-34.516,43.387c-15.688,7.313-31.922-6.885-29.2-21.012
				c-11.995,9.076-27.732-8.289-35.407-8.446l12.734-18.278c11.194,3.592,20.328,16.044,29.176,3.342l5.395-7.744l-21.21-14.777
				l12.827-18.412L1418.883,1141.885z M1392.065,1150.551l-12.274-8.552c-6.941,9.964-13.614,16.658-6.034,21.939
				C1381.213,1169.131,1386.293,1158.837,1392.065,1150.551z"/>
			<path fill="#FFFFFF" d="M1327.475,1259.833c-34.648-29.764-44.158-35.602-45.695-48.261
				c-1.961-16.408,18.406-41.769,37.411-40.342c10.779,0.846,17.189,8.084,51.864,37.872l-14.623,17.022
				c-36.221-31.117-40.981-39.57-50.628-28.34c-8.857,10.311,0.322,14.127,36.292,45.028L1327.475,1259.833z"/>
			<path fill="#FFFFFF" d="M1315.857,1271.83c-22.872,21.826-31.991,31.95-41.634,33.648c-19.999,3.515-43.333-22.661-19.688-45.224
				l10.079-9.618l-15.644-16.393l16.234-15.492L1315.857,1271.83z M1287.32,1274.43l-10.859-11.38
				c-7.709,7.357-15.47,12.469-9.009,19.241C1274.16,1289.319,1279.939,1281.474,1287.32,1274.43z"/>
			<path fill="#FFFFFF" d="M1212.615,1361.517l-11.813-14.92l16.041-12.7l-33.733-42.603l17.593-13.93l33.732,42.603l16.127-12.769
				l11.813,14.919L1212.615,1361.517z"/>
			<path fill="#FFFFFF" d="M1184.244,1380.714l-41.639-60.409l18.476-12.735l41.639,60.409L1184.244,1380.714z"/>
			<path fill="#FFFFFF" d="M1113.594,1413.599c-19.121-5.528-32.816-29.163-28.226-48.227c4.494-18.661,26.87-32.694,46.547-27.177
				c19.671,5.509,32.965,29.546,28.302,48.246C1155.656,1404.735,1133.478,1419.342,1113.594,1413.599z M1139.523,1383.341
				c0.901-8.441-6.519-21.991-15.103-25.637c-8.827-3.752-27.189,3.218-13.646,26.305
				C1122.123,1403.352,1138.367,1394.203,1139.523,1383.341z"/>
			<path fill="#FFFFFF" d="M1036.144,1460.785l-30.89-66.55l19.456-9.031c33.134,22.895,28.906,19.599,39.336,28.311
				c-5.952-10.867-6.602-12.656-18.382-38.036l19.656-9.123l30.89,66.55l-20.155,9.356c-28.989-20.419-32.526-22.771-38.32-27.691
				c3.612,5.589,8.652,16.815,7.784,14.941l10.281,22.151L1036.144,1460.785z"/>
		</g>
	</g>
</g>
</svg>
