<?xml version="1.0" encoding="utf-8"?>

<!DOCTYPE svg PUBLIC "-//W3C//DTD SVG 1.1//EN" "http://www.w3.org/Graphics/SVG/1.1/DTD/svg11.dtd">
<svg version="1.1" id="Layer_1" xmlns="http://www.w3.org/2000/svg" xmlns:xlink="http://www.w3.org/1999/xlink" x="0px" y="0px"
	 viewBox="0 0 1598.0001 1674.2966" enable-background="new 0 0 1598.0001 1674.2966" xml:space="preserve">
<g>
	<path d="M938.0342,41.6837c-3.2631,1.2267-6.3584,2.9606-8.9349,5.3267c-6.0669,5.5722-7.3467,13.0734-7.7589,20.9229
		c-2.4899,47.4213-9.2135,94.3617-15.7548,141.326c-6.4016,45.959-19.0609,92.4116-38.1329,134.7169
		c-9.2399,20.4959-21.0118,39.9689-35.542,57.1594c-14.3727,17.0041-31.4102,31.1233-48.7621,44.9522
		c-34.321,27.3528-67.1994,54.9141-85.1221,96.068c-9.2362,21.2083-18.0904,42.57-27.0577,63.8814h352.4758
		c1.8596-7.806,4.1031-15.5224,6.4478-23.1141c6.4985-21.0411,15.8911-42.0379,25.4006-61.8696
		c9.8174-20.4725,19.5182-40.9708,29.6573-61.2924c10.4905-21.0262,22.2054-41.8697,30.7574-63.7902
		c8.1296-20.8386,13.2183-41.8942,18.1836-63.608c5.1816-22.6602,6.7756-46.8992,6.61-70.1579
		c-0.1644-23.0843-1.1744-47.4232-6.8992-69.8788c-5.5642-21.8264-11.1898-43.1621-22.0461-63.0954
		c-10.2686-18.8535-24.295-35.3516-40.599-49.259c-16.6892-14.2358-36.2942-25.892-57.171-32.76
		c-6.0403-1.9872-12.1879-3.5118-18.3417-5.0928c-4.6175-1.1862-11.0048-1.0004-15.2397-2.8621
		c-8.551-3.7594-22.918-1.3458-32.6588-1.3458C946.1933,40.6192,940.5791,40.728,938.0342,41.6837z"/>
	<path fill="#DD0000" d="M643.4144,669.2181c-19.166,41.5858-40.9031,82.3144-65.4102,121.0047
		c-22.4857,35.4982-49.3932,73.2615-85.2824,96.3135c-8.9233,5.7317-18.5251,10.6006-28.98,12.7452
		c-10.2262,2.0978-20.8022,1.1898-31.1709,1.2479c-2.8391,0.016-11.2083-1.5125-13.1403,1.4564
		c-1.6519,2.5385-0.7331,7.3364-0.7331,10.1909c-0.0001,11.7339-0.0001,23.4681-0.0002,35.2019
		c-0.0003,75.8492-0.0034,151.6984-0.0083,227.5476h1075.8757c-0.0215-1.0374-0.025-2.0763,0.0093-3.1183
		c0.3467-10.5059,6.3352-19.3816,12.3923-27.5266c12.9773-17.4506,28.7682-32.5972,41.8171-49.9866
		c6.161-8.2098,12.502-17.6943,13.421-28.1908c0.8689-9.9248-3.2064-19.7444-7.5377-28.457
		c-9.422-18.9529-21.7288-36.4316-32.0764-54.8759c-5.4664-9.7444-11.155-20.2791-12.8127-31.4687
		c-1.649-11.132,2.6783-20.1952,8.5558-29.3254c11.6516-18.1001,26.6945-34.0513,37.3606-52.7695
		c5.5326-9.7095,7.7079-18.8025,6.5482-29.9827c-1.0371-9.9962-4.9054-20.2032-8.2933-29.6169
		c-7.2875-20.2487-19.2413-39.6003-31.7428-57.0129c-12.3021-17.1349-26.5739-34.6874-43.0979-47.9481
		c-17.0033-13.6452-37.469-19.3517-58.6373-22.6949c-23.4685-3.7066-47.6465-4.6996-71.3396-6.2188
		c-47.9387-3.0735-95.8958-3.3595-143.9147-3.4178c-48.6292-0.0589-97.3842-0.2509-145.974,1.834
		c-6.708,0.2875-13.4172,0.5602-20.1306,0.6993c-3.6163,0.0749-9.6516,1.3477-12.8568-0.9187
		c-6.3705-4.5051-7.1505-19.6472-7.4667-26.6266c-0.6307-13.9136,1.4308-27.7257,4.6563-41.2661H670.9689
		C662.0583,627.2141,653.036,648.3412,643.4144,669.2181z"/>
	<path fill="#DD0000" d="M355.888,1083.1537c-0.006-48.819,1.2141-97.8182-0.091-146.6182
		c-0.5624-21.026-7.8299-40.3746-24.5755-53.8088c-16.2293-13.0201-35.3556-14.0414-55.2756-14.086
		c-48.8468-0.1096-97.694-0.1448-146.5405-0.006c-22.1007,0.0627-44.9839-2.0689-64.3625,10.5956
		c-7.8086,5.103-14.6838,11.6271-19.6979,19.5266c-2.302,3.6269-4.2008,7.5029-5.691,11.531
		c-0.7973,2.1548-1.3633,8.8523-4.1986,9.3376c0,85.1002,0,170.2004,0,255.3007h320.4407
		C355.8937,1144.3353,355.8918,1113.7445,355.888,1083.1537z"/>
	<path fill="#FFCE00" d="M39.5635,1564.5327c6.1768,16.7498,21.8483,31.1437,38.5777,36.9537
		c9.8326,3.4149,19.8038,3.4703,30.087,3.4769c11.6263,0.0079,23.2526,0.0126,34.8791,0.0154
		c48.4432,0.0117,96.8863-0.0101,145.3297,0.0105c20.0877,0.0087,38.8983-7.2843,52.1737-22.7972
		c14.1503-16.5356,15.3351-36.5291,15.3298-57.3278c-0.0126-49.079-0.0206-98.1578-0.0263-147.2367
		c-0.0079-67.5671-0.0125-135.1343-0.018-202.7014H35.4555c0,34.397,0,68.7939,0,103.1906c0,48.9744,0,97.9487,0,146.923
		c0,24.4869,0,48.9741,0,73.4612c0,12.7335,0,25.4668,0,38.2c0,5.8772,0,11.7539,0,17.6309
		C38.563,1554.9634,38.6863,1562.1532,39.5635,1564.5327z"/>
	<path fill="#FFCE00" d="M418.6059,1534.0779c-0.0029,6.2587-0.8541,13.1941,0.1161,19.3799c0.6304,4.019,4.1724,4.4813,7.555,5.153
		c11.0413,2.1932,22.113,4.238,33.1833,6.2788c22.7644,4.1962,45.5389,8.3269,68.2952,12.5691
		c45.1213,8.412,90.3525,16.3433,135.4031,25.1105c22.1171,4.3042,44.3047,8.3453,66.4678,12.4087
		c10.5345,1.9315,21.4516,4.7047,32.1303,5.4781c10.8254,0.7838,21.6307,1.2294,32.4453,2.2919
		c46.918,4.6094,94.2143,7.6373,141.3221,9.3118c95.432,3.3925,191.3375,9.0658,286.6816,0.8591
		c22.6234-1.9474,45.8047-4.6561,67.8291-10.1934c21.4543-5.3938,39.9675-14.2407,58.1051-26.9895
		c18.0392-12.6798,35.0697-27.0179,50.2916-42.9867c14.0356-14.7244,30.7903-32.7419,36.5684-52.7582
		c3.2704-11.3286,1.8633-23.8439,1.751-35.4769c-0.1116-11.5427-0.1973-23.0856-0.2794-34.6285
		c-0.1604-22.4855,13.2577-37.6364,28.4249-52.6644c15.7329-15.5884,32.891-30.3417,46.1477-48.2015
		c13.8059-18.5992,20.7233-37.4396,14.3055-60.4083c-6.1251-21.923-16.6991-42.9774-24.4464-64.3966
		c-3.4054-9.415-6.1304-19.2378-6.3385-29.2885H418.6891C418.6812,1294.6434,418.6635,1414.3606,418.6059,1534.0779z"/>
</g>
</svg>
