<?xml version="1.0" encoding="UTF-8" standalone="no"?>
<!-- Created with Inkscape (http://www.inkscape.org/) -->

<svg
   xmlns:dc="http://purl.org/dc/elements/1.1/"
   xmlns:cc="http://creativecommons.org/ns#"
   xmlns:rdf="http://www.w3.org/1999/02/22-rdf-syntax-ns#"
   xmlns:svg="http://www.w3.org/2000/svg"
   xmlns="http://www.w3.org/2000/svg"
   xmlns:xlink="http://www.w3.org/1999/xlink"
   xmlns:sodipodi="http://sodipodi.sourceforge.net/DTD/sodipodi-0.dtd"
   xmlns:inkscape="http://www.inkscape.org/namespaces/inkscape"
   id="svg5444"
   sodipodi:docname="todayskanji_06.png"
   viewBox="0 0 1000 500"
   version="1.1"
   inkscape:version="0.48.2 r9819"
   width="100%"
   height="100%">
  <defs
     id="defs5446">
    <linearGradient
       id="linearGradient7215"
       y2="130.07001"
       gradientUnits="userSpaceOnUse"
       x2="569.34998"
       y1="286.38"
       x1="125.89"
       inkscape:collect="always">
      <stop
         id="stop7035"
         style="stop-color:#867850"
         offset="0" />
      <stop
         id="stop7041"
         style="stop-color:#a08872"
         offset=".35474" />
      <stop
         id="stop7037"
         style="stop-color:#867850"
         offset="1" />
    </linearGradient>
    <linearGradient
       id="linearGradient7217"
       y2="335.09"
       gradientUnits="userSpaceOnUse"
       x2="411.64001"
       y1="330.39001"
       x1="412.44"
       inkscape:collect="always">
      <stop
         id="stop7104"
         style="stop-color:#b8b8b8"
         offset="0" />
      <stop
         id="stop7110"
         style="stop-color:#e3e3e3"
         offset=".5" />
      <stop
         id="stop7106"
         style="stop-color:#b9b9b9"
         offset="1" />
    </linearGradient>
    <linearGradient
       id="linearGradient7219"
       y2="335.09"
       gradientUnits="userSpaceOnUse"
       x2="411.64001"
       gradientTransform="matrix(0.90747,-0.42013,0.42013,0.90747,-96.493,204.08)"
       y1="330.39001"
       x1="412.44"
       inkscape:collect="always">
      <stop
         id="stop7104-7"
         style="stop-color:#b8b8b8"
         offset="0" />
      <stop
         id="stop7110-8"
         style="stop-color:#e3e3e3"
         offset=".5" />
      <stop
         id="stop7106-8"
         style="stop-color:#b9b9b9"
         offset="1" />
    </linearGradient>
    <linearGradient
       id="linearGradient7221"
       y2="335.09"
       gradientUnits="userSpaceOnUse"
       x2="411.64001"
       gradientTransform="matrix(-0.96884,-0.24771,0.24771,-0.96884,748.05,756.69)"
       y1="330.39001"
       x1="412.44"
       inkscape:collect="always">
      <stop
         id="stop7104-5"
         style="stop-color:#b8b8b8"
         offset="0" />
      <stop
         id="stop7110-4"
         style="stop-color:#e3e3e3"
         offset=".5" />
      <stop
         id="stop7106-1"
         style="stop-color:#b9b9b9"
         offset="1" />
    </linearGradient>
    <linearGradient
       inkscape:collect="always"
       xlink:href="#linearGradient7221"
       id="linearGradient3103"
       gradientUnits="userSpaceOnUse"
       gradientTransform="matrix(-1.9780151,-0.49669761,0.50573276,-1.942677,1400.2076,1169.0826)"
       x1="412.44"
       y1="330.39001"
       x2="411.64001"
       y2="335.09" />
    <linearGradient
       inkscape:collect="always"
       xlink:href="#linearGradient7219"
       id="linearGradient3106"
       gradientUnits="userSpaceOnUse"
       gradientTransform="matrix(1.8527202,-0.8424269,0.85775102,1.8196205,-324.03874,61.012413)"
       x1="412.44"
       y1="330.39001"
       x2="411.64001"
       y2="335.09" />
    <linearGradient
       inkscape:collect="always"
       xlink:href="#linearGradient7217"
       id="linearGradient3109"
       gradientUnits="userSpaceOnUse"
       x1="412.44"
       y1="330.39001"
       x2="411.64001"
       y2="335.09"
       gradientTransform="matrix(2.0416324,0,0,2.0051577,-127.0355,-348.20017)" />
    <linearGradient
       inkscape:collect="always"
       xlink:href="#linearGradient7215"
       id="linearGradient3113"
       gradientUnits="userSpaceOnUse"
       x1="125.89"
       y1="286.38"
       x2="569.34998"
       y2="130.07001"
       gradientTransform="matrix(2.0416324,0,0,2.0051577,-127.0355,-348.20017)" />
  </defs>
  <sodipodi:namedview
     id="base"
     bordercolor="#666666"
     inkscape:pageshadow="2"
     inkscape:window-y="49"
     pagecolor="#ffffff"
     inkscape:window-height="895"
     inkscape:window-maximized="0"
     inkscape:zoom="0.58781078"
     inkscape:window-x="125"
     showgrid="false"
     borderopacity="1.0"
     inkscape:current-layer="layer1"
     inkscape:cx="466.38652"
     inkscape:cy="94.978255"
     inkscape:window-width="1476"
     inkscape:pageopacity="0.0"
     inkscape:document-units="px" />
  <g
     id="layer1"
     inkscape:label="Layer 1"
     inkscape:groupmode="layer"
     transform="translate(-129.82,156.974)">
    <rect
       x="141.90872"
       y="-152.14388"
       width="981.82098"
       height="490.2811"
       ry="7.6755428"
       style="color:#000000;fill:url(#linearGradient3113);stroke:#777777;stroke-width:0.40466258;stroke-linejoin:round"
       id="rect5454" />
    <rect
       x="170.8795"
       y="-128.61534"
       width="923.87946"
       height="426.95822"
       ry="7.6755428"
       style="color:#000000;fill:#444444;stroke:#777777;stroke-width:0.40466258;stroke-linejoin:round"
       id="rect5454-1" />
    <path
       inkscape:connector-curvature="0"
       d="m 684.84004,309.95274 61.59809,7.6958 -1.63326,10.95177 -61.28573,-9.78718 1.32137,-8.86039 z"
       style="color:#000000;fill:url(#linearGradient3109);stroke:#858585;stroke-width:0.20233129;stroke-linejoin:round"
       sodipodi:nodetypes="ccccc"
       id="rect7048-4" />
    <path
       inkscape:connector-curvature="0"
       d="m 694.25197,323.26699 59.18896,-18.43281 3.20271,10.61229 -59.80146,16.4064 -2.59103,-8.58568 z"
       style="color:#000000;fill:url(#linearGradient3106);stroke:#858585;stroke-width:0.20233129;stroke-linejoin:round"
       sodipodi:nodetypes="ccccc"
       id="rect7048-4-2" />
    <path
       inkscape:connector-curvature="0"
       d="m 779.63303,333.93443 -57.73736,-22.44173 4.34459,-10.21307 56.90642,24.39275 -3.51487,8.26285 z"
       style="color:#000000;fill:url(#linearGradient3103);stroke:#858585;stroke-width:0.20233129;stroke-linejoin:round"
       sodipodi:nodetypes="ccccc"
       id="rect7048-4-27" />
    <rect
       x="403.95923"
       y="287.31555"
       width="76.860924"
       height="23.87219"
       transform="matrix(0.99913171,0.04166319,-0.04318991,0.99906688,0,0)"
       style="color:#000000;fill:#493a3d;stroke:#858585;stroke-width:0.20233141;stroke-linejoin:round"
       id="rect7204" />
    <rect
       x="138.21338"
       y="324.95129"
       width="989.19135"
       height="14.473228"
       style="color:#000000;fill:#60553f;stroke:#777777;stroke-width:0.40466258;stroke-linejoin:round"
       id="rect6009" />
    <text
       xml:space="preserve"
       style="font-size:17.64037323px;font-style:normal;font-variant:normal;font-weight:normal;font-stretch:normal;line-height:125%;letter-spacing:0px;word-spacing:0px;fill:#493a3d;fill-opacity:1;stroke:none;font-family:HGMinchoE;-inkscape-font-specification:HGMinchoE"
       x="840.79126"
       y="343.44592"
       id="text3007"
       sodipodi:linespacing="125%"
       transform="scale(1.0765701,0.92887588)"><tspan
         sodipodi:role="line"
         id="tspan3009"
         x="840.79126"
         y="343.44592">created by J_Alves </tspan></text>
    <text
       xml:space="preserve"
       style="font-size:53.17127609px;font-style:normal;font-variant:normal;font-weight:normal;font-stretch:normal;line-height:125%;letter-spacing:0px;word-spacing:0px;fill:#f77e7e;fill-opacity:1;stroke:none;font-family:HGMinchoE;-inkscape-font-specification:HGMinchoE"
       x="376.91571"
       y="-89.12307"
       id="text3011"
       sodipodi:linespacing="125%"
       transform="scale(1.1514195,0.8684932)"><tspan
         sodipodi:role="line"
         id="tspan3013"
         x="376.91571"
         y="-89.12307">Today's kanji</tspan></text>
    <text
       xml:space="preserve"
       style="font-size:48px;font-style:normal;font-variant:normal;font-weight:normal;font-stretch:normal;line-height:125%;letter-spacing:0px;word-spacing:0px;fill:#ffffff;fill-opacity:1;stroke:none;font-family:HGMinchoE;-inkscape-font-specification:HGMinchoE"
       x="246.31201"
       y="268.15958"
       id="text3022"
       sodipodi:linespacing="125%"
       transform="scale(1.1006759,0.90853266)"><tspan
         sodipodi:role="line"
         id="tspan3024"
         x="246.31201"
         y="268.15958">neko</tspan></text>
    <text
       xml:space="preserve"
       style="font-size:48px;font-style:normal;font-variant:normal;font-weight:normal;font-stretch:normal;line-height:125%;letter-spacing:0px;word-spacing:0px;fill:#fffafa;fill-opacity:1;stroke:none;font-family:HGMinchoE;-inkscape-font-specification:HGMinchoE"
       x="491.94467"
       y="71.590691"
       id="text3026"
       sodipodi:linespacing="125%"
       transform="scale(1.1794215,0.84787331)"><tspan
         sodipodi:role="line"
         id="tspan3028"
         x="491.94467"
         y="71.590691">&quot;neko&quot; means</tspan></text>
    <text
       xml:space="preserve"
       style="font-size:48px;font-style:normal;font-variant:normal;font-weight:normal;font-stretch:normal;line-height:125%;letter-spacing:0px;word-spacing:0px;fill:#fffafa;fill-opacity:1;stroke:none;font-family:HGMinchoE;-inkscape-font-specification:HGMinchoE"
       x="614.25897"
       y="143.75562"
       id="text3030"
       sodipodi:linespacing="125%"
       transform="scale(0.90778165,1.1015865)"><tspan
         sodipodi:role="line"
         id="tspan3032"
         x="614.25897"
         y="143.75562">&quot;cat&quot; in English</tspan></text>
    <text
       xml:space="preserve"
       style="font-size:36px;font-style:normal;font-variant:normal;font-weight:normal;font-stretch:normal;line-height:125%;letter-spacing:0px;word-spacing:0px;fill:#000000;fill-opacity:1;stroke:none;font-family:HGMinchoE;-inkscape-font-specification:HGMinchoE"
       x="327.50964"
       y="102.02126"
       id="text3034"
       sodipodi:linespacing="125%"
       transform="translate(129.82,97.675995)"><tspan
         sodipodi:role="line"
         id="tspan3036"
         x="327.50964"
         y="102.02126" /></text>
    <text
       xml:space="preserve"
       style="font-size:21.3698101px;font-style:normal;font-variant:normal;font-weight:normal;font-stretch:normal;line-height:125%;letter-spacing:0px;word-spacing:0px;fill:#ffffff;fill-opacity:1;stroke:none;font-family:HGMinchoE;-inkscape-font-specification:HGMinchoE"
       x="767.60168"
       y="-112.99685"
       id="text3096"
       sodipodi:linespacing="125%"
       transform="scale(1.1535033,0.86692427)"><tspan
         sodipodi:role="line"
         id="tspan3098"
         x="767.60168"
         y="-112.99685">29.10.2014(JST)</tspan></text>
    <g
       transform="matrix(1.0127728,0,0,0.98738828,-437.21553,-91.866298)"
       style="font-size:265.97952271px;font-style:normal;font-variant:normal;font-weight:normal;font-stretch:normal;line-height:125%;letter-spacing:0px;word-spacing:0px;fill:#ffdab9;fill-opacity:1;stroke:none;font-family:HGMinchoE;-inkscape-font-specification:HGMinchoE"
       id="text3809">
      <path
         d="m 347.97009,53.320432 c 4.15578,11.775247 8.65804,22.165062 13.50677,31.169475 12.46762,21.472373 31.16929,40.174043 56.10506,56.105053 12.46756,7.61924 27.70596,14.89211 45.71523,21.81864 -13.85335,9.00452 -23.55051,19.39433 -29.09151,31.16947 -6.23412,-4.15594 -13.50699,-9.35085 -21.81863,-15.58474 -13.8533,-10.38981 -26.6674,-24.2429 -38.44236,-41.5593 -13.1606,-19.39428 -23.55041,-45.022487 -31.16947,-76.884703 -2.77076,27.013636 -7.96566,48.485923 -15.58474,64.416913 -14.54586,29.09154 -40.5204,50.91015 -77.92369,65.4559 -9.6972,3.46326 -19.74069,6.5802 -30.13049,9.35084 -1.38532,-0.69267 -1.039,-2.42431 1.03898,-5.19491 32.55474,-13.16045 56.45131,-32.55477 71.68979,-58.18302 11.77504,-20.08693 19.04791,-47.446779 21.81864,-82.079618 l -90.39148,0 -4.15593,-7.272878 94.54741,0 c 1.3852,-21.472153 1.3852,-47.1003622 0,-76.884706 l 36.36439,2.077965 c 7.61905,2.078169 8.3117,6.580422 2.07796,13.506773 l -6.23389,4.15593 -2.07797,57.144038 65.4559,0 19.74067,-25.974563 24.93558,22.857616 c 4.84833,5.541368 4.15567,9.00464 -2.07797,10.389825 z m 11.42881,-64.416916 c -3.46343,-2.770429 -1.03914,-3.80941 7.27288,-3.116947 28.39866,2.770808 42.9444,12.8142956 43.63726,30.130492 -2e-4,4.156087 -1.03919,7.965686 -3.11695,11.428808 -3.46347,5.541384 -7.27307,7.965674 -11.4288,7.272878 -6.92674,0.692796 -11.77532,-3.116802 -14.54576,-11.428808 C 376.36877,6.5663892 370.13489,-4.1697526 362.51585,-9.0185188 z"
         id="path3814"
         inkscape:connector-curvature="0" />
    </g>
    <g
       transform="scale(0.99748824,1.0025181)"
       style="font-size:243.59300232px;font-style:normal;font-variant:normal;font-weight:normal;font-stretch:normal;line-height:125%;letter-spacing:0px;word-spacing:0px;fill:#ffdab9;fill-opacity:1;stroke:none;font-family:HGMinchoE;-inkscape-font-specification:HGMinchoE"
       id="text3816">
      <path
         d="m 312.54754,-5.7806655 c -7.61235,8.8811515 -15.85898,17.4449595 -24.73991,25.6914495 5.07479,7.612414 9.19811,15.859043 12.36996,24.739914 5.70913,15.224663 8.88091,34.255347 9.51535,57.092112 0.63427,19.03074 -0.95162,34.25529 -4.75768,45.67369 -6.34363,20.29941 -16.49333,31.71782 -30.44912,34.25526 -4.44054,0.63434 -7.29514,-0.3172 -8.56382,-2.8546 -1.26875,-3.1718 -2.22028,-6.66076 -2.85461,-10.46689 -5.07488,-3.80615 -10.78408,-7.2951 -17.12763,-10.46689 -8.881,-5.7092 -6.34357,-7.61227 7.61228,-5.70921 10.78403,1.90308 18.07913,0.95154 21.88531,-2.8546 9.5153,-8.88098 13.32144,-31.7178 11.41842,-68.510535 -3.17183,4.440572 -7.61233,9.515421 -13.32149,15.224562 -10.14974,10.784123 -19.03073,19.030753 -26.64298,24.739913 -3.80616,3.17182 -5.39205,2.85464 -4.75768,-0.95153 1.90306,-2.53739 6.34355,-9.19813 13.32149,-19.982242 10.14968,-15.858844 18.39631,-33.620816 24.73992,-53.285969 -1.26876,-6.977805 -2.85465,-12.68701 -4.75768,-17.127633 -8.88103,6.978048 -18.07919,13.004431 -27.59452,18.079168 -6.97793,3.806249 -8.56382,2.854715 -4.75767,-2.854606 10.14968,-9.515227 18.71349,-19.347747 25.69144,-29.49759 -5.07488,-10.1495535 -11.10126,-19.6648957 -18.07916,-28.546055 -4.44052,-5.074676 -5.39205,-8.246457 -2.85461,-9.515351 2.53741,-1.26853 7.92944,2.537607 16.1761,11.418421 5.07482,5.0750209 9.19813,10.14987 12.36996,15.2245631 8.24658,-11.4182545 15.2245,-24.1053771 20.93377,-38.0614061 l 22.83684,18.079168 c 5.07476,4.440669 4.12323,7.6124494 -2.8546,9.5153513 l -4.75768,0.9515352 z m 34.25527,23.7883795 -38.06141,0 -1.90307,-6.660747 39.96448,0 0,-44.722152 24.73991,2.854605 c 11.41827,3.171971 12.36981,6.343752 2.85461,9.515352 l -4.75768,0.951535 0,31.40066 28.54606,0 0,-43.770617 25.69145,1.90307 c 7.61208,1.903259 8.24643,5.07504 1.90307,9.515352 l -4.75768,1.90307 0,30.449125 9.51535,0 15.22457,-21.885308 19.98223,19.9822381 c 3.80591,4.4406429 3.17155,7.2952459 -1.90307,8.5638169 l -42.81908,0 0,23.788379 c -1.9e-4,5.074967 -3.48915,7.92957 -10.46689,8.563816 l -7.61228,0.951535 c -3.17195,0.634465 -4.75784,-0.951425 -4.75767,-4.757675 l 0,-28.546055 -28.54606,0 0,26.642984 c -1.4e-4,3.806252 -1.58603,6.026499 -4.75767,6.660746 l -7.61228,1.903071 c -6.97805,1.268819 -10.46701,-0.317072 -10.46689,-4.757676 z m 0,150.342556 0,6.66075 c -1.2e-4,3.17176 -2.22036,5.07483 -6.66075,5.70921 l -6.66074,0.95153 c -3.17189,0.63434 -5.70931,0.63434 -7.61229,0 -2.53751,-0.63438 -3.80623,-2.53744 -3.80614,-5.70921 l 0,-129.408781 27.59452,14.273027 74.21975,0 10.46688,-15.224563 20.93378,17.127633 c 3.17155,2.537522 2.5372,6.660837 -1.90307,12.369958 l -0.95154,0.951535 0,94.201981 c -2.2e-4,5.07484 -2.53764,7.92944 -7.61228,8.56382 -8.24684,1.26869 -13.32169,1.58587 -15.22456,0.95153 -1.26891,-0.63437 -1.90327,-2.22026 -1.90307,-4.75767 l 0,-6.66075 z m 0,-6.66075 27.59452,0 0,-44.72215 -27.59452,0 z m 0,-51.3829 27.59452,0 0,-42.819078 -27.59452,0 z m 52.33443,51.3829 28.54606,0 0,-44.72215 -28.54606,0 z m 0,-94.201978 0,42.819078 28.54606,0 0,-42.819078 z"
         style=""
         id="path3821" />
    </g>
  </g>
  <metadata
     id="metadata30">
    <rdf:RDF>
      <cc:Work>
        <dc:format>image/svg+xml</dc:format>
        <dc:type
           rdf:resource="http://purl.org/dc/dcmitype/StillImage" />
        <cc:license
           rdf:resource="http://creativecommons.org/licenses/publicdomain/" />
        <dc:publisher>
          <cc:Agent
             rdf:about="http://openclipart.org/">
            <dc:title>Openclipart</dc:title>
          </cc:Agent>
        </dc:publisher>
        <dc:title></dc:title>
        <dc:date>2010-04-21T03:43:54</dc:date>
        <dc:description>A blackboard with chalk and eraser. Drawn in Inkscape.</dc:description>
        <dc:source>https://openclipart.org/detail/49363/blackboard-by-j_alves</dc:source>
        <dc:creator>
          <cc:Agent>
            <dc:title>J_Alves</dc:title>
          </cc:Agent>
        </dc:creator>
        <dc:subject>
          <rdf:Bag>
            <rdf:li>blackboard</rdf:li>
            <rdf:li>chalk</rdf:li>
            <rdf:li>chalkboard</rdf:li>
            <rdf:li>education</rdf:li>
            <rdf:li>school</rdf:li>
          </rdf:Bag>
        </dc:subject>
      </cc:Work>
      <cc:License
         rdf:about="http://creativecommons.org/licenses/publicdomain/">
        <cc:permits
           rdf:resource="http://creativecommons.org/ns#Reproduction" />
        <cc:permits
           rdf:resource="http://creativecommons.org/ns#Distribution" />
        <cc:permits
           rdf:resource="http://creativecommons.org/ns#DerivativeWorks" />
      </cc:License>
    </rdf:RDF>
  </metadata>
</svg>
