<?xml version="1.0" encoding="UTF-8" standalone="no"?>
<!-- Created with Inkscape (http://www.inkscape.org/) -->
<svg
    xmlns:inkscape="http://www.inkscape.org/namespaces/inkscape"
    xmlns:rdf="http://www.w3.org/1999/02/22-rdf-syntax-ns#"
    xmlns="http://www.w3.org/2000/svg"
    xmlns:xlink="http://www.w3.org/1999/xlink"
    xmlns:ns1="http://sozi.baierouge.fr"
    xmlns:cc="http://creativecommons.org/ns#"
    xmlns:dc="http://purl.org/dc/elements/1.1/"
    xmlns:sodipodi="http://sodipodi.sourceforge.net/DTD/sodipodi-0.dtd"
    id="svg2"
    sodipodi:docname="tv vintage 1.svg"
    viewBox="0 0 744.09448 1052.3622"
    version="1.1"
    inkscape:version="0.48+devel r12830"
  >
  <defs
      id="defs4"
    >
    <filter
        id="filter4236"
        style="color-interpolation-filters:sRGB"
        height="1.1592"
        width="1.1778"
        y="-.079617"
        x="-.088894"
        inkscape:collect="always"
      >
      <feGaussianBlur
          id="feGaussianBlur4238"
          stdDeviation="18.365321"
          inkscape:collect="always"
      />
    </filter
    >
  </defs
  >
  <sodipodi:namedview
      id="base"
      bordercolor="#666666"
      inkscape:pageshadow="2"
      inkscape:window-y="0"
      pagecolor="#ffffff"
      inkscape:window-height="576"
      inkscape:window-maximized="0"
      inkscape:zoom="0.35"
      inkscape:window-x="0"
      showgrid="false"
      borderopacity="1.0"
      inkscape:current-layer="layer1"
      inkscape:cx="375"
      inkscape:cy="520"
      inkscape:window-width="768"
      inkscape:pageopacity="0.0"
      inkscape:document-units="px"
  />
  <g
      id="layer1"
      inkscape:label="Layer 1"
      inkscape:groupmode="layer"
    >
    <g
        id="g3424"
        transform="matrix(.38742 0 0 .38742 822.91 546.22)"
      >
      <rect
          id="rect4274"
          style="opacity:0.496;fill:#999999"
          transform="matrix(1 0 -.85749 .51450 0 0)"
          height="176.56"
          width="571.54"
          y="1228.8"
          x="289.14"
      />
      <g
          id="g4246"
          transform="translate(-121.12 -109.77)"
        >
        <path
            id="path3361"
            d="m-238.85 642.19 37.969 90.614-15.778 3.1246-62.95-93.739h-198.54l-68.37 91.395-18.407-2.3435 49.962-91.395z"
            sodipodi:nodetypes="ccccccccc"
            style="stroke:#000000;stroke-width:.68816px;fill:#000000"
            inkscape:connector-curvature="0"
        />
        <path
            id="path3359"
            sodipodi:nodetypes="ccccccccc"
            style="stroke:#000000;stroke-width:1px;fill:#000000"
            inkscape:connector-curvature="0"
            d="m-586.73 654.74-55.962 172.3 17.672 5.8908 83.943-178.2h222.38l76.58 172.3 20.618-4.4181-55.962-172.3z"
        />
        <rect
            id="rect3363"
            style="fill:#808080"
            transform="matrix(1 0 -.84092 .54116 0 0)"
            height="108.85"
            width="587.37"
            y="1143.2"
            x="272.37"
        />
        <rect
            id="rect3357"
            style="fill:#000000"
            transform="matrix(1 0 -.84092 .54116 0 0)"
            height="108.85"
            width="587.37"
            y="1117.4"
            x="250.62"
        />
        <g
            id="g3343"
          >
          <rect
              id="rect3337"
              style="fill:#666666"
              height="301.94"
              width="429.94"
              y="309.61"
              x="-638.81"
          />
          <path
              id="path3341"
              d="m-211.54 610.66-32.399 26.508-5.8908-38.29 32.399 1.4727z"
              style="fill:#666666"
              inkscape:connector-curvature="0"
          />
          <path
              id="path3339"
              d="m-641.26 312.54-36.817 26.508 45.653-2.9454 4.4181-20.618z"
              style="fill:#666666"
              inkscape:connector-curvature="0"
          />
          <rect
              id="rect3273"
              style="stroke:#ffffff;stroke-linecap:round;stroke-width:6;fill:#000000"
              height="301.94"
              width="429.94"
              y="333.61"
              x="-672.81"
          />
          <rect
              id="rect3275"
              style="stroke:#ffffff;stroke-linecap:round;stroke-width:6;fill:#ffffff"
              ry="50.621"
              height="206.77"
              width="308.51"
              y="381.19"
              x="-628.09"
          />
          <circle
              id="path3327"
              style="stroke:#800000;stroke-linecap:round;stroke-width:.60080;fill:#ffffff"
              d="m -265.55705,445.51581 a 16.376059,16.376059 0 0 1 -16.37606,16.37606 16.376059,16.376059 0 0 1 -16.37605,-16.37606 16.376059,16.376059 0 0 1 16.37605,-16.37606 16.376059,16.376059 0 0 1 16.37606,16.37606 z"
              cy="445.52"
              cx="-281.93"
              r="16.376"
          />
          <circle
              id="circle3329"
              style="stroke:#800000;stroke-linecap:round;stroke-width:.60080;fill:#ffffff"
              d="m -264.30525,491.04074 a 16.376059,16.376059 0 0 1 -16.37605,16.37606 16.376059,16.376059 0 0 1 -16.37606,-16.37606 16.376059,16.376059 0 0 1 16.37606,-16.37606 16.376059,16.376059 0 0 1 16.37605,16.37606 z"
              cx="-280.68"
              cy="491.04"
              r="16.376"
          />
          <circle
              id="circle3331"
              style="stroke:#800000;stroke-linecap:round;stroke-width:.60080;fill:#ffffff"
              d="m -268.09303,401.37509 a 16.376059,16.376059 0 0 1 -16.37606,16.37606 16.376059,16.376059 0 0 1 -16.37605,-16.37606 16.376059,16.376059 0 0 1 16.37605,-16.37606 16.376059,16.376059 0 0 1 16.37606,16.37606 z"
              cy="401.38"
              cx="-284.47"
              r="16.376"
          />
          <circle
              id="circle3333"
              style="stroke:#800000;stroke-linecap:round;stroke-width:.88136;fill:#ffffff"
              d="m -260.55164,576.70636 a 24.02356,24.02356 0 0 1 -24.02356,24.02356 24.02356,24.02356 0 0 1 -24.02355,-24.02356 24.02356,24.02356 0 0 1 24.02355,-24.02356 24.02356,24.02356 0 0 1 24.02356,24.02356 z"
              cy="576.71"
              cx="-284.58"
              r="24.024"
          />
          <path
              id="path3335"
              d="m-318.3 431.3c-16.61-65.969-87.937-48.046-89.615-46.088z"
              sodipodi:nodetypes="ccc"
              style="fill:#cccccc"
              inkscape:connector-curvature="0"
          />
        </g
        >
        <rect
            id="rect3371"
            style="fill:#808080"
            height="55.962"
            width="103.09"
            y="255.53"
            x="-624.73"
        />
        <rect
            id="rect3365"
            style="fill:#000000"
            height="55.962"
            width="103.09"
            y="261.53"
            x="-634.73"
        />
        <ellipse
            id="path3367"
            style="fill:#ffffff"
            d="m -577.29458,287.29962 a 22.826698,16.935938 0 0 1 -22.8267,16.93594 22.826698,16.935938 0 0 1 -22.8267,-16.93594 22.826698,16.935938 0 0 1 22.8267,-16.93594 22.826698,16.935938 0 0 1 22.8267,16.93594 z"
            rx="22.827"
            ry="16.936"
            cy="287.3"
            cx="-600.12"
        />
        <ellipse
            id="path3369"
            style="fill:#ffffff"
            d="m -541.94998,277.72714 a 6.6271057,4.4180708 0 0 1 -6.62711,4.41807 6.6271057,4.4180708 0 0 1 -6.6271,-4.41807 6.6271057,4.4180708 0 0 1 6.6271,-4.41807 6.6271057,4.4180708 0 0 1 6.62711,4.41807 z"
            rx="6.6271"
            ry="4.4181"
            cy="277.73"
            cx="-548.58"
        />
        <rect
            id="rect3377"
            style="fill:#000000"
            inkscape:transform-center-x="14.717885"
            inkscape:transform-center-y="-83.671017"
            transform="rotate(-10.599)"
            height="174.52"
            width="5.5403"
            y="58.887"
            x="-379.66"
        />
        <rect
            id="rect3379"
            style="fill:#000000"
            inkscape:transform-center-x="-27.126218"
            inkscape:transform-center-y="-80.508535"
            transform="rotate(17.998)"
            height="174.52"
            width="5.5403"
            y="211.54"
            x="-222.96"
        />
        <path
            id="path3373"
            sodipodi:nodetypes="ccccc"
            style="stroke:#000000;stroke-width:1px;fill:#000000"
            inkscape:connector-curvature="0"
            d="m-397.63 321.91 123.71-2.9454 1.4727-16.2c-39.064-16.322-78.421-30.741-125.18 2.9454z"
        />
        <path
            id="path3375"
            d="m-379.33 309.77 42.624-11.728-0.29572-3.2155c-14.317 0.42068-28.641 1.23-43.133 11.861z"
            sodipodi:nodetypes="ccccc"
            style="fill:#ffffff"
            inkscape:connector-curvature="0"
        />
      </g
      >
      <path
          id="path3381"
          d="m-1262.8-219.23-4.8725 774.81"
          style="stroke:#000000;stroke-linecap:round;stroke-width:20;fill:none"
          inkscape:connector-curvature="0"
      />
      <ellipse
          id="path4272"
          style="opacity:0.496;fill:#b3b3b3"
          d="m -1180.9208,690.89447 a 92.732559,20.817514 0 0 1 -92.7325,20.81751 92.732559,20.817514 0 0 1 -92.7326,-20.81751 92.732559,20.817514 0 0 1 92.7326,-20.81751 92.732559,20.817514 0 0 1 92.7325,20.81751 z"
          rx="92.733"
          ry="20.818"
          cy="690.89"
          cx="-1273.7"
      />
      <g
          id="g4193"
          transform="translate(-4)"
        >
        <path
            id="path3383"
            sodipodi:nodetypes="cc"
            style="stroke:#000000;stroke-linecap:round;stroke-width:10;fill:none"
            inkscape:connector-curvature="0"
            d="m-1391.7 678.73c64.16-103.41 125.57-219.47 259.92 0"
        />
        <path
            id="path3387"
            sodipodi:nodetypes="ccc"
            style="stroke:#000000;stroke-linecap:round;stroke-width:10;fill:none"
            inkscape:connector-curvature="0"
            d="m-1288.2 700.33c11.693-193.07 33.488-173.99 59.565-64.98"
        />
      </g
      >
      <path
          id="path3389"
          d="m-1260.4 72.047l-3.785-166.54c-23.621-56.81-71.246-109.62-162.76 87.055"
          sodipodi:nodetypes="csc"
          style="stroke:#000000;stroke-width:6;fill:none"
          inkscape:connector-curvature="0"
      />
      <path
          id="path4210"
          d="m-1445.9 53.122-389.8 393.64c74.632 163.75 239.52 202.14 495.84 113.55z"
          sodipodi:nodetypes="cccc"
          style="opacity:0.496;filter:url(#filter4236);fill:#e6e6e6"
          inkscape:connector-curvature="0"
      />
      <path
          id="path4244"
          style="opacity:0.496;filter:url(#filter4236);fill:#e6e6e6"
          d="m-719.15 45.552-389.85 393.64c74.632 163.75 239.52 202.14 495.84 113.55z"
          sodipodi:nodetypes="cccc"
          inkscape:connector-curvature="0"
          transform="matrix(.48350 -.87535 -.96089 -.32862 -1050.5 -662.33)"
      />
      <path
          id="path3391"
          sodipodi:nodetypes="ccccc"
          d="m-1413.6 192.81c-59.906 5.6506-101.16-17.629-138.07-47.635l61.719-90.77c35.714-41.502 81.895-127.76 71.683 27.118z"
          inkscape:transform-center-x="47.467552"
          inkscape:transform-center-y="86.774654"
          inkscape:connector-curvature="0"
          style="stroke:#000000;stroke-width:2;fill:#cccccc"
      />
      <path
          id="path4198"
          sodipodi:nodetypes="csc"
          style="stroke:#000000;stroke-width:6;fill:none"
          inkscape:connector-curvature="0"
          d="m-1265.9 70.692l3.785-166.54c23.621-56.81 71.246-109.62 162.76 87.055"
      />
      <path
          id="path4240"
          style="opacity:0.496;filter:url(#filter4236);fill:#e6e6e6"
          d="m-719.15 45.552-389.85 393.64c74.632 163.75 239.52 202.14 495.84 113.55z"
          sodipodi:nodetypes="cccc"
          inkscape:connector-curvature="0"
          transform="matrix(-1 0 .17693 1.0944 -1779.2 -.13917)"
      />
      <path
          id="path4200"
          style="stroke:#000000;stroke-width:2;fill:#666666"
          d="m-1085.1 188.9c60.138-2.0178 98.09-30.357 130.88-64.816l-72.767-82.179c-40.704-36.62-97.486-116.3-67.649 36.018z"
          sodipodi:nodetypes="ccccc"
          inkscape:transform-center-y="87.237099"
          inkscape:connector-curvature="0"
          inkscape:transform-center-x="-58.832574"
      />
      <path
          id="path4242"
          style="opacity:0.496;filter:url(#filter4236);fill:#e6e6e6"
          d="m-719.15 45.552-389.85 393.64c74.632 163.75 239.52 202.14 495.84 113.55z"
          sodipodi:nodetypes="cccc"
          inkscape:connector-curvature="0"
          transform="matrix(-.86431 -.50296 .65588 -.77532 -1699.4 -405.84)"
      />
      <path
          id="path4202"
          d="m-1262.2-133.74l3.6482 166.58c22.767 56.822 68.671 109.65 156.87-87.074"
          sodipodi:nodetypes="csc"
          style="stroke:#000000;stroke-width:5.8912;fill:none"
          inkscape:connector-curvature="0"
      />
      <path
          id="path4204"
          sodipodi:nodetypes="ccccc"
          d="m-991.96-224.27c48.726 31.459 65.592 74.553 75.052 120.35l-102.37 34.595c-52.465 11.324-140.32 51.678-37.501-64.367z"
          inkscape:transform-center-x="-79.456215"
          inkscape:transform-center-y="-74.455382"
          inkscape:connector-curvature="0"
          style="stroke:#000000;stroke-width:1.9637;fill:#cccccc"
      />
      <path
          id="path4206"
          sodipodi:nodetypes="csc"
          style="stroke:#000000;stroke-width:5.8912;fill:none"
          inkscape:connector-curvature="0"
          d="m-1258.6-141.31l-3.6482 166.58c-22.767 56.822-68.671 109.65-156.87-87.074"
      />
      <path
          id="path4208"
          style="stroke:#000000;stroke-width:1.9637;fill:#333333"
          d="m-1606.4-137.7c-19.091 54.767-5.9004 99.125 14.794 141.06l102-35.645c48.341-23.323 142.44-45.508-9.9938-73.821z"
          sodipodi:nodetypes="ccccc"
          inkscape:transform-center-y="4.7270802"
          inkscape:connector-curvature="0"
          inkscape:transform-center-x="85.309409"
      />
      <rect
          id="rect4276"
          style="opacity:0.496;fill:#333333"
          height="68.13"
          width="49.205"
          y="507.32"
          x="-1188.5"
      />
      <circle
          id="path4278"
          style="opacity:0.496;fill:#ffffff"
          d="m -1154.4258,539.49432 a 13.247507,13.247507 0 0 1 -13.2475,13.24751 13.247507,13.247507 0 0 1 -13.2475,-13.24751 13.247507,13.247507 0 0 1 13.2475,-13.2475 13.247507,13.247507 0 0 1 13.2475,13.2475 z"
          cy="539.49"
          cx="-1167.7"
          r="13.248"
      />
    </g
    >
  </g
  >
  <metadata
    >
    <rdf:RDF
      >
      <cc:Work
        >
        <dc:format
          >image/svg+xml</dc:format
        >
        <dc:type
            rdf:resource="http://purl.org/dc/dcmitype/StillImage"
        />
        <cc:license
            rdf:resource="http://creativecommons.org/licenses/publicdomain/"
        />
        <dc:publisher
          >
          <cc:Agent
              rdf:about="http://openclipart.org/"
            >
            <dc:title
              >Openclipart</dc:title
            >
          </cc:Agent
          >
        </dc:publisher
        >
      </cc:Work
      >
      <cc:License
          rdf:about="http://creativecommons.org/licenses/publicdomain/"
        >
        <cc:permits
            rdf:resource="http://creativecommons.org/ns#Reproduction"
        />
        <cc:permits
            rdf:resource="http://creativecommons.org/ns#Distribution"
        />
        <cc:permits
            rdf:resource="http://creativecommons.org/ns#DerivativeWorks"
        />
      </cc:License
      >
    </rdf:RDF
    >
  </metadata
  >
</svg
>
