<?xml version="1.0" encoding="UTF-8" standalone="no"?>
<!-- Created with Inkscape (http://www.inkscape.org/) -->
<svg xmlns:dc="http://purl.org/dc/elements/1.1/" xmlns:cc="http://creativecommons.org/ns#" xmlns:rdf="http://www.w3.org/1999/02/22-rdf-syntax-ns#" xmlns:svg="http://www.w3.org/2000/svg" xmlns="http://www.w3.org/2000/svg" xmlns:sodipodi="http://sodipodi.sourceforge.net/DTD/sodipodi-0.dtd" xmlns:inkscape="http://www.inkscape.org/namespaces/inkscape" width="744.09448819" height="1052.3622047" id="svg2" version="1.1" inkscape:version="0.48.3.1 r9886" sodipodi:docname="drawing.png">
  <defs id="defs4"/>
  <sodipodi:namedview id="base" pagecolor="#ffffff" bordercolor="#666666" borderopacity="1.0" inkscape:pageopacity="0.0" inkscape:pageshadow="2" inkscape:zoom="0.49497475" inkscape:cx="364.01466" inkscape:cy="819.88451" inkscape:document-units="px" inkscape:current-layer="layer1" showgrid="false" inkscape:window-width="1280" inkscape:window-height="750" inkscape:window-x="0" inkscape:window-y="0" inkscape:window-maximized="1"/>
  <g inkscape:label="Layer 1" inkscape:groupmode="layer" id="layer1">
    <path style="fill:#00ff00;fill-opacity:1" d="m 236.37389,1.2970391 c 0,42.4270799 -56.56854,1006.1132609 -56.56854,1048.5403609 l 0,3.0313 193.9529,0 0,-3.0313 0,-124.24999 -8.08122,-922.2700658 z" id="rect3142-3" inkscape:connector-curvature="0" sodipodi:nodetypes="cccccccc"/>
    <path style="fill:#ffd42a;fill-opacity:1" d="m 486.89172,-0.72324596 c 0,42.42707996 76.77159,1008.13354596 76.77159,1050.56064596 l 0,3.0313 179.81077,0 0,-3.0313 0,-124.24997 L 618.21516,-0.72324596 z" id="rect3142-2" inkscape:connector-curvature="0" sodipodi:nodetypes="cccccccc"/>
    <path style="fill:#00ffff;fill-opacity:1" d="m 365.67341,-0.72325596 c 0,42.42707996 4.04061,1008.13365596 4.04061,1050.56065596 l 0,3.0313 191.9326,0 0,-3.0313 0,-124.24998 -76.77159,-928.3309811 z" id="rect3142-7" inkscape:connector-curvature="0" sodipodi:nodetypes="cccccccc"/>
    <path style="fill:#ff7f2a;fill-opacity:1" d="M 103.03376,-0.72326087 C 103.03376,41.703819 -0.00180362,1005.39 -0.00180362,1047.8171 l 0,3.0313 185.87169362,0 0,-3.0313 0,-124.24999 52.52793,-928.3309811 z" id="rect3142-37" inkscape:connector-curvature="0" sodipodi:nodetypes="cccccccc"/>
    <path inkscape:connector-curvature="0" style="fill:#050505" d="m 145.54321,66.85721 c -7.4937,-1.96143 -12.81072,-5.0708 -17.2022,-10.05978 -4.77099,-5.42013 -6.2978,-10.09615 -6.2978,-19.28769 0,-16.25362 11.38276,-26.68019 31.5,-28.8538902 6.41513,-0.69317 18.60534,0.6466 25.0597,2.7541902 3.9236,1.28121 3.94157,1.31102 4.2402,7.03653 0.16495,3.16244 0.1229,5.74988 -0.0935,5.74988 -0.21634,0 -3.0513,-0.96835 -6.2999,-2.15189 -8.54661,-3.11371 -22.33249,-3.19037 -28.0038,-0.15572 -4.72342,2.52746 -6.77887,5.27699 -8.37437,11.20223 -3.59465,13.3495 5.15168,24.10538 19.60172,24.10538 8.96879,0 9.3699,-0.28283 9.3699,-6.60699 l 0,-5.39301 -5.55479,0 -5.55479,0 0.30479,-4.75 0.30479,-4.75 13.25,-0.27902 13.25,-0.27903 0,13.98884 0,13.98885 -6.75,2.10471 c -8.53485,2.66124 -25.58057,3.51296 -32.75,1.63641 z" id="path3037-5"/>
    <path inkscape:connector-curvature="0" style="fill:#050505" d="m 298.56644,66.6545 c -10.74437,-2.66231 -19.8604,-10.17508 -22.32399,-18.39782 -2.00795,-6.70193 -1.47421,-17.01086 1.17529,-22.70044 6.81352,-14.63143 27.11442,-20.8857299 48.3987,-14.91067 l 5.25,1.47382 0,6.07905 c 0,5.41231 -0.19194,5.99574 -1.75,5.31939 -14.2382,-6.18074 -24.78503,-5.85261 -31.62144,0.98379 -5.97911,5.97911 -7.03264,17.69872 -2.23147,24.82317 5.31125,7.88137 18.09431,10.16224 29.85291,5.32663 l 5.75,-2.36463 0,5.76704 c 0,5.35861 -0.19476,5.84477 -2.75,6.8645 -8.10503,3.23448 -20.72981,3.97125 -29.75,1.73617 z" id="path3041-5"/>
    <path inkscape:connector-curvature="0" style="fill:#050505" d="m 569.78076,15.198695 -10.40625,0.28125 -10.375,0.28125 -11.9375,27.84375 c -6.55861,15.31051 -11.9375,28.25702 -11.9375,28.78125 0,0.54996 3.45691,0.85508 8.15625,0.6875 8.77574,-0.31295 8.64897,-0.25942 11.375,-7.0625 l 1.5,-3.75 13.375,0 13.375,0 2.21875,5.5 2.25,5.5 8.375,0 c 4.61112,0 8.375,-0.25131 8.375,-0.5625 0,-0.31118 -5.45661,-13.37484 -12.15625,-29.03125 l -12.1875,-28.46875 z m -10.09375,14.28125 c 0.39517,0.40241 8.4375,20.71977 8.4375,21.3125 0,0.26394 -3.825,0.46875 -8.5,0.46875 -4.675,0 -8.498,-0.3375 -8.5,-0.75 -0.007,-1.12935 8.23342,-21.36637 8.5625,-21.03125 z" id="path3045-6"/>
    <path inkscape:connector-curvature="0" style="fill:#050505" d="m 400.26408,36.148721 0,-28.5000001 23.5,0 23.5,0 0,5.5000001 0,5.5 -14.5,0 -14.5,0 0,5.5 0,5.5 13.5,0 13.5,0 0,5.5 0,5.5 -13.5,0 -13.5,0 0,6.5 0,6.5 15,0 15,0 0,5.5 0,5.5 -24,0 -24,0 0,-28.5 z" id="path3023-9"/>
    <rect style="fill:#241c1c;fill-opacity:1" id="rect3140" width="541.44177" height="18.182745" x="90.913734" y="78.575127"/>
    <rect style="fill:#241c1c;fill-opacity:1" id="rect3140-6" width="638.41644" height="6.0609145" x="50.507641" y="552.33667"/>
    <rect style="fill:#241c1c;fill-opacity:1" id="rect3140-6-1" width="628.31494" height="6.0609145" x="56.568523" y="481.62601"/>
    <rect style="fill:#241c1c;fill-opacity:1" id="rect3140-6-7" width="612.15247" height="6.0609145" x="68.690361" y="402.83408"/>
    <rect style="fill:#241c1c;fill-opacity:1" id="rect3140-6-0" width="571.7464" height="6.0609145" x="82.832489" y="237.16907"/>
    <rect style="fill:#241c1c;fill-opacity:1" id="rect3140-6-3" width="598.01031" height="6.0609145" x="68.690361" y="320.00156"/>
    <rect style="fill:#241c1c;fill-opacity:1" id="rect3140-6-39" width="549.52301" height="4.0406094" x="88.893402" y="156.35687"/>
    <rect style="fill:#241c1c;fill-opacity:1" id="rect3140-6-04" width="654.57886" height="6.0609145" x="46.467003" y="619.00677"/>
    <rect style="fill:#241c1c;fill-opacity:1" id="rect3140-6-9" width="668.72101" height="6.0609145" x="38.38578" y="701.83923"/>
    <rect style="fill:#241c1c;fill-opacity:1" id="rect3140-6-2" width="688.92407" height="6.0609145" x="26.263948" y="782.65143"/>
    <rect style="fill:#241c1c;fill-opacity:1" id="rect3140-6-6" width="701.0459" height="6.0609145" x="28.28425" y="875.58545"/>
    <rect style="fill:#241c1c;fill-opacity:1" id="rect3140-6-5" width="719.22864" height="6.0609145" x="18.182732" y="966.49921"/>
    <path inkscape:connector-curvature="0" style="fill:#050505" d="m 155.23054,181.45474 -3.79891,0.13852 -3.78749,0.13852 -4.3579,13.71323 c -2.39429,7.54053 -4.35791,13.91677 -4.35791,14.17495 0,0.27086 1.26198,0.42114 2.97752,0.3386 3.20367,-0.15413 3.1574,-0.12776 4.15256,-3.47832 l 0.54759,-1.8469 4.88267,0 4.88268,0 0.80998,2.70878 0.82138,2.70879 3.05738,0 c 1.68333,0 3.05737,-0.12377 3.05737,-0.27704 0,-0.15326 -1.99199,-6.58719 -4.43776,-14.29808 l -4.44916,-14.02105 z m -3.68483,7.03361 c 0.14427,0.19819 3.0802,10.20463 3.0802,10.49655 0,0.12999 -1.39636,0.23086 -3.10301,0.23086 -1.70666,0 -3.10228,-0.16622 -3.10301,-0.36938 -0.003,-0.55621 3.00569,-10.52308 3.12582,-10.35803 z" id="path3045-7-5"/>
    <path inkscape:connector-curvature="0" style="fill:#050505" d="m 92.60107,989.57678 -3.798909,0.13851 -3.78749,0.13852 -4.3579,13.71329 c -2.39429,7.5405 -4.35791,13.9167 -4.35791,14.1749 0,0.2709 1.26198,0.4212 2.97752,0.3386 3.20367,-0.1541 3.1574,-0.1277 4.15256,-3.4783 l 0.54759,-1.8469 4.88267,0 4.882679,0 0.80998,2.7088 0.82138,2.7088 3.05738,0 c 1.68333,0 3.05737,-0.1238 3.05737,-0.2771 0,-0.1532 -1.99199,-6.5872 -4.43776,-14.2981 l -4.44916,-14.02102 z m -3.684829,7.0336 c 0.14427,0.1982 3.080199,10.20462 3.080199,10.49662 0,0.13 -1.396359,0.2308 -3.103009,0.2308 -1.70666,0 -3.10228,-0.1662 -3.10301,-0.3694 -0.003,-0.5562 3.00569,-10.52302 3.12582,-10.35802 z" id="path3045-7-6"/>
    <path inkscape:connector-curvature="0" style="fill:#050505" d="m 284.53005,726.93713 -3.79891,0.1385 -3.78749,0.1385 -4.3579,13.7133 c -2.39429,7.5405 -4.35791,13.9167 -4.35791,14.1749 0,0.2709 1.26198,0.4211 2.97752,0.3386 3.20367,-0.1541 3.1574,-0.1278 4.15256,-3.4783 l 0.54759,-1.8469 4.88267,0 4.88268,0 0.80998,2.7088 0.82138,2.7088 3.05738,0 c 1.68333,0 3.05737,-0.1238 3.05737,-0.2771 0,-0.1532 -1.99199,-6.5872 -4.43776,-14.2981 l -4.44916,-14.021 z m -3.68483,7.0336 c 0.14427,0.1982 3.0802,10.2046 3.0802,10.4965 0,0.13 -1.39636,0.2309 -3.10301,0.2309 -1.70666,0 -3.10228,-0.1662 -3.10301,-0.3694 -0.003,-0.5562 3.00569,-10.523 3.12582,-10.358 z" id="path3045-7-8"/>
    <path inkscape:connector-curvature="0" style="fill:#050505" d="m 444.13416,425.91166 -3.79891,0.13852 -3.78749,0.13852 -4.3579,13.71323 c -2.39429,7.54052 -4.35791,13.91677 -4.35791,14.17495 0,0.27086 1.26198,0.42114 2.97752,0.3386 3.20367,-0.15413 3.1574,-0.12776 4.15256,-3.47833 l 0.54759,-1.8469 4.88267,0 4.88268,0 0.80998,2.70879 0.82138,2.70879 3.05738,0 c 1.68333,0 3.05737,-0.12378 3.05737,-0.27704 0,-0.15326 -1.99199,-6.5872 -4.43776,-14.29808 l -4.44916,-14.02105 z m -3.68483,7.03361 c 0.14427,0.19819 3.0802,10.20462 3.0802,10.49655 0,0.12999 -1.39636,0.23086 -3.10301,0.23086 -1.70666,0 -3.10228,-0.16622 -3.10301,-0.36938 -0.003,-0.55621 3.00569,-10.52308 3.12582,-10.35803 z" id="path3045-7-0"/>
    <path inkscape:connector-curvature="0" style="fill:#050505" d="m 652.22558,999.6783 -3.79891,0.13852 -3.78749,0.13852 -4.3579,13.71326 c -2.39429,7.5405 -4.35791,13.9167 -4.35791,14.1749 0,0.2709 1.26198,0.4212 2.97752,0.3386 3.20367,-0.1541 3.1574,-0.1277 4.15256,-3.4783 l 0.54759,-1.8469 4.88267,0 4.88268,0 0.80998,2.7088 0.82138,2.7088 3.05738,0 c 1.68333,0 3.05737,-0.1238 3.05737,-0.2771 0,-0.1532 -1.99199,-6.5872 -4.43776,-14.298 l -4.44916,-14.0211 z m -3.68483,7.0336 c 0.14427,0.1982 3.0802,10.2046 3.0802,10.4966 0,0.13 -1.39636,0.2308 -3.10301,0.2308 -1.70666,0 -3.10228,-0.1662 -3.10301,-0.3694 -0.003,-0.5562 3.00569,-10.523 3.12582,-10.358 z" id="path3045-7-55"/>
    <path inkscape:connector-curvature="0" style="fill:#050505" d="m 123.29608,345.26875 0,14.12881 0,14.1288 7.5864,-0.1693 c 7.24694,-0.1652 7.67323,-0.2397 9.36606,-1.416 4.06147,-2.8223 4.20756,-10.2081 0.26239,-12.8821 -1.09067,-0.7393 -1.13222,-0.8495 -0.45633,-1.1389 1.29459,-0.5544 2.22459,-2.6617 2.22459,-5.0328 0,-3.1394 -0.84079,-4.97271 -2.85203,-6.21794 -1.52481,-0.94407 -2.48495,-1.07498 -8.92115,-1.23127 l -7.20993,-0.1693 z m 5.84095,5.00201 2.29304,0 c 1.48329,0 2.57785,0.2733 3.103,0.7696 1.08737,1.0275 1.08737,3.3588 0,4.3863 -0.52515,0.4963 -1.61971,0.7542 -3.103,0.7542 l -2.29304,0 0,-2.955 0,-2.9551 z m 0.73012,10.7428 2.96611,0.1693 c 2.57377,0.1577 3.04608,0.3318 3.6506,1.339 0.3819,0.6363 0.68449,1.6607 0.68449,2.2779 0,0.6171 -0.30259,1.6415 -0.68449,2.2778 -0.60452,1.0072 -1.07683,1.1813 -3.6506,1.339 l -2.96611,0.1847 0,-3.8015 0,-3.7862 z" id="path3035-0-4"/>
    <path inkscape:connector-curvature="0" style="fill:#050505" d="m 262.69714,908.93384 0,14.1288 0,14.1288 7.5864,-0.1693 c 7.24694,-0.1652 7.67323,-0.2396 9.36606,-1.416 4.06147,-2.8222 4.20756,-10.2081 0.26239,-12.8821 -1.09067,-0.7392 -1.13222,-0.8495 -0.45633,-1.1389 1.29459,-0.5543 2.22459,-2.6617 2.22459,-5.0328 0,-3.1394 -0.84079,-4.9727 -2.85203,-6.2179 -1.52481,-0.9441 -2.48495,-1.075 -8.92115,-1.2313 l -7.20993,-0.1693 z m 5.84095,5.0021 2.29304,0 c 1.48329,0 2.57785,0.2733 3.103,0.7695 1.08737,1.0275 1.08737,3.3589 0,4.3864 -0.52515,0.4962 -1.61971,0.7541 -3.103,0.7541 l -2.29304,0 0,-2.955 0,-2.955 z m 0.73012,10.7428 2.96611,0.1693 c 2.57377,0.1576 3.04608,0.3318 3.6506,1.339 0.3819,0.6362 0.68449,1.6606 0.68449,2.2778 0,0.6172 -0.30259,1.6416 -0.68449,2.2778 -0.60452,1.0072 -1.07683,1.1814 -3.6506,1.339 l -2.96611,0.1847 0,-3.8015 0,-3.7861 z" id="path3035-0-44"/>
    <path inkscape:connector-curvature="0" style="fill:#050505" d="m 430.38246,571.54289 0,14.1288 0,14.1288 7.5864,-0.1693 c 7.24694,-0.1652 7.67323,-0.2396 9.36606,-1.416 4.06147,-2.8222 4.20756,-10.2081 0.26239,-12.8821 -1.09067,-0.7392 -1.13222,-0.8495 -0.45633,-1.1389 1.29459,-0.5543 2.22459,-2.6617 2.22459,-5.0328 0,-3.1394 -0.84079,-4.9727 -2.85203,-6.2179 -1.52481,-0.9441 -2.48495,-1.075 -8.92115,-1.2313 l -7.20993,-0.1693 z m 5.84095,5.0021 2.29304,0 c 1.48329,0 2.57785,0.2733 3.103,0.7695 1.08737,1.0275 1.08737,3.3589 0,4.3864 -0.52515,0.4962 -1.61971,0.7541 -3.103,0.7541 l -2.29304,0 0,-2.955 0,-2.955 z m 0.73012,10.7428 2.96611,0.1693 c 2.57377,0.1576 3.04608,0.3318 3.6506,1.339 0.3819,0.6362 0.68449,1.6606 0.68449,2.2778 0,0.6172 -0.30259,1.6416 -0.68449,2.2778 -0.60452,1.0072 -1.07683,1.1814 -3.6506,1.339 l -2.96611,0.1847 0,-3.8015 0,-3.7861 z" id="path3035-0-9"/>
    <path inkscape:connector-curvature="0" style="fill:#050505" d="m 561.70229,177.58343 0,14.12878 0,14.12878 7.5864,-0.1693 c 7.24694,-0.16518 7.67323,-0.23962 9.36606,-1.41595 4.06147,-2.82229 4.20756,-10.20814 0.26239,-12.88213 -1.09067,-0.73924 -1.13222,-0.84951 -0.45633,-1.13892 1.29459,-0.55433 2.22459,-2.66167 2.22459,-5.0328 0,-3.13937 -0.84079,-4.97266 -2.85203,-6.2179 -1.52481,-0.94406 -2.48495,-1.07497 -8.92115,-1.23126 l -7.20993,-0.1693 z m 5.84095,5.00202 2.29304,0 c 1.48329,0 2.57785,0.2733 3.103,0.76954 1.08737,1.0275 1.08737,3.35888 0,4.38638 -0.52515,0.49624 -1.61971,0.75416 -3.103,0.75416 l -2.29304,0 0,-2.95504 0,-2.95504 z m 0.73012,10.7428 2.96611,0.1693 c 2.57377,0.15768 3.04608,0.33181 3.6506,1.339 0.3819,0.63627 0.68449,1.66066 0.68449,2.27784 0,0.61718 -0.30259,1.64158 -0.68449,2.27784 -0.60452,1.0072 -1.07683,1.18132 -3.6506,1.33901 l -2.96611,0.18469 0,-3.80154 0,-3.78614 z" id="path3035-0-2"/>
    <path inkscape:connector-curvature="0" style="fill:#050505" d="m 123.62368,454.23903 c -3.92234,-1.31121 -7.25023,-5.0113 -8.14959,-9.06105 -0.73302,-3.30074 -0.53817,-8.37796 0.42906,-11.18012 2.48734,-7.20607 9.89838,-10.28636 17.66841,-7.3436 l 1.91657,0.72587 0,2.99397 c 0,2.6656 -0.0701,2.95294 -0.63886,2.61983 -5.19779,-3.04405 -9.04802,-2.88245 -11.54372,0.48453 -2.18273,2.94475 -2.56733,8.71673 -0.81462,12.22557 1.93893,3.88163 6.60551,5.00497 10.8981,2.6234 l 2.0991,-1.16459 0,2.8403 c 0,2.63915 -0.0711,2.87859 -1.00392,3.38081 -2.95882,1.59301 -7.56762,1.95587 -10.86053,0.85508 z" id="path3041-56-9"/>
    <path inkscape:connector-curvature="0" style="fill:#050505" d="m 271.10596,1028.0057 c -3.92234,-1.3112 -7.25023,-5.0113 -8.14959,-9.0611 -0.73302,-3.3007 -0.53817,-8.3779 0.42906,-11.1801 2.48734,-7.2061 9.89838,-10.28636 17.66841,-7.3436 l 1.91657,0.7259 0,2.9939 c 0,2.6656 -0.0701,2.953 -0.63886,2.6199 -5.19779,-3.0441 -9.04802,-2.8825 -11.54372,0.4845 -2.18273,2.9447 -2.56733,8.7167 -0.81462,12.2256 1.93893,3.8816 6.60551,5.0049 10.8981,2.6234 l 2.0991,-1.1646 0,2.8403 c 0,2.6391 -0.0711,2.8786 -1.00392,3.3808 -2.95882,1.593 -7.56762,1.9559 -10.86053,0.8551 z" id="path3041-56-2"/>
    <path inkscape:connector-curvature="0" style="fill:#050505" d="m 444.8522,674.45228 c -3.92234,-1.3112 -7.25023,-5.01129 -8.14959,-9.06105 -0.73302,-3.30074 -0.53817,-8.37796 0.42906,-11.18011 2.48734,-7.20608 9.89838,-10.28636 17.66841,-7.34361 l 1.91657,0.72587 0,2.99397 c 0,2.6656 -0.0701,2.95294 -0.63886,2.61984 -5.19779,-3.04406 -9.04802,-2.88245 -11.54372,0.48452 -2.18273,2.94475 -2.56733,8.71674 -0.81462,12.22558 1.93893,3.88162 6.60551,5.00497 10.8981,2.6234 l 2.0991,-1.1646 0,2.84031 c 0,2.63915 -0.0711,2.87858 -1.00392,3.38081 -2.95882,1.593 -7.56762,1.95586 -10.86053,0.85507 z" id="path3041-56-5"/>
    <path inkscape:connector-curvature="0" style="fill:#050505" d="m 576.17203,288.57401 c -3.92234,-1.31121 -7.25023,-5.0113 -8.14959,-9.06105 -0.73302,-3.30074 -0.53817,-8.37796 0.42906,-11.18012 2.48734,-7.20607 9.89838,-10.28636 17.66841,-7.3436 l 1.91657,0.72587 0,2.99397 c 0,2.6656 -0.0701,2.95294 -0.63886,2.61983 -5.19779,-3.04405 -9.04802,-2.88245 -11.54372,0.48453 -2.18273,2.94475 -2.56733,8.71673 -0.81462,12.22557 1.93893,3.88163 6.60551,5.00497 10.8981,2.6234 l 2.0991,-1.16459 0,2.8403 c 0,2.63915 -0.0711,2.87859 -1.00392,3.38081 -2.95882,1.59301 -7.56762,1.95587 -10.86053,0.85508 z" id="path3041-56-3"/>
    <path inkscape:connector-curvature="0" style="fill:#050505" d="m 105.6873,571.63527 0,14.03644 0,14.03644 5.38463,0 c 8.31521,-0.006 11.98924,-1.14806 14.63662,-4.57108 3.64887,-4.71794 3.96925,-12.83848 0.70731,-17.83797 -2.91741,-4.47142 -6.04557,-5.66383 -14.94464,-5.66383 l -5.78392,0 z m 6.57108,5.29445 2.70372,0.23086 c 4.81349,0.41675 6.8522,2.70232 7.07304,7.91089 0.16304,3.84554 -0.63742,6.0428 -2.78358,7.66463 -1.04778,0.79179 -2.36518,1.22311 -4.25523,1.41596 l -2.73795,0.29242 0,-8.75738 0,-8.75738 z" id="path3029-3-2"/>
    <path inkscape:connector-curvature="0" style="fill:#050505" d="m 279.43354,185.757 0,14.03643 0,14.03644 5.38464,0 c 8.31521,-0.006 11.98924,-1.14806 14.63662,-4.57107 3.64887,-4.71795 3.96925,-12.83848 0.70731,-17.83798 -2.91741,-4.47142 -6.04557,-5.66382 -14.94464,-5.66382 l -5.78393,0 z m 6.57109,5.29444 2.70372,0.23086 c 4.81349,0.41676 6.8522,2.70232 7.07304,7.91089 0.16304,3.84554 -0.63742,6.0428 -2.78358,7.66464 -1.04778,0.79179 -2.36518,1.22311 -4.25523,1.41595 l -2.73795,0.29243 0,-8.75739 0,-8.75738 z" id="path3029-3-1"/>
    <path inkscape:connector-curvature="0" style="fill:#050505" d="m 439.03765,814.07188 0,14.03644 0,14.03644 5.38463,0 c 8.31521,-0.006 11.98924,-1.14806 14.63662,-4.57108 3.64887,-4.71794 3.96925,-12.83848 0.70731,-17.83797 -2.91741,-4.47142 -6.04557,-5.66383 -14.94464,-5.66383 l -5.78392,0 z m 6.57108,5.29445 2.70372,0.23086 c 4.81349,0.41675 6.8522,2.70232 7.07304,7.91089 0.16304,3.84554 -0.63742,6.0428 -2.78358,7.66463 -1.04778,0.79179 -2.36518,1.22311 -4.25523,1.41596 l -2.73795,0.29242 0,-8.75738 0,-8.75738 z" id="path3029-3-6"/>
    <path inkscape:connector-curvature="0" style="fill:#050505" d="m 590.56053,424.15299 0,14.03644 0,14.03644 5.38463,0 c 8.31521,-0.006 11.98924,-1.14806 14.63662,-4.57108 3.64887,-4.71794 3.96925,-12.83847 0.70731,-17.83797 -2.91741,-4.47142 -6.04557,-5.66383 -14.94464,-5.66383 l -5.78392,0 z m 6.57108,5.29445 2.70372,0.23086 c 4.81349,0.41676 6.8522,2.70232 7.07304,7.91089 0.16304,3.84554 -0.63742,6.0428 -2.78358,7.66463 -1.04778,0.7918 -2.36518,1.22312 -4.25523,1.41596 l -2.73795,0.29243 0,-8.75739 0,-8.75738 z" id="path3029-3-9"/>
    <path inkscape:connector-curvature="0" style="fill:#050505" d="m 613.49254,581.6311 0,-14.03644 8.57891,0 8.5789,0 0,2.70879 0,2.70878 -5.29336,0 -5.29337,0 0,2.70879 0,2.70879 4.9283,0 4.92831,0 0,2.70878 0,2.70876 -4.92831,0 -4.9283,0 0,3.2013 0,3.2013 5.4759,0 5.47589,0 0,2.7088 0,2.7088 -8.76143,0 -8.76144,0 0,-14.03645 z" id="path3023-8-4"/>
    <path inkscape:connector-curvature="0" style="fill:#050505" d="m 443.78691,931.14382 0,-14.0364 8.57891,0 8.5789,0 0,2.7088 0,2.7088 -5.29337,0 -5.29336,0 0,2.7088 0,2.7088 4.9283,0 4.92831,0 0,2.7087 0,2.7088 -4.92831,0 -4.9283,0 0,3.2013 0,3.2013 5.47589,0 5.4759,0 0,2.7088 0,2.7088 -8.76143,0 -8.76144,0 0,-14.0365 z" id="path3023-8-1"/>
    <path inkscape:connector-curvature="0" style="fill:#050505" d="m 276.10158,355.35696 0,-14.0365 8.57891,0 8.5789,0 0,2.7088 0,2.7088 -5.29337,0 -5.29336,0 0,2.7088 0,2.7088 4.9283,0 4.92831,0 0,2.7088 0,2.7087 -4.92831,0 -4.9283,0 0,3.2013 0,3.2013 5.47589,0 5.4759,0 0,2.7088 0,2.7088 -8.76143,0 -8.76144,0 0,-14.0364 z" id="path3023-8-5"/>
    <path inkscape:connector-curvature="0" style="fill:#050505" d="m 96.294428,737.19458 0,-14.03644 8.578912,0 8.5789,0 0,2.70879 0,2.70878 -5.29336,0 -5.29337,0 0,2.70879 0,2.70879 4.9283,0 4.92831,0 0,2.70878 0,2.70879 -4.92831,0 -4.9283,0 0,3.20129 0,3.2013 5.4759,0 5.47589,0 0,2.70878 0,2.70879 -8.76143,0 -8.761442,0 0,-14.03644 z" id="path3023-8-51"/>
    <path inkscape:connector-curvature="0" style="fill:#050505" d="m 92.66303,840.09928 c -0.124671,-0.19065 -0.226686,-6.62609 -0.226686,-14.30099 l 0,-13.95435 7.568756,0 7.56876,0 0,2.70879 0,2.70878 -4.67008,0 -4.67009,0 0,2.70879 0,2.70879 4.34802,0 4.348,0 0,2.70878 0,2.70879 -4.33809,0 -4.338106,0 -0.09043,6.03321 -0.09043,6.0332 -2.591473,0.14142 c -1.425304,0.0778 -2.693479,-0.0146 -2.81815,-0.20521 z" id="path3039-3-9"/>
    <path inkscape:connector-curvature="0" style="fill:#050505" d="m 280.58165,446.13976 c -0.14131,-0.1906 -0.25693,-6.6261 -0.25693,-14.301 l 0,-13.9543 8.5789,0 8.57891,0 0,2.7088 0,2.7088 -5.29337,0 -5.29337,0 0,2.7087 0,2.7088 4.92831,0 4.92831,0 0,2.7088 0,2.7088 -4.91707,0 -4.91707,0 -0.1025,6.0332 -0.10251,6.0332 -2.93733,0.1414 c -1.61554,0.078 -3.05296,-0.014 -3.19428,-0.2052 z" id="path3039-3-6"/>
    <path inkscape:connector-curvature="0" style="fill:#050505" d="m 411.90149,141.07372 c -0.14131,-0.19065 -0.25693,-6.62609 -0.25693,-14.30099 l 0,-13.95436 8.5789,0 8.57891,0 0,2.70879 0,2.70879 -5.29337,0 -5.29337,0 0,2.70878 0,2.70879 4.92831,0 4.92831,0 0,2.70879 0,2.70878 -4.91707,0 -4.91707,0 -0.1025,6.03321 -0.10251,6.03321 -2.93733,0.14142 c -1.61554,0.0778 -3.05297,-0.0146 -3.19428,-0.20521 z" id="path3039-3-66"/>
    <path inkscape:connector-curvature="0" style="fill:#050505" d="m 622.01321,672.41396 c -0.14131,-0.19065 -0.25693,-6.62609 -0.25693,-14.30098 l 0,-13.95436 8.5789,0 8.57891,0 0,2.70879 0,2.70879 -5.29337,0 -5.29337,0 0,2.70878 0,2.70879 4.92831,0 4.92831,0 0,2.70878 0,2.70879 -4.91707,0 -4.91707,0 -0.1025,6.03321 -0.10251,6.0332 -2.93733,0.14143 c -1.61554,0.0778 -3.05296,-0.0146 -3.19428,-0.20522 z" id="path3039-3-2"/>
    <path inkscape:connector-curvature="0" style="fill:#050505" d="m 271.84102,603.84144 c -2.73565,-0.96602 -4.67668,-2.49741 -6.27983,-4.95451 -1.7417,-2.66945 -2.29907,-4.97242 -2.29907,-9.49932 0,-8.00501 4.15538,-13.14017 11.49938,-14.21073 2.34191,-0.34139 6.79206,0.31846 9.14829,1.35646 1.43235,0.631 1.43891,0.64568 1.54793,3.46554 0.0602,1.55752 0.0449,2.83185 -0.0341,2.83185 -0.079,0 -1.11391,-0.47692 -2.29984,-1.05982 -3.12003,-1.53352 -8.1527,-1.57128 -10.22307,-0.0767 -1.72433,1.24479 -2.47469,2.59895 -3.05714,5.51717 -1.31226,6.57472 1.88067,11.87206 7.1558,11.87206 3.27414,0 3.42057,-0.13929 3.42057,-3.25398 l 0,-2.6561 -2.02783,0 -2.02783,0 0.11127,-2.3394 0.11126,-2.33941 4.83705,-0.13742 4.83704,-0.13742 0,6.88959 0,6.8896 -2.46415,1.03659 c -3.11573,1.31068 -9.33844,1.73015 -11.95571,0.80594 z" id="path3037-3-5"/>
    <path inkscape:connector-curvature="0" style="fill:#050505" d="m 431.44512,296.75506 c -2.73565,-0.96602 -4.67668,-2.49741 -6.27983,-4.95451 -1.7417,-2.66945 -2.29907,-4.97242 -2.29907,-9.49932 0,-8.00501 4.15538,-13.14017 11.49938,-14.21073 2.34191,-0.34139 6.79206,0.31845 9.14829,1.35646 1.43235,0.631 1.43891,0.64568 1.54793,3.46553 0.0602,1.55753 0.0449,2.83186 -0.0341,2.83186 -0.079,0 -1.11391,-0.47692 -2.29984,-1.05982 -3.12003,-1.53352 -8.1527,-1.57128 -10.22307,-0.0767 -1.72433,1.24479 -2.47469,2.59895 -3.05714,5.51717 -1.31226,6.57472 1.88067,11.87206 7.1558,11.87206 3.27414,0 3.42057,-0.1393 3.42057,-3.25399 l 0,-2.65609 -2.02783,0 -2.02783,0 0.11127,-2.33941 0.11126,-2.3394 4.83705,-0.13742 4.83704,-0.13743 0,6.8896 0,6.8896 -2.46415,1.03659 c -3.11574,1.31067 -9.33844,1.73015 -11.95571,0.80594 z" id="path3037-3-3"/>
    <path inkscape:connector-curvature="0" style="fill:#050505" d="m 635.49599,840.21713 c -2.7357,-0.96602 -4.6767,-2.4974 -6.2799,-4.95451 -1.7417,-2.66945 -2.2991,-4.97242 -2.2991,-9.49931 0,-8.00502 4.1554,-13.14017 11.4994,-14.21073 2.3419,-0.3414 6.7921,0.31845 9.1483,1.35645 1.4324,0.63101 1.4389,0.64569 1.5479,3.46554 0.06,1.55752 0.045,2.83185 -0.034,2.83185 -0.079,0 -1.1139,-0.47692 -2.2998,-1.05982 -3.12,-1.53352 -8.1527,-1.57128 -10.2231,-0.0767 -1.7243,1.24479 -2.4747,2.59896 -3.0571,5.51718 -1.3123,6.57471 1.8806,11.87205 7.1558,11.87205 3.2741,0 3.4205,-0.13929 3.4205,-3.25398 l 0,-2.65609 -2.0278,0 -2.0278,0 0.1112,-2.33941 0.1113,-2.33941 4.8371,-0.13742 4.837,-0.13742 0,6.8896 0,6.8896 -2.4642,1.03658 c -3.1157,1.31068 -9.3384,1.73016 -11.9557,0.80594 z" id="path3037-3-9"/>
  </g>
  <metadata>
    <rdf:RDF>
      <cc:Work>
        <dc:format>image/svg+xml</dc:format>
        <dc:type rdf:resource="http://purl.org/dc/dcmitype/StillImage"/>
        <cc:license rdf:resource="http://creativecommons.org/licenses/publicdomain/"/>
        <dc:publisher>
          <cc:Agent rdf:about="http://openclipart.org/">
            <dc:title>Openclipart</dc:title>
          </cc:Agent>
        </dc:publisher>
        <dc:title>Ukulele notes</dc:title>
        <dc:date>2013-11-28T09:23:02</dc:date>
        <dc:description>Diagram of individual notes found with standard Ukulele GCEA tuning.</dc:description>
        <dc:source>http://openclipart.org/detail/189182/ukulele-notes-by-bedpanner-189182</dc:source>
        <dc:creator>
          <cc:Agent>
            <dc:title>bedpanner</dc:title>
          </cc:Agent>
        </dc:creator>
        <dc:subject>
          <rdf:Bag>
            <rdf:li>finger</rdf:li>
            <rdf:li>hawaiian</rdf:li>
            <rdf:li>ukulele</rdf:li>
            <rdf:li>music</rdf:li>
            <rdf:li>string</rdf:li>
            <rdf:li>fret</rdf:li>
            <rdf:li>finger</rdf:li>
            <rdf:li>pluck</rdf:li>
            <rdf:li>pick</rdf:li>
            <rdf:li>solo</rdf:li>
            <rdf:li>guitar</rdf:li>
          </rdf:Bag>
        </dc:subject>
      </cc:Work>
      <cc:License rdf:about="http://creativecommons.org/licenses/publicdomain/">
        <cc:permits rdf:resource="http://creativecommons.org/ns#Reproduction"/>
        <cc:permits rdf:resource="http://creativecommons.org/ns#Distribution"/>
        <cc:permits rdf:resource="http://creativecommons.org/ns#DerivativeWorks"/>
      </cc:License>
    </rdf:RDF>
  </metadata>
</svg>
