<?xml version="1.0" standalone="yes"?>
<svg xmlns="http://www.w3.org/2000/svg" xmlns:xlink="http://www.w3.org/1999/xlink" xmlns:svg="http://www.w3.org/2000/svg" xmlns:dc="http://purl.org/dc/elements/1.1/" xmlns:cc="http://web.resource.org/cc/" xmlns:rdf="http://www.w3.org/1999/02/22-rdf-syntax-ns#" width="1075" height="614">
<path style="fill:#bdc5c3; stroke:none;" d="M0 0L0 48L1 48L1 32L2 32L2 43L3 43L3 41L4 41L4 46L16 43L16 40L24 40L24 36L32 36L32 40L35 38L36 38L37 38C38.4173 40.5234 39.4831 39.4584 40 37L41 37L43 40L43 32L45 32L45 39L46 39C46.6272 36.0131 47.0757 32.0157 50.2276 30.6034C53.8675 28.9725 59.0824 30.1782 63 29.7145C76.7264 28.0895 91.2725 27.549 104 22C107.705 26.9711 114.046 28.9789 120 29L120 26L112 26L112 24L120 24L120 16L123 20L125 20L128 16L128 21L136 21L136 24L144 24L144 19C149.744 23.5483 155.906 25.6284 159 17L160 17L160 20L169 20L172 16L173 20L174 14L192 16L192 13L200 16L201 16C203.464 13.5253 204.536 13.5254 207 16L232 16L232 13L266 16L272 10L272 15L282 13C282.815 16.8221 284.178 18.1851 288 19L288 11L289 11L290 11C292.315 13.6198 294.492 11.7419 297 10C298.94 13.376 300.259 14.2567 304 13L312 18C317.156 8.09009 334.722 17.8756 338 8L342 8L343 12L344 12L344 8C352.382 12.2109 358.651 10.9803 368 11L368 16C380.568 16 396.175 13.4692 408 18C413.533 10.7373 423.738 13 432 13L432 16L464 16L464 21C470.38 21.0706 479.248 25.4316 480 16L496 16L496 22C503.415 22.0009 518.597 21.8989 524 27L554 22L560 27C562.827 20.7936 574.188 32.4541 576 24C579.027 25.7042 582.953 28.8844 584 24L592 27L592 24L624 28L624 24L640 24L640 16L656 16L656 25C662.403 25.0709 668.404 29.1304 672 22L688 25L688 16L704 16L704 27L705 27L706 22L710 22L711 27L712 27L712 23L720 27L736 28L736 20L768 22L768 33L760 33L760 36L774 32L774 24L776 24L776 30C781.294 29.9813 783.906 29.5018 787 25L789 30L791 26C794.432 28.4039 797.568 28.4039 801 26L816 29L816 16L832 16L832 24L848 24L848 28L856 28L856 24C861.51 28.6815 865.444 31.3513 870 24L864 24L864 20L875 20L875 24L877 24L877 20L888 20L888 24L905 25C908.621 19.4141 921.904 22 928 22L928 27L944 29L944 14C952.579 18.2517 958.473 19 968 19L968 13L1008 15L1008 16L1006 18L1011 18L1009 16L1011 12L1012 16L1015 16L1015 13L1016 13L1024 22L1048 24L1048 26L1040 24L1039 24L1039 32L1040 32C1050.58 23.9815 1064.43 34.5868 1075 32L1075 0L0 0z"/>
<path style="fill:#c4cccc; stroke:none;" d="M338 8C332.606 17.782 315.547 6.66437 312 18L304 13C300.323 13.8511 299.281 12.9197 297 10L290 11L289 11L288 11L288 19L282 13L272 15L272 10L266 16L232 13L232 16L207 16C205.025 12.528 202.975 12.528 201 16L200 16L200 13L192 13L192 16L174 14L173 20L172 16L169 20L160 17L159 17C154.602 25.0374 150.492 22.5683 144 19L144 24L136 24L136 21L128 21L128 16L125 20L123 20L120 16L120 24L112 24L112 26L120 26L120 29C113.857 28.9279 108.533 26.0992 104 22L68 28.9498L49.4298 30.6034L46 39L45 39L45 32L43 32L43 40L41 37L40 37L40 40L37 38L36 38L35 38L32 40L32 36L24 36L24 40L16 40L16 43L4 46L4 41L3 41L3 43L2 43L2 32L1 32L0 264L32 264L32 260L16 260C19.1979 254.201 27.1879 256 33 256L32 259L48 248L62 232C69.3684 229.43 71.6147 223.963 77.3758 219.588C83.7959 214.713 94.8495 215.082 96 205C112.135 201.287 129.721 181.25 141.721 170.296C160.523 153.133 182.674 139.038 202.339 122.833C211.305 115.444 220.608 103.497 232 100.495C250.97 95.4979 274.496 99 294 99C337.947 99 381.981 100 426 100C517.456 100 608.779 100.911 700 101.996C733.056 102.389 766.074 103 799 103C814.047 103 830.123 100.815 844.999 102.094C851.739 102.674 856.322 108.544 863 109L875 122L880 128L884 128L872 112L886 112L886 118L890 118L892 112L888 112L888 109L896 109L896 96L928 96L928 80L936 80L936 88L946 88L942 100L952 100L952 96L960 96L960 112L976 112L976 103L980 103L980 97L984 94L988 100L992 100L992 104L996 104L996 112L1000 112L1000 116L1004 116L1002 110L1012 112L1012 120L1008 120L1010 136L1014 136L1014 137L1011 138L1011 139L1018 140L1018 144L1022 144L1024 136L1031.38 143.411L1056 144L1056 160C1060.46 160.245 1065.57 162.05 1062 167L1062 168L1067 171L1067 173L1056 176L1056 192L1075 192L1075 32C1066.33 33.1336 1047.38 23.5494 1040 32L1039 32L1039 24L1040 24L1048 26L1048 24L1024 22L1016 13L1015 13L1015 16L1012 16L1011 12L1011 18L1006 18L1008 16L1008 15L968 13L968 19L944 14L944 29L928 27L928 22C922.937 22 906.198 19.4104 905 25L888 24L888 20L877 20L877 24L875 24L875 20L864 20L864 24L870 24C864.386 30.407 862.282 27.5487 856 24L856 28L848 28L848 24L832 24L832 16L816 16L816 29L801 26C797.312 28.0477 794.688 28.0477 791 26L789 30L787 25C783.483 28.7185 781.174 29.9388 776 30L776 24L774 24L774 32L760 36L760 33L768 33L768 22L736 20L736 28L720 27C718.864 23.1176 715.696 23.1179 712 23L712 27L711 27L710 22L706 22L705 27L704 27L704 16L688 16L688 25L672 22C667.392 28.0323 662.644 25.0228 656 25L656 16L640 16L640 24L624 24L624 28L592 24L592 27L584 24C581.737 27.1435 579.206 25.2205 576 24C572.461 31.972 561.578 19.6348 560 27L554 22L524 27C520.1 21.593 502.614 22 496 22L496 16L480 16C478.594 24.6185 470.312 21.0217 464 21L464 16L432 16L432 13C424.49 13 411.932 10.204 408 18C397.604 12.5907 379.581 16 368 16L368 11L344 8L344 12L343 12L342 8L338 8z"/>
<path style="fill:#c7cccb; stroke:none;" d="M928 80L928 96L896 96L896 109L888 109L888 112L892 112L890 118L886 118L886 112L872 112C873.451 116.661 878.162 118.163 880.945 122.054C883.249 125.275 882.983 130.348 885.603 133.01C894.914 142.474 908.357 146.519 918.027 156.475C924.76 163.406 933.694 175.225 944 176C945.238 183.352 955.378 188.19 960.996 192.323C973.86 201.785 985.642 214.419 997.989 224.785C1002.93 228.933 1013.08 234.204 1014 241C1018.72 242.29 1022.74 245.157 1024 250C1027.97 251.847 1035.76 256.364 1036.85 260.929C1038.63 268.414 1029.95 285.886 1027.06 293C1020.66 308.772 1017.67 325.903 1012.14 342C1006.57 358.23 997.401 376.869 996 394L997 394L1002 379L1003 379L1002 384L1008 381C1009.1 386.151 1019.59 384 1024 384L1024 400L1048 400L1048 429L1056 429C1054.53 436.929 1055.06 445.155 1064 448C1065.03 454.775 1069.09 456.087 1075 454L1075 192L1056 192L1056 176L1067 173L1067 171L1062 168L1062 167C1067.25 162.412 1060.01 160.097 1056 160L1056 144L1032.21 143.411L1024 136L1022 144L1018 144L1018 140L1011 139L1011 138L1014 137L1014 136L1010 136L1008 120L1012 120L1012 112L1002 110L1004 116L1000 116L1000 112L996 112L996 104L992 104L992 100L988 100L984 94L980 97L980 103L976 103L976 112L960 112L960 96L952 96L952 100L942 100L946 88L936 88L936 80L928 80z"/>
<path style="fill:#cdcdb8; stroke:none;" d="M96 205C94.1125 214.13 83.9858 214.882 77.3758 219.019C71.5772 222.649 68.5962 228.699 62 232L40 255L432 255L432 254L360 252L360 247L368 247L368 246L360 246L362 238L358 232L336 233L336 230L326 228L328 224L320 224C319.888 214.588 313.741 216 306 216L309 218C303.027 223.051 296.431 222 289 222L289 226L256 227L256 224L232 224L232 221L216 222L216 221C221.81 220.471 223.503 218.473 225 213L240 214L243 200L247 200L247 199C236.425 197.534 226.523 196.507 216 199C218.007 192.625 226.151 192.252 232 192L232 184L228 184L228 176L231 173L256 172L256 168L272 168L272 160L240 160L240 144L256 144L256 120L288 118L288 122L320 120L320 110L336 110C339.48 103.687 349.596 104 356 104C375.808 104 395.919 106 416 106L418 103C407.605 98.6363 394.025 101.88 383 100.83C346.226 97.3305 307.97 99 271 99C256.165 99 235.288 95.6559 222.263 104.274C218.609 106.692 216.249 111.152 212.711 113.946C198.164 125.434 184.163 136.924 169.996 148.91C161.154 156.39 150.518 161.925 141.721 169.66C128.401 181.371 112.863 198.797 96 205z"/>
<path style="fill:#d0d2c0; stroke:none;" d="M380 100L380 101L418 102L418 103L416 106C395.555 106 375.192 104 355 104C349.234 104 338.17 103.461 336 110L320 110L320 120L288 122L288 118L256 120L256 144L240 144L240 160L242 157C251.642 161.092 261.574 160 272 160L272 168L256 168L256 172L231 173L228 176L228 184L232 184L232 192C226.222 192.119 217.19 192.127 216 199L247 199L247 200L243 200L240 214L225 213C223.129 217.988 221.429 220.135 216 221L216 222L232 221L232 224L256 224L256 227L289 226L289 222C295.89 222 304.195 223.769 309 218L306 216C313.321 216 319.707 214.987 320 224L328 224L326 228L336 230L336 233L358 232L362 238L360 246L368 246L368 247L360 247L360 252C451.241 256.673 543.362 255 635 255L700 255C706.454 255 718.539 256.602 722 250L718 247L714 247L714 241L752 240L752 230L768 232C767.779 225.822 769.718 223.345 776 223L776 240L808 240C808 235.99 808.566 233.347 805 231L808 228L800 227C803.32 220.864 809.555 220.053 816 220L816 216L827 216L829 208L825 208L825 207C829.789 204.968 831.823 203.332 832 198L896 198L896 192L911 192L911 190L887 189.401L864 180L867 176L867 175L850 176L850 172L859 174C857.404 168.179 853.919 165.73 848 167L848 160L816 160L816 152L768 154L768 138L704 135C703.961 124.111 696.965 126 688 126C686.001 119.977 677.262 122 672 122L672 112L688 112L688 110L640 108L640 116L624 116L624 108L592 108C595.112 102.36 602.688 104.667 608.333 104.667C624.428 104.667 639.959 104 656 104C695.378 104 734.745 104.956 774 104.971C796.526 104.979 822.68 101.352 844.911 105.259C851.906 106.489 857.508 110.47 864 113L863 109L846.985 102.188L790 102.985L634 101.996L586 100.004L380 100z"/>
<path style="fill:#cdcdb8; stroke:none;" d="M592 108L624 108L624 116L640 116L640 108L688 110L688 112L672 112L672 122C677.645 122 684.901 120.381 688 126C696.473 126 703.876 124.478 704 135L768 138L768 154L816 152L816 160L848 160L848 167C853.865 166.229 856.688 168.729 859 174L850 172L850 176L867 175L867 176L864 176L864 180L886 189.401L911 190L911 192L896 192L896 198L832 198C831.61 203.056 829.148 204.512 825 207L825 208L829 208L827 216L816 216L816 220C809.776 220.017 802.244 220.108 800 227L808 228L805 231L808 232L808 240L776 240L776 223C769.451 223.159 767.071 225.347 768 232L752 230L752 240L714 241L714 247L718 247L722 250C717.078 256.293 706.287 255 699 255L640 255L640 256C738.267 256 836.711 259 935 259C959.719 259 984.321 260 1009 260C1017.36 260 1030.7 257.497 1037 264L1038 264C1036.93 257.272 1030.44 251.832 1024 250C1023.23 244.775 1019.08 241.79 1014 241C1013.67 233.689 1002.43 227.945 997.207 223.485C985.592 213.571 974.447 202.515 962.689 192.951C956.761 188.128 946.329 183.65 944 176C927.121 173.473 915.136 149.794 900.576 141.598C894.763 138.326 885.216 135.47 884 128L880 128C879.57 124.259 878.814 122.661 875 122C873.097 115.813 866.433 113.918 861.015 111.407C847.251 105.028 836.121 105 821 105C766.019 105 711.118 104 656 104C639.672 104 624.025 104.333 607.667 104.333C602.458 104.333 593.975 102.05 592 108z"/>
<path style="fill:#c7cccb; stroke:none;" d="M32 259L33 256C27.6106 256 18.05 253.823 16 260L32 260L32 264L0 264L0 614L123 614L123 608L128 608L128 604L144 604L144 596L136 596C138.356 590.439 137.984 586.556 136 581L135 581C130.649 585.029 128.492 580.405 128 576L120 576C122.37 570.409 123.439 567.461 116 568L114 552L107 560L109 564L107 564L104 555L96 555L96 544L64 544L64 536L56 531L56 538L55 538C52.0854 531.434 46.6293 529.694 40 528L40 522C34.1587 523.362 34.9704 518.535 34.9969 514C35.0327 507.879 41.6585 492.361 37 489L39 480L36 480L35 464L32 464L32 456L36 456C32.2359 449.238 30.4753 442.59 40 440C41.1929 435.613 43.6132 433.193 48 432L48 424L40 424L56 415L57 407C65.7882 403.386 66 399.997 66 391L70 392L73 384L72 381L75 384L76 384C75.9055 373.432 70.9868 362.996 67.8843 353C61.3679 332.005 54.1692 311.107 48.0918 290C43.6508 274.576 35.8839 262.36 45 248L32 259z"/>
<path style="fill:#bbb79d; stroke:none;" d="M40 255L40 256L640 256L623 255L588 255L465 255L40 255z"/>
<path style="fill:#a19b83; stroke:none;" d="M39 256L39 262L40 262C44.7821 258.377 53.1969 260 59 260L107 260L292 260C462.941 260 634.181 257.829 805 262.015C859.254 263.344 913.702 264 968 264C982.292 264 996.723 263.414 1011 264.039C1019.54 264.413 1028.61 266.479 1037 264L1037 262C1026.4 258.412 1014.06 260 1003 260C985.981 260 969.055 259 952 259C892.618 259 832.355 260.56 773 257.961C680.61 253.915 587.551 256 495 256L39 256z"/>
<path style="fill:#7e735a; stroke:none;" d="M40 260C40.1255 271.369 45.0332 291.788 56 297L64 292C66.582 294.955 71.293 294 75 294C83.4188 294 90.9561 292.56 98 298L99 298L105 293L106 293L120 295.996L150 299L164 296L164 299L177 299L182 298C178.6 291.52 151.211 293.111 144 294L142 291L142 290L150 288L166 288C166.794 291.628 189.188 291.771 190 288L191 288L191 292L217 295L217 296L204 294L203 294L202 294C200.33 296.784 196.249 297.002 197 294L191 299L222 300L220 303L220 304L230 302L233 303C241.4 298.654 256.16 303.279 264.999 304.413C270.857 305.164 278.532 303.927 284.576 303.823C290.285 303.726 296.785 302.373 300 308L301 308L301 305L323 303L322 306L323 307L330 308L336 309L336 304L337 304C338.769 306.034 340.231 306.034 342 304L343 304L344 304L353.015 304.148L372 309L373 309L374 306C380.835 307.64 395.94 305.732 400 312L401 312L405 312L411 311L411 314L407 314L407 316L439 318.83L451 320L457 320C460.212 319.329 479.21 322.285 473 326L473 327L476 327L476 328L469 328L466 332L477 333L477 335L472 335L472 337L488 340L476 349L485 347L483 352L499 355L495 360L495 361L506 363L506 364L504 367L509 367L509 368L504 368L504 370C508.564 370.414 511.613 371.389 513 376L514 376L514 372L515 372L516 378L517 378L517 376L518 376L521 381C518.954 372.025 521.177 369.744 525 362C521.674 359.669 522.958 355.144 518.931 353.013C509.455 348 501.581 354.29 493.344 343.999C486.263 335.152 493.048 319.708 504 318L504 317L496 316L499 314L499 313L486 300L488 288C491.674 286.925 491.882 284.453 491 281L503 279L515 273L516 276L517 273L541 273L541 269L542 269L547 274L547 269L557 272L558 269L580 272C580.116 275.807 580.487 278.158 584 280C583.065 283.709 583.878 291.117 588 292L587 296L582 294L582 299L590 301L590 304L600 305L600 304L597 302L605 305L621 305L620 309L615 310L618 308L618 307C609.754 307 598.372 309.1 591 305L590 308C585.155 306.445 580.035 306.036 579 312L598 313L598 316L575 316L577 320L577 321L574 324L578 324L574.633 343.985L558.965 353.513L545.012 372.514L537.96 384.968L525 388L527 390L519 393L519 397C523.931 397.601 541.235 406.234 543 398L547 402L558 403C559.551 401.194 559.863 400.837 561 403L563 401L564 401L579 403.184L619 408L619 404L635 406L632 405L632 404C642.811 403.625 656.688 402.798 666 409L667 409L683 406L695 406L701 408L701 407L697 407L697 406L721 407L720 411C724.405 411 734.896 413.151 736 408L747 411L748 406L730.83 402.263L704 400L705 403C697.157 401.39 694.908 401.229 688 405L689 402L688 401L675 401L671 404C666.824 398.043 659.194 400.756 653 400.989C640.39 401.464 628.644 401.68 616 399.999C607.679 398.893 599.464 395.958 592 401L589.889 398.111L572 388L572 387L592 388L592 378L608 378L611 385L624 384L624 368L627 369L636 368L636 367L628 365L628 362L586 360L586 356L592 353L596 355L596 351L588 350L579 352L577 344L578 338L584 341L580 329C589.122 326.154 608.255 323.753 615 332L616 332C617.78 328.771 621.647 326.503 625 329L627 327L633 329L634 326L649 330L657 329C658.687 331.043 661.574 330.709 662 328C678.334 333.178 699.157 333.129 716 331L715 335C709.257 332.012 704.574 333.198 699 336L699 334L688 337L688 338L690 341C695.29 340.81 706.041 343.845 708 338L724 340L723 344L730 348L730 347L728 345L731 346C733.443 344.866 735.762 343.018 733 341L734 337L728 332L738 334L749.001 333.043L781 333L782 326L787 327L796 322C796.42 324.565 797.475 327.669 800 325C806.563 325.787 811.909 326.763 815 320L812 321L808 318C810.543 313.764 819.136 314.616 824 314L824 317L833 316L829 319L830 326L840 329L852 328L853 322L847 320L846 320L844 323L845 320L837 317L841 318C842.02 315.101 842.228 313.692 839 313L838 311L838 310L867 314C867.388 307.254 862.895 306.126 857 306L859 310L839.999 308.005L813 309L813 305L812 305L811 311L806 312L811 304L808 308L801 305L800 305L797 305C792.652 306.614 790.379 308.234 790 313L788 313C787.852 308.528 786.576 306.623 783 304L764 307L757 305L758 302L747 304L743 296L746 299L745 305L744 305L744 302L732 301L733 304L724 304L724 303L728 303L728 301L714 299L714 298L741 299L741 295L747 295C742.846 285.44 730.952 285.937 722 288L723 284L725 286L726 286L738 286L739 280L740 280L740 286L743 284L744 284L754 286L754 285L748 284L748 281L761 283C758.904 276.683 750.319 279.344 745 279.275C737.897 279.185 731.117 275.578 724 275.091C718.52 274.716 713.509 276.903 709 273L713 274L703 271L703 275L698 278L686 272C682.172 272.304 680.827 273.205 680 277L675 278C669.328 275.92 654.84 272.145 651 278L649 276L625 275L625 277L629 277L629 278L620 275L616 283C620.26 281.463 629.233 280.189 633 283L634 283L635 281L642 284L643 281L644 281L644 287L638 286L634 286L633 286L632 289L621 288C619.321 285.085 612.862 284.059 612 288L611 288L611 283L615 283L615 278L592 275L592 273L599 273L599 272L588 272L585 268L587 273L581 272L581 271L584 268L578 270C581.617 265.657 585.679 266.001 591 266L592 261L40 260z"/>
<path style="fill:#827a62; stroke:none;" d="M590 263L591 266C585.908 266 580.747 265.018 578 270L584 268L581 271L581 272L587 273L585 268L588 272L599 272L599 273L592 273L592 275L615 278L615 283L611 283L611 288L612 288L612 285L621 288C624.746 287.606 632.484 290.257 633 286L634 286C635.556 287.813 636.444 287.813 638 286L644 287L644 281L643 281L642 284L634 283L633 283C629.585 280.017 619.946 280.953 616 283L620 275L621 278L629 278L629 277L625 277L625 275L651 278C656.53 272.69 668.347 276.186 675 278L680 277L686 272L698 278L703 275L703 271L713 274L709 273C712.465 277.551 718.078 274.865 723 275.105C730.171 275.455 736.894 279.182 744 279.53C750.028 279.825 757.466 276.592 761 283L748 281L748 284L754 285L754 286L744 284L743 284L740 286L740 280L739 280L738 286C734.406 285.2 726.924 281.775 726 286L725 286L723 284L722 288C731.639 286.545 741.399 286.021 747 295L741 295L741 299L714 298L714 299L728 301L728 303L724 303L724 304L733 304L732 301C736.449 301.092 741.431 300.992 744 305L745 305L743 296L747 304L758 302L757 305L764 307C769.821 305.864 779.317 309.68 783 304L788 313L790 313C790.719 308.579 793.197 307.059 797 305C798.127 307.006 798.873 307.006 800 305L801 305C801.796 308.716 804.637 308 808 308L811 304L806 312L811 311L812 305L813 305L813 309L839.999 308.023L859 310L857 306C862.511 306.256 867.035 307.78 867 314L838 310L838 311L839 313L841 318L837 317L838 320L845 320L844 323L846 320L847 320L853 322L852 328L840 329L830 326L829 319L833 316L824 317L824 314C819.171 314.307 809.738 313.074 808 318L812 321L815 320C811.018 325.967 806.688 325.492 800 325C797.306 326.103 796.775 324.582 796 322L787 327L782 326L781 333L749.001 333.012L738 334L728 332L734 337L733 341L731 346L728 345L730 347L730 348L723 344L724 340L708 338C704.846 343.43 695.617 340.406 690 341L688 338L688 337L699 334L699 336C705.196 333.801 708.671 332.575 715 335L716 331C698.144 332.409 679.563 332.013 662 328C662 331.102 658.702 330.548 657 329L649 330L634 326L633 329L625 329C621.82 326.223 617.222 328.317 616 332L615 332C610.443 323.662 587.623 325.77 580 329L584 341L582 338L578 338L577 344L579 352L588 350L596 351L596 355L592 353L586 356L586 360L628 362L628 365L636 367L636 368L627 369L624 368L624 384L611 385L608 378L592 378L592 388L572 387L572 388L581.73 396.431L592 401C608.104 393.269 628.521 404.663 646 401.969C653.936 400.746 664.678 397.86 671 404L675 401L688 401L689 402L688 405L705 403L704 400L728.961 402.13L748 406L747 411L736 408C732.942 412.717 725.074 411 720 411L721 407L697 406L697 407L701 407L701 408L695 406L683 406L667 409L666 409C658.739 401.95 641.521 403.275 632 404L632 405L635 406L619 404L619 408L580 403.184L564 401L563 401L561 403L560 400L559 400L558 403L547 402L543 398C538.128 405.515 525.679 397.683 519 397L519 393L527 390L518 376L517 376L517 378L516 378L515 372L514 372L514 376L513 376C512.15 370.86 508.771 370.222 504 370L504 368L509 368L509 367L504 367L506 364L506 363L495 361L495 360L499 355L491 356L447 355.996L367 354L368 358L359 358C358.118 353.884 351.78 354.105 348 354C336.386 353.677 324.652 354 313 354L313 358L304 356L304 355L309 355L309 354C301.974 354 289.412 359.001 285 352L243 354C242.18 350.173 236.6 350.267 233 350.333C222.495 350.528 211.807 352.046 201 352L202 357L210 354L212 358C217.693 357.389 220.809 358.501 223 364L224 364L224 359L235 359L235 360L229 360C232.447 366.25 244.746 365.157 251 364L251 360L263 363L262 368L274 367L275 370L285.015 366.059L299 367C300.549 374.226 315.179 370.585 320 369L327 374L328 374L329 374L329 372L348 375L348 376L344 378L375 378.481L387 378L388 378L389 378L407 378L404 373C414.081 378.307 420.317 378 432 378L432 382C437.111 379.758 443.51 377.047 447 383L448 383L448 380L498 384C493.799 388.77 479.91 392.558 476 386L461 385L460 385L459 385C450.063 391.806 432.184 387.003 422 385.719C415.898 384.95 409.221 387.128 403 386.985C386.513 386.608 370.467 385 354 385L354 384L358 384L358 383L308 380L303 383C297.293 374.163 278.932 376.691 270 375.903C264.942 375.456 261.087 373.539 256 375C255.054 370.584 249.77 372 246 372C236.909 372 226.495 372.819 218 369L217 369L205 371L205 370L208 370L208 369C180.933 369.941 151.631 355.44 124 362L120 361L108 357C96.5748 359.89 82.9234 350.201 72 356L69 352C69.1558 359.313 71.595 374.755 78 379L77 375L79 373L86 372L93 373L92 376L100 374L101 382L93 382L100 384L100 388L105 388L103 374L121 376L120 372L133 373L134 376L134 377L128 377L128 383L144 384L144 388L136 388L136 389L141 389L141 392L152 393L152 394L124 394L127 401L127 402L122 402L122 403C138.827 407.949 160.32 410.836 178 411C182.564 411.042 194.871 413.269 196 408L199 408L199 411L200 411L206 409L206 412L220 412L220 415C231.438 415 242.57 417.992 254 417.992C258.625 417.992 264.121 415.576 267 420L346.985 425.393L376 427C380.455 432.098 391.757 427.88 397.715 428.838C414.484 431.535 432.745 433.007 450 433C459.341 432.996 470.371 429.8 479 434L480 434C484.146 430.904 490.154 432.59 495 433.389C504.275 434.917 515.594 437.679 525 436.829C539.061 435.56 551.308 439.092 565 440.715C579.78 442.466 595.106 442.334 610 443.829C638.64 446.704 667.173 444.414 696 447.17C713.033 448.798 730.875 449 748 449C753.532 449 762.441 450.934 766 446C784.09 452.703 801.823 452 821 452L888 452C897.515 452 906.562 453.514 916 454.035C920.354 454.276 924.356 455.939 926 451C934.335 451.658 947.931 451.482 955 456L956 456L957 456L972 456L972 460L973 460L991.308 406L1020.09 316L1036 265C928.37 265 820.622 261 713 261L627 261C616.155 261 599.757 257.923 590 263z"/>
<path style="fill:#675b49; stroke:none;" d="M541 269L541 273L517 273L517 276L516 276L515 273C510.759 274.637 504.448 274.047 503 279L496 280L496 281C512.018 281 528.054 281.974 544 282C550.064 282.01 558.534 279.976 562 286C577.783 287.214 574.485 294.006 576 306C571.133 309.151 574.764 314.019 577 318L598 316L598 313L579 312C580.756 306.436 585.097 306.824 590 308L591 305C597.429 309.503 610.322 307 618 307L618 308L615 310L620 309L621 305L605 305C604.146 301.013 600.511 302 597 302L600 304L600 305L590 304L590 301L582 299L582 294L587 296L588 292C584.294 289.603 583.719 284.223 584 280L580 272C573.827 272 560.355 266.82 557 272L556 269L547 269L547 274L541 269z"/>
<path style="fill:#1b1d17; stroke:none;" d="M491 281L488 288L486 300L497.286 309.91L513 311.428L535 317C526.984 331.537 493.732 309.255 493 334L496 333L495 336L510 336L512 342L512 343L494 344C500.166 357.067 532.302 354.409 544 352C542.43 355.913 539.089 361.859 534.826 363.308C529.484 365.124 525.558 362.143 522 368C531.482 370.803 536.362 366.813 544 362L538 373L527 372L530 385C542.603 383.253 551.26 363.449 558.965 354.275C562.299 350.305 567.94 351.668 571.787 348.427C583.282 338.745 575.658 325.188 563 323L564 312L576 306C576.338 293.219 577.114 286.525 562 286C559.673 279.217 549.785 282.027 544 281.999C526.391 281.914 508.684 281 491 281z"/>
<path style="fill:#837b67; stroke:none;" d="M150 288L142 290L142 291L144 294C152.301 293.435 176.825 291.458 182 298L177 299L164 299L164 296C159.358 296.185 152.746 294.752 150 299C137.648 295.341 116.15 300.699 106 293L105 293L99 298L98 298C88.8896 288.088 73.6667 299.323 64 292L56 297L49 293L68 356L69 356L69 352L72 356L108 357L120 361L124 362C141.712 358.761 165.176 362.368 182.961 365.14C192.12 366.567 198.155 369.756 208 369L208 370L205 370L205 371L217 369L218 369C224.583 373.442 236.388 372.094 244 372.004C248.378 371.952 253.401 370.991 256 375C261.466 373.812 265.636 376.038 270.999 376.332C280.967 376.877 295.28 375.085 303 383L308 380C323.272 383.321 342.349 383.662 358 383L358 384L354 384L354 385C378.367 385 404.95 384.173 429 387.154C436.077 388.032 453.865 390.907 459 385L460 385L461 385L476 386C478.342 392.967 494.734 389.224 498 384C489.911 384 483.33 381.769 475.972 381.028C471.271 380.554 466.589 382.569 462 381.889C457.923 381.285 449.326 376.812 448 383L447 383C444.715 376.503 436.403 379.23 432 382L432 378L412.043 377.683L404 373L407 378C401.601 377.996 392.547 373.367 389 378L388 378L387 378C383.895 374.52 379.099 378.28 375 378.232C363.321 378.096 355.628 373.736 344 378L348 376L348 375L329 374L328 374L327 374L320 369C313.706 370.479 303.313 373.729 299 367L275 370L274 367L262 368L263 363L251 360L251 364C243.956 364.871 233.903 365.886 229 360L231 362L232 362L235 360L235 359L224 359L224 364L223 364C221.536 358.17 217.637 356.417 212 358L210 354L202 357L201 352C209.623 352.299 219.468 352.942 228 351.755C232.979 351.063 239.818 349.092 243 354L285 352C286.639 359.686 303.342 354 309 354L309 355L304 355L304 356L313 358L313 354C324.346 354.234 335.84 353.556 347 354.039C351.254 354.224 356.569 354.247 359 358L368 358L367 354L470 356.91L491 356L483 352L485 347L476 349L488 340L472 337L472 335L477 335L477 333L466 332L469 328L476 328L476 327L473 327L473 326L476 326C474.007 320.029 462.472 318.541 457 320L451 320L440 318.829L407 316L407 314L411 314L411 311L405 312C403.444 310.187 402.556 310.187 401 312L400 312C398.746 306.147 379.486 306.899 374 306L373 309L372 309C366.512 301.478 350.467 308.026 344 304L343 304L342 304L337 304L336 304L336 309L330 308L323 307L322 306L323 303C318.165 303.67 302.002 303.325 301 308L300 308C298.062 302.346 292.069 303.273 287 303.454C273.64 303.933 261.204 301.852 248 302.004C244.215 302.047 235.421 300.495 233 303L230 302L220 304L220 303L222 300L191 299L197 294C197.485 296.928 200.553 295.983 202 294L203 294L204 294L204 296L217 296L217 295L191 292L191 288L190 288L190 291L166 288L164 290L150 288z"/>
<path style="fill:#433f2b; stroke:none;" d="M496.144 294.032C488.955 298.202 495.069 309.385 502.786 304.821C510.466 300.278 502.806 290.169 496.144 294.032z"/>
<path style="fill:#383529; stroke:none;" d="M562.109 295.118C555.873 298.101 558.577 308.971 565.575 306.098C573.497 302.846 569.986 291.351 562.109 295.118z"/>
<path style="fill:#100e01; stroke:none;" d="M499 296L495 298L497 304L504 302L501 296L499 296M565 297L560 299L562 304L568 302L567 297L565 297z"/>
<path style="fill:#595b51; stroke:none;" d="M528 299L533 303L533 299L528 299z"/>
<path style="fill:#453f33; stroke:none;" d="M491 305C490.041 310.721 493.814 312.349 499 313L499 314L496 316L504 317L504 318C500.048 318.301 498.178 319.118 497 323C506.389 321.813 515.796 322.622 525 321.424C529.332 320.861 533.435 321.714 535 317C528.788 316.931 524.835 313.656 519 312.3C508.005 309.745 500.809 311.318 491 305z"/>
<path style="fill:#504b39; stroke:none;" d="M571 308L564 312L563 323L576 329L578 324L574 324L577 321L577 320L573 308L571 308z"/>
<path style="fill:#383529; stroke:none;" d="M494 324C489.569 331.044 488.519 337.625 493 345L512 343L512 342L510 336L495 336L496 333L493 334L496 324L494 324z"/>
<path style="fill:#4b493b; stroke:none;" d="M564 335L568 338L567 345C573.075 341.637 569.6 336.185 564 335z"/>
<path style="fill:#0e0a01; stroke:none;" d="M498 337L497 343L503 343L504 339L498 337z"/>
<path style="fill:#55554f; stroke:none;" d="M532 338L532 340L536 340L536 338L532 338z"/>
<path style="fill:#0e0a01; stroke:none;" d="M563 339L567 344L568 339L563 339z"/>
<path style="fill:#504b39; stroke:none;" d="M519 352L522 362C532.159 365.54 540.938 363.345 544 352L531.015 354.606L519 352z"/>
<path style="fill:#333527; stroke:none;" d="M523 366C509.449 374.54 532.704 398.834 542.682 380.91C544.048 378.457 543.97 375.715 544 373L530 385L527 372L538 373L544 362C540.619 363.184 524.439 375.824 523 366z"/>
<path style="fill:#81795f; stroke:none;" d="M86 372L79 373L77 375C78.0163 401.255 92.2581 432.154 101.537 457C104.024 463.66 105.648 478.665 111.649 482.972C118.239 487.703 134.251 485 142 485C167.981 485 195.144 482.709 221 485.17C243.852 487.344 267.049 485.452 290 486.015C349.62 487.475 409.351 486.553 469 488.015C498.957 488.749 528.97 489 559 489C572.003 489 588.525 491.687 601 488L612 490L640 490L640 491L591 492L591 493L694 494L694 493L674 493L674 491L746 491L746 490L613 486L613 481C606.486 481 595.581 482.494 592 476L557 475L556 472C561.555 464.9 570.658 470.207 578 471.016C582.601 471.523 587.208 470.395 592 471L591 474C610.212 469.424 631.456 472.948 651 473C652.792 469.934 654.291 469.71 657 472C671.601 469.55 685.569 473.792 699.961 475.571C704.27 476.104 708.344 473.403 712.829 473.884C736.048 476.377 761.358 480.585 785 476L786 464L777 466L748 462L712 464L714 466L714 467L704 467L704 464C699.027 464 689.725 462.104 688 468C679.87 465.496 668.297 464.741 660 467L641 460L659 461L659 460L646.714 453.715L630.714 454.833L617 454L616 454C615.098 449.791 610.645 451.109 607 450.611C597.878 449.365 589.548 449.632 581 446L582 449C573.706 448.644 558.486 449.33 552 444L551 444L550 444C543.862 450.138 532.232 443.017 525 443C521.229 442.991 515.896 442.817 515 447L487 444L487 447L481 447L481 446L485 446L485 444L435 440C431.707 445.133 424.244 443.121 419 442.424C405.91 440.685 392.181 437.566 379 437L379 433L375 433L376 436C369.055 435.857 362.434 431.616 356.035 431.669C343.945 431.769 321.627 441.308 312 429C301.185 431.575 293.873 427.619 283.83 425.299C272.973 422.79 259.068 422.735 248 422L248 423L249 426L244 419L236 419L236 420L238 422L216 418L215 418L208 421C207.195 417.243 200.625 416.864 197 416.083C185.868 413.687 172.512 414.145 161 414L161 411L123 407L123 406L133 406L133 405L122 403L122 402L127 402L127 401L124 394L152 394L152 393L141 392L141 389L136 389L136 388L144 388L144 384L128 383L128 377L134 377L134 376L133 373L120 372L121 376L103 374L105 388L100 388L100 384L93 382L101 382L100 374L92 376L93 373L86 372z"/>
<path style="fill:#c3c9c7; stroke:none;" d="M1002 379C1000.17 384.098 996.602 393.216 999.063 398.545C1001.42 403.655 1007.53 406.711 1011 411L1013 411L1014 408C1017.69 410.292 1020.72 415.679 1025 413L1026 417L1023 416L1023 424L1024 424C1029.68 421.863 1028.8 432.402 1031.72 435.505C1045.08 449.701 1040 477.275 1040 496L1036 496L1036 504L1026 502L1027 512L1024 512L1027 536L1008 541L1004.97 538.75L984.389 547.111L968 548L968 558C962.348 557.984 954.163 554.173 952 561L944 561L944 564C932.671 563.907 930.185 566.764 920.896 571.822C917.536 573.651 912.992 572.181 910.434 575.573C908.303 578.396 908.06 583.603 907 587L906 587L904 581L896 579L885 583L888 586L880 586L880 592C873.986 593.78 872.07 598.072 872 604L855 604L854 608L864 608L864 610L848 610L849 604L840 605L842 614L1075 614L1075 454C1069.16 455.295 1065.72 454.328 1064 448C1055.69 443.639 1054.93 437.483 1056 429L1048 429L1048 400L1024 400L1024 384C1018.93 384 1011.06 385.717 1008 381L1002 384L1002 379z"/>
<path style="fill:#bfc3bd; stroke:none;" d="M72 381C72.596 386.904 79.5346 398.653 72 401C72 412.333 71.5619 418.544 65 428L64 428L62 426L61 429L64 432L60 432L60 440L56 440L56 456L53 456L53 464L56 464L56 472L59 472L61 488L80 496L80 520L86 524L93 527L93 528L93 533C97.9822 532.599 102.317 532.655 104 538C108.595 536.345 117.157 536.614 120 541L123 539L124 539C128.737 543.837 137.642 542 144 542C144.395 550.971 168.789 547 176 547L176 560L224 560C230.31 560 238.132 558.404 243 563L245 563L256 558L257 558C258.947 560.231 261.053 560.231 263 558L264 558L264 563L272 563L272 560L280 560L280 564L304 564L304 561L320 560L320 576L384 576L384 568L432 568L432 576L494 576C501.249 576 513.925 573.248 512 584L517 582L514 578L515 568L528 568L528 576L560 576L560 568L576 568L576 574L704 576L704 592L720 592L720 588L736 588L736 578C741.868 578 756.011 580.565 760 576L761 576L760 584L760 585L768 585L768 584L768 570L793 568L795 572L796 568L799 572L808.228 564.603L820 565.05L840 562L840 565L848 568L855.213 560.318L865 557C869.304 562.586 886.155 560.592 892.972 559.972C896.019 559.695 900.113 558.063 898 555L929 549.999L944 546C951.027 547.97 952.615 546.952 958.259 542.979C961.006 541.046 964.75 540.814 967.232 538.526C973.281 532.949 972 519.379 972 512L976 512L976 520L994 520L1000 504C1007.8 502.716 1007.51 492.843 1016 495C1016.49 491.859 1018.92 488.861 1015 488C1017.04 483.48 1018.91 480.788 1024 480L1021 456L1026 456L1024 448L1017 443L1016 443L1012 445C1015.69 439.55 1015.45 430.589 1008 429L1008 425L1000 425L1000 424L1003 424L1003 416L996 416L998 411L995 404L994 404L992 410L991 410L990 408C985.947 420.435 980.372 433.667 982 447L981 447L981 445L980 445L979 456L982 455L987 480L984 480L984 493L976 496C972.811 508.229 960.675 503.181 955.028 510.589C951.749 514.89 955.769 519.819 950 523L950 528L944 528L944 536L907 539.545L764 544.871L739 542.015L656 542L656 545C621.702 544.977 587.199 544.401 553 544.286C532.614 544.218 513.685 540.761 493 541.791C480.285 542.424 458.229 533.135 447 541C439.914 535.539 430.51 536 422 536L375 536.151C363.905 536.151 352.875 533.614 342.015 534.018C334.022 534.316 325.919 537.214 317.965 537.853C313.032 538.249 308.048 535.573 303 535.455C296.364 535.301 289.601 537.13 283 536.791C274.85 536.372 266.879 534.112 259 533.559C243.808 532.494 228.289 534.015 213.015 532.946C207.279 532.544 201.901 530.079 196 530.079C175.681 530.079 155.796 529.19 136 524.053C126.186 521.507 116.092 517.358 116 506L112 503C119.079 501.483 109.445 478.891 107.611 474C96.3057 443.852 86.8118 412.727 77 382L75 384L72 381z"/>
<path style="fill:#c3c9c7; stroke:none;" d="M70 384L70 392L66 391C66 400.13 64.9408 402.455 57 407L56 415L40 424L48 424L48 432C43.193 432.734 40.734 435.193 40 440C30.4782 441.454 31.145 449.822 36 456L32 456L32 464L35 464L36 480L39 480L37 489C40.9149 493.482 35.1297 507.584 34.9853 514C34.8817 518.602 33.6876 524.139 40 522L40 528C46.5696 530.666 51.0096 531.755 55 538L56 538L56 531L64 536L64 544L96 544L96 555L104 555L107 564L109 564C109.854 561.303 109.851 560.614 107 560L114 552L116 568C123.268 567.816 121.476 570.449 120 576L128 576C128.232 580.22 131.174 586.84 135 581L136 581L136 596L144 596L144 604L128 604L128 608L123 608L123 614L440 614L440 608L435 608L435 600L429 602L432 608L424 607L424 612L419 608L404 608L404 600L410 600L410 590L400 592L400 589C396.49 589 392.854 588.013 392 592L384 587L382 600L380 600L380 592L377 592L377 600L376 600L373 589L371 589L369 598L368 598L368 592C363.898 592 356.04 590.147 355 595L352 595L352 592L344 592L344 595L335 592C338.987 591.146 338 587.511 338 584L328 584L328 576L320 576L320 560L304 561L304 564L280 564L280 560L272 560L272 563L264 563L264 558L263 558L257 558L256 558L245 563L243 563C239.442 558.066 230.532 560 225 560L176 560L176 547C168.964 547 145.029 550.685 144 542C137.065 542 129.855 543.212 124 539L123 539L120 541C118.989 536.283 107.57 535.75 104 538C102.988 532.153 98.022 532.175 93 533L93 528L93 527L86 524L80 520L80 496L61 488L59 472L56 472L56 464L53 464L53 456L56 456L56 440L60 440L60 432L64 432L61 429L61 427L62 426L64 428L65 428C72.8209 419.692 72 411.763 72 401C79.9149 399.675 74.7015 386.964 70 384z"/>
<path style="fill:#c2c8c4; stroke:none;" d="M998 390L995 393L991 410L992 410L994 404L995 404C995 407.363 994.284 410.204 998 411L996 416L1003 416L1000 424L1000 425L1008 425L1008 429C1015.29 431.62 1014.88 438.888 1012 445L1016 443L1017 443L1024 448L1026 456L1021 456L1024 480C1018.49 480.417 1016.6 482.91 1015 488L1018 489L1016 495C1007.81 491.494 1007.21 501.865 1000 504L994 520L976 520L976 512L972 512C972 529.123 965.493 550.372 944 546C933.928 553.64 910.483 552.122 898 555L900 557C890.598 560.674 873.739 563.286 865 557L854.39 560.318L848 568C847.146 564.013 843.511 565 840 565L840 562L820 564.491L807.429 564.603L799 572L796 568L795 572L793 568L768 570L768 584L768 585L760 585L760 584L761 576L760 576C754.4 580.242 742.85 578 736 578L736 588L720 588L720 592L704 592L704 576L576 574L576 568L560 568L560 576L528 576L528 568L515 568L514 578L517 582L512 584C515.819 573.33 501.682 576 495 576L432 576L432 568L384 568L384 576L328 576L328 584L338 584L335 592L344 595L344 592L352 595L355 595L355 592L368 592L368 598L369 598L371 589L373 589L376 600L377 600L377 592L380 592L380 600L382 600L384 587L392 592L400 589L400 592L410 590L410 600L404 600L404 608L419 608L424 612L424 607L432 608L429 606L429 602L435 600L435 608L440 608L440 614L842 614L840 605L849 604L848 610L864 610L864 608L854 608L855 604L872 604C872.189 598.185 874.755 594.54 880 592L880 586L888 586L885 583L896 579L904 581L906 587L907 587C908.494 583.476 908.478 578.456 911.032 575.573C913.744 572.512 917.516 573.682 920.896 572.258C930.173 568.349 932.733 563.976 944 564L944 561L952 561C955.121 555.209 962.307 557.996 968 558L968 548L998 542.775L1008 541L1027 536L1024 512L1027 512L1026 502L1036 504L1036 496L1040 496C1040 479.589 1044.24 455.5 1037.26 440.224C1035.99 437.452 1032.78 436.307 1031.03 433.867C1029.36 431.531 1028.58 419.385 1024 424L1023 424L1023 416L1026 417L1025 413L1014 408L1013 411L1011 411L999.644 398.545L998 390z"/>
<path style="fill:#7e735a; stroke:none;" d="M123 406L123 407L161 411L161 414L197 416.42L208 421L215 418L216 418L238 422L236 420L236 419L244 419L249 426L248 423L248 422C259.166 423.422 271.913 422.831 282.91 425.299C292.981 427.558 301.175 432.2 312 429C314.631 434.019 319.161 432.45 324 433.376C336.001 435.672 344.514 432.177 356.035 432.086C362.427 432.035 369.079 435.943 376 436L375 433L379 433L379 437C392.972 437.704 406.992 441.393 421 442.917C425.307 443.385 433.803 445.585 435 440L485 444L485 446L481 446L481 447L487 447L487 444L515 447C522.582 435.171 541.757 453.433 550 444L551 444L552 444C556.703 449.776 574.743 448.85 582 449L581 446C586.412 449.638 595.486 450.952 602 450.789C606.669 450.673 613.227 449.724 616 454L617 454L632 455.289L647.576 454.275L659 460L659 461L641 460L660 467L688 468C691.257 462.676 698.466 464 704 464L704 467L714 467L714 466L712 464C722.221 463.979 739.05 466.657 748 462L757 464L786 464L785 476C765.611 478.504 742.589 479.233 723.039 476.871C719.399 476.431 716.463 473.754 712.829 473.546C708.723 473.31 704.878 475.463 700.911 475.366C686.152 475.004 671.893 468.508 657 472C654.707 468.788 652.217 469.362 651 473C631.96 472.842 609.551 468.504 591 474L592 471C584.648 469.635 559.769 464.812 556 472L557 475L592 476C594.288 482.895 607.011 481 613 481L613 486L961 493L972 456L957 456L956 456L955 456C950.715 451.084 932.512 451.28 926 451C921.88 458.289 896.091 452 888 452C847.739 452 804.868 456.572 766 446C761.626 450.129 755.684 449 750 449C736.773 449 723.163 448.726 710 447.478C670.755 443.759 632.16 444.899 593 441.17C581.513 440.076 569.434 442.495 558.17 439.545C539.894 434.759 518.853 435.241 500 433.91C494.585 433.528 484.128 429.274 480 434L479 434C471.869 429.045 461.103 432.789 453 432.985C434.011 433.444 415.355 429.927 396.83 428.373C390.147 427.813 381.853 431.434 376 427L347.961 425.262L304.999 422.872L267 420C265.865 414.701 259.029 417.897 255 418C243.282 418.298 231.771 415 220 415L220 412L206 412L206 409L200 411L199 411L196 408C192.788 412.954 182.373 411.278 177 410.91C158.762 409.662 141.355 406 123 406z"/>
<path style="fill:#adb1ab; stroke:none;" d="M982 432C974.735 450.947 970.726 473.265 960.811 490.906C955.454 500.437 944.048 491.407 944 505C911.458 509.305 876.91 507.48 844 506.039C813.172 504.689 781.81 505.37 751 505.004C607.668 503.299 464.273 498 321 498C272.256 498 223.698 496 175 496C163.45 496 151.53 495.701 140 494.91C136.812 494.692 129.735 494.672 128.497 490.91C126.875 485.979 136.554 487 139 487C151.39 486.999 163.631 486 176 486L176 485L111 484C112.197 489.102 117.036 499.528 112 503L116 506C114.53 516.57 123.554 520.016 132.004 523.256C148.204 529.467 173.711 532.72 191 530.714C198.889 529.799 205.391 532.697 213.015 532.982C236.535 533.859 259.673 535.87 283 536.896C289.95 537.201 296.981 535.447 304 535.746C309.085 535.963 313.818 538.452 318.911 537.87C326.848 536.964 335.008 534.297 343.004 534.018C353.006 533.67 363.777 536.036 374 536.406C396.673 537.225 426.405 529.815 447 541C460.151 533.687 479.807 543.007 494 541.826C514.484 540.122 532.817 544.142 553 544.544C587.095 545.224 621.74 544.996 656 545L656 542L689 541.055L701 543.867L739 542.039L764 544.946L907 539.741L944 536L944 528L950 528L950 523C956.419 520.869 951.738 514.604 955.603 510.589C962.115 503.824 974.152 508.618 976 496L984 493L982 491L982 490L984 480L987 480L982 455L979 456L980 445L981 445L981 447L982 447L982 432z"/>
<path style="fill:#8e8c77; stroke:none;" d="M148 487L148 488L336 488L336 489L334 489L334 490L583 492.999L640 491L640 490C630.205 490 608.858 493.953 601 488L556 489L461 488L218 485.004L148 487z"/>
<path style="fill:#717165; stroke:none;" d="M928 497L891 496L891 497L913 497L913 498L898.985 500.946L796 500L609 498.015L250 494.985L144 490L144 489L200 489C194.538 486.708 186.887 488 181 488C168.594 488 156.35 487.58 144 487.039C141.001 486.908 126.174 485.167 127.89 490.91C128.854 494.134 133.289 494.2 136 494.575C144.281 495.721 152.699 494.486 161 495.576C175.388 497.465 190.503 495.659 205 496.015C227.957 496.577 251.018 498 274 498C375.78 498 477.37 499.787 579 500.996C632.989 501.638 688.141 498.401 742 502.09C788.125 505.248 835.769 504.222 882 503.999C892.824 503.947 921.659 507.184 928 497z"/>
<path style="fill:#656351; stroke:none;" d="M144 489L144 490C179.214 490 214.705 494.576 250 494.996C385.526 496.608 520.476 495.695 656 499.015C708.59 500.303 761.328 500 814 500C847.32 500 880.097 502.274 913 498L913 497L334 490L334 489L336 489L320.999 489.995L281 490L144 489z"/>
<path style="fill:#8e8c77; stroke:none;" d="M674 491L674 493L936 496L936 504L848 505L648 503L648 504C712.583 504 777.4 504.432 842 506.015C874.545 506.812 912.167 512.095 944 505C944.135 493.627 952.402 497.953 960 494L933 493L873 493L674 491z"/>
<path style="fill:#757765; stroke:none;" d="M502 492L502 493L576 493L553 492L502 492z"/>
<path style="fill:#7d7f73; stroke:none;" d="M922 496L922 497L928 497C919.098 506.465 903.609 502.295 892 503.09C857.675 505.44 822.52 503 788 503C649.29 503 510.704 498 372 498L372 499L547 502.996L716 503.039L857 505L936 504L936 496L922 496z"/>
</svg>
