<?xml version="1.0" standalone="no"?>
<!DOCTYPE svg PUBLIC "-//W3C//DTD SVG 20010904//EN"
 "http://www.w3.org/TR/2001/REC-SVG-20010904/DTD/svg10.dtd">
<svg version="1.0" xmlns="http://www.w3.org/2000/svg"
 width="1024.000000pt" height="720.000000pt" viewBox="0 0 1024.000000 720.000000"
 preserveAspectRatio="xMidYMid meet">
<metadata>
Created by potrace 1.12, written by Peter Selinger 2001-2015
</metadata>
<g transform="translate(0.000000,720.000000) scale(0.100000,-0.100000)"
fill="#000000" stroke="none">
<path d="M3738 6309 c-10 -5 -34 -25 -54 -43 l-36 -33 17 -37 c10 -20 28 -45
40 -55 13 -9 30 -33 38 -52 26 -64 106 -353 138 -499 17 -80 50 -203 74 -275
60 -181 61 -188 34 -224 -21 -28 -21 -30 -5 -73 20 -51 73 -93 106 -83 11 3
38 33 59 65 41 62 45 102 12 128 -18 15 -19 84 -1 154 34 133 78 265 125 378
15 36 34 81 42 100 64 152 189 370 212 370 13 0 43 61 37 76 -3 8 -19 14 -38
14 -18 0 -46 7 -62 15 -39 21 -42 20 -88 -27 -40 -41 -40 -41 -34 -100 5 -43
3 -65 -8 -86 -16 -30 -124 -274 -148 -337 -43 -108 -65 -167 -93 -249 -16 -49
-35 -91 -42 -93 -13 -5 -57 125 -98 292 -15 61 -44 171 -65 245 -84 303 -85
307 -66 347 14 29 14 38 4 52 -32 41 -65 51 -100 30z"/>
<path d="M5245 6273 c-52 -28 -58 -55 -23 -118 14 -26 29 -92 44 -185 13 -80
26 -154 28 -166 11 -43 -14 -56 -125 -66 -57 -5 -114 -12 -126 -14 -33 -6 -29
-44 6 -80 l30 -31 88 18 c81 16 90 16 115 1 16 -9 31 -24 34 -34 11 -37 8
-618 -4 -630 -27 -27 -10 -70 40 -102 39 -25 70 -14 107 36 39 52 39 64 0 104
-34 35 -30 -1 -44 478 l-5 179 111 -5 c100 -4 111 -3 120 14 26 48 -36 101
-107 91 -57 -8 -140 29 -149 66 -4 14 -15 89 -25 166 l-19 140 23 33 c28 40
24 74 -12 102 -30 24 -66 25 -107 3z"/>
<path d="M4680 5840 c-11 -11 -20 -27 -20 -35 0 -8 -12 -22 -27 -32 -25 -16
-79 -62 -121 -103 -26 -25 -80 -155 -92 -221 -21 -113 0 -185 79 -272 56 -62
102 -80 185 -74 107 8 171 31 220 81 49 48 111 172 121 239 10 64 -18 183 -56
240 -25 39 -126 127 -144 127 -4 0 -21 16 -39 35 -38 40 -75 46 -106 15z m179
-186 c77 -87 80 -188 9 -312 -54 -93 -98 -121 -202 -129 l-73 -6 -37 38 -38
38 4 86 c3 72 9 98 36 156 45 96 108 139 151 101 24 -21 57 -3 71 38 6 20 18
36 25 36 7 0 32 -21 54 -46z"/>
<path d="M6005 5762 c-34 -12 -50 -25 -109 -97 -32 -38 -67 -80 -77 -93 -11
-12 -19 -26 -19 -32 0 -5 -12 -20 -26 -33 -31 -29 -35 -79 -9 -129 9 -18 20
-56 25 -85 17 -100 82 -202 165 -255 64 -42 135 -52 253 -39 89 11 105 10 124
-3 28 -20 62 -20 80 -2 8 7 23 16 35 20 38 12 46 31 27 68 -23 47 -64 88 -87
88 -11 0 -40 -11 -63 -25 -34 -20 -67 -28 -151 -37 -122 -12 -173 -4 -221 37
-41 35 -74 115 -70 173 4 55 15 63 127 87 114 24 154 22 200 -8 66 -44 83 -44
114 0 15 22 27 45 27 52 0 13 -49 102 -61 111 -3 3 -12 28 -18 57 -10 39 -25
65 -60 102 l-48 51 -69 -1 c-38 -1 -78 -4 -89 -7z m164 -96 c19 -23 18 -92 -2
-114 -20 -22 -211 -52 -228 -35 -19 19 88 136 141 156 29 11 78 7 89 -7z"/>
<path d="M4708 4418 c-38 -31 -48 -66 -48 -159 l0 -79 -68 0 c-56 0 -69 -3
-80 -20 -27 -43 36 -90 119 -90 l38 0 0 -153 c-1 -162 5 -190 42 -202 33 -11
41 12 35 95 -2 41 -1 117 3 169 9 106 15 115 86 126 46 6 105 46 105 70 0 20
-23 24 -100 18 -84 -7 -90 -2 -90 68 0 62 15 73 89 66 63 -5 81 3 81 38 -1 44
-30 62 -110 69 -68 6 -77 4 -102 -16z"/>
<path d="M5108 4203 c-102 -83 -148 -153 -148 -227 0 -40 45 -120 87 -155 60
-49 101 -43 212 32 75 50 111 136 91 216 -14 57 -30 77 -101 124 -67 44 -96
46 -141 10z m137 -104 c21 -26 25 -39 21 -63 -13 -62 -136 -154 -174 -129 -10
5 -26 25 -36 43 l-19 32 26 52 c14 28 43 68 63 88 34 36 37 37 64 23 15 -8 40
-29 55 -46z"/>
<path d="M5380 4215 c-14 -17 -12 -53 15 -235 20 -140 40 -185 81 -185 26 0
29 4 32 37 2 20 -2 47 -8 58 -6 12 -14 52 -17 90 l-6 70 44 20 c24 11 65 20
91 20 79 0 120 31 97 73 -13 23 -88 31 -166 17 -61 -10 -68 -10 -80 7 -33 47
-59 57 -83 28z"/>
<path d="M5860 4161 c-16 -31 -12 -69 9 -81 51 -27 121 1 121 49 0 39 -17 51
-72 51 -37 0 -50 -4 -58 -19z"/>
<path d="M4172 4108 c-17 -17 -15 -64 4 -82 26 -26 60 -29 101 -9 35 16 38 22
38 58 l0 40 -65 3 c-42 2 -70 -2 -78 -10z"/>
<path d="M1140 2911 c-41 -8 -163 -53 -239 -89 -53 -24 -56 -25 -98 -9 -54 20
-68 15 -90 -31 -10 -20 -25 -44 -35 -54 -45 -45 -29 -109 35 -140 39 -19 42
-32 53 -248 7 -124 7 -125 -20 -164 -30 -44 -35 -106 -10 -126 31 -27 34 -47
25 -162 -6 -62 -13 -176 -16 -253 -3 -77 -8 -153 -10 -170 -6 -34 -61 -99 -76
-89 -16 9 -76 -5 -93 -22 -12 -11 -13 -21 -5 -41 16 -43 49 -66 88 -59 25 4
42 -1 69 -19 44 -30 62 -31 85 -5 9 11 23 20 31 20 8 0 27 10 43 23 15 13 69
36 118 51 131 40 156 50 310 128 168 85 234 133 287 210 50 75 87 211 81 299
-3 32 -1 59 4 59 4 0 22 -9 38 -20 43 -28 57 -25 103 24 53 57 104 67 173 34
37 -17 49 -28 54 -52 4 -24 1 -34 -15 -46 -11 -8 -51 -44 -89 -80 -37 -36 -90
-83 -117 -104 -51 -41 -121 -120 -186 -209 -53 -72 -52 -114 1 -168 59 -61
104 -62 259 -10 125 43 136 43 198 15 38 -16 104 -92 104 -117 0 -24 56 -77
82 -77 38 0 92 77 82 117 -10 41 -20 50 -77 69 -81 26 -90 38 -83 106 4 45 2
65 -13 90 -15 27 -18 51 -15 128 1 52 5 116 9 142 5 33 4 53 -5 63 -7 8 -14
29 -16 45 -5 41 -47 120 -81 152 -62 58 -95 67 -247 66 -131 -1 -139 -2 -162
-25 -31 -31 -49 -29 -67 10 -20 41 -46 68 -99 105 -67 46 -124 72 -158 72 -45
0 -47 23 -7 72 91 111 174 261 183 331 6 40 3 45 -28 73 -18 16 -53 35 -78 43
-25 7 -52 17 -61 21 -35 18 -170 31 -219 21z m190 -110 c77 -26 80 -35 35
-122 -71 -138 -146 -231 -200 -249 -21 -7 -39 -24 -54 -50 -12 -22 -28 -40
-34 -40 -7 0 -52 -20 -102 -44 -49 -24 -93 -41 -96 -38 -10 11 -28 348 -21
374 12 41 36 65 87 88 28 12 74 33 103 46 29 13 59 24 67 24 7 0 17 5 20 10 4
6 10 8 14 6 4 -3 13 -1 21 5 23 14 100 9 160 -10z m35 -569 c88 -17 136 -56
164 -137 45 -133 15 -297 -75 -404 -35 -42 -195 -146 -304 -198 -123 -59 -279
-108 -293 -94 -16 16 -15 151 1 431 13 216 15 226 38 251 14 14 37 32 52 40
15 7 41 22 57 34 17 12 47 31 67 44 35 21 39 21 61 6 23 -15 28 -14 86 13 62
29 64 29 146 14z m695 -556 c0 -99 -8 -108 -115 -149 -202 -75 -244 -76 -197
-6 43 66 197 211 257 242 46 23 55 8 55 -87z"/>
<path d="M4235 2893 c-58 -32 -83 -86 -50 -113 8 -7 15 -23 15 -37 0 -23 33
-66 58 -74 25 -9 36 -195 37 -634 1 -242 5 -472 9 -510 8 -67 7 -73 -18 -109
-49 -73 -27 -166 40 -166 31 0 99 51 119 91 21 40 19 62 -9 88 -15 14 -27 40
-31 69 -5 26 -9 236 -10 467 -1 231 -8 502 -15 602 -13 180 -13 182 9 208 29
38 26 62 -13 101 -27 27 -42 34 -72 34 -22 -1 -52 -8 -69 -17z"/>
<path d="M5003 2868 c-56 -40 -59 -105 -8 -154 34 -32 35 -35 50 -161 13 -110
16 -203 16 -453 0 -25 2 -189 5 -364 l5 -319 -26 -38 c-35 -53 -34 -111 1
-144 22 -21 37 -25 86 -25 52 0 63 3 89 29 33 33 36 64 14 117 -14 35 -26 92
-45 214 -5 30 -10 147 -11 261 l-2 207 29 26 c49 43 37 59 142 -184 147 -340
173 -405 267 -660 32 -85 76 -192 98 -238 40 -82 40 -83 27 -136 -28 -117 30
-179 117 -126 37 22 58 53 67 96 6 27 1 37 -39 80 -62 66 -107 158 -203 414
-45 118 -115 294 -158 390 -154 351 -198 465 -187 485 9 15 119 140 208 235
111 119 165 196 165 235 0 88 -65 129 -140 90 -39 -20 -50 -43 -50 -107 0 -51
-3 -57 -66 -133 -81 -98 -155 -175 -168 -175 -5 0 -20 10 -34 23 -14 13 -36
22 -55 22 l-32 0 -8 80 c-4 44 -9 149 -11 233 -2 144 -4 153 -26 177 -30 32
-74 33 -117 3z"/>
<path d="M9622 2742 c-56 -53 -53 -135 7 -170 23 -13 30 -25 35 -62 17 -136
26 -297 31 -580 2 -173 8 -359 11 -412 5 -79 3 -101 -10 -120 -37 -52 -3 -148
53 -148 29 0 93 35 109 60 13 22 0 70 -29 109 -30 38 -39 88 -45 246 -19 573
-25 703 -35 803 -11 98 -10 114 4 130 46 52 3 157 -69 168 -24 4 -38 -1 -62
-24z"/>
<path d="M8544 2724 c-16 -22 -33 -42 -38 -46 -14 -10 -9 -67 9 -94 8 -13 24
-24 35 -24 29 0 36 -26 54 -210 24 -239 23 -256 -14 -275 -38 -20 -51 -45 -44
-87 9 -49 30 -76 61 -80 27 -3 28 -6 34 -68 4 -36 7 -127 8 -202 2 -136 2
-137 -24 -154 -61 -40 -6 -164 73 -164 27 0 86 18 105 33 10 7 23 29 30 49 7
20 37 63 67 96 108 116 129 148 159 241 50 155 -2 306 -127 362 -41 18 -59 20
-138 15 l-92 -6 -6 32 c-18 101 -37 437 -26 453 24 33 16 120 -14 144 -8 7
-30 14 -49 18 -31 5 -37 1 -63 -33z m418 -752 c57 -57 37 -164 -54 -290 -42
-58 -145 -140 -158 -125 -9 10 -30 252 -30 345 0 42 5 70 13 75 31 21 87 32
141 28 49 -3 64 -8 88 -33z"/>
<path d="M5807 2696 c-31 -21 -32 -25 -28 -77 3 -30 5 -169 5 -309 1 -246 0
-256 -22 -295 -26 -47 -28 -101 -4 -128 15 -17 17 -41 14 -241 -3 -181 -6
-224 -19 -238 -18 -20 -20 -87 -3 -117 6 -12 24 -28 40 -36 28 -14 33 -14 67
4 79 40 91 78 52 156 -23 47 -24 60 -24 220 l0 170 37 75 c38 78 120 174 141
167 19 -6 44 -96 52 -188 4 -46 8 -93 10 -104 1 -11 5 -49 9 -85 9 -82 46
-303 51 -309 3 -2 -4 -16 -14 -30 -43 -61 -38 -121 12 -152 46 -28 65 -24 110
23 36 37 39 44 33 80 -4 22 -18 66 -31 98 -27 63 -50 208 -65 410 -5 69 -15
154 -21 190 -38 211 -144 267 -276 146 -43 -39 -45 -31 -39 130 3 71 5 157 5
192 1 54 4 65 27 85 37 31 47 63 34 103 -22 66 -99 96 -153 60z"/>
<path d="M7575 2696 c-35 -15 -55 -52 -55 -102 0 -40 22 -89 47 -102 16 -9 62
-195 63 -254 0 -26 -3 -28 -42 -28 -27 0 -52 8 -68 20 -46 36 -94 20 -104 -35
-6 -32 -10 -35 -42 -35 -24 0 -42 -7 -57 -24 -12 -13 -33 -27 -47 -31 -14 -4
-45 -18 -69 -31 -24 -13 -47 -22 -51 -19 -4 2 -10 24 -12 49 -10 89 -101 139
-160 88 -14 -11 -18 -30 -18 -77 0 -59 2 -64 34 -92 42 -36 58 -107 32 -145
-26 -37 -20 -83 14 -115 26 -24 33 -43 52 -143 24 -123 27 -184 11 -240 -13
-47 0 -72 48 -93 50 -22 60 -21 104 4 64 38 66 94 5 148 -30 27 -34 38 -78
260 -16 82 -16 83 5 100 28 24 53 74 53 110 0 20 8 36 26 50 25 20 28 20 54 5
58 -35 155 18 162 88 l3 32 60 -3 c39 -2 69 -9 86 -22 30 -21 31 -29 49 -249
5 -63 14 -168 20 -234 8 -84 8 -122 1 -129 -6 -6 -11 -32 -11 -58 0 -84 55
-115 123 -69 45 31 61 67 52 118 -4 28 -13 43 -30 50 -19 9 -24 21 -29 69 -4
32 -11 94 -16 138 -5 44 -12 105 -15 135 -3 30 -9 98 -15 150 -11 112 -4 125
69 136 76 11 111 38 111 84 0 65 -89 95 -129 44 -22 -28 -47 -27 -73 4 -24 28
-60 256 -52 332 6 63 5 67 -24 98 -33 35 -43 37 -87 18z"/>
<path d="M9204 2525 c-17 -17 -24 -35 -24 -62 0 -54 23 -83 66 -83 28 0 36 5
45 26 10 28 6 48 -18 101 -20 42 -39 48 -69 18z"/>
<path d="M3167 2332 c-17 -10 -31 -31 -38 -54 -5 -21 -13 -38 -18 -38 -4 0
-13 -10 -18 -22 -6 -13 -43 -63 -82 -113 -106 -135 -138 -213 -110 -268 36
-68 102 -83 194 -44 83 34 166 57 209 57 30 0 36 -3 36 -22 0 -25 -42 -102
-113 -207 -70 -105 -114 -151 -144 -151 -65 0 -98 -52 -83 -131 11 -54 18 -65
58 -75 39 -11 88 35 185 174 50 73 97 141 102 150 6 9 24 39 42 67 38 62 58
108 66 155 6 29 2 44 -20 77 -52 81 -135 91 -313 38 -98 -29 -90 -28 -90 -12
0 39 156 217 190 217 23 0 77 44 85 70 9 29 -12 94 -40 124 -28 30 -58 33 -98
8z"/>
<path d="M2595 2278 c-32 -19 -44 -41 -43 -80 1 -31 -7 -47 -54 -100 -72 -84
-171 -215 -192 -256 -23 -45 -23 -84 0 -115 40 -55 99 -58 242 -11 92 30 172
41 172 25 0 -7 -11 -32 -25 -57 -64 -115 -108 -164 -145 -164 -43 0 -100 -69
-100 -119 0 -40 12 -59 56 -88 45 -29 124 12 144 75 7 20 39 74 72 120 118
164 142 242 92 301 -45 53 -93 57 -297 20 -31 -5 -62 -7 -67 -4 -20 12 136
198 189 225 37 18 80 61 100 98 35 65 -11 142 -83 142 -23 0 -50 -6 -61 -12z"/>
<path d="M3755 2166 c-65 -31 -106 -75 -149 -163 -20 -40 -36 -75 -36 -78 0
-3 -11 -22 -23 -43 -23 -35 -24 -45 -23 -202 1 -160 2 -166 28 -210 14 -25 43
-61 64 -80 36 -33 41 -35 108 -34 53 0 88 7 137 27 69 28 104 34 114 17 16
-26 89 -2 122 40 15 18 16 60 3 94 -29 76 -98 89 -158 28 -42 -43 -168 -92
-238 -92 -63 0 -78 24 -82 125 l-4 83 39 18 c21 10 50 28 65 40 18 15 48 25
85 29 32 4 77 11 101 16 34 7 51 6 78 -7 22 -11 45 -14 69 -10 82 16 101 121
32 181 -19 16 -47 53 -61 82 -48 97 -127 164 -193 162 -15 0 -50 -11 -78 -23z
m158 -110 c30 -32 51 -110 37 -136 -12 -22 -20 -24 -140 -38 -102 -12 -125 -5
-116 39 3 16 16 44 28 63 60 88 146 121 191 72z"/>
<path d="M6553 2174 c-35 -7 -75 -20 -91 -28 -18 -9 -33 -11 -44 -5 -24 13
-62 -5 -92 -44 -43 -57 -30 -123 31 -155 28 -15 104 16 127 51 20 30 89 64
152 76 63 12 87 -2 103 -63 10 -40 9 -49 -10 -80 -11 -19 -43 -49 -70 -66
-237 -145 -265 -453 -48 -523 70 -23 95 -22 199 12 l89 29 31 -29 c56 -54 112
-30 92 39 -6 20 -9 47 -6 60 8 28 -13 78 -39 97 -19 13 -28 40 -67 193 -14 55
-16 80 -8 102 10 30 -5 100 -21 100 -13 0 -30 46 -37 101 -6 44 -14 60 -54
101 -46 48 -46 48 -111 47 -35 -1 -92 -7 -126 -15z m245 -416 c5 -7 15 -34 21
-60 6 -27 16 -69 22 -94 9 -39 8 -48 -7 -65 -9 -10 -22 -29 -28 -41 -14 -27
-72 -47 -147 -50 -74 -3 -84 7 -84 80 1 48 6 65 33 104 17 25 51 63 74 83 61
53 97 66 116 43z"/>
<path d="M8101 2137 c-116 -27 -180 -55 -196 -88 -31 -60 -9 -102 62 -117 57
-13 97 4 107 43 8 31 68 62 138 71 57 8 69 -6 76 -91 6 -79 2 -84 -133 -162
-186 -109 -241 -193 -182 -280 44 -66 76 -71 312 -47 l61 6 24 -39 c39 -60 89
-56 90 7 0 14 16 42 35 63 35 39 36 55 7 90 -8 9 -33 22 -55 29 -25 8 -42 20
-48 36 -13 33 -11 73 4 91 38 47 37 120 -3 141 -15 8 -20 21 -20 53 0 84 -41
171 -94 199 -31 17 -100 15 -185 -5z m209 -443 c6 -14 10 -42 10 -63 l0 -38
-82 -11 c-145 -21 -188 -13 -140 25 54 43 174 113 195 113 4 0 12 -12 17 -26z"/>
<path d="M9260 2143 c-55 -20 -55 -116 0 -178 14 -16 20 -51 29 -175 18 -259
17 -370 -2 -407 -31 -59 -16 -136 30 -148 32 -8 87 20 102 51 16 36 14 109 -4
124 -8 7 -15 27 -15 44 0 17 -5 49 -10 71 -6 22 -12 154 -15 292 -5 276 -7
288 -66 319 -15 7 -29 14 -31 13 -2 0 -10 -3 -18 -6z"/>
</g>
</svg>
