<?xml version="1.0" encoding="iso-8859-1"?>
<!-- Generator: Adobe Illustrator 16.0.4, SVG Export Plug-In . SVG Version: 6.00 Build 0)  -->
<!DOCTYPE svg PUBLIC "-//W3C//DTD SVG 1.1//EN" "http://www.w3.org/Graphics/SVG/1.1/DTD/svg11.dtd">
<svg version="1.1" id="Layer_1" xmlns="http://www.w3.org/2000/svg" xmlns:xlink="http://www.w3.org/1999/xlink" x="0px" y="0px"
	 width="612px" height="792px" viewBox="0 0 612 792" style="enable-background:new 0 0 612 792;" xml:space="preserve">
<path style="fill-rule:evenodd;clip-rule:evenodd;" d="M248.415,404.402c-4.026,3.541-7.976,7.175-12.115,10.578
	c-1.729,1.423-3.861,2.359-6.223,2.971c-4.139,8.382-11.889,13.557-18.755,19.624c-5.42,4.79-10.343,10.14-15.635,15.082
	c-1.385,1.293-3.398,1.89-4.978,3.01c-0.866,0.613-2.119,1.751-2.015,2.484c0.514,3.611-1.813,3.777-4.194,3.693
	c-2.994-0.104-5.923-0.683-8.491,1.772c-0.544,0.519-2.376-0.308-3.614-0.514c0.535-1.43,0.704-3.71,1.675-4.128
	c2.811-1.212,3.346-2.863,3-5.696c-0.33-2.706,1.138-4.582,4.343-4.919c0.235,1.058,0.448,2.016,0.539,2.425
	c3.813-0.403,7.396-0.781,10.571-1.116c-2.993-3.261,0.685-4.864,3.062-6.94c7.774-6.786,15.531-13.592,23.414-20.494
	c-6.393,0-12.281-0.005-18.169,0.003c-1.031,0.002-2.347-0.353-3.05,0.142c-9.894,6.946-21.529,7.458-32.869,9.276
	c-13.782,2.208-27.467,1.979-41.028-1.085c-4.216-0.952-8.403-2.73-12.15-4.911c-5.809-3.382-6.754-9.681-2.85-15.197
	c1.22-1.724,2.53-3.382,4.404-5.877c-2.422,0-4.313,0.022-6.204-0.01c-1.125-0.018-2.293,0.052-3.367-0.216
	c-11.25-2.804-21.275-8.467-31.729-13.229c-14.231-6.483-26.535-15.803-38.667-25.194c-6.607-5.114-11.892-12.453-16.369-19.663
	c-4.916-7.917-1.102-18.303,6.378-24.015c18.73-14.308,40.096-16.691,62.519-14.46c11.133,1.109,22.289,2.319,33.294,4.271
	c7.24,1.285,14.227,3.983,21.332,6.036c7.359,2.125,14.73,4.209,22.084,6.352c20.478,5.969,40.93,12.027,61.435,17.902
	c6.821,1.954,13.768,3.474,20.664,5.162c4.697,1.149,9.372,2.426,14.12,3.309c4.397,0.818,7.211-1.544,6.567-5.81
	c-0.412-2.716-1.415-6.483-3.387-7.598c-5.256-2.973-6.621-8.356-9.411-12.769c-3.425-5.417-6.017-11.354-9.132-16.978
	c-0.704-1.271-2.159-2.1-3.127-3.251c-4.51-5.364-8.951-10.785-13.465-16.144c-0.849-1.008-2.113-1.704-2.817-2.785
	c-0.46-0.709-0.257-1.851-0.373-3.023c-1.853-1.145-4.607-2.845-7.118-4.395c-1.303,0.523-2.592,1.04-3.881,1.558
	c-0.064-1.613-0.112-3.227-0.198-4.839c-0.044-0.85,0.101-1.839-0.279-2.52c-1.649-2.955-0.634-5.063,2.746-4.972
	c3.015,0.082,6.043,0.464,9.005,1.026c0.499,0.095,1.216,2.42,0.952,2.635c-3.796,3.087-1.104,6.005,1.015,7.361
	c8.768,5.607,15.557,12.719,19.697,22.331c0.44,1.022,1.46,2.261,2.437,2.507c5.606,1.417,8.295,5.754,10.641,10.355
	c1.57,3.08,2.226,6.711,4.148,9.507c2.973,4.323,6.679,8.142,10.519,12.701c3.058-4.491,3.318-8.566,1.661-12.3
	c-3.901-8.789-3.298-17.268,1.433-25.28c1.1-1.862,4.478-2.679,6.975-3.322c2.081-0.535,4.408-0.11,6.626-0.11
	c0.183-0.595,0.367-1.189,0.55-1.785c-3.661-1.641-7.304-3.324-10.986-4.917c-14.797-6.402-28.435-14.169-32.14-31.58
	c-0.647-3.047,1.09-6.953,2.609-10.025c2.203-4.456,4.972-8.917,10.608-9.603c1.267-0.154,3.212,0.951,3.93,2.064
	c0.504,0.785-0.125,2.951-0.955,3.845c-9.967,10.751-8.702,22.104,4.165,30.219c6.455,4.072,12.208,9.706,20.312,10.846
	c0.91,0.127,1.877,1.016,2.5,1.803c2.474,3.125,4.798,6.398,10.078,4.003c0.056,0.649,0.111,1.299,0.167,1.95
	c-1.596,0.86-3.105,1.992-4.803,2.533c-6.278,2-6.589,2.331-6.164,8.734c0.269,4.05-1.93,5.781-7.69,6.056
	c-5.795,0.275-7.41,1.921-6.917,7.051c0.404,4.202,2.803,5.66,6.462,3.629c7.419-4.117,15.213-7.16,23.773-6.402
	c5.027,0.446,9.937,2.22,14.898,3.403c0.143,0.033,0.269,0.198,0.402,0.2c2.397,0.025,4.842,0.29,7.155-0.14
	c0.555-0.103,1.268-2.742,0.878-3.854c-0.974-2.775-2.603-5.146-6.258-4.833c-1.793,0.154-3.656,0.04-5.429-0.278
	c-2.521-0.454-4.719-1.459-4.52-4.667c0.195-3.138,1.898-4.621,4.997-4.679c1.128-0.02,2.251-0.198,3.718-0.336
	c-6.655-2.083-12.898-4.037-20.022-6.267c7.08-3.715,13.34-6.313,18.833-10.041c8.453-5.735,17.417-11.195,21.01-21.803
	c2.903-8.578,1.131-13.859-6.592-18.378c-2.43-1.421-5.706-2.351-3.935-6.333c1.146-2.577,5.421-3.341,8.931-1.681
	c8.45,3.997,13.828,17.268,10.77,26.201c-3.96,11.569-11.204,19.671-22.96,23.971c-5.14,1.88-9.684,5.386-15.364,8.651
	c2.392,0.923,4.267,2.31,6.074,2.227c7.101-0.324,8.692,3.392,10.793,8.276c0.89,2.065,1.523,4.246,2.49,6.271
	c2.588,5.425,2.104,8.22-3,12.971c1.753,3.462,3.614,7.142,5.881,11.62c4.113-4.737,7.074-8.114,7.387-13.527
	c0.328-5.704,1.45-11.463,3.056-16.956c0.879-3.009,3.444-5.538,5.302-8.245c1.191-1.734,2.97-3.229,3.633-5.127
	c2.047-5.855,6.894-9.036,11.292-12.681c2.874-2.381,5.806-4.688,8.545-6.894c0.051,0.469,0.226,2.108,0.417,3.891
	c1.498,0.357,3.041,0.725,4.013,0.957c-6.627,6.273-13.313,12.557-19.925,18.92c-0.818,0.788-1.696,1.96-1.77,3.008
	c-0.662,9.617-3.943,18.472-7.546,27.265c-2.142,5.228-4.157,10.509-6.136,15.8c-1.047,2.794,3.993,7.912,7.175,7.041
	c6.423-1.755,12.83-3.625,19.101-5.854c8.684-3.088,17.236-6.551,25.646-9.777c1.175,1.014,2.112,1.823,3.049,2.633
	c0.249-0.966,0.266-2.093,0.801-2.855c0.716-1.019,1.69-2.127,2.801-2.555c13.141-5.06,26.332-9.986,39.499-14.976
	c14.571-5.523,28.916-11.759,43.758-16.415c13.388-4.199,27.216-7.216,41.037-9.73c8.674-1.578,17.798-2.356,26.529-1.517
	c10.304,0.992,20.702,3.075,29.957,8.49c4.362,2.552,9.49,3.542,12.844,8.106c5.203,7.08,5.879,15.466,0.092,21.935
	c-9.052,10.12-18.531,19.858-27.861,29.727c-11.741,12.417-25.555,21.917-41.365,28.296c-6.545,2.64-13.522,4.207-20.458,6.31
	c1.525,1.8,3.364,3.706,4.895,5.832c3.966,5.508,3.746,10.24-1.758,14.031c-4.649,3.203-9.966,5.912-15.383,7.414
	c-8.713,2.417-17.739,3.728-26.666,5.333c-1.63,0.293-3.408-0.239-5.119-0.39c-0.142-0.531-0.283-1.062-0.425-1.594
	c1.401-0.591,2.784-1.644,4.205-1.698c12.404-0.484,24.182-3.726,35.643-8.146c6.895-2.659,12.148-6.677,6.055-14.654
	c-3.74,0-7.312,0-10.844,0c-1.772,3.802,1.059,4.743,3.202,5.973c2.107,1.21,4.302,2.269,6.458,3.394
	c-0.208,0.522-0.417,1.046-0.627,1.568c-1.426-0.316-3.028-0.318-4.248-1.001c-7.4-4.148-15.62-4.234-23.693-4.888
	c-9.515-0.771-19.099-0.844-28.569-1.94c-6.548-0.759-12.948-2.771-19.434-4.143c-1.067-0.226-2.225-0.032-3.919,1.025
	c1.801,1.407,3.401,3.327,5.441,4.124c5.908,2.31,12.061,3.989,17.985,6.258c4.487,1.719,8.805,3.899,13.121,6.03
	c0.89,0.438,1.438,1.564,2.587,2.881c-1.429,0.238-2.203,0.613-2.498,0.382c-7.59-5.968-17.215-6.418-25.802-9.656
	c-3.513-1.324-6.94-3.004-10.163-4.929c-4.176-2.495-8.265-2.472-12.604-0.663c1.231,2.108,2.442,4.178,4.237,7.25
	c-1.984-0.506-2.595-0.471-2.793-0.74c-3.203-4.353-7.761-6.55-12.706-8.205c-9.164-3.067-18.31-6.193-27.722-9.382
	c-0.537,1.219-0.952,2.161-1.324,3.003c-7.708-2.205-13.765-8.096-22.29-7.931c9.74,6.939,19.123,13.625,28.506,20.309
	c0.415-0.576,0.827-1.151,1.241-1.729c-0.994-0.773-2.184-1.396-2.932-2.359c-0.881-1.136-1.381-2.565-2.045-3.868
	c1.347,0.217,3.051-0.008,3.971,0.735c2.995,2.422,5.703,5.199,9.222,8.494c-2.219,0.816-3.002,1.104-4.261,1.568
	c1.914,0.931,3.44,2.102,5.127,2.418c6.515,1.222,13.051,2.584,19.638,3.028c2.78,0.188,5.665-1.92,8.579-2.694
	c1.442-0.384,3.143-0.442,4.582-0.08c10.499,2.642,20.945,5.499,31.456,8.096c1.655,0.41,3.552-0.158,5.351-0.276
	c0.715,4.625,0.359,4.957-4.098,4.054c-8.307-1.683-16.623-3.313-24.934-4.977c-0.595-0.119-1.209-0.239-1.75-0.496
	c-4.829-2.292-9.219-4.284-14.785-0.56c-2.503,1.677-7.061,0.284-11.257,0.284c3.787,5.237,7.44,9.624,13.359,12.017
	c4.042,1.636,7.634,4.427,11.351,6.821c4.709,3.033,9.34,6.189,14.354,9.524c-0.127-1.722-0.208-2.823-0.38-5.165
	c1.76,1.5,3.267,2.145,3.524,3.12c1.042,3.942,2.11,7.963,2.332,12.002c0.118,2.171-1.699,3.238-4.238,1.737
	c-1.768-1.044-3.927-1.646-5.982-1.936c-2.737-0.387-4.422-1.401-3.74-4.368c0.719-3.129-0.908-4.061-3.538-4.503
	c-0.972-0.164-2.184-0.57-2.735-1.288c-3.861-5.025-9.271-7.587-14.672-10.591c-6.032-3.352-11.291-8.206-16.563-12.779
	c-3.924-3.406-6.973-7.952-13.211-7.12c-0.847,0.111-2.48-1.146-2.766-2.074c-2.429-7.868-10.578-9.461-15.987-15.664
	c0,1.989-0.338,3.048,0.05,3.573c9.254,12.549,6.449,27.094,6.857,41.092c0.133,4.551,1.007,9.365-0.141,13.604
	c-2.174,8.033,3.052,13.034,6.198,18.95c2.989,5.624,5.93,11.098,6.244,17.809c0.113,2.426,3.238,4.58,4.47,7.11
	c2.499,5.135,4.642,10.442,7.053,15.959c-1.51,0.488-3.042,0.982-5.312,1.718c-0.515-8.151-7.911-12.275-9.605-20.389
	c-1.979-9.486-7.623-18.235-11.948-27.174c-0.75-1.552-2.847-2.453-4.321-3.655c-0.291,0.304-0.582,0.606-0.872,0.91
	c0.279,0.48,0.894,1.066,0.781,1.424c-0.64,2.038-1.404,4.042-2.271,5.994c-0.101,0.229-1.082,0.067-1.655,0.088
	c0.112-1.684,0.202-3.368,0.344-5.049c0.126-1.493,0.749-3.092,0.402-4.453c-2.959-11.638-1.272-23.136,0.398-34.73
	c0.839-5.812,0.584-11.785,0.727-17.688c0.02-0.811-0.526-1.633-0.809-2.44c-4.854,1.503-9.049,6.779-8.714,12.041
	c0.382,5.984,1.992,11.888,2.442,17.874c0.688,9.176,1.225,18.396,1.087,27.587c-0.094,6.235-1.453,12.451-2.24,18.676
	c-0.057,0.446-0.194,0.926-0.095,1.343c2.926,12.213-0.612,23.158-6.504,33.672c-2.779,4.96-4.338,11.334-8.408,14.688
	c-8.202,6.759-11.501,16.961-19.035,23.996c-3.398,3.172-5.062,3.539-8.244,0.078c-4.286-4.658-8.369-9.511-12.791-14.036
	c-1.516-1.551-3.656-2.879-5.741-3.417c-6.066-1.567-8.927-6.644-12.127-11.012c-8.062-11.003-13.929-22.923-13.66-37.159
	c0.057-3.012-2.335-6.047-2.371-9.085c-0.09-7.772,0.616-15.55,0.8-23.33c0.109-4.64-0.616-9.334-0.152-13.921
	c0.588-5.834,2.101-11.57,3.017-17.379c0.444-2.814,0.437-5.701-0.281-7.614c-2.535-1.751-5.035-3.557-7.622-5.226
	c-1.402-0.903-2.956-1.572-4.439-2.349c-0.404,1.698-1.3,3.45-1.126,5.086c0.83,7.824,2.132,15.6,2.907,23.427
	c0.563,5.703,0.661,11.46,0.685,17.194c0.003,0.595-1.913,1.197-2.94,1.797l0.028,0.021c-0.282-8.082,0.399-16.345-1.083-24.199
	c-1.964-10.414-3.045-20.523-0.008-30.811c0.225-0.765,0.029-1.653,0.029-3.168c-1.727,0.657-2.93,1.114-4.134,1.572
	C248.778,404.217,248.597,404.31,248.415,404.402z M226.789,394.182c-8.866,1.42-17.4,3.759-25.18,8.648
	c3.201,3.208,6.645,3.467,10.288,2.048c4.776-1.86,9.521-3.806,14.219-5.849c0.706-0.308,1.093-1.349,1.627-2.049
	c1.179,0.002,2.479,0.334,3.518-0.046c7.032-2.581,14.008-5.311,20.991-8.018c0.074-0.029,0.009-0.414,0.009-0.218
	C243.286,388.379,234.659,389.653,226.789,394.182z M286.084,338.668c1.861-2.352,3.721-4.703,5.532-6.991
	c-2.722-4.139-2.323-5.48,2.417-5.866c7.363-0.6,14.771-0.655,22.162-0.899c2.278-0.076,4.56-0.012,6.84-0.012
	c-12.052-9.142-36.676-7.79-41.025,1.439c0.808,0.067,1.663-0.084,2.272,0.233c1.381,0.72,2.643,1.67,3.953,2.527
	c-1.402,0.535-2.923,1.72-4.184,1.488c-4.859-0.891-6.921,1.495-8.084,5.717c-0.79,2.87-1.739,5.753-3.071,8.403
	c-1.693,3.369,0.004,6.602,2.205,7.345c5.613,1.896,4.461,5.692,4.183,9.695c-0.27,3.878-1.598,8.017,2.21,12.154
	c2.533-7.753,4.863-14.886,7.193-22.018c0.5,0.05,1,0.101,1.5,0.152c0.238,1.301,0.991,2.774,0.624,3.873
	c-1.617,4.842-3.512,9.596-5.395,14.346c-1.806,4.556-1.07,5.353,3.96,5.422c10.259,0.141,20.519,0.474,30.768,0.932
	c4.516,0.202,5.696-0.806,4.394-5.144c-1.826-6.086-4.016-12.065-5.839-18.152c-0.444-1.485-0.065-3.218-0.065-4.836
	c0.488-0.018,0.976-0.036,1.465-0.054c2.68,8.689,5.361,17.379,8.04,26.068c0.783-0.114,1.565-0.228,2.347-0.341
	c0-6.382,0.32-12.79-0.188-19.132c-0.159-2-2.712-3.722-3.855-5.748c-2.223-3.937-4.56-6.349-9.408-3.232
	c-0.924,0.593-4.428-0.867-4.932-2.112c-0.553-1.365,0.524-4.055,1.768-5.273c1.031-1.009,3.335-0.718,5.062-1.001
	c-2.611-9.145-17.719-13.703-25.299-4.296c-1.892,2.347-4.405,4.191-6.632,6.266C286.696,339.305,286.39,338.986,286.084,338.668z
	 M345.255,355.944c1.494-0.713,2.924-1.815,4.492-2.076c11.471-1.907,22.95-3.771,34.462-5.4c11.348-1.606,22.785-2.79,33.165-8.171
	c3.477-1.802,6.616-4.258,10.109-6.021c11.589-5.847,23.291-11.468,34.884-17.305c1.574-0.792,2.778-2.318,4.956-4.197
	c-42.176,13.807-82.054,30.389-124.15,41.66c0.89,0.652,1.479,1.084,2.068,1.516c-0.243,2.979-0.485,5.958-0.831,10.211
	c3.116,0.914,6.689,2.43,10.402,2.948c6.553,0.914,13.211,1.043,19.789,1.821c9.753,1.153,19.445,2.876,29.218,3.786
	c5.627,0.523,11.385-0.473,17.035-0.091c11.01,0.742,21.976,2.125,32.981,2.936c5.582,0.412,11.301-0.438,16.802,0.359
	c6.091,0.883,11.936,3.381,18.015,4.468c6.452,1.154,12.699,2.782,19.672,1.713c17.487-2.683,31.553-11.797,45.148-21.995
	c5.277-3.959,10.082-8.602,14.793-13.246c6.179-6.09,12.052-12.49,18.21-18.917c-3.334-1.896-5.67-3.295-8.075-4.558
	c-0.872-0.457-2.033-1.03-2.858-0.803c-7.91,2.172-15.91,2.3-24.003,1.513c-3.968-0.386-6.876,0.416-7.953,5.269
	c-1.772,7.985-4.377,15.718-10.099,22.056c-0.877,0.972-0.589,3.722,0.112,5.197c0.778,1.641,2.793,2.651,3.979,4.165
	c0.583,0.744,0.511,2.002,0.734,3.027c-0.929,0.051-2.149,0.501-2.732,0.077c-1.688-1.229-3.595-2.551-4.561-4.306
	c-2.529-4.594-6.083-5.19-10.769-4.111c-3.26,0.75-7.141,1.849-9.942,0.75c-3.288-1.29-6.574-0.832-9.792-1.668
	c-4.247-1.102-8.881-0.74-13.351-0.948c-3.116-0.146-6.769-1.279-9.247-0.064c-5.885,2.882-7.075,11.623-3.18,17.019
	c0.967,1.34,1.465,3.021,2.179,4.546c-0.628,0.322-1.255,0.646-1.882,0.969c-1.874-2.96-3.614-6.019-5.684-8.835
	c-0.925-1.255-2.396-2.638-3.819-2.908c-8.458-1.599-17.17-2.175-25.431-4.433c-16.167-4.419-31.799-4.253-47.773,1.185
	c-13.923,4.739-28.395,5.971-42.921,2.126c-1.263-0.334-2.454-0.931-3.678-1.405c0.092-0.534,0.186-1.069,0.277-1.604
	c1.499,0,3.042-0.24,4.486,0.036c14.328,2.748,28.406,1.157,42.082-3.221c12.399-3.97,24.586-5.81,37.49-2.44
	c9.955,2.6,20.152,4.358,30.321,5.996c2.83,0.456,7.123,0.19,8.68-1.57c3.148-3.56,4.991-8.316,7.142-12.693
	c0.727-1.482,0.755-3.308,1.103-4.976c-2.045-0.069-4.157-0.506-6.127-0.15c-13.964,2.518-27.889,5.266-41.851,7.795
	c-5.893,1.068-11.693,0.958-17.369-1.657c-1.904-0.876-4.473-0.893-6.622-0.557c-10.259,1.6-20.472,3.492-30.712,5.205
	c-5.677,0.951-11.6,1.072-16.999,2.835C353.057,358.296,349.159,359.958,345.255,355.944z M265.939,370.807
	c-7.189,0.887-13.476,2.642-19.613,2.221c-13.863-0.951-27.64-3.114-41.481-4.485c-4.306-0.427-8.877-0.637-13.031,0.329
	c-11.78,2.742-23.254,7.188-35.147,8.93c-8.387,1.229-14.038,3.853-17.212,11.729c-0.616,1.528-2.564,2.519-3.898,3.757
	c-0.347-0.352-0.694-0.703-1.042-1.054c1.791-3.748,3.581-7.497,5.372-11.245c-0.513,0.008-1.026,0.015-1.54,0.022
	c-0.415-1.376-1.438-2.904-1.139-4.101c1.248-5-0.288-7.393-5.599-6.804c-4.516,0.501-8.921,2.005-13.374,3.07
	c-2.547,0.609-5.933,2.559-7.474,1.584c-4.024-2.545-6.93,2.789-10.881,0.497c-1.942-1.126-5.359,0.625-7.803-0.043
	c-4.349-1.189-6.954-0.671-9.125,3.154c-1.57,2.766-3.353,5.465-4.458,8.413c-0.46,1.227,0.12,3.93,1.037,4.408
	c5.618,2.932,11.276,6.025,17.284,7.912c9.001,2.823,18.176,2.303,27.148-0.979c5.119-1.871,10.289-3.649,15.537-5.111
	c6.262-1.744,12.56-3.604,18.97-4.512c8.776-1.242,17.704-1.386,26.513-2.452c11.692-1.416,23.359-3.097,34.987-4.972
	c14.575-2.35,29.098-5.012,43.837-7.574c0.575,0.724,1.415,1.781,2.254,2.838c0.441-0.188,0.882-0.375,1.324-0.562
	C266.824,373.845,266.262,371.912,265.939,370.807z M266.231,446.786c0.268,0.051,0.536,0.1,0.803,0.151
	c0,1.972,0.085,3.947-0.019,5.913c-0.201,3.812,1.732,5.006,5.297,4.974c14.451-0.131,28.915,0.21,43.353-0.272
	c9.765-0.325,19.495-1.704,29.235-2.671c3.743-0.372,5.169-2.484,4.691-6.248c-0.564-4.445-0.898-8.925-1.195-13.398
	c-0.491-7.39-3.943-10.737-11.222-10.626c-12.259,0.188-24.518,0.456-36.778,0.608c-8.564,0.106-17.13,0.111-25.695,0.092
	c-2.724-0.006-4.626,0.613-5.142,3.784C268.6,435.015,267.356,440.89,266.231,446.786z M349.662,458.704
	c-3.033,0.215-5.273,0.367-7.512,0.535c-11.771,0.884-23.529,2.241-35.313,2.525c-11.926,0.29-23.88-0.39-35.814-0.851
	c-3.17-0.122-4.382,0.642-5.001,4.035c-1.263,6.9-0.699,13.533,1.364,20.078c0.417,1.324,1.919,2.93,3.205,3.242
	c4.231,1.033,8.573,1.934,12.909,2.153c9.188,0.469,18.458,1.218,27.583,0.483c11.252-0.905,22.4-3.148,33.575-4.928
	c3.33-0.53,4.935-2.897,4.977-6.146C349.725,473.044,349.662,466.255,349.662,458.704z M140.473,324.803
	c-0.208,0.394-0.415,0.789-0.622,1.184c0.664,0.563,1.239,1.343,2.005,1.654c3.769,1.527,7.701,2.689,11.368,4.419
	c9.992,4.715,19.886,9.639,29.808,14.504c6.496,3.186,12.737,6.333,20.43,6.763c14.171,0.794,28.286,2.755,42.394,4.475
	c4.819,0.588,9.547,1.912,14.317,2.899c0.008,0.644,0.016,1.287,0.024,1.93c-2.259,0.293-4.576,1.061-6.77,0.801
	c-13.349-1.583-26.645-3.647-40.012-5.037c-6.695-0.696-13.9-3.084-19.782,2.939c-0.729,0.746-2.26,1.066-3.39,1.007
	c-8.396-0.434-16.782-1.049-25.175-1.54c-9.037-0.528-18.076-1.065-27.122-1.33c-0.854-0.025-2.534,1.881-2.523,2.876
	c0.07,6.111,10.859,14.383,16.925,12.943c9.139-2.17,18.167-4.819,27.319-6.925c7.22-1.66,14.534-3.735,21.849-3.917
	c7-0.174,14.154,1.427,21.067,3.004c14.561,3.32,28.831,1.791,43.078-1.145c0.276-5.609,0.028-6.478-4.45-7.9
	c-7.176-2.279-14.468-4.209-21.749-6.15c-13.895-3.704-27.803-7.359-41.732-10.935c-5.685-1.459-11.526-2.36-17.142-4.033
	C167.168,333.291,153.839,328.985,140.473,324.803z M268.775,491.929c0.46,4.244,0.703,6.778,1.015,9.304
	c0.879,7.153,2.623,14.646,9.972,17.076c7.656,2.531,16.016,3.594,24.124,3.932c9.334,0.389,18.426-1.875,27.609-4.201
	c14.876-3.768,17.741-15.924,16.37-28.08C321.804,496.854,295.489,497.684,268.775,491.929z M77.647,338.189
	c-0.116,0.35-0.231,0.7-0.346,1.05c0.788,0.654,1.474,1.614,2.378,1.913c8.292,2.742,16.539,5.677,24.964,7.941
	c8.251,2.218,17.192,1.667,24.85,6.442c1.387,0.865,3.52,0.945,5.25,0.779c11.044-1.057,21.937-0.074,32.902,1.383
	c6.69,0.888,13.585,0.352,20.383,0.213c1.087-0.022,2.147-1.318,3.221-2.025c-0.865-0.914-1.562-2.177-2.622-2.686
	c-9.831-4.72-19.837-9.086-29.567-14c-9.198-4.645-18.277-7.496-28.915-5.08c-8.352,1.897-17.104,2.054-25.689,2.893
	c-4.958,0.486-9.928,0.909-14.903,1.141C85.592,338.337,81.616,338.189,77.647,338.189z M415.966,346.396
	c5.613,2.751,10.388,2.386,15.078,1.53c7.26-1.328,14.455-3.014,21.689-4.485c10.636-2.163,21.29-4.234,31.922-6.416
	c4.871-1,9.828-1.801,14.536-3.333c10.319-3.357,20.532-7.051,30.711-10.817c1.26-0.466,2.051-2.202,3.059-3.35
	c-1.465-0.299-2.985-1.018-4.389-0.834c-15.488,2.027-30.992,2.602-46.612,1.737c-6.65-0.368-13.53-1.422-20.005,1.78
	c-10.974,5.429-22.094,10.566-33.015,16.095C424.706,340.446,420.842,343.321,415.966,346.396z M73.477,387.903
	c1.705-2.928,3.396-5.578,4.835-8.359c3.39-6.55,2.895-6.226-1.795-12.216c-3.314-4.232-5.121-9.624-7.786-14.395
	c-1.119-2.004-2.521-5.126-4.126-5.348c-5.437-0.752-11.021-0.431-16.55-0.526c-4.236-0.073-8.471-0.159-12.708-0.234
	c-0.863-0.015-1.942-0.342-2.552,0.049c-2.731,1.754-5.33,3.715-7.975,5.601C30.037,360.849,60.618,383.185,73.477,387.903z
	 M124.231,411.024c0.09,0.474,0.18,0.947,0.27,1.42c1.18,0.396,2.391,1.2,3.535,1.114c6.777-0.514,13.642-0.712,20.283-2.011
	c9.615-1.882,19.056-4.644,28.587-6.968c8.654-2.111,17.414-3.841,25.975-6.275c11.632-3.308,23.081-7.254,34.683-10.673
	c6.078-1.791,12.315-3.041,18.481-4.536c-0.002-0.378-0.003-0.759-0.005-1.138c-1.525-0.373-3.086-1.174-4.567-1.046
	c-9.469,0.82-18.952,1.599-28.367,2.859c-13.158,1.759-26.223,4.267-39.407,5.746c-5.082,0.57-9.171,2.449-13.421,4.85
	c-4.436,2.505-9.041,4.979-13.881,6.443c-7.639,2.31-15.599,3.54-23.292,5.694C129.97,407.381,127.179,409.48,124.231,411.024z
	 M194.323,405.676c-0.142-0.51-0.285-1.019-0.427-1.527c-4.577,0.878-9.197,1.576-13.722,2.667
	c-10.272,2.479-20.406,5.642-30.772,7.582c-7.655,1.435-15.581,1.503-23.4,1.943c-5.124,0.289-9.334,3.026-10.561,7.552
	c10.758,6.286,22.913,6.345,34.646,6.309c11.965-0.036,23.89-2.052,35.574-5.499c7.122-2.102,12.654-5.399,15.964-11.935
	c0.744-1.469,0.751-3.941-0.03-5.307c-0.446-0.777-3.377-0.778-4.838-0.216c-7.433,2.856-14.966,5.587-22.042,9.19
	c-6.243,3.177-11.93,7.444-17.859,11.235c-0.769,0.491-1.517,1.013-2.275,1.521c-0.445-0.406-0.891-0.811-1.337-1.216
	c2.184-2.598,3.871-6.115,6.648-7.613c7.022-3.784,14.502-6.735,21.863-9.872C185.878,408.732,190.129,407.271,194.323,405.676z
	 M285.822,404.039c-7.745,0.279-14.672,7.041-14.958,14.714c-0.097,2.605,1.007,3.661,3.493,3.407
	c2.395-0.246,4.783-0.795,7.175-0.806c19.511-0.087,39.022-0.109,58.533-0.063c2.632,0.007,3.86-0.892,4.051-3.596
	c0.658-9.437-4.92-17.222-18.402-13.802c-10.379,2.633-20.871,2.863-31.432,1.545C291.448,405.085,288.641,404.512,285.822,404.039z
	 M542.419,324.988c-0.275-0.586-0.55-1.171-0.825-1.758c-2.165,0.197-4.497-0.052-6.457,0.688
	c-3.508,1.327-6.645,3.708-10.196,4.841c-12.961,4.135-26.044,7.889-39.04,11.921c-1.605,0.499-3.645,1.476-4.278,2.806
	c-1.107,2.32-1.278,5.086-1.847,7.696c0.526,0.289,0.908,0.679,1.295,0.685c8.551,0.124,17.101,0.229,25.65,0.284
	c4.985,0.032,10.062-0.639,14.934,0.097c6.85,1.034,8.799,0.647,11.638-5.682C536.49,339.444,539.39,332.187,542.419,324.988z
	 M470.336,316.033c20.418,2.576,39.58,1.353,58.708-0.547c4.428-0.439,6.1-4.554,6.729-8.193c0.275-1.585-1.944-3.944-3.522-5.43
	c-2.292-2.16-4.868-4.148-7.632-5.637c-2.014-1.084-4.634-2.001-6.798-1.695c-15.821,2.242-30.236,8.289-43.522,17.059
	C472.92,312.501,472.008,314.12,470.336,316.033z M492.212,395.859c-31.944-14.407-103.574-21.437-127.151-17.943
	c7.458,1.107,15.126,1.797,22.582,3.444c15.926,3.518,31.773,7.406,47.594,11.376c17.503,4.395,35.55,3.094,53.255,5.327
	C489.492,398.191,490.687,396.804,492.212,395.859z M137.149,330.142c0.04-0.615,0.079-1.229,0.119-1.843
	c-5.15-5.503-11.729-8.429-18.99-10.237c-5.117-1.274-10.202-2.688-15.257-4.189c-9.717-2.884-18.551-2.114-25.831,5.798
	c-2.499,2.715-3.948,5.474-2.022,9.274c1.735,3.424,3.765,5.279,8.043,5.019c10.105-0.613,20.262-0.379,30.363-1.031
	C121.459,332.423,129.293,331.102,137.149,330.142z M125.687,367.043c0.152,0.425,0.305,0.849,0.458,1.273
	c1.964-1.046,3.928-2.093,5.893-3.14c-1.301-2.06-2.536-4.166-3.946-6.148c-0.389-0.547-1.262-0.871-1.975-1.049
	c-6.362-1.582-12.678-3.446-19.122-4.575c-10.587-1.855-21.241-3.279-30.394-9.597c-0.496-0.343-1.088-0.914-1.565-0.851
	c-1.861,0.25-3.692,0.711-5.536,1.093c0.355,1.46,0.461,3.043,1.11,4.356c2.204,4.466,4.605,8.835,6.921,13.246
	c3.402,6.48,11.417,10.17,18.012,9.143C105.542,369.238,115.634,368.265,125.687,367.043z M31.791,325.496
	c-3.811-2.172-5.957-0.482-8.123,1.794c-6.054,6.364-6.619,9.878-2.652,18.163c1.732,3.619,3.927,4.138,6.602,1.104
	c5.108-5.796,9.696-11.884,5.467-20.277c-0.078-0.155,0.248-0.513,0.449-0.9c2.145,0.326,4.404,1.192,6.499,0.896
	c8.294-1.179,16.516-2.869,24.806-4.084c6.751-0.99,11.099-5.175,15.767-10.54c-4.969,0-9.139,0.36-13.227-0.068
	c-11.829-1.242-22.368,2.461-32.638,7.696C32.249,320.549,29.958,321.518,31.791,325.496z M270.146,372.49
	c3.57,4.102,6.887,7.833,10.111,11.644c1.617,1.911,2.667,4.613,4.661,5.845c10.48,6.476,21.574,8.426,33.527,4.006
	c6.007-2.221,11.69-9.299,10.495-14.033c-3.183,0-6.355,0.07-9.524-0.012c-11.036-0.287-22.084-0.403-33.095-1.092
	c-2.928-0.183-6.858-1.4-8.354-3.53C275.643,372.012,273.167,372.735,270.146,372.49z M341.108,520.838
	c-19.88,7.53-39.639,8.782-60.127,3.018c3.342,5.056,5.811,10.771,11.516,12.821c7.617,2.737,15.683,4.297,23.81,2.871
	c4.791-0.842,10.322-1.606,13.853-4.466C334.686,531.417,337.535,525.682,341.108,520.838z M201.716,419.468
	c1.932,0.34,3.461,0.716,5.011,0.863c9.366,0.902,17.326-3.479,24.666-8.04c11.938-7.418,23.133-16.031,34.627-24.161
	c0.125-0.089,0.037-0.479,0.11-2.031c-5.24,2.396-10.433,3.889-14.54,6.874c-4.939,3.592-8.902,8.511-13.413,12.721
	c-0.988,0.923-2.587,1.87-3.754,1.71c-0.968-0.133-1.714-1.878-1.826-2.015c1.794-1.925,2.846-3.288,4.134-4.369
	c1.385-1.164,2.992-2.061,4.501-3.075c-0.275-0.392-0.552-0.782-0.827-1.175c-0.583,0.066-1.216,0.004-1.739,0.216
	c-10.283,4.163-20.574,8.308-30.794,12.619c-1.108,0.468-1.961,1.839-2.636,2.968C204.095,414.487,203.19,416.542,201.716,419.468z
	 M579.093,298.165c-0.149-0.394-0.181-0.75-0.373-0.926c-0.446-0.402-0.932-0.798-1.471-1.052
	c-13.427-6.316-27.587-7.61-42.11-5.835c-2.437,0.298-4.739,1.691-7.104,2.578c2.369,2.184,4.381,5.269,7.176,6.379
	c7.587,3.011,15.409,5.908,23.855,3.018c0.971-0.332,2.133-0.453,3.138-0.28C568.246,303.082,573.84,302.216,579.093,298.165z
	 M596.463,313.768c-0.986-3.876-6.018-12.383-9.689-12.819c-3.454-0.411-7.336,1.384-10.785,2.805
	c-2.423,0.998-2.631,3.095-1.235,5.652c1.181,2.164,1.782,4.774,2.09,7.254c0.461,3.726,7.396,9.58,11.157,8.914
	c0.974-0.171,2.242-0.663,2.701-1.417C592.755,320.775,594.564,317.245,596.463,313.768z M363.846,404.071
	c-0.587,0.183-1.175,0.363-1.761,0.545c2.275,11.172,0.402,22.089-1.26,33.142c-0.968,6.434-0.021,13.17,0.273,19.761
	c0.04,0.892,1.259,2.373,2.014,2.427c0.921,0.063,2.196-0.899,2.824-1.772c0.651-0.904,0.957-2.227,0.991-3.379
	c0.32-10.872,1.039-21.767,0.618-32.615C367.311,416.104,365.143,410.105,363.846,404.071z M329.034,399.385
	c3.797,0.548,7.458,1.11,11.13,1.578c0.874,0.111,1.896,0.145,2.666-0.199c5.572-2.488,11.098-5.083,17.095-7.854
	c-6.552-3.456-13.485-7.112-20.449-10.785C335.597,388.536,332.278,394.021,329.034,399.385z M56.911,345.469
	c4.137-1.568,7.909-2.678,11.386-4.386c6.596-3.238,6.59-3.543,3.972-10.125c-2.625-6.6-8.061-7.227-12.849-1.521
	c-1.912,2.279-4.159,4.316-5.797,6.767c-1.155,1.729-2.515,4.292-1.987,5.89C52.133,343.599,54.98,344.329,56.911,345.469z
	 M366.507,380.905c-0.179,0.475-0.357,0.949-0.536,1.423c1.343,0.839,2.584,2.001,4.046,2.465
	c11.771,3.743,23.465,7.847,35.443,10.774c5.072,1.239,10.769-0.077,16.181-0.231c0.04-0.695,0.079-1.39,0.119-2.085
	C403.604,387.992,385.179,383.908,366.507,380.905z M559.23,322.755c0.338-0.476,0.677-0.952,1.015-1.428
	c-1.504-2.301-2.816-4.76-4.562-6.859c-1.899-2.284-4.266-4.172-6.312-6.342c-3.844-4.081-8.969-3.061-10.979,2.19
	c-0.479,1.249-1.776,2.339-1.847,3.552c-0.092,1.617,0.144,4.278,1.111,4.768C544.44,322.071,551.781,322.925,559.23,322.755z
	 M256.076,398.031c10.46,2.768,19.831,6.937,29.591,2.781c-3.088-3.484-6.382-7.145-9.611-10.861
	c-2.209-2.543-4.332-3.292-7.326-0.876C265.092,392.011,261.103,394.51,256.076,398.031z M117.057,407.899
	c2.325-0.317,4.733-0.353,6.961-1.005c9.379-2.739,18.721-5.615,28.045-8.541c4.605-1.444,9.143-3.102,13.711-4.663
	C159.423,389.477,123.211,400.228,117.057,407.899z M554.031,306.377c-0.08,0.463-0.161,0.925-0.241,1.388
	c1.535,1.378,3.229,2.62,4.568,4.167c1.805,2.082,3.946,4.181,4.837,6.669c1.241,3.472,3.206,4.252,6.51,3.91
	c3.846-0.398,4.335-2.933,3.777-5.788c-0.633-3.233-1.763-6.378-2.816-9.516c-0.196-0.582-1.066-1.347-1.615-1.338
	C564.043,305.953,559.037,306.188,554.031,306.377z M444.578,380.614c2.29,0.5,4.585,0.983,6.869,1.504
	c11.754,2.686,23.485,5.476,35.268,8.03c5.294,1.148,10.69,1.832,16.039,2.727c0.116-0.707,0.232-1.413,0.35-2.119
	C484.497,382.884,464.854,380.251,444.578,380.614z M55.917,329.263c-0.18-0.541-0.359-1.082-0.54-1.622
	c-3.881,0.459-7.796,0.731-11.632,1.432c-3.832,0.7-9.066,9.343-8.193,13.125c0.095,0.413,0.407,1.094,0.648,1.107
	c3.071,0.17,6.217,0.644,9.185,0.124c1.068-0.187,1.687-2.835,2.547-4.339c1.024-1.789,1.894-3.715,3.186-5.29
	C52.502,332.11,54.299,330.761,55.917,329.263z M318.057,330.803c4.63,6.807,8.944,13.151,13.396,19.697
	c3.814-2.771,5.307-5.325,2.592-9.07c-1.32-1.822-2.55-3.757-3.493-5.794C327.579,329.211,326.37,328.609,318.057,330.803z
	 M256.315,400.855c-0.158,5.6,4.517,13.6,8.651,15.126c0.812,0.301,2.726-0.438,3.082-1.193c1.32-2.791,2.2-5.788,3.319-8.919
	C266.367,404.204,261.564,402.604,256.315,400.855z M323.33,543.962c-6.966,0-13.305,0-20.71,0
	c3.984,4.429,6.997,7.953,10.269,11.218c0.457,0.455,2.71,0.04,3.231-0.651C318.726,551.075,321.031,547.396,323.33,543.962z
	 M351.162,297.761c-4.018,3.282-8.409,21.394-6.565,27.073C349.62,318.768,353.926,301.011,351.162,297.761z M262.184,332.488
	c-1.174-4.216-1.633-7.485-2.978-10.337c-2.222-4.714-4.905-9.23-7.692-13.64c-0.392-0.619-2.613-0.506-3.706-0.054
	c-0.449,0.186-0.627,2.475-0.111,3.291c2.892,4.581,6.006,9.025,9.102,13.475C258.32,327.408,259.966,329.504,262.184,332.488z
	 M339.047,344c-1.003,2.192-1.941,3.893-2.576,5.7c-1.281,3.65-2.711,7.3-3.401,11.074c-0.221,1.216,2.104,4.161,2.554,4.022
	c2.176-0.672,4.878-1.697,5.866-3.454c0.672-1.197-0.638-4.379-2.01-5.662c-2.334-2.182-2.028-4.142-0.173-5.712
	C341.969,347.717,341.349,346.089,339.047,344z M121.825,412.302c-0.3-0.487-0.6-0.976-0.899-1.463
	c-3.581,1.151-8.439-2.571-10.756,3.217c-1.126,2.812-0.752,5.518,1.973,7.461C115.527,418.297,118.676,415.299,121.825,412.302z
	 M358.798,402.629c-2.854-1.699-4.31-3.306-5.626-3.199c-2.951,0.241-6.58,1.106-6.338,4.875c0.107,1.676,3.544,4.782,4.371,4.456
	C353.641,407.801,355.525,405.447,358.798,402.629z M278.125,361.659c-1.814-1.879-3.468-4.402-4.165-4.161
	c-2.033,0.704-3.683,2.511-5.483,3.886c1.814,1.804,3.628,3.606,5.442,5.41C275.088,365.365,276.259,363.937,278.125,361.659z
	 M374.645,375.044c0.048-0.698,0.096-1.396,0.145-2.093c-6.098,0-12.193,0-18.289,0c-0.017,0.345-0.031,0.69-0.048,1.036
	C362.517,374.339,368.58,374.692,374.645,375.044z M429.398,320.6c0.123,0.421,0.246,0.843,0.369,1.264
	c5.531-1.986,11.064-3.971,16.596-5.956c-0.146-0.413-0.292-0.825-0.438-1.238C440.416,316.647,434.908,318.624,429.398,320.6z
	 M188.45,453.892c-0.116-0.294-0.232-0.588-0.348-0.882c-2.619,0.231-5.237,0.463-7.971,0.705c0.376,1.012,0.876,2.359,1.622,4.365
	C184.328,456.47,186.389,455.181,188.45,453.892z M267.621,341.264c2.267-1.639,3.401-2.458,4.817-3.481
	c-1.769-1.423-3.199-2.572-4.628-3.721c-0.397,0.169-0.795,0.338-1.193,0.507C266.89,336.387,267.163,338.207,267.621,341.264z
	 M360.013,284.322c-1.776,2.859-3.385,5.448-4.993,8.036C362.019,287.19,362.019,287.19,360.013,284.322z M268.829,349.206
	c-0.661,0.25-1.323,0.5-1.984,0.75c0.555,1.661,1.015,3.37,1.776,4.93c0.105,0.215,1.701-0.295,2.606-0.471
	C270.428,352.677,269.629,350.941,268.829,349.206z"/>
<path style="fill-rule:evenodd;clip-rule:evenodd;" d="M254.127,460.706c2.872,5.31,2.839,14.671-0.667,18.312
	c-0.464-2.578-0.717-4.713-1.271-6.767c-0.316-1.181-1.12-2.228-1.705-3.336c-0.974,0.833-2.354,1.478-2.846,2.535
	c-1.424,3.061-2.493,6.29-4.589,9.368c-0.175-1.013-0.351-2.025-0.596-3.444c-0.892,1.302-1.62,2.365-2.314,3.381
	c0.345,1.955,4.996,3.432,0.518,5.587c-3.521-1.15-2.481,2.614-3.957,3.669c-0.348-1.353-1.369-2.992-0.934-4.01
	c3.009-7.06,6.37-13.969,9.502-20.978c0.714-1.599,1.438-3.417,1.367-5.102c-0.223-5.248-0.485-10.537-1.346-15.708
	c-2.26-13.567-2.74-26.921,3.128-39.813c0.179-0.092,0.36-0.185,0.539-0.279c0.193,1.269,0.709,2.582,0.531,3.794
	c-0.996,6.79-3.123,13.568-3.035,20.328c0.121,9.283,2.133,18.526,2.802,27.824c0.263,3.657,1.614,4.838,4.9,4.659L254.127,460.706z
	"/>
<path style="fill-rule:evenodd;clip-rule:evenodd;" d="M226.128,518.326c0.176,1.873,0.297,3.754,0.542,5.617
	c0.368,2.807,0.862,5.176-1.709,7.808c-2.137,2.187-2.777,5.915-3.847,9.041c-0.784,2.288-1.188,4.707-1.886,7.577
	c1.39-0.903,2.588-1.683,3.938-2.561c0.455,4.67-1.019,6.466-4.887,7.007c-1.167,0.164-2.153,1.392-3.297,1.989
	c-1.118,0.584-2.333,0.985-3.505,1.468c-0.358-1.166-0.839-2.311-1.037-3.502c-0.152-0.912,0.478-2.32,0.029-2.756
	c-3.171-3.088-1.272-5.665,0.594-8.853c1.122,2.396,2.06,4.4,3.577,7.641c1.322-2.851,2.08-4.486,2.838-6.122
	c-0.219-0.196-0.438-0.393-0.658-0.589c-0.96,0.641-1.92,1.282-3.034,2.026c-0.21-0.429-0.617-0.872-0.522-1.131
	c0.621-1.69,1.028-3.594,2.102-4.957c4.454-5.663,7.24-12.042,8.938-18.979c0.114-0.466,0.869-0.773,1.328-1.152
	C225.803,518.037,225.969,518.178,226.128,518.326z"/>
<path style="fill-rule:evenodd;clip-rule:evenodd;" d="M398.017,522.73c2.983,3.467,5.965,6.935,9.128,10.611
	c0.189-0.513,0.273-1.26,0.68-1.724c0.595-0.678,1.418-1.153,2.146-1.717c0.366,0.748,1.235,1.725,1.016,2.205
	c-1.067,2.341-2.427,4.548-3.742,6.909c0.385,1.241,1.113,3.162,1.487,5.151c0.075,0.397-1.725,1.562-1.776,1.508
	c-1.343-1.371-2.569-2.859-4.097-4.657c-6.88,0.254-8.251-0.804-6.973-6.462c1.471,1.146,2.792,2.176,4.886,3.807
	c-1.7-5.697-3.132-10.493-4.564-15.29C396.81,522.958,397.414,522.844,398.017,522.73z"/>
<path style="fill-rule:evenodd;clip-rule:evenodd;" d="M386.869,273.085c0.115-1.497,0.2-2.592,0.325-4.197
	c-2.913,1.401-5.408,2.765-8.035,3.785c-1.021,0.397-2.343,0.024-3.527,0.002c0.235-1.271,0.333-2.594,0.786-3.781
	c0.144-0.377,1.53-0.767,1.842-0.518c3.283,2.626,3.369-0.823,5.742-2.91c-2.478,0.456-3.652,0.671-5.277,0.971
	c0.264-2.974,5.519-5.756-0.226-8.158c2.309-2.793,4.123-1.91,5.779-0.023c1.301,1.483,2.434,3.115,3.641,4.681
	c0.403-0.367,0.806-0.733,1.208-1.101c-0.62-0.735-1.238-1.471-2.799-3.325c2.359,0.398,3.824,0.23,4.504,0.882
	c0.643,0.615,0.527,2.085,0.623,3.189c0.103,1.184-0.301,2.542,0.146,3.544C393.581,270.557,392.869,271.874,386.869,273.085z"/>
<path style="fill-rule:evenodd;clip-rule:evenodd;" d="M236.701,490.012c1.476-1.055,0.436-4.819,3.957-3.669
	c-0.378,1.741-0.396,3.673-1.195,5.193c-5.111,9.729-6.433,20.636-9.845,30.885c-0.125,0.377-0.496,0.672-1.014,1.342
	c-0.913-2.003-1.695-3.722-2.478-5.438c-0.157-0.147-0.323-0.288-0.495-0.426c1.02-6.168,2.06-12.32,5.897-17.556
	c0.407-0.556,0.543-1.434,0.526-2.155c-0.08-3.298-0.04-6.434,4.505-6.578C236.624,491.608,236.655,490.567,236.701,490.012z"/>
<path style="fill-rule:evenodd;clip-rule:evenodd;" d="M398.017,522.73c-0.603,0.113-1.207,0.228-1.811,0.342
	c-0.141-0.048-0.279-0.103-0.423-0.145c-3.404-0.981-4.444-3.626-4.57-6.771c-0.01-0.247,1.725-1.012,2.087-0.753
	C395.803,517.196,399.663,518.247,398.017,522.73z"/>
<path style="fill-rule:evenodd;clip-rule:evenodd;" d="M304.241,304.94c1.476-0.006,3.116-0.41,4.372,0.112
	c0.951,0.395,2.211,2.381,1.927,2.938c-0.594,1.155-2.025,2.117-3.314,2.553c-0.489,0.166-1.808-1.204-2.267-2.115
	c-0.517-1.026-0.489-2.325-0.698-3.505L304.241,304.94z"/>
<path style="fill-rule:evenodd;clip-rule:evenodd;" d="M304.26,304.923c-1.219,0.002-2.438,0.003-3.657,0.005l0.009,0.011
	c-0.251-0.705-0.761-1.433-0.699-2.109c0.112-1.227,0.3-2.616,0.984-3.549c0.342-0.466,2.325-0.468,2.733,0.018
	c0.747,0.891,1.02,2.278,1.207,3.501c0.102,0.668-0.378,1.424-0.597,2.14L304.26,304.923z"/>
<path style="fill-rule:evenodd;clip-rule:evenodd;" d="M300.603,304.928c-0.362,1.3-0.725,2.6-1.192,4.273
	c-0.742-0.293-1.333-0.542-1.933-0.761c-1.061-0.386-2.127-0.753-3.191-1.129c1.084-1.048,2.025-2.375,3.309-3.032
	c0.708-0.362,1.993,0.402,3.017,0.659C300.612,304.939,300.603,304.928,300.603,304.928z"/>
<path style="fill-rule:evenodd;clip-rule:evenodd;" d="M287.001,339.623c0.586,5.446-2.406,8.885-7.045,11.467
	c2.042-4.141,4.085-8.282,6.128-12.421C286.39,338.986,286.696,339.305,287.001,339.623z"/>
</svg>
