<?xml version="1.0" encoding="UTF-8" standalone="no"?>
<!-- Created with sK1/UniConvertor (http://sk1project.org/) -->
<svg
    xmlns:inkscape="http://www.inkscape.org/namespaces/inkscape"
    xmlns:rdf="http://www.w3.org/1999/02/22-rdf-syntax-ns#"
    xmlns="http://www.w3.org/2000/svg"
    xmlns:cc="http://creativecommons.org/ns#"
    xmlns:dc="http://purl.org/dc/elements/1.1/"
    xmlns:sodipodi="http://sodipodi.sourceforge.net/DTD/sodipodi-0.dtd"
    xmlns:svg="http://www.w3.org/2000/svg"
    xmlns:ns1="http://sozi.baierouge.fr"
    xmlns:xlink="http://www.w3.org/1999/xlink"
    id="svg3215"
    style="fill-rule:evenodd"
    sodipodi:docname="5.cdr"
    version="1.1"
    inkscape:version="0.48.1 "
    viewBox="0 0 299.465 1142.8206"
  >
  <sodipodi:namedview
      id="namedview3241"
      fit-margin-left="10"
      inkscape:zoom="0.031239234"
      borderopacity="1"
      inkscape:current-layer="svg3215"
      inkscape:cx="957.13746"
      inkscape:cy="3895.0936"
      inkscape:window-maximized="0"
      showgrid="false"
      fit-margin-right="10"
      bordercolor="#666666"
      inkscape:window-x="0"
      guidetolerance="10"
      objecttolerance="10"
      inkscape:window-y="0"
      fit-margin-bottom="10"
      inkscape:window-width="640"
      inkscape:pageopacity="0"
      inkscape:pageshadow="2"
      pagecolor="#ffffff"
      gridtolerance="10"
      inkscape:window-height="480"
      fit-margin-top="10"
  />
  <g
      id="g3217"
      transform="translate(468.07 -2394.2)"
    >
    <g
        id="g3219"
      >
      <path
          id="path3221"
          style="fill:#56c7ed"
          inkscape:connector-curvature="0"
          d="m-460.07 2937.3 258.19-24.8v566.93l-258.19 24.8v-566.93z"
      />
      <g
          id="g3223"
        >
        <path
            id="path3225"
            style="stroke:#000001;stroke-width:.099780;fill:none"
            inkscape:connector-curvature="0"
            d="m-437.83 2817.7c-0.24-0.2-0.476-0.4-0.705-0.62-4.066-3.8-5.854-9.73-5.012-15.17-4.945-5.87-5.699-15.21-0.539-21.28-0.748-4.11 0.067-8.52 2.232-12.1-2.473-7.79 0.983-17.38 9.212-20.37 1.449-4.68 5.064-8.68 9.583-10.65 2.362-7.37 9.981-12.97 17.953-11.57 3.155-2.41 7.185-3.71 11.15-3.58 5.293-5.66 14.603-7.47 21.213-2.77 3.247-0.56 6.66-0.18 9.686 1.08 7.023-3.46 16.488-1.79 20.963 5.1 3.029 0.73 5.871 2.28 8.102 4.43 2.116-0.19 4.28 0.03 6.34 0.61 3.959 1.13 7.246 3.54 9.308 6.74 0.373-0.59 0.79-1.14 1.251-1.68 3.519-4.08 9.103-6.13 14.406-5.67 2.231-2.15 5.072-3.7 8.101-4.43 4.474-6.89 13.94-8.56 20.964-5.1 3.025-1.26 6.439-1.64 9.685-1.08 6.61-4.7 15.919-2.89 21.213 2.77 3.965-0.13 7.994 1.17 11.15 3.58 7.972-1.4 15.592 4.2 17.953 11.57 4.519 1.97 8.133 5.97 9.583 10.65 8.229 2.99 11.685 12.58 9.212 20.37 2.168 3.58 2.982 8 2.228 12.12 5.147 6.08 4.418 15.42-0.494 21.31 0.932 5.85-1.27 12.16-5.75 15.93 0.102 1.9-0.17 3.83-0.833 5.7-1.793 5.06-6.223 8.98-11.304 10.48-1.913 4.16-5.572 7.5-9.86 9.04-0.445 1.45-1.116 2.83-2.011 4.11-3.073 4.4-8.4 6.99-13.705 7.08-2.457 2.91-5.926 4.98-9.647 5.78-0.417 0.89-0.927 1.74-1.528 2.55-3.206 4.3-8.613 6.74-13.922 6.67-2.406 2.68-5.694 4.58-9.208 5.36-2.41 5.28-7.823 9.04-13.622 9.68-3.289 4.7-9.052 7.63-14.749 7.32-2.126 2.31-4.82 3.99-7.625 5.62-6.498 3.78-8.13 3.46-11.352 10.06-3.223-6.6-4.853-6.28-11.351-10.06-2.84-1.65-5.521-3.44-7.595-5.64-5.793 0.43-11.702-2.51-15.048-7.3-5.794-0.64-11.203-4.4-13.613-9.68-3.514-0.78-6.801-2.68-9.208-5.35-2.113 0.03-4.244-0.34-6.248-1.06-4.173-1.52-7.456-4.46-9.206-8.17-3.721-0.8-7.19-2.87-9.646-5.77-2.111-0.04-4.227-0.46-6.2-1.25-4.659-1.85-8.135-5.49-9.517-9.95-4.289-1.54-7.949-4.88-9.862-9.04-2.015-0.6-3.931-1.57-5.62-2.85-4.404-3.33-6.845-8.35-6.508-13.52z"
        />
        <path
            id="path3227"
            style="stroke:#000001;stroke-width:.099780;fill:none"
            inkscape:connector-curvature="0"
            d="m-318.34 2527.2c11.614-13.8 30.267-23.59 45.433-32.04 14.939-8.32 35.757-19.54 43.886-34.76 4.548-8.51 4.785-17.48 2.464-26.66-8.753-36.67-70.032-43.01-91.783-9.73-17.826-31.26-82.477-27.1-91.784 9.73-2.32 9.18-2.084 18.15 2.465 26.66 8.129 15.22 28.946 26.44 43.885 34.76 15.167 8.45 33.819 18.24 45.434 32.04z"
        />
        <path
            id="path3229"
            style="stroke:#000001;stroke-width:.099780;fill:none"
            inkscape:connector-curvature="0"
            d="m-327.09 2685.6c-2.369-2.37-4.999-4.63-7.828-6.8 1.668 3.01 3.523 6.06 3.606 9 1.114-1.2 2.616-1.92 4.222-2.2zm-6.096 7.02c-0.077 0.08-0.156 0.17-0.239 0.25-5.159 5.3-13.708-0.24-13.506-6.1-5.037 2.99-14.001-1.85-11.837-8.92 0.055-0.17 0.114-0.34 0.176-0.51-4.755 3.03-11.842-1.01-12.296-6.12-4.63 3.58-14.116-0.12-12.836-7.39 0.067-0.39 0.154-0.74 0.258-1.08-4.846 3.05-11.929-1.24-12.233-6.4-4.732 3.44-14.101-0.54-12.606-7.77 0.16-0.78 0.399-1.45 0.701-2.05-5.821 3.09-12.505-3.46-11.341-8.91-5.477 2.06-13.447-4.27-10.083-10.84 0.576-1.12 1.274-1.95 2.063-2.56-0.366 0.06-0.754 0.1-1.163 0.11-7.379 0.26-9.72-9.78-5.531-13.92-5.697-1.35-8.821-11.17-2.378-14.82 0.777-0.44 1.524-0.73 2.245-0.88-4.464-3.62-2.637-11.74 2.18-13.66-4.756-3.4-3.932-13.55 3.4-14.41 1.468-0.17 2.697 0.02 3.747 0.47-3.248-5.96 3.579-12.67 9.066-11.35-1.918-5.53 4.61-13.33 11.095-9.8 0.608 0.33 1.127 0.69 1.569 1.09 1.633-4.99 8.945-6.93 12.75-3.85 0.645-5.82 9.897-10.06 14.235-4.09 0.31 0.43 0.562 0.85 0.767 1.27 3.627-2.91 10.039-1.92 12.283 1.91 2.661-5.21 12.82-5.91 14.764 1.22 0.126 0.46 0.21 0.91 0.258 1.33 4.346-1.02 9.582 2.14 10.263 6.36 4.364-3.9 14.094-0.88 13.336 6.47-0.174 1.69-0.741 2.97-1.584 3.95 2.974-0.01 5.984 1.37 7.322 3.81 1.339-2.44 4.349-3.82 7.323-3.81-0.843-0.99-1.41-2.26-1.584-3.95-0.758-7.35 8.972-10.37 13.336-6.47 0.682-4.22 5.917-7.38 10.263-6.36 0.048-0.42 0.132-0.87 0.258-1.33 1.944-7.13 12.103-6.43 14.764-1.22 2.244-3.83 8.656-4.82 12.283-1.91 0.205-0.42 0.458-0.84 0.767-1.27 4.338-5.97 13.59-1.73 14.235 4.09 3.805-3.08 11.118-1.14 12.75 3.85 0.443-0.4 0.961-0.76 1.569-1.09 6.485-3.53 13.013 4.27 11.095 9.8 5.487-1.32 12.314 5.39 9.066 11.35 1.05-0.45 2.279-0.64 3.747-0.47 7.332 0.86 8.156 11.01 3.4 14.41 4.817 1.92 6.644 10.04 2.179 13.66 0.721 0.15 1.469 0.44 2.246 0.89 6.444 3.68 3.319 13.58-2.378 14.93 4.189 4.17 1.848 14.29-5.53 14.04-0.285-0.01-0.559-0.04-0.823-0.07 0.65 0.58 1.23 1.32 1.722 2.28 3.364 6.57-4.606 12.9-10.082 10.84 1.163 5.45-5.521 12-11.342 8.91 0.302 0.6 0.541 1.27 0.701 2.05 1.496 7.23-7.873 11.21-12.606 7.77-0.304 5.16-7.387 9.45-12.232 6.4 0.103 0.34 0.191 0.69 0.257 1.08 1.28 7.27-8.206 10.97-12.836 7.39-0.453 5.11-7.541 9.15-12.296 6.12 0.062 0.17 0.121 0.34 0.176 0.51 2.164 7.07-6.8 11.91-11.836 8.92 0.201 5.84-8.313 11.37-13.475 6.14-0.035 7.54-12.135 8.95-14.984 14.79-2.883-5.91-15.25-7.29-14.978-15.08zm27.828-5.08c0.18-2.86 1.976-5.82 3.595-8.74-2.814 2.16-5.432 4.4-7.791 6.76 1.571 0.23 3.058 0.88 4.196 1.98zm24.334-13.8c-1.363-3.37 0.457-6.56 2.688-9.7-4.899 2.72-9.694 5.48-14.21 8.36 4.036 0.08 8.486-0.41 11.522 1.34zm24.711-14.89c-0.959-2.73 0.144-5.4 1.771-8.04-3.473 2.05-7.041 4.04-10.634 6.02 3.178 0.37 6.471 0.64 8.863 2.02zm24.118-15.3c-1.432-2.61-0.732-5.73 0.311-8.92-2.727 2.56-5.733 4.99-8.938 7.32 3.058 0.27 6.223 0.43 8.627 1.6zm19.186-20.66c-2.739-2.45-3.433-7.16-4.597-11.28-1.039 4.46-2.845 8.55-5.26 12.34 3.335-0.53 6.875-1.49 9.857-1.06zm4.168-26.62c-4.541-0.89-7.29-6.67-10.721-10.32 0.49 1.37 0.926 2.78 1.303 4.24 1.21 4.69 1.734 9.06 1.669 13.14 2.602-2.09 5.052-5.16 7.749-7.06zm-7-25.79c-4.667 1.84-10.906-2.13-16.071-2.6 4.252 3.68 7.835 8.2 10.47 13.61 2.291-2.95 3.467-7.67 5.601-11.01zm-20.224-15.76c-3.244 2.69-9.032 2.41-13.505 3.53 5.482 1.73 10.628 4.25 15.152 7.62 0.251-3.36-1.19-7.43-1.647-11.15zm-23.924-5.35c-1.54 2.65-4.877 4.31-8.032 6.04 4.501 0.05 8.983 0.54 13.32 1.48-1.29-2.51-3.551-4.99-5.288-7.52zm-23.735 3.75c-0.325 1.53-1.149 2.98-2.183 4.41 2.278-0.58 4.598-1.03 6.943-1.38-1.527-1.03-3.211-1.99-4.76-3.03zm-20.857 11.68c0.12 0.18 0.233 0.37 0.338 0.56 0.193-0.12 0.391-0.24 0.586-0.37-0.31-0.06-0.618-0.13-0.924-0.19zm-39.553 107.6c-4.517-2.88-9.312-5.64-14.212-8.36 2.232 3.14 4.052 6.33 2.689 9.7 3.036-1.75 7.486-1.26 11.523-1.34zm-27.37-15.57c-3.594-1.98-7.162-3.97-10.636-6.02 1.627 2.64 2.731 5.31 1.772 8.04 2.393-1.38 5.686-1.65 8.864-2.02zm-24.36-14.7c-3.206-2.33-6.212-4.76-8.941-7.33 1.044 3.19 1.745 6.32 0.312 8.93 2.404-1.16 5.57-1.33 8.629-1.6zm-17.956-18c-2.428-3.81-4.242-7.93-5.278-12.41-1.199 4.23-1.909 9.08-4.909 11.41 3.05-0.56 6.729 0.45 10.187 1zm-6.28-20.69c-0.059-4.06 0.468-8.41 1.671-13.07 0.377-1.46 0.813-2.87 1.303-4.24-3.427 3.65-6.174 9.42-10.706 10.32 2.69 1.88 5.135 4.92 7.732 6.99zm4.854-21.77c2.635-5.41 6.218-9.93 10.47-13.61-5.165 0.47-11.404 4.44-16.071 2.6 2.134 3.34 3.311 8.06 5.601 11.01zm12.976-15.62c4.524-3.37 9.67-5.89 15.152-7.62-4.473-1.12-10.261-0.84-13.505-3.53-0.457 3.72-1.897 7.79-1.647 11.15zm20.283-8.98c4.337-0.94 8.82-1.43 13.321-1.48-3.156-1.73-6.493-3.39-8.033-6.04-1.737 2.53-3.998 5.01-5.288 7.52zm24.263-0.74c2.345 0.35 4.666 0.8 6.943 1.38-1.034-1.43-1.858-2.88-2.183-4.41-1.549 1.04-3.233 2-4.76 3.03zm24.693 8.84c0.196 0.13 0.394 0.25 0.587 0.37 0.104-0.19 0.218-0.38 0.338-0.56-0.306 0.06-0.614 0.13-0.925 0.19z"
        />
      </g
      >
      <g
          id="g3231"
        >
        <path
            id="path3233"
            style="fill:#9fdcf5"
            inkscape:connector-curvature="0"
            d="m-460.07 2937.3 283.46 24.8v566.93l-283.46-24.8v-566.93z"
        />
        <path
            id="path3235"
            style="fill:#ffec00"
            inkscape:connector-curvature="0"
            d="m-430.2 3165.7c-0.241-0.22-0.476-0.45-0.705-0.68-4.067-4.16-5.855-10.24-5.013-15.62-4.944-6.3-5.698-15.7-0.538-21.32-0.749-4.18 0.067-8.52 2.231-11.91-2.473-8 0.983-17.28 9.212-19.56 1.45-4.55 5.064-8.24 9.584-9.81 2.361-7.16 9.981-12.1 17.952-10 3.156-2.14 7.185-3.08 11.15-2.6 5.294-5.2 14.603-6.19 21.213-0.92 3.247-0.27 6.66 0.41 9.686 1.93 7.023-2.85 16.489-0.35 20.963 6.94 3.03 0.99 5.871 2.79 8.103 5.13 2.116 0 4.279 0.4 6.339 1.17 3.959 1.47 7.247 4.17 9.308 7.55 0.374-0.55 0.791-1.07 1.251-1.57 3.52-3.77 9.104-5.34 14.406-4.41 2.232-1.95 5.073-3.25 8.101-3.72 4.474-6.5 13.941-7.34 20.964-3.26 3.026-1 6.439-1.08 9.685-0.24 6.61-4.12 15.92-1.5 21.213 4.63 3.965 0.22 7.995 1.86 11.15 4.55 7.972-0.7 15.592 5.57 17.954 13.15 4.519 2.36 8.133 6.68 9.583 11.49 8.228 3.71 11.684 13.59 9.212 21.17 2.167 3.77 2.982 8.26 2.228 12.31 5.147 6.53 4.417 15.81-0.494 21.27 0.932 5.93-1.27 12.05-5.75 15.42 0.101 1.92-0.171 3.82-0.833 5.63-1.793 4.9-6.224 8.44-11.305 9.49-1.912 3.99-5.571 7.02-9.859 8.18-0.445 1.41-1.116 2.74-2.011 3.94-3.073 4.12-8.401 6.25-13.706 5.88-2.457 2.7-5.926 4.46-9.647 4.94-0.416 0.85-0.926 1.65-1.528 2.41-3.205 4.02-8.612 5.99-13.922 5.45-2.405 2.47-5.693 4.08-9.208 4.56-2.41 5.07-7.823 8.36-13.621 8.49-3.289 4.41-9.052 6.83-14.75 6.02-2.126 2.13-4.819 3.58-7.625 4.96-6.497 3.2-8.13 2.74-11.352 9.06-3.222-6.88-4.853-6.7-11.351-11.05-2.84-1.9-5.521-3.92-7.594-6.3-5.794-0.08-11.702-3.54-15.048-8.62-5.795-1.15-11.204-5.38-13.614-10.87-3.514-1.09-6.801-3.27-9.207-6.16-2.113-0.15-4.244-0.7-6.248-1.61-4.173-1.88-7.456-5.1-9.207-8.96-3.72-1.14-7.189-3.5-9.646-6.63-2.111-0.21-4.227-0.83-6.2-1.78-4.659-2.26-8.134-6.21-9.517-10.79-4.289-1.91-7.949-5.58-9.861-9.9-2.015-0.77-3.931-1.92-5.621-3.34-4.404-3.72-6.845-8.96-6.507-14.09z"
        />
        <path
            id="path3237"
            style="fill:#e21c2a"
            inkscape:connector-curvature="0"
            d="m-319.46 3233.4c-2.37-2.58-5-5.07-7.829-7.48 1.669 3.15 3.524 6.36 3.607 9.31 1.114-1.1 2.616-1.69 4.222-1.83zm-6.096 6.49c-0.077 0.08-0.156 0.15-0.239 0.23-5.159 4.84-13.708-1.45-13.507-7.28-5.036 2.55-14-3.08-11.836-9.95 0.054-0.18 0.114-0.34 0.176-0.5-4.755 2.61-11.843-2.05-12.296-7.2-4.63 3.18-14.116-1.35-12.837-8.52 0.067-0.37 0.155-0.72 0.258-1.05-4.845 2.62-11.929-2.28-12.232-7.47-4.733 3.03-14.102-1.77-12.606-8.87 0.16-0.77 0.399-1.42 0.701-1.99-5.821 2.58-12.506-4.56-11.342-9.9-5.476 1.58-13.446-5.45-10.082-11.73 0.576-1.07 1.273-1.84 2.063-2.38-0.367 0.03-0.754 0.04-1.164 0.02-7.378-0.39-9.719-10.64-5.53-14.41-5.698-1.85-8.822-11.94-2.379-15.03 0.778-0.38 1.525-0.59 2.245-0.68-4.463-4.02-2.636-11.97 2.181-13.47-4.756-3.82-3.932-13.89 3.4-14.11 1.468-0.05 2.697 0.25 3.747 0.79-3.249-6.24 3.579-12.35 9.066-10.55-1.918-5.7 4.61-12.93 11.095-8.84 0.608 0.39 1.126 0.8 1.568 1.23 1.633-4.84 8.945-6.15 12.751-2.73 0.645-5.76 9.897-9.2 14.235-2.84 0.309 0.45 0.562 0.9 0.767 1.33 3.627-2.59 10.039-1.04 12.283 2.99 2.661-4.98 12.819-4.79 14.764 2.51 0.126 0.47 0.21 0.92 0.258 1.36 4.346-0.65 9.581 2.97 10.262 7.25 4.365-3.52 14.095 0.35 13.337 7.63-0.174 1.68-0.742 2.91-1.584 3.82 2.974 0.25 5.984 1.89 7.322 4.45 1.339-2.33 4.348-3.44 7.322-3.17-0.842-1.06-1.409-2.39-1.584-4.09-0.758-7.42 8.973-9.59 13.337-5.3 0.681-4.17 5.917-6.86 10.263-5.46 0.048-0.42 0.131-0.86 0.258-1.31 1.944-6.96 12.103-5.37 14.764 0.07 2.243-3.64 8.656-4.07 12.283-0.84 0.205-0.4 0.457-0.8 0.767-1.2 4.338-5.59 13.59-0.54 14.235 5.33 3.805-2.74 11.117-0.16 12.75 4.97 0.442-0.36 0.96-0.68 1.569-0.95 6.484-2.97 13.012 5.41 11.095 10.77 5.487-0.84 12.314 6.47 9.066 12.14 1.05-0.36 2.279-0.44 3.747-0.14 7.332 1.51 8.156 11.72 3.4 14.71 4.817 2.34 6.644 10.62 2.179 13.85 0.721 0.22 1.469 0.57 2.246 1.08 6.443 4.25 3.319 13.87-2.378 14.73 4.189 4.54 1.847 14.45-5.531 13.55-0.285-0.04-0.558-0.08-0.822-0.14 0.65 0.63 1.23 1.43 1.721 2.43 3.365 6.87-4.605 12.5-10.082 9.96 1.164 5.55-5.52 11.52-11.341 7.92 0.302 0.62 0.541 1.32 0.701 2.11 1.495 7.36-7.874 10.52-12.606 6.67-0.304 5.13-7.387 8.8-12.233 5.33 0.103 0.34 0.191 0.71 0.258 1.09 1.28 7.39-8.207 10.26-12.836 6.28-0.454 5.06-7.542 8.49-12.296 5.04 0.062 0.17 0.121 0.35 0.176 0.53 2.163 7.26-6.801 11.31-11.837 7.88 0.202 5.86-8.312 10.64-13.475 4.96-0.034 7.53-12.135 7.89-14.983 13.47-2.883-6.16-15.251-8.61-14.978-16.38zm27.828-2.65c0.18-2.84 1.975-5.64 3.595-8.42-2.814 1.91-5.432 3.93-7.792 6.08 1.571 0.37 3.058 1.14 4.197 2.34zm24.334-11.66c-1.363-3.5 0.457-6.53 2.688-9.47-4.899 2.29-9.694 4.63-14.21 7.11 4.036 0.43 8.486 0.33 11.522 2.36zm24.711-12.73c-0.959-2.82 0.144-5.39 1.771-7.89-3.473 1.74-7.041 3.42-10.634 5.09 3.178 0.65 6.471 1.21 8.863 2.8zm24.118-13.2c-1.433-2.73-0.732-5.79 0.311-8.89-2.728 2.32-5.733 4.49-8.938 6.54 3.058 0.53 6.223 0.98 8.627 2.35zm19.186-18.97c-2.739-2.69-3.434-7.47-4.598-11.69-1.038 4.37-2.844 8.3-5.259 11.89 3.335-0.25 6.875-0.9 9.857-0.2zm4.168-26.26c-4.541-1.29-7.29-7.31-10.721-11.26 0.49 1.41 0.926 2.86 1.303 4.35 1.21 4.8 1.734 9.21 1.668 13.29 2.603-1.86 5.053-4.72 7.75-6.38zm-7-26.41c-4.667 1.44-10.906-3.07-16.071-4 4.251 4.05 7.834 8.88 10.47 14.53 2.29-2.75 3.467-7.37 5.601-10.53zm-20.224-17.52c-3.244 2.4-9.032 1.61-13.505 2.35 5.482 2.2 10.628 5.17 15.152 8.94 0.25-3.34-1.19-7.54-1.647-11.29zm-23.925-7.44c-1.539 2.51-4.876 3.88-8.032 5.33 4.501 0.44 8.984 1.32 13.321 2.65-1.291-2.63-3.551-5.3-5.289-7.98zm-23.734 1.67c-0.325 1.5-1.149 2.88-2.183 4.21 2.277-0.37 4.598-0.63 6.943-0.77-1.527-1.16-3.212-2.27-4.76-3.44zm-20.857 9.85c0.12 0.19 0.233 0.39 0.337 0.59 0.193-0.1 0.391-0.21 0.587-0.31-0.311-0.09-0.619-0.19-0.924-0.28zm-39.554 104.14c-4.516-3.27-9.311-6.45-14.211-9.6 2.232 3.33 4.052 6.68 2.689 9.94 3.036-1.49 7.486-0.62 11.522-0.34zm-27.369-17.97c-3.594-2.29-7.163-4.6-10.636-6.94 1.627 2.78 2.731 5.55 1.772 8.19 2.392-1.17 5.686-1.15 8.864-1.25zm-24.353-17.01c-3.207-2.61-6.213-5.3-8.941-8.1 1.044 3.28 1.744 6.47 0.312 8.95 2.404-0.95 5.569-0.85 8.629-0.85zm-17.956-19.56c-2.428-4.03-4.242-8.3-5.278-12.88-1.199 4.13-1.909 8.91-4.909 10.98 3.049-0.29 6.728 1.04 10.187 1.9zm-6.281-21.24c-0.058-4.07 0.469-8.37 1.672-12.93 0.377-1.43 0.813-2.8 1.302-4.12-3.427 3.35-6.174 8.88-10.706 9.38 2.691 2.11 5.135 5.37 7.732 7.67zm4.854-21.35c2.636-5.18 6.219-9.39 10.47-12.69-5.164 0.02-11.404 3.44-16.071 1.19 2.135 3.52 3.311 8.35 5.601 11.5zm12.977-14.48c4.524-2.98 9.67-5.05 15.152-6.29-4.473-1.52-10.261-1.74-13.506-4.72-0.457 3.68-1.897 7.62-1.646 11.01zm20.282-7.21c4.338-0.56 8.82-0.66 13.321-0.31-3.155-2.01-6.492-3.96-8.032-6.74-1.738 2.38-3.998 4.65-5.289 7.05zm24.264 1.38c2.345 0.55 4.665 1.21 6.943 1.99-1.034-1.52-1.858-3.04-2.183-4.6-1.549 0.9-3.233 1.72-4.76 2.61zm24.693 11.01c0.195 0.14 0.393 0.28 0.587 0.42 0.104-0.19 0.218-0.37 0.338-0.54-0.306 0.04-0.614 0.08-0.925 0.12z"
        />
        <path
            id="path3239"
            style="fill:#ffffff"
            inkscape:connector-curvature="0"
            d="m-310.71 3233.8c11.614-12.78 30.266-20.94 45.433-28.06 14.939-7.02 35.757-16.41 43.885-30.92 4.549-8.11 4.786-17.07 2.465-26.45-8.753-37.43-70.032-49.13-91.783-17.76-17.826-32.82-82.477-34.31-91.784 1.7-2.321 8.98-2.084 17.97 2.465 26.88 8.128 15.93 28.946 28.97 43.885 38.6 15.167 9.78 33.819 21.2 45.434 36.01z"
        />
      </g
      >
    </g
    >
  </g
  >
  <metadata
    >
    <rdf:RDF
      >
      <cc:Work
        >
        <dc:format
          >image/svg+xml</dc:format
        >
        <dc:type
            rdf:resource="http://purl.org/dc/dcmitype/StillImage"
        />
        <cc:license
            rdf:resource="http://creativecommons.org/licenses/publicdomain/"
        />
        <dc:publisher
          >
          <cc:Agent
              rdf:about="http://openclipart.org/"
            >
            <dc:title
              >Openclipart</dc:title
            >
          </cc:Agent
          >
        </dc:publisher
        >
        <dc:title
          >wd5</dc:title
        >
        <dc:date
          >2011-09-02T01:27:38</dc:date
        >
        <dc:description
          >layouts for cutting paper</dc:description
        >
        <dc:source
          >https://openclipart.org/detail/158875/wd5-by-wardogs</dc:source
        >
        <dc:creator
          >
          <cc:Agent
            >
            <dc:title
              >wardogs</dc:title
            >
          </cc:Agent
          >
        </dc:creator
        >
        <dc:subject
          >
          <rdf:Bag
            >
            <rdf:li
              >cards</rdf:li
            >
            <rdf:li
              >craft-robo</rdf:li
            >
            <rdf:li
              >cutting</rdf:li
            >
            <rdf:li
              >invitations</rdf:li
            >
            <rdf:li
              >layout</rdf:li
            >
            <rdf:li
              >manufacturing</rdf:li
            >
            <rdf:li
              >paper</rdf:li
            >
            <rdf:li
              >silhouette</rdf:li
            >
          </rdf:Bag
          >
        </dc:subject
        >
      </cc:Work
      >
      <cc:License
          rdf:about="http://creativecommons.org/licenses/publicdomain/"
        >
        <cc:permits
            rdf:resource="http://creativecommons.org/ns#Reproduction"
        />
        <cc:permits
            rdf:resource="http://creativecommons.org/ns#Distribution"
        />
        <cc:permits
            rdf:resource="http://creativecommons.org/ns#DerivativeWorks"
        />
      </cc:License
      >
    </rdf:RDF
    >
  </metadata
  >
</svg
>
