<?xml version="1.0" encoding="UTF-8" standalone="no"?>
<!-- Created with sK1/UniConvertor (http://sk1project.org/) -->
<svg
    xmlns:inkscape="http://www.inkscape.org/namespaces/inkscape"
    xmlns:rdf="http://www.w3.org/1999/02/22-rdf-syntax-ns#"
    xmlns="http://www.w3.org/2000/svg"
    xmlns:cc="http://creativecommons.org/ns#"
    xmlns:dc="http://purl.org/dc/elements/1.1/"
    xmlns:sodipodi="http://sodipodi.sourceforge.net/DTD/sodipodi-0.dtd"
    xmlns:svg="http://www.w3.org/2000/svg"
    xmlns:ns1="http://sozi.baierouge.fr"
    xmlns:xlink="http://www.w3.org/1999/xlink"
    id="svg3521"
    style="fill-rule:evenodd"
    sodipodi:docname="9.cdr"
    version="1.1"
    inkscape:version="0.48.1 "
    viewBox="0 0 299.46 1233.8999"
  >
  <sodipodi:namedview
      id="namedview3535"
      fit-margin-left="10"
      inkscape:zoom="0.24991387"
      borderopacity="1"
      inkscape:current-layer="svg3521"
      inkscape:cx="3801.2849"
      inkscape:cy="3809.4061"
      inkscape:window-maximized="0"
      showgrid="false"
      fit-margin-right="10"
      bordercolor="#666666"
      inkscape:window-x="0"
      guidetolerance="10"
      objecttolerance="10"
      inkscape:window-y="0"
      fit-margin-bottom="10"
      inkscape:window-width="640"
      inkscape:pageopacity="0"
      inkscape:pageshadow="2"
      pagecolor="#ffffff"
      gridtolerance="10"
      inkscape:window-height="480"
      fit-margin-top="10"
  />
  <g
      id="g3523"
      transform="translate(2743.4 -2234.6)"
    >
    <g
        id="g3525"
      >
      <path
          id="path3527"
          style="fill:#00b3e7"
          inkscape:connector-curvature="0"
          d="m-2473.8 2843.9-261.57 24.8v566.93l261.57-24.8v-566.93z"
      />
      <path
          id="path3529"
          style="fill:#9fdcf5"
          inkscape:connector-curvature="0"
          d="m-2735.4 2868.7 283.46 24.8v566.93l-283.46-24.8v-566.93z"
      />
      <path
          id="path3531"
          style="fill:#ffffff"
          inkscape:connector-curvature="0"
          d="m-2728.3 2876.4 269.29 23.56v552.75l-269.29-23.56v-552.75zm144.51 497.05c-1.29 2.11-2.3 4.47-3.03 6.98l-126.67-11.08v-7.25l129.7 11.35zm-4.02 11.36c-0.69 4.34-0.66 8.95 0.09 13.39l-125.77-11v-13.39l125.68 11zm0.98 17.37c0.73 2.64 1.72 5.18 2.97 7.51l-129.63-11.34v-7.25l126.66 11.08zm6.13 12.25c4.84 5.9 11.95 9.42 21.21 8.08 5.76-0.95 10.25-2.76 14.08-4.99l71.59 6.26v14.24l-239.67-20.97v-14.24l132.79 11.62zm41.05-0.87c2.74-2.15 5.24-4.42 7.83-6.57l58 5.08v7.25l-65.83-5.76zm12.45-10.06c7.25-4.9 16.47-7.95 33.59-4.71-2.7-1.93-5.21-4.09-7.58-6.4l27.37 2.39v13.39l-53.38-4.67zm21.43-15.98c-2.17-2.49-4.23-5.11-6.23-7.79l38.18 3.34v7.25l-31.95-2.8zm-17.77-24.42c-1.1-1.61-2.21-3.19-3.34-4.75-0.69-0.97-1.42-1.97-2.16-2.98l55.22 4.83v7.25l-49.72-4.35zm-14.16-18.53c-6.5-7.24-14.14-13.6-22.68-15.37l86.56 7.58v13.38l-63.88-5.59zm-28.33-15.86c-8.32 0.27-14.08 5.18-16.96 11.9l-57.99-5.07c2.91-4.33 5.5-8.83 7.95-12.69l67 5.86zm-19.08 21.75c-0.08 2.41 0.13 4.88 0.64 7.31l-72.79-6.37c3.27-1.48 6.19-3.75 8.86-6.47l63.29 5.53zm13.17 19.3c-13.35-11.71-9.23-37.86 9.66-35.34 22.02 2.93 40.14 46.38 55.07 57.04-31.77-6-39.87 29.44-58.74 25.44-19.05-4.03-20.32-40.63-5.99-47.14zm-28.12-384.79c-12.17 10.47-15.7 37.78 0 50.16 27.37 21.59 44.57-45.25 74.87-57.48-40.08-2.16-39.27-21.84-69.04-31.2-23.99-7.55-22.1 29.87-5.83 38.52zm-9.89-0.87c-3.23-3.87-5.52-8.63-6.84-13.42l-96.7-8.46v12.82l103.54 9.06zm-7.81-17.97c-0.38-2.49-0.51-4.93-0.38-7.28l-95.35-8.34v7.25l95.73 8.37zm1.96-17.12c3.62-7.7 11.35-12 22.85-8.38 6.27 1.97 12.12 4.65 17.77 8.27 2.06 1.32 4.03 2.73 5.96 4.19l95.4 8.34v-13.38l-239.67-20.97v13.39l97.69 8.54zm62.4 15.5c1.51 0.85 3.08 1.63 4.74 2.33 15.74 6.65 35.31 6.65 51.47 6.24-2.53 1.02-4.94 2-7.26 2.96l30.63 2.68v-7.25l-79.58-6.96zm40.39 15.25c-7 3.22-13.13 6.63-18.91 11.17l58.1 5.08v-12.82l-39.19-3.43zm-33.45 26.08c-0.73 0.94-1.46 1.92-2.2 2.94-0.93 1.28-1.85 2.57-2.77 3.87l77.61 6.79v-7.25l-72.64-6.35zm-7.95 11.01c-2.91 4.09-5.86 8.18-9 12.04l89.59 7.84v-12.83l-80.59-7.05zm-25.86 26.74c-2.54 1.14-5.25 1.84-8.15 1.9-4.35 0.08-8.47-1.32-12.23-3.68l-112.84-9.88v18.41l21.79 1.9c3.31-6.47 9.56-9.95 16.85-10.92 11.61-1.54 20.03 5.54 26.75 14.74l174.28 15.25v-18.41l-106.45-9.31zm-33.9-19.14c-1.45-4.16-2.19-8.59-2.29-13.03l-97.03-8.49v12.83l99.32 8.69zm-2.17-17.48c0.18-2.42 0.55-4.82 1.1-7.15l-98.25-8.6v7.25l97.15 8.5zm-62.15 84.64c-1.4 2.62-2.29 5.46-2.37 8.43l-32.63-2.85v-13.39l28.79 2.52c1.86 2.04 3.94 3.84 6.21 5.29zm8.29 24.98c1.94 0.99 4.01 1.71 6.09 2.14 4 0.82 8.09 0.62 11.82-0.57l178.47 15.61v7.25l-239.67-20.97v-7.25l43.29 3.79zm59.73-10.39c-6.09-4.44-10.84-8.48-15.74-14.76l152.39 13.33v13.38l-136.65-11.95zm-19.19-19.53c-1.54-2.27-3.12-4.8-4.79-7.67l160.63 14.06v7.24l-155.84-13.63zm-10.68-18.22c-1.43-2.54-2.94-5.13-4.54-7.65l171.06 14.97v7.25l-166.52-14.57zm-53-11.89c-0.6 2.32-0.84 4.74-0.77 7.19l-19.38-1.7v-7.25l20.15 1.76zm1.24 17.4c0.53 1.47 1.15 2.91 1.86 4.29 0.57 1.13 1.2 2.22 1.88 3.29l-25.13-2.2v-7.25l21.39 1.87zm23.99 14.98c-18.67-2.17-30.53-37.89-5.43-41.22 25.04-3.31 30.87 47.52 56.33 59.26-12.83-5.69-27.75-0.93-33.15 2.9-12.69 8.99-35.39-4.37-17.75-20.94zm69.22 120.77c-12.17-12.59-15.7-40.53 0-50.16 27.36-16.8 44.57 53.05 74.87 70.58-40.08-4.85-39.27 14.97-69.04 19.13-23.99 3.34-22.1-33.74-5.83-39.55zm-10-0.75c-3.33 3.45-5.64 8.03-6.92 12.77l-97.68-8.54v-13.39l104.6 9.16zm-7.72 16.61c-0.37 2.42-0.49 4.85-0.35 7.22l-96.53-8.45v-7.25l96.88 8.48zm0.22 11.73c0.55 2.67 1.43 5.21 2.66 7.48l-99.76-8.73v-7.25l97.1 8.5zm45.57 11.24c3.12-1.67 6.09-3.54 9.15-5.38 0.52-0.32 1.05-0.63 1.57-0.93l86.28 7.54v7.25l-97-8.48zm18.34-10.11c1.59-0.63 3.23-1.16 4.99-1.6 15.74-3.89 35.31-0.47 51.47 2.77-2.44-1.41-4.78-2.77-7.03-4.1l29.23 2.56v7.25l-78.66-6.88zm41.89-7.49c-7.48-4.68-13.95-9.32-20.02-15.14l56.79 4.97v13.39l-36.77-3.22zm-34.2-31.99c-0.9-1.3-1.8-2.65-2.7-4.05-0.78-1.21-1.55-2.42-2.32-3.64l75.99 6.65v7.25l-70.97-6.21zm-8-12.41c-3.03-4.8-6.09-9.61-9.36-14.21l88.33 7.73v13.39l-78.97-6.91zm-25.12-31.2c-2.87-1.98-5.99-3.46-9.34-4.11-4.81-0.94-9.34-0.01-13.41 2.12l-112.83-9.88v-7.25l239.67 20.97v7.25l-104.09-9.1zm-35.13 12.54c-1.5 4.07-2.22 8.57-2.26 13.19l-98.19-8.59v-13.39l100.45 8.79zm-2.07 17.66c0.21 2.47 0.62 4.93 1.2 7.36l-99.58-8.71v-7.25l98.38 8.6zm-62.71 111.64c-1.25-4.26-1.15-8.66 1.24-12.72l-36.91-3.23v12.83l35.67 3.12zm41.92-9.16c1.07 0.45 2.11 0.84 3.05 1.16 10.52 3.51 25.06 3.45 36.29 3.2-7.71 4.09-13.42 6.82-18.45 10.29l141.19 12.35v-12.82l-162.08-14.18zm15.79 18.67c-2.1 1.88-4.15 4.06-6.27 6.7l152.56 13.35v-7.25l-146.29-12.8zm-58.67 42.83c-3.52-1.97-6.56-4.64-8.84-8.03l-25.87-2.26v7.25l34.71 3.04zm-12.81-18.41c-0.65-4.52-0.12-9.09 1.27-13.27l-23.17-2.03v13.38l21.9 1.92zm6.49-22.86c2.2-2.7 4.87-4.97 7.9-6.56l-36.29-3.17v7.25l28.39 2.48zm19.25-2.55c-18.68-1.1-30.54 32.55-5.43 40.27 25.04 7.7 30.87-42.12 56.32-49.4-12.82 3.44-27.75-3.93-33.14-8.7-12.69-11.21-35.39-1.83-17.75 17.83zm-47.64-40.64 239.67 20.97v-12.83l-239.67-20.97v12.83zm0-133.3 239.67 20.97v-7.25l-239.67-20.97v7.25zm0-208.58 239.67 20.97v-13.39l-239.67-20.97v13.39zm0-17.85 239.67 20.97v-14.24l-239.67-20.97v14.24z"
      />
      <path
          id="path3533"
          style="stroke:#000001;stroke-width:.10006;fill:#ffffff"
          inkscape:connector-curvature="0"
          d="m-2730.2 2242.6h269.29v552.76h-269.29v-552.76zm144.51 484.4c-1.29 2.24-2.29 4.68-3.03 7.25h-126.67v-7.25h129.7zm-4.01 11.72c-0.7 4.41-0.66 9 0.09 13.38h-125.78v-13.38h125.69zm0.98 17.29c0.72 2.58 1.71 5.02 2.97 7.25h-129.64v-7.25h126.67zm6.12 11.71c4.84 5.48 11.95 8.38 21.22 6.23 5.76-1.46 10.25-3.67 14.07-6.23h71.59v14.24h-239.67v-14.24h132.79zm41.06-4.46c2.74-2.39 5.23-4.88 7.83-7.25h57.99v7.25h-65.82zm12.44-11.16c7.25-5.53 16.47-9.38 33.6-7.64-2.7-1.69-5.22-3.63-7.59-5.74h27.37v13.38h-53.38zm21.44-17.85c-2.18-2.3-4.24-4.73-6.23-7.25h38.17v7.25h-31.94zm-17.77-22.86c-1.11-1.51-2.22-3-3.34-4.46-0.7-0.91-1.42-1.84-2.17-2.79h55.22v7.25h-49.71zm-14.17-17.29c-6.49-6.68-14.14-12.37-22.67-13.38h86.55v13.38h-63.88zm-28.32-13.38c-8.32 0.99-14.08 6.4-16.97 13.38h-57.98c2.91-4.59 5.5-9.31 7.94-13.38h67.01zm-19.09 23.42c-0.07 2.41 0.14 4.86 0.64 7.25h-72.78c3.26-1.77 6.19-4.29 8.85-7.25h63.29zm13.18 18.14c-13.36-10.54-9.24-37.04 9.66-36.18 22.01 1.01 40.14 42.87 55.07 52.22-31.77-3.22-39.88 32.93-58.75 30.58-19.05-2.37-20.31-38.85-5.98-46.62zm-28.13-382.32c-12.16 11.52-15.7 39.15 0 50.16 27.37 19.19 44.58-49.15 74.87-64.04-40.08 1.35-39.27-18.4-69.04-25.16-23.99-5.45-22.09 31.81-5.83 39.04zm-9.89-0.01c-3.23-3.59-5.51-8.15-6.83-12.82h-96.71v12.82h103.54zm-7.81-17.29c-0.38-2.45-0.5-4.89-0.37-7.25h-95.36v7.25h95.73zm1.96-17.29c3.63-8.02 11.35-12.99 22.85-10.38 6.27 1.42 12.12 3.59 17.77 6.72 2.06 1.14 4.03 2.38 5.96 3.66h95.4v-13.38h-239.67v13.38h97.69zm62.41 10.04c1.5 0.72 3.07 1.36 4.73 1.92 15.75 5.27 35.31 3.56 51.47 1.74-2.52 1.24-4.94 2.43-7.26 3.59h30.63v-7.25h-79.57zm40.39 11.72c-7.01 3.83-13.13 7.78-18.91 12.82h58.09v-12.82h-39.18zm-33.45 29c-0.73 1.01-1.47 2.05-2.2 3.13-0.93 1.36-1.86 2.74-2.78 4.12h77.61v-7.25h-72.63zm-7.96 11.71c-2.91 4.35-5.86 8.69-9 12.83h89.59v-12.83h-80.59zm-25.85 29c-2.54 1.36-5.26 2.3-8.16 2.61-4.35 0.47-8.47-0.57-12.23-2.61h-112.84v18.4h21.79c3.32-6.76 9.56-10.79 16.85-12.39 11.61-2.56 20.04 3.78 26.75 12.39h174.28v-18.4h-106.44zm-33.9-16.17c-1.45-4.04-2.2-8.4-2.29-12.83h-97.04v12.83h99.33zm-2.17-17.29c0.18-2.44 0.55-4.87 1.1-7.25h-98.26v7.25h97.16zm-62.16 90.08c-1.39 2.73-2.29 5.66-2.37 8.63h-32.63v-13.38h28.8c1.85 1.88 3.93 3.49 6.2 4.75zm8.3 24.25c1.94 0.82 4.01 1.36 6.09 1.61 4 0.47 8.09-0.1 11.82-1.61h178.46v7.25h-239.67v-7.25h43.3zm59.73-15.62c-6.1-3.9-10.85-7.53-15.75-13.38h152.39v13.38h-136.64zm-19.2-17.85c-1.53-2.13-3.11-4.52-4.78-7.25h160.62v7.25h-155.84zm-10.68-17.28c-1.43-2.42-2.93-4.88-4.53-7.25h171.05v7.25h-166.52zm-52.99-7.25c-0.61 2.36-0.85 4.81-0.77 7.25h-19.39v-7.25h20.16zm1.24 17.28c0.53 1.43 1.15 2.81 1.85 4.14 0.57 1.07 1.2 2.11 1.89 3.11h-25.14v-7.25h21.4zm23.98 12.89c-18.67-0.54-30.53-35.22-5.43-40.74 25.05-5.51 30.88 44.81 56.33 54.32-12.83-4.56-27.75 1.51-33.14 5.8-12.69 10.11-35.39-1.27-17.76-19.38zm69.22 114.71c-12.16-11.53-15.7-39.15 0-50.16 27.37-19.19 44.57 49.15 74.87 64.03-40.08-1.34-39.27 18.41-69.04 25.17-23.99 5.44-22.09-31.81-5.83-39.04zm-9.99 0.12c-3.33 3.75-5.64 8.52-6.92 13.39h-97.69v-13.39h104.61zm-7.73 17.29c-0.37 2.46-0.48 4.89-0.35 7.25h-96.53v-7.25h96.88zm0.23 11.71c0.54 2.63 1.43 5.08 2.65 7.25h-99.76v-7.25h97.11zm45.56 7.25c3.13-1.94 6.1-4.06 9.15-6.17 0.53-0.37 1.05-0.73 1.58-1.08h86.27v7.25h-97zm18.35-11.71c1.58-0.76 3.23-1.45 4.98-2.03 15.75-5.27 35.31-3.56 51.47-1.74-2.44-1.2-4.77-2.35-7.02-3.48h29.22v7.25h-78.65zm41.88-11.15c-7.47-4.03-13.94-8.11-20.02-13.39h56.79v13.39h-36.77zm-34.2-29.01c-0.89-1.21-1.79-2.48-2.7-3.81-0.77-1.14-1.55-2.28-2.32-3.44h75.99v7.25h-70.97zm-8-11.71c-3.02-4.53-6.09-9.07-9.36-13.38h88.33v13.38h-78.97zm-25.11-29c-2.88-1.72-5.99-2.93-9.35-3.29-4.81-0.51-9.34 0.81-13.4 3.29h-112.84v-7.25h239.67v7.25h-104.08zm-35.13 15.62c-1.5 4.2-2.23 8.76-2.26 13.38h-98.2v-13.38h100.46zm-2.08 17.84c0.22 2.45 0.62 4.88 1.2 7.25h-99.58v-7.25h98.38zm-62.7 117.12c-1.25-4.15-1.16-8.56 1.23-12.82h-36.91v12.82h35.68zm41.91-12.82c1.07 0.35 2.11 0.65 3.05 0.89 10.53 2.6 25.07 1.26 36.3 0.02-7.72 4.77-13.43 8-18.46 11.91h141.19v-12.82h-162.08zm15.79 17.29c-2.09 2.06-4.14 4.42-6.27 7.25h152.56v-7.25h-146.29zm-58.67 47.96c-3.51-1.67-6.56-4.07-8.83-7.25h-25.88v7.25h34.71zm-12.8-17.29c-0.66-4.46-0.13-9.08 1.26-13.38h-23.17v13.38h21.91zm6.49-23.42c2.2-2.9 4.87-5.4 7.89-7.25h-36.29v7.25h28.4zm19.24-4.24c-18.67 0.54-30.53 35.22-5.43 40.74 25.04 5.51 30.87-44.81 56.33-54.32-12.83 4.56-27.75-1.5-33.15-5.8-12.69-10.11-35.38 1.27-17.75 19.38zm-47.64-36.48h239.67v-12.82h-239.67v12.82zm0-133.29h239.67v-7.25h-239.67v7.25zm0-208.58h239.67v-13.39h-239.67v13.39zm0-17.85h239.67v-14.24h-239.67v14.24z"
      />
    </g
    >
  </g
  >
  <metadata
    >
    <rdf:RDF
      >
      <cc:Work
        >
        <dc:format
          >image/svg+xml</dc:format
        >
        <dc:type
            rdf:resource="http://purl.org/dc/dcmitype/StillImage"
        />
        <cc:license
            rdf:resource="http://creativecommons.org/licenses/publicdomain/"
        />
        <dc:publisher
          >
          <cc:Agent
              rdf:about="http://openclipart.org/"
            >
            <dc:title
              >Openclipart</dc:title
            >
          </cc:Agent
          >
        </dc:publisher
        >
        <dc:title
          >wd9</dc:title
        >
        <dc:date
          >2011-09-02T01:27:39</dc:date
        >
        <dc:description
          >layouts for cutting paper</dc:description
        >
        <dc:source
          >https://openclipart.org/detail/158899/wd9-by-wardogs</dc:source
        >
        <dc:creator
          >
          <cc:Agent
            >
            <dc:title
              >wardogs</dc:title
            >
          </cc:Agent
          >
        </dc:creator
        >
        <dc:subject
          >
          <rdf:Bag
            >
            <rdf:li
              >cards</rdf:li
            >
            <rdf:li
              >craft-robo</rdf:li
            >
            <rdf:li
              >cutting</rdf:li
            >
            <rdf:li
              >invitations</rdf:li
            >
            <rdf:li
              >layout</rdf:li
            >
            <rdf:li
              >manufacturing</rdf:li
            >
            <rdf:li
              >paper</rdf:li
            >
            <rdf:li
              >silhouette</rdf:li
            >
          </rdf:Bag
          >
        </dc:subject
        >
      </cc:Work
      >
      <cc:License
          rdf:about="http://creativecommons.org/licenses/publicdomain/"
        >
        <cc:permits
            rdf:resource="http://creativecommons.org/ns#Reproduction"
        />
        <cc:permits
            rdf:resource="http://creativecommons.org/ns#Distribution"
        />
        <cc:permits
            rdf:resource="http://creativecommons.org/ns#DerivativeWorks"
        />
      </cc:License
      >
    </rdf:RDF
    >
  </metadata
  >
</svg
>
