<?xml version="1.0" encoding="UTF-8" standalone="no"?>
<!-- Created with Inkscape (http://www.inkscape.org/) -->
<svg
    xmlns:dc="http://purl.org/dc/elements/1.1/"
    xmlns:cc="http://creativecommons.org/ns#"
    xmlns:rdf="http://www.w3.org/1999/02/22-rdf-syntax-ns#"
    xmlns:svg="http://www.w3.org/2000/svg"
    xmlns="http://www.w3.org/2000/svg"
    xmlns:inkscape="http://www.inkscape.org/namespaces/inkscape"
    xmlns:sodipodi="http://sodipodi.sourceforge.net/DTD/sodipodi-0.dtd"
    xmlns:ns1="http://sozi.baierouge.fr"
    xmlns:xlink="http://www.w3.org/1999/xlink"
    version="1.1"
    width="500"
    height="500"
    id="svg3068"
  >
  <defs
      id="defs3070"
  />
  <g
      transform="translate(-146.85715,-119.79075)"
      id="layer1"
    >
    <path
        d="m 146.85715,619.79075 0,-500 500,0 0,500 -500,0 m 7.5,-7.5 485,0 0,-485 -485,0 0,485 m 7.5,-7.5 0,-469.375 469.375,0 0,469.375 -469.375,0 m 380.625,-448.75 3.125,3.125 c 0.41562,0.83438 0.625,2.50047 0.625,5 -4.7e-4,3.75047 -2.08375,5.62547 -6.25,5.625 -5.83375,4.7e-4 -8.95875,-2.08281 -9.375,-6.25 l -0.625,-11.25 c -0.41719,-5.41625 -5.00047,-8.12453 -13.75,-8.125 -5.83375,4.7e-4 -10.41703,1.87547 -13.75,5.625 -2.91703,3.33375 -5.00047,5.00047 -6.25,5 -4.16703,4.7e-4 -6.25047,-1.25 -6.25,-3.75 -4.7e-4,-1.66625 1.25,-3.74953 3.75,-6.25 -2.50047,-1.25 -4.58375,-1.87453 -6.25,-1.875 -3.75047,4.7e-4 -5.62547,2.29219 -5.625,6.875 -4.7e-4,7.50047 4.16625,11.25047 12.5,11.25 l 1.875,-0.625 1.25,-0.625 c 11.66625,-7.91625 17.49953,-11.87453 17.5,-11.875 2.08297,4.7e-4 4.99953,1.25 8.75,3.75 l 0.625,16.25 c 5.41625,6.25047 11.45781,9.37547 18.125,9.375 0.41562,4.7e-4 1.66625,-0.625 3.75,-1.875 l 0.625,-1.875 3.125,-3.75 c 0.83281,-0.83281 1.25,-2.08281 1.25,-3.75 -4.7e-4,-3.33281 -1.25,-7.91625 -3.75,-13.75 1.66625,-4.16625 4.16625,-6.24953 7.5,-6.25 2.08281,4.7e-4 3.33281,0.20938 3.75,0.625 l 3.125,2.5 1.875,0.625 c 1.25,4.7e-4 1.87453,-0.625 1.875,-1.875 -4.7e-4,-6.24953 -4.58375,-9.37453 -13.75,-9.375 -7.08375,4.7e-4 -10.62547,4.37547 -10.625,13.125 -4.7e-4,-0.41562 0.41562,1.04219 1.25,4.375 m -131.875,-5.625 c 2.49969,-2.91625 4.37469,-4.37453 5.625,-4.375 1.66625,4.7e-4 4.16625,0.83438 7.5,2.5 3.33297,1.25 5.62469,1.87547 6.875,1.875 2.08297,4.7e-4 4.16625,-1.25 6.25,-3.75 l -10,-0.625 -7.5,-3.75 c -2.08359,-1.25 -3.95859,-1.87453 -5.625,-1.875 -7.91703,4.7e-4 -11.66703,3.95875 -11.25,11.875 l 0,2.5 c 4.16641,5.00047 10.41641,7.50047 18.75,7.5 11.24969,4.7e-4 18.54125,-1.87453 21.875,-5.625 l 11.25,-10.625 c 1.25,-1.25 2.91625,-1.87453 5,-1.875 4.16625,4.7e-4 6.24969,1.87547 6.25,5.625 -3.1e-4,2.50047 -2.29203,5.62547 -6.875,9.375 -6.25031,2.08375 -10.20875,3.33375 -11.875,3.75 -1.25,0.41719 -3.54203,1.04219 -6.875,1.875 l -51.25,3.75 0,4.375 c -3.1e-4,5.83375 -3.75031,12.08375 -11.25,18.75 l 6.875,0 c 6.66641,0.41719 12.49969,0.83438 17.5,1.25 5.41641,0.41719 9.79141,1.04219 13.125,1.875 12.49969,2.50047 21.66625,6.87547 27.5,13.125 0.41562,0.41719 0.83281,1.04219 1.25,1.875 0.83281,0.83438 1.87469,1.87547 3.125,3.125 l 1.875,3.125 0,1.875 c 0.83281,3.33375 1.25,5.00047 1.25,5 -3.1e-4,2.08375 -0.83438,3.95875 -2.5,5.625 -3.33375,2.50031 -5.62531,3.75031 -6.875,3.75 -2.08375,3.1e-4 -3.33375,-0.20781 -3.75,-0.625 -4.58375,-2.08297 -7.08375,-4.79125 -7.5,-8.125 l -5,-15.625 -3.125,-5 -1.25,1.875 1.875,14.375 1.25,5 c 1.66625,8.75031 7.70797,13.12531 18.125,13.125 4.58297,3.1e-4 8.54125,-1.66625 11.875,-5 2.08297,-2.08297 3.33297,-3.12469 3.75,-3.125 0.83281,3.1e-4 1.66625,0.41719 2.5,1.25 l 2.5,4.375 c 7.49969,-0.41562 11.66625,-1.45781 12.5,-3.125 l 0,-3.125 c -4.7e-4,-1.25 -4.7e-4,-2.70797 0,-4.375 -4.7e-4,-2.08297 -0.20937,-4.58297 -0.625,-7.5 l 0,-4.375 7.5,-0.625 c -2.08375,-4.99953 -5.00047,-9.58297 -8.75,-13.75 l -5.625,-3.75 -3.125,-1.875 -6.25,0 -3.125,-4.375 c -9.58375,-2.49953 -16.04203,-3.74953 -19.375,-3.75 l -0.625,0 -21.875,1.875 c -4.16703,4.7e-4 -6.25031,-1.45781 -6.25,-4.375 -3.1e-4,-2.91625 1.45781,-4.37453 4.375,-4.375 l 28.75,3.125 13.125,-1.25 10,-2.5 c 2.91625,-1.25 4.37469,-2.08297 4.375,-2.5 -3.1e-4,-1.25 -0.625,-2.49953 -1.875,-3.75 l 0.625,-2.5 c 7.49953,-2.49953 11.24953,-7.29125 11.25,-14.375 -4.7e-4,-9.16625 -5.41703,-13.74953 -16.25,-13.75 -3.33375,4.7e-4 -6.04203,1.04219 -8.125,3.125 l -15,11.875 -3.75,1.25 -4.375,1.875 -3.75,0.625 c -10.00031,0.83438 -15.00031,-1.45781 -15,-6.875 l 0,-1.25 m -244.375,-11.25 c -0.83281,0.83438 -1.25,1.45938 -1.25,1.875 -1.6e-4,1.66719 0.625,2.50047 1.875,2.5 2.08328,4.7e-4 3.12484,-0.83281 3.125,-2.5 -1.6e-4,-1.25 -1.25,-1.87453 -3.75,-1.875 m 169.375,20 3.125,2.5 7.5,-0.625 -2.5,-3.75 c -0.41719,-0.41562 -0.625,-1.25 -0.625,-2.5 -3.1e-4,-4.99953 3.95812,-7.49953 11.875,-7.5 8.33312,4.7e-4 14.16641,4.37547 17.5,13.125 l 4.375,1.25 c -3.75031,-14.58281 -12.29188,-21.87453 -25.625,-21.875 -3.75031,4.7e-4 -7.50031,1.45938 -11.25,4.375 -3.75031,2.50047 -5.62531,5.41719 -5.625,8.75 -3.1e-4,4.7e-4 0.41719,2.08375 1.25,6.25 m -88.125,-3.125 c 9.99984,-6.24953 15.62484,-9.37453 16.875,-9.375 4.58312,4.7e-4 6.87484,1.04219 6.875,3.125 l -1.875,10 c -1.6e-4,3.33375 3.95812,5.00047 11.875,5 4.16641,4.7e-4 8.33312,-1.45781 12.5,-4.375 l -3.125,-7.5 c 2.49984,-4.16625 6.66641,-6.24953 12.5,-6.25 4.58312,4.7e-4 8.54141,1.87547 11.875,5.625 0.83281,3.33375 1.25,4.79219 1.25,4.375 -3.1e-4,4.7e-4 -0.41719,2.08375 -1.25,6.25 5.41641,-2.49953 8.12469,-4.99953 8.125,-7.5 -3.1e-4,-9.99953 -6.45859,-14.99953 -19.375,-15 -10.41688,4.7e-4 -15.62516,2.91719 -15.625,8.75 -1.6e-4,2.50047 0.20781,4.16719 0.625,5 -0.83438,3.75047 -2.50016,5.20875 -5,4.375 l -2.5,0 c -2.50016,-1.66625 -3.75016,-3.33281 -3.75,-5 -1.6e-4,4.7e-4 0.41719,-1.66625 1.25,-5 -1.6e-4,-5.83281 -3.33359,-8.74953 -10,-8.75 -10.83344,4.7e-4 -17.91687,5.41719 -21.25,16.25 m 335,-1.25 c 2.49953,4.7e-4 3.74953,-1.45781 3.75,-4.375 -4.7e-4,-4.16625 -1.66719,-6.24953 -5,-6.25 -2.50047,4.7e-4 -3.75047,1.04219 -3.75,3.125 -4.7e-4,1.66719 0.625,3.33375 1.875,5 1.25,1.66719 2.29109,2.50047 3.125,2.5 m -403.125,-11.875 c -0.41719,0.41719 -0.625,1.04219 -0.625,1.875 l 0.625,1.25 c 1.25,2.08375 2.70828,3.12547 4.375,3.125 1.66656,4.7e-4 2.49984,-0.625 2.5,-1.875 -1.6e-4,-2.08281 -0.83281,-3.12453 -2.5,-3.125 l -4.375,-1.25 m 203.75,20.625 c 0.41719,-7.91625 2.70797,-11.87453 6.875,-11.875 3.33297,4.7e-4 5.41641,0.20938 6.25,0.625 -1.66703,-5.41625 -4.37531,-8.12453 -8.125,-8.125 -6.25031,4.7e-4 -9.37531,5.00047 -9.375,15 -3.1e-4,2.50047 1.45781,3.95875 4.375,4.375 m -185.625,0.625 1.25,2.5 c 1.66656,2.08375 3.95828,6.45875 6.875,13.125 l 0,-7.5 -1.875,-5.625 c -0.83281,-2.49953 -1.25,-3.95781 -1.25,-4.375 -1.6e-4,-7.08281 4.16656,-11.04125 12.5,-11.875 -2.91688,-4.16625 -5.62516,-6.24953 -8.125,-6.25 -7.08344,4.7e-4 -10.20844,4.79219 -9.375,14.375 l 0,5.625 m 398.75,-8.125 c -2.08391,7.08375 -2.70891,11.66719 -1.875,13.75 -4.7e-4,0.83438 -4.7e-4,1.87547 0,3.125 0.41562,0.83438 0.83281,2.08375 1.25,3.75 l 5,-1.25 c -0.41719,-2.08281 -0.83438,-3.74953 -1.25,-5 -4.7e-4,-1.66625 -4.7e-4,-2.91625 0,-3.75 -4.7e-4,-5.83281 2.49953,-8.74953 7.5,-8.75 1.25,4.7e-4 3.54109,1.04219 6.875,3.125 l 0.625,3.75 -1.875,7.5 c -10.41719,4.58375 -18.33391,9.58375 -23.75,15 l -2.5,3.125 c -0.41719,0.83438 -0.625,2.50047 -0.625,5 -4.7e-4,0.83438 0.41562,2.08375 1.25,3.75 0.83281,1.66703 2.08281,2.50047 3.75,2.5 4.99953,4.7e-4 7.49953,-1.04062 7.5,-3.125 -4.7e-4,-1.25 -0.41719,-1.87453 -1.25,-1.875 l -5,-1.875 1.25,-5 c 0.83281,-2.08297 3.74953,-4.16625 8.75,-6.25 9.16609,-2.91625 14.79109,-5.41625 16.875,-7.5 2.08281,-2.49953 3.12453,-6.87453 3.125,-13.125 -4.7e-4,-9.99953 -4.37547,-14.99953 -13.125,-15 -2.91719,4.7e-4 -7.08391,2.70875 -12.5,8.125 m -425,-8.125 c -2.08344,4.7e-4 -3.12516,0.625 -3.125,1.875 -1.6e-4,3.33375 2.49984,5.00047 7.5,5 2.08328,4.7e-4 3.12484,-0.83281 3.125,-2.5 -1.6e-4,-2.91625 -2.50016,-4.37453 -7.5,-4.375 m 402.5,11.875 c 2.49953,4.7e-4 3.74953,-1.25 3.75,-3.75 -4.7e-4,-2.91625 -1.87547,-4.37453 -5.625,-4.375 -2.91719,4.7e-4 -4.37547,0.625 -4.375,1.875 -4.7e-4,4.16719 2.08281,6.25047 6.25,6.25 m -356.25,3.125 0.625,0 0.625,10 -3.125,0 -3.75,-1.25 -1.875,5 0,2.5 1.25,4.375 3.125,3.75 3.125,2.5 c 0.83281,3.33375 1.25,4.79203 1.25,4.375 -1.6e-4,2.50047 -2.50016,3.95875 -7.5,4.375 -2.08344,-3.33297 -4.79172,-5.20797 -8.125,-5.625 l 0,8.125 -3.75,-0.625 c -5.83344,-0.83281 -8.75016,1.04219 -8.75,5.625 -1.6e-4,2.08375 0.625,4.58375 1.875,7.5 2.49984,-4.99953 4.99984,-7.49953 7.5,-7.5 1.25,4.7e-4 4.16656,1.25 8.75,3.75 2.91656,1.25 4.99984,1.87547 6.25,1.875 4.16656,4.7e-4 6.87484,-3.33297 8.125,-10 l 1.875,1.875 3.125,2.5 3.125,6.875 c 1.25,7.08375 1.87484,12.29203 1.875,15.625 -1.6e-4,3.75031 -1.66688,8.54203 -5,14.375 -0.83281,3.33375 -2.50016,6.87531 -5,10.625 -5.41688,7.50031 -8.95844,15.20875 -10.625,23.125 1.66656,3.1e-4 2.91656,-1.66625 3.75,-5 0.41719,-1.66625 4.99984,-9.58297 13.75,-23.75 5.83312,-9.58297 8.74984,-19.99969 8.75,-31.25 -1.6e-4,-6.66625 -2.50016,-13.54125 -7.5,-20.625 1.25,-2.91625 1.87484,-5.20797 1.875,-6.875 -1.6e-4,-2.49953 -1.66688,-6.04125 -5,-10.625 -2.91688,-4.58281 -4.37516,-8.33281 -4.375,-11.25 -1.6e-4,-7.08281 3.33312,-10.62453 10,-10.625 2.91656,4.7e-4 4.99984,0.20938 6.25,0.625 -2.08344,-4.58281 -4.79188,-6.87453 -8.125,-6.875 -8.75016,4.7e-4 -13.54188,4.16719 -14.375,12.5 m 342.5,-10 c -2.50047,1.25 -3.75047,2.50047 -3.75,3.75 l 0,3.125 c 2.49953,1.25 4.79125,1.87547 6.875,1.875 2.08281,4.7e-4 3.12453,-0.625 3.125,-1.875 -4.7e-4,-0.83281 -0.20938,-1.45781 -0.625,-1.875 l -0.625,-1.875 c -0.83438,-0.83281 -2.50047,-1.87453 -5,-3.125 m -373.125,1.25 -1.25,0 c -2.91672,4.7e-4 -4.37516,1.66719 -4.375,5 -1.6e-4,2.50047 1.45781,3.75047 4.375,3.75 3.33328,4.7e-4 4.99984,-1.87453 5,-5.625 -1.6e-4,-2.08281 -1.25,-3.12453 -3.75,-3.125 m 395.625,5.625 -0.625,2.5 c 1.66609,2.50047 3.33281,3.75047 5,3.75 2.08281,4.7e-4 3.12453,-1.04062 3.125,-3.125 -4.7e-4,-3.33281 -1.66719,-4.99953 -5,-5 l -0.625,0 -1.875,1.875 m -415.625,4.375 0.625,1.25 2.5,0 c 2.91656,4.7e-4 4.37484,-1.04062 4.375,-3.125 -1.6e-4,-2.49953 -1.25,-3.74953 -3.75,-3.75 -2.50016,4.7e-4 -3.75016,1.87547 -3.75,5.625 m 404.375,8.75 0,-7.5 c -1.25,-1.66625 -2.50047,-2.49953 -3.75,-2.5 -4.16719,4.7e-4 -6.25047,1.45938 -6.25,4.375 -4.7e-4,4.58375 2.08281,6.66719 6.25,6.25 l 3.75,-0.625 m 7.5,3.75 -1.25,4.375 c -3.33391,13.75047 -16.25047,20.83375 -38.75,21.25 l -1.25,1.875 c 3.74953,1.66703 7.29125,2.50047 10.625,2.5 12.91625,4.7e-4 23.12453,-5.83297 30.625,-17.5 l 0.625,0 c 2.49953,-6.24953 3.74953,-10.83297 3.75,-13.75 -4.7e-4,-7.91625 -2.08391,-11.87453 -6.25,-11.875 -1.25,4.7e-4 -1.87547,1.25 -1.875,3.75 -4.7e-4,0.83438 0.20781,1.45938 0.625,1.875 l 1.875,3.75 1.25,3.75 m -252.5,-9.375 -18.75,0.625 c -3.33359,4.7e-4 -7.08359,0.20938 -11.25,0.625 -4.16688,0.41719 -7.08359,0.625 -8.75,0.625 -1.25,4.7e-4 -3.12516,4.7e-4 -5.625,0 -2.50016,-0.41562 -5.41688,-0.83281 -8.75,-1.25 -2.08359,-0.41562 -4.16688,-0.625 -6.25,-0.625 -1.66688,4.7e-4 -3.33359,4.7e-4 -5,0 -4.16688,4.7e-4 -7.08344,-0.20781 -8.75,-0.625 l -1.875,0 c -6.25016,-0.41562 -9.37516,0.83438 -9.375,3.75 -1.6e-4,2.50047 1.45781,3.95875 4.375,4.375 l 25.625,7.5 c 2.91641,0.83438 7.49984,4.37547 13.75,10.625 l 2.5,3.125 1.25,1.25 0,1.875 c 1.25,2.08375 1.87484,3.54203 1.875,4.375 l 0.625,8.75 0.625,6.875 c 11.66641,-3.74953 21.66641,-5.62453 30,-5.625 l 4.375,0 c 3.33312,-12.08297 8.54141,-20.20797 15.625,-24.375 1.25,-0.83281 3.95812,-1.87453 8.125,-3.125 4.58312,-1.66625 10.62469,-3.95797 18.125,-6.875 7.08297,-3.33297 10.62469,-6.66625 10.625,-10 -3.1e-4,-2.91625 -4.37531,-4.16625 -13.125,-3.75 l -3.125,0 -36.875,1.875 m -142.5,0.625 c -2.08344,-2.08281 -3.54172,-3.12453 -4.375,-3.125 -2.91672,4.7e-4 -4.37516,1.25 -4.375,3.75 -1.6e-4,3.33375 2.70828,5.00047 8.125,5 0.83281,4.7e-4 1.25,-0.41562 1.25,-1.25 -1.6e-4,-2.08281 -0.20781,-3.54125 -0.625,-4.375 m 6.875,-2.5 c -1.25,0.83438 -1.87516,1.66719 -1.875,2.5 -1.6e-4,3.33375 1.87484,5.00047 5.625,5 l 0,-0.625 c -1.6e-4,4.7e-4 -1.6e-4,-0.20781 0,-0.625 0.41719,-0.41562 0.83281,-1.04062 1.25,-1.875 l 0,-1.25 c -1.6e-4,-2.08281 -1.25,-3.12453 -3.75,-3.125 l -1.25,0 m 190.625,3.75 -1.25,3.125 -0.625,2.5 c -3.1e-4,1.25 -0.625,2.08375 -1.875,2.5 l -9.375,3.75 -10.625,4.375 -6.875,1.875 c -12.08359,5.83375 -18.75031,14.37547 -20,25.625 0.41719,0.41719 1.45781,0.625 3.125,0.625 0.41719,4.7e-4 1.04062,-0.41562 1.875,-1.25 0.83281,-7.08297 2.91641,-12.08297 6.25,-15 3.74969,-2.91625 10.41641,-5.62453 20,-8.125 1.66641,-0.83281 3.54141,-1.45781 5.625,-1.875 2.08297,-0.83281 4.37469,-1.66625 6.875,-2.5 7.08297,-4.58297 10.62469,-8.12453 10.625,-10.625 -3.1e-4,-2.08281 -1.25,-3.74953 -3.75,-5 m 92.5,1.875 -0.625,1.25 c 0.41562,1.25 1.04062,2.29203 1.875,3.125 -0.83438,0.83438 -2.08375,1.66703 -3.75,2.5 l -9.375,4.375 8.125,1.875 8.125,1.875 12.5,3.75 16.875,7.5 3.75,1.875 c 1.66625,0.83438 5.41625,2.70875 11.25,5.625 -4.7e-4,4.7e-4 0.41562,0.41719 1.25,1.25 0.83281,0.41719 2.08281,1.25 3.75,2.5 l 9.375,8.75 1.25,1.875 3.75,5 0.625,1.875 0.625,1.875 c 2.49953,3.33375 3.74953,6.66703 3.75,10 l -0.625,2.5 c -2.08375,3.33375 -4.37547,5.00031 -6.875,5 -3.75047,3.1e-4 -5.62547,-2.08297 -5.625,-6.25 l -1.875,0 c -1.25,2.50031 -1.87547,4.37531 -1.875,5.625 -4.7e-4,1.66703 0.83281,3.95875 2.5,6.875 4.16625,3.75031 8.12453,5.62531 11.875,5.625 3.33281,3.1e-4 6.45781,-1.66625 9.375,-5 2.91625,-3.33297 4.16625,-6.66625 3.75,-10 l -0.625,-5 6.25,1.875 1.875,-4.375 c -0.83438,-7.08297 -2.91719,-12.91625 -6.25,-17.5 l -3.125,-3.125 c -0.83438,-1.25 -1.66719,-2.08297 -2.5,-2.5 -0.83438,-0.83281 -1.45938,-1.45781 -1.875,-1.875 -1.25,4.7e-4 -3.12547,-0.20781 -5.625,-0.625 -2.50047,-0.83281 -5.00047,-1.66625 -7.5,-2.5 -2.50047,-0.83281 -4.58375,-1.66625 -6.25,-2.5 -1.66719,-1.25 -2.50047,-2.49953 -2.5,-3.75 -4.7e-4,-2.08297 0.625,-3.12453 1.875,-3.125 l 21.875,0 6.875,-3.125 -18.75,-8.75 c -3.75047,-1.66625 -8.12547,-3.12453 -13.125,-4.375 -5.00047,-1.66625 -10.41703,-2.91625 -16.25,-3.75 -3.33375,-1.25 -5.62547,-1.87453 -6.875,-1.875 -1.66703,-0.41562 -3.95875,-0.83281 -6.875,-1.25 -2.50047,-0.41562 -5.62547,-0.83281 -9.375,-1.25 l -11.25,-1.875 -3.75,0 m -300,4.375 c -2.50016,4.7e-4 -3.75016,1.04219 -3.75,3.125 -1.6e-4,3.33375 1.66656,5.00047 5,5 2.49984,4.7e-4 3.95828,-0.83281 4.375,-2.5 l 0.625,-1.25 c -1.6e-4,-2.91625 -2.08344,-4.37453 -6.25,-4.375 m 13.125,0 c -0.41719,0.41719 -0.625,0.83438 -0.625,1.25 -1.6e-4,0.41719 -0.20781,0.83438 -0.625,1.25 -1.6e-4,1.66703 4.16656,4.37547 12.5,8.125 l 6.25,3.125 5,2.5 c 0.41719,1.25 1.25,1.87547 2.5,1.875 0.83281,-0.83281 1.25,-1.66625 1.25,-2.5 -1.6e-4,4.7e-4 -1.25,-0.625 -3.75,-1.875 -2.50016,-1.66625 -6.04172,-3.95797 -10.625,-6.875 l -6.25,-3.75 -5.625,-3.125 m 55,0.625 c -1.6e-4,3.75047 5.83312,7.08375 17.5,10 8.33312,2.08375 16.66641,5.62547 25,10.625 l -4.375,-6.25 c -5.00016,-3.74953 -11.04188,-6.87453 -18.125,-9.375 l -20,-5 m 367.5,16.875 c 0.41563,-0.41562 1.66609,-0.625 3.75,-0.625 0.41563,4.7e-4 1.66609,0.625 3.75,1.875 l 1.875,5.625 c 2.91609,-1.66625 4.37453,-3.33297 4.375,-5 -4.7e-4,-5.41625 -2.91719,-8.12453 -8.75,-8.125 -4.58391,4.7e-4 -6.87547,0.83438 -6.875,2.5 -4.7e-4,1.25 0.625,2.50047 1.875,3.75 m -9.375,-3.75 -0.625,3.125 c 0.41563,0.83438 1.04063,1.87547 1.875,3.125 0.83281,1.25 1.66609,2.70875 2.5,4.375 l 3.75,5 c 1.66609,1.66703 2.49953,3.75047 2.5,6.25 l 0,0.625 c -1.25,2.50047 -4.79219,3.75047 -10.625,3.75 -0.83437,4.7e-4 -5.20891,-1.66625 -13.125,-5 l -2.5,-1.875 -10,-6.875 -15.625,6.25 -3.125,0.625 3.125,2.5 7.5,5.625 5.625,3.75 2.5,3.125 9.375,7.5 8.125,3.75 10,0.625 3.125,0 -0.625,-4.375 1.25,-1.875 c 8.33281,-4.58297 12.49953,-9.58297 12.5,-15 -4.7e-4,-4.58297 -1.25,-8.12453 -3.75,-10.625 l -5.625,-4.375 -3.125,-5 c -0.41719,-4.16625 -1.66719,-6.24953 -3.75,-6.25 l -1.25,1.25 m -434.375,5 c -0.41719,0.83438 -0.625,2.50047 -0.625,5 -1.6e-4,1.66703 0.625,3.33375 1.875,5 1.25,1.66703 3.12484,2.50047 5.625,2.5 4.16656,4.7e-4 6.24984,-1.87453 6.25,-5.625 -1.6e-4,-0.41562 -0.20781,-0.625 -0.625,-0.625 -2.50016,4.7e-4 -4.16672,0.20938 -5,0.625 -1.25,-0.41562 -1.87516,-1.25 -1.875,-2.5 0.41719,-0.41562 0.625,-0.83281 0.625,-1.25 -1.6e-4,-0.83281 0.20781,-1.45781 0.625,-1.875 2.08328,-3.33297 6.66656,-4.99953 13.75,-5 1.66656,4.7e-4 3.54156,0.41719 5.625,1.25 2.49984,0.41719 4.16656,0.625 5,0.625 0.41719,4.7e-4 1.04219,-0.41562 1.875,-1.25 l -3.125,-1.875 c -4.58344,-1.66625 -8.75016,-2.49953 -12.5,-2.5 -7.50016,4.7e-4 -13.33344,2.50047 -17.5,7.5 m 302.5,-4.375 6.875,2.5 7.5,2.5 c 6.24953,2.08375 12.29125,6.25047 18.125,12.5 1.66625,2.91703 2.49953,5.20875 2.5,6.875 -4.7e-4,8.33375 -4.16703,12.50031 -12.5,12.5 -2.91703,3.1e-4 -4.79203,-0.20781 -5.625,-0.625 4.16625,5.00031 8.12453,7.50031 11.875,7.5 9.99953,3.1e-4 14.99953,-5.41625 15,-16.25 -4.7e-4,-5.41625 -2.91703,-10.62453 -8.75,-15.625 -2.91703,-2.91625 -5.41703,-4.58297 -7.5,-5 l -16.25,-6.25 -10,-1.875 -1.25,1.25 m -223.75,13.125 -1.875,7.5 1.875,13.75 1.875,-5.625 1.25,-10 c 0.41719,-4.99953 3.33313,-7.49953 8.75,-7.5 0.83281,4.7e-4 1.87484,0.20938 3.125,0.625 1.66656,4.7e-4 3.54141,0.20938 5.625,0.625 -1.66687,-5.41625 -4.58344,-8.12453 -8.75,-8.125 -4.16687,4.7e-4 -8.12516,2.91703 -11.875,8.75 m 95.625,8.125 0,1.875 c -3.1e-4,0.83438 1.04063,1.66703 3.125,2.5 l 5.625,-0.625 5,-0.625 c 7.08313,-1.25 13.54141,-4.79125 19.375,-10.625 l 6.25,-7.5 -3.75,-1.25 c -0.83437,4.7e-4 -3.54203,2.29203 -8.125,6.875 -4.16687,4.16703 -11.04187,7.08375 -20.625,8.75 l -5,0.625 -1.875,0 m 58.125,1.25 1.875,3.125 c 4.16641,7.50047 10.20797,12.08375 18.125,13.75 l -1.875,-2.5 -3.75,-1.875 c -6.66703,-3.74953 -10.00031,-8.33297 -10,-13.75 -3.1e-4,-5.41625 3.33297,-8.12453 10,-8.125 l 1.25,0 c -1.66703,-2.91625 -3.33359,-4.37453 -5,-4.375 -7.91703,4.7e-4 -11.87531,2.50047 -11.875,7.5 -3.1e-4,0.83438 0.41719,2.91703 1.25,6.25 m -135,-1.875 c -6.25016,5.00047 -11.04187,10.41703 -14.375,16.25 -0.41719,0.83438 -1.04219,1.66703 -1.875,2.5 -0.83281,0.83438 -1.66687,1.87531 -2.5,3.125 l 5.625,-4.375 20.625,-18.125 7.5,-5 4.375,-3.125 c -2.08359,-0.41562 -3.33359,-1.04062 -3.75,-1.875 1.66641,4.7e-4 -3.54187,3.54203 -15.625,10.625 m 8.75,5 -8.125,6.875 -20.625,18.75 -6.25,6.875 c -3.33344,4.58375 -6.66687,9.58375 -10,15 -3.33344,5.41703 -6.66687,11.04203 -10,16.875 -1.25,2.50031 -2.50016,5.00031 -3.75,7.5 -0.83281,2.50031 -1.66687,5.00031 -2.5,7.5 l -4.375,16.25 c 1.25,2.50031 1.87484,5.00031 1.875,7.5 l -0.625,5.625 2.5,-5.625 8.75,-28.125 8.125,-15.625 23.75,-29.375 31.875,-26.25 c 4.16641,-2.49953 6.24984,-4.79125 6.25,-6.875 l 0,-1.25 -0.625,-1.25 -2.5,-3.75 -13.75,9.375 m -92.5,-6.875 c -1.66672,2.91703 -2.50016,5.20875 -2.5,6.875 l 0,3.75 c -6.66672,2.91703 -10.00016,6.25047 -10,10 l 0.625,3.125 5,0.625 3.125,0 0.625,1.25 0,-1.25 0,4.375 -1.875,3.75 1.25,4.375 6.25,-7.5 c 0.41719,-1.25 2.91656,-1.87469 7.5,-1.875 4.16656,3.1e-4 8.12484,1.87531 11.875,5.625 l 3.75,5 0,-1.25 c 0.83281,-5.41625 -1.45781,-8.95797 -6.875,-10.625 l -0.625,-1.875 3.75,-0.625 c -1.6e-4,-2.91625 -1.45781,-4.58297 -4.375,-5 l -5,-0.625 0,-0.625 -0.625,-2.5 3.75,-0.625 0,-1.25 -3.125,-3.125 -2.5,-1.875 -1.25,-1.25 -8.75,-6.875 m 205.625,28.125 -1.25,-9.375 c 2.49969,-2.49953 4.58297,-3.74953 6.25,-3.75 6.66641,4.7e-4 9.99969,3.33375 10,10 -3.1e-4,0.41719 -0.20937,1.25 -0.625,2.5 -3.1e-4,0.83438 -0.20781,2.29203 -0.625,4.375 -0.83437,5.00031 -3.54203,10.20875 -8.125,15.625 -2.50031,1.25 -3.75031,2.70875 -3.75,4.375 -3.1e-4,0.83438 0.625,1.25 1.875,1.25 l 3.75,-3.125 5,-3.75 c 4.99969,-3.74969 7.49969,-10.20797 7.5,-19.375 -3.1e-4,-12.91625 -5.41703,-19.37453 -16.25,-19.375 -8.33359,4.7e-4 -12.50031,3.75047 -12.5,11.25 -3.1e-4,4.16703 2.91641,7.29203 8.75,9.375 m -80,-16.25 c -10.83359,2.08375 -18.75016,4.58375 -23.75,7.5 l -5.625,3.75 -20,13.75 -3.75,5 -5.625,3.75 -2.5,4.375 c 4.16656,-1.25 6.87484,-2.29125 8.125,-3.125 1.25,-1.25 3.95813,-4.16625 8.125,-8.75 2.08313,-2.49969 5.20813,-4.79125 9.375,-6.875 4.16641,-2.49969 8.74984,-4.58297 13.75,-6.25 5.41641,-2.08297 10.83313,-3.74969 16.25,-5 5.41641,-1.25 10.41641,-1.87469 15,-1.875 16.24969,3.1e-4 29.16641,4.16703 38.75,12.5 l 1.25,0.625 1.875,1.25 c 2.49969,3.33375 3.74969,6.87531 3.75,10.625 -0.83437,7.08375 -3.95859,10.20875 -9.375,9.375 l -5.625,0 c -0.41719,-0.83281 -0.83281,-1.66625 -1.25,-2.5 -0.41719,-1.25 -0.83437,-2.91625 -1.25,-5 l -1.25,0 -1.25,4.375 0.625,5 0.625,1.875 2.5,4.375 3.75,3.125 c 2.91641,1.25 5.20813,1.87531 6.875,1.875 9.99969,3.1e-4 15.62469,-3.54125 16.875,-10.625 l 1.25,-5.625 11.25,0 c 0.83281,3.1e-4 1.25,-0.625 1.25,-1.875 -3.1e-4,-7.08297 -2.70859,-13.33297 -8.125,-18.75 -4.16703,-4.99969 -8.75031,-8.33297 -13.75,-10 l -4.375,-2.5 -3.125,-1.25 -6.875,-2.5 -4.375,-0.625 c -0.41719,-0.41562 -1.04219,-0.625 -1.875,-0.625 -1.25,4.7e-4 -2.08359,-0.20781 -2.5,-0.625 -5.00031,-1.66625 -9.58359,-2.49953 -13.75,-2.5 l -2.5,0.625 -18.75,3.125 m -98.75,10 3.125,3.125 c 0.83281,-4.58297 2.49984,-6.87469 5,-6.875 l 3.75,0.625 c 1.66656,3.33375 2.49984,6.45875 2.5,9.375 -1.6e-4,5.83375 -0.83281,11.04203 -2.5,15.625 4.99984,-5.41625 7.49984,-12.70797 7.5,-21.875 -1.6e-4,-8.74953 -3.12516,-13.12453 -9.375,-13.125 -7.50016,4.7e-4 -10.83344,2.91703 -10,8.75 l 0,4.375 m 360.625,-10 0.625,3.125 0,1.25 5,4.375 3.125,1.875 3.75,3.75 15,20 4.375,5.625 1.875,1.25 c 4.58281,3.33375 8.12453,5.00031 10.625,5 3.33281,3.1e-4 7.08281,-2.08297 11.25,-6.25 -11.25047,-3.74969 -18.75047,-9.37469 -22.5,-16.875 -2.08391,-3.74969 -4.58391,-5.62469 -7.5,-5.625 l -1.25,0 -1.875,-0.625 -3.125,-1.25 -3.125,-1.875 -10.625,-8.75 -3.75,-3.75 -1.875,-1.25 m -48.125,8.125 0.625,2.5 c -4.7e-4,2.91703 -1.25,5.20875 -3.75,6.875 -5.00047,2.50031 -8.75047,3.75031 -11.25,3.75 -2.91703,3.1e-4 -6.66703,-0.625 -11.25,-1.875 -4.58375,-1.25 -8.12547,-1.87469 -10.625,-1.875 -0.83437,3.1e-4 -2.08375,0.20938 -3.75,0.625 -1.66703,3.1e-4 -3.54203,0.20938 -5.625,0.625 l 6.875,1.25 c 5.41625,0.41719 9.37453,1.04219 11.875,1.875 l 15.625,4.375 c 0.83281,0.41719 2.70797,0.625 5.625,0.625 7.49953,3.1e-4 11.24953,-3.12469 11.25,-9.375 -4.7e-4,-2.91625 -1.87547,-6.04125 -5.625,-9.375 m 50.625,1.875 c 0.41563,2.50031 0.20781,5.20875 -0.625,8.125 -0.83437,2.50031 -1.25,3.95875 -1.25,4.375 -4.7e-4,-0.41562 0.41563,0.625 1.25,3.125 l 5,6.875 4.375,13.125 -0.625,8.75 0,5.625 -2.5,9.375 -1.25,3.75 -3.125,5 c 0.41563,0.41719 0.83281,0.83281 1.25,1.25 0.41563,3.1e-4 0.83281,0.20938 1.25,0.625 4.16609,3.1e-4 7.91609,-2.49969 11.25,-7.5 1.25,-1.66641 1.87453,-3.95797 1.875,-6.875 l 1.25,-12.5 c -4.7e-4,-0.83281 0.41563,-1.25 1.25,-1.25 l 3.125,0.625 0,-6.875 c -4.7e-4,-6.66625 -5.41719,-16.66625 -16.25,-30 l -6.25,-5.625 m -271.25,1.875 -5.625,1.875 0,21.25 0,8.125 0,5 1.25,151.875 6.875,1.25 c 2.08313,0.41719 3.74984,0.83281 5,1.25 1.25,1.6e-4 2.08313,1.6e-4 2.5,0 1.25,0.41719 2.91641,0.625 5,0.625 l 11.25,3.125 4.375,0.625 -0.625,-193.125 c -3.1e-4,-1.66625 -0.625,-2.70797 -1.875,-3.125 -1.25,-0.83281 -3.75031,-1.04062 -7.5,-0.625 l -3.125,0 -9.375,0.625 -8.125,1.25 m 321.875,0.625 0,1.25 c -4.7e-4,5.41703 -2.91719,7.70875 -8.75,6.875 l -5.625,0 -1.25,0.625 8.125,4.375 2.5,0 c 5.41609,3.1e-4 8.12453,-2.08297 8.125,-6.25 -4.7e-4,-1.25 -1.04219,-3.54125 -3.125,-6.875 m -289.375,-0.625 0,11.25 0.625,183.75 c 0.41719,2.50016 2.29141,3.75016 5.625,3.75 l -1.25,-193.75 c -0.41719,-2.91625 -2.08359,-4.58297 -5,-5 m -140,5 -0.625,0.625 -3.75,0 3.125,35 -0.625,6.875 0,2.5 0.625,1.25 -0.625,11.875 -1.875,3.75 -3.125,18.75 -6.875,29.375 -1.25,10 -1.875,6.25 -3.125,23.75 1.25,0 3.75,-6.875 2.5,1.25 -5.625,8.75 -1.875,4.375 -0.625,10 2.5,-3.75 1.875,1.25 -1.875,4.375 c -2.50016,3.33359 -3.75016,6.45859 -3.75,9.375 l 0.625,4.375 0.625,0.625 2.5,-4.375 1.875,1.875 -1.875,4.375 -3.125,5.625 0.625,8.75 2.5,-4.375 1.875,2.5 -3.125,8.75 -0.625,1.25 0.625,6.875 1.875,-1.875 1.25,-3.125 1.875,1.875 -0.625,1.875 -1.25,3.125 -1.25,4.375 -0.625,3.125 1.25,7.5 c 0.83281,-3.74984 2.29156,-6.04156 4.375,-6.875 l 0,1.875 -3.125,11.25 1.875,10.625 1.875,-6.25 2.5,1.25 c -1.66672,2.91688 -2.50016,6.25016 -2.5,10 -1.6e-4,2.50016 1.04219,6.45844 3.125,11.875 l 1.25,0.625 0,-1.25 0,-6.875 2.5,-0.625 -0.625,16.875 1.875,4.375 1.25,-6.875 2.5,0.625 -0.625,14.375 c 1.25,-0.41719 3.54156,-0.625 6.875,-0.625 l 3.75,0 c 4.16656,1.6e-4 6.45828,-0.20781 6.875,-0.625 0.83281,-0.83281 2.08313,-3.74984 3.75,-8.75 0.41719,-2.91656 2.29156,-6.04156 5.625,-9.375 l 13.75,-14.375 c -0.83281,0.83281 -1.45781,1.25 -1.875,1.25 -1.25,1.6e-4 -1.6e-4,-3.95828 3.75,-11.875 0.83281,-1.25 1.66656,-2.49984 2.5,-3.75 0.83281,-1.25 1.66656,-2.49984 2.5,-3.75 l -3.75,1.875 -2.5,0 2.5,-6.25 3.125,-6.25 c 2.08313,-4.99984 3.12484,-10.20812 3.125,-15.625 -1.6e-4,-3.33312 -1.04219,-9.16656 -3.125,-17.5 0.41719,1.25 0.20781,2.08359 -0.625,2.5 -0.83281,0.41719 -2.29187,0.83438 -4.375,1.25 -1.66687,0.41719 -3.75016,1.45781 -6.25,3.125 -2.08344,1.25 -4.37516,3.33344 -6.875,6.25 -2.08344,2.50016 -3.75016,3.75016 -5,3.75 l -2.5,-4.375 c -12.08344,12.08344 -18.33344,21.45844 -18.75,28.125 -1.6e-4,4.58344 -0.625,6.87516 -1.875,6.875 -1.66672,1.6e-4 -2.50016,-0.83281 -2.5,-2.5 l 0.625,-3.125 c 0.41719,-4.16656 0.625,-7.29156 0.625,-9.375 0.41719,-2.08312 0.625,-3.12484 0.625,-3.125 2.49984,-3.33312 3.95828,-5.20812 4.375,-5.625 l 16.875,-28.75 c 1.25,-1.25 2.29156,-5.62484 3.125,-13.125 l -6.875,1.25 0,-0.625 0,-1.875 c 0.83281,-0.83281 2.29156,-2.08312 4.375,-3.75 2.08313,-1.66641 4.58313,-4.16641 7.5,-7.5 1.66656,-1.66641 2.49984,-3.33312 2.5,-5 l 0,-11.25 0.625,-2.5 -9.375,1.25 -8.125,8.125 -2.5,-0.625 -0.625,-7.5 -6.875,3.75 c -7.08344,10.00016 -11.25016,17.70859 -12.5,23.125 l -2.5,-7.5 c 1.25,-10.83312 5.83328,-22.08312 13.75,-33.75 7.91656,-12.91641 11.87484,-24.16641 11.875,-33.75 -1.6e-4,-2.91641 -0.625,-6.04141 -1.875,-9.375 l 0.625,-3.125 c -1.6e-4,-2.08297 -1.04219,-3.12469 -3.125,-3.125 l -5.625,9.375 c -0.41719,0.41719 -0.83281,0.625 -1.25,0.625 -1.25,3.1e-4 -1.87516,-0.625 -1.875,-1.875 -1.6e-4,-1.66641 1.04219,-3.54141 3.125,-5.625 2.08328,-2.08297 4.99984,-7.49969 8.75,-16.25 l 1.25,-6.875 c 0.41719,-2.08297 0.625,-3.74969 0.625,-5 0.41719,-1.66641 0.625,-2.91641 0.625,-3.75 l -0.625,-5.625 -3.125,-12.5 c -0.83281,0.83438 -1.66672,2.50031 -2.5,5 -0.83281,2.50031 -1.66672,3.75031 -2.5,3.75 -0.83281,3.1e-4 -1.25,-0.41562 -1.25,-1.25 -1.6e-4,-0.83281 0.41719,-2.08297 1.25,-3.75 0.83281,-2.08297 1.25,-3.74969 1.25,-5 -1.6e-4,3.1e-4 -0.41719,-2.08297 -1.25,-6.25 l -3.125,-11.875 -1.25,-6.25 -3.125,-6.25 m 258.125,4.375 c 1.66625,0.83438 2.91625,1.45938 3.75,1.875 1.25,0.41719 2.29125,0.83438 3.125,1.25 4.16625,1.66703 9.58297,5.00031 16.25,10 -4.58375,-2.49969 -8.75031,-4.58297 -12.5,-6.25 -3.75031,-2.08297 -10.41703,-3.95797 -20,-5.625 l -14.375,2.5 -1.875,1.25 8.125,0 c 8.33297,3.1e-4 14.58297,1.45938 18.75,4.375 -8.33375,-2.08297 -15.00031,-3.12469 -20,-3.125 -6.25031,3.1e-4 -11.25031,0.83438 -15,2.5 -9.58359,2.50031 -16.45859,5.83375 -20.625,10 l -1.25,0.625 -1.875,2.5 -3.125,0.625 0.625,1.25 -10,5.625 -5,5 -5,4.375 -3.125,5 1.875,0.625 -1.25,0.625 -1.875,3.125 -6.25,4.375 -3.125,6.875 15,-6.25 21.875,-6.25 c -0.83281,1.66703 -1.45781,2.70859 -1.875,3.125 l -6.25,0.625 -15,4.375 c -4.16687,0.83281 -7.50031,2.50031 -10,5 l -8.75,5.625 1.875,-0.625 c -2.50031,3.75031 -4.16687,8.12531 -5,13.125 l 5.625,-5 4.375,-3.125 3.75,-3.125 6.875,-2.5 0.625,1.875 -5,2.5 c 3.33297,-0.83281 4.99969,-1.66641 5,-2.5 l -0.625,-1.875 c 0.41719,0.41719 0.625,1.04219 0.625,1.875 -3.1e-4,2.08359 -2.08359,3.33359 -6.25,3.75 l -3.75,2.5 c -11.25031,9.58359 -16.87531,21.04188 -16.875,34.375 1.66641,-2.08312 2.70813,-3.95812 3.125,-5.625 9.99969,-18.33297 21.87469,-27.49969 35.625,-27.5 2.91641,3.1e-4 4.79141,0.20938 5.625,0.625 l 23.125,7.5 c 2.08297,0.41719 3.95797,0.83438 5.625,1.25 1.66641,3.1e-4 3.54125,3.1e-4 5.625,0 6.24969,3.1e-4 9.37469,-1.25 9.375,-3.75 -3.1e-4,-2.49969 -1.45937,-5.20797 -4.375,-8.125 l 6.875,1.875 3.125,3.75 c 1.66625,1.66703 7.08297,3.12531 16.25,4.375 1.66625,3.1e-4 3.54125,0.20938 5.625,0.625 2.08297,3.1e-4 4.58297,0.20938 7.5,0.625 -0.41719,0.41719 -0.625,-3.74969 -0.625,-12.5 -3.1e-4,-12.49969 -2.70875,-20.83297 -8.125,-25 -1.25,-1.25 -2.70875,-2.29141 -4.375,-3.125 -1.25,-1.25 -2.70875,-2.29141 -4.375,-3.125 l 1.25,0 -1.25,-1.875 3.75,-5.625 -8.125,-5 -8.125,-1.25 c -1.25,-0.41563 -2.91703,-0.625 -5,-0.625 l -3.125,0 c -3.75031,3.1e-4 -8.12531,0.83437 -13.125,2.5 l -4.375,0 2.5,0 c -8.33359,1.25 -11.87531,1.87531 -10.625,1.875 -1.25,3.1e-4 -1.87531,-0.41563 -1.875,-1.25 -3.1e-4,-1.25 1.66641,-2.91625 5,-5 11.66641,-4.58297 20.83297,-6.87469 27.5,-6.875 7.91625,3.1e-4 16.04125,2.29203 24.375,6.875 1.66625,0.41719 3.54125,1.45937 5.625,3.125 l 4.375,3.125 3.125,3.125 -3.75,-10 -6.25,-6.25 -2.5,-2.5 -1.875,-1.875 c 3.74969,1.25 6.45797,3.33375 8.125,6.25 l 5,5 c 0.83281,1.25 1.45781,2.91703 1.875,5 0.83281,1.66703 1.66625,3.54203 2.5,5.625 l 0,3.125 c -4.7e-4,1.66703 0.20781,3.12531 0.625,4.375 -4.7e-4,1.66703 0.625,5.20859 1.875,10.625 l 0.625,2.5 1.875,5.625 3.125,5.625 c 0.41563,3.75031 1.66625,5.62531 3.75,5.625 2.08297,3.1e-4 4.16625,-1.66641 6.25,-5 2.08297,-3.33297 3.33297,-4.99969 3.75,-5 0.83281,3.1e-4 1.66625,0.41719 2.5,1.25 0.41563,0.83438 0.625,2.29203 0.625,4.375 -4.7e-4,0.83438 -1.25,5.00031 -3.75,12.5 -0.83437,3.33359 -1.25,5.20859 -1.25,5.625 -4.7e-4,4.16703 2.29125,9.79187 6.875,16.875 l 3.75,5.625 1.875,7.5 c 18.33281,-8.33312 28.33281,-20.41641 30,-36.25 5.83281,3.1e-4 8.74953,-0.83281 8.75,-2.5 -4.7e-4,-1.66641 -0.20937,-2.91641 -0.625,-3.75 l -0.625,-6.875 0,-3.75 c 0.83281,-11.24969 -3.33375,-20.83297 -12.5,-28.75 l -5,-5.625 -1.875,-3.75 5,2.5 9.375,8.125 7.5,10.625 3.125,6.25 1.875,6.25 1.875,7.5 c 1.25,4.58359 1.87453,10.41703 1.875,17.5 -4.7e-4,7.08359 -0.625,12.08359 -1.875,15 l -1.875,6.875 -1.875,7.5 c 4.16625,-2.91641 7.08281,-9.58313 8.75,-20 l 1.875,0 0.625,5 1.875,-4.375 0.625,-9.375 1.875,-1.25 0,-4.375 0.625,-7.5 0,-3.125 c 0.41563,-4.16641 -3.54219,-11.04141 -11.875,-20.625 l -2.5,-5 -5.625,-5 -3.125,-4.375 -4.375,-3.125 -5,-5 -3.75,-2.5 -3.75,-3.125 -3.125,-2.5 c -3.33375,-2.49969 -7.29203,-4.16625 -11.875,-5 l -1.875,-1.25 0,-0.625 -3.75,-0.625 -2.5,-1.25 0,3.75 c -1.66703,3.1e-4 -2.91703,-0.20781 -3.75,-0.625 -0.41719,-0.83281 -1.04219,-1.45781 -1.875,-1.875 -0.41719,-0.83281 -1.25,-1.66625 -2.5,-2.5 -1.25,-0.83281 -3.12547,-1.45781 -5.625,-1.875 l -6.875,-0.625 3.75,3.75 1.875,0.625 6.875,5 1.875,1.875 4.375,6.25 1.875,3.125 -6.25,-3.75 c -1.66703,-1.66625 -3.54203,-3.33297 -5.625,-5 -2.08375,-1.66625 -4.16703,-3.54125 -6.25,-5.625 l -3.125,-1.875 -1.875,-1.875 -6.25,-3.125 -5,-1.875 -13.75,-0.625 -3.75,0.625 m -251.875,3.125 1.875,1.875 -0.625,-5.625 -2.5,-0.625 1.25,4.375 m 68.75,1.25 -3.125,3.125 -1.25,0.625 0,1.875 c 5.83313,-3.33297 9.79141,-4.99969 11.875,-5 1.66641,3.1e-4 4.16641,1.04219 7.5,3.125 l 0.625,2.5 0,0.625 c -1.6e-4,1.66703 0.41719,2.50031 1.25,2.5 2.91641,3.1e-4 4.37484,-2.08297 4.375,-6.25 -1.6e-4,-4.16625 -1.66687,-6.66625 -5,-7.5 -0.83437,-0.41563 -2.08359,-0.625 -3.75,-0.625 -2.50016,3.1e-4 -6.66687,1.66703 -12.5,5 m -63.75,0.625 -0.625,3.125 -0.625,14.375 0.625,3.75 2.5,-1.875 1.875,2.5 1.25,0 -0.625,-9.375 c -1.6e-4,-2.91625 -1.45781,-7.08297 -4.375,-12.5 m 322.5,7.5 15,13.125 10,10.625 c 4.16625,2.91703 7.91625,4.37531 11.25,4.375 7.91625,3.1e-4 11.87453,-3.33297 11.875,-10 -4.7e-4,-4.58297 -3.12547,-7.91625 -9.375,-10 1.66625,1.66703 2.49953,3.33375 2.5,5 -4.7e-4,0.83437 -1.04219,2.91703 -3.125,6.25 l -4.375,0.625 c -2.91719,3.1e-4 -8.54219,-3.54125 -16.875,-10.625 l -2.5,-1.25 c -4.58375,-4.58297 -9.37547,-7.29125 -14.375,-8.125 m -265,3.75 -4.375,0 -17.5,11.25 -4.375,6.25 -4.375,3.125 -7.5,14.375 -3.125,5.625 -0.625,6.25 -0.625,1.875 2.5,-0.625 c 0.41719,-1.25 1.04219,-2.70797 1.875,-4.375 0.83281,-2.08297 1.66656,-4.16641 2.5,-6.25 l 6.875,-10 c 7.08313,-9.58297 16.87484,-14.37469 29.375,-14.375 4.99984,3.1e-4 9.58313,2.08375 13.75,6.25 l 1.25,0 -0.625,1.25 c 1.25,0.83437 1.87484,2.08359 1.875,3.75 l 0,2.5 c -1.66687,5.41703 -5.41687,8.12531 -11.25,8.125 -1.66687,3.1e-4 -2.91687,-0.41719 -3.75,-1.25 l -11.875,-5.625 -1.875,0 c -5.00016,3.1e-4 -7.50016,2.29203 -7.5,6.875 -1.6e-4,2.50031 1.45781,3.95859 4.375,4.375 0.83281,-4.58297 2.49984,-6.87469 5,-6.875 0.41719,3.1e-4 3.54156,1.66703 9.375,5 5.41641,2.91703 9.79141,4.37531 13.125,4.375 4.16641,3.1e-4 7.70813,-1.66641 10.625,-5 3.33313,-3.33297 4.99984,-7.29141 5,-11.875 -1.6e-4,-2.49969 -0.83437,-5.20797 -2.5,-8.125 l -4.375,-3.75 -1.25,-1.875 c 3.33313,-1.25 4.99984,-2.49969 5,-3.75 -1.6e-4,-2.49969 -2.50016,-4.37469 -7.5,-5.625 -0.41719,-0.41563 -1.25,-0.625 -2.5,-0.625 -1.25,3.1e-4 -2.08359,-0.20781 -2.5,-0.625 -7.08359,-1.66625 -11.04187,-2.08297 -11.875,-1.25 l -0.625,0.625 m 336.875,5.625 0,3.75 1.875,3.75 4.375,11.25 1.875,5.625 c 0.41563,0.83437 0.83281,3.33359 1.25,7.5 0.83281,4.16703 2.08281,9.79203 3.75,16.875 l 0.625,3.75 0.625,10 0,8.75 c 0.41563,9.58359 -0.83437,19.58359 -3.75,30 l -1.25,3.75 c -4.7e-4,3.33359 -0.20937,5.62531 -0.625,6.875 7.08281,2.91687 11.04109,4.37531 11.875,4.375 0.83281,3.1e-4 1.25,-1.66641 1.25,-5 0.41563,-1.66641 1.04063,-5.41641 1.875,-11.25 1.25,-6.24969 1.66609,-12.29141 1.25,-18.125 l 0,-7.5 c -2.50047,-41.66641 -10.83391,-66.45797 -25,-74.375 m 15,6.875 0,4.375 c 2.91609,6.25031 6.04109,9.37531 9.375,9.375 4.16609,3.1e-4 6.24938,-2.49969 6.25,-7.5 l -0.625,-1.875 c -2.91719,1.66703 -5.00047,2.50031 -6.25,2.5 -2.08391,3.1e-4 -4.58391,-2.08297 -7.5,-6.25 l -1.25,-0.625 m -16.25,5 0,9.375 c 4.16609,10.00031 6.24953,18.54203 6.25,25.625 -4.7e-4,12.08359 -3.12547,19.58359 -9.375,22.5 l -6.25,0.625 -4.375,-1.875 c -2.08391,-5.41641 -3.12547,-8.74969 -3.125,-10 -4.7e-4,-3.74969 2.70781,-5.62469 8.125,-5.625 2.08281,3.1e-4 4.16609,1.66703 6.25,5 0.41563,-1.66641 0.625,-2.91641 0.625,-3.75 0.41563,-1.25 0.625,-2.29141 0.625,-3.125 -4.7e-4,-3.74969 -1.45937,-5.62469 -4.375,-5.625 -11.66719,0.83437 -17.08375,6.25031 -16.25,16.25 l 0.625,8.125 2.5,6.875 c 1.66609,2.50031 4.16609,3.75031 7.5,3.75 l 1.875,0 0,9.375 -0.625,1.875 c -4.7e-4,1.66687 0.83281,2.50031 2.5,2.5 l 1.875,-0.625 c 0.41563,-0.41563 1.04063,-1.04063 1.875,-1.875 1.25,-0.83281 2.70781,-2.08313 4.375,-3.75 l 7.5,-6.875 c 2.49953,-2.91641 3.74953,-9.16641 3.75,-18.75 -4.7e-4,-17.91641 -3.95891,-34.58297 -11.875,-50 m -427.5,5.625 0,1.875 -1.25,1.25 -0.625,1.25 0.625,9.375 c -1.6e-4,3.75031 1.04219,6.04203 3.125,6.875 l 0,-6.875 c -0.83281,-7.08297 1.25,-10.62469 6.25,-10.625 2.08328,3.1e-4 3.74984,1.45781 5,4.375 l 0,5.625 c -1.6e-4,8.33359 -1.45781,18.54203 -4.375,30.625 -0.83281,4.16703 -1.25,6.04187 -1.25,5.625 l -2.5,14.375 -1.25,4.375 0.625,9.375 1.25,0.625 8.75,-46.875 2.5,-8.75 c 0.83281,-4.16641 1.25,-7.08297 1.25,-8.75 l 0,-6.875 c -1.6e-4,-9.16641 -3.12516,-13.74969 -9.375,-13.75 l -1.25,0 -7.5,6.875 m 176.875,0.625 -3.125,2.5 0,3.75 c 1.66641,-1.25 3.12469,-1.87469 4.375,-1.875 1.25,3.1e-4 2.08313,0.20937 2.5,0.625 1.25,3.33359 1.87469,5.41703 1.875,6.25 -3.1e-4,-2.08297 -0.41719,-2.08297 -1.25,0 -0.41719,1.66703 -1.04219,5.41703 -1.875,11.25 l -0.625,0 -3.125,11.875 0,7.5 2.5,-6.25 1.875,-5.625 8.75,-20 c 0.41719,-0.41719 0.625,-1.45781 0.625,-3.125 -3.1e-4,-6.24969 -2.50031,-9.37469 -7.5,-9.375 -2.08359,3.1e-4 -3.75031,0.83437 -5,2.5 m 124.375,13.125 -0.625,0.625 0,3.125 2.5,2.5 c 0.41563,-1.25 0.625,-2.08297 0.625,-2.5 0.41563,-0.83281 0.625,-1.25 0.625,-1.25 -4.7e-4,-0.83281 -1.04219,-1.66641 -3.125,-2.5 m -238.75,1.25 c -2.50016,1.25 -4.37516,3.54203 -5.625,6.875 3.33313,-1.25 5.83313,-2.08297 7.5,-2.5 2.08313,-0.83281 3.12484,-1.25 3.125,-1.25 -1.6e-4,-2.08297 -1.66687,-3.12469 -5,-3.125 m -5,11.25 c -1.66687,0.83281 -3.33344,1.87531 -5,3.125 -1.66687,1.25 -3.33344,2.91703 -5,5 l -1.25,5 c 10.83313,-9.58297 20.62484,-14.37469 29.375,-14.375 4.16656,3.1e-4 9.79156,2.91703 16.875,8.75 -1.66687,-7.91641 -7.91687,-11.87469 -18.75,-11.875 -5.41687,3.1e-4 -10.83344,1.45938 -16.25,4.375 m 245,-1.25 0,3.75 c 2.49953,0.83438 3.54125,1.25 3.125,1.25 2.08297,3.1e-4 3.12453,-1.04219 3.125,-3.125 -4.7e-4,-2.49969 -1.45937,-3.74969 -4.375,-3.75 l -0.625,0 -1.25,1.875 m -199.375,0 c -3.75016,2.08359 -5.62516,3.95859 -5.625,5.625 -1.6e-4,3.75031 1.87484,5.62531 5.625,5.625 3.33313,3.1e-4 4.99984,-2.08297 5,-6.25 -1.6e-4,-2.49969 -1.66687,-4.16641 -5,-5 m -36.875,5.625 -5.625,1.25 c -0.41719,0.83281 -0.625,2.29203 -0.625,4.375 -1.6e-4,1.25 0.83281,1.87531 2.5,1.875 1.66656,3.1e-4 2.91656,-2.49969 3.75,-7.5 m 331.25,2.5 c 0.41563,1.25 0.625,3.33359 0.625,6.25 -4.7e-4,12.91687 -4.79219,23.54187 -14.375,31.875 -7.91719,4.16687 -14.58375,6.25031 -20,6.25 l -1.25,0 -5.625,0 -8.125,-0.625 -3.125,0 c -0.83437,3.1e-4 -1.25,0.625 -1.25,1.875 -4.7e-4,2.91687 0.20781,4.79187 0.625,5.625 -0.83437,0.41719 -1.45937,0.83437 -1.875,1.25 -0.41719,3.1e-4 -0.625,3.1e-4 -0.625,0 -0.83437,-0.41719 -1.66703,-0.83281 -2.5,-1.25 -0.83437,-0.83281 -2.08375,-1.66641 -3.75,-2.5 -1.25,-0.41719 -5.62547,-1.04219 -13.125,-1.875 -0.83437,-0.41719 -2.70875,-0.625 -5.625,-0.625 -2.08375,3.1e-4 -3.12547,0.625 -3.125,1.875 -4.7e-4,0.41719 0.41563,1.04219 1.25,1.875 l 3.75,8.125 1.875,3.75 c 0.41563,2.08359 1.04063,3.75031 1.875,5 1.25,1.25 3.54125,3.95859 6.875,8.125 2.49953,1.25 4.16625,3.54188 5,6.875 -8.33375,0.83281 -12.50047,1.87516 -12.5,3.125 -4.7e-4,1.25 0.83281,2.70859 2.5,4.375 2.08297,1.25 4.37453,2.50016 6.875,3.75 2.91625,0.83438 5.62453,1.66688 8.125,2.5 2.91625,0.41719 5.41625,0.625 7.5,0.625 4.16625,1.6e-4 9.37453,-0.625 15.625,-1.875 l 1.25,0.625 -1.875,0.625 0.625,0 -3.125,0.625 c -2.08375,0.83437 -3.95875,1.66687 -5.625,2.5 -1.66703,0.83437 -3.54203,1.66687 -5.625,2.5 l -15.625,1.875 c 4.99953,2.50016 9.79125,3.75016 14.375,3.75 13.74953,1.6e-4 26.87453,-9.16641 39.375,-27.5 l -2.5,-1.25 2.5,-10 5,-3.125 c 2.91625,-1.66641 4.37453,-5.41641 4.375,-11.25 l -2.5,3.125 -5.625,4.375 -4.375,4.375 -6.875,3.125 -9.375,3.75 -2.5,0 0.625,-0.625 0,-1.875 c 10.83281,-4.58313 18.12453,-8.12469 21.875,-10.625 7.91625,-5.41641 12.29125,-11.45813 13.125,-18.125 -1.66719,0.83437 -3.12547,1.45781 -4.375,1.875 -1.25,3.1e-4 -2.29219,0.20938 -3.125,0.625 l 0,-1.25 c 6.24953,-3.74969 9.37453,-7.70813 9.375,-11.875 l 0,-1.25 -1.875,0.625 c -0.41719,2.91687 -1.45937,4.37531 -3.125,4.375 -0.83437,3.1e-4 -1.45937,-0.625 -1.875,-1.875 -4.7e-4,-0.83281 1.45781,-2.49969 4.375,-5 1.66625,-1.25 2.49953,-3.12469 2.5,-5.625 -4.7e-4,-5.41641 -1.66719,-12.70797 -5,-21.875 m -94.375,0 -1.25,1.25 c -0.41719,0.83437 -0.625,2.50031 -0.625,5 -3.1e-4,2.50031 1.04063,3.75031 3.125,3.75 l 1.25,0 1.25,-3.75 c 0.41563,-0.41563 0.625,-1.04063 0.625,-1.875 -4.7e-4,-1.66641 -1.45937,-3.12469 -4.375,-4.375 m -220.625,1.875 c -1.6e-4,2.50031 0.625,3.75031 1.875,3.75 2.08313,3.1e-4 3.12484,-1.04219 3.125,-3.125 -1.6e-4,-0.83281 -0.20781,-1.25 -0.625,-1.25 l -3.75,-1.25 -0.625,1.875 m 233.75,1.25 c -0.83437,3.33359 -1.25,4.79203 -1.25,4.375 -4.7e-4,2.08359 0.83281,3.12531 2.5,3.125 1.25,3.1e-4 1.87453,-0.625 1.875,-1.875 l 0,-1.25 0,-5.625 -2.5,0 -0.625,1.25 m -263.75,1.25 c -0.83281,2.50031 -2.08344,4.37531 -3.75,5.625 l -0.625,5 c 1.25,-2.91641 2.91656,-4.79141 5,-5.625 2.49984,-1.25 4.16656,-2.29141 5,-3.125 l 0,-1.25 c -1.6e-4,-1.66641 -0.625,-2.49969 -1.875,-2.5 l -0.625,0.625 -3.125,1.25 m 37.5,5 -1.25,2.5 c 2.91656,1.66703 5.62484,2.50031 8.125,2.5 2.91641,3.1e-4 4.37484,-1.45781 4.375,-4.375 -1.6e-4,-4.16641 -2.08359,-6.24969 -6.25,-6.25 -4.16687,3.1e-4 -5.83344,1.25 -5,3.75 l 0,1.875 m 113.125,-4.375 -1.25,0 -4.375,1.875 c -2.91687,0.41719 -4.37531,2.08359 -4.375,5 -0.83281,4.58359 -2.29187,6.87531 -4.375,6.875 -0.83437,3.1e-4 -1.25,-1.25 -1.25,-3.75 l 0,-0.625 -3.75,6.25 c -7.50031,12.08359 -11.25031,24.37531 -11.25,36.875 -3.1e-4,4.58359 0.20781,7.50031 0.625,8.75 l 1.25,4.375 1.25,6.875 0.625,2.5 1.875,5.625 -0.625,1.875 1.875,0.625 2.5,-8.75 1.875,1.25 0,-1.25 -2.5,8.75 -0.625,7.5 3.75,5.625 0.625,-11.25 3.125,-0.625 -1.875,20 4.375,5 0.625,-6.875 -0.625,-15.625 1.875,-5 3.75,-10.625 c 0.83281,-1.66641 1.66641,-3.33313 2.5,-5 1.25,-2.08313 2.70797,-4.58313 4.375,-7.5 1.25,-2.49969 2.70797,-3.74969 4.375,-3.75 l 0.625,0 -3.75,5.625 4.375,-6.25 -3.125,5.625 c -1.66703,2.08359 -2.91703,3.95859 -3.75,5.625 -0.41719,1.66687 -0.83437,2.91687 -1.25,3.75 l -3.75,10.625 c -0.83281,4.16687 -1.25,6.25016 -1.25,6.25 -3.1e-4,-0.41563 0.41719,0.625 1.25,3.125 l 0.625,-1.25 -0.625,4.375 -3.125,10 0.625,9.375 -0.625,3.125 c -3.1e-4,1.66687 1.04063,2.91687 3.125,3.75 l 1.25,-2.5 c -1.25,-1.66641 -1.87531,-2.91641 -1.875,-3.75 l 0,-0.625 0.625,-3.75 c 0.83281,-2.91641 1.45781,-4.58313 1.875,-5 l 1.25,-0.625 -0.625,9.375 c -0.83437,4.16687 -1.25,6.25016 -1.25,6.25 -3.1e-4,1.6e-4 -3.1e-4,0.41719 0,1.25 0.41719,0.83281 0.83281,2.08344 1.25,3.75 l 2.5,2.5 0.625,-11.25 2.5,0 0,11.25 c -0.83437,2.50016 -3.1e-4,4.58344 2.5,6.25 l 1.25,1.875 -0.625,-6.25 0,-7.5 c -3.1e-4,-9.58313 3.12469,-17.49984 9.375,-23.75 l 13.125,-11.25 c 8.33297,-8.33313 12.49969,-16.24984 12.5,-23.75 l -0.625,-1.25 -0.625,-1.25 -8.125,-1.875 4.375,-5 10,-11.25 5.625,-11.25 c 1.25,-2.91641 1.87469,-5.83313 1.875,-8.75 -3.1e-4,-2.08313 -3.54203,-3.54141 -10.625,-4.375 -2.08359,3.1e-4 -3.95859,-0.625 -5.625,-1.875 l -7.5,-1.875 -3.75,1.25 -1.875,0 -3.75,5 -1.875,0 3.125,-2.5 -3.125,1.25 -1.25,-5.625 c -0.83437,-2.49969 -1.66703,-3.74969 -2.5,-3.75 -2.50031,3.1e-4 -7.70859,4.58359 -15.625,13.75 l 0.625,-0.625 c -3.33359,3.33359 -5.83359,7.70859 -7.5,13.125 l -2.5,6.25 -0.625,6.25 -1.25,5.625 -2.5,1.25 c 1.25,-0.41719 2.29141,-1.45781 3.125,-3.125 l -3.125,1.875 c -0.41719,-1.25 -0.625,-3.74969 -0.625,-7.5 -3.1e-4,-10.41641 5.41641,-25.41641 16.25,-45 m -135.625,2.5 c -6.66687,1.66703 -12.08344,4.79203 -16.25,9.375 -3.75016,4.16687 -6.45844,7.50031 -8.125,10 -0.83281,0.83438 -1.66672,2.29187 -2.5,4.375 -0.83281,1.66687 -2.08344,3.95859 -3.75,6.875 l -20,35 1.875,1.875 c 5.41656,-7.08312 11.66656,-11.04141 18.75,-11.875 l 0.625,5.625 c 2.91656,-16.66641 8.54156,-27.91641 16.875,-33.75 l 6.875,-5 c 1.25,-1.25 4.16656,-1.87469 8.75,-1.875 4.58313,3.1e-4 8.74984,2.29187 12.5,6.875 2.91656,-0.41719 4.37484,-1.87469 4.375,-4.375 l 0,-0.625 c -1.6e-4,-2.08312 -0.625,-4.99969 -1.875,-8.75 l -3.125,-1.875 -5.625,-1.875 -1.25,3.125 -0.625,0 -0.625,-0.625 c 2.91656,-5.83297 4.37484,-9.99969 4.375,-12.5 -1.6e-4,-1.25 -1.04219,-1.87469 -3.125,-1.875 l -2.5,0.625 -5.625,1.25 m 36.875,6.25 c 4.16641,3.1e-4 6.24984,-1.66641 6.25,-5 l -1.25,-1.25 -3.75,-0.625 -1.25,6.875 m 160,-3.125 -1.25,0 c -0.41719,0.83281 -0.625,2.08359 -0.625,3.75 -3.1e-4,2.08359 1.25,3.12531 3.75,3.125 3.74969,3.1e-4 5.62469,-1.25 5.625,-3.75 -3.1e-4,-2.08297 -1.45937,-3.12469 -4.375,-3.125 l -3.125,0 m -182.5,3.75 c 2.49984,0.83281 3.54156,1.25 3.125,1.25 1.66656,3.1e-4 2.49984,-0.83281 2.5,-2.5 -1.6e-4,-2.08297 -1.04219,-3.12469 -3.125,-3.125 -2.08344,3.1e-4 -2.91687,0.83438 -2.5,2.5 l 0,1.875 m 229.375,-2.5 c -1.66703,3.1e-4 -2.50047,1.04219 -2.5,3.125 -4.7e-4,4.58359 1.87453,6.87531 5.625,6.875 1.25,3.1e-4 1.87453,-0.83281 1.875,-2.5 -4.7e-4,-5.41641 -1.45937,-7.91641 -4.375,-7.5 l -0.625,0 m -26.25,5 c 1.66625,1.66688 2.91625,2.50031 3.75,2.5 2.08297,3.1e-4 3.12469,-1.04219 3.125,-3.125 -3.1e-4,-2.08297 -1.25,-3.12469 -3.75,-3.125 -2.08375,3.1e-4 -3.12531,0.83438 -3.125,2.5 l 0,1.25 m 91.25,-2.5 -0.625,0 c -0.83437,3.1e-4 -1.66719,0.41719 -2.5,1.25 l 0,1.25 -0.625,0 c -4.7e-4,4.16688 1.45781,6.25031 4.375,6.25 2.08281,3.1e-4 3.12453,-1.87469 3.125,-5.625 -4.7e-4,-2.08297 -1.25,-3.12469 -3.75,-3.125 m -125.625,-0.625 -0.625,1.25 0.625,3.125 1.25,0.625 1.875,0.625 1.875,-0.625 2.5,0 0,-1.25 c -3.1e-4,-1.66641 -2.50031,-2.91641 -7.5,-3.75 m 47.5,0.625 c -1.66703,3.1e-4 -2.50031,1.04219 -2.5,3.125 -3.1e-4,2.91688 1.66625,4.37531 5,4.375 2.91625,3.1e-4 4.37453,-1.04062 4.375,-3.125 -4.7e-4,-2.91641 -2.08375,-4.37469 -6.25,-4.375 l -0.625,0 m -21.875,2.5 c -1.25,2.08359 -1.87531,3.33359 -1.875,3.75 -3.1e-4,2.91688 1.66625,4.37531 5,4.375 1.66625,3.1e-4 2.49969,-1.45781 2.5,-4.375 -3.1e-4,-3.33312 -1.04219,-4.99969 -3.125,-5 l -0.625,0 -1.875,1.25 m -185.625,0 -1.25,3.125 c 0.41719,0.41719 1.45781,0.625 3.125,0.625 0.83281,3.1e-4 1.25,-0.41719 1.25,-1.25 -1.6e-4,-0.83281 -1.04219,-1.66641 -3.125,-2.5 m 6.25,3.125 c -1.6e-4,2.50031 1.04063,3.75031 3.125,3.75 1.66641,3.1e-4 2.49984,-0.625 2.5,-1.875 -1.6e-4,-3.33312 -0.83437,-4.99969 -2.5,-5 -0.83437,3.1e-4 -1.66687,0.41719 -2.5,1.25 l -0.625,1.875 m 166.875,3.125 c -0.41719,0.41719 -0.625,1.66688 -0.625,3.75 -3.1e-4,2.50031 1.45781,3.75031 4.375,3.75 3.33297,3.1e-4 4.99969,-1.45781 5,-4.375 -3.1e-4,-3.33312 -1.66703,-4.99969 -5,-5 l -1.25,0 -1.25,0.625 -1.25,1.25 m -156.875,-1.875 c -3.33359,12.08359 -5.00016,16.66688 -5,13.75 -1.6e-4,3.1e-4 -1.6e-4,0.41719 0,1.25 0.41719,0.83438 0.83281,2.08359 1.25,3.75 1.25,5.00031 4.16641,7.50031 8.75,7.5 4.16641,3.1e-4 7.29141,-2.91641 9.375,-8.75 l -1.25,-1.25 c -2.50016,2.91688 -4.79187,4.37531 -6.875,4.375 -3.75016,3.1e-4 -5.62516,-3.12469 -5.625,-9.375 l 0,-3.75 0,-2.5 c -1.6e-4,-2.08312 -0.20937,-3.74969 -0.625,-5 m 260.625,1.25 c -2.08375,2.08359 -3.12547,3.54188 -3.125,4.375 -4.7e-4,0.83438 0.20781,1.87531 0.625,3.125 0.83281,1.25 1.66625,1.87531 2.5,1.875 3.33281,3.1e-4 4.99953,-2.08312 5,-6.25 -4.7e-4,-1.25 -1.66719,-2.29141 -5,-3.125 m -46.875,1.25 1.25,0.625 -0.625,0 c -2.50047,-0.41719 -3.75047,0.83281 -3.75,3.75 -4.7e-4,3.33359 1.66625,5.00031 5,5 2.08297,3.1e-4 3.12453,-1.04219 3.125,-3.125 -4.7e-4,-2.08312 -1.66703,-4.16641 -5,-6.25 m -21.25,1.25 c -0.41719,0.41719 -0.625,1.25 -0.625,2.5 -3.1e-4,1.66688 0.83281,2.50031 2.5,2.5 2.08297,3.1e-4 3.12453,-1.04219 3.125,-3.125 -4.7e-4,-0.41562 -1.66703,-1.04062 -5,-1.875 m -12.5,0 -0.625,0.625 c -0.41719,0.41719 -0.625,1.66688 -0.625,3.75 -3.1e-4,1.25 1.04063,1.87531 3.125,1.875 2.91625,3.1e-4 4.37469,-1.04219 4.375,-3.125 -3.1e-4,-2.08312 -1.25,-3.12469 -3.75,-3.125 l -2.5,0 m -7.5,5 0.625,0 -4.375,1.875 c -2.08375,0.83438 -6.45875,3.95859 -13.125,9.375 l -5.625,8.75 2.5,1.25 -1.875,1.875 -2.5,4.375 -1.875,0.625 c -0.41719,1.66688 -0.83437,3.54188 -1.25,5.625 -0.41719,2.08359 -0.83437,4.37531 -1.25,6.875 l 13.75,-11.875 c -0.83437,0.83438 -1.66703,1.66688 -2.5,2.5 -0.41719,0.83281 -0.83437,1.45781 -1.25,1.875 -5.41703,5.41688 -8.33375,10.62516 -8.75,15.625 l 0.625,3.75 5,-8.125 1.25,0.625 c -2.50031,6.25016 -3.75031,10.20859 -3.75,11.875 -3.1e-4,2.08359 2.49969,5.62516 7.5,10.625 -1.25,-4.16641 -1.87531,-7.70812 -1.875,-10.625 -3.1e-4,-8.74984 4.79125,-14.79141 14.375,-18.125 l 20.625,-5.625 3.125,-3.75 c 1.25,-1.25 1.87469,-2.29141 1.875,-3.125 -3.1e-4,-1.25 -2.29203,-2.29141 -6.875,-3.125 2.08297,-0.83281 3.74969,-1.45781 5,-1.875 1.25,-0.83281 2.29125,-1.45781 3.125,-1.875 l 4.375,-5.625 c 1.66625,-1.66641 2.49953,-2.91641 2.5,-3.75 l 2.5,-9.375 -2.5,0 -5,1.25 -13.125,1.875 -5.625,5 0.625,-1.875 -1.875,0 -2.5,-5 -1.875,-1.875 m -18.75,1.25 -1.875,1.875 c 0.41563,2.91688 1.04062,4.37531 1.875,4.375 1.66625,3.1e-4 2.49969,-1.04062 2.5,-3.125 l -0.625,-2.5 -1.875,-0.625 m 144.375,0.625 0.625,1.875 c -0.41719,3.33359 -0.83438,6.45859 -1.25,9.375 -0.41719,2.50031 -0.83438,4.58359 -1.25,6.25 l -5.625,20.625 c -0.83438,3.33359 -1.25,5.20859 -1.25,5.625 -4.7e-4,6.66688 3.74953,10.00016 11.25,10 4.16609,1.6e-4 7.91609,-2.29141 11.25,-6.875 1.25,-2.49984 1.87453,-4.79141 1.875,-6.875 -4.7e-4,-1.66641 -0.20938,-2.70812 -0.625,-3.125 l -1.25,-1.25 -3.125,5.625 c -3.33391,1.25 -5.41719,1.87516 -6.25,1.875 -0.83438,1.6e-4 -2.29219,-1.04219 -4.375,-3.125 -0.41719,-3.33312 -0.83438,-5.83312 -1.25,-7.5 -4.7e-4,-1.66641 -4.7e-4,-2.91641 0,-3.75 -4.7e-4,-2.91641 0.625,-6.87469 1.875,-11.875 1.66609,-5.41641 2.49953,-9.37469 2.5,-11.875 -4.7e-4,-1.25 -1.04219,-2.91641 -3.125,-5 m -45.625,1.875 c -1.66719,3.1e-4 -2.91719,1.04219 -3.75,3.125 l 0,0.625 c -4.7e-4,2.08359 1.04062,3.12531 3.125,3.125 2.49953,3.1e-4 3.74953,-1.25 3.75,-3.75 -4.7e-4,-2.08312 -1.04219,-3.12469 -3.125,-3.125 m 10,0.625 -0.625,0 c -1.25,0.83438 -1.87547,1.45781 -1.875,1.875 -4.7e-4,2.50031 1.25,3.75031 3.75,3.75 2.08281,3.1e-4 3.12453,-1.04219 3.125,-3.125 -4.7e-4,-1.66641 -1.45938,-2.49969 -4.375,-2.5 m -45.625,6.25 0.625,1.25 c 1.25,0.41719 2.08297,0.83281 2.5,1.25 0.83281,3.1e-4 1.25,3.1e-4 1.25,0 1.66625,3.1e-4 2.49953,-1.04062 2.5,-3.125 -4.7e-4,-2.91641 -1.45938,-4.37469 -4.375,-4.375 -2.50047,3.1e-4 -3.33375,1.25 -2.5,3.75 l 0,1.25 m -8.75,-3.75 c -1.66703,0.41719 -2.50047,1.87531 -2.5,4.375 -4.7e-4,1.66688 0.83281,2.50031 2.5,2.5 2.91625,3.1e-4 4.37453,-1.45781 4.375,-4.375 -4.7e-4,-1.66641 -1.25,-2.49969 -3.75,-2.5 l -0.625,0 m -60,2.5 c -1.25,2.08359 -1.87531,3.33359 -1.875,3.75 -3.1e-4,1.25 0.41562,1.87531 1.25,1.875 2.08297,3.1e-4 3.12469,-0.83281 3.125,-2.5 -3.1e-4,-2.08312 -0.83438,-3.12469 -2.5,-3.125 m -194.375,19.375 3.75,12.5 c 0.83281,0.83281 1.45781,1.45781 1.875,1.875 0.83281,0.41719 1.45781,0.83281 1.875,1.25 1.66656,-1.66641 2.70812,-2.91641 3.125,-3.75 -4.16688,-6.66641 -6.25016,-11.04141 -6.25,-13.125 l 0.625,-1.25 0,-1.25 0.625,-0.625 5.625,-7.5 c 0.41719,-0.41719 1.66656,-0.625 3.75,-0.625 9.99984,3.1e-4 18.95812,5.20859 26.875,15.625 l 3.75,6.875 1.875,4.375 1.875,5 1.25,2.5 1.25,1.25 c 2.08313,1.6e-4 3.12484,-0.83281 3.125,-2.5 l 0,-0.625 0,-1.875 -1.25,-3.125 -3.125,-8.125 c -2.50016,-7.49969 -7.50016,-13.54141 -15,-18.125 -7.08344,-4.58312 -13.33344,-6.87469 -18.75,-6.875 -11.25016,3.1e-4 -16.87516,6.04188 -16.875,18.125 m 246.875,-10 1.875,0.625 c -2.91703,0.41719 -4.37547,2.50031 -4.375,6.25 l 0,0.625 c 1.66625,1.25 3.33297,1.87531 5,1.875 l 0.625,0 c 1.66625,-1.66641 2.49953,-2.91641 2.5,-3.75 -4.7e-4,-2.91641 -1.45938,-4.58313 -4.375,-5 l -1.25,-0.625 m -63.125,6.875 1.875,0 c -1.25,3.1e-4 -2.50031,0.625 -3.75,1.875 0.41719,2.91688 1.45781,4.37531 3.125,4.375 2.49969,3.1e-4 3.74969,-1.25 3.75,-3.75 -3.1e-4,-2.08313 -0.83438,-3.12469 -2.5,-3.125 l -0.625,0 -1.875,0.625 m 60,3.125 c -0.83438,1.66687 -1.66703,2.91687 -2.5,3.75 -0.41719,0.83281 -0.625,1.25 -0.625,1.25 -3.1e-4,1.66687 1.04062,2.50031 3.125,2.5 1.66625,3.1e-4 2.49953,-0.625 2.5,-1.875 -4.7e-4,-2.08313 -0.83438,-3.95813 -2.5,-5.625 m 10,1.875 -1.875,2.5 c -0.41719,0.41719 -0.625,1.25 -0.625,2.5 -4.7e-4,0.83437 0.625,2.08359 1.875,3.75 3.33297,1.6e-4 4.99953,-0.625 5,-1.875 -4.7e-4,3.1e-4 -0.41719,-1.66641 -1.25,-5 l -3.125,-1.875 m 114.375,10 4.375,0 c 5.41609,1.6e-4 11.66609,3.12516 18.75,9.375 -2.50047,-9.58313 -7.91719,-14.37469 -16.25,-14.375 -3.75047,3.1e-4 -6.04219,1.66687 -6.875,5 m -133.125,-3.125 c -3.33375,2.08359 -5.00031,3.75016 -5,5 -3.1e-4,2.50016 1.25,3.95859 3.75,4.375 3.33297,-2.08313 4.99969,-3.95813 5,-5.625 -3.1e-4,-2.91641 -0.83438,-4.37469 -2.5,-4.375 l -0.625,0.625 -0.625,0 m 97.5,0.625 -4.375,1.875 0.625,4.375 3.75,-6.25 m -333.125,19.375 c -0.41719,2.08359 -0.83281,3.75016 -1.25,5 -1.6e-4,1.25 -1.6e-4,2.08359 0,2.5 -1.6e-4,7.91687 4.79156,11.87516 14.375,11.875 1.66656,1.6e-4 2.70812,-0.20781 3.125,-0.625 l 15,-3.75 8.125,0.625 0.625,-1.875 c 0.41719,-0.41563 0.625,-1.04063 0.625,-1.875 -1.6e-4,-2.49984 -1.87516,-3.74984 -5.625,-3.75 l -21.25,5.625 -1.875,-1.25 -5,-1.25 c -2.08344,-0.83281 -3.12516,-2.29141 -3.125,-4.375 -1.6e-4,-5.41641 3.95812,-9.99984 11.875,-13.75 7.91656,-4.16641 17.29156,-6.24984 28.125,-6.25 -1.6e-4,-4.16641 -1.45781,-6.24969 -4.375,-6.25 l -0.625,0 -11.25,1.875 c -4.58344,0.83437 -7.08344,1.45937 -7.5,1.875 l -6.25,4.375 -4.375,1.875 c -2.50016,0.83281 -5.62516,3.95859 -9.375,9.375 m 222.5,-17.5 c -0.83438,3.33359 -1.25,4.79187 -1.25,4.375 -3.1e-4,1.66687 1.04062,2.50016 3.125,2.5 2.49969,1.6e-4 3.74969,-1.25 3.75,-3.75 -0.41719,-0.41719 -0.625,-0.625 -0.625,-0.625 -3.1e-4,-0.41719 -3.1e-4,-0.625 0,-0.625 l 0,-0.625 -3.125,-1.875 -1.875,0.625 m 21.875,6.25 c 2.08297,2.08359 3.54125,3.12516 4.375,3.125 2.91625,1.6e-4 4.37453,-1.45781 4.375,-4.375 -4.7e-4,-3.33313 -1.45938,-4.99984 -4.375,-5 -2.91703,1.6e-4 -4.37547,2.08359 -4.375,6.25 m -186.25,-6.875 -0.625,2.5 0,0.625 c -1.6e-4,2.91687 0.83281,4.37516 2.5,4.375 2.08313,1.6e-4 3.12484,-1.04219 3.125,-3.125 -1.6e-4,-1.66641 -1.66688,-3.12484 -5,-4.375 m 203.125,3.75 -2.5,0.625 0,1.875 c -4.7e-4,2.91687 0.83281,4.37516 2.5,4.375 2.91625,1.6e-4 4.37453,-1.45781 4.375,-4.375 l -0.625,-0.625 -0.625,-1.25 -3.125,-0.625 m 110.625,1.25 -6.25,3.75 -5,6.25 -8.125,23.125 c -2.08391,5.41687 -6.25047,8.95859 -12.5,10.625 l -1.875,0 c -7.50047,1.6e-4 -11.25047,-3.95813 -11.25,-11.875 -4.7e-4,-2.91641 2.29125,-6.66641 6.875,-11.25 l -4.375,0 c -6.66719,-0.41719 -10.00047,4.16687 -10,13.75 -4.7e-4,11.25016 5.41625,16.87516 16.25,16.875 2.08281,1.6e-4 3.33281,-0.20781 3.75,-0.625 l 6.875,-3.125 0,6.25 c 10.41609,-2.91656 17.29109,-9.79141 20.625,-20.625 l 3.75,-11.875 c 0.41563,-2.91641 2.49953,-4.37484 6.25,-4.375 2.49953,1.6e-4 3.74953,1.66687 3.75,5 -4.7e-4,4.58359 -3.75047,10.62516 -11.25,18.125 l -4.375,5 -3.75,5 -5.625,12.5 c -0.41719,0.41719 -0.625,1.25 -0.625,2.5 -4.7e-4,1.25 1.04063,1.87516 3.125,1.875 2.08281,1.6e-4 3.54109,-0.20781 4.375,-0.625 -0.83437,2.91687 -1.45937,4.58344 -1.875,5 -2.08391,7.08344 -3.12547,10.83344 -3.125,11.25 -4.7e-4,14.58344 6.45781,21.87516 19.375,21.875 7.91609,1.6e-4 13.54109,-4.16656 16.875,-12.5 l 0.625,-1.25 0,-5.625 c -4.7e-4,-2.08313 -2.08391,-6.45813 -6.25,-13.125 -1.25,-1.66656 -1.87547,-3.54156 -1.875,-5.625 -4.7e-4,-1.25 0.41563,-2.29156 1.25,-3.125 l 10,0.625 -1.25,-3.125 -3.125,-3.125 c -0.83437,-0.41719 -2.29219,-0.625 -4.375,-0.625 -5.00047,1.6e-4 -7.50047,2.91687 -7.5,8.75 -4.7e-4,2.50016 0.83281,5.20844 2.5,8.125 l 3.125,11.25 0,5.625 -0.625,1.875 -0.625,0.625 -5,0.625 -6.25,-1.25 c -0.83437,-1.66656 -1.66719,-3.33313 -2.5,-5 -0.83437,-1.66656 -1.45937,-3.54156 -1.875,-5.625 0.41563,-3.74984 1.04063,-6.87484 1.875,-9.375 0.83281,-2.49984 1.66609,-4.58313 2.5,-6.25 l 8.75,-13.75 c 5.83281,-9.58313 8.74953,-19.79141 8.75,-30.625 -4.7e-4,-5.41641 -2.08391,-10.83313 -6.25,-16.25 -2.08391,-2.49984 -4.79219,-4.16641 -8.125,-5 l -5.625,-0.625 m -158.75,10.625 0,-1.875 c 2.91625,-1.66641 4.37469,-3.33313 4.375,-5 -3.1e-4,-2.49984 -1.04219,-3.74984 -3.125,-3.75 -3.33375,1.6e-4 -5.00031,1.87516 -5,5.625 -3.1e-4,1.66687 1.25,3.33359 3.75,5 m 16.25,-6.25 0.625,8.125 0.625,1.25 2.5,4.375 1.25,3.125 -0.625,-1.875 c -0.83437,0.83281 -1.45937,1.25 -1.875,1.25 -0.41719,1.6e-4 -1.66703,-1.04063 -3.75,-3.125 l -3.125,-1.875 -5,-1.25 -10,-2.5 -5.625,-3.125 c -0.41719,0.83437 -0.625,2.29187 -0.625,4.375 -3.1e-4,2.08359 0.625,3.95859 1.875,5.625 l 0,1.25 1.25,3.125 1.875,3.75 -2.5,0 0.625,0.625 c -3.75031,0.83437 -6.45875,2.70859 -8.125,5.625 l 3.125,1.25 c 0.83281,0.41719 1.66625,0.83437 2.5,1.25 0.83281,1.6e-4 2.08297,0.41719 3.75,1.25 8.74969,3.33359 13.33297,5.20859 13.75,5.625 1.66625,0.41719 3.54125,0.83437 5.625,1.25 2.49969,0.41719 5.20797,1.04219 8.125,1.875 l 0.625,-3.125 c 4.99969,2.50016 9.37453,3.75016 13.125,3.75 0.41563,1.6e-4 1.25,1.6e-4 2.5,0 1.25,-0.41563 2.91625,-0.83281 5,-1.25 l -10,-3.125 -1.25,-0.625 -6.875,-3.125 -2.5,-1.875 -1.25,0 -3.125,-2.5 1.25,0.625 -1.25,-1.25 1.25,-0.625 c 2.91625,1.66687 5.41625,3.12516 7.5,4.375 2.08297,0.83281 4.16625,1.45781 6.25,1.875 11.66625,3.75016 18.95797,5.62516 21.875,5.625 2.08297,1.6e-4 5.41625,-0.625 10,-1.875 l 1.25,-1.25 -8.75,-1.25 -7.5,-3.125 -0.625,-2.5 c 7.08297,2.91687 13.74953,4.37516 20,4.375 3.74953,1.6e-4 7.91625,-1.66641 12.5,-5 l -8.125,0.625 c -2.08375,1.6e-4 -6.66703,-1.04063 -13.75,-3.125 l -4.375,-1.875 -3.125,-0.625 -8.125,-5 -3.125,-3.125 -2.5,-1.875 0,-1.25 -4.375,-5 -3.75,-3.125 c -2.50031,-1.25 -6.04203,-2.29141 -10.625,-3.125 l -1.25,-0.625 -3.125,-1.25 m -7.5,1.875 c -0.83437,1.6e-4 -1.45937,0.625 -1.875,1.875 l 0,0.625 c -3.1e-4,1.25 0.83281,1.87516 2.5,1.875 1.25,1.6e-4 1.87469,-0.83281 1.875,-2.5 -3.1e-4,-1.25 -0.625,-1.87484 -1.875,-1.875 l -0.625,0 m 31.25,0.625 -0.625,0 c -0.41719,1.6e-4 -0.83437,0.625 -1.25,1.875 l -0.625,1.25 c -4.7e-4,1.66687 0.83281,2.50016 2.5,2.5 2.49953,1.6e-4 3.74953,-1.25 3.75,-3.75 -4.7e-4,-1.25 -1.25,-1.87484 -3.75,-1.875 m -235,3.75 c 10.41656,4.58359 17.29141,6.87516 20.625,6.875 15.83313,1.6e-4 23.74984,-2.08313 23.75,-6.25 -1.6e-4,-1.66641 -0.625,-2.49984 -1.875,-2.5 l -0.625,0 c -1.25,0.41719 -3.54187,1.25 -6.875,2.5 -3.33359,1.25 -6.25016,1.87516 -8.75,1.875 -2.50016,1.6e-4 -4.16687,-0.20781 -5,-0.625 l -18.75,-5.625 c -1.66687,1.6e-4 -2.50016,0.625 -2.5,1.875 l 0,1.875 m 240,4.375 c -0.41719,0.41719 -0.625,1.45937 -0.625,3.125 -4.7e-4,1.66687 0.83281,2.50016 2.5,2.5 1.66625,1.6e-4 2.49953,-0.83281 2.5,-2.5 l 0,-1.875 -4.375,-1.25 m -206.875,18.125 -3.125,8.125 c -0.83437,1.25 -1.87516,2.70859 -3.125,4.375 -0.83281,1.25 -1.66687,2.70844 -2.5,4.375 l -3.125,5 -6.875,11.25 -2.5,3.125 0,0.625 c -1.6e-4,2.08344 1.25,3.12516 3.75,3.125 l 0.625,0 6.875,-12.5 10.625,-15.625 c 0.83281,-2.08313 1.87484,-4.58313 3.125,-7.5 1.25,-2.91641 2.29141,-6.45813 3.125,-10.625 l 1.25,-6.875 -1.25,-0.625 c -2.50016,1.6e-4 -4.16687,1.66687 -5,5 -0.41719,2.91687 -1.04219,5.83359 -1.875,8.75 m 121.875,-6.25 c -3.33359,2.08359 -6.04203,4.79187 -8.125,8.125 l -0.625,11.25 -3.125,0 c -0.83437,1.6e-4 -1.66703,1.04219 -2.5,3.125 -0.41719,2.08344 -0.625,3.75016 -0.625,5 -3.1e-4,1.25 0.625,3.12516 1.875,5.625 l 0.625,1.875 3.75,8.75 1.25,1.875 1.875,2.5 5.625,6.875 c 7.91641,7.50016 13.95797,11.25016 18.125,11.25 l 2.5,-0.625 13.125,-1.875 c -3.1e-4,1.6e-4 3.74969,1.66687 11.25,5 l 1.25,1.875 c 0.41563,1.25 0.625,2.29172 0.625,3.125 0.41563,0.41719 0.625,0.625 0.625,0.625 -3.1e-4,2.08344 -1.45937,3.12516 -4.375,3.125 l -0.625,0 -8.125,-1.25 -5,0 3.125,0 -5,0 c -1.66703,-0.41719 -4.37531,0.41719 -8.125,2.5 -3.75031,1.66672 -5.62531,3.33344 -5.625,5 -3.1e-4,2.08344 4.16625,3.12516 12.5,3.125 l 1.25,0 c 2.49969,1.6e-4 8.74969,0.625 18.75,1.875 1.25,0.41719 5.20797,0.625 11.875,0.625 19.99953,1.6e-4 38.54125,-3.33328 55.625,-10 l 16.25,-6.25 3.75,-1.25 9.375,-4.375 13.125,-7.5 c 11.66625,-5.83313 18.95781,-15.83313 21.875,-30 -2.91719,0.83281 -5.20875,2.08344 -6.875,3.75 l -6.875,5.625 -6.875,5.625 -7.5,4.375 c -1.66719,0.83281 -3.75047,1.87516 -6.25,3.125 -2.50047,1.25 -5.83375,2.70844 -10,4.375 -3.33375,1.25 -7.08375,2.50016 -11.25,3.75 -10.83375,3.75016 -24.16703,5.62516 -40,5.625 -17.08375,1.6e-4 -30.83375,-2.49984 -41.25,-7.5 l -10.625,-5.625 -0.625,-1.25 -4.375,-2.5 -1.25,-0.625 -14.375,-13.125 -3.125,-4.375 c -1.25,-2.91656 -1.87531,-5.62484 -1.875,-8.125 -3.1e-4,-5.41641 2.29141,-8.12484 6.875,-8.125 2.08297,1.6e-4 4.58297,0.83281 7.5,2.5 l 3.125,3.125 1.25,0 0,-5 c 0.41563,-11.24984 -5.20875,-16.87484 -16.875,-16.875 l -1.875,0.625 -5,0.625 m -55.625,4.375 -0.625,1.25 c -1.66687,2.91687 -2.50031,5.41687 -2.5,7.5 -3.1e-4,3.33359 2.70813,6.87516 8.125,10.625 1.66641,1.66687 3.95813,2.50016 6.875,2.5 l 0.625,0 c -1.25,-1.66656 -2.50031,-3.33313 -3.75,-5 -1.25,-1.66656 -2.70859,-3.54141 -4.375,-5.625 -0.41719,-0.41563 -0.625,-1.66641 -0.625,-3.75 l 0,-6.875 -3.75,-0.625 m -58.75,8.75 c 21.66641,0.41719 43.12469,7.29187 64.375,20.625 1.25,0.83281 2.49969,1.66687 3.75,2.5 1.25,0.41719 2.29141,1.04219 3.125,1.875 7.08313,5.83344 12.49969,10.20844 16.25,13.125 4.16641,2.50016 6.66641,3.95844 7.5,4.375 0.83281,1.6e-4 1.45781,0.20781 1.875,0.625 2.49969,1.6e-4 4.16641,-0.625 5,-1.875 l -6.875,-5 -12.5,-8.75 -3.125,-3.125 -11.25,-7.5 -10.625,-6.25 -6.25,-3.125 -5.625,-2.5 -6.25,-2.5 -5.625,-2.5 -6.25,-1.25 -6.25,-1.875 -13.125,-1.875 -6.25,0 -1.875,5 m -41.875,24.375 0.625,2.5 0.625,2.5 c 2.91656,9.16687 8.54156,13.75016 16.875,13.75 l 2.5,0 c 0.41719,-0.41719 1.66641,-0.625 3.75,-0.625 2.49984,1.6e-4 4.37484,-0.20781 5.625,-0.625 l 8.125,5 c 2.08313,3.33344 3.12484,6.04187 3.125,8.125 -1.6e-4,14.58344 -4.79187,21.87516 -14.375,21.875 -7.08359,1.6e-4 -12.50016,-4.99984 -16.25,-15 l -0.625,-3.125 -0.625,-1.25 0,-0.625 c -1.6e-4,-1.66656 0.41719,-3.33313 1.25,-5 0.83281,-2.08313 1.25,-3.74984 1.25,-5 -1.6e-4,-1.66656 -0.83281,-2.49984 -2.5,-2.5 -2.91687,1.6e-4 -4.37516,3.54187 -4.375,10.625 -1.6e-4,6.66672 1.45781,12.08344 4.375,16.25 4.99984,7.91672 10.20813,11.87516 15.625,11.875 0.83281,1.6e-4 1.87484,-0.41719 3.125,-1.25 1.25,-1.25 2.08313,-1.87484 2.5,-1.875 l 4.375,-1.25 3.75,-3.125 c 4.99984,-6.24984 7.49984,-12.91656 7.5,-20 -1.6e-4,-14.99984 -4.58359,-22.49984 -13.75,-22.5 -1.66687,1.6e-4 -2.70859,0.20781 -3.125,0.625 l -9.375,3.125 c -0.41719,0.41719 -1.45781,0.625 -3.125,0.625 -7.91687,1.6e-4 -11.87516,-4.37484 -11.875,-13.125 -1.6e-4,-11.24984 7.08313,-18.74984 21.25,-22.5 2.49984,-1.66641 3.74984,-3.33313 3.75,-5 -1.6e-4,-0.83281 -0.83437,-1.25 -2.5,-1.25 -1.25,1.6e-4 -3.12516,0.625 -5.625,1.875 -0.41719,1.6e-4 -1.87516,0.625 -4.375,1.875 -10.00016,4.16687 -15.83344,12.50016 -17.5,25 m 136.875,-26.875 -3.125,10 0,10 1.875,6.25 1.25,1.875 0.625,1.25 1.25,2.5 5,5.625 c 2.49969,2.50016 4.37469,3.95844 5.625,4.375 l -3.75,-5.625 -1.875,-4.375 -5,-11.25 0,-16.25 -1.875,-4.375 m 184.375,18.75 -0.625,-1.25 -5.625,1.25 -9.375,3.75 c -2.50047,0.83281 -4.16719,1.25 -5,1.25 -6.66719,1.6e-4 -10.00047,-2.29156 -10,-6.875 -4.7e-4,-2.91656 2.08281,-5.83313 6.25,-8.75 -1.66719,-1.66641 -3.33375,-2.49984 -5,-2.5 -5.83375,1.6e-4 -8.75047,2.91687 -8.75,8.75 -4.7e-4,9.16687 4.79125,13.75016 14.375,13.75 6.24953,1.6e-4 14.16625,-3.12484 23.75,-9.375 m -271.25,-12.5 0,3.75 0,8.75 0,65 c -1.6e-4,11.66672 -0.83437,18.95844 -2.5,21.875 -2.08359,5.83344 -7.50016,10.83344 -16.25,15 -6.66687,4.16672 -11.66687,6.45844 -15,6.875 -5.83344,2.08344 -8.75016,4.16672 -8.75,6.25 -1.6e-4,1.66672 4.58313,2.5 13.75,2.5 l 156.875,-0.625 -1.25,-2.5 -5,-7.5 0,-3.125 c -3.1e-4,-1.66656 1.25,-3.75 3.75,-6.25 l -63.75,0.625 -8.75,-3.75 -2.5,-1.25 c -7.91687,-4.16656 -12.91687,-9.99984 -15,-17.5 -0.41719,-2.08328 -0.83437,-4.99984 -1.25,-8.75 -3.1e-4,-4.16656 -3.1e-4,-9.37484 0,-15.625 l 0.625,-14.375 0,-40 -1.875,-1.25 -5.625,-1.875 -2.5,-0.625 -25,-5.625 m 195.625,21.875 -9.375,-2.5 c 1.66625,6.25016 4.79125,11.66687 9.375,16.25 l 3.75,3.125 c 5.41625,2.91687 10.83297,4.37516 16.25,4.375 20.83281,1.6e-4 40.41625,-9.37484 58.75,-28.125 l -10,5.625 -5,3.75 -13.125,6.875 c -5.83375,2.50016 -11.66719,3.75016 -17.5,3.75 -4.16703,1.6e-4 -8.95875,-0.83281 -14.375,-2.5 l -3.75,-0.625 c -4.58375,-4.58313 -6.87547,-8.33313 -6.875,-11.25 -4.7e-4,-7.08313 3.12453,-10.62484 9.375,-10.625 l 1.25,0.625 10,3.75 -2.5,-5.625 -8.75,-4.375 -1.875,0 -2.5,0 c -10.00047,1.6e-4 -14.58375,4.16687 -13.75,12.5 l 0.625,5 m -282.5,-18.75 -1.875,3.125 -3.125,5.625 1.875,0 c 3.33328,-2.08313 4.99984,-3.54156 5,-4.375 -1.6e-4,-0.83281 -0.625,-2.29156 -1.875,-4.375 m 228.75,10.625 c -2.08375,5.00016 -3.12531,7.70844 -3.125,8.125 -3.1e-4,12.50016 6.45797,18.75016 19.375,18.75 6.24969,1.6e-4 10.83297,-2.70813 13.75,-8.125 0.41563,-0.41719 0.625,-1.04219 0.625,-1.875 l -1.25,-1.25 c -3.33375,2.50016 -5.83375,3.75016 -7.5,3.75 -2.08375,1.6e-4 -4.79203,-0.83281 -8.125,-2.5 -3.33375,-1.66656 -5.00031,-4.37484 -5,-8.125 -3.1e-4,-5.83313 4.16625,-9.37484 12.5,-10.625 l 28.75,-4.375 3.75,-2.5 -7.5,0 -5,0.625 -26.25,-0.625 c -4.16703,-0.41719 -9.16703,2.50016 -15,8.75 m -104.375,-3.125 0.625,34.375 0,3.75 c -3.1e-4,2.50016 -0.20781,4.37516 -0.625,5.625 l 0,10 c -3.1e-4,10.83344 0.83281,19.37516 2.5,25.625 l 3.125,6.25 2.5,1.875 1.25,-0.625 c -3.33359,-7.49984 -5.00031,-14.16656 -5,-20 l 0,-0.625 0.625,-11.875 0,-8.125 0.625,-6.875 -0.625,-36.875 -5,-2.5 m 247.5,15.625 c -2.91719,1.66687 -6.04219,5.20844 -9.375,10.625 l -5,4.375 -7.5,7.5 c -8.75047,5.41687 -16.04219,13.75016 -21.875,25 -5.00047,8.75016 -7.50047,15.00016 -7.5,18.75 -4.7e-4,1.25 0.41563,1.87516 1.25,1.875 1.66625,1.6e-4 2.70781,-0.41719 3.125,-1.25 0.83281,-1.25 2.29125,-4.99984 4.375,-11.25 0.83281,-0.83281 2.29125,-3.33328 4.375,-7.5 l 5,-8.125 c 0.41563,-0.41719 2.29125,-2.08328 5.625,-5 3.74953,-3.33328 9.16625,-8.12484 16.25,-14.375 1.66625,-1.66656 3.12453,-3.12484 4.375,-4.375 1.25,-1.25 2.29109,-2.70813 3.125,-4.375 l 3.125,-3.75 3.75,-5 0,-1.25 0,-0.625 c -4.7e-4,-0.83281 -0.625,-1.25 -1.875,-1.25 l -1.25,0 m -237.5,13.125 c 1.66641,2.91687 4.16641,4.37516 7.5,4.375 -0.83437,-3.33313 -1.25,-5.41656 -1.25,-6.25 -3.1e-4,-2.91656 2.08313,-4.37484 6.25,-4.375 l 1.875,0 8.125,3.125 5.625,0 -5,-3.125 -5,-3.75 c -3.33359,-2.08313 -6.87531,-3.12484 -10.625,-3.125 -5.83359,1.6e-4 -8.54187,2.70844 -8.125,8.125 l 0.625,5 m 39.375,1.875 -9.375,1.25 c -5.00031,0.83281 -9.37531,2.70844 -13.125,5.625 -3.75031,2.50016 -5.62531,4.16687 -5.625,5 -3.1e-4,2.50016 3.12469,3.75016 9.375,3.75 l 0.625,1.875 0.625,-1.25 -0.625,1.875 c -4.16687,0.41719 -7.29187,2.08344 -9.375,5 l -1.875,3.125 c -1.25,3.33344 -1.87531,5.83344 -1.875,7.5 l 0,3.125 c 2.08313,7.08344 7.49969,11.45844 16.25,13.125 -0.41719,-2.08328 -0.83281,-3.74984 -1.25,-5 -3.1e-4,-1.66656 -3.1e-4,-2.91656 0,-3.75 -3.1e-4,-3.33328 1.04063,-6.66656 3.125,-10 4.58297,-5.41656 9.16641,-8.33328 13.75,-8.75 l 13.125,-1.25 10,-6.875 5,-3.125 0,-1.875 -0.625,0 -0.625,-0.625 -1.25,-0.625 -3.125,-0.625 -1.875,-1.875 -5,-1.875 -6.25,-2.5 -3.75,-0.625 -6.25,-0.625 m 167.5,9.375 -8.125,4.375 -30,12.5 -9.375,2.5 -3.75,1.875 -5,1.25 c -5.83375,5.00016 -8.75047,9.58344 -8.75,13.75 -4.7e-4,8.33344 4.58297,12.50016 13.75,12.5 4.58297,1.6e-4 7.08297,-1.45781 7.5,-4.375 -6.66703,-1.25 -10.00047,-4.58328 -10,-10 -4.7e-4,-4.58328 4.37453,-8.54156 13.125,-11.875 8.33297,-3.33328 14.99953,-5.83328 20,-7.5 4.99953,-2.08328 7.91625,-3.33328 8.75,-3.75 0.83281,-0.83281 2.29125,-1.87484 4.375,-3.125 2.08281,-1.66656 4.79125,-3.95828 8.125,-6.875 l -0.625,-1.25 m -136.25,6.25 c -2.91703,0.83281 -6.45859,2.70844 -10.625,5.625 l -4.375,3.125 -11.875,13.75 0.625,0.625 c -2.08359,2.50016 -3.33359,5.83344 -3.75,10 -3.1e-4,1.25 -0.41719,3.54172 -1.25,6.875 -0.83437,2.91672 -1.25,5.20844 -1.25,6.875 -3.1e-4,1.25 0.20781,1.87516 0.625,1.875 l 3.75,1.25 4.375,-20.625 4.375,-7.5 c 0.83281,-2.08328 3.54141,-4.79156 8.125,-8.125 l -4.375,6.25 0,1.25 c -2.91703,4.16672 -4.37531,8.54172 -4.375,13.125 -3.1e-4,1.66672 0.83281,2.70844 2.5,3.125 2.91641,5.00016 6.24969,7.50016 10,7.5 7.91641,1.6e-4 11.87469,-3.74984 11.875,-11.25 -3.1e-4,-2.08328 -1.25,-4.16656 -3.75,-6.25 -0.41719,5.00016 -3.33359,7.70844 -8.75,8.125 l -2.5,-0.625 c -1.66703,-1.66656 -2.50031,-3.54156 -2.5,-5.625 -3.1e-4,-6.24984 3.74969,-12.91656 11.25,-20 l -1.25,-1.875 -3.75,3.125 -1.875,1.875 0,-1.875 c -3.1e-4,-0.41719 0.41563,-1.04219 1.25,-1.875 l 5.625,-1.875 11.875,-6.25 c 3.33297,-0.83281 5.62469,-1.25 6.875,-1.25 l 0.625,0 10,0 c 0.83281,1.6e-4 1.25,-0.625 1.25,-1.875 -3.1e-4,-2.08313 -3.33375,-3.12484 -10,-3.125 -5.83375,1.6e-4 -12.08375,1.87516 -18.75,5.625 m 143.125,20 c -3.75047,6.25016 -9.37547,11.66672 -16.875,16.25 -2.50047,2.08344 -4.58375,3.33344 -6.25,3.75 -12.50047,7.50016 -29.79203,11.875 -51.875,13.125 l -4.375,0 0,19.375 6.25,0 33.75,-1.25 c -1.25,0 -0.625,0.20781 1.875,0.625 2.91625,0 7.91625,0.20781 15,0.625 l 2.5,0 c 6.24953,0.83281 9.99953,-2.91656 11.25,-11.25 1.25,-6.66656 2.70781,-10 4.375,-10 l 6.875,-12.5 11.875,-25.625 c 1.66625,-2.91656 2.49953,-5.20828 2.5,-6.875 -4.7e-4,-2.49984 -1.04219,-3.74984 -3.125,-3.75 -1.66719,1.6e-4 -3.12547,1.04219 -4.375,3.125 l -3.125,6.25 c -1.66719,1.66672 -3.75047,4.37516 -6.25,8.125 m 18.75,-14.375 c -0.41719,2.50016 -2.08375,7.29172 -5,14.375 -2.91719,7.08344 -7.29219,16.66672 -13.125,28.75 -2.50047,4.16672 -3.95875,7.08344 -4.375,8.75 -2.08375,5 -3.75047,8.75 -5,11.25 -1.25,2.5 -2.29219,4.375 -3.125,5.625 -0.41719,0.83281 -1.04219,1.25 -1.875,1.25 -0.41719,-0.41719 -1.25,-0.625 -2.5,-0.625 l -0.625,0 -6.875,0 -57.5,-0.625 -2.5,5.625 75,-0.625 28.125,-58.75 c 1.66609,-2.91656 2.49953,-5.83328 2.5,-8.75 -4.7e-4,-0.83281 -1.04219,-2.91656 -3.125,-6.25 m 11.875,8.75 c -0.41719,0.83281 -0.625,2.29172 -0.625,4.375 -2.50047,7.50016 -3.75047,11.87516 -3.75,13.125 -4.7e-4,2.08344 0.20781,3.75016 0.625,5 l 0,6.875 0,-1.25 -2.5,0 c -3.33391,1.6e-4 -6.45875,1.45781 -9.375,4.375 l 0,0.625 -3.75,10 c 3.33281,-0.83281 4.99953,-1.25 5,-1.25 0.41563,0 3.54109,1.66672 9.375,5 l 3.125,3.75 c 1.66609,2.91672 2.49953,6.25 2.5,10 -4.7e-4,5.83344 -4.16719,11.66672 -12.5,17.5 l 8.125,-2.5 4.375,-5.625 c 0.41563,-1.25 1.25,-1.875 2.5,-1.875 l 1.25,1.25 c -4.7e-4,1.25 -0.83437,2.70844 -2.5,4.375 l 1.875,0.625 c 2.91609,-3.75 4.79109,-8.54156 5.625,-14.375 l 3.125,0 -1.25,10 c 3.74953,-1.66656 5.62453,-5.83328 5.625,-12.5 -4.7e-4,-8.33328 -1.45937,-15.41656 -4.375,-21.25 l 2.5,0 3.75,5.625 0,3.125 c 1.25,4.58344 1.87453,7.70844 1.875,9.375 -4.7e-4,0.41719 -0.20937,1.25 -0.625,2.5 -4.7e-4,1.25 -0.20937,2.91672 -0.625,5 l 1.25,1.875 c 2.49953,-2.91656 3.74953,-5.83328 3.75,-8.75 -4.7e-4,-0.41719 -0.20937,-1.25 -0.625,-2.5 -4.7e-4,-1.25 -0.20937,-2.91656 -0.625,-5 l 2.5,0 0,1.25 1.875,3.125 c 1.25,-2.91656 1.87453,-5.20828 1.875,-6.875 -4.7e-4,-1.66656 -1.25,-4.79156 -3.75,-9.375 l 3.125,-0.625 1.875,3.125 c 0.41563,-2.5 0.625,-4.58328 0.625,-6.25 0.41563,-2.08328 0.625,-3.74984 0.625,-5 -4.7e-4,-2.08328 -0.20937,-3.74984 -0.625,-5 l 0,-1.875 c -4.7e-4,-0.41719 1.25,-4.99984 3.75,-13.75 l -3.125,0 c -2.08391,1.6e-4 -4.58391,0.83281 -7.5,2.5 -0.83437,2.08344 -1.87547,3.75016 -3.125,5 -0.83437,1.6e-4 -3.12547,-1.87484 -6.875,-5.625 -3.33391,-3.74984 -5.00047,-6.45828 -5,-8.125 -0.83437,-4.58328 -1.66719,-6.87484 -2.5,-6.875 l -0.625,0 -6.25,6.875 m -358.125,-1.875 c -5.00016,3.75016 -9.79187,9.16672 -14.375,16.25 l 1.875,3.75 1.875,2.5 3.125,6.875 1.25,5.625 c -1.25,2.5 -2.50016,3.75 -3.75,3.75 -2.08344,0 -3.33344,-0.20781 -3.75,-0.625 -2.50016,-2.91656 -5.20844,-4.37484 -8.125,-4.375 l -1.875,0 -6.25,0 -0.625,1.25 c 0.83281,2.08344 1.66656,4.16672 2.5,6.25 1.25,1.66672 2.49984,3.54172 3.75,5.625 l 6.25,5.625 1.25,2.5 5.625,2.5 1.25,-2.5 2.5,1.25 c 0.83281,0.83281 1.45781,1.25 1.875,1.25 0.41719,-0.41719 0.83281,-0.625 1.25,-0.625 0.41719,-0.41719 0.83281,-0.83281 1.25,-1.25 l -1.25,-3.125 c 3.33313,0.83281 4.79156,1.25 4.375,1.25 1.25,0 1.66656,-1.25 1.25,-3.75 l 0,-2.5 3.75,-0.625 c 0.41719,-1.25 1.04219,-3.54156 1.875,-6.875 l 0.625,-1.875 c 0.41719,-1.25 0.625,-3.12484 0.625,-5.625 l 0,-6.25 -1.25,-6.25 0,-5 -2.5,-8.125 c -1.25,-4.58328 -2.70844,-6.87484 -4.375,-6.875 m 201.25,4.375 c -4.58375,5.83344 -6.87531,10.41672 -6.875,13.75 -3.1e-4,0.83281 -3.1e-4,1.87516 0,3.125 0.41563,1.25 0.83281,2.91672 1.25,5 l 0.625,0 0.625,5.625 1.875,3.125 4.375,5 -0.625,1.25 -0.625,-2.5 -0.625,3.125 c -3.33375,0.41719 -5.62531,1.66672 -6.875,3.75 -1.25,1.66672 -1.87531,2.91672 -1.875,3.75 -3.1e-4,0.83281 0.625,1.875 1.875,3.125 2.08297,3.33344 5.41625,5.83344 10,7.5 4.99969,1.66672 8.95797,4.16672 11.875,7.5 1.66625,2.91672 2.49969,5.20844 2.5,6.875 -3.1e-4,1.66672 -1.66703,4.16672 -5,7.5 l 0.625,0 c 4.16625,0.41719 6.87469,-2.08328 8.125,-7.5 0.41563,-2.5 1.66625,-3.75 3.75,-3.75 l -1.875,8.75 c 4.58297,-3.33328 6.87469,-8.33328 6.875,-15 -3.1e-4,-4.58328 -1.45937,-8.95828 -4.375,-13.125 l 3.125,-0.625 -0.625,-0.625 c 3.33297,5.83344 4.99969,10.83344 5,15 l 0,6.25 3.125,-3.125 -0.625,-7.5 c 0.41563,-0.41719 1.45781,-0.625 3.125,-0.625 0.41563,0.41719 0.625,1.25 0.625,2.5 l 1.25,-4.375 -1.25,-8.125 2.5,0.625 0,-5 c 0.41563,-2.5 -1.04219,-6.25 -4.375,-11.25 l -1.25,-3.125 c -4.58375,-4.58328 -6.87531,-8.74984 -6.875,-12.5 l 0.625,-4.375 c -5.83375,0.83281 -9.37531,5.20844 -10.625,13.125 l -3.75,-6.25 -5.625,-6.25 -10,-10.625 m -75.625,17.5 -1.25,3.125 c -3.1e-4,5.83344 3.74969,8.75016 11.25,8.75 7.49969,1.6e-4 12.49969,-3.95828 15,-11.875 1.66641,-5.41656 3.12469,-8.74984 4.375,-10 2.08297,-3.33328 3.12469,-4.99984 3.125,-5 l -1.25,-1.25 -0.625,0 c -1.66703,1.6e-4 -3.33359,1.87516 -5,5.625 -4.58359,11.25016 -10.20859,16.87516 -16.875,16.875 -2.91687,1.6e-4 -5.83359,-2.08328 -8.75,-6.25 m -100,-1.875 c -1.66687,1.25 -3.12516,2.50016 -4.375,3.75 -0.83281,1.25 -1.66687,2.29172 -2.5,3.125 l -0.625,1.25 c -1.25,4.58344 -1.87516,9.58344 -1.875,15 l 1.875,11.875 c 2.08313,-2.08328 3.12484,-3.33328 3.125,-3.75 l 0,-0.625 c -1.6e-4,-2.08328 -0.20781,-4.16656 -0.625,-6.25 l -0.625,-1.875 c 0.83281,-8.33328 2.70813,-12.49984 5.625,-12.5 1.66656,1.6e-4 2.70813,0.20781 3.125,0.625 l 5,2.5 5.625,1.25 c 1.66641,0.41719 2.49984,1.45781 2.5,3.125 l 0,2.5 c 4.16641,-2.91656 6.24984,-6.24984 6.25,-10 -1.6e-4,-9.16656 -4.79187,-13.74984 -14.375,-13.75 -4.16687,1.6e-4 -6.87516,1.25 -8.125,3.75 m -63.125,41.25 -7.5,-5 c -3.33344,-2.08328 -5.00016,-5.83328 -5,-11.25 -1.6e-4,-3.75 2.91656,-7.5 8.75,-11.25 4.16656,-2.91656 7.70828,-4.37484 10.625,-4.375 1.66656,1.6e-4 4.16656,0.41719 7.5,1.25 3.33328,0.41719 5.83313,0.625 7.5,0.625 l 0.625,0 c 2.08313,0.83281 3.12484,1.6e-4 3.125,-2.5 -1.6e-4,-2.08328 -4.79187,-3.12484 -14.375,-3.125 l -3.75,0 c -6.66672,1.6e-4 -12.50016,2.08344 -17.5,6.25 -5.00016,3.75016 -7.50016,8.33344 -7.5,13.75 -1.6e-4,3.75 1.45781,8.125 4.375,13.125 2.91656,4.58344 6.45828,6.875 10.625,6.875 2.08328,0 3.12484,-0.83281 3.125,-2.5 -1.6e-4,-0.83281 -0.20781,-1.45781 -0.625,-1.875 m 6.875,-9.375 c -2.50016,0.83281 -3.75016,2.91672 -3.75,6.25 -1.6e-4,3.33344 1.66656,5 5,5 3.33328,0 4.99984,-2.29156 5,-6.875 -1.6e-4,-2.91656 -1.87516,-4.375 -5.625,-4.375 l -0.625,0 m 38.125,6.25 c 2.49984,-1.25 3.74984,-2.29156 3.75,-3.125 -1.6e-4,-1.66656 -0.83281,-2.5 -2.5,-2.5 -2.08344,0 -3.12516,1.04219 -3.125,3.125 0.41719,0.41719 0.625,0.83281 0.625,1.25 0.41719,0.41719 0.83281,0.83281 1.25,1.25 m -6.25,1.25 c -2.08344,0 -3.12516,0.83281 -3.125,2.5 -1.6e-4,2.08344 0.83281,3.125 2.5,3.125 1.25,0 2.29156,-0.625 3.125,-1.875 l 0.625,-1.25 c -1.6e-4,-1.66656 -1.04219,-2.5 -3.125,-2.5 m 28.75,3.75 c -1.66687,0.41719 -4.16687,0 -7.5,-1.25 l 8.75,6.25 180,-0.625 c -4.58375,-3.75 -8.75031,-5.41656 -12.5,-5 l -5,0 -163.75,0.625 m -18.75,-3.125 -2.5,5 c -1.66687,0.83281 -3.33344,1.66672 -5,2.5 -1.66687,0.83281 -3.33344,1.66672 -5,2.5 -1.6e-4,2.91672 3.95813,6.875 11.875,11.875 3.33313,2.08344 6.45813,3.95844 9.375,5.625 2.91656,1.25 5.41656,2.29172 7.5,3.125 1.66656,0.41719 3.74984,0.83281 6.25,1.25 2.49984,0.41719 5.41641,1.04219 8.75,1.875 2.08313,0.41719 3.74984,0.83281 5,1.25 1.66641,0 2.91641,0 3.75,0 l 2.5,0 9.375,-1.25 c 3.33313,-2.5 4.99984,-4.58328 5,-6.25 -1.6e-4,-2.91656 -4.37516,-4.375 -13.125,-4.375 l -8.75,0 -3.75,-0.625 -2.5,-0.625 -3.125,-0.625 -3.125,-1.25 -1.875,-0.625 -6.875,-5 -9.375,-8.125 -4.375,-6.25 m -19.375,2.5 c -0.83281,0 -1.25,0.625 -1.25,1.875 -1.6e-4,2.08344 1.04219,3.125 3.125,3.125 1.25,0 1.87484,-0.83281 1.875,-2.5 -1.6e-4,-1.66656 -1.25,-2.5 -3.75,-2.5 m -8.75,0 0.625,3.75 3.125,-3.125 -3.75,-0.625 m -5.625,3.125 c -1.66672,0 -2.50016,0.83281 -2.5,2.5 -1.6e-4,1.25 0.625,1.875 1.875,1.875 1.66656,0 2.49984,-0.83281 2.5,-2.5 -1.6e-4,-1.25 -0.625,-1.875 -1.875,-1.875 m 375.625,2.5 -10.625,5 -1.875,0.625 -0.625,0 -0.625,0 -18.75,-2.5 c -2.08375,-0.83281 -3.12547,-0.20781 -3.125,1.875 -4.7e-4,0.41719 4.37453,2.5 13.125,6.25 3.33281,0.83281 4.79125,1.25 4.375,1.25 3.33281,0 7.70781,-1.45781 13.125,-4.375 3.74953,-1.66656 5.62453,-3.54156 5.625,-5.625 l 0,-0.625 -0.625,-1.875 m -385.625,-0.625 c -2.50016,0.83281 -3.75016,1.875 -3.75,3.125 -1.6e-4,2.91672 1.25,4.375 3.75,4.375 2.49984,0 3.74984,-1.45781 3.75,-4.375 -1.6e-4,-2.08328 -1.04219,-3.125 -3.125,-3.125 l -0.625,0 m -20,5.625 c -1.6e-4,3.75 1.66656,5.625 5,5.625 3.33328,0 4.99984,-1.875 5,-5.625 -1.6e-4,-2.91656 -1.87516,-4.375 -5.625,-4.375 -2.91672,0 -4.37516,1.45781 -4.375,4.375 m 362.5,-1.875 0,2.5 c 2.08281,3.33344 3.12453,5.20844 3.125,5.625 -4.7e-4,1.25 -0.83437,3.125 -2.5,5.625 -1.25,2.08344 -2.50047,3.125 -3.75,3.125 -1.25,0 -3.12547,-0.625 -5.625,-1.875 l -2.5,-1.875 -1.25,-8.75 c -3.75047,3.33344 -5.62547,6.04172 -5.625,8.125 -4.7e-4,4.16672 2.49953,8.125 7.5,11.875 3.33281,0.83281 4.79125,1.25 4.375,1.25 0.83281,0 2.49953,-1.25 5,-3.75 2.49953,-2.5 4.16625,-3.54172 5,-3.125 l 5.625,2.5 -1.25,-11.25 -6.875,-10 -1.25,0 m -50,0 -2.5,0.625 3.125,0 c -5.41703,0 -10.83375,1.04219 -16.25,3.125 l -21.25,9.375 c -5.83375,2.5 -13.75031,4.375 -23.75,5.625 4.99969,0 7.91625,0.20781 8.75,0.625 l 4.375,0 43.125,-13.125 c 0.41563,-0.41719 1.45781,-0.625 3.125,-0.625 2.49953,0 5.41625,1.25 8.75,3.75 1.66625,2.91672 2.49953,5.41672 2.5,7.5 -4.7e-4,1.66672 -0.625,3.75 -1.875,6.25 l 1.875,0 c 4.58297,0.83281 6.87453,-2.70828 6.875,-10.625 -4.7e-4,-2.5 -1.25,-5.41656 -3.75,-8.75 -3.75047,-1.66656 -8.12547,-2.91656 -13.125,-3.75 m -91.875,1.875 c 2.91641,2.91672 7.08297,5.625 12.5,8.125 l 8.125,2.5 5.625,0.625 12.5,-1.25 c 3.74969,-1.25 6.66625,-4.16656 8.75,-8.75 l -1.25,0 c -5.83375,3.33344 -11.87531,5 -18.125,5 -6.66703,0 -12.70859,-1.45781 -18.125,-4.375 -1.66703,-2.91656 -3.75031,-4.375 -6.25,-4.375 -1.25,0 -2.08359,0.20781 -2.5,0.625 l -1.25,1.875 m -18.75,-0.625 c -3.1e-4,12.5 -5.41703,18.75 -16.25,18.75 l -3.125,-0.625 -1.875,-0.625 -11.25,-13.75 c -1.66687,-2.91656 -6.04187,-4.375 -13.125,-4.375 -12.91687,0 -18.95859,3.75 -18.125,11.25 l 0,1.875 3.125,3.75 c 0.41719,-9.16656 4.79141,-13.75 13.125,-13.75 5.83313,0 10.41641,2.29172 13.75,6.875 l 4.375,6.875 c 3.33313,4.58328 8.12469,6.875 14.375,6.875 5.83297,0 9.58297,-1.45781 11.25,-4.375 l 1.875,-3.125 3.75,-4.375 c 1.66641,-1.66656 2.49969,-5 2.5,-10 -3.1e-4,-1.66656 -0.625,-2.5 -1.875,-2.5 l -1.25,0.625 -1.25,0.625 m -118.125,-0.625 c 5.41641,5.41672 12.70813,8.125 21.875,8.125 3.74984,0 6.24984,-0.20781 7.5,-0.625 l -29.375,-7.5 m 130,1.25 c 1.25,4.16672 3.95797,7.70844 8.125,10.625 l 0,1.25 c -3.1e-4,4.58328 -1.45781,6.875 -4.375,6.875 -0.83437,0 -2.70859,-0.625 -5.625,-1.875 1.66641,5.41672 3.95797,8.125 6.875,8.125 5.83297,0 8.74969,-2.91672 8.75,-8.75 -3.1e-4,-3.33328 -3.12531,-7.5 -9.375,-12.5 -0.41719,-0.41719 -1.04219,-0.83281 -1.875,-1.25 -0.83281,-0.83281 -1.66703,-1.66656 -2.5,-2.5 m 219.375,0.625 -25,8.75 5,0 c 1.66609,0.41719 4.16609,0.20781 7.5,-0.625 3.33281,-1.25 6.04109,-1.875 8.125,-1.875 0.41563,0 4.16609,1.04219 11.25,3.125 1.66609,1.66672 2.49953,3.33344 2.5,5 -0.41719,0.41719 -0.625,1.66672 -0.625,3.75 l 1.875,0 c 1.66609,0 2.70781,-2.08328 3.125,-6.25 l 0.625,-4.375 c -4.7e-4,-2.08328 -1.87547,-4.16656 -5.625,-6.25 l -8.75,-1.25 m -408.125,7.5 c 4.58328,-2.08328 6.87484,-3.75 6.875,-5 -1.6e-4,-1.66656 -0.625,-2.5 -1.875,-2.5 -1.66672,0 -3.33344,2.5 -5,7.5 m -15,1.25 c 1.66656,1.66672 3.12484,2.5 4.375,2.5 2.08328,0 3.12484,-1.04219 3.125,-3.125 -1.6e-4,-2.08328 -0.83281,-3.33328 -2.5,-3.75 l -0.625,0 -4.375,4.375 m 25.625,15 c -1.6e-4,-7.5 2.91656,-11.25 8.75,-11.25 3.74984,0 7.08313,0.83281 10,2.5 l 11.875,5 6.875,0.625 0,-1.875 c -3.75016,-1.25 -6.25016,-2.08328 -7.5,-2.5 -1.25,-0.83281 -3.75016,-2.29156 -7.5,-4.375 -5.41687,-2.91656 -10.62516,-4.375 -15.625,-4.375 -8.75016,0 -13.12516,3.125 -13.125,9.375 -1.6e-4,2.91672 2.08328,5.20828 6.25,6.875 m -34.375,-18.125 -0.625,6.25 2.5,-3.125 -1.875,-3.125 m 152.5,4.375 -0.625,0 c -0.83437,0 -1.25,0.625 -1.25,1.875 -3.1e-4,1.66672 1.04219,2.5 3.125,2.5 1.25,0 1.87469,-0.83281 1.875,-2.5 -3.1e-4,-1.25 -1.04219,-1.875 -3.125,-1.875 m -150,1.25 c -2.50016,2.08344 -3.75016,3.54172 -3.75,4.375 -1.6e-4,3.75 1.87484,5.625 5.625,5.625 3.33328,0 4.99984,-1.45781 5,-4.375 -1.6e-4,-2.91656 -2.29172,-4.79156 -6.875,-5.625 m 159.375,0.625 0,4.375 c 2.08313,0 3.12469,-0.625 3.125,-1.875 -3.1e-4,-0.83281 -1.04219,-1.66656 -3.125,-2.5 m -143.75,3.125 c -2.91672,0 -4.37516,1.25 -4.375,3.75 -1.6e-4,2.91672 1.45781,4.375 4.375,4.375 2.91656,0 4.37484,-1.66672 4.375,-5 -1.6e-4,-2.08328 -1.45781,-3.125 -4.375,-3.125 m 121.875,3.75 c 0.41719,2.5 2.49969,3.75 6.25,3.75 2.91641,0 6.04141,-0.83281 9.375,-2.5 -0.83437,-0.83281 -1.66687,-1.25 -2.5,-1.25 l -1.25,0 c -1.66687,0.41719 -2.91687,0.83281 -3.75,1.25 -0.83437,0 -1.25,0 -1.25,0 -0.83437,0 -1.87531,0 -3.125,0 -0.83437,-0.41719 -2.08359,-0.83281 -3.75,-1.25 m 25,1.25 c -2.50031,0 -3.75031,1.04219 -3.75,3.125 -3.1e-4,1.25 1.04063,1.875 3.125,1.875 1.25,0 2.29141,-0.625 3.125,-1.875 l 0,-1.25 c -3.1e-4,-1.25 -0.83437,-1.875 -2.5,-1.875 m 61.25,-420.625 c -0.41719,0.83438 -0.625,2.70875 -0.625,5.625 l 0,1.25 c -3.1e-4,0.83438 0.20781,1.66703 0.625,2.5 l 1.875,3.125 -1.875,0.625 c -2.91703,-2.91625 -4.37531,-4.58297 -4.375,-5 -3.1e-4,-3.74953 1.45781,-6.45797 4.375,-8.125 m -6.875,1.25 -0.625,5.625 1.25,5 -3.75,-1.25 c -1.25,4.7e-4 -1.87531,-1.04062 -1.875,-3.125 -3.1e-4,-3.74953 1.25,-5.62453 3.75,-5.625 l 1.25,-0.625 m 125.625,7.5 3.125,1.25 c -3.33375,1.66703 -5.62547,2.50047 -6.875,2.5 l -5.625,6.875 0,-0.625 c -4.7e-4,-3.74953 0.20781,-6.04125 0.625,-6.875 0.83281,-0.83281 3.74953,-1.87453 8.75,-3.125 m -53.75,16.25 -0.625,2.5 -17.5,-8.125 -11.875,-4.375 3.125,-0.625 c 5.83297,4.7e-4 14.79125,3.54203 26.875,10.625 m 60.625,-11.25 c -2.08375,1.25 -3.95875,2.70875 -5.625,4.375 -1.66703,1.25 -3.12547,2.50047 -4.375,3.75 l 1.25,-0.625 -1.875,0 0,-1.25 c -4.7e-4,-3.33297 3.54125,-5.41625 10.625,-6.25 m -306.25,5.625 0,-9.375 2.5,5.625 c -1.6e-4,2.91703 -0.625,4.58375 -1.875,5 l -5,5 4.375,-6.25 m 310.625,-0.625 c 0.83281,-2.08297 0.625,-3.12453 -0.625,-3.125 -1.66719,4.7e-4 -3.95875,1.25 -6.875,3.75 -2.50047,2.08375 -2.91719,3.12547 -1.25,3.125 0.41563,1.66703 1.04063,2.08375 1.875,1.25 -4.7e-4,-1.66625 0.83281,-2.49953 2.5,-2.5 1.66625,-0.83281 2.70781,-1.45781 3.125,-1.875 0.83281,-0.41562 1.25,-0.625 1.25,-0.625 m -87.5,2.5 7.5,3.75 5.625,1.875 2.5,3.125 -15.625,-6.25 0,-2.5 m 104.375,19.375 0.625,-1.875 c 1.25,0.41719 2.70781,1.04219 4.375,1.875 4.16625,4.58375 6.45781,11.25031 6.875,20 l -5,-13.75 -6.875,-6.25 m -81.875,3.125 c -0.41719,4.7e-4 -0.41719,-0.83281 0,-2.5 0.41563,-1.66625 1.04063,-2.49953 1.875,-2.5 1.25,4.7e-4 1.87453,2.29203 1.875,6.875 l -4.375,8.75 c 0.41563,3.1e-4 0.625,-3.54125 0.625,-10.625 m 111.875,5.625 8.125,3.75 12.5,1.25 -14.375,0 -5,-3.125 -1.25,-1.875 m -213.125,11.875 c -3.33359,-2.91625 -7.08359,-4.58297 -11.25,-5 0.83281,3.1e-4 1.45781,0.20938 1.875,0.625 -4.58359,-2.08297 -6.87531,-3.54125 -6.875,-4.375 -3.1e-4,-0.41562 0.41719,-0.625 1.25,-0.625 1.66641,3.1e-4 3.74969,0.625 6.25,1.875 2.91641,0.83438 5.62469,2.08375 8.125,3.75 2.91641,1.66703 5.20797,3.54203 6.875,5.625 2.08297,2.08375 3.12469,4.37531 3.125,6.875 l 2.5,7.5 -6.25,-11.875 -3.125,-2.5 -2.5,-1.875 m 205.625,10 c 0.83281,0.83438 2.49953,2.50031 5,5 2.49953,2.08375 4.58281,8.75031 6.25,20 l -1.875,1.875 -3.125,-14.375 c -0.83437,-2.08297 -1.87547,-4.16625 -3.125,-6.25 -1.25,-2.08297 -2.29219,-4.16625 -3.125,-6.25 m -174.375,28.125 8.75,-0.625 -6.25,2.5 -1.875,0 c -0.83437,3.1e-4 -2.50031,-1.25 -5,-3.75 -3.1e-4,-2.08297 0.41719,-3.12469 1.25,-3.125 l 3.125,5 m 121.875,-3.125 3.75,1.25 9.375,10.625 5.625,13.75 -0.625,5.625 c -4.7e-4,3.1e-4 -0.41719,-0.625 -1.25,-1.875 -0.41719,-1.25 -1.04219,-3.33297 -1.875,-6.25 -0.83437,-0.41562 -1.66719,-1.87469 -2.5,-4.375 -1.25,-5.83297 -3.75047,-10.62469 -7.5,-14.375 l -5,-4.375 m -15,-1.875 2.5,0 c 2.08297,-0.83281 3.12453,-0.20781 3.125,1.875 -4.7e-4,2.50031 -1.25,3.75031 -3.75,3.75 -2.08375,3.1e-4 -2.91703,-0.20781 -2.5,-0.625 -4.7e-4,-2.49969 0.20781,-4.16625 0.625,-5 m 6.25,8.125 2.5,1.875 -0.625,2.5 -3.75,-0.625 1.875,-3.75 m -26.875,2.5 c 2.08297,3.33359 3.12453,5.62531 3.125,6.875 l 0,4.375 0.625,6.25 c -2.91703,3.1e-4 -4.37547,-3.95797 -4.375,-11.875 l 0,-3.75 0.625,-1.875 m -4.375,-0.625 1.25,9.375 1.875,6.25 0,5.625 -3.75,-8.125 c -2.08375,-4.99969 -3.12547,-7.70797 -3.125,-8.125 0.83281,-2.08297 1.45781,-3.12469 1.875,-3.125 l 1.875,-1.875 m -278.125,25 -7.5,13.125 1.875,-8.125 c 2.08328,-3.33297 3.12484,-6.24969 3.125,-8.75 -1.6e-4,0.41719 0.20781,-0.625 0.625,-3.125 0.41719,-2.49969 1.04219,-6.04141 1.875,-10.625 l 0,-2.5 c 0.41719,-1.25 1.04219,0.41719 1.875,5 l -1.875,15 m 202.5,-16.875 1.875,1.875 -0.625,1.875 -5.625,0 -1.25,-1.875 2.5,-2.5 3.125,0.625 m 45,2.5 4.375,1.25 2.5,5 2.5,5.625 1.25,3.125 -1.25,-3.125 -4.375,-5 -5,-6.875 m -40.625,3.125 0,-3.75 0.625,0 2.5,-0.625 c 0.83281,3.1e-4 1.25,0.41719 1.25,1.25 -3.1e-4,1.66703 -1.45781,2.70859 -4.375,3.125 m 11.875,-3.75 c 0.41563,3.1e-4 0.625,1.25 0.625,3.75 -3.1e-4,0.41719 -1.25,0.83438 -3.75,1.25 l -1.25,-3.125 1.25,-1.25 1.875,-0.625 1.25,0 m 8.125,5 -1.875,-3.75 -1.875,-0.625 -1.25,3.125 c -3.1e-4,1.25 0.41563,1.87531 1.25,1.875 2.49969,2.50031 3.74969,2.29203 3.75,-0.625 m 18.75,0.625 8.125,8.125 c 2.08297,3.33359 3.12469,5.83359 3.125,7.5 -3.1e-4,-1.25 0.41563,-0.83281 1.25,1.25 0.83281,2.08359 1.25,3.75031 1.25,5 -0.41719,1.66703 -1.25,2.29203 -2.5,1.875 l -3.75,-10.625 c -0.83437,3.1e-4 -2.08375,-2.49969 -3.75,-7.5 -0.83437,-1.66641 -2.08375,-3.54141 -3.75,-5.625 m -16.25,2.5 4.375,-1.875 -3.75,-3.75 -0.625,5.625 m 87.5,28.75 5,-8.125 -0.625,1.875 c 2.49953,-7.08297 4.99953,-10.62469 7.5,-10.625 -5.00047,10.83359 -7.50047,15.41703 -7.5,13.75 -4.7e-4,6.25031 -1.45937,9.37531 -4.375,9.375 l -0.625,-0.625 -1.25,-1.25 1.875,-4.375 m 13.125,-4.375 -5,1.875 c -0.83437,2.50031 -3.33375,7.50031 -7.5,15 l 0.625,-0.625 11.875,-16.25 m -329.375,10.625 0,7.5 0,3.125 -1.25,1.875 -3.125,7.5 1.25,-6.25 1.25,-3.75 1.875,-10 m 31.25,1.875 -8.75,1.875 -6.875,6.25 15.625,-8.125 m -5,6.25 7.5,-5.625 c -2.91687,2.08359 -6.25016,4.58359 -10,7.5 -3.75016,2.50031 -7.91687,5.83359 -12.5,10 3.74984,-4.99969 8.74984,-8.95812 15,-11.875 m 154.375,-7.5 c -3.1e-4,2.50031 -1.25,4.58359 -3.75,6.25 -2.08359,1.66688 -6.25031,7.50031 -12.5,17.5 l -0.625,1.25 -4.375,9.375 c 0.41719,-9.16641 4.37469,-17.49969 11.875,-25 l 9.375,-9.375 m 213.75,10 c 1.66609,-6.24969 3.33281,-10.20812 5,-11.875 0.41563,3.1e-4 0.625,0.20938 0.625,0.625 -4.7e-4,9.58359 -3.95891,16.45859 -11.875,20.625 0.83281,-0.83281 2.91609,-3.95812 6.25,-9.375 m -403.125,9.375 1.875,-7.5 c -4.58344,-0.83281 -6.87516,4.79188 -6.875,16.875 -1.6e-4,-0.41562 -1.04219,1.45938 -3.125,5.625 -2.08344,4.16688 -3.54172,8.54188 -4.375,13.125 l 8.75,-16.875 3.75,-11.25 m 202.5,4.375 -1.875,4.375 c -0.83437,3.1e-4 -1.25,-0.41719 -1.25,-1.25 -3.1e-4,-1.25 0.625,-1.87469 1.875,-1.875 l 1.25,-1.25 m 61.25,0.625 3.125,2.5 -2.5,3.125 -1.875,-2.5 -0.625,-1.25 1.875,-1.875 m -64.375,6.25 -1.25,1.875 -1.25,-0.625 -1.25,0 c -1.66703,3.1e-4 -2.50031,-0.83281 -2.5,-2.5 -3.1e-4,-1.25 0.83281,-1.87469 2.5,-1.875 1.66641,3.1e-4 2.49969,0.625 2.5,1.875 -3.1e-4,0.83438 0.41719,1.25 1.25,1.25 m 56.875,-4.375 1.25,6.875 -4.375,-3.125 3.125,-3.75 m 78.75,3.75 16.25,-2.5 c -2.08375,0.41719 -4.58375,1.45781 -7.5,3.125 -2.50047,1.25 -3.95875,1.87531 -4.375,1.875 -1.66719,3.1e-4 -3.12547,-0.83281 -4.375,-2.5 m -88.125,3.75 2.5,2.5 c -2.91703,3.1e-4 -3.95875,-1.25 -3.125,-3.75 l 0.625,-1.875 3.125,1.25 -0.625,4.375 -2.5,-2.5 m -58.125,0 2.5,0.625 -0.625,3.75 -5.625,-1.25 1.25,-1.25 2.5,-1.875 m 130,11.875 -0.625,1.875 -1.25,2.5 -2.5,-2.5 c -4.7e-4,-0.41719 0.20781,-0.625 0.625,-0.625 l 0.625,-0.625 c 2.49953,3.1e-4 3.54125,-0.20781 3.125,-0.625 m -163.75,-5.625 6.25,1.25 c -0.41719,0.41719 0.41563,1.04219 2.5,1.875 2.08313,0.41719 3.12469,0.625 3.125,0.625 -5.00031,3.1e-4 -7.29187,0.20938 -6.875,0.625 l -5,-4.375 m 170,7.5 -1.25,5 -3.125,-1.25 0.625,-1.875 0.625,-1.875 3.125,0 m 8.125,1.875 -0.625,4.375 -3.125,0 c -4.7e-4,1.6e-4 -4.7e-4,-0.20781 0,-0.625 0.41563,-0.83281 1.04063,-2.08312 1.875,-3.75 -4.7e-4,0.83281 0.625,0.83281 1.875,0 m -178.75,-3.75 6.25,1.875 8.75,0 c -1.66687,0.83281 -2.91687,1.66688 -3.75,2.5 -0.83437,0.41719 -1.25,0.625 -1.25,0.625 -2.08359,1.6e-4 -3.33359,0.20938 -3.75,0.625 -2.08359,-0.41562 -4.16687,-2.29141 -6.25,-5.625 m 56.875,11.25 c -2.08359,5.83359 -8.95859,12.70859 -20.625,20.625 l -4.375,5 4.375,-5.625 c 2.08297,-2.91641 6.04141,-6.66641 11.875,-11.25 l 3.75,-5 5,-3.75 m -1.25,-3.75 c -2.08359,2.08359 -4.37531,4.37516 -6.875,6.875 -2.50031,2.50016 -5.00031,4.79188 -7.5,6.875 l -2.5,0.625 2.5,-3.75 2.5,-2.5 11.875,-8.125 m 141.25,8.75 4.375,-1.25 -3.125,5.625 -1.875,-2.5 0.625,-1.875 m 60,1.25 -3.75,-5 7.5,2.5 3.75,5.625 -7.5,-3.125 m -65.625,0.625 5.625,5 -3.75,0 -1.875,-5 m -335,3.125 0,-4.375 4.375,-1.875 0.625,1.25 -5,5 m 396.25,3.125 6.25,0.625 3.125,2.5 3.75,0 -4.375,-4.375 -5.625,-0.625 -3.125,1.875 m -65,-1.875 2.5,3.125 -5.625,0 3.125,-3.125 m -334.375,-1.25 -6.25,15.625 c -5.83344,7.91688 -8.54172,17.29188 -8.125,28.125 l 0,3.75 -1.25,0.625 c -1.25,-2.91656 -1.87516,-4.99984 -1.875,-6.25 0.83281,-1.25 1.45781,-3.95812 1.875,-8.125 l 1.25,-5.625 c 0.41719,-1.25 0.83281,-2.70812 1.25,-4.375 0.41719,-2.08312 1.04219,-4.37484 1.875,-6.875 -0.41719,0.41719 -0.625,1.04219 -0.625,1.875 l 0,0.625 c 2.49984,-3.33312 4.58328,-6.66641 6.25,-10 2.08328,-3.33312 3.95828,-6.45812 5.625,-9.375 m 391.25,6.875 -3.125,5.625 -1.875,5.625 c -0.83438,2.08359 -1.66719,3.12516 -2.5,3.125 -0.41719,1.6e-4 -0.625,-0.20781 -0.625,-0.625 -4.7e-4,-0.83281 0.41563,-2.91641 1.25,-6.25 1.25,-3.74984 3.54109,-6.24984 6.875,-7.5 m -408.125,5 c 1.66656,-3.33312 3.33328,-5.41641 5,-6.25 1.66656,1.6e-4 1.25,0.83438 -1.25,2.5 -2.08344,1.66688 -4.37516,2.08359 -6.875,1.25 l -3.75,-3.125 2.5,5.625 c 1.66656,1.25 2.91656,1.45781 3.75,0.625 l 0.625,-0.625 m 271.25,4.375 c 0.83281,0.83438 0.83281,1.66688 0,2.5 -1.66703,-0.41719 -2.50031,-0.83281 -2.5,-1.25 -3.1e-4,-2.49984 0.20781,-3.74984 0.625,-3.75 l 1.875,2.5 m -244.375,-1.25 c -0.83281,2.50016 -1.45781,4.37516 -1.875,5.625 -0.41719,1.25 -1.04219,2.70859 -1.875,4.375 -0.41719,1.25 -1.25,2.91688 -2.5,5 -0.83281,1.66688 -2.29172,4.16688 -4.375,7.5 -3.75016,4.16688 -6.04172,6.25016 -6.875,6.25 l 8.75,-14.375 -3.75,5.625 -0.625,2.5 c -1.6e-4,-0.41719 0.20781,-0.625 0.625,-0.625 l -0.625,0.625 0,-0.625 c 0.41719,-0.83281 1.25,-2.29141 2.5,-4.375 1.66656,-2.08312 2.70828,-3.54141 3.125,-4.375 -0.83281,1.66688 -1.66672,2.91688 -2.5,3.75 l 5,-10 5,-6.875 m -28.75,3.75 -2.5,1.25 -1.875,-1.875 -1.25,-5.625 5,4.375 1.25,-0.625 c -1.6e-4,1.25 1.45781,1.04219 4.375,-0.625 -0.41719,0.83438 -2.08344,2.70859 -5,5.625 0.41719,-1.25 0.41719,-2.08312 0,-2.5 m 18.75,1.875 c -1.6e-4,2.50016 -1.25,5.41688 -3.75,8.75 -2.50016,2.91688 -4.16672,4.37516 -5,4.375 l 0,-0.625 c 0.41719,-1.25 2.29156,-3.54141 5.625,-6.875 l 1.25,-3.125 1.25,-1.875 0.625,-0.625 m 398.125,10.625 -2.5,4.375 c -4.7e-4,1.25 -0.625,2.70844 -1.875,4.375 l -5.625,8.75 -1.25,-0.625 c 0.41562,-5.41656 4.16609,-11.04156 11.25,-16.875 m -0.625,8.75 -0.625,3.125 c -4.7e-4,0.41719 -1.04219,2.29188 -3.125,5.625 l -2.5,-0.625 c 1.25,-4.99984 3.33281,-7.70812 6.25,-8.125 m -384.375,25.625 1.25,0.625 2.5,-1.25 0.625,0 -0.625,0 c 1.66656,1.6e-4 1.87484,-1.04219 0.625,-3.125 -1.25,-1.66656 -2.08344,-2.29156 -2.5,-1.875 -0.41719,1.66688 -1.45781,2.50016 -3.125,2.5 -0.41719,1.6e-4 -1.6e-4,1.04219 1.25,3.125 m 197.5,-0.625 c 0.41719,0.41719 2.70797,1.66688 6.875,3.75 0.83281,0.83281 1.66625,1.66688 2.5,2.5 1.25,0.83281 2.29125,1.66688 3.125,2.5 l 1.25,0 0.625,3.125 -6.875,-5 -3.75,-2.5 -3.125,-2.5 -0.625,-1.875 m -6.25,1.875 6.25,3.75 c 0.41719,0.41719 1.25,1.04219 2.5,1.875 1.66641,0.83281 3.54125,2.08344 5.625,3.75 l -0.625,3.75 -7.5,-5 -3.125,-3.75 -3.125,-4.375 m -191.875,3.75 c -8.75016,16.25016 -14.37516,31.66672 -16.875,46.25 l 0,1.875 c -1.6e-4,0.41719 -0.20781,0.625 -0.625,0.625 -0.83281,1.6e-4 -1.25,-0.20781 -1.25,-0.625 l 0,-1.25 0,-5 c -1.6e-4,-15.41656 6.24984,-29.99984 18.75,-43.75 l 0,1.875 m 168.125,7.5 -10.625,3.125 c 1.66641,-1.25 6.04141,-1.25 13.125,0 3.74969,0.83281 6.04141,1.04219 6.875,0.625 0.83281,-0.41719 0.83281,-0.83281 0,-1.25 -0.83437,-0.41719 -2.29203,-0.83281 -4.375,-1.25 -1.66703,-0.83281 -3.33359,-1.25 -5,-1.25 m -192.5,5.625 c -2.50016,-0.41719 -3.75016,-2.49984 -3.75,-6.25 l 4.375,1.875 3.75,0 c 2.08328,-2.08312 3.12484,-2.08312 3.125,0 -1.6e-4,1.25 -1.87516,2.50016 -5.625,3.75 l -1.875,0.625 m 25.625,5.625 5.625,-6.25 c -1.6e-4,-0.41719 -2.91687,1.87516 -8.75,6.875 l -0.625,1.875 3.75,-2.5 m 16.25,-10.625 -2.5,5 c -1.6e-4,0.41719 -1.45781,2.29188 -4.375,5.625 -2.50016,3.33344 -3.75016,5.00016 -3.75,5 l 0,0.625 0.625,-0.625 c 0.41719,1.6e-4 0.83281,-0.20781 1.25,-0.625 -0.83281,0.83281 -1.66688,1.45781 -2.5,1.875 -0.41719,0.41719 -0.625,0.625 -0.625,0.625 l 1.25,-1.25 0.625,0.625 c -0.83281,0.83281 -2.29187,1.25 -4.375,1.25 l 0,-2.5 3.125,-2.5 6.875,-7.5 4.375,-5.625 m -40.625,6.875 5.625,0 c -0.83281,1.25 -2.50016,2.29172 -5,3.125 l -3.125,0 -3.125,-3.125 5.625,0 m 263.75,-0.625 4.375,5 c -0.83437,1.6e-4 -1.25,-0.625 -1.25,-1.875 0.41563,6.66672 -1.25,10.00016 -5,10 0.41563,-0.41719 0.625,-1.04219 0.625,-1.875 l 0,-1.25 c 0.41563,-3.33328 0.625,-5.62484 0.625,-6.875 0.41563,-1.66656 0.625,-2.70812 0.625,-3.125 m 7.5,0 1.25,0 c 0.83281,0.83281 1.66625,2.08344 2.5,3.75 0.83281,0.83281 -0.41719,3.75016 -3.75,8.75 l 0,-12.5 m 11.875,6.25 c -1.66703,0.83281 -2.70875,1.66672 -3.125,2.5 -4.7e-4,0.83281 -0.20937,1.66672 -0.625,2.5 -1.25,1.6e-4 -1.87531,-1.04219 -1.875,-3.125 -3.1e-4,-2.91656 0.83281,-4.37484 2.5,-4.375 1.66625,0.41719 2.49953,0.41719 2.5,0 l 0.625,2.5 m -288.75,0.625 5,3.125 c 1.25,-0.41719 2.70828,-1.04219 4.375,-1.875 2.08328,-0.83281 2.08328,-1.25 0,-1.25 -5.83344,-0.41719 -8.95844,-0.41719 -9.375,0 m 170,12.5 11.875,-6.875 -6.875,5.625 -5,1.25 m -126.875,6.25 2.5,3.125 1.25,2.5 c 0.41719,2.08344 0.625,3.95844 0.625,5.625 0.41719,1.25 0.625,2.29172 0.625,3.125 -1.6e-4,2.08344 -0.625,3.12516 -1.875,3.125 l 1.875,-0.625 -2.5,0.625 -2.5,-17.5 m -25,3.125 -0.625,3.125 -3.125,0 4.375,-8.75 -0.625,5.625 m 395,21.25 -1.875,0.625 c -0.41719,-0.41719 -0.83437,-0.625 -1.25,-0.625 -0.41719,-0.41719 -0.83437,-0.83281 -1.25,-1.25 -4.7e-4,-0.41719 0.83281,-0.625 2.5,-0.625 l 0.625,0 1.25,1.875 m -371.25,-0.625 1.25,8.125 c -1.6e-4,2.5 -0.20781,3.95844 -0.625,4.375 l -1.25,1.25 c -3.33344,0.83281 -5.00016,1.25 -5,1.25 -1.25,0 -3.95844,-0.41719 -8.125,-1.25 l -1.25,-3.75 6.25,1.25 3.125,0.625 3.125,-1.875 2.5,-10 m -5.625,-81.25 3.125,-4.375 0,7.5 -4.375,0 1.25,-3.125"
        id="path3026"
        style="font-size:40px;font-style:normal;font-variant:normal;font-weight:normal;font-stretch:normal;line-height:125%;letter-spacing:0px;word-spacing:0px;fill:#000000;fill-opacity:1;stroke:none;font-family:Goudy Initialen;-inkscape-font-specification:Goudy Initialen"
    />
  </g
  >
  <metadata
    >
    <rdf:RDF
      >
      <cc:Work
        >
        <dc:format
          >image/svg+xml</dc:format
        >
        <dc:type
            rdf:resource="http://purl.org/dc/dcmitype/StillImage"
        />
        <cc:license
            rdf:resource="http://creativecommons.org/licenses/publicdomain/"
        />
        <dc:publisher
          >
          <cc:Agent
              rdf:about="http://openclipart.org/"
            >
            <dc:title
              >Openclipart</dc:title
            >
          </cc:Agent
          >
        </dc:publisher
        >
        <dc:title
          >William Morris Letter L</dc:title
        >
        <dc:date
          >2014-03-13T14:37:53</dc:date
        >
        <dc:description
          >William Morris Design of the Letter L converted from a font "Goudy Initialen" by Dieter Steffmann</dc:description
        >
        <dc:source
          >https://openclipart.org/detail/191786/william-morris-letter-l-by-kuba-191786</dc:source
        >
        <dc:creator
          >
          <cc:Agent
            >
            <dc:title
              >kuba</dc:title
            >
          </cc:Agent
          >
        </dc:creator
        >
        <dc:subject
          >
          <rdf:Bag
            >
            <rdf:li
              >arts and craft</rdf:li
            >
            <rdf:li
              >craft</rdf:li
            >
            <rdf:li
              >font</rdf:li
            >
            <rdf:li
              >letters</rdf:li
            >
          </rdf:Bag
          >
        </dc:subject
        >
      </cc:Work
      >
      <cc:License
          rdf:about="http://creativecommons.org/licenses/publicdomain/"
        >
        <cc:permits
            rdf:resource="http://creativecommons.org/ns#Reproduction"
        />
        <cc:permits
            rdf:resource="http://creativecommons.org/ns#Distribution"
        />
        <cc:permits
            rdf:resource="http://creativecommons.org/ns#DerivativeWorks"
        />
      </cc:License
      >
    </rdf:RDF
    >
  </metadata
  >
</svg
>
