<?xml version="1.0" encoding="UTF-8" standalone="no"?>
<!-- Created with Inkscape (http://www.inkscape.org/) -->

<svg
   xmlns:dc="http://purl.org/dc/elements/1.1/"
   xmlns:cc="http://creativecommons.org/ns#"
   xmlns:rdf="http://www.w3.org/1999/02/22-rdf-syntax-ns#"
   xmlns:svg="http://www.w3.org/2000/svg"
   xmlns="http://www.w3.org/2000/svg"
   xmlns:xlink="http://www.w3.org/1999/xlink"
   xmlns:sodipodi="http://sodipodi.sourceforge.net/DTD/sodipodi-0.dtd"
   xmlns:inkscape="http://www.inkscape.org/namespaces/inkscape"
   width="30.14329mm"
   height="26.937069mm"
   viewBox="0 0 106.80693 95.446305"
   id="svg2"
   version="1.1"
   inkscape:version="0.91 r13725"
   sodipodi:docname="Wippe-lineart.svg">
  <title
     id="title4136">seesaw - lineart</title>
  <defs
     id="defs4">
    <pattern
       inkscape:collect="always"
       xlink:href="#Polkadots-large"
       id="pattern6125"
       patternTransform="matrix(0.9285714,0,0,1.1964286,0,948.57143)" />
    <pattern
       inkscape:collect="always"
       xlink:href="#Polkadots-large"
       id="pattern6025"
       patternTransform="matrix(1.1785715,0,0,1.1428571,1.7857143,952.14285)" />
    <pattern
       inkscape:collect="always"
       xlink:href="#Polkadots-large"
       id="pattern5933"
       patternTransform="matrix(1.2621804,0,0,1.3126881,2.0203054,945.50278)" />
    <pattern
       inkscape:collect="always"
       xlink:href="#Polkadots-large"
       id="pattern5833"
       patternTransform="matrix(1.0348962,0,0,1.2621805,4.0406102,949.54339)" />
    <pattern
       inkscape:stockid="Polka dots, large"
       id="Polkadots-large"
       patternTransform="translate(0,0) scale(10,10)"
       height="10"
       width="10"
       patternUnits="userSpaceOnUse"
       inkscape:collect="always">
      <circle
         id="circle5523"
         r="0.45"
         cy="0.810"
         cx="2.567"
         style="fill:black;stroke:none" />
      <circle
         id="circle5525"
         r="0.45"
         cy="2.33"
         cx="3.048"
         style="fill:black;stroke:none" />
      <circle
         id="circle5527"
         r="0.45"
         cy="2.415"
         cx="4.418"
         style="fill:black;stroke:none" />
      <circle
         id="circle5529"
         r="0.45"
         cy="3.029"
         cx="1.844"
         style="fill:black;stroke:none" />
      <circle
         id="circle5531"
         r="0.45"
         cy="1.363"
         cx="6.08"
         style="fill:black;stroke:none" />
      <circle
         id="circle5533"
         r="0.45"
         cy="4.413"
         cx="5.819"
         style="fill:black;stroke:none" />
      <circle
         id="circle5535"
         r="0.45"
         cy="4.048"
         cx="4.305"
         style="fill:black;stroke:none" />
      <circle
         id="circle5537"
         r="0.45"
         cy="3.045"
         cx="5.541"
         style="fill:black;stroke:none" />
      <circle
         id="circle5539"
         r="0.45"
         cy="5.527"
         cx="4.785"
         style="fill:black;stroke:none" />
      <circle
         id="circle5541"
         r="0.45"
         cy="5.184"
         cx="2.667"
         style="fill:black;stroke:none" />
      <circle
         id="circle5543"
         r="0.45"
         cy="1.448"
         cx="7.965"
         style="fill:black;stroke:none" />
      <circle
         id="circle5545"
         r="0.45"
         cy="5.049"
         cx="7.047"
         style="fill:black;stroke:none" />
      <circle
         id="circle5547"
         r="0.45"
         cy="0.895"
         cx="4.340"
         style="fill:black;stroke:none" />
      <circle
         id="circle5549"
         r="0.45"
         cy="0.340"
         cx="7.125"
         style="fill:black;stroke:none" />
      <circle
         id="circle5551"
         r="0.45"
         cy="1.049"
         cx="9.553"
         style="fill:black;stroke:none" />
      <circle
         id="circle5553"
         r="0.45"
         cy="2.689"
         cx="7.006"
         style="fill:black;stroke:none" />
      <circle
         id="circle5555"
         r="0.45"
         cy="2.689"
         cx="8.909"
         style="fill:black;stroke:none" />
      <circle
         id="circle5557"
         r="0.45"
         cy="4.407"
         cx="9.315"
         style="fill:black;stroke:none" />
      <circle
         id="circle5559"
         r="0.45"
         cy="3.870"
         cx="7.820"
         style="fill:black;stroke:none" />
      <circle
         id="circle5561"
         r="0.45"
         cy="5.948"
         cx="8.270"
         style="fill:black;stroke:none" />
      <circle
         id="circle5563"
         r="0.45"
         cy="7.428"
         cx="7.973"
         style="fill:black;stroke:none" />
      <circle
         id="circle5565"
         r="0.45"
         cy="8.072"
         cx="9.342"
         style="fill:black;stroke:none" />
      <circle
         id="circle5567"
         r="0.45"
         cy="9.315"
         cx="8.206"
         style="fill:black;stroke:none" />
      <circle
         id="circle5569"
         r="0.45"
         cy="9.475"
         cx="9.682"
         style="fill:black;stroke:none" />
      <circle
         id="circle5571"
         r="0.45"
         cy="6.186"
         cx="9.688"
         style="fill:black;stroke:none" />
      <circle
         id="circle5573"
         r="0.45"
         cy="6.296"
         cx="3.379"
         style="fill:black;stroke:none" />
      <circle
         id="circle5575"
         r="0.45"
         cy="8.204"
         cx="2.871"
         style="fill:black;stroke:none" />
      <circle
         id="circle5577"
         r="0.45"
         cy="8.719"
         cx="4.59"
         style="fill:black;stroke:none" />
      <circle
         id="circle5579"
         r="0.45"
         cy="9.671"
         cx="3.181"
         style="fill:black;stroke:none" />
      <circle
         id="circle5581"
         r="0.45"
         cy="7.315"
         cx="5.734"
         style="fill:black;stroke:none" />
      <circle
         id="circle5583"
         r="0.45"
         cy="6.513"
         cx="6.707"
         style="fill:black;stroke:none" />
      <circle
         id="circle5585"
         r="0.45"
         cy="9.670"
         cx="5.730"
         style="fill:black;stroke:none" />
      <circle
         id="circle5587"
         r="0.45"
         cy="8.373"
         cx="6.535"
         style="fill:black;stroke:none" />
      <circle
         id="circle5589"
         r="0.45"
         cy="7.154"
         cx="4.37"
         style="fill:black;stroke:none" />
      <circle
         id="circle5591"
         r="0.45"
         cy="7.25"
         cx="0.622"
         style="fill:black;stroke:none" />
      <circle
         id="circle5593"
         r="0.45"
         cy="5.679"
         cx="0.831"
         style="fill:black;stroke:none" />
      <circle
         id="circle5595"
         r="0.45"
         cy="8.519"
         cx="1.257"
         style="fill:black;stroke:none" />
      <circle
         id="circle5597"
         r="0.45"
         cy="6.877"
         cx="1.989"
         style="fill:black;stroke:none" />
      <circle
         id="circle5599"
         r="0.45"
         cy="3.181"
         cx="0.374"
         style="fill:black;stroke:none" />
      <circle
         id="circle5601"
         r="0.45"
         cy="1.664"
         cx="1.166"
         style="fill:black;stroke:none" />
      <circle
         id="circle5603"
         r="0.45"
         cy="0.093"
         cx="1.151"
         style="fill:black;stroke:none" />
      <circle
         id="circle5605"
         r="0.45"
         cy="10.093"
         cx="1.151"
         style="fill:black;stroke:none" />
      <circle
         id="circle5607"
         r="0.45"
         cy="4.451"
         cx="1.302"
         style="fill:black;stroke:none" />
      <circle
         id="circle5609"
         r="0.45"
         cy="3.763"
         cx="3.047"
         style="fill:black;stroke:none" />
    </pattern>
  </defs>
  <sodipodi:namedview
     id="base"
     pagecolor="#ffffff"
     bordercolor="#666666"
     borderopacity="1.0"
     inkscape:pageopacity="0.0"
     inkscape:pageshadow="2"
     inkscape:zoom="1.4142136"
     inkscape:cx="64.456709"
     inkscape:cy="41.416899"
     inkscape:document-units="mm"
     inkscape:current-layer="layer1"
     showgrid="false"
     inkscape:window-width="1227"
     inkscape:window-height="783"
     inkscape:window-x="966"
     inkscape:window-y="279"
     inkscape:window-maximized="0"
     inkscape:snap-global="false"
     fit-margin-top="1"
     fit-margin-right="1"
     fit-margin-bottom="1"
     fit-margin-left="1" />
  <metadata
     id="metadata7">
    <rdf:RDF>
      <cc:Work
         rdf:about="">
        <dc:format>image/svg+xml</dc:format>
        <dc:type
           rdf:resource="http://purl.org/dc/dcmitype/StillImage" />
        <dc:title>seesaw - lineart</dc:title>
        <cc:license
           rdf:resource="http://creativecommons.org/publicdomain/zero/1.0/" />
        <dc:subject>
          <rdf:Bag>
            <rdf:li>seesaw</rdf:li>
            <rdf:li>toys</rdf:li>
            <rdf:li>playground</rdf:li>
            <rdf:li>wippe</rdf:li>
            <rdf:li>spielzeug</rdf:li>
            <rdf:li>spielplatz</rdf:li>
            <rdf:li>line art</rdf:li>
            <rdf:li>outline</rdf:li>
            <rdf:li>teeter</rdf:li>
            <rdf:li>teeter-totter</rdf:li>
            <rdf:li>teeterboard</rdf:li>
          </rdf:Bag>
        </dc:subject>
        <dc:description>line art seesaw</dc:description>
        <dc:date>2015-03-05</dc:date>
        <dc:creator>
          <cc:Agent>
            <dc:title>Frank Tremmel</dc:title>
          </cc:Agent>
        </dc:creator>
      </cc:Work>
      <cc:License
         rdf:about="http://creativecommons.org/publicdomain/zero/1.0/">
        <cc:permits
           rdf:resource="http://creativecommons.org/ns#Reproduction" />
        <cc:permits
           rdf:resource="http://creativecommons.org/ns#Distribution" />
        <cc:permits
           rdf:resource="http://creativecommons.org/ns#DerivativeWorks" />
      </cc:License>
    </rdf:RDF>
  </metadata>
  <g
     inkscape:label="Ebene 1"
     inkscape:groupmode="layer"
     id="layer1"
     transform="translate(2.2620455,-947.80596)">
    <path
       style="fill:#ffffff;fill-opacity:1;fill-rule:evenodd;stroke:#00ff00;stroke-width:0.35433072;stroke-linecap:butt;stroke-linejoin:miter;stroke-miterlimit:4;stroke-dasharray:none;stroke-opacity:1"
       d="m 38.237864,1008.5251 0.126269,-17.93014 c 0.78812,-2.00901 2.15872,-2.99868 4.293148,-2.65165 l 22.223356,12.12179 c 1.645735,1.0943 1.777983,2.1887 1.767767,3.283 l 0,19.3192 c -0.05994,0.1199 -1.413136,2.5667 -2.904189,2.5253 -2.22618,-0.062 -3.535534,-2.7073 -3.535534,-2.7779 l 0.126269,-17.4251 -15.909902,-8.33373 0.252538,12.62683 c 0,0 -0.801558,2.5042 -3.409265,2.3992 -2.613853,-0.1053 -3.030457,-3.1568 -3.030457,-3.1568 z"
       id="path4257"
       inkscape:connector-curvature="0"
       sodipodi:nodetypes="ccccccsccccsc" />
    <g
       id="g6031"
       style="fill:url(#pattern6125);fill-opacity:1;stroke:none">
      <path
         sodipodi:nodetypes="cccccccc"
         inkscape:connector-curvature="0"
         id="path6027"
         d="m 56.830357,998.07649 c 0.689814,1.24557 -0.04572,2.37811 2.142857,3.61611 1.354167,0.8482 3.669777,1.4907 3.839286,2.7232 0.08929,6.9494 -0.736059,13.8988 0.267858,20.8482 L 60,1023.0765 l 0.178572,-18.2143 -6.964286,-3.9286 z"
         style="fill:url(#pattern6125);fill-opacity:1;fill-rule:evenodd;stroke:none;stroke-width:0.35433072;stroke-linecap:butt;stroke-linejoin:miter;stroke-miterlimit:4;stroke-dasharray:none;stroke-opacity:1" />
      <path
         sodipodi:nodetypes="csccccccc"
         inkscape:connector-curvature="0"
         id="path6029"
         d="m 48.75,991.7372 c -0.805315,1.01516 -2.281237,1.95283 -3.540998,2.83329 -1.527338,1.06747 -3.946565,1.94631 -3.914359,2.83635 L 40.758929,1012.0051 45,1009.9068 l -0.267857,-13.61603 1.294643,0.49107 4.732143,-4.10714 z"
         style="fill:url(#pattern6125);fill-opacity:1;fill-rule:evenodd;stroke:none;stroke-width:0.35433072;stroke-linecap:butt;stroke-linejoin:miter;stroke-miterlimit:4;stroke-dasharray:none;stroke-opacity:1" />
    </g>
    <path
       style="color:#000000;font-style:normal;font-variant:normal;font-weight:normal;font-stretch:normal;font-size:medium;line-height:normal;font-family:sans-serif;text-indent:0;text-align:start;text-decoration:none;text-decoration-line:none;text-decoration-style:solid;text-decoration-color:#000000;letter-spacing:normal;word-spacing:normal;text-transform:none;direction:ltr;block-progression:tb;writing-mode:lr-tb;baseline-shift:baseline;text-anchor:start;white-space:normal;clip-rule:nonzero;display:inline;overflow:visible;visibility:visible;opacity:1;isolation:auto;mix-blend-mode:normal;color-interpolation:sRGB;color-interpolation-filters:linearRGB;solid-color:#000000;solid-opacity:1;fill:#000000;fill-opacity:1;fill-rule:evenodd;stroke:none;stroke-width:1.77165353;stroke-linecap:round;stroke-linejoin:round;stroke-miterlimit:4;stroke-dasharray:none;stroke-dashoffset:0;stroke-opacity:1;color-rendering:auto;image-rendering:auto;shape-rendering:auto;text-rendering:auto;enable-background:accumulate"
       d="m 41.495815,987.02902 c -2.229784,0.0149 -4.048993,1.84633 -4.048828,4.07617 l 0,17.37891 0.002,-0.02 c -0.02968,1.3102 0.474304,2.4125 1.259765,3.1231 0.785462,0.7105 1.804769,1.0429 2.8125,1.0429 1.007732,0 2.028992,-0.3324 2.814454,-1.0429 0.785461,-0.7106 1.289449,-1.8129 1.259765,-3.1231 l 0.002,0.02 0,-10.56055 13.816407,7.43945 0,16.5586 c 0,1.2846 0.514258,2.3607 1.294921,3.0546 0.780664,0.694 1.787037,1.0215 2.78125,1.0215 0.994214,0 2.000587,-0.3275 2.78125,-1.0215 0.780664,-0.6939 1.294922,-1.77 1.294922,-3.0546 l 0,-18.9922 c 1.35e-4,-1.498 -0.825536,-2.8779 -2.144531,-3.58788 L 43.45294,987.5173 c -0.601097,-0.32352 -1.274416,-0.49251 -1.957031,-0.48828 z m 0.01172,1.77343 c 0.385905,-0.002 0.765648,0.0905 1.105468,0.27344 l 21.96875,11.82421 c 0.747814,0.4025 1.211014,1.18 1.210938,2.0293 l 0,18.9922 c 0,0.8416 -0.283838,1.3612 -0.699219,1.7304 -0.415381,0.3692 -1.003002,0.5723 -1.603516,0.5723 -0.600513,0 -1.188134,-0.2031 -1.603515,-0.5723 -0.415381,-0.3692 -0.699219,-0.8888 -0.699219,-1.7304 l 0,-17.0879 a 0.88591535,0.88591535 0 0 0 -0.466797,-0.7793 l -15.589843,-8.39257 a 0.88591535,0.88591535 0 0 0 -1.306641,0.77929 l 0,12.04298 a 0.88591535,0.88591535 0 0 0 0.002,0.019 c 0.01958,0.8641 -0.261359,1.3929 -0.677734,1.7695 -0.416376,0.3767 -1.015816,0.586 -1.626954,0.586 -0.611137,0 -1.208624,-0.2093 -1.625,-0.586 -0.416375,-0.3766 -0.697312,-0.9054 -0.677734,-1.7695 a 0.88591535,0.88591535 0 0 0 0.002,-0.019 l 0,-17.37891 c -9.4e-5,-1.27651 1.010635,-2.2942 2.28711,-2.30274 z"
       id="path4159"
       inkscape:connector-curvature="0" />
    <path
       style="fill:#ffffff;fill-opacity:1;fill-rule:evenodd;stroke:#00ff00;stroke-width:0.35433072;stroke-linecap:butt;stroke-linejoin:miter;stroke-miterlimit:4;stroke-dasharray:none;stroke-opacity:1"
       d="m 6.3134534,1032.1591 -2.3991123,2.3992 c -0.2249743,1.2627 0.2598883,2.9042 3.0304577,4.1669 l 25.0012752,-21.2133 15.657365,-13.5108 1.641498,0.1263 14.015866,-11.11166 0.757615,-2.77792 17.5514,-14.77348 -1.136421,-2.65165 c -3.490045,-1.40913 -4.320001,0.22185 -5.555839,1.38896 l -14.394674,12.2481 -3.661803,1.38896 -12.753176,10.6066 0,2.27289 z"
       id="path4255"
       inkscape:connector-curvature="0"
       sodipodi:nodetypes="cccccccccccccccc" />
    <path
       style="fill:#ffffff;fill-opacity:1;fill-rule:evenodd;stroke:#ff0000;stroke-width:0.35433072;stroke-linecap:butt;stroke-linejoin:miter;stroke-miterlimit:4;stroke-dasharray:none;stroke-opacity:1"
       d="m 26.071429,1012.0943 -3.214286,-1.0714 -19.6428573,10 c -0.6919637,0.9543 -1.4775681,1.8383 -1.25,3.4822 l 0.089286,4.0178 c 2.7988036,4.1205 6.6432501,6.934 10.3571423,9.9107 2.366127,0.7889 4.506626,0.7505 6.160715,-1.0714 4.488387,-4.2857 8.03109,-8.5714 11.339285,-12.8571 0.726231,-2.198 0.662129,-4.1983 0.446429,-6.1608 0.218617,-1.4663 -0.279298,-2.7893 -1.25,-4.0178 z"
       id="path4251"
       inkscape:connector-curvature="0"
       sodipodi:nodetypes="ccccccccccc" />
    <g
       id="g4346"
       style="fill:url(#pattern5833);fill-opacity:1;stroke:none">
      <path
         sodipodi:nodetypes="ccccc"
         inkscape:connector-curvature="0"
         id="path4274"
         d="m 79.423245,973.75971 c -5.246495,5.03013 -10.457571,9.61431 -16.541249,14.14213 l 0.883884,3.09359 17.930207,-15.78363 z"
         style="fill:url(#pattern5833);fill-opacity:1;fill-rule:evenodd;stroke:none;stroke-width:0.35433072;stroke-linecap:butt;stroke-linejoin:miter;stroke-miterlimit:4;stroke-dasharray:none;stroke-opacity:1" />
      <path
         sodipodi:nodetypes="ccccc"
         inkscape:connector-curvature="0"
         id="path4274-3"
         d="m 47.187081,1000.7031 c -5.246495,5.0302 -11.025782,9.6143 -17.10946,14.1421 l 1.325826,2.7149 16.604382,-14.2685 z"
         style="fill:url(#pattern5833);fill-opacity:1;fill-rule:evenodd;stroke:none;stroke-width:0.35433072;stroke-linecap:butt;stroke-linejoin:miter;stroke-miterlimit:4;stroke-dasharray:none;stroke-opacity:1" />
      <path
         sodipodi:nodetypes="cccccc"
         inkscape:connector-curvature="0"
         id="path4274-4"
         d="m 62.465638,988.0762 c -6.066241,6.25975 -9.895907,8.42458 -15.467961,12.185 2.149694,1.5156 0.857905,2.8162 0.498521,4.175 l 1.837457,-0.2607 14.331538,-11.30108 z"
         style="fill:url(#pattern5833);fill-opacity:1;fill-rule:evenodd;stroke:none;stroke-width:0.35433072;stroke-linecap:butt;stroke-linejoin:miter;stroke-miterlimit:4;stroke-dasharray:none;stroke-opacity:1" />
      <path
         sodipodi:nodetypes="ccccc"
         inkscape:connector-curvature="0"
         id="path4274-0"
         d="m 77.23912,974.88109 c -5.550577,4.62469 -8.948865,7.71158 -14.836618,12.50063 l -2.462246,-0.12627 15.720499,-13.19511 z"
         style="fill:url(#pattern5833);fill-opacity:1;fill-rule:evenodd;stroke:none;stroke-width:0.35433072;stroke-linecap:butt;stroke-linejoin:miter;stroke-miterlimit:4;stroke-dasharray:none;stroke-opacity:1" />
      <path
         sodipodi:nodetypes="cccccc"
         inkscape:connector-curvature="0"
         id="path4274-4-8"
         d="m 58.597082,986.97012 c -6.950125,5.24959 -7.875603,6.40426 -13.447657,10.1647 l -1.963725,2.34409 c 1.798287,0.20339 1.547898,-0.41309 2.658206,0.18124 l 15.973035,-12.2481 z"
         style="fill:url(#pattern5833);fill-opacity:1;fill-rule:evenodd;stroke:none;stroke-width:0.35433072;stroke-linecap:butt;stroke-linejoin:miter;stroke-miterlimit:4;stroke-dasharray:none;stroke-opacity:1" />
      <path
         sodipodi:nodetypes="ccccc"
         inkscape:connector-curvature="0"
         id="path4274-3-3"
         d="m 46.41107,1000.0512 c -5.246495,5.0302 -10.773242,9.0461 -16.85692,13.5739 l -0.441941,-1.0101 16.162439,-13.19516 z"
         style="fill:url(#pattern5833);fill-opacity:1;fill-rule:evenodd;stroke:none;stroke-width:0.35433072;stroke-linecap:butt;stroke-linejoin:miter;stroke-miterlimit:4;stroke-dasharray:none;stroke-opacity:1" />
    </g>
    <path
       style="fill:#ffffff;fill-opacity:1;fill-rule:evenodd;stroke:#ff00ff;stroke-width:0.35433072;stroke-linecap:butt;stroke-linejoin:miter;stroke-miterlimit:4;stroke-dasharray:none;stroke-opacity:1"
       d="m 94.107143,953.96934 -6.071428,-1.875 c -1.662871,-0.37678 -2.97997,0.16849 -3.928572,1.69643 l -9.375,13.57143 -0.267857,5.08929 c 0.74714,0.93789 0.153688,1.7082 2.589286,2.85714 1.524679,-0.0468 1.139338,0.96756 4.642857,-0.17857 4.374264,-1.69265 7.924756,-3.67829 13.125,-6.875 1.682751,-1.1977 3.275257,-1.85394 5.178568,-4.375 0.452653,-1.90477 0.438613,-3.80953 0.178573,-5.71429 0.12701,-1.53308 -1.245006,-2.06682 -2.499998,-2.67857 z"
       id="path4253"
       inkscape:connector-curvature="0"
       sodipodi:nodetypes="cccccccccccc" />
    <path
       style="fill:url(#pattern6025);fill-opacity:1;fill-rule:evenodd;stroke:#ff00ff;stroke-width:0.35433072;stroke-linecap:butt;stroke-linejoin:miter;stroke-miterlimit:4;stroke-dasharray:none;stroke-opacity:1"
       d="m 5.4295699,1032.9168 -1.7046324,2.3359 1.2626907,2.5886 2.1465742,0.6313 2.4622468,-2.0834 z"
       id="path4344"
       inkscape:connector-curvature="0" />
    <path
       style="color:#000000;font-style:normal;font-variant:normal;font-weight:normal;font-stretch:normal;font-size:medium;line-height:normal;font-family:sans-serif;text-indent:0;text-align:start;text-decoration:none;text-decoration-line:none;text-decoration-style:solid;text-decoration-color:#000000;letter-spacing:normal;word-spacing:normal;text-transform:none;direction:ltr;block-progression:tb;writing-mode:lr-tb;baseline-shift:baseline;text-anchor:start;white-space:normal;clip-rule:nonzero;display:inline;overflow:visible;visibility:visible;opacity:1;isolation:auto;mix-blend-mode:normal;color-interpolation:sRGB;color-interpolation-filters:linearRGB;solid-color:#000000;solid-opacity:1;fill:#000000;fill-opacity:1;fill-rule:evenodd;stroke:none;stroke-width:1.77165353;stroke-linecap:round;stroke-linejoin:miter;stroke-miterlimit:4;stroke-dasharray:none;stroke-dashoffset:0;stroke-opacity:1;color-rendering:auto;image-rendering:auto;shape-rendering:auto;text-rendering:auto;enable-background:accumulate"
       d="m 75.326172,973.17237 c -5.153242,4.11502 -10.263336,8.37015 -15.5,12.76367 -3.027612,0.14852 -5.026837,2.7116 -7.284741,4.43691 -3.179375,2.42943 -6.338679,4.91319 -9.301798,7.59501 -0.592182,0.63793 -0.795246,1.79724 -0.448362,2.23574 -4.256936,3.6437 -11.363986,9.6257 -15.542594,13.3418 0.635874,0.3488 1.061652,0.5712 1.679857,0.8182 5.373738,-4.5265 10.745024,-9.0597 16.120294,-13.582 0.97012,-0.516 1.513311,-0.059 1.904249,0.3397 0.818971,0.8351 0.158806,2.3111 -1.114226,3.1609 -5.257912,4.4971 -10.661314,8.8621 -15.829687,13.4406 0.356106,0.4291 0.567864,0.8938 1.050163,1.5715 l 16.467459,-14.0503 c 1.323057,-0.043 2.296895,-0.4759 3.165667,-1.0828 1.14814,-0.802 2.178627,-1.8165 3.45746,-2.8146 3.157762,-2.46447 6.33734,-4.92563 9.316505,-7.59659 0.88541,-1.01668 1.027415,-2.05969 1.269224,-2.97505 5.193146,-4.50943 12.751481,-10.68431 17.862533,-15.26797 0.55135,-1.06572 -1.52328,-1.44519 -2.087024,-0.44343 l -16.276776,13.9466 c -0.965788,-1.70156 -1.708368,-1.95346 -2.537483,-2.58747 4.129546,-3.52286 10.399086,-8.35312 14.448408,-11.95017 0.331119,-0.57523 -0.156776,-1.35029 -0.819128,-1.30025 z m -15.363281,14.52929 c 0.858673,-0.015 1.550156,0.35394 2.033997,0.92082 1.179442,1.38186 0.945064,3.60368 -0.753099,4.77639 -4.196304,2.89786 -8.673687,7.04733 -12.653387,10.23603 0.471076,-1.4682 0.133549,-2.8458 -0.643893,-3.5958 -1.150632,-1.11008 -2.042517,-1.40427 -3.547639,-0.91162 4.400151,-3.5089 9.459168,-7.76023 14.052446,-11.00727 0.463651,-0.25002 0.9796,-0.40922 1.511575,-0.41855 z M 5.2227553,1032.4041 c -1.3697689,0.3877 -1.9134436,2.0741 -2.0577736,3.3239 -0.205759,1.7817 1.3236871,3.1219 3.2966093,3.5652 1.0515542,0.2363 3.1212671,-0.9648 3.877207,-1.9662 -0.5264273,-0.5778 -1.1187637,-0.9299 -1.6436488,-1.5923 -0.1385139,0.5701 -0.9452858,1.2085 -1.7490761,1.468 -1.0974716,0.3542 -1.6034107,-0.1424 -2.0723243,-0.6836 -0.6829918,-0.7884 0.6229047,-2.4692 1.5887956,-3.157 -0.3087819,-0.4013 -0.9549341,-0.6582 -1.2397891,-0.958 z"
       id="path4157"
       inkscape:connector-curvature="0"
       sodipodi:nodetypes="ccscccccsccccssccccccccssscsccscssccsscc" />
    <g
       id="g5837"
       style="fill:url(#pattern5933);fill-opacity:1">
      <path
         sodipodi:nodetypes="cccccccscccc"
         inkscape:connector-curvature="0"
         id="path4342"
         d="m 1.9571706,1023.5729 c -0.2392742,1.8256 -0.3998891,3.6197 0.1894036,5.1139 2.2175389,2.9267 4.2644214,4.9857 6.8185297,7.071 l 4.1037451,2.9673 c 1.241646,0.3846 2.483291,0.8006 3.724937,-0.1262 4.906127,-3.7393 9.329893,-9.8209 13.573925,-15.2154 0.908656,-3.0342 0.169407,-4.4205 -0.189399,-6.1872 -0.27414,0.8075 -2.696523,4.8201 -5.831556,8.6417 -3.687147,4.4946 -8.214885,8.8218 -9.257597,8.7834 -0.989479,0.7813 -1.754046,-0.012 -2.588516,-0.3156 l -6.3765879,-6.2504 c -1.372461,-1.1491 -3.5269549,-3.4046 -4.1668845,-4.4825 z"
         style="fill:url(#pattern5933);fill-opacity:1;fill-rule:evenodd;stroke:#00ff00;stroke-width:0.35433072;stroke-linecap:butt;stroke-linejoin:miter;stroke-miterlimit:4;stroke-dasharray:none;stroke-opacity:1" />
      <path
         sodipodi:nodetypes="cccccccccc"
         inkscape:connector-curvature="0"
         id="path5835"
         d="m 74.508929,970.26399 0.04464,2.8125 1.875,1.69642 4.241071,0.53572 c 3.243771,-1.22134 6.41095,-2.12406 9.419643,-4.28572 4.25648,-1.68513 7.195892,-4.56759 10.178577,-7.41071 l -0.0893,-4.64286 c -1.95503,2.25556 -4.32705,4.26092 -6.875001,6.16072 -3.10904,2.589 -7.679219,5.70297 -12.544643,7.1875 -2.630847,0.36539 -4.351549,-0.67172 -6.24999,-2.05357 z"
         style="fill:url(#pattern5933);fill-opacity:1;fill-rule:evenodd;stroke:#00ff00;stroke-width:0.35433072;stroke-linecap:butt;stroke-linejoin:miter;stroke-miterlimit:4;stroke-dasharray:none;stroke-opacity:1" />
    </g>
    <path
       style="color:#000000;font-style:normal;font-variant:normal;font-weight:normal;font-stretch:normal;font-size:medium;line-height:normal;font-family:sans-serif;text-indent:0;text-align:start;text-decoration:none;text-decoration-line:none;text-decoration-style:solid;text-decoration-color:#000000;letter-spacing:normal;word-spacing:normal;text-transform:none;direction:ltr;block-progression:tb;writing-mode:lr-tb;baseline-shift:baseline;text-anchor:start;white-space:normal;clip-rule:nonzero;display:inline;overflow:visible;visibility:visible;opacity:1;isolation:auto;mix-blend-mode:normal;color-interpolation:sRGB;color-interpolation-filters:linearRGB;solid-color:#000000;solid-opacity:1;fill:#000000;fill-opacity:1;fill-rule:evenodd;stroke:none;stroke-width:1.77165353;stroke-linecap:butt;stroke-linejoin:miter;stroke-miterlimit:4;stroke-dasharray:none;stroke-dashoffset:0;stroke-opacity:1;color-rendering:auto;image-rendering:auto;shape-rendering:auto;text-rendering:auto;enable-background:accumulate"
       d="m 81.938458,955.11361 c -2.453373,3.61286 -5.079616,7.11045 -7.487286,10.75407 -0.503545,0.76204 -0.662586,1.58266 -0.613281,2.48437 -0.0012,1.41374 -0.151591,2.83467 -0.04732,4.24337 0.618309,2.3873 3.268688,3.76907 5.602966,3.65196 3.008889,-0.15095 5.743936,-1.66153 8.356859,-3.04215 4.158957,-2.19752 8.497449,-4.32311 11.840664,-7.71245 0.57325,-0.63714 1.16556,-1.38213 1.08807,-2.28646 0.0957,-1.6992 0.31279,-3.44117 0.32245,-5.10722 -0.25071,-2.1258 -2.374209,-3.19609 -4.141817,-3.91499 -2.81007,-1.2362 -5.682169,-2.40691 -8.679417,-2.7901 -2.997249,-0.38319 -4.915331,1.7661 -6.241888,3.7196 z m 5.74904,-2.18929 c 3.386121,0.61863 6.56262,2.03744 9.688245,3.4375 1.161406,0.45303 2.799757,2.08548 1.527224,3.22967 -0.851905,0.81243 -1.69563,1.77512 -2.566368,2.57363 -3.937964,3.10014 -8.41035,6.35094 -13.03405,8.34679 -1.581829,0.68281 -3.15805,0.92322 -4.930688,0.68037 -1.491605,-0.40028 -3.07745,-1.74126 -2.715123,-3.44416 0.218759,-1.20844 1.123509,-2.10226 1.792113,-3.08488 2.212221,-3.2512 4.432286,-6.50233 6.772564,-9.66014 0.803313,-1.08394 2.004164,-2.17742 3.466083,-2.07878 z m 11.601005,10.35826 c -1.619993,2.12214 -3.58217,3.54906 -5.676955,4.83115 -3.139479,1.92149 -6.809213,4.00981 -10.177096,5.49895 -1.955203,0.86451 -4.316111,1.47371 -6.358288,0.32222 -0.819124,-0.46187 -1.703974,-1.29203 -1.552728,-2.31722 1.383552,1.24554 3.353222,1.73744 5.160355,1.20981 3.175644,-0.92719 6.119806,-2.46402 8.890704,-4.25423 3.098227,-2.00168 8.494417,-5.99437 10.042275,-8.08029 0.53186,0.71262 0.03992,2.65154 -0.328267,2.78961 z"
       id="path4161-0"
       inkscape:connector-curvature="0"
       sodipodi:nodetypes="ssccsscccccsccccsccssccssscsscc" />
    <path
       style="color:#000000;font-style:normal;font-variant:normal;font-weight:normal;font-stretch:normal;font-size:medium;line-height:normal;font-family:sans-serif;text-indent:0;text-align:start;text-decoration:none;text-decoration-line:none;text-decoration-style:solid;text-decoration-color:#000000;letter-spacing:normal;word-spacing:normal;text-transform:none;direction:ltr;block-progression:tb;writing-mode:lr-tb;baseline-shift:baseline;text-anchor:start;white-space:normal;clip-rule:nonzero;display:inline;overflow:visible;visibility:visible;opacity:1;isolation:auto;mix-blend-mode:normal;color-interpolation:sRGB;color-interpolation-filters:linearRGB;solid-color:#000000;solid-opacity:1;fill:#000000;fill-opacity:1;fill-rule:evenodd;stroke:none;stroke-width:0.35433072;stroke-linecap:butt;stroke-linejoin:miter;stroke-miterlimit:4;stroke-dasharray:none;stroke-dashoffset:0;stroke-opacity:1;color-rendering:auto;image-rendering:auto;shape-rendering:auto;text-rendering:auto;enable-background:accumulate"
       d="m 23.619141,1010.4106 c -1.982665,-0.1731 -3.622075,1.1306 -5.302242,1.9766 -4.33507,2.1827 -8.5659525,4.5689 -12.9067428,6.7402 -0.7957482,0.398 -2.3903589,1.1613 -3.2055718,2.0808 -0.8244162,0.9299 -0.8175347,2.1096 -0.8011568,3.245 0.019126,1.3259 -0.2863999,2.3543 0.00316,3.609 0.4828008,2.092 2.4384371,3.6488 3.9153136,5.1394 2.3410479,2.3629 4.4232811,4.444 7.4323328,5.9621 2.073894,1.0463 4.357929,0.5413 5.885828,-1.1252 3.123608,-3.4069 6.65545,-6.4203 9.396591,-10.1473 1.262921,-1.7171 2.839782,-3.3442 3.181695,-5.5549 0.252877,-1.635 0.122165,-3.344 -0.282806,-4.91 -0.294059,-1.1371 -1.003267,-2.3886 -1.908771,-3.3119 -1.524928,-1.5548 -3.086886,-3.5011 -5.407634,-3.7038 z m 4.951327,4.8495 c 1.136994,1.1141 0.909899,3.0598 -0.254341,4.4007 -2.041915,2.3518 -3.749197,5.2276 -5.869701,7.4212 -1.855551,1.9196 -3.827821,4.563 -5.836438,6.2636 -1.091857,0.9245 -2.910684,1.3781 -4.149567,0.073 -3.1147904,-3.2805 -6.3189324,-6.0406 -9.3444521,-9.408 -0.9525842,-1.0602 0.6171477,-2.5407 1.6604127,-3.0403 3.4512615,-1.6529 6.9899574,-3.6457 10.3989104,-5.3876 2.391156,-1.2218 4.555376,-2.4015 6.972763,-3.5649 0.482949,-0.2324 1.460331,-0.3861 2.297779,0.1081 1.016987,0.6001 2.799399,1.8356 4.124634,3.1342 z m 1.234171,4.1633 c 0.04155,1.7231 -0.137588,3.8423 -1.160268,5.1666 -2.756823,3.5698 -6.454176,7.9761 -9.646997,11.1656 -1.15326,1.1521 -2.184149,2.5123 -4.011803,2.5218 -1.815377,0.01 -3.284128,-1.0289 -4.564178,-2.1653 -2.5652107,-2.2773 -5.5364755,-4.748 -7.4650894,-7.6112 -0.4543799,-0.6618 -0.3518447,-2.6108 -0.4014667,-3.353 2.9402582,2.9033 6.4664426,6.4802 9.4390431,9.348 1.165303,1.1242 3.109765,1.6212 4.449674,0.5249 1.958114,-1.6021 4.366164,-4.683 6.081991,-6.5367 2.713885,-2.9321 4.912178,-5.8357 7.279094,-9.0607 z"
       id="path4161-0-4"
       inkscape:connector-curvature="0"
       sodipodi:nodetypes="ssssssssssssssssssssssssscssssccsssc" />
    <path
       style="color:#000000;font-style:normal;font-variant:normal;font-weight:normal;font-stretch:normal;font-size:medium;line-height:normal;font-family:sans-serif;text-indent:0;text-align:start;text-decoration:none;text-decoration-line:none;text-decoration-style:solid;text-decoration-color:#000000;letter-spacing:normal;word-spacing:normal;text-transform:none;direction:ltr;block-progression:tb;writing-mode:lr-tb;baseline-shift:baseline;text-anchor:start;white-space:normal;clip-rule:nonzero;display:inline;overflow:visible;visibility:visible;opacity:1;isolation:auto;mix-blend-mode:normal;color-interpolation:sRGB;color-interpolation-filters:linearRGB;solid-color:#000000;solid-opacity:1;fill:#ffffff;fill-opacity:1;fill-rule:evenodd;stroke:#000000;stroke-width:1.0629921;stroke-linecap:butt;stroke-linejoin:miter;stroke-miterlimit:4;stroke-dasharray:none;stroke-dashoffset:0;stroke-opacity:1;color-rendering:auto;image-rendering:auto;shape-rendering:auto;text-rendering:auto;enable-background:accumulate"
       d="m 75.484375,959.12305 c -1.547107,0.13107 -2.435499,1.30063 -2.51232,2.86186 -0.103372,2.10083 0.223417,3.67889 0.843513,5.6505 0.229267,0.72896 1.041,2.15664 1.323662,2.86654 1.337577,1.22122 2.293937,1.84109 4.630301,2.06334 1.76792,-1.55942 2.742589,-3.69841 4.009736,-5.69996 0.813416,-1.28485 1.585363,-2.27156 0.855944,-3.69106 -0.607805,-1.18283 -1.444644,-1.69591 -2.624802,-2.16056 -2.282102,-0.89851 -4.294266,-2.07973 -6.526034,-1.89066 z m 0.300245,2.50269 c 2.043844,0.46863 4.452831,1.59137 6.289838,2.60867 0.651678,0.36089 0.516563,1.15086 0.192154,1.69238 -0.818437,1.36619 -1.794539,3.70899 -3.204063,4.4402 -1.062337,0.5511 -2.197641,-0.3536 -2.698484,-1.34566 -0.909861,-1.80224 -1.145927,-4.42852 -1.301159,-6.45178 -0.03128,-0.40771 0.408038,-1.01573 0.721714,-0.94381 z"
       id="path4198"
       inkscape:connector-curvature="0"
       sodipodi:nodetypes="sssccsssssssssss" />
    <path
       style="color:#000000;font-style:normal;font-variant:normal;font-weight:normal;font-stretch:normal;font-size:medium;line-height:normal;font-family:sans-serif;text-indent:0;text-align:start;text-decoration:none;text-decoration-line:none;text-decoration-style:solid;text-decoration-color:#000000;letter-spacing:normal;word-spacing:normal;text-transform:none;direction:ltr;block-progression:tb;writing-mode:lr-tb;baseline-shift:baseline;text-anchor:start;white-space:normal;clip-rule:nonzero;display:inline;overflow:visible;visibility:visible;opacity:1;isolation:auto;mix-blend-mode:normal;color-interpolation:sRGB;color-interpolation-filters:linearRGB;solid-color:#000000;solid-opacity:1;fill:#ffffff;fill-opacity:1;fill-rule:evenodd;stroke:#000000;stroke-width:1.41732287;stroke-linecap:butt;stroke-linejoin:miter;stroke-miterlimit:4;stroke-dasharray:none;stroke-dashoffset:0;stroke-opacity:1;color-rendering:auto;image-rendering:auto;shape-rendering:auto;text-rendering:auto;enable-background:accumulate"
       d="m 23.289108,1005.4601 c -0.303733,1.1685 -0.149065,2.4066 0.0402,3.5823 0.212375,1.0603 0.503173,2.1292 0.995872,3.0923 2.247597,0.9763 3.539631,1.5476 5.23286,4.4736 2.455859,-0.3488 4.00621,-1.7177 5.037134,-3.9565 0.545122,-1.276 0.670714,-2.6461 -0.107999,-3.739 -1.029546,-1.4449 -2.272328,-2.7519 -3.796415,-3.6748 -1.352852,-0.8192 -2.840292,-1.4922 -4.46332,-1.5909 -1.623064,-0.099 -2.634429,0.7298 -2.938332,1.813 z m 4.394197,1.4232 c 1.694403,0.7631 3.268899,1.8961 4.32493,3.4514 0.315922,0.4653 0.840052,1.0713 0.353958,1.6016 -0.466047,0.849 -1.47119,2.0155 -2.410288,2.3391 -1.073721,-1.8233 -3.105851,-2.5869 -4.341873,-3.4364 -0.532481,-1.3323 -0.346625,-3.449 -0.06298,-4.0896 0.283644,-0.6405 1.582817,-0.1154 2.136253,0.1339 z"
       id="path4198-1"
       inkscape:connector-curvature="0"
       sodipodi:nodetypes="cccccssscssccccs" />
    <path
       style="fill:none;fill-rule:evenodd;stroke:#000000;stroke-width:0.35433072;stroke-linecap:butt;stroke-linejoin:miter;stroke-miterlimit:4;stroke-dasharray:none;stroke-opacity:1"
       d="m 63.084597,1001.1336 c -0.557137,-0.2062 -1.58204,-0.4598 -1.585898,-0.038 -0.02568,0.5013 1.34853,1.4611 2.397747,1.9502 0.508218,0.9379 0.27739,1.7526 0.416054,2.6288 0.252071,-1.0963 0.788916,-2.066 0.5625,-3.375 -0.270326,-0.652 -0.770725,-0.7886 -1.790403,-1.1661 z"
       id="path6127"
       inkscape:connector-curvature="0"
       sodipodi:nodetypes="sccccs" />
  </g>
</svg>
