<?xml version="1.0" encoding="utf-8"?>
<!-- Generator: Adobe Illustrator 15.0.0, SVG Export Plug-In . SVG Version: 6.00 Build 0)  -->
<!DOCTYPE svg PUBLIC "-//W3C//DTD SVG 1.1//EN" "http://www.w3.org/Graphics/SVG/1.1/DTD/svg11.dtd">
<svg version="1.1" id="Layer_1" xmlns="http://www.w3.org/2000/svg" xmlns:xlink="http://www.w3.org/1999/xlink" x="0px" y="0px"
	 width="595.28px" height="415.301px" viewBox="0 0 595.28 415.301" enable-background="new 0 0 595.28 415.301"
	 xml:space="preserve">
<g>
	<path fill="#1FB24B" d="M553.244,396.202c0,7.798-7.141,14.119-15.945,14.119H22.132c-8.807,0-15.946-6.321-15.946-14.119V19.697
		c0-7.798,7.139-14.119,15.946-14.119h515.167c8.805,0,15.945,6.321,15.945,14.119V396.202z"/>
	<path fill="#3953A4" d="M590.209,396.825c0,7.81-3.883,14.141-8.67,14.141H301.41c-4.788,0-8.67-6.331-8.67-14.141V19.719
		c0-7.81,3.882-14.141,8.67-14.141h280.129c4.787,0,8.67,6.331,8.67,14.141V396.825z"/>
	<path fill="#839BCF" d="M589.519,385.667V13.725c-15.401-3.875-31.521-5.942-48.124-5.942
		c-108.597,0-196.631,88.034-196.631,196.63c0,108.597,88.034,196.631,196.631,196.631c15.865,0,31.287-1.892,46.064-5.44
		C588.741,392.923,589.519,389.458,589.519,385.667z"/>
	<path fill="#F05758" d="M589.52,388.245V131.993c-10.611-2.669-21.717-4.094-33.157-4.094c-74.817,0-135.468,60.651-135.468,135.47
		c0,74.818,60.65,135.47,135.468,135.47c10.932,0,21.557-1.303,31.737-3.748C588.983,393.245,589.52,390.857,589.52,388.245z"/>
	<polygon fill="#FFFFFF" points="47.582,242.437 16.871,9.099 95.988,178.218 221.268,12.354 110.211,204.72 383.74,37.742 
		119.809,216.601 537.624,161.429 116.633,260.378 533.188,290.975 115.01,277.304 343.292,392.528 83.975,306.599 123.921,392.528 
		49.721,306.599 5.324,392.528 	"/>
	<g>
		<path fill="#F9ED23" stroke="#1FB24B" stroke-miterlimit="10" d="M417.898,113.111l-0.231,0.125
			c0.274,3.379,0.375,5.922,0.422,8.681l-1.697,21.43l0.095,0.135l16.348-8.852l-10.317-14.554
			C420.899,117.796,419.36,115.474,417.898,113.111z"/>
		<path fill="#F9ED23" stroke="#1FB24B" stroke-miterlimit="10" d="M517.919,194.504l-2.742,6.59l-9.235,23.968l-13.71-37.749
			l-8.589-41.345l2.743-19.173l10.968-20.972l47.987-16.778L498.726,19.54l-32.584,42.719l21.291,27.386l-31.534-12.583
			L442.51,93.24l-25.363-10.786l-21.938,6.59l-34.963,5.393l-65.812-15.579l-4.798-14.381h-15.083l-19.88,25.167l13.024-5.393
			l13.019,5.992l10.29,2.996l59.639,19.772h19.198l-4.801,14.981l-63.754,35.352l-34.277,17.377l-104.2-37.15l-48.674,78.495
			l-42.503,34.153l20.566,11.385l55.528-22.769l-10.283-10.187l39.076-50.332l56.898,35.353l-13.025,28.162l70.611,96.471v5.991
			l28.792,37.749l11.654-17.975l-1.37-34.753h-23.365l-26.947-71.304l-19.612-11.983l12.339-11.385l35.991,8.389l46.958-45.24
			l54.842-14.08l45.246-9.587l35.647,52.729l12.702,22.298l16.453-32.737l14.034-32.103v-13.781l-34.276-14.98L517.919,194.504z
			 M305.563,226.384l-2.566-3.622l2.107-7.362c5.228-17.495,7.065-26.288,2.406-32.86c-3.136-4.425-8.416-7.229-15.859-3.199
			c-4.526,2.452-6.862,6.501-7.976,9.423l-5.096-2.995c1.618-4.311,5.226-8.957,10.904-12.033
			c10.744-5.816,19.836-1.83,24.256,4.409c5.705,8.049,3.642,18.17-0.596,32.717l-1.633,5.338l0.097,0.134l22.329-12.092
			l3.471,4.896L305.563,226.384z M361.335,197.204c-9.746,5.277-22.081,0.911-32.454-13.426
			c-10.411-14.689-8.78-26.619,1.348-32.104c10.437-5.651,22.299-0.751,32.141,13.133
			C372.877,179.629,372.308,191.261,361.335,197.204z M398.949,175.814l-27.004-38.097l-0.154,0.083l-5.771,8.786l-4.489-3.786
			l7.283-10.999l5.755-3.116l30.903,43.597L398.949,175.814z M444.53,151.131l-8.464-11.94l-23.175,12.55l-2.71-3.824l2.523-39.885
			l7.293-3.948l19.205,27.097l6.983-3.781l3.231,4.561l-6.982,3.781l8.465,11.939L444.53,151.131z"/>
		<path fill="#F9ED23" stroke="#1FB24B" stroke-miterlimit="10" d="M333.002,156.484c-5.832,3.157-5.66,11.79,2.755,23.662
			c8.035,11.335,16.591,15.614,22.728,12.289c6.829-3.698,5.14-12.527-2.754-23.662
			C348.123,158.041,340.063,152.661,333.002,156.484z"/>
	</g>
	<g>
		<circle fill="#020202" stroke="#CB499A" stroke-width="4" stroke-miterlimit="10" cx="56.086" cy="242.437" r="41.354"/>
		<circle fill="none" stroke="#6ABD45" stroke-width="4" stroke-miterlimit="10" cx="52.184" cy="245.088" r="29.65"/>
		<circle fill="none" stroke="#3A54A5" stroke-width="4" stroke-miterlimit="10" cx="50.421" cy="249.974" r="21.427"/>
		<circle fill="#ED1F24" cx="47.581" cy="254.218" r="11.782"/>
	</g>
	<g>
		<path fill="#FFFFFF" d="M417.688,333.699v-1.557l1.989-1.931c4.784-4.554,6.976-6.975,6.976-9.8c0-1.902-0.894-3.661-3.689-3.661
			c-1.701,0-3.113,0.865-3.979,1.585l-0.807-1.787c1.269-1.066,3.142-1.902,5.274-1.902c4.036,0,5.736,2.767,5.736,5.448
			c0,3.459-2.508,6.255-6.457,10.06l-1.47,1.384v0.058h8.388v2.104H417.688z"/>
		<path fill="#FFFFFF" d="M444.953,324.129c0,6.37-2.392,9.886-6.514,9.886c-3.661,0-6.168-3.43-6.226-9.627
			c0-6.313,2.738-9.743,6.543-9.743C442.677,314.646,444.953,318.163,444.953,324.129z M434.778,324.417
			c0,4.871,1.499,7.638,3.806,7.638c2.564,0,3.805-3.026,3.805-7.811c0-4.612-1.153-7.639-3.805-7.639
			C436.393,316.606,434.778,319.315,434.778,324.417z"/>
		<path fill="#FFFFFF" d="M452.762,317.327h-0.058l-3.258,1.758l-0.489-1.931l4.093-2.19h2.162v18.735h-2.45V317.327z"/>
		<path fill="#FFFFFF" d="M469.88,333.699v-5.131h-8.704v-1.643l8.358-11.962h2.738v11.645h2.623v1.96h-2.623v5.131H469.88z
			 M469.88,326.608v-6.254c0-0.98,0.029-1.96,0.087-2.94h-0.087c-0.576,1.096-1.037,1.902-1.556,2.767l-4.583,6.37v0.058H469.88z"/>
		<path fill="#FFFFFF" d="M483.798,314.271h10.463v2.104h-7.927v6.457h7.321v2.075h-7.321v8.792h-2.536V314.271z"/>
		<path fill="#FFFFFF" d="M500.369,314.271v19.427h-2.536v-19.427H500.369z"/>
		<path fill="#FFFFFF" d="M504.721,314.271h10.463v2.104h-7.927v6.457h7.321v2.075h-7.321v8.792h-2.536V314.271z"/>
		<path fill="#FFFFFF" d="M519.678,327.588l-2.018,6.111h-2.594l6.629-19.427h2.998l6.63,19.427h-2.681l-2.075-6.111H519.678z
			 M526.077,325.628l-1.932-5.592c-0.432-1.268-0.721-2.421-1.009-3.545h-0.058c-0.288,1.125-0.576,2.335-0.979,3.517l-1.902,5.621
			H526.077z"/>
		<path fill="#FFFFFF" d="M421.753,368.282l-4.929-19.427h2.651l2.306,9.829c0.577,2.421,1.096,4.842,1.441,6.716h0.058
			c0.317-1.931,0.923-4.237,1.586-6.745l2.594-9.8h2.623l2.363,9.858c0.548,2.306,1.066,4.612,1.354,6.658h0.058
			c0.404-2.133,0.951-4.295,1.557-6.716l2.565-9.8h2.565l-5.505,19.427h-2.623l-2.45-10.117c-0.605-2.479-1.009-4.381-1.269-6.341
			h-0.058c-0.317,1.931-0.778,3.833-1.499,6.341l-2.767,10.117H421.753z"/>
		<path fill="#FFFFFF" d="M459.565,358.366c0,6.658-4.064,10.232-9.021,10.232c-5.159,0-8.733-4.006-8.733-9.886
			c0-6.168,3.805-10.204,8.992-10.204C456.136,348.509,459.565,352.573,459.565,358.366z M444.462,358.655
			c0,4.179,2.248,7.897,6.226,7.897c3.979,0,6.227-3.661,6.227-8.071c0-3.891-2.018-7.926-6.197-7.926
			S444.462,354.417,444.462,358.655z"/>
		<path fill="#FFFFFF" d="M462.819,349.114c1.269-0.23,3.113-0.403,4.813-0.403c2.681,0,4.439,0.519,5.621,1.585
			c0.951,0.864,1.527,2.19,1.527,3.718c0,2.536-1.614,4.237-3.632,4.929v0.086c1.47,0.519,2.363,1.902,2.825,3.92
			c0.634,2.709,1.095,4.583,1.499,5.333h-2.595c-0.317-0.577-0.749-2.219-1.269-4.641c-0.576-2.681-1.643-3.689-3.92-3.776h-2.363
			v8.417h-2.508V349.114z M465.327,357.963h2.565c2.681,0,4.381-1.47,4.381-3.689c0-2.508-1.815-3.603-4.468-3.603
			c-1.21,0-2.046,0.086-2.479,0.202V357.963z"/>
		<path fill="#FFFFFF" d="M478.295,348.854h2.536v17.323h8.302v2.104h-10.838V348.854z"/>
		<path fill="#FFFFFF" d="M491.926,349.143c1.528-0.259,3.344-0.432,5.333-0.432c3.603,0,6.168,0.865,7.868,2.421
			c1.759,1.585,2.768,3.834,2.768,6.976c0,3.17-1.009,5.765-2.796,7.552c-1.845,1.816-4.843,2.796-8.618,2.796
			c-1.816,0-3.286-0.086-4.555-0.23V349.143z M494.434,366.322c0.634,0.086,1.557,0.115,2.536,0.115
			c5.391,0,8.272-2.998,8.272-8.244c0.029-4.583-2.564-7.494-7.868-7.494c-1.298,0-2.277,0.115-2.94,0.259V366.322z"/>
		<path fill="#FFFFFF" d="M524.666,367.676c-0.894,0.461-2.768,0.922-5.131,0.922c-5.477,0-9.569-3.458-9.569-9.857
			c0-6.111,4.121-10.204,10.146-10.204c2.393,0,3.949,0.519,4.612,0.865l-0.635,2.046c-0.922-0.461-2.277-0.807-3.891-0.807
			c-4.555,0-7.581,2.911-7.581,8.013c0,4.785,2.738,7.811,7.437,7.811c1.557,0,3.113-0.317,4.122-0.807L524.666,367.676z"/>
		<path fill="#FFFFFF" d="M530.341,348.854v11.529c0,4.324,1.932,6.168,4.525,6.168c2.854,0,4.728-1.902,4.728-6.168v-11.529h2.536
			v11.356c0,5.967-3.142,8.388-7.351,8.388c-3.978,0-6.975-2.248-6.975-8.301v-11.443H530.341z"/>
		<path fill="#FFFFFF" d="M546.479,349.085c1.211-0.202,2.796-0.375,4.813-0.375c2.479,0,4.295,0.576,5.448,1.614
			c1.037,0.922,1.7,2.334,1.7,4.064c0,1.758-0.519,3.142-1.499,4.15c-1.354,1.413-3.487,2.133-5.938,2.133
			c-0.749,0-1.441-0.029-2.018-0.173v7.782h-2.508V349.085z M548.986,358.453c0.548,0.144,1.239,0.202,2.075,0.202
			c3.026,0,4.871-1.499,4.871-4.122c0-2.594-1.845-3.833-4.583-3.833c-1.095,0-1.931,0.086-2.363,0.202V358.453z"/>
		<path fill="#FFFFFF" d="M418.582,383.725c1.096-0.259,2.854-0.432,4.583-0.432c2.508,0,4.122,0.432,5.304,1.412
			c1.009,0.75,1.643,1.902,1.643,3.43c0,1.902-1.268,3.545-3.285,4.266v0.086c1.845,0.432,4.006,1.96,4.006,4.842
			c0,1.672-0.663,2.969-1.672,3.891c-1.325,1.24-3.516,1.816-6.687,1.816c-1.729,0-3.056-0.115-3.892-0.23V383.725z M421.09,391.681
			h2.277c2.623,0,4.18-1.413,4.18-3.286c0-2.248-1.701-3.17-4.237-3.17c-1.153,0-1.816,0.086-2.22,0.173V391.681z M421.09,400.962
			c0.519,0.086,1.211,0.115,2.104,0.115c2.594,0,4.986-0.951,4.986-3.776c0-2.623-2.277-3.747-5.016-3.747h-2.075V400.962z"/>
		<path fill="#FFFFFF" d="M434.202,383.696c1.269-0.23,3.113-0.403,4.813-0.403c2.681,0,4.439,0.519,5.621,1.585
			c0.951,0.865,1.527,2.191,1.527,3.719c0,2.536-1.614,4.237-3.632,4.929v0.086c1.47,0.519,2.363,1.902,2.825,3.92
			c0.634,2.709,1.095,4.583,1.499,5.333h-2.595c-0.317-0.577-0.749-2.219-1.269-4.641c-0.576-2.681-1.643-3.689-3.92-3.776h-2.363
			v8.417h-2.508V383.696z M436.71,392.545h2.565c2.681,0,4.381-1.47,4.381-3.689c0-2.508-1.815-3.603-4.468-3.603
			c-1.21,0-2.046,0.086-2.479,0.202V392.545z"/>
		<path fill="#FFFFFF" d="M452.991,396.753l-2.018,6.111h-2.594l6.629-19.427h2.998l6.63,19.427h-2.681l-2.075-6.111H452.991z
			 M459.391,394.793l-1.932-5.592c-0.432-1.268-0.721-2.421-1.009-3.545h-0.058c-0.288,1.125-0.576,2.335-0.979,3.517l-1.902,5.621
			H459.391z"/>
		<path fill="#FFFFFF" d="M466.161,401.394l10.752-15.767v-0.086h-9.829v-2.104h13.115v1.528l-10.723,15.709v0.086h10.866v2.104
			h-14.182V401.394z"/>
		<path fill="#FFFFFF" d="M485.932,383.437v19.427h-2.536v-19.427H485.932z"/>
		<path fill="#FFFFFF" d="M490.283,383.437h2.536v17.323h8.302v2.104h-10.838V383.437z"/>
	</g>
</g>
</svg>
