<?xml version="1.0" encoding="UTF-8" standalone="no"?>
<!-- Created with Inkscape (http://www.inkscape.org/) -->

<svg xmlns:dc="http://purl.org/dc/elements/1.1/" xmlns:cc="http://creativecommons.org/ns#" xmlns:rdf="http://www.w3.org/1999/02/22-rdf-syntax-ns#" xmlns:svg="http://www.w3.org/2000/svg" xmlns="http://www.w3.org/2000/svg" xmlns:sodipodi="http://sodipodi.sourceforge.net/DTD/sodipodi-0.dtd" xmlns:inkscape="http://www.inkscape.org/namespaces/inkscape" id="svg4037" version="1.1" inkscape:version="0.48.2 r9819" width="459" height="245.62" sodipodi:docname="zirkuszelt.svg">
    <metadata id="metadata4043">
        <rdf:RDF>
            <cc:Work rdf:about="">
                <dc:format>image/svg+xml</dc:format>
                <dc:type rdf:resource="http://purl.org/dc/dcmitype/StillImage" />
                <dc:title></dc:title>
            </cc:Work>
        </rdf:RDF>
    </metadata>
    <defs id="defs4041" />
    <sodipodi:namedview pagecolor="#ffffff" bordercolor="#666666" borderopacity="1" objecttolerance="10" gridtolerance="10" guidetolerance="10" inkscape:pageopacity="0" inkscape:pageshadow="2" inkscape:window-width="1725" inkscape:window-height="985" id="namedview4039" showgrid="false" fit-margin-top="0" fit-margin-left="0" fit-margin-right="0" fit-margin-bottom="0" inkscape:zoom="3.6734" inkscape:cx="372.19" inkscape:cy="87.708" inkscape:window-x="225" inkscape:window-y="15" inkscape:window-maximized="0" inkscape:current-layer="svg4037" />
    <path style="fill:#95d8d4;fill-opacity:1;stroke:none" d="m 148.91,25.57 c 0,0 0.89,6.653 -6.66,28.873 -7.56,22.23 -33.34,26.69 -33.34,26.69 0,0 -11.564,13.34 -29.784,33.777 -18.22,20.45 -42.216,24.87 -42.216,24.87 l 2.66,5.78 c 0,0 -1.33,6.67 -16,33.79 C 8.9,206.46 0,208.69 0,208.69 l 3.57,5.78 148.47,0 148.43,0 3.57,-5.78 c 0,0 -8.9,-2.23 -23.57,-29.34 -14.66,-27.12 -16,-33.79 -16,-33.79 l 2.66,-5.78 c 0,0 -24,-4.42 -42.22,-24.87 -18.21,-20.437 -29.78,-33.777 -29.78,-33.777 0,0 -25.78,-4.46 -33.35,-26.69 -7.55,-22.22 -6.65,-28.873 -6.65,-28.873 l -3.09,0.43 -3.13,-0.43 z" id="path4047" inkscape:connector-curvature="0" />
    <path style="fill:#95a7d8;fill-opacity:1;stroke:none" d="m 134.74,67.503 c 0,0 -7.1,5 -12.89,8.71 -5.78,3.72 -14.73,4.73 -14.73,4.73 l -0.1,0.15 c -10.394,12.39 -19.294,24.267 -28.024,32.737 -13.12,12.62 -43.59,26.88 -43.59,26.88 l -0.625,0.81 3.187,0.31 1.188,0.35 1,1.46 c -0.02,0.1 -6.012,24.15 -12.406,37.97 -6.818,21.07 -22.906,32.66 -22.906,32.66 l 25.593,-0.41 c 0,0 9.108,-22.34 12,-32.25 2.893,-9.92 9.281,-38.43 9.281,-38.43 l -0.03,0 0.813,-1.5 7.312,-0.57 c 0,0 15.243,-7.99 32.223,-26.03 9.164,-8.34 21.214,-31.147 21.564,-31.807 2.03,-0.77 10.26,-4 15.15,-7.44 5.58,-3.93 8.74,-7.07 8.74,-7.07 z" id="path4060" inkscape:connector-curvature="0" sodipodi:nodetypes="ccccccccccccccccccccccc" />
    <path style="fill:#95a7d8;fill-opacity:1;stroke:none" d="m 127.22,84.653 c 0,0 -4.15,14.87 -12,23.747 -7.43,8.41 -38.114,31.46 -41.474,33.97 l -2.12,0.34 c 0,0 -3.91,25.62 -7.22,39.88 -3.31,14.26 -10.972,31.4 -10.972,31.4 l 26.032,0.41 c 0,0 5.8,-22.31 8.28,-35.12 8.96,-27.48 7,-41.54 7,-41.54 l 14.474,-5.56 c 0,0 9.53,-10.34 15.94,-21.9 6.4,-11.567 8.87,-23.757 8.87,-23.757 z" id="path4062" inkscape:connector-curvature="0" sodipodi:nodetypes="ccccscccccccc" />
    <path style="fill:#95a7d8;fill-opacity:1;stroke:none" d="m 146.03,85.743 c 0,0 -1.43,13.43 -7.22,26.867 -5.78,13.43 -13.43,22.53 -13.43,22.53 0,0 -0.3,0.14 -5.82,-0.84 0,0 0,29.96 -1.84,41.94 -1.86,11.99 -6.19,38.22 -6.19,38.22 l 29.35,-0.41 c 0,0 1.01,-28.5 1.84,-41.72 0.82,-13.23 1.44,-33.69 1.44,-33.69 l -0.5,-0.1 c 0.3,-0.86 5.15,-14.79 8.15,-27.41 3.1,-13.017 2.29,-25.397 2.29,-25.397 z" id="path4064" inkscape:connector-curvature="0" sodipodi:nodetypes="ccccccccccccc" />
    <path style="fill:#95d8d4;fill-opacity:1;stroke:#95a7d8;stroke-width:1px;stroke-linecap:butt;stroke-linejoin:miter;stroke-opacity:1" d="m 37.442,143.39 c 0,0 -0.62,11.37 7.851,11.57 8.472,0.21 9.298,-11.78 9.298,-11.78 z" id="path4066" inkscape:connector-curvature="0" />
    <path inkscape:connector-curvature="0" id="path4576" d="m 51.286,143.6 c 0,0 -0.207,11.37 8.264,11.57 8.466,0.21 8.886,-11.78 8.886,-11.78 z" style="fill:#95a7d8;fill-opacity:1;stroke:#95d8d4;stroke-width:1px;stroke-linecap:butt;stroke-linejoin:miter;stroke-opacity:1" sodipodi:nodetypes="cccc" />
    <path sodipodi:nodetypes="cccc" style="fill:#95d8d4;fill-opacity:1;stroke:#95d8d4;stroke-width:1px;stroke-linecap:butt;stroke-linejoin:miter;stroke-opacity:1" d="m 64.666,143.59 c 0,0 0.26,11.37 8.73,11.22 8.47,-0.15 8.4,-12.14 8.4,-12.14 z" id="path4578" inkscape:connector-curvature="0" />
    <path inkscape:connector-curvature="0" id="path4580" d="m 77.336,142.77 c 0,0 1.09,10.43 9.53,9.61 8.43,-0.81 7.48,-11.83 7.48,-11.83 z" style="fill:#95a7d8;fill-opacity:1;stroke:#95d8d4;stroke-width:0.96024px;stroke-linecap:butt;stroke-linejoin:miter;stroke-opacity:1" sodipodi:nodetypes="cccc" />
    <path sodipodi:nodetypes="cccc" style="fill:#95d8d4;fill-opacity:1;stroke:#95a7d8;stroke-width:0.98924px;stroke-linecap:butt;stroke-linejoin:miter;stroke-opacity:1" d="m 91.796,141.07 c 0,0 3.63,9.92 12.164,7.21 8.51,-2.69 4.9,-13.21 4.9,-13.21 z" id="path4582" inkscape:connector-curvature="0" />
    <path inkscape:connector-curvature="0" id="path4584" d="m 111.67,134.42 c 0,0 -3.74,10.76 4.34,13.29 8.09,2.55 12.19,-8.75 12.19,-8.75 z" style="fill:#95a7d8;fill-opacity:1;stroke:#95d8d4;stroke-width:1px;stroke-linecap:butt;stroke-linejoin:miter;stroke-opacity:1" />
    <path style="fill:#95d8d4;fill-opacity:1;stroke:#95a7d8;stroke-width:1px;stroke-linecap:butt;stroke-linejoin:miter;stroke-opacity:1" d="m 125.77,138.53 c 0,0 -2.39,11.14 5.94,12.66 8.34,1.54 11.02,-10.18 11.02,-10.18 z" id="path4586" inkscape:connector-curvature="0" />
    <path inkscape:connector-curvature="0" id="path4588" d="m 140.24,140.66 c 0,0 -1.24,11.33 7.21,11.98 8.45,0.68 9.91,-11.26 9.91,-11.26 z" style="fill:#95a7d8;fill-opacity:1;stroke:#95d8d4;stroke-width:1px;stroke-linecap:butt;stroke-linejoin:miter;stroke-opacity:1" />
    <path style="fill:#95a7d8;fill-opacity:1;stroke:none" d="m 142,67.983 c 0,0 -1.45,4.95 -4.55,8.05 -3.1,3.1 -8.88,8.27 -8.88,8.27 l 7.02,2.06 8.68,-2.06 c 0,0 2.06,-2.89 3.3,-7.65 1.24,-4.75 1.66,-8.05 1.66,-8.05 z" id="path4604" inkscape:connector-curvature="0" />
    <path style="fill:#95a7d8;fill-opacity:1;stroke:none" d="m 154.25,8.057 c 0,0 10.74,1.653 16.94,5.58 6.2,3.926 4.34,14.05 4.34,14.05 0,0 15.7,-2.892 17.15,0.414 1.45,3.302 -6.2,5.582 -5.78,9.302 0.41,3.71 20.86,0.82 20.86,0.82 0,0 -9.91,6.82 -19,7.44 -9.1,0.62 -12.82,-1.45 -13.43,-3.51 -0.62,-2.07 1.85,-4.13 1.23,-6.41 -0.62,-2.27 -6.81,1.86 -10.95,-2.89 -4.13,-4.752 0,-5.579 -3.3,-9.091 -3.31,-3.513 -10.13,-2.686 -10.13,-2.686 0,0 5.58,-0.62 6,-4.753 0.41,-4.132 -3.93,-8.266 -3.93,-8.266 z" id="path4606" inkscape:connector-curvature="0" />
    <path sodipodi:type="arc" style="fill:#95a7d8;fill-opacity:1;stroke:none" id="path4608" sodipodi:cx="190.3" sodipodi:cy="73.99" sodipodi:rx="3.5125" sodipodi:ry="3.5125" d="m 193.81,73.99 a 3.5125,3.5125 0 1 1 -7.02,0 3.5125,3.5125 0 1 1 7.02,0 z" transform="translate(-38.236,-70.477)" />
    <rect style="fill:#95a7d8;fill-opacity:1;stroke:none" id="rect4610" width="2.6861" height="22.728" x="150.71" y="5.902" />
    <path sodipodi:nodetypes="ccccccccccccccccccccccc" inkscape:connector-curvature="0" id="path4627" d="m 169.95,68.213 c 0,0 2.49,2.87 9.08,5.6 7.38,3.19 17.92,7.13 17.92,7.13 l 0.1,0.15 c 10.38,12.39 19.28,24.267 28.01,32.737 13.12,12.62 43.59,26.88 43.59,26.88 l 0.63,0.81 -3.19,0.31 -1.19,0.35 -1,1.46 c 0,0.1 6.02,24.15 12.41,37.97 6.82,21.07 22.91,32.66 22.91,32.66 l -25.6,-0.41 c 0,0 -9.11,-22.34 -12,-32.25 -2.89,-9.92 -9.28,-38.43 -9.28,-38.43 l 0,0 -0.81,-1.5 -7.31,-0.57 c 0,0 -15.25,-7.99 -32.23,-26.03 -9.16,-8.34 -21.21,-31.147 -21.56,-31.807 -2.03,-0.77 -10.26,-4 -15.15,-7.44 -5.58,-3.93 -8.65,-7.33 -8.65,-7.33 z" style="fill:#95a7d8;fill-opacity:1;stroke:none" />
    <path sodipodi:nodetypes="ccccscccccccc" inkscape:connector-curvature="0" id="path4629" d="m 176.85,84.653 c 0,0 4.15,14.87 12,23.747 7.43,8.41 38.1,31.46 41.46,33.97 l 2.12,0.34 c 0,0 3.91,25.62 7.22,39.88 3.31,14.26 10.98,31.4 10.98,31.4 l -26.04,0.41 c 0,0 -5.8,-22.31 -8.28,-35.12 -8.96,-27.48 -7,-41.54 -7,-41.54 l -14.46,-5.56 c 0,0 -9.53,-10.34 -15.94,-21.9 -6.4,-11.567 -8.87,-23.757 -8.87,-23.757 z" style="fill:#95a7d8;fill-opacity:1;stroke:none" />
    <path sodipodi:nodetypes="ccccccccccccc" inkscape:connector-curvature="0" id="path4631" d="m 158.04,85.743 c 0,0 1.43,13.43 7.22,26.867 5.78,13.43 13.43,22.53 13.43,22.53 0,0 0.3,0.14 5.82,-0.84 0,0 0,29.96 1.84,41.94 1.86,11.99 6.19,38.22 6.19,38.22 l -29.35,-0.41 c 0,0 -1.01,-28.5 -1.84,-41.72 -0.82,-13.23 -1.44,-33.69 -1.44,-33.69 l 0.5,-0.1 c -0.3,-0.86 -5.15,-14.79 -8.15,-27.41 -3.1,-13.017 -2.29,-25.397 -2.29,-25.397 z" style="fill:#95a7d8;fill-opacity:1;stroke:none" />
    <path style="fill:#8d6534;fill-opacity:1;stroke:#000000;stroke-width:0.2;stroke-linecap:butt;stroke-linejoin:miter;stroke-miterlimit:4;stroke-opacity:1;stroke-dasharray:none" d="m 77.736,214.26 -3.31,-6.2 c 0,0 0.62,-1.03 -0.21,-1.65 -0.82,-0.62 -3.51,-0.62 -3.92,0.62 -0.41,1.24 1.03,3.1 1.03,3.1 l 2.89,4.55 z" id="path4594" inkscape:connector-curvature="0" />
    <path style="fill:#d5e7e6;fill-opacity:1;stroke:none;stroke-width:1.03447000000000000px;stroke-linecap:butt;stroke-linejoin:miter;stroke-opacity:1" d="m 154.45,154.96 c 0,0 -9.92,20.78 -16.53,31.84 -5.23,8.75 -18.88,24.38 -24.5,29.84 l 82.03,0 c -5.63,-5.48 -19.24,-21.1 -24.47,-29.84 -6.61,-11.06 -16.53,-31.84 -16.53,-31.84 z" id="path4612" inkscape:connector-curvature="0" sodipodi:nodetypes="cccccc" />
    <path style="fill:#95a7d8;fill-opacity:1;stroke:#95d8d4;stroke-width:0.2;stroke-linecap:butt;stroke-linejoin:miter;stroke-miterlimit:4;stroke-opacity:1;stroke-dasharray:none" d="m 95.506,203.31 c 0,0 13.434,5.99 24.584,-3.3 11.16,-9.3 34.33,-46.32 34.33,-46.32 0,0 -8.92,28.67 -18.42,42.8 -9.5,14.13 -10.03,19.77 -23.76,16.95 -11.78,-1.66 -16.324,-9.1 -16.734,-10.13 z" id="path4590" inkscape:connector-curvature="0" sodipodi:nodetypes="ccczcc" />
    <path style="fill:none;stroke:#dbdbdb;stroke-width:1px;stroke-linecap:round;stroke-linejoin:miter;stroke-opacity:1" d="m 95.506,203.52 -24.34,6.53" id="path4592" inkscape:connector-curvature="0" sodipodi:nodetypes="cc" />
    <path inkscape:connector-curvature="0" id="path4633" d="m 231.82,214.26 3.31,-6.2 c 0,0 -0.62,-1.03 0.21,-1.65 0.82,-0.62 3.51,-0.62 3.92,0.62 0.41,1.24 -1.03,3.1 -1.03,3.1 l -2.89,4.55 z" style="fill:#8d6534;fill-opacity:1;stroke:#000000;stroke-width:0.2;stroke-linecap:butt;stroke-linejoin:miter;stroke-miterlimit:4;stroke-opacity:1;stroke-dasharray:none" />
    <path sodipodi:nodetypes="ccczcc" inkscape:connector-curvature="0" id="path4635" d="m 214.05,203.31 c 0,0 -13.43,5.99 -24.58,-3.3 -11.16,-9.3 -34.93,-46.14 -34.93,-46.14 0,0 9.52,28.49 19.02,42.62 9.5,14.13 10.03,19.77 23.76,16.95 11.78,-1.66 16.32,-9.1 16.73,-10.13 z" style="fill:#95a7d8;fill-opacity:1;stroke:#95d8d4;stroke-width:0.2;stroke-linecap:butt;stroke-linejoin:miter;stroke-miterlimit:4;stroke-opacity:1;stroke-dasharray:none" />
    <path sodipodi:nodetypes="cc" inkscape:connector-curvature="0" id="path4637" d="m 214.05,203.52 24.34,6.53" style="fill:none;stroke:#dbdbdb;stroke-width:1px;stroke-linecap:round;stroke-linejoin:miter;stroke-opacity:1" />
    <path inkscape:connector-curvature="0" id="path4639" d="m 162.85,67.983 c 0,0 1.45,4.95 4.55,8.05 3.1,3.1 8.88,8.27 8.88,8.27 l -7.02,2.06 -8.68,-2.06 c 0,0 -2.06,-2.89 -3.3,-7.65 -1.24,-4.75 -1.66,-8.05 -1.66,-8.05 z" style="fill:#95a7d8;fill-opacity:1;stroke:none" />
    <path style="fill:#95a7d8;fill-opacity:1;stroke:none" d="m 148.92,25.585 c 0,0 0.89,6.628 -6.66,28.848 -2.15,6.32 -5.79,11.21 -9.87,14.97 l 39.25,0 c -4.09,-3.76 -7.69,-8.65 -9.85,-14.97 -7.55,-22.22 -6.65,-28.847 -6.65,-28.848 l -3.09,0.407 -3.13,-0.407 z" id="path4641" inkscape:connector-curvature="0" />
    <path inkscape:connector-curvature="0" id="path4662" d="m 271.5,143.39 c 0,0 0.62,11.37 -7.85,11.57 -8.47,0.21 -9.3,-11.78 -9.3,-11.78 z" style="fill:#95a7d8;fill-opacity:1;stroke:#95d8d4;stroke-width:1px;stroke-linecap:butt;stroke-linejoin:miter;stroke-opacity:1" />
    <path sodipodi:nodetypes="cccc" style="fill:#95d8d4;fill-opacity:1;stroke:#95a7d8;stroke-width:1px;stroke-linecap:butt;stroke-linejoin:miter;stroke-opacity:1" d="m 257.66,143.6 c 0,0 0.2,11.37 -8.27,11.57 -8.46,0.21 -8.88,-11.78 -8.88,-11.78 z" id="path4664" inkscape:connector-curvature="0" />
    <path inkscape:connector-curvature="0" id="path4666" d="m 244.28,143.59 c 0,0 -0.26,11.37 -8.73,11.22 -8.47,-0.15 -8.4,-12.14 -8.4,-12.14 z" style="fill:#95a7d8;fill-opacity:1;stroke:#95d8d4;stroke-width:1px;stroke-linecap:butt;stroke-linejoin:miter;stroke-opacity:1" sodipodi:nodetypes="cccc" />
    <path sodipodi:nodetypes="cccc" style="fill:#95d8d4;fill-opacity:1;stroke:#95a7d8;stroke-width:0.96024px;stroke-linecap:butt;stroke-linejoin:miter;stroke-opacity:1" d="m 231.61,142.77 c 0,0 -1.09,10.43 -9.53,9.61 -8.43,-0.81 -7.48,-11.83 -7.48,-11.83 z" id="path4668" inkscape:connector-curvature="0" />
    <path inkscape:connector-curvature="0" id="path4670" d="m 217.15,141.07 c 0,0 -3.63,9.92 -12.16,7.21 -8.51,-2.69 -4.9,-13.21 -4.9,-13.21 z" style="fill:#95a7d8;fill-opacity:1;stroke:#95d8d4;stroke-width:0.98924px;stroke-linecap:butt;stroke-linejoin:miter;stroke-opacity:1" sodipodi:nodetypes="cccc" />
    <path style="fill:#95d8d4;fill-opacity:1;stroke:#95a7d8;stroke-width:1px;stroke-linecap:butt;stroke-linejoin:miter;stroke-opacity:1" d="m 197.28,134.42 c 0,0 3.74,10.76 -4.34,13.29 -8.09,2.55 -12.19,-8.75 -12.19,-8.75 z" id="path4672" inkscape:connector-curvature="0" />
    <path inkscape:connector-curvature="0" id="path4674" d="m 183.18,138.53 c 0,0 2.39,11.14 -5.94,12.66 -8.35,1.54 -11.03,-10.18 -11.03,-10.18 z" style="fill:#95a7d8;fill-opacity:1;stroke:#95d8d4;stroke-width:1px;stroke-linecap:butt;stroke-linejoin:miter;stroke-opacity:1" />
    <path style="fill:#95d8d4;fill-opacity:1;stroke:#95a7d8;stroke-width:1px;stroke-linecap:butt;stroke-linejoin:miter;stroke-opacity:1" d="m 168.7,140.66 c 0,0 1.24,11.33 -7.21,11.98 -8.45,0.68 -9.91,-11.26 -9.91,-11.26 z" id="path4676" inkscape:connector-curvature="0" />
    <path style="fill:#95d8d4;fill-opacity:1;stroke:#95a7d8;stroke-width:0.2;stroke-linecap:butt;stroke-linejoin:miter;stroke-miterlimit:4;stroke-opacity:1;stroke-dasharray:none" d="m 110.6,129.47 0,0.1 c 0,0 -21.664,8.89 -44.724,11 -23.079,2.11 -31.398,-0.25 -31.398,-0.25 0,0 0.46,1.64 0.699,3.28 0.238,1.64 3.586,1.87 3.586,1.88 0,0 9.75,0 33.293,-0.26 23.55,-0.22 39.504,-9.56 39.504,-9.56 0,0 15.3,6.12 43.99,6.97 l 0,0 c 0.1,0 0.16,0 0.25,0 0.1,0 0.14,0 0.22,0 l 0,0 c 28.7,-0.85 44.03,-6.97 44.03,-6.97 0,0 15.91,9.34 39.46,9.56 23.55,0.26 33.3,0.26 33.3,0.26 0,0 3.35,-0.24 3.58,-1.88 0.25,-1.64 0.7,-3.28 0.7,-3.28 0,0 -8.32,2.36 -31.39,0.25 -23.07,-2.11 -44.73,-11 -44.73,-11 l 0,-0.1 c 0,0 -19.51,7.96 -44.72,7.5 l -0.23,0 -0.47,0 -0.23,0 c -25.21,0.46 -44.72,-7.5 -44.72,-7.5 z" id="path4052" inkscape:connector-curvature="0" />
    <path style="fill:#95d8d4;fill-opacity:1;stroke:#95a7d8;stroke-width:0.2;stroke-linecap:butt;stroke-linejoin:miter;stroke-miterlimit:4;stroke-opacity:1;stroke-dasharray:none" d="m 108.19,80.903 c 0,0 -2.02,1.54 -3.03,2.21 -1.02,0.68 -1.5,2.53 -1.5,2.53 0,0 5.06,-0.17 13.5,0.16 8.43,0.34 16.19,5.75 16.19,5.75 0,0 9.66,-3.18 19,-3.37 l 0.28,0 c 0.31,0 0.6,0 0.91,0 9.33,0.2 19,3.37 19,3.37 0,0 7.76,-5.41 16.18,-5.75 8.45,-0.33 13.5,-0.16 13.5,-0.16 0,0 -0.48,-1.85 -1.5,-2.53 -1.01,-0.67 -3.03,-2.21 -3.03,-2.21 0,0 -5.74,-0.17 -13.5,1.18 -7.76,1.35 -12.15,4.75 -12.15,4.75 0,0 -9.11,-2.7 -18.22,-2.87 l -0.28,0 c -0.4,0 -0.79,0 -1.19,0 -0.1,0 -0.19,0 -0.28,0 -9.11,0.17 -18.22,2.87 -18.22,2.87 0,0 -4.4,-3.4 -12.16,-4.75 -7.76,-1.35 -13.5,-1.18 -13.5,-1.18 z" id="path4678" inkscape:connector-curvature="0" />
    <path style="fill:#95d8d4;fill-opacity:1;stroke:none;stroke-width:0.04788000000000000;stroke-linecap:round;stroke-linejoin:round;stroke-miterlimit:4;stroke-opacity:1;stroke-dasharray:none;stroke-dashoffset:0" d="m 380.81,196.39 c -15.41,0 -27.9,2.68 -27.9,5.99 0,0 0,0.1 0,0.1 l 0,0 -5.99,35.53 0,0.17 0,0 c 0,0.1 0,0.14 0,0.21 0,3.97 15.01,7.19 33.51,7.19 18.5,0 33.5,-3.22 33.5,-7.19 0,-0.1 0,-0.14 0,-0.21 l 0,0 0,-0.17 -5.14,-35.6 0,0 c 0,0 0,-0.1 0,-0.1 -0.19,-3.28 -12.6,-5.92 -27.89,-5.92 z" id="path4876" inkscape:connector-curvature="0" />
    <path transform="matrix(0.4825,0,0,0.33237,129.55,116.15)" style="fill:#95d8d4;fill-opacity:1;stroke:none;stroke-width:0.12002000000000000;stroke-linecap:round;stroke-linejoin:round;stroke-miterlimit:4;stroke-dashoffset:0;stroke-opacity:1" d="m 578.58,259.43 c 0,9.96 -26.09,18.03 -58.28,18.03 -32.19,0 -58.28,-8.07 -58.28,-18.03 0,-9.96 26.09,-18.03 58.28,-18.03 32.19,0 58.28,8.07 58.28,18.03 z" id="path4883" />
    <path style="fill:#786049;fill-opacity:1;stroke:#cccccc;stroke-width:0.47876999999999997px;stroke-linecap:butt;stroke-linejoin:miter;stroke-opacity:1" d="m 429.67,100.61 c 0,0 12.13,6.86 14.81,11.5 2.68,4.65 9.61,20.17 9.61,20.17 0,0 2.28,-0.87 3.31,1.89 1.02,2.76 1.34,11.5 1.34,11.5 0,0 -1.18,-1.34 -2.6,-1.89 -1.42,-0.55 -0.32,-1.26 -1.42,-2.21 -1.1,-0.94 -1.73,-1.89 -1.73,-4.09 0,-2.21 0.15,-4.97 0.15,-4.97 0,0 -6.14,-12.36 -8.58,-15.99 -2.44,-3.62 -5.67,-7.95 -9.53,-9.05 -3.86,-1.11 -6.22,-1.5 -6.22,-1.5 l -1.34,-4.96 z" id="path4840" inkscape:connector-curvature="0" />
    <path style="fill:#76695d;fill-opacity:1;stroke:#cccccc;stroke-width:0.50000000000000000;stroke-linecap:butt;stroke-linejoin:miter;stroke-miterlimit:4;stroke-opacity:1;stroke-dasharray:none" d="m 360.82,149.63 c 0,0 9.9,11.05 10.36,22.79 0.46,11.74 1.85,15.42 1.62,18.88 -0.23,3.45 -2.77,6.44 -3,8.29 -0.23,1.84 0,3.45 4.15,3.91 4.14,0.46 12.2,0.46 13.81,-0.92 1.61,-1.38 0.46,-2.76 -0.23,-5.3 -0.69,-2.53 -2.07,-1.14 -1.61,-9.2 0.46,-8.06 0.46,-12.44 0.46,-12.44 0,0 -3.92,-15.65 -8.98,-19.8 -5.07,-4.14 -16.58,-6.21 -16.58,-6.21 z" id="path4818" inkscape:connector-curvature="0" />
    <path style="fill:#76695d;fill-opacity:1;stroke:#cccccc;stroke-width:0.47876999999999997;stroke-linecap:butt;stroke-linejoin:miter;stroke-miterlimit:4;stroke-opacity:1;stroke-dasharray:none" d="m 289.45,145.72 c 0,0 -9.66,-3.23 -3.68,-8.99 5.99,-5.75 8.29,0.93 8.75,5.07 0.46,4.15 -7.83,14.04 0.69,17.96 8.52,3.91 15.88,-8.29 17.73,-11.51 1.84,-3.23 2.3,-7.6 2.3,-9.44 0,-1.85 3.45,-3.91 4.15,-5.99 0.68,-2.07 0.23,-7.83 6.9,-10.13 6.68,-2.3 13.12,-3.45 17.27,-6.44 4.14,-3 13.81,-17.726 19.11,-23.486 5.29,-5.75 9.9,-12.43 26.01,-10.13 16.12,2.31 27.4,5.3 34.07,10.13 6.68,4.84 9.9,17.036 9.44,23.716 -0.46,6.67 -2.3,13.58 -2.3,13.58 0,0 1.15,2.99 7.14,3.45 5.98,0.46 11.05,3.22 10.59,6.22 -0.46,2.99 -3.92,12.66 -6.45,13.81 -2.53,1.15 -5.76,0.46 -7.13,-2.76 -1.39,-3.23 0.46,-6.22 -9.45,-5.99 -9.9,0.23 -13.12,-1.38 -13.12,-1.38 0,0 -2.76,3.92 -5.75,5.76 -3,1.84 -7.6,3.22 -7.6,3.22 0,0 0.92,2.53 0.92,5.07 0,2.53 -2.3,10.36 -2.53,11.97 -0.23,1.61 -1.84,1.61 1.38,3.91 3.22,2.3 7.6,4.61 8.98,4.61 1.38,0 4.14,-1.39 2.76,2.76 -1.38,4.14 -1.61,7.83 -5.29,11.05 -3.69,3.22 -5.07,2.99 -6.45,0 -1.38,-2.99 -3.68,-6.44 -6.68,-8.29 -2.99,-1.84 -12.43,-4.83 -14.5,-13.81 -2.08,-8.98 -9.44,-14.05 -11.97,-16.12 -2.53,-2.07 -4.61,-3.45 -7.83,-1.61 -3.23,1.84 -5.99,1.84 -5.99,1.84 0,0 -2.76,5.53 -6.44,8.29 -3.68,2.76 -8.98,5.3 -14.97,5.3 -5.98,0 -6.67,-0.69 -7.83,0.23 -1.15,0.92 -1.61,2.07 -1.84,3.45 -0.22,1.38 -2.53,2.76 -2.76,0.46 -0.23,-2.3 -1.15,-3.91 -0.23,-4.6 0.92,-0.7 2.28,-1.29 2.28,-1.29 0,0 -3.2,-1.25 -5.5,0.36 -2.3,1.62 -10.13,5.99 -19.34,1.85 -9.21,-4.15 -7.6,-13.13 -7.14,-15.89 0.46,-2.76 2.3,-6.21 2.3,-6.21 z" id="path4816" inkscape:connector-curvature="0" sodipodi:nodetypes="cccccsccccccccccscccccssssccsccsccssccsccccsc" />
    <path style="fill:none;stroke:#b3b3b3;stroke-width:0.47876999999999997px;stroke-linecap:butt;stroke-linejoin:miter;stroke-opacity:1" d="m 330.82,129.13 c -2.44,2.75 -4.25,4.8 -3.47,8.19 0.79,3.38 6.07,7.32 6.3,9.69 0.24,2.36 1.03,9.29 4.1,9.45 3.07,0.16 7.4,-0.87 8.11,-3.54 0.71,-2.68 1.18,-3.47 4.49,-5.04 3.31,-1.58 11.19,-3.39 9.14,-6.23 -2.05,-2.83 -4.96,-4.17 -4.1,-7.56 0.87,-3.39 2.84,-5.67 -1.26,-5.99 -4.09,-0.31 -9.37,-2.99 -11.65,-3.7 -2.29,-0.71 -5.68,0.32 -7.72,1.58 -2.05,1.26 -3.94,3.15 -3.94,3.15 z" id="path4820" inkscape:connector-curvature="0" />
    <path style="fill:none;stroke:#b3b3b3;stroke-width:0.47876999999999997px;stroke-linecap:round;stroke-linejoin:miter;stroke-opacity:1" d="m 322.39,141.65 c 0,0 -1.89,-0.39 -3,-0.39 -1.1,0 -1.96,0.47 -2.59,0.94 -0.63,0.48 -0.79,1.65 -0.79,1.65" id="path4822" inkscape:connector-curvature="0" />
    <path style="fill:none;stroke:#b3b3b3;stroke-width:0.47876999999999997px;stroke-linecap:round;stroke-linejoin:miter;stroke-opacity:1" d="m 320.18,138.66 c -1.1,-0.16 -1.96,-0.71 -2.99,-0.24 -1.02,0.47 -1.34,1.97 -1.34,1.97" id="path4824" inkscape:connector-curvature="0" />
    <path style="fill:#d0ae8a;fill-opacity:1;stroke:#b3b3b3" d="m 316.01,144.96 c 0,0 -0.79,0.87 0,0.94 0.79,0.1 1.97,0 1.97,0 0,0 0,-0.1 -0.31,-0.55 -0.32,-0.47 -0.78,-1.52 -0.78,-1.52 z" id="path4826" inkscape:connector-curvature="0" sodipodi:nodetypes="cccccc" />
    <path sodipodi:type="arc" style="fill:#cccccc;fill-opacity:1;stroke:#b3b3b3;stroke-width:0.20000000000000001;stroke-linecap:round;stroke-linejoin:round;stroke-miterlimit:4;stroke-opacity:1;stroke-dasharray:none;stroke-dashoffset:0" id="path4828" sodipodi:cx="430.8" sodipodi:cy="119.73" sodipodi:rx="2.0565" sodipodi:ry="2.1388" d="m 432.86,119.73 a 2.0565,2.1388 0 1 1 -4.12,0 2.0565,2.1388 0 1 1 4.12,0 z" transform="matrix(0.47877,0,0,0.47877,113.1,86.224)" />
    <path style="fill:none;stroke:#b3b3b3;stroke-width:0.47876999999999997px;stroke-linecap:round;stroke-linejoin:miter;stroke-opacity:1" d="m 321.53,159.77 c 0,1.89 0.33,3.41 -0.4,4.33 -0.88,1.12 -2.05,1.57 -2.05,1.57" id="path4830" inkscape:connector-curvature="0" sodipodi:nodetypes="csc" />
    <path style="fill:none;stroke:#cccccc;stroke-width:0.47876999999999997px;stroke-linecap:butt;stroke-linejoin:miter;stroke-opacity:1" d="m 394.38,135.98 c 0,0 2.68,4.81 2.68,7.4 0,2.6 -0.39,6.54 -0.39,6.54" id="path4832" inkscape:connector-curvature="0" />
    <path style="fill:none;stroke:#cccccc;stroke-width:0.47876999999999997px;stroke-linecap:butt;stroke-linejoin:miter;stroke-opacity:1" d="m 398.01,152.29 c 0,0 -4.81,-11.27 -7.88,-13.63 -3.07,-2.37 -2.52,-3.62 -6.38,-2.76" id="path4834" inkscape:connector-curvature="0" />
    <path style="fill:none;stroke:#cccccc;stroke-width:0.47876999999999997px;stroke-linecap:butt;stroke-linejoin:miter;stroke-opacity:1" d="m 386.98,128.89 c 0,0 3.23,4.1 4.41,7.17 1.18,3.07 3.47,9.69 3.47,9.69" id="path4836" inkscape:connector-curvature="0" />
    <path style="fill:none;stroke:#cccccc;stroke-width:0.47876999999999997px;stroke-linecap:butt;stroke-linejoin:miter;stroke-opacity:1" d="m 410.29,115.42 c 0,0 -2.67,7.64 -2.75,13.31 -0.1,5.67 0.31,8.2 1.34,10.64 1.02,2.44 2.68,4.25 2.68,4.25" id="path4838" inkscape:connector-curvature="0" />
    <path style="fill:none;stroke:#b3b3b3;stroke-width:0.47899999999999998;stroke-linecap:round;stroke-linejoin:miter;stroke-miterlimit:4;stroke-opacity:1;stroke-dasharray:none" d="m 306.58,156.69 c 0,0 2.51,-0.34 2.42,3.55" id="path4842" inkscape:connector-curvature="0" sodipodi:nodetypes="cc" />
    <path style="fill:none;stroke:#b3b3b3;stroke-width:0.47899999999999998;stroke-linecap:round;stroke-linejoin:miter;stroke-miterlimit:4;stroke-opacity:1;stroke-dasharray:none" d="m 304.12,158.76 c 0,0 1.97,0.31 1.57,3.22" id="path4844" inkscape:connector-curvature="0" sodipodi:nodetypes="cc" />
    <path style="fill:none;stroke:#b3b3b3;stroke-width:0.47899999999999998;stroke-linecap:round;stroke-linejoin:miter;stroke-miterlimit:4;stroke-opacity:1;stroke-dasharray:none" d="m 301.08,160.13 c 0,0 1.3,1.76 0.75,3.42" id="path4846" inkscape:connector-curvature="0" sodipodi:nodetypes="cc" />
    <path style="fill:none;stroke:#b3b3b3;stroke-width:0.47899999999999998;stroke-linecap:round;stroke-linejoin:miter;stroke-miterlimit:4;stroke-opacity:1;stroke-dasharray:none" d="m 297.66,160.55 c 0,0 0.28,2.06 -0.48,3.55" id="path4848" inkscape:connector-curvature="0" sodipodi:nodetypes="cc" />
    <path style="fill:none;stroke:#b3b3b3;stroke-width:0.47899999999999998;stroke-linecap:round;stroke-linejoin:miter;stroke-miterlimit:4;stroke-opacity:1;stroke-dasharray:none" d="m 294.51,159.69 c 0,0 -1.03,0.79 -0.79,2.84" id="path4850" inkscape:connector-curvature="0" sodipodi:nodetypes="cc" />
    <path style="fill:none;stroke:#b3b3b3;stroke-width:0.47876999999999997px;stroke-linecap:round;stroke-linejoin:miter;stroke-opacity:1" d="m 292.34,157.65 c 0,0 -0.75,-0 -0.91,2.51" id="path4852" inkscape:connector-curvature="0" sodipodi:nodetypes="cc" />
    <path style="fill:none;stroke:#b3b3b3;stroke-width:0.47876999999999997px;stroke-linecap:round;stroke-linejoin:miter;stroke-opacity:1" d="m 291.4,155.48 c 0,0 -1.31,-0 -1.77,2" id="path4854" inkscape:connector-curvature="0" sodipodi:nodetypes="cc" />
    <path style="fill:none;stroke:#b3b3b3;stroke-width:0.47876999999999997px;stroke-linecap:round;stroke-linejoin:miter;stroke-opacity:1" d="m 288.76,138.58 c 0,0 2.67,-1.42 2.83,2.83 0.16,4.26 -2.12,4.26 -2.12,4.26" id="path4856" inkscape:connector-curvature="0" />
    <path style="fill:#999999;fill-opacity:1;stroke:#76695d;stroke-opacity:1" d="m 372.21,198.18 c 1.9,0.42 1.94,4.53 1.94,4.53 0,0 -1.98,0.19 -2.9,-0.51 -0.93,-0.69 -2.08,-1.52 -0.88,-2.58 0.32,-1.44 1.84,-1.44 1.84,-1.44 z" id="path4858" inkscape:connector-curvature="0" sodipodi:nodetypes="ccscc" />
    <path sodipodi:nodetypes="ccscc" inkscape:connector-curvature="0" id="path4860" d="m 378.31,198.51 c 1.89,0.42 2.4,4.39 2.4,4.39 0,0 -2.01,0 -3.14,-0.19 -1.25,-0.23 -3.09,1.02 -1.75,-2.17 0.18,-2.03 2.49,-2.03 2.49,-2.03 z" style="fill:#999999;fill-opacity:1;stroke:#76695d;stroke-opacity:1" />
    <path style="fill:#999999;fill-opacity:1;stroke:#76695d;stroke-opacity:1" d="m 384.73,198.6 c 1.47,-0.28 2.17,0.92 2.63,1.71 0.46,0.78 0.92,1.24 0.46,1.61 -0.46,0.37 -2.54,1.02 -3.97,1.16 -1.43,0.14 -1.39,-1.57 -0.6,-2.59 0.78,-1.01 1.48,-1.89 1.48,-1.89 z" id="path4862" inkscape:connector-curvature="0" />
    <path style="fill:#999999;fill-opacity:1;stroke:#76695d;stroke-opacity:1" d="m 399.13,189.32 c 1.39,-0.55 3.1,1.94 3.46,2.35 0.37,0.42 0.42,0.79 -0.18,1.07 -0.6,0.27 -1.71,1.24 -2.21,0.96 -0.52,-0.27 -1.3,-1.01 -1.34,-2.03 -0.1,-1.01 0.27,-2.35 0.27,-2.35 z" id="path4864" inkscape:connector-curvature="0" />
    <path style="fill:#999999;fill-opacity:1;stroke:#76695d;stroke-opacity:1" d="m 402.18,184.84 c 1.06,-1.01 2.54,-0.42 3.42,0.32 0.87,0.74 2.07,0.61 1.38,1.94 -0.69,1.34 -1.66,2.54 -2.08,2.73 -0.41,0.18 -0.69,0.55 -1.38,-0.83 -0.7,-1.39 -1.52,-2.13 -1.52,-2.59 0,-0.46 0.32,-1.34 0.32,-1.34 z" id="path4866" inkscape:connector-curvature="0" />
    <path style="fill:#999999;fill-opacity:1;stroke:#76695d;stroke-opacity:1" d="m 404.35,179.53 c 0.51,-0.87 3.05,-0.55 3.83,-0.55 0.79,0 1.11,0.5 0.7,1.75 -0.42,1.25 -0.79,2.82 -1.07,3.05 -0.27,0.23 -0.97,-0.19 -1.61,-0.88 -0.65,-0.69 -1.48,-1.52 -1.62,-2.08 -0.14,-0.55 -0.23,-1.29 -0.23,-1.29 z" id="path4868" inkscape:connector-curvature="0" />
    <path style="fill:#999999;fill-opacity:1;stroke:#76695d;stroke-opacity:1" d="m 437.55,148.61 c 1.1,-0.1 1.81,1.47 2.26,2.6 0.45,1.13 1.13,1.75 0.2,2 -0.93,0.26 -2.63,0.17 -3.25,-0.17 -0.62,-0.34 -0.96,-0.82 -0.79,-1.75 0.17,-0.93 0.1,-1.72 0.45,-2 0.37,-0.28 1.13,-0.68 1.13,-0.68 z" id="path4870" inkscape:connector-curvature="0" />
    <path style="fill:#999999;fill-opacity:1;stroke:#76695d;stroke-opacity:1" d="m 440.63,145.34 c 0.9,-0.77 3.44,0.7 3.72,0.98 0.29,0.29 0.6,0.34 0,1.36 -0.56,1.01 -1.41,2.37 -1.72,2.46 -0.31,0.1 -1.38,-0.48 -1.58,-1.08 -0.2,-0.59 -0.76,-1.72 -0.76,-2.29 0,-0.56 0.39,-1.32 0.31,-1.43 z" id="path4872" inkscape:connector-curvature="0" />
    <path style="fill:#999999;fill-opacity:1;stroke:#76695d;stroke-opacity:1" d="m 442.61,140.77 c 0.62,-0.94 2.51,0.1 3.02,0.28 0.5,0.19 1.21,0.33 0.9,1.07 -0.31,0.73 -0.85,2.31 -1.05,2.68 -0.19,0.37 -0.56,0.23 -1.24,-0.42 -0.68,-0.65 -1.5,-1.78 -1.63,-2.21 -0.15,-0.42 0,-1.4 0,-1.4 z" id="path4874" inkscape:connector-curvature="0" />
    <path style="fill:#95a7d8;fill-opacity:1;stroke:none;stroke-width:0.04788000000000000;stroke-linecap:butt;stroke-linejoin:miter;stroke-miterlimit:4;stroke-opacity:1;stroke-dasharray:none" d="m 357.25,208.7 -9.33,23.57 c -0.26,0.65 5.08,8.22 32.95,8.54 0.11,0 0.22,0 0.33,0 27.87,-0.32 32.04,-7.47 31.78,-8.13 l -8.21,-24.07 -9.7,30.62 -13.87,-27.61 0,-0.1 -0.16,-0.28 -0.17,0.28 0,0.1 -13.87,27.61 z" id="path4887" inkscape:connector-curvature="0" sodipodi:nodetypes="cccccccccccccc" />
    <path style="fill:#95a7d8;fill-opacity:1;stroke:#95d8d4;stroke-width:0.2;stroke-linecap:butt;stroke-linejoin:miter;stroke-miterlimit:4;stroke-opacity:1;stroke-dasharray:none" d="m 347.94,231.89 -0.54,3.31 c 0,0 5.13,8.01 33.5,8.03 0.1,0 0.1,0 0.1,0 28.38,0 32.56,-7.42 32.56,-7.42 l -0.51,-3.44 c 0,0 -3.8,7.98 -32.05,8.12 0,0 0,0 -0.1,0 -28.25,-0.14 -32.96,-8.6 -32.96,-8.6 z" id="path4895" inkscape:connector-curvature="0" sodipodi:nodetypes="ccccccccc" />
    <path style="fill:#95a7d8;fill-opacity:1;stroke:none" d="m 352.47,202.46 -0.46,4.21 c 0,0 3.06,4.78 28.95,4.78 l 0.1,0 c 23.79,-0.12 28.33,-4.76 28.33,-4.76 l -0.77,-4.88 c -0.1,0.53 -2.42,6.95 -27.45,6.95 l -0.48,0 -0.1,0 -0.48,0 c -25.03,0 -27.64,-5.77 -27.69,-6.3 z" id="path4903" inkscape:connector-curvature="0" sodipodi:nodetypes="ccccccsccscc" />
    <path style="fill:#95d8d4;fill-opacity:1;stroke:none;stroke-width:0.04788000000000000;stroke-linecap:butt;stroke-linejoin:miter;stroke-miterlimit:4;stroke-opacity:1;stroke-dasharray:none" d="m 351.05,106.96 c 0,0 4.04,0 7.1,5.46 3.06,5.47 6.99,13.88 6.99,13.88 0,0 9.5,-9.72 19.45,-13.77 9.94,-4.04 20.1,-7.32 20.1,-7.32 0,0 -2.52,-6.766 -3.17,-11.356 -0.65,-4.59 -1.31,-9.5 -1.31,-9.5 l -4.92,-0.77 c 0,0 0.77,6.89 1.42,10.71 0.66,3.82 3.28,9.176 3.28,9.176 0,0 -10.05,2.18 -17.37,6.33 -7.32,4.15 -15.95,10.71 -15.95,10.71 0,0 -2.84,-8.19 -5.79,-11.47 -2.95,-3.28 -6.44,-5.35 -6.44,-5.35 z" id="path4911" inkscape:connector-curvature="0" />
    <path style="fill:#95d8d4;fill-opacity:1;stroke:none;stroke-width:0.04788000000000000;stroke-linecap:butt;stroke-linejoin:miter;stroke-miterlimit:4;stroke-opacity:1;stroke-dasharray:none" d="m 354.76,102.27 11.58,-2.946 c 0,0 1.75,15.726 1.75,16.596 0,0.88 0.11,0.66 1.09,-1.31 0.99,-1.97 4.26,-12.67 4.48,-13.33 0.22,-0.65 0.66,-1.746 1.42,-0.98 0.77,0.76 6.77,5.57 7.54,6.01 0.77,0.43 0.66,0.32 0.55,-0.99 -0.11,-1.31 -0.77,-8.406 -0.77,-9.166 0,-0.77 0.33,-0.77 1.53,0 1.2,0.76 10.38,4.366 11.91,5.126 1.53,0.77 1.64,0 0.55,-1.306 -1.1,-1.31 -8.53,-9.61 -8.85,-10.16 -0.33,-0.55 -0.99,-1.09 0.11,-1.64 1.09,-0.54 6.66,-4.37 6.66,-4.37 0,0 -5.57,-1.09 -7.54,-1.42 -1.97,-0.33 -5.13,-0.22 -5.13,-0.22 0,0 1.2,5.14 -5.9,8.74 -7.1,3.61 -11.37,0 -11.37,0 z" id="path4913" inkscape:connector-curvature="0" />
</svg>
