<?xml version="1.0" encoding="UTF-8" standalone="no"?>
<!-- Created with Inkscape (http://www.inkscape.org/) -->
<svg
    xmlns:inkscape="http://www.inkscape.org/namespaces/inkscape"
    xmlns:rdf="http://www.w3.org/1999/02/22-rdf-syntax-ns#"
    xmlns="http://www.w3.org/2000/svg"
    xmlns:sodipodi="http://sodipodi.sourceforge.net/DTD/sodipodi-0.dtd"
    xmlns:i="http://ns.adobe.com/AdobeIllustrator/10.0/"
    xmlns:cc="http://creativecommons.org/ns#"
    xmlns:xlink="http://www.w3.org/1999/xlink"
    xmlns:dc="http://purl.org/dc/elements/1.1/"
    xmlns:svg="http://www.w3.org/2000/svg"
    xmlns:ns1="http://sozi.baierouge.fr"
    id="svg2"
    sodipodi:docname="zombieactive.svg"
    viewBox="0 0 880 880"
    sodipodi:version="0.32"
    version="1.0"
    inkscape:output_extension="org.inkscape.output.svg.inkscape"
    inkscape:version="0.48.0 r9654"
  >
  <sodipodi:namedview
      id="base"
      inkscape:zoom="0.64090905"
      height="1000px"
      borderopacity="1.0"
      inkscape:current-layer="layer1"
      inkscape:cx="154.4681"
      inkscape:cy="440.00003"
      inkscape:grid-points="true"
      inkscape:window-maximized="0"
      showgrid="false"
      width="1000px"
      inkscape:document-units="px"
      bordercolor="#666666"
      inkscape:window-x="1"
      guidetolerance="10"
      objecttolerance="10"
      inkscape:window-y="3"
      inkscape:window-width="1440"
      inkscape:pageopacity="0.0"
      inkscape:pageshadow="2"
      pagecolor="#ffffff"
      gridtolerance="10000"
      inkscape:window-height="787"
    >
    <inkscape:grid
        id="GridFromPre046Settings"
        opacity=".2"
        color="#0000ff"
        originy="0px"
        originx="0px"
        empspacing="10"
        spacingy="10px"
        spacingx="10px"
        empopacity="0.4"
        type="xygrid"
        empcolor="#0000ff"
    />
  </sodipodi:namedview
  >
  <g
      id="layer1"
      inkscape:label="Layer 1"
      inkscape:groupmode="layer"
      transform="translate(-60 -60)"
    >
    <path
        id="path4123"
        sodipodi:rx="300"
        sodipodi:ry="300"
        style="stroke:#000000;stroke-width:15;fill:#ffff00"
        sodipodi:type="arc"
        d="m800 600c0 165.69-134.31 300-300 300s-300-134.31-300-300 134.31-300 300-300 300 134.31 300 300z"
        transform="matrix(1.4309 0 0 1.4309 -215.45 -358.54)"
        sodipodi:cy="600"
        sodipodi:cx="500"
    />
    <path
        id="path3126"
        style="fill:#000000"
        d="m664.59 431.69c-0.73-0.01-1.18 0.39-1 1.5l2.66 16.47-2.81 16.84-1.53 5.34c-2.53-4.96-4.07-5.01-8.91-5.81l1.88-11.22-0.66-10.84s-3.68-8.78-7.44-9.59c-1.57-0.35-3.36 0.96-3.78 2.5-0.82 3.04 3.66 9.31 3.66 9.31l-2.07 8.34-1.75 10.66-5.75 0.97s-9.65 4.65-11.97 9.28c-1.18 2.36 0.41 5.78-0.46 8.31-0.63 1.82-3.25 4.53-3.25 4.53l-28.85 19.13-40.09-29.97-62.91-16.35 55.6 21.19-58.38 6.19 46.41 13.31 8.53 12.91-33.75-10.16 12.37 25.13c-15.18-12.47-31.58-24.88-49.12-37.22-19.22 25.48-36.97 14.16-62.44 0-10.87 120.14-41.78 230.29-168.78 292.37 123.76 71.46 276.24 71.46 400 0 5.36-17.22 7.87-34.3 7.72-51.25 23.82-34.49 46.23-71.94 72.5-103.68l-3.03-3.13c5.15-4.8 10.48-9.33 16.47-13.25 11.22-8.21 23.02-16.01 32.37-26.19 1.99-2.16 4.45-4.07 6.19-6.37l6.22-27.63c-4.31-6.5-4.01-13.53-12.91-19.53-1.34-1.34-11.93-5.62-9.81 0.44 2.11 6.06 14.59 7.52 11.31 18.78-1.44 4.82-1.87 14.26-4.5 16.25-2.25-2.81-3.05-6.01-0.56-8.41 0.9-1.82 1.49-3.58 1.91-5.46-2.94-6.66-4.72-13.2-7.66-19.85-2.88-1.74-5.7-7.69-8.66-5.25-2.95 2.44-1.73 10.1 2.72 13.84 1.5 2.32 3.72 4.57 4.78 6.94l-3.62 15.47-6.19 2.59c0.16-12.44 0.3-25.15-1.91-37.62-2.18-2.94-3.95-7.1-6.53-8.78-2.57-1.68-8.4-4.37-7.09-0.03s8.35 11.99 6.72 18.75c-0.14 8.59-0.5 12.41-1.28 20.9-3.81-2.12-7.24 0.51-7-4.87 0.22-5.97-3.73-10.72-3.5-16.69-2.23-3.47-3.98-8.27-6.69-10.4-2.71-2.14-7.09-1.77-4.97 4.37s6.89 9.86 5.81 15.47l0.07 15.62c-6.06 6.5-12.52 12.73-17.63 19.94l-4.06 17.66-1.35 1.28-27.93-4.25-36.47-36.69 1.68 58.41-4.59-46.03-12.53 57.12c-2.24-3.61-4.6-7.21-7.06-10.81l-4.75-17.69-1.35 9.13c-9.56-13.01-20.56-25.95-32.93-38.82l38.28-38.43 33.06-19.66 22.37-12.03 9.72-6.44 9.6-14.81 8.18-23.84v-13.47s0.78-11.87-3.24-12.57l-3.6-0.56c-4.45-0.76-0.34 13.13-0.34 13.13l0.28 16.28-7.22 17.84-1.31-1.34 4.97-12.81 0.93-17.1s1.46-15.77-3.78-15.72l-2.84-0.06c-4.78 0.05 0.44 15.31 0.44 15.31l-1.91 16.22-4.34 11.35-1.91-2.91 2.72-9.35 2.56-15.81s-0.06-11.41-3.91-14.75c-0.84-0.74-2.8-1.86-4.03-1.87z"
        transform="translate(60 60)"
    />
    <path
        id="path3112"
        style="fill:#000000"
        d="m296.62 164.02-2.5474 4.1217c-1.0625 0.68775-1.6542 1.5872-2.7914 2.1013-1.3426 3.0942-2.6348 5.9867-3.9199 8.7584l-8.8935 14.374-2.3026-2.8497-16.125 26.727-19.45-22.863c-108.82 92.63-159.95 236.28-134.14 376.83l9.4974-1.7443c-0.35889 3.1678-0.66027 6.3264-0.82999 9.4936-1.163 21.704-1.0108 44.931 7.7804 63.642 8.5558 18.209 25.058 30.715 40.888 41.325 12.074 8.0927 25.031 15.211 38.439 20.9 13.41 5.6844 27.308 9.8482 41.648 11.732 16.591 5.3294 34.49 0.003 51.169-5.1084 10.305-2.6812 3.4321-6.5679-3.1989-8.5948 20.951-10.137 37.591-27.918 48.735-50.541 20.428-8.5631 50.416-13.923 31.662-44.196 2.1009-3.0152 2.2935-11.696 14.141-20.231-19.976-10.881-15.358-43.017-5.318-41.758 1.7647-4.2694 11.043 7.073 19.174 13.922-0.89775 0.69548-1.7447 1.806-1.9107 2.2255 0.27614-0.0748 1.0407-0.4368 2.2224-1.3931 0.21353 0.021 0.38987 0.008 0.60656 0.0157 0.30356 0.2447 0.58591 0.62882 0.88756 0.85371 0.12179-0.41424 0.10965-0.58489 0.15495-0.88632 14.387-0.023 25.919-16.454 26.478-24.848 0.69289-10.395-3.269-16.926-8.9031-22.353l24.097-4.4256c-4.9039-16.861-2.4401-42.098 16.457-56.75-58.955-29.559-107.93-61.422-92.129-108.23l22.291-12.704-3.983-9.404 7.169-1.7932 3.5622 5.3826c2.6457 5.7791 7.1316 14.201 11.677 16.697 0.93681 2.9009 3.3086 3.8944 5.4013 2.2488 0.009 0.008 0.0265 0.0152 0.0363 0.0251 3.5166 1.2733 4.1574 0.17265 2.7444-11.18-1.7909-14.391-4.4194-31.245-6.4339-43.681 0.006-2.6184 0.0163-5.2275 0.0615-6.2387 0.10176-2.272-0.78937-4.5637-2.1213-6.1874-0.34201-2.0266-0.71753-4.2528-0.71753-4.2528l-4.8124 1.9959c-0.1326 0.0425-0.24696 0.13768-0.37699 0.19633l-0.32681 0.12357-6.9714 2.869c-4.4456 1.653-9.0364 3.2165-9.0364 3.2165l-3.2612 1.9652-11.094 4.6428-3.2253-7.7003-11.904 8.1913-1.772-1.5174-1.2402 3.6274-6.4126 4.355-3.2229-1.6322-9.5477 9.6014-0.67181 1.013c-40.15-0.0983-57.004-18.012-47.644-55.971l7.3531-23.973 15.304 0.46187-9.3298-4.6092-3.9304-4.9655 4.5377-5.5675 12.974-0.63524c10.5 1.8508 25.637 3.989 31.071 1.8872 0.0527-0.0178 0.12598-0.0437 0.17878-0.0646 0.214-0.0895 0.42662-0.2302 0.60594-0.33369 0.25998-0.14393 0.49442-0.26549 0.71195-0.44849 2.91-1.7878 3.3333-2.7651 1.678-4.1844-0.0148-0.24769-0.0561-0.50092-0.10479-0.7433-0.6958-3.5172-6.425-5.7464-6.425-5.7464-4.1832-2.6027-8.4733-5.1294-12.639-7.7506-8.2156-6.7294-15.898-13.397-21.894-18.697-1.1031-1.4879-2.1055-3.0259-3.0522-4.6819-1.0901-0.26976-2.0138-0.44514-2.8716-0.58464-2.4357-2.1845-3.9166-3.5064-3.9166-3.5064z"
        inkscape:transform-center-x="214.18348"
        inkscape:transform-center-y="-58.792647"
        inkscape:connector-curvature="0"
        sodipodi:nodetypes="ccccccccccsssccccccccccccccsccccccccccccccccccccccccccccccccccccccccccccccccccc"
    />
    <path
        id="path4333-7"
        sodipodi:nodetypes="cssscccssccsccccccccccccccc"
        style="fill:#000000"
        inkscape:connector-curvature="0"
        d="m503.17 452.8c4.2333 0.009 8.4972 0.44496 12.627 1.2399 5.4136 1.0422 11.206 2.516 15.463 6.3855 4.3748 3.976 6.8975 10.112 8.8998 15.995 2.0346 5.9771 2.7789 12.522 2.948 18.909 0.008 3.556-2.84 5.8154-4.2274 8.7413-1.8717 3.0715-3.7502 6.1628-5.6179 9.2373-3.3734 0.39557-4.8043 6.1682-8.7886 3.8437-0.77973-0.45493-2.0351 1.0516-2.8368 1.6739-3.3324 2.5868-4.9888 7.5672-6.6192 13.143 8.565 26.664-32.574 12.728-39.66 0.31027-4.9766-5.1076-13.017-2.0793-15.408-9.4233-0.74474-2.2873 0.61702-7.9327 4.5055-9.5473-0.0203-0.0849-0.0438-0.12446-0.0555-0.24805 0.10531 0.0261 0.22562 0.0931 0.33377 0.12403 0.0591-0.0218 0.10693-0.0435 0.16688-0.0618 0.21752-0.38556 0.37832-0.56929 0.445-0.61999-0.004 0.12968-0.10937 0.52133-0.27787 0.80598 2.9301 0.9061 6.6533 2.8787 6.6748 1.5498 2.8498-0.78862 0.66758-9.8266-5.8961-10.477 2.2929-3.5863 1.4224-5.9095 1.6687-6.9435-8.3034-5.9268-0.77248-10.698 3.838-15.251 0.5988-7.2416 3.2034-13.818 7.7873-18.847-2.0096 0.20409-4.2806-0.0592-1.78-1.9218 3.965-3.2193 8.2383-6.6251 13.294-7.0675 4.079-1.1038 8.282-1.5572 12.515-1.5498z"
    />
    <g
        id="g3130"
        style="fill:#1a1a1a"
        transform="matrix(1.0695 .47040 .50103 -1.2193 -2542.8 1771)"
    />
    <g
        id="g3138"
        style="fill:#1a1a1a"
        transform="matrix(-.053117 .89946 1.0307 .10572 -1973 -1498.2)"
    />
    <path
        id="path3154"
        sodipodi:nodetypes="cssccccccccccccccsccccccccccccccscccccsccccccccccccsccccccccccccccccccccccccccccccccccccccccccccccccccccccccscccccccccccccccccccccssccccccccscc"
        style="fill:#000000"
        inkscape:connector-curvature="0"
        d="m503.68 148.25c-1.5734-0.0479-3.1275 0.0591-4.5938 0.40625-3.8052 0.90098-6.8217 3.4232-9.4375 5.875-1.9952 1.8701-3.8229 3.9362-5.4062 6.125-1.5826 2.1892-2.893 4.5164-3.7812 7-1.6315 2.7665-1.273 6.1129-0.90625 9.25 0.13517 1.922 1.1489 0.82792 1.7812-0.28125 1.173 4.067 3.9479 7.6572 7.875 10.406 0.89056 3.9206 0.81982 9.3964 7.3125 7.0938 0.50077 0.4758 2.1745 0.82374 3.375 3.2188 2.8201-3.1791 8.7981-1.2723 8.1875 0.46875 0.75355 0.45872-1.7632 1.7257-3.375 2.9375-0.10028-0.18315-0.27075-0.36075-0.34375-0.40625 0.004 0.0516 0.0476 0.19505 0.1875 0.4375-0.0119 0.0372-0.0213 0.0557-0.0312 0.0937-0.0581 0.0456-0.1333 0.0793-0.1875 0.125 0.0753 0.0354 0.10025 0.0442 0.15625 0.0625-0.52448 2.557 2.1927 5.1777 3.7812 5.5625 5.1006 1.2356 6.3734-3.9562 11.156-4.8125l2.625 5.2188-0.875 2-0.0312 0.0312v0.0312l-17.281 40.438-5.4375 6.4375c-15.429 13.343-27.072 33.137-41.938 48.375l1 1c-1.8168 1.4348-3.6564 2.7828-5.75 3.9375-3.9331 2.433-8.0625 4.7522-11.375 7.8125-0.70538 0.64988-1.5657 1.2109-2.1875 1.9062l-2.4375 8.5c1.4074 2.0535 1.2352 4.2152 4.2188 6.1562 0.44565 0.42699 4.0037 1.8646 3.3438-0.0312-0.65994-1.8958-4.9001-2.4858-3.6562-5.9375 0.54558-1.476 0.79728-4.3778 1.7188-4.9688 0.74038 0.89118 0.97215 1.8757 0.0937 2.5938-0.32701 0.55612-0.52502 1.107-0.6875 1.6875 0.93548 2.0869 1.4708 4.1006 2.4062 6.1875 0.96604 0.56773 1.8682 2.4446 2.9062 1.7188 1.038-0.72584 0.70497-3.111-0.78125-4.3125-0.49003-0.73159-1.2254-1.4445-1.5625-2.1875l1.375-4.75 2.1562-0.75c-0.18912 3.8502-0.37242 7.7777 0.25 11.656 0.71568 0.93139 1.2922 2.2365 2.1562 2.7812 0.86404 0.54475 2.84 1.4487 2.4375 0.0937-0.40254-1.3549-2.7562-3.799-2.125-5.875 0.13706-2.657 0.29711-3.8476 0.65625-6.4688 1.2822 0.69238 2.5128-0.0688 2.375 1.5938-0.13986 1.8457 1.1399 3.3418 1 5.1875 0.72431 1.0943 1.2818 2.5955 2.1875 3.2812 0.90573 0.68568 2.4093 0.60736 1.75-1.3125-0.65928-1.9199-2.2408-3.0862-1.8125-4.8125l0.125-4.8438c2.1418-1.9515 4.4245-3.8191 6.25-6l1.5938-5.4375 0.46875-0.375 9.5312 1.5938 12.094 11.688 0.0312-18.094 1.0938 14.281 5.625-20.156 3.0312 11.562 3.0312-15.344 5.5-3.125 3.0625-9.0938 10.531-17.5 11.844-11 0.4375-2.2188-0.15625 6.25-22.406 51.5-7.7188 9.6562-5.4062 6.1562-2.1875 3.0312-1 5.375 0.6875 7.7812 1.8438 3.8438s1.3578 3.4552 2.7188 3.1562l1.2188-0.28125c1.5054-0.33061-1.6875-3.7812-1.6875-3.7812l-2.3125-4.5938-0.15625-5.9375 0.59375 0.21875 0.1875 4.25 2.0312 4.9688s1.7042 4.6594 3.3438 4l0.90625-0.34375c1.4951-0.60128-2.2188-4.2812-2.2188-4.2812l-1.625-4.8438-0.1875-3.75 1 0.59375 0.40625 2.9688 1.3438 4.8125s1.5864 3.2422 3.25 3.7188c0.58739 0.16827 2.2115 0.24922 1.6562-0.53125l-3.0938-4.3438-1.4062-5.125-0.25-1.7188c1.4684 1.0983 1.9627 0.93172 3.5938 0.5625l0.9375 3.4062 1.6875 3s2.3331 2.073 3.625 1.8438c0.54007-0.0959 0.9534-0.69963 0.875-1.1875-0.15498-0.96497-2.4375-2.2188-2.4375-2.2188l-0.46875-2.625-0.90625-3.2188 1.6562-1s2.4016-2.4933 2.5-4.0938c0.0503-0.81769-0.89855-1.6106-0.96875-2.4375-0.0504-0.59366 0.40625-1.6875 0.40625-1.6875l6.4688-8.9688 16.688 3.5625 22-3.0938-20.375 0.84375 17.531-8.9375-16.406 1.9062-4.4375-2.5938 11.969-1.2812-10.719-8.2188 9.9375-0.59375 14.469-35.312c20.786 24.714 37.824 40.301 51.25 48.688-67.083 26.323-51.189 83.762-74.41 126.53 24.113 13.874 21.943 31.181 30.594 52.844 112.05 2.3428 218.1-94.431 336.16 7.06 0.00002-142.91-76.24-274.95-200-346.41-15.815 37.138 7.7282 91.918-60.844 105.41-0.97151-3.0084-2.0405-6.0632-3.2188-9.1875-4.9926 0.49481-22.512-8.8772-26.656-11.312l-14.688-24.625s-10.095-15.026-17.594-20.594c-6.8646-5.0972-15.18-9.8344-23.812-10.812-3.6469-0.41317-10.312 2.25-10.312 2.25l-0.0625 0.0937-9.7812-4.125c-2.5878-2.7221-4.8224-5.2785-5.0625-7.875-0.0577-0.62462-0.45771-1.7808 0.0937-2.0312 2.8178-1.2798 0.0627-3.964 1.0938-5.8438-1.0657-2.0025-2.1563-3.9964-3.2188-6-1.1596-1.7038-1.3652-3.9628-3.4062-5.1562-3.7231-2.0634-7.7533-3.8839-11.938-4.8438-2.5737-0.59038-5.2838-1.1076-7.9062-1.1875z"
    />
  </g
  >
  <metadata
    >
    <rdf:RDF
      >
      <cc:Work
        >
        <dc:format
          >image/svg+xml</dc:format
        >
        <dc:type
            rdf:resource="http://purl.org/dc/dcmitype/StillImage"
        />
        <cc:license
            rdf:resource="http://creativecommons.org/licenses/publicdomain/"
        />
        <dc:publisher
          >
          <cc:Agent
              rdf:about="http://openclipart.org/"
            >
            <dc:title
              >Openclipart</dc:title
            >
          </cc:Agent
          >
        </dc:publisher
        >
        <dc:title
          >Zombieactive</dc:title
        >
        <dc:date
          >2011-09-10T17:04:51</dc:date
        >
        <dc:description
          >Watch out! The zombies are active tonight!</dc:description
        >
        <dc:source
          >https://openclipart.org/detail/159871/zombieactive-by-chovynz</dc:source
        >
        <dc:creator
          >
          <cc:Agent
            >
            <dc:title
              >chovynz</dc:title
            >
          </cc:Agent
          >
        </dc:creator
        >
        <dc:subject
          >
          <rdf:Bag
            >
            <rdf:li
              >circle</rdf:li
            >
            <rdf:li
              >radioactive</rdf:li
            >
            <rdf:li
              >symbol</rdf:li
            >
            <rdf:li
              >yellow</rdf:li
            >
            <rdf:li
              >zombie</rdf:li
            >
          </rdf:Bag
          >
        </dc:subject
        >
      </cc:Work
      >
      <cc:License
          rdf:about="http://creativecommons.org/licenses/publicdomain/"
        >
        <cc:permits
            rdf:resource="http://creativecommons.org/ns#Reproduction"
        />
        <cc:permits
            rdf:resource="http://creativecommons.org/ns#Distribution"
        />
        <cc:permits
            rdf:resource="http://creativecommons.org/ns#DerivativeWorks"
        />
      </cc:License
      >
    </rdf:RDF
    >
  </metadata
  >
</svg
>
